S0 -> S1 [label="11 [0, 0, 0, 0, 0, 0, 0, 0, 0, 0, 0, 0, 0, 0, 0, 0, 0, 0, 0, 0, 0, 0, 0, 0, 0, 0, 0, 0, 0, 0, 0, 0, 0, 0, 0, 0, 0, 0, 0, 0, 0, 0, 0, 0, 0, 0, 0, 0, 0, 0, 0, 0, 0, 0, 0, 0, 0, 0, 0, 0, 0, 0, 0, 0, 0, 0, 0, 0, 0, 0, 0, 0, 0, 0, 0, 0] p=0.25"]
S0 -> S12 [label="1 [0, 0, 0, 0, 0, 0, 0, 0, 0, 0, 0, 0, 0, 0, 0, 0, 0, 0, 0, 0, 0, 0, 0, 0, 0, 0, 0, 0, 0, 0, 0, 0, 0, 0, 0, 0, 0, 0, 0, 0, 0, 0, 0, 0, 0, 0, 0, 0, 0, 0, 0, 0, 0, 0, 0, 0, 0, 0, 0, 0, 0, 0, 0, 0, 0, 0, 0, 0, 0, 0, 0, 0, 0, 0, 0, 0, 0, 0, 0, 0, 0, 0, 0, 0, 0, 0, 0, 0, 0, 0, 0, 0, 0, 0, 0, 0, 0, 0, 0, 0, 0, 0, 0, 0, 0, 0, 0, 0, 0, 0, 0, 0, 0, 0, 0, 0, 0, 0, 0, 0, 0, 0, 0, 0, 0, 0, 0, 0, 0, 0, 0, 0, 0, 0, 0, 0, 0, 0, 0, 0, 0, 0, 0, 0, 0, 0, 0, 0, 0, 0] p=0.5"]
S0 -> S3 [label="21 [0, 0, 0, 0, 0, 0, 0, 0, 0, 0, 0, 0, 0, 0, 0, 0, 0, 0, 0, 0, 0, 0, 0, 0, 0, 0, 0, 0, 0, 0, 0, 0, 0, 0, 0, 0, 0, 0, 0, 0, 0, 0, 0, 0, 0, 0, 0, 0, 0, 0, 0, 0, 0, 0, 0, 0, 0, 0, 0, 0, 0, 0, 0, 0, 0, 0, 0, 0, 0, 0, 0, 0, 0, 0, 0] p=0.25"]
S1 -> S2 [label="1 [2527, 4153, 4153, 4153, 4093, 4093, 4092, 4094, 4092, 4092, 4092, 4033, 4093, 4093, 4093, 4092, 4033, 3972, 3972, 4093, 4092, 4093, 4093, 4153, 4093, 4093, 4033, 4092, 4152, 4094, 4093, 4093, 4032, 4094, 4092, 4093, 4153, 4213, 4272, 4273, 4273, 4211, 4212, 4272, 4153, 4153, 4151, 4213, 4153, 4153, 4151, 4153, 4153, 4212, 4152, 4213, 4274, 1873, 3252, 4333, 1873, 3311, 1872, 3312, 1874, 3252, 1873, 3253, 4213, 4273, 4273, 4272, 4273, 4213, 4213, 4153, 4153, 4153, 4093, 4093, 4092, 4094, 4092, 4092, 4092, 4033, 4093, 4093, 4093, 4092, 4033, 3972, 3972, 4093, 4092, 4093, 4093, 4153, 4093, 4093, 4033, 4092, 4152, 4094, 4093, 4093, 4032, 4094, 4092, 4093, 4153, 4213, 4272, 4273, 4273, 4211, 4212, 4272, 4153, 4153, 4151, 4213, 4153, 4153, 4151, 4153, 4153, 4212, 4152, 4213, 4274, 1873, 3252, 4333, 1873, 3311, 1872, 3312, 1874, 3252, 1873, 3253, 4213, 4273, 4273, 4272, 4273, 4213, 4213, 4153, 4153, 4153, 4093, 4093, 4092, 4094, 4092, 4092, 4092, 4033, 4093, 4093, 4093, 4092, 4033, 3972, 3972, 4093, 4092, 4093, 4093, 4153, 4093, 4093, 4033, 4092, 4152, 4094, 4093, 4093, 4032, 4094, 4092, 4093, 4153, 4213, 4272, 4273, 4273, 4211, 4212, 4272, 4153, 4153, 4151, 4213, 4153, 4153, 4151, 4153, 4153, 4212, 4152, 4213, 4274, 1873, 3252, 4333, 1873, 3311, 1872, 3312, 1874, 3252, 1873, 3253, 4213, 4273, 4273, 4272, 4273, 4213, 4213, 4153, 4153, 4153, 4093, 4093, 4092, 4094, 4092, 4092, 4092, 4033, 4093, 4093, 4093, 4092, 4033, 3972, 3972, 4093, 4092, 4093, 4093, 4153, 4093, 4093, 4033, 4092, 4152, 4094, 4093, 4093, 4032, 4094, 4092, 4093, 4153, 4213, 4272, 4273, 4273, 4211, 4212, 4272, 4153, 4153, 4151, 4213, 4153, 4153, 4151, 4153, 4153, 4212, 4152, 4213, 4274, 1873, 3252, 4333, 1873, 3311, 1872, 3312, 1874, 3252, 1873, 3253, 4213, 4273, 4273, 4272, 4273, 4213, 4213, 4153, 4153, 4153, 4093, 4093, 4092, 4094, 4092, 4092, 4092, 4033, 4093, 4093, 4093, 4092, 4033, 3972, 3972, 4093, 4092, 4093, 4093, 4153, 4093, 4093, 4033, 4092, 4152, 4094, 4093, 4093, 4032, 4094, 4092, 4093, 4153, 4213, 4272, 4273, 4273, 4211, 4212, 4272, 4153, 4153, 4151, 4213, 4153, 4153, 4151, 4153, 4153, 4212, 4152, 4213, 4274, 1873, 3252, 4333, 1873, 3311, 1872, 3312, 1874, 3252, 1873, 3253, 4213, 4273, 4273, 4272, 4273, 4213, 4213, 4153, 4153, 4093, 4093, 4092, 4094, 4092, 4092, 4092, 4033, 4093, 4093, 4093, 4092, 4033, 3972, 3972, 4093, 4092, 4093, 4093, 4153, 4093, 4093, 4033, 4092, 4152, 4094, 4093, 4093, 4032, 4094, 4092, 4093, 4153, 4213, 4272, 4273, 4273, 4211, 4212, 4272, 4153, 4153, 4151, 4213, 4153, 4153, 4151, 4153, 4153, 4212, 4152, 4213, 4274, 1873, 3252, 4333, 1873, 3311, 1872, 3312, 1874, 3252, 1873, 3253, 4213, 4273, 4273, 4272, 4273, 4213, 4213, 4153, 4153, 4093, 4093, 4092, 4094, 4092, 4092, 4092, 4033, 4093, 4093, 4093, 4092, 4033, 3972, 3972, 4093, 4092, 4093, 4093, 4153, 4093, 4093, 4033, 4092, 4152, 4094, 4093, 4093, 4032, 4094, 4092, 4093, 4153, 4213, 4272, 4273, 4273, 4211, 4212, 4272, 4153, 4153, 4151, 4213, 4153, 4153, 4151, 4153, 4153, 4212, 4152, 4213, 4274, 1873, 3252, 4333, 1873, 3311, 1872, 3312, 1874, 3252, 1873, 3253, 4213, 4273, 4273, 4272, 4273, 4213, 4213, 4153, 4153, 4093, 4093, 4092, 4094, 4092, 4092, 4092, 4033, 4093, 4093, 4093, 4092, 4033, 3972, 3972, 4093, 4092, 4093, 4093, 4153, 4093, 4093, 4033, 4092, 4152, 4094, 4093, 4093, 4032, 4094, 4092, 4093, 4153, 4213, 4272, 4273, 4273, 4211, 4212, 4272, 4153, 4153, 4151, 4213, 4153, 4153, 4151, 4153, 4153, 4212, 4152, 4213, 4274, 1873, 3252, 4333, 1873, 3311, 1872, 3312, 1874, 3252, 1873, 3253, 4213, 4273, 4273, 4272, 4273, 4213, 4213, 4153, 4153, 4093, 4093, 4092, 4094, 4092, 4092, 4092, 4033, 4093, 4093, 4093, 4092, 4033, 3972, 3972, 4093, 4092, 4093, 4093, 4153, 4093, 4093, 4033, 4092, 4152, 4094, 4093, 4093, 4032, 4094, 4092, 4093, 4153, 4213, 4272, 4273, 4273, 4211, 4212, 4272, 4153, 4153, 4151, 4213, 4153, 4153, 4151, 4153, 4153, 4212, 4152, 4213, 4274, 1873, 3252, 4333, 1873, 3311, 1872, 3312, 1874, 3252, 1873, 3253, 4213, 4273, 4273, 4272, 4273, 4213, 4213, 4153, 4093, 4093, 4092, 4094, 4092, 4092, 4092, 4033, 4093, 4093, 4093, 4092, 4033, 3972, 3972, 4093, 4092, 4093, 4093, 4153, 4093, 4093, 4033, 4092, 4152, 4094, 4093, 4093, 4032, 4094, 4092, 4093, 4153, 4213, 4272, 4273, 4273, 4211, 4212, 4272, 4153, 4153, 4151, 4213, 4153, 4153, 4151, 4153, 4153, 4212, 4152, 4213, 4274, 1873, 3252, 4333, 1873, 3311, 1872, 3312, 1874, 3252, 1873, 3253, 4213, 4273, 4273, 4272, 4273, 4213, 4213] p=1.0"]
S12 -> S3 [label="21 [6, 6, 6, 6, 7, 7, 6, 6, 6, 6, 8, 6, 7, 6, 6, 8, 6, 7, 7, 7, 6, 7, 7, 6, 6, 7, 6, 6, 7, 6, 7, 7, 7, 5, 7, 6, 7, 6, 7, 7, 6, 6, 6, 8, 6, 7, 8, 6, 8, 6, 6, 6, 6, 7, 6, 6, 6, 7, 6, 7, 8, 7, 7, 7, 6, 7, 7, 6, 7, 6, 6, 8, 6, 6, 7] p=0.5"]
S12 -> S1 [label="11 [7, 7, 7, 7, 7, 8, 6, 7, 7, 6, 7, 6, 7, 7, 6, 6, 8, 7, 7, 6, 6, 7, 7, 6, 6, 7, 8, 6, 6, 6, 6, 6, 6, 7, 6, 6, 7, 8, 6, 6, 7, 7, 7, 7, 6, 7, 6, 6, 7, 8, 7, 6, 7, 8, 7, 6, 7, 7, 6, 7, 8, 7, 6, 7, 7, 7, 7, 6, 7, 6, 6, 6, 7, 6, 7] p=0.5"]
S3 -> S4 [label="1 [35, 34, 35, 34, 33, 33, 35, 35, 35, 36, 34, 34, 35, 34, 35, 34, 34, 34, 34, 35, 35, 34, 34, 35, 35, 34, 34, 36, 34, 35, 34, 35, 35, 35, 35, 35, 34, 34, 35, 34, 36, 36, 34, 34, 34, 35, 34, 35, 34, 34, 35, 35, 35, 34, 34, 35, 34, 34, 35, 33, 33, 35, 35, 33, 34, 34, 34, 34, 34, 35, 36, 34, 34, 36, 33, 34, 35, 34, 33, 33, 35, 35, 35, 36, 34, 34, 35, 34, 35, 34, 34, 34, 34, 35, 35, 34, 34, 35, 35, 34, 34, 36, 34, 35, 34, 35, 35, 35, 35, 35, 34, 34, 35, 34, 36, 36, 34, 34, 34, 35, 34, 35, 34, 34, 35, 35, 35, 34, 34, 35, 34, 34, 35, 33, 33, 35, 35, 33, 34, 34, 34, 34, 34, 35, 36, 34, 34, 36, 33, 34, 35, 34, 33, 33, 35, 35, 35, 36, 34, 34, 35, 34, 35, 34, 34, 34, 34, 35, 35, 34, 34, 35, 35, 34, 34, 36, 34, 35, 34, 35, 35, 35, 35, 35, 34, 34, 35, 34, 36, 36, 34, 34, 34, 35, 34, 35, 34, 34, 35, 35, 35, 34, 34, 35, 34, 34, 35, 33, 33, 35, 35, 33, 34, 34, 34, 34, 34, 35, 36, 34, 34, 36, 33, 34, 35, 34, 33, 33, 35, 35, 35, 36, 34, 34, 35, 34, 35, 34, 34, 34, 34, 35, 35, 34, 34, 35, 35, 34, 34, 36, 34, 35, 34, 35, 35, 35, 35, 35, 34, 34, 35, 34, 36, 36, 34, 34, 34, 35, 34, 35, 34, 34, 35, 35, 35, 34, 34, 35, 34, 34, 35, 33, 33, 35, 35, 33, 34, 34, 34, 34, 34, 35, 36, 34, 34, 36, 33, 34, 35, 34, 33, 33, 35, 35, 35, 36, 34, 34, 35, 34, 35, 34, 34, 34, 34, 35, 35, 34, 34, 35, 35, 34, 34, 36, 34, 35, 34, 35, 35, 35, 35, 35, 34, 34, 35, 34, 36, 36, 34, 34, 34, 35, 34, 35, 34, 34, 35, 35, 35, 34, 34, 35, 34, 34, 35, 33, 33, 35, 35, 33, 34, 34, 34, 34, 34, 35, 36, 34, 34, 36, 33, 35, 34, 33, 33, 35, 35, 35, 36, 34, 34, 35, 34, 35, 34, 34, 34, 34, 35, 35, 34, 34, 35, 35, 34, 34, 36, 34, 35, 34, 35, 35, 35, 35, 35, 34, 34, 35, 34, 36, 36, 34, 34, 34, 35, 34, 35, 34, 34, 35, 35, 35, 34, 34, 35, 34, 34, 35, 33, 33, 35, 35, 33, 34, 34, 34, 34, 34, 35, 36, 34, 34, 36, 33, 35, 34, 33, 33, 35, 35, 35, 36, 34, 34, 35, 34, 35, 34, 34, 34, 34, 35, 35, 34, 34, 35, 35, 34, 34, 36, 34, 35, 34, 35, 35, 35, 35, 35, 34, 34, 35, 34, 36, 36, 34, 34, 34, 35, 34, 35, 34, 34, 35, 35, 35, 34, 34, 35, 34, 34, 35, 33, 33, 35, 35, 33, 34, 34, 34, 34, 34, 35, 36, 34, 34, 36, 33, 35, 34, 33, 33, 35, 35, 35, 36, 34, 34, 35, 34, 35, 34, 34, 34, 34, 35, 35, 34, 34, 35, 35, 34, 34, 36, 34, 35, 34, 35, 35, 35, 35, 35, 34, 34, 35, 34, 36, 36, 34, 34, 34, 35, 34, 35, 34, 34, 35, 35, 35, 34, 34, 35, 34, 34, 35, 33, 33, 35, 35, 33, 34, 34, 34, 34, 34, 35, 36, 34, 34, 36, 33, 35, 34, 35, 34, 33, 33, 35, 35, 35, 36, 34, 34, 35, 34, 35, 34, 34, 34, 34, 35, 35, 34, 34, 35, 35, 34, 34, 36, 34, 35, 34, 35, 35, 35, 35, 35, 34, 34, 35, 34, 36, 36, 34, 34, 34, 35, 34, 35, 34, 34, 35, 35, 35, 34, 34, 35, 34, 34, 35, 33, 33, 35, 35, 33, 34, 34, 34, 34, 34, 35, 36, 34, 34, 36, 33, 35, 34, 35, 34, 33, 33, 35, 35, 35, 36, 34, 34, 35, 34, 35, 34, 34, 34, 34, 35, 35, 34, 34, 35, 35, 34, 34, 36, 34, 35, 34, 35, 35, 35, 35, 35, 34, 34, 35, 34, 36, 36, 34, 34, 34, 35, 34, 35, 34, 34, 35, 35, 35, 34, 34, 35, 34, 34, 35, 33, 33, 35, 35, 33, 34, 34, 34, 34, 34, 35, 36, 34, 34, 36, 33] p=1.0"]
S2 -> S3 [label="21 [6, 6, 6, 6, 7, 7, 6, 6, 6, 6, 8, 6, 7, 6, 6, 8, 6, 7, 7, 7, 6, 7, 7, 6, 6, 7, 6, 6, 7, 6, 7, 7, 7, 5, 7, 6, 7, 6, 7, 7, 6, 6, 6, 8, 6, 7, 8, 6, 8, 6, 6, 6, 6, 7, 6, 6, 6, 7, 6, 7, 8, 7, 7, 7, 6, 7, 7, 6, 7, 6, 6, 8, 6, 6, 7, 6, 6, 6, 7, 7, 6, 6, 6, 6, 8, 6, 7, 6, 6, 8, 6, 7, 7, 7, 6, 7, 7, 6, 6, 7, 6, 6, 7, 6, 7, 7, 7, 5, 7, 6, 7, 6, 7, 7, 6, 6, 6, 8, 6, 7, 8, 6, 8, 6, 6, 6, 6, 7, 6, 6, 6, 7, 6, 7, 8, 7, 7, 7, 6, 7, 7, 6, 7, 6, 6, 8, 6, 6, 7, 6, 6, 6, 7, 7, 6, 6, 6, 6, 8, 6, 7, 6, 6, 8, 6, 7, 7, 7, 6, 7, 7, 6, 6, 7, 6, 6, 7, 6, 7, 7, 7, 5, 7, 6, 7, 6, 7, 7, 6, 6, 6, 8, 6, 7, 8, 6, 8, 6, 6, 6, 6, 7, 6, 6, 6, 7, 6, 7, 8, 7, 7, 7, 6, 7, 7, 6, 7, 6, 6, 8, 6, 6, 7, 6, 6, 6, 7, 7, 6, 6, 6, 6, 8, 6, 7, 6, 6, 8, 6, 7, 7, 7, 6, 7, 7, 6, 6, 7, 6, 6, 7, 6, 7, 7, 7, 5, 7, 6, 7, 6, 7, 7, 6, 6, 6, 8, 6, 7, 8, 6, 8, 6, 6, 6, 6, 7, 6, 6, 6, 7, 6, 7, 8, 7, 7, 7, 6, 7, 7, 6, 7, 6, 6, 8, 6, 6, 7, 6, 6, 6, 7, 7, 6, 6, 6, 6, 8, 6, 7, 6, 6, 8, 6, 7, 7, 7, 6, 7, 7, 6, 6, 7, 6, 6, 7, 6, 7, 7, 7, 5, 7, 6, 7, 6, 7, 7, 6, 6, 6, 8, 6, 7, 8, 6, 8, 6, 6, 6, 6, 7, 6, 6, 6, 7, 6, 7, 8, 7, 7, 7, 6, 7, 7, 6, 7, 6, 6, 8, 6, 6, 7, 6, 6, 7, 7, 6, 6, 6, 6, 8, 6, 7, 6, 6, 8, 6, 7, 7, 7, 6, 7, 7, 6, 6, 7, 6, 6, 7, 6, 7, 7, 7, 5, 7, 6, 7, 6, 7, 7, 6, 6, 6, 8, 6, 7, 8, 6, 8, 6, 6, 6, 6, 7, 6, 6, 6, 7, 6, 7, 8, 7, 7, 7, 6, 7, 7, 6, 7, 6, 6, 8, 6, 6, 7, 6, 6, 7, 7, 6, 6, 6, 6, 8, 6, 7, 6, 6, 8, 6, 7, 7, 7, 6, 7, 7, 6, 6, 7, 6, 6, 7, 6, 7, 7, 7, 5, 7, 6, 7, 6, 7, 7, 6, 6, 6, 8, 6, 7, 8, 6, 8, 6, 6, 6, 6, 7, 6, 6, 6, 7, 6, 7, 8, 7, 7, 7, 6, 7, 7, 6, 7, 6, 6, 8, 6, 6, 7, 6, 6, 7, 7, 6, 6, 6, 6, 8, 6, 7, 6, 6, 8, 6, 7, 7, 7, 6, 7, 7, 6, 6, 7, 6, 6, 7, 6, 7, 7, 7, 5, 7, 6, 7, 6, 7, 7, 6, 6, 6, 8, 6, 7, 8, 6, 8, 6, 6, 6, 6, 7, 6, 6, 6, 7, 6, 7, 8, 7, 7, 7, 6, 7, 7, 6, 7, 6, 6, 8, 6, 6, 7, 6, 6, 7, 7, 6, 6, 6, 6, 8, 6, 7, 6, 6, 8, 6, 7, 7, 7, 6, 7, 7, 6, 6, 7, 6, 6, 7, 6, 7, 7, 7, 5, 7, 6, 7, 6, 7, 7, 6, 6, 6, 8, 6, 7, 8, 6, 8, 6, 6, 6, 6, 7, 6, 6, 6, 7, 6, 7, 8, 7, 7, 7, 6, 7, 7, 6, 7, 6, 6, 8, 6, 6, 7] p=1.0"]
S4 -> S1 [label="11 [7, 7, 7, 7, 7, 8, 6, 7, 7, 6, 7, 6, 7, 7, 6, 6, 8, 7, 7, 6, 6, 7, 7, 6, 6, 7, 8, 6, 6, 6, 6, 6, 6, 7, 6, 6, 7, 8, 6, 6, 7, 7, 7, 7, 6, 7, 6, 6, 7, 8, 7, 6, 7, 8, 7, 6, 7, 7, 6, 7, 8, 7, 6, 7, 7, 7, 7, 6, 7, 6, 6, 6, 7, 6, 7, 7, 7, 7, 7, 7, 8, 6, 7, 7, 6, 7, 6, 7, 7, 6, 6, 8, 7, 7, 6, 6, 7, 7, 6, 6, 7, 8, 6, 6, 6, 6, 6, 6, 7, 6, 6, 7, 8, 6, 6, 7, 7, 7, 7, 6, 7, 6, 6, 7, 8, 7, 6, 7, 8, 7, 6, 7, 7, 6, 7, 8, 7, 6, 7, 7, 7, 7, 6, 7, 6, 6, 6, 7, 6, 7, 7, 7, 7, 7, 7, 8, 6, 7, 7, 6, 7, 6, 7, 7, 6, 6, 8, 7, 7, 6, 6, 7, 7, 6, 6, 7, 8, 6, 6, 6, 6, 6, 6, 7, 6, 6, 7, 8, 6, 6, 7, 7, 7, 7, 6, 7, 6, 6, 7, 8, 7, 6, 7, 8, 7, 6, 7, 7, 6, 7, 8, 7, 6, 7, 7, 7, 7, 6, 7, 6, 6, 6, 7, 6, 7, 7, 7, 7, 7, 8, 6, 7, 7, 6, 7, 6, 7, 7, 6, 6, 8, 7, 7, 6, 6, 7, 7, 6, 6, 7, 8, 6, 6, 6, 6, 6, 6, 7, 6, 6, 7, 8, 6, 6, 7, 7, 7, 7, 6, 7, 6, 6, 7, 8, 7, 6, 7, 8, 7, 6, 7, 7, 6, 7, 8, 7, 6, 7, 7, 7, 7, 6, 7, 6, 6, 6, 7, 6, 7, 7, 7, 7, 7, 8, 6, 7, 7, 6, 7, 6, 7, 7, 6, 6, 8, 7, 7, 6, 6, 7, 7, 6, 6, 7, 8, 6, 6, 6, 6, 6, 6, 7, 6, 6, 7, 8, 6, 6, 7, 7, 7, 7, 6, 7, 6, 6, 7, 8, 7, 6, 7, 8, 7, 6, 7, 7, 6, 7, 8, 7, 6, 7, 7, 7, 7, 6, 7, 6, 6, 6, 7, 6, 7, 7, 7, 7, 7, 8, 6, 7, 7, 6, 7, 6, 7, 7, 6, 6, 8, 7, 7, 6, 6, 7, 7, 6, 6, 7, 8, 6, 6, 6, 6, 6, 6, 7, 6, 6, 7, 8, 6, 6, 7, 7, 7, 7, 6, 7, 6, 6, 7, 8, 7, 6, 7, 8, 7, 6, 7, 7, 6, 7, 8, 7, 6, 7, 7, 7, 7, 6, 7, 6, 6, 6, 7, 6, 7, 7, 7, 7, 7, 8, 6, 7, 7, 6, 7, 6, 7, 7, 6, 6, 8, 7, 7, 6, 6, 7, 7, 6, 6, 7, 8, 6, 6, 6, 6, 6, 6, 7, 6, 6, 7, 8, 6, 6, 7, 7, 7, 7, 6, 7, 6, 6, 7, 8, 7, 6, 7, 8, 7, 6, 7, 7, 6, 7, 8, 7, 6, 7, 7, 7, 7, 6, 7, 6, 6, 6, 7, 6, 7, 7, 7, 7, 8, 6, 7, 7, 6, 7, 6, 7, 7, 6, 6, 8, 7, 7, 6, 6, 7, 7, 6, 6, 7, 8, 6, 6, 6, 6, 6, 6, 7, 6, 6, 7, 8, 6, 6, 7, 7, 7, 7, 6, 7, 6, 6, 7, 8, 7, 6, 7, 8, 7, 6, 7, 7, 6, 7, 8, 7, 6, 7, 7, 7, 7, 6, 7, 6, 6, 6, 7, 6, 7, 7, 7, 7, 8, 6, 7, 7, 6, 7, 6, 7, 7, 6, 6, 8, 7, 7, 6, 6, 7, 7, 6, 6, 7, 8, 6, 6, 6, 6, 6, 6, 7, 6, 6, 7, 8, 6, 6, 7, 7, 7, 7, 6, 7, 6, 6, 7, 8, 7, 6, 7, 8, 7, 6, 7, 7, 6, 7, 8, 7, 6, 7, 7, 7, 7, 6, 7, 6, 6, 6, 7, 6, 7] p=1.0"]