S0 -> S1 [label="5 [0, 0, 0, 0, 0, 0, 0, 0, 0, 0, 0, 0, 0, 0, 0, 0, 0, 0, 0, 0, 0, 0, 0, 0, 0, 0, 0, 0, 0, 0, 0, 0, 0, 0, 0, 0, 0, 0, 0, 0, 0, 0, 0, 0, 0, 0, 0, 0, 0, 0, 0, 0, 0, 0, 0, 0, 0, 0, 0, 0, 0, 0, 0, 0, 0, 0, 0, 0, 0, 0, 0, 0, 0, 0, 0, 0, 0, 0, 0, 0, 0, 0, 0, 0, 0, 0, 0, 0, 0, 0, 0, 0, 0, 0, 0, 0, 0, 0, 0, 0, 0, 0, 0, 0, 0, 0, 0, 0, 0, 0, 0, 0] p=0.11"]
S0 -> S12 [label="4 [0, 0, 0, 0, 0, 0, 0, 0, 0, 0, 0, 0, 0, 0, 0, 0, 0, 0, 0, 0, 0, 0, 0, 0, 0, 0, 0, 0, 0, 0, 0, 0, 0, 0, 0, 0, 0, 0, 0, 0, 0, 0, 0, 0, 0, 0, 0, 0, 0, 0, 0, 0, 0, 0, 0, 0, 0, 0, 0, 0, 0, 0, 0, 0, 0, 0, 0, 0, 0, 0, 0, 0, 0, 0, 0, 0, 0, 0, 0, 0, 0, 0, 0, 0, 0, 0, 0, 0, 0, 0, 0, 0, 0, 0, 0, 0, 0, 0, 0, 0, 0, 0, 0, 0, 0, 0, 0, 0, 0, 0, 0, 0, 0, 0, 0, 0, 0, 0, 0, 0, 0, 0, 0, 0, 0, 0, 0, 0, 0, 0, 0, 0, 0, 0, 0, 0, 0, 0, 0, 0, 0, 0, 0, 0, 0, 0, 0, 0, 0, 0, 0, 0, 0, 0, 0, 0, 0, 0, 0, 0, 0, 0, 0, 0, 0, 0, 0, 0, 0, 0, 0, 0, 0, 0, 0, 0, 0, 0, 0, 0, 0, 0, 0, 0, 0, 0, 0, 0, 0, 0, 0, 0, 0, 0, 0, 0, 0, 0, 0, 0, 0, 0, 0, 0, 0, 0, 0, 0, 0, 0, 0, 0, 0, 0, 0, 0, 0, 0, 0, 0, 0, 0, 0, 0, 0, 0, 0, 0, 0, 0, 0, 0, 0, 0, 0, 0, 0, 0, 0, 0, 0, 0, 0, 0, 0, 0, 0, 0, 0, 0, 0, 0, 0, 0, 0, 0, 0, 0, 0, 0, 0, 0, 0, 0, 0, 0, 0, 0, 0, 0, 0, 0, 0, 0, 0, 0, 0, 0, 0, 0, 0, 0, 0, 0, 0, 0, 0, 0, 0, 0, 0, 0, 0, 0, 0, 0, 0, 0, 0, 0, 0, 0, 0, 0, 0, 0, 0, 0, 0, 0, 0, 0, 0, 0, 0, 0, 0, 0, 0, 0, 0, 0, 0, 0, 0, 0, 0, 0, 0, 0, 0, 0, 0, 0, 0, 0, 0, 0, 0, 0, 0, 0, 0, 0, 0, 0, 0, 0, 0, 0, 0, 0, 0, 0, 0, 0, 0, 0, 0, 0, 0, 0, 0, 0, 0, 0, 0, 0, 0, 0, 0] p=0.37"]
S0 -> S13 [label="3 [0, 0, 0, 0, 0, 0, 0, 0, 0, 0, 0, 0, 0, 0, 0, 0, 0, 0, 0, 0, 0, 0, 0, 0, 0, 0, 0, 0, 0, 0, 0, 0, 0, 0, 0, 0, 0, 0, 0, 0, 0, 0, 0, 0, 0, 0, 0, 0, 0, 0, 0, 0, 0, 0, 0, 0, 0, 0, 0, 0, 0, 0, 0, 0, 0, 0, 0, 0, 0, 0, 0, 0, 0, 0, 0, 0, 0, 0, 0, 0, 0, 0, 0, 0, 0, 0, 0, 0, 0, 0, 0, 0, 0, 0, 0, 0, 0, 0, 0, 0, 0, 0, 0, 0, 0, 0, 0, 0, 0, 0, 0, 0, 0, 0, 0, 0, 0, 0, 0, 0, 0, 0, 0, 0, 0, 0, 0, 0, 0, 0, 0, 0, 0, 0, 0, 0, 0, 0, 0, 0, 0, 0, 0, 0, 0, 0, 0, 0, 0, 0, 0, 0, 0, 0, 0, 0, 0, 0, 0, 0, 0, 0, 0, 0, 0, 0, 0, 0, 0, 0, 0, 0, 0, 0, 0, 0, 0, 0, 0, 0, 0, 0, 0, 0, 0, 0, 0, 0, 0, 0, 0, 0, 0, 0, 0, 0, 0, 0, 0, 0, 0, 0, 0, 0, 0, 0, 0, 0, 0, 0, 0, 0, 0, 0, 0, 0, 0, 0, 0, 0, 0, 0, 0, 0, 0, 0, 0, 0, 0, 0, 0, 0, 0, 0, 0, 0, 0, 0, 0, 0, 0, 0, 0, 0, 0, 0, 0, 0, 0, 0, 0, 0, 0, 0, 0, 0, 0, 0, 0, 0, 0, 0, 0, 0, 0, 0, 0, 0, 0, 0, 0, 0, 0, 0, 0, 0, 0, 0, 0, 0, 0, 0, 0, 0, 0, 0, 0, 0, 0, 0, 0, 0, 0, 0, 0, 0, 0, 0, 0, 0, 0, 0, 0, 0, 0, 0, 0, 0, 0, 0, 0, 0, 0, 0, 0, 0, 0, 0, 0, 0, 0, 0, 0, 0, 0, 0, 0, 0, 0, 0, 0, 0, 0, 0, 0, 0, 0, 0, 0, 0, 0, 0, 0, 0, 0, 0, 0, 0, 0, 0, 0, 0, 0, 0, 0, 0, 0, 0, 0, 0, 0, 0, 0, 0, 0, 0, 0, 0, 0, 0, 0, 0, 0, 0, 0, 0, 0, 0] p=0.38"]
S0 -> S4 [label="2 [0, 0, 0, 0, 0, 0, 0, 0, 0, 0, 0, 0, 0, 0, 0, 0, 0, 0, 0, 0, 0, 0, 0, 0, 0, 0, 0, 0, 0, 0, 0, 0, 0, 0, 0, 0, 0, 0, 0, 0, 0, 0, 0, 0, 0, 0, 0, 0, 0, 0, 0, 0, 0, 0, 0, 0, 0, 0, 0, 0, 0, 0, 0, 0, 0, 0, 0, 0, 0, 0, 0, 0, 0, 0, 0, 0, 0, 0, 0, 0, 0, 0, 0, 0, 0, 0, 0, 0, 0, 0, 0, 0, 0, 0, 0, 0, 0, 0, 0, 0, 0, 0, 0, 0, 0, 0, 0, 0, 0, 0, 0, 0, 0, 0, 0, 0, 0, 0, 0, 0, 0, 0, 0] p=0.12"]
S0 -> S5 [label="1 [0, 0, 0, 0, 0, 0] p=0.01"]
S0 -> S478 [label="6 [0, 0] p=0.0"]
S1 -> S2 [label="4 [269, 937, 1, 2, 940, 930, 1, 942, 9, 1, 922, 24, 910, 11, 1, 918, 938, 897, 2, 903, 17, 6, 1, 871, 934, 960, 11, 921, 930, 892, 897, 1, 2, 9, 890, 919, 943, 936, 928, 927, 929, 4, 915, 921, 14, 903, 1, 945, 939, 18, 910, 913, 924, 910, 932, 962, 1, 1, 7, 916, 942, 962, 942, 988, 962, 14, 931, 15, 946, 960, 4, 946, 942, 1, 941, 15, 936, 13, 920, 910, 956, 950, 15, 200, 960, 199, 1, 1, 964, 1820, 1, 971, 24, 1, 1832, 15, 1, 1838, 1812, 1796, 927, 1, 1, 942, 977, 945, 977, 944, 949, 954, 937, 1, 2, 940, 930, 1, 942, 9, 1, 922, 24, 910, 11, 1, 918, 938, 897, 2, 903, 17, 6, 1, 871, 934, 960, 11, 921, 930, 892, 897, 1, 2, 9, 890, 919, 943, 936, 928, 927, 929, 4, 915, 921, 14, 903, 1, 945, 939, 18, 910, 913, 924, 910, 932, 962, 1, 1, 7, 916, 942, 962, 942, 988, 962, 14, 931, 15, 946, 960, 4, 946, 942, 1, 941, 15, 936, 13, 920, 910, 956, 950, 15, 960, 1, 1, 964, 1820, 1, 971, 24, 1, 1832, 15, 1, 1838, 1812, 1796, 927, 1, 1, 942, 977, 945, 977, 944, 949, 954, 937, 1, 930, 1, 9, 24, 11, 938, 897, 2, 17, 934, 960, 11, 930, 892, 897, 1, 919, 943, 936, 928, 927, 929, 4, 921, 14, 1, 939, 18, 913, 924, 910, 932, 962, 1, 942, 962, 942, 988, 962, 14, 15, 960, 4, 942, 941, 15, 13, 910, 956, 950, 15, 960, 1, 1820, 1, 24, 15, 1812, 1796, 927, 1, 977, 945, 977, 944, 949, 954, 2, 942, 1, 910, 1, 903, 6, 921, 2, 915, 903, 945, 910, 1, 931, 946, 946, 1, 936, 920, 1, 971, 1, 1, 1, 2, 940, 942, 1, 922, 910, 1, 918, 903, 6, 1, 871, 921, 2, 9, 890, 915, 903, 945, 910, 1, 7, 916, 931, 946, 946, 1, 936, 920, 1, 964, 971, 1, 1832, 1, 1838, 1, 942, 2, 940, 942, 1, 922, 910, 1, 918, 903, 6, 1, 871, 921, 2, 9, 890, 915, 903, 945, 910, 1, 7, 916, 931, 946, 946, 1, 936, 920, 1, 964, 971, 1, 1832, 1, 1838, 1, 942, 940, 922, 918, 1, 9, 7, 964, 1832, 1838, 942, 940, 922, 918, 1, 871, 9, 890, 7, 916, 964, 1832, 1838, 942, 940, 922, 918, 1, 871, 9, 890, 7, 916, 964, 1832, 1838, 942, 871, 890, 916, 871, 890, 916, 871, 890, 916, 937, 1, 930, 1, 9, 24, 11, 938, 897, 2, 17, 934, 960, 11, 930, 892, 897, 1, 919, 943, 936, 928, 927, 929, 4, 921, 14, 1, 939, 18, 913, 924, 910, 932, 962, 1, 942, 962, 942, 988, 962, 14, 15, 960, 4, 942, 941, 15, 13, 910, 956, 950, 15, 960, 1, 1820, 1, 24, 15, 1812, 1796, 927, 1, 977, 945, 977, 944, 949, 954, 2, 942, 1, 910, 1, 903, 6, 921, 2, 915, 903, 945, 910, 1, 931, 946, 946, 1, 936, 920, 1, 971, 1, 1, 1, 940, 922, 918, 1, 9, 7, 964, 1832, 1838, 942, 871, 890, 916, 937, 1, 930, 1, 9, 24, 11, 938, 897, 2, 17, 934, 960, 11, 930, 892, 897, 1, 919, 943, 936, 928, 927, 929, 4, 921, 14, 1, 939, 18, 913, 924, 910, 932, 962, 1, 942, 962, 942, 988, 962, 14, 15, 960, 4, 942, 941, 15, 13, 910, 956, 950, 15, 960, 1, 1820, 1, 24, 15, 1812, 1796, 927, 1, 977, 945, 977, 944, 949, 954, 2, 942, 1, 910, 1, 903, 6, 921, 2, 915, 903, 945, 910, 1, 931, 946, 946, 1, 936, 920, 1, 971, 1, 1, 1, 940, 922, 918, 1, 9, 7, 964, 1832, 1838, 942, 1, 17, 11, 897, 936, 929, 1, 1, 942, 962, 14, 960, 4, 950, 960, 927, 1, 977, 2, 6, 921, 945, 1, 931, 946, 1, 940, 1, 7, 942, 1, 17, 11, 897, 936, 1, 1, 942, 962, 14, 960, 4, 950, 960, 927, 1, 977, 2, 6, 921, 945, 1, 931, 946, 1, 1, 17, 936, 1, 942, 962, 4, 950, 927, 1, 2, 6, 1, 946, 1, 942, 1, 910, 1, 903, 2, 915, 903, 910, 946, 1, 936, 920, 1, 971, 1, 1, 922, 918, 9, 964, 1832, 1838, 942, 1, 910, 1, 903, 2, 915, 903, 910, 946, 1, 936, 920, 1, 971, 1, 1, 1, 17, 936, 1, 942, 962, 4, 950, 927, 1, 1, 17, 936, 1, 942, 962, 4, 950, 927, 1, 942, 1, 1, 903, 2, 903, 910, 946, 1, 936, 920, 971, 1, 937, 930, 1, 9, 24, 11, 938, 897, 2, 934, 960, 930, 892, 1, 919, 943, 928, 927, 4, 921, 14, 939, 18, 913, 924, 910, 932, 962, 942, 962, 988, 15, 942, 941, 15, 13, 910, 956, 15, 1, 1820, 1, 24, 15, 1812, 1796, 977, 945, 944, 949, 954, 14, 960, 977, 11, 897, 1, 960, 11, 897, 1, 14, 960, 960, 977, 11, 897, 1, 14, 960, 960, 977, 929, 929, 929, 929, 921, 945, 931, 910, 915, 1, 1, 937, 930, 1, 9, 24, 11, 938, 897, 2, 934, 960, 930, 892, 1, 919, 943, 928, 927, 4, 921, 14, 939, 18, 913, 924, 910, 932, 962, 942, 962, 988, 15, 942, 941, 15, 13, 910, 956, 15, 1, 1820, 1, 24, 15, 1812, 1796, 977, 945, 944, 949, 954, 930, 1, 9, 11, 938, 897, 2, 934, 930, 1, 919, 943, 14, 939, 18, 913, 910, 932, 988, 15, 942, 941, 15, 13, 956, 1, 24, 1812, 1796, 977, 930, 1, 9, 11, 938, 897, 2, 934, 930, 1, 919, 943, 14, 939, 18, 913, 910, 932, 988, 15, 942, 941, 15, 13, 956, 1, 24, 1812, 1796, 977, 1, 11, 938, 934, 919, 943, 14, 18, 913, 910, 932, 988, 942, 15, 13, 956, 1, 24, 937, 960, 892, 928, 4, 921, 924, 962, 944, 949, 954, 937, 24, 960, 892, 928, 927, 4, 921, 924, 962, 942, 962, 910, 1820, 15, 945, 944, 949, 954, 937, 24, 960, 892, 928, 927, 4, 921, 924, 962, 942, 962, 910, 15, 1, 1820, 15, 945, 944, 949, 954, 24, 927, 962, 942, 910, 1820, 15, 945, 15, 1, 15, 1, 930, 9, 897, 2, 930, 1, 939, 15, 941, 1812, 1796, 977] p=0.98"]
S1 -> S478 [label="6 [751, 751, 751, 751, 751, 751, 751, 751, 751, 792, 751, 792, 792, 792, 792, 792, 792, 792, 792, 792] p=0.02"]
S12 -> S13 [label="3 [170, 607, 2, 169, 634, 169, 10, 641, 7, 169, 674, 3, 1, 1, 169, 633, 1, 5, 171, 1, 632, 168, 647, 4, 2, 2, 2, 1, 170, 1, 1, 1, 2, 4, 615, 1, 169, 626, 4, 13, 174, 2, 652, 1, 170, 687, 174, 9, 658, 8, 2, 172, 1, 673, 171, 633, 170, 5, 6, 602, 173, 670, 2, 173, 717, 174, 714, 13, 2, 174, 629, 1, 2, 2, 6, 1, 174, 1, 1, 1, 657, 170, 640, 173, 625, 1, 174, 601, 1, 170, 683, 172, 3, 663, 173, 673, 4, 170, 635, 1, 1, 1, 2, 1, 173, 612, 170, 5, 651, 1, 170, 11, 1, 628, 4, 1, 1, 1, 1, 170, 4, 649, 1, 2, 172, 679, 1, 172, 2, 1, 624, 15, 3, 1, 166, 2, 666, 1, 1, 170, 680, 1, 174, 596, 166, 550, 1, 168, 516, 10, 170, 511, 167, 1, 2, 1, 1, 2, 543, 2, 167, 585, 170, 558, 168, 9, 1, 533, 171, 627, 171, 613, 170, 1, 1, 601, 1, 167, 572, 1, 1, 171, 1, 1, 3, 624, 171, 1, 1, 616, 2, 1, 173, 592, 2, 167, 1, 1, 3, 1, 3, 597, 3, 172, 610, 166, 2, 590, 167, 633, 165, 595, 167, 1, 515, 168, 518, 1, 167, 1, 1, 553, 1, 168, 1, 2, 523, 30, 164, 4, 492, 168, 1, 1, 493, 168, 511, 15, 1, 167, 593, 170, 537, 169, 15, 1, 538, 167, 4, 542, 167, 563, 168, 591, 1, 169, 3, 578, 173, 531, 1, 163] p=0.71"]
S12 -> S1 [label="5 [704, 672, 1, 10, 697, 663, 1, 653, 7, 3, 679, 9, 669, 3, 2, 690, 673, 699, 1, 670, 16, 3, 6, 662, 677, 662, 27, 690, 658, 661, 646, 7, 1, 1, 662, 679, 700, 682, 682, 688, 696, 2, 668, 669, 20, 680, 20, 709, 657, 1, 677, 668, 684, 667, 682, 705, 9, 7, 1, 736, 728, 707, 687, 716, 695, 12, 694, 14, 689, 706, 6, 697, 1, 711, 701, 8, 693, 14, 708, 698, 704, 687, 18, 700, 700, 698, 5, 14, 738, 746, 2, 722, 8, 2, 735, 1, 11, 733, 726, 743, 685, 7, 43, 718, 727, 731, 720, 746, 727] p=0.29"]
S13 -> S4 [label="2 [153, 149, 148, 149, 152, 148, 150, 149, 151, 149, 151, 146, 149, 152, 146, 152, 148, 148, 147, 147, 150, 151, 150, 151, 150, 149, 152, 148, 151, 148, 150, 153, 151, 152, 150, 151, 150, 146, 146, 148, 148, 144, 144, 148, 149, 148, 148, 149, 149, 149, 150, 151, 153, 145, 148, 143, 150, 152, 151, 151, 146, 147, 148, 150, 148, 150, 150, 148, 150, 145, 152, 153, 149, 148, 149, 152, 148, 1, 150, 6, 149, 151, 1, 149, 151, 146, 2, 149, 152, 3, 146, 1, 152, 148, 30, 148, 1, 147, 3, 147, 1, 1, 150, 151, 150, 1, 151, 150, 149, 152, 148, 2, 151, 148, 1, 150, 153, 151, 1, 1, 5, 2, 152, 150, 1, 5, 151, 150, 6, 146, 146, 148, 148, 144, 1, 1, 1, 1, 144, 8, 1, 148, 1, 149, 148, 148, 149, 149, 149, 1, 19, 1, 150, 151, 153, 145, 5, 7, 148, 143, 150, 1, 3, 152, 4, 3, 151, 6, 151, 2, 7, 1, 146, 1, 147, 1, 148, 150, 148, 150, 7, 150, 1, 19, 148, 150, 145, 152] p=0.29"]
S13 -> S6 [label="4 [611, 169, 1, 591, 181, 599, 2, 157, 1, 610, 125, 2, 2, 4, 609, 146, 2, 25, 606, 4, 146, 612, 124, 1, 2, 1, 1, 2, 591, 8, 6, 1, 3, 1, 142, 1, 593, 124, 21, 2, 601, 1, 119, 3, 596, 87, 576, 14, 116, 1, 2, 601, 1, 115, 606, 158, 604, 2, 1, 158, 591, 80, 14, 566, 33, 570, 47, 8, 1, 585, 134, 2, 1, 1, 2, 6, 577, 2, 9, 1, 120, 612, 136, 611, 159, 6, 608, 172, 1, 612, 108, 579, 15, 112, 593, 102, 6, 615, 116, 1, 22, 2, 1, 3, 606, 152, 577, 1, 114, 2, 588, 2, 9, 146, 2, 1, 2, 1, 1, 588, 8, 99, 1, 28, 586, 101, 2, 590, 3, 1, 129, 1, 3, 1, 589, 12, 88, 3, 26, 596, 108, 3, 610, 204, 621, 239, 2, 645, 278, 12, 622, 322, 620, 1, 2, 4, 3, 2, 274, 2, 637, 235, 612, 258, 619, 1, 2, 265, 633, 163, 632, 165, 619, 1, 1, 194, 1, 624, 1, 201, 1, 626, 1, 1, 13, 141, 613, 2, 3, 167, 2, 1, 607, 195, 1, 589, 7, 1, 1, 3, 1, 168, 2, 604, 172, 599, 4, 186, 619, 157, 617, 208, 642, 1, 276, 626, 280, 19, 633, 3, 1, 270, 3, 622, 15, 1, 306, 3, 644, 1, 343, 629, 1, 1, 336, 649, 302, 1, 6, 617, 243, 627, 282, 621, 9, 1, 272, 623, 1, 273, 617, 229, 643, 211, 15, 621, 1, 221, 644, 272, 3, 169, 1, 181, 2, 157, 1, 125, 2, 2, 4, 146, 2, 25, 4, 146, 124, 1, 2, 1, 1, 2, 8, 6, 1, 3, 1, 142, 1, 124, 21, 2, 1, 119, 3, 87, 14, 116, 1, 2, 1, 115, 158, 2, 1, 158, 80, 14, 33, 47, 8, 1, 134, 2, 1, 1, 2, 6, 2, 9, 1, 120, 136, 159, 6, 172, 1, 108, 15, 112, 102, 6, 116, 1, 22, 2, 1, 3, 152, 1, 114, 2, 2, 9, 146, 2, 1, 2, 1, 1, 8, 99, 1, 28, 101, 2, 3, 1, 129, 1, 3, 1, 12, 88, 3, 26, 108, 3, 204, 239, 2, 278, 12, 322, 1, 2, 4, 3, 2, 274, 2, 235, 258, 1, 2, 265, 163, 165, 1, 1, 194, 1, 1, 201, 1, 1, 1, 13, 141, 2, 3, 167, 2, 1, 195, 1, 7, 1, 1, 3, 1, 168, 2, 172, 4, 186, 157, 208, 1, 276, 280, 19, 3, 1, 270, 3, 15, 1, 306, 3, 1, 343, 1, 1, 336, 302, 1, 6, 243, 282, 9, 1, 272, 1, 273, 229, 211, 15, 1, 221, 272, 3] p=0.71"]
S4 -> S5 [label="3 [844, 847, 827, 812, 824, 1, 791, 838, 823, 832, 820, 818, 816, 811, 820, 791, 803, 795, 837, 818, 821, 806, 828, 829, 828, 798, 839, 851, 817, 828, 834, 809, 816, 801, 835, 833, 859, 877, 862, 838, 835, 851, 823, 821, 829, 846, 826, 840, 834, 835, 831, 851, 836, 888, 877, 867, 862, 857, 860, 841, 861, 837, 842, 844, 847, 827, 812, 824, 1, 791, 838, 823, 832, 820, 818, 816, 811, 820, 791, 803, 795, 837, 818, 821, 806, 828, 829, 828, 798, 839, 851, 817, 828, 834, 809, 816, 801, 835, 833, 859, 877, 862, 838, 835, 851, 823, 821, 829, 846, 826, 840, 834, 835, 851, 836, 888, 877, 867, 862, 857, 860, 841, 861, 837, 842, 844, 847, 812, 823, 832, 816, 811, 791, 803, 795, 818, 821, 806, 828, 829, 798, 817, 834, 809, 816, 801, 835, 859, 877, 862, 838, 835, 821, 826, 835, 851, 836, 867, 862, 857, 841, 861, 837, 842, 844, 827, 824, 1, 791, 838, 820, 818, 820, 837, 828, 839, 851, 828, 833, 851, 823, 829, 846, 840, 834, 888, 877, 860, 827, 824, 1, 791, 838, 820, 818, 820, 837, 828, 839, 851, 828, 833, 851, 823, 829, 846, 840, 834, 888, 877, 860, 824, 791, 820, 820, 828, 839, 851, 828, 851, 823, 829, 846, 840, 834, 888, 827, 1, 838, 877, 860, 827, 1, 838, 818, 837, 833, 877, 860, 827, 1, 838, 818, 837, 833, 877, 860, 818, 837, 833, 847, 812, 823, 832, 816, 811, 791, 803, 795, 818, 821, 806, 828, 829, 798, 817, 834, 809, 816, 801, 835, 859, 877, 862, 838, 835, 821, 826, 835, 851, 836, 867, 862, 857, 841, 861, 837, 842, 844, 824, 791, 820, 820, 828, 839, 851, 828, 851, 823, 829, 846, 840, 834, 888, 847, 812, 823, 832, 816, 811, 791, 803, 795, 818, 821, 806, 828, 829, 798, 817, 834, 809, 816, 801, 835, 859, 877, 862, 838, 835, 821, 826, 835, 851, 836, 867, 862, 857, 841, 861, 837, 842, 844, 824, 791, 820, 820, 828, 839, 851, 828, 851, 823, 829, 846, 840, 834, 888, 795, 806, 829, 862, 835, 821, 851, 857, 837, 795, 806, 862, 835, 821, 851, 857, 837, 847, 812, 823, 832, 816, 811, 791, 803, 818, 821, 828, 798, 817, 834, 809, 816, 801, 835, 859, 877, 838, 826, 835, 836, 867, 862, 841, 861, 842, 844, 844, 847, 827, 812, 824, 1, 791, 838, 823, 832, 820, 818, 816, 811, 820, 791, 803, 795, 837, 818, 821, 806, 828, 829, 828, 798, 839, 851, 817, 828, 834, 809, 816, 801, 835, 833, 859, 877, 862, 838, 835, 851, 823, 821, 829, 846, 826, 840, 834, 835, 831, 851, 836, 888, 877, 867, 862, 857, 860, 841, 861, 837, 842, 844, 844, 847, 827, 812, 824, 1, 808, 791, 1, 838, 823, 2, 832, 820, 818, 1, 816, 811, 6, 820, 1, 791, 803, 11, 795, 21, 837, 1, 818, 1, 15, 821, 806, 828, 1, 829, 828, 798, 839, 2, 851, 817, 1, 828, 834, 809, 7, 1, 1, 2, 816, 801, 1, 16, 835, 833, 13, 859, 877, 862, 838, 835, 1, 1, 4, 15, 851, 8, 3, 823, 1, 821, 829, 846, 826, 840, 834, 1, 2, 3, 835, 831, 2, 1, 851, 1, 14, 836, 4, 7, 888, 1, 1, 1, 1, 877, 17, 867, 1, 862, 857, 860, 841, 17, 861, 1, 5, 837, 842, 844, 844, 847, 827, 812, 824, 1, 808, 791, 1, 838, 823, 2, 832, 820, 818, 1, 816, 811, 6, 820, 1, 791, 803, 11, 795, 21, 837, 1, 818, 1, 15, 821, 806, 828, 1, 625, 829, 828, 798, 839, 2, 851, 817, 1, 828, 834, 809, 7, 1, 1, 2, 816, 801, 1, 16, 835, 833, 13, 859, 877, 862, 838, 835, 1, 1, 4, 15, 851, 8, 3, 823, 1, 821, 829, 846, 826, 840, 834, 1, 2, 3, 683, 835, 683, 831, 2, 1, 851, 695, 709, 1, 14, 836, 4, 7, 888, 1, 719, 1, 1, 1, 877, 17, 867, 1, 862, 857, 860, 841, 17, 861, 1, 5, 837, 842, 844, 829, 847, 812, 823, 832, 816, 811, 791, 803, 818, 821, 828, 798, 817, 834, 809, 816, 801, 835, 859, 877, 838, 826, 835, 836, 867, 862, 841, 861, 842, 844] p=0.93"]
S4 -> S5 [label="1 [188, 181, 188, 181, 173, 188, 181, 173, 188, 181, 173, 188, 181, 173, 169, 159, 188, 181, 173, 175, 169, 159, 169, 159, 169, 159, 169, 159, 169, 159, 169, 159, 173, 173, 188, 181, 173, 175, 169, 159, 188, 181, 173, 175, 169, 159, 188, 181, 173, 175, 169, 159, 188, 181] p=0.07"]
S5 -> S6 [label="4 [611, 591, 599, 610, 609, 591, 601, 596, 601, 591, 612, 611, 579, 593, 615, 577, 588, 586, 589, 610, 645, 622, 620, 637, 632, 619, 624, 626, 613, 604, 617, 617, 627, 621, 643, 621, 644, 591, 599, 610, 609, 591, 601, 596, 601, 591, 612, 611, 579, 593, 615, 577, 588, 586, 589, 610, 645, 622, 620, 637, 632, 619, 624, 626, 613, 604, 617, 617, 627, 621, 643, 621, 644, 591, 610, 601, 601, 591, 612, 611, 579, 615, 586, 589, 610, 645, 622, 620, 637, 632, 626, 604, 617, 617, 627, 643, 621, 644, 599, 609, 591, 596, 593, 577, 588, 619, 624, 613, 621, 599, 609, 591, 596, 593, 577, 588, 619, 624, 613, 621, 609, 596, 593, 577, 588, 619, 624, 613, 599, 591, 621, 599, 591, 621, 591, 610, 601, 601, 591, 612, 611, 579, 615, 586, 589, 610, 645, 622, 620, 637, 632, 626, 604, 617, 617, 627, 643, 621, 644, 609, 596, 593, 577, 588, 619, 624, 613, 591, 610, 601, 601, 591, 612, 611, 579, 615, 586, 589, 610, 645, 622, 620, 637, 632, 626, 604, 617, 617, 627, 643, 621, 644, 611, 579, 620, 632, 617, 627, 643, 591, 610, 601, 601, 591, 612, 615, 586, 589, 610, 645, 622, 637, 626, 604, 617, 621, 644, 611, 591, 599, 610, 609, 591, 601, 596, 601, 591, 612, 611, 579, 593, 615, 577, 588, 586, 589, 610, 645, 622, 620, 637, 632, 619, 624, 626, 613, 604, 617, 617, 627, 621, 643, 621, 644, 611, 591, 599, 610, 609, 606, 612, 591, 593, 601, 596, 576, 601, 606, 604, 591, 566, 570, 585, 577, 612, 611, 608, 579, 593, 615, 606, 577, 588, 588, 586, 590, 589, 596, 610, 621, 645, 622, 620, 637, 612, 619, 633, 632, 619, 624, 626, 613, 607, 604, 619, 617, 626, 633, 622, 644, 629, 649, 617, 627, 621, 623, 617, 643, 621, 644, 611, 591, 599, 610, 609, 606, 612, 591, 593, 601, 596, 576, 601, 606, 604, 591, 566, 570, 585, 577, 612, 611, 608, 612, 579, 593, 615, 606, 577, 588, 588, 586, 590, 589, 596, 610, 621, 645, 622, 620, 637, 612, 619, 633, 632, 619, 624, 626, 613, 607, 589, 604, 599, 619, 617, 642, 626, 633, 622, 644, 629, 649, 617, 627, 621, 623, 617, 643, 621, 644, 644, 644, 577, 596, 619, 633, 617, 577, 596, 619, 619, 633, 617, 577, 596, 619, 619, 633, 617, 577, 590, 596, 612, 619, 607, 619, 633, 644, 617, 577, 590, 596, 612, 619, 607, 619, 626, 633, 644, 617, 590, 612, 606, 612, 576, 604, 585, 606, 621, 633, 622, 629, 606, 612, 576, 604, 585, 606, 621, 633, 622, 629, 606, 612, 593, 576, 606, 604, 566, 570, 585, 608, 606, 588, 621, 633, 622, 629, 649, 623, 606, 612, 593, 576, 606, 604, 566, 570, 585, 608, 606, 588, 621, 633, 622, 629, 649, 623, 593, 606, 566, 570, 608, 588, 649, 623, 593, 606, 566, 570, 608, 588, 649, 623, 606, 612, 593, 576, 606, 604, 566, 570, 585, 608, 606, 588, 621, 633, 622, 629, 649, 623, 606, 612, 593, 576, 606, 604, 566, 570, 585, 577, 608, 606, 588, 590, 596, 621, 612, 619, 633, 607, 619, 626, 633, 622, 644, 629, 649, 623, 617, 606, 612, 593, 576, 606, 604, 566, 570, 585, 577, 608, 606, 588, 590, 596, 621, 612, 619, 633, 607, 619, 626, 633, 622, 644, 629, 649, 623, 617, 612, 589, 599, 612, 589, 599, 612, 589, 599, 612, 589, 599, 642, 612, 589, 599, 642, 612, 589, 599, 642, 612, 589, 599, 642, 612, 589, 599, 642, 626, 626, 626, 626, 590, 612, 607, 607, 590, 612, 607, 644, 1, 619, 169, 181, 2, 125, 146, 8, 1, 87, 1, 80, 136, 159, 15, 102, 116, 1, 8, 101, 12, 204, 278, 322, 1, 235, 165, 1, 1, 1, 2, 172, 208, 243, 282, 9, 211, 1, 272, 181, 2, 125, 146, 8, 1, 87, 1, 80, 136, 159, 15, 102, 116, 1, 8, 101, 12, 204, 278, 322, 1, 235, 165, 1, 1, 1, 2, 172, 208, 243, 282, 9, 211, 1, 272, 181, 125, 1, 1, 80, 136, 159, 15, 116, 101, 12, 204, 278, 322, 1, 235, 165, 1, 172, 208, 243, 282, 211, 1, 272, 2, 146, 8, 87, 102, 1, 8, 1, 1, 2, 9, 2, 146, 8, 87, 102, 1, 8, 1, 1, 2, 9, 181, 125, 1, 1, 80, 136, 159, 15, 116, 101, 12, 204, 278, 322, 1, 235, 165, 1, 172, 208, 243, 282, 211, 1, 272, 169, 181, 2, 125, 146, 8, 1, 87, 1, 80, 136, 159, 15, 102, 116, 1, 8, 101, 12, 204, 278, 322, 1, 235, 165, 1, 1, 1, 2, 172, 208, 243, 282, 9, 211, 1, 272, 169, 181, 2, 125, 146, 4, 124, 8, 124, 1, 87, 14, 1, 158, 2, 80, 33, 47, 134, 2, 136, 159, 172, 15, 102, 116, 152, 1, 2, 8, 101, 3, 12, 108, 204, 239, 278, 322, 1, 235, 258, 1, 163, 165, 1, 1, 1, 2, 195, 172, 157, 208, 280, 3, 15, 1, 1, 302, 243, 282, 9, 1, 229, 211, 1, 272, 169, 181, 2, 125, 146, 4, 124, 8, 124, 1, 87, 14, 1, 158, 2, 80, 33, 47, 134, 2, 136, 159, 172, 108, 15, 102, 116, 152, 1, 2, 8, 101, 3, 12, 108, 204, 239, 278, 322, 1, 235, 258, 1, 163, 165, 1, 1, 1, 2, 195, 7, 172, 4, 157, 208, 1, 280, 3, 15, 1, 1, 302, 243, 282, 9, 1, 229, 211, 1, 272, 2, 108, 1, 157, 3, 229, 2, 3, 108, 258, 1, 195, 157, 3, 1, 229, 2, 3, 108, 258, 1, 195, 157, 280, 3, 1, 229, 4, 124, 124, 14, 158, 2, 33, 47, 134, 172, 152, 2, 239, 163, 15, 1, 302, 1, 4, 124, 124, 14, 158, 2, 33, 47, 134, 172, 152, 2, 239, 163, 15, 1, 302, 1, 4, 124, 124, 14, 158, 2, 33, 47, 134, 172, 152, 2, 239, 163, 15, 1, 302, 1, 4, 124, 124, 14, 158, 2, 33, 47, 134, 2, 172, 152, 2, 3, 108, 239, 258, 1, 163, 195, 157, 280, 3, 15, 1, 1, 302, 1, 229, 4, 124, 124, 14, 158, 2, 33, 47, 134, 2, 172, 152, 2, 3, 108, 239, 258, 1, 163, 195, 157, 280, 3, 15, 1, 1, 302, 1, 229, 108, 7, 4, 108, 7, 4, 1, 108, 7, 4, 1, 108, 7, 4, 1, 108, 7, 4, 1, 108, 7, 4, 1, 280, 280, 3, 258, 195, 1, 169, 1, 181, 2, 157, 1, 125, 2, 2, 4, 146, 2, 25, 4, 146, 124, 1, 2, 1, 1, 2, 8, 6, 1, 3, 1, 142, 1, 124, 21, 2, 1, 119, 3, 87, 14, 116, 1, 2, 1, 115, 158, 2, 1, 158, 80, 14, 33, 47, 8, 1, 134, 2, 1, 1, 2, 6, 2, 9, 1, 120, 136, 159, 6, 172, 1, 108, 15, 112, 102, 6, 116, 1, 22, 2, 1, 3, 152, 1, 114, 2, 2, 9, 146, 2, 1, 2, 1, 1, 8, 99, 1, 28, 101, 2, 3, 1, 129, 1, 3, 1, 12, 88, 3, 26, 108, 3, 204, 239, 2, 278, 12, 322, 1, 2, 4, 3, 2, 274, 2, 235, 258, 1, 2, 265, 163, 165, 1, 1, 194, 1, 1, 201, 1, 1, 1, 13, 141, 2, 3, 167, 2, 1, 195, 1, 7, 1, 1, 3, 1, 168, 2, 172, 4, 186, 157, 208, 1, 276, 280, 19, 3, 1, 270, 3, 15, 1, 306, 3, 1, 343, 1, 1, 336, 302, 1, 6, 243, 282, 9, 1, 272, 1, 273, 229, 211, 15, 1, 221, 272, 3, 1, 157, 1, 2, 2, 4, 2, 25, 146, 1, 2, 1, 1, 2, 6, 1, 3, 1, 142, 1, 21, 2, 119, 3, 116, 1, 2, 115, 1, 158, 14, 8, 1, 2, 1, 1, 2, 6, 9, 1, 120, 6, 1, 112, 6, 1, 22, 2, 1, 3, 114, 2, 9, 146, 2, 1, 2, 1, 1, 99, 1, 28, 2, 1, 129, 1, 3, 1, 88, 3, 26, 3, 2, 12, 2, 4, 3, 2, 274, 2, 2, 265, 1, 194, 1, 201, 1, 1, 13, 141, 3, 167, 2, 1, 1, 1, 1, 3, 1, 168, 2, 186, 276, 19, 1, 270, 3, 1, 306, 3, 343, 1, 336, 1, 6, 1, 272, 273, 15, 221, 3, 1, 157, 1, 2, 2, 4, 2, 25, 146, 1, 2, 1, 1, 2, 6, 1, 3, 1, 142, 1, 21, 2, 119, 3, 116, 1, 2, 115, 1, 158, 14, 8, 1, 2, 1, 1, 2, 6, 9, 1, 120, 6, 1, 112, 6, 1, 22, 2, 1, 3, 114, 2, 9, 146, 2, 1, 2, 1, 1, 99, 1, 28, 2, 1, 129, 1, 3, 1, 88, 3, 26, 3, 2, 12, 2, 4, 3, 2, 274, 2, 2, 265, 1, 194, 1, 201, 1, 1, 13, 141, 3, 167, 2, 1, 1, 1, 1, 3, 1, 168, 2, 186, 276, 19, 1, 270, 3, 1, 306, 3, 343, 1, 336, 1, 6, 1, 272, 273, 15, 221, 3, 1, 2, 4, 25, 2, 1, 1, 2, 1, 3, 1, 142, 1, 2, 3, 1, 2, 158, 1, 1, 1, 2, 6, 1, 120, 22, 2, 1, 3, 2, 146, 2, 1, 2, 1, 1, 1, 28, 129, 1, 3, 1, 3, 26, 4, 3, 2, 274, 2, 265, 194, 1, 1, 13, 141, 167, 2, 1, 1, 3, 1, 168, 2, 270, 3, 306, 3, 336, 6, 272, 1, 2, 4, 25, 2, 1, 1, 2, 1, 3, 1, 142, 1, 2, 3, 1, 2, 158, 1, 1, 1, 2, 6, 1, 120, 22, 2, 1, 3, 2, 146, 2, 1, 2, 1, 1, 1, 28, 129, 1, 3, 1, 3, 26, 4, 3, 2, 274, 2, 265, 194, 1, 1, 13, 141, 167, 2, 1, 1, 3, 1, 168, 2, 270, 3, 306, 3, 336, 6, 272, 4, 1, 1, 2, 3, 1, 142, 1, 2, 1, 2, 6, 120, 2, 1, 3, 2, 1, 2, 1, 1, 28, 1, 3, 1, 26, 3, 2, 274, 2, 1, 141, 2, 1, 3, 1, 168, 2, 3, 3, 4, 1, 1, 2, 3, 1, 142, 1, 2, 1, 2, 6, 120, 2, 1, 3, 2, 1, 2, 1, 1, 28, 1, 3, 1, 26, 3, 2, 274, 2, 1, 141, 2, 1, 3, 1, 168, 2, 3, 3, 1, 2, 1, 142, 1, 2, 6, 1, 3, 1, 2, 1, 1, 3, 1, 2, 274, 2, 1, 1, 168, 2, 1, 157, 2, 2, 6, 119, 115, 14, 6, 112, 6, 1, 114, 99, 2, 88, 12, 2, 1, 201, 1, 3, 1, 15, 221, 3, 157, 2, 2, 6, 119, 115, 14, 6, 112, 6, 1, 114, 99, 2, 88, 12, 2, 1, 201, 1, 3, 1, 15, 221, 3, 1, 157, 2, 2, 6, 119, 115, 14, 6, 112, 6, 1, 114, 99, 2, 88, 12, 2, 1, 201, 1, 3, 1, 15, 221, 3, 1, 157, 2, 2, 146, 1, 6, 21, 119, 116, 115, 1, 14, 8, 2, 9, 6, 1, 112, 6, 1, 114, 9, 99, 2, 1, 88, 3, 2, 12, 2, 2, 1, 201, 1, 3, 1, 19, 1, 1, 343, 1, 1, 1, 273, 15, 221, 3, 1, 157, 2, 2, 146, 1, 6, 21, 119, 116, 115, 1, 14, 8, 2, 9, 6, 1, 112, 6, 1, 114, 9, 99, 2, 1, 88, 3, 2, 12, 2, 2, 1, 201, 1, 3, 1, 1, 186, 276, 19, 1, 1, 343, 1, 1, 1, 273, 15, 221, 3, 9, 1, 3, 2, 1, 19, 1, 343, 146, 1, 21, 116, 1, 8, 2, 1, 9, 2, 1, 1, 1, 273, 146, 1, 21, 116, 1, 8, 2, 9, 1, 9, 1, 3, 2, 2, 1, 19, 1, 1, 343, 1, 1, 273, 146, 1, 21, 116, 1, 8, 2, 9, 1, 9, 1, 3, 2, 2, 1, 19, 1, 1, 343, 1, 1, 273, 1, 186, 276, 1, 186, 276, 1, 186, 276, 1, 186, 276, 1, 2, 25, 1, 3, 22, 2, 1, 3, 4, 194, 1, 13, 167, 272, 1, 2, 25, 2, 1, 2, 3, 1, 158, 1, 1, 1, 22, 2, 146, 1, 129, 3, 4, 265, 194, 1, 13, 167, 270, 306, 336, 6, 272, 1, 2, 25, 2, 1, 2, 3, 1, 158, 1, 1, 1, 22, 2, 146, 1, 129, 3, 4, 265, 194, 1, 13, 167, 1, 270, 306, 336, 6, 272, 2, 2, 1, 158, 1, 1, 1, 146, 129, 265, 270, 306, 336, 6, 1, 1, 4, 1, 3, 2, 1, 120, 2, 2, 28, 1, 26, 3, 1, 141, 2, 3, 3, 3, 200, 200, 200, 200, 200, 200, 200, 199, 200, 199, 199, 199, 199, 199, 199, 199, 200, 199, 642, 642, 642] p=0.82"]
S5 -> S6 [label="2 [1, 2, 3, 6, 1, 1, 2, 3, 6, 1, 1, 6, 2, 1, 3, 2, 6, 8, 1, 1, 6, 1, 1, 6, 2, 1, 3, 2, 6, 8, 1, 1, 6, 1, 6, 1, 2, 8, 1, 1, 6, 1, 6, 1, 2, 3, 1, 30, 1, 3, 1, 1, 2, 1, 1, 1, 6, 1, 8, 1, 1, 4, 6, 1, 1, 7, 1, 1, 6, 1, 2, 3, 1, 30, 1, 3, 1, 1, 2, 1, 1, 1, 6, 1, 8, 1, 1, 5, 4, 6, 1, 1, 7, 1, 1, 3, 30, 1, 1, 1, 1, 1, 1, 1, 4, 1, 7, 1, 1, 3, 30, 1, 1, 1, 1, 1, 1, 1, 4, 1, 7, 1, 6, 1, 2, 8, 1, 1, 6, 1, 3, 30, 1, 1, 1, 1, 1, 1, 1, 4, 1, 7, 1, 1, 1, 1, 3, 30, 1, 1, 1, 1, 1, 4, 1, 7, 1, 1, 6, 1, 2, 3, 1, 30, 1, 3, 1, 1, 2, 1, 1, 1, 6, 1, 8, 1, 1, 5, 4, 6, 1, 1, 7, 1, 1, 6, 1, 2, 3, 1, 30, 1, 3, 1, 1, 1, 2, 1, 1, 1, 5, 2, 1, 5, 6, 1, 1, 1, 1, 8, 1, 1, 1, 19, 1, 5, 7, 3, 4, 3, 6, 7, 1, 1, 1, 7, 1, 19, 1, 6, 1, 2, 3, 1, 30, 1, 3, 1, 1, 1, 2, 1, 1, 1, 5, 2, 1, 5, 6, 1, 1, 1, 1, 8, 1, 1, 1, 19, 1, 5, 7, 1, 3, 4, 3, 6, 2, 7, 1, 1, 1, 7, 1, 19, 1, 1, 1, 1, 1, 1, 1, 1, 1, 1, 1, 1, 1, 1, 4, 3, 1, 1, 1, 1, 4, 3, 4, 3, 4, 3, 4, 3, 4, 3, 1, 1, 1, 1, 1, 4, 3, 1, 1, 1, 1, 4, 3, 1, 1, 1, 1, 4, 3, 1, 1, 1, 1, 4, 3, 3, 7, 3, 7, 3, 7, 3, 7, 3, 7, 3, 7, 5, 1, 1, 5, 1, 1, 5, 1, 1, 5, 2, 1, 1, 1, 5, 2, 1, 1, 1, 1, 1, 1, 5, 1, 3, 19, 1, 1, 5, 1, 3, 19, 1, 1, 5, 1, 1, 19, 3, 19, 1, 1, 5, 1, 1, 19, 7, 3, 19, 1, 19, 1, 19, 1, 1, 5, 1, 1, 19, 7, 3, 19, 1, 1, 5, 2, 5, 1, 1, 1, 1, 19, 1, 7, 3, 1, 19, 1, 1, 5, 2, 5, 1, 1, 1, 1, 19, 1, 7, 3, 3, 7, 1, 19, 1, 2, 1, 2, 1, 2, 1, 2, 1, 2, 1, 2, 1, 2, 1, 2, 1, 1, 1, 1, 2, 1, 2, 1, 2, 1, 145, 145, 145, 145, 145, 143, 145, 143, 143, 143, 143, 143, 145, 143, 5, 5, 5, 5, 5, 7, 7, 7] p=0.18"]
S478 -> S5 [label="5 [1, 1, 1, 1, 1, 1, 1, 1, 2, 1, 2, 2, 2, 2, 2, 2, 2, 2, 1, 2] p=1.0"]
S2 -> S3 [label="3 [170, 169, 169, 169, 169, 171, 168, 170, 169, 174, 170, 174, 172, 171, 170, 173, 173, 174, 174, 174, 170, 173, 174, 170, 172, 173, 170, 173, 170, 170, 170, 172, 172, 166, 170, 174, 166, 168, 170, 167, 167, 170, 168, 171, 171, 170, 167, 171, 171, 173, 167, 172, 166, 167, 165, 167, 168, 167, 168, 164, 168, 168, 167, 170, 169, 167, 167, 168, 169, 173, 163, 169, 169, 169, 169, 171, 168, 170, 169, 174, 170, 174, 172, 171, 170, 173, 173, 174, 174, 174, 170, 173, 174, 170, 172, 173, 170, 173, 170, 170, 170, 172, 172, 166, 170, 174, 166, 168, 170, 167, 167, 170, 168, 171, 171, 170, 167, 171, 171, 173, 167, 172, 166, 165, 168, 167, 168, 164, 168, 168, 167, 170, 169, 167, 167, 168, 169, 173, 163, 169, 169, 169, 174, 172, 171, 173, 173, 174, 174, 170, 173, 174, 170, 172, 170, 170, 172, 172, 166, 170, 174, 168, 170, 167, 167, 170, 171, 171, 167, 172, 166, 165, 167, 168, 167, 170, 167, 167, 168, 169, 173, 163, 169, 169, 171, 168, 170, 170, 174, 170, 174, 173, 173, 170, 170, 166, 168, 171, 170, 167, 171, 173, 168, 168, 164, 168, 169, 169, 169, 171, 168, 170, 170, 174, 170, 174, 173, 173, 170, 170, 166, 168, 171, 170, 167, 171, 173, 168, 168, 164, 168, 169, 169, 168, 170, 170, 173, 173, 170, 170, 168, 171, 170, 167, 171, 173, 168, 169, 171, 170, 168, 164, 168, 169, 169, 171, 170, 174, 174, 166, 168, 164, 168, 169, 169, 171, 170, 174, 174, 166, 168, 164, 168, 169, 174, 174, 166, 174, 174, 166, 174, 174, 166, 169, 169, 169, 174, 172, 171, 173, 173, 174, 174, 170, 173, 174, 170, 172, 170, 170, 172, 172, 166, 170, 174, 168, 170, 167, 167, 170, 171, 171, 167, 172, 166, 165, 167, 168, 167, 170, 167, 167, 168, 169, 173, 163, 169, 168, 170, 170, 173, 173, 170, 170, 168, 171, 170, 167, 171, 173, 168, 169, 171, 170, 168, 164, 168, 169, 169, 169, 169, 174, 172, 171, 173, 173, 174, 174, 170, 173, 174, 170, 172, 170, 170, 172, 172, 166, 170, 174, 168, 170, 167, 167, 170, 171, 171, 167, 172, 166, 165, 167, 168, 167, 170, 167, 167, 168, 169, 173, 163, 169, 168, 170, 170, 173, 173, 170, 170, 168, 171, 170, 167, 171, 173, 168, 169, 171, 170, 168, 164, 168, 169, 174, 173, 172, 167, 170, 171, 166, 165, 170, 168, 170, 170, 168, 170, 174, 173, 167, 170, 171, 166, 165, 170, 168, 170, 170, 168, 170, 173, 167, 170, 166, 170, 169, 168, 170, 173, 173, 170, 171, 167, 171, 173, 168, 169, 168, 170, 173, 173, 170, 171, 167, 171, 173, 168, 173, 167, 170, 166, 170, 169, 169, 169, 174, 172, 171, 173, 173, 174, 170, 174, 170, 170, 170, 172, 172, 166, 170, 174, 168, 170, 167, 171, 167, 172, 167, 168, 167, 167, 167, 169, 173, 163, 174, 171, 165, 168, 174, 171, 165, 168, 172, 172, 172, 169, 169, 169, 174, 172, 171, 173, 173, 174, 170, 174, 170, 170, 170, 172, 172, 166, 170, 174, 168, 170, 167, 171, 167, 172, 167, 168, 167, 167, 167, 169, 173, 163, 169, 169, 174, 172, 173, 174, 170, 170, 172, 166, 170, 167, 171, 172, 168, 167, 167, 169, 171, 173, 174, 170, 170, 172, 174, 168, 170, 167, 167, 167, 169, 173, 163, 169, 171, 173, 174, 170, 170, 172, 174, 168, 170, 167, 167, 167, 169, 173, 163, 169, 169, 174, 172, 173, 174, 170, 170, 172, 166, 170, 167, 171, 172, 168, 167, 167] p=0.64"]
S2 -> S1 [label="5 [1, 1, 7, 9, 3, 1, 16, 27, 7, 2, 20, 20, 1, 9, 12, 14, 6, 1, 8, 14, 18, 5, 2, 8, 1, 7, 1, 10, 1, 7, 3, 9, 3, 2, 1, 16, 3, 6, 27, 7, 1, 1, 2, 20, 20, 1, 9, 7, 1, 12, 14, 6, 1, 8, 14, 18, 5, 14, 2, 8, 2, 1, 11, 7, 43, 1, 10, 1, 7, 3, 9, 3, 2, 1, 16, 3, 6, 27, 7, 1, 1, 2, 20, 20, 1, 9, 7, 1, 12, 14, 6, 1, 8, 14, 18, 5, 14, 2, 8, 2, 1, 11, 7, 43, 10, 3, 2, 3, 1, 7, 14, 2, 11, 43, 10, 3, 2, 3, 6, 1, 1, 7, 1, 14, 2, 11, 43, 10, 3, 2, 3, 6, 1, 1, 7, 1, 14, 2, 11, 43, 6, 1, 1, 6, 1, 1, 6, 1, 1, 1, 1, 7, 9, 3, 1, 16, 27, 7, 2, 20, 20, 1, 9, 12, 14, 6, 1, 8, 14, 18, 5, 2, 8, 1, 7, 10, 3, 2, 3, 1, 7, 14, 2, 11, 43, 6, 1, 1, 1, 1, 7, 9, 3, 1, 16, 27, 7, 2, 20, 20, 1, 9, 12, 14, 6, 1, 8, 14, 18, 5, 2, 8, 1, 7, 10, 3, 2, 3, 1, 7, 14, 2, 11, 43, 6, 1, 1, 1, 16, 27, 20, 9, 12, 6, 7, 10, 3, 7, 43, 1, 16, 27, 20, 9, 12, 6, 7, 10, 3, 7, 43, 1, 16, 9, 6, 7, 3, 2, 1, 14, 2, 11, 3, 2, 1, 14, 2, 11, 1, 16, 9, 6, 7, 1, 7, 9, 3, 1, 7, 2, 20, 1, 14, 1, 8, 14, 18, 5, 2, 8, 1, 27, 20, 12, 27, 20, 12, 1, 7, 9, 3, 1, 7, 2, 20, 1, 14, 1, 8, 14, 18, 5, 2, 8, 1, 1, 7, 3, 1, 7, 20, 1, 14, 1, 8, 14, 2, 8, 9, 2, 1, 9, 2, 18, 5, 1, 18, 5, 1, 7, 3, 1, 7, 20, 1, 14, 1, 8, 14, 2, 8] p=0.36"]
S6 -> S1 [label="5 [704, 672, 697, 663, 653, 679, 669, 690, 673, 699, 670, 662, 677, 662, 690, 658, 661, 646, 662, 679, 700, 682, 682, 688, 696, 668, 669, 680, 709, 657, 677, 668, 684, 667, 682, 705, 736, 728, 707, 687, 716, 695, 694, 689, 706, 697, 711, 701, 693, 708, 698, 704, 687, 700, 700, 698, 738, 746, 722, 735, 733, 726, 743, 685, 718, 727, 731, 720, 746, 727, 704, 672, 697, 663, 653, 679, 669, 690, 673, 699, 670, 662, 677, 662, 690, 658, 661, 646, 662, 679, 700, 682, 682, 688, 696, 668, 669, 680, 709, 657, 677, 668, 684, 667, 682, 705, 736, 728, 707, 687, 716, 695, 694, 689, 706, 697, 711, 701, 693, 708, 698, 704, 687, 700, 700, 698, 738, 746, 722, 735, 733, 726, 743, 685, 718, 727, 731, 720, 746, 727, 704, 672, 697, 663, 653, 679, 669, 690, 673, 699, 670, 662, 677, 662, 690, 658, 661, 646, 662, 679, 700, 682, 682, 688, 696, 668, 669, 680, 709, 657, 677, 668, 684, 667, 682, 705, 736, 728, 707, 687, 716, 695, 694, 689, 706, 697, 711, 701, 693, 708, 698, 704, 687, 700, 700, 698, 738, 746, 722, 735, 733, 726, 743, 685, 718, 727, 731, 720, 746, 727, 704, 697, 663, 653, 679, 669, 690, 673, 699, 662, 677, 690, 658, 646, 662, 679, 682, 682, 696, 668, 669, 709, 657, 677, 668, 684, 667, 682, 736, 728, 687, 694, 697, 711, 701, 693, 708, 698, 687, 698, 738, 746, 722, 735, 733, 726, 718, 727, 720, 746, 727, 704, 697, 663, 653, 679, 669, 690, 673, 699, 662, 677, 690, 658, 646, 662, 679, 682, 682, 696, 668, 669, 709, 657, 677, 668, 684, 667, 682, 736, 728, 687, 694, 697, 711, 701, 693, 708, 698, 687, 698, 738, 746, 722, 735, 733, 726, 718, 727, 720, 746, 727, 697, 663, 653, 669, 690, 673, 699, 662, 690, 646, 662, 679, 669, 709, 657, 677, 684, 667, 687, 694, 697, 711, 701, 693, 698, 746, 722, 733, 726, 718, 697, 663, 653, 669, 690, 673, 699, 662, 690, 646, 662, 679, 669, 709, 657, 677, 684, 667, 687, 694, 697, 711, 701, 693, 698, 746, 722, 733, 726, 718, 663, 669, 690, 662, 662, 679, 669, 657, 677, 684, 667, 687, 697, 701, 693, 698, 746, 722, 663, 669, 690, 662, 662, 679, 669, 657, 677, 684, 667, 687, 697, 701, 693, 698, 746, 722, 672, 670, 662, 661, 700, 688, 680, 705, 707, 716, 695, 689, 706, 704, 700, 700, 743, 685, 731, 672, 670, 662, 661, 700, 680, 705, 707, 716, 695, 689, 706, 704, 700, 700, 743, 685, 731, 672, 670, 700, 705, 707, 716, 706, 704, 700, 743, 685, 672, 700, 705, 707, 716, 706, 704, 700, 743, 685, 672, 670, 700, 705, 707, 716, 706, 704, 700, 743, 685, 672, 670, 700, 705, 707, 716, 706, 704, 700, 743, 685, 670, 695, 700, 731, 695, 700, 731, 662, 661, 680, 689, 662, 661, 680, 689, 662, 661, 680, 695, 689, 700, 731, 662, 661, 680, 695, 689, 700, 731, 688, 688, 688, 688, 688, 704, 677, 658, 682, 696, 668, 668, 728, 720, 746, 727, 704, 677, 658, 682, 696, 668, 668, 728, 720, 746, 727, 704, 679, 677, 658, 682, 682, 696, 668, 668, 682, 736, 728, 708, 738, 735, 727, 720, 746, 727, 704, 679, 677, 658, 682, 682, 696, 668, 668, 682, 736, 728, 708, 687, 698, 738, 735, 727, 720, 746, 727, 679, 682, 682, 736, 708, 738, 735, 727, 679, 682, 682, 736, 708, 738, 735, 727, 687, 698, 687, 698, 687, 698, 697, 653, 673, 699, 690, 646, 709, 694, 711, 733, 726, 718, 697, 653, 673, 699, 690, 646, 709, 694, 711, 733, 726, 718] p=0.23"]
S6 -> S5 [label="3 [1, 1, 1, 1, 1, 1, 1, 1, 1, 1, 1, 1, 1, 1, 1, 1, 1, 15, 1, 16, 1, 7, 5, 15, 1, 16, 1, 3, 2, 7, 5, 15, 1, 16, 1, 3, 2, 1, 7, 5, 3, 2, 15, 1, 16, 1, 3, 2, 1, 7, 5, 15, 1, 1, 2, 16, 1, 4, 15, 3, 2, 3, 1, 7, 1, 5, 15, 1, 1, 2, 16, 1, 4, 15, 3, 2, 3, 1, 14, 7, 1, 1, 5, 2, 15, 2, 15, 808, 1, 1, 13, 17, 808, 1, 1, 1, 1, 2, 13, 8, 1, 1, 1, 17, 808, 1, 1, 1, 1, 2, 13, 8, 1, 1, 1, 17, 1, 1, 2, 8, 1, 1, 1, 808, 1, 2, 1, 6, 1, 11, 21, 1, 1, 1, 2, 1, 7, 1, 13, 1, 8, 1, 1, 4, 1, 17, 1, 17, 1, 808, 1, 2, 1, 6, 1, 11, 21, 1, 1, 1, 2, 1, 7, 1, 13, 1, 8, 1, 1, 2, 4, 1, 17, 1, 17, 1, 2, 6, 11, 21, 1, 1, 1, 7, 1, 1, 4, 1, 17, 1, 2, 6, 11, 21, 1, 1, 1, 7, 1, 1, 4, 1, 17, 1, 2, 6, 11, 21, 1, 1, 1, 7, 1, 1, 4, 1, 17, 1, 808, 1, 2, 1, 6, 1, 11, 21, 1, 1, 1, 2, 1, 7, 1, 13, 1, 8, 1, 1, 2, 4, 1, 17, 1, 17, 1, 808, 1, 2, 1, 6, 1, 11, 21, 1, 1, 15, 1, 2, 1, 7, 1, 1, 2, 1, 16, 13, 1, 1, 4, 15, 8, 3, 1, 1, 2, 3, 2, 1, 14, 4, 7, 1, 1, 1, 17, 1, 17, 1, 5, 808, 1, 2, 1, 6, 1, 11, 21, 1, 1, 15, 1, 2, 1, 7, 1, 1, 2, 1, 16, 13, 1, 1, 4, 15, 8, 3, 1, 1, 2, 3, 2, 1, 1, 14, 4, 7, 1, 1, 1, 1, 17, 1, 17, 1, 5, 625, 683, 683, 625, 683, 683, 625, 683, 683, 625, 683, 683, 709, 719, 625, 683, 683, 695, 709, 719, 709, 719, 709, 719, 709, 719, 625, 683, 683, 695, 709, 719, 625, 683, 683, 695, 709, 719, 625, 683, 683, 695, 709, 719, 625, 683, 683, 695, 709, 719, 14, 1, 14, 1, 14, 1, 14, 1, 14, 1, 1, 4, 3, 1, 4, 3, 1, 2, 4, 15, 3, 1, 2, 4, 15, 3, 1, 167, 167, 167, 167, 167, 167, 167, 167, 167, 167, 167, 167, 167, 167, 167, 167, 1, 1, 831, 831, 831, 831, 831, 831, 2, 2, 2, 2, 1, 1, 2, 641, 3, 1, 1, 652, 673, 2, 1, 663, 4, 1, 651, 649, 1, 666, 10, 2, 1, 1, 1, 1, 1, 1, 578, 1, 641, 3, 1, 1, 652, 673, 2, 1, 663, 4, 1, 651, 649, 1, 666, 10, 2, 1, 1, 1, 1, 1, 1, 578, 1, 3, 652, 673, 2, 1, 663, 1, 1, 666, 10, 2, 1, 1, 578, 1, 641, 1, 1, 4, 651, 649, 1, 1, 1, 1, 2, 641, 3, 1, 1, 652, 673, 2, 1, 663, 4, 1, 651, 649, 1, 666, 10, 2, 1, 1, 1, 1, 1, 1, 578, 1, 2, 641, 3, 1, 632, 4, 1, 4, 652, 658, 673, 6, 2, 13, 1, 1, 1, 1, 663, 4, 1, 651, 1, 649, 1, 1, 666, 1, 1, 10, 2, 1, 1, 1, 1, 1, 2, 1, 1, 2, 492, 1, 15, 1, 542, 1, 578, 1, 2, 641, 3, 1, 632, 4, 1, 4, 652, 658, 673, 6, 2, 13, 1, 1, 1, 1, 663, 4, 1, 651, 1, 649, 1, 1, 666, 1, 1, 10, 2, 1, 1, 1, 1, 1, 2, 1, 590, 515, 1, 1, 2, 492, 1, 15, 1, 542, 1, 578, 1, 1, 1, 1, 1, 2, 1, 492, 1, 1, 1, 1, 2, 1, 1, 492, 632, 4, 4, 658, 6, 13, 1, 1, 1, 1, 2, 1, 15, 542, 632, 4, 4, 658, 6, 13, 1, 1, 1, 1, 2, 1, 15, 542, 632, 4, 4, 658, 6, 13, 1, 1, 1, 1, 1, 1, 1, 1, 2, 1, 1, 2, 492, 1, 15, 542, 632, 4, 4, 658, 6, 13, 1, 1, 1, 1, 1, 1, 1, 1, 2, 1, 1, 2, 492, 1, 15, 542, 1, 590, 515, 1, 590, 515, 1, 590, 515, 1, 590, 515, 1, 590, 515, 1, 607, 2, 634, 10, 641, 7, 674, 3, 1, 1, 633, 1, 5, 1, 632, 647, 4, 2, 2, 2, 1, 1, 1, 1, 2, 4, 615, 1, 626, 4, 13, 2, 652, 1, 687, 9, 658, 8, 2, 1, 673, 633, 5, 6, 602, 670, 2, 717, 714, 13, 2, 629, 1, 2, 2, 6, 1, 1, 1, 1, 657, 640, 625, 1, 601, 1, 683, 3, 663, 673, 4, 635, 1, 1, 1, 2, 1, 612, 5, 651, 1, 11, 1, 628, 4, 1, 1, 1, 1, 4, 649, 1, 2, 679, 1, 2, 1, 624, 15, 3, 1, 2, 666, 1, 1, 680, 1, 596, 550, 1, 516, 10, 511, 1, 2, 1, 1, 2, 543, 2, 585, 558, 9, 1, 533, 627, 613, 1, 1, 601, 1, 572, 1, 1, 1, 1, 3, 624, 1, 1, 616, 2, 1, 592, 2, 1, 1, 3, 1, 3, 597, 3, 610, 2, 590, 633, 595, 1, 515, 518, 1, 1, 1, 553, 1, 1, 2, 523, 30, 4, 492, 1, 1, 493, 511, 15, 1, 593, 537, 15, 1, 538, 4, 542, 563, 591, 1, 3, 578, 531, 1, 2, 641, 7, 3, 1, 1, 1, 5, 632, 4, 2, 2, 2, 1, 1, 1, 2, 4, 615, 1, 4, 13, 652, 1, 658, 8, 2, 673, 6, 602, 2, 13, 2, 1, 2, 2, 6, 1, 1, 1, 657, 1, 1, 663, 4, 1, 1, 1, 2, 1, 651, 1, 1, 628, 4, 1, 1, 1, 1, 649, 1, 2, 1, 1, 624, 15, 3, 1, 666, 1, 1, 1, 1, 10, 2, 1, 1, 2, 543, 2, 1, 533, 1, 601, 1, 1, 1, 1, 3, 624, 1, 616, 2, 1, 2, 1, 3, 1, 3, 597, 3, 590, 515, 1, 1, 553, 1, 2, 523, 30, 492, 1, 493, 15, 1, 1, 538, 542, 1, 578, 1, 2, 641, 7, 3, 1, 1, 1, 5, 632, 4, 2, 2, 2, 1, 1, 1, 2, 4, 615, 1, 4, 13, 652, 1, 658, 8, 2, 673, 6, 602, 2, 13, 2, 1, 2, 2, 6, 1, 1, 1, 657, 1, 1, 663, 4, 1, 1, 1, 2, 1, 651, 1, 1, 628, 4, 1, 1, 1, 1, 649, 1, 2, 1, 1, 624, 15, 3, 1, 666, 1, 1, 1, 1, 10, 2, 1, 1, 2, 543, 2, 1, 533, 1, 601, 1, 1, 1, 1, 3, 624, 1, 616, 2, 1, 2, 1, 3, 1, 3, 597, 3, 590, 515, 1, 1, 553, 1, 2, 523, 30, 492, 1, 493, 15, 1, 1, 538, 542, 1, 578, 1, 7, 1, 1, 5, 2, 2, 2, 1, 1, 2, 4, 615, 1, 13, 1, 8, 2, 602, 2, 2, 2, 6, 1, 1, 657, 1, 1, 2, 1, 1, 628, 4, 1, 1, 1, 1, 1, 2, 624, 15, 3, 1, 1, 1, 1, 1, 2, 543, 2, 533, 601, 1, 1, 3, 624, 616, 2, 1, 3, 1, 3, 597, 3, 553, 1, 523, 30, 493, 1, 538, 7, 1, 1, 5, 2, 2, 2, 1, 1, 2, 4, 615, 1, 13, 1, 8, 2, 602, 2, 2, 2, 6, 1, 1, 657, 1, 1, 2, 1, 1, 628, 4, 1, 1, 1, 1, 1, 2, 624, 15, 3, 1, 1, 1, 1, 1, 2, 543, 2, 533, 601, 1, 1, 3, 624, 616, 2, 1, 3, 1, 3, 597, 3, 553, 1, 523, 30, 493, 1, 538, 1, 2, 2, 1, 2, 4, 615, 1, 2, 2, 6, 1, 657, 1, 2, 1, 4, 1, 1, 1, 1, 2, 15, 3, 1, 1, 1, 2, 543, 2, 1, 624, 2, 1, 1, 3, 597, 3, 1, 30, 1, 2, 2, 1, 2, 4, 615, 1, 2, 2, 6, 1, 657, 1, 2, 1, 4, 1, 1, 1, 1, 2, 15, 3, 1, 1, 1, 2, 543, 2, 1, 624, 2, 1, 1, 3, 597, 3, 1, 30, 2, 1, 4, 615, 1, 6, 1, 2, 1, 1, 1, 1, 1, 3, 1, 2, 543, 2, 1, 3, 597, 3, 2, 1, 4, 615, 1, 6, 1, 2, 1, 1, 1, 1, 1, 3, 1, 2, 543, 2, 1, 3, 597, 3, 7, 1, 5, 1, 1, 1, 1, 1, 1, 1, 601, 1, 3, 616, 538, 7, 1, 5, 1, 1, 1, 1, 1, 1, 1, 601, 1, 3, 616, 538, 7, 1, 5, 2, 1, 13, 1, 8, 602, 2, 2, 1, 1, 1, 628, 1, 624, 1, 1, 533, 601, 1, 3, 616, 553, 523, 493, 1, 538, 7, 1, 5, 2, 1, 13, 1, 8, 602, 2, 2, 1, 1, 1, 628, 1, 624, 1, 1, 533, 601, 1, 3, 616, 3, 553, 523, 493, 1, 538, 2, 13, 8, 602, 2, 2, 1, 628, 624, 533, 553, 523, 493, 1, 2, 13, 8, 602, 2, 2, 1, 628, 624, 533, 553, 523, 493, 1, 3, 3, 3, 1, 2, 2, 2, 2, 657, 1, 4, 2, 15, 1, 1, 1, 624, 2, 1, 30, 1, 2, 2, 2, 2, 657, 1, 4, 2, 15, 1, 1, 1, 624, 2, 1, 1, 30, 1, 607, 634, 10, 674, 633, 1, 2, 687, 1, 670, 640, 625, 3, 673, 635, 5, 4, 679, 2, 596, 516, 511, 1, 585, 613, 1, 572, 1, 1, 610, 595, 593, 537, 15, 591, 3, 531, 634, 10, 674, 633, 1, 2, 687, 1, 670, 640, 625, 3, 673, 635, 5, 4, 679, 2, 596, 516, 511, 1, 585, 613, 1, 572, 1, 1, 610, 595, 593, 537, 15, 591, 3, 531, 634, 674, 2, 1, 670, 640, 625, 3, 635, 679, 2, 596, 516, 511, 1, 585, 613, 1, 610, 595, 593, 537, 591, 3, 531, 10, 633, 1, 687, 673, 5, 4, 1, 572, 1, 15, 10, 633, 1, 687, 673, 5, 4, 1, 572, 1, 15, 633, 687, 673, 5, 4, 1, 572, 1, 10, 1, 15, 634, 674, 2, 1, 670, 640, 625, 3, 635, 679, 2, 596, 516, 511, 1, 585, 613, 1, 610, 595, 593, 537, 591, 3, 531, 634, 674, 2, 1, 670, 640, 625, 3, 635, 679, 2, 596, 516, 511, 1, 585, 613, 1, 610, 595, 593, 537, 591, 3, 531, 607, 634, 10, 674, 633, 1, 2, 687, 1, 670, 640, 625, 3, 673, 635, 5, 4, 679, 2, 596, 516, 511, 1, 585, 613, 1, 572, 1, 1, 610, 595, 593, 537, 15, 591, 3, 531, 607, 634, 10, 674, 633, 1, 647, 1, 626, 2, 687, 9, 1, 633, 5, 670, 717, 714, 629, 1, 640, 625, 601, 3, 673, 635, 612, 5, 11, 4, 679, 2, 2, 680, 596, 550, 516, 511, 1, 585, 558, 9, 627, 613, 1, 572, 1, 1, 592, 610, 633, 595, 518, 1, 1, 4, 1, 511, 593, 537, 15, 4, 563, 591, 3, 531, 607, 634, 10, 674, 633, 1, 647, 1, 626, 2, 687, 9, 1, 633, 5, 670, 717, 714, 629, 1, 640, 625, 601, 683, 3, 673, 635, 612, 5, 11, 4, 679, 2, 2, 680, 596, 550, 516, 511, 1, 585, 558, 9, 627, 613, 1, 572, 1, 1, 592, 1, 610, 2, 633, 595, 1, 518, 1, 1, 4, 1, 511, 593, 537, 15, 4, 563, 591, 3, 531, 4, 1, 680, 9, 633, 1, 563, 1, 680, 9, 633, 1, 563, 1, 2, 680, 558, 9, 592, 633, 1, 4, 563, 1, 2, 680, 558, 9, 592, 633, 518, 1, 4, 563, 1, 647, 9, 5, 629, 612, 550, 627, 1, 1, 1, 647, 626, 9, 633, 5, 717, 714, 629, 601, 612, 11, 550, 627, 1, 1, 511, 4, 1, 647, 626, 9, 633, 5, 717, 714, 629, 601, 612, 11, 550, 627, 1, 1, 511, 4, 626, 633, 717, 714, 601, 11, 511, 4, 1, 647, 626, 9, 633, 5, 717, 714, 629, 601, 612, 11, 550, 627, 1, 1, 511, 4, 1, 647, 626, 9, 633, 5, 717, 714, 629, 1, 601, 612, 11, 2, 680, 550, 558, 9, 627, 592, 633, 518, 1, 1, 4, 1, 511, 4, 563, 1, 647, 626, 9, 633, 5, 717, 714, 629, 1, 601, 612, 11, 2, 680, 550, 558, 9, 627, 592, 633, 518, 1, 1, 4, 1, 511, 4, 563, 683, 1, 2, 683, 1, 2, 683, 1, 2, 1, 683, 1, 2, 1, 683, 1, 2, 1, 683, 1, 2, 1, 683, 1, 2, 1, 518, 518, 518, 2, 558, 592, 2, 558, 592, 4, 695, 695, 695, 695] p=0.77"]
S6 -> S564 [label="1 [175, 175, 175, 175, 175, 175] p=0.0"]
S3 -> S4 [label="2 [153, 149, 148, 149, 152, 148, 150, 149, 151, 149, 151, 146, 149, 152, 146, 152, 148, 148, 147, 147, 150, 151, 150, 151, 150, 149, 152, 148, 151, 148, 150, 153, 151, 152, 150, 151, 150, 146, 146, 148, 148, 144, 144, 148, 149, 148, 148, 149, 149, 149, 150, 151, 153, 145, 148, 143, 150, 152, 151, 151, 146, 147, 148, 150, 148, 150, 150, 148, 150, 145, 152, 149, 148, 149, 152, 148, 150, 149, 151, 149, 151, 146, 149, 152, 146, 152, 148, 148, 147, 147, 150, 151, 150, 151, 150, 149, 152, 148, 151, 148, 150, 153, 151, 152, 150, 151, 150, 146, 146, 148, 148, 144, 144, 148, 149, 148, 148, 149, 149, 149, 150, 151, 153, 148, 150, 152, 151, 151, 146, 147, 148, 150, 148, 150, 150, 148, 150, 145, 152, 149, 149, 151, 149, 149, 152, 152, 148, 148, 147, 150, 151, 150, 151, 150, 152, 148, 153, 151, 152, 150, 151, 146, 146, 148, 148, 144, 149, 149, 150, 151, 153, 148, 152, 147, 148, 150, 150, 150, 148, 150, 145, 152, 148, 152, 148, 150, 149, 151, 146, 146, 147, 149, 148, 151, 150, 150, 144, 148, 148, 148, 149, 149, 150, 151, 151, 146, 148, 148, 152, 148, 150, 149, 151, 146, 146, 147, 149, 148, 151, 150, 150, 144, 148, 148, 148, 149, 149, 150, 151, 151, 146, 148, 152, 150, 151, 146, 149, 148, 151, 150, 144, 148, 148, 148, 149, 149, 151, 148, 148, 149, 150, 151, 146, 148, 148, 148, 149, 146, 147, 150, 150, 151, 146, 148, 148, 148, 149, 146, 147, 150, 150, 151, 146, 148, 146, 147, 150, 146, 147, 150, 149, 149, 151, 149, 149, 152, 152, 148, 148, 147, 150, 151, 150, 151, 150, 152, 148, 153, 151, 152, 150, 151, 146, 146, 148, 148, 144, 149, 149, 150, 151, 153, 148, 152, 147, 148, 150, 150, 150, 148, 150, 145, 152, 152, 150, 151, 146, 149, 148, 151, 150, 144, 148, 148, 148, 149, 149, 151, 148, 148, 149, 150, 151, 146, 148, 149, 149, 151, 149, 149, 152, 152, 148, 148, 147, 150, 151, 150, 151, 150, 152, 148, 153, 151, 152, 150, 151, 146, 146, 148, 148, 144, 149, 149, 150, 151, 153, 148, 152, 147, 148, 150, 150, 150, 148, 150, 145, 152, 152, 150, 151, 146, 149, 148, 151, 150, 144, 148, 148, 148, 149, 149, 151, 148, 151, 150, 148, 144, 149, 153, 148, 150, 148, 146, 151, 144, 148, 148, 151, 148, 144, 149, 153, 148, 150, 148, 151, 148, 144, 153, 150, 152, 150, 151, 149, 148, 150, 148, 148, 149, 149, 151, 149, 149, 151, 149, 149, 152, 152, 148, 147, 150, 150, 151, 152, 148, 153, 151, 152, 150, 151, 146, 146, 148, 149, 150, 151, 152, 147, 148, 150, 150, 150, 145, 152, 148, 149, 148, 148, 150, 150, 149, 149, 151, 149, 149, 152, 152, 148, 147, 150, 150, 151, 152, 148, 153, 151, 152, 150, 151, 146, 146, 148, 149, 150, 151, 152, 147, 148, 150, 150, 150, 145, 152, 149, 151, 149, 149, 152, 147, 150, 148, 153, 152, 150, 148, 149, 151, 147, 148, 150, 149, 152, 148, 150, 151, 152, 151, 151, 146, 146, 150, 152, 150, 150, 145, 152] p=1.0"]
S564 -> S6 [label="2 [1, 1, 1, 1, 1] p=1.0"]