S0 -> S1 [label="1 [0, 0, 0, 0, 0, 0, 0, 0, 0, 0, 0, 0, 0, 0, 0, 0, 0, 0, 0, 0, 0, 0, 0, 0, 0, 0, 0, 0, 0, 0, 0, 0, 0, 0, 0, 0, 0, 0, 0, 0, 0, 0, 0, 0, 0, 0, 0, 0, 0, 0, 0, 0, 0, 0, 0, 0, 0, 0, 0, 0, 0, 0, 0, 0, 0, 0, 0, 0, 0, 0, 0, 0, 0, 0, 0, 0, 0, 0, 0, 0, 0, 0, 0, 0, 0, 0, 0, 0, 0, 0, 0, 0, 0, 0, 0, 0, 0, 0, 0, 0, 0, 0, 0, 0, 0, 0, 0, 0, 0, 0, 0, 0, 0, 0, 0, 0, 0, 0, 0, 0, 0, 0, 0, 0, 0, 0, 0, 0, 0, 0, 0, 0, 0, 0, 0, 0, 0, 0, 0, 0, 0, 0, 0, 0, 0, 0, 0, 0, 0, 0, 0, 0, 0, 0, 0, 0, 0, 0, 0, 0, 0, 0, 0, 0, 0, 0, 0, 0, 0, 0, 0, 0, 0, 0, 0, 0, 0, 0, 0, 0, 0, 0, 0, 0, 0, 0, 0, 0, 0, 0, 0, 0, 0, 0, 0, 0, 0, 0, 0, 0, 0, 0, 0, 0, 0, 0, 0, 0, 0, 0, 0, 0, 0, 0, 0, 0, 0, 0, 0, 0, 0, 0, 0, 0, 0, 0, 0, 0, 0, 0, 0, 0, 0, 0, 0, 0, 0, 0, 0, 0, 0, 0, 0, 0, 0, 0, 0, 0, 0, 0] p=0.29"]
S0 -> S2 [label="2 [0, 0, 0, 0, 0, 0, 0, 0, 0, 0, 0, 0, 0, 0, 0, 0, 0, 0, 0, 0, 0, 0, 0, 0, 0, 0, 0, 0, 0, 0, 0, 0, 0, 0, 0, 0, 0, 0, 0, 0, 0, 0, 0, 0, 0, 0, 0, 0, 0, 0, 0, 0, 0, 0, 0, 0, 0, 0, 0, 0, 0, 0, 0, 0, 0, 0, 0, 0, 0, 0, 0, 0, 0, 0, 0, 0, 0, 0, 0, 0, 0, 0, 0, 0, 0, 0, 0, 0, 0, 0, 0, 0, 0, 0, 0, 0, 0, 0, 0, 0, 0, 0, 0, 0, 0, 0, 0, 0, 0, 0, 0, 0, 0, 0, 0, 0, 0, 0, 0, 0, 0, 0, 0, 0, 0, 0, 0, 0, 0, 0, 0, 0, 0, 0, 0, 0, 0, 0, 0, 0, 0, 0, 0, 0, 0, 0, 0, 0, 0, 0, 0, 0, 0, 0, 0, 0, 0, 0, 0, 0, 0, 0, 0, 0, 0, 0, 0, 0, 0, 0, 0, 0, 0, 0, 0, 0, 0, 0, 0, 0, 0, 0, 0, 0, 0, 0, 0, 0, 0, 0, 0, 0, 0, 0, 0, 0, 0, 0, 0, 0, 0, 0, 0, 0, 0, 0, 0, 0, 0, 0, 0, 0, 0, 0, 0, 0, 0, 0, 0, 0, 0, 0, 0, 0, 0, 0, 0, 0, 0, 0, 0, 0, 0, 0, 0, 0, 0, 0, 0, 0, 0, 0, 0, 0, 0, 0, 0, 0, 0, 0, 0, 0, 0, 0, 0, 0, 0, 0, 0, 0, 0, 0, 0, 0, 0, 0, 0, 0, 0, 0, 0, 0, 0, 0, 0, 0, 0, 0, 0, 0, 0, 0, 0, 0, 0, 0, 0, 0, 0, 0, 0, 0, 0, 0, 0, 0, 0, 0, 0, 0, 0, 0, 0, 0, 0, 0, 0, 0, 0] p=0.36"]
S0 -> S42 [label="3 [0, 0, 0, 0, 0, 0, 0, 0, 0, 0, 0, 0, 0, 0, 0, 0, 0, 0, 0, 0, 0, 0, 0, 0, 0, 0, 0, 0, 0, 0, 0, 0, 0, 0, 0, 0, 0, 0, 0, 0, 0, 0, 0, 0, 0, 0, 0, 0, 0, 0, 0, 0, 0, 0, 0, 0, 0, 0, 0, 0, 0, 0, 0, 0, 0, 0, 0, 0, 0, 0, 0, 0, 0, 0, 0, 0, 0, 0, 0, 0, 0, 0, 0, 0, 0, 0, 0, 0, 0, 0, 0, 0, 0, 0, 0, 0, 0, 0, 0, 0, 0, 0, 0, 0, 0, 0, 0, 0, 0, 0, 0, 0, 0, 0, 0, 0, 0, 0, 0, 0, 0, 0, 0, 0, 0] p=0.15"]
S0 -> S9 [label="4 [0, 0, 0, 0, 0, 0, 0, 0, 0, 0, 0, 0, 0, 0, 0, 0, 0, 0, 0, 0, 0, 0, 0, 0, 0, 0, 0, 0, 0, 0, 0, 0, 0, 0, 0, 0, 0, 0, 0, 0, 0, 0, 0, 0, 0, 0, 0, 0, 0, 0, 0, 0, 0, 0, 0, 0, 0, 0, 0, 0, 0, 0, 0, 0, 0, 0, 0, 0, 0, 0, 0, 0, 0, 0, 0, 0, 0, 0, 0, 0, 0, 0, 0, 0, 0, 0, 0, 0, 0, 0, 0, 0, 0, 0, 0, 0, 0, 0, 0, 0, 0, 0, 0, 0, 0, 0, 0, 0, 0, 0, 0, 0, 0, 0, 0, 0, 0, 0, 0, 0, 0, 0, 0, 0, 0, 0, 0, 0, 0, 0, 0, 0, 0, 0, 0, 0, 0, 0, 0, 0, 0, 0, 0, 0, 0, 0, 0, 0, 0, 0, 0, 0, 0, 0, 0, 0, 0, 0, 0, 0, 0, 0, 0, 0, 0, 0, 0, 0, 0, 0, 0, 0, 0, 0, 0] p=0.2"]
S1 -> S2 [label="2 [5, 10, 15, 5, 5, 10, 5, 5, 15, 10, 5, 5, 10, 5, 5, 5, 15, 15, 10, 15, 15, 20, 10, 10, 5, 10, 10, 10, 5, 10, 15, 5, 15, 20, 15, 5, 10, 5, 5, 5, 15, 5, 10, 5, 15, 15, 10, 10, 10, 5, 5, 5, 10, 10, 5, 5, 5, 5, 5, 5, 5, 5, 10, 10, 15, 5, 5, 10, 10, 5, 5, 20, 15, 5, 5, 5, 5, 10, 10, 10, 5, 10, 5, 5, 5, 15, 5, 5, 5, 10, 10, 10, 5, 5, 15, 5, 5, 5, 5, 10, 10, 5, 10, 5, 15, 5, 5, 20, 5, 5, 5, 5, 10, 5, 5, 5, 15, 5, 5, 5, 15, 5, 5, 5, 10, 5, 10, 10, 5, 10, 15, 5, 5, 10, 5, 10, 10, 5, 10, 5, 5, 15, 15, 10, 5, 5, 10, 15, 5, 10, 10, 10, 15, 5, 5, 5, 10, 5, 5, 15, 15, 5, 15, 10, 5, 10, 10, 5, 5, 5, 5, 10, 10, 5, 10, 15, 5, 10, 10, 5, 10, 10, 10, 5, 10, 5, 10, 5, 5, 5, 5, 5, 10, 5, 5, 10, 10, 10, 10, 20, 10, 15, 5, 5, 10, 10, 10, 15, 10, 5, 5, 5, 10, 15, 5, 5, 5, 10, 5, 5, 5, 5, 15, 5, 5, 5, 5, 5, 5, 10, 10, 5, 15, 15, 5, 5, 10, 5, 10, 10, 5, 10, 10, 15, 5, 5, 10, 10, 15, 10, 5, 5, 5, 10, 5, 10, 5, 10, 10, 5, 10, 10, 10, 5, 5, 5, 5, 5, 5, 10, 10, 5, 5, 10, 10, 5, 5, 5, 5, 10, 10, 5, 10, 10, 5, 5, 5, 5, 10, 10, 10, 5, 5, 5, 5, 10, 10, 5, 5, 5, 10, 5, 10, 5, 5, 5, 5, 5, 5, 5, 5, 5, 5, 10, 10, 5, 10, 10, 10, 10, 5, 15, 5, 10, 5, 10, 10, 5, 10, 5, 15, 5, 10, 5, 5, 5, 10, 10, 10, 5, 10, 5, 10, 10, 10, 5, 10, 10, 5, 5, 5, 10, 5, 10, 10, 10, 10, 10, 10, 10, 5, 5, 10, 5, 5, 5, 5, 5, 5, 5, 5, 10, 15, 5, 5, 5, 10, 5, 10, 5, 10, 10, 15, 5, 15, 5, 5, 15, 15, 15, 10, 5, 15, 15, 15, 5, 15, 10, 15, 5, 5, 5, 15, 5, 15, 5, 5, 15, 5, 10, 5, 15, 5, 5, 5, 5, 5, 10, 5, 5, 5, 10, 5, 10, 15, 10, 5, 15, 10, 5, 5, 10, 20, 15, 5, 5, 5, 15, 5, 10, 5, 15, 5, 5, 5, 15, 10, 10, 5, 15, 10, 5, 15, 20, 10, 20, 10, 15, 10, 5, 5, 20, 10, 5, 5, 5, 10, 15, 5, 20, 5, 10, 15, 5, 15, 10, 15, 5, 5, 15, 15, 15, 5, 5, 5, 15, 5, 10, 5, 5, 5, 10, 15, 5, 10, 10, 15, 15, 5, 15, 15, 15, 15, 15, 5, 15, 15, 5, 15, 5, 10, 5, 10, 15, 5, 5, 10, 5, 5, 15, 5, 15, 10, 5, 15, 5, 10, 15, 5, 5, 5, 5, 5, 10, 15, 5, 5, 5, 5, 5, 5, 5, 5, 10, 15, 10, 5, 15, 10, 5, 5, 10, 20, 5, 5, 15, 5, 10, 5, 15, 5, 5, 15, 10, 15, 10, 5, 15, 20, 10, 20, 10, 15, 10, 5, 5, 20, 10, 5, 5, 5, 10, 15, 5, 20, 5, 10, 15, 5, 15, 10, 15, 5, 5, 15, 15, 15, 5, 5, 5, 15, 5, 10, 5, 5, 5, 10, 15, 5, 10, 10, 15, 5, 10, 10, 10, 10, 5, 10, 10, 10, 5, 10, 5, 10, 5, 5, 10, 10, 15, 10, 5, 10, 10, 5, 10, 10, 10, 10, 5, 10, 5, 10, 10, 10, 10, 5, 10, 10, 5, 5, 10, 5, 10, 10, 10, 10, 10, 10, 10, 10, 10, 5, 10, 10, 10, 5, 5, 10, 10, 15, 5, 15, 15, 15, 15, 15, 5, 15, 15, 5, 15, 5, 10, 5, 10, 15, 5, 5, 10, 5, 10, 15, 10, 20, 20, 10, 5, 15, 15, 5, 10, 10, 10, 5, 10, 10, 5, 5, 10, 5, 10, 10, 10, 10, 10, 10, 10, 10, 10, 5, 10, 10, 10, 5, 5, 10, 10, 5, 20, 10, 20, 15, 10, 5, 5, 10, 5, 5, 5, 10, 15, 5, 5, 15, 5, 15, 10, 15, 5, 15, 5, 5, 15, 5, 10, 5, 5, 5, 10, 15, 5, 10, 15, 10, 10, 5, 10, 10, 5, 10, 5, 10, 5, 10, 15, 5, 10, 5, 10, 10, 5, 10, 5, 10, 10, 5, 5, 5, 5, 5, 5, 5, 5, 15, 5, 10, 5, 15, 5, 10, 15, 5, 5, 5, 5, 5, 10, 15, 5, 5, 5, 5, 5, 5, 5, 5, 10, 15, 10, 5, 15, 10, 5, 5, 10, 20, 5, 5, 15, 5, 10, 5, 15, 5, 5, 15, 15, 15, 5, 10, 5, 15, 5, 10, 5, 5, 5, 5, 5, 10, 15, 5, 5, 5, 5, 5, 10, 15, 10, 5, 15, 10, 5, 5, 10, 20, 5, 15, 10, 5, 15, 5, 5, 15, 15, 15, 5, 5, 5, 5, 15, 5, 5, 5, 15, 10, 5, 5, 10, 5, 5, 15, 15, 5, 5, 15, 10, 5, 10, 15, 10, 10, 20, 5, 5, 5, 15, 10, 5, 10, 15, 10, 10, 20, 5, 15, 5, 5, 5, 10, 5, 5, 5, 15, 15, 5, 5, 10, 15, 10, 20, 20, 10, 5, 15, 15, 5, 10, 10, 5, 10, 10, 5, 5, 10, 10, 10, 10, 10, 10, 10, 5, 5, 5, 10, 5, 10, 5, 10, 15, 5, 15, 5, 15, 15, 5, 15, 5, 15, 5, 10, 5, 10, 15, 10, 15, 5, 15, 15, 15, 15, 15, 5, 15, 15, 5, 15, 5, 10, 5, 10, 15, 5, 5, 10, 5, 15, 5, 15, 15, 15, 5, 5, 5, 15, 15, 15, 15, 5, 5, 5, 5, 10, 15, 10, 15, 5, 5, 15, 15, 15, 5, 15, 5, 5, 5, 10, 10, 15, 15, 5, 5, 5, 5, 5, 5, 5, 5, 5, 10, 15, 10, 5, 5, 10, 5, 5, 10, 15, 15, 15, 10, 15, 5, 15, 5, 10, 5, 5, 5, 10, 15, 10, 5, 20, 10, 20, 15, 10, 5, 5, 10, 5, 5, 5, 10, 15, 5, 5, 15, 5, 15, 10, 15, 5, 15, 5, 5, 15, 5, 10, 5, 5, 5, 10, 15, 5, 10, 15, 20, 20, 5, 15, 5, 15, 5, 5, 5, 5, 5, 20, 5, 20, 15, 5, 15, 5, 5, 5, 5, 5, 10, 10, 15, 10, 5, 5, 5, 10, 10, 15, 20, 5, 5, 5, 10, 10, 15, 5, 5, 5, 10, 10, 20, 20, 15, 5, 20, 15, 5, 5, 5, 5, 10, 10, 20, 20, 5, 5, 15, 5, 15, 5, 5, 5, 15, 5, 15, 5, 5, 5, 5, 5, 5, 5, 5, 5, 5, 5, 5, 5, 5, 10, 10, 5, 10, 5, 10, 10, 5, 10, 10, 5, 15, 10, 10, 5, 15, 10, 10, 10, 5, 10, 10, 5, 10, 5, 10, 5, 10, 15, 5, 10, 5, 10, 10, 5, 10, 5, 10, 10, 5, 10, 10, 5, 10, 5, 10, 10, 5, 10, 5, 10, 5, 10, 5, 10, 10, 10, 10, 5, 5, 5, 10, 10, 10, 15, 10, 10, 5, 5, 5, 10, 10, 10, 10, 15, 10, 10, 5, 10, 5, 10, 10, 10, 10, 5, 10, 5, 10, 5, 5, 5, 15, 15, 5, 5, 15, 15, 5, 15, 10, 10, 10, 10, 5, 5, 10, 5, 5, 5, 10, 5, 10, 10, 20, 20, 10, 5, 15, 15, 5, 10, 10, 15, 10, 20, 20, 10, 5, 15, 15, 5, 10, 15, 15, 20, 10, 10, 15, 20, 10, 15, 20, 15, 15, 5, 5, 15, 10, 5, 5, 10, 5, 5, 10, 5, 5, 10, 5, 5, 5, 10, 10, 5, 10, 10, 5, 5, 10, 10, 10, 10, 10, 10, 10, 5, 5, 5, 10, 10, 10, 10, 10, 10, 10, 5, 5, 5, 10, 10, 10, 5, 10, 10, 10, 10, 10, 10, 10, 10, 10, 5, 10, 5, 10, 10, 10, 10, 5, 5, 15, 5, 10, 5, 10, 15, 5, 10, 5, 10, 5, 10, 10, 10, 10, 15, 15, 15, 5, 15, 10, 5, 15, 15, 5, 10, 15, 5, 5, 15, 15, 10, 15, 5, 5, 15, 5, 15, 15, 10, 5, 5, 5, 5, 15, 5, 5, 15, 15, 15, 15, 5, 10, 10, 5, 15, 5, 5, 5, 5, 15, 15, 15, 15, 5, 10, 5, 10, 10, 5, 5, 5, 10, 15, 5, 5, 15, 15, 15, 15, 5, 10, 10, 5, 5, 5, 10, 5, 5, 5, 10, 15, 5, 5, 15, 15, 15, 15, 5, 10, 10, 15, 5, 10, 5, 10, 5, 10, 5, 10, 10, 5, 10, 10, 5, 10, 10, 5, 10, 5, 10, 10, 10, 5, 10, 10, 5, 10, 10, 10, 10, 10, 5, 10, 10, 5, 5, 10, 10, 5, 10, 10, 5, 10, 10, 5, 5, 15, 5, 15, 10, 10, 20, 10, 10, 5, 5, 10, 10, 5, 5, 10, 10, 10, 10, 10, 5, 5, 5, 10, 10, 10, 5, 10, 10, 10, 5, 5, 15, 10, 10, 20, 10, 5, 5, 5, 5, 10, 5, 5, 5, 5, 5, 10, 5, 5, 5, 5, 10, 5, 5, 5, 10, 5, 5, 5, 10, 5, 5, 5, 5, 5, 5, 5, 5, 5, 5, 5, 5, 10, 5, 10, 10, 10, 5, 5, 10, 5, 10, 5, 10, 5, 15, 5, 5, 5, 5, 5, 10, 5, 5, 10, 5, 10, 5, 5, 5, 5, 5, 5, 5, 10, 15, 5, 5, 5, 5, 5, 10, 5, 5, 5, 5, 10, 5, 5, 5, 10, 5, 5, 10, 5, 5, 10, 10, 5, 5, 5, 5, 5, 5, 5, 10, 10, 5, 5, 10, 10, 5, 5, 5, 5, 5, 5, 10, 5, 5, 5, 5, 5, 5, 10, 15, 5, 5, 5, 5, 5, 5, 5, 5, 5, 5, 5, 5, 5, 5, 5, 5, 5, 10, 10, 5, 5, 10, 5, 15, 5, 10, 5, 5, 5, 5, 10, 5, 5, 5, 5, 5, 5, 15, 5, 5, 5, 5, 10, 5, 5, 5, 5, 10, 10, 10, 5, 5, 5, 5, 5, 10, 10, 10, 10, 5, 5, 5, 5, 5, 5, 10, 5, 5, 5, 5, 5, 5, 10, 5, 5, 5, 5, 5, 5, 5, 5, 5, 5, 5, 5, 5, 5, 5, 10, 10, 5, 5, 10, 5, 15, 5, 10, 5, 5, 5, 10, 5, 5, 5, 10, 5, 5, 5, 5, 5, 5, 15, 5, 5, 5, 5, 5, 10, 10, 5, 10, 5, 5, 5, 5, 5, 5, 5, 5, 5, 5, 5, 5, 10, 5, 5, 5, 15, 5, 10, 5, 5, 5, 10, 5, 10, 5, 5, 10, 5, 5, 10, 5, 5, 5, 5, 10, 10, 10, 5, 5, 5, 5, 5, 10, 10, 10, 10, 5, 5, 5, 5, 5, 5, 10, 5, 5, 5, 5, 5, 5, 10, 5, 5, 10, 5, 5, 5, 5, 10, 10, 10, 5, 5, 5, 10, 10, 10, 5, 5, 5, 5, 5, 5, 5, 5, 5, 5, 5, 10, 5, 5, 10, 5, 5, 5, 10, 5, 5, 5, 5, 5, 5, 5, 10, 5, 10, 10, 5, 5, 5, 5, 10, 5, 10, 10, 5, 5, 5, 5, 10, 5, 5, 5, 5, 5, 5, 5, 5, 5, 10, 10, 5, 10, 5, 10, 5, 10, 10, 5, 5, 5, 10, 5, 5, 5, 10, 5, 5, 5, 5, 5, 5, 5, 5, 10, 5, 5, 5, 5, 5, 5, 15, 5, 5, 5, 5, 15, 5, 5, 5, 15, 5, 5, 5, 5, 5, 15, 5, 10, 5, 5, 5, 10, 5, 5, 10, 10, 5, 5, 5, 5, 5, 5, 5, 5, 10, 5, 5, 5, 10, 5, 5, 5, 5, 5, 5, 5, 5, 5, 5, 5, 5, 10, 5, 5, 5, 15, 5, 10, 5, 5, 5, 5, 5, 15, 5, 5, 5, 5, 15, 5, 5, 5, 5, 5, 5, 15, 5, 5, 10, 5, 5, 5, 5, 5, 5, 5, 5, 5, 10, 10, 5, 5, 5, 5, 10, 10, 5, 5, 10, 5, 10, 5, 5, 5, 5, 5, 5, 5, 5, 5, 5, 5, 5, 5, 5, 5, 5, 5, 5, 5, 5, 5, 5, 5, 5, 5, 5, 5, 5, 5, 10, 5, 5, 15, 10, 10, 20, 10, 10, 15, 10, 10, 10, 15, 15, 10, 10, 20, 10, 5, 15, 15, 5, 20, 5, 5, 10, 15, 20, 5, 5, 5, 5, 5, 5, 5, 5, 5, 5, 5, 5, 5, 5, 15, 5, 5, 5, 5, 5, 5, 5, 15, 5, 5, 5, 5, 5, 10, 15, 5, 5, 5, 5, 15, 5, 5, 10, 15, 5, 5, 15, 5, 5, 5, 10, 15, 5, 10, 15, 5, 15, 5, 15, 5, 15, 10, 10, 15, 5, 5, 5, 5, 15, 5, 15, 5, 5, 5, 5, 5, 15, 5, 10, 15, 5, 10, 10, 15, 5, 10, 5, 5, 5, 15, 5, 15, 5, 5, 5, 15, 5, 5, 5, 5, 10, 10, 5, 5, 10, 5, 5, 10, 5, 5, 5, 10, 5, 5, 10, 5, 5, 5, 10, 10, 5, 5, 10, 10, 5, 5, 5, 5, 5, 10, 5, 5, 10, 10, 10, 5, 5, 5, 5, 10, 10, 5, 5, 5, 5, 5, 10, 5, 5, 15, 15, 15, 10, 5, 15, 5, 15, 5, 15, 15, 15, 15, 5, 10, 15, 5, 5, 5, 10, 15, 5, 5, 5, 10, 15, 5, 5, 5, 15, 15, 15, 5, 10, 10, 15, 5, 10, 15, 5, 10, 15, 5, 10, 15, 5, 10, 5, 5, 5, 5, 15, 15, 5, 10, 5, 10, 5, 10, 10, 10, 10, 10, 10, 10, 10, 10, 10, 5, 10, 10, 10, 5, 10, 10, 10, 10, 5, 10, 10, 10, 5, 10, 10, 10, 10, 10, 10, 10, 10, 5, 10, 10, 10, 10, 5, 10, 10, 10, 10, 10, 5, 10, 5, 10, 10, 10, 5, 10, 10, 10, 10, 10, 5, 10, 10, 10, 5, 10, 10, 10, 10, 10, 15, 15, 15, 15, 15, 15, 15, 10, 10, 10, 10, 10, 10, 10, 10, 10, 10, 10, 10, 5, 10, 10, 5, 10, 10, 10, 10, 10, 10, 10, 10, 10, 10, 10, 10, 10, 5, 10, 10, 10, 5, 10, 10, 10, 10, 5, 10, 10, 10, 10, 10, 10, 10, 10, 10, 10, 10, 10, 10, 10, 5, 10, 10, 10, 10, 10, 10, 10] p=1.0"]
S42 -> S6 [label="4 [5, 5, 5, 5, 5, 5, 5, 5, 5, 5, 5, 5, 5, 5, 5, 5, 5, 5, 5, 5, 5, 5, 5, 5, 5, 5, 5, 5, 5, 5, 5, 5, 5, 5, 5, 5, 5, 5, 5, 5, 5, 5, 5, 5, 5, 5, 5, 5, 5, 5, 5] p=0.41"]
S42 -> S1 [label="1 [5, 5, 5, 5, 5, 5, 5, 5, 5, 5, 5, 5, 5, 5, 5, 5, 5, 5, 5, 5, 5, 5, 5, 5, 5, 5, 5, 5, 5, 5, 5, 5, 5, 5, 5, 5, 5, 5, 5, 5, 5, 5, 5, 5, 5, 5, 5] p=0.38"]
S42 -> S181 [label="2 [5, 5, 5, 5, 5, 5, 5, 5, 5, 5, 5, 5, 5, 5, 5, 5, 5, 5, 5, 5, 5, 5, 5, 5, 5, 5, 5] p=0.22"]
S2 -> S9 [label="4 [10, 30, 15, 30, 15, 30, 15, 10, 30, 10, 15, 10, 25, 5, 30, 10, 15, 30, 5, 30, 25, 30, 5, 25, 10, 30, 25, 10, 25, 10, 25, 5, 30, 10, 15, 30, 10, 25, 5, 30, 10, 15, 30, 10, 25, 5, 30, 10, 30, 10, 10, 15, 10, 10, 25, 30, 15, 30, 10, 5, 15, 15, 25, 10, 5, 25, 10, 30, 10, 25, 10, 5, 5, 10, 5, 30, 15, 10, 25, 10, 25, 5, 10, 15, 5, 5, 10, 10, 5, 25, 5, 5, 20, 25, 10, 10, 10, 15, 5, 25, 10, 30, 10, 15, 5, 10, 5, 10, 15, 10, 10, 5, 10, 15, 10, 25, 10, 10, 5, 25, 10, 25, 5, 10, 25, 5, 25, 5, 10, 15, 10, 10, 25, 5, 5, 25, 5, 10, 10, 10, 10, 25, 15, 10, 25, 30, 15, 5, 15, 5, 5, 20, 25, 15, 30, 25, 10, 25, 30, 10, 5, 5, 15, 30, 10, 10, 10, 25, 10, 10, 5, 25, 25, 5, 5, 10, 30, 30, 10, 25, 5, 15, 15, 10, 10, 10, 25, 5, 5, 5, 15, 10, 25, 5, 10, 15, 5, 5, 10, 5, 25, 5, 5, 20, 25, 10, 10, 10, 5, 25, 30, 15, 5, 10, 5, 10, 10, 5, 10, 25, 10, 5, 25, 25, 5, 10, 5, 25, 5, 10, 10, 10, 5, 25, 5, 10, 10, 10, 25, 15, 10, 25, 30, 15, 5, 15, 5, 5, 20, 25, 15, 25, 10, 30, 10, 5, 5, 10, 10, 10, 25, 10, 10, 5, 25, 25, 5, 5, 10, 30, 10, 25, 25, 10, 25, 15, 10, 15, 10, 10, 10, 25, 15, 5, 10, 25, 30, 30, 10, 10, 10, 10, 25, 15, 30, 25, 10, 25, 15, 10, 15, 10, 10, 10, 25, 15, 5, 10, 25, 30, 5, 10, 25, 10, 10, 10, 10, 10, 25, 10, 25, 10, 10, 30, 15, 30, 10, 5, 10, 25, 15, 10, 10, 25, 5, 5, 15, 5, 25, 10, 10, 25, 15, 10, 25, 25, 15, 10, 10, 10, 10, 25, 15, 15, 10, 10, 25, 5, 5, 15, 5, 25, 10, 10, 25, 15, 10, 25, 25, 15, 10, 10, 10, 25, 10, 25, 15, 15, 10, 10, 10, 5, 10, 25, 30, 10, 10, 10, 10, 25, 10, 30, 30, 10, 5, 10, 25, 30, 15, 30, 15, 30, 10, 10, 10, 25, 15, 30, 10, 10, 10, 10, 25, 15, 10, 10, 10, 10, 10, 10, 25, 15, 10, 10, 25, 5, 15, 5, 25, 10, 10, 25, 25, 10, 30, 25, 25, 25, 25, 5, 30, 25, 10, 25, 15, 15, 10, 10, 10, 5, 10, 25, 30, 10, 25, 15, 15, 10, 10, 10, 25, 10, 5, 30, 10, 15, 10, 10, 10, 25, 10, 25, 10, 10, 5, 30, 5, 30, 10, 10, 10, 10, 10, 10, 30, 10, 10, 30, 10, 10, 30, 10, 10, 30, 10, 10, 10, 10, 25, 10, 30, 30, 10, 5, 10, 25, 10, 10, 25, 10, 30, 10, 5, 10, 25, 10, 10, 25, 10, 30, 10, 30, 10, 10, 25, 10, 30, 30, 30, 15, 15, 10, 10, 10, 25, 10, 25, 15, 10, 25, 15, 10, 15, 5, 10, 15, 5, 10, 10, 15, 5, 10, 10, 25, 5, 15, 5, 25, 10, 10, 25, 25, 10, 25, 25, 10, 10, 25, 10, 5, 25, 10, 5, 25, 25, 25, 25, 25, 5, 25, 10, 25, 15, 10, 25, 15, 10, 25, 15, 10, 25, 10, 25, 10, 5, 10, 25, 10, 5, 10, 10, 5, 10, 25, 10, 25, 10, 10, 10, 10, 10, 10, 10, 5, 15, 15, 25, 10, 35, 5, 25, 10, 30, 10, 25, 10, 5, 5, 10, 5, 30, 15, 10, 25, 10, 25, 5, 10, 15, 5, 5, 10, 10, 5, 25, 5, 5, 20, 25, 10, 10, 10, 15, 5, 25, 10, 30, 10, 15, 5, 10, 5, 10, 15, 10, 10, 5, 10, 15, 10, 25, 10, 10, 5, 25, 10, 25, 5, 10, 25, 5, 25, 5, 10, 15, 10, 10, 25, 5, 5, 25, 5, 10, 10, 10, 10, 25, 15, 10, 25, 30, 15, 5, 15, 5, 5, 20, 25, 15, 30, 25, 10, 25, 30, 10, 5, 5, 15, 30, 10, 10, 10, 25, 10, 10, 5, 25, 25, 5, 5, 10, 30, 30, 30, 10, 25, 15, 5, 5, 15, 5, 30, 5, 5, 5, 15, 5, 30, 5, 5, 25, 5, 30, 25, 30, 25, 30, 30, 15, 5, 30, 5, 5, 25, 5, 30, 15, 5, 30, 5, 5, 25, 5, 30, 15, 10, 15, 10, 25, 5, 20, 25, 30, 15, 10, 25, 5, 25, 5, 25, 5, 10, 15, 20, 25, 5, 10, 10, 25, 10, 10, 25, 25, 5, 5, 30, 15, 5, 10, 5, 15, 5, 5, 10, 25, 5, 5, 20, 10, 5, 25, 30, 15, 5, 5, 10, 5, 10, 25, 5, 25, 5, 5, 25, 5, 10, 10, 5, 5, 10, 5, 15, 5, 5, 20, 25, 5, 10, 10, 25, 10, 10, 5, 25, 25, 5, 5, 30, 5, 5, 5, 5, 5, 5, 5, 10, 5, 5, 5, 10, 5, 5, 5, 10, 10, 5, 5, 5, 10, 15, 10, 25, 20, 25, 15, 10, 25, 25, 25, 5, 10, 15, 20, 25, 5, 10, 10, 25, 10, 10, 25, 5, 5, 5, 5, 5, 10, 5, 5, 5, 10, 5, 5, 5, 10, 10, 5, 5, 5, 5, 5, 5, 5, 5, 5, 10, 5, 5, 5, 5, 5, 10, 5, 5, 5, 10, 5, 10, 5, 5, 5, 5, 10, 25, 25, 10, 25, 25, 10, 15, 10, 25, 20, 25, 10, 25, 5, 10, 15, 20, 5, 10, 25, 10, 10, 25, 5, 10, 15, 10, 25, 20, 25, 15, 10, 25, 25, 25, 5, 10, 15, 20, 25, 5, 10, 10, 25, 10, 10, 25, 5, 15, 25, 25, 25, 10, 25, 15, 25, 25, 10, 15, 5, 10, 5, 25, 25, 25, 10, 10, 5, 15, 5, 5, 5, 10, 5, 5, 5, 10, 5, 5, 5, 5, 10, 5, 5, 5, 10, 5, 5, 5, 5, 5, 10, 5, 5, 5, 10, 5, 10, 5, 5, 5, 5, 10, 5, 5, 10, 5, 5, 5, 5, 5, 5, 5, 10, 5, 5, 5, 10, 5, 5, 5, 5, 5, 5, 5, 5, 5, 5, 10, 5, 5, 10, 10, 25, 15, 25, 15, 10, 10, 10, 10, 10, 10, 25, 25, 10, 25, 10, 25, 10, 25, 10, 15, 10, 20, 25, 10, 25, 15, 20, 10, 10, 10, 25, 5, 20, 25, 20, 25, 10, 10, 10, 5, 25, 5, 5, 15, 10, 15, 10, 15, 5, 10, 5, 25, 5, 10, 10, 25, 10, 10, 5, 25, 10, 10, 10, 25, 10, 15, 5, 25, 10, 10, 10, 25, 10, 15, 25, 10, 15, 10, 10, 25, 10, 15, 5, 25, 10, 10, 10, 25, 10, 15, 5, 25, 10, 10, 10, 25, 10, 15, 30, 30, 30, 30, 30, 30, 15, 15, 15, 5, 15, 15, 5, 15, 10, 25, 15, 10, 10, 15, 10, 25, 10, 10, 5, 10, 25, 15, 5, 15, 10, 25, 15, 10, 10, 15, 10, 10, 15, 5, 15, 10, 25, 15, 10, 10] p=0.48"]
S2 -> S1 [label="1 [5, 5, 20, 10, 5, 5, 5, 5, 15, 5, 15, 5, 15, 5, 5, 15, 10, 5, 5, 15, 15, 10, 20, 20, 5, 5, 5, 20, 15, 15, 15, 5, 20, 5, 5, 20, 20, 15, 15, 5, 5, 5, 20, 10, 15, 20, 5, 15, 5, 5, 20, 5, 15, 20, 20, 15, 15, 5, 20, 15, 5, 20, 15, 10, 10, 5, 15, 10, 5, 5, 10, 15, 5, 10, 5, 15, 5, 10, 15, 10, 10, 5, 15, 10, 20, 20, 15, 15, 10, 5, 15, 5, 15, 15, 5, 5, 20, 5, 15, 5, 20, 5, 5, 5, 15, 5, 5, 5, 5, 15, 5, 20, 15, 20, 15, 10, 15, 5, 15, 15, 5, 10, 5, 5, 15, 10, 15, 5, 15, 15, 5, 5, 10, 15, 5, 5, 20, 5, 5, 5, 15, 10, 5, 15, 20, 5, 5, 20, 15, 15, 5, 20, 15, 15, 5, 10, 15, 20, 5, 5, 5, 20, 15, 15, 15, 5, 20, 15, 5, 15, 10, 5, 15, 10, 5, 10, 15, 10, 5, 15, 10, 15, 10, 10, 5, 15, 20, 15, 15, 15, 15, 5, 20, 5, 5, 5, 15, 15, 10, 5, 15, 15, 10, 5, 5, 15, 15, 15, 5, 15, 20, 5, 10, 5, 5, 5, 5, 15, 5, 15, 5, 5, 15, 5, 15, 15, 5, 5, 5, 5, 5, 15, 5, 15, 10, 5, 5, 15, 10, 5, 10, 20, 15, 15, 15, 5, 5, 5, 15, 15, 10, 5, 15, 15, 5, 5, 15, 15, 5, 15, 20, 10, 20, 20, 15, 10, 15, 20, 20, 15, 15, 15, 20, 15, 10, 10, 15, 15, 10, 10, 5, 15, 15, 20, 15, 5, 15, 5, 15, 15, 5, 10, 15, 10, 5, 15, 5, 5, 5, 5, 5, 15, 5, 15, 5, 5, 5, 5, 5, 15, 5, 15, 5, 5, 5, 10, 20, 15, 15, 15, 5, 5, 5, 15, 15, 10, 5, 15, 15, 5, 15, 15, 20, 10, 20, 20, 15, 10, 15, 20, 20, 15, 15, 15, 20, 15, 10, 10, 15, 15, 10, 10, 5, 15, 15, 20, 15, 20, 5, 10, 5, 15, 5, 15, 15, 5, 10, 15, 10, 5, 15, 5, 20, 10, 20, 10, 10, 15, 5, 10, 20, 20, 15, 10, 15, 20, 20, 15, 15, 15, 15, 10, 15, 15, 10, 5, 15, 15, 20, 20, 5, 5, 5, 5, 5, 5, 5, 5, 5, 5, 5, 15, 5, 15, 5, 5, 5, 5, 5, 15, 5, 15, 5, 5, 5, 10, 20, 15, 15, 15, 5, 5, 5, 15, 15, 10, 5, 15, 15, 5, 15, 15, 5, 5, 5, 15, 5, 15, 5, 5, 5, 5, 15, 15, 5, 5, 10, 20, 15, 15, 15, 5, 5, 15, 10, 5, 15, 15, 5, 15, 15, 5, 5, 15, 5, 5, 5, 15, 5, 15, 20, 15, 15, 15, 5, 5, 15, 5, 10, 15, 15, 5, 5, 5, 15, 5, 10, 15, 15, 5, 5, 5, 15, 15, 15, 15, 15, 5, 5, 20, 10, 20, 10, 10, 15, 5, 10, 5, 15, 5, 10, 15, 5, 5, 5, 10, 15, 5, 5, 15, 5, 10, 15, 10, 15, 5, 15, 5, 15, 15, 5, 10, 15, 10, 5, 15, 5, 15, 15, 5, 5, 15, 15, 5, 5, 5, 15, 5, 15, 5, 5, 5, 10, 15, 15, 5, 5, 5, 5, 5, 20, 10, 10, 15, 20, 20, 15, 10, 15, 20, 15, 15, 10, 15, 10, 15, 15, 20, 20, 20, 15, 10, 15, 20, 20, 15, 15, 15, 15, 10, 15, 15, 10, 5, 15, 15, 20, 20, 15, 15, 15, 5, 20, 15, 15, 15, 5, 15, 20, 15, 15, 15, 15, 5, 10, 15, 15, 15, 20, 15, 5, 5, 5, 5, 5, 15, 5, 15, 15, 5, 20, 20, 5, 10, 15, 15, 15, 15, 15, 15, 15, 15, 15, 10, 20, 10, 20, 10, 10, 15, 20, 10, 20, 10, 10, 15, 15, 15, 5, 10, 5, 10, 5, 15, 5, 10, 15, 5, 15, 15, 10, 15, 10, 15, 15, 10, 15, 20, 20, 15, 15, 20, 20, 20, 15, 15, 20, 20, 15, 15, 20, 15, 15, 10, 15, 20, 15, 15, 10, 15, 15, 15, 10, 15, 20, 20, 20, 5, 15, 5, 5, 10, 10, 5, 15, 20, 10, 20, 20, 10, 20, 10, 10, 10, 10, 5, 15, 5, 5, 15, 5, 5, 15, 5, 5, 5, 15, 5, 5, 15, 5, 5, 5, 15, 5, 5, 5, 15, 5, 5, 5, 5, 10, 15, 15, 5, 15, 5, 5, 5, 5, 10, 15, 15, 15, 5, 5, 15, 10, 15, 15, 5, 5, 5, 5, 15, 5, 5, 15, 5, 5, 5, 10, 15, 15, 5, 5, 5, 20, 10, 15, 20, 10, 15, 5, 20, 5, 20, 5, 20] p=0.32"]
S2 -> S5 [label="3 [20, 25, 5, 25, 20, 5, 25, 20, 5, 5, 5, 25, 10, 5, 20, 5, 5, 5, 5, 5, 5, 5, 5, 25, 25, 20, 5, 25, 20, 5, 25, 10, 20, 5, 5, 5, 5, 5, 5, 5, 5, 5, 5, 5, 5, 5, 20, 5, 5, 25, 25, 20, 25, 25, 10, 20, 5, 5, 5, 5, 5, 5, 5, 5, 5, 5, 5, 5, 20, 5, 5, 5, 5, 5, 5, 5, 5, 5, 5, 25, 25, 25, 25, 25, 20, 25, 25, 10, 20, 5, 5, 5, 25, 20, 25, 25, 10, 20, 5, 5, 5, 10, 25, 20, 5, 5, 5, 25, 20, 5, 5, 5, 10, 5, 5, 5, 5, 5, 5, 5, 20, 5, 5, 20, 5, 20, 5, 5, 5, 5, 5, 5, 5, 5, 5, 5, 5, 5, 5, 5, 5, 5, 5, 5, 5, 5, 5, 5, 5, 20, 25, 5, 25, 25, 20, 5, 25, 5, 10, 20, 5, 20, 5, 5, 5, 5, 5, 5, 25, 10, 5, 20, 5, 5, 5, 5, 5, 5, 5, 5, 5, 10, 5, 25, 15, 10, 5, 20, 25, 5, 10, 25, 25, 10, 25, 25, 20, 10, 20, 5, 25, 5, 10, 20, 5, 20, 5, 20, 5, 5, 5, 5, 5, 25, 10, 5, 20, 5, 5, 5, 5, 5, 5, 5, 5, 5, 10, 5, 10, 20, 25, 15, 10, 5, 15, 10, 5, 5, 10, 25, 10, 10, 20, 15, 10, 25, 20, 20, 10, 5, 5, 10, 15, 10, 25, 10, 20, 10, 25, 20, 20, 10, 5, 5, 25, 5, 10, 5, 5, 5, 5, 10, 5, 25, 15, 20, 5, 5, 10, 10, 15, 25, 20, 20, 5, 5, 10, 10, 20, 10, 5, 5, 5, 10, 5, 5, 5, 5, 10, 5, 15, 10, 10, 10, 20, 10, 10, 20, 10, 20, 10, 20, 25, 20, 5, 5, 10, 10, 15, 10, 15, 15, 10, 10, 5, 10, 20, 10, 5, 5, 20, 5, 20, 5, 20, 20, 5, 5, 5, 5, 5, 10, 5, 5, 5, 5, 10, 5, 15, 10, 5, 5, 5, 10, 5, 15, 5, 5, 10, 5, 10, 5, 10, 25, 25, 25, 25, 20, 20, 20, 20, 5, 5, 5, 5, 5, 10, 5, 10, 10, 10, 10, 10, 10, 10, 5, 10, 10, 5, 10, 5, 10, 5, 10, 5, 10, 5, 5, 5, 5, 15, 5, 5, 5, 15, 5, 5, 15, 5, 10, 20, 5, 10, 5, 10, 10, 20, 20, 25, 5, 10, 25, 25, 10, 25, 25, 20, 10, 20, 5, 25, 5, 10, 20, 5, 20, 5, 20, 5, 5, 5, 5, 5, 25, 10, 5, 20, 5, 5, 5, 5, 5, 5, 5, 5, 5, 10, 5, 10, 20, 25, 15, 10, 5, 15, 10, 5, 5, 25, 25, 20, 25, 25, 20, 15, 15, 5, 5, 10, 10, 10, 25, 25, 25, 25, 25, 25, 25, 25, 25, 25, 25, 25, 25, 25, 25, 25, 25, 25, 20, 20, 20, 20, 20] p=0.2"]
S9 -> S1 [label="1 [15, 10, 15, 15, 15, 15, 15, 15, 10, 15, 15, 15, 15, 15, 15, 15, 20, 10, 10, 15, 15, 15, 15, 15, 15, 10, 15, 20, 10, 15, 10, 15, 15, 10, 15, 10, 10, 15, 10, 10, 15, 15, 15, 20, 15, 20, 10, 15, 15, 20, 15, 15, 10, 15, 15, 15, 15, 15, 15, 20, 15, 15, 10, 15, 10, 15, 10, 20, 10, 15, 15, 15, 10, 15, 15, 15, 15, 20, 10, 15, 15, 15, 15, 20, 15, 10, 15, 15, 10, 15, 10, 15, 15, 15, 15, 20, 15, 20, 10, 15, 15, 20, 15, 15, 15, 15, 15, 15, 15, 20, 15, 15, 15, 15, 20, 10, 15, 10, 15, 10, 10, 15, 10, 15, 15, 10, 15, 15, 15, 15, 20, 10, 15, 15, 15, 15, 20, 15, 10, 15, 15, 10, 15, 10, 15, 15, 15, 15, 20, 15, 20, 10, 15, 15, 20, 15, 15, 15, 15, 15, 15, 15, 20, 15, 15, 15, 20, 15, 15, 10, 15, 15, 15, 15, 10, 15, 15, 15, 15, 20, 15, 15, 15, 15, 15, 15, 15, 15, 20, 15, 20, 10, 15, 15, 20, 15, 15, 15, 15, 15, 20, 15, 15, 15, 20, 20, 10, 10, 15, 10, 20, 10, 10, 15, 15, 10, 10, 15, 20, 15, 15, 15, 20, 15, 15, 15, 15, 15, 15, 20, 10, 20, 15, 15, 15, 15, 15, 15, 15, 15, 20, 10, 20, 15, 15, 20, 10, 10, 15, 10, 15, 15, 15, 15, 20, 10, 10, 15, 15, 15, 15, 20, 15, 10, 10, 15, 15, 15, 15, 20, 10, 20, 10, 10, 15, 15, 10, 15, 10, 10, 10, 10, 15, 10, 15, 10, 15, 10, 15, 10, 15, 15, 15, 15, 20, 15, 15, 15, 20, 15, 20, 15, 20, 15, 20, 15, 20, 15, 15, 15, 15, 20, 15, 15, 15, 15, 15, 15, 15, 10, 20, 20, 15, 15, 15, 15, 15, 15, 15, 15, 15, 15, 15, 15, 15, 15, 15, 15, 15, 15, 15, 15, 15, 15, 15, 15, 15, 15, 15, 15, 15, 15, 15, 15, 15, 15, 15, 20, 15, 15, 15, 15, 15, 15, 15, 15, 15, 20, 15, 15, 15, 15, 15, 15, 20, 15, 15, 15, 20, 15, 15, 15, 15, 15, 15, 20, 15, 20, 15, 15, 15, 15, 15, 15, 15, 15, 15, 15, 15, 15, 15, 15, 20, 20, 15, 20, 15, 20, 15, 15, 15, 20, 15, 15, 15, 15, 15, 15, 15, 15, 15, 15, 15, 15, 15, 15, 15, 15, 15, 15, 15, 15, 15, 15, 10, 10, 10, 20, 15, 15, 15, 10, 20, 15, 15, 15, 10, 20, 15, 15, 15, 15, 15, 15, 10, 20, 15, 10, 20, 15, 10, 20, 15, 10, 20, 15, 10, 20, 15, 10, 20, 15, 10, 20] p=0.37"]
S9 -> S126 [label="3 [15, 5, 10, 5, 15, 10, 10, 10, 15, 10, 5, 10, 10, 15, 10, 15, 10, 15, 10, 10, 10, 10, 10, 10, 10, 10, 10, 15, 10, 10, 10, 10, 10, 15, 10, 10, 15, 15, 15, 10, 10, 10, 15, 15, 10, 10, 10, 10, 15, 10, 10, 10, 10, 10, 10, 10, 10, 10, 10, 15, 10, 5, 15, 5, 10, 10, 10, 10, 15, 15, 5, 10, 10, 15, 10, 15, 10, 15, 10, 15, 10, 15, 10, 10, 10, 10, 10, 10, 15, 15, 15, 10, 10, 15, 10, 10, 15, 15, 10, 10, 10, 15, 10, 10, 10, 15, 10, 15, 15, 15, 15, 10, 10, 10, 10, 15, 15, 10, 10, 15, 15, 15, 10, 15, 15, 10, 10, 15, 10, 10, 10, 10, 10, 15, 15, 15, 10, 10, 15, 10, 10, 15, 15, 10, 15, 15, 10, 10, 15, 10, 15, 10, 15, 15, 10, 15, 10, 10, 10, 10, 10, 15, 10, 10, 10, 10, 15, 10, 10, 10, 10, 10, 15, 15, 15, 10, 10, 15, 10, 10, 15, 10, 15, 15, 15, 15, 10, 15, 15, 10, 10, 10, 15, 10, 15, 15, 15, 15, 10, 15, 15, 10, 15, 10, 10, 10, 10, 15, 10, 15, 10, 15, 10, 10, 10, 10, 15, 10, 10, 10, 15, 15, 15, 10, 15, 15, 10, 10, 10, 10, 10, 10, 10, 15, 15, 10, 10, 10, 15, 15, 10, 10, 15, 10, 10, 10, 15, 10, 10, 15, 10, 15, 10, 15, 10, 10, 10, 10, 10, 10, 10, 15, 10, 10, 10, 10, 10, 10, 15, 15, 15, 10, 15, 15, 10, 10, 15, 10, 10, 10, 10, 10, 10, 10, 10, 15, 15, 10, 10, 10, 10, 15, 15, 10, 15, 15, 10, 10, 10, 15, 10, 10, 10, 15, 10, 15, 10, 10, 10, 10, 10, 10, 10, 15, 10, 15, 10, 10, 10, 10, 10, 15, 10, 15, 10, 10, 10, 10, 10, 10, 10, 15, 10, 10, 15, 10, 10, 10, 10, 15, 10, 10, 10, 10, 15, 10, 15, 10, 10, 10, 10, 10, 15, 10, 10, 10, 10, 10, 10, 10, 10, 10, 10, 15, 10, 10, 10, 10, 10, 10, 10, 15, 10, 10, 10, 10, 15, 10, 10, 10, 10, 10, 10, 15, 10, 15, 15, 15, 15, 10, 15, 10, 10, 15, 10, 10, 10, 10, 10, 10, 10, 10, 10, 10, 10, 10, 10, 10, 10, 10, 10, 10, 10, 10, 10, 10, 10, 10, 10, 15, 10, 15, 10, 10, 10, 10, 10, 10, 10, 10, 10, 15, 10, 15, 10, 15, 15, 15, 10, 10, 10, 10, 15, 15, 10, 10, 10, 15, 10, 10, 10, 15, 10, 10, 15, 10, 15, 10, 15, 10, 10, 10, 10, 10, 10, 10, 15, 10, 10, 10, 10, 10, 10, 15, 15, 15, 10, 15, 15, 10, 10, 15, 10, 10, 10, 10, 10, 10, 10, 10, 15, 15, 10, 10, 10, 10, 15, 15, 10, 15, 10, 10, 10, 10, 10, 15, 15, 15, 10, 10, 15, 10, 10, 10, 15, 10, 10, 10, 10, 10, 10, 10, 10, 10, 10, 10, 10, 10, 10, 10, 15, 10, 10, 15, 10, 10, 10, 10, 15, 10, 10, 10, 10, 10, 15, 10, 10, 10, 10, 10, 15, 10, 10, 10, 10, 15, 15, 15, 15, 15] p=0.44"]
S9 -> S181 [label="2 [10, 15, 10, 15, 10, 10, 15, 15, 15, 15, 15, 15, 10, 15, 10, 10, 15, 15, 15, 10, 15, 10, 15, 15, 10, 15, 15, 15, 15, 15, 15, 15, 10, 10, 10, 10, 15, 15, 15, 15, 15, 10, 15, 15, 10, 15, 15, 10, 15, 15, 10, 15, 15, 15, 15, 15, 10, 15, 15, 15, 15, 15, 15, 15, 15, 15, 15, 10, 10, 15, 10, 15, 15, 15, 15, 15, 10, 15, 10, 15, 15, 15, 15, 15, 15, 15, 15, 15, 15, 15, 10, 10, 15, 10, 15, 15, 10, 15, 10, 15, 15, 10, 15, 15, 10, 15, 15, 10, 15, 10, 15, 15, 10, 10, 10, 10, 10, 15, 15, 15, 15, 15, 10, 15, 10, 15, 15, 15, 10, 10, 15, 10, 15, 10, 15, 10, 10, 15, 15, 10, 15, 15, 15, 15, 15, 10, 10, 10, 10, 15, 10, 15, 10, 15, 15, 15, 15, 15, 10, 15, 10, 15, 15, 15, 15, 15, 15, 15, 15, 15, 15, 15, 10, 15, 15, 15, 15, 15, 15, 15, 15, 15, 15, 15, 15, 15, 15, 15, 15, 15, 15, 15, 15, 15, 15, 15, 15, 15, 15, 15, 15, 15, 15, 15, 15, 15, 15, 15, 15, 15, 15, 15, 15, 15, 15, 15, 15, 15, 15, 15, 15, 15, 15, 15, 15, 15, 15, 15, 15, 15, 15, 15, 15, 15, 15, 15, 15, 15, 15, 15] p=0.19"]
S126 -> S1 [label="1 [5, 5, 5, 5, 5, 5, 5, 5, 5, 5, 5, 5, 5, 5, 5, 5, 5, 5, 5, 5, 5, 5, 5, 5, 5, 5, 5, 5, 5, 5, 5, 5, 5, 5, 5, 5, 5, 5, 5, 5, 5, 5, 5, 5, 5, 5, 5, 5, 5, 5, 5, 5, 5, 5, 5, 5, 5, 5, 5, 5, 5, 5, 5, 5, 5, 5, 5, 5, 5, 5, 5, 5, 5, 5, 5, 5, 5, 5, 5, 5, 5, 5, 5, 5, 5, 5, 5, 5, 5, 5, 5, 5, 5, 5, 5, 5, 5, 5, 5, 5, 5, 5, 5, 5, 5, 5, 5, 5, 5, 5, 5, 5, 5, 5, 5, 5, 5, 5, 5, 5, 5, 5, 5, 5, 5, 5, 5, 5, 5, 5, 5, 5, 5, 5, 5, 5, 5, 5, 5, 5, 5, 5, 5, 5, 5, 5, 5, 5, 5, 5, 5, 5, 5, 5, 5, 5, 5, 5, 5, 5, 5, 5, 5, 5, 5, 5, 5, 5, 5, 5, 5, 5, 5, 5, 5, 5, 5, 5, 5, 5, 5, 5, 5, 5, 5, 5, 5, 5, 5, 5, 5, 5, 5, 5, 5, 5, 5, 5, 5, 5, 5, 5, 5, 5, 5, 5, 5, 5, 5, 5, 5, 5, 5, 5, 5, 5, 5, 5, 5, 5, 5, 5, 5, 5, 5, 5, 5, 5, 5, 5, 5, 5, 5, 5, 5, 5, 5, 5, 5, 5, 5, 5, 5, 5, 5, 5, 5, 5, 5, 5, 5, 5, 5, 5, 5, 5, 5, 5, 5, 5, 5, 5, 5, 5, 5, 5, 5, 5, 5, 5, 5, 5, 5, 5, 5, 5, 5, 5, 5, 5, 5, 5, 5, 5, 5, 5, 5, 5, 5, 5, 5, 5, 5, 5, 5, 5, 5, 5, 5, 5, 5, 5, 5, 5, 5, 5, 5, 5, 5, 5, 5, 5, 5, 5, 5, 5, 5, 5, 5, 5, 5, 5, 5, 5, 5, 5, 5, 5, 5, 5, 5, 5, 5, 5, 5] p=0.66"]
S126 -> S181 [label="2 [5, 5, 5, 5, 5, 5, 5, 5, 5, 5, 5, 5, 5, 5, 5, 5, 5, 5, 5, 5, 5, 5, 5, 5, 5, 5, 5, 5, 5, 5, 5, 5, 5, 5, 5, 5, 5, 5, 5, 5, 5, 5, 5, 5, 5, 5, 5, 5, 5, 5, 5, 5, 5, 5, 5, 5, 5, 5, 5, 5, 5, 5, 5, 5, 5, 5, 5, 5, 5, 5, 5, 5, 5, 5, 5, 5, 5, 5, 5, 5, 5, 5, 5, 5, 5, 5, 5, 5, 5, 5, 5, 5, 5, 5, 5, 5, 5, 5, 5, 5, 5, 5, 5, 5, 5, 5, 5, 5, 5, 5, 5, 5, 5, 5, 5, 5, 5, 5, 5, 5, 5, 5, 5, 5, 5, 5, 5, 5, 5, 5, 5, 5, 5, 5, 5, 5, 5, 5, 5, 5, 5, 5, 5, 5, 5, 5, 5, 5, 5, 5, 5, 5, 5, 5, 5, 5, 5, 5, 5, 5, 5, 5, 5, 5, 5, 5, 5, 5, 5, 5, 5] p=0.34"]
S181 -> S1 [label="1 [10, 5, 5, 15, 10, 20, 5, 15, 5, 20, 5, 20, 20, 20, 20, 10, 5, 5, 10, 20, 10, 5, 20, 5, 15, 5, 5, 20, 20, 10, 5, 10, 5, 15, 20, 15, 5, 20, 5, 20, 20, 20, 10, 5, 20, 5, 20, 15, 5, 20, 20, 10, 5, 10, 5, 5, 5, 20, 5, 20, 5, 5, 5, 20, 5, 5, 20, 5, 5, 5, 20, 5, 5, 5, 15, 20, 15, 5, 20, 5, 20, 20, 20, 10, 5, 20, 5, 20, 15, 5, 20, 20, 10, 5, 10, 20, 15, 5, 20, 5, 20, 20, 10, 20, 5, 20, 15, 20, 20, 10, 5, 10, 15, 15, 20, 20, 20, 10, 5, 5, 5, 5, 5, 20, 20, 20, 10, 15, 15, 15, 15, 5, 5, 5, 20, 20, 20, 20, 10, 20, 20, 20, 10, 20, 20, 5, 5, 5, 5, 5, 5, 20, 10, 20, 20, 20, 20, 20, 20, 20, 20, 20, 15, 5, 20, 20, 10, 20, 15, 20, 10, 5, 20, 15, 5, 10, 20, 15, 20, 10, 5, 10, 5, 15, 5, 20, 15, 20, 10, 20, 10, 5, 20, 15, 5, 20, 15, 20, 10, 15, 5, 20, 15, 20, 10, 10, 5, 20, 5, 15, 15, 5, 15, 5, 5, 5, 20, 5, 15, 5, 5, 15, 5, 5, 15, 5, 5, 5, 5, 15, 15, 5, 5, 15, 5, 15, 15, 5, 15, 5, 5, 5, 20, 5, 15, 5, 5, 15, 5, 5, 15, 5, 5, 5, 5, 15, 15, 5, 5, 15, 15, 15, 5, 15, 5, 20, 5, 15, 5, 5, 15, 5, 5, 5, 15, 5, 5, 15, 15, 5, 20, 5, 20, 15, 5, 20, 15, 5, 20, 15, 15, 5, 20, 15, 15, 15, 5, 15, 5, 20, 5, 15, 5, 5, 15, 5, 5, 5, 15, 5, 5, 5, 5, 5, 5, 15, 5, 5, 15, 5, 5, 15, 5, 15, 15, 15, 5, 5, 5, 5, 5, 15, 5, 15, 15, 15, 15, 15, 5, 15, 5, 15, 5, 5, 5, 15, 15, 5, 5, 15, 15, 5, 5, 15, 15, 5, 5, 5, 5, 5, 15, 5, 15, 5, 5, 5, 5, 5, 5, 5, 5, 5, 5, 5, 5, 5, 15, 5, 5] p=0.95"]
S181 -> S6 [label="4 [35, 35, 35, 35, 35, 35, 35, 35, 35, 30, 30, 30, 30, 30, 30, 30, 30, 30] p=0.05"]
S5 -> S6 [label="4 [5, 5, 5, 5, 5, 5, 5, 5, 5, 5, 5, 5, 5, 5, 5, 5, 5, 5, 5, 5, 5, 5, 5, 5, 5, 5, 5, 5, 5, 5, 5, 5, 5, 5, 5, 5, 5, 5, 5, 5, 5, 5, 5, 5, 5, 5, 5, 5, 5, 5, 5, 5, 5, 5, 5, 5, 5, 5, 5, 5, 5, 5, 5, 5, 5, 5, 5, 5, 5, 5, 5, 5, 5, 5, 5, 5, 5, 5, 5, 5, 5, 5, 5, 5, 5, 5, 5, 5, 5, 5, 5, 5, 5, 5, 5, 5, 5, 5, 5, 5, 5, 5, 5, 5, 5, 5, 5, 5, 5, 5, 5, 5, 5, 5, 5, 5, 5, 5, 5, 5, 5, 5, 5, 5, 5, 5, 5, 5, 5, 5, 5, 5, 5, 5, 5, 5, 5, 5, 5, 5, 5, 5, 5, 5, 5, 5, 5, 5, 5, 5, 5, 5, 5, 5, 5, 5, 5, 5, 5, 5, 5, 5, 5, 5, 5, 5, 5, 5, 5, 5, 5, 5, 5, 5, 5, 5, 5, 5, 5, 5, 5, 5, 5, 5, 5, 5, 5, 5, 5, 5, 5, 5, 5, 5, 5, 5, 5, 5, 5, 5, 5, 5, 5, 5, 5, 5, 5, 5, 5, 5, 5, 5, 5, 5, 5, 5, 5, 5, 5, 5, 5, 5, 5, 5, 5, 5, 5, 5, 5, 5, 5, 5, 5, 5, 5, 5, 5, 5, 5, 5, 5, 5, 5, 5, 5, 5, 5, 5, 5, 5, 5, 5, 5, 5, 5, 5, 5, 5, 5, 5, 5, 5, 5, 5, 5, 5, 5, 5, 5, 5, 5, 5, 5, 5, 5, 5, 5, 5, 5, 5, 5, 5, 5, 5, 5, 5, 5, 5, 5, 5, 5, 5, 5, 5, 5, 5, 5, 5, 5, 5, 5, 5, 5, 5, 5, 5, 5, 5, 5, 5, 5, 5, 5, 5, 5, 5, 5, 5, 5, 5, 5, 5, 5, 5, 5, 5, 5, 5, 5, 5, 5, 5, 5, 5, 5, 5, 5, 5, 5, 5, 5, 5, 5, 5, 5, 5, 5, 5, 5, 5, 5, 5, 5, 5, 5, 5, 5, 5, 5, 5, 5, 5, 5, 5, 5, 5, 5, 5, 5, 5, 5, 5, 5, 5, 5, 5, 5, 5, 5, 5, 5, 5, 5, 5, 5, 5, 5, 5, 5, 5, 5, 5, 5, 5, 5, 5, 5, 5, 5, 5, 5, 5, 5, 5, 5, 5, 5, 5, 5, 5, 5, 5, 5, 5, 5, 5, 5, 5, 5, 5, 5, 5, 5, 5, 5, 5, 5, 5, 5, 5, 5, 5, 5, 5, 5, 5, 5, 5, 5, 5, 5, 5, 5, 5, 5, 5, 5, 5, 5, 5, 5, 5, 5, 5] p=1.0"]
S6 -> S63 [label="3 [15, 15, 15, 10, 10, 10, 15, 10, 10, 10, 15, 15, 10, 10, 10, 15, 10, 15, 10, 10, 10, 10, 15, 10, 10, 15, 10, 10, 10, 10, 10, 10, 10, 10, 10, 10, 10, 10, 10, 10, 10, 10, 10, 10, 10, 10, 10, 10, 10, 10, 10, 10, 10, 10, 10, 15, 10, 10, 10, 10, 15, 10, 10, 10, 10, 10, 10, 10, 5, 10, 15, 5, 5, 5, 10, 10, 10, 10, 15, 10, 10, 10, 10, 10, 10, 10, 5, 5, 5, 10, 5, 5, 5, 5, 5, 5, 5, 5, 5, 5, 10, 10, 10, 5, 5, 5, 5, 5, 10, 10, 10, 5, 5, 5, 5, 5, 5, 5, 5, 5, 5, 5, 5, 5, 5, 10, 10, 10, 10, 10, 10, 5, 5, 5, 5, 5, 10, 10, 10, 15, 5, 5, 5, 10, 10, 10, 10, 15, 10, 10, 10, 10, 10, 10, 10, 5, 5, 5, 10, 15, 5, 5, 5, 10, 10, 10, 10, 15, 10, 10, 10, 10, 10, 10, 10, 5, 5, 5, 10, 5] p=0.29"]
S6 -> S6 [label="2 [10, 10, 10, 10, 10, 10, 10, 15, 15, 15, 10, 15, 15, 15, 15, 15, 15, 15, 10, 15, 15, 15, 15, 15, 10, 10, 15, 10, 15, 10, 15, 10, 10, 10, 10, 15, 10, 15, 10, 15, 10, 10, 10, 15, 15, 15, 10, 10, 10, 10, 10, 10, 10, 10, 15, 15, 15, 15, 10, 10, 10, 10, 10, 10, 10, 10, 10, 10, 10, 10, 10, 15, 10, 15, 10, 15, 10, 10, 10, 15, 10, 15, 10, 15, 10, 15, 10, 10, 10, 15] p=0.15"]
S6 -> S1 [label="1 [15, 15, 15, 15, 15, 15, 15, 10, 15, 15, 15, 10, 10, 10, 10, 10, 15, 10, 10, 10, 10, 15, 15, 15, 15, 15, 15, 15, 10, 15, 15, 15, 10, 10, 10, 10, 10, 15, 10, 10, 10, 10, 15, 15, 15, 15, 10, 15, 15, 10, 10, 10, 10, 10, 15, 10, 15, 15, 15, 15, 15, 15, 15, 10, 15, 15, 15, 10, 10, 10, 10, 10, 15, 10, 10, 10, 10, 15, 10, 15, 15, 15, 10, 10, 10, 15, 15, 15, 15, 10, 10, 15, 10, 10, 15, 10, 15, 10, 10, 15, 15, 15, 10, 15, 10, 10, 10, 10, 10, 15, 15, 10, 10, 10, 10, 15, 10, 15, 10, 15, 10, 10, 10, 10, 10, 10, 10, 10, 10, 10, 15, 15, 15, 15, 10, 10, 10, 10, 10, 15, 15, 15, 15, 10, 10, 10, 15, 15, 15, 10, 10, 10, 15, 15, 15, 10, 10, 10, 15, 10, 10, 15, 15, 10, 15, 15, 10, 15, 10, 10, 15, 15, 15, 15, 15, 15, 15, 15, 15, 15, 15, 15, 15, 15, 15, 10, 10, 10, 10, 10, 10, 5, 5, 5, 10, 5, 5, 5, 5, 5, 5, 5, 10, 5, 5, 10, 5, 10, 5, 20, 5, 10, 10, 5, 10, 5, 10, 5, 20, 5, 10, 10, 5, 5, 5, 5, 10, 20, 5, 10, 10, 10, 20, 5, 5, 5, 5, 10, 10, 10, 20, 5, 20, 5, 10, 10, 5, 10, 5, 20, 5, 10, 10, 5, 5, 10, 5, 10, 5, 20, 5, 10, 10, 5, 5, 15, 15, 15, 15, 15, 15, 15, 15, 15, 15, 15, 15, 15, 15, 15, 15, 5, 5, 5, 5, 5, 5, 5, 5, 5, 5, 5, 5, 5, 15, 5, 5, 15, 15, 5, 5, 15, 5, 15, 15, 5, 15, 5, 5, 5, 15, 5, 5, 5, 15, 5, 5, 5, 5, 5, 5, 15, 5, 5, 15, 15, 5, 15, 5, 15, 5, 15, 15, 15, 15, 5, 5, 5, 5, 15, 5, 5, 15, 15] p=0.56"]
S63 -> S6 [label="2 [5, 5, 5, 5, 5, 5, 5, 5, 5, 5, 5, 5, 5, 5, 5, 5, 5, 5, 5, 5, 5, 5, 5, 5, 5, 5, 5, 5, 5, 5, 5, 5, 5, 5, 5, 5, 5, 5, 5, 5, 5, 5, 5, 5, 5, 5, 5, 5, 5, 5, 5, 5, 5, 5, 5, 5, 5, 5, 5, 5, 5, 5, 5, 5, 5, 5, 5, 5, 5, 5, 5, 5] p=0.45"]
S63 -> S1 [label="1 [5, 5, 5, 5, 5, 5, 5, 5, 5, 5, 5, 5, 5, 5, 5, 5, 5, 5, 5, 5, 5, 5, 5, 5, 5, 5, 5, 5, 5, 5, 5, 5, 5, 5, 5, 5, 5, 5, 5, 5, 5, 5, 5, 5, 5, 5, 5, 5, 5, 5, 5, 5, 5, 5, 5, 5, 5, 5, 5, 5, 5, 5, 5, 5, 5, 5, 5, 5, 5, 5, 5, 5, 5, 5, 5, 5, 5, 5, 5, 5, 5, 5, 5, 5, 5, 5, 5, 5] p=0.55"]