S0 -> S1 [label="2 [0, 0, 0, 0, 0, 0, 0, 0] p=0.53"]
S0 -> S2 [label="3 [0, 0, 0, 0, 0, 0, 0] p=0.47"]
S1 -> S2 [label="3 [2345, 500, 160, 325, 500, 500, 2855, 500, 160, 325, 500, 500, 2855, 500, 160, 325, 500, 500, 2855, 160, 325, 500, 500, 2855, 160, 325, 500, 500, 2855, 325, 500, 500, 2855, 325, 500, 500, 2855, 500, 500, 2855, 500, 500, 2855, 500, 2855] p=1.0"]
S2 -> S1 [label="2 [10, 5, 10, 5, 5, 5, 5, 10, 5, 10, 5, 5, 5, 5, 5, 10, 5, 5, 5, 5, 5, 10, 5, 5, 5, 5, 10, 5, 5, 5, 5, 10, 5, 5, 5, 5, 5, 5, 5, 5, 5, 5, 5, 5, 5, 5, 5, 5, 5, 5] p=1.0"]