S0 -> S1 [label="4 [0, 0, 0, 0, 0, 0, 0, 0, 0, 0, 0, 0, 0, 0, 0, 0, 0, 0, 0, 0, 0, 0, 0, 0, 0, 0, 0, 0, 0, 0, 0, 0, 0, 0, 0, 0, 0, 0, 0, 0, 0, 0, 0, 0, 0, 0, 0, 0, 0, 0, 0, 0, 0, 0, 0, 0, 0, 0, 0, 0, 0, 0, 0, 0, 0, 0, 0, 0, 0, 0, 0, 0, 0, 0, 0, 0, 0, 0, 0, 0, 0, 0, 0, 0, 0, 0, 0, 0, 0, 0, 0, 0, 0, 0, 0, 0, 0, 0, 0, 0, 0, 0, 0, 0, 0, 0, 0, 0, 0, 0, 0, 0, 0, 0, 0, 0, 0, 0, 0, 0, 0, 0, 0, 0, 0, 0, 0, 0, 0, 0, 0, 0, 0, 0, 0, 0, 0, 0, 0, 0, 0, 0, 0, 0, 0, 0, 0, 0, 0, 0, 0, 0, 0, 0, 0, 0, 0, 0, 0, 0, 0, 0, 0, 0, 0, 0, 0, 0, 0, 0, 0, 0, 0, 0, 0, 0, 0, 0, 0, 0, 0, 0, 0, 0, 0, 0, 0, 0, 0, 0, 0, 0, 0, 0, 0, 0, 0, 0, 0, 0, 0, 0, 0, 0, 0, 0, 0, 0, 0, 0, 0, 0, 0, 0, 0, 0, 0, 0, 0, 0, 0, 0, 0, 0, 0, 0, 0, 0, 0, 0, 0, 0, 0, 0, 0, 0, 0, 0, 0, 0, 0, 0, 0, 0, 0, 0, 0, 0, 0, 0, 0, 0, 0, 0, 0, 0, 0, 0, 0, 0, 0, 0, 0, 0, 0, 0, 0, 0, 0, 0, 0, 0, 0, 0, 0, 0, 0, 0, 0, 0, 0, 0, 0, 0, 0, 0, 0, 0, 0, 0, 0, 0, 0, 0, 0, 0, 0, 0, 0, 0, 0, 0, 0, 0, 0, 0, 0, 0, 0, 0, 0, 0, 0, 0, 0, 0, 0, 0, 0, 0, 0, 0, 0, 0, 0, 0, 0, 0, 0, 0, 0, 0, 0, 0, 0, 0, 0, 0, 0, 0, 0, 0, 0, 0, 0, 0, 0, 0, 0, 0, 0, 0, 0, 0, 0, 0, 0, 0, 0, 0, 0, 0, 0, 0, 0, 0, 0, 0, 0, 0, 0, 0, 0, 0, 0, 0, 0, 0, 0, 0, 0, 0, 0, 0, 0, 0, 0, 0, 0, 0, 0, 0, 0, 0, 0, 0, 0, 0, 0, 0, 0, 0, 0, 0, 0, 0, 0, 0, 0, 0, 0, 0, 0, 0, 0, 0, 0, 0, 0, 0, 0, 0, 0, 0, 0, 0, 0, 0, 0, 0, 0, 0, 0, 0, 0, 0, 0, 0, 0, 0, 0, 0, 0, 0, 0, 0, 0, 0, 0, 0, 0, 0, 0, 0, 0, 0, 0, 0, 0, 0, 0, 0, 0, 0, 0] p=0.36"]
S0 -> S2 [label="2 [0, 0, 0, 0, 0, 0, 0, 0, 0, 0, 0, 0, 0, 0, 0, 0, 0, 0, 0, 0, 0, 0, 0, 0, 0, 0, 0, 0, 0, 0, 0, 0, 0, 0, 0, 0, 0, 0, 0, 0, 0, 0, 0, 0, 0, 0, 0, 0, 0, 0, 0, 0, 0, 0, 0, 0, 0, 0, 0, 0, 0, 0, 0, 0, 0, 0, 0, 0, 0, 0, 0, 0, 0, 0, 0, 0, 0, 0, 0, 0, 0, 0, 0, 0, 0, 0, 0, 0, 0, 0, 0, 0, 0, 0, 0, 0, 0, 0, 0, 0, 0, 0, 0, 0, 0, 0, 0, 0, 0, 0, 0, 0, 0, 0, 0, 0, 0, 0, 0, 0, 0, 0, 0, 0, 0, 0, 0, 0, 0, 0, 0, 0, 0, 0, 0, 0, 0, 0, 0, 0, 0, 0, 0, 0, 0, 0, 0, 0, 0, 0, 0, 0, 0, 0, 0, 0, 0, 0, 0, 0, 0, 0, 0, 0, 0, 0, 0, 0, 0, 0, 0, 0, 0, 0, 0, 0, 0, 0, 0, 0, 0, 0, 0, 0, 0, 0, 0, 0, 0, 0, 0, 0, 0, 0, 0, 0, 0, 0, 0, 0, 0, 0, 0, 0, 0, 0, 0, 0, 0, 0, 0, 0, 0, 0, 0, 0, 0, 0, 0, 0, 0, 0, 0, 0, 0, 0, 0, 0, 0, 0, 0, 0, 0, 0, 0, 0, 0, 0, 0, 0, 0, 0, 0, 0, 0, 0, 0, 0, 0, 0, 0, 0, 0, 0, 0, 0, 0, 0, 0, 0, 0, 0, 0, 0, 0, 0, 0, 0, 0, 0, 0, 0, 0, 0, 0, 0, 0, 0, 0, 0, 0, 0, 0, 0, 0, 0, 0, 0, 0, 0, 0, 0, 0, 0, 0, 0, 0, 0, 0, 0, 0, 0, 0, 0, 0, 0, 0, 0, 0, 0, 0, 0, 0, 0, 0, 0, 0, 0, 0, 0, 0, 0, 0, 0, 0, 0, 0, 0, 0, 0, 0, 0, 0, 0, 0, 0, 0, 0, 0, 0, 0, 0, 0, 0, 0, 0, 0, 0, 0, 0, 0, 0, 0, 0, 0, 0, 0, 0, 0, 0, 0, 0, 0] p=0.28"]
S0 -> S33 [label="3 [0, 0, 0, 0, 0, 0, 0, 0, 0, 0, 0, 0, 0, 0, 0, 0, 0, 0, 0, 0, 0, 0, 0, 0, 0, 0, 0, 0, 0, 0, 0, 0, 0, 0, 0, 0, 0, 0, 0, 0, 0, 0, 0, 0, 0, 0, 0, 0, 0, 0, 0, 0, 0, 0, 0, 0, 0, 0, 0, 0, 0, 0, 0, 0, 0, 0, 0, 0, 0, 0, 0, 0, 0, 0, 0, 0, 0, 0, 0, 0, 0, 0, 0, 0, 0, 0, 0, 0, 0, 0, 0, 0, 0, 0, 0, 0, 0, 0, 0, 0, 0, 0, 0, 0, 0, 0, 0, 0, 0, 0, 0, 0, 0, 0, 0, 0, 0, 0, 0, 0, 0, 0, 0, 0, 0, 0, 0, 0, 0, 0, 0, 0, 0, 0, 0, 0, 0, 0, 0, 0, 0, 0, 0, 0, 0, 0, 0, 0, 0, 0, 0, 0, 0, 0, 0, 0, 0, 0, 0, 0, 0, 0, 0, 0, 0, 0, 0, 0, 0, 0, 0, 0, 0, 0, 0, 0, 0, 0, 0, 0, 0, 0, 0, 0, 0, 0, 0, 0, 0, 0, 0, 0, 0, 0, 0, 0, 0, 0, 0, 0, 0, 0, 0, 0, 0, 0, 0, 0, 0, 0, 0, 0, 0, 0, 0, 0, 0, 0, 0, 0, 0, 0, 0, 0, 0, 0, 0, 0, 0, 0, 0, 0, 0, 0, 0, 0, 0, 0, 0, 0, 0, 0, 0, 0, 0, 0, 0, 0, 0, 0, 0, 0, 0, 0, 0, 0, 0, 0, 0, 0, 0, 0, 0, 0, 0, 0, 0, 0, 0, 0, 0, 0, 0, 0, 0, 0, 0, 0, 0, 0, 0, 0, 0, 0, 0, 0, 0, 0, 0, 0, 0, 0, 0, 0, 0, 0, 0, 0, 0, 0, 0, 0, 0, 0, 0, 0, 0, 0, 0, 0, 0, 0, 0, 0, 0, 0, 0, 0, 0, 0, 0, 0, 0, 0, 0, 0, 0, 0, 0, 0, 0, 0, 0, 0, 0, 0, 0, 0, 0, 0, 0, 0, 0, 0, 0, 0, 0, 0, 0, 0, 0, 0, 0, 0, 0, 0, 0, 0, 0, 0, 0, 0, 0, 0, 0, 0, 0, 0, 0, 0, 0, 0, 0, 0, 0, 0, 0, 0, 0, 0, 0, 0, 0, 0, 0, 0, 0, 0, 0, 0, 0, 0, 0, 0, 0, 0, 0, 0, 0, 0, 0, 0, 0, 0, 0, 0, 0, 0, 0, 0] p=0.32"]
S0 -> S222 [label="1 [0, 0, 0, 0, 0, 0, 0, 0, 0, 0, 0, 0, 0, 0, 0, 0, 0, 0, 0, 0, 0, 0, 0, 0, 0, 0, 0, 0, 0, 0, 0, 0, 0, 0, 0, 0, 0, 0, 0, 0, 0, 0, 0, 0, 0, 0, 0, 0, 0, 0, 0, 0, 0, 0, 0] p=0.04"]
S0 -> S1 [label="5 [0, 0, 0, 0, 0, 0] p=0.0"]
S1 -> S2 [label="2 [5, 10, 5, 5, 5, 10, 5, 20, 10, 5, 5, 10, 10, 5, 10, 5, 15, 10, 5, 5, 5, 10, 5, 5, 5, 5, 5, 5, 5, 10, 5, 15, 5, 5, 5, 5, 5, 5, 5, 5, 5, 10, 5, 5, 5, 5, 5, 5, 5, 5, 5, 10, 10, 5, 5, 5, 10, 10, 5, 5, 15, 5, 5, 10, 10, 5, 10, 5, 5, 5, 5, 5, 5, 5, 5, 5, 10, 5, 10, 5, 5, 5, 5, 10, 5, 15, 10, 5, 5, 5, 10, 5, 10, 5, 5, 5, 5, 10, 5, 5, 10, 10, 5, 5, 5, 5, 10, 5, 10, 10, 5, 5, 5, 5, 5, 5, 5, 5, 5, 5, 5, 5, 5, 5, 10, 5, 5, 5, 10, 5, 10, 10, 5, 15, 5, 5, 5, 5, 5, 5, 10, 5, 5, 5, 5, 10, 5, 10, 5, 5, 5, 10, 5, 5, 10, 5, 5, 10, 5, 5, 5, 5, 5, 10, 15, 5, 5, 5, 5, 5, 15, 5, 5, 5, 5, 5, 5, 10, 5, 10, 5, 5, 5, 5, 5, 5, 5, 5, 5, 5, 5, 5, 5, 5, 5, 5, 5, 5, 10, 5, 5, 5, 5, 5, 5, 10, 5, 5, 10, 5, 15, 10, 5, 5, 5, 5, 5, 5, 5, 10, 10, 10, 5, 15, 5, 5, 5, 5, 5, 5, 10, 5, 10, 5, 10, 5, 5, 5, 5, 5, 5, 5, 5, 5, 5, 5, 5, 10, 10, 5, 5, 10, 10, 5, 5, 5, 5, 5, 10, 15, 5, 5, 10, 10, 5, 5, 5, 5, 5, 5, 5, 10, 5, 5, 5, 5, 10, 5, 5, 10, 5, 5, 5, 10, 5, 5, 5, 5, 5, 5, 5, 5, 5, 10, 5, 5, 5, 5, 5, 5, 5, 5, 5, 5, 5, 5, 5, 5, 5, 5, 5, 5, 5, 5, 5, 5, 5, 10, 5, 5, 10, 5, 5, 5, 10, 5, 5, 5, 5, 5, 5, 5, 15, 5, 5, 5, 5, 5, 5, 5, 5, 5, 5, 5, 5, 5, 5, 5, 5, 5, 5, 5, 5, 5, 5, 5, 5, 10, 5, 10, 5, 10, 5, 5, 5, 5, 10, 5, 5, 5, 10, 5, 5, 10, 5, 5, 5, 5, 10, 10, 5, 5, 5, 5, 5, 5, 5, 5, 10, 10, 10, 10, 5, 5, 5, 5, 5, 10, 5, 5, 5, 5, 5, 5, 10, 5, 5, 10, 10, 5, 5, 10, 5, 5, 5, 10, 5, 5, 10, 5, 5, 5, 5, 5, 5, 5, 5, 5, 5, 5, 5, 5, 5, 10, 5, 5, 10, 10, 10, 5, 10, 5, 5, 10, 10, 5, 10, 5, 5, 10, 10, 5, 10, 5, 5, 5, 5, 10, 5, 10, 5, 10, 5, 10, 5, 5, 5, 5, 5, 5, 5, 5, 5, 5, 5, 5, 5, 5, 5, 5, 5, 5, 5, 5, 5, 5, 5, 5, 15, 5, 15, 5, 5, 15, 5, 5, 5, 5, 5, 5, 5, 5, 10, 10, 10, 5, 5, 5, 10, 5, 10, 10, 5, 10, 10, 5, 10, 5, 5, 5, 5, 5, 5, 10, 15, 5, 5, 5, 5, 5, 10, 5, 5, 5, 5, 5, 5, 15, 5, 5, 5, 5, 5, 5, 5, 5, 5, 5, 5, 5, 5, 5, 5, 5, 5, 5, 5, 10, 5, 10, 5, 5, 5, 5, 5, 5, 5, 5, 5, 10, 5, 10, 10, 5, 5, 5, 10, 5, 5, 5, 5, 5, 5, 15, 5, 5, 5, 10, 5, 5, 5, 5, 5, 10, 5, 10, 10, 5, 10, 5, 5, 5, 5, 5, 10, 10, 5, 5, 5, 10, 5, 10, 5, 5, 5, 5, 5, 5, 5, 5, 5, 5, 5, 10, 5, 15, 5, 5, 5, 10, 5, 5, 5, 5, 5, 5, 5, 10, 5, 10, 10, 10, 5, 5, 10, 5, 5, 5, 5, 5, 5, 5, 5, 10, 5, 10, 5, 5, 15, 5, 5, 5, 10, 5, 5, 10, 5, 5, 5, 10, 5, 5, 5, 5, 5, 5, 5, 5, 5, 5, 5, 5, 5, 10, 5, 15, 5, 5, 5, 5, 5, 10, 5, 5, 5, 5, 5, 5, 5, 5, 5, 5, 10, 10, 10, 5, 5, 5, 5, 5, 5, 10, 10, 5, 10, 5, 5, 5, 5, 5, 5, 5, 5, 10, 10, 5, 5, 10, 5, 10, 5, 5, 5, 5, 5, 10, 5, 10, 5, 5, 10, 10, 5, 5, 5, 10, 5, 5, 5, 5, 5, 5, 5, 5, 5, 5, 5, 5, 5, 5, 5, 5, 5, 5, 5, 5, 5, 5, 10, 5, 10, 5, 10, 10, 5, 5, 5, 5, 5, 5, 15, 5, 15, 5, 15, 5, 15, 5, 5, 5, 5, 5, 5, 5, 5, 5, 5, 5, 5, 5, 5, 10, 5, 10, 5, 5, 5, 5, 5, 5, 10, 5, 5, 5, 10, 5, 10, 5, 10, 5, 10, 5, 5, 10, 5, 10, 10, 5, 15, 10, 5, 5, 5, 5, 5, 10, 5, 5, 5, 5, 5, 10, 5, 5, 5, 5, 5, 5, 5, 5, 5, 5, 10, 5, 5, 5, 5, 10, 5, 5, 5, 5, 10, 5, 5, 5, 10, 10, 5, 5, 5, 5, 5, 5, 5, 5, 5, 5, 10, 5, 5, 5, 5, 5, 5, 5, 5, 5, 5, 5, 5, 5, 5, 5, 5, 5, 5, 5, 5, 5, 5, 5, 5, 10, 5, 10, 5, 5, 10, 5, 5, 5, 5, 5, 10, 5, 5, 5, 5, 5, 5, 5, 5, 5, 5, 5, 10, 5, 5, 5, 10, 5, 5, 5, 5, 5, 5, 5, 10, 5, 5, 5, 5, 5, 10, 5, 5, 5, 5, 5, 5, 5, 5, 5, 10, 5, 5, 5, 5, 5, 5, 10, 5, 5, 5, 5, 5, 5, 5, 5, 10, 5, 5, 5, 5, 5, 10, 5, 5, 5, 10, 5, 5, 5, 5, 5, 5, 5, 5, 5, 5, 10, 5, 5, 5, 5, 5, 5, 10, 10, 5, 5, 5, 5, 10, 5, 5, 5, 5, 5, 5, 5, 10, 10, 5, 5, 5, 5, 5, 5, 5, 5, 5, 5, 5, 5, 5, 5, 5, 10, 10, 10, 10, 10, 10, 5, 5, 5, 5, 5, 5, 5, 5, 5, 5, 5, 5, 10, 5, 5, 5, 5, 5, 5, 10, 5, 10, 20, 5, 5, 15, 10, 20, 5, 5, 15, 10, 5, 10, 20, 5, 5, 10, 15, 10, 10, 10, 5, 10, 5, 15, 5, 5, 5, 5, 5, 5, 5, 5, 5, 5, 5, 5, 5, 5, 5, 5, 5, 5, 10, 5, 10, 5, 5, 5, 10, 5, 10, 10, 5, 5, 5, 5, 5, 5, 5, 5, 5, 5, 10, 5, 5, 5, 5, 5, 5, 5, 10, 5, 10, 5, 5, 5, 10, 5, 5, 10, 5, 5, 10, 5, 5, 5, 5, 5, 5, 5, 10, 5, 5, 5, 5, 10, 5, 5, 5, 5, 5, 5, 5, 5, 5, 10, 5, 20, 5, 5, 15, 5, 5, 5, 5, 5, 5, 10, 5, 5, 5, 10, 5, 10, 10, 10, 5, 5, 5, 5, 5, 10, 15, 5, 5, 10, 5, 5, 5, 10, 10, 10, 5, 5, 5, 10, 5, 5, 15, 5, 5, 5, 5, 10, 5, 5, 5, 5, 5, 5, 10, 5, 5, 5, 15, 5, 10, 5, 5, 5, 5, 5, 5, 5, 5, 10, 5, 5, 5, 10, 15, 20, 15, 5, 5, 5, 5, 10, 5, 10, 5, 5, 15, 10, 10, 5, 10, 15, 5, 5, 5, 5, 15, 5, 10, 5, 5, 5, 10, 5, 15, 15, 5, 5, 5, 10, 5, 5, 15, 5, 5, 5, 15, 5, 5, 5, 5, 5, 15, 5, 5, 5, 5, 5, 5, 5, 5, 5, 5, 5, 5, 5, 5, 5, 5, 5, 5, 5, 5, 5, 5, 5, 5, 5, 5, 5, 5, 5, 5, 5, 5, 5, 5, 5, 5, 5, 5, 10, 10, 5, 10, 5, 10, 10, 5, 10, 5, 5, 5, 5, 5, 10, 5, 5, 5, 10, 5, 5, 5, 5, 5, 10, 5, 10, 5, 5, 5, 10, 10, 5, 5, 5, 10, 5, 10, 5, 5, 5, 5, 5, 5, 5, 5, 5, 5, 5, 5, 10, 10, 15, 15, 15, 10, 5, 5, 10, 5, 5, 5, 5, 10, 5, 5, 10, 5, 5, 10, 5, 5, 10, 10, 10, 10, 5, 5, 10, 10, 10, 5, 15, 10, 10, 5, 15, 5, 5, 10, 10, 10, 10, 10, 10, 10, 10, 5, 5, 5, 5, 5, 5, 5, 5, 5, 5, 10, 10, 10, 5, 5, 5, 5, 5, 5, 5, 10, 5, 5, 10, 5, 5, 5, 5, 5, 5, 5, 5, 5, 5, 5, 10, 10, 10, 5, 5, 5, 5, 10, 5, 5, 5, 5, 10, 5, 5, 5, 5, 5, 5, 10, 5, 5, 5, 5, 5, 5, 5, 5, 5, 5, 5, 5, 5, 15, 5, 5, 5, 5, 15, 5, 5, 5, 5, 15, 5, 5, 15, 15, 15, 15, 10, 10, 10, 5, 5, 5, 5, 5, 5, 5, 5, 10, 5, 5, 10, 5, 5, 5, 10, 5, 5, 5, 5, 15, 5, 5, 5, 15, 5, 5, 5, 5, 5, 5, 5, 5, 5, 5, 5, 5, 5, 5, 5, 5, 5, 5, 5, 5, 5, 10, 5, 10, 5, 5, 5, 5, 5, 5, 5, 5, 5, 5, 10, 5, 5, 5, 5, 5, 5, 10, 5, 10, 10, 5, 5, 5, 5, 5, 5, 5, 5, 5, 5, 5, 5, 5, 5, 5, 10, 5, 5, 10, 10, 10, 10, 5, 5, 5, 5, 5, 5, 5, 5, 5, 5, 5, 5, 5, 5, 5, 5, 5, 5, 5, 5, 5, 5, 5, 5, 5, 5, 15, 10, 10, 10, 10, 10, 10, 15, 15, 10, 10, 20, 5, 20, 5, 15, 20, 5, 15, 10, 10, 10, 10, 10, 5, 5, 5, 10, 5, 5, 5, 5, 5, 5, 5, 5, 5, 5, 10, 5, 5, 5, 10, 10, 5, 5, 10, 10, 5, 5, 5, 5, 5, 10, 5, 15, 15, 15, 5, 5, 5, 5, 5, 5, 5, 5, 5, 5, 5, 5, 5, 5, 5, 5, 5, 5, 5, 5, 5, 5, 5, 5, 5, 10, 5, 5, 10, 5, 5, 10, 5, 5, 5, 5, 5, 5, 5, 5, 5, 10, 10, 10, 5, 5, 5, 10, 10, 10, 10, 10, 10, 5, 5, 5, 5, 5, 5, 5, 5, 5, 5, 5, 5, 10, 10, 10, 15, 15, 15, 5, 5, 15, 5, 5, 10, 5, 20, 5, 10, 5, 5, 5, 5, 5, 5, 5, 5, 5, 5, 5, 5, 5, 5, 10, 10, 5, 10, 5, 5, 10, 5, 10, 5, 5, 5, 5, 5, 10, 10, 5, 5, 10, 10, 10, 5, 5, 5, 10, 10, 10, 5, 10, 10, 5, 5, 5, 5, 5, 5, 5, 10, 5, 5, 5, 5, 5, 5, 5, 5, 5, 10, 10, 10, 10, 5, 5, 5, 5, 5, 5, 5, 5, 10, 10, 5, 10, 5, 5, 5, 10, 15, 5, 5, 5, 5, 5, 5, 5, 5, 5, 5, 5, 5, 10, 10, 5, 10, 5, 5, 10, 5, 10, 5, 5, 5, 5, 10, 5, 5, 5, 5, 5, 5, 5, 5, 5, 5, 5, 5, 5, 5, 10, 5, 10, 5, 5, 5, 5, 10, 10, 10, 10, 10, 10, 10, 5, 5, 5, 5, 5, 5, 5, 5, 5, 5, 15, 5, 5, 15, 5, 5, 5, 5, 5, 5, 5] p=0.45"]
S1 -> S4 [label="3 [5, 5, 5, 10, 5, 5, 5, 5, 5, 5, 5, 5, 5, 5, 5, 5, 5, 5, 5, 5, 10, 5, 5, 5, 5, 10, 5, 5, 5, 5, 5, 5, 5, 5, 5, 10, 10, 5, 5, 5, 5, 5, 5, 5, 5, 5, 5, 5, 10, 5, 5, 5, 5, 5, 5, 5, 5, 5, 5, 5, 5, 5, 5, 5, 5, 5, 5, 5, 5, 5, 5, 5, 5, 5, 5, 5, 5, 5, 5, 5, 5, 5, 5, 5, 5, 5, 5, 5, 10, 5, 5, 5, 5, 10, 5, 5, 5, 5, 5, 10, 5, 5, 5, 5, 5, 10, 5, 5, 5, 5, 5, 5, 5, 5, 5, 5, 10, 5, 5, 5, 5, 10, 5, 5, 5, 5, 5, 5, 5, 5, 5, 5, 15, 15, 5, 5, 5, 5, 5, 5, 10, 5, 5, 5, 5, 5, 5, 5, 5, 5, 5, 5, 5, 10, 5, 5, 10, 5, 5, 5, 5, 5, 5, 5, 5, 5, 5, 5, 5, 5, 5, 5, 5, 5, 5, 5, 5, 5, 5, 5, 5, 5, 5, 5, 5, 5, 5, 5, 5, 5, 5, 5, 5, 15, 5, 5, 5, 5, 5, 5, 5, 5, 5, 5, 5, 5, 5, 5, 5, 5, 5, 5, 5, 5, 5, 5, 5, 5, 10, 5, 5, 5, 5, 5, 5, 5, 5, 5, 5, 5, 5, 5, 5, 5, 5, 5, 5, 5, 15, 15, 5, 5, 5, 5, 5, 5, 5, 5, 5, 5, 5, 5, 5, 5, 5, 5, 5, 5, 5, 5, 5, 5, 5, 5, 5, 5, 5, 5, 5, 5, 5, 5, 5, 5, 5, 5, 5, 5, 5, 5, 5, 5, 5, 5, 5, 5, 5, 5, 5, 5, 5, 5, 5, 5, 5, 5, 5, 10, 5, 5, 5, 5, 5, 5, 5, 5, 5, 5, 5, 5, 5, 5, 5, 5, 5, 10, 5, 5, 5, 5, 5, 10, 5, 5, 5, 5, 10, 5, 5, 10, 5, 5, 5, 5, 5, 5, 5, 5, 15, 5, 5, 5, 5, 5, 5, 10, 5, 10, 5, 5, 5, 5, 5, 5, 5, 5, 5, 5, 5, 5, 5, 5, 5, 5, 5, 5, 5, 5, 5, 5, 5, 5, 5, 5, 5, 5, 10, 10, 5, 5, 5, 5, 5, 5, 5, 5, 5, 5, 5, 5, 5, 5, 5, 5, 5, 5, 5, 5, 5, 5, 5, 5, 5, 5, 5, 5, 5, 5, 5, 5, 5, 5, 5, 5, 5, 5, 5, 10, 5, 5, 5, 5, 5, 10, 5, 5, 5, 5, 5, 5, 10, 5, 5, 5, 5, 5, 5, 5, 10, 5, 5, 5, 5, 5, 5, 5, 5, 5, 5, 5, 5, 5, 5, 5, 5, 5, 5, 5, 5, 5, 5, 5, 5, 5, 5, 5, 5, 5, 5, 5, 5, 10, 10, 5, 5, 5, 5, 5, 5, 5, 5, 5, 5, 5, 5, 5, 5, 5, 5, 5, 5, 5, 5, 5, 5, 5, 5, 10, 5, 5, 5, 5, 5, 10, 10, 5, 5, 5, 5, 5, 5, 5, 5, 5, 5, 5, 5, 5, 5, 5, 5, 5, 5, 5, 5, 5, 5, 5, 5, 5, 5, 5, 5, 5, 5, 5, 5, 5, 5, 5, 5, 5, 5, 5, 5, 5, 5, 5, 5, 5, 5, 5, 5, 5, 5, 5, 5, 5, 5, 5, 5, 10, 10, 10, 10, 10, 5, 5, 5, 5, 5, 5, 5, 5, 5, 5, 5, 10, 5, 5, 5, 15, 5, 5, 5, 5, 5, 5, 5, 5, 15, 5, 5, 5, 5, 5, 5, 5, 5, 5, 5, 5, 5, 10, 5, 10, 10, 10, 10, 10, 5, 5, 5, 5, 5, 5, 5, 5, 5, 5, 5, 5, 5, 5, 5, 5, 5, 5, 5, 10, 5, 5, 5, 5, 5, 5, 5, 5, 10, 5, 5, 5, 5, 5, 5, 5, 5, 5, 10, 5, 5, 5, 5, 5, 5, 10, 5, 5, 5, 5, 5, 5, 5, 5, 5, 5, 5, 5, 10, 5, 5, 5, 5, 5, 5, 5, 5, 5, 5, 5, 5, 5, 5, 5, 5, 5, 5, 5, 15, 15, 15, 5, 5, 5, 5, 5, 5, 5, 5, 5, 5, 5, 5, 10, 5, 5, 5, 5, 5, 5, 5, 5, 5, 5, 5, 5, 5, 5, 5, 5, 5, 5, 5, 5, 10, 5, 5, 5, 5, 10, 5, 5, 10, 5, 5, 5, 5, 5, 5, 5, 10, 5, 10, 5, 5, 5, 5, 5, 5, 10, 5, 10, 5, 10, 5, 10, 5, 5, 5, 5, 10, 5, 5, 5, 5, 5, 5, 5, 5, 5, 5, 5, 5, 5, 5, 10, 5, 5, 5, 5, 5, 5, 5, 5, 5, 5, 5, 5, 5, 5, 5, 10, 5, 5, 5, 10, 5, 5, 10, 5, 5, 5, 10, 5, 5, 5, 5, 5, 5, 5, 5, 5, 5, 5, 5, 5, 5, 5, 5, 5, 5, 5, 5, 10, 5, 5, 5, 5, 5, 5, 5, 5, 5, 10, 5, 5, 5, 10, 5, 10, 5, 10, 5, 5, 5, 5, 5, 5, 5, 5, 5, 5, 10, 10, 10, 5, 5, 5, 5, 5, 5, 10, 10, 5, 5, 10, 10, 5, 10, 5, 5, 10, 5, 5, 10, 5, 5, 5, 5, 10, 5, 5, 10, 10, 5, 10, 5, 5, 10, 5, 10, 5, 5, 5, 5, 5, 5, 5, 5, 5, 10, 10, 10, 5, 5, 5, 10, 5, 5, 5, 5, 5, 5, 5, 5, 5, 5, 5, 5, 5, 10, 5, 5, 5, 10, 5, 5, 5, 10, 5, 5, 10, 5, 5, 5, 5, 5, 5, 5, 5, 5, 5, 5, 5, 5, 5, 5, 5, 5, 5, 10, 5, 5, 5, 5, 5, 10, 5, 5, 5, 5, 5, 5, 5, 10, 10, 5, 5, 10, 10, 5, 10, 10, 5, 5, 5, 10, 5, 5, 5, 10, 5, 5, 5, 5, 5, 5, 5, 5, 5, 5, 5, 5, 5, 10, 5, 5, 5, 5, 10, 5, 5, 5, 10, 5, 5, 5, 5, 5, 5, 5, 5, 5, 5, 5, 10, 5, 5, 5, 5, 5, 5, 5, 5, 5, 5, 5, 5, 5, 5, 5, 5, 5, 5, 5, 5, 10, 5, 10, 5, 5, 5, 5, 5, 5, 5, 5, 5, 5, 5, 5, 5, 5, 5, 5, 5, 10, 10, 5, 5, 5, 5, 5, 5, 5, 5, 5, 5, 5, 5, 5, 5, 5, 5, 5, 5, 5, 5, 5, 5, 5, 5, 5, 5, 5, 10, 5, 5, 5, 5, 5, 5, 5, 5, 10, 10, 10, 5, 5, 5, 5, 5, 5, 5, 5, 5, 5, 5, 5, 5, 5, 5, 5, 5, 5, 5, 10, 5, 10, 5, 5, 5, 5, 5, 5, 5, 5, 5, 5, 10, 5, 5, 5, 5, 5, 5, 5, 10, 5, 5, 5, 5, 5, 5, 5, 5, 5, 10, 10, 5, 5, 5, 5, 5, 5, 5, 5, 5, 5, 10, 5, 5, 5, 5, 5, 5, 5, 5, 10, 5, 5, 10, 5, 5, 5, 5, 5, 10, 10, 5, 5, 5, 5, 5, 5, 5, 5, 5, 5, 5, 5, 5, 5, 5, 5, 5, 5, 5, 5, 5, 5, 5, 5, 5, 5, 5, 5, 5, 5, 5, 5, 5, 5, 5, 5, 5, 5, 5, 5, 10, 5, 5, 5, 10, 5, 5, 5, 5, 10, 5, 5, 5, 10, 10, 5, 5, 5, 5, 5, 5, 5, 5, 5, 10, 5, 5, 10, 10, 10, 10, 10, 5, 5, 5, 5, 5, 5, 5, 5, 5, 5, 5, 5, 5, 5, 5, 5, 5, 5, 5, 5, 5, 5, 5, 5, 5, 5, 5, 5, 5, 5, 5, 5, 5, 5, 5, 5, 5, 5, 5, 5, 5, 5, 5, 5, 5, 5, 5, 5, 5, 5, 5, 5, 5, 5, 5, 5, 10, 10, 10, 10, 5, 5, 5, 15, 15, 15, 15, 5, 5, 5, 5, 5, 5, 5, 5, 5, 5, 5, 5, 5, 5, 5, 5, 5, 5, 5, 10, 5, 5, 5, 5, 5, 5, 5, 5, 10, 5, 5, 5, 5, 10, 5, 5, 10, 5, 5, 10, 5, 5, 5, 5, 5, 5, 5, 5, 5, 5, 5, 5, 5, 5, 5, 5, 5, 5, 5, 5, 5, 5, 5, 5, 5, 5, 10, 10, 10, 10, 10, 10, 5, 10, 5, 10, 5, 10, 10, 10, 10, 10, 10, 5, 5, 5, 5, 5, 5, 5, 5, 5, 5, 5, 5, 5, 10, 10, 10, 5, 5, 5, 5, 5, 5, 5, 5, 5, 5, 5, 5, 5, 5, 5, 5, 5, 5, 5, 5, 5, 5, 5, 5, 5, 5, 5, 5, 5, 5, 5, 5, 5, 5, 5, 5, 5, 5, 5, 5, 5, 5, 5, 5, 5, 5, 5, 5, 5, 5, 5, 5, 5, 5, 5, 5, 5, 5, 5, 5, 5, 5, 5, 10, 5, 10, 5, 10, 5, 5, 10, 5, 5, 10, 5, 5, 10, 10, 10, 10, 10, 5, 5, 5, 5, 5, 5, 5, 5, 5, 5, 5, 5, 5, 5, 5, 5, 5, 5, 5, 5, 5, 5, 5, 5, 5, 5, 5, 5, 5, 5, 5, 5, 5, 5, 5, 5, 5, 5, 5, 5, 5, 5, 5, 10, 5, 10, 5, 10, 5, 5, 5, 5, 5, 5, 5, 5, 5, 5, 5, 5, 5, 5, 5, 10, 10, 5, 5, 5, 10, 10, 15, 5, 5, 5, 5, 5, 5, 5, 5, 10, 5, 10, 10, 10, 10, 5, 5, 5, 5, 5, 5, 5, 10, 10, 10, 5, 5, 10, 5, 5, 5, 5, 5, 5, 5, 5, 5, 5, 5, 5, 5, 5, 5, 5, 5, 5, 5, 5, 5, 5, 5, 5, 5, 5, 5, 5, 5, 10, 5, 5, 5, 5, 10, 5, 10, 5, 5, 5, 5, 5, 5, 5, 5, 5, 5, 5, 5, 5, 5, 5, 5, 5, 5, 5, 10, 5, 5, 5, 5, 5, 5, 5, 5, 5, 5, 5, 5, 5, 5, 5, 10, 5, 5, 5, 5, 5, 5, 5, 5, 5, 5, 5, 5, 5, 5, 10, 5, 10, 5, 5, 5, 5, 5, 5, 5, 5, 5, 5, 5, 5, 10, 5, 5, 10, 5, 5, 5, 5, 5, 5, 10, 10, 5, 5, 5, 5, 5, 10, 5, 5, 5, 5, 5, 10, 5, 5, 5, 10, 5, 5, 5, 10, 5, 5, 5, 10, 5, 5, 5, 5, 5, 5, 5, 5, 10, 5, 5, 5, 5, 5, 5, 5, 5, 5, 5, 5, 5, 10, 10, 5, 5, 5, 5, 10, 5, 5, 5, 5, 5, 5, 5, 5, 5, 5, 5, 5, 5, 5, 10, 5, 5, 5, 5, 10, 5, 5, 5, 5, 5, 10, 10, 5, 5, 5, 5, 5, 5, 5, 5, 5, 5, 5, 5, 5, 5, 10, 5, 5, 5, 5, 5, 5, 5, 5, 5, 5, 15, 5, 5, 15, 5, 10, 5, 5, 5, 5, 5, 5, 5, 5, 5, 5, 5, 5, 5, 5, 5, 5, 5, 5, 5, 10, 5, 5, 5, 5, 10, 10, 5, 5, 5, 5, 5, 5, 5, 5, 5, 5, 5, 5, 5, 5, 5, 10, 5, 10, 5, 5, 5, 10, 5, 5, 5, 5, 5, 5, 5, 5, 5, 5, 5, 10, 5, 5, 10, 5, 5, 5, 10, 5, 5, 5, 5, 5, 5, 10, 5, 5, 5, 5, 5, 5, 5, 5, 5, 5, 5, 5, 5, 5, 5, 5, 10, 5, 5, 5, 5, 5, 5, 5, 5, 5, 5] p=0.45"]
S1 -> S222 [label="1 [10, 10, 10, 5, 10, 10, 10, 10, 5, 5, 10, 5, 10, 10, 5, 5, 10, 5, 10, 10, 5, 5, 5, 10, 10, 5, 5, 10, 5, 5, 5, 5, 10, 10, 5, 5, 5, 10, 10, 5, 5, 5, 5, 5, 5, 5, 5, 5, 10, 5, 5, 5, 10, 10, 10, 10, 5, 5, 5, 5, 5, 10, 10, 5, 10, 5, 5, 15, 10, 10, 10, 5, 5, 5, 5, 10, 5, 10, 5, 10, 5, 10, 5, 5, 10, 15, 10, 5, 10, 5, 15, 10, 10, 5, 5, 5, 10, 5, 5, 5, 10, 10, 10, 5, 5, 5, 5, 5, 5, 5, 10, 5, 5, 5, 5, 5, 5, 10, 10, 5, 10, 10, 10, 10, 10, 10, 10, 10, 10, 10, 10, 10, 10, 10, 15, 5, 10, 10, 10, 5, 10, 5, 10, 5, 5, 10, 5, 5, 10, 5, 10, 10, 10, 5, 5, 5, 5, 5, 10, 10, 10, 10, 10, 10, 10, 5, 5, 5, 10, 10, 5, 10, 10, 5, 5, 10, 10, 10, 10, 10, 10, 5, 5, 10, 5, 5, 5, 5, 5, 10, 10, 10, 5, 5, 5, 5, 10, 10, 10, 10, 10, 5, 5, 5, 5, 5, 5, 10, 10, 10, 10, 10, 10, 5, 5, 10, 5, 10, 5, 10, 5, 5, 5, 5, 5, 10, 10, 10, 10, 10, 10, 10, 10, 10, 10, 10, 10, 5, 10, 5, 5, 5, 5, 5, 5, 5, 5, 5, 5, 5, 5, 5, 5, 5, 5, 5, 5, 5, 5, 5, 5, 5, 5, 5, 5, 5, 5, 5, 10, 10, 5, 5, 10, 10, 15, 15, 15, 15, 10, 5, 5, 5, 5, 5, 5, 5, 5, 5, 10, 10, 10, 10, 10, 10, 10, 10, 10, 5, 10, 5, 5, 5, 5, 5, 5, 5, 5, 5, 5, 5, 5, 5, 5, 5, 5, 10, 10, 10, 10, 5, 5, 5, 5, 5, 5, 5, 10, 5, 10, 5, 10, 10, 10, 5, 10, 10, 10, 5, 5, 10, 5, 5, 10, 10, 5, 5, 5, 5, 5, 10, 5, 5, 10, 5, 5, 15, 10, 10, 10, 5, 10, 10, 5, 10, 5, 5, 5, 5, 5, 10, 5, 5, 5, 5, 5, 5, 5] p=0.09"]
S1 -> S490 [label="5 [5, 5, 5, 5, 5, 5, 5, 5, 5] p=0.0"]
S33 -> S34 [label="4 [25, 15, 5, 5, 5, 5, 5, 5, 10, 5, 15, 10, 5, 5, 10, 10, 5, 5, 10, 20, 5, 10, 20, 5, 5, 15, 10, 5, 20, 5, 10, 5, 5, 5, 5, 10, 25, 10, 10, 25, 5, 5, 10, 15, 10, 10, 5, 10, 10, 10, 5, 10, 15, 5, 5, 15, 5, 10, 5, 10, 5, 5, 5, 10, 5, 15, 10, 5, 5, 5, 5, 5, 20, 25, 5, 15, 20, 25, 5, 5, 5, 10, 5, 5, 10, 10, 5, 10, 5, 5, 15, 15, 10, 5, 10, 20, 5, 15, 5, 5, 5, 10, 5, 5, 5, 10, 5, 15, 5, 5, 5, 5, 10, 5, 5, 5, 5, 10, 5, 20, 10, 5, 5, 5, 5, 5, 5, 5, 10, 5, 5, 5, 10, 15, 10, 5, 35, 5, 10, 5, 5, 10, 5, 5, 5, 5, 10, 5, 10, 5, 5, 5, 10, 10, 5, 10, 15, 5, 5, 5, 10, 5, 10, 15, 20, 5, 5, 5, 15, 10, 5, 5, 10, 5, 5, 5, 15, 5, 5, 5, 5, 5, 10, 5, 5, 20, 5, 5, 5, 5, 5, 5, 5, 5, 15, 5, 5, 10, 5, 10, 10, 5, 5, 10, 5, 15, 10, 5, 5, 15, 5, 5, 5, 5, 5, 5, 10, 10, 10, 15, 15, 5, 5, 15, 5, 5, 15, 10, 5, 5, 15, 5, 20, 10, 10, 5, 5, 5, 10, 15, 15, 10, 5, 10, 20, 5, 10, 15, 5, 5, 5] p=0.61"]
S33 -> S2 [label="2 [5, 10, 10, 15, 10, 15, 5, 5, 10, 5, 10, 5, 5, 10, 5, 15, 5, 5, 10, 5, 20, 10, 15, 20, 5, 15, 5, 5, 25, 10, 5, 5, 20, 10, 5, 10, 10, 10, 20, 5, 5, 15, 5, 5, 5, 10, 10, 5, 10, 15, 5, 10, 10, 5, 5, 10, 10, 5, 5, 10, 10, 15, 10, 10, 10, 5, 10, 5, 15, 5, 5, 5, 5, 5, 10, 5, 5, 5, 5, 10, 5, 10, 5, 5, 15, 20, 5, 10, 5, 15, 5, 5, 5, 10, 5, 5, 5, 5, 5, 5, 15, 15, 15, 10, 5, 5, 5, 10, 5, 5, 10, 10, 5, 5, 10, 5, 10, 15, 5, 5, 5, 10, 5, 5, 5, 5, 5, 5, 5, 5, 5, 10, 5, 10, 5, 5, 20, 5, 5, 10, 5] p=0.34"]
S33 -> S2 [label="1 [5, 5, 5, 5, 5, 5, 5, 5, 5, 20, 5, 5, 5] p=0.03"]
S33 -> S1 [label="5 [20, 10, 5, 10, 20] p=0.01"]
S2 -> S1 [label="4 [5, 5, 10, 5, 5, 10, 10, 5, 5, 10, 5, 5, 10, 5, 5, 10, 5, 5, 5, 5, 5, 10, 10, 5, 5, 5, 5, 10, 5, 5, 5, 5, 5, 10, 10, 5, 5, 5, 5, 5, 5, 10, 10, 5, 5, 5, 5, 5, 5, 10, 10, 5, 10, 5, 5, 5, 10, 5, 5, 5, 5, 5, 5, 5, 5, 5, 5, 5, 5, 5, 5, 5, 5, 10, 5, 5, 5, 5, 10, 10, 10, 5, 5, 10, 5, 10, 5, 5, 5, 5, 5, 5, 10, 5, 5, 5, 5, 5, 10, 10, 5, 5, 5, 10, 10, 5, 5, 5, 5, 5, 5, 5, 10, 5, 5, 5, 10, 5, 5, 5, 5, 5, 5, 10, 10, 5, 5, 5, 5, 5, 5, 5, 5, 10, 10, 5, 5, 5, 5, 5, 5, 5, 5, 10, 10, 5, 5, 5, 5, 5, 5, 5, 10, 5, 5, 5, 5, 5, 10, 5, 10, 5, 5, 5, 5, 5, 5, 5, 10, 5, 5, 10, 10, 5, 5, 10, 10, 5, 5, 5, 5, 5, 10, 5, 5, 5, 5, 10, 10, 5, 5, 10, 5, 5, 5, 5, 5, 5, 5, 5, 5, 5, 10, 5, 5, 5, 5, 5, 5, 5, 5, 5, 5, 5, 5, 5, 5, 5, 5, 5, 5, 5, 5, 5, 5, 5, 5, 5, 5, 5, 10, 5, 5, 5, 5, 10, 5, 5, 5, 10, 5, 10, 5, 5, 5, 10, 5, 10, 5, 5, 10, 10, 5, 10, 5, 5, 5, 5, 5, 5, 5, 5, 5, 10, 10, 5, 5, 5, 5, 5, 5, 5, 5, 5, 10, 5, 5, 5, 5, 10, 5, 10, 5, 10, 10, 5, 5, 5, 5, 5, 5, 5, 5, 10, 10, 5, 10, 5, 5, 10, 5, 5, 10, 10, 5, 5, 5, 10, 5, 10, 5, 5, 10, 5, 5, 5, 5, 5, 5, 10, 5, 10, 10, 5, 10, 5, 5, 5, 10, 5, 5, 5, 10, 10, 5, 5, 5, 5, 5, 10, 5, 5, 5, 10, 5, 5, 5, 5, 10, 10, 10, 5, 10, 5, 5, 5, 5, 5, 5, 5, 5, 5, 5, 5, 10, 5, 5, 5, 5, 5, 5, 10, 5, 5, 5, 10, 5, 5, 5, 5, 5, 5, 5, 10, 10, 5, 5, 5, 10, 5, 5, 5, 5, 5, 5, 5, 5, 5, 5, 5, 5, 5, 5, 5, 5, 5, 5, 5, 5, 5, 10, 5, 5, 5, 10, 5, 5, 5, 10, 5, 5, 5, 5, 5, 5, 5, 10, 10, 5, 5, 5, 5, 5, 5, 10, 5, 5, 5, 5, 5, 5, 5, 5, 10, 5, 5, 5, 10, 5, 5, 5, 5, 5, 5, 5, 5, 10, 10, 5, 5, 5, 5, 5, 5, 5, 5, 5, 5, 5, 5, 5, 5, 5, 10, 5, 10, 5, 10, 5, 5, 5, 5, 5, 10, 10, 5, 5, 5, 5, 5, 10, 5, 5, 5, 5, 5, 5, 5, 5, 5, 5, 5, 5, 5, 5, 5, 5, 5, 5, 5, 5, 5, 5, 5, 5, 5, 5, 5, 10, 5, 5, 10, 5, 5, 5, 5, 5, 5, 10, 10, 5, 10, 5, 5, 5, 5, 5, 5, 5, 5, 5, 5, 5, 5, 5, 10, 5, 10, 5, 10, 5, 5, 10, 10, 10, 5, 5, 10, 5, 5, 10, 5, 10, 5, 5, 5, 5, 10, 5, 10, 10, 10, 5, 10, 5, 5, 10, 5, 5, 10, 5, 5, 5, 10, 5, 5, 5, 5, 5, 5, 10, 5, 10, 5, 5, 5, 10, 5, 5, 5, 5, 5, 5, 5, 5, 5, 10, 5, 5, 10, 5, 5, 5, 5, 5, 5, 5, 5, 5, 5, 5, 5, 5, 5, 5, 5, 5, 5, 10, 10, 5, 5, 5, 5, 5, 5, 5, 5, 10, 5, 10, 5, 5, 10, 5, 5, 5, 10, 5, 5, 10, 5, 5, 10, 10, 5, 10, 10, 5, 10, 5, 5, 5, 5, 5, 5, 5, 5, 5, 5, 5, 5, 5, 5, 10, 10, 5, 5, 5, 5, 5, 5, 10, 5, 5, 5, 5, 5, 5, 5, 5, 10, 5, 5, 5, 5, 5, 10, 5, 10, 5, 5, 5, 5, 5, 5, 5, 10, 5, 5, 5, 5, 5, 10, 5, 5, 5, 5, 5, 5, 5, 5, 5, 5, 5, 5, 10, 5, 5, 10, 5, 5, 5, 5, 5, 5, 5, 5, 10, 5, 5, 5, 5, 5, 5, 5, 10, 5, 5, 5, 5, 5, 5, 5, 10, 5, 5, 5, 5, 10, 5, 5, 5, 5, 5, 10, 5, 5, 5, 5, 10, 5, 5, 5, 5, 5, 5, 5, 5, 5, 5, 5, 10, 5, 5, 5, 5, 5, 10, 5, 5, 5, 5, 5, 5, 5, 5, 5, 5, 5, 5, 5, 5, 5, 10, 5, 5, 5, 5, 5, 5, 5, 5, 10, 5, 5, 5, 5, 5, 5, 5, 10, 5, 10, 5, 10, 5, 5, 5, 10, 5, 5, 5, 5, 5, 5, 5, 5, 5, 5, 5, 5, 5, 5, 5, 5, 10, 5, 5, 5, 10, 10, 5, 5, 5, 5, 10, 10, 5, 5, 5, 5, 5, 5, 5, 5, 5, 5, 5, 5, 5, 5, 5, 5, 5, 5, 5, 5, 5, 10, 10, 5, 5, 5, 5, 5, 5, 10, 10, 5, 5, 5, 5, 5, 5, 5, 5, 5, 5, 5, 5, 5, 5, 5, 5, 5, 5, 5, 5, 5, 5, 5, 5, 5, 5, 10, 5, 10, 5, 5, 5, 5, 10, 5, 10, 5, 5, 5, 5, 5, 5, 5, 5, 5, 5, 5, 5, 5, 5, 5, 5, 5, 10, 5, 10, 5, 10, 5, 5, 10, 5, 10, 5, 10, 5, 5, 5, 5, 5, 5, 10, 10, 10, 5, 5, 5, 5, 10, 5, 10, 10, 5, 5, 5, 5, 5, 5, 5, 5, 5, 10, 5, 5, 5, 5, 10, 5, 5, 10, 5, 5, 5, 5, 5, 10, 5, 5, 5, 5, 10, 5, 5, 10, 5, 5, 5, 5, 5, 5, 5, 5, 10, 5, 5, 5, 5, 5, 5, 10, 5, 5, 5, 10, 5, 5, 5, 5, 5, 5, 5, 5, 5, 5, 5, 5, 5, 10, 10, 10, 10, 10, 10, 10, 10, 10, 10, 5, 5, 5, 5, 5, 5, 10, 5, 5, 10, 5, 5, 5, 5, 5, 5, 5, 10, 10, 5, 5, 5, 5, 10, 10, 5, 5, 5, 10, 5, 5, 5, 5, 10, 10, 10, 5, 5, 5, 5, 5, 5, 5, 10, 10, 5, 5, 5, 5, 10, 5, 5, 5, 5, 10, 10, 5, 10, 5, 10, 10, 5, 5, 5, 10, 5, 5, 5, 5, 10, 10, 5, 5, 5, 5, 5, 5, 5, 10, 5, 5, 10, 10, 5, 10, 5, 5, 5, 5, 5, 5, 5, 5, 5, 5, 5, 5, 5, 5, 5, 5, 5, 5, 5, 5, 5, 5, 10, 5, 5, 5, 5, 5, 5, 5, 5, 5, 5, 5, 5, 5, 5, 5, 10, 10, 10, 5, 5, 5, 5, 5, 5, 5, 5, 5, 5, 5, 10, 5, 5, 5, 5, 5, 5, 10, 5, 5, 5, 5, 5, 5, 5, 5, 5, 5, 5, 10, 5, 5, 5, 5, 10, 5, 5, 10, 10, 5, 5, 5, 5, 5, 5, 5, 5, 5, 5, 5, 5, 5, 5, 5, 5, 5, 5, 5, 5, 5, 10, 10, 10, 10, 10, 5, 5, 5, 5, 5, 10, 10, 10, 5, 5, 5, 10, 10, 5, 5, 5, 10, 10, 5, 5, 5, 5, 10, 10, 5, 10, 5, 5, 10, 5, 5, 10, 5, 10, 10, 10, 10, 5, 5, 5, 5, 5, 5, 5, 5, 5, 5, 5, 5, 5, 5, 5, 5, 5, 5, 10, 10, 5, 5, 5, 5, 5, 5, 5, 5, 5, 5, 5, 5, 5, 10, 10, 10, 5, 5, 5, 5, 5, 5, 10, 10, 5, 10, 10, 5, 5, 5, 5, 5, 5, 5, 10, 5, 5, 5, 5, 10, 10, 5, 10, 10, 5, 5, 5, 5, 10, 5, 5, 5, 10, 5, 5, 5, 5, 5, 5, 5, 5, 5, 10, 10, 10, 5, 5, 5, 5, 10, 10, 5, 5, 5, 5, 5, 5, 5, 5, 5, 5, 10, 10, 5, 5, 10, 10, 5, 5, 5, 5, 5, 5, 5, 5, 5, 5, 5, 5, 5, 5, 5, 5, 10, 5, 10, 5, 10, 5, 5, 5, 5, 5, 5, 5, 5, 5, 5, 10, 5, 5, 5, 5, 5, 10, 5, 5, 5, 5, 5, 5, 5, 10, 5, 5, 5, 5, 5, 5, 5, 5, 5, 5, 5, 5, 5, 5, 5, 5, 5, 10, 10, 10, 10, 5, 5, 5, 5, 5, 5, 5, 5, 5, 5, 5, 5, 5, 5, 5, 10, 5, 5, 5, 10, 5, 5, 5, 5, 5, 10, 5, 5, 5, 5, 5, 5, 5, 5, 5, 5, 5, 5, 5, 5, 5, 5, 5, 5, 5, 5, 5, 5, 5, 5, 5, 5, 5, 5, 5, 5, 5, 5, 5, 5, 5, 5, 5, 5, 5, 5, 5, 5, 5, 5, 5, 5, 5, 5, 5, 5, 10, 10, 10, 10, 5, 5, 5, 5, 5, 5, 5, 5, 5, 10, 10, 5, 5, 5, 5, 5, 5, 5, 5, 5, 5, 5, 10, 10, 5, 5, 5, 5, 5, 5, 5, 10, 10, 10, 10, 10, 10, 10, 10, 5, 10, 5, 5, 5, 10, 5, 10, 5, 5, 5, 5, 5, 5, 5, 5, 10, 5, 10, 5, 10, 5, 5, 5, 5, 10, 10, 5, 5, 5, 10, 10, 10, 10, 5, 5, 5, 5, 5, 5, 5, 5, 5, 5, 5, 5, 5, 5, 5, 5, 5, 5, 5, 5, 5, 5, 5, 5, 5, 10, 10, 5, 5, 5, 5, 5, 5, 5, 5, 5, 5, 5, 10, 10, 10, 10, 5, 5, 5, 5, 5, 5, 10, 10, 10, 10, 5, 5, 5, 5, 5, 5, 5, 5, 5, 5, 5, 5, 5, 5, 5, 5, 5, 5, 5, 5, 10, 5, 10, 5, 5, 5, 5, 5, 5, 5, 5, 5, 5, 5, 5, 5, 5, 5, 5, 5, 5, 10, 5, 10, 5, 5, 5, 5, 10, 10, 5, 5, 10, 10, 5, 5, 10, 10, 5, 10, 10, 5, 5, 10, 5, 5, 5, 5, 5, 5, 5, 5, 5, 10, 10, 5, 5, 5, 5, 10, 5, 5, 5, 5, 5, 10, 5, 5, 5, 5, 5, 5, 5, 5, 5, 5, 5, 5, 5, 5, 5, 5, 5, 5, 5, 5, 5, 5, 5, 5, 5, 5, 5, 5, 5, 5, 5, 5, 5, 5, 5, 5, 5, 5, 5, 5, 5, 5, 5, 5, 5, 5, 5, 5, 5, 5, 5, 5, 5, 5, 5, 5, 5, 5, 5, 5, 5, 5, 5, 5, 5, 5, 5, 5] p=0.51"]
S2 -> S497 [label="1 [5, 5, 5, 5, 5, 5, 5, 5, 5, 5] p=0.0"]
S2 -> S7 [label="3 [5, 5, 5, 5, 5, 5, 5, 10, 5, 5, 5, 5, 5, 5, 5, 5, 5, 5, 5, 5, 5, 10, 5, 5, 5, 5, 5, 10, 5, 5, 5, 5, 5, 5, 5, 5, 10, 5, 5, 5, 5, 5, 5, 5, 5, 5, 5, 5, 5, 5, 5, 5, 5, 5, 5, 5, 5, 5, 5, 10, 5, 10, 5, 5, 10, 5, 5, 5, 5, 5, 5, 5, 5, 5, 5, 5, 5, 5, 10, 5, 5, 5, 10, 5, 5, 5, 5, 5, 5, 5, 10, 5, 10, 5, 10, 5, 5, 5, 5, 5, 5, 10, 5, 5, 5, 5, 5, 5, 5, 5, 5, 5, 5, 5, 5, 5, 5, 5, 5, 5, 5, 5, 10, 5, 5, 5, 5, 10, 5, 5, 5, 5, 5, 5, 5, 5, 5, 5, 5, 5, 5, 5, 5, 5, 5, 5, 5, 5, 5, 5, 5, 5, 5, 10, 5, 5, 10, 5, 5, 5, 5, 5, 10, 5, 10, 5, 5, 10, 5, 5, 5, 5, 5, 5, 5, 5, 5, 10, 5, 5, 5, 5, 5, 5, 5, 5, 5, 5, 5, 5, 5, 5, 10, 5, 10, 5, 5, 10, 5, 5, 5, 5, 5, 5, 5, 5, 5, 5, 5, 5, 5, 5, 5, 5, 5, 5, 5, 5, 5, 10, 10, 10, 5, 10, 5, 5, 10, 5, 5, 10, 5, 5, 5, 5, 5, 5, 5, 5, 5, 5, 5, 5, 5, 5, 10, 10, 5, 10, 5, 5, 5, 5, 5, 5, 5, 5, 5, 10, 5, 5, 5, 5, 10, 10, 10, 10, 10, 5, 5, 5, 10, 5, 5, 5, 5, 5, 5, 10, 5, 5, 5, 5, 5, 5, 10, 5, 10, 5, 5, 5, 5, 10, 5, 5, 5, 5, 5, 5, 5, 5, 5, 5, 5, 5, 5, 5, 5, 5, 5, 5, 5, 5, 5, 5, 5, 5, 5, 5, 5, 5, 5, 5, 5, 5, 5, 5, 5, 5, 5, 5, 5, 5, 5, 5, 5, 5, 5, 5, 5, 5, 5, 5, 5, 5, 5, 5, 5, 5, 5, 5, 5, 5, 5, 5, 5, 5, 5, 5, 5, 5, 5, 5, 5, 5, 5, 5, 10, 5, 10, 5, 10, 5, 5, 5, 5, 5, 5, 5, 5, 5, 5, 5, 5, 5, 10, 5, 5, 5, 5, 5, 5, 5, 5, 5, 10, 5, 5, 5, 5, 5, 5, 5, 5, 5, 5, 5, 5, 5, 5, 5, 10, 5, 5, 5, 5, 5, 5, 5, 5, 5, 5, 5, 5, 5, 5, 5, 5, 5, 5, 5, 5, 5, 5, 5, 5, 5, 10, 5, 5, 5, 5, 5, 5, 5, 5, 10, 5, 5, 5, 5, 5, 5, 5, 5, 5, 5, 5, 5, 5, 5, 10, 5, 5, 5, 5, 5, 5, 5, 5, 5, 5, 5, 5, 5, 5, 5, 5, 5, 5, 5, 5, 5, 5, 5, 5, 5, 5, 5, 5, 5, 5, 5, 5, 5, 5, 5, 5, 5, 5, 5, 5, 5, 5, 5, 5, 5, 5, 5, 5, 5, 5, 5, 5, 5, 5, 5, 5, 5, 5, 5, 5, 5, 5, 5, 5, 5, 5, 10, 5, 10, 5, 10, 5, 10, 5, 5, 5, 5, 5, 5, 5, 5, 5, 5, 5, 5, 5, 5, 5, 5, 5, 5, 5, 5, 5, 5, 5, 5, 5, 5, 5, 5, 5, 5, 5, 5, 5, 5, 5, 5, 5, 5, 5, 5, 10, 5, 10, 5, 10, 5, 5, 5, 5, 5, 5, 5, 5, 5, 5, 5, 5, 5, 5, 5, 5, 5, 5, 5, 5, 5, 5, 5, 5, 5, 5, 5, 5, 5, 5, 5, 5, 5, 5, 5, 5, 5, 5, 5, 5, 5, 5, 5, 5, 5, 5, 5, 5, 5, 5, 5, 5, 5, 5, 5, 5, 5, 5, 5, 5, 5, 5, 5, 5, 5, 5, 5, 5, 5, 5, 5, 5, 5, 5, 5, 5, 5, 5, 5, 5, 5, 5, 5, 5, 5, 5, 5, 5, 10, 5, 5, 5, 10, 5, 5, 5, 5, 10, 5, 5, 5, 5, 10, 5, 5, 5, 5, 10, 5, 5, 5, 5, 5, 5, 5, 5, 5, 5, 10, 10, 5, 5, 5, 5, 5, 5, 5, 5, 5, 5, 5, 5, 5, 5, 5, 5, 5, 5, 5, 5, 5, 5, 5, 5, 5, 5, 10, 5, 10, 5, 5, 5, 5, 5, 5, 10, 5, 5, 5, 10, 5, 5, 5, 5, 5, 5, 10, 5, 5, 5, 5, 5, 5, 5, 5, 5, 5, 5, 5, 5, 5, 5, 5, 5, 10, 5, 5, 5, 5, 5, 5, 5, 5, 5, 5, 5, 5, 5, 5, 5, 5, 5, 5, 5, 5, 5, 5, 5, 5, 5, 5, 5, 5, 5, 5, 5, 5, 10, 5, 5, 5, 5, 10, 5, 5, 10, 5, 5, 5, 5, 10, 5, 5, 5, 5, 5, 5, 5, 10, 5, 5, 5, 5, 5, 5, 5, 5, 5, 5, 5, 5, 5, 5, 5, 5, 5, 5, 5, 10, 5, 5, 5, 5, 5, 5, 5, 5, 5, 5, 10, 5, 5, 5, 5, 5, 5, 5, 5, 5, 5, 5, 5, 5, 5, 10, 5, 10, 5, 5, 10, 5, 5, 5, 5, 5, 5, 5, 5, 5, 5, 5, 5, 5, 10, 5, 5, 10, 5, 5, 5, 5, 5, 10, 10, 5, 10, 5, 5, 5, 5, 5, 5, 5, 5, 5, 5, 5, 5, 5, 10, 5, 5, 10, 5, 5, 10, 5, 5, 5, 5, 5, 5, 5, 5, 5, 5, 5, 5, 10, 5, 5, 5, 5, 10, 5, 5, 5, 5, 5, 5, 5, 5, 5, 5, 5, 10, 10, 5, 5, 5, 10, 10, 10, 5, 10, 5, 10, 5, 5, 5, 10, 10, 5, 5, 10, 5, 5, 10, 5, 5, 5, 5, 5, 10, 5, 5, 5, 5, 5, 5, 5, 5, 5, 5, 5, 5, 5, 5, 5, 5, 5, 5, 5, 5, 5, 5, 5, 5, 5, 5, 5, 5, 5, 5, 5, 5, 5, 5, 5, 5, 5, 5, 5, 5, 5, 5, 5, 5, 5, 5, 5, 5, 5, 5, 5, 5, 5, 5, 5, 5, 5, 5, 5, 5, 5, 5, 5, 5, 5, 5, 5, 5, 5, 5, 5, 5, 10, 10, 10, 5, 5, 5, 10, 10, 5, 5, 5, 5, 5, 5, 5, 5, 5, 5, 5, 5, 5, 5, 5, 5, 5, 5, 5, 5, 5, 5, 5, 5, 5, 5, 5, 5, 5, 5, 5, 5, 5, 5, 5, 10, 10, 10, 5, 5, 10, 10, 5, 5, 10, 10, 10, 10, 5, 5, 10, 5, 5, 10, 5, 5, 5, 10, 5, 5, 5, 5, 5, 5, 5, 5, 5, 5, 5, 5, 5, 5, 5, 5, 5, 5, 10, 5, 5, 10, 5, 5, 5, 10, 5, 5, 10, 5, 5, 5, 10, 5, 5, 5, 5, 5, 5, 5, 5, 5, 5, 5, 5, 5, 5, 5, 10, 5, 5, 5, 5, 5, 5, 5, 5, 10, 10, 5, 5, 5, 10, 10, 10, 5, 5, 5, 5, 5, 5, 5, 5, 5, 5, 5, 5, 5, 5, 5, 5, 5, 5, 5, 5, 5, 5, 5, 5, 5, 5, 5, 5, 5, 5, 5, 5, 5, 5, 5, 5, 5, 5, 5, 5, 5, 5, 5, 5, 5, 5, 5, 5, 5, 5, 5, 5, 5, 5, 5, 5, 5, 5, 5, 5, 5, 5, 5, 5, 5, 10, 10, 5, 5, 5, 5, 5, 10, 10, 10, 5, 5, 5, 5, 5, 5, 5, 5, 5, 5, 5, 5, 5, 5, 5, 5, 5, 5, 10, 10, 5, 5, 5, 5, 5, 5, 5, 5, 5, 5, 5, 5, 5, 5, 5, 5, 5, 5, 10, 5, 5, 5, 5, 10, 5, 5, 5, 5, 5, 5, 5, 5, 5, 5, 5, 5, 5, 5, 5, 5, 5, 5, 10, 10, 5, 5, 5, 10, 5, 5, 5, 5, 5, 5, 5, 10, 5, 5, 5, 5, 5, 5, 5, 10, 10, 5, 5, 10, 5, 5, 10, 5, 5, 5, 5, 5, 5, 5, 5, 5, 5, 5, 5, 5, 5, 5, 5, 5, 5, 5, 5, 5, 5, 5, 5, 10, 5, 5, 5, 5, 5, 5, 5, 5, 5, 10, 5, 5, 5, 5, 5, 10, 10, 5, 5, 5, 5, 10, 5, 5, 5, 5, 5, 5, 5, 5, 5, 5, 5, 5, 5, 10, 5, 5, 5, 5, 5, 5, 5, 5, 5, 5, 5, 10, 10, 5, 5, 5, 5, 10, 5, 5, 5, 5, 5, 5, 10, 5, 5, 5, 10, 5, 5, 5, 5, 5, 5, 5, 5, 5, 5, 5, 5, 5, 5, 5, 5, 5, 5, 5, 5, 10, 5, 5, 10, 5, 5, 5, 5, 10, 5, 5, 5, 5, 10, 10, 5, 5, 5, 5, 5, 5, 5, 10, 5, 5, 5, 5, 5, 5, 10, 5, 10, 5, 5, 5, 5, 10, 10, 5, 5, 5, 5, 5, 5, 5, 5, 5, 10, 5, 5, 5, 5, 5, 5, 5, 5, 5, 5, 5, 5, 5, 5, 5, 5, 5, 5, 10, 5, 5, 5, 10, 5, 5, 5, 5, 5, 5, 5, 5, 5, 5, 5, 5, 5, 5, 5, 10, 10, 5, 5, 5, 5, 5, 5, 5, 10, 5, 5, 5, 5, 5, 5, 5, 10, 10, 5, 5, 5, 5, 5, 10, 5, 5, 5, 5, 5, 5, 5, 5, 5, 5, 5, 5, 5, 5, 5, 5, 5, 5, 5, 5, 5, 5, 5, 5, 5, 5, 5, 5, 5, 5, 10, 5, 5, 5, 10, 5, 5, 5, 5, 5, 5, 5, 5, 10, 5, 5, 5, 10, 5, 5, 5, 5, 5, 5, 5, 5, 5, 5, 10, 5, 5, 5, 5, 5, 10, 10, 5, 5, 5, 5, 5, 5, 5, 5, 5, 5, 10, 5, 5, 5, 5, 5, 5, 5, 5, 10, 5, 10, 5, 5, 5, 5, 5, 5, 5, 10, 10, 5, 5, 5, 5, 5, 5, 5, 5, 5, 5, 5, 5, 5, 10, 5, 5, 5, 5, 5, 5, 5, 5, 5, 5, 5, 5, 5, 5, 5, 5, 5, 5, 5, 5, 10, 5, 5, 5, 5, 5, 5, 5, 5, 5, 5, 5, 5, 5, 10, 10, 10, 10, 10, 5, 10, 5, 5, 5, 10, 10, 5, 5, 5, 5] p=0.49"]
S222 -> S1 [label="4 [5, 5, 5, 5, 5, 5, 5, 5, 5, 5, 5, 5, 5, 5, 5, 5, 5, 5, 5, 5, 5, 5, 5, 5, 5, 5, 5, 5, 5, 5, 5, 5, 5, 5, 5, 5, 5, 5, 5, 5, 5, 5, 5, 5, 5, 5, 5, 5, 5, 5, 5, 5, 5, 5, 5, 5, 5, 5, 5, 5, 5, 5, 5, 5, 5, 5, 5, 5, 5, 5, 5, 5, 5, 5, 5, 5, 5, 5, 5, 5, 5, 5, 5, 5, 5, 5, 5, 5, 5, 5, 5, 5, 5, 5, 5, 5, 5, 5, 5, 5, 5, 5, 5, 5, 5, 5, 5, 5, 5, 5, 5, 5, 5, 5, 5, 5, 5, 5, 5, 5, 5, 5, 5, 5, 5, 5, 5, 5, 5, 5, 5, 5, 5, 5, 5, 5, 5, 5, 5, 5, 5, 5, 5, 5, 5, 5, 5, 5, 5, 5, 5, 5, 5, 5, 5, 5, 5, 5, 5, 5, 5, 5, 5, 5, 5, 5, 5, 5, 5, 5, 5, 5, 5, 5, 5, 5, 5, 5, 5, 5, 5, 5, 5, 5, 5, 5, 5, 5, 5, 5, 5, 5, 5, 5, 5, 5, 5, 5, 5, 5, 5, 5, 5, 5, 5, 5] p=0.49"]
S222 -> S2 [label="2 [5, 5, 5, 5, 5, 5, 5, 5, 5, 5, 5, 5, 5, 5, 5, 5, 5, 5, 5, 5, 5, 5, 5, 5, 5, 5, 5, 5, 5, 5, 5, 5, 5, 5, 5, 5, 5, 5, 5, 5, 5, 5, 5, 5, 5, 5, 5, 5, 5, 5, 5, 5, 5, 5, 5, 5, 5, 5, 5] p=0.14"]
S222 -> S7 [label="3 [5, 5, 5, 5, 5, 5, 5, 5, 5, 5, 5, 5, 5, 5, 5, 5, 5, 5, 5, 5, 5, 5, 5, 5, 5, 5, 5, 5, 5, 5, 5, 5, 5, 5, 5, 5, 5, 5, 5, 5, 5, 5, 5, 5, 5, 5, 5, 5, 5, 5, 5, 5, 5, 5, 5, 5, 5, 5, 5, 5, 5, 5, 5, 5, 5, 5, 5, 5, 5, 5, 5, 5, 5, 5, 5, 5, 5, 5, 5, 5, 5, 5, 5, 5, 5, 5, 5, 5, 5, 5, 5, 5, 5, 5, 5, 5, 5, 5, 5, 5, 5, 5, 5, 5, 5, 5, 5, 5, 5, 5, 5, 5, 5, 5, 5, 5, 5, 5, 5, 5, 5, 5, 5, 5, 5, 5, 5, 5, 5, 5, 5, 5, 5, 5, 5, 5, 5, 5, 5, 5, 5, 5, 5, 5, 5, 5, 5, 5, 5, 5, 5, 5] p=0.36"]
S34 -> S2 [label="2 [10, 5, 5, 10, 5, 10, 10, 10, 5, 10, 5, 10, 5, 5, 5, 10, 5, 5, 10, 15, 5, 5, 5, 5, 5, 5, 5, 5, 5, 5, 5, 5, 10, 5, 5, 10, 5, 5, 15, 5, 5, 5, 5, 5, 5, 5, 5, 10, 5, 10, 5, 5, 5, 10, 5, 10, 5, 5, 10, 5, 10, 5, 5, 5, 10, 5, 5, 5, 5, 5, 5, 5, 5, 5, 5, 5, 5, 5, 10, 5, 10, 5, 5, 5, 5, 10, 5, 10, 5, 10, 5, 10, 5, 5, 5, 10, 15, 5, 5, 5, 5, 5, 5, 5, 5, 5, 5, 10, 5, 5, 5, 5, 5, 5, 5, 5, 5, 5, 5, 5, 10, 5, 5, 5] p=0.5"]
S34 -> S223 [label="3 [5, 5, 5, 10, 10, 5, 5, 5, 5, 5, 5, 5, 5, 5, 5, 5, 10, 5, 5, 5, 5, 5, 5, 10, 5, 5, 5, 5, 5, 5, 5, 10, 10, 5, 5, 5, 5, 5, 5, 5, 10, 5, 10, 5, 5, 5, 10, 10, 5, 5, 5, 5, 10, 10, 5, 5, 5, 5, 5, 5, 5, 5, 5, 5, 10, 5, 5, 5, 10, 5, 5, 5, 5, 5, 5, 5, 10, 5, 5, 5, 10, 5, 5, 5, 5, 5, 10, 5, 5, 5, 5, 5, 5, 5, 5, 5, 10, 5, 5, 5, 5, 5] p=0.41"]
S34 -> S222 [label="1 [10, 5, 5, 5, 5, 10, 10, 10, 5, 10, 5, 10, 5, 5, 5, 5, 5, 5, 10, 5, 10, 5, 5] p=0.09"]
S34 -> S490 [label="5 [5] p=0.0"]
S4 -> S2 [label="2 [10, 5, 5, 10, 10, 5, 5, 5, 5, 10, 10, 5, 5, 5, 10, 10, 5, 10, 5, 5, 5, 5, 5, 5, 5, 15, 5, 5, 15, 10, 5, 10, 10, 15, 5, 5, 5, 5, 10, 5, 10, 20, 5, 10, 5, 10, 5, 10, 10, 10, 10, 5, 5, 5, 5, 10, 10, 5, 5, 5, 5, 15, 15, 5, 10, 5, 15, 5, 10, 5, 10, 5, 10, 15, 5, 20, 5, 5, 10, 10, 10, 15, 10, 5, 10, 15, 5, 5, 20, 5, 10, 5, 10, 10, 10, 5, 10, 10, 15, 10, 5, 5, 10, 10, 5, 5, 5, 10, 10, 10, 5, 10, 10, 15, 10, 15, 10, 15, 10, 15, 15, 10, 5, 5, 5, 5, 10, 5, 5, 15, 5, 15, 15, 10, 5, 5, 5, 10, 10, 10, 10, 10, 5, 10, 15, 10, 5, 5, 5, 10, 10, 10, 10, 15, 5, 5, 5, 5, 5, 5, 5, 5, 5, 5, 5, 5, 5, 5, 15, 10, 5, 5, 15, 10, 5, 10, 5, 15, 5, 5, 5, 5, 5, 5, 5, 5, 10, 5, 5, 10, 5, 5, 5, 10, 5, 5, 5, 10, 5, 5, 10, 5, 5, 5, 15, 5, 5, 10, 5, 5, 10, 5, 5, 10, 5, 5, 10, 10, 5, 10, 5, 5, 5, 5, 5, 5, 5, 10, 5, 15, 5, 10, 5, 10, 5, 10, 5, 10, 5, 5, 10, 5, 10, 10, 5, 5, 5, 5, 5, 5, 15, 10, 5, 5, 5, 5, 5, 5, 10, 5, 5, 5, 5, 5, 10, 5, 5, 5, 5, 10, 10, 5, 5, 5, 5, 15, 5, 5, 15, 5, 15, 10, 10, 10, 10, 5, 5, 5, 5, 10, 10, 10, 5, 10, 5, 10, 5, 10, 10, 5, 10, 10, 5, 5, 10, 10, 5, 5, 10, 5, 10, 5, 10, 5, 10, 5, 5, 5, 5, 5, 5, 5, 10, 10, 5, 5, 5, 10, 5, 5, 5, 5, 5, 5, 15, 5, 5, 5, 5, 15, 15, 15, 5, 5, 5, 5, 10, 10, 5, 5, 10, 5, 5, 5, 10, 5, 5, 10, 5, 5, 5, 5, 5, 5, 5, 10, 5, 10, 5, 10, 10, 10, 10, 15, 5, 5, 5, 5, 5, 5, 5, 10, 5, 10, 10, 5, 10, 10, 10, 10, 5, 5, 10, 15, 5, 5, 5, 5, 5, 5, 5, 5, 5, 5, 10, 5, 10, 10, 15, 5, 5, 5, 5, 5, 5, 5, 5, 5, 15, 15, 5, 5, 5, 5, 5, 10, 5, 5, 15, 5, 15, 5, 15, 15, 15, 15, 5, 5, 5, 5, 10, 5, 10, 5, 10, 5, 5, 10, 10, 10, 10, 5, 5, 15, 15, 5, 15, 15, 15, 5, 10, 5, 15, 10, 15, 15, 5, 5, 5, 5, 10, 5, 5, 10, 5, 5, 5, 10, 5, 5, 5, 10, 5, 5, 10, 5, 5, 15, 15, 15, 15, 10, 10, 10, 10, 10, 10, 15, 15, 15, 5, 5, 5, 5, 15, 10, 15, 20, 15, 10, 15, 20, 5, 10, 15, 10, 20, 15, 20, 15, 5, 10, 5, 10, 5, 10, 10, 10, 10, 10, 10, 5, 5, 10, 10, 10, 10, 10, 5, 5, 10, 10, 5, 5, 5, 5, 10, 10, 10, 5, 5, 5, 10, 10, 10, 5, 5, 5, 5, 10, 10, 10, 10, 10, 5, 10, 5, 10, 10, 10, 5, 5, 15, 5, 15, 5, 5, 5, 5, 10, 5, 10, 10, 5, 5, 5, 5, 10, 10, 10, 10, 5, 5, 5, 5, 5, 5, 5, 5, 5, 5, 5, 5, 5, 5, 5, 5, 5, 5, 5, 5, 10, 10, 15, 15, 5, 5, 5, 5, 10, 10, 10, 10, 10, 5, 10, 10, 5, 5, 10, 10, 10, 10, 15, 10, 15, 5, 5, 10, 5, 5, 5, 10, 5, 10, 5, 10, 10, 5, 10, 10, 10, 20, 5, 15, 5, 10, 10, 5, 15, 10, 10, 5, 5, 10, 10, 5, 5, 10, 10, 15, 10, 5, 10, 15, 5, 5, 5, 5, 5, 10, 5, 5, 10, 5, 15, 5, 5, 5, 5, 5, 5, 5, 5, 15, 15, 15, 5, 5, 5, 5, 10, 5, 5, 10, 15, 5, 5, 10, 5, 5, 5, 5, 5, 5, 5, 10, 10, 5, 5, 5, 10, 15, 10, 5, 5, 10, 10, 15, 5, 15, 5, 5, 5, 5, 5, 15, 5, 5, 10, 5, 5, 5, 5, 5, 15, 15, 15, 5, 5, 15, 15, 15, 15] p=0.44"]
S4 -> S1 [label="4 [5, 10, 5, 5, 5, 5, 10, 5, 15, 5, 20, 5, 5, 15, 20, 15, 10, 5, 10, 5, 10, 5, 10, 5, 5, 10, 10, 25, 5, 5, 15, 5, 5, 5, 20, 15, 5, 20, 5, 20, 5, 20, 5, 20, 20, 5, 5, 5, 5, 5, 5, 5, 5, 5, 10, 15, 10, 15, 10, 25, 15, 20, 20, 5, 5, 10, 5, 5, 5, 10, 5, 5, 5, 5, 5, 10, 5, 10, 5, 10, 10, 10, 5, 5, 5, 5, 5, 5, 5, 5, 5, 5, 5, 5, 5, 5, 5, 5, 5, 5, 5, 10, 5, 5, 5, 5, 5, 5, 5, 20, 20, 5, 5, 20, 5, 20, 5, 10, 20, 20, 5, 10, 5, 5, 5, 20, 15, 5, 20, 5, 5, 10, 20, 5, 20, 20, 5, 5, 10, 10, 5, 5, 5, 5, 5, 5, 5, 20, 15, 5, 5, 5, 20, 5, 5, 5, 10, 20, 5, 25, 5, 10, 5, 5, 15, 5, 5, 20, 5, 5, 10, 5, 10, 15, 5, 5, 5, 5, 10, 5, 25, 5, 5, 10, 5, 25, 5, 5, 5, 5, 15, 5, 5, 5, 5, 20, 5, 5, 10, 5, 5, 15, 10, 5, 5, 5, 5, 10, 15, 5, 10, 5, 5, 10, 5, 5, 5, 5, 10, 5, 5, 5, 10, 5, 5, 5, 5, 5, 15, 5, 10, 5, 5, 5, 10, 5, 10, 15, 5, 5, 5, 5, 5, 5, 5, 5, 10, 15, 5, 5, 5, 10, 5, 5, 5, 10, 5, 5, 5, 5, 5, 5, 5, 25, 5, 5, 5, 5, 5, 10, 5, 15, 5, 5, 5, 10, 5, 5, 5, 5, 10, 5, 5, 5, 5, 5, 15, 5, 5, 5, 5, 5, 5, 10, 10, 5, 10, 5, 5, 5, 5, 5, 5, 5, 5, 5, 5, 5, 5, 5, 10, 10, 20, 5, 10, 10, 5, 20, 10, 10, 5, 5, 10, 5, 10, 5, 20, 10, 5, 10, 5, 10, 5, 10, 5, 10, 10, 5, 20, 10, 10, 5, 10, 5, 10, 10, 15, 5, 15, 10, 5, 5, 5, 5, 5, 5, 5, 5, 5, 5, 15, 15, 15, 5, 5, 5, 5, 5, 10, 5, 5, 5, 5, 5, 5, 5, 20, 20, 5, 20, 20, 20, 20, 5, 5, 5, 5, 5, 5, 5, 5, 5, 5, 5, 5, 5, 5, 5, 10, 5, 15, 5, 5, 5, 10, 5, 5, 15, 5, 5, 5, 5, 10, 5, 10, 10, 10, 5, 5, 5, 20, 20, 20, 20, 20, 5, 5, 5, 5, 20, 5, 15, 15, 10, 5, 5, 5, 5, 5, 5, 10, 5, 5, 10, 5, 10, 5, 5, 5, 5, 10, 5, 10, 5, 5, 10, 5, 5, 10, 5, 10, 5, 5, 10, 5, 10, 10, 10, 10, 5, 5, 25, 5, 5, 5, 15, 5, 5, 15, 5, 5, 15, 5, 5, 5, 5, 5, 5, 5, 5, 5, 5, 5, 5, 5, 5, 5, 15, 5, 5, 15, 5, 5, 15, 5, 5, 5, 10, 5, 10, 5, 10, 5, 5, 5, 5, 5, 5, 5, 5, 5, 5, 5, 10, 10, 5, 25, 25, 25, 25, 5, 10, 15, 5, 5, 5, 10, 5, 5, 10, 15, 10, 5, 15, 5, 15, 10, 10, 10, 10, 10, 5, 5, 10, 5, 5, 10, 15, 5, 10, 15, 20, 10, 15, 5, 15, 20, 15, 5, 15, 20, 5, 15, 15, 15, 15, 10, 5, 10, 10, 5, 10, 10, 5, 10, 10, 10, 10, 5, 20, 20, 20, 20, 5, 10, 15, 5, 5, 5, 5, 5, 10, 5, 5, 5, 10, 5, 5, 10, 10, 5, 10, 10, 5, 10, 10, 10, 15, 10, 15, 10, 15, 5, 5, 5, 15, 5, 5, 5, 5, 5, 15, 15, 5, 15, 5, 5, 10, 10, 10, 5, 5, 5, 5, 5, 5, 5, 5, 5, 5, 5, 5, 5, 20, 20, 5, 20, 5, 20, 5, 20, 20, 20, 5, 10, 5, 10, 5, 10, 5, 5, 5, 20, 5, 20, 5, 5, 5, 5, 5, 5, 5, 25, 25, 25, 15, 15, 15, 25, 25, 5, 5, 5, 5, 5, 5, 10, 10, 10, 10, 5, 5, 5, 5, 25, 25, 5, 5, 20, 20, 15, 5, 5, 5, 5, 5, 15, 15, 10, 5, 10, 5, 5, 10, 10, 15, 10, 10, 5, 5, 5, 5, 5, 20, 5, 5, 25, 5, 15, 15, 10, 10, 15, 5, 5, 5, 10, 15, 5, 20, 25, 5, 10, 5, 5, 10, 20, 10, 20, 5, 5, 10, 20, 5, 25, 5, 10, 5, 10, 5, 10, 5, 5, 5, 5, 5, 20, 25, 5, 15, 25, 5, 5, 5, 10, 5, 5, 15, 15, 10, 5, 10, 20, 5, 15, 5, 5, 5, 5, 5, 10, 5, 5, 5, 5, 15, 10, 5, 10, 5, 5, 5, 5, 10, 15, 5, 5, 10, 5, 20, 5, 5, 15, 10, 5, 5, 5, 20, 5, 5, 5, 5, 5, 5, 5, 10, 5, 10, 5, 5, 5, 5, 5, 10, 10, 5, 15, 5, 5, 10, 5, 5, 20, 5, 15, 20, 5, 15, 5, 5, 5, 5, 5, 5, 5, 5, 5, 5, 5, 10, 10, 10, 10, 10, 10, 15, 15, 15, 5, 5, 5, 5, 5, 5, 10] p=0.51"]
S4 -> S2 [label="1 [5, 5, 5, 5, 5, 5, 5, 5, 5, 5, 5, 5, 5, 5, 5, 5, 5, 5, 5, 5, 5, 5, 5, 5, 5, 5, 5, 5, 5, 5, 5, 5, 5, 5, 5, 5, 5, 5, 5, 5, 5, 5, 5, 5, 5, 5, 5, 5, 5, 5, 5, 5, 5, 5, 5, 5, 5, 5, 5, 5, 5, 5, 5, 5, 5, 5, 5, 5, 5, 5, 5, 5, 5, 5, 5, 5, 5, 5, 5] p=0.05"]
S4 -> S490 [label="5 [20, 20, 20, 20, 20, 20, 20, 20, 20] p=0.01"]
S7 -> S490 [label="1 [5, 5, 5, 5, 5, 5, 5, 5, 20, 20, 20, 20, 20, 20, 20, 5, 5, 5, 5, 5, 5, 5, 5, 20, 5, 20, 5] p=0.02"]
S7 -> S2 [label="2 [5, 10, 5, 5, 20, 15, 5, 15, 5, 5, 5, 5, 10, 5, 5, 10, 5, 10, 10, 10, 5, 20, 5, 5, 10, 5, 5, 20, 15, 5, 15, 5, 25, 5, 5, 20, 5, 5, 10, 5, 10, 5, 5, 5, 10, 5, 10, 5, 10, 10, 5, 5, 20, 5, 10, 5, 10, 15, 5, 5, 20, 15, 20, 5, 15, 5, 25, 5, 5, 20, 5, 5, 10, 5, 10, 10, 5, 5, 5, 5, 5, 10, 5, 15, 20, 5, 10, 5, 10, 10, 5, 10, 5, 5, 5, 20, 5, 5, 10, 5, 10, 10, 10, 10, 5, 5, 5, 5, 10, 10, 5, 5, 15, 10, 5, 5, 5, 5, 10, 10, 5, 5, 5, 15, 20, 10, 5, 5, 5, 5, 5, 5, 5, 10, 5, 10, 5, 5, 10, 5, 10, 5, 5, 5, 10, 10, 5, 5, 5, 5, 5, 20, 5, 5, 5, 10, 5, 5, 10, 10, 15, 10, 10, 10, 5, 10, 10, 5, 5, 10, 10, 5, 5, 10, 5, 10, 5, 5, 5, 5, 5, 5, 10, 5, 5, 25, 10, 5, 25, 10, 5, 25, 10, 5, 5, 5, 5, 5, 5, 5, 5, 5, 5, 15, 10, 15, 10, 5, 5, 5, 5, 15, 5, 5, 10, 10, 5, 5, 5, 5, 15, 10, 15, 10, 5, 15, 10, 10, 10, 10, 10, 10, 10, 10, 5, 5, 5, 5, 25, 25, 25, 10, 5, 5, 10, 10, 5, 10, 10, 5, 5, 15, 15, 20, 15, 20, 20, 20, 5, 10, 5, 5, 15, 10, 5, 15, 10, 5, 15, 20, 5, 20, 5, 20, 5, 20, 5, 5, 10, 5, 10, 10, 10, 5, 5, 5, 5, 5, 5, 5, 5, 20, 5, 5, 20, 20, 20, 20, 5, 20, 5, 5, 10, 20, 5, 5, 5, 5, 10, 5, 10, 5, 5, 10, 5, 15, 5, 10, 5, 10, 5, 5, 10, 5, 15, 5, 5, 5, 10, 5, 10, 5, 10, 20, 20, 20, 5, 5, 5, 5, 20, 5, 5, 5, 5, 5, 5, 5, 5, 5, 15, 15, 15, 15, 15, 15, 5, 5, 5, 5, 5, 5, 5, 20, 20, 10, 10, 5, 20, 20, 5, 5, 5, 5, 5, 5, 5, 5, 5, 5, 10, 10, 5, 5, 5, 10, 5, 5, 20, 25, 10, 10, 10, 10, 10, 5, 5, 5, 10, 10, 10, 5, 5, 10, 20, 5, 5, 5, 5, 5, 5, 5, 15, 5, 20, 20, 15, 20, 20, 20, 20] p=0.25"]
S7 -> S1 [label="5 [20, 20, 10, 5, 10, 20, 10, 10, 10, 10, 10, 20, 20, 20, 5, 5, 5, 5, 10, 10, 5, 5, 5, 5, 20, 20, 20, 10, 10, 10, 10, 10, 10, 10, 10] p=0.02"]
S7 -> S1 [label="4 [5, 15, 5, 15, 5, 5, 5, 15, 5, 5, 5, 5, 15, 10, 10, 5, 15, 10, 10, 5, 5, 15, 5, 15, 10, 10, 5, 5, 5, 15, 5, 15, 5, 15, 15, 15, 5, 15, 10, 10, 15, 5, 10, 10, 5, 10, 15, 5, 15, 5, 5, 10, 15, 10, 15, 5, 15, 5, 5, 5, 5, 5, 5, 5, 5, 5, 5, 5, 5, 5, 5, 5, 5, 15, 10, 20, 10, 5, 10, 5, 5, 5, 5, 5, 5, 5, 10, 5, 10, 10, 5, 10, 5, 5, 5, 5, 5, 5, 10, 10, 10, 5, 5, 5, 5, 5, 5, 5, 5, 10, 10, 5, 5, 5, 5, 5, 5, 5, 5, 5, 10, 5, 5, 5, 5, 5, 5, 5, 5, 5, 5, 5, 15, 10, 10, 10, 5, 10, 10, 5, 5, 15, 10, 15, 5, 10, 10, 15, 10, 10, 15, 10, 5, 5, 5, 15, 5, 5, 5, 5, 5, 5, 5, 5, 15, 5, 5, 5, 5, 5, 5, 5, 10, 5, 5, 5, 5, 10, 5, 5, 5, 10, 5, 10, 10, 15, 5, 5, 5, 5, 10, 5, 5, 5, 5, 5, 10, 5, 5, 5, 5, 5, 15, 15, 5, 5, 10, 5, 5, 10, 5, 10, 10, 5, 10, 5, 5, 15, 15, 5, 5, 5, 10, 5, 5, 15, 5, 5, 10, 15, 10, 10, 10, 5, 5, 5, 5, 10, 5, 5, 5, 10, 5, 10, 5, 5, 5, 5, 5, 10, 5, 10, 5, 5, 5, 5, 5, 5, 5, 5, 5, 5, 5, 5, 5, 5, 5, 35, 10, 5, 5, 10, 5, 5, 5, 10, 5, 5, 35, 10, 5, 10, 5, 10, 15, 10, 5, 10, 5, 5, 5, 10, 15, 10, 5, 15, 5, 5, 5, 5, 5, 10, 15, 5, 5, 15, 15, 15, 5, 5, 15, 20, 5, 10, 15, 10, 15, 10, 5, 15, 10, 10, 15, 5, 5, 5, 5, 5, 15, 5, 15, 5, 15, 5, 5, 10, 10, 5, 5, 10, 10, 5, 5, 10, 10, 10, 15, 5, 15, 15, 15, 5, 5, 5, 5, 5, 5, 5, 5, 5, 10, 10, 5, 10, 5, 5, 5, 5, 10, 10, 5, 5, 5, 20, 5, 10, 35, 10, 5, 10, 5, 5, 10, 10, 15, 10, 5, 10, 5, 10, 5, 10, 10, 5, 15, 10, 5, 10, 10, 5, 5, 10, 5, 5, 5, 10, 5, 10, 5, 5, 5, 20, 5, 10, 5, 35, 10, 5, 5, 10, 5, 5, 10, 10, 10, 15, 15, 10, 5, 10, 5, 10, 5, 5, 5, 5, 5, 10, 5, 10, 5, 5, 10, 5, 35, 5, 10, 35, 5, 5, 5, 5, 5, 35, 35, 10, 10, 10, 5, 5, 5, 5, 10, 10, 10, 5, 5, 5, 5, 15, 15, 10, 5, 10, 5, 10, 10, 5, 10, 10, 5, 5, 5, 5, 5, 5, 5, 10, 10, 15, 10, 10, 10, 10, 10, 15, 5, 10, 15, 5, 10, 5, 15, 5, 5, 10, 15, 5, 10, 5, 5, 25, 10, 10, 15, 5, 5, 15, 10, 10, 5, 15, 5, 10, 5, 10, 5, 10, 10, 5, 15, 10, 5, 15, 5, 5, 5, 15, 5, 10, 5, 15, 5, 5, 10, 5, 15, 10, 15, 10, 15, 5, 5, 5, 5, 5, 10, 15, 10, 5, 10, 5, 5, 5, 5, 10, 25, 10, 10, 10, 15, 5, 5, 15, 5, 5, 15, 10, 5, 10, 5, 5, 10, 5, 15, 5, 5, 5, 10, 5, 10, 5, 5, 10, 5, 10, 5, 10, 15, 5, 10, 5, 15, 5, 5, 5, 5, 5, 5, 5, 15, 5, 10, 5, 15, 5, 5, 10, 15, 5, 15, 5, 15, 10, 5, 15, 10, 5, 10, 5, 15, 5, 5, 5, 5, 5, 5, 10, 15, 10, 5, 10, 5, 5, 10, 5, 5, 5, 10, 10, 10, 25, 5, 15, 10, 10, 10, 5, 10, 15, 5, 5, 15, 10, 5, 10, 5, 5, 5, 15, 10, 5, 10, 5, 5, 10, 5, 5, 5, 5, 10, 5, 10, 15, 5, 5, 10, 5, 5, 5, 5, 20, 5, 5, 5, 5, 10, 5, 10, 35, 5, 10, 5, 10, 5, 5, 5, 10, 5, 10, 10, 5, 10, 15, 5, 5, 10, 5, 15, 5, 5, 5, 5, 10, 5, 5, 5, 5, 15, 5, 10, 10, 10, 5, 15, 5, 15, 5, 10, 15, 15, 5, 15, 5, 15, 10, 10, 5, 5, 15, 10, 5, 10, 10, 5, 5, 5, 10, 10, 5, 5, 10, 5, 5, 10, 5, 5, 5, 5, 10, 5, 5, 5, 10, 5, 5, 5, 5, 5, 5, 5, 5, 5, 5, 10, 5, 5, 10, 5, 15, 5, 10, 15, 15, 15, 5, 5, 5, 10, 5, 5, 5, 10, 10, 10, 5, 15, 5, 10, 5, 15, 5, 5, 5, 10, 10, 5, 10, 5, 5, 5, 5, 5, 5, 10, 5, 10, 5, 10, 10, 10, 10, 10, 10, 10, 5, 10, 10, 10, 10, 10, 10, 10, 15, 5, 5, 5, 5, 5, 5, 10, 5, 5, 5, 5, 5, 15, 5, 5, 15, 10, 15, 5, 5, 5, 15, 10, 15, 5, 5, 5, 5, 5, 10, 5, 5, 15, 5, 5, 5, 5, 10, 10, 10, 10, 15, 15, 5, 5, 10, 15, 10, 5, 10, 15, 10, 5, 10, 10, 5, 10, 5, 5, 5, 10, 15, 5, 5, 10, 15, 10, 5, 10, 10, 5, 10, 5, 5, 10, 10, 15, 10, 5, 5, 5, 10, 5, 10, 5, 10, 10, 5, 25, 10, 10, 5, 5, 5, 5, 10, 5, 10, 5, 5, 10, 5, 5, 10, 5, 5, 5, 15, 5, 10, 10, 15, 5, 5, 5, 5, 10, 5, 5, 10, 5, 5, 25, 10, 10, 15, 5, 5, 5, 5, 10, 5, 10, 15, 5, 5, 10, 5, 5, 10, 10, 10, 5, 5, 5, 5, 5, 5, 5, 5, 5, 5, 5, 5, 15, 5, 15, 5, 5, 5, 5, 10, 10, 10, 10, 10, 10, 5, 5, 5, 5, 5, 5, 5, 5, 5, 5, 5, 5, 5, 20, 5, 20, 5, 5, 5, 5, 5, 20, 5, 5, 5, 5, 5, 5, 10, 10, 10, 10, 10, 10, 10, 10, 10, 10, 5, 5, 10, 10, 10, 5, 5, 15, 15, 15, 15, 5, 5, 5, 10, 5, 10, 5, 5, 5, 5, 5, 15, 15, 5, 5, 5, 5, 5, 15, 15, 5, 15, 5, 5, 10, 10, 5, 25, 10, 10, 5, 5, 5, 5, 25, 10, 10, 5, 5, 5, 25, 10, 10, 5, 5, 10, 5, 10, 5, 10, 5, 5, 10, 10, 5, 5, 5, 5, 5, 5, 5, 10, 10, 10, 10, 5, 5, 10, 5, 5, 10, 15, 5, 15, 5, 5, 5, 20, 5, 10, 10, 10, 10, 10, 10, 10, 10, 10, 10, 5, 15, 15, 5, 5, 5, 5, 15, 10, 10, 10, 10, 10, 25, 10, 10, 5, 5, 5, 10, 10, 10, 10, 10, 5, 5, 5, 5, 5, 5, 5, 5, 5, 10, 5, 5, 5, 5, 5, 5, 5, 10, 10, 10, 10, 10, 15, 5, 10, 5, 15, 15, 15, 15, 10, 10, 10, 10, 15, 10, 10, 5] p=0.71"]
S497 -> S513 [label="3 [10, 10, 5, 5, 5, 10, 10, 10, 5, 5, 5, 5, 5, 5, 5, 5, 5, 5, 5] p=0.18"]
S497 -> S490 [label="4 [5, 5, 5, 5, 5, 5, 5, 5, 5, 5, 5, 5, 5, 5, 5, 5, 5, 5, 20, 20, 20, 20, 5, 20, 5, 20, 5, 20, 5, 5, 5, 5, 5, 5, 5, 5, 5, 5, 5, 5, 5, 5, 5, 5, 5, 5, 5, 5, 5, 5, 5, 5, 5, 5, 5, 5, 5, 5, 10, 5, 5, 5, 5, 5, 5, 5, 5, 10, 5, 5, 25, 25, 25, 25, 25, 5, 5, 5, 5, 5] p=0.75"]
S497 -> S1910 [label="2 [10, 10, 10, 5, 5, 5, 5] p=0.07"]
S490 -> S497 [label="3 [5, 5, 5, 5, 5, 5, 5, 5, 5, 5, 5, 5, 5, 5, 5, 5, 5, 5, 5, 5, 5, 5, 5, 5, 5, 5, 5, 5, 5, 5, 5, 5, 5, 5, 5, 5, 5, 5, 5, 5, 5, 5, 5, 5, 5, 5, 5, 5, 5, 5, 5, 15, 5, 5, 5, 5, 10, 10, 10, 10] p=0.52"]
S490 -> S497 [label="2 [5, 5, 5, 5, 5, 5, 5, 5, 5, 5, 5, 5, 5, 5, 5, 5, 5, 10, 15, 5, 10, 5, 5, 5, 5, 10, 10, 10, 10, 5, 5, 5, 10, 10, 10, 10, 10, 10, 10, 5, 5, 5, 10, 10, 5, 5, 5, 5, 5, 5, 5, 5, 5, 15] p=0.47"]
S490 -> S1682 [label="1 [10] p=0.01"]
S490 -> S4099 [label="4 [5] p=0.01"]
S223 -> S224 [label="2 [10, 15, 10, 10, 5, 5, 10, 5, 10, 10, 10, 15, 5, 10, 15, 10, 5, 5, 5, 10, 5, 10, 15, 5, 5, 5, 5, 5, 5, 5, 5, 15, 5, 5, 5, 5, 10, 5, 5, 5, 5, 5, 5, 5, 10, 5, 5] p=0.46"]
S223 -> S1 [label="4 [20, 10, 20, 10, 20, 5, 5, 10, 10, 5, 5, 5, 25, 25, 5, 5, 15, 15, 10, 10, 15, 5, 5, 5, 5, 5, 5, 5, 5, 20, 15, 5, 5, 5, 20, 5, 5, 5, 5, 10, 5, 15, 10, 5, 20, 15, 20, 5] p=0.47"]
S223 -> S2 [label="1 [5, 5, 5, 5, 5, 5, 5] p=0.07"]
S224 -> S225 [label="3 [5, 5, 5, 5, 5, 5, 5, 5, 5, 5, 5, 5, 5, 5, 5, 5] p=0.34"]
S224 -> S432 [label="4 [5, 5, 5, 5, 5, 5, 5, 10, 5, 5, 5, 5, 10, 5, 5, 5, 5, 5, 5, 5, 5, 10, 10, 10, 5, 5, 5, 10, 10, 5, 5] p=0.66"]
S225 -> S226 [label="4 [5, 10, 10, 5, 5, 20, 10, 5, 10, 5, 10] p=0.69"]
S225 -> S435 [label="5 [10] p=0.06"]
S225 -> S3049 [label="2 [5, 15, 5, 5] p=0.25"]
S432 -> S433 [label="2 [15, 5, 5, 10, 5, 5, 15, 5, 5, 5] p=0.32"]
S432 -> S479 [label="3 [5, 5, 5, 5, 5, 5, 5, 5, 5, 5, 5, 5, 5, 5, 5, 5, 5, 5, 15] p=0.61"]
S432 -> S1151 [label="1 [10, 15] p=0.06"]
S513 -> S520 [label="4 [10, 15, 15, 10, 10, 10, 15, 15, 5] p=0.6"]
S513 -> S490 [label="2 [5, 5, 5, 5, 5, 5] p=0.4"]
S226 -> S227 [label="2 [10, 5, 5] p=0.27"]
S226 -> S520 [label="1 [5, 5] p=0.18"]
S226 -> S2463 [label="3 [5, 5, 10, 10, 10, 10] p=0.55"]
S433 -> S434 [label="3 [5, 5, 10, 5, 5, 5] p=0.6"]
S433 -> S916 [label="4 [5, 5, 5, 5] p=0.4"]
S479 -> S480 [label="2 [15, 20, 5, 10, 15, 10, 10, 10, 5, 5, 5] p=0.42"]
S479 -> S675 [label="4 [5, 5, 5, 5, 15, 5, 5, 5, 5, 5, 5, 15, 20] p=0.5"]
S479 -> S527 [label="1 [5, 5] p=0.08"]
S3049 -> S679 [label="3 [5, 5, 5] p=0.75"]
S3049 -> S679 [label="4 [5] p=0.25"]
S435 -> S436 [label="2 [10, 5, 5, 5, 5, 5, 5] p=0.32"]
S435 -> S679 [label="3 [5, 5, 5, 5, 10, 5, 5, 5, 5, 5, 5, 5, 5, 5, 5] p=0.68"]
S1151 -> S527 [label="3 [5, 5, 5, 5, 5] p=0.56"]
S1151 -> S490 [label="4 [5, 5, 5, 10] p=0.44"]
S227 -> S228 [label="3 [5, 10, 5] p=1.0"]
S434 -> S435 [label="4 [10, 5, 15, 5] p=0.67"]
S434 -> S497 [label="2 [5, 5] p=0.33"]
S480 -> S481 [label="4 [5, 5, 5, 5, 5, 5, 5, 5] p=0.8"]
S480 -> S490 [label="3 [5, 5] p=0.2"]
S675 -> S479 [label="3 [5, 10, 5, 5, 5, 5, 5] p=0.54"]
S675 -> S1940 [label="2 [5, 10, 10, 5, 5, 5] p=0.46"]
S916 -> S917 [label="2 [5, 5, 5] p=0.75"]
S916 -> S679 [label="3 [5] p=0.25"]
S2463 -> S2464 [label="4 [5, 5] p=0.33"]
S2463 -> S1151 [label="1 [5, 5] p=0.33"]
S2463 -> S1940 [label="2 [5, 10] p=0.33"]
S520 -> S527 [label="3 [10, 10, 10, 5] p=0.5"]
S520 -> S1027 [label="2 [5, 15, 15, 15] p=0.5"]
S527 -> S435 [label="4 [20, 20, 5, 5, 5, 5, 10, 20, 15, 5, 5, 5, 15] p=1.0"]
S679 -> S2525 [label="4 [5, 10, 5, 15, 5, 10, 10] p=0.47"]
S679 -> S1151 [label="2 [5, 5, 10, 10, 5, 5, 20, 5] p=0.53"]
S228 -> S229 [label="4 [10, 10] p=0.67"]
S228 -> S527 [label="2 [20] p=0.33"]
S481 -> S482 [label="3 [5, 5, 5, 5, 5] p=0.62"]
S481 -> S435 [label="1 [10] p=0.12"]
S481 -> S1851 [label="2 [10, 5] p=0.25"]
S917 -> S918 [label="4 [5, 5] p=0.67"]
S917 -> S3 [label="4 [10] p=0.33"]
S1027 -> S490 [label="3 [5, 5, 5] p=1.0"]
S1940 -> S527 [label="3 [5, 5, 5] p=0.38"]
S1940 -> S435 [label="4 [10, 10, 5, 5, 5] p=0.62"]
S2464 -> S436 [label="2 [10, 10] p=1.0"]
S2525 -> S2526 [label="1 [5] p=0.2"]
S2525 -> S3416 [label="3 [5] p=0.2"]
S2525 -> S1910 [label="2 [5, 5, 5] p=0.6"]
S229 -> S230 [label="1 [10] p=0.5"]
S229 -> S1918 [label="2 [5] p=0.5"]
S436 -> S230 [label="3 [5, 10, 5] p=0.5"]
S436 -> S1943 [label="4 [5, 5, 5] p=0.5"]
S482 -> S483 [label="2 [5, 5] p=0.5"]
S482 -> S1943 [label="4 [5] p=0.25"]
S482 -> S5 [label="4 [10] p=0.25"]
S918 -> S230 [label="3 [5] p=0.5"]
S918 -> S230 [label="2 [5] p=0.5"]
S1910 -> S1918 [label="4 [10, 10, 5] p=0.5"]
S1910 -> S1943 [label="3 [5, 5, 5] p=0.5"]
S1851 -> S1943 [label="4 [10] p=1.0"]
S3 -> S230 [label="1 [5] p=1.0"]
S230 -> S231 [label="4 [5, 5, 15, 5, 15, 5] p=1.0"]
S483 -> S484 [label="3 [5] p=0.5"]
S483 -> S2056 [label="4 [5] p=0.5"]
S1918 -> S1924 [label="3 [5, 5, 5] p=1.0"]
S1943 -> S2397 [label="2 [10, 5, 10, 5, 5, 5] p=1.0"]
S5 -> S2792 [label="1 [5] p=1.0"]