S0 -> S1 [label="6 [0, 0, 0, 0, 0, 0, 0, 0, 0, 0] p=0.01"]
S0 -> S12 [label="3 [0, 0, 0, 0, 0, 0, 0, 0, 0, 0, 0, 0, 0, 0, 0, 0, 0, 0, 0, 0, 0, 0, 0, 0, 0, 0, 0, 0, 0, 0, 0, 0, 0, 0, 0, 0, 0, 0, 0, 0, 0, 0, 0, 0, 0, 0, 0, 0, 0, 0, 0, 0, 0, 0, 0, 0, 0, 0, 0, 0, 0, 0, 0, 0, 0, 0, 0, 0, 0, 0, 0, 0, 0, 0, 0, 0, 0, 0, 0, 0, 0, 0, 0, 0, 0, 0, 0, 0, 0, 0, 0, 0, 0, 0, 0, 0, 0, 0, 0, 0, 0, 0, 0, 0, 0, 0, 0, 0, 0, 0, 0, 0, 0, 0, 0, 0, 0, 0, 0, 0, 0, 0, 0, 0, 0, 0, 0, 0, 0, 0, 0, 0, 0, 0, 0, 0, 0, 0, 0, 0, 0, 0, 0, 0, 0, 0, 0, 0, 0, 0, 0, 0, 0, 0, 0, 0, 0, 0, 0, 0, 0, 0, 0, 0, 0, 0, 0, 0, 0, 0, 0, 0, 0, 0, 0, 0, 0, 0, 0, 0, 0, 0, 0, 0, 0, 0, 0, 0, 0, 0, 0, 0, 0, 0, 0, 0, 0, 0, 0, 0, 0, 0, 0, 0, 0, 0, 0, 0, 0, 0, 0, 0, 0, 0, 0, 0, 0, 0, 0, 0, 0, 0, 0, 0, 0, 0, 0, 0, 0, 0, 0, 0, 0, 0, 0, 0, 0, 0, 0, 0, 0, 0, 0, 0, 0, 0, 0, 0, 0, 0, 0, 0, 0, 0, 0, 0, 0, 0, 0, 0, 0, 0, 0, 0, 0, 0, 0, 0, 0, 0, 0, 0, 0, 0, 0, 0, 0, 0, 0, 0, 0, 0, 0, 0, 0, 0, 0, 0, 0, 0, 0, 0, 0, 0, 0, 0, 0, 0, 0, 0, 0, 0, 0, 0, 0, 0, 0, 0, 0, 0, 0, 0, 0, 0, 0, 0, 0, 0, 0, 0, 0, 0, 0, 0, 0, 0, 0, 0, 0, 0, 0, 0, 0, 0, 0, 0, 0, 0, 0, 0, 0, 0, 0, 0, 0, 0, 0, 0, 0, 0, 0, 0, 0, 0, 0, 0, 0, 0, 0, 0, 0, 0, 0, 0, 0, 0, 0, 0, 0, 0, 0, 0, 0, 0, 0, 0, 0, 0, 0, 0, 0, 0, 0, 0, 0, 0, 0, 0, 0, 0, 0, 0, 0, 0, 0, 0, 0, 0, 0, 0, 0, 0] p=0.3"]
S0 -> S23 [label="5 [0, 0, 0, 0, 0, 0, 0, 0, 0, 0, 0, 0, 0, 0, 0, 0, 0, 0, 0, 0, 0, 0, 0, 0, 0, 0, 0, 0, 0, 0, 0, 0, 0, 0, 0, 0, 0, 0, 0, 0, 0, 0, 0, 0, 0, 0, 0, 0, 0, 0, 0, 0, 0, 0, 0, 0, 0, 0, 0, 0, 0, 0, 0, 0, 0, 0, 0, 0, 0, 0, 0, 0, 0, 0, 0, 0, 0, 0, 0, 0, 0, 0, 0, 0, 0, 0, 0, 0, 0, 0, 0, 0, 0, 0, 0, 0, 0, 0, 0, 0, 0, 0, 0, 0, 0, 0, 0, 0, 0, 0, 0, 0, 0, 0, 0, 0, 0, 0, 0, 0, 0, 0, 0, 0, 0, 0, 0, 0, 0, 0, 0, 0, 0, 0, 0, 0, 0, 0, 0, 0, 0, 0, 0, 0, 0, 0, 0, 0, 0, 0, 0, 0, 0, 0, 0, 0, 0, 0, 0, 0, 0, 0, 0, 0, 0, 0, 0, 0, 0, 0, 0, 0, 0, 0, 0, 0, 0, 0, 0, 0, 0, 0, 0, 0, 0, 0, 0, 0, 0, 0, 0, 0, 0, 0, 0, 0, 0, 0, 0, 0, 0, 0, 0, 0, 0, 0, 0, 0, 0, 0, 0, 0, 0, 0, 0, 0, 0, 0, 0, 0, 0, 0, 0, 0, 0, 0, 0, 0, 0, 0, 0, 0, 0, 0, 0, 0, 0, 0, 0, 0, 0, 0, 0, 0, 0, 0, 0, 0, 0, 0, 0, 0, 0, 0, 0, 0, 0, 0, 0, 0, 0, 0, 0, 0, 0, 0, 0, 0, 0, 0, 0, 0, 0, 0, 0, 0, 0, 0, 0, 0, 0, 0, 0, 0, 0, 0, 0, 0, 0, 0, 0, 0, 0, 0, 0, 0, 0, 0, 0, 0, 0, 0, 0, 0, 0, 0, 0, 0, 0, 0, 0, 0, 0, 0, 0, 0, 0, 0, 0, 0, 0, 0, 0, 0, 0, 0, 0, 0, 0, 0, 0, 0, 0, 0, 0, 0, 0, 0, 0, 0, 0, 0, 0, 0, 0, 0, 0, 0, 0, 0, 0, 0, 0, 0, 0, 0, 0, 0, 0, 0, 0, 0, 0, 0, 0, 0, 0, 0, 0, 0, 0, 0, 0, 0, 0, 0, 0, 0, 0, 0, 0, 0, 0, 0, 0, 0, 0, 0, 0, 0, 0, 0, 0, 0, 0, 0, 0, 0, 0, 0, 0, 0, 0, 0, 0, 0, 0, 0, 0, 0, 0, 0, 0, 0, 0, 0, 0, 0, 0, 0, 0, 0, 0, 0, 0, 0, 0, 0, 0, 0, 0, 0, 0, 0, 0, 0, 0, 0, 0, 0, 0, 0, 0, 0, 0, 0, 0, 0, 0, 0, 0, 0, 0, 0, 0, 0, 0, 0, 0, 0, 0, 0, 0, 0, 0, 0, 0, 0, 0, 0, 0, 0, 0, 0, 0, 0, 0, 0, 0, 0, 0, 0, 0, 0, 0, 0, 0, 0, 0, 0, 0, 0, 0, 0, 0, 0, 0, 0, 0, 0, 0, 0, 0, 0, 0, 0, 0, 0, 0, 0, 0, 0, 0, 0, 0] p=0.38"]
S0 -> S34 [label="4 [0, 0, 0, 0, 0, 0, 0, 0, 0, 0, 0, 0, 0, 0, 0, 0, 0, 0, 0, 0, 0, 0, 0, 0, 0, 0, 0, 0, 0, 0, 0, 0, 0, 0, 0, 0, 0, 0, 0, 0, 0, 0, 0, 0, 0, 0, 0, 0, 0, 0, 0, 0, 0, 0, 0, 0, 0, 0, 0, 0, 0, 0, 0, 0, 0, 0, 0, 0, 0, 0, 0, 0, 0, 0, 0, 0, 0, 0, 0, 0, 0, 0, 0, 0, 0, 0, 0, 0, 0, 0, 0, 0, 0, 0, 0, 0, 0, 0, 0, 0, 0, 0, 0, 0, 0, 0, 0, 0, 0, 0, 0, 0, 0, 0, 0, 0, 0, 0, 0, 0, 0, 0, 0, 0, 0, 0, 0, 0, 0, 0, 0, 0, 0, 0, 0, 0, 0, 0, 0, 0, 0, 0, 0, 0, 0, 0, 0, 0, 0, 0, 0, 0, 0, 0, 0, 0, 0, 0, 0, 0, 0, 0, 0, 0, 0, 0, 0, 0, 0, 0, 0, 0, 0, 0, 0, 0, 0, 0, 0, 0, 0, 0, 0, 0, 0, 0, 0, 0, 0, 0, 0, 0, 0, 0, 0, 0, 0, 0, 0, 0, 0, 0, 0, 0, 0, 0, 0, 0, 0, 0, 0, 0, 0, 0, 0, 0, 0, 0, 0, 0, 0, 0, 0, 0, 0, 0, 0, 0, 0, 0, 0, 0, 0, 0, 0, 0, 0, 0, 0, 0, 0, 0, 0, 0, 0, 0, 0, 0, 0, 0, 0, 0, 0, 0, 0, 0, 0, 0, 0, 0, 0, 0, 0, 0, 0, 0, 0, 0, 0, 0, 0, 0, 0, 0, 0, 0, 0, 0, 0, 0, 0, 0, 0, 0, 0, 0, 0, 0, 0] p=0.21"]
S0 -> S189 [label="2 [0, 0, 0, 0, 0, 0, 0, 0, 0, 0, 0, 0, 0, 0, 0, 0, 0, 0, 0, 0, 0, 0, 0, 0, 0, 0, 0, 0, 0, 0, 0, 0, 0, 0, 0, 0, 0, 0, 0, 0, 0, 0, 0, 0, 0, 0, 0, 0, 0, 0, 0, 0, 0, 0, 0, 0, 0, 0, 0, 0, 0, 0, 0, 0, 0, 0, 0, 0, 0, 0, 0, 0, 0, 0, 0, 0, 0, 0, 0, 0, 0, 0, 0, 0, 0, 0, 0, 0, 0, 0, 0, 0, 0, 0, 0, 0, 0, 0, 0, 0, 0, 0, 0, 0, 0, 0, 0, 0, 0, 0, 0, 0, 0, 0, 0, 0, 0, 0, 0, 0] p=0.09"]
S0 -> S2 [label="1 [0, 0, 0, 0, 0, 0, 0, 0, 0, 0, 0] p=0.01"]
S0 -> S2 [label="7 [0, 0, 0, 0, 0, 0] p=0.0"]
S1 -> S2 [label="3 [5, 10, 5, 5, 5] p=0.5"]
S1 -> S2 [label="4 [5, 5] p=0.2"]
S1 -> S2 [label="7 [5] p=0.1"]
S1 -> S2 [label="2 [5, 5] p=0.2"]
S12 -> S13 [label="5 [5, 5, 5, 5, 10, 5, 5, 5, 10, 5, 10, 5, 10, 5, 5, 10, 5, 5, 5, 5, 10, 5, 10, 10, 5, 5, 5, 5, 10, 5, 5, 5, 5, 5, 5, 5, 5, 5, 5, 10, 5, 5, 5, 10, 5, 5, 5, 5, 5, 10, 10, 15, 5, 10, 5, 5, 5, 5, 5, 5, 5, 5, 5, 5, 5, 5, 5, 10, 5, 10, 5, 10, 5, 5, 5, 5, 10, 5, 5, 5, 5, 5, 5, 5, 10, 5, 10, 5, 5, 5, 5, 5, 5, 5, 10, 5, 5, 5, 10, 5, 5, 5, 10, 5, 5, 5, 5, 10, 5, 5, 5, 5, 10, 5, 5, 5, 5, 5, 5, 5, 5, 5, 5, 5, 5, 5, 5, 10, 5, 5, 5, 5, 5, 5, 5, 5, 10, 5, 10, 5, 10, 5, 5, 5, 5, 5, 5, 5, 5, 10, 5, 5, 5, 10, 5, 5, 5, 5, 5, 5, 5, 5, 5, 5, 5, 5, 5, 10, 5, 5, 5, 5, 10, 5, 5, 5, 5, 5, 5, 5, 5, 5, 15, 5, 5, 5, 5, 10, 5, 10, 5, 5, 5, 5, 5, 5, 5, 5, 5, 5, 5, 5, 10, 5, 10, 10, 5, 10, 5, 5, 5, 5, 5, 10, 10, 5, 10, 5, 5, 5, 5, 5, 5, 5, 5, 5, 5, 5, 5, 5, 5, 5, 5, 10, 5, 5, 5, 5, 5, 5, 10, 5, 5, 5, 5, 5, 5, 5, 10, 5, 10, 10, 5, 5, 5, 10, 5, 5, 10, 5, 10, 10, 5, 10, 5, 5, 10, 5, 10, 10, 5, 5, 10, 5, 5, 5, 5, 5, 5, 10, 5, 5, 5, 10, 5, 5, 5, 5, 10, 10, 15, 10, 5, 5, 5, 5, 5, 5, 5, 5, 5, 5, 10, 5, 10, 5, 10, 5, 5, 10, 5, 5, 5, 10, 10, 5, 5, 5, 5, 5, 5, 5, 10, 5, 5, 5, 10, 5, 5, 5, 5, 5, 5, 10, 5, 5, 5, 5, 5, 5, 5, 5, 5, 5, 5, 10, 5, 5, 5, 5, 5, 10, 5, 10, 5, 5, 5, 5, 5, 5, 5, 10, 5, 5, 5, 10, 5, 5, 5, 5, 5, 5, 5, 5, 5, 5, 5, 10, 5, 5, 10, 5, 5, 5, 5, 5, 5, 5, 15, 5, 5, 10, 5, 10, 5, 5, 5, 5, 5, 5, 5, 5, 5, 10, 10, 5, 10, 5, 5, 5, 5, 10, 5, 10, 5, 5, 5, 5, 5, 5, 5, 5, 5, 5, 10, 5, 5, 5, 5, 5, 5, 10, 10, 10, 5] p=0.62"]
S12 -> S2 [label="2 [5, 5, 5, 5, 5, 5, 5, 5, 5, 5, 5, 5, 5, 5, 5, 5, 5, 5, 5, 5, 5, 5, 5, 5, 5, 5, 5, 5, 5, 5, 5, 5, 5, 5, 5, 5, 5, 5, 5, 5, 5, 5, 5, 5, 5, 5] p=0.07"]
S12 -> S63 [label="4 [5, 5, 5, 5, 5, 5, 5, 5, 5, 5, 10, 5, 5, 5, 5, 5, 5, 10, 5, 5, 5, 5, 5, 5, 5, 5, 5, 5, 10, 5, 5, 5, 5, 5, 5, 10, 5, 5, 5, 5, 10, 10, 5, 5, 5, 10, 5, 5, 5, 5, 5, 5, 5, 5, 10, 5, 5, 5, 5, 5, 5, 5, 10, 5, 5, 5, 5, 5, 5, 5, 5, 5, 5, 5, 10, 5, 5, 5, 5, 5, 10, 5, 5, 5, 5, 5, 5, 5, 5, 5, 10, 5, 5, 5, 5, 5, 5, 5, 5, 5, 5, 5, 5, 5, 5, 5, 5, 5, 10, 5, 5, 5, 5, 5, 10, 5, 5, 10, 5, 5, 5, 5, 5, 5, 5, 5, 5, 5, 5, 10, 5, 5, 5, 5, 5, 5, 5, 10, 5, 5, 5, 5, 5, 10, 5, 10, 5, 5, 5, 5, 5, 10, 5, 5, 5, 5, 5, 5, 5, 5, 5, 5, 5, 5, 5, 10, 5, 5, 5, 5, 5, 5, 5, 5, 5, 10, 5, 5, 5, 5, 5, 5, 5, 5, 5, 5, 5, 5, 10, 5, 5, 5, 5, 5, 5, 5, 5, 10, 5, 5, 5, 5, 5, 5, 5, 5, 5, 5, 10, 5, 5, 5, 5] p=0.3"]
S12 -> S2 [label="6 [5, 5, 5, 10, 5, 5, 5, 5, 10, 5] p=0.01"]
S23 -> S24 [label="4 [5, 5, 10, 5, 5, 10, 5, 5, 5, 5, 10, 5, 5, 5, 5, 5, 5, 5, 5, 5, 5, 5, 5, 10, 10, 5, 5, 5, 10, 5, 5, 5, 5, 5, 5, 15, 5, 5, 5, 5, 5, 5, 10, 5, 5, 5, 5, 10, 15, 5, 5, 5, 5, 5, 10, 5, 5, 5, 5, 20, 5, 10, 5, 5, 5, 15, 10, 5, 5, 5, 5, 5, 5, 5, 5, 10, 5, 5, 5, 10, 5, 5, 5, 5, 5, 5, 10, 5, 5, 5, 5, 5, 5, 20, 10, 5, 5, 5, 5, 5, 5, 5, 5, 10, 5, 5, 15, 5, 10, 5, 5, 5, 10, 10, 5, 5, 5, 10, 10, 5, 5, 10, 10, 5, 20, 10, 5, 5, 5, 5, 5, 5, 15, 10, 5, 10, 5, 5, 5, 5] p=0.27"]
S23 -> S12 [label="3 [10, 5, 10, 5, 10, 20, 10, 5, 5, 10, 5, 5, 5, 10, 5, 5, 15, 10, 5, 10, 10, 10, 5, 5, 5, 5, 10, 5, 5, 5, 5, 5, 5, 10, 5, 5, 5, 5, 5, 5, 10, 10, 5, 10, 5, 5, 5, 5, 5, 5, 10, 5, 5, 5, 5, 10, 5, 5, 5, 5, 5, 10, 10, 5, 5, 5, 5, 10, 10, 15, 5, 10, 10, 10, 5, 5, 5, 15, 5, 5, 5, 5, 10, 5, 5, 10, 5, 5, 5, 5, 10, 5, 10, 5, 5, 5, 5, 5, 5, 10, 5, 5, 5, 5, 10, 5, 20, 5, 10, 10, 5, 10, 15, 10, 5, 5, 5, 5, 5, 15, 15, 10, 5, 5, 5, 5, 15, 5, 5, 20, 5, 10, 5, 10, 5, 10, 10, 5, 15, 10, 10, 5, 5, 5, 5, 5, 10, 5, 5, 10, 5, 10, 5, 10, 5, 5, 15, 5, 5, 5, 5, 5, 5, 5, 5, 5, 5, 5, 5, 5, 5, 5, 5, 5, 10, 5, 5, 5, 5, 10, 5, 10, 5, 5, 5, 10, 5, 15, 5, 10, 5, 15, 10, 10, 5, 5, 5, 5, 10, 5, 5, 10, 5, 5, 5, 5, 10, 5, 5, 10, 5, 15, 15, 10, 5, 5, 10, 5, 5, 10, 5, 5, 10, 15, 5, 5, 5, 5, 5, 5, 5, 10, 15, 10, 5, 5, 5, 5, 10, 5, 5, 10, 5, 5, 5, 15, 5, 5, 5, 5, 5, 5, 10, 5, 15, 10, 5, 5, 10, 5, 5, 5, 5, 5, 10, 20, 5, 5, 10, 5, 5, 5, 5, 5, 5, 5, 10, 5, 5, 5, 5, 5, 10, 5, 5, 5, 5, 10, 5, 10, 5, 5, 10, 5, 5, 5, 10, 5, 5, 5, 15, 5] p=0.59"]
S23 -> S149 [label="2 [5, 15, 10, 5, 5, 5, 10, 5, 5, 5, 5, 15, 5, 10, 10, 5, 5, 5, 5, 5, 10, 10, 5, 5, 5, 10, 10, 5, 10, 5, 5, 10, 10, 5, 15, 20, 5, 10, 10, 15, 20, 10, 5, 5, 10, 5, 10, 5, 10, 5, 5, 5, 5, 10, 15, 5, 5, 5, 15, 5, 10, 20, 10, 10, 5] p=0.13"]
S23 -> S2 [label="1 [5, 10, 10, 10, 15, 10] p=0.01"]
S23 -> S2 [label="6 [10] p=0.0"]
S34 -> S35 [label="5 [5, 15, 5, 5, 5, 5, 5, 5, 5, 10, 5, 5, 10, 10, 5, 10, 10, 5, 10, 10, 5, 5, 10, 5, 10, 5, 10, 5, 5, 5, 10, 5, 20, 5, 5, 5, 5, 5, 5, 5, 10, 10, 10, 5, 5, 5, 5, 5, 5, 20, 10, 5, 5, 5, 5, 5, 5, 5, 5, 5, 5, 5, 10, 5, 15, 10, 20, 15, 5, 5, 5, 5, 5, 10, 10, 10, 5, 5, 10, 5, 5, 5, 5, 5, 5, 10, 5, 10, 5, 5, 5, 5, 5, 5, 5, 5, 5, 10, 10, 5, 5, 5, 5, 10, 5, 5, 5, 10, 15, 10, 5, 10, 10, 5, 5, 5, 5, 15, 5, 5, 10, 10, 5, 5, 5, 5, 5, 5, 5, 5, 5, 10, 5, 5, 5, 5, 5, 5, 15, 5, 5, 10, 10, 5, 10, 5, 10, 5, 5, 15, 5, 5, 5, 5, 10, 5, 5, 10, 5, 5, 5, 15, 5, 5, 5, 5, 5, 5, 15, 10, 5, 10, 20, 10, 10, 15] p=0.61"]
S34 -> S82 [label="3 [10, 5, 5, 5, 15, 5, 5, 5, 5, 5, 5, 5, 20, 5, 10, 10, 10, 5, 5, 5, 5, 5, 5, 5, 5, 10, 10, 5, 10, 10, 5, 10, 5, 5, 15, 5, 5, 5, 15, 10, 5, 5, 5, 5, 5, 15, 10, 5, 5, 5, 5, 15, 10, 5, 5, 5, 5, 5, 5, 5, 10, 10, 5, 5, 5, 5, 5, 5, 5, 5, 10, 5, 5, 5] p=0.26"]
S34 -> S149 [label="2 [5, 5, 5, 5, 5, 5, 5, 5, 20, 5, 5, 5, 5, 5, 10, 5, 5, 5, 5, 5, 5, 5, 10, 5, 5, 5] p=0.09"]
S34 -> S2 [label="1 [5, 5, 5, 20, 5] p=0.02"]
S34 -> S2081 [label="6 [10, 5, 5] p=0.01"]
S34 -> S2 [label="7 [15, 5, 5, 10, 15] p=0.02"]
S189 -> S2 [label="4 [5, 5, 5, 5, 5, 5, 5, 5, 5, 5, 5, 5, 5, 5, 5, 5, 5, 5, 5, 5, 5, 5, 5, 5, 5] p=0.21"]
S189 -> S219 [label="5 [5, 5, 5, 5, 5, 5, 5, 5, 5, 5, 5, 5, 5, 5, 5, 5, 5, 5, 5, 5, 5, 5, 5, 5, 5, 5, 5, 5, 5, 5, 5, 5, 5, 5, 5, 5, 5, 5, 5, 5, 5, 5, 5, 5, 5, 5, 5, 5, 5, 5, 5, 5, 5, 5, 5, 5, 5, 5, 5, 5, 5, 5, 5, 5, 5, 5, 5, 5, 5, 5, 5, 5, 5, 5, 5, 5, 5, 5] p=0.65"]
S189 -> S382 [label="3 [5, 5, 5, 5, 5, 5, 5, 5, 5, 5, 5, 5, 5, 5, 5, 5, 5] p=0.14"]
S2 -> S2 [label="1 [5, 5, 15, 15, 15, 10, 10, 5, 20, 5, 5, 10, 10, 10, 10, 15, 10, 10, 10, 5, 10, 15, 10, 10, 10, 5, 5, 5, 5, 5, 15, 15, 10, 5, 15] p=0.0"]
S2 -> S2 [label="6 [10, 10, 10, 5, 10, 5, 5, 5, 10, 10, 10, 10, 5, 5, 5, 5, 10, 5, 5, 5, 5, 5, 5, 5, 10, 10, 10, 10, 5, 5, 5, 5, 5, 5, 5, 5, 5, 10, 10, 5] p=0.01"]
S2 -> S2 [label="3 [5, 5, 5, 5, 5, 5, 5, 5, 5, 5, 5, 5, 5, 5, 5, 10, 5, 5, 5, 5, 5, 5, 5, 5, 10, 10, 10, 5, 15, 5, 5, 5, 10, 5, 10, 5, 5, 10, 15, 5, 15, 10, 10, 15, 5, 10, 5, 10, 10, 5, 5, 10, 10, 15, 20, 10, 10, 15, 20, 5, 10, 5, 5, 5, 5, 5, 5, 10, 10, 5, 5, 10, 5, 5, 10, 5, 10, 5, 10, 10, 10, 10, 10, 5, 10, 5, 10, 10, 10, 10, 5, 5, 5, 5, 5, 10, 5, 5, 5, 5, 10, 5, 5, 5, 5, 5, 5, 5, 5, 5, 5, 5, 5, 5, 5, 5, 5, 5, 10, 5, 5, 10, 5, 5, 5, 10, 5, 5, 5, 5, 5, 5, 5, 5, 5, 5, 5, 10, 5, 10, 10, 5, 10, 5, 10, 10, 10, 5, 5, 10, 5, 5, 5, 10, 10, 5, 5, 5, 5, 5, 5, 5, 5, 5, 10, 5, 5, 10, 5, 5, 10, 10, 5, 10, 10, 5, 5, 20, 20, 20, 20, 10, 5, 10, 10, 5, 5, 10, 10, 5, 5, 5, 5, 5, 5, 5, 5, 5, 15, 5, 5, 5, 5, 10, 10, 10, 5, 10, 5, 15, 5, 5, 10, 5, 10, 5, 10, 10, 5, 5, 15, 10, 5, 5, 5, 5, 5, 5, 5, 10, 10, 5, 5, 5, 5, 5, 5, 5, 5, 5, 5, 5, 5, 5, 5, 5, 10, 5, 5, 5, 5, 5, 5, 5, 5, 5, 5, 5, 10, 5, 5, 5, 5, 5, 5, 5, 10, 10, 5, 10, 5, 5, 5, 5, 5, 5, 5, 10, 5, 5, 10, 5, 5, 15, 5, 5, 5, 5, 15, 5, 5, 5, 5, 5, 5, 10, 5, 5, 5, 5, 15, 5, 5, 15, 5, 5, 15, 5, 5, 5, 5, 10, 5, 5, 5, 5, 5, 5, 10, 10, 5, 5, 5, 15, 5, 5, 5, 5, 5, 10, 5, 15, 5, 5, 5, 10, 5, 5, 5, 5, 5, 10, 5, 5, 5, 15, 20, 10, 5, 10, 5, 15, 5, 15, 10, 10, 5, 15, 5, 5, 5, 5, 10, 10, 10, 10, 5, 5, 5, 10, 5, 5, 5, 5, 10, 5, 5, 5, 5, 5, 5, 10, 10, 5, 5, 15, 5, 5, 10, 10, 5, 10, 10, 10, 15, 10, 5, 5, 15, 15, 5, 5, 5, 5, 10, 10, 10, 10, 10, 10, 10, 5, 5, 10, 5, 5, 5, 5, 5, 5, 10, 5, 5, 5, 5, 5, 5, 5, 5, 10, 10, 10, 10, 10, 10, 5, 5, 20, 20, 20, 5, 20, 5, 5, 5, 5, 5, 5, 10, 5, 5, 5, 5, 5, 5, 10, 15, 15, 15, 5, 5, 5, 10, 5, 10, 5, 10, 5, 10, 5, 5, 5, 5, 5, 5, 5, 5, 5, 5, 5, 5, 5, 10, 5, 5, 10, 5, 5, 5, 5, 10, 5, 10, 5, 10, 5, 5, 5, 5, 10, 5, 10, 10, 10, 15, 10, 15, 5, 10, 10, 5, 5, 5, 5, 5, 5, 5, 20, 20, 10, 5, 10, 10, 5, 5, 10, 10, 5, 10, 10, 5, 10, 5, 5, 5, 5, 5, 15, 10, 5, 5, 5, 5, 5, 5, 5, 5, 5, 5, 5, 15, 5, 5, 5, 5, 5, 5, 10, 5, 5, 10, 5, 5, 15, 5, 5, 5, 10, 5, 10, 5, 5, 10, 10, 10, 10, 15, 5, 5, 5, 5, 15, 5, 15, 15, 15, 5, 5, 10, 10, 5, 5, 15, 5, 10, 5, 10, 5, 5, 20, 10, 5, 5, 5, 5, 10, 10, 10, 10, 10, 5, 5, 5, 5, 5, 5, 5, 5, 5, 15, 15, 5, 5, 5, 15, 10, 10, 5, 5, 10, 5, 5, 5, 10, 5, 10, 15, 5, 5, 15, 5, 10, 5, 10, 5, 5, 15, 5, 5, 5, 5, 10, 5, 5, 5, 5, 5, 5, 10, 10, 10, 5, 5, 5, 5, 5, 5, 5, 5, 5, 5, 5, 5, 5, 5, 5, 5, 5, 5, 5, 5, 5, 5, 5, 5, 5, 5, 5, 5, 5, 5, 5, 5, 5, 5, 20, 5, 5, 5, 10, 5, 5, 15, 10, 5, 5, 10, 10, 5, 10, 10, 5, 5, 5, 5, 5, 5, 5, 5, 5, 5, 5, 5, 5, 5, 10, 10, 10, 5, 5, 5, 5, 5, 10, 10, 15, 10, 5, 5, 5, 15, 5, 5, 5, 15, 15, 5, 5, 5, 10, 10, 10, 10, 5, 10, 10, 5, 10, 10, 10, 5, 10, 20, 20, 10, 10, 5, 10, 5, 5, 15, 5, 15, 10, 10, 15, 5, 15, 10, 5, 5, 5, 10, 5, 5, 10, 5, 5, 5, 5, 5, 5, 10, 10, 10, 10, 5, 5, 5, 5, 10, 10, 5, 10, 5, 5, 15, 5, 5, 10, 10, 10, 10, 10, 5, 5, 5, 10, 5, 5, 5, 5, 5, 5, 5, 5, 15, 5, 5, 5, 20, 10, 10, 5, 5, 5, 5, 10, 5, 5, 5, 5, 5, 5, 5, 5, 5, 10, 10, 5, 5, 15, 15, 5, 5, 5, 5, 10, 10, 5, 5, 10, 10, 10, 5, 5, 5, 5, 5, 10, 5, 5, 10, 5, 5, 5, 5, 5, 5, 10, 10, 10, 15, 15, 10, 10, 10, 10, 5, 5, 10, 10, 5, 5, 5, 5, 5, 5, 5, 5, 5, 5, 10, 10, 5, 5, 5, 10, 10, 5, 20, 20, 10, 5, 20, 5, 5, 5, 5, 5, 5, 5, 5, 5, 5, 5, 5, 5, 5, 5, 5, 5, 5, 5, 5, 5, 5, 5, 5, 5, 5, 5, 5, 5, 5, 5, 5, 5, 5, 5, 5, 5, 5, 5, 5, 5, 5, 5, 5, 10, 10, 5, 10, 10, 15, 5, 15, 5, 5, 5, 5, 5, 5, 5, 5, 5, 5, 15, 15, 5, 5, 10, 10, 5, 5, 5, 5, 10, 5, 5, 10, 5, 10, 5, 5, 5, 5, 10, 10, 5, 5, 5, 5, 5, 5, 5, 5, 5, 5, 10, 5, 5, 10, 10, 10, 10, 5, 10, 5, 15, 15, 10, 10, 10, 10, 10, 10, 10, 10, 10, 5, 5, 5, 5, 10, 5, 5, 5, 5, 5, 5, 5, 5, 5, 5, 5, 5, 5, 5, 15, 15, 5, 10, 5, 10, 5, 5, 5, 5, 5, 5, 5, 5, 5, 5, 5, 5, 5, 5, 5, 5, 5, 5, 5, 5, 5, 5, 10, 5, 5, 5, 5, 5, 5, 5, 5, 5, 5, 5, 15, 5, 5, 5, 10, 5, 5, 5, 5, 5, 5, 5, 5, 5, 5, 5, 5, 5, 5, 5, 5, 5, 5, 10, 10, 5, 5, 5, 5, 5, 5, 5, 5, 5, 5, 5, 5, 5, 5, 10, 5, 5, 10, 5, 5, 5, 5, 5, 5, 5, 10, 5, 5, 10, 10, 10, 10, 5, 5, 5, 10, 5, 10, 5, 10, 5, 5, 5, 10, 5, 10, 5, 5, 5, 5, 5, 15, 15, 5, 20, 20, 15, 10, 10, 5, 15, 5, 5, 10, 5, 15, 5, 15, 5, 5, 10, 5, 5, 5, 5, 5, 5, 5, 5, 5, 5, 5, 5, 5, 10, 10, 10, 5, 5, 10, 10, 5, 5, 10, 10, 5, 10, 10, 5, 5, 10, 10, 10, 10, 10, 5, 10, 10, 5, 15, 10, 5, 5, 5, 5, 5, 5, 5, 5, 5, 5, 5, 5, 5, 5, 5, 5, 5, 5, 5, 5, 5, 5, 15, 5, 5, 5, 5, 5, 10, 10, 5, 5, 5, 5, 5, 5, 5, 5, 5, 5, 10, 10, 5, 5, 5, 10, 5, 5, 5, 5, 10, 5, 5, 5, 10, 5, 5, 10, 15, 5, 5, 5, 5, 5, 5, 5, 5, 5, 5, 5, 5, 5, 5, 5, 5, 5, 10, 10, 5, 10, 5, 10, 10, 10, 10, 5, 5, 5, 5, 15, 15, 5, 5, 5, 10, 10, 5, 5, 5, 10, 5, 10, 5, 5, 5, 5, 15, 10, 5, 15, 5, 5, 5, 5, 5, 5, 15, 5, 10, 10, 10, 10, 10, 5, 5, 5, 5, 10, 5, 5, 10, 5, 5, 5, 5, 10, 5, 5, 10, 5, 15, 5, 5, 5, 5, 5, 5, 5, 15, 10, 10, 15, 15, 10, 5, 5, 5, 5, 10, 5, 15, 5, 5, 15, 15, 5, 5, 5, 5, 5, 10, 5, 10, 5, 5, 5, 5, 10, 10, 5, 5, 5, 5, 5, 15, 5, 5, 5, 10, 5, 5, 5, 5, 5, 5, 10, 10, 10, 5, 10, 10, 10, 5, 5, 5, 5, 10, 5, 10, 10, 5, 5, 5, 5, 5, 10, 10, 5, 10, 5, 5, 5, 5, 5, 5, 5, 5, 5, 5, 5, 5, 10, 10, 10, 5, 5, 5, 10, 5, 5, 5, 10, 10, 5, 5, 5, 5, 5, 5, 5, 5, 5, 5, 5, 5, 5, 5, 5, 5, 5, 5, 15, 5, 10, 5, 10, 5, 5, 10, 5, 5, 5, 5, 10, 10, 5, 5, 5, 5, 5, 5, 10, 10, 5, 5, 5, 5, 5, 5, 5, 10, 15, 20, 15, 5, 5, 5, 5, 5, 5, 5, 5, 5, 5, 5, 5, 5, 10, 5, 5, 5, 5, 10, 10, 5, 20, 10, 5, 5, 10, 20, 5, 15, 5, 5, 5, 5, 5, 5, 15, 15, 5, 15, 15, 5, 5, 5, 5, 5, 5, 5, 5, 10, 10, 10, 10, 5, 5, 10, 5, 5, 5, 5, 5, 5, 5, 10, 10, 10, 5, 10, 10, 5, 5, 5, 10, 10, 5, 5, 5, 5, 20, 10, 5, 5, 5, 5, 5, 5, 5, 5, 5, 5, 10, 10, 5, 5, 5, 5, 5, 5, 5, 10, 10, 5, 5, 5, 5, 5, 5, 5, 5, 5, 5, 5, 5, 5, 5, 10, 5, 5, 10, 5, 5, 5, 5, 5, 5, 5, 5, 5, 5, 5, 15, 5, 5, 15, 5, 15, 5, 15, 5, 5, 10, 5, 10, 10, 10, 10, 5, 5, 5, 5, 5, 10, 5, 5, 5, 5, 5, 15, 5, 15, 5, 5, 5, 10, 10, 10, 10, 5, 5, 10, 5, 10, 5, 10, 10, 5, 5, 5, 10, 5, 10, 5, 5, 5, 5, 5, 5, 5, 20, 5, 10, 5, 5, 10, 10, 5, 5, 5, 10, 10, 10, 10, 5, 5, 5, 5, 5, 5, 5, 10, 10, 10, 5, 5, 20, 5, 5, 10, 10, 5, 10, 10, 10, 10, 5, 5, 10, 5, 5, 5, 10, 5, 5, 5, 10, 10, 10, 5, 10, 10, 5, 5, 5, 5, 5, 15, 5, 5, 15, 5, 5, 5, 5, 5, 10, 5, 10, 5, 5, 5, 20, 15, 15, 5, 10, 5, 5, 5, 5, 5, 5, 5, 15, 5, 5, 5, 5, 5, 5, 5, 15, 5, 5, 10, 5, 5, 5, 5, 5, 10, 10, 10, 5, 5, 10, 10, 10, 10, 15, 5, 10, 5, 15, 5, 15, 5, 5, 5, 5, 5, 5, 5, 5, 5, 10, 5, 5, 5, 5, 5, 5, 5, 5, 5, 10, 10, 15, 5, 5, 5, 5, 5, 5, 5, 5, 10, 5, 5, 5, 5, 5, 15, 5, 5, 5, 5, 5, 5, 5, 5, 5, 5, 5, 5, 5, 5, 5, 5, 5, 5, 5, 5, 5, 5, 5, 5, 5, 5, 5, 5, 5, 5, 5, 5, 5, 5, 5, 15, 20, 20, 5, 5, 10, 10, 10, 10, 5, 10, 5, 5, 10, 5, 20, 10, 20, 10, 10, 5, 5, 5, 5, 5, 5, 10, 10, 10, 10, 10, 5, 5, 5, 5, 5, 5, 5, 10, 5, 5, 5, 5, 5, 5, 5, 5, 5, 10, 5, 5, 5, 5, 5, 5, 5, 5, 10, 10, 10, 5, 5, 5, 5, 5, 5, 5, 5, 5, 10, 5, 5, 5, 5, 5, 5, 5, 5, 5, 5, 5, 5, 5, 5, 5, 5, 10, 5, 10, 5, 5, 5, 15, 15, 5, 5, 15, 5, 15, 5, 5, 5, 5, 5, 15, 5, 10, 10, 5, 5, 10, 10, 10, 5, 10, 5, 10, 10, 5, 5, 5, 10, 5, 5, 5, 5, 5, 5, 10, 10, 5, 5, 5, 10, 10, 5, 10, 5, 5, 10, 10, 10, 10, 5, 5, 5, 10, 10, 10, 5, 5, 5, 10, 5, 5, 5, 5, 5, 10, 20, 10, 5, 5, 5, 5, 5, 5, 5, 5, 5, 5, 5, 5, 5, 5, 10, 5, 5, 15, 5, 5, 10, 5, 5, 5, 10, 15, 5, 10, 5, 15, 5, 10, 5, 5, 15, 10, 5, 5, 5, 5, 10, 5, 5, 5, 5, 15, 5, 10, 5, 5, 5, 5, 5, 5, 10, 5, 5, 5, 5, 5, 5, 15, 5, 10, 10, 5, 5, 5, 5, 5, 10, 5, 5, 10, 10, 5, 5, 10, 5, 10, 10, 5, 5, 5, 5, 5, 5, 5, 15, 5, 5, 5, 10, 5, 5, 5, 5, 10, 5, 15, 5, 15, 5, 5, 5, 5, 5] p=0.29"]
S2 -> S2 [label="5 [10, 10, 5, 5, 5, 5, 5, 5, 5, 5, 5, 5, 5, 5, 5, 5, 5, 5, 5, 5, 10, 10, 5, 5, 5, 5, 5, 5, 5, 5, 5, 5, 5, 5, 5, 5, 10, 10, 5, 5, 5, 5, 10, 10, 5, 5, 5, 5, 5, 5, 5, 5, 10, 5, 5, 10, 5, 5, 5, 5, 5, 15, 15, 5, 10, 5, 5, 5, 5, 5, 5, 5, 5, 5, 5, 5, 5, 5, 5, 5, 5, 5, 5, 5, 5, 5, 5, 10, 5, 5, 5, 10, 5, 15, 5, 10, 15, 5, 5, 5, 5, 5, 5, 5, 5, 5, 5, 5, 5, 5, 10, 5, 5, 5, 10, 10, 5, 5, 5, 5, 5, 5, 5, 5, 5, 5, 5, 5, 5, 5, 5, 5, 5, 5, 5, 5, 5, 5, 5, 10, 10, 10, 10, 5, 5, 10, 5, 5, 5, 5, 10, 5, 5, 5, 5, 5, 5, 5, 5, 5, 5, 5, 5, 5, 5, 5, 10, 5, 5, 10, 5, 5, 5, 20, 5, 5, 5, 10, 5, 5, 5, 5, 5, 5, 5, 5, 5, 5, 5, 10, 5, 5, 5, 5, 5, 5, 5, 10, 5, 5, 5, 5, 10, 5, 5, 5, 5, 5, 5, 10, 15, 10, 5, 5, 5, 5, 5, 5, 5, 5, 5, 5, 5, 5, 5, 5, 5, 5, 10, 10, 5, 5, 5, 5, 5, 5, 5, 5, 5, 10, 5, 5, 5, 5, 5, 5, 5, 5, 5, 15, 10, 10, 5, 5, 5, 5, 10, 10, 10, 10, 5, 5, 15, 15, 15, 15, 15, 10, 10, 5, 10, 10, 5, 5, 5, 20, 5, 5, 5, 5, 5, 5, 5, 5, 5, 5, 5, 5, 5, 5, 5, 10, 10, 5, 5, 10, 10, 10, 5, 5, 5, 5, 5, 5, 5, 5, 5, 10, 5, 5, 5, 5, 5, 5, 5, 5, 10, 5, 5, 5, 10, 10, 10, 10, 10, 10, 10, 5, 10, 5, 5, 5, 5, 5, 10, 5, 15, 5, 5, 20, 10, 5, 5, 5, 5, 5, 10, 5, 5, 15, 15, 20, 15, 15, 15, 15, 10, 10, 5, 5, 5, 5, 5, 5, 5, 5, 5, 5, 5, 5, 5, 5, 5, 5, 5, 5, 5, 5, 5, 5, 5, 5, 5, 5, 10, 5, 5, 5, 5, 5, 5, 5, 5, 5, 5, 5, 5, 5, 5, 5, 5, 5, 5, 5, 5, 5, 5, 10, 5, 5, 10, 10, 5, 5, 5, 5, 5, 5, 10, 5, 10, 5, 5, 5, 5, 5, 5, 10, 5, 5, 5, 5, 5, 10, 5, 5, 5, 5, 5, 5, 5, 5, 5, 5, 5, 5, 5, 5, 5, 5, 5, 5, 5, 5, 5, 10, 10, 10, 5, 5, 5, 10, 5, 5, 5, 5, 5, 5, 5, 5, 5, 5, 5, 5, 5, 5, 5, 5, 5, 10, 10, 10, 5, 10, 10, 5, 10, 5, 10, 5, 10, 10, 5, 10, 5, 10, 10, 10, 5, 5, 5, 5, 5, 5, 5, 5, 5, 5, 5, 10, 5, 5, 5, 5, 5, 5, 10, 5, 5, 5, 5, 5, 5, 5, 5, 5, 5, 10, 10, 10, 10, 10, 5, 10, 10, 5, 5, 10, 10, 5, 5, 5, 5, 5, 5, 5, 5, 5, 10, 10, 5, 5, 5, 5, 10, 5, 5, 5, 5, 5, 5, 5, 5, 5, 5, 5, 5, 5, 5, 5, 5, 5, 5, 5, 5, 5, 5, 5, 5, 5, 5, 5, 5, 10, 5, 5, 5, 5, 5, 5, 5, 5, 5, 5, 5, 5, 5, 5, 5, 5, 5, 5, 5, 5, 5, 5, 5, 10, 10, 10, 10, 5, 5, 5, 5, 5, 5, 10, 10, 10, 10, 5, 5, 5, 5, 5, 5, 5, 5, 5, 5, 5, 5, 5, 5, 5, 5, 5, 5, 5, 5, 5, 5, 5, 10, 5, 5, 5, 5, 5, 5, 5, 5, 5, 5, 10, 5, 10, 10, 10, 5, 5, 5, 5, 20, 5, 5, 5, 10, 5, 5, 5, 20, 5, 5, 10, 5, 10, 5, 5, 5, 5, 5, 5, 5, 5, 15, 10, 5, 5, 5, 5, 5, 5, 5, 5, 5, 5, 5, 5, 5, 5, 5, 5, 5, 5, 5, 5, 5, 5, 5, 5, 5, 5, 5, 5, 5, 5, 5, 5, 10, 5, 5, 5, 5, 5, 5, 5, 5, 5, 5, 5, 5, 5, 5, 5, 5, 5, 5, 5, 5, 5, 10, 5, 5, 5, 5, 5, 10, 5, 5, 5, 5, 10, 5, 5, 10, 5, 15, 5, 10, 5, 5, 10, 5, 5, 10, 5, 15, 5, 5, 5, 15, 15, 10, 10, 5, 5, 5, 10, 10, 10, 5, 5, 10, 10, 10, 10, 5, 5, 5, 5, 5, 5, 10, 15, 15, 5, 10, 5, 5, 10, 10, 15, 5, 5, 10, 5, 10, 5, 5, 5, 5, 5, 5, 5, 15, 10, 10, 5, 5, 5, 5, 5, 10, 5, 5, 10, 5, 10, 10, 5, 5, 5, 5, 10, 10, 10, 5, 10, 5, 5, 5, 15, 5, 5, 5, 5, 5, 5, 5, 5, 5, 5, 5, 5, 5, 5, 5, 5, 10, 5, 5, 5, 5, 5, 5, 5, 5, 10, 5, 5, 5, 5, 10, 5, 5, 5, 5, 5, 5, 5, 5, 5, 5, 10, 5, 10, 5, 5, 5, 5, 5, 10, 5, 5, 5, 5, 10, 5, 5, 5, 5, 5, 15, 5, 5, 5, 5, 5, 5, 10, 10, 10, 10, 5, 5, 5, 5, 5, 5, 5, 5, 5, 10, 5, 20, 5, 20, 10, 5, 5, 5, 5, 10, 5, 5, 10, 10, 10, 10, 10, 5, 10, 5, 10, 5, 5, 10, 5, 5, 10, 5, 5, 10, 5, 5, 10, 5, 5, 10, 15, 5, 5, 5, 15, 15, 5, 5, 5, 10, 5, 5, 15, 5, 5, 5, 10, 5, 5, 5, 5, 10, 10, 5, 5, 10, 5, 10, 15, 10, 5, 10, 10, 10, 10, 10, 10, 5, 5, 5, 10, 5, 5, 5, 10, 5, 10, 5, 5, 10, 5, 5, 10, 5, 5, 5, 5, 5, 5, 5, 5, 5, 5, 5, 5, 5, 10, 10, 5, 5, 5, 5, 5, 5, 10, 10, 10, 5, 5, 5, 5, 5, 5, 5, 5, 5, 5, 5, 5, 5, 5, 5, 5, 5, 5, 5, 5, 5, 5, 10, 5, 5, 10, 5, 5, 5, 5, 5, 5, 5, 5, 5, 5, 5, 5, 5, 5, 5, 5, 5, 5, 5, 5, 5, 5, 5, 5, 5, 5, 5, 5, 5, 5, 5, 5, 5, 5, 5, 5, 5, 5, 5, 5, 5, 5, 5, 5, 5, 5, 5, 5, 5, 5, 5, 5, 5, 10, 5, 5, 5, 5, 10, 5, 5, 10, 5, 5, 5, 5, 5, 5, 5, 5, 5, 5, 5, 5, 5, 5, 5, 5, 5, 5, 5, 5, 5, 5, 5, 5, 5, 5, 5, 5, 5, 5, 20, 15, 15, 10, 10, 5, 5, 10, 15, 15, 15, 15, 5, 10, 5, 10, 5, 5, 5, 5, 15, 5, 5, 5, 10, 5, 5, 5, 10, 5, 5, 5, 5, 5, 5, 5, 5, 10, 5, 5, 5, 5, 5, 5, 5, 5, 5, 5, 10, 5, 5, 5, 5, 5, 5, 5, 5, 5, 5, 5, 5, 5, 5, 5, 5, 5, 5, 5, 5, 5, 5, 5, 5, 5, 20, 5, 5, 5, 5, 5, 5, 5, 5, 5, 5, 10, 5, 5, 5, 5, 5, 5, 5, 5, 5, 5, 10, 5, 10, 5, 10, 10, 10, 5, 5, 5, 5, 5, 5, 5, 10, 5, 5, 10, 5, 10, 10, 10, 10, 5, 5, 5, 5, 5, 5, 5, 5, 5, 5, 5, 5, 5, 5, 10, 5, 5, 5, 5, 5, 5, 5, 5, 5, 5, 5, 5, 5, 5, 10, 5, 5, 5, 5, 5, 5, 5, 5, 5, 5, 5, 5, 5, 5, 5, 10, 10, 5, 5, 5, 10, 10, 5, 5, 5, 5, 5, 5, 5, 5, 10, 5, 10, 5, 5, 5, 5, 10, 5, 5, 5, 5, 10, 5, 5, 5, 5, 5, 5, 5, 5, 5, 5, 5, 5, 5, 5, 10, 5, 5, 5, 5, 5, 5, 5, 10, 10, 15, 15, 5, 5, 5, 10, 5, 10, 5, 10, 5, 5, 5, 5, 5, 5, 5, 5, 5, 5, 5, 5, 5, 5, 5, 5, 5, 5, 5, 10, 10, 10, 10, 10, 10, 5, 5, 5, 5, 5, 5, 5, 5, 5, 5, 5, 5, 5, 5, 5, 5, 10, 10, 5, 10, 10, 5, 5, 10, 5, 5, 5, 5, 5, 5, 5, 5, 5, 5, 5, 5, 5, 5, 5, 5, 5, 10, 5, 5, 5, 5, 5, 5, 5, 5, 5, 5, 5, 5, 5, 5, 5, 5, 5, 5, 5, 5, 5, 5, 5, 5, 5, 5, 10, 5, 5, 5, 5, 5, 5, 5, 5, 5, 5, 5, 5, 5, 5, 5, 5, 5, 5, 5, 5, 5, 5, 5, 5, 5, 5, 5, 5, 5, 5, 5, 5, 5, 5, 5, 5, 5, 5, 5, 5, 5, 5, 5, 5, 5, 5, 5, 5, 5, 5, 5, 5, 5, 5, 5, 5, 5, 5, 5, 10, 5, 5, 5, 5, 10, 5, 5, 5, 5, 5, 5, 5, 10, 5, 5, 5, 5, 10, 5, 5, 5, 5, 5, 5, 5, 5, 5, 5, 5, 5, 5, 5, 5, 5, 5, 5, 5, 5, 5, 5, 5, 5, 5, 5, 5, 5, 5, 5, 5, 5, 5, 5, 5, 5, 5, 10, 10, 10, 5, 5, 5, 10, 5, 5, 5, 5, 5, 5, 10, 5, 5, 10, 10, 5, 5, 5, 5, 5, 5, 5, 5, 5, 5, 15, 5, 5, 5, 10, 5, 15, 10, 15, 5, 5, 5, 5, 5, 5, 5, 5, 5, 10, 5, 5, 5, 5, 5, 5, 5, 5, 5, 5, 5, 5, 10, 10, 5, 5, 5, 5, 5, 10, 10, 10, 5, 5, 5, 5, 5, 5, 5, 5, 5, 5, 5, 5, 10, 10, 10, 5, 5, 5, 5, 5, 5, 5, 5, 5, 5, 5, 5, 5, 5, 5, 5, 5, 5, 5, 5, 10, 10, 5, 5, 10, 5, 5, 5, 5, 5, 5, 5, 5, 5, 5, 5, 5, 5, 10, 5, 5, 10, 10, 5, 10, 5, 5, 5, 5, 5, 10, 5, 5, 5, 5, 5, 5, 5, 5, 5, 5, 5, 5, 10, 5, 5, 5, 5, 5, 5, 5, 5, 5, 5, 5, 10, 5, 5, 5, 5, 5, 5, 5, 5, 5, 5, 5, 5, 5, 5, 5, 5, 5, 10, 10, 10, 10, 5, 5, 5, 5, 10, 5, 5, 5, 5, 5, 5, 5, 5, 5, 15, 5, 5, 5, 5, 10, 10, 5, 10, 10, 5, 5, 5, 5, 5, 5, 5, 5, 5, 5, 5, 5, 5, 5, 5, 5, 5, 5, 5, 5, 5, 5, 5, 10, 5, 5, 10, 5, 10, 5, 10, 5, 10, 5, 10, 5, 10, 5, 5, 10, 10, 10, 5, 5, 5, 10, 10, 5, 5, 15, 5, 5, 10, 5, 5, 5, 5, 5, 5, 5, 5, 5, 5, 5, 5, 5, 5, 10, 5, 15, 10, 5, 5, 5, 5, 5, 5, 5, 10, 5, 5, 5, 5, 5, 5, 10, 5, 5, 5, 10, 10, 5, 5, 5, 5, 5, 5, 5, 5, 10, 5, 5, 5, 5, 5, 5, 5, 5, 5, 5, 5, 5, 5, 5, 5, 5, 5, 5, 10, 15, 5, 5, 5, 5, 5, 5, 5, 5, 5, 5, 5, 5, 5, 5, 5, 20, 5, 5, 5, 5, 5, 5, 5, 5, 5, 5, 5, 5, 5, 5, 5, 5, 5, 5, 10, 5, 5, 5, 5, 5, 5, 5, 5, 5, 5, 5, 5, 5, 5, 5, 5, 5, 5, 10, 5, 5, 5, 5, 5, 5, 5, 5, 5, 5, 5, 10, 5, 5, 5, 5, 5, 5, 5, 5, 5, 5, 5, 5, 5, 5, 5, 5, 5, 5, 5, 5, 10, 10, 10, 15, 15, 5, 5, 5, 5, 5, 5, 5, 5, 5, 5, 5, 5, 5, 5, 5, 5, 5, 5, 5, 5, 5, 5, 5, 5, 5, 5, 5, 5, 5, 5, 5, 5, 5, 5, 5, 5, 5, 5, 5, 5, 5, 10, 10, 5, 5, 5, 5, 5, 5, 5, 10, 5, 5, 5, 5, 5, 10, 5, 10, 5, 5, 5, 5, 5, 5, 5, 20, 20, 5, 5, 5, 5, 5, 5, 5, 5, 5, 5, 5, 5, 5, 5, 10, 5, 5, 5, 5, 5, 5, 5, 5, 10, 10, 10, 10, 5, 5, 5, 5, 5, 5, 5, 5, 5, 5, 5, 10, 5, 5, 5, 5, 5, 5, 5, 5, 5, 5, 5, 5, 5, 5, 10, 5, 5, 5, 5, 5, 5, 5, 5, 5, 10, 5, 5, 5, 5, 5, 10, 10, 5, 10, 5, 5, 5, 5, 5, 5, 5, 5, 10, 10, 5, 5, 10, 5, 5, 5, 5, 5, 5, 5, 5, 5, 5, 5, 5, 5, 5, 5, 5, 5, 5, 5, 5, 5, 5, 5, 5, 5, 5, 5, 5, 5, 15, 5, 10, 5, 5, 5, 20, 5, 5, 5, 5, 5, 5, 5, 5, 5, 5, 5, 5, 5, 5, 5, 5, 10, 5, 10, 5, 5, 5, 5, 5, 5, 5, 5, 5, 5, 5, 5, 5, 5, 5, 5, 5, 5, 5, 5, 5, 5, 5, 5, 10, 5, 15, 5, 10, 5, 15, 5, 5, 10, 5, 10, 5, 5, 5, 5, 5, 5, 5, 5, 5, 5, 10, 5, 10, 5, 15, 5, 5, 5, 5, 5, 5, 5, 5, 5, 10, 5, 5, 5, 5, 20, 20, 5, 5, 5, 5, 5, 5, 5, 5, 5, 5, 5, 5, 5, 5, 5, 5, 10, 10, 5, 5, 5, 5, 5, 5, 5, 5, 5, 5, 10, 5, 5, 5, 5, 5, 5, 5, 5, 5, 5, 5, 5, 5, 5, 10, 5, 10, 10, 5, 5, 5, 5, 5, 5, 5, 5, 5, 5, 5, 5, 5, 5, 5, 5, 5, 10, 15, 5, 5, 5, 5, 5, 5, 10, 5, 5, 5, 5, 10, 5, 5, 5, 5, 10, 5, 5, 10, 5, 5, 10, 5, 10, 5, 10, 5, 10, 5, 5, 5, 5, 5, 10, 20, 5, 5, 10, 10, 5, 5, 10, 5, 5, 10, 10, 5, 10, 10, 5, 15, 5, 10, 10, 5, 5, 5, 10, 5, 5, 10, 5, 10, 10, 5, 5, 5, 5, 5, 5, 5, 5, 5, 5, 5, 5, 5, 5, 5, 5, 5, 5, 5, 5, 5, 5, 10, 5, 5, 5, 5, 5, 5, 5, 5, 5, 5, 5, 5, 5, 5, 5, 5, 5, 5, 5, 5, 5, 5, 5, 5, 5, 5, 5, 10, 5, 5, 5, 10, 5, 5, 5, 5, 5, 10, 5, 5, 5, 5, 5, 10, 5, 10, 5, 5, 5, 5, 5, 5, 5, 10, 5, 10, 10, 10, 10, 5, 5, 5, 5, 5, 10, 5, 5, 5, 5, 5, 5, 5, 5, 5, 5, 5, 10, 10, 5, 5, 5, 5, 10, 5, 5, 15, 15, 10, 5, 5, 5, 10, 5, 5, 5, 5, 5, 5, 5, 10, 5, 5, 5, 5, 5, 5, 5, 5, 5, 5, 5, 5, 5, 5, 10, 5, 5, 5, 5, 5, 5, 10, 10, 5, 5, 5, 5, 5, 20, 5, 5, 5, 20, 5, 5, 5, 5, 20, 5, 5, 5, 5, 5, 5, 10, 5, 5, 5, 5, 5, 5, 5, 5, 5, 5, 5, 10, 10, 10, 10, 10, 5, 5, 5, 5, 5, 5, 5, 5, 5, 5, 5, 10, 10, 10, 10, 10, 5, 5, 10, 5, 5, 5, 5, 5, 5, 5, 5, 5, 5, 5, 5, 10, 5, 10, 5, 5, 10, 5, 10, 5, 5, 5, 10, 5, 10, 5, 5, 5, 10, 5, 5, 10, 5, 10, 5, 5, 10, 5, 10, 5, 5, 10, 10, 5, 5, 5, 5, 5, 5, 5, 5, 10, 5, 5, 5, 5, 5, 5, 5, 5, 5, 5, 5, 5, 5, 5, 5, 10, 10, 10, 10, 10, 10, 5, 5, 5, 5, 10, 5, 10, 5, 5, 5, 5, 5, 5, 5, 5, 5, 5, 5, 5, 5, 5, 5, 5, 5, 5, 5, 5, 5, 5, 5, 5, 5, 5, 5, 5, 5, 5, 5, 5, 5, 5, 5, 5, 5, 5, 10, 5, 5, 5, 5, 5, 5, 5, 5, 5, 5, 5, 5, 5, 5, 5, 5, 5, 5, 5, 5, 10, 10, 5, 15, 5, 5, 10, 5, 10, 5, 5, 5, 5, 10, 10, 5, 10, 10, 5, 10, 5, 10, 10, 5, 5, 5, 5, 5, 5, 5, 5, 5, 10, 5, 5, 5, 10, 5, 5, 5, 10, 5, 10, 5, 5, 5, 10, 5, 10, 5, 5, 10, 5, 5, 5, 5, 5, 5, 5, 5, 5, 10, 5, 5, 5, 5, 5, 5, 5, 10, 5, 10, 5, 5, 5, 5, 10, 5, 10, 10, 5, 5, 5, 5, 5, 5, 5, 5, 5, 5, 5, 5, 10, 5, 5, 5, 5, 5, 5, 5, 5, 5, 5, 5, 5, 5, 5, 5, 10, 10, 20, 5, 5] p=0.39"]
S2 -> S2 [label="7 [15, 5, 15, 5, 5, 5, 5, 5, 5, 5, 5, 5, 5, 5, 5, 10, 10, 10, 15, 5, 15, 15, 15, 15, 15, 15, 15] p=0.0"]
S2 -> S2 [label="4 [5, 5, 5, 5, 5, 5, 5, 5, 5, 5, 5, 5, 5, 5, 5, 5, 5, 5, 5, 5, 5, 5, 5, 5, 5, 5, 5, 5, 5, 5, 5, 5, 5, 5, 5, 5, 10, 5, 10, 5, 10, 5, 10, 5, 5, 10, 5, 10, 5, 5, 5, 5, 5, 5, 10, 5, 5, 5, 5, 5, 5, 5, 5, 5, 5, 5, 5, 5, 5, 5, 5, 5, 5, 5, 5, 5, 10, 5, 10, 10, 5, 5, 5, 5, 5, 5, 5, 5, 5, 5, 5, 5, 5, 5, 5, 5, 5, 5, 5, 5, 5, 5, 10, 10, 10, 10, 10, 5, 5, 5, 5, 5, 5, 5, 5, 5, 5, 5, 5, 5, 5, 5, 5, 5, 5, 10, 5, 5, 5, 5, 5, 5, 5, 5, 5, 5, 5, 5, 5, 5, 5, 5, 5, 5, 5, 5, 5, 5, 5, 5, 5, 5, 5, 5, 5, 5, 5, 5, 5, 5, 5, 5, 5, 5, 5, 5, 5, 5, 5, 5, 5, 5, 5, 5, 5, 5, 5, 5, 5, 5, 5, 5, 5, 5, 5, 5, 5, 5, 5, 5, 5, 5, 5, 5, 5, 10, 10, 5, 10, 15, 5, 5, 15, 5, 10, 10, 5, 5, 5, 5, 5, 10, 10, 10, 5, 5, 5, 5, 10, 5, 5, 5, 5, 5, 10, 5, 10, 5, 10, 10, 10, 5, 5, 10, 5, 5, 5, 5, 5, 5, 10, 5, 10, 5, 5, 5, 10, 10, 5, 10, 5, 5, 5, 5, 10, 10, 10, 10, 5, 5, 10, 10, 5, 5, 5, 10, 10, 10, 10, 10, 5, 5, 10, 5, 5, 5, 5, 5, 5, 5, 5, 5, 15, 15, 5, 5, 10, 5, 10, 5, 10, 5, 10, 5, 5, 10, 5, 5, 5, 5, 5, 5, 5, 20, 5, 5, 5, 5, 10, 5, 10, 5, 5, 5, 5, 10, 5, 5, 5, 5, 5, 5, 5, 5, 5, 5, 5, 5, 5, 10, 5, 5, 5, 5, 5, 5, 10, 5, 10, 5, 5, 10, 5, 5, 5, 5, 5, 5, 5, 5, 5, 5, 5, 5, 5, 10, 5, 5, 5, 5, 5, 10, 10, 10, 5, 5, 5, 5, 5, 5, 5, 5, 10, 5, 10, 5, 5, 5, 10, 10, 10, 5, 5, 10, 10, 5, 5, 5, 10, 5, 5, 5, 5, 5, 5, 5, 5, 5, 5, 5, 10, 5, 10, 5, 5, 10, 10, 10, 5, 5, 5, 5, 5, 5, 10, 5, 5, 10, 5, 5, 5, 5, 5, 5, 5, 10, 5, 5, 5, 5, 5, 5, 5, 5, 10, 10, 10, 5, 5, 5, 5, 5, 10, 5, 10, 5, 5, 5, 10, 5, 5, 5, 5, 5, 5, 10, 5, 5, 5, 5, 5, 5, 5, 5, 5, 5, 5, 5, 10, 10, 5, 5, 5, 5, 5, 5, 10, 10, 5, 5, 5, 5, 5, 5, 5, 5, 5, 5, 10, 5, 5, 5, 5, 5, 5, 5, 10, 5, 10, 10, 5, 5, 5, 5, 5, 10, 10, 5, 5, 5, 5, 5, 5, 5, 5, 5, 5, 5, 5, 5, 5, 5, 5, 5, 5, 5, 5, 5, 5, 5, 5, 5, 5, 5, 5, 5, 5, 5, 5, 5, 5, 5, 10, 5, 10, 5, 5, 5, 5, 5, 10, 10, 10, 10, 5, 5, 5, 5, 5, 5, 5, 5, 5, 5, 10, 10, 10, 10, 10, 5, 5, 5, 5, 5, 10, 5, 5, 5, 5, 5, 5, 5, 5, 5, 5, 5, 5, 10, 5, 5, 5, 5, 10, 5, 10, 5, 5, 5, 5, 5, 5, 5, 10, 10, 5, 5, 5, 10, 5, 10, 5, 5, 5, 5, 5, 5, 5, 5, 5, 5, 5, 5, 5, 5, 5, 5, 5, 5, 10, 5, 5, 5, 5, 5, 5, 5, 5, 10, 5, 5, 5, 5, 5, 5, 5, 10, 5, 5, 5, 5, 5, 5, 5, 5, 5, 5, 5, 5, 10, 10, 10, 10, 5, 5, 10, 5, 10, 5, 5, 5, 5, 5, 5, 5, 5, 5, 5, 5, 5, 10, 10, 10, 5, 5, 5, 5, 5, 5, 5, 10, 5, 5, 5, 5, 5, 5, 5, 5, 5, 5, 5, 5, 10, 10, 5, 10, 10, 5, 5, 5, 5, 20, 5, 5, 5, 5, 5, 5, 5, 5, 5, 5, 5, 5, 5, 10, 5, 5, 5, 5, 5, 5, 5, 5, 5, 5, 5, 5, 5, 5, 5, 5, 5, 5, 5, 5, 5, 5, 5, 5, 5, 5, 5, 5, 5, 5, 5, 5, 5, 5, 5, 5, 10, 5, 5, 5, 10, 5, 5, 5, 5, 5, 10, 5, 5, 5, 5, 5, 5, 10, 5, 5, 5, 5, 5, 5, 5, 5, 5, 5, 5, 5, 5, 5, 5, 5, 5, 5, 5, 5, 5, 5, 5, 5, 5, 5, 5, 5, 5, 5, 5, 5, 5, 5, 5, 5, 5, 5, 5, 5, 5, 5, 5, 5, 5, 5, 5, 5, 5, 5, 5, 15, 5, 15, 5, 20, 20, 5, 20, 20, 5, 5, 10, 5, 5, 5, 20, 5, 5, 5, 5, 5, 20, 5, 5, 5, 5, 5, 5, 5, 5, 5, 5, 5, 5, 10, 5, 10, 5, 5, 5, 5, 5, 5, 5, 5, 5, 5, 5, 5, 5, 5, 5, 5, 5, 5, 5, 5, 5, 5, 5, 15, 5, 5, 5, 10, 5, 5, 10, 15, 10, 5, 5, 5, 5, 5, 10, 10, 10, 5, 5, 5, 5, 5, 10, 10, 5, 5, 5, 5, 5, 5, 5, 10, 5, 5, 10, 10, 5, 5, 5, 10, 5, 5, 5, 5, 5, 5, 5, 5, 5, 5, 5, 5, 5, 5, 5, 5, 5, 5, 15, 5, 5, 5, 5, 5, 5, 5, 5, 5, 5, 5, 5, 5, 5, 5, 5, 5, 5, 5, 5, 5, 5, 5, 15, 15, 5, 5, 5, 5, 5, 5, 5, 10, 10, 5, 5, 5, 5, 5, 5, 10, 10, 10, 5, 5, 15, 15, 15, 5, 5, 5, 5, 5, 5, 5, 5, 5, 5, 5, 5, 5, 5, 5, 5, 5, 5, 5, 5, 5, 5, 5, 5, 5, 15, 5, 5, 5, 5, 5, 15, 5, 20, 5, 5, 10, 10, 5, 15, 5, 5, 5, 5, 20, 5, 5, 5, 10, 10, 5, 5, 5, 5, 5, 5, 5, 5, 5, 5, 5, 5, 10, 5, 10, 5, 5, 5, 5, 5, 5, 5, 5, 5, 5, 5, 5, 5, 20, 20, 5, 5, 5, 5, 5, 5, 5, 5, 15, 5, 5, 5, 5, 5, 5, 15, 5, 10, 5, 5, 5, 5, 15, 5, 5, 5, 5, 5, 5, 10, 10, 5, 10, 5, 5, 5, 10, 5, 5, 10, 5, 5, 5, 5, 5, 5, 5, 5, 5, 5, 5, 5, 5, 5, 5, 5, 5, 5, 5, 5, 5, 5, 5, 5, 10, 5, 20, 5, 5, 5, 5, 5, 5, 5, 5, 5, 5, 5, 5, 5, 5, 5, 5, 5, 5, 5, 5, 5, 5, 5, 5, 5, 5, 5, 5, 5, 5, 5, 5, 5, 5, 5, 5, 5, 5, 5, 5, 5, 5, 5, 5, 5, 5, 5, 5, 5, 5, 5, 5, 10, 5, 5, 5, 5, 5, 5, 5, 5, 5, 5, 5, 5, 5, 5, 5, 5, 5, 5, 5, 5, 5, 5, 5, 5, 5, 5, 5, 5, 5, 5, 5, 10, 10, 5, 5, 5, 5, 5, 5, 10, 5, 5, 5, 5, 5, 5, 10, 5, 5, 10, 5, 10, 5, 5, 10, 5, 10, 5, 5, 5, 5, 5, 5, 5, 5, 5, 5, 5, 5, 5, 10, 10, 5, 5, 5, 5, 5, 10, 5, 5, 5, 5, 5, 5, 5, 5, 5, 5, 5, 10, 5, 5, 5, 5, 5, 5, 5, 5, 10, 5, 5, 10, 5, 5, 5, 10, 5, 5, 5, 5, 5, 5, 5, 5, 5, 5, 5, 5, 5, 5, 5, 5, 5, 10, 5, 5, 10, 5, 5, 5, 10, 5, 5, 5, 5, 5, 5, 5, 20, 20, 20, 10, 5, 5, 5, 5, 5, 5, 10, 5, 5, 5, 5, 5, 5, 5, 5, 5, 5, 5, 10, 15, 15, 5, 5, 5, 5, 5, 5, 10, 5, 5, 5, 5, 5, 5, 5, 5, 5, 5, 10, 5, 5, 10, 5, 5, 10, 5, 5, 5, 5, 5, 5, 5, 5, 10, 5, 5, 5, 5, 5, 5, 5, 10, 5, 10, 5, 10, 5, 5, 5, 15, 5, 5, 5, 5, 5, 5, 5, 5, 5, 10, 5, 5, 5, 5, 5, 5, 5, 5, 5, 5, 5, 5, 5, 5, 5, 5, 5, 10, 15, 5, 5, 20, 5, 5, 5, 5, 5, 5, 5, 20, 5, 5, 5, 5, 10, 5, 5, 5, 5, 5, 5, 5, 5, 5, 5, 5, 5, 5, 5, 15, 5, 5, 5, 5, 5, 5, 5, 5, 5, 5, 5, 5, 5, 20, 5, 5, 5, 5, 5, 5, 5, 5, 5, 5, 5, 5, 5, 5, 5, 5, 15, 5, 5, 10, 5, 5, 5, 15, 5, 5, 15, 10, 5, 10, 20, 5, 10, 5, 10, 20, 5, 5, 5, 5, 5, 5, 5, 5, 5, 5, 5, 5, 5, 5, 5, 5, 5, 5, 5, 5, 5, 5, 5, 5, 5, 5, 5, 5, 5, 5, 5, 10, 10, 5, 5, 5, 10, 10, 5, 5, 5, 5, 5, 5, 5, 5, 5, 5, 5, 5, 10, 10, 5] p=0.21"]
S2 -> S2 [label="2 [10, 5, 5, 5, 5, 5, 5, 5, 5, 5, 5, 5, 5, 10, 10, 20, 5, 10, 20, 10, 5, 20, 5, 5, 20, 5, 10, 10, 10, 20, 10, 10, 20, 10, 10, 10, 20, 5, 10, 20, 10, 20, 5, 5, 5, 5, 10, 5, 10, 10, 10, 5, 5, 5, 5, 5, 5, 5, 5, 5, 10, 5, 5, 5, 5, 5, 5, 5, 5, 5, 5, 5, 5, 5, 5, 5, 10, 5, 5, 5, 5, 5, 5, 5, 10, 10, 5, 5, 5, 10, 5, 10, 5, 5, 5, 15, 15, 5, 5, 5, 5, 5, 5, 5, 5, 5, 5, 5, 5, 5, 5, 5, 5, 5, 15, 5, 5, 5, 5, 5, 5, 5, 5, 5, 5, 5, 5, 5, 5, 5, 5, 5, 5, 5, 5, 15, 10, 5, 5, 5, 5, 5, 5, 5, 5, 5, 5, 15, 10, 10, 5, 5, 5, 5, 15, 5, 5, 10, 10, 10, 10, 10, 10, 10, 10, 15, 10, 5, 5, 5, 5, 10, 5, 5, 10, 10, 5, 10, 5, 10, 10, 10, 10, 10, 20, 20, 5, 5, 5, 10, 5, 10, 15, 15, 15, 5, 5, 5, 20, 15, 10, 20, 5, 10, 10, 5, 5, 5, 5, 5, 5, 5, 5, 5, 5, 5, 5, 5, 5, 5, 5, 5, 5, 5, 5, 5, 5, 5, 5, 5, 5, 5, 5, 5, 5, 5, 10, 5, 5, 5, 5, 5, 10, 5, 5, 10, 10, 5, 5, 5, 5, 10, 5, 5, 5, 5, 15, 5, 5, 5, 5, 5, 5, 5, 5, 5, 5, 5, 5, 5, 5, 10, 10, 5, 5, 10, 5, 5, 5, 5, 5, 5, 5, 5, 10, 10, 10, 5, 5, 5, 5, 10, 10, 5, 10, 10, 10, 5, 10, 20, 20, 5, 10, 15, 5, 5, 5, 5, 5, 5, 5, 5, 10, 10, 5, 5, 10, 10, 5, 5, 5, 10, 10, 5, 10, 5, 5, 10, 5, 5, 5, 5, 5, 5, 10, 10, 10, 5, 5, 5, 5, 5, 5, 5, 5, 5, 5, 10, 10, 10, 10, 20, 10, 20, 15, 10, 20, 15, 15, 15, 5, 15, 5, 15, 5, 15, 15, 5, 15, 15, 10, 5, 10, 10, 5, 5, 5, 5, 5, 5, 5, 5, 5, 10, 10, 5, 5, 10, 20, 10, 10, 10, 10, 10, 5, 5, 5, 5, 5, 10, 5, 15, 15, 5, 5, 5, 5, 10, 10, 5, 10, 10, 5, 5, 5, 5, 5, 5, 5, 5, 5, 5, 5, 10, 10, 5, 5, 5, 10, 10, 10, 10, 10, 10, 5, 5, 10, 10, 5, 10, 10, 10, 5, 10, 5, 5, 10, 10, 5, 5, 5, 5, 5, 5, 10, 5, 20, 10, 10, 15, 15, 10, 5, 5, 20, 5, 5, 20, 5, 5, 10, 5, 5, 5, 5, 10, 15, 10, 5, 5, 20, 20, 20, 20, 5, 5, 5, 5, 5, 5, 5, 10, 20, 10, 15, 15, 5, 5, 5, 5, 10, 5, 5, 5, 5, 5, 5, 5, 20, 5, 5, 5, 5, 5, 5, 5, 5, 5, 5, 15, 10, 5, 5, 5, 5, 5, 5, 5, 5, 5, 5, 5, 5, 5, 5, 5, 5, 5, 5, 5, 5, 5, 5, 5, 5, 5, 5, 5, 5, 5, 5, 5, 5, 5, 5, 5, 5, 5, 5, 5, 5, 5, 5, 5, 5, 5, 10, 10, 10, 20, 5, 5, 5, 10, 5, 5, 5, 5, 5, 5, 5, 5, 5, 5, 5, 5, 5, 5, 5, 5, 5, 5, 5, 5, 5, 5, 5, 5, 5, 5, 5, 5, 5, 5, 5, 5, 5, 5, 5, 5, 5, 5, 5, 10, 10, 5, 20, 5, 5, 20, 5, 5, 5, 5, 5, 5, 5, 5, 5, 5, 5, 5, 5, 5, 5, 5, 10] p=0.09"]
S13 -> S14 [label="4 [5, 5, 10, 5, 5, 5, 10, 5, 5, 5, 5, 5, 10, 5, 5, 10, 5, 5, 5, 5, 10, 5, 5, 5, 5, 5, 5, 5, 5, 5, 5, 10, 5, 5, 5, 5, 10, 5, 5, 5, 5, 10, 5, 5, 5, 10, 5, 5, 15, 5, 10, 5, 5, 5, 10, 10, 5, 5, 10, 5, 5, 10, 5, 10, 5, 15, 10, 5, 5, 10, 5, 5, 5, 5, 5, 10, 5, 5, 10, 5, 10, 5, 5, 5, 5, 5, 5, 5, 5, 5, 5, 5, 5, 10, 5, 5, 5, 5, 5, 5, 10, 5, 5, 15, 5, 10, 5, 10, 10, 5, 5, 10, 5, 10, 10, 5] p=0.27"]
S13 -> S92 [label="3 [5, 10, 5, 5, 5, 5, 5, 5, 15, 5, 5, 5, 5, 5, 5, 5, 5, 5, 5, 5, 5, 5, 5, 5, 10, 5, 5, 10, 5, 5, 5, 10, 10, 15, 5, 10, 10, 5, 5, 5, 5, 10, 5, 10, 5, 5, 5, 5, 5, 5, 5, 10, 5, 10, 15, 5, 5, 5, 5, 10, 5, 5, 5, 5, 5, 5, 10, 5, 10, 5, 10, 5, 10, 10, 5, 5, 10, 5, 5, 15, 5, 5, 5, 5, 5, 5, 5, 5, 10, 5, 5, 10, 5, 10, 5, 5, 5, 15, 5, 5, 5, 5, 5, 10, 5, 10, 5, 5, 10, 5, 10, 5, 10, 15, 5, 5, 5, 5, 5, 10, 5, 5, 5, 5, 5, 15, 5, 5, 5, 5, 5, 10, 5, 10, 5, 5, 5, 5, 5, 5, 5, 10, 5, 5, 10, 5, 5, 5, 5, 5, 15, 5, 10, 5, 5, 5, 5, 5, 5, 5, 5, 5, 5, 5, 5, 5, 5, 5, 5, 5, 5, 5, 5, 10, 5, 5, 5, 10, 15, 5, 10, 10, 5, 5, 5, 5, 10, 5, 5, 5, 5, 5, 5, 10, 5, 5, 5, 5, 10, 5, 5, 5, 5, 5, 10, 5, 10, 10, 5, 5, 15, 5, 5, 5, 5, 5, 10, 5, 10, 5, 10, 5, 5, 5, 5, 5, 5, 5, 10, 5, 10, 5, 5, 10, 5, 5, 10, 5, 5, 5, 5, 5, 10, 5, 5, 5, 5, 5, 5, 5, 5, 10, 5, 5, 5, 5, 10, 5, 5, 5, 5, 5, 15, 5] p=0.61"]
S13 -> S149 [label="2 [5, 5, 5, 5, 5, 5, 10, 10, 5, 15, 5, 10, 15, 5, 5, 10, 5, 5, 10, 5, 5, 5, 5, 5, 5, 5, 10, 5, 5, 10, 10, 5, 15, 5, 10, 15, 5, 5, 10, 5, 5, 15, 5, 10, 10, 10] p=0.11"]
S13 -> S2 [label="1 [5, 10, 5, 10, 10] p=0.01"]
S13 -> S2 [label="6 [10, 10] p=0.0"]
S24 -> S25 [label="5 [5, 15, 5, 5, 10, 5, 10, 10, 5, 5, 10, 5, 5, 5, 10, 5, 5, 5, 5, 5, 5, 5, 5, 5, 10, 5, 15, 10, 5, 10, 10, 10, 5, 10, 5, 5, 10, 5, 5, 5, 5, 5, 10, 5, 5, 5, 10, 10, 5, 5, 5, 5, 10, 10, 5, 10, 5, 5, 5, 5, 5, 10, 10, 5, 5, 10, 5, 5, 5, 5, 5, 5, 5, 15, 20, 15] p=0.54"]
S24 -> S291 [label="3 [5, 15, 5, 5, 5, 10, 5, 5, 5, 10, 10, 5, 10, 5, 10, 5, 5, 15, 5, 15, 5, 5, 5, 15, 5, 5, 15, 5, 5, 5, 5, 10, 10, 5, 5, 5, 5, 5, 5, 10, 5, 5] p=0.3"]
S24 -> S149 [label="2 [5, 5, 5, 5, 5, 20, 5, 5, 5, 5, 10, 5, 5, 5, 5, 5, 5, 5] p=0.13"]
S24 -> S2 [label="1 [5, 5, 5] p=0.02"]
S24 -> S2 [label="6 [5] p=0.01"]
S35 -> S26 [label="4 [5, 10, 5, 5, 10, 5, 5, 5, 5, 5, 10, 5, 10, 5, 5, 5, 5, 5, 5, 5, 5, 10, 15, 5, 5, 5, 5, 10, 5, 10, 5, 5, 5, 5, 5, 5, 5, 5, 10, 20, 5, 5, 10, 5, 5, 10, 5, 5, 5, 5, 5, 5, 5, 5, 5, 5, 5, 5, 5, 5, 10, 10, 10, 5, 5, 5, 5, 5, 5, 5, 5, 5, 5, 5, 5, 5, 5, 5, 5, 5, 5, 5, 10, 5, 10] p=0.25"]
S35 -> S53 [label="3 [10, 10, 10, 10, 5, 10, 10, 10, 10, 5, 5, 10, 5, 10, 10, 10, 5, 10, 5, 5, 5, 5, 10, 5, 10, 5, 5, 5, 15, 5, 5, 5, 5, 10, 5, 5, 10, 10, 10, 10, 5, 15, 15, 5, 20, 10, 5, 5, 5, 5, 5, 5, 5, 5, 5, 5, 5, 5, 5, 10, 5, 15, 5, 10, 10, 5, 5, 10, 5, 15, 5, 5, 10, 5, 5, 5, 10, 15, 5, 10, 5, 5, 10, 5, 5, 5, 5, 10, 5, 10, 5, 5, 20, 5, 5, 10, 5, 5, 5, 5, 5, 10, 10, 5, 10, 5, 5, 5, 5, 5, 5, 5, 5, 5, 10, 15, 5, 10, 5, 5, 10, 5, 5, 5, 10, 5, 5, 5, 5, 5, 5, 10, 5, 5, 15, 5, 5, 10, 5, 5, 10, 5, 5, 5, 5, 5, 10, 5, 5, 5, 10, 5, 5, 5, 5, 5, 5, 5, 5, 5, 10, 5, 5, 5, 5, 5, 5, 5, 5, 5, 5, 5, 5, 5, 15, 5, 10, 5, 5, 5, 5, 5, 5, 5, 5, 5, 5, 15, 5, 5, 10, 5, 5, 10, 5, 5, 5, 5, 5, 10, 5, 5, 5, 10, 5, 5, 5, 5, 5, 5, 5, 5, 5, 5] p=0.62"]
S35 -> S149 [label="2 [5, 15, 10, 5, 10, 5, 5, 5, 15, 10, 10, 5, 5, 5, 5, 5, 10, 5, 10, 5, 10, 5, 5, 5, 5, 5, 5, 5, 10, 15, 5, 5, 10, 5, 5, 5, 5, 10, 15, 5, 10, 5, 10] p=0.12"]
S35 -> S2 [label="1 [5, 5, 10, 10] p=0.01"]
S82 -> S83 [label="5 [5, 5, 5, 5, 5, 5, 5, 5, 5, 5, 5, 5, 5, 5, 5, 5, 5, 5, 5, 5, 5, 10, 5, 5, 5, 10, 5, 5, 5, 5, 5, 5, 5, 5, 5, 5, 5, 10, 5, 10, 5, 5, 5, 5, 5, 5, 5, 5, 10, 5, 5, 5, 5] p=0.72"]
S82 -> S2 [label="2 [5, 5, 5, 5, 5] p=0.07"]
S82 -> S292 [label="4 [5, 5, 5, 10, 5, 5, 5, 5, 5, 5, 5, 5, 5, 5, 5, 5] p=0.22"]
S219 -> S220 [label="3 [20, 5, 5, 5, 5, 5, 5, 5, 10, 5, 5, 5, 5, 5, 20, 5, 15, 5, 10, 15, 10, 5, 10, 5, 5, 5, 5, 10, 10, 5, 5, 15, 5, 5, 5, 5, 10, 15, 5, 5, 10, 5] p=0.54"]
S219 -> S348 [label="4 [5, 5, 5, 5, 5, 5, 5, 5, 5, 5, 5, 20, 15, 5, 5, 5, 20, 5, 10, 5, 5, 5, 5] p=0.29"]
S219 -> S357 [label="2 [5, 10, 10, 10, 20, 10, 20, 10, 5, 5, 15, 20] p=0.15"]
S219 -> S2 [label="1 [15] p=0.01"]
S382 -> S383 [label="4 [5, 5, 5, 5, 5, 5] p=0.35"]
S382 -> S2 [label="5 [5, 5, 5, 5, 5, 5, 5, 5, 5, 5, 5] p=0.65"]
S63 -> S64 [label="3 [10, 5, 5, 5, 20, 5, 10, 10, 5, 5, 5, 5, 5, 5, 5, 10, 5, 5, 5, 5, 5, 10, 5, 5, 5, 5, 20, 5, 10, 10, 5, 5, 5, 5, 5, 5, 5, 10, 5, 5, 5, 5, 5, 5, 5] p=0.21"]
S63 -> S131 [label="5 [5, 5, 5, 5, 5, 5, 10, 10, 10, 5, 5, 5, 10, 20, 5, 5, 10, 10, 5, 5, 5, 20, 5, 5, 5, 5, 5, 5, 5, 5, 5, 5, 10, 5, 5, 5, 15, 5, 5, 15, 5, 5, 5, 5, 5, 5, 15, 5, 10, 5, 5, 5, 5, 5, 15, 5, 5, 10, 5, 10, 10, 5, 5, 5, 5, 5, 5, 10, 5, 10, 10, 10, 5, 10, 5, 5, 10, 5, 20, 5, 5, 10, 10, 5, 5, 5, 20, 5, 5, 5, 5, 15, 5, 5, 5, 5, 5, 5, 5, 5, 10, 5, 5, 5, 10, 5, 5, 5, 5, 15, 10, 5, 5, 15, 5, 5, 5, 5, 5, 5, 15, 5, 10, 5, 5, 5, 15, 5, 5, 10, 5, 15, 5, 5, 10, 5, 10, 10] p=0.65"]
S63 -> S2 [label="2 [5, 5, 5, 5, 5, 5, 10, 5, 5, 5, 5, 5, 5, 5, 10, 5] p=0.08"]
S63 -> S2081 [label="6 [10, 5, 10, 5] p=0.02"]
S63 -> S2 [label="7 [15, 15, 15, 5, 5, 10, 15] p=0.03"]
S63 -> S2 [label="1 [5, 20, 20] p=0.01"]
S2081 -> S2 [label="7 [5, 5, 5, 5, 5] p=0.45"]
S2081 -> S2 [label="3 [10, 5, 5, 5, 5, 5] p=0.55"]
S149 -> S2 [label="3 [5, 5, 5, 5, 5, 5, 5, 5, 5, 5, 5, 5, 5, 5, 5, 5, 5, 5, 5, 5, 5, 5, 5, 5, 5, 5, 5, 5, 5, 5, 5, 5, 5, 5, 5, 5, 5, 5, 5, 5, 5, 5, 5, 5, 5, 5, 5, 5] p=0.18"]
S149 -> S2 [label="4 [5, 5, 5, 5, 5, 5, 5, 5, 5, 5, 5, 5, 5, 5, 5, 5, 5, 5, 5, 5, 5, 5, 5, 5, 5, 5, 5, 5, 5, 5, 5, 5, 5, 5, 5, 5, 5, 5, 5, 5, 5, 5, 5, 5, 5, 5, 5, 5, 5, 5, 5, 5, 5, 5] p=0.2"]
S149 -> S2 [label="5 [5, 5, 5, 5, 5, 5, 5, 5, 5, 5, 5, 5, 5, 5, 5, 5, 5, 5, 5, 5, 5, 5, 5, 5, 5, 5, 5, 5, 5, 5, 5, 5, 5, 5, 5, 5, 5, 5, 5, 5, 5, 5, 5, 5, 5, 5, 5, 5, 5, 5, 5, 5, 5, 5, 5, 5, 5, 5, 5, 5, 5, 5, 5, 5, 5, 5, 5, 5, 5, 5, 5, 5, 5, 5, 5, 5, 5, 5, 5, 5, 5, 5, 5, 5, 5, 5, 5, 5, 5, 5, 5, 5, 5, 5, 5, 5, 5, 5, 5, 5, 5, 5, 5, 5, 5, 5, 5, 5, 5, 5, 5, 5, 5, 5, 5, 5, 5, 5, 5, 5, 5, 5, 5, 5, 5, 5, 5, 5, 5, 5, 5, 5, 5, 5, 5, 5, 5, 5, 5, 5, 5, 5, 5, 5, 5, 5, 5, 5, 5, 5, 5, 5, 5, 5, 5, 5, 5, 5, 5, 5, 5, 5] p=0.61"]
S14 -> S15 [label="5 [5, 5, 10, 5, 10, 5, 5, 5, 5, 10, 10, 5, 10, 5, 5, 5, 5, 5, 5, 5, 10, 5, 5, 5, 5, 10, 5, 5, 5, 10, 10, 5, 10, 5, 15, 10, 10, 5, 5, 10, 10, 5, 10, 5, 5, 5, 5, 5, 5, 10, 5, 5, 5, 5, 5, 5, 10, 10, 15] p=0.51"]
S14 -> S1648 [label="3 [10, 10, 5, 10, 5, 10, 5, 5, 5, 5, 15, 5, 5, 5, 5, 10, 10, 5, 5, 5, 5, 10, 5, 5, 10, 5, 5, 5, 15, 5, 5, 5, 5, 10, 5, 5] p=0.31"]
S14 -> S2 [label="1 [5, 5, 5, 5] p=0.03"]
S14 -> S149 [label="2 [5, 5, 5, 5, 5, 5, 5, 5, 5, 5, 5, 5, 5, 5, 5, 5, 5] p=0.15"]
S25 -> S26 [label="4 [5, 5, 5, 5, 5, 5, 5, 5, 5, 5, 5, 10, 15, 5, 5, 5, 5, 5, 5, 5, 5, 5, 10, 5] p=0.32"]
S25 -> S2 [label="3 [10, 10, 5, 5, 10, 5, 5, 5, 5, 5, 5, 5, 5, 10, 5, 10, 5, 10, 5, 5, 5, 5, 5, 15, 10, 5, 5, 5, 5, 10, 5, 5, 5, 5, 5, 5, 5, 5, 5, 10] p=0.53"]
S25 -> S357 [label="2 [10, 5, 5, 5, 10, 5, 10, 5, 5, 5, 5] p=0.14"]
S25 -> S2 [label="1 [10] p=0.01"]
S53 -> S54 [label="4 [5, 5, 5, 5, 5, 5, 5, 5, 5, 10, 5, 5, 5, 5, 10, 5, 5, 5, 5, 5, 10, 5, 5, 5, 5, 10, 5, 5, 5, 5, 5, 5, 10, 5, 5, 5, 5, 10, 5, 5, 5, 5, 5, 5, 5, 5, 5, 5, 5, 5, 5, 5, 10, 5, 5, 5, 5, 10, 5, 5, 5, 5, 5, 5, 5, 5, 5, 5, 5, 5] p=0.33"]
S53 -> S2 [label="6 [5, 10, 5, 5] p=0.02"]
S53 -> S95 [label="5 [5, 10, 5, 10, 5, 5, 5, 5, 5, 10, 5, 10, 5, 5, 5, 5, 10, 5, 5, 5, 5, 5, 10, 5, 5, 5, 5, 10, 5, 15, 5, 10, 5, 5, 5, 10, 5, 5, 5, 10, 5, 10, 5, 5, 5, 5, 10, 5, 10, 5, 10, 5, 5, 5, 5, 5, 10, 5, 5, 5, 5, 10, 5, 15, 5, 10, 5, 5, 10, 5, 5, 10, 5, 10, 10, 5, 5, 5, 5, 5, 5, 5, 10, 15, 10, 5, 5, 5, 10, 5, 10, 5, 10, 5, 5, 5, 10, 5, 5, 5, 5, 5, 5, 5, 5, 5, 10, 5, 5, 5, 10, 5, 5, 5, 5, 5, 5, 5, 10, 10, 5, 5, 10, 5, 5, 5, 5, 5] p=0.6"]
S53 -> S2 [label="2 [5, 5, 5, 5, 5, 5, 5, 5, 5, 5, 5, 5] p=0.06"]
S83 -> S84 [label="3 [5, 15, 5, 5, 5, 10, 10, 5, 10, 5, 15, 5, 10, 10, 5, 5, 5, 15, 5, 15, 5, 15, 5, 10, 5, 5, 5, 5, 10, 5] p=0.57"]
S83 -> S250 [label="4 [5, 5, 5, 5, 5, 5, 10, 5, 5, 5, 5, 5, 10, 5, 15] p=0.28"]
S83 -> S2 [label="2 [5, 10, 5, 5, 15, 10, 10] p=0.13"]
S83 -> S2 [label="1 [10] p=0.02"]
S92 -> S35 [label="5 [5, 5, 5, 5, 10, 10, 10, 10, 5, 5, 5, 10, 5, 5, 10, 5, 5, 5, 5, 10, 5, 5, 5, 5, 5, 5, 10, 5, 5, 10, 5, 5, 5, 5, 10, 5, 5, 5, 5, 10, 5, 5, 5, 5, 5, 5, 5, 10, 5, 5, 10, 5, 5, 5, 5, 5, 5, 10, 5, 5, 5, 5, 5, 5, 5, 5, 5, 10, 5, 5, 5, 15, 10, 5, 10, 5, 5, 5, 5, 5, 5, 5, 5, 5, 10, 5, 5, 5, 5, 10, 5, 5, 5, 10, 10, 5, 5, 5, 5, 10, 10, 10, 10, 5, 5, 5, 10, 5, 5, 10, 5, 5, 5, 10, 5, 5, 5, 5, 10, 5, 5, 5, 5, 5, 10, 5, 5, 5, 5, 5, 5, 10, 5, 5, 10, 5, 5, 5, 5, 5, 10, 5, 5, 5, 5, 5, 5, 5, 5, 10, 5, 5, 5, 15, 10, 5, 10, 5, 5, 5, 5, 5, 5, 10, 5, 5, 10, 5, 5, 10, 10, 5] p=0.65"]
S92 -> S2 [label="2 [5, 5, 5, 5, 5, 5, 5, 5, 5, 5] p=0.04"]
S92 -> S116 [label="4 [5, 5, 5, 5, 10, 5, 5, 5, 5, 5, 5, 5, 5, 5, 10, 5, 5, 5, 5, 5, 5, 5, 5, 5, 5, 10, 5, 5, 5, 5, 5, 5, 5, 5, 5, 5, 10, 5, 5, 5, 5, 5, 5, 5, 5, 5, 5, 5, 10, 5, 5, 10, 5, 5, 5, 5, 5, 10, 5, 5, 5, 5, 5, 5, 5, 5, 5, 5, 10, 5, 5, 5, 5, 5, 5, 5, 5] p=0.29"]
S92 -> S2464 [label="6 [5, 5, 5, 5, 5] p=0.02"]
S220 -> S221 [label="4 [5, 5, 5, 5, 5, 5, 5, 5, 5, 5, 5] p=0.26"]
S220 -> S1018 [label="5 [5, 10, 5, 10, 5, 5, 10, 5, 5, 5, 5, 5, 5, 5, 10, 5, 5, 5, 5, 5, 5, 5, 10, 5, 5, 5, 10] p=0.64"]
S220 -> S2 [label="2 [5, 5, 5, 5] p=0.1"]
S291 -> S292 [label="4 [5, 5, 5, 5, 5, 5, 5, 5, 5, 5] p=0.24"]
S291 -> S85 [label="5 [5, 5, 5, 5, 5, 5, 5, 5, 5, 10, 5, 10, 5, 5, 5, 5, 5, 5, 5, 10, 5, 5, 5, 5, 5, 5, 5, 10, 5, 5, 5] p=0.74"]
S291 -> S2 [label="2 [5] p=0.02"]
S348 -> S349 [label="5 [5, 5, 10, 5, 5, 5, 5, 10, 10, 5, 5, 5, 5, 5, 15] p=0.65"]
S348 -> S615 [label="3 [5, 5, 5, 15] p=0.17"]
S348 -> S2 [label="2 [20, 5, 10] p=0.13"]
S348 -> S2 [label="6 [5] p=0.04"]
S383 -> S2 [label="7 [5, 5, 10, 10] p=0.29"]
S383 -> S2 [label="3 [5, 5, 5] p=0.21"]
S383 -> S2 [label="5 [5, 10, 5, 5, 10, 5, 10] p=0.5"]
S64 -> S26 [label="5 [5, 5, 5, 5, 5, 5, 5, 5, 5, 5, 5, 5, 5, 10, 5, 5, 5, 5, 5, 5, 5, 5, 5, 5, 5, 5, 5, 5, 5, 5, 10, 5, 5, 10, 5, 5, 5, 10, 5, 5, 5, 10, 10, 5, 5, 5, 5, 5, 5, 5, 5, 5, 5, 5, 5, 5, 5, 5, 5, 5, 5, 5, 5, 5, 5, 5, 5, 5, 5, 5] p=0.75"]
S64 -> S2 [label="4 [5, 5, 5, 5, 5, 5, 5, 5, 5, 5, 5, 5, 5, 5] p=0.15"]
S64 -> S2 [label="2 [5, 5, 5, 5, 5, 5, 5, 5, 5] p=0.1"]
S131 -> S132 [label="3 [10, 10, 5, 10, 10, 10, 5, 10, 5, 10, 5, 5, 15, 5, 10, 10, 10, 5, 5, 5, 5, 5, 5, 10, 5, 15, 5, 5, 5, 15, 5, 5, 10, 10, 20, 10, 5, 10, 10, 10, 10, 5, 10, 10, 10, 10, 5, 10, 5, 10, 5, 5, 15, 5, 10, 10, 10, 5, 15, 20, 5, 5, 5, 5, 5, 10, 5, 10, 5, 15, 5, 5, 5, 15, 5, 5, 10, 5, 5, 10, 20, 5, 10, 5, 10] p=0.62"]
S131 -> S149 [label="2 [5, 15, 5, 5, 15, 10, 5, 5, 5, 15, 5, 5, 5, 15, 10, 5, 5, 5] p=0.13"]
S131 -> S268 [label="4 [10, 5, 10, 5, 5, 5, 10, 5, 5, 20, 5, 10, 5, 5, 10, 5, 5, 10, 5, 10, 5, 5, 5, 10, 5, 10, 5, 5, 20, 5, 10, 5, 5] p=0.24"]
S131 -> S2 [label="1 [10, 10] p=0.01"]
S292 -> S2 [label="5 [5, 10, 15, 5, 10, 5, 5, 5, 10, 5, 15, 5, 10, 5, 5, 5, 10, 5, 15] p=0.73"]
S292 -> S2 [label="7 [10, 10] p=0.08"]
S292 -> S2 [label="1 [5, 5] p=0.08"]
S292 -> S2 [label="3 [5, 5, 5] p=0.12"]
S357 -> S1702 [label="5 [5, 5, 5, 5, 5, 5, 5, 5, 5, 5, 5, 5] p=0.52"]
S357 -> S2 [label="3 [5, 5, 5, 5, 5, 5, 5] p=0.3"]
S357 -> S2 [label="4 [5, 5, 5, 5] p=0.17"]
S26 -> S27 [label="5 [15, 5, 5, 5, 15, 10, 10, 10, 5, 5, 5, 5, 15, 10, 5, 5, 5, 5, 10, 10, 15, 10, 10, 5, 5, 5, 5, 5, 5, 15, 5, 10, 10, 10, 5, 5, 10, 5, 10, 5, 5, 5, 5, 20, 10, 5, 10, 10, 5, 5, 5, 5, 10, 10, 10, 5, 5, 10, 10, 5, 5, 5, 5, 5, 5, 10, 10, 15, 10, 5, 5, 10, 10, 5] p=0.35"]
S26 -> S2 [label="3 [15, 5, 5, 15, 5, 5, 5, 5, 15, 15, 5, 15, 15, 5, 5, 5, 15, 5, 5, 5, 5, 10, 5, 15, 5, 5, 5, 5, 5, 5, 5, 10, 5, 5, 10, 5, 5, 5, 5, 10, 5, 10, 5, 5, 5, 10, 10, 5, 5, 5, 5, 10, 10, 5, 5, 5, 10, 5, 5, 5, 5, 10, 5, 5, 5] p=0.31"]
S26 -> S2 [label="2 [5, 5, 5, 5, 5, 5, 5, 5, 5, 5, 5, 5, 5, 5, 5, 5, 5, 5, 5, 5, 10, 5, 10, 15, 10, 5, 10, 5, 15, 10, 5, 10, 10, 10, 10, 5, 10, 10, 10, 5, 10] p=0.19"]
S26 -> S2 [label="1 [5, 5, 5, 5, 5, 5, 5, 5, 10, 10, 10, 5, 10, 10] p=0.07"]
S26 -> S2 [label="4 [5, 5, 5, 5, 5, 5, 5, 5, 5, 5, 5, 5, 5, 5, 5, 5, 5] p=0.08"]
S15 -> S16 [label="4 [5, 5, 5, 5, 5, 10, 5, 5, 5, 5, 5, 10, 5, 5, 10, 5, 5, 5, 5] p=0.32"]
S15 -> S2 [label="3 [10, 5, 5, 10, 5, 10, 5, 5, 15, 10, 5, 5, 10, 5, 5, 5, 5, 5, 10, 10, 5, 5, 15, 10, 5, 5, 10, 5, 5] p=0.49"]
S15 -> S232 [label="2 [5, 5, 10, 5, 5, 5, 5, 10, 5, 5, 5] p=0.19"]
S54 -> S2 [label="3 [10, 5, 20, 10, 5, 10, 5, 5, 5, 5, 5] p=0.16"]
S54 -> S135 [label="2 [5, 10, 5, 5, 5, 5, 5, 5] p=0.11"]
S54 -> S2 [label="7 [15] p=0.01"]
S54 -> S106 [label="5 [5, 5, 10, 5, 20, 5, 5, 5, 10, 5, 5, 10, 5, 20, 5, 5, 5, 5, 5, 5, 5, 10, 5, 5, 10, 5, 10, 5, 5, 5, 5, 10, 5, 15, 5, 5, 5, 5, 15, 10, 5, 5, 5, 10, 5, 10] p=0.66"]
S54 -> S2 [label="1 [20, 20] p=0.03"]
S54 -> S2 [label="6 [5, 5] p=0.03"]
S84 -> S85 [label="5 [5, 5, 5, 10, 5, 5, 5, 5, 5, 5, 5, 5, 5, 5] p=0.47"]
S84 -> S250 [label="4 [5, 5, 5, 5, 5, 10, 5, 10, 5, 5, 5, 5, 5, 5, 5] p=0.5"]
S84 -> S2 [label="2 [5] p=0.03"]
S221 -> S222 [label="5 [5, 5, 5, 5, 5] p=0.45"]
S221 -> S1046 [label="2 [5, 5] p=0.18"]
S221 -> S2 [label="3 [5, 5] p=0.18"]
S221 -> S2 [label="7 [15] p=0.09"]
S221 -> S3 [label="5 [20] p=0.09"]
S349 -> S149 [label="2 [10, 10, 5, 5] p=0.27"]
S349 -> S810 [label="4 [5, 5, 5] p=0.2"]
S349 -> S2 [label="3 [10, 5, 5, 10, 5, 5, 5, 5] p=0.53"]
S615 -> S616 [label="4 [5, 5] p=0.5"]
S615 -> S26 [label="5 [5, 10] p=0.5"]
S1018 -> S64 [label="3 [5, 5, 5, 5, 10, 5, 5, 5, 10, 5, 5, 15] p=0.44"]
S1018 -> S2 [label="1 [10] p=0.04"]
S1018 -> S250 [label="4 [5, 10, 5, 5, 5, 5, 5, 10, 10, 10] p=0.37"]
S1018 -> S2674 [label="2 [10, 10] p=0.07"]
S1018 -> S2 [label="6 [10] p=0.04"]
S1018 -> S4 [label="2 [5] p=0.04"]
S1648 -> S1649 [label="5 [5, 5, 5, 10, 5, 5, 5, 5, 10, 5, 5, 5, 5, 5, 5, 10, 5, 5, 10, 5, 5, 5, 10, 5, 5, 5, 5] p=0.75"]
S1648 -> S383 [label="4 [5, 5, 5, 5, 5, 5, 5, 5] p=0.22"]
S1648 -> S2 [label="2 [5] p=0.03"]
S116 -> S2 [label="5 [5, 5, 10, 5, 5, 5, 20, 5, 5, 5, 5, 5, 5, 5, 5, 5, 10, 5, 5, 10, 5, 10, 5, 5, 10, 5, 20, 5, 5, 5, 5, 5, 5, 5, 5, 15, 5, 5, 5, 5, 5, 5, 5, 15, 5, 10] p=0.6"]
S116 -> S64 [label="3 [5, 5, 10, 5, 5, 5, 5, 5, 5, 5, 10, 5, 5, 5, 5, 5, 5, 5] p=0.23"]
S116 -> S2 [label="2 [5, 5, 5, 5, 5, 5, 5] p=0.09"]
S116 -> S2081 [label="6 [10, 5, 10, 5] p=0.05"]
S116 -> S2 [label="1 [20, 20] p=0.03"]
S132 -> S133 [label="4 [5, 5, 5, 5, 5, 10, 10, 5, 5, 5, 5, 5, 5, 5, 5, 10, 5, 10, 5, 5, 5] p=0.25"]
S132 -> S229 [label="5 [10, 5, 10, 5, 5, 5, 5, 10, 10, 5, 5, 5, 5, 5, 5, 5, 5, 5, 5, 5, 5, 5, 5, 5, 10, 5, 10, 5, 5, 5, 5, 5, 10, 10, 5, 5, 5, 5, 5, 5, 5, 5, 5, 5, 5, 5, 5, 5, 5, 10, 5, 5, 5, 5] p=0.64"]
S132 -> S2 [label="6 [5, 5] p=0.02"]
S132 -> S2 [label="2 [5, 5, 5, 5, 5, 5, 5, 5] p=0.09"]
S268 -> S135 [label="3 [5, 5, 5, 5, 5, 10, 5, 5] p=0.24"]
S268 -> S2 [label="5 [10, 5, 5, 5, 10, 5, 10, 5, 5, 20, 10, 5, 5, 5, 5, 5, 10, 5, 10, 5, 5, 20] p=0.67"]
S268 -> S2 [label="2 [5, 5, 5] p=0.09"]
S2464 -> S2 [label="4 [5, 5] p=0.4"]
S2464 -> S2 [label="3 [5, 5] p=0.4"]
S2464 -> S2 [label="2 [5] p=0.2"]
S95 -> S96 [label="3 [5, 5, 5, 15, 5, 5, 5, 5, 5, 5, 15, 5, 10, 5, 10, 5, 5, 5, 5, 5, 5, 5, 5, 5, 5, 5, 5, 5, 5, 5, 5, 5, 5, 5, 15, 5, 10, 5, 10, 5, 5, 5, 5, 5, 5, 5, 5, 5, 5, 5, 5, 5, 5, 5, 5, 5, 5, 5, 10, 10, 5, 5, 5, 5, 5, 5, 5, 10, 5, 5, 10, 5, 5, 10, 5, 10, 5, 5, 10, 5, 5, 5, 5, 10, 5, 5, 5] p=0.69"]
S95 -> S484 [label="4 [10, 5, 5, 5, 5, 5, 5, 5, 10, 10, 5, 5, 5, 5, 5, 5, 5, 5, 5, 10, 5, 10, 10, 5, 5, 5, 10, 5, 5, 10, 15, 10, 5] p=0.26"]
S95 -> S149 [label="2 [5, 5, 5, 15, 5, 5] p=0.05"]
S250 -> S2 [label="5 [5, 5, 5, 5, 5, 10, 5, 5, 10, 5, 10, 5, 5, 5, 15, 5, 5, 15, 5, 10, 5, 5, 5, 5, 5, 10, 5, 5, 5, 5, 10, 5, 10, 5, 5, 20, 20, 5, 5] p=0.57"]
S250 -> S2 [label="3 [5, 5, 5, 10, 10, 5, 5, 5, 5, 10, 5, 5, 5, 5, 15, 5, 5, 5, 5, 5, 5, 5] p=0.32"]
S250 -> S2 [label="2 [5, 5, 5, 5, 5, 5, 5] p=0.1"]
S1702 -> S64 [label="3 [5, 15, 5, 5, 15, 5, 5, 5, 15, 5, 5, 10, 5, 10, 5, 10, 5, 5, 5, 5] p=0.74"]
S1702 -> S2 [label="4 [5, 5, 5, 5, 5, 5, 5] p=0.26"]
S85 -> S2 [label="3 [10, 10, 10, 10, 5, 5, 5, 10, 15, 5, 10, 5, 5, 5, 10, 5, 5, 15, 15, 5, 5, 10, 5, 5, 5, 5, 5] p=0.6"]
S85 -> S2 [label="2 [5, 10, 10] p=0.07"]
S85 -> S250 [label="4 [5, 5, 10, 5, 5, 5, 5, 5, 10, 15, 5, 5, 5, 5, 5] p=0.33"]
S27 -> S2 [label="1 [10, 10, 10] p=0.04"]
S27 -> S26 [label="4 [5, 10, 5, 5, 5, 5, 5, 10, 5, 5, 5, 5, 5, 5, 15, 5, 5, 5, 5, 5, 5, 15, 5, 5, 5, 5, 5, 5, 15, 15, 5, 5] p=0.44"]
S27 -> S2 [label="2 [5, 5, 5, 5, 5, 5, 5, 5, 5, 5, 5] p=0.15"]
S27 -> S2 [label="3 [5, 5, 10, 5, 5, 5, 5, 10, 5, 5, 5, 5, 5, 5, 5, 5, 5, 5, 5, 5, 10, 10, 5, 5, 5, 5, 5] p=0.37"]
S16 -> S17 [label="5 [10, 10, 10, 10] p=0.21"]
S16 -> S2 [label="2 [5, 5] p=0.11"]
S16 -> S2 [label="3 [15, 15, 5, 15, 15, 5, 5, 5] p=0.42"]
S16 -> S2 [label="1 [5, 5] p=0.11"]
S16 -> S5 [label="5 [15] p=0.05"]
S16 -> S6 [label="5 [5, 5] p=0.11"]
S222 -> S223 [label="3 [10, 5, 5] p=0.6"]
S222 -> S2 [label="4 [5] p=0.2"]
S222 -> S2 [label="1 [10] p=0.2"]
S616 -> S2 [label="1 [5] p=0.5"]
S616 -> S2 [label="5 [5] p=0.5"]
S810 -> S2 [label="2 [5, 10, 5, 5, 5, 5, 5] p=0.41"]
S810 -> S2 [label="3 [5, 5, 5, 10, 5, 10, 5, 10, 5, 5] p=0.59"]
S1046 -> S2 [label="4 [5] p=0.5"]
S1046 -> S4003 [label="5 [5] p=0.5"]
S1649 -> S1650 [label="3 [10, 5, 5, 5, 10, 5, 5, 5, 5, 5, 5, 10, 5, 5] p=0.52"]
S1649 -> S2 [label="2 [10] p=0.04"]
S1649 -> S2743 [label="4 [5, 5, 5, 5, 5, 5, 5, 5, 5, 5] p=0.37"]
S1649 -> S4 [label="4 [10, 10] p=0.07"]
S2674 -> S2 [label="4 [5, 5] p=0.5"]
S2674 -> S1404 [label="5 [10, 5] p=0.5"]
S133 -> S134 [label="5 [5, 10, 5, 5, 5, 5, 10, 5, 5, 5] p=0.48"]
S133 -> S2 [label="2 [5, 5, 10] p=0.14"]
S133 -> S2 [label="3 [10, 5, 10, 10, 5, 10] p=0.29"]
S133 -> S2 [label="7 [15, 15] p=0.1"]
S229 -> S230 [label="3 [5, 5, 5, 5, 5, 10, 5, 5, 5, 5, 5, 5, 10, 10, 10, 5, 5, 5, 5, 5, 5, 5, 5, 5, 10, 5, 5, 5, 5, 5, 5, 10, 10, 10, 5, 5, 10, 5] p=0.7"]
S229 -> S3370 [label="4 [10, 5, 5, 5, 10, 15, 10, 5, 5, 10, 15] p=0.2"]
S229 -> S2 [label="2 [15, 5, 5, 5, 5] p=0.09"]
S96 -> S97 [label="4 [5, 5, 5, 5, 5, 5, 5, 5, 5, 5, 5, 5, 5, 5, 5, 5, 5, 5, 5, 5, 5, 5, 5, 10, 5] p=0.29"]
S96 -> S98 [label="6 [5, 5, 5] p=0.03"]
S96 -> S244 [label="5 [5, 5, 10, 10, 5, 10, 5, 10, 5, 5, 5, 5, 5, 5, 5, 5, 5, 5, 5, 5, 10, 5, 5, 5, 5, 5, 10, 5, 5, 10, 5, 5, 5, 5, 5, 5, 5, 5, 10, 5, 5, 5, 5, 5, 10, 5, 5, 5, 5, 5, 5, 5, 5, 10, 5, 5, 5] p=0.66"]
S96 -> S2 [label="2 [5, 5] p=0.02"]
S106 -> S2 [label="3 [10, 5, 5, 5, 10, 5, 10, 5, 5, 10, 5, 10, 5, 5, 10, 10, 15, 5, 5, 5, 15, 15, 5, 10, 10] p=0.54"]
S106 -> S250 [label="4 [10, 5, 10, 20, 5, 5, 5, 10, 5, 5, 5, 10, 5] p=0.28"]
S106 -> S149 [label="2 [5, 15, 5, 10, 5, 5, 5, 5] p=0.17"]
S484 -> S2 [label="5 [10, 5, 10, 5, 5, 10, 10, 5, 10, 5, 5, 10, 10, 5, 10, 5, 5, 5] p=0.55"]
S484 -> S2 [label="1 [5, 5] p=0.06"]
S484 -> S2919 [label="2 [5, 5, 5, 5] p=0.12"]
S484 -> S3444 [label="3 [10, 5, 5, 5, 5, 5, 10, 5, 10] p=0.27"]
S232 -> S2 [label="4 [5, 5, 5, 5, 5, 5] p=0.29"]
S232 -> S1702 [label="5 [5, 5, 5, 5, 5, 5, 5, 5, 5, 10, 5, 10, 10, 5, 10] p=0.71"]
S135 -> S2 [label="5 [5, 5, 5, 5, 5, 5, 5, 5, 5, 5, 5, 5, 5, 5] p=0.56"]
S135 -> S2 [label="4 [5, 5, 5, 5, 5, 5, 5, 5, 5, 5, 5] p=0.44"]
S3 -> S2 [label="2 [15] p=1.0"]
S4 -> S2 [label="3 [5, 5, 5, 5, 5, 5, 5, 5] p=1.0"]
S17 -> S2 [label="4 [15, 5, 15, 5] p=1.0"]
S223 -> S4 [label="5 [10, 5] p=0.67"]
S223 -> S2 [label="6 [5] p=0.33"]
S244 -> S245 [label="3 [5, 5, 5, 5, 5, 10, 5, 5, 5, 5, 5, 5, 5, 10, 5, 5, 5, 15, 10, 5, 5, 5, 5, 5, 5, 5, 5, 5, 5, 15, 10, 5, 5, 5, 5, 5, 5, 5, 5] p=0.68"]
S244 -> S149 [label="2 [5, 5, 15, 5, 5, 10] p=0.11"]
S244 -> S2013 [label="4 [5, 5, 5, 5, 5, 5, 5, 5, 5, 5, 5, 10] p=0.21"]
S1650 -> S668 [label="4 [5, 5, 5, 5, 5, 5] p=0.43"]
S1650 -> S3059 [label="5 [10, 5, 5, 5, 5, 5, 5, 5] p=0.57"]
S2919 -> S2920 [label="3 [5] p=0.25"]
S2919 -> S810 [label="5 [5, 5, 5] p=0.75"]
S3370 -> S3371 [label="2 [5, 5, 5] p=0.27"]
S3370 -> S810 [label="5 [5, 5, 5, 5, 5] p=0.45"]
S3370 -> S2 [label="3 [5, 5, 5] p=0.27"]
S3444 -> S3445 [label="4 [5, 5] p=0.22"]
S3444 -> S4245 [label="5 [10, 5, 10, 5, 5, 5, 5] p=0.78"]
S4003 -> S2 [label="2 [10] p=1.0"]
S134 -> S135 [label="2 [5, 5, 15] p=0.3"]
S134 -> S668 [label="3 [10, 10, 10, 5, 10] p=0.5"]
S134 -> S2 [label="4 [10, 10] p=0.2"]
S230 -> S231 [label="5 [5, 10, 5, 5, 5, 5, 5, 5, 5, 5, 5, 5, 10, 5, 10, 10, 5, 5, 5, 5, 5, 5, 5, 5, 5, 5, 10] p=0.71"]
S230 -> S416 [label="4 [5, 5, 5, 5, 5, 5, 5, 5] p=0.21"]
S230 -> S2 [label="2 [5, 5] p=0.05"]
S230 -> S2 [label="6 [5] p=0.03"]
S97 -> S98 [label="5 [5, 5, 5, 10, 5, 5, 10, 5, 5] p=0.36"]
S97 -> S135 [label="2 [5, 5, 5, 5, 5, 5] p=0.24"]
S97 -> S2 [label="1 [20, 20] p=0.08"]
S97 -> S426 [label="3 [5, 5, 10, 5, 5, 5, 5] p=0.28"]
S97 -> S2069 [label="6 [10] p=0.04"]
S5 -> S2 [label="3 [10] p=1.0"]
S6 -> S2 [label="1 [10, 10] p=1.0"]
S98 -> S2 [label="3 [5, 5, 5, 5, 5, 5, 5, 10, 5, 10, 5, 10, 10, 10, 5, 5, 5, 5] p=0.67"]
S98 -> S2 [label="4 [5, 5, 10, 5, 5, 10, 10, 5, 5] p=0.33"]
S2743 -> S98 [label="5 [10, 5, 10, 10, 5, 10, 5, 5, 10, 5, 5, 5, 10, 5, 5] p=0.83"]
S2743 -> S2 [label="2 [5, 5, 5] p=0.17"]
S1404 -> S1405 [label="4 [5, 5, 5, 5, 5, 5] p=1.0"]
S245 -> S2 [label="4 [5, 5, 5, 5, 5, 5, 5, 5, 5, 5, 5, 5, 5, 5, 5] p=0.38"]
S245 -> S479 [label="5 [10, 5, 10, 5, 10, 5, 10, 10, 5, 15, 5, 10, 10, 5, 5, 5, 5, 5, 5, 5, 5, 5, 5] p=0.59"]
S245 -> S2 [label="2 [5] p=0.03"]
S426 -> S427 [label="5 [5, 5, 5, 5, 5, 5, 5] p=1.0"]
S2920 -> S2069 [label="4 [5] p=1.0"]
S3059 -> S2 [label="3 [10, 5, 5, 5, 5] p=0.62"]
S3059 -> S810 [label="4 [5, 5, 5] p=0.38"]
S3371 -> S810 [label="5 [5, 5, 5] p=1.0"]
S3445 -> S2 [label="5 [5] p=0.5"]
S3445 -> S2 [label="7 [10] p=0.5"]
S4245 -> S4246 [label="4 [5, 5, 5, 5] p=0.57"]
S4245 -> S1404 [label="3 [10, 10] p=0.29"]
S4245 -> S4 [label="4 [10] p=0.14"]
S231 -> S232 [label="3 [5, 5, 5, 5, 5, 5, 5, 5, 5, 5] p=0.37"]
S231 -> S149 [label="2 [5, 5, 5, 5, 5, 5, 5] p=0.26"]
S231 -> S2743 [label="4 [5, 5, 5, 5, 5, 5, 5, 5] p=0.3"]
S231 -> S9 [label="4 [10, 10] p=0.07"]
S416 -> S2 [label="3 [5, 5, 10, 5, 5, 10] p=0.75"]
S416 -> S2069 [label="6 [10, 10] p=0.25"]
S668 -> S2 [label="5 [5, 5, 5, 10, 5, 15, 5, 15] p=0.73"]
S668 -> S2 [label="2 [5, 5, 5] p=0.27"]
S2013 -> S2 [label="1 [5, 5, 5] p=0.25"]
S2013 -> S2751 [label="5 [10, 5, 10, 5, 5, 5, 5, 10] p=0.67"]
S2013 -> S2 [label="2 [5] p=0.08"]
S2069 -> S2 [label="7 [5, 5, 5, 5] p=1.0"]
S1405 -> S2 [label="6 [5] p=1.0"]
S427 -> S2 [label="4 [5, 5] p=0.33"]
S427 -> S1403 [label="3 [10] p=0.17"]
S427 -> S2 [label="2 [10] p=0.17"]
S427 -> S4789 [label="1 [10] p=0.17"]
S427 -> S10 [label="3 [5] p=0.17"]
S479 -> S480 [label="4 [10, 5, 5, 5, 10, 5, 5] p=0.39"]
S479 -> S1762 [label="3 [5, 5, 5, 5, 10, 5, 5, 15, 5, 5, 5] p=0.61"]
S2751 -> S2 [label="4 [10, 5, 5] p=0.5"]
S2751 -> S2674 [label="3 [5, 5] p=0.33"]
S2751 -> S5281 [label="2 [5] p=0.17"]
S4246 -> S4 [label="5 [5, 10, 5] p=1.0"]
S9 -> S2 [label="1 [5, 5] p=1.0"]
S480 -> S481 [label="5 [10, 5, 10] p=0.6"]
S480 -> S2 [label="3 [5, 10] p=0.4"]
S1403 -> S1404 [label="5 [5] p=1.0"]
S1762 -> S1763 [label="5 [5, 5, 5, 5, 10] p=0.71"]
S1762 -> S1404 [label="6 [5] p=0.14"]
S1762 -> S3177 [label="4 [5] p=0.14"]
S10 -> S1404 [label="2 [5] p=1.0"]
S481 -> S482 [label="4 [5] p=0.33"]
S481 -> S1686 [label="2 [5, 5] p=0.67"]
S1763 -> S1764 [label="3 [5, 5, 5, 5] p=0.8"]
S1763 -> S2012 [label="4 [5] p=0.2"]
S3177 -> S3178 [label="2 [5] p=1.0"]