S0 -> S1 [label="5 [0, 0, 0, 0, 0, 0, 0, 0, 0, 0, 0, 0, 0, 0, 0, 0, 0, 0, 0, 0, 0, 0, 0, 0, 0, 0, 0, 0, 0, 0, 0, 0, 0, 0, 0, 0, 0, 0, 0, 0, 0, 0, 0, 0, 0, 0, 0, 0, 0, 0, 0, 0, 0, 0, 0, 0, 0, 0, 0, 0, 0, 0, 0, 0, 0, 0, 0, 0, 0, 0, 0, 0, 0, 0, 0, 0, 0, 0, 0, 0, 0, 0, 0, 0, 0, 0, 0, 0, 0, 0, 0, 0, 0, 0, 0, 0, 0, 0, 0, 0, 0, 0, 0, 0, 0, 0, 0, 0, 0, 0, 0, 0, 0, 0, 0, 0, 0, 0, 0, 0, 0, 0, 0, 0, 0, 0, 0, 0, 0, 0, 0, 0, 0, 0, 0, 0, 0, 0, 0, 0, 0, 0, 0, 0, 0, 0, 0, 0, 0, 0, 0, 0, 0, 0, 0, 0, 0, 0, 0, 0, 0, 0, 0, 0, 0, 0, 0, 0, 0, 0, 0, 0, 0, 0, 0, 0, 0, 0, 0, 0, 0, 0, 0, 0, 0, 0, 0, 0, 0, 0, 0, 0, 0, 0, 0, 0, 0, 0, 0, 0, 0, 0, 0, 0, 0, 0, 0, 0, 0, 0, 0, 0, 0, 0, 0, 0, 0, 0, 0, 0, 0, 0, 0, 0, 0, 0, 0, 0, 0, 0, 0, 0, 0, 0, 0, 0, 0, 0, 0, 0, 0, 0, 0, 0, 0, 0, 0, 0, 0, 0, 0, 0, 0, 0, 0, 0, 0, 0, 0, 0, 0, 0, 0, 0, 0, 0, 0, 0, 0, 0, 0, 0, 0, 0, 0, 0, 0, 0, 0, 0, 0, 0, 0, 0, 0, 0, 0, 0, 0, 0, 0, 0, 0, 0, 0, 0, 0, 0, 0, 0, 0, 0, 0, 0, 0, 0, 0, 0, 0, 0, 0, 0, 0, 0, 0, 0, 0, 0, 0, 0, 0, 0, 0, 0, 0, 0, 0, 0, 0, 0, 0, 0, 0, 0, 0, 0, 0, 0, 0, 0, 0, 0, 0, 0, 0, 0, 0, 0, 0, 0, 0, 0, 0, 0, 0, 0, 0, 0, 0, 0, 0, 0, 0, 0, 0, 0, 0, 0, 0, 0, 0, 0, 0, 0, 0, 0, 0, 0, 0, 0, 0, 0, 0, 0, 0, 0, 0, 0, 0, 0, 0, 0, 0, 0, 0, 0, 0, 0, 0, 0, 0, 0, 0, 0, 0, 0, 0, 0, 0, 0, 0, 0, 0, 0, 0, 0, 0, 0, 0, 0, 0, 0, 0, 0, 0, 0, 0, 0, 0, 0, 0, 0, 0, 0, 0, 0, 0, 0, 0, 0, 0, 0, 0, 0, 0, 0, 0, 0, 0, 0, 0, 0, 0, 0, 0, 0, 0, 0, 0, 0, 0, 0, 0, 0, 0, 0, 0, 0, 0, 0, 0, 0, 0, 0, 0, 0, 0, 0, 0, 0, 0, 0, 0, 0, 0, 0, 0, 0, 0, 0, 0, 0, 0, 0, 0, 0, 0, 0, 0, 0, 0, 0, 0, 0, 0, 0, 0, 0, 0, 0, 0, 0, 0, 0, 0, 0, 0, 0, 0, 0, 0, 0, 0, 0, 0, 0, 0, 0, 0, 0, 0, 0, 0, 0, 0, 0, 0, 0, 0, 0, 0, 0, 0, 0, 0, 0, 0, 0, 0, 0, 0, 0, 0, 0, 0, 0, 0] p=0.41"]
S0 -> S2 [label="2 [0, 0, 0, 0, 0, 0, 0, 0, 0, 0, 0, 0, 0, 0, 0, 0, 0, 0, 0, 0, 0, 0, 0, 0, 0, 0, 0, 0, 0, 0, 0, 0, 0, 0, 0, 0, 0, 0, 0, 0, 0, 0, 0, 0, 0, 0, 0, 0, 0, 0, 0, 0, 0, 0, 0, 0, 0, 0, 0, 0, 0, 0, 0, 0, 0, 0, 0, 0, 0, 0, 0, 0, 0, 0, 0, 0, 0, 0, 0, 0, 0, 0, 0, 0, 0, 0, 0, 0, 0, 0, 0, 0, 0, 0, 0, 0, 0, 0, 0, 0, 0, 0, 0, 0, 0, 0, 0, 0, 0, 0, 0, 0, 0, 0, 0, 0, 0, 0, 0, 0, 0, 0, 0, 0, 0, 0, 0, 0, 0, 0, 0, 0, 0, 0, 0, 0, 0, 0, 0, 0, 0, 0, 0, 0, 0, 0, 0, 0, 0, 0, 0, 0, 0, 0, 0, 0, 0, 0, 0, 0, 0, 0, 0, 0, 0, 0, 0, 0, 0, 0, 0, 0, 0, 0, 0, 0, 0, 0, 0, 0, 0, 0, 0, 0, 0, 0, 0, 0, 0, 0, 0, 0, 0, 0, 0, 0, 0, 0, 0, 0, 0, 0, 0, 0, 0, 0, 0, 0, 0, 0, 0, 0, 0, 0, 0, 0, 0, 0, 0, 0, 0, 0, 0, 0, 0, 0, 0, 0, 0, 0, 0, 0, 0, 0, 0, 0, 0, 0, 0, 0, 0, 0, 0, 0, 0, 0, 0, 0, 0, 0, 0, 0, 0, 0, 0, 0, 0, 0, 0, 0, 0, 0, 0, 0, 0, 0, 0, 0, 0, 0, 0] p=0.2"]
S0 -> S23 [label="4 [0, 0, 0, 0, 0, 0, 0, 0, 0, 0, 0, 0, 0, 0, 0, 0, 0, 0, 0, 0, 0, 0, 0, 0, 0, 0, 0, 0, 0, 0, 0, 0, 0, 0, 0, 0, 0, 0, 0, 0, 0, 0, 0, 0, 0, 0, 0, 0, 0, 0, 0, 0, 0, 0, 0, 0, 0, 0, 0, 0, 0, 0, 0, 0, 0, 0, 0, 0, 0, 0, 0, 0, 0, 0, 0, 0, 0, 0, 0, 0, 0, 0, 0, 0, 0, 0, 0, 0, 0, 0, 0, 0, 0, 0, 0, 0, 0, 0, 0, 0, 0, 0, 0, 0, 0, 0, 0, 0, 0, 0, 0, 0, 0, 0, 0, 0, 0, 0, 0, 0, 0, 0, 0, 0, 0, 0, 0, 0, 0, 0, 0, 0, 0, 0, 0, 0, 0, 0, 0, 0, 0, 0, 0, 0, 0, 0, 0, 0, 0, 0, 0, 0, 0, 0, 0, 0, 0, 0, 0, 0, 0, 0, 0, 0, 0, 0, 0, 0, 0, 0, 0, 0, 0, 0, 0, 0, 0, 0, 0, 0, 0, 0, 0, 0, 0, 0, 0, 0, 0, 0, 0, 0, 0, 0, 0, 0, 0, 0, 0, 0, 0, 0, 0, 0, 0, 0, 0, 0, 0, 0, 0, 0, 0, 0, 0, 0, 0, 0, 0, 0, 0, 0, 0, 0, 0, 0, 0, 0, 0, 0, 0, 0, 0, 0, 0, 0, 0, 0, 0, 0, 0, 0, 0, 0, 0, 0, 0, 0, 0, 0, 0, 0, 0, 0, 0, 0, 0, 0, 0, 0, 0, 0, 0, 0, 0, 0, 0, 0, 0, 0, 0, 0, 0, 0, 0, 0, 0, 0, 0, 0, 0, 0, 0, 0, 0, 0, 0, 0, 0, 0, 0, 0, 0, 0, 0, 0, 0, 0, 0, 0, 0, 0, 0, 0, 0, 0, 0, 0, 0, 0, 0, 0, 0, 0, 0, 0, 0, 0, 0, 0, 0, 0, 0, 0, 0, 0, 0, 0, 0, 0, 0, 0, 0, 0, 0, 0, 0, 0, 0, 0, 0, 0, 0, 0, 0, 0, 0, 0, 0, 0, 0, 0, 0, 0, 0, 0, 0, 0, 0, 0, 0, 0, 0, 0, 0, 0, 0, 0, 0, 0, 0, 0, 0, 0, 0, 0, 0, 0, 0, 0, 0, 0, 0, 0, 0, 0, 0, 0, 0, 0, 0, 0, 0, 0, 0, 0, 0, 0, 0, 0, 0, 0, 0, 0, 0, 0, 0, 0, 0, 0, 0, 0, 0, 0, 0, 0, 0, 0, 0, 0, 0, 0, 0, 0] p=0.31"]
S0 -> S25 [label="3 [0, 0, 0, 0, 0, 0, 0, 0, 0, 0, 0, 0, 0, 0, 0, 0, 0, 0, 0, 0, 0, 0, 0, 0, 0, 0, 0, 0, 0, 0, 0, 0, 0, 0, 0, 0, 0, 0, 0, 0, 0, 0, 0, 0, 0, 0, 0, 0, 0, 0, 0, 0, 0, 0, 0, 0, 0, 0, 0, 0, 0, 0, 0, 0, 0] p=0.05"]
S0 -> S7 [label="1 [0, 0, 0, 0, 0, 0, 0, 0, 0, 0, 0, 0, 0, 0, 0, 0, 0, 0, 0, 0, 0, 0, 0, 0, 0, 0, 0, 0, 0, 0, 0, 0, 0, 0, 0, 0, 0, 0, 0, 0, 0, 0, 0, 0, 0, 0, 0, 0, 0, 0, 0, 0, 0, 0, 0] p=0.04"]
S1 -> S2 [label="2 [5, 10, 5, 5, 10, 5, 5, 15, 5, 10, 10, 5, 10, 5, 15, 15, 5, 15, 15, 5, 5, 5, 5, 5, 5, 5, 5, 10, 10, 5, 5, 5, 5, 10, 5, 5, 10, 5, 5, 5, 10, 5, 5, 5, 5, 10, 5, 5, 5, 5, 15, 5, 5, 10, 15, 10, 5, 5, 5, 5, 15, 5, 5, 5, 5, 5, 5, 10, 10, 5, 5, 5, 5, 5, 10, 5, 5, 15, 5, 5, 10, 5, 5, 5, 5, 10, 5, 15, 15, 5, 5, 5, 15, 5, 5, 5, 5, 5, 10, 10, 15, 10, 5, 5, 5, 5, 10, 5, 10, 5, 5, 5, 5, 10, 5, 5, 15, 5, 5, 15, 5, 5, 5, 5, 15, 5, 10, 5, 10, 20, 15, 5, 15, 10, 5, 5, 5, 15, 5, 5, 5, 5, 10, 5, 15, 5, 15, 15, 5, 5, 10, 5, 5, 15, 5, 10, 15, 5, 5, 5, 15, 10, 5, 5, 10, 15, 10, 10, 5, 5, 15, 5, 10, 10, 5, 5, 5, 10, 15, 15, 5, 15, 5, 5, 5, 10, 15, 5, 5, 5, 5, 10, 5, 15, 5, 10, 5, 15, 10, 5, 10, 5, 15, 5, 10, 5, 5, 15, 10, 5, 5, 10, 5, 15, 5, 10, 10, 5, 10, 5, 15, 5, 15, 15, 5, 5, 5, 5, 5, 10, 5, 5, 5, 10, 5, 5, 5, 5, 10, 5, 5, 5, 5, 5, 5, 5, 5, 10, 10, 5, 5, 5, 15, 5, 5, 5, 5, 5, 10, 10, 5, 5, 5, 5, 5, 15, 5, 5, 5, 5, 10, 5, 15, 5, 5, 5, 15, 5, 5, 5, 5, 5, 10, 10, 5, 5, 5, 10, 5, 5, 5, 5, 5, 5, 15, 5, 5, 5, 5, 15, 5, 10, 5, 10, 15, 5, 5, 5, 5, 15, 5, 5, 10, 5, 5, 15, 5, 5, 10, 5, 10, 5, 5, 5, 5, 10, 10, 10, 5, 5, 5, 10, 10, 5, 5, 5, 15, 5, 5, 5, 15, 5, 5, 5, 5, 10, 5, 15, 5, 5, 15, 5, 10, 5, 5, 5, 15, 5, 10, 5, 10, 5, 5, 5, 5, 5, 5, 5, 5, 5, 5, 5, 10, 5, 5, 5, 5, 5, 5, 5, 5, 5, 5, 5, 5, 5, 5, 10, 5, 5, 5, 5, 5, 5, 5, 5, 5, 5, 5, 5, 5, 5, 5, 5, 5, 5, 5, 5, 5, 5, 5, 5, 5, 5, 5, 5, 5, 5, 5, 5, 5, 5, 5, 5, 10, 5, 5, 5, 5, 5, 10, 5, 5, 5, 5, 10, 5, 5, 10, 5, 5, 5, 5, 5, 5, 5, 5, 5, 5, 5, 5, 5, 10, 5, 5, 5, 5, 5, 5, 5, 5, 5, 5, 5, 5, 5, 5, 5, 5, 5, 5, 5, 5, 5, 5, 5, 5, 5, 5, 5, 5, 5, 5, 5, 5, 5, 5, 5, 5, 5, 5, 5, 5, 5, 5, 5, 5, 5, 5, 10, 5, 5, 5, 5, 5, 5, 5, 10, 5, 5, 5, 5, 5, 5, 5, 5, 5, 5, 5, 5, 10, 5, 5, 5, 5, 5, 5, 5, 5, 5, 5, 5, 5, 5, 5, 5, 5, 10, 5, 5, 5, 5, 5, 5, 5, 5, 5, 10, 5, 5, 5, 5, 5, 5, 5, 5, 5, 10, 5, 5, 5, 5, 5, 5, 5] p=0.43"]
S1 -> S23 [label="4 [5, 10, 15, 5, 5, 5, 5, 5, 5, 10, 5, 5, 5, 5, 10, 10, 5, 5, 5, 5, 5, 5, 20, 5, 5, 5, 10, 5, 5, 15, 5, 5, 5, 5, 10, 5, 5, 15, 5, 5, 5, 5, 5, 5, 5, 5, 5, 10, 15, 5, 5, 5, 5, 10, 5, 5, 10, 5, 5, 10, 5, 5, 5, 5, 5, 5, 10, 5, 10, 10, 5, 5, 5, 5, 15, 5, 5, 5, 10, 15, 5, 5, 5, 5, 5, 5, 10, 10, 5, 5, 5, 5, 10, 15, 15, 5, 5, 5, 5, 10, 5, 10, 5, 5, 5, 5, 5, 5, 5, 5, 10, 5, 15, 5, 5, 5, 5, 10, 10, 5, 5, 5, 15, 15, 15, 5, 5, 10, 5, 5, 5, 5, 10, 5, 5, 10, 10, 5, 5, 5, 5, 15, 5, 5, 5, 5, 5, 5, 10, 15, 5, 5, 5, 5, 5, 5, 5, 5, 10, 5, 5, 5, 10, 5, 5, 5, 5, 5, 10, 5, 5, 5, 5, 10, 5, 5, 5, 5, 5, 5, 5, 10, 5, 10, 5, 5, 5, 15, 10, 5, 5, 5, 10, 5, 5, 5, 5, 5, 5, 5, 5, 5, 5, 5, 5, 5, 15, 5, 5, 5, 5, 5, 5, 5, 5, 5, 10, 5, 5, 10, 10, 5, 10, 5, 5, 5, 5, 5, 5, 10, 5, 10, 15, 5, 10, 5, 5, 10, 5, 5, 5, 15, 5, 10, 5, 5, 5, 15, 5, 5, 15, 5, 10, 5, 5, 10, 10, 5, 10, 5, 5, 5, 5, 5, 5, 5, 5, 10, 5, 5, 10, 5, 5, 5, 5, 5, 5, 10, 5, 5, 5, 5, 10, 5, 5, 5, 5, 5, 10, 15, 5, 5, 5, 5, 5, 5, 5, 5, 5, 5, 5, 5, 10, 5, 5, 5, 5, 10, 5, 5, 5, 5, 5, 10, 10, 5, 5, 10, 15, 5, 5, 10, 5, 5, 5, 5, 5, 5, 5, 5, 5, 10, 10, 15, 5, 10, 5, 5, 5, 5, 15, 5, 5, 5, 5, 5, 5, 10, 5, 5, 5, 5, 5, 5, 10, 5, 5, 5, 5, 5, 5, 5, 5, 10, 5, 5, 5, 5, 10, 5, 5, 5, 5, 5, 5, 5, 5, 5, 5, 5, 5, 15, 5, 5, 5, 5, 5, 10, 10, 5, 10, 5, 5, 5, 5, 10, 15, 5, 10, 5, 15, 5, 5, 5, 5, 10, 5, 10, 10, 10, 5, 5, 5, 5, 5, 5, 5, 10, 5, 10, 5, 5, 5, 5, 5, 5, 10, 15, 10, 10, 10, 5, 5, 5, 5, 5, 5, 5, 5, 5, 5, 5, 5, 5, 5, 5, 5, 5, 5, 10, 5, 5, 5, 5, 5, 5, 5, 5, 10, 5, 5, 10, 5, 5, 5, 5, 5, 5, 5, 5, 5, 10, 5, 5, 5, 5, 10, 15, 5, 10, 5, 10, 5, 10, 5, 5, 5, 5, 5, 5, 5, 5, 5, 5, 5, 5, 5, 5, 5, 5, 5, 5, 5, 5, 5, 5, 5, 5, 5, 5, 5, 5, 5, 10, 5, 5, 5, 10, 15, 5, 5, 5, 5, 5, 5, 5, 5, 5, 10, 10, 5, 5, 10, 15, 10, 10, 5, 5, 5, 5, 5, 5, 5, 5, 5, 5, 10, 5, 15, 5, 15, 5, 5] p=0.42"]
S1 -> S7 [label="1 [15, 10, 15, 5, 15, 5, 15, 5, 10, 15, 5, 5, 15, 5, 15, 10, 5, 10, 5, 10, 5, 5, 15, 10, 15, 5, 15, 5, 15, 15, 5, 10, 10, 10, 10, 10, 10, 15, 10, 10, 5, 5, 15, 20, 5, 10, 15, 15, 20, 10, 10, 5, 10, 5, 10, 15, 15, 5, 15, 5, 10, 10, 10, 10, 5, 10, 15, 5, 5, 15, 5, 15, 10, 5, 10, 5, 5, 5, 10, 5, 5, 15, 15, 5, 5, 10, 15, 5, 10, 15, 5, 10, 15, 15] p=0.07"]
S1 -> S25 [label="3 [5, 5, 5, 5, 5, 5, 5, 5, 5, 5, 5, 5, 5, 5, 5, 5, 5, 5, 5, 10, 5, 5, 5, 5, 5, 5, 5, 5, 5, 5, 10, 5, 5, 5, 5, 5, 5, 5, 10, 5, 5, 5, 5, 5, 5, 10, 5, 5, 5, 5, 5, 5, 5, 10, 5, 5, 5, 5, 5, 10, 5, 5, 5, 5, 5, 5, 5, 5, 5, 5, 10, 5, 5, 15, 5, 5, 5, 5, 5, 5, 5, 10, 5, 5, 5, 5, 5, 5, 5, 5, 5, 5, 10, 5, 5, 5, 5, 5, 5, 5, 5, 5, 5, 5, 5] p=0.08"]
S2 -> S3 [label="5 [5, 5, 5, 10, 5, 5, 5, 5, 5, 5, 10, 5, 5, 5, 5, 10, 5, 10, 10, 5, 10, 5, 5, 10, 10, 5, 5, 5, 5, 5, 5, 5, 5, 10, 5, 5, 5, 5, 5, 5, 5, 10, 10, 5, 10, 10, 5, 5, 10, 5, 5, 5, 10, 10, 10, 5, 5, 5, 5, 5, 5, 5, 5, 5, 5, 5, 10, 5, 5, 10, 5, 5, 10, 5, 5, 5, 10, 10, 5, 5, 10, 5, 10, 10, 5, 10, 5, 5, 5, 10, 5, 5, 10, 10, 5, 5, 10, 5, 5, 5, 5, 5, 5, 5, 5, 5, 5, 5, 10, 5, 10, 10, 5, 10, 5, 10, 5, 5, 5, 5, 5, 5, 5, 5, 5, 5, 10, 10, 5, 10, 10, 5, 5, 10, 10, 5, 5, 5, 5, 5, 5, 5, 5, 5, 5, 10, 5, 10, 10, 5, 5, 10, 5, 5, 10, 5, 5, 5, 10, 5, 10, 10, 5, 5, 5, 5, 5, 10, 5, 10, 10, 5, 10, 5, 5, 5, 5, 5, 5, 10, 10, 10, 5, 10, 10, 5, 5, 5, 5, 5, 5, 5, 10, 5, 5, 10, 5, 5, 5, 10, 10, 5, 5, 5, 10, 5, 10, 5, 5, 5, 5, 5, 5, 10, 10, 5, 10, 10, 5, 5, 5, 5, 5, 10, 5, 5, 10, 10, 5, 5, 5, 10, 5, 5, 10, 10, 5, 5, 5, 5, 5, 10, 5, 5, 10, 5, 10, 5, 5, 5, 5, 10, 5, 5, 10, 5, 5, 10, 10, 5, 5, 5, 5, 5, 5, 5, 10, 5, 5, 5, 5, 5, 5, 5, 5, 10, 5, 5, 5, 5, 5, 5, 5, 5, 5, 10, 5, 10, 10, 5, 10, 5, 5, 10, 10, 10, 5, 5, 5, 5, 5, 5, 5, 5, 5, 5, 5, 5, 10, 5, 5, 5, 5, 5, 5, 5, 5, 5, 5, 5, 5, 5, 10, 5, 10, 5, 5, 10, 5, 10, 5, 10, 10, 5, 5, 10, 5, 10, 5, 5, 5, 5, 10, 10, 10, 5, 5, 5, 5, 5, 5, 5, 5, 5, 5, 5, 5, 5, 5, 5, 5, 5, 10, 5, 5, 10, 5, 5, 5, 10, 5, 5, 5, 5, 5, 5, 5, 10, 10, 5, 5, 5, 5, 10, 5, 5, 5, 10, 10, 5, 10, 5, 5, 5, 5, 5, 10, 5, 5, 5, 5, 5, 5, 10, 10, 5, 5, 5, 5, 10] p=0.49"]
S2 -> S66 [label="4 [5, 5, 5, 5, 5, 5, 5, 5, 5, 5, 5, 5, 5, 5, 5, 5, 5, 5, 5, 5, 5, 5, 10, 5, 5, 5, 5, 5, 5, 5, 5, 5, 5, 5, 5, 5, 5, 5, 5, 5, 5, 5, 5, 5, 5, 5, 5, 5, 5, 5, 5, 5, 5, 5, 5, 5, 5, 5, 5, 5, 5, 5, 5, 5, 5, 5, 5, 5, 5, 5, 5, 5, 5, 5, 5, 5, 5, 5, 5, 5, 5, 5, 5, 5, 5, 5, 5, 5, 5, 5, 5, 5, 5, 5, 5, 5, 5, 5, 5, 5, 5, 5, 5, 5, 5, 5, 5, 5, 5, 5, 5, 5, 5, 10, 5, 5, 5, 5, 5, 5, 5, 5, 5, 5, 5, 5, 5, 5, 5, 5, 5, 5, 5, 5, 5, 5, 5, 5, 5, 5, 5, 5, 5, 5, 5, 5, 5, 5, 5, 5, 5, 5, 5, 5, 5, 5, 5, 5, 5, 5, 5, 5, 5, 5, 5, 5, 5, 5, 5, 5, 5, 5, 5, 5, 5, 5, 5, 5, 5, 5, 5, 5, 5, 5, 5, 5, 5, 5, 5, 5, 5, 5, 5, 5, 5, 5, 5, 5, 5, 5, 5, 5, 5, 5, 5, 5, 5, 5, 5, 5, 5, 5, 5, 5, 5, 5, 5, 5, 5, 5, 5, 5, 5, 5, 5, 5, 5, 5, 5, 5, 5, 5, 5, 5, 5, 5, 5, 5, 5, 5, 5, 5, 5, 5, 5, 5, 5, 5, 5, 5, 5, 5, 5, 5, 5, 5, 5, 5, 5, 5, 5, 5, 5, 5, 5, 5, 5, 5, 5, 5, 5, 5, 5, 5, 5, 5, 5, 5, 5, 5, 5, 5, 5, 5, 5, 5, 5, 5, 5, 5, 5, 5, 5, 5, 5, 5, 5, 5, 5, 5, 5, 5, 5, 5, 5, 5, 5, 5, 5, 5, 5, 5, 5, 5, 5, 5, 5, 5, 5, 5, 5, 5, 5, 5, 5, 5, 5, 5, 5, 5, 5, 10, 5, 5, 5, 5, 5, 5, 5, 5, 5, 5, 5, 5, 5, 5, 5, 5, 5, 5, 5, 5, 5, 5, 5, 5, 5, 5, 5, 5, 5, 5, 5, 5, 5, 5, 5, 5, 5, 5, 5, 5, 5, 5, 5, 5, 5, 5, 5, 5, 5, 5, 5, 5, 5, 5, 5, 5, 5, 5, 5, 5, 5, 5, 5, 5, 5, 5, 5, 5, 5, 5, 5, 5, 5, 5, 5, 5, 5, 5, 5, 5, 5, 5, 5, 5, 5, 5, 5] p=0.5"]
S2 -> S7 [label="3 [5, 5, 5, 5, 5] p=0.01"]
S23 -> S580 [label="1 [15, 5, 5, 10, 5, 5, 10, 5, 5, 5, 5, 5, 5, 10, 5, 5, 5, 5, 5, 5, 5, 10, 5, 5, 5, 5, 5, 5, 15, 5, 5, 10, 5, 5, 10, 5, 5, 5, 5] p=0.04"]
S23 -> S580 [label="2 [5, 5, 5, 5, 5, 5, 5, 5, 5, 10, 10, 10, 10, 5, 5, 5, 5, 5, 5, 5, 5, 5, 5, 5, 5, 5, 10, 5, 5, 5, 5, 5, 5, 5, 5, 5, 5, 5, 10, 5, 5, 5, 5, 5, 10, 10, 5, 5, 5, 5, 5, 5, 5, 10, 5, 5, 5, 5, 5, 5, 5, 5, 10, 5, 5, 5, 5, 10, 5, 5, 5, 5, 5, 5, 5, 5, 10, 5, 5, 5, 5, 5, 5, 5, 5, 5, 5, 5, 5, 5, 5, 5, 5, 10, 10, 10, 10, 5, 5, 5, 5, 5, 5, 5, 5, 5, 5, 5, 5, 5, 5, 10, 5, 5, 5, 5, 5, 5, 5, 5, 5, 5, 5, 5, 10] p=0.13"]
S23 -> S828 [label="3 [5, 10, 5, 10, 5, 10, 10, 5, 5, 5, 10, 5, 5, 5, 10, 10, 5, 5, 5, 10, 5, 20, 5, 10, 5, 5, 10, 5, 10, 10, 5, 5, 5, 5, 5, 5, 10, 10, 5, 5, 5, 20, 5, 10, 5, 5, 5, 10, 5] p=0.05"]
S23 -> S1 [label="5 [5, 10, 15, 5, 5, 5, 10, 5, 5, 5, 5, 5, 5, 5, 5, 5, 5, 5, 5, 5, 10, 5, 5, 5, 5, 5, 5, 5, 5, 5, 10, 5, 10, 5, 5, 5, 10, 10, 5, 5, 5, 5, 5, 5, 5, 5, 5, 5, 5, 5, 10, 5, 15, 5, 5, 5, 10, 5, 5, 5, 5, 5, 5, 5, 5, 5, 5, 5, 5, 5, 5, 5, 5, 10, 5, 5, 5, 5, 5, 5, 5, 5, 5, 5, 10, 5, 5, 5, 15, 10, 5, 5, 5, 10, 5, 5, 5, 5, 5, 5, 5, 5, 5, 5, 5, 5, 5, 10, 5, 10, 5, 10, 5, 10, 5, 5, 5, 5, 5, 5, 5, 5, 5, 5, 5, 5, 5, 5, 5, 5, 10, 10, 10, 10, 5, 5, 5, 5, 10, 5, 5, 5, 5, 10, 5, 5, 5, 5, 5, 5, 5, 5, 10, 5, 5, 5, 5, 5, 5, 5, 5, 5, 5, 10, 10, 5, 5, 5, 10, 5, 5, 5, 5, 5, 5, 5, 5, 5, 10, 5, 5, 5, 5, 5, 10, 5, 5, 10, 5, 10, 5, 5, 5, 10, 5, 5, 5, 5, 5, 5, 5, 5, 5, 5, 10, 5, 5, 5, 5, 5, 5, 5, 5, 5, 5, 5, 5, 5, 10, 5, 10, 5, 5, 5, 5, 5, 5, 5, 5, 10, 5, 10, 5, 5, 5, 5, 5, 5, 5, 5, 10, 5, 15, 15, 5, 10, 5, 5, 5, 10, 5, 5, 5, 5, 5, 5, 5, 5, 5, 5, 5, 5, 5, 5, 5, 5, 5, 10, 5, 5, 5, 5, 5, 10, 5, 5, 5, 5, 5, 5, 5, 5, 10, 5, 5, 5, 5, 10, 5, 5, 5, 5, 5, 5, 5, 10, 5, 5, 5, 5, 5, 5, 10, 5, 5, 5, 5, 5, 5, 10, 5, 5, 5, 5, 5, 5, 5, 5, 5, 10, 5, 10, 10, 5, 5, 10, 5, 5, 5, 5, 5, 5, 5, 10, 5, 5, 5, 10, 15, 5, 10, 5, 10, 5, 5, 5, 5, 5, 5, 10, 5, 5, 5, 5, 5, 5, 10, 5, 5, 5, 10, 5, 10, 5, 5, 5, 10, 10, 5, 5, 5, 5, 5, 5, 15, 5, 10, 5, 5, 5, 5, 5, 5, 5, 5, 5, 10, 5, 5, 5, 5, 5, 5, 5, 5, 5, 10, 5, 5, 5, 5, 5, 5, 5, 5, 5, 10, 5, 5, 10, 5, 10, 5, 5, 5, 5, 5, 5, 5, 5, 10, 10, 10, 10, 5, 5, 5, 10, 5, 5, 10, 5, 5, 5, 10, 5, 5, 5, 5, 5, 10, 5, 5, 10, 5, 5, 5, 5, 5, 5, 5, 10, 5, 5, 5, 5, 10, 5, 10, 5, 10, 5, 5, 5, 5, 10, 5, 5, 5, 5, 5, 5, 5, 5, 5, 5, 5, 5, 5, 5, 10, 5, 10, 5, 5, 5, 5, 5, 10, 5, 15, 10, 5, 5, 5, 5, 5, 5, 5, 5, 5, 5, 5, 10, 5, 5, 5, 5, 5, 5, 5, 5, 5, 5, 5, 10, 5, 5, 5, 5, 5, 10, 5, 5, 5, 10, 5, 5, 5, 5, 5, 5, 10, 5, 10, 5, 5, 5, 5, 5, 10, 5, 15, 5, 5, 10, 5, 5, 5, 5, 10, 5, 5, 10, 5, 10, 5, 5, 5, 5, 5, 15, 5, 5, 5, 5, 10, 5, 5, 5, 5, 5, 5, 10, 5, 5, 5, 5, 5, 5, 5, 10, 5, 5, 5, 5, 5, 10, 10, 10, 5, 10, 5, 5, 5, 10, 5, 5, 10, 10, 5, 5, 5, 5, 10, 5, 10, 5, 10, 5, 5, 5, 5, 10, 5, 5, 5, 5, 10, 5, 5, 5, 10, 5, 10, 5, 5, 5, 5, 5, 5, 5, 10, 5, 5, 5, 5, 5, 5, 5, 5, 10, 5, 10, 5, 5, 10, 5, 10, 5, 5, 10, 15, 5, 5, 5, 5, 10, 5, 5, 5, 5, 5, 5, 5, 10, 10, 10, 5, 5, 10, 10, 5, 5, 10, 5, 10, 5, 10, 5, 5, 5, 5, 5, 5, 5, 5, 10, 5, 5, 5, 15, 5, 5, 5, 5, 5, 5, 5, 5, 10, 5, 5, 10, 10, 10, 10, 10, 5, 5, 5, 10, 10, 5, 5, 5, 10, 5, 5, 10, 5, 10, 5, 5, 5, 10, 10, 5, 5, 5, 10, 10, 5, 10, 10, 10, 5, 5, 5, 5, 5, 10, 5, 5, 5, 5, 10, 10, 5, 10, 5, 10, 5, 10, 5, 5, 5, 5, 5, 10, 5, 10, 5, 5] p=0.78"]
S25 -> S26 [label="4 [5, 5, 5, 5, 5, 5, 5, 5, 5, 5, 5, 5, 5, 5, 5, 5, 5, 5, 5, 5, 5, 5, 5, 5, 5, 5, 5, 5, 5, 5, 5, 5, 5, 5, 5, 5, 5, 5, 5, 5, 5, 5, 5, 5, 5, 5] p=0.27"]
S25 -> S7 [label="1 [5, 5, 5, 5, 5, 5, 5, 5, 5, 5, 5] p=0.06"]
S25 -> S7 [label="2 [5, 5, 5, 5, 5, 5, 5, 5, 5, 5, 5, 5, 5, 5, 5, 5, 5, 5, 5, 5, 5, 5, 5, 5, 5, 5, 5, 5, 5, 5, 5, 5, 5, 5, 5, 5, 5, 5, 5, 5, 5, 5, 5, 5, 5, 5, 5, 5, 5, 5, 5, 5, 5, 5, 5, 5, 5, 5, 5, 5] p=0.35"]
S25 -> S862 [label="5 [5, 5, 5, 5, 5, 5, 5, 5, 5, 5, 5, 5, 5, 5, 5, 5, 5, 5, 5, 5, 5, 5, 5, 5, 5, 5, 5, 5, 5, 5, 5, 5, 5, 5, 5, 5, 5, 5, 5, 5, 5, 5, 5, 5, 5, 5, 5, 5, 5, 5, 5, 5, 5] p=0.31"]
S7 -> S8 [label="5 [10, 5, 5, 5, 5, 10, 5, 5, 10, 10, 10, 15, 5, 10, 10, 10, 10, 15, 5, 5, 5, 10, 10, 5, 5, 5, 5, 5, 15, 15, 15, 15, 5, 15, 5, 15, 10, 5, 5, 5, 5, 5, 5, 5, 5, 5, 5, 5, 5, 5, 5, 5, 5, 5, 5, 5, 5, 5, 5, 5, 5, 5, 5, 5, 5, 5, 5, 5, 5, 5, 5, 5, 5, 5, 5, 5, 5, 5, 5, 5, 5, 5, 5, 5, 5, 5, 5, 5, 5, 5, 5, 5, 5, 5, 5, 5, 5, 5, 5, 5, 5, 5, 5, 5, 5, 5, 5, 5, 5, 5, 5, 5, 5, 5, 5, 5, 5, 5, 5, 5, 5, 5, 5, 5, 5, 5, 10, 5, 10, 5, 5, 5, 5, 5, 5, 5, 5, 5, 5, 5, 5, 5, 5, 5, 5, 5, 5, 5, 5, 5, 5, 5, 5, 5, 5, 5, 5, 10, 5, 10, 5, 5, 5, 10, 5, 10, 5, 5, 5, 5, 5, 5, 5, 5, 10, 5, 10, 5, 5, 5, 5, 5, 5, 5, 5, 10, 10, 5, 5, 5, 5, 5, 5, 5, 5, 5, 5, 5, 5, 5, 10, 10, 10, 5, 5, 5, 5, 5, 5, 5, 5, 5, 5, 5, 5, 5, 10, 5, 5, 5, 10, 5, 5, 5, 5, 5, 5, 5, 5, 5, 5, 5, 5, 5, 5, 5, 5, 5, 5, 5, 5, 5, 5, 5, 5, 5, 5, 5, 5, 5, 5, 10, 10, 5, 5, 5, 5, 5, 5, 5, 5, 5, 5, 5, 5, 5, 5, 10, 10, 10, 5, 5, 5, 5, 5, 5, 5, 5, 5, 5, 5, 5, 5, 5, 5, 5, 5, 5, 5, 5, 5, 5, 5, 10, 10, 5, 10, 10, 5, 5, 5, 5, 5, 5, 5, 5, 5, 5, 10, 10, 10, 5, 5, 5, 5, 5, 5, 5, 5, 5, 5, 5, 5, 5, 5, 5, 5, 5, 10, 10, 5, 5, 5, 5, 5, 5, 5, 5, 5, 5, 5, 15, 5, 5, 5, 5, 5, 5, 5, 5, 5, 5, 5, 5, 5, 5, 5, 5, 5, 5, 5, 5, 5, 5, 5, 10, 5, 5, 5, 5, 10, 5, 10, 5, 5, 5, 10, 5, 5, 5, 5, 5, 5, 10, 10, 10, 10, 5, 5, 5, 5, 5, 5, 5, 5, 5, 5, 5, 10, 5, 5, 5, 5, 5, 5, 5, 5, 5, 5, 10, 5, 5, 5, 5, 10, 5, 5, 10, 5, 10, 5, 10, 5, 5, 5, 5, 5, 10, 5, 10, 5, 10, 15, 5, 5, 10, 5, 10, 5, 5, 10, 15, 5, 5, 5, 10, 5, 10, 15, 5, 5, 10, 15, 5, 10, 15, 10, 5, 10, 5, 10, 5, 10, 15, 5, 5, 5, 5, 10, 5, 5, 5, 5, 5, 5, 5, 5, 5, 5, 5, 5, 5, 5, 5, 5, 5, 5, 5, 5, 5, 5, 5, 5, 5, 5, 5, 5, 5, 5, 5, 5, 5, 5, 5, 5, 5, 5, 5, 5, 5, 5, 5, 5, 5, 5, 5, 5, 5, 5, 5, 5, 5, 5, 5, 5, 5, 5, 5, 5, 5, 5, 10, 10, 10, 10, 5, 10, 5, 5, 5, 5, 5, 5, 5, 5, 5, 5, 5, 5, 5, 5, 5, 5, 5, 5, 5, 5, 5, 5, 5, 5, 5, 5, 5, 5, 5, 5, 5, 5, 5, 5, 5, 5, 5, 5, 5, 5, 5, 5, 5, 10, 5, 5, 10, 5, 5, 5, 5, 5, 5, 10, 5, 5, 10, 5, 5, 5, 5, 5, 5, 5, 10, 5, 5, 5, 10, 5, 5, 5, 5, 5, 5, 5, 5, 5, 5, 10, 5, 5, 5, 10, 5, 5, 5, 5, 5, 5, 5, 10, 10, 10, 10, 5, 5, 5, 5, 5, 5, 5, 5, 5, 5, 5, 5, 5, 15, 5, 15, 5, 10, 10, 10, 5, 5, 5, 5, 5, 5, 10, 5, 10, 5, 5, 5, 5, 10, 5, 10, 5, 5, 5, 5, 5, 5, 10, 5, 5, 10, 5, 5, 5, 5, 5, 5, 5, 5, 10, 5, 5, 10, 5, 5, 5, 5, 5, 5, 5, 5, 5, 5, 5, 5, 5, 5, 5, 5, 5, 5, 5, 5, 5, 5, 15, 5, 5, 5, 5, 5, 5, 5, 10, 5, 5, 5, 5, 15, 5, 5, 5, 5, 5, 10, 5, 5, 5, 5, 5, 5, 5, 5, 5, 15, 5, 5, 5, 5, 5, 5, 5, 5, 10, 5, 5, 5, 5, 5, 5, 5, 5, 5, 5, 15, 5, 5, 5, 5, 5, 5, 5, 5, 5, 5, 10, 10, 5, 5, 5, 5, 5, 5, 5, 5, 5, 5, 5, 5, 5, 5, 5, 5, 5, 5, 10, 10, 5, 5, 5, 5, 5, 5, 5, 5, 5, 5, 5, 5, 5, 5, 5, 5, 5, 5, 5, 5, 5, 5, 5, 5, 5, 5, 5, 5, 5, 5, 5, 5, 5, 5, 5, 5, 5, 5, 5, 5, 5, 5, 5, 5, 5, 5, 5, 5, 5, 5, 5, 5, 5, 5, 5, 5, 5, 5, 5, 5, 5, 5, 5, 5, 5, 5, 5, 5, 5, 5, 5, 5, 5, 5, 5, 5, 5, 5, 5, 5, 5, 5, 5, 5, 5, 5, 5, 5, 5, 5, 5, 5, 5, 5, 10, 5, 5, 5, 10, 5, 5, 5, 5, 5, 5, 5, 5, 5, 5, 5, 10, 10, 10, 5, 5, 5, 5, 5, 5, 5, 5, 10, 5, 5, 5, 5, 5, 5, 10, 10, 10, 5, 5, 5, 5, 5, 10, 5, 5, 5, 5, 5, 5, 5, 10, 10, 5, 5, 5, 5, 5, 5, 5, 5, 5, 5, 10, 5, 5, 5, 5, 5, 5, 5, 5, 10, 10, 10, 5, 5, 10, 10, 10, 5, 5, 5, 10, 5, 5, 5, 5, 5, 5, 5, 10, 10, 5, 5, 5, 5, 5, 5, 5, 5, 5, 5, 5, 5, 5, 5, 5, 5, 5, 5, 5, 5, 5, 5, 5, 5, 5, 5, 5, 5, 5, 5, 5, 5, 5, 5, 5, 5, 5, 5, 5, 5, 5, 5, 5, 5, 5, 5, 5, 5, 5, 5, 5, 5, 5, 10, 5, 5, 5, 5, 5, 5, 5, 10, 10, 5, 5, 5, 5, 5, 5, 5, 5, 5, 5, 5, 10, 5, 10, 5, 10, 5, 5, 10, 5, 5, 10, 10, 5, 5, 10, 5, 10, 5, 10, 5, 10, 10, 10, 10, 10, 10, 10, 10, 5, 10, 5, 5, 10, 5, 10, 5, 5, 5, 5, 5, 5, 5, 5, 5, 5, 5, 5, 5, 5, 5, 5, 5, 5, 5, 5, 5, 5, 5, 5, 5, 5, 5, 5, 5, 5, 5, 10, 10, 10, 10, 10, 10, 10, 10, 10, 10, 10, 10, 10, 10, 10, 10, 10, 10, 5, 5, 5, 5, 5, 5, 5, 5, 5, 5, 5, 5, 5, 5, 5, 5, 5, 5, 5, 5, 5, 5, 5, 5, 5, 5, 5, 5, 10, 5, 10, 5, 5, 5, 10, 5, 5, 5, 5, 5, 5, 5, 10, 10, 5, 5, 5, 10, 5, 10, 5, 5, 10, 5, 5, 5, 5, 10, 5, 5, 5, 10, 5, 10, 5, 5, 10, 10, 5, 5, 5, 5, 10, 5, 10, 5, 5, 5, 5, 10, 5, 10, 5, 5, 10, 10, 10, 10, 10, 10, 10, 5, 5, 5, 5, 5, 10, 5, 10, 5, 5, 10, 5, 5, 10, 5, 5, 5, 10, 5, 10, 5, 10, 5, 10, 10, 10, 10, 10, 10, 10, 5, 5, 5, 5, 5, 5, 5, 5, 5, 5, 5, 5, 5, 5, 5, 5, 5, 5, 5, 5, 5, 5, 5, 5, 5, 5, 5, 5, 5, 5, 5, 5, 5, 5, 5, 5, 5, 5, 5, 5, 5, 5, 5, 5, 5, 5, 5, 5, 5, 5, 5, 5, 5, 5, 5, 5, 5, 5, 5, 5, 5, 5, 5, 5, 5, 5, 5, 5, 5, 5, 5, 5, 5, 5, 5, 5, 5, 5, 5, 5, 10, 5, 5, 10, 5, 5, 5, 5, 5, 5, 10, 5, 10, 5, 5, 5, 5, 5, 5, 10, 5, 10, 5, 5, 5, 10, 5, 5, 10, 10, 5, 10, 5, 10, 5, 5, 5, 5, 5, 5, 5, 5, 5, 5, 5, 5, 5, 5, 5, 5, 5, 5, 5, 5, 5, 5, 5, 5, 5, 5, 5, 5, 5, 5, 5, 5, 5, 5, 5, 5, 5, 5, 10, 15, 15, 5, 15, 5, 5, 5, 5, 5, 5, 5, 5, 5, 5, 5, 5, 5, 5, 5, 10, 5, 5, 5, 5, 5, 5, 5, 5, 5, 5, 5, 5, 10, 5, 10, 5, 10, 5, 5, 5, 5, 10, 5, 5, 5, 5, 5, 10, 5, 5, 5, 5, 10, 5, 5, 5, 5, 5, 5, 5, 5, 5, 5, 5, 5, 5, 5, 5, 5, 5, 5, 5, 5, 5, 5, 5, 5, 5, 5, 5, 5, 10, 5, 5, 5, 5, 5, 5, 5, 5, 5, 5, 5, 5, 5, 5, 5, 5, 10, 5, 5, 5, 10, 5, 5, 5, 5, 5, 5, 5, 5, 5, 5, 5, 5, 5, 5, 5, 5, 5, 5, 5, 5, 5, 5, 5, 5, 5, 5, 5, 5, 5, 5, 5, 5, 5, 5, 5, 5, 5, 5, 5, 5, 5, 5, 10, 5, 5, 10, 5, 5, 5, 10, 5, 5, 5, 10, 5, 5, 5, 5, 5, 10, 5, 5, 5, 5, 5, 5, 5, 5, 5, 5, 5, 5, 5, 5, 10, 5, 5, 5, 5, 5, 5, 5, 5, 5, 5, 5, 5, 5, 5, 5, 5, 10, 5, 5, 5, 5, 5, 5, 5, 5, 5, 5, 5, 5, 5, 10, 5, 5, 5, 5, 5, 5, 5, 5, 5, 5, 5, 5, 5, 5, 5, 5, 5, 5, 5, 5, 5, 5, 5, 5, 5, 5, 5, 5, 10, 5, 10, 5, 5, 5, 5, 5, 5, 5, 5, 5, 5, 5, 5, 5, 5, 5, 5, 5, 5, 5, 5, 5, 5, 5, 5, 5, 10, 10, 5, 5, 5, 5, 10, 10, 10, 10, 10, 10, 5, 5, 5, 5, 5, 5, 10, 5, 10, 5, 10, 5, 5, 10, 5, 10, 10, 10, 10, 10, 5, 5, 5, 5, 10, 10, 10, 5, 5, 5, 5, 5, 5, 5, 5, 5, 5, 5, 5, 5, 5, 5, 5, 5, 5, 5, 10, 5, 5, 5, 10, 5, 5, 5, 5, 5, 5, 5, 5, 5, 5, 5, 5, 5, 5, 5, 5, 5, 5, 5, 5, 5, 5, 5, 5, 5, 5, 5, 5, 5, 5, 5, 5, 5, 5, 5, 5, 5, 5, 5, 5, 5, 5, 5, 5, 5, 5, 5, 5, 5, 10, 10, 10, 10, 5, 5, 5, 5, 5, 5, 5, 5, 5, 5, 5, 5, 10, 5, 10, 10, 10, 5, 5, 5, 5, 5, 5, 5, 5, 5, 5, 5, 5, 5, 5, 5, 5, 5, 5, 5, 5, 5, 5, 5, 5, 5, 5, 5, 5, 5, 5, 5, 5, 5, 5, 5, 5, 5, 5, 5, 5, 5, 5, 5, 5, 5, 5, 10, 10, 10, 10, 10, 5, 5, 5, 5, 5, 5, 5, 5, 5, 5, 5, 5, 5, 5, 5, 5, 5, 5, 5, 5, 5, 5, 5, 5, 5, 5, 5, 5, 5, 5, 5, 5, 5, 5, 5, 5, 5, 5, 5, 5, 5, 5, 5, 5, 5, 5, 5, 5, 5, 5, 5, 5, 5, 5, 5, 5, 5, 5, 5, 5, 5, 5, 5, 5, 5, 5, 5, 5, 5, 5, 5, 5, 5, 5, 5, 5, 5, 5, 5, 5, 5, 5, 5, 10, 5, 10, 5, 5, 5, 5, 5, 10, 10, 5, 5, 5, 5, 5, 5, 5, 5, 5, 5, 5, 5, 5, 5, 5, 5, 5, 10, 10, 10, 10, 10, 10, 5, 5, 5, 5, 5, 10, 10, 10, 5, 5, 5, 5, 5, 5, 5, 5, 10, 10, 10, 15, 15, 5, 5, 5, 5, 5, 5, 5, 5, 5, 5, 5, 5, 5, 5, 5, 5, 5, 5, 5, 5, 5, 5, 5, 5, 5, 5, 5, 5, 5, 5, 5, 5, 5, 5, 5, 5, 5, 5, 5, 10, 10, 5, 5, 5, 5, 10, 10, 10, 15, 10, 15, 10, 10, 10, 15, 10, 5, 5, 5, 5, 5, 5, 5, 5, 10, 10, 10, 10, 10, 10, 10, 5, 5, 10, 10, 5, 10, 5, 10, 5, 10, 5, 5, 5, 5, 10, 10, 10, 10, 10, 5, 5, 5, 5, 5, 5, 5, 10, 10, 10, 10, 10, 5, 10, 5, 10, 5, 5, 5, 5, 5, 5, 5, 5, 5, 5, 5, 5, 5, 5, 5, 5, 5, 5, 5, 5, 5, 5, 5, 5, 5, 5, 5, 5, 5, 5, 5, 5, 5, 5, 5, 5, 5, 5, 5, 5, 5, 5, 5, 5, 10, 5, 5, 5, 5, 5, 5, 5, 5, 5, 5, 5, 5, 5, 5, 10, 5, 5, 5, 5, 5, 5, 10, 5, 10, 5, 10, 10, 5, 5, 5, 5, 5, 10, 5, 5, 5, 5, 5, 5, 10, 5, 5, 10, 5, 5, 5, 5, 5, 5, 5, 5, 5, 5, 5, 5, 5, 5, 5, 5, 5, 5, 5, 10, 10, 10, 5, 5, 5, 5, 5, 5, 15, 5, 5, 5, 5, 5, 5, 5, 5, 5, 5, 5, 5, 5, 5, 5, 5, 5, 5, 5, 5, 5, 5, 15, 15, 15, 5, 5, 5, 5, 5, 5, 5, 5, 5, 5, 5, 5, 5, 5, 5, 5, 5, 5, 5, 5, 5, 5, 5, 5, 10, 10, 5, 5, 5, 5, 5, 5, 5, 5, 5, 10, 10, 10, 10, 10, 5, 5, 5, 5, 5, 5, 5, 5, 5, 5, 5, 5, 5, 10, 10, 5, 5, 5, 5, 5, 5, 5, 5, 5, 5, 5, 5, 5, 5, 5, 5, 5, 5, 5, 5, 5, 5, 5, 5, 5, 5, 5, 5, 5, 5, 5, 5, 5, 5, 5, 5, 5, 5, 5, 5, 10, 10, 5, 5, 5, 5, 5, 5, 10, 10, 5, 5, 5, 5, 5, 5, 5, 5, 5, 5, 5, 5, 5, 10, 5, 5, 5, 5, 5, 5, 5, 5, 5, 5, 5, 5, 5, 5, 5, 5, 5, 5, 5, 5, 10, 10, 5, 5, 5, 5, 5, 5, 10, 10, 5, 5, 5, 10, 10, 5, 5, 10, 10, 10, 5, 5, 5, 10, 10, 10, 5, 10, 10, 10, 5, 10, 5, 10, 10, 5, 5, 5, 5, 5, 5, 5, 5, 5, 10, 10, 10, 5, 5, 10, 5, 10, 10, 10, 10, 5, 5, 5, 5, 5, 5, 5, 5, 5, 5, 5, 5, 5, 5, 5, 5, 5, 5, 5, 5, 5, 5, 5, 10, 10, 10, 10, 10, 10, 5, 5, 5, 5, 10, 10, 10, 5, 5, 5, 5, 5, 5, 5, 5, 5, 5, 5, 5, 5, 5, 5, 5, 10, 5, 5, 5, 5, 15, 15, 5, 5, 5, 5, 5, 5, 5, 5, 5, 5, 5, 5, 5, 5, 5, 5, 5, 10, 10, 5, 5, 5, 5, 5, 5, 5, 5, 5, 5, 5, 5, 5, 5, 5, 5, 5, 5, 5, 5, 5, 5, 5, 5, 5, 5, 5, 5, 5, 5, 5, 5, 5, 10, 5, 5, 5, 5, 5, 5, 5, 5, 5, 5, 5, 5, 5, 5, 5, 5, 5, 5, 5, 5, 10, 5, 10, 5, 5, 5, 5, 5, 5, 5, 5, 5, 5, 5, 5, 5, 5, 5, 5, 5, 5, 5, 5, 5, 5, 5, 5, 5, 5, 10, 5, 5, 5, 10, 5, 10, 10, 5, 10, 5, 5, 10, 5, 5, 5, 5, 5, 5, 5, 5, 5, 5, 10, 10, 5, 5, 5, 5, 10, 5, 5, 5] p=0.69"]
S7 -> S534 [label="1 [15, 15, 15, 5, 5, 5, 5, 5, 5, 5, 5, 5, 5, 5, 15, 15, 15, 15, 5, 5, 5, 5, 5, 5, 5, 5, 5, 5, 5, 5, 5, 10] p=0.01"]
S7 -> S7 [label="2 [5, 5, 5, 5, 5, 5, 5, 5, 5, 5, 5, 5, 5, 5, 5, 5, 10, 10, 5, 5, 10, 10, 5, 5, 5, 5, 10, 10, 5, 5, 5, 5, 5, 5, 5, 5, 5, 5, 5, 5, 5, 5, 5, 5, 5, 5, 5, 5, 10, 10, 10, 10, 10, 10, 5, 5, 5, 5, 5, 5, 5, 5, 5, 5, 5, 5, 5, 5, 5, 5, 5, 5, 5, 5, 5, 5, 5, 5, 5, 5, 5, 5, 5, 5, 5, 5, 5, 5, 10, 5, 5, 5, 5, 5, 5, 5, 10, 10, 10, 10, 5, 5, 5, 5, 5, 5, 5, 5, 5, 5, 5, 5, 5, 5, 5, 5, 5, 5, 5, 5, 5, 5, 5, 5, 5, 5, 5, 5, 5, 5, 5, 5, 5, 5, 5, 5, 5, 5, 5, 5, 5, 5, 5, 5, 5, 5, 10, 10, 10, 5, 5, 5, 10, 5, 5, 5, 5, 5, 5, 5, 5, 5, 5, 5, 5, 5, 5, 5, 5, 5, 5, 5, 5, 5, 5, 5, 5, 5, 5, 5, 5, 5, 5, 5, 5, 15, 15, 15, 15, 15, 15, 15, 15, 15, 15, 5, 5, 5, 5, 5, 5, 5, 5, 5, 5, 5, 5, 5, 5, 5, 5, 5, 5, 5, 5, 5, 5, 5, 5] p=0.06"]
S7 -> S7 [label="3 [5, 5, 5, 5, 5, 5, 5, 5, 5, 5, 5, 5, 5, 5, 10, 10, 5, 5, 5, 5, 5, 10, 10, 5, 5, 5, 5, 10, 5, 10, 20, 20, 20, 5, 5, 5, 10, 10, 5, 10, 5, 5, 5, 10, 10, 10, 10, 5, 5, 10, 10, 10, 5, 5, 5, 5, 5, 10, 10, 10, 10, 10, 5, 5, 5, 5, 5, 5, 10, 10, 10, 10, 10, 5, 5, 5, 5, 5, 5, 10, 5, 5, 5, 5, 5, 5, 5, 5, 5, 5, 5, 10, 10, 5, 5, 5] p=0.03"]
S7 -> S7 [label="4 [5, 5, 10, 5, 10, 5, 5, 5, 5, 5, 5, 5, 5, 5, 5, 10, 5, 5, 5, 5, 5, 5, 5, 5, 5, 5, 5, 5, 5, 5, 5, 5, 5, 5, 5, 5, 5, 5, 5, 5, 5, 5, 5, 5, 5, 5, 5, 5, 5, 5, 5, 5, 5, 5, 5, 5, 5, 5, 5, 5, 5, 5, 5, 5, 5, 5, 5, 5, 5, 5, 5, 5, 5, 5, 5, 5, 5, 5, 5, 5, 5, 5, 5, 5, 5, 5, 5, 5, 5, 5, 5, 5, 5, 5, 5, 5, 5, 5, 5, 5, 5, 5, 5, 5, 5, 5, 5, 5, 5, 5, 5, 5, 5, 5, 5, 5, 5, 5, 5, 5, 5, 5, 5, 5, 5, 5, 5, 5, 5, 5, 5, 5, 5, 5, 5, 5, 5, 5, 5, 5, 5, 5, 5, 5, 5, 5, 5, 5, 5, 5, 5, 5, 5, 5, 5, 5, 5, 5, 5, 5, 5, 5, 5, 5, 5, 5, 5, 5, 5, 5, 5, 5, 5, 5, 5, 5, 5, 5, 5, 5, 5, 5, 5, 5, 5, 5, 5, 5, 5, 5, 5, 5, 5, 5, 5, 5, 5, 5, 5, 5, 5, 5, 5, 5, 5, 5, 5, 5, 5, 5, 5, 5, 5, 5, 5, 5, 5, 5, 5, 5, 5, 5, 5, 5, 5, 5, 5, 5, 5, 5, 5, 5, 5, 5, 5, 5, 5, 5, 5, 5, 5, 5, 5, 5, 5, 5, 5, 5, 5, 5, 5, 5, 5, 5, 5, 5, 5, 5, 5, 5, 5, 5, 5, 5, 5, 5, 5, 5, 5, 5, 5, 5, 5, 5, 5, 5, 5, 5, 5, 5, 5, 5, 5, 5, 5, 5, 5, 5, 5, 5, 5, 5, 5, 5, 5, 5, 5, 5, 5, 5, 5, 5, 5, 5, 5, 5, 5, 5, 5, 5, 5, 5, 5, 5, 5, 5, 5, 5, 5, 5, 5, 5, 5, 5, 5, 5, 5, 5, 5, 5, 5, 5, 5, 5, 5, 5, 5, 5, 5, 5, 5, 5, 5, 5, 5, 5, 5, 5, 5, 5, 5, 5, 5, 5, 5, 5, 5, 5, 5, 5, 5, 5, 5, 5, 5, 5, 5, 5, 5, 5, 5, 5, 5, 5, 5, 5, 5, 5, 5, 5, 5, 5, 5, 5, 5, 5, 5, 5, 5, 5, 5, 5, 5, 5, 5, 5, 5, 5, 5, 5, 5, 5, 5, 5, 5, 5, 5, 5, 5, 5, 5, 5, 5, 5, 5, 5, 5, 5, 5, 5, 5, 5, 5, 5, 5, 5, 5, 5, 5, 5, 5, 5, 5, 5, 5, 5, 5, 5, 5, 5, 5, 5, 5, 5, 5, 5, 5, 5, 5, 5, 5, 5, 5, 5, 5, 5, 5, 5, 5, 5, 5, 5, 5, 5, 5, 5, 5, 5, 5, 5, 5, 5, 5, 5, 5, 5, 5, 5, 5, 5, 5, 5, 5, 5, 5, 5, 5, 5, 5, 5, 5, 5, 5, 5, 5, 5, 5, 5, 5, 5, 5, 5, 5, 5, 5, 5, 5, 5, 5, 5, 5, 5, 5, 5, 5, 5, 5, 5, 5, 5, 5, 5, 5, 5, 5, 5, 5, 5, 5, 5, 5, 5, 5, 5, 5, 5, 5, 5, 5, 5, 5, 5, 5, 5, 5, 5, 5, 5, 5, 5, 5, 5, 5, 5, 5, 5, 5, 5, 5, 5, 5, 5, 5, 5, 5, 5, 5, 5, 5, 5, 5, 5, 5, 5, 5, 5, 5, 5, 5, 5, 5, 5, 5, 5, 5, 5, 5, 5, 5, 5, 5, 5, 5, 5, 5, 5, 5, 5, 5, 5, 5, 5, 5, 5, 5, 5, 5, 5, 5, 5, 5, 5, 5, 5, 5, 5, 5, 5, 5, 5, 5, 5, 5, 5, 5, 5, 5, 5, 5, 5, 5, 5, 5, 5, 5, 5, 5, 5, 5, 5, 5, 5, 5, 5, 5, 5, 5, 5, 5, 5, 5, 5, 5, 5, 5, 5, 5, 5, 5, 5, 5, 10, 5, 5, 5, 5, 5, 5, 5, 5, 5, 5, 5, 5, 5, 5, 5, 5, 5, 5, 5, 5, 5, 5, 5, 5, 5, 5, 5, 5, 5, 5, 5, 5, 5, 5, 5, 5, 5, 5, 5, 5, 5, 10, 10, 10, 5, 5, 5, 5, 5, 5, 5, 5, 5, 5, 5, 5, 5, 5, 5, 5, 5, 5, 5, 5, 5, 5, 5, 5, 5, 5, 5, 5, 5, 5, 5, 5, 5, 5, 5, 5, 5, 5, 5, 5, 5, 5, 5, 5, 5, 5, 5, 5, 5, 5, 5, 5, 5, 5, 5, 5, 5, 5, 5, 5, 5, 5, 5, 5, 5, 5, 5, 5, 15, 15, 5, 5, 5, 5, 5, 5, 5, 5, 5, 5, 5, 5, 5, 5, 5, 5, 5, 5, 5, 5, 5, 5, 15, 15, 5, 5, 5, 5, 5, 5, 5, 15, 15, 5, 5, 5, 5, 5, 5, 5, 5, 5, 5, 5, 5, 5, 5, 5, 15, 15, 5, 5, 5, 5, 5, 5, 5, 5, 5, 5, 5, 5, 5, 5, 5, 5, 5, 5, 5, 5, 5, 5, 5, 15] p=0.22"]
S862 -> S863 [label="4 [5, 5, 5, 5, 5, 5, 5, 10, 5, 10, 5, 5, 5, 5, 5, 5, 5, 10, 5, 10] p=0.38"]
S862 -> S7 [label="2 [5, 10, 5, 10, 10, 10, 10, 5, 10, 10, 5, 10, 5, 10, 10, 5] p=0.3"]
S862 -> S96 [label="1 [10, 10, 10, 10, 10, 10, 10, 10, 10, 10, 10, 10, 10, 10, 10, 10, 10] p=0.32"]
S3 -> S4 [label="4 [5, 10, 15, 5, 5, 5, 5, 15, 5, 5, 5, 10, 10, 10, 5, 5, 5, 15, 5, 5, 5, 5, 10, 5, 5, 5, 5, 10, 5, 5, 5, 5, 10, 5, 10, 5, 5, 5, 5, 10, 15, 5, 10, 5, 5, 5, 5, 5, 5, 5, 10, 5, 5, 5, 5, 5, 5, 10, 5, 5, 5, 5, 5, 5, 5, 10, 10, 5, 5, 5, 5, 5, 10, 5, 5, 5, 5, 5, 5, 5, 10, 5, 10, 5, 5, 5, 10, 5, 5, 5, 5, 10, 5, 5, 5, 5, 5, 5, 5, 5, 5, 5, 5, 5, 5, 5, 5, 5, 5, 5, 10, 5, 5, 5, 5, 5, 5, 5, 5, 5, 5, 5, 5, 5, 5, 5, 5, 10, 5, 5, 5, 5, 5, 5, 5, 5, 5, 5, 5, 5, 5, 5, 5, 5, 5, 10, 15, 5, 5, 5, 5, 5, 15, 5, 5, 5, 15, 5, 5, 5, 10, 10, 10, 5, 5, 10, 5, 5, 5, 15, 5, 5, 10, 5, 5, 5, 5, 10, 15, 5, 5, 5, 15, 5, 5, 5, 5, 10, 10, 5, 5, 15, 5, 5, 5, 10, 5, 5, 5, 10, 5, 5, 5, 5, 5, 10, 15, 5, 10, 5, 5, 5, 5, 5, 5, 5, 5, 5, 5, 10, 5, 5, 5, 5, 5, 15, 5, 15, 5, 5, 5, 5] p=0.57"]
S3 -> S7 [label="2 [5, 5, 5, 5, 5, 5, 15, 5, 5, 5, 5, 15, 5, 5, 15, 15, 5, 15, 5, 5, 5, 5, 5, 10, 5, 15, 5, 5, 5, 5, 5, 5, 5, 10, 5, 15, 10, 5, 5, 15, 5, 15, 5, 15, 15, 10, 15, 5, 5, 15, 5, 5, 5, 15, 5, 5, 15, 5, 5, 15, 5, 5, 5, 15, 5, 5, 15, 15, 5, 5, 5, 5, 15, 5, 5, 5, 15, 5, 5, 15, 5, 5, 15, 5, 15, 5, 5, 10, 5, 5, 10, 5, 15, 15, 5, 5, 10, 5, 5, 5, 15, 15, 5, 10, 5, 10, 5, 15, 5, 15, 10, 5, 5, 15, 5, 5, 15, 5, 15, 15, 5, 10, 15, 15, 10, 5, 15] p=0.31"]
S3 -> S644 [label="3 [5, 5, 5, 5, 5, 5, 5, 5, 5, 5, 5, 5, 5, 5, 5, 5, 5, 5] p=0.04"]
S3 -> S7 [label="1 [15, 15, 15, 15, 15, 15, 15, 15, 15, 15, 15, 10, 10, 15, 15, 15, 15, 15, 15, 15, 15, 10, 10, 10, 15, 10, 15, 15, 15] p=0.07"]
S66 -> S67 [label="5 [15, 5, 5, 5, 5, 5, 5, 5, 5, 5, 5, 5, 5, 5, 5, 5, 5, 5, 5, 5, 5, 10, 5, 5, 5, 5, 5, 5, 5, 5, 5, 5, 5, 5, 5, 5, 10, 5, 5, 10, 5, 5, 5, 5, 5, 5, 10, 10, 5, 5, 5, 5, 10, 5, 5, 5, 5, 5, 5, 10, 5, 5, 5, 5, 5, 5, 5, 5, 5, 5, 10, 5, 5, 10, 5, 15, 5, 5, 5, 5, 5, 5, 5, 5, 5, 5, 5, 5, 5, 5, 5, 5, 5, 5, 5, 5, 5, 5, 5, 5, 5, 5, 5, 5, 5, 10, 5, 5, 5, 5, 5, 5, 5, 5, 5, 5, 5, 5, 5, 5, 5, 5, 10, 5, 5, 10, 5, 5, 5, 5, 5, 5, 5, 5, 10, 10, 5, 5, 5, 5, 5, 10, 5, 5, 5, 5, 5, 5, 5, 5, 5, 10, 5, 5, 10, 5, 5, 5, 5, 5, 5, 5, 5, 5, 5, 5, 5, 10, 5, 5, 5, 10, 10, 5, 5, 5, 5, 5, 5, 5, 5, 5, 5, 5, 5, 5, 5, 5, 5, 5, 5, 5, 5, 5, 5, 5, 5, 5, 5, 5, 5, 10, 5, 5, 10, 5, 5, 5, 5, 5, 10, 5, 5, 5, 10, 5, 5, 5, 5, 5, 10, 5, 5, 5, 5, 5, 5, 5, 5, 5, 10, 5, 5, 5, 5, 5, 5, 5, 5, 5, 5, 5, 5, 5, 10, 5, 5, 10, 5, 5, 5, 5, 10, 5, 5, 5, 5, 5, 5, 5, 5, 5, 5, 5, 5, 5, 5, 5, 5, 5, 5, 5, 5, 5, 15, 5, 5, 5, 5, 5, 5, 5, 5, 5, 5, 5, 5, 5, 5, 5, 5, 5, 5, 5, 5, 5, 5, 5, 5, 5, 5, 5, 5, 5, 5, 5, 5, 10, 5, 5, 5, 5, 5, 5, 5, 5, 5, 5, 5, 5, 5, 5, 5, 5, 5, 5, 5, 10, 5, 5, 5, 10, 5, 5, 5, 5, 5, 5, 5, 5, 5, 5, 5, 10, 10, 5, 5, 5, 5, 5, 5, 10, 5, 5, 5, 5, 5, 5, 5, 5, 5, 10, 5, 5, 10, 5, 5, 5, 5, 5, 5, 5, 5, 5, 5, 5, 5, 10, 5, 5, 5, 5, 5, 10, 10, 5, 5] p=0.92"]
S66 -> S7 [label="3 [5, 5, 5, 5, 5, 5, 5, 5, 10, 5, 5, 5, 5, 5, 5, 5, 5, 5, 5, 5, 5, 10, 5, 5, 5] p=0.06"]
S66 -> S1036 [label="2 [5, 5, 5, 5, 5, 5, 5] p=0.02"]
S580 -> S581 [label="5 [5, 5, 5, 5, 5, 5, 5, 5, 5, 5, 5, 5, 5, 5, 5, 5, 5, 5, 5, 5, 5, 5, 5, 5, 5, 5, 5, 5, 5, 5, 5, 5, 5, 5, 5, 5, 10, 5, 5, 5, 5, 5, 10, 5, 5, 5, 5, 10, 5, 5, 5, 5, 5, 5, 5, 5, 5, 5, 5, 5, 5, 5, 5, 5, 5, 5, 5, 5, 5, 10, 5, 5, 5, 5, 5, 5, 5, 5, 5, 5, 5, 5, 5, 5, 5, 5, 5, 5, 5, 5, 5, 5, 5, 5, 5, 5, 5, 5, 10, 5, 5, 5, 5, 5, 5, 10, 5, 5, 5, 5, 10, 5, 5, 5, 5, 5, 5, 5, 5, 5, 5, 5, 5, 5, 5, 5, 5, 5, 5] p=0.79"]
S580 -> S7 [label="4 [5, 5, 5, 5, 5, 5, 5, 5, 5, 5, 5, 5, 5, 5, 5, 5, 5, 5, 5, 5, 5, 5, 5, 5, 5, 5, 5, 5, 5, 5, 5, 5, 5, 5, 5] p=0.21"]
S828 -> S8 [label="5 [5, 5, 5, 5, 5, 5, 5, 5, 5, 5, 5, 5, 5, 5, 5, 5, 5, 5, 5, 5, 5, 5, 5, 5] p=0.41"]
S828 -> S7 [label="4 [5, 5, 5, 5, 5, 5, 5, 5, 5, 5, 5, 5, 5, 5, 5, 5, 5, 5, 5, 5, 5, 5] p=0.37"]
S828 -> S7 [label="2 [5, 5, 5, 5, 5, 5, 5, 5, 5, 5, 5, 5, 5] p=0.22"]
S26 -> S27 [label="5 [10, 10, 5, 5, 5, 5, 10, 5, 5, 10, 10, 5, 5, 5, 5, 5, 10, 5, 10, 5, 5, 5, 5, 5, 10, 5, 10, 5, 10, 15, 5, 10, 5, 5, 5, 5, 5, 5, 10, 5, 10, 5, 5, 5, 5, 5, 5, 5, 5, 5, 5, 5, 5, 5, 10, 10, 5, 5, 5, 10, 10, 5, 10, 10, 5, 5, 10, 10, 5, 5] p=0.88"]
S26 -> S7 [label="2 [5, 5, 5, 5, 5, 5, 5, 5, 5, 5] p=0.12"]
S8 -> S7 [label="2 [5, 5, 5, 5, 5, 5, 15, 15, 15, 15, 5, 5, 10, 10, 10, 5, 5, 5, 5, 10, 10, 10, 10, 5, 5, 5, 5, 5, 10, 10, 10, 10, 15, 5, 15, 15, 5, 5, 5, 5, 5, 5, 5, 5, 5, 10, 10, 10, 10, 10, 10, 5, 10, 15, 10, 10, 10, 15, 10, 10, 5, 10, 15, 10, 10, 5, 5, 5, 5, 5, 5, 5, 5, 5, 5, 5, 5, 5, 5, 5, 5, 5, 5, 5, 10, 10, 5, 5, 5, 15, 5, 5, 5, 5, 5, 5, 5, 5, 5, 5, 5, 5, 5, 5, 5, 5, 5, 5, 5, 5, 5, 5, 5, 5, 5, 5, 5, 5, 5, 5, 5, 5, 5, 5, 5, 5, 15, 5, 10, 5, 15, 5, 5, 10, 5, 5, 5, 10, 5, 10, 15, 5, 5, 10, 5, 5, 10, 10, 10, 10, 10, 10, 10, 15, 5, 15, 5, 15, 15, 15, 15, 15, 5, 15, 10, 10, 15, 10, 15, 15, 15, 5, 15, 15, 10, 15, 10, 10, 5, 5, 5, 10, 10, 10, 10, 15, 15, 15, 5, 5, 5, 10, 10, 5, 10, 10, 5, 10, 5, 10, 10, 5, 5, 5, 15, 15, 5, 15, 5, 15, 5, 5, 5, 5, 5, 5, 5, 5, 10, 5, 15, 5, 5, 10, 15, 15, 15, 5, 15, 10, 15, 10, 15, 10, 15, 15, 15, 15, 15, 10, 15, 10, 15, 15, 15, 5, 5, 5, 5, 5, 5, 5, 15, 5, 5, 5, 5, 5, 15, 5, 5, 15, 5, 5, 15, 5, 5, 5, 5, 5, 5, 5, 15, 5, 5, 5, 5, 5, 10, 20, 15, 5, 10, 10, 20, 15, 15, 10, 20, 5, 10, 10, 20, 15, 15, 15, 15, 15, 15, 15, 5, 15, 15, 15, 15, 15, 15, 15, 15, 15, 15, 15, 15, 15, 15, 15, 15, 10, 15, 15, 15, 10, 10, 10, 10, 10, 10, 10, 5, 5, 15, 5, 15, 5, 15, 5, 15, 5, 15, 15, 15, 5, 15, 15, 5, 15, 5, 15, 5, 15, 15, 15, 15, 15, 15, 15, 5, 5, 5, 15, 15, 15, 15, 15, 5, 5, 5, 5, 5, 5, 15, 10, 10, 10, 10, 10, 10, 10, 10, 10, 5, 10, 5, 10, 5, 10, 5, 15, 10, 10, 10, 10, 15, 15, 15, 15, 15, 15, 15, 10, 10, 10, 15, 10, 10, 15, 15, 10, 10, 10, 10, 10, 10, 5, 5, 5, 10, 10, 10, 15, 5, 5, 5, 5, 5, 5, 5, 5, 5, 5, 5, 5, 5, 5, 5, 5, 5, 5, 10, 5, 5, 5, 10, 5, 10, 5, 5, 5, 5, 5, 5, 5, 5, 5, 5, 5, 10, 5, 10, 5, 5, 5, 5, 5, 5, 5, 5, 5, 5, 5, 5, 5, 5, 5, 5, 5, 5, 5, 5, 5, 5, 5, 5, 5, 5, 5, 10, 5, 5, 5, 5, 5, 5, 10, 5, 5, 5, 5, 5, 5, 5, 5, 5, 5, 5, 5, 5, 10, 5, 5, 10, 5, 10, 5, 10, 5, 10, 5, 10, 5, 5, 5, 5, 5, 5, 5, 5, 5, 5, 5, 5, 5, 5, 5, 5, 5, 5, 5, 15, 5, 15, 5, 5, 5, 5, 5, 5, 5, 5, 5, 5, 10, 15, 15, 10, 15, 5, 5, 5, 5, 5, 5, 5, 5, 5, 5, 5, 5, 5, 5, 5, 5, 10, 10, 10, 10, 5, 5, 5, 5, 5, 15, 15, 15, 15, 10, 10, 10, 10, 10, 5, 10, 10, 5, 5, 5, 10, 20, 20, 10, 20, 5, 5, 5, 5, 20, 20, 10, 10, 5, 5, 5, 15, 10, 10, 10, 10, 10, 15, 15, 5, 5, 5, 5, 5, 5, 5, 5, 5, 15, 15, 10, 10, 5, 5, 10, 10, 10, 10, 5, 5, 5, 5, 5, 5, 5, 5, 5, 5, 5, 5, 5, 5, 5, 5, 5, 5, 5, 5, 5, 5, 5, 5, 5, 5, 5, 5, 5, 5, 15, 5, 5, 5, 10, 5, 5, 5, 15, 15, 5, 5, 10, 10, 5, 5, 5, 5, 10, 10, 10, 10, 10, 10, 10, 10, 10, 10, 10, 15, 15, 15, 15, 15, 15, 15, 15, 15, 15, 15, 15, 15, 15, 15, 15, 15, 15, 15, 5, 15, 10, 10, 10, 10, 5, 10, 5, 10, 5, 5, 5, 5, 5, 5, 5, 5, 10, 10, 5, 10, 5, 5, 15, 15, 10, 10, 5, 5, 5, 5, 10, 10, 10, 10, 10, 5, 5, 5, 5, 15, 5, 5, 15, 15, 5, 15, 10, 5, 5, 5, 5, 5, 5, 5, 5, 5, 5, 5, 5, 5, 5, 5, 5, 5, 5, 5, 5, 15, 15, 15, 5, 15, 5, 5, 5, 15, 15, 15, 5, 5, 10, 10, 10, 10, 10, 10, 10, 5, 5, 10, 10, 10, 5, 5, 5, 10, 5, 5] p=0.36"]
S8 -> S196 [label="3 [10, 5, 10, 5, 10, 5, 5, 5, 5, 5, 5, 5, 5, 5, 5, 5, 5, 5, 5, 5, 5, 5, 5, 5, 5, 5, 5, 5, 5, 5, 5, 5, 5, 5, 5, 5, 5, 5, 5, 5, 5, 5, 15, 5, 5, 5, 5, 15, 5, 5, 5, 5, 5, 5, 5, 5, 5, 5, 5, 10, 10, 10, 10, 10, 10, 10, 10, 5, 10, 5, 5, 10, 5, 5, 5, 5, 5, 5, 5, 5, 5, 5, 5, 5, 5, 5, 5, 5, 5, 5, 5, 5, 5, 5, 5, 5, 5, 5, 5, 5, 5, 5, 5, 5, 5, 5, 5, 5, 5, 5, 5, 5, 5, 5, 5, 5, 5, 5, 5, 5, 5, 5, 5, 5, 5, 5, 5, 5, 5, 5, 5, 5, 5, 5, 5, 10, 10, 5, 5, 5, 5, 5, 5, 5, 5, 5, 5, 5, 5, 5, 5, 5, 5, 5, 5, 5, 5, 5, 5, 5, 5, 5, 5, 5, 5, 5, 5, 5, 5, 5, 5, 5, 5, 5, 5] p=0.08"]
S8 -> S7 [label="1 [20, 20, 20, 20, 20, 20, 20, 20, 20, 20, 15, 15, 15, 15, 15, 15, 5, 15, 5, 15, 5, 15, 5, 15, 15, 15, 15, 15, 10, 15, 10, 15, 10, 15, 10, 5, 15, 10, 5, 15, 10, 10, 15, 10, 15, 15, 5, 5, 15, 15, 15, 5, 5, 10, 5, 5, 5, 5, 5, 15, 10, 10, 10, 10, 10, 10, 10, 10, 10, 10, 10, 10, 10, 10, 10, 10, 10, 10, 10, 10, 10, 10, 10, 15, 10, 10, 15, 10, 15, 15, 15, 15, 5, 5, 5, 5, 5, 5, 5, 5, 5, 5, 5, 5, 5, 5, 5, 10, 10, 10, 10, 10, 10, 5, 10, 10, 10, 10, 5, 5, 5, 5, 5, 5, 10, 15, 5, 5, 10, 5, 5, 10, 10, 10, 10, 10, 10, 10, 10, 10, 15, 5, 5, 5, 5, 10, 10, 10, 10, 10, 20, 20, 20, 20, 20, 20, 15, 5, 5, 5, 10, 10, 5, 5] p=0.07"]
S8 -> S7 [label="4 [10, 5, 10, 5, 5, 10, 5, 5, 5, 10, 5, 5, 5, 5, 5, 5, 5, 5, 5, 5, 5, 10, 5, 10, 5, 5, 10, 5, 10, 5, 5, 5, 5, 5, 5, 5, 5, 15, 10, 15, 10, 15, 5, 15, 10, 5, 5, 5, 5, 5, 5, 5, 5, 5, 5, 5, 5, 5, 5, 15, 5, 5, 5, 5, 5, 5, 5, 5, 5, 5, 5, 5, 5, 5, 5, 5, 5, 5, 5, 5, 5, 5, 5, 5, 5, 5, 5, 5, 5, 5, 5, 5, 5, 5, 5, 5, 5, 5, 5, 5, 5, 10, 5, 10, 5, 10, 5, 5, 5, 5, 5, 5, 10, 5, 5, 5, 5, 5, 5, 5, 5, 5, 5, 5, 5, 10, 5, 10, 5, 10, 5, 10, 5, 5, 5, 5, 5, 5, 5, 10, 5, 5, 5, 5, 5, 5, 5, 10, 15, 10, 15, 5, 10, 15, 5, 5, 5, 5, 5, 5, 5, 5, 5, 5, 5, 5, 5, 5, 15, 5, 5, 5, 5, 5, 5, 5, 5, 5, 10, 10, 5, 5, 5, 5, 5, 5, 5, 5, 5, 5, 10, 5, 10, 5, 10, 5, 10, 10, 10, 10, 5, 10, 5, 5, 5, 5, 5, 5, 5, 5, 5, 5, 5, 5, 5, 5, 10, 5, 10, 5, 5, 10, 5, 10, 5, 10, 10, 5, 10, 10, 10, 10, 15, 15, 5, 5, 5, 5, 5, 5, 5, 5, 5, 5, 5, 5, 5, 5, 5, 5, 5, 5, 10, 10, 10, 5, 10, 10, 10, 10, 5, 5, 5, 5, 5, 5, 5, 5, 5, 5, 5, 5, 10, 5, 5, 5, 5, 10, 10, 5, 5, 5, 5, 10, 10, 10, 5, 5, 10, 5, 5, 10, 10, 5, 5, 5, 5, 5, 5, 5, 5, 5, 10, 10, 5, 5, 5, 5, 5, 5, 5, 5, 5, 5, 5, 5, 5, 5, 5, 5, 5, 5, 5, 5, 15, 15, 15, 15, 15, 5, 5, 5, 5, 5, 5, 5, 5, 5, 5, 5, 5, 5, 5, 5, 5, 5, 10, 10, 10, 5, 5, 10, 5, 10, 10, 5, 5, 5, 5, 5, 5, 10, 5, 5, 5, 5, 5, 5, 5, 10, 10, 5, 5, 5, 5, 5, 5, 5, 10, 5, 5, 5, 15, 15, 15, 10, 10, 5, 5, 10, 10, 10, 5, 5, 5, 5, 5, 5, 10, 10, 10, 5, 5, 5, 5, 5, 5, 5, 5, 5, 5, 5, 15, 10, 5, 5, 5, 5, 5, 15, 15, 5, 10, 10, 5, 5, 5, 15, 10, 5, 5, 15, 10, 5, 5, 5, 5, 5, 10, 5, 20, 5, 5, 10, 5, 15, 15, 15, 5, 10, 10, 5, 10, 5, 5, 5, 10, 5, 5, 10, 5, 10, 5, 10, 5, 5, 10, 10, 5, 5, 10, 5, 10, 5, 5, 5, 10, 5, 5, 10, 5, 10, 5, 5, 10, 10, 5, 5, 5, 10, 5, 10, 5, 5, 5, 5, 10, 5, 5, 15, 5, 5, 5, 5, 5, 5, 15, 5, 5, 5, 5, 5, 5, 15, 5, 5, 5, 5, 5, 5, 5, 15, 5, 5, 5, 5, 5, 5, 5, 15, 15, 5, 15, 5, 5, 5, 5, 5, 5, 5, 5, 15, 15, 15, 10, 5, 10, 5, 5, 5, 5, 10, 5, 10, 5, 5, 5, 5, 5, 5, 10, 5, 10, 5, 10, 5, 10, 10, 10, 5, 10, 10, 5, 5, 15, 15, 15, 15, 15, 5, 5, 5, 5, 10, 10, 10, 5, 5, 5, 15, 15, 15, 15, 15, 15, 5, 5, 5, 5, 5, 5, 5, 5, 5, 5, 5, 5, 5, 15, 10, 15, 10, 10, 15, 10, 15, 10, 15, 15, 5, 10, 15, 10, 15, 5, 5, 5, 15, 5, 10, 5, 5, 10, 15, 15, 5, 10, 15, 15, 5, 15, 15, 15, 15, 15, 10, 15, 5, 10, 5, 5, 15, 5, 10, 5, 5, 5, 5, 5, 5, 5, 5, 5, 5, 5, 10, 5, 5, 10, 5, 5, 10, 5, 5, 5, 5, 5, 15, 5, 5, 5, 5, 10, 5, 5, 5, 5, 5, 10, 5, 5, 5, 5, 5, 5, 5, 5, 5, 5, 5, 5, 10, 10, 5, 5, 5, 5, 5, 5, 5, 5, 5, 5, 5, 5, 5, 5, 5, 5, 5, 5, 5, 5, 5, 5, 10, 10, 10, 10, 10, 5, 5, 5, 5, 10, 5, 5, 5, 5, 5, 5, 5, 5, 5, 5, 5, 5, 5, 5, 5, 5, 5, 5, 5, 5, 10, 10, 10, 10, 10, 5, 5, 5, 5, 5, 5, 5, 5, 5, 5, 5, 5, 5, 5, 5, 5, 5, 5, 5, 5, 5, 5, 5, 5, 5, 5, 5, 5, 5, 5, 5, 5, 5, 5, 5, 5, 5, 5, 5, 5, 5, 5, 5, 5, 5, 5, 5, 5, 5, 5, 5, 5, 5, 5, 5, 5, 5, 5, 5, 5, 5, 5, 5, 5, 10, 10, 5, 5, 5, 5, 5, 5, 5, 5, 5, 10, 5, 5, 5, 5, 5, 5, 5, 5, 5, 5, 5, 5, 5, 10, 15, 5, 5, 5, 5, 10, 10, 10, 10, 5, 5, 5, 5, 5, 10, 5, 5, 5, 5, 5, 5, 5, 5, 10, 5, 5, 5, 5, 5, 5, 5, 5, 5, 5, 5, 5, 5, 5, 5, 5, 5, 5, 10, 10, 10, 5, 5, 5, 5, 5, 5, 5, 5, 5, 5, 5, 5, 5, 5, 5, 5, 5, 5, 5, 5, 5, 5, 5, 5, 5, 5, 5, 5, 5, 5, 5, 5, 5, 5, 5, 5, 5, 5, 5, 5, 5, 5, 5, 5, 5, 5, 5, 15, 15, 5, 5, 15, 15, 15, 10, 10, 10, 10, 10, 10, 10, 5, 5, 10, 5, 10, 10, 10, 10, 5, 5, 5, 5, 10, 5, 5, 5, 5, 5, 5, 5, 5, 5, 5, 5, 5, 5, 5, 5, 5, 5, 5, 5, 5, 5, 5, 5, 5, 5, 5, 5, 5, 5, 5, 5, 5, 5, 5, 5, 5, 5, 5, 5, 5, 5, 5, 5, 5, 10, 5, 5, 5, 5, 5, 5, 5, 5, 5, 5, 5, 5, 5, 5, 15, 10, 10, 5, 5, 5, 5, 5, 5, 5, 5, 5, 5, 5, 5, 5, 5, 5, 5, 15, 15, 15, 15, 5, 5, 5, 5, 5, 5, 5, 5, 5, 5, 5, 10, 10, 5, 5, 5, 5, 5, 5, 5, 10, 10, 10, 5, 15, 15, 5, 5, 5, 5, 5, 5, 5, 5, 5, 5, 5, 5, 10, 10, 10, 10, 15, 15, 5, 5, 5, 10, 5, 5, 5, 10, 5, 5, 5, 5, 5, 10, 10, 10, 5, 10, 5, 5, 5, 5, 5, 5, 5, 10, 10, 10, 10, 10, 10, 10, 10, 5, 5, 5, 5, 5, 5, 5, 10, 5] p=0.5"]
S863 -> S864 [label="5 [10, 10, 5, 10, 10, 10] p=0.3"]
S863 -> S7 [label="2 [5, 5, 5, 5, 5, 5, 5, 5, 5, 5] p=0.5"]
S863 -> S7 [label="3 [20, 20] p=0.1"]
S863 -> S7 [label="1 [5, 5] p=0.1"]
S4 -> S5 [label="5 [5, 5, 10, 5, 5, 5, 5, 5, 5, 5, 5, 5, 5, 5, 5, 10, 5, 10, 5, 5, 5, 5, 5, 5, 10, 5, 5, 5, 5, 5, 5, 5, 5, 10, 5, 5, 15, 5, 5, 5, 5, 5, 5, 5, 5, 5, 5, 5, 5, 5, 5, 10, 5, 5, 5, 5, 5, 5, 5, 5, 5, 5, 5, 10, 5, 5, 5, 5, 5, 5, 5, 5, 5, 5, 5, 5, 5, 5, 5, 5, 5, 5, 5, 5, 5, 5, 5, 5, 5, 5, 5, 5, 5, 5, 5, 5, 10, 5, 5, 5, 5, 5, 5, 5, 5, 5, 5, 5, 5, 5, 5, 5, 10, 5, 5, 5, 5, 5, 5, 5, 5, 5, 5, 5, 5, 5, 5, 5, 5, 10, 5, 5, 5, 5, 5, 5, 5, 10, 5, 5, 5, 5, 5, 5, 5, 5, 5, 5, 5, 10, 5, 5, 5, 10, 5, 5, 5, 5, 5, 5, 5, 5, 5, 10, 5, 5, 5, 5, 5, 5, 5, 5, 5, 5, 5, 10, 5, 5, 15, 5, 5, 5, 5, 5, 5, 5, 5, 5, 5, 5, 5, 5, 5, 5, 5, 5, 5, 5, 5, 5, 10] p=0.87"]
S4 -> S7 [label="2 [5, 5, 5, 10, 10, 5, 5, 5, 5, 5] p=0.04"]
S4 -> S828 [label="3 [5, 5, 5, 5, 5, 5, 5, 10, 5, 10] p=0.04"]
S4 -> S7 [label="1 [15, 10, 10, 10, 10, 10, 10, 10, 10] p=0.04"]
S1036 -> S1037 [label="5 [5, 5, 5, 5] p=0.57"]
S1036 -> S7 [label="4 [5, 5, 5] p=0.43"]
S67 -> S7 [label="2 [5, 10, 5, 15, 5, 5, 5, 10, 5, 15, 15, 10, 5, 10, 15, 10, 10, 15, 15, 10, 10, 10, 5, 15, 15, 5, 10, 5, 15, 15, 5, 5, 10, 5, 10, 10, 5, 15, 15, 10, 5, 15, 10, 15, 15, 10, 10, 15, 15, 10, 10, 10, 10, 5, 15, 15, 10, 5, 5, 10, 15, 15, 10, 10, 15, 10, 10, 15, 15, 10, 10, 5, 15, 15, 5, 10, 15, 15, 10, 15, 5, 5, 5, 5, 10, 5, 10, 15, 15, 15, 5, 5, 10, 5, 10, 10, 5, 15, 5, 15, 10, 5, 15, 10, 10, 15, 15, 10, 10, 15, 15, 10, 10, 10, 10, 5, 15, 15, 15] p=0.31"]
S67 -> S7 [label="1 [15, 15, 15, 10, 15, 15, 15, 5, 10, 15, 10, 15, 15, 10, 15, 15, 15, 5, 10] p=0.05"]
S67 -> S186 [label="4 [5, 5, 10, 5, 5, 5, 5, 5, 5, 10, 5, 5, 10, 5, 5, 5, 10, 15, 5, 15, 10, 5, 10, 5, 5, 5, 5, 5, 5, 10, 15, 10, 10, 5, 10, 5, 5, 5, 5, 10, 5, 10, 5, 10, 5, 5, 10, 10, 5, 5, 10, 5, 5, 5, 5, 5, 5, 5, 10, 5, 5, 10, 5, 5, 5, 5, 5, 10, 15, 5, 15, 10, 5, 5, 5, 5, 10, 5, 5, 5, 5, 5, 5, 10, 5, 10, 15, 10, 10, 10, 5, 5, 5, 10, 5, 5, 5, 5, 5, 5, 15, 5, 5, 5, 5, 5, 10, 5, 5, 10, 5, 5, 5, 5, 5, 10, 15, 5, 15, 10, 5, 5, 5, 5, 5, 10, 5, 5, 5, 5, 5, 5, 5, 5, 15, 5, 10, 10, 10, 5, 10, 15, 15, 5, 10, 10, 10, 5, 5, 5, 5, 10, 10, 5, 5, 5, 10, 10, 5, 10, 10, 5, 5, 5, 10, 5, 5, 5, 5, 5, 5, 5, 15, 5, 5, 5, 5, 5, 5, 10, 5, 5, 10, 10, 5, 5, 5, 5, 5, 10, 15, 5, 15, 10, 5, 5, 5, 5, 10, 5, 5, 5, 10, 5, 5, 5, 5, 5, 5, 5, 5, 5, 15, 5, 10, 10, 10, 5, 10, 15, 15, 5, 5, 10, 10, 10, 5, 5] p=0.59"]
S67 -> S27 [label="3 [10, 5, 10, 5, 10, 5, 5, 10, 10, 10, 5, 5, 5, 10, 10, 10, 5, 5, 5] p=0.05"]
S644 -> S7 [label="4 [5, 5, 5] p=0.17"]
S644 -> S7 [label="2 [5, 5, 5, 5, 5, 5, 5, 5, 5] p=0.5"]
S644 -> S4555 [label="5 [5, 5, 5, 5, 5, 5] p=0.33"]
S581 -> S7 [label="4 [10, 20, 10, 15, 10, 5, 20, 10, 15, 10, 5, 20, 10, 15, 10, 10, 20, 10, 15, 10, 5, 5, 5, 15, 10, 10, 5, 15, 5, 5, 15, 5, 10, 15, 5, 5, 5, 5, 5, 5, 5, 5, 5, 5, 15, 10, 10, 15, 5, 10, 15, 5, 5, 5, 5, 5, 5, 5, 5, 5, 10, 5, 5, 5, 5, 5, 5, 15, 10, 10, 5, 15, 5, 5, 15, 5, 10, 15, 5, 5, 5, 5, 5, 5, 5, 5, 5] p=0.67"]
S581 -> S7 [label="3 [5, 5, 5, 5, 5, 5, 5, 5, 5, 5, 5, 5, 5, 5] p=0.11"]
S581 -> S7 [label="1 [10, 10, 10, 20, 20] p=0.04"]
S581 -> S7 [label="2 [10, 15, 10, 15, 5, 5, 5, 10, 5, 15, 15, 5, 5, 5, 5, 5, 5, 5, 5, 5, 5, 15, 15] p=0.18"]
S27 -> S7 [label="2 [10, 10, 10, 10, 10, 15, 10, 10, 15, 10, 10, 10, 5, 10, 5, 15, 5, 10, 10, 10, 15, 15, 15, 5, 10, 5, 10, 5, 5, 5, 5, 5, 5, 5, 5, 5, 5, 5, 5] p=0.48"]
S27 -> S7 [label="1 [5, 5, 5, 5, 5, 5, 5, 5, 5, 5, 15, 15] p=0.15"]
S27 -> S7 [label="4 [5, 5, 5, 5, 5, 5, 5, 10, 5, 5, 5, 5, 5, 5, 10, 5, 5, 5, 10, 5, 5, 5, 10, 5, 5, 5, 5, 5, 15, 15] p=0.37"]
S96 -> S97 [label="4 [5, 5, 5, 5, 5, 5, 5, 5, 5, 5, 5, 5, 5, 5, 5, 5, 5, 5, 5, 5, 5, 5, 5, 5, 5, 5, 5, 5, 5, 5, 5, 5, 5, 5, 5, 5, 5, 5, 5, 5, 5, 5, 5, 5, 5, 5, 5, 5, 5, 5, 5, 5, 5, 5, 5, 5, 5, 5, 5, 5, 5, 5, 5, 5, 5, 5, 5, 5, 5, 5, 5, 5, 5, 5, 5, 5, 5, 5, 5, 5, 5, 5, 5] p=0.66"]
S96 -> S387 [label="5 [5, 10, 10, 5, 5, 10, 5, 10, 5, 10, 10, 5, 5, 5, 10, 5, 10, 10, 5, 5, 5, 10, 5, 10, 10, 10, 5, 5, 5, 5, 10, 5, 5, 5, 5, 5, 5, 5, 5, 5, 5, 5, 5] p=0.34"]
S196 -> S203 [label="2 [5, 5, 5, 5, 5, 5, 5, 5, 5, 5, 5, 5, 5, 5, 5, 5, 5, 5, 5, 5, 5, 5, 5, 5, 5, 5, 5, 5, 5, 5, 5, 5, 5, 5, 5, 5, 5, 5, 5, 5, 5, 5, 5, 5, 5, 5, 5, 5, 5, 5, 5, 5, 5, 5, 5, 5, 5, 5, 5, 5] p=0.41"]
S196 -> S1611 [label="5 [5, 5, 5, 5, 5, 5, 5, 5, 5, 5, 5, 5, 5, 5, 5, 5, 5, 5, 5, 5, 5, 5, 5, 5, 5, 5, 5, 5, 5, 5, 5, 5, 5, 5, 5, 5, 5, 5, 5, 5, 5, 5, 5, 5, 5, 5, 5, 5, 5, 5, 5, 5, 5] p=0.37"]
S196 -> S26 [label="4 [5, 5, 5, 5, 5, 5, 5, 5, 5, 5, 5, 5, 5, 5, 5, 5, 5, 5, 5, 5, 5, 5, 5, 5, 5, 5, 5, 5] p=0.19"]
S196 -> S534 [label="1 [5, 5, 5, 5] p=0.03"]
S864 -> S865 [label="4 [5, 5, 5, 5] p=0.67"]
S864 -> S9 [label="4 [10, 10] p=0.33"]
S4555 -> S4556 [label="4 [5] p=0.17"]
S4555 -> S7 [label="2 [10] p=0.17"]
S4555 -> S7 [label="1 [10, 10, 10, 10] p=0.67"]
S5 -> S6 [label="3 [5, 5, 5, 5, 5, 5, 5, 5, 10, 5, 5, 5, 5, 10, 5, 5, 5, 5, 5, 5, 5, 10, 5, 5, 5, 5, 5, 5, 5, 5, 5, 5, 5, 5, 5, 10, 5] p=0.19"]
S5 -> S7 [label="1 [15, 10, 10, 5, 10, 15, 10, 10, 5] p=0.05"]
S5 -> S96 [label="2 [5, 5, 10, 5, 5, 5, 10, 5, 5, 5, 5, 5, 5, 5, 5, 10, 5, 5, 5, 5, 5, 5, 15, 5, 10, 5, 5, 5, 5, 5, 10, 5, 5, 5, 5, 5, 5, 5, 5, 5, 10, 5, 10, 5, 5, 5, 5, 5, 5, 5, 5, 10, 5, 5, 5, 5, 5, 5, 5, 10, 5, 5, 5, 5, 5, 10, 5, 5, 5, 5, 15, 5, 10, 5, 5, 5, 5, 5, 5, 5, 10, 5, 5, 5, 5, 5, 5, 5, 5, 5, 5, 5, 5, 5, 5, 5, 10, 5, 10, 5, 10, 5, 5, 5, 5, 5, 5, 5, 5, 5] p=0.55"]
S5 -> S1148 [label="4 [5, 5, 5, 5, 5, 5, 5, 5, 5, 5, 5, 5, 5, 5, 5, 5, 5, 5, 5, 5, 5, 5, 5, 5, 5, 5, 5, 5, 5, 5, 5, 5, 5, 5, 5, 5, 5, 5, 5, 5, 5, 5, 5] p=0.22"]
S1037 -> S8 [label="2 [10, 10, 5] p=0.43"]
S1037 -> S7 [label="1 [10, 10, 10, 10] p=0.57"]
S186 -> S187 [label="5 [5, 5, 10, 5, 5, 5, 5, 5, 5, 5, 5, 5, 10, 10, 5, 10, 5, 5, 5, 5, 5, 5, 5, 10, 15, 5, 10, 5, 5, 5, 5, 5, 5, 5, 5, 5, 10, 5, 5, 5, 5, 5, 5, 5, 5, 5, 5, 5, 5, 10, 10, 5, 10, 5, 5, 5, 5, 5, 5, 5, 5, 5, 5, 10, 15, 5, 5, 5, 10, 5, 5, 5, 5, 5, 5, 10, 5, 5, 5, 5, 5, 5, 5, 5, 5, 5, 10, 10, 5, 10, 5, 5, 5, 5, 5, 5, 5, 5, 5, 5, 5, 5, 5, 5, 5, 10, 10, 5, 15, 5, 5, 5, 5, 5, 5, 5, 5, 5, 5, 10, 5, 5, 5, 5, 5, 5, 10, 5, 5, 5, 5, 5, 5, 5, 5, 5, 5, 5, 10, 10, 5, 10, 5, 5, 5, 10, 5, 5, 5, 5, 5, 5, 5, 5, 5, 5, 5, 5, 5, 5, 10, 10, 5, 15, 5, 5] p=0.74"]
S186 -> S1556 [label="3 [5, 5, 5, 5, 5, 5] p=0.03"]
S186 -> S7 [label="1 [5, 5, 5, 5, 5, 5, 5] p=0.03"]
S186 -> S1233 [label="2 [5, 5, 5, 5, 10, 5, 5, 10, 5, 5, 5, 5, 5, 5, 5, 5, 5, 10, 5, 5, 5, 5, 10, 5, 10, 5, 5, 5, 5, 5, 10, 5, 10, 5, 5, 5, 5, 5, 5, 5, 5] p=0.18"]
S186 -> S10 [label="3 [10, 10, 10, 10, 10] p=0.02"]
S97 -> S98 [label="5 [5, 5, 5, 5, 5, 5, 5, 5, 5, 5, 5, 5, 5, 5, 5, 5, 5, 5, 5, 5, 5, 5, 5, 5, 5, 5, 5, 5, 5, 5, 10, 5, 5, 5, 5, 5, 5, 5, 5, 5, 5, 5, 5, 5, 5, 5, 5, 5, 5, 5, 5, 10, 5, 5, 5, 5, 5, 5, 10, 5, 5, 5, 5, 5, 5, 5, 5, 10, 5, 5, 5, 5, 5] p=0.89"]
S97 -> S2066 [label="3 [5, 5, 5, 5, 5, 5, 5, 5, 5] p=0.11"]
S387 -> S388 [label="4 [5, 5, 5, 5, 5, 5, 5, 5, 5, 5, 5, 5, 5, 5, 5, 5, 5, 5, 5, 5, 5, 5, 5, 5, 5, 15, 5, 15, 5] p=0.67"]
S387 -> S7 [label="2 [10, 10, 10, 10, 15, 15, 15, 15, 15] p=0.21"]
S387 -> S2110 [label="3 [15, 15] p=0.05"]
S387 -> S11 [label="3 [5, 5, 5] p=0.07"]
S203 -> S211 [label="4 [5, 5, 5, 5, 5, 5, 5, 5, 5, 5, 5, 5] p=0.22"]
S203 -> S7 [label="5 [5, 5, 5, 5, 5, 5, 5, 5, 5, 5, 5, 5, 5, 5, 5, 5, 5, 5, 5, 5, 5, 5, 5, 5, 5, 5, 5, 5, 5, 5, 5, 5, 5, 5, 5, 5, 5, 5, 5, 5, 5, 5] p=0.78"]
S1611 -> S2088 [label="4 [5, 10, 5, 10, 5, 10, 5, 10, 5, 10, 5, 5, 10, 10, 5, 10, 10] p=0.4"]
S1611 -> S7 [label="2 [10, 5, 5, 5, 10, 5] p=0.14"]
S1611 -> S388 [label="1 [10, 10, 10, 10, 10, 10, 10, 10, 10, 10, 10, 10, 10, 10, 10, 10, 10, 10, 10] p=0.45"]
S865 -> S8 [label="5 [5, 5] p=0.5"]
S865 -> S8 [label="3 [5, 5] p=0.5"]
S1148 -> S1149 [label="5 [15, 5, 5, 5, 10, 10, 5, 5, 5, 10, 10, 5, 10, 5, 10, 10, 5, 10, 5, 5, 10, 10, 10, 10, 10, 10] p=0.6"]
S1148 -> S1239 [label="2 [5, 5, 5, 5, 5, 5, 5, 5, 5] p=0.21"]
S1148 -> S1239 [label="1 [5, 5, 5, 5, 5, 5, 5, 5] p=0.19"]
S1233 -> S1234 [label="5 [5, 5, 5, 5, 5, 5, 5, 5, 5, 5, 5, 5, 5, 5, 5, 5, 5, 5, 5, 5, 5, 5, 5, 5, 5, 5, 5, 5] p=0.72"]
S1233 -> S7 [label="4 [5, 5, 5, 5, 5, 5, 5, 5, 5, 5, 5] p=0.28"]
S2110 -> S1239 [label="2 [10, 10, 5, 5, 5, 5] p=1.0"]
S4556 -> S7 [label="1 [5] p=1.0"]
S6 -> S7 [label="4 [5, 5, 5, 5, 5, 5, 5, 5, 5] p=0.25"]
S6 -> S7 [label="2 [5, 5, 5, 5, 5, 5, 5, 5] p=0.22"]
S6 -> S16 [label="1 [5, 5, 5, 5, 5, 5, 5, 5, 5, 5] p=0.28"]
S6 -> S2722 [label="5 [5, 5, 5, 5, 5, 5, 5, 5, 5] p=0.25"]
S187 -> S188 [label="2 [5, 5, 5, 5, 5, 5, 5, 5, 5, 5, 5, 5, 5, 5, 5, 5, 5, 10, 5, 5, 5, 5, 5, 5, 5, 5, 5, 5, 5, 5, 5, 5, 5, 5, 5, 5, 5, 5, 5, 5, 5, 5, 5, 5, 10, 5, 5, 5, 5, 5, 5, 5, 5, 5, 5, 5, 5, 5, 5, 5, 5, 5, 5, 5, 5, 5, 5, 5, 5, 5, 10, 5, 5, 5, 5, 5, 5, 5, 5, 5, 5, 5, 5, 5, 5, 5, 5, 5, 5, 5, 5, 5, 5, 5, 5, 5, 5, 5, 5, 5, 5, 10] p=0.63"]
S187 -> S418 [label="4 [5, 5, 5, 5, 5, 5, 5, 5, 5, 5, 5, 5, 5, 5, 5, 5, 5, 5, 5, 5, 5, 5, 5, 5, 5, 5, 5, 5, 5, 5, 5, 5, 5, 5, 5, 5, 5, 5, 5, 5, 5, 5] p=0.26"]
S187 -> S1239 [label="1 [5, 15, 5, 15, 5, 15, 5, 15, 5] p=0.06"]
S187 -> S4067 [label="3 [5, 5, 5, 5] p=0.02"]
S187 -> S12 [label="4 [10, 10, 10, 10] p=0.02"]
S1556 -> S7 [label="4 [5, 5, 5, 5, 5] p=0.83"]
S1556 -> S1239 [label="2 [5] p=0.17"]
S98 -> S99 [label="2 [10, 10, 10, 5, 15, 10, 15, 10, 10, 5, 15, 10, 10, 5, 10, 15, 15, 10, 15, 10, 10, 10, 5, 15, 15, 15, 15, 15] p=0.39"]
S98 -> S179 [label="4 [5, 5, 5, 5, 15, 5, 15, 5, 10, 5, 5, 10, 5, 5, 5, 15, 15, 5, 10, 5, 15, 10, 5, 5, 5, 5, 5, 10, 15, 5, 15, 5, 10, 5, 5, 5, 15, 10, 5] p=0.55"]
S98 -> S7 [label="1 [15, 15, 15, 15] p=0.06"]
S2066 -> S2067 [label="5 [5, 5, 5, 5, 5, 5, 5, 5] p=1.0"]
S388 -> S389 [label="5 [5, 5, 5, 5, 5, 5, 5, 5, 5, 5, 5, 5, 5, 5, 5, 5, 5, 5, 5, 5, 5, 5, 5, 5, 10, 5, 10, 5, 5, 5, 5, 5, 5, 5, 5, 5, 5, 5, 5, 5, 5, 5, 5, 5, 5, 5, 5, 5, 5, 5, 5, 5] p=1.0"]
S534 -> S539 [label="5 [5, 5, 5, 5, 5, 5, 5, 5, 5, 5, 5, 5, 5, 5, 5, 5, 5, 5, 5, 5, 5, 5, 5, 5, 5, 5, 10, 5, 5, 5, 5, 5, 5, 5] p=0.94"]
S534 -> S534 [label="4 [5, 5] p=0.06"]
S2088 -> S2094 [label="5 [10, 10, 10, 10, 10, 10, 10, 10, 10, 10] p=0.71"]
S2088 -> S1239 [label="2 [5] p=0.07"]
S2088 -> S7 [label="3 [20, 20, 20] p=0.21"]
S9 -> S16 [label="1 [10, 10, 10, 10, 10] p=1.0"]
S10 -> S422 [label="5 [5, 5, 5, 5, 5] p=1.0"]
S11 -> S2111 [label="5 [5, 5, 5] p=1.0"]
S1149 -> S1150 [label="4 [10, 5, 10, 10, 5, 5, 5, 5, 5, 5, 5, 5] p=0.46"]
S1149 -> S388 [label="2 [5, 5, 5, 5, 5, 5, 5, 5, 5, 5, 5] p=0.42"]
S1149 -> S1239 [label="3 [5, 5, 5] p=0.12"]
S1234 -> S1235 [label="4 [15, 10, 15, 15, 5, 5, 5, 10, 15, 10, 15, 15, 10, 15, 15, 5, 5, 10, 15, 15, 5, 5] p=0.81"]
S1234 -> S7 [label="3 [5, 5, 5, 5, 5] p=0.19"]
S2111 -> S1239 [label="4 [5, 10] p=0.67"]
S2111 -> S1239 [label="1 [10] p=0.33"]
S4067 -> S1239 [label="4 [5, 5] p=0.5"]
S4067 -> S2110 [label="5 [5, 5] p=0.5"]
S188 -> S7 [label="4 [5, 5, 5, 5, 5, 5, 5, 5, 5, 5, 5, 5, 5, 5, 5, 5, 5, 5, 5, 5, 5, 5, 5, 5, 5, 5, 5, 5, 5, 5, 5, 5, 5, 5, 5, 5, 5, 5, 5, 5, 5, 5, 5, 5, 5, 5, 5, 5, 5] p=0.49"]
S188 -> S16 [label="3 [5, 5, 5, 5, 5] p=0.05"]
S188 -> S508 [label="5 [5, 10, 5, 5, 5, 5, 10, 5, 5, 10, 5, 10, 10, 5, 5, 5, 5, 10, 5, 10, 5, 10, 10, 5, 5, 10, 5, 5, 5, 5, 10, 5, 10, 5, 10, 10, 5, 5, 5, 5, 10, 5, 10, 10, 5, 10] p=0.46"]
S418 -> S419 [label="5 [5, 5, 5, 5, 5, 5, 5, 5, 5, 10, 5, 5, 5, 5, 5, 5, 10, 5, 10, 5, 5, 5, 5, 5, 5, 10, 5, 5, 10, 5, 5, 5] p=0.78"]
S418 -> S7 [label="2 [5, 10, 5, 10, 10, 5, 10] p=0.17"]
S418 -> S7 [label="3 [10, 10] p=0.05"]
S2722 -> S2724 [label="1 [10, 10, 10, 10, 10, 10, 10] p=0.88"]
S2722 -> S7 [label="2 [5] p=0.12"]
S99 -> S100 [label="4 [5, 5, 5, 5, 5, 5, 5, 5, 5, 5, 5, 5, 5, 5, 5, 5] p=0.59"]
S99 -> S1005 [label="5 [5, 5, 5, 10, 5, 5, 5, 5, 5, 5, 5] p=0.41"]
S2067 -> S2068 [label="1 [10, 10, 10] p=0.43"]
S2067 -> S2110 [label="4 [5, 5, 5] p=0.43"]
S2067 -> S7 [label="2 [10] p=0.14"]
S389 -> S7 [label="2 [10, 5, 5, 5, 10, 5, 5, 5, 10, 5, 5, 5, 5, 10, 5] p=0.37"]
S389 -> S1976 [label="4 [15, 15, 15, 15, 15, 5, 5, 5, 5, 5, 5, 5, 5] p=0.32"]
S389 -> S2398 [label="3 [15, 15, 15, 15, 15, 10, 10, 10, 5, 5, 5, 5, 5] p=0.32"]
S539 -> S7 [label="2 [15, 15, 15] p=0.19"]
S539 -> S1239 [label="3 [5, 5, 5] p=0.19"]
S539 -> S13 [label="4 [10, 10, 10, 10, 10, 10] p=0.38"]
S539 -> S18 [label="4 [20, 20, 20, 20] p=0.25"]
S2094 -> S2101 [label="4 [5, 5, 5, 5] p=0.5"]
S2094 -> S9 [label="4 [10, 10, 10, 10] p=0.5"]
S422 -> S7 [label="2 [5, 5, 5, 10, 10, 10, 10, 10, 10, 10, 5, 5, 5, 5] p=1.0"]
S1239 -> S8 [label="5 [5, 5, 5, 5, 5, 5, 5, 5, 5, 5, 5, 5, 5, 5, 5, 5, 5, 5, 5, 5, 5, 5, 5, 5, 5, 5, 5, 5, 5, 5, 5, 5, 5, 5, 5, 10, 10, 5, 5, 5, 5, 5, 5, 5, 5, 5, 5, 5, 5] p=1.0"]
S12 -> S2068 [label="1 [5, 5, 5, 5] p=1.0"]
S16 -> S7 [label="5 [5, 5, 5, 5, 5, 5, 5, 5, 5, 5, 5, 5, 5, 5, 5, 5, 5, 5, 5, 5, 5, 5, 5, 5, 5, 5] p=1.0"]
S1150 -> S16 [label="2 [5] p=0.08"]
S1150 -> S1926 [label="5 [5, 5, 5, 5, 5] p=0.42"]
S1150 -> S7 [label="1 [5] p=0.08"]
S1150 -> S15 [label="5 [10, 10, 10, 10, 10] p=0.42"]
S1235 -> S1236 [label="5 [10, 5, 5, 5, 5, 5, 5, 5, 5, 5, 5] p=0.55"]
S1235 -> S2792 [label="2 [10, 10, 10, 10, 5] p=0.25"]
S1235 -> S8 [label="3 [10, 10, 10, 10] p=0.2"]
S508 -> S509 [label="4 [5, 5, 5, 5, 10, 5, 5, 5, 5, 5, 5, 10, 5, 5, 5, 5, 10, 5, 5, 5, 5, 5, 5, 10, 5] p=0.58"]
S508 -> S1539 [label="2 [15, 5, 5, 5, 5, 5, 15, 5, 5, 15] p=0.23"]
S508 -> S203 [label="1 [15, 15, 15, 15, 15, 15, 15, 15] p=0.19"]
S419 -> S422 [label="3 [5, 5, 5, 5] p=0.13"]
S419 -> S26 [label="4 [10, 5, 5, 10, 5, 5, 5, 5, 5, 10, 5, 5, 5, 5] p=0.47"]
S419 -> S1498 [label="2 [5, 5, 5, 5, 5, 5, 5, 5, 5, 5] p=0.33"]
S419 -> S8 [label="1 [5, 5] p=0.07"]
S2724 -> S7 [label="4 [5, 5, 5, 5] p=0.67"]
S2724 -> S422 [label="5 [5, 5] p=0.33"]
S1005 -> S7 [label="2 [5, 5, 5] p=0.3"]
S1005 -> S7 [label="4 [10, 10, 10, 10, 10, 5, 5] p=0.7"]
S2101 -> S8 [label="3 [5, 5, 5] p=1.0"]
S211 -> S1238 [label="5 [5, 5, 5, 5, 5, 5, 5, 5, 5, 5, 5] p=1.0"]
S1976 -> S7 [label="5 [10, 10, 10, 10, 5, 5, 5, 5] p=0.8"]
S1976 -> S534 [label="2 [5, 5] p=0.2"]
S2398 -> S16 [label="2 [5, 5, 5, 5, 5, 5, 5, 5] p=0.8"]
S2398 -> S534 [label="4 [5, 5] p=0.2"]
S2068 -> S2072 [label="5 [5, 5, 5, 5, 5, 5] p=1.0"]
S13 -> S8 [label="2 [5, 5, 5, 5] p=1.0"]
S18 -> S776 [label="5 [10, 10, 10] p=1.0"]
S1236 -> S211 [label="4 [5, 5, 5, 5] p=0.4"]
S1236 -> S7 [label="2 [5, 10, 5, 10, 5, 10] p=0.6"]
S1926 -> S1239 [label="1 [10] p=0.2"]
S1926 -> S7 [label="2 [5, 5, 5, 5] p=0.8"]
S179 -> S180 [label="5 [5, 5, 5, 10, 5, 10, 5, 5, 5, 15, 5, 5, 10, 10, 5, 5, 5, 5, 5, 10, 10, 5, 10, 5, 5, 5, 5, 10, 15, 5] p=0.83"]
S179 -> S2786 [label="2 [5, 5, 5] p=0.08"]
S179 -> S16 [label="2 [10, 10, 10] p=0.08"]
S1498 -> S1499 [label="4 [5, 5, 5, 5, 5] p=0.62"]
S1498 -> S422 [label="5 [5, 5, 5] p=0.38"]
S1539 -> S1540 [label="5 [5, 5, 5, 5, 5, 5, 5, 5] p=0.89"]
S1539 -> S1239 [label="4 [5] p=0.11"]
S509 -> S510 [label="5 [5, 5, 10, 5, 5, 5, 5, 5, 10, 5, 5, 5, 5, 5, 10, 5, 5, 5] p=0.9"]
S509 -> S422 [label="3 [5, 5] p=0.1"]
S2792 -> S1037 [label="5 [5, 5, 5, 5] p=1.0"]
S2072 -> S1239 [label="3 [5, 5, 5, 5] p=1.0"]
S1238 -> S1239 [label="2 [5, 10, 10, 10] p=0.57"]
S1238 -> S1916 [label="4 [5, 5, 5] p=0.43"]
S15 -> S7 [label="4 [5, 5, 5, 5, 5] p=1.0"]
S180 -> S181 [label="2 [5, 5, 5, 5, 5, 5, 5, 10, 5, 5, 5, 5, 5, 5, 5, 5, 10] p=0.65"]
S180 -> S534 [label="1 [15, 15] p=0.08"]
S180 -> S2896 [label="4 [5, 5, 5, 5, 5, 5] p=0.23"]
S180 -> S17 [label="4 [10] p=0.04"]
S1499 -> S7 [label="5 [5, 5] p=0.5"]
S1499 -> S534 [label="3 [5, 5] p=0.5"]
S1540 -> S534 [label="4 [10, 10] p=0.33"]
S1540 -> S534 [label="1 [10, 10] p=0.33"]
S1540 -> S534 [label="2 [10, 10] p=0.33"]
S100 -> S106 [label="5 [5, 5, 10, 10, 5, 5, 5, 10, 10] p=0.75"]
S100 -> S7 [label="3 [5, 5] p=0.17"]
S100 -> S7 [label="2 [5] p=0.08"]
S510 -> S514 [label="3 [5, 5] p=0.17"]
S510 -> S1838 [label="4 [5, 5, 5, 5] p=0.33"]
S510 -> S181 [label="2 [5, 5, 5, 5, 5, 5] p=0.5"]
S2786 -> S534 [label="4 [5, 5] p=1.0"]
S776 -> S786 [label="4 [5, 5] p=1.0"]
S2896 -> S3309 [label="5 [5, 5, 5] p=0.75"]
S2896 -> S5138 [label="2 [10] p=0.25"]
S106 -> S113 [label="2 [5, 5] p=0.4"]
S106 -> S2451 [label="4 [5, 5] p=0.4"]
S106 -> S4778 [label="3 [5] p=0.2"]
S181 -> S185 [label="4 [5, 5, 5, 5, 5, 5] p=0.5"]
S181 -> S2657 [label="5 [5, 10, 5, 10, 5, 10] p=0.5"]
S514 -> S519 [label="2 [5] p=1.0"]
S1838 -> S1840 [label="1 [5] p=0.5"]
S1838 -> S2706 [label="5 [10] p=0.5"]
S786 -> S793 [label="3 [5] p=1.0"]
S17 -> S2897 [label="1 [5] p=1.0"]