S0 -> S1 [label="4 [0, 0, 0, 0, 0, 0, 0, 0, 0, 0, 0, 0, 0, 0, 0, 0, 0, 0, 0, 0, 0, 0, 0, 0, 0, 0, 0, 0, 0, 0, 0, 0, 0, 0, 0, 0, 0, 0, 0, 0, 0, 0, 0, 0, 0, 0, 0, 0, 0, 0, 0, 0, 0, 0, 0, 0, 0, 0, 0, 0, 0, 0, 0, 0, 0, 0, 0, 0] p=0.06"]
S0 -> S2 [label="2 [0, 0, 0, 0, 0, 0, 0, 0, 0, 0, 0, 0, 0, 0, 0, 0, 0, 0, 0, 0, 0, 0, 0, 0, 0, 0, 0, 0, 0, 0, 0, 0, 0, 0, 0, 0, 0, 0, 0, 0, 0, 0, 0, 0, 0, 0, 0, 0, 0, 0, 0, 0, 0, 0, 0, 0, 0, 0, 0, 0, 0, 0, 0, 0, 0, 0, 0, 0, 0, 0, 0, 0, 0, 0, 0, 0, 0, 0, 0, 0, 0, 0, 0, 0, 0, 0, 0, 0, 0, 0, 0, 0, 0, 0, 0, 0, 0, 0, 0, 0, 0, 0, 0, 0, 0, 0, 0, 0, 0, 0, 0, 0, 0, 0, 0, 0, 0, 0, 0, 0, 0, 0, 0, 0, 0, 0, 0, 0, 0, 0, 0, 0, 0, 0, 0, 0, 0, 0, 0, 0, 0, 0, 0, 0, 0, 0, 0, 0, 0, 0, 0, 0, 0, 0, 0, 0, 0, 0, 0, 0, 0, 0, 0, 0, 0, 0, 0, 0, 0, 0, 0, 0, 0, 0, 0, 0, 0, 0, 0, 0, 0, 0, 0, 0, 0, 0, 0, 0, 0, 0, 0, 0, 0, 0, 0, 0, 0, 0, 0, 0, 0, 0, 0, 0, 0, 0, 0, 0, 0, 0, 0, 0, 0, 0, 0, 0, 0, 0, 0, 0, 0, 0, 0, 0, 0, 0, 0, 0, 0, 0, 0, 0, 0, 0, 0, 0, 0, 0, 0, 0, 0, 0, 0, 0, 0, 0, 0, 0, 0, 0, 0, 0, 0, 0, 0, 0, 0, 0, 0, 0, 0, 0, 0, 0, 0, 0, 0, 0, 0, 0, 0, 0, 0, 0, 0, 0, 0, 0, 0, 0, 0, 0, 0, 0, 0, 0, 0, 0, 0, 0, 0, 0, 0, 0, 0, 0, 0, 0, 0, 0, 0, 0, 0, 0, 0, 0, 0, 0, 0, 0, 0, 0, 0, 0, 0, 0, 0, 0, 0, 0, 0, 0, 0, 0, 0, 0, 0, 0, 0, 0, 0, 0, 0, 0, 0, 0, 0, 0, 0, 0, 0, 0, 0, 0, 0, 0, 0, 0, 0, 0, 0, 0, 0, 0, 0, 0, 0, 0, 0, 0, 0, 0, 0, 0, 0, 0, 0, 0, 0, 0, 0, 0, 0, 0, 0, 0, 0, 0, 0, 0, 0, 0, 0, 0, 0, 0, 0, 0, 0, 0, 0, 0, 0, 0, 0, 0, 0, 0, 0, 0, 0, 0, 0, 0, 0, 0, 0, 0, 0, 0, 0, 0, 0, 0, 0, 0, 0, 0, 0, 0, 0, 0, 0, 0, 0, 0, 0, 0, 0, 0, 0, 0, 0, 0, 0, 0, 0, 0, 0, 0, 0, 0, 0, 0, 0, 0, 0, 0, 0, 0, 0, 0, 0, 0, 0, 0, 0, 0, 0, 0, 0, 0, 0, 0, 0, 0, 0, 0, 0, 0, 0, 0, 0, 0, 0, 0, 0, 0, 0, 0, 0, 0, 0, 0, 0, 0, 0, 0, 0, 0, 0, 0, 0, 0, 0, 0, 0, 0, 0, 0, 0, 0, 0, 0, 0, 0, 0, 0, 0, 0, 0, 0, 0, 0, 0, 0, 0, 0, 0, 0, 0, 0, 0, 0, 0] p=0.43"]
S0 -> S3 [label="3 [0, 0, 0, 0, 0, 0, 0, 0, 0, 0, 0, 0, 0, 0, 0, 0, 0, 0, 0, 0, 0, 0, 0, 0, 0, 0, 0, 0, 0, 0, 0, 0, 0, 0, 0, 0, 0, 0, 0, 0, 0, 0, 0, 0, 0, 0, 0, 0, 0, 0, 0, 0, 0, 0, 0, 0, 0, 0, 0, 0, 0, 0, 0, 0, 0, 0, 0, 0, 0, 0, 0, 0, 0, 0, 0, 0, 0, 0, 0, 0, 0, 0, 0, 0, 0, 0, 0, 0, 0, 0, 0, 0, 0, 0, 0, 0, 0, 0, 0, 0, 0, 0, 0, 0, 0, 0, 0, 0, 0, 0, 0, 0, 0, 0, 0, 0, 0, 0, 0, 0, 0, 0, 0, 0, 0, 0, 0, 0, 0, 0, 0, 0, 0, 0, 0, 0, 0, 0, 0, 0, 0, 0, 0, 0, 0, 0, 0, 0, 0, 0, 0, 0, 0, 0, 0, 0, 0, 0, 0, 0, 0, 0, 0, 0, 0, 0, 0, 0, 0, 0, 0, 0, 0, 0, 0, 0, 0, 0, 0, 0, 0, 0, 0, 0, 0, 0, 0, 0, 0, 0, 0, 0, 0, 0, 0, 0, 0, 0, 0, 0, 0, 0, 0, 0, 0, 0, 0, 0, 0, 0, 0, 0, 0, 0, 0, 0, 0, 0, 0, 0, 0, 0, 0, 0, 0, 0, 0, 0, 0, 0, 0, 0, 0, 0, 0, 0, 0, 0, 0, 0, 0, 0, 0, 0, 0, 0, 0, 0, 0, 0, 0, 0, 0, 0, 0, 0, 0, 0, 0, 0, 0, 0, 0, 0, 0, 0, 0, 0, 0, 0, 0, 0, 0, 0, 0, 0, 0, 0, 0, 0, 0, 0, 0, 0, 0, 0, 0, 0, 0, 0, 0, 0, 0, 0, 0, 0, 0, 0, 0, 0, 0, 0, 0, 0, 0, 0, 0, 0, 0, 0, 0, 0, 0, 0, 0, 0, 0, 0, 0, 0, 0, 0, 0, 0, 0, 0, 0, 0, 0, 0, 0, 0, 0, 0, 0, 0, 0, 0, 0, 0, 0, 0, 0, 0, 0, 0, 0, 0, 0, 0, 0, 0, 0, 0, 0, 0, 0, 0, 0, 0, 0, 0, 0, 0, 0, 0, 0, 0, 0, 0, 0, 0, 0, 0, 0, 0, 0, 0, 0, 0, 0, 0, 0, 0, 0, 0, 0, 0, 0, 0, 0, 0, 0, 0, 0, 0, 0, 0, 0, 0, 0, 0, 0, 0, 0, 0, 0, 0, 0, 0, 0, 0, 0, 0, 0, 0, 0, 0, 0, 0, 0, 0, 0, 0, 0, 0, 0, 0, 0, 0, 0, 0, 0, 0, 0, 0, 0, 0, 0, 0, 0, 0, 0, 0, 0, 0, 0, 0, 0, 0, 0, 0, 0, 0, 0, 0, 0, 0, 0, 0, 0, 0, 0, 0, 0, 0, 0, 0, 0, 0, 0, 0, 0, 0, 0, 0, 0, 0, 0, 0, 0, 0, 0, 0, 0, 0, 0, 0, 0, 0, 0, 0, 0, 0, 0, 0, 0, 0, 0, 0, 0, 0, 0, 0, 0, 0, 0, 0, 0, 0, 0, 0, 0, 0, 0, 0, 0, 0, 0, 0, 0, 0, 0, 0, 0, 0] p=0.43"]
S0 -> S8 [label="1 [0, 0, 0, 0, 0, 0, 0, 0, 0, 0, 0, 0, 0, 0, 0, 0, 0, 0, 0, 0, 0, 0, 0, 0, 0, 0, 0, 0, 0, 0, 0, 0, 0, 0, 0, 0, 0, 0, 0, 0, 0, 0, 0, 0, 0, 0, 0, 0, 0, 0, 0, 0, 0, 0, 0, 0, 0, 0, 0, 0, 0, 0, 0, 0, 0, 0, 0, 0, 0, 0, 0, 0, 0, 0, 0, 0, 0, 0, 0, 0, 0, 0, 0, 0, 0, 0, 0, 0, 0, 0, 0, 0, 0, 0, 0, 0] p=0.08"]
S1 -> S2 [label="2 [5, 5, 5, 5, 5, 5, 5, 5, 5, 5, 5, 5, 5, 5, 5, 5, 5, 5, 5, 5, 5, 5, 5, 5, 5, 5, 5, 5, 5, 5, 5, 5, 5, 5, 5, 5, 5, 5, 5, 5, 5, 5, 5, 5, 5, 5, 5, 5, 5, 5] p=0.74"]
S1 -> S8 [label="1 [5, 5, 5, 5, 5, 5, 5, 5, 5, 5, 5, 5, 5, 5, 5] p=0.22"]
S1 -> S914 [label="3 [5, 5, 5] p=0.04"]
S2 -> S3 [label="3 [5, 10, 10, 20, 5, 10, 10, 10, 5, 5, 5, 10, 10, 5, 5, 10, 10, 10, 5, 10, 5, 5, 10, 10, 5, 10, 10, 5, 10, 5, 10, 5, 5, 10, 10, 10, 5, 5, 10, 5, 5, 10, 10, 5, 5, 10, 10, 5, 5, 5, 10, 10, 10, 5, 5, 10, 10, 5, 5, 5, 10, 10, 10, 5, 5, 10, 10, 5, 5, 10, 5, 10, 10, 10, 5, 5, 10, 10, 5, 5, 10, 5, 10, 5, 10, 10, 5, 10, 5, 10, 10, 5, 5, 10, 10, 5, 10, 5, 10, 10, 5, 5, 10, 10, 5, 5, 10, 10, 5, 5, 10, 10, 5, 10, 5, 10, 5, 10, 5, 5, 10, 10, 5, 5, 10, 10, 10, 5, 5, 10, 10, 5, 10, 5, 10, 5, 10, 10, 5, 10, 5, 10, 10, 5, 10, 5, 10, 10, 10, 10, 5, 5, 10, 10, 10, 10, 5, 10, 5, 5, 5, 5, 5, 5, 5, 5, 5, 5, 5, 5, 5, 5, 5, 5, 5, 5, 5, 5, 5, 10, 10, 5, 5, 5, 10, 5, 5, 5, 5, 20, 5, 10, 5, 5, 5, 15, 10, 10, 5, 10, 5, 5, 5, 20, 10, 5, 5, 15, 10, 5, 10, 5, 5, 20, 10, 5, 10, 5, 10, 5, 10, 5, 10, 5, 10, 5, 5, 10, 5, 10, 5, 15, 5, 15, 5, 5, 5, 5, 10, 5, 5, 10, 10, 5, 5, 5, 5, 10, 5, 5, 5, 5, 5, 5, 5, 5, 5, 5, 5, 10, 5, 5, 10, 5, 5, 5, 10, 5, 5, 10, 10, 5, 5, 10, 10, 5, 5, 5, 10, 5, 5, 10, 10, 5, 5, 10, 10, 5, 5, 5, 10, 5, 5, 10, 10, 5, 5, 10, 10, 5, 5, 5, 5, 5, 5, 5, 5, 5, 10, 5, 10, 5, 5, 5, 5, 5, 10, 5, 10, 5, 5, 5, 5, 5, 10, 5, 10, 5, 5, 5, 10, 10, 10, 5, 10, 5, 5, 5, 5, 5, 5, 5, 5, 5, 5, 5, 5, 5, 5, 5, 5, 5, 5, 5, 5, 5, 5, 5, 10, 5, 10, 5, 5, 5, 5, 5, 5, 5, 5, 10, 5, 5, 10, 5, 10, 5, 5, 10, 5, 5, 10, 5, 5, 10, 10, 5, 10, 5, 10, 5, 5, 10, 5, 10, 5, 10, 5, 10, 10, 5, 5, 10, 5, 10, 5, 10, 5, 5, 10, 10, 5, 10, 5, 5, 10, 5, 10, 5, 10, 10, 5, 5, 10, 10, 5, 10, 5, 10, 5, 10, 5, 5, 10, 5, 10, 10, 25, 5, 5, 10, 5, 10, 5, 5, 10, 5, 5, 5, 5, 10, 5, 10, 5, 5, 10, 10, 5, 25, 5, 5, 10, 5, 10, 5, 5, 5, 5, 10, 5, 5, 15, 5, 5, 5, 10, 5, 5, 15, 5, 5, 5, 5, 5, 5, 10, 5, 5, 10, 15, 5, 5, 5, 5, 5, 5, 10, 5, 10, 10, 5, 5, 5, 5, 10, 5, 10, 5, 5, 5, 10, 5, 10, 5, 10, 10, 5, 5, 5, 10, 5, 5, 10, 5, 10, 5, 5, 5, 10, 10, 5, 10, 10, 5, 5, 5, 10, 5, 10, 5, 5, 5, 10, 10, 5, 10, 10, 5, 5, 5, 5, 10, 5, 10, 5, 5, 5, 10, 10, 5, 10, 10, 5, 5, 5, 10, 5, 10, 10, 10, 5, 5, 5, 15, 5, 10, 5, 10, 5, 5, 5, 10, 5, 5, 10, 5, 10, 10, 5, 5, 5, 5, 10, 10, 5, 5, 10, 10, 10, 10, 10, 10, 5, 5, 5, 15, 5, 10, 5, 10, 5, 5, 10, 5, 5, 5, 5, 20, 10, 5, 5, 5, 10, 5, 10, 5, 10, 10, 5, 15, 5, 5, 5, 5, 5, 5, 5, 10, 10, 10, 5, 10, 5, 5, 5, 5, 5, 5, 5, 10, 5, 5, 5, 10, 5, 5, 10, 5, 10, 5, 5, 10, 5, 5, 5, 5, 10, 5, 5, 10, 5, 5, 10, 5, 5, 10, 5, 5, 10, 5, 5, 5, 5, 10, 5, 5, 5, 10, 5, 5, 10, 5, 5, 5, 5, 5, 10, 5, 5, 10, 5, 10, 5, 5, 10, 5, 10, 5, 5, 10, 5, 10, 5, 5, 10, 5, 10, 5, 10, 5, 5, 10, 5, 10, 5, 10, 10, 5, 10, 5, 10, 5, 10, 5, 5, 5, 15, 5, 5, 10, 5, 10, 5, 10, 10, 5, 5, 5, 5, 10, 5, 5, 10, 10, 5, 5, 5, 10, 5, 5, 10, 5, 10, 5, 10, 10, 20, 5, 5, 10, 5, 10, 10, 20, 5, 5, 10, 5, 10, 10, 10, 5, 20, 5, 5, 5, 10, 5, 10, 10, 10, 5, 20, 5, 5, 5, 10, 5, 10, 10, 10, 5, 20, 5, 5, 5, 5, 5, 5, 10, 5, 5, 5, 5, 5, 5, 5, 10, 15, 10, 5, 15, 10, 5, 5, 15, 20, 20, 5, 5, 15, 5, 5, 10, 5, 5, 15, 5, 5, 10, 10, 5, 5, 15, 5, 10, 5, 10, 10, 5, 5, 15, 5, 5, 5, 10, 10, 5, 10, 10, 5, 5, 5, 15, 5, 5, 5, 10, 10, 5, 5, 5, 10, 5, 5, 10, 10, 5, 5, 5, 5, 5, 5, 5, 5, 5, 5, 10, 10, 10, 5, 5, 10, 5, 5, 5, 5, 5, 5, 5, 10, 5, 5, 5, 5, 10, 10, 10, 5, 5, 10, 5, 5, 5, 5, 5, 5, 5, 10, 5, 5, 5, 5, 10, 10, 10, 5, 5, 10, 5, 5, 15, 5, 5, 10, 5, 5, 5, 5, 10, 5, 5, 5, 5, 10, 10, 10, 5, 5, 5, 10, 5, 5, 5, 15, 5, 5, 10, 5, 5, 5, 5, 10, 5, 5, 5, 5, 10, 10, 10, 5, 5, 5, 5, 10, 10, 5, 5, 5, 10, 5, 15, 5, 5, 5, 10, 10, 5, 5, 5, 5, 10, 5, 5, 5, 10, 5, 10, 10, 10, 5, 5, 5, 5, 10, 10, 5, 5, 5, 10, 10, 5, 15, 5, 5, 5, 5, 10, 10, 5, 5, 5, 5, 10, 5, 5, 5, 10, 5, 5, 10, 10, 10, 5, 5, 5, 5, 5, 10, 10, 5, 5, 5, 5, 5, 10, 5, 10, 10, 5, 5, 5, 15, 5, 5, 5, 5, 10, 10, 5, 5, 5, 5, 10, 5, 5, 5, 5, 5, 10, 10, 5, 10, 5, 5, 5, 10, 10, 5, 5, 10, 5, 10, 5, 5, 5, 5, 10, 5, 5, 5, 5, 10, 5, 10, 10, 5, 5, 10, 5, 10, 10, 5, 5, 5, 10, 5, 5, 10, 10, 5, 5, 5, 10, 5, 5, 10, 10, 5, 5, 5, 5, 5, 10, 5, 5, 10, 5, 10, 5, 5, 5, 5, 5, 15, 10, 5, 5, 10, 5, 10, 5, 5, 5, 5, 10, 10, 10, 5, 5, 5, 5, 15, 10, 5, 5, 10, 5, 10, 5, 5, 5, 5, 5, 5, 5, 5, 5, 15, 10, 5, 5, 5, 10, 5, 10, 15, 5, 5, 5, 5, 5, 5, 5, 5, 10, 5, 5, 5, 5, 5, 5, 10, 5, 5, 5, 10, 10, 5, 10, 10, 5, 5, 5, 5, 5, 5, 5, 5, 5, 5, 10, 10, 5, 10, 10, 5, 5, 5, 5, 10, 5, 5, 5, 5, 5, 5, 5, 15, 10, 5, 5, 5, 10, 10, 5, 5, 10, 10, 5, 5, 5, 5, 10, 5, 5, 5, 5, 5, 5, 10, 5, 5, 5, 15, 10, 5, 5, 5, 10, 5, 5, 5, 10, 5, 5, 10, 5, 5, 10, 10, 20, 10, 5, 5, 5, 5, 5, 5, 5, 10, 5, 5, 5, 5, 5, 5, 5, 5, 10, 5, 10, 10, 5, 10, 5, 10, 5, 5, 10, 5, 10, 10, 5, 5, 10, 5, 5, 20, 15, 5, 10, 10, 5, 5, 5, 10, 10, 5, 10, 5, 10, 5, 10, 10, 5, 5, 5, 5, 5, 5, 5, 5, 10, 5, 5, 10, 5, 5, 5, 10, 5, 5, 10, 5, 10, 10, 5, 5, 10, 10, 5, 5, 5, 5, 10, 5, 5, 15, 5, 5, 10, 5, 10, 10, 10, 5, 5, 5, 5, 5, 15, 5, 10, 5, 5, 5, 5, 10, 5, 10, 5, 5, 10, 10, 5, 10, 5, 5, 10, 5, 10, 15, 5, 5, 5, 5, 5, 5, 5, 5, 10, 5, 5, 5, 5, 5, 5, 10, 5, 5, 5, 5, 5, 5, 15, 15, 10, 5, 5, 5, 5, 5, 5, 5, 5, 10, 5, 10, 10, 10, 5, 10, 5, 5, 10, 10, 10, 10, 5, 10, 5, 5, 10, 5, 5, 10, 5, 10, 5, 5, 5, 10, 5, 5, 5, 10, 5, 5, 5, 5, 5, 5, 10, 5, 10, 10, 5, 5, 5, 10, 5, 5, 10, 5, 5, 5, 5, 5, 5, 5, 5, 5, 5, 10, 10, 5, 10, 5, 10, 10, 5, 5, 5, 5, 10, 5, 10, 5, 5, 5, 5, 5, 10, 5, 10, 10, 5, 20, 5, 5, 5, 5, 5, 10, 5, 10, 5, 5, 10, 5, 5, 5, 5, 5, 5, 5, 10, 10, 5, 5, 5, 10, 5, 10, 10, 5, 5, 5, 5, 10, 5, 10, 10, 5, 5, 10, 5, 5, 10, 10, 20, 10, 5, 5, 5, 5, 15, 10, 5, 10, 5, 10, 5, 5, 5, 15, 15, 10, 5, 5, 5, 10, 5, 5, 5, 10, 10, 5, 10, 5, 5, 10, 5, 5, 5, 5, 5, 10, 5, 5, 10, 5, 5, 5, 25, 10, 10, 5, 5, 10, 5, 5, 5, 5, 5, 5, 5, 5, 10, 10, 10, 5, 5, 5, 5, 10, 5, 10, 5, 10, 10, 5, 5, 10, 5, 5, 10, 10, 5, 5, 10, 5, 5, 10, 5, 10, 5, 5, 5, 10, 20, 10, 5, 10, 5, 5, 5, 5, 5, 5, 10, 5, 10, 5, 5, 10, 10, 5, 10, 5, 15, 5, 10, 10, 5, 5, 5, 25, 5, 10, 5, 10, 5, 5, 5, 5, 10, 15, 5, 20, 5, 5, 5, 5, 5, 10, 5, 5, 5, 5, 15, 5, 5, 10, 5, 10, 5, 10, 10, 5, 10, 10, 5, 5, 5, 10, 10, 5, 10, 10, 5, 5, 5, 5, 5, 5, 5, 5, 10, 5, 5, 5, 5, 5, 5, 5, 5, 5, 5, 5, 10, 5, 5, 10, 5, 5, 5, 5, 5, 5, 5, 10, 10, 10, 5, 5, 10, 5, 5, 10, 5, 10, 5, 5, 10, 5, 5, 5, 10, 10, 5, 5, 10, 5, 10, 5, 5, 10, 10, 5, 5, 5, 5, 5, 5, 5, 5, 10, 5, 5, 10, 5, 5, 5, 10, 5, 5, 10, 5, 10, 5, 5, 10, 10, 5, 5, 5, 5, 10, 5, 5, 15, 5, 5, 10, 5, 10, 10, 5, 5, 5, 5, 15, 5, 10, 5, 5, 5, 10, 5, 10, 5, 5, 10, 10, 5, 10, 5, 5, 10, 10, 15, 5, 5, 5, 5, 5, 5, 5, 10, 5, 5, 5, 5, 5, 5, 5, 5, 5, 5, 15, 15, 5, 5, 5, 5, 5, 5, 5, 10, 5, 10, 10, 10, 5, 10, 5, 10, 10, 5, 10, 5, 5, 10, 5, 5, 10, 5, 5, 5, 5, 5, 5, 5, 5, 5, 5, 5, 10, 5, 10, 10, 5, 5, 5, 10, 5, 10, 5, 5, 5, 5, 5, 5, 5, 5, 5, 5, 10, 10, 5, 10, 5, 10, 10, 5, 5, 5, 5, 10, 5, 10, 5, 5, 5, 5, 10, 5, 10, 5, 20, 5, 5, 5, 5, 5, 5, 10, 5, 5, 5, 5, 5, 5, 5, 5, 5, 10, 10, 5, 5, 10, 5, 10, 10, 5, 5, 5, 5, 5, 10, 5, 5, 10, 5, 10, 10, 20, 10, 5, 5, 5, 5, 10, 5, 10, 5, 5, 5, 15, 15, 10, 5, 5, 10, 5, 5, 5, 10, 10, 5, 10, 5, 5, 5, 5, 5, 5, 5, 10, 5, 5, 5, 25, 10, 5, 5, 10, 5, 5, 5, 5, 5, 5, 5, 10, 10, 10, 5, 5, 5, 5, 10, 5, 10, 5, 10, 10, 5, 5, 10, 5, 5, 10, 10, 5, 10, 5, 5, 10, 5, 10, 5, 5, 5, 10, 20, 10, 10, 5, 5, 5, 5, 5, 5, 10, 5, 10, 5, 5, 10, 10, 5, 5, 15, 5, 10, 10, 5, 5, 5, 25, 5, 10, 5, 10, 5, 5, 5, 5, 10, 15, 5, 20, 5, 5, 5, 5, 10, 5, 5, 5, 15, 5, 10, 5, 10, 5, 10, 10, 10, 5, 10, 10, 5, 10, 10, 5, 5, 5, 5, 5, 5, 5, 5, 10, 5, 5, 5, 5, 5, 5, 5, 5, 5, 5, 10, 5, 5, 10, 5, 5, 5, 5, 5, 5, 5, 10, 10, 5, 5, 10, 5, 5, 10, 5, 5, 5, 10, 5, 5, 10, 10, 5, 10, 5, 10, 5, 10, 10, 5, 5, 5, 5, 5, 5, 5, 10, 5, 5, 10, 5, 5, 10, 5, 5, 10, 5, 10, 5, 5, 10, 5, 5, 5, 10, 5, 5, 15, 5, 5, 10, 5, 10, 5, 5, 5, 5, 15, 5, 10, 5, 5, 5, 10, 5, 10, 10, 5, 10, 5, 10, 10, 5, 5, 5, 5, 5, 5, 10, 5, 5, 5, 5, 5, 5, 15, 15, 5, 5, 5, 5, 5, 5, 5, 5, 10, 10, 10, 5, 10, 5, 10, 5, 10, 5, 10, 5, 5, 10, 5, 5, 5, 5, 5, 5, 5, 5, 5, 5, 10, 5, 10, 5, 5, 5, 10, 10, 5, 5, 5, 5, 5, 5, 5, 5, 5, 5, 10, 10, 5, 10, 5, 10, 10, 5, 5, 5, 10, 5, 10, 5, 5, 5, 5, 5, 10, 5, 20, 5, 5, 5, 5, 10, 5, 5, 5, 5, 5, 5, 5, 10, 10, 5, 5, 10, 5, 10, 10, 5, 5, 5, 5, 5, 5, 10, 5, 10, 20, 10, 5, 5, 5, 5, 10, 5, 10, 5, 5, 5, 15, 15, 10, 5, 5, 10, 5, 5, 10, 5, 10, 5, 5, 5, 5, 5, 10, 5, 5, 25, 10, 5, 5, 10, 5, 5, 5, 5, 5, 5, 5, 10, 10, 5, 5, 5, 5, 10, 5, 10, 5, 10, 10, 5, 5, 10, 5, 5, 10, 10, 5, 10, 5, 5, 5, 10, 5, 5, 10, 20, 10, 10, 5, 5, 5, 5, 5, 10, 5, 10, 5, 5, 10, 5, 5, 15, 5, 10, 10, 5, 5, 5, 25, 10, 5, 10, 5, 5, 5, 5, 10, 15, 5, 20, 5, 5, 5, 5, 5, 5, 15, 5, 10, 5, 10, 5, 10, 10, 10, 5, 10, 10, 5, 10, 10, 5, 5, 5, 5, 5, 5, 5, 5, 5, 5, 5, 5, 5, 10, 5, 5, 5, 5, 5, 5, 5, 10, 5, 10, 5, 5, 10, 5, 5, 5, 10, 5, 10, 10, 10, 10, 5, 10, 10, 5, 5, 5, 5, 5, 5, 5, 10, 5, 5, 10, 5, 5, 10, 5, 5, 10, 5, 10, 5, 10, 5, 5, 5, 10, 5, 5, 15, 5, 5, 10, 5, 10, 5, 5, 5, 15, 5, 10, 5, 5, 5, 10, 5, 10, 10, 5, 10, 5, 10, 5, 5, 5, 5, 5, 5, 10, 5, 5, 5, 5, 5, 15, 15, 5, 5, 5, 5, 5, 5, 5, 10, 10, 10, 5, 10, 5, 10, 5, 10, 5, 5, 10, 5, 5, 5, 5, 5, 5, 5, 5, 10, 5, 5, 5, 10, 5, 5, 5, 5, 5, 5, 5, 5, 5, 5, 10, 10, 5, 10, 5, 10, 10, 5, 5, 5, 10, 5, 10, 5, 5, 5, 5, 10, 20, 5, 5, 5, 5, 10, 5, 5, 5, 5, 5, 5, 5, 10, 10, 5, 5, 5, 10, 10, 5, 5, 5, 5, 5, 10, 5, 20, 10, 5, 5, 5, 5, 5, 10, 5, 15, 15, 10, 5, 10, 5, 5, 10, 5, 5, 5, 5, 5, 10, 5, 5, 25, 10, 5, 10, 5, 5, 5, 5, 5, 5, 10, 10, 5, 5, 5, 5, 10, 5, 10, 5, 10, 10, 5, 5, 10, 5, 5, 10, 10, 5, 5, 5, 5, 10, 5, 5, 10, 20, 10, 5, 5, 5, 5, 5, 10, 5, 10, 5, 5, 10, 5, 15, 5, 10, 10, 5, 5, 5, 25, 10, 5, 10, 5, 5, 5, 5, 10, 15, 5, 20, 5, 5, 5, 5, 5, 5, 15, 10, 5, 10, 5, 10, 10, 10, 5, 10, 10, 5, 5, 5, 5, 5, 5, 5, 5, 5, 5, 5, 5, 10, 5, 5, 5, 5, 5, 5, 5, 10, 5, 10, 5, 5, 10, 5, 5, 10, 10, 10, 10, 5, 10, 5, 5, 5, 5, 5, 5, 10, 5, 5, 10, 5, 10, 5, 5, 10, 5, 10, 5, 5, 5, 5, 5, 5, 15, 5, 5, 10, 5, 5, 5, 5, 15, 5, 10, 5, 5, 5, 5, 10, 5, 10, 5, 5, 5, 5, 5, 10, 5, 5, 5, 15, 5, 5, 5, 5, 5, 5, 10, 10, 10, 5, 10, 5, 10, 5, 5, 5, 10, 5, 5, 5, 5, 5, 5, 5, 10, 5, 5, 10, 5, 5, 5, 5, 5, 5, 5, 5, 5, 5, 10, 10, 5, 10, 5, 10, 10, 5, 5, 5, 5, 10, 5, 5, 5, 10, 20, 5, 5, 5, 5, 5, 5, 5, 5, 10, 10, 5, 5, 5, 10, 10, 5, 5, 5, 10, 5, 10, 5, 5, 5, 5, 5, 10, 5, 15, 15, 10, 5, 10, 5, 5, 5, 5, 5, 10, 5, 25, 10, 5, 10, 5, 5, 5, 5, 5, 5, 10, 5, 5, 5, 5, 10, 5, 10, 5, 10, 10, 5, 5, 10, 5, 5, 10, 10, 5, 5, 5, 10, 5, 5, 20, 10, 5, 5, 5, 5, 10, 5, 10, 5, 5, 5, 15, 5, 10, 10, 5, 5, 5, 25, 5, 10, 5, 5, 5, 5, 10, 15, 5, 20, 5, 5, 5, 5, 5, 10, 5, 10, 5, 10, 10, 10, 5, 10, 10, 5, 5, 5, 5, 5, 5, 5, 5, 5, 5, 10, 5, 5, 5, 5, 5, 5, 5, 10, 5, 5, 10, 10, 5, 10, 5, 5, 5, 5, 5, 5, 10, 5, 5, 10, 5, 10, 5, 5, 10, 5, 10, 5, 5, 5, 5, 5, 15, 5, 5, 10, 5, 5, 5, 15, 5, 10, 5, 5, 5, 5, 10, 5, 10, 5, 5, 5, 5, 5, 10, 5, 5, 5, 15, 5, 5, 5, 5, 5, 10, 10, 10, 5, 10, 5, 5, 5, 5, 10, 5, 5, 5, 10, 5, 5, 10, 5, 5, 5, 5, 5, 5, 5, 5, 5, 10, 10, 5, 10, 5, 10, 10, 5, 5, 5, 5, 10, 5, 5, 10, 5, 5, 5, 5, 5, 5, 5, 5, 10, 10, 5, 5, 10, 10, 5, 5, 5, 10, 5, 10, 5, 5, 5, 5, 10, 5, 15, 10, 5, 5, 5, 5, 10, 5, 25, 10, 10, 5, 5, 5, 5, 5, 10, 5, 5, 5, 5, 10, 5, 10, 5, 10, 10, 5, 5, 10, 5, 5, 10, 10, 5, 5, 10, 5, 5, 20, 10, 5, 5, 5, 10, 5, 10, 5, 5, 5, 5, 10, 10, 5, 5, 5, 25, 5, 10, 5, 5, 5, 5, 10, 15, 5, 20, 5, 5, 5, 5, 5, 5, 10, 5, 10, 5, 10, 10, 5, 5, 5, 5, 5, 5, 5, 5, 5, 5, 10, 5, 5, 5, 5, 5, 5, 5, 10, 5, 10, 10, 5, 5, 5, 5, 5, 5, 10, 5, 5, 10, 10, 5, 5, 10, 5, 10, 5, 5, 5, 15, 5, 5, 10, 5, 5, 15, 5, 10, 5, 5, 5, 5, 10, 5, 5, 5, 10, 5, 5, 5, 5, 5, 5, 10, 10, 5, 10, 5, 5, 5, 10, 5, 5, 10, 5, 10, 5, 5, 5, 5, 5, 5, 5, 5, 5, 10, 10, 5, 10, 5, 10, 10, 5, 5, 5, 10, 5, 5, 5, 5, 5, 5, 5, 10, 5, 5, 10, 10, 5, 10, 5, 5, 5, 5, 5, 10, 5, 15, 10, 5, 5, 5, 10, 25, 10, 10, 5, 5, 5, 5, 5, 5, 5, 5, 5, 10, 5, 10, 5, 10, 10, 5, 5, 10, 5, 5, 10, 10, 5, 5, 5, 5, 10, 5, 5, 5, 5, 10, 5, 5, 5, 10, 10, 5, 5, 5, 25, 10, 5, 5, 5, 5, 10, 15, 5, 20, 5, 5, 5, 5, 5, 10, 5, 10, 5, 10, 10, 5, 5, 5, 5, 5, 5, 5, 5, 10, 5, 5, 5, 5, 10, 5, 10, 5, 5, 5, 5, 5, 10, 5, 5, 10, 10, 5, 5, 10, 5, 10, 5, 5, 5, 15, 5, 5, 10, 5, 5, 5, 10, 5, 5, 5, 5, 10, 5, 5, 5, 10, 5, 5, 5, 5, 5, 10, 10, 5, 10, 5, 5, 10, 5, 5, 10, 5, 5, 5, 5, 5, 5, 5, 5, 10, 10, 5, 10, 5, 10, 10, 5, 5, 5, 10, 5, 5, 5, 5, 5, 5, 10, 5, 5, 10, 5, 10, 5, 5, 5, 5, 5, 5, 10, 5, 5, 25, 10, 5, 5, 5, 5, 5, 5, 5, 5, 10, 5, 10, 5, 10, 10, 5, 5, 10, 5, 5, 10, 10, 5, 5, 5, 10, 5, 5, 5, 10, 5, 5, 10, 10, 5, 5, 5, 25, 10, 5, 5, 5, 5, 10, 15, 5, 20, 5, 5, 5, 5, 10, 5, 10, 10, 10, 5, 5, 5, 5, 5, 5, 5, 5, 10, 5, 5, 5, 5, 10, 5, 5, 5, 5, 10, 5, 5, 10, 5, 5, 10, 5, 10, 5, 15, 5, 5, 10, 5, 5, 10, 5, 5, 5, 10, 5, 5, 10, 5, 5, 5, 5, 5, 10, 5, 10, 5, 10, 5, 10, 5, 5, 5, 5, 5, 5, 5, 5, 10, 10, 5, 10, 5, 10, 10, 5, 5, 5, 5, 5, 5, 5, 5, 5, 10, 5, 5, 5, 5, 5, 5, 10, 5, 5, 10, 5, 5, 5, 5, 5, 5, 5, 10, 5, 10, 5, 10, 10, 5, 5, 10, 5, 5, 10, 10, 5, 5, 5, 5, 10, 5, 5, 10, 10, 5, 5, 5, 25, 5, 5, 5, 5, 10, 15, 5, 20, 5, 5, 5, 5, 10, 5, 10, 10, 10, 5, 5, 5, 5, 5, 5, 10, 5, 5, 10, 5, 5, 5, 5, 10, 5, 5, 10, 5, 5, 10, 5, 10, 5, 15, 5, 5, 10, 5, 10, 5, 5, 5, 10, 5, 5, 10, 5, 5, 5, 5, 10, 5, 10, 5, 10, 5, 10, 5, 5, 5, 5, 5, 5, 5, 10, 10, 5, 10, 5, 10, 10, 5, 5, 5, 5, 5, 5, 5, 5, 5, 5, 5, 5, 5, 5, 10, 5, 5, 5, 5, 5, 10, 5, 10, 5, 10, 10, 5, 5, 10, 5, 5, 10, 10, 5, 5, 5, 10, 5, 5, 10, 5, 5, 5, 25, 5, 5, 5, 5, 10, 15, 5, 20, 5, 5, 5, 5, 5, 10, 10, 5, 5, 5, 5, 5, 5, 10, 5, 5, 5, 5, 5, 5, 5, 5, 5, 5, 5, 5, 5, 15, 15, 15, 15, 15, 5, 5, 5, 10, 10, 10, 10, 10, 10, 5, 5, 5, 5, 5, 5, 5, 5, 5, 10, 5, 10, 10, 5, 5, 5, 5, 5, 5, 5, 5, 5, 5, 5, 15, 5, 5, 5, 5, 5, 5, 5, 5, 5, 5, 15, 5, 15, 5, 15, 5, 15, 5, 15, 5, 15, 5, 15, 5, 15, 5, 5, 5, 5, 5, 5, 5, 5, 5, 10, 5, 10, 5, 10, 10, 10, 10, 5, 10, 5, 5, 10, 10, 10, 10, 5, 5, 5, 10, 10, 10, 10, 5, 5, 5, 10, 10, 10, 10, 10, 10, 5, 5, 5, 5, 5, 5, 10, 5, 10, 5, 10, 10, 10, 10, 10, 10, 10, 10, 10, 10, 10, 10, 5, 5, 10, 10, 5, 10, 10, 5, 5, 10, 10, 5, 10, 10, 5, 5, 10, 10, 5, 10, 20, 10, 5, 5, 10, 10, 5, 10, 20, 10, 5, 5, 10, 10, 5, 10, 20, 10, 5, 5, 10, 10, 5, 10, 20, 10, 5, 5, 10, 10, 5, 10, 20, 10, 5, 5, 10, 10, 5, 5, 5, 5, 5, 5, 5, 5, 5, 5, 5, 5, 5, 5, 5, 5, 5, 5, 5, 5, 5, 5, 5, 5, 5, 5, 5, 5, 5, 5, 5, 5, 5, 5, 5, 5, 5, 5, 5, 5, 5, 5, 5, 5, 5, 5, 5, 5, 5, 5, 5, 5, 5, 5, 5, 5, 5, 5, 5, 5, 5, 5, 5, 5, 5, 5, 5, 5, 5, 5, 5, 5, 5, 5, 5, 5, 5, 5, 5, 5, 5, 5, 5, 5, 5, 5, 5, 5, 5, 5, 5, 5, 5, 5, 10, 5, 5, 5, 5, 5, 5, 5, 10, 10, 10, 10, 10, 10, 10, 10, 10, 10, 10, 10, 10, 10, 10, 10, 10, 10, 10, 10, 10, 10, 5, 10, 10, 10, 10, 5, 10, 10, 10, 10, 10, 5, 5, 5, 5, 5, 5, 5, 5, 5, 10, 10, 10, 10, 10, 10, 10, 10, 10, 10, 10, 10, 10, 10, 5, 10, 5, 10, 10, 10, 10, 5, 5, 5, 5, 5, 5, 5, 5, 5, 5, 5, 5, 5, 20, 20, 20, 5, 5, 5, 5, 5, 5, 5, 5, 5, 5, 5, 5, 5, 5, 5, 5, 5, 5, 5, 5, 5, 5, 5, 5, 5, 5, 5, 5, 5, 5, 5, 5, 5, 5, 5, 5, 5, 5, 5, 5, 5, 5, 5, 5, 10, 10, 10, 5, 5, 5, 5, 5, 5, 5, 5, 5, 10, 5, 10, 10, 10, 10, 10, 5, 10, 5, 10, 5, 10, 5, 5, 10, 10, 5, 10, 5, 5, 5, 5, 15, 5, 15, 5, 15, 5, 10, 10, 5, 5, 5, 5, 5, 5, 5, 5, 5, 5, 5, 5, 5, 5, 5, 5, 5, 5, 5, 5, 5, 5, 5, 5, 5, 5, 5, 5, 5, 10, 5, 10, 5, 10, 5, 10, 5, 5, 5, 5, 5, 5, 10, 10, 10, 10, 10, 10, 10, 10, 5, 5, 5, 10, 10, 5, 10, 5, 5, 5, 5, 5, 10, 10, 10, 10, 5, 5, 5, 5, 5, 5, 5, 5, 5, 10, 10, 5, 10, 10, 5, 10, 5, 10, 10, 10, 10, 5, 5, 10, 5, 10, 5, 10, 5, 10, 5, 10, 5, 10, 5, 10, 5, 5, 5, 5, 5, 5, 10, 5, 5, 5, 5, 5, 5, 5, 5, 5, 10, 10, 10, 10, 10, 5, 5, 5, 5, 5, 5, 5, 5, 5, 10, 10, 10, 10, 10, 5, 5, 5, 10, 10, 5, 5, 5, 5, 5, 5, 5, 10, 5, 5, 5, 10, 5, 5, 10, 10, 15, 5, 5, 10, 5, 10, 15, 5, 5, 10, 15, 5, 5, 10, 15, 5, 10, 5, 10, 5, 5, 10, 15, 5, 10, 5, 10, 5, 5, 5, 5, 5, 5, 5, 10, 10, 10, 10, 5, 5, 5, 10, 10, 15, 15, 15, 5, 5, 5, 5, 5, 5, 5, 5, 5, 10, 5, 5, 5, 5, 5, 10, 10, 10, 10, 5, 5, 5, 5, 5, 10, 5, 10, 5, 5, 5, 5, 5, 5, 5, 5, 10, 5, 10, 5, 10, 5, 5, 15, 5, 10, 5, 20, 5, 5, 20, 5, 10, 5, 5, 20, 5, 5, 5, 15, 5, 5, 10, 5, 5, 5, 5, 5, 5, 5, 5, 5, 5, 5, 5, 5, 5, 5, 5, 5, 5, 5, 5, 5, 5, 5, 5, 5, 5, 5, 5, 5, 5, 5, 5, 5, 5, 5, 10, 5, 5, 5, 5, 5, 10, 5, 5, 5, 10, 10, 5, 5, 5, 5, 5, 5, 5, 5, 5, 5, 5, 5, 5, 5, 5, 5, 5, 5, 5, 5, 5, 5, 5, 5, 5, 10, 10, 10, 5, 5, 5, 5, 5, 15, 5, 10, 5, 5, 5, 5, 5, 5, 5, 5, 5] p=0.87"]
S2 -> S2 [label="1 [5, 5, 5, 5, 5, 10, 5, 5, 5, 5, 5, 5, 5, 5, 5, 5, 5, 5, 5, 5, 5, 5, 5, 5, 10, 5, 5, 5, 5, 5, 5, 5, 5, 5, 5, 5, 5, 5, 5, 10, 5, 5, 5, 5, 5, 5, 5, 5, 5, 5, 5, 5, 5, 5, 5, 5, 10, 5, 5, 5, 5, 5, 5, 5, 5, 5, 5, 5, 5, 5, 5, 5, 5, 5, 10, 5, 5, 5, 5, 5, 5, 5, 5, 5, 5, 5, 5, 5, 5, 5, 5, 5, 5, 5, 5, 5, 5, 5, 5, 5, 5, 5, 5, 5, 5, 5, 5, 5, 5, 5, 5, 5, 5, 5, 5, 5, 5, 5, 5, 5, 5, 5, 5, 10, 5, 10, 10, 10, 5, 10, 5, 5, 5, 5, 5, 5, 5, 5, 5, 5, 5, 5, 5, 5, 5, 5, 5, 5, 5, 5, 5, 5, 5, 5, 5, 5, 5, 5, 5, 5, 5, 5, 5, 5, 5, 5, 5, 5, 5, 5, 5, 5, 5, 5, 5, 5, 5, 5, 5, 5, 5, 5, 5, 5, 5, 5, 5, 5, 5, 5] p=0.04"]
S2 -> S208 [label="4 [15, 5, 10, 10, 5, 10, 10, 10, 5, 5, 5, 5, 5, 15, 5, 5, 10, 10, 5, 5, 10, 10, 10, 5, 5, 5, 5, 5, 15, 5, 5, 10, 10, 10, 10, 5, 5, 5, 10, 10, 10, 10, 10, 5, 5, 5, 10, 10, 5, 5, 15, 5, 5, 10, 10, 10, 10, 5, 5, 5, 10, 10, 10, 10, 10, 5, 5, 5, 10, 10, 5, 5, 15, 5, 10, 5, 10, 10, 10, 10, 5, 5, 5, 10, 10, 10, 10, 10, 5, 20, 5, 5, 10, 10, 5, 5, 5, 5, 15, 5, 10, 5, 10, 10, 10, 10, 5, 5, 5, 10, 10, 10, 10, 10, 5, 20, 5, 5, 10, 10, 5, 5, 5, 5, 5, 15, 5, 10, 5, 10, 10, 10, 10, 5, 5, 5, 5, 10, 10, 10, 10, 10, 5, 20, 10, 5, 5, 10, 10, 5, 5, 5, 5, 5, 5, 15, 5, 10, 5, 10, 5, 10, 5, 10, 10, 5, 5, 5, 5, 5, 5, 10, 5, 10, 10, 10, 10, 5, 20, 10, 5, 5, 10, 10, 15, 5, 5, 5, 5, 5, 5, 15, 5, 10, 10, 5, 10, 5, 10, 5, 10, 5, 10, 5, 5, 5, 5, 5, 5, 5, 10, 5, 10, 10, 10, 10, 5, 20, 10, 5, 5, 10, 10, 15, 5, 5, 15, 5, 5, 5, 5, 15, 5, 10, 10, 5, 5, 10, 15, 5, 10, 5, 10, 5, 5, 10, 5, 5, 5, 5, 10, 5, 5, 5, 10, 5, 10, 10, 5, 10, 10, 5, 20, 10, 5, 10, 5, 5, 10, 5, 10, 15, 5, 5, 15, 5, 5, 5, 5, 5, 5, 5, 5, 5, 5, 15, 5, 15, 5, 15, 5, 15, 5, 15, 5, 15, 5, 15, 5, 5, 5, 5, 10, 5, 5, 5, 10, 5, 5, 15, 5, 5, 5, 5, 5, 5, 5, 10, 20, 5, 5, 20, 20, 20, 5, 15, 15, 15, 15, 5, 15, 5, 5, 15, 5, 5, 15, 5, 5, 15, 5, 5, 10, 10, 10, 5, 5, 10, 5, 5, 5, 10, 5, 5, 10, 5, 5, 10, 5, 5, 5, 10, 5, 5, 5, 10, 5, 5, 5, 10, 5, 5, 5, 5, 10, 5, 5, 5, 5, 5, 10, 10, 5, 5, 5, 5, 5, 5, 5, 5, 5, 5, 5, 5, 5, 15, 5, 15, 5, 15, 5, 15, 15, 15, 15, 5, 5, 5, 5, 5, 5, 5, 5, 5, 5, 5, 5, 5, 5, 5, 10, 10, 5, 10, 10, 10, 10, 5, 10, 10, 10, 10, 5, 10, 10, 5, 10, 5, 10, 5, 10, 5, 10, 5, 15, 5, 5, 5, 5, 5, 5, 5, 5, 5, 5, 5, 5, 5, 5, 5, 5, 5, 5, 5, 5, 5, 5, 5, 5, 5, 5, 10, 5, 5, 5, 5, 5, 5, 5, 5, 5, 5, 5, 5, 10, 10, 10, 10, 10, 10, 10, 5, 5, 10, 10, 10, 10, 10, 10, 10, 5, 5, 5, 5, 5, 5, 5, 5, 5, 5, 5, 5, 5, 5, 5, 5, 5, 10] p=0.1"]
S3 -> S8 [label="1 [5, 15, 5, 5, 5, 15, 5, 15, 5, 15, 5, 5, 5, 15, 5, 5, 15, 5, 5, 15, 5, 5, 15, 5, 5, 5, 15, 5, 5, 5, 15, 5, 5, 5, 15, 5, 5, 15, 5, 5, 5, 5, 15, 5, 5, 5, 5, 5, 5, 5, 5, 5, 5, 5, 5, 5, 5, 5, 5, 10, 5, 10, 5, 10, 5, 10, 5, 10, 5, 10, 5, 10, 5, 5, 15, 5, 5, 15, 10, 5, 15, 10, 5, 15, 10, 5, 15, 10, 5, 5, 15, 5, 10, 5, 15, 5, 5, 10, 5, 5, 10, 15, 5, 10, 10, 10, 5, 5, 5, 5, 5, 5, 15, 5, 10, 10, 10, 10, 10, 5, 5, 5, 5, 5, 10, 10, 5, 10, 15, 5, 5, 15, 10, 10, 5, 5, 10, 10, 10, 5, 5, 5, 5, 10, 10, 10, 10, 10, 5, 5, 10, 10, 5, 10, 15, 5, 5, 15, 10, 10, 5, 5, 10, 10, 10, 5, 5, 5, 5, 15, 5, 10, 5, 10, 10, 10, 10, 5, 5, 5, 5, 5, 10, 10, 5, 10, 15, 5, 10, 5, 15, 10, 10, 5, 5, 10, 10, 10, 5, 5, 5, 5, 15, 5, 10, 5, 5, 10, 5, 10, 5, 10, 10, 5, 5, 5, 5, 5, 10, 10, 5, 10, 15, 5, 5, 5, 10, 5, 15, 10, 10, 5, 5, 10, 10, 10, 10, 5, 5, 10, 5, 5, 15, 5, 5, 10, 5, 5, 10, 5, 10, 5, 10, 10, 5, 5, 5, 20, 5, 5, 10, 10, 5, 10, 15, 5, 5, 5, 10, 5, 15, 10, 10, 5, 5, 10, 10, 10, 5, 10, 10, 5, 5, 10, 5, 5, 5, 15, 5, 15, 5, 10, 5, 10, 5, 5, 10, 5, 5, 10, 5, 5, 10, 10, 5, 5, 5, 20, 5, 5, 10, 10, 5, 10, 15, 5, 5, 5, 5, 5, 10, 5, 15, 10, 10, 5, 5, 10, 15, 10, 10, 5, 10, 10, 5, 5, 5, 5, 10, 5, 5, 10, 5, 10, 15, 5, 15, 10, 10, 5, 10, 10, 10, 5, 5, 5, 5, 10, 10, 5, 5, 10, 5, 10, 15, 5, 15, 10, 10, 5, 5, 10, 10, 10, 5, 5, 5, 10, 5, 5, 10, 10, 15, 5, 15, 10, 10, 5, 10, 10, 5, 5, 10, 5, 5, 5, 15, 5, 15, 15, 5, 5, 10, 5, 10, 5, 5, 10, 5, 5, 10, 5, 5, 5, 10, 10, 5, 5, 5, 20, 5, 5, 10, 10, 5, 10, 15, 5, 5, 5, 5, 5, 10, 10, 5, 5, 15, 5, 10, 10, 5, 5, 5, 10, 10, 15, 10, 10, 5, 10, 10, 15, 10, 20, 10, 10, 20, 10, 10, 20, 10, 10, 20, 10, 10, 20, 10, 10, 20, 10, 10, 5, 20, 10, 5, 5, 5, 5, 5, 5, 5, 5, 5, 5, 5, 5, 5, 5, 5, 5, 5, 5, 10, 10, 5, 5, 5, 15, 5, 5, 15, 5, 5, 15, 5, 5, 15, 5, 15, 5, 15, 5, 5, 15, 5, 5, 5, 5, 5, 5, 5, 5, 10, 5, 10, 15, 5, 5, 5, 5, 5, 10, 10, 10, 10, 10, 10, 10, 10, 10, 10, 10, 10, 10, 10, 10, 10, 10, 10, 10, 10, 5, 5, 5, 5, 5, 5, 5, 5, 5, 5, 5, 5, 10, 10, 10, 10, 10, 10, 15, 15, 15, 15, 15, 15, 15, 5, 15, 15, 5, 5, 5, 5, 5, 5, 5, 5, 5, 5, 10, 10, 10, 5, 5, 5, 5, 5, 5, 5, 5, 10, 10, 5, 5, 5, 5, 5, 5, 5, 5, 5, 5, 5, 5, 5, 5] p=0.12"]
S3 -> S149 [label="4 [20, 20, 20, 20, 20, 20, 20, 20, 20, 20] p=0.0"]
S3 -> S2 [label="2 [5, 10, 5, 5, 15, 5, 10, 5, 5, 15, 5, 10, 5, 5, 15, 5, 10, 5, 5, 15, 5, 10, 5, 5, 15, 5, 10, 5, 5, 15, 5, 10, 5, 5, 15, 5, 5, 5, 15, 10, 15, 15, 10, 5, 5, 15, 15, 15, 10, 5, 5, 5, 15, 5, 10, 15, 15, 10, 15, 5, 5, 5, 10, 15, 5, 5, 15, 10, 15, 15, 5, 10, 15, 5, 5, 5, 10, 15, 5, 5, 15, 10, 15, 15, 5, 10, 15, 5, 5, 5, 10, 15, 5, 5, 15, 10, 15, 15, 5, 10, 15, 5, 5, 15, 15, 5, 5, 15, 15, 15, 10, 10, 5, 5, 5, 5, 5, 10, 10, 10, 10, 10, 15, 5, 25, 15, 5, 25, 15, 5, 25, 15, 5, 25, 25, 15, 5, 5, 25, 25, 15, 5, 5, 5, 25, 25, 5, 5, 5, 15, 15, 5, 5, 5, 5, 5, 5, 5, 5, 15, 15, 15, 5, 5, 15, 15, 15, 5, 5, 10, 5, 15, 15, 15, 5, 5, 10, 5, 15, 15, 5, 15, 5, 5, 5, 10, 5, 15, 10, 15, 5, 15, 5, 5, 5, 10, 10, 5, 15, 10, 15, 5, 15, 10, 5, 5, 5, 10, 10, 5, 15, 10, 15, 5, 15, 15, 10, 5, 10, 5, 5, 5, 10, 15, 10, 5, 15, 10, 15, 5, 5, 15, 15, 10, 5, 10, 5, 10, 15, 5, 5, 10, 10, 5, 15, 5, 5, 5, 5, 5, 10, 10, 30, 10, 15, 5, 5, 5, 10, 10, 10, 5, 15, 5, 5, 5, 5, 5, 5, 10, 10, 30, 10, 15, 10, 5, 5, 5, 5, 5, 10, 10, 10, 5, 15, 5, 5, 5, 5, 5, 5, 5, 5, 5, 5, 5, 5, 5, 10, 10, 5, 10, 30, 5, 5, 5, 5, 5, 5, 5, 10, 10, 10, 5, 10, 5, 15, 15, 20, 10, 5, 5, 10, 5, 5, 5, 5, 10, 10, 5, 5, 15, 20, 5, 5, 5, 5, 5, 10, 10, 10, 5, 5, 15, 20, 5, 5, 10, 5, 5, 5, 10, 5, 15, 20, 5, 5, 5, 10, 10, 5, 15, 20, 5, 5, 5, 5, 15, 20, 5, 5, 5, 5, 5, 5, 5, 10, 10, 10, 5, 5, 5, 10, 15, 10, 5, 5, 5, 5, 10, 15, 10, 5, 5, 15, 15, 5, 5, 5, 10, 15, 15, 5, 5, 15, 5, 5, 10, 5, 15, 15, 5, 5, 15, 5, 5, 10, 5, 15, 15, 5, 5, 15, 5, 5, 10, 5, 10, 5, 10, 10, 10, 20, 5, 10, 20, 5, 5, 5, 10, 5, 10, 5, 5, 5, 10, 5, 5, 10, 5, 5, 15, 5, 10, 5, 5, 10, 5, 10, 5, 10, 10, 15, 5, 10, 5, 5, 10, 5, 5, 10, 5, 10, 10, 15, 10, 5, 10, 20, 5, 5, 10, 15, 10, 5, 5, 5, 5, 10, 5, 5, 15, 10, 5, 25, 10, 5, 5, 10, 10, 10, 10, 5, 20, 5, 10, 10, 5, 5, 5, 10, 5, 5, 15, 10, 5, 10, 5, 5, 10, 10, 10, 10, 5, 20, 5, 5, 10, 5, 5, 15, 10, 5, 10, 5, 5, 10, 10, 5, 20, 10, 10, 5, 5, 5, 10, 5, 5, 15, 10, 5, 10, 5, 5, 10, 10, 10, 5, 20, 5, 5, 10, 5, 5, 15, 10, 5, 10, 5, 5, 10, 10, 10, 5, 10, 20, 5, 5, 5, 10, 15, 10, 5, 15, 5, 5, 5, 10, 5, 5, 15, 10, 5, 25, 10, 5, 5, 5, 10, 10, 10, 10, 5, 10, 5, 5, 10, 5, 20, 5, 5, 5, 5, 5, 5, 10, 15, 10, 5, 15, 5, 5, 5, 10, 5, 5, 5, 5, 5, 15, 10, 5, 10, 5, 25, 10, 10, 5, 5, 5, 5, 5, 10, 10, 5, 5, 10, 5, 5, 10, 5, 20, 15, 20, 15, 20, 15, 10, 10, 10, 10, 5, 5, 5, 5, 15, 10, 10, 10, 5, 5, 10, 10, 20, 5, 5, 5, 5, 5, 5, 10, 5, 15, 10, 5, 5, 5, 5, 15, 5, 25, 15, 10, 25, 15, 5, 10, 10, 10, 20, 5, 5, 5, 10, 15, 5, 5, 15, 10, 15, 5, 15, 10, 5, 10, 10, 20, 5, 5, 5, 5, 10, 15, 10, 5, 5, 15, 5, 25, 10, 25, 15, 10, 10, 20, 5, 10, 15, 5, 5, 15, 10, 15, 10, 10, 10, 20, 5, 5, 10, 15, 5, 5, 15, 10, 15, 10, 10, 5, 10, 15, 5, 5, 10, 10, 10, 5, 10, 15, 5, 5, 10, 10, 10, 5, 10, 15, 5, 5, 10, 15, 5, 5, 5, 5, 5, 5, 5, 5, 5, 5, 10, 10, 5, 10, 5, 10, 5, 5, 5, 5, 5, 10, 5, 20, 5, 10, 10, 5, 5, 5, 5, 5, 20, 5, 10, 5, 5, 5, 5, 5, 10, 5, 5, 5, 5, 10, 5, 5, 5, 5, 10, 10, 5, 5, 5, 5, 10, 5, 5, 5, 5, 5, 10, 10, 5, 5, 5, 5, 5, 5, 5, 5, 10, 10, 5, 5, 5, 5, 5, 5, 5, 5, 5, 10, 10, 5, 5, 5, 5, 5, 5, 5, 5, 5, 10, 10, 5, 5, 5, 10, 5, 5, 5, 5, 5, 5, 10, 5, 5, 5, 5, 5, 5, 5, 10, 15, 10, 10, 10, 5, 5, 10, 5, 10, 5, 5, 5, 10, 5, 5, 10, 5, 10, 5, 10, 5, 5, 5, 5, 5, 5, 5, 5, 5, 10, 5, 5, 5, 5, 5, 10, 5, 5, 5, 10, 5, 5, 10, 5, 15, 5, 5, 10, 5, 5, 10, 5, 5, 5, 5, 15, 5, 5, 10, 5, 5, 5, 10, 5, 5, 5, 5, 15, 5, 5, 5, 5, 15, 15, 5, 5, 10, 15, 5, 5, 10, 10, 5, 5, 5, 10, 5, 5, 15, 15, 5, 25, 5, 5, 5, 15, 15, 10, 5, 25, 5, 5, 5, 5, 5, 5, 5, 5, 5, 5, 5, 5, 20, 5, 5, 5, 5, 5, 5, 5, 5, 5, 5, 5, 5, 5, 5, 5, 5, 20, 5, 5, 5, 5, 5, 5, 5, 5, 5, 5, 5, 15, 5, 5, 5, 5, 5, 5, 20, 5, 5, 5, 5, 5, 5, 5, 5, 5, 5, 5, 15, 5, 5, 5, 5, 5, 5, 20, 5, 5, 5, 5, 5, 5, 5, 5, 5, 5, 5, 5, 5, 5, 15, 5, 5, 5, 5, 5, 5, 20, 5, 5, 5, 15, 5, 5, 5, 5, 5, 5, 5, 5, 5, 5, 5, 5, 15, 5, 5, 5, 5, 5, 5, 20, 5, 5, 5, 10, 15, 5, 5, 5, 5, 5, 15, 5, 5, 10, 5, 5, 5, 5, 5, 5, 5, 5, 15, 5, 5, 5, 5, 5, 5, 5, 20, 5, 5, 5, 10, 15, 5, 5, 5, 5, 5, 5, 15, 5, 5, 10, 5, 5, 10, 5, 5, 5, 5, 5, 5, 15, 5, 5, 5, 5, 5, 5, 5, 5, 20, 5, 5, 5, 10, 15, 5, 5, 5, 5, 5, 5, 5, 5, 5, 5, 5, 15, 10, 5, 5, 15, 5, 10, 5, 5, 5, 10, 5, 5, 5, 5, 5, 5, 15, 5, 5, 5, 5, 5, 5, 5, 15, 10, 5, 5, 15, 5, 5, 5, 20, 5, 15, 5, 5, 5, 5, 5, 10, 5, 10, 10, 15, 5, 15, 5, 5, 10, 5, 5, 15, 5, 5, 5, 5, 5, 10, 10, 15, 5, 5, 5, 25, 15, 5, 10, 20, 5, 15, 5, 5, 5, 10, 10, 15, 5, 5, 5, 25, 15, 5, 10, 20, 5, 5, 5, 5, 10, 10, 15, 5, 5, 5, 25, 15, 5, 10, 20, 5, 10, 5, 15, 5, 15, 5, 5, 5, 10, 5, 5, 10, 10, 15, 5, 5, 5, 10, 25, 15, 5, 10, 20, 5, 5, 15, 10, 15, 5, 15, 5, 5, 15, 5, 5, 5, 5, 10, 5, 5, 10, 10, 15, 10, 5, 5, 5, 5, 15, 5, 5, 5, 10, 25, 15, 5, 10, 5, 10, 5, 15, 15, 20, 5, 10, 5, 10, 5, 5, 5, 5, 5, 5, 15, 5, 5, 5, 5, 10, 5, 5, 5, 10, 10, 5, 10, 5, 10, 5, 10, 5, 5, 10, 10, 5, 15, 5, 5, 5, 5, 5, 15, 15, 5, 10, 5, 10, 10, 15, 5, 10, 5, 10, 5, 5, 15, 10, 5, 20, 5, 5, 5, 20, 5, 5, 5, 15, 10, 5, 5, 5, 10, 5, 5, 5, 15, 5, 5, 10, 5, 5, 5, 5, 15, 10, 10, 5, 5, 15, 5, 5, 5, 10, 5, 5, 10, 10, 5, 5, 5, 5, 15, 10, 5, 5, 15, 5, 5, 5, 5, 15, 5, 5, 15, 5, 10, 5, 10, 5, 5, 5, 5, 5, 10, 10, 10, 5, 5, 10, 10, 15, 5, 10, 5, 5, 10, 5, 5, 5, 5, 10, 15, 10, 10, 5, 5, 10, 10, 20, 10, 5, 5, 5, 5, 10, 5, 5, 5, 10, 5, 10, 10, 5, 5, 20, 10, 5, 5, 5, 5, 5, 5, 20, 15, 5, 5, 5, 5, 10, 5, 10, 5, 10, 10, 15, 5, 5, 5, 5, 5, 10, 5, 15, 10, 5, 10, 5, 10, 15, 5, 10, 10, 10, 5, 5, 5, 5, 15, 15, 15, 5, 5, 15, 5, 5, 10, 5, 5, 10, 5, 10, 10, 5, 5, 10, 15, 5, 15, 5, 5, 5, 5, 5, 5, 5, 10, 5, 10, 5, 5, 5, 5, 15, 5, 5, 5, 5, 15, 5, 15, 5, 5, 5, 5, 5, 5, 5, 15, 5, 5, 5, 5, 10, 5, 5, 15, 10, 15, 5, 15, 5, 5, 5, 5, 15, 10, 10, 5, 5, 10, 5, 5, 5, 5, 5, 5, 10, 5, 5, 10, 5, 5, 5, 5, 5, 20, 5, 10, 5, 5, 5, 5, 25, 5, 10, 10, 15, 10, 5, 5, 10, 15, 5, 5, 15, 5, 5, 10, 5, 10, 5, 5, 5, 20, 10, 5, 5, 15, 5, 10, 25, 5, 5, 25, 5, 5, 10, 5, 5, 10, 10, 15, 5, 5, 10, 10, 5, 5, 20, 15, 5, 10, 15, 5, 5, 20, 5, 15, 5, 5, 10, 5, 5, 5, 5, 10, 5, 10, 5, 10, 10, 15, 5, 10, 5, 5, 5, 5, 5, 10, 5, 10, 25, 10, 5, 5, 5, 15, 5, 5, 10, 5, 10, 10, 10, 10, 15, 5, 5, 15, 5, 5, 10, 5, 5, 10, 5, 15, 5, 5, 5, 5, 10, 5, 5, 15, 5, 5, 5, 10, 5, 20, 10, 5, 10, 15, 15, 10, 25, 5, 15, 5, 10, 5, 15, 5, 10, 5, 5, 5, 5, 10, 10, 10, 15, 5, 5, 5, 15, 10, 5, 15, 10, 20, 30, 5, 5, 5, 5, 5, 5, 5, 5, 5, 5, 5, 5, 15, 5, 5, 5, 10, 5, 5, 5, 10, 10, 5, 10, 10, 5, 10, 5, 10, 10, 5, 15, 5, 5, 5, 15, 15, 5, 10, 10, 10, 15, 5, 10, 5, 10, 5, 15, 10, 5, 20, 5, 5, 20, 5, 5, 5, 15, 10, 5, 5, 5, 10, 5, 5, 15, 5, 5, 10, 5, 5, 5, 15, 10, 10, 5, 5, 5, 5, 5, 10, 5, 5, 10, 10, 5, 5, 5, 5, 15, 5, 15, 5, 5, 5, 15, 5, 5, 5, 10, 10, 5, 5, 5, 5, 10, 10, 10, 5, 5, 10, 15, 5, 10, 5, 10, 5, 5, 15, 10, 10, 5, 5, 10, 10, 20, 10, 5, 5, 5, 10, 5, 5, 5, 10, 5, 10, 10, 5, 20, 10, 5, 5, 5, 5, 5, 20, 15, 5, 5, 5, 5, 10, 5, 10, 10, 10, 15, 5, 5, 5, 5, 10, 5, 15, 10, 10, 5, 10, 15, 5, 10, 10, 10, 5, 5, 5, 5, 15, 15, 15, 5, 5, 15, 5, 5, 10, 5, 10, 5, 10, 10, 5, 5, 10, 5, 15, 5, 5, 5, 5, 5, 10, 5, 10, 5, 5, 5, 15, 5, 5, 5, 15, 15, 5, 5, 5, 5, 5, 5, 15, 5, 5, 5, 10, 5, 5, 15, 10, 5, 15, 5, 5, 5, 5, 15, 10, 5, 5, 10, 5, 5, 5, 5, 5, 5, 10, 5, 5, 10, 5, 5, 5, 5, 5, 20, 5, 10, 5, 5, 25, 5, 10, 10, 10, 5, 10, 15, 5, 5, 15, 5, 10, 5, 10, 5, 5, 5, 20, 10, 5, 5, 15, 5, 10, 25, 5, 25, 5, 5, 10, 5, 5, 10, 10, 15, 5, 5, 10, 10, 5, 5, 20, 15, 5, 10, 15, 5, 5, 5, 15, 5, 5, 10, 5, 5, 5, 10, 5, 10, 5, 10, 10, 5, 10, 5, 5, 5, 5, 10, 5, 10, 25, 10, 5, 5, 5, 15, 5, 5, 10, 10, 10, 10, 10, 15, 5, 5, 15, 5, 5, 10, 5, 5, 10, 5, 15, 5, 5, 5, 10, 5, 15, 5, 5, 10, 5, 20, 10, 5, 10, 15, 15, 25, 5, 15, 5, 10, 5, 15, 5, 10, 5, 5, 5, 10, 5, 5, 15, 10, 5, 10, 20, 30, 5, 5, 5, 5, 5, 5, 5, 5, 5, 15, 5, 5, 10, 5, 5, 10, 10, 5, 10, 10, 5, 10, 5, 10, 5, 15, 5, 5, 15, 5, 10, 10, 10, 15, 5, 10, 5, 10, 5, 15, 10, 5, 20, 5, 5, 20, 5, 5, 5, 15, 10, 5, 5, 5, 5, 5, 15, 5, 5, 10, 5, 5, 5, 15, 10, 10, 5, 5, 5, 5, 5, 5, 5, 10, 10, 5, 5, 5, 5, 5, 15, 5, 5, 5, 15, 5, 5, 5, 10, 5, 5, 5, 10, 10, 10, 5, 5, 15, 5, 10, 10, 5, 5, 15, 10, 10, 5, 10, 10, 20, 10, 5, 5, 5, 10, 5, 5, 5, 10, 5, 5, 10, 5, 5, 5, 5, 5, 20, 5, 5, 10, 10, 10, 10, 15, 5, 5, 5, 10, 5, 15, 10, 5, 10, 15, 5, 10, 10, 10, 5, 5, 5, 5, 15, 15, 15, 5, 5, 15, 5, 5, 10, 5, 10, 5, 10, 10, 5, 10, 5, 15, 5, 5, 5, 5, 10, 5, 5, 5, 5, 5, 5, 5, 15, 15, 5, 5, 5, 5, 5, 15, 5, 5, 5, 10, 5, 5, 5, 15, 5, 5, 5, 15, 10, 5, 5, 10, 5, 5, 5, 5, 5, 10, 10, 5, 5, 5, 5, 20, 5, 10, 5, 5, 25, 10, 10, 10, 5, 10, 5, 5, 15, 5, 10, 5, 10, 5, 5, 20, 10, 5, 5, 5, 10, 25, 5, 25, 5, 5, 10, 5, 5, 10, 10, 15, 5, 5, 10, 10, 5, 5, 20, 15, 5, 10, 5, 5, 5, 15, 5, 5, 10, 5, 5, 5, 5, 10, 5, 10, 10, 5, 10, 5, 5, 5, 5, 10, 5, 10, 10, 5, 5, 5, 15, 5, 5, 10, 10, 10, 10, 10, 15, 5, 5, 15, 5, 5, 10, 5, 5, 10, 5, 5, 5, 5, 5, 15, 5, 10, 5, 20, 10, 5, 15, 15, 5, 5, 10, 5, 15, 5, 10, 5, 5, 5, 10, 5, 5, 15, 10, 10, 20, 30, 5, 5, 5, 5, 5, 5, 5, 5, 5, 15, 5, 5, 10, 5, 5, 10, 10, 5, 10, 5, 10, 10, 5, 15, 5, 15, 5, 10, 10, 15, 5, 10, 5, 10, 15, 10, 5, 20, 5, 5, 5, 5, 5, 15, 10, 5, 5, 5, 5, 15, 5, 5, 10, 5, 5, 15, 10, 10, 5, 5, 5, 5, 5, 5, 10, 10, 5, 5, 5, 5, 15, 5, 5, 15, 5, 5, 5, 5, 10, 10, 10, 5, 5, 5, 10, 5, 10, 10, 5, 10, 10, 20, 10, 5, 5, 10, 5, 5, 5, 10, 5, 10, 5, 5, 5, 5, 20, 5, 5, 10, 10, 10, 15, 5, 5, 5, 5, 15, 10, 5, 10, 15, 5, 10, 10, 10, 5, 5, 5, 5, 15, 15, 15, 5, 5, 15, 5, 5, 10, 10, 5, 10, 10, 5, 10, 15, 5, 5, 5, 10, 5, 5, 5, 5, 5, 15, 5, 5, 5, 5, 5, 15, 5, 5, 5, 5, 5, 15, 5, 5, 5, 15, 5, 5, 10, 5, 5, 5, 5, 5, 10, 10, 5, 5, 5, 5, 20, 5, 10, 5, 10, 10, 5, 5, 5, 15, 10, 5, 10, 5, 5, 20, 10, 5, 5, 5, 10, 25, 25, 5, 5, 10, 5, 5, 10, 10, 15, 5, 5, 10, 10, 5, 5, 20, 15, 5, 10, 5, 5, 15, 5, 5, 10, 5, 5, 5, 10, 5, 10, 10, 10, 5, 5, 5, 5, 5, 10, 10, 5, 5, 5, 15, 5, 5, 10, 10, 10, 10, 15, 5, 5, 15, 5, 5, 10, 5, 5, 10, 5, 5, 5, 15, 5, 10, 5, 20, 10, 5, 15, 15, 5, 5, 10, 5, 15, 5, 10, 5, 5, 5, 15, 10, 20, 30, 5, 5, 5, 5, 5, 5, 15, 5, 10, 5, 10, 10, 5, 10, 5, 10, 5, 15, 15, 10, 10, 15, 5, 10, 5, 10, 15, 10, 5, 20, 5, 5, 5, 5, 5, 15, 10, 5, 5, 5, 15, 5, 5, 10, 5, 5, 15, 10, 10, 5, 5, 5, 5, 5, 10, 10, 5, 5, 5, 5, 15, 5, 5, 15, 5, 5, 5, 5, 10, 10, 10, 5, 5, 5, 10, 5, 10, 10, 10, 10, 20, 10, 5, 5, 10, 5, 5, 5, 10, 5, 5, 5, 5, 5, 20, 5, 10, 15, 5, 5, 5, 15, 10, 10, 15, 5, 10, 10, 10, 5, 5, 5, 5, 15, 15, 15, 5, 5, 15, 5, 5, 10, 10, 5, 10, 10, 5, 15, 5, 5, 10, 5, 5, 5, 5, 5, 15, 5, 5, 5, 5, 5, 5, 5, 5, 5, 5, 15, 5, 5, 5, 5, 5, 10, 5, 5, 5, 5, 10, 5, 5, 5, 5, 5, 10, 5, 10, 5, 5, 15, 10, 5, 10, 5, 20, 10, 5, 5, 10, 25, 25, 5, 5, 10, 5, 5, 10, 10, 15, 5, 5, 10, 10, 5, 5, 20, 15, 5, 10, 5, 15, 5, 5, 10, 5, 5, 10, 5, 10, 10, 10, 5, 5, 5, 5, 5, 10, 5, 5, 5, 15, 5, 5, 10, 10, 10, 10, 15, 5, 5, 15, 5, 5, 10, 5, 5, 10, 5, 5, 5, 15, 10, 5, 20, 10, 5, 15, 10, 5, 15, 5, 10, 5, 5, 5, 15, 10, 20, 30, 5, 5, 5, 5, 5, 5, 15, 5, 10, 5, 10, 10, 5, 10, 10, 5, 15, 10, 15, 5, 10, 5, 10, 10, 5, 20, 5, 5, 5, 5, 15, 10, 5, 5, 5, 5, 5, 10, 5, 15, 10, 10, 5, 5, 5, 5, 10, 10, 5, 5, 5, 5, 5, 15, 5, 5, 10, 10, 10, 5, 5, 10, 10, 10, 10, 20, 10, 5, 10, 5, 5, 5, 10, 5, 5, 5, 5, 20, 5, 15, 5, 5, 15, 10, 10, 15, 5, 10, 10, 10, 5, 5, 5, 5, 15, 15, 15, 5, 5, 15, 5, 5, 10, 5, 10, 10, 5, 5, 5, 5, 5, 5, 15, 5, 5, 5, 5, 5, 5, 5, 5, 5, 5, 5, 5, 10, 5, 5, 5, 5, 10, 5, 5, 5, 5, 5, 10, 10, 5, 15, 5, 10, 5, 20, 10, 5, 5, 10, 25, 5, 5, 10, 5, 5, 10, 10, 15, 5, 5, 10, 10, 5, 5, 20, 15, 5, 10, 5, 5, 5, 10, 5, 10, 5, 10, 10, 5, 5, 5, 5, 10, 5, 5, 5, 15, 5, 5, 10, 10, 10, 15, 5, 5, 15, 5, 5, 10, 5, 5, 10, 5, 5, 10, 5, 20, 10, 5, 15, 10, 5, 15, 5, 10, 5, 5, 5, 10, 30, 5, 5, 5, 5, 15, 5, 10, 10, 5, 10, 10, 15, 15, 5, 10, 5, 10, 10, 5, 20, 5, 5, 5, 5, 15, 10, 5, 5, 5, 5, 5, 10, 5, 15, 10, 10, 5, 5, 5, 10, 10, 5, 5, 5, 5, 5, 15, 5, 5, 10, 10, 10, 5, 5, 10, 10, 10, 20, 10, 5, 10, 5, 5, 5, 10, 5, 5, 5, 20, 15, 5, 15, 10, 15, 5, 10, 10, 10, 5, 5, 5, 5, 15, 15, 15, 5, 5, 15, 5, 5, 10, 5, 10, 10, 5, 5, 5, 5, 5, 15, 5, 5, 5, 5, 5, 5, 5, 5, 5, 5, 5, 10, 5, 5, 5, 10, 5, 5, 5, 10, 15, 5, 10, 5, 10, 5, 5, 25, 5, 5, 10, 5, 5, 10, 10, 15, 5, 5, 10, 10, 5, 5, 20, 15, 5, 10, 5, 5, 10, 5, 5, 10, 10, 5, 5, 5, 5, 10, 5, 5, 15, 5, 5, 10, 10, 10, 15, 5, 5, 15, 5, 5, 10, 5, 5, 10, 5, 5, 5, 20, 10, 5, 5, 15, 5, 10, 5, 5, 5, 10, 30, 5, 5, 5, 5, 15, 5, 10, 10, 5, 10, 15, 5, 10, 5, 10, 5, 20, 5, 5, 5, 15, 10, 5, 5, 5, 5, 10, 15, 10, 10, 5, 5, 10, 10, 5, 5, 5, 5, 15, 5, 5, 10, 10, 5, 5, 10, 20, 10, 5, 5, 5, 5, 10, 5, 5, 20, 5, 10, 15, 5, 10, 10, 10, 5, 5, 5, 5, 15, 15, 15, 5, 5, 15, 5, 5, 10, 10, 10, 5, 5, 15, 5, 5, 5, 5, 5, 5, 5, 10, 5, 5, 5, 10, 5, 5, 5, 10, 15, 10, 5, 10, 5, 5, 25, 5, 10, 5, 5, 10, 10, 15, 5, 5, 10, 10, 5, 5, 20, 15, 5, 10, 5, 10, 5, 10, 10, 5, 5, 5, 5, 5, 15, 5, 5, 10, 10, 15, 5, 5, 15, 5, 5, 10, 5, 5, 10, 5, 5, 20, 10, 5, 5, 15, 5, 10, 5, 5, 5, 5, 5, 5, 15, 5, 10, 5, 10, 5, 10, 5, 10, 5, 20, 5, 5, 5, 15, 10, 5, 5, 5, 5, 10, 15, 10, 10, 5, 5, 10, 5, 5, 5, 5, 15, 5, 5, 10, 10, 5, 5, 20, 10, 5, 5, 5, 5, 10, 5, 5, 20, 10, 5, 10, 10, 10, 5, 5, 5, 5, 15, 15, 15, 5, 5, 15, 5, 5, 10, 10, 10, 5, 15, 5, 5, 5, 5, 5, 5, 10, 5, 5, 5, 5, 5, 10, 5, 5, 5, 5, 10, 5, 5, 10, 10, 15, 5, 5, 10, 10, 5, 5, 20, 15, 5, 10, 5, 10, 10, 10, 5, 5, 5, 5, 15, 5, 5, 10, 10, 15, 5, 5, 15, 5, 5, 10, 5, 5, 10, 5, 20, 10, 5, 15, 5, 10, 5, 5, 5, 5, 5, 5, 15, 5, 10, 5, 10, 10, 5, 10, 20, 5, 5, 15, 10, 5, 5, 5, 10, 10, 10, 5, 5, 10, 5, 5, 5, 5, 5, 5, 10, 5, 5, 20, 10, 5, 5, 5, 10, 5, 20, 5, 10, 10, 10, 5, 5, 5, 5, 15, 15, 15, 5, 5, 15, 5, 5, 10, 10, 5, 5, 5, 5, 5, 5, 5, 5, 5, 5, 5, 5, 5, 10, 5, 5, 10, 10, 15, 5, 5, 10, 10, 5, 5, 20, 15, 5, 10, 10, 10, 10, 5, 5, 5, 15, 5, 5, 10, 15, 5, 5, 15, 5, 5, 10, 5, 5, 10, 5, 20, 10, 5, 15, 5, 10, 5, 5, 5, 5, 5, 5, 10, 5, 10, 5, 10, 5, 10, 10, 5, 10, 10, 10, 10, 5, 5, 5, 5, 5, 5, 15, 5, 15, 5, 15, 5, 5, 5, 5, 10, 10, 10, 5, 5, 5, 5, 5, 5, 5, 5, 10, 10, 10, 10, 10, 5, 5, 5, 5, 10, 10, 10, 10, 10, 10, 5, 5, 15, 5, 15, 5, 15, 5, 15, 5, 15, 5, 15, 5, 15, 5, 15, 15, 15, 15, 15, 15, 5, 5, 10, 10, 5, 10, 5, 10, 5, 10, 5, 5, 5, 5, 15, 15, 15, 10, 10, 5, 15, 5, 15, 5, 15, 5, 15, 10, 5, 15, 5, 5, 5, 5, 5, 10, 15, 15, 15, 5, 5, 5, 5, 5, 5, 5, 5, 5, 5, 5, 5, 5, 10, 5, 5, 5, 5, 5, 10, 10, 10, 10, 5, 5, 5, 10, 5, 10, 5, 10, 5, 5, 10, 5, 5, 5, 5, 15, 5, 5, 5, 5, 5, 5, 15, 5, 15, 5, 15, 5, 15, 5, 5, 5, 5, 5, 5, 5, 5, 5, 5, 5, 5, 5, 5, 5, 5, 5, 5, 5, 5, 5, 5, 5, 5, 5, 5, 5, 5, 5, 5, 5, 5, 5, 5, 5, 5, 5, 10, 5, 5, 5, 5, 5, 5, 5, 5, 5, 10, 5, 5, 5, 10, 5, 5, 5, 5, 5, 5, 5, 5, 5, 5, 5, 5, 5, 5, 5, 5, 5, 5, 5, 5, 5, 5, 10, 15, 15, 15, 15, 15, 15, 5, 5, 5, 5, 10, 5, 5, 5, 5, 5, 5, 15, 10, 5, 5, 5, 5, 5, 5, 5, 5, 5, 5, 5, 10, 10, 10, 10, 5, 15, 10, 15, 5, 5, 5, 10, 10, 10, 10, 15, 10, 15, 10, 15, 10, 10, 15, 5, 25, 5, 5, 10, 10, 10, 10, 5, 5, 15, 5, 5, 5, 5, 5, 5, 5, 5, 5, 5, 5, 5, 5, 5, 5, 5, 5, 5, 5, 5, 5, 5, 5, 5, 10, 5, 10, 5, 10, 5, 5, 5, 5, 5, 5, 25, 25, 25, 5, 5, 5, 5, 5, 10, 10, 5, 10, 5, 5, 5, 5, 5, 5, 5, 15, 15, 15, 10, 5, 10, 10, 5, 10, 5, 10, 10, 10, 10, 10, 5, 10, 5, 10, 5, 10, 5, 10, 5, 10, 5, 5, 5, 5, 5, 5, 5, 5, 5, 5, 5, 5, 5, 5, 5, 5, 5, 5, 5, 25, 25, 25, 5, 5, 5, 5, 5, 10, 10, 10, 5, 5, 5, 10, 5, 5, 15, 15, 10, 10, 5, 5, 5, 5, 15, 15, 5, 5, 15, 15, 5, 5, 15, 15, 5, 10, 5, 5, 15, 15, 10, 5, 10, 10, 5, 5, 5, 15, 5, 15, 10, 10, 10, 10, 5, 5, 5, 5, 5, 5, 5, 5, 5, 5, 5, 5, 5, 5, 10, 10, 10, 10, 10, 10, 10, 15, 10, 15, 5, 5, 5, 10, 10, 15, 5, 10, 5, 5, 5, 5, 10, 5, 5, 5, 5, 10, 10, 10, 10, 15, 10, 15, 10, 10, 10, 10, 5, 5, 5, 5, 5, 5, 5, 5, 5, 5, 5, 15, 5, 5, 5, 10, 5, 10, 5, 10, 5, 10, 5, 5, 5, 5, 5, 5, 5, 5, 5, 5, 5, 5, 5, 5, 5, 5, 5, 5, 5, 10, 10, 10, 5, 5, 5, 5, 5, 5, 5, 5, 5, 5, 5, 5, 5, 5, 10, 10, 15, 5, 5, 10, 10, 10, 10, 10, 5, 5, 5, 5, 5] p=0.86"]
S3 -> S4 [label="4 [5, 5, 5, 5, 10, 10, 10, 10, 10, 10, 10, 10, 5, 5, 5, 5, 5, 5, 5, 10, 5, 5, 15, 5, 10, 5, 15, 5, 5, 5, 10, 5, 5, 15, 5, 5, 5, 10, 5, 5, 15, 5, 5, 5, 5, 10, 5, 5, 15, 5, 5, 5, 5, 10, 5, 5, 15, 5, 5, 5, 5, 10, 5, 5, 15, 5, 5, 5, 5, 10, 5, 5, 15, 5, 5, 15, 5, 5, 5, 5, 10, 5, 5, 10, 15, 5, 5, 5, 10, 10] p=0.02"]
S8 -> S2 [label="2 [5, 5, 5, 5, 5, 5, 5, 5, 5, 5, 5, 5, 5, 5, 5, 5, 5, 5, 5, 5, 5, 5, 5, 5, 5, 5, 5, 5, 5, 5, 5, 5, 5, 5, 5, 5, 5, 5, 5, 5, 5, 5, 5, 5, 5, 5, 5, 5, 5, 5, 5, 5, 5, 5, 5, 5, 5, 5, 5, 5, 5, 5, 5, 5, 5, 5, 5, 5, 5, 5, 5, 5, 5, 5, 5, 5, 5, 5, 5, 5, 5, 5, 5, 5, 5, 5, 5, 5, 5, 5, 5, 5, 5, 5, 5, 5, 5, 5, 5, 5, 5, 5, 5, 5, 5, 5, 5, 5, 5, 5, 5, 5, 5, 5, 5, 5, 5, 5, 5, 5, 5, 5, 5, 5, 5, 5, 5, 5, 5, 5, 5, 5, 5, 5, 5, 5, 5, 5, 5, 5, 5, 5, 5, 5, 5, 5, 5, 5, 5, 5, 5, 5, 5, 5, 5, 5, 5, 5, 5, 5, 5, 5, 5, 5, 5, 5, 5, 5, 5, 5, 5, 5, 5, 5, 5, 5, 5, 5, 5, 5, 5, 5, 5, 5, 5, 5, 5, 5, 5, 5, 5, 5, 5, 5, 5, 5, 5, 5, 5, 5, 5, 5, 5, 5, 5, 5, 5] p=0.26"]
S8 -> S3 [label="3 [5, 5, 5, 5, 5, 5, 5, 5, 5, 5, 5, 5, 5, 5, 5, 5, 5, 5, 5, 5, 5, 5, 5, 5, 5, 5, 5, 5, 5, 5, 5, 5, 5, 5, 5, 5, 5, 5, 5, 5, 5, 5, 5, 5, 5, 5, 5, 5, 5, 5, 5, 5, 5, 5, 5, 5, 5, 5, 5, 5, 5, 5, 5, 5, 5, 5, 5, 5, 5, 5, 5, 5, 5, 5, 5, 5, 5, 5, 5, 5, 5, 5, 5, 5, 5, 5, 5, 5, 5, 5, 5, 5, 5, 5, 5, 5, 5, 5, 5, 5, 5, 5, 5, 5, 5, 5, 5, 5, 5, 5, 5, 5, 5, 5, 5, 5, 5, 5, 5, 5, 5, 5, 5, 5, 5, 5, 5, 5, 5, 5, 5, 5, 5, 5, 5, 5, 5, 5, 5, 5, 5, 5, 5, 5, 5, 5, 5, 5, 5, 5, 5, 5, 5, 5, 5, 5, 5, 5, 5, 5, 5, 5, 5, 5, 5, 5, 5, 5, 5, 5, 5, 5, 5, 5, 5, 5, 5, 5, 5, 5, 5, 5, 5, 5, 5, 5, 5, 5, 5, 5, 5, 5, 5, 5, 5, 5, 5, 5, 5, 5, 5, 5, 5, 5, 5, 5, 5, 5, 5, 5, 5, 5, 5, 5, 5, 5, 5, 5, 5, 5, 5, 5, 5, 5, 5, 5, 5, 5, 5, 5, 5, 5, 5, 5, 5, 5, 5, 5, 5, 5, 5, 5, 5, 5, 5, 5, 5, 5, 5, 5, 5, 5, 5, 5, 5, 5, 5, 5, 5, 5, 5, 5, 5, 5, 5, 5, 5, 5, 5, 5, 5, 5, 5, 5, 5, 5, 5, 5, 5, 5, 5, 5, 5, 5, 5, 5, 5, 5, 5, 5, 5, 5, 5, 5, 5, 5, 5, 5, 5, 5, 5, 5, 5, 5, 5, 5, 5, 5, 5, 5, 5, 5, 5, 5, 5, 5, 5, 5, 5, 5, 5, 5, 5, 5, 5, 5, 5, 5, 5, 5, 5, 5, 5, 5, 5, 5, 5, 5, 5, 5, 5, 5, 5, 5, 5, 5, 5, 5, 5, 5, 5, 5, 5, 5, 5, 5, 5, 5, 5, 5, 5, 5, 5, 5, 5, 5, 5, 5, 5, 5, 5, 5, 5, 5, 5, 5, 5, 5, 5, 5, 5, 5, 5, 5, 5, 5, 5, 5, 5, 5, 5, 5, 5, 5, 5, 5, 5, 5, 5, 5, 5, 5, 5, 5, 5, 5, 5, 5, 5, 5, 5, 5, 5, 5, 5, 5, 5, 5, 5, 5, 5, 5, 5, 5, 5, 5, 5, 5, 5, 5, 5, 5, 5, 5, 5, 5, 5, 5, 5, 5, 5, 5, 5, 5, 5, 5, 5, 5, 5, 5, 5, 5, 5, 5, 5, 5, 5, 5, 5, 5, 5, 5, 5, 5, 5, 5, 5, 5, 5, 5, 5, 5, 5, 5, 5, 5, 5, 5, 5, 5, 5, 5, 5, 5, 5, 5, 5, 5, 5, 5, 5, 5, 5, 5, 5, 5, 5, 5, 5, 5, 5, 5, 5, 5, 5, 5, 5, 5, 5, 5, 5, 5, 5, 5, 5, 5, 5, 5, 5, 5, 5, 5, 5, 5, 5, 5, 5] p=0.67"]
S8 -> S208 [label="4 [5, 5, 5, 5, 5, 5, 5, 5, 5, 5, 5, 5, 5, 5, 5, 5, 5, 5, 5, 5, 5, 5, 5, 5, 5, 5, 5, 5, 5, 5, 5, 5, 5, 5, 5, 5, 5, 5, 5, 5, 5, 5, 5, 5, 5, 5, 5, 5, 5, 5, 5, 5] p=0.07"]
S914 -> S2 [label="2 [5, 5] p=0.67"]
S914 -> S208 [label="1 [5] p=0.33"]
S208 -> S2 [label="2 [5, 5, 5, 5, 5, 5, 5, 5, 5, 5, 5, 5, 5, 5, 5, 5, 5, 5, 5, 5, 5, 5, 5, 5, 5, 5, 5, 5, 5, 5, 5, 5, 5, 5, 5, 5, 5, 5, 5, 5, 5, 5, 5, 5, 5, 5, 5, 5, 5, 5, 5, 5, 5, 5, 5, 5, 5, 5, 5, 5, 5, 5, 5, 5, 5, 5, 5, 5, 5, 5, 5, 5, 5, 5, 5, 5, 5, 5, 5, 5, 5, 5, 5, 5, 5, 5, 5, 5, 5, 5, 5, 5, 5, 5, 5, 5, 5, 5, 5, 5, 5, 5, 5, 5, 5, 5, 5, 5, 5, 5, 5, 5, 5, 5, 5, 5, 5, 5, 5, 5, 5, 5, 5, 5, 5, 5, 5, 5, 5, 5, 5, 5, 5, 5, 5, 5, 5, 5, 5, 5, 5, 5, 5, 5, 5, 5, 5, 5, 5, 5, 5, 5, 5, 5, 5, 5, 5, 5, 5, 5, 5, 5, 5, 5, 5, 5, 5, 5, 5, 5, 5, 5, 5, 5, 5, 5, 5, 5, 5, 5, 5, 5, 5, 5, 5, 5, 5, 5, 5, 5, 5, 5, 5, 5, 5, 5, 5, 5, 5, 5, 5, 5, 5, 5, 5, 5, 5, 5, 5, 5, 5, 5, 5, 5, 5, 5, 5, 5, 5, 5, 5, 5, 5, 5, 5, 5, 5, 5, 5, 5, 5, 5, 5, 5, 5, 5, 5, 5, 5, 5, 5, 5, 5, 5, 5, 5, 5, 5, 5, 5, 5, 5, 5, 5, 5, 5, 5, 5, 5, 5, 5, 5, 5, 5, 5, 5, 5, 5, 5, 5, 5, 5, 5, 5, 5, 5, 5, 5, 5, 5, 5, 5, 5, 5, 5, 5, 5, 5, 5, 5, 5, 5, 5, 5, 5, 5, 5, 5, 5, 5, 5, 5, 5, 5, 5, 5, 5, 5, 5, 5, 5, 5, 5, 5, 5, 5, 5, 5, 5, 5, 5, 5, 5, 5, 5, 5, 5, 5, 5, 5, 5, 5, 5, 5, 5, 5, 5, 5, 5, 5, 5, 5, 5, 5, 5, 5, 5, 5, 5, 5, 5, 5, 5, 5, 5, 5, 5, 5, 5, 5, 5, 5, 5, 5, 5, 5, 5, 5, 5, 5, 5, 5, 5, 5, 5, 5, 5] p=0.71"]
S208 -> S8 [label="1 [5, 5, 5, 5, 5, 5, 5, 5, 5, 5, 5, 5, 5, 5, 5, 5, 5, 5, 5, 5, 5, 5, 5, 5, 5, 5, 5, 5, 5, 5, 5, 5, 5, 5, 5, 5, 5, 5, 5, 5, 5, 5, 5, 5, 5, 5, 5, 5, 5, 5, 5, 5, 5, 5, 5, 5, 5, 5, 5, 5, 5, 5, 5, 5, 5, 5, 5, 5, 5, 5, 5, 5, 5, 5, 5, 5, 5, 5, 5, 5, 5, 5, 5, 5, 5, 5, 5, 5, 5, 5, 5, 5, 5, 5, 5, 5, 5, 5, 5, 5, 5, 5, 5, 5, 5, 5, 5, 5, 5, 5, 5, 5, 5, 5, 5, 5, 5, 5, 5, 5, 5, 5, 5, 5, 5, 5, 5, 5, 5, 5, 5, 5, 5, 5, 5] p=0.25"]
S208 -> S208 [label="3 [5, 5, 5, 5, 5, 5, 5, 5, 5, 5, 5, 5, 5, 5, 5, 5, 5, 5] p=0.03"]
S149 -> S3 [label="3 [5, 5, 5, 5, 5, 5, 5, 5, 5] p=1.0"]
S4 -> S2 [label="2 [5, 5, 5, 5, 5, 5, 5, 5, 5, 5, 5, 5, 5, 5, 5, 5, 5, 5, 5, 5, 5, 5, 5, 5, 5, 5, 5, 5, 5, 5, 5, 5, 5, 5, 5, 5, 5, 5, 5, 5, 5, 5, 5, 5, 5, 5, 5, 5, 5, 5, 5, 5, 5, 5, 5, 5, 5, 5, 5, 5, 5, 5, 5, 5, 5, 5, 5, 5, 5, 5, 5, 5, 5, 5, 5, 5, 5, 5, 5, 5, 5] p=1.0"]