S0 -> S1 [label="2 [0, 0, 0, 0, 0, 0, 0, 0, 0, 0, 0, 0, 0, 0, 0, 0, 0, 0, 0, 0, 0, 0, 0, 0, 0, 0, 0, 0, 0, 0, 0, 0, 0, 0, 0, 0, 0, 0, 0, 0, 0, 0, 0, 0, 0, 0, 0, 0, 0, 0, 0, 0, 0, 0, 0, 0, 0, 0, 0, 0, 0, 0, 0, 0, 0, 0, 0, 0, 0, 0, 0, 0, 0, 0, 0, 0, 0, 0, 0, 0, 0, 0, 0, 0, 0, 0, 0, 0, 0, 0, 0, 0, 0, 0, 0, 0, 0, 0, 0, 0, 0, 0, 0, 0, 0, 0, 0, 0, 0, 0, 0, 0, 0, 0, 0, 0, 0, 0, 0, 0, 0, 0, 0, 0, 0, 0, 0, 0, 0, 0, 0, 0, 0, 0, 0, 0, 0, 0, 0, 0, 0, 0, 0, 0, 0, 0, 0, 0, 0, 0, 0, 0, 0, 0, 0, 0, 0, 0, 0, 0, 0, 0, 0, 0, 0, 0, 0, 0, 0, 0, 0, 0, 0, 0, 0, 0, 0, 0, 0, 0, 0, 0, 0, 0, 0, 0, 0, 0, 0, 0, 0, 0, 0, 0, 0, 0, 0, 0, 0, 0, 0, 0, 0, 0, 0, 0, 0, 0, 0, 0, 0, 0, 0, 0, 0, 0, 0, 0, 0, 0, 0, 0, 0, 0, 0, 0, 0, 0, 0, 0, 0, 0, 0, 0, 0, 0, 0, 0, 0, 0, 0, 0, 0, 0, 0, 0, 0, 0, 0, 0, 0, 0, 0, 0, 0, 0, 0, 0, 0, 0, 0, 0, 0, 0, 0, 0, 0, 0, 0, 0, 0, 0, 0, 0, 0, 0, 0, 0, 0, 0, 0, 0, 0, 0, 0, 0, 0, 0, 0, 0, 0, 0, 0, 0, 0, 0, 0, 0, 0, 0, 0, 0, 0, 0, 0, 0, 0, 0, 0, 0, 0, 0, 0, 0, 0, 0, 0, 0, 0, 0, 0, 0, 0, 0, 0, 0, 0, 0, 0, 0, 0, 0, 0, 0, 0, 0, 0, 0, 0, 0, 0, 0, 0, 0, 0, 0, 0, 0, 0, 0, 0, 0, 0, 0, 0, 0, 0, 0, 0, 0, 0, 0, 0, 0, 0, 0, 0, 0, 0, 0, 0, 0, 0, 0, 0, 0, 0, 0, 0, 0, 0, 0, 0, 0, 0, 0, 0, 0, 0, 0, 0, 0, 0, 0, 0, 0, 0, 0, 0, 0, 0, 0, 0, 0, 0, 0, 0, 0, 0, 0, 0, 0, 0, 0, 0, 0, 0, 0, 0, 0, 0, 0, 0] p=0.32"]
S0 -> S2 [label="1 [0, 0, 0, 0, 0, 0, 0, 0, 0, 0, 0, 0, 0, 0, 0, 0, 0, 0, 0, 0, 0, 0, 0, 0, 0, 0, 0, 0, 0, 0, 0, 0, 0, 0, 0, 0, 0, 0, 0, 0, 0, 0, 0, 0, 0, 0, 0, 0, 0, 0, 0, 0, 0, 0, 0, 0, 0, 0, 0, 0, 0, 0, 0, 0, 0, 0, 0, 0, 0, 0, 0, 0, 0, 0, 0, 0, 0, 0, 0, 0, 0, 0, 0, 0, 0, 0, 0, 0, 0, 0, 0, 0, 0, 0, 0, 0, 0, 0, 0, 0, 0, 0, 0, 0, 0, 0, 0, 0, 0, 0, 0, 0, 0, 0, 0, 0, 0, 0, 0, 0, 0, 0, 0, 0, 0, 0, 0, 0, 0, 0, 0, 0, 0, 0, 0, 0, 0, 0, 0, 0, 0, 0, 0, 0, 0, 0, 0, 0, 0, 0, 0, 0, 0, 0, 0, 0, 0, 0, 0, 0, 0, 0, 0, 0, 0, 0, 0, 0, 0, 0, 0, 0, 0, 0, 0, 0, 0, 0, 0, 0, 0, 0, 0, 0, 0, 0, 0, 0, 0, 0, 0, 0, 0, 0, 0, 0, 0, 0, 0, 0, 0, 0, 0, 0, 0, 0, 0, 0, 0, 0, 0, 0, 0, 0, 0, 0, 0, 0, 0, 0, 0, 0, 0, 0, 0, 0, 0, 0, 0, 0, 0, 0, 0, 0, 0, 0, 0, 0, 0, 0, 0, 0, 0, 0, 0, 0, 0, 0, 0, 0, 0, 0, 0, 0, 0, 0, 0, 0, 0, 0, 0, 0, 0, 0, 0, 0, 0, 0, 0, 0, 0, 0, 0, 0, 0, 0, 0, 0, 0, 0, 0, 0, 0, 0, 0, 0, 0, 0, 0, 0, 0, 0, 0, 0, 0, 0, 0, 0, 0, 0, 0, 0, 0, 0, 0, 0, 0, 0, 0, 0, 0, 0, 0, 0, 0, 0, 0, 0, 0, 0, 0, 0, 0, 0, 0, 0, 0, 0, 0, 0, 0, 0, 0, 0, 0, 0, 0, 0, 0, 0, 0, 0, 0, 0, 0, 0, 0, 0, 0, 0, 0, 0, 0, 0, 0, 0, 0, 0, 0, 0, 0, 0, 0, 0, 0, 0, 0, 0, 0, 0, 0, 0, 0, 0, 0, 0, 0, 0, 0, 0, 0, 0, 0, 0, 0, 0, 0, 0, 0, 0, 0, 0, 0, 0, 0, 0, 0, 0, 0, 0, 0, 0, 0, 0, 0, 0, 0, 0, 0, 0, 0, 0, 0, 0, 0, 0, 0, 0, 0, 0, 0, 0, 0, 0, 0, 0, 0, 0] p=0.32"]
S0 -> S3 [label="3 [0, 0, 0, 0, 0, 0, 0, 0, 0, 0, 0, 0, 0, 0, 0, 0, 0, 0, 0, 0, 0, 0, 0, 0, 0, 0, 0, 0, 0, 0, 0, 0, 0, 0, 0, 0, 0, 0, 0, 0, 0, 0, 0, 0, 0, 0, 0, 0, 0, 0, 0, 0, 0, 0, 0, 0, 0, 0, 0, 0, 0, 0, 0, 0, 0, 0, 0, 0, 0, 0, 0, 0, 0, 0, 0, 0, 0, 0, 0, 0, 0, 0, 0, 0, 0, 0, 0, 0, 0, 0, 0, 0, 0, 0, 0, 0, 0, 0, 0, 0, 0, 0, 0, 0, 0, 0, 0, 0, 0, 0, 0, 0, 0, 0, 0, 0, 0, 0, 0, 0, 0, 0, 0, 0, 0, 0, 0, 0, 0, 0, 0, 0, 0, 0, 0, 0, 0, 0, 0, 0, 0, 0, 0, 0, 0, 0, 0, 0, 0, 0, 0, 0, 0, 0, 0, 0, 0, 0, 0, 0, 0, 0, 0, 0, 0, 0, 0, 0, 0, 0, 0, 0, 0, 0, 0, 0, 0, 0, 0, 0, 0, 0, 0, 0, 0, 0, 0, 0, 0, 0, 0, 0, 0, 0, 0, 0, 0, 0, 0, 0, 0, 0, 0, 0, 0, 0, 0, 0, 0, 0, 0, 0, 0, 0, 0, 0, 0, 0, 0, 0, 0, 0, 0, 0, 0, 0, 0, 0, 0, 0, 0, 0, 0, 0, 0, 0, 0, 0, 0, 0, 0, 0, 0, 0, 0, 0, 0, 0, 0, 0, 0, 0, 0, 0, 0, 0, 0, 0, 0, 0, 0, 0, 0, 0, 0, 0, 0, 0, 0, 0, 0, 0, 0, 0, 0, 0, 0, 0, 0, 0, 0, 0, 0, 0, 0, 0, 0, 0, 0, 0, 0, 0, 0, 0, 0, 0, 0, 0, 0, 0, 0, 0, 0, 0, 0, 0, 0, 0, 0, 0, 0, 0, 0, 0, 0, 0, 0, 0, 0, 0, 0, 0, 0, 0, 0, 0, 0, 0, 0, 0, 0, 0, 0, 0, 0, 0, 0, 0, 0, 0, 0, 0, 0, 0, 0, 0, 0, 0, 0, 0, 0, 0, 0, 0, 0, 0, 0, 0, 0, 0, 0, 0, 0, 0, 0, 0, 0, 0, 0, 0, 0, 0, 0, 0, 0, 0, 0, 0, 0, 0, 0, 0, 0, 0, 0, 0, 0, 0, 0, 0, 0, 0, 0, 0, 0, 0, 0, 0, 0, 0, 0, 0, 0, 0, 0, 0, 0, 0, 0, 0, 0, 0, 0, 0, 0, 0, 0, 0, 0, 0, 0, 0, 0, 0, 0, 0, 0, 0, 0, 0, 0, 0, 0, 0, 0, 0, 0, 0, 0, 0, 0, 0, 0, 0, 0, 0, 0, 0, 0, 0, 0, 0, 0, 0, 0, 0, 0, 0, 0, 0, 0, 0, 0, 0, 0, 0, 0, 0, 0, 0, 0, 0, 0, 0, 0, 0, 0, 0] p=0.36"]
S1 -> S2 [label="1 [5, 20, 5, 5, 10, 5, 5, 10, 5, 5, 5, 5, 5, 5, 10, 10, 5, 5, 5, 5, 5, 10, 10, 5, 5, 10, 10, 5, 5, 5, 5, 15, 5, 5, 20, 5, 5, 15, 5, 20, 5, 10, 5, 10, 5, 5, 5, 5, 10, 5, 15, 10, 5, 5, 5, 5, 5, 5, 5, 5, 30, 5, 10, 5, 5, 10, 15, 10, 5, 5, 5, 10, 5, 5, 5, 5, 5, 5, 5, 15, 5, 10, 5, 10, 20, 25, 5, 5, 5, 15, 5, 10, 5, 5, 5, 5, 10, 10, 5, 15, 5, 5, 5, 5, 20, 10, 5, 5, 5, 20, 10, 10, 15, 5, 20, 20, 10, 5, 5, 10, 5, 5, 20, 5, 5, 5, 5, 5, 10, 10, 5, 5, 10, 5, 10, 20, 5, 5, 15, 5, 5, 5, 20, 10, 10, 5, 5, 10, 5, 5, 5, 10, 10, 5, 5, 5, 5, 5, 5, 15, 5, 5, 5, 5, 10, 10, 5, 5, 10, 5, 10, 5, 25, 5, 20, 10, 5, 5, 20, 10, 5, 5, 5, 5, 5, 5, 20, 5, 20, 5, 5, 15, 5, 5, 5, 10, 5, 15, 5, 15, 20, 15, 5, 10, 5, 5, 15, 5, 20, 20, 5, 10, 20, 5, 5, 20, 5, 20, 10, 10, 10, 5, 5, 5, 10, 25, 20, 5, 5, 10, 5, 5, 5, 5, 5, 5, 5, 10, 10, 5, 5, 5, 5, 10, 10, 5, 10, 10, 5, 5, 15, 5, 5, 5, 15, 5, 10, 10, 5, 5, 5, 10, 5, 10, 5, 5, 5, 5, 5, 30, 5, 5, 10, 10, 5, 5, 10, 5, 5, 5, 5, 5, 5, 5, 5, 10, 5, 10, 25, 5, 5, 5, 5, 5, 10, 10, 5, 5, 5, 5, 5, 20, 10, 5, 5, 10, 10, 15, 5, 20, 10, 5, 5, 5, 5, 5, 5, 10, 10, 5, 5, 10, 5, 10, 5, 5, 15, 5, 5, 10, 5, 5, 5, 5, 5, 10, 5, 5, 5, 5, 5, 15, 5, 5, 10, 5, 5, 10, 5, 10, 5, 5, 10, 5, 5, 20, 10, 5, 5, 5, 5, 20, 20, 5, 5, 15, 5, 5, 15, 15, 5, 5, 20, 20, 5, 10, 20, 20, 10, 10, 10, 5, 5, 5, 10, 25, 20, 5, 5, 10, 5, 5, 10, 5, 5, 15, 5, 15, 5, 10, 5, 10, 5, 5, 30, 10, 5, 5, 5, 10, 25, 5, 5, 5, 5, 10, 5, 5, 5, 5, 10, 5, 5, 15, 5, 20, 5, 5, 5, 5, 10, 5, 5, 15, 5, 10, 5, 5, 5, 5, 15, 5, 5, 5, 10, 5, 10, 5, 5, 5, 10, 5, 5, 10, 5, 5, 10, 10, 10, 5, 5, 10, 5, 10, 5, 5, 5, 5, 5, 10, 10, 5, 5, 5, 5, 5, 5, 5, 10, 5, 5, 10, 10, 10, 5, 5, 10, 5, 10, 5, 5, 5, 10, 5, 10, 5, 5, 5, 10, 5, 5, 5, 5, 5, 10, 5, 5, 5, 10, 10, 10, 5, 5, 10, 5, 5, 10, 5, 5, 5, 5, 5, 5, 10, 10, 5, 5, 5, 5, 5, 5, 5, 10, 5, 5, 10, 5, 20, 10, 10, 10, 5, 5, 5, 10, 10, 5, 10, 5, 5, 5, 5, 5, 10, 5, 5, 5, 5, 10, 5, 10, 5, 5, 5, 5, 5, 5, 5, 5, 5, 20, 10, 5, 10, 5, 5, 5, 5, 10, 5, 5, 5, 5, 10, 5, 5, 5, 10, 10, 10, 5, 10, 5, 5, 10, 10, 5, 5, 5, 5, 5, 10, 5, 10, 10, 5, 5, 10, 5, 10, 5, 5, 10, 5, 10, 5, 5, 5, 5, 5, 5, 20, 5, 5, 5, 5, 5, 10, 5, 5, 5, 5, 10, 5, 5, 10, 10, 5, 10, 5, 10, 5, 15, 5, 5, 15, 5, 5, 10, 15, 5, 10, 5, 5, 5, 5, 10, 15, 5, 20, 15, 5, 5, 20, 5, 5, 5, 5, 10, 5, 15, 5, 20, 5, 10, 15, 5, 5, 5, 5, 20, 5, 5, 10, 5, 5, 5, 5, 5, 5, 5, 5, 20, 15, 5, 20, 10, 10, 5, 5, 5, 5, 5, 5, 10, 5, 10, 5, 10, 5, 5, 5, 5, 5, 5, 5, 5, 5, 10, 5, 5, 5, 10, 5, 5, 5, 5, 5, 5, 10, 5, 10, 5, 5, 5, 10, 5, 5, 5, 5, 10, 10, 10, 5, 5, 5, 5, 5, 5, 5, 5, 5, 5, 5, 5, 5, 5, 5, 5, 10, 5, 5, 5, 5, 10, 10, 5, 5, 5, 5, 10, 5, 10, 10, 10, 5, 5, 5, 5, 10, 10, 20, 5, 5, 15, 5, 5, 5, 10, 20, 10, 10, 10, 5, 5, 10, 25, 20, 5, 5, 10, 10, 10, 5, 5, 5, 5, 5, 5, 5, 5, 5, 5, 5, 10, 15, 5, 15, 10, 10, 5, 5, 10, 25, 5, 5, 10, 5, 5, 5, 5, 5, 5, 5, 15, 5, 10, 5, 5, 5, 5, 5, 5, 10, 5, 5, 5, 5, 5, 20, 15, 5, 20, 5, 5, 5, 5, 5, 5, 5, 5, 10, 10, 5, 5, 5, 5, 5, 5, 5, 5, 15, 10, 5, 5, 5, 5, 10, 15, 5, 10, 15, 5, 5, 10, 5, 15, 15, 10, 5, 10, 15, 5, 10, 10, 5, 5, 5, 10, 15, 5, 5, 10, 15, 5, 5, 5, 5, 10, 5, 5, 5, 10, 5, 5, 5, 30, 5, 5, 5, 5, 5, 10, 5, 15, 5, 20, 5, 5, 10, 15, 5, 10, 5, 5, 5, 5, 5, 5, 5, 30, 5, 5, 5, 5, 20, 5, 10, 5, 5, 5, 5, 5, 30, 5, 5, 20, 5, 10, 10, 10, 5, 5, 5, 5, 5, 5, 5, 5, 5, 5, 5, 5, 5, 5, 5, 5, 5, 5, 5, 5, 5, 10, 10, 5, 5, 5, 5, 10, 10, 5, 10, 10, 5, 10, 10, 5, 5, 5, 5, 5, 5, 5, 20, 5, 5, 5, 20, 5, 5, 10, 5, 5, 20, 5, 5, 5, 10, 5, 5, 5, 5, 10, 5, 10, 5, 10, 5, 5, 5, 5, 5, 20, 20, 5, 5, 5, 10, 10, 10, 10, 15, 10, 15, 5, 10, 10, 10, 10, 20, 20, 20, 10, 15, 20, 20, 10, 15, 20, 20, 15, 20, 10, 5, 5, 20, 5, 15, 15, 20, 20, 5, 10, 5, 5, 5, 5, 20, 20, 5, 5, 15, 15, 20, 20, 20, 5, 5, 5, 20, 5, 20, 5, 5, 20, 5, 15, 5, 5, 5, 5, 20, 20, 20, 20, 20, 20, 5, 5, 5, 5, 20, 20, 20, 20, 15, 15, 20, 20, 5, 5, 5, 5, 5, 5, 5, 5, 5, 5, 30, 5, 20, 5, 5, 30, 20, 5, 5, 30, 20, 5, 5, 30, 20, 5, 20, 5, 5, 20, 5, 5, 5, 20, 5, 15, 15, 15, 15, 5, 5, 5, 5, 5, 5, 5, 5, 5, 5, 5, 5, 5, 5, 10, 5, 10, 5, 10, 5, 10, 10, 5, 5, 5, 10, 10, 5, 10, 5, 10, 5, 5, 10, 5, 5, 10, 5, 5, 5, 10, 10, 5, 5, 5, 10, 5, 10, 10, 5, 10, 10, 5, 5, 10, 5, 10, 5, 5, 10, 5, 5, 5, 10, 10, 5, 5, 10, 5, 10, 10, 10, 5, 10, 5, 10, 5, 10, 5, 5, 5, 10, 10, 10, 10, 5, 5, 10, 5, 5, 5, 10, 10, 5, 5, 10, 5, 5, 5, 10, 10, 5, 10, 10, 10, 5, 5, 10, 5, 10, 10, 10, 5, 10, 5, 5, 5, 5, 5, 5, 5, 10, 10, 5, 10, 10, 10, 5, 5, 5, 5, 5, 5, 10, 5, 10, 5, 5, 5, 5, 5, 15, 15, 15, 5, 5, 5, 15, 15, 5, 5, 5, 20, 5, 5, 5, 5, 5, 20, 5, 15, 5, 5, 10, 20, 10, 10, 10, 5, 5, 10, 20, 5, 5, 5, 10, 5, 5, 5, 10, 10, 5, 5, 5, 5, 5, 10, 5, 10, 5, 5, 5, 5, 15, 5, 5, 5, 25, 5, 5, 10, 5, 5, 5, 15, 5, 10, 5, 5, 5, 5, 5, 5, 5, 5, 5, 5, 15, 20, 5, 5, 5, 10, 5, 5, 10, 5, 10, 5, 10, 10, 5, 5, 5, 10, 15, 10, 10, 10, 5, 5, 5, 5, 5, 5, 10, 5, 10, 15, 10, 5, 5, 5, 5, 10, 5, 15, 10, 5, 10, 5, 5, 5, 5, 5, 10, 10, 5, 5, 10, 5, 5, 10, 10, 10, 5, 5, 5, 5, 10, 5, 10, 5, 5, 5, 10, 5, 5, 5, 10, 5, 5, 10, 10, 5, 5, 15, 10, 5, 5, 5, 10, 15, 5, 5, 10, 10, 5, 5, 5, 5, 5, 5, 20, 5, 20, 5, 20, 5, 5, 5, 5, 20, 5, 5, 5, 5, 5, 5, 5, 5, 5, 5, 5, 5, 5, 5, 5, 5, 5, 5, 5, 5, 5, 5, 5, 5, 5, 5, 5, 5, 5, 5, 5, 5, 10, 10, 10, 10, 10, 10, 5, 5, 5, 5, 5, 5, 5, 5, 5, 5, 25, 5, 5, 25, 25, 25, 25, 25, 10, 10, 10, 10, 15, 5, 5, 20, 10, 10, 20, 5, 10, 15, 5, 5, 10, 10, 5, 5, 5, 5, 5, 5, 15, 5, 5, 5, 10, 5, 5, 15, 5, 5, 5, 5, 5, 5, 5, 5, 20, 10, 5, 25, 5, 25, 5, 25, 5, 25, 10, 5, 25, 5, 5, 10, 5, 5, 5, 5, 10, 5, 5, 5, 5, 5, 5, 5, 10, 5, 10, 5, 5, 5, 5, 5, 5, 15, 15, 15, 20, 20, 20, 5, 20, 10, 5, 10, 20, 5, 10, 10, 5, 5, 10, 5, 10, 5, 5, 5, 10, 10, 10, 10, 10, 10, 10, 10, 10, 5, 5, 5, 5, 5, 5, 5, 5, 5, 5, 5, 5, 5, 5, 5, 5, 5, 5, 5, 15, 5, 5, 5, 15, 5, 5, 5, 5, 5, 5, 5, 20, 10, 20, 5, 10, 5, 10, 5, 5, 15, 5, 5, 5, 5, 15, 15, 5, 5, 15, 15, 10, 10, 15, 10, 15, 10, 5, 10, 5, 5, 5, 10, 5, 5, 5, 5, 5, 5, 15, 5, 5, 15, 5, 5, 15, 5, 5, 5, 5, 5, 5, 5, 5, 5, 5, 20, 10, 5, 20, 5, 5, 5, 5, 5, 10, 5, 5, 5, 10, 5, 5, 5, 5, 5, 10, 10, 5, 5, 5, 5, 10, 5, 10, 20, 5, 10, 20, 20, 20, 5, 20, 5, 20, 5] p=0.42"]
S1 -> S3 [label="3 [5, 10, 5, 5, 5, 10, 5, 5, 10, 5, 5, 5, 10, 5, 5, 5, 10, 5, 5, 5, 10, 5, 10, 5, 5, 5, 10, 5, 5, 5, 10, 5, 5, 5, 5, 10, 10, 5, 5, 10, 5, 5, 5, 5, 10, 5, 10, 5, 5, 5, 5, 10, 10, 5, 5, 10, 5, 5, 5, 5, 5, 5, 5, 10, 5, 10, 5, 5, 5, 5, 5, 10, 10, 5, 5, 5, 10, 5, 5, 5, 5, 5, 5, 5, 5, 5, 5, 10, 5, 5, 5, 10, 10, 15, 5, 5, 5, 5, 5, 5, 10, 10, 5, 15, 10, 5, 10, 15, 5, 5, 5, 10, 5, 5, 10, 5, 5, 10, 5, 5, 10, 10, 10, 5, 5, 10, 5, 5, 10, 5, 5, 5, 5, 5, 5, 5, 5, 10, 10, 5, 5, 5, 5, 10, 5, 5, 5, 5, 10, 5, 5, 5, 10, 5, 15, 5, 5, 5, 10, 10, 5, 5, 10, 5, 5, 5, 35, 10, 5, 5, 5, 5, 5, 5, 5, 10, 15, 10, 5, 5, 10, 10, 5, 15, 5, 5, 5, 5, 5, 15, 5, 5, 5, 10, 5, 10, 5, 5, 15, 10, 5, 10, 10, 10, 15, 5, 5, 10, 10, 5, 5, 5, 10, 10, 5, 5, 10, 5, 5, 5, 5, 10, 5, 5, 5, 5, 10, 5, 5, 30, 5, 10, 10, 10, 5, 5, 10, 10, 5, 5, 5, 10, 5, 5, 5, 10, 5, 5, 5, 5, 5, 5, 5, 15, 5, 5, 15, 5, 5, 5, 5, 5, 5, 10, 10, 5, 5, 5, 5, 5, 5, 15, 10, 5, 5, 5, 5, 10, 10, 10, 5, 10, 35, 5, 10, 5, 5, 5, 10, 5, 5, 15, 15, 5, 5, 5, 5, 5, 10, 10, 5, 10, 5, 10, 10, 10, 5, 5, 10, 5, 5, 35, 10, 5, 5, 5, 5, 5, 5, 5, 5, 5, 5, 5, 10, 5, 15, 5, 5, 10, 5, 5, 5, 5, 10, 10, 5, 15, 5, 5, 5, 5, 15, 5, 5, 5, 5, 15, 5, 5, 5, 5, 5, 5, 5, 5, 5, 5, 10, 5, 5, 10, 10, 5, 5, 5, 15, 10, 5, 10, 10, 15, 10, 10, 15, 5, 10, 5, 5, 10, 10, 5, 5, 5, 5, 10, 10, 10, 5, 5, 5, 5, 5, 20, 10, 5, 5, 5, 5, 5, 5, 5, 10, 5, 5, 5, 5, 5, 5, 5, 15, 5, 5, 10, 5, 5, 5, 30, 5, 5, 10, 10, 10, 30, 5, 5, 5, 10, 5, 10, 5, 5, 5, 5, 5, 10, 5, 5, 5, 5, 5, 5, 10, 10, 5, 5, 5, 5, 5, 5, 5, 5, 5, 5, 15, 5, 5, 5, 5, 5, 10, 15, 5, 5, 5, 5, 5, 15, 5, 5, 5, 5, 5, 25, 5, 5, 5, 10, 5, 5, 10, 10, 5, 5, 5, 5, 15, 5, 5, 5, 15, 10, 20, 5, 5, 5, 5, 5, 5, 10, 10, 10, 5, 5, 10, 35, 5, 5, 10, 5, 5, 5, 10, 5, 5, 5, 10, 5, 5, 5, 15, 5, 5, 15, 5, 5, 5, 5, 5, 5, 5, 10, 5, 5, 10, 5, 10, 20, 15, 5, 10, 5, 10, 10, 10, 5, 5, 5, 5, 5, 10, 5, 5, 5, 5, 5, 5, 5, 5, 5, 5, 5, 5, 5, 15, 5, 5, 5, 5, 5, 5, 5, 5, 5, 5, 10, 5, 15, 10, 10, 5, 5, 10, 5, 5, 5, 20, 5, 5, 5, 5, 5, 5, 15, 5, 5, 5, 5, 30, 5, 5, 5, 5, 5, 5, 5, 10, 5, 5, 5, 5, 5, 15, 5, 5, 5, 10, 5, 5, 5, 5, 5, 25, 10, 5, 5, 5, 15, 20, 5, 5, 5, 5, 5, 5, 10, 5, 5, 5, 5, 5, 5, 5, 10, 5, 5, 20, 15, 5, 5, 5, 5, 5, 5, 5, 5, 5, 5, 5, 5, 5, 15, 5, 5, 5, 5, 5, 5, 5, 5, 10, 5, 10, 10, 5, 5, 10, 5, 5, 5, 5, 5, 30, 5, 5, 5, 10, 5, 5, 5, 5, 5, 5, 5, 5, 25, 5, 5, 5, 5, 5, 5, 10, 5, 5, 5, 5, 5, 10, 5, 5, 5, 5, 5, 5, 5, 5, 15, 5, 20, 5, 5, 5, 5, 15, 5, 5, 5, 5, 5, 5, 5, 5, 5, 5, 5, 10, 5, 15, 20, 5, 5, 5, 20, 5, 5, 5, 5, 5, 5, 5, 15, 5, 20, 5, 5, 5, 5, 15, 5, 5, 5, 5, 5, 5, 5, 5, 5, 15, 5, 10, 5, 5, 10, 5, 5, 15, 20, 5, 5, 5, 20, 15, 5, 5, 5, 5, 15, 10, 5, 15, 5, 5, 5, 5, 5, 5, 5, 5, 20, 5, 5, 5, 20, 5, 5, 15, 10, 5, 5, 15, 5, 5, 15, 15, 35, 10, 10, 5, 15, 10, 5, 15, 10, 35, 10, 10, 10, 5, 5, 5, 15, 5, 10, 5, 15, 10, 35, 5, 5, 5, 5, 15, 10, 5, 5, 10, 5, 5, 15, 5, 5, 5, 10, 10, 5, 10, 10, 5, 10, 5, 10, 5, 5, 5, 5, 5, 30, 5, 10, 5, 5, 5, 10, 5, 5, 5, 5, 15, 15, 5, 5, 5, 5, 5, 5, 15, 10, 10, 10, 35, 5, 10, 5, 5, 15, 5, 5, 10, 10, 10, 5, 10, 5, 5, 5, 5, 15, 10, 5, 5, 10, 5, 5, 15, 5, 5, 5, 10, 10, 5, 10, 5, 5, 5, 5, 5, 30, 5, 10, 5, 5, 5, 10, 5, 5, 5, 15, 5, 5, 5, 5, 5, 15, 10, 10, 10, 35, 5, 5, 5, 5, 10, 10, 5, 10, 5, 5, 5, 5, 5, 5, 5, 5, 10, 5, 5, 5, 5, 15, 10, 10, 35, 5, 5, 10, 10, 5, 5, 5, 10, 15, 5, 10, 5, 30, 10, 5, 5, 5, 5, 5, 5, 5, 5, 10, 15, 5, 10, 10, 10, 5, 5, 30, 5, 10, 5, 5, 5, 5, 5, 5, 5, 5, 5, 15, 10, 5, 10, 5, 15, 5, 10, 10, 5, 10, 5, 5, 30, 5, 10, 5, 5, 5, 15, 5, 5, 5, 5, 10, 5, 5, 10, 5, 15, 10, 5, 5, 15, 5, 10, 5, 5, 10, 5, 15, 10, 5, 5, 5, 10, 5, 5, 10, 15, 15, 15, 10, 5, 10, 5, 5, 5, 5, 5, 5, 5, 5, 5, 5, 5, 5, 5, 15, 5, 15, 5, 5, 5, 5, 5, 15, 5, 5, 15, 5, 5, 5, 5, 5, 15, 5, 5, 5, 5, 5, 5, 15, 20, 5, 5, 5, 5, 5, 5, 5, 10, 5, 15, 5, 5, 5, 5, 5, 15, 20, 5, 5, 5, 15, 5, 5, 5, 5, 5, 10, 5, 15, 5, 5, 15, 5, 5, 20, 5, 5, 5, 10, 5, 10, 10, 10, 10, 5, 5, 5, 5, 5, 10, 10, 5, 5, 5, 10, 10, 5, 5, 5, 5, 10, 5, 5, 10, 10, 5, 5, 10, 5, 5, 5, 15, 5, 15, 15, 5, 5, 5, 5, 5, 5, 5, 15, 5, 5, 15, 5, 5, 5, 5, 35, 10, 5, 15, 10, 5, 15, 10, 5, 5, 5, 5, 5, 5, 15, 10, 5, 5, 5, 5, 5, 5, 5, 5, 5, 5, 5, 5, 5, 5, 5, 5, 10, 10, 10, 5, 5, 5, 5, 5, 5, 10, 5, 5, 25, 5, 5, 5, 5, 5, 5, 5, 5, 5, 5, 5, 5, 5, 5, 15, 10, 10, 35, 5, 10, 10, 5, 5, 15, 10, 5, 5, 5, 5, 10, 5, 5, 5, 10, 5, 15, 5, 5, 5, 5, 30, 5, 5, 5, 30, 5, 5, 5, 5, 30, 5, 5, 5, 10, 5, 10, 5, 10, 5, 5, 5, 5, 5, 5, 30, 5, 5, 5, 5, 5, 5, 5, 5, 5, 10, 5, 5, 5, 5, 15, 5, 5, 10, 5, 5, 30, 5, 5, 5, 5, 5, 5, 5, 5, 5, 5, 5, 5, 5, 10, 5, 5, 10, 5, 15, 10, 5, 5, 5, 5, 5, 10, 15, 10, 5, 5, 5, 10, 5, 5, 5, 5, 5, 5, 5, 5, 5, 5, 5, 5, 5, 5, 5, 5, 5, 5, 5, 5, 5, 5, 5, 5, 10, 5, 30, 5, 5, 5, 5, 5, 5, 5, 5, 5, 5, 5, 5, 5, 5, 5, 5, 5, 5, 5, 5, 5, 5, 5, 5, 5, 5, 5, 5, 5, 5, 5, 15, 15, 15, 15, 10, 10, 10, 5, 5, 5, 5, 5, 5, 5, 5, 5, 5, 10, 5, 5, 5, 5, 5, 5, 10, 5, 5, 5, 5, 5, 5, 5, 5, 5, 10, 5, 5, 5, 5, 10, 5, 20, 5, 20, 5, 20, 5, 5, 5, 5, 5, 5, 5, 5, 5, 5, 5, 10, 10, 10, 5, 5, 10, 5, 10, 15, 5, 5, 5, 5, 10, 5, 5, 5, 5, 5, 5, 5, 15, 5, 5, 5, 10, 5, 5, 5, 5, 5, 5, 5, 5, 10, 10, 5, 10, 5, 5, 5, 5, 10, 15, 5, 5, 5, 5, 10, 10, 15, 10, 10, 15, 5, 5, 5, 10, 5, 10, 5, 5, 10, 5, 5, 10, 5, 5, 10, 5, 5, 10, 5, 5, 5, 5, 5, 10, 5, 5, 10, 5, 5, 10, 10, 5, 15, 5, 5, 10, 10, 5, 10, 5, 5, 5, 10, 5, 10, 10, 15, 10, 15, 5, 10, 5, 10, 5, 10, 5, 10, 5, 5, 10, 5, 10, 5, 5, 5, 10, 5, 5, 5, 10, 15, 5, 5, 10, 10, 5, 10, 5, 10, 10, 15, 15, 5, 10, 5, 5, 10, 5, 10, 5, 5, 10, 5, 5, 10, 10, 5, 10, 10, 5, 10, 5, 5, 10, 5, 5, 5, 5, 10, 15, 5, 10, 10, 5, 10, 5, 5, 10, 5, 5, 5, 5, 10, 15, 5, 5, 5, 5, 10, 5, 5, 5, 10, 15, 5, 5, 5, 15, 10, 10, 5, 10, 15, 5, 5, 5, 5, 10, 10, 5, 10, 5, 15, 5, 5, 5, 5, 5, 10, 10, 5, 10, 5, 5, 5, 5, 5, 5, 5, 5, 5, 5, 5, 5, 5, 5, 5, 5, 5, 5, 5, 10, 10, 5, 5, 5, 10, 10, 10, 5, 5, 5, 10, 10, 10, 5, 5, 10, 5, 5, 10, 5, 15, 15, 10, 5, 5, 10, 5, 5, 10, 10, 10, 5, 10, 10, 10, 10, 10, 5, 10, 10, 10, 10, 5, 5, 10, 10, 10, 10, 10, 10, 5, 5, 10, 10, 5, 5, 10, 10, 5, 5, 10, 5, 5, 5, 10, 5, 10, 5, 10, 5, 10, 15, 15, 15, 5, 15, 5, 5, 15, 10, 5, 5, 10, 10, 10, 5, 5, 5, 5, 5, 5, 5, 5, 5, 5, 10, 5, 5, 5, 5, 5, 10, 5, 5, 5, 5, 10, 5, 5, 5, 5, 5, 10, 5, 5, 5, 10, 10, 10, 5, 5, 5, 5, 10, 10, 5, 5, 15, 5, 5, 5, 5, 5, 20, 5, 5, 5, 5, 5, 5, 5, 20, 5, 5, 20, 5, 5, 5, 5, 5, 20, 5, 20, 5, 5, 5, 5, 5, 20, 5, 20, 5, 5, 20, 5, 5, 5, 5, 5, 20, 5, 20, 5, 10, 10, 5, 5, 5, 5, 5, 5, 15, 15, 15, 5, 30, 10, 5, 5, 10, 5, 5, 30, 10, 5, 5, 5, 10, 5, 5, 30, 10, 5, 5, 5, 5, 5, 5, 5, 10, 5, 5, 5, 5, 5, 5, 5, 5, 10, 5, 5, 5, 5, 15, 5, 5, 10, 5, 5, 15, 5, 10, 5, 5, 5, 15, 5, 10, 5, 35, 10, 15, 10, 5, 15, 5, 5, 5, 5, 5, 30, 5, 5, 10, 5, 15, 5, 5, 5, 5, 10, 10, 5, 25, 5, 5, 5, 5, 5, 15, 10, 10, 5, 5, 5, 5, 15, 10, 10, 5, 10, 15, 5, 5, 10, 15, 5, 5, 5, 10, 10, 5, 5, 5, 5, 5, 5, 5, 5, 5, 5, 5, 5, 5, 5, 5, 5, 5, 5, 5, 5, 5, 5, 5, 5, 5, 5, 5, 5, 5, 5, 5, 5, 5, 10, 5, 5, 5, 5, 5, 5, 5, 5, 5, 5, 5, 5, 5, 10, 5, 5, 5, 5, 5, 5, 10, 5, 5, 5, 5, 5, 5, 5, 5, 10, 5, 5, 5, 5, 10, 5, 5, 5, 5, 10, 5, 5, 5, 5, 5, 10, 5, 5, 5, 5, 5, 5, 5, 5, 5, 5, 5, 5, 5, 5, 5, 5, 5, 5, 5, 5, 5, 5, 10, 5, 5, 5, 10, 5, 5, 5, 5, 5, 5, 5, 5, 5, 5, 5, 5, 5, 10, 5, 10, 5, 10, 5, 5, 5, 5, 5, 5, 5, 5, 5, 5, 5, 5, 5, 5, 5, 5, 5, 5, 5, 5, 5, 5, 5, 5, 5, 5, 5, 5, 5, 35, 10, 5, 35, 10, 5, 5, 5, 10, 5, 35, 10, 35, 5, 5, 5, 5, 5, 10, 5, 5, 5, 15, 5, 5, 10, 5, 5, 15, 5, 15, 5, 10, 5, 5, 10, 10, 5, 10, 5, 5, 10, 5, 5, 5, 5, 10, 10, 10, 5, 5, 5, 5, 5, 5, 5, 5, 5, 5, 5, 5, 5, 5, 5, 5, 5, 5, 5, 5, 5, 5, 5, 5, 5, 5, 5, 5, 5, 5, 5, 5, 5, 5, 5, 5, 5, 5, 5, 5, 10, 5, 10, 10, 10, 10, 10, 5, 10, 15, 5, 5, 5, 5, 5, 5, 15, 5, 5, 5, 10, 10, 5, 5, 5, 5, 5, 5, 5, 10, 5, 5, 5, 15, 10, 10, 5, 15, 5, 5, 5, 5, 5, 5, 5, 25, 5, 25, 5, 25, 5, 5, 5, 25, 25, 15, 15, 10, 10, 5, 5, 10, 5, 10, 5, 5, 10, 5, 5, 5, 5, 5, 5, 5, 5, 10, 5, 5, 5, 10, 5, 5, 5, 5, 5, 10, 10, 10, 5, 5, 5, 5, 5, 5, 5, 10, 10, 5, 5, 35, 35, 10, 35, 10, 15, 15, 15, 10, 5, 5, 10, 5, 5, 5, 5, 10, 5, 15, 10, 10, 5, 10, 5, 5, 10, 5, 5, 15, 5, 5, 5, 5, 5, 5, 5, 5, 10, 5, 10, 5, 5, 5, 5, 5, 5, 5, 5, 10, 5, 5, 10, 5, 5, 10, 5, 5, 5, 15, 10, 10, 5, 10, 15, 5, 10, 5, 10, 10, 10, 10, 10, 5, 5, 5, 5, 5, 10, 5, 10, 5, 10, 5, 5, 5, 5, 5, 5, 5, 5, 5] p=0.58"]
S2 -> S3 [label="3 [5, 5, 5, 5, 5, 5, 5, 10, 5, 5, 10, 5, 5, 5, 5, 5, 5, 5, 10, 5, 10, 5, 10, 5, 10, 5, 5, 5, 5, 5, 5, 5, 5, 5, 10, 5, 5, 10, 5, 5, 10, 5, 5, 5, 10, 5, 5, 5, 5, 5, 10, 10, 5, 10, 5, 10, 5, 5, 5, 10, 5, 10, 5, 5, 10, 10, 5, 5, 10, 10, 5, 10, 5, 5, 5, 10, 5, 5, 10, 5, 5, 5, 5, 10, 10, 10, 5, 5, 10, 10, 5, 5, 5, 10, 5, 5, 5, 10, 5, 5, 5, 5, 5, 5, 10, 5, 10, 5, 5, 10, 5, 5, 5, 5, 5, 10, 10, 5, 5, 5, 5, 5, 10, 10, 5, 10, 5, 5, 5, 5, 5, 10, 5, 5, 5, 10, 5, 10, 5, 5, 5, 5, 5, 5, 5, 10, 5, 5, 5, 10, 5, 5, 10, 5, 5, 5, 10, 10, 5, 10, 5, 5, 5, 5, 10, 5, 10, 10, 5, 5, 10, 10, 10, 10, 5, 5, 10, 5, 5, 5, 5, 10, 5, 10, 10, 5, 5, 5, 5, 5, 10, 5, 5, 5, 5, 10, 5, 10, 5, 10, 5, 10, 10, 5, 5, 5, 10, 10, 5, 10, 5, 10, 5, 5, 5, 10, 5, 5, 5, 5, 10, 5, 5, 5, 5, 10, 5, 5, 5, 5, 5, 10, 5, 10, 10, 10, 5, 10, 10, 5, 5, 5, 5, 5, 5, 5, 10, 5, 5, 5, 5, 10, 5, 5, 10, 5, 5, 10, 5, 10, 5, 5, 5, 10, 5, 5, 5, 5, 5, 5, 5, 10, 5, 5, 5, 5, 10, 5, 5, 10, 5, 10, 10, 5, 10, 10, 5, 10, 5, 5, 10, 5, 5, 5, 5, 10, 5, 5, 10, 10, 10, 5, 5, 10, 5, 5, 5, 5, 5, 5, 10, 5, 10, 5, 10, 5, 10, 5, 5, 10, 5, 5, 10, 5, 5, 10, 5, 10, 10, 10, 10, 10, 5, 5, 5, 5, 5, 5, 5, 5, 5, 5, 5, 5, 5, 5, 5, 5, 5, 5, 5, 5, 5, 5, 5, 5, 5, 5, 5, 5, 5, 5, 5, 5, 5, 5, 5, 5, 5, 5, 5, 5, 5, 5, 5, 5, 10, 5, 5, 5, 5, 5, 5, 10, 5, 5, 5, 5, 5, 10, 5, 5, 10, 5, 5, 5, 10, 5, 5, 10, 10, 10, 5, 5, 10, 5, 5, 5, 5, 10, 5, 10, 5, 10, 5, 5, 5, 5, 5, 5, 5, 10, 5, 5, 10, 10, 10, 10, 5, 10, 5, 5, 5, 5, 5, 5, 5, 5, 5, 10, 5, 5, 5, 5, 5, 5, 5, 5, 10, 5, 5, 5, 5, 5, 5, 5, 5, 5, 5, 10, 5, 5, 5, 10, 5, 5, 5, 5, 5, 5, 5, 5, 5, 5, 5, 5, 10, 10, 5, 5, 10, 5, 5, 5, 5, 5, 10, 10, 5, 10, 5, 5, 5, 10, 10, 5, 5, 5, 5, 10, 10, 5, 5, 5, 10, 10, 5, 5, 5, 5, 5, 5, 5, 5, 5, 5, 5, 5, 5, 5, 5, 5, 10, 5, 5, 5, 10, 5, 10, 5, 10, 5, 5, 5, 10, 5, 5, 10, 5, 5, 10, 5, 10, 5, 5, 10, 5, 5, 10, 5, 10, 5, 5, 10, 10, 10, 5, 5, 5, 10, 5, 10, 10, 5, 10, 5, 10, 10, 10, 10, 5, 10, 5, 5, 5, 5, 10, 5, 10, 10, 10, 10, 5, 5, 5, 5, 10, 10, 5, 10, 10, 10, 5, 5, 5, 10, 5, 5, 5, 5, 10, 5, 5, 5, 10, 10, 10, 10, 10, 5, 5, 10, 5, 5, 10, 5, 5, 5, 5, 5, 5, 5, 5, 10, 10, 10, 5, 10, 10, 5, 10, 10, 10, 10, 5, 5, 5, 5, 5, 5, 5, 5, 5, 5, 5, 10, 5, 10, 10, 5, 5, 10, 5, 5, 5, 5, 10, 10, 10, 5, 5, 10, 5, 5, 5, 10, 5, 10, 5, 10, 10, 5, 5, 10, 10, 5, 5, 5, 5, 5, 5, 5, 10, 10, 5, 5, 5, 5, 5, 5, 10, 10, 5, 5, 5, 5, 10, 5, 10, 5, 5, 5, 5, 10, 5, 10, 5, 5, 5, 5, 5, 5, 10, 5, 5, 10, 10, 10, 5, 5, 5, 5, 5, 10, 5, 10, 5, 5, 10, 5, 5, 5, 5, 5, 5, 10, 5, 5, 5, 10, 10, 5, 5, 10, 10, 10, 10, 5, 5, 5, 5, 5, 5, 5, 5, 5, 5, 5, 5, 5, 5, 5, 5, 5, 5, 5, 5, 5, 5, 5, 5, 5, 5, 10, 5, 5, 10, 5, 10, 5, 5, 5, 10, 10, 10, 5, 5, 10, 10, 10, 10, 5, 5, 5, 5, 5, 5, 10, 10, 10, 5, 10, 5, 10, 5, 10, 5, 10, 5, 5, 5, 5, 10, 5, 5, 5, 5, 5, 10, 10, 5, 5, 5, 5, 10, 5, 5, 5, 10, 10, 10, 5, 5, 5, 5, 5, 5, 5, 5, 5, 5, 5, 5, 5, 10, 5, 5, 5, 10, 10, 10, 5, 5, 5, 10, 10, 5, 5, 10, 5, 5, 5, 10, 5, 5, 10, 5, 5, 10, 5, 5, 5, 10, 5, 5, 10, 5, 5, 5, 10, 5, 10, 5, 5, 5, 5, 10, 5, 10, 5, 5, 5, 5, 5, 10, 5, 5, 5, 10, 5, 5, 5, 5, 5, 5, 5, 5, 10, 5, 5, 5, 5, 5, 5, 5, 5, 5, 5, 5, 5, 10, 10, 5, 10, 5, 5, 10, 5, 10, 5, 10, 5, 5, 10, 5, 5, 5, 5, 5, 5, 5, 5, 5, 10, 5, 5, 5, 5, 5, 10, 5, 5, 5, 5, 5, 5, 10, 10, 10, 5, 10, 10, 5, 10, 5, 5, 5, 10, 5, 10, 10, 5, 10, 5, 10, 5, 5, 5, 5, 5, 5, 5, 10, 10, 10, 5, 10, 5, 5, 5, 10, 5, 5, 10, 5, 5, 10, 5, 5, 10, 10, 5, 5, 5, 5, 10, 5, 5, 5, 5, 10, 10, 5, 5, 10, 5, 10, 10, 5, 5, 10, 5, 5, 5, 5, 5, 10, 5, 10, 10, 5, 5, 10, 5, 10, 5, 10, 10, 5, 10, 10, 5, 10, 5, 5, 5, 10, 10, 10, 5, 5, 10, 10, 5, 5, 5, 10, 5, 5, 10, 5, 5, 10, 10, 5, 10, 5, 5, 10, 5, 5, 5, 5, 10, 5, 5, 10, 5, 5, 5, 5, 5, 5, 10, 5, 5, 5, 5, 10, 5, 5, 5, 5, 10, 5, 5, 5, 10, 5, 10, 5, 5, 5, 10, 10, 5, 5, 10, 10, 5, 5, 5, 5, 5, 5, 5, 5, 10, 5, 5, 5, 10, 5, 5, 5, 5, 5, 5, 5, 5, 10, 5, 5, 5, 10, 10, 5, 5, 5, 5, 10, 5, 5, 5, 5, 5, 5, 5, 5, 5, 5, 5, 10, 5, 5, 5, 5, 10, 5, 5, 5, 5, 5, 5, 5, 10, 5, 5, 5, 5, 5, 10, 5, 5, 5, 5, 5, 10, 5, 5, 10, 5, 5, 10, 10, 10, 10, 10, 5, 5, 10, 10, 5, 5, 10, 5, 5, 5, 5, 5, 5, 5, 5, 5, 5, 5, 5, 5, 5, 5, 5, 5, 10, 10, 10, 5, 5, 5, 5, 5, 10, 5, 5, 5, 5, 5, 5, 5, 5, 10, 5, 5, 10, 5, 10, 5, 5, 5, 5, 5, 5, 5, 5, 5, 5, 5, 5, 5, 10, 5, 5, 5, 5, 5, 10, 5, 5, 5, 5, 5, 5, 10, 5, 10, 10, 10, 5, 5, 5, 10, 5, 5, 5, 5, 5, 5, 5, 5, 10, 5, 5, 5, 5, 10, 10, 5, 5, 10, 5, 5, 5, 5, 10, 5, 5, 5, 5, 5, 10, 5, 5, 5, 10, 5, 5, 5, 5, 5, 5, 5, 5, 5, 5, 10, 5, 10, 5, 5, 5, 5, 5, 5, 5, 10, 5, 5, 10, 10, 10, 5, 10, 5, 5, 5, 5, 5, 10, 5, 5, 5, 10, 5, 10, 10, 5, 5, 5, 5, 10, 5, 10, 5, 10, 10, 5, 10, 5, 5, 10, 5, 5, 5, 5, 5, 5, 5, 5, 5, 10, 5, 5, 5, 10, 10, 10, 5, 10, 5, 5, 10, 5, 5, 10, 5, 10, 5, 5, 10, 10, 5, 5, 10, 5, 5, 5, 5, 5, 5, 5, 5, 10, 5, 5, 5, 10, 5, 5, 5, 5, 5, 5, 5, 5, 5, 5, 10, 5, 10, 10, 5, 10, 5, 5, 5, 5, 5, 5, 5, 5, 5, 5, 10, 5, 5, 5, 10, 10, 10, 10, 5, 5, 10, 5, 5, 5, 5, 5, 10, 10, 5, 5, 5, 5, 5, 5, 10, 5, 10, 5, 5, 5, 10, 5, 5, 10, 10, 5, 5, 10, 5, 10, 5, 5, 5, 10, 5, 10, 10, 10, 5, 5, 10, 5, 10, 5, 10, 5, 10, 5, 10, 10, 5, 10, 5, 5, 5, 10, 10, 5, 5, 5, 5, 5, 5, 5, 5, 5, 5, 10, 5, 5, 5, 10, 10, 5, 5, 5, 10, 10, 10, 5, 5, 5, 10, 10, 5, 5, 10, 10, 10, 5, 5, 10, 5, 5, 10, 5, 10, 10, 5, 10, 10, 5, 10, 10, 5, 5, 5, 5, 5, 5, 10, 10, 5, 5, 10, 5, 10, 5, 10, 5, 5, 10, 5, 5, 5, 5, 10, 5, 5, 5, 5, 10, 5, 5, 10, 10, 10, 5, 5, 5, 5, 10, 10, 10, 5, 5, 5, 5, 5, 10, 5, 5, 5, 5, 5, 5, 5, 5, 10, 5, 5, 5, 5, 10, 5, 10, 10, 10, 5, 5, 5, 10, 5, 5, 10, 5, 10, 5, 5, 10, 10, 10, 5, 10, 5, 5, 5, 5, 10, 5, 10, 5, 10, 5, 5, 5, 5, 10, 5, 5, 10, 5, 10, 10, 10, 10, 5, 10, 5, 10, 5, 5, 5, 5, 5, 5, 5, 5, 5, 5, 5, 5, 5, 5, 5, 5, 5, 5, 10, 5, 5, 5, 5, 10, 5, 5, 5, 5, 5, 10, 5, 5, 5, 5, 10, 10, 5, 10, 5, 5, 5, 10, 5, 5, 5, 5, 10, 5, 5, 5, 10, 5, 10, 5, 5, 10, 5, 10, 10, 10, 5, 5, 10, 10, 5, 5, 5, 5, 5, 5, 10, 10, 10, 5, 10, 10, 10, 5, 5, 10, 10, 5, 5, 5, 5, 10, 10, 5, 5, 5, 5, 5, 5, 5, 10, 5, 10, 5, 5, 5, 5, 10, 5, 5, 5, 5, 10, 10, 5, 5, 5, 10, 5, 5, 10, 5, 5, 10, 5, 10, 5, 10, 10, 10, 5, 5, 10, 10, 5, 5, 10, 5, 5, 5, 10, 10, 10, 10, 5, 5, 10, 5, 10, 5, 5, 5, 5, 5, 10, 5, 10, 5, 5, 5, 10, 5, 5, 5, 10, 5, 5, 10, 5, 5, 10, 5, 5, 10, 10, 10, 10, 5, 5, 5, 5, 10, 10, 5, 5, 5, 5, 5, 10, 5, 10, 10, 5, 5, 5, 5, 5, 10, 5, 5, 5, 5, 10, 5, 10, 10, 5, 5, 5, 5, 5, 5, 10, 5, 5, 10, 5, 5, 10, 5, 10, 10, 5, 5, 5, 5, 10, 5, 10, 5, 10, 5, 10, 5, 10, 10, 5, 5, 10, 10, 5, 10, 10, 5, 5, 10, 5, 10, 5, 5, 10, 10, 10, 5, 5, 5, 10, 10, 5, 5, 10, 10, 10, 5, 10, 10, 10, 5, 5, 10, 10, 10, 10, 5, 10, 10, 10, 5, 10, 10, 5, 5, 5, 10, 10, 5, 5, 5, 10, 10, 5, 10, 5, 5, 10, 5, 5, 5, 5, 5, 5, 5, 5, 5, 5, 10, 5, 5, 10, 5, 5, 5, 10, 5, 5, 5, 10, 5, 5, 5, 10, 5, 10, 5, 5, 5, 10, 10, 5, 5, 5, 5, 5, 5, 10, 10, 10, 5, 10, 10, 10, 10, 5, 5, 5, 10, 10, 5, 5, 5, 5, 10, 5, 5, 10, 5, 10, 5, 10, 5, 10, 5, 5, 5, 5, 10, 5, 5, 10, 5, 5, 10, 5, 5, 10, 10, 5, 5, 10, 10, 10, 5, 5, 5, 10, 5, 5, 10, 10, 5, 5, 5, 5, 5, 5, 10, 10, 10, 10, 10, 10, 10, 5, 10, 5, 5, 5, 5, 5, 5, 5, 10, 5, 5, 5, 10, 5, 10, 5, 10, 5, 5, 10, 10, 5, 5, 5, 10, 5, 10, 5, 5, 10, 5, 10, 10, 5, 5, 5, 10, 10, 10, 10, 5, 5, 10, 10, 5, 5, 5, 5, 5, 5, 10, 5, 5, 10, 10, 10, 10, 10, 10, 5, 10, 5, 5, 5, 10, 10, 5, 10, 5, 10, 5, 10, 5, 5, 10, 5, 5, 5, 10, 5, 10, 5, 5, 5, 10, 10, 5, 5, 5, 10, 5, 10, 5, 10, 5, 10, 5, 5, 5, 5, 5, 5, 5, 5, 5, 5, 5, 5, 5, 5, 5, 5, 5, 10, 5, 10, 10, 10, 5, 10, 5, 5, 5, 10, 10, 5, 5, 5, 5, 5, 5, 10, 10, 10, 5, 10, 5, 5, 5, 5, 5, 5, 5, 5, 5, 5, 5, 5, 5, 5, 5, 5, 5, 5, 5, 5, 5, 5, 5, 5, 5, 10, 5, 5, 5, 5, 5, 5, 5, 10, 5, 5, 5, 10, 10, 5, 10, 5, 5, 10, 5, 5, 5, 10, 5, 10, 10, 10, 5, 5, 5, 5, 5, 10, 10, 10, 5, 5, 5, 10, 5, 5, 5, 5, 10, 5, 5, 5, 5, 10, 10, 10, 10, 5, 5, 5, 5, 5, 10, 10, 10, 10, 5, 5, 5, 5, 5, 5, 5, 5, 5, 5, 5, 5, 5, 5, 5, 5, 10, 10, 10, 10, 10, 10, 10, 5, 5, 5, 10, 5, 5, 5, 10, 5, 5, 5, 5, 5, 5, 10, 5, 10, 5, 5, 5, 10, 10, 10, 5, 5, 10, 5, 5, 10, 5, 5, 5] p=0.55"]
S2 -> S1 [label="2 [5, 5, 5, 5, 5, 5, 5, 5, 5, 5, 5, 5, 5, 5, 5, 5, 5, 10, 5, 5, 5, 5, 10, 5, 5, 5, 5, 5, 5, 5, 5, 5, 5, 5, 5, 10, 5, 5, 5, 5, 5, 5, 5, 5, 5, 5, 10, 5, 5, 5, 10, 5, 5, 5, 5, 5, 10, 10, 5, 5, 10, 5, 5, 5, 5, 5, 5, 5, 5, 5, 5, 5, 5, 10, 5, 5, 5, 5, 5, 5, 5, 5, 5, 5, 5, 5, 5, 5, 5, 5, 5, 5, 5, 10, 5, 5, 5, 5, 10, 5, 5, 5, 5, 10, 10, 5, 5, 5, 5, 10, 5, 5, 5, 5, 5, 5, 5, 5, 5, 5, 5, 5, 5, 5, 5, 5, 5, 5, 5, 10, 5, 5, 5, 5, 5, 5, 5, 5, 5, 5, 5, 5, 5, 5, 5, 5, 5, 5, 5, 5, 5, 5, 5, 5, 5, 5, 5, 5, 5, 10, 5, 5, 5, 5, 5, 5, 5, 5, 5, 5, 5, 5, 5, 5, 5, 5, 5, 5, 5, 5, 5, 5, 5, 10, 5, 5, 5, 10, 5, 5, 5, 5, 5, 5, 5, 10, 5, 5, 5, 5, 5, 5, 5, 5, 5, 5, 10, 5, 5, 5, 5, 5, 5, 5, 5, 5, 5, 5, 5, 5, 5, 5, 5, 5, 5, 5, 5, 5, 5, 5, 5, 5, 10, 5, 5, 10, 5, 5, 5, 5, 5, 5, 5, 5, 5, 5, 10, 5, 10, 5, 5, 5, 5, 5, 5, 10, 5, 5, 5, 5, 5, 5, 5, 5, 5, 5, 5, 5, 10, 5, 5, 5, 5, 5, 5, 5, 5, 5, 5, 5, 10, 5, 5, 5, 5, 5, 5, 5, 5, 5, 5, 5, 5, 5, 10, 5, 5, 5, 5, 5, 5, 10, 5, 10, 5, 5, 5, 5, 5, 5, 5, 5, 5, 5, 10, 5, 5, 10, 5, 5, 5, 5, 5, 5, 5, 5, 5, 5, 5, 10, 5, 5, 5, 10, 5, 5, 5, 5, 5, 5, 5, 5, 5, 5, 10, 5, 5, 5, 5, 5, 5, 5, 10, 5, 5, 5, 5, 5, 5, 5, 5, 5, 5, 10, 5, 5, 5, 10, 10, 5, 5, 5, 5, 5, 5, 5, 5, 5, 5, 5, 5, 5, 5, 5, 10, 5, 5, 5, 5, 5, 5, 5, 5, 5, 5, 5, 5, 5, 10, 10, 5, 5, 5, 5, 5, 5, 5, 5, 10, 10, 5, 5, 5, 5, 5, 5, 5, 5, 5, 5, 5, 10, 5, 5, 5, 5, 5, 5, 10, 5, 10, 5, 5, 5, 5, 5, 5, 5, 5, 5, 5, 5, 5, 5, 5, 5, 5, 10, 5, 10, 5, 5, 5, 5, 5, 5, 10, 5, 5, 10, 5, 5, 5, 5, 5, 5, 5, 5, 10, 5, 5, 5, 5, 10, 5, 5, 5, 5, 5, 10, 5, 5, 5, 10, 5, 10, 5, 5, 5, 5, 5, 10, 5, 10, 5, 10, 5, 5, 5, 5, 5, 5, 5, 5, 5, 5, 5, 5, 5, 5, 5, 5, 5, 5, 5, 5, 5, 5, 5, 5, 5, 5, 5, 5, 5, 5, 5, 5, 5, 5, 5, 5, 5, 5, 5, 10, 10, 5, 5, 5, 5, 10, 5, 5, 5, 5, 5, 5, 5, 5, 5, 5, 5, 5, 5, 5, 5, 5, 5, 5, 5, 5, 5, 5, 5, 5, 5, 5, 10, 5, 5, 5, 5, 5, 5, 5, 5, 5, 5, 5, 5, 5, 5, 5, 5, 5, 5, 5, 5, 5, 5, 5, 5, 5, 5, 5, 5, 5, 5, 5, 10, 10, 5, 5, 5, 5, 10, 10, 10, 5, 5, 10, 5, 5, 5, 5, 5, 5, 5, 5, 5, 5, 5, 10, 5, 5, 5, 5, 5, 5, 10, 5, 5, 5, 5, 5, 5, 5, 5, 5, 10, 5, 5, 5, 5, 10, 5, 5, 5, 5, 5, 5, 5, 5, 5, 5, 5, 5, 5, 5, 5, 5, 5, 5, 5, 5, 5, 5, 5, 5, 5, 5, 5, 5, 5, 5, 5, 5, 5, 5, 5, 5, 5, 5, 5, 5, 5, 5, 5, 5, 5, 5, 5, 5, 5, 5, 5, 5, 5, 5, 5, 5, 5, 5, 5, 5, 5, 10, 10, 5, 5, 5, 5, 5, 5, 5, 10, 10, 5, 5, 5, 5, 5, 5, 5, 5, 5, 5, 5, 5, 5, 10, 10, 5, 5, 5, 5, 5, 10, 5, 5, 5, 10, 5, 5, 5, 5, 10, 5, 5, 5, 5, 5, 5, 5, 5, 5, 5, 5, 5, 5, 5, 5, 5, 5, 5, 5, 5, 10, 10, 5, 10, 5, 5, 5, 5, 5, 5, 5, 5, 5, 5, 5, 5, 5, 5, 5, 5, 5, 5, 10, 5, 5, 5, 5, 10, 5, 5, 5, 5, 5, 5, 10, 5, 5, 10, 5, 5, 5, 10, 5, 5, 5, 5, 5, 5, 5, 5, 5, 5, 5, 5, 5, 5, 5, 5, 10, 10, 5, 10, 10, 10, 5, 10, 10, 5, 5, 5, 5, 5, 5, 5, 5, 5, 5, 5, 5, 5, 10, 5, 5, 5, 5, 5, 5, 5, 5, 5, 5, 5, 5, 5, 10, 5, 5, 5, 5, 5, 5, 5, 5, 5, 5, 5, 5, 5, 5, 5, 5, 5, 5, 5, 10, 10, 10, 5, 5, 5, 5, 5, 5, 5, 5, 5, 5, 5, 5, 5, 5, 5, 5, 5, 5, 10, 5, 5, 5, 5, 5, 5, 10, 5, 10, 5, 10, 5, 5, 5, 5, 5, 5, 5, 10, 5, 5, 10, 5, 5, 5, 5, 5, 5, 5, 5, 5, 5, 5, 5, 5, 5, 5, 5, 5, 5, 5, 5, 5, 5, 10, 5, 5, 5, 5, 5, 5, 10, 5, 10, 5, 5, 5, 10, 5, 5, 5, 5, 5, 5, 5, 5, 5, 5, 5, 5, 5, 5, 5, 5, 5, 5, 10, 5, 5, 5, 10, 5, 10, 5, 5, 10, 5, 5, 5, 5, 5, 5, 5, 5, 5, 5, 5, 5, 5, 5, 5, 5, 5, 5, 5, 5, 5, 5, 5, 5, 5, 5, 5, 5, 5, 5, 5, 5, 5, 5, 5, 5, 5, 5, 5, 5, 5, 5, 5, 5, 5, 5, 5, 5, 5, 5, 5, 5, 5, 5, 5, 5, 5, 10, 5, 5, 10, 5, 5, 5, 5, 10, 5, 5, 5, 5, 5, 5, 5, 5, 5, 5, 5, 5, 5, 5, 5, 5, 5, 5, 5, 5, 5, 5, 5, 5, 10, 10, 10, 5, 10, 5, 5, 5, 5, 5, 5, 5, 5, 5, 5, 5, 10, 5, 5, 5, 10, 5, 5, 5, 5, 5, 10, 5, 5, 5, 5, 5, 5, 5, 5, 5, 5, 5, 5, 5, 5, 5, 5, 5, 5, 5, 5, 5, 5, 5, 5, 5, 5, 5, 5, 5, 5, 5, 5, 5, 5, 5, 5, 5, 5, 10, 5, 5, 5, 5, 10, 5, 5, 5, 5, 5, 5, 5, 5, 5, 5, 5, 5, 5, 5, 5, 5, 5, 5, 5, 5, 5, 5, 5, 10, 5, 5, 5, 5, 10, 5, 5, 5, 5, 5, 5, 5, 5, 5, 5, 5, 5, 5, 5, 10, 5, 5, 5, 5, 5, 5, 5, 5, 10, 5, 5, 5, 5, 5, 5, 5, 5, 5, 10, 5, 5, 5, 5, 5, 5, 10, 5, 5, 5, 5, 5, 5, 5, 5, 5, 5, 5, 10, 5, 5, 5, 5, 5, 5, 10, 5, 5, 5, 5, 5, 5, 5, 5, 5, 5, 5, 5, 5, 5, 5, 5, 5, 5, 5, 5, 5, 5, 5, 5, 5, 5, 5, 5, 5, 5, 5, 5, 5, 5, 5, 10, 5, 5, 5, 5, 5, 5, 5, 5, 5, 5, 5, 5, 5, 5, 5, 5, 5, 5, 5, 10, 10, 5, 5, 5, 5, 5, 5, 5, 5, 5, 5, 5, 5, 5, 5, 5, 5, 5, 5, 5, 5, 5, 5, 5, 5, 5, 10, 5, 5, 5, 5, 5, 10, 5, 5, 5, 5, 5, 5, 5, 5, 5, 5, 5, 5, 5, 5, 5, 5, 5, 10, 5, 5, 5, 10, 5, 10, 5, 5, 5, 5, 5, 5, 5, 5, 5, 5, 5, 5, 5, 5, 5, 5, 5, 5, 5, 5, 5, 5, 5, 5, 5, 5, 5, 5, 5, 5, 5, 10, 5, 5, 5, 10, 5, 5, 5, 5, 5, 5, 5, 5, 5, 5, 5, 5, 10, 5, 5, 5, 5, 5, 5, 5, 5, 5, 5, 5, 5, 5, 5, 5, 5, 5, 5, 5, 5, 5, 10, 5, 5, 5, 5, 5, 5, 5, 5, 5, 5, 10, 5, 5, 5, 5, 5, 5, 5, 5, 5, 5, 10, 5, 5, 5, 5, 5, 5, 5, 5, 5, 5, 5, 5, 5, 5, 10, 5, 5, 5, 5, 5, 5, 5, 5, 5, 5, 5, 5, 5, 5, 5, 5, 5, 5, 5, 5, 5, 5, 5, 5, 5, 5, 5, 5, 5, 5, 5, 5, 5, 5, 5, 5, 5, 5, 5, 5, 5, 5, 5, 5, 5, 5, 5, 5, 5, 5, 10, 5, 5, 5, 5, 5, 5, 5, 5, 5, 5, 5, 5, 5, 10, 5, 5, 5, 5, 5, 5, 5, 5, 5, 5, 5, 5, 10, 5, 5, 5, 5, 5, 5, 5, 5, 5, 10, 5, 5, 5, 10, 5, 5, 5, 5, 5, 10, 5, 5, 5, 5, 5, 5, 10, 5, 5, 5, 5, 5, 5, 5, 5, 5, 5, 5, 5, 5, 5, 5, 5, 5, 5, 5, 5, 5, 5, 5, 5, 5, 5, 5, 5, 5, 5, 5, 5, 5, 5, 5, 10, 5, 5, 5, 5, 5, 10, 5, 5, 10, 5, 5, 5, 5, 10, 5, 5, 5, 10, 5, 5, 5, 5, 5, 5, 5, 5, 5, 5, 5, 5, 5, 10, 5, 10, 10, 5, 10, 5, 10, 5, 5, 5, 5, 5, 5, 5, 10, 5, 10, 5, 5, 10, 5, 5, 5, 5, 5, 5, 5, 5, 5, 5, 5, 5, 5, 5, 5, 5, 5, 5, 5, 5, 5, 5, 5, 5, 5, 5, 5, 5, 5, 10, 5, 5, 5, 5, 5, 5, 10, 5, 5, 5, 5, 5, 5, 5, 10, 5, 10, 10, 5, 5, 5, 5, 5, 5, 5, 5, 5, 5, 5, 5, 5, 5, 5, 5, 5, 5, 5, 5, 5, 5, 5, 5, 5, 5, 5, 5, 5, 5, 5, 5, 5, 5, 5, 5, 5, 5, 5, 5, 5, 5, 5, 5, 5, 5, 5, 5, 5, 5, 5, 5, 5, 5, 5, 5, 5, 5, 5, 5, 5, 5, 5, 5, 5, 5, 5, 5, 5, 5, 5, 5, 5, 5, 5, 5, 5, 5, 5, 5, 5, 5, 5, 5, 5, 5, 5, 5, 5, 5, 5, 5, 5, 5, 5, 5, 5, 5, 5, 5, 5, 5, 5, 5, 5, 5, 5, 5, 5, 5, 5, 5, 5, 5, 5, 5, 5, 5, 5, 5, 5, 5, 5, 5, 5, 5, 5, 5, 5, 5, 5, 5, 5, 5, 5, 5, 5, 5, 5, 5, 5, 5, 5, 5, 5, 5, 5, 5, 5, 5, 5, 5, 5, 5, 5, 5, 5, 5, 5, 5, 5, 5, 5, 5, 5, 5, 5, 5, 5, 5, 5, 5, 5, 5, 5, 5, 5, 5, 5, 5, 5, 5, 5, 5, 5, 5, 5, 5, 5, 5, 5, 10, 5, 5, 10, 5, 5, 10, 5, 5, 5, 5, 10, 5, 5, 5, 5, 5, 5, 5, 5, 5, 5, 5, 5, 5, 5, 5, 5, 5, 5, 5, 5, 5, 5, 5, 5, 5, 5, 5, 5, 5, 5, 5] p=0.45"]
S3 -> S2 [label="1 [5, 5, 10, 5, 5, 5, 5, 5, 10, 15, 5, 5, 5, 5, 10, 10, 5, 5, 5, 5, 5, 5, 5, 5, 5, 5, 15, 10, 5, 5, 5, 15, 5, 5, 15, 5, 15, 5, 5, 10, 10, 5, 5, 10, 5, 5, 5, 5, 15, 5, 5, 5, 5, 15, 5, 5, 5, 10, 10, 5, 5, 5, 5, 5, 5, 5, 5, 5, 15, 10, 5, 15, 5, 5, 5, 15, 5, 5, 10, 10, 5, 5, 15, 5, 15, 5, 5, 5, 5, 5, 5, 5, 5, 15, 5, 5, 5, 5, 5, 5, 5, 5, 10, 10, 5, 5, 10, 5, 5, 15, 5, 10, 5, 5, 5, 5, 5, 10, 10, 5, 5, 10, 15, 5, 5, 15, 5, 10, 15, 5, 5, 10, 10, 5, 10, 5, 15, 5, 10, 15, 5, 5, 5, 5, 5, 5, 5, 5, 10, 5, 5, 5, 5, 10, 5, 5, 5, 10, 5, 5, 5, 5, 5, 5, 5, 5, 5, 5, 5, 5, 5, 5, 5, 5, 5, 5, 5, 5, 15, 10, 10, 5, 5, 5, 5, 5, 5, 5, 5, 5, 10, 5, 5, 5, 15, 5, 15, 5, 5, 15, 5, 15, 5, 5, 5, 5, 5, 5, 15, 5, 5, 5, 5, 5, 5, 5, 5, 15, 5, 5, 15, 5, 15, 5, 5, 5, 5, 5, 5, 5, 5, 15, 5, 15, 15, 15, 15, 10, 10, 10, 10, 10, 5, 5, 5, 5, 5, 15, 5, 5, 10, 5, 10, 5, 15, 5, 5, 5, 10, 5, 10, 5, 15, 5, 10, 10, 5, 5, 5, 5, 15, 5, 5, 10, 10, 5, 5, 5, 5, 5, 5, 5, 5, 5, 5, 5, 5, 10, 10, 5, 5, 5, 5, 5, 5, 5, 10, 10, 5, 5, 5, 5, 5, 5, 15, 15, 15, 5, 5, 5, 5, 5, 5, 5, 5, 5, 5, 5, 10, 5, 5, 5, 15, 5, 5, 5, 10, 5, 5, 5, 5, 5, 5, 5, 5, 5, 10, 15, 5, 5, 5, 5, 5, 5, 10, 5, 5, 5, 5, 10, 5, 10, 5, 5, 15, 5, 5, 5, 5, 5, 5, 5, 5, 5, 5, 5, 5, 5, 5, 10, 5, 15, 5, 5, 5, 5, 5, 5, 5, 5, 5, 5, 5, 15, 5, 10, 5, 5, 5, 5, 5, 5, 5, 5, 5, 5, 5, 5, 15, 5, 15, 5, 5, 5, 5, 5, 5, 5, 5, 15, 5, 5, 5, 5, 5, 15, 5, 5, 5, 10, 10, 5, 10, 10, 15, 5, 5, 5, 5, 5, 5, 5, 5, 5, 5, 5, 5, 10, 5, 5, 5, 5, 15, 5, 10, 5, 5, 5, 10, 15, 5, 10, 10, 5, 10, 5, 5, 5, 5, 5, 10, 5, 10, 5, 5, 5, 5, 10, 5, 5, 5, 5, 5, 5, 5, 5, 5, 5, 5, 5, 5, 5, 15, 10, 5, 5, 10, 15, 5, 10, 5, 5, 5, 5, 5, 5, 5, 5, 5, 5, 5, 10, 5, 5, 10, 5, 5, 5, 5, 5, 10, 10, 10, 5, 5, 10, 5, 5, 5, 5, 5, 5, 5, 5, 10, 5, 5, 10, 5, 10, 5, 5, 15, 5, 5, 5, 5, 5, 5, 5, 5, 5, 5, 5, 5, 5, 5, 5, 5, 5, 10, 5, 5, 5, 5, 5, 5, 5, 5, 5, 5, 5, 5, 5, 10, 5, 10, 5, 10, 5, 15, 5, 5, 5, 5, 5, 5, 5, 5, 5, 5, 5, 5, 10, 5, 5, 5, 5, 5, 5, 5, 5, 5, 5, 5, 15, 5, 5, 5, 5, 10, 5, 5, 5, 5, 5, 5, 5, 5, 5, 10, 5, 5, 5, 10, 5, 5, 5, 10, 5, 10, 5, 5, 15, 5, 5, 15, 5, 5, 5, 5, 5, 10, 5, 5, 5, 5, 5, 5, 10, 5, 5, 5, 5, 15, 5, 15, 5, 5, 5, 5, 10, 5, 5, 15, 5, 5, 10, 5, 5, 5, 5, 10, 10, 10, 5, 5, 5, 5, 10, 5, 10, 5, 10, 15, 5, 5, 5, 15, 10, 5, 5, 5, 10, 5, 5, 5, 5, 15, 5, 5, 5, 5, 5, 5, 5, 5, 10, 5, 15, 5, 5, 10, 5, 5, 5, 10, 5, 5, 5, 5, 15, 5, 5, 5, 5, 5, 5, 5, 10, 5, 5, 5, 10, 5, 15, 5, 5, 5, 10, 5, 10, 5, 5, 5, 5, 5, 5, 5, 5, 5, 10, 5, 5, 5, 5, 5, 5, 5, 5, 5, 5, 10, 5, 5, 5, 5, 5, 5, 15, 15, 15, 15, 5, 5, 5, 5, 5, 5, 5, 5, 5, 5, 5, 5, 5, 10, 5, 5, 10, 5, 5, 10, 15, 5, 15, 15, 10, 5, 5, 5, 5, 5, 10, 5, 5, 5, 5, 5, 5, 5, 5, 10, 5, 10, 5, 5, 5, 5, 5, 5, 15, 5, 10, 5, 5, 5, 5, 5, 5, 10, 5, 5, 5, 5, 15, 5, 5, 5, 5, 10, 15, 5, 5, 5, 5, 5, 5, 5, 5, 5, 5, 5, 5, 5, 5, 5, 5, 10, 10, 15, 5, 5, 5, 5, 5, 5, 15, 5, 5, 10, 5, 5, 5, 5, 5, 5, 5, 5, 5, 10, 5, 5, 5, 5, 5, 5, 15, 5, 5, 5, 5, 5, 5, 5, 5, 10, 15, 5, 5, 5, 5, 5, 5, 5, 5, 5, 5, 5, 5, 5, 5, 5, 5, 5, 5, 15, 5, 5, 5, 5, 5, 5, 5, 5, 5, 5, 5, 5, 10, 5, 10, 10, 15, 5, 5, 5, 5, 5, 15, 5, 5, 5, 10, 5, 5, 5, 5, 5, 5, 5, 5, 10, 15, 5, 5, 5, 5, 5, 5, 5, 5, 5, 5, 5, 5, 5, 5, 5, 5, 5, 5, 5, 5, 5, 5, 5, 15, 5, 5, 5, 5, 5, 15, 5, 15, 5, 15, 5, 15, 5, 5, 5, 5, 5, 5, 5, 5, 5, 5, 5, 5, 5, 5, 5, 5, 5, 5, 5, 5, 5, 5, 5, 5, 5, 5, 5, 5, 5, 5, 5, 5, 5, 5, 15, 5, 5, 5, 5, 5, 5, 5, 5, 5, 5, 5, 5, 5, 5, 5, 5, 5, 5, 5, 5, 5, 5, 5, 5, 5, 5, 15, 5, 5, 5, 5, 5, 5, 10, 5, 5, 5, 5, 5, 5, 5, 5, 5, 5, 5, 5, 10, 5, 5, 5, 5, 5, 5, 5, 5, 5, 5, 5, 5, 10, 5, 5, 5, 5, 5, 5, 10, 5, 5, 5, 5, 10, 5, 5, 5, 5, 5, 5, 5, 5, 5, 15, 5, 5, 5, 15, 5, 15, 5, 5, 5, 5, 5, 5, 5, 5, 5, 5, 5, 5, 5, 15, 5, 5, 5, 5, 5, 5, 5, 5, 5, 5, 5, 5, 5, 5, 5, 5, 5, 5, 5, 5, 5, 5, 5, 5, 5, 5, 5, 5, 5, 5, 5, 5, 5, 5, 5, 5, 5, 5, 5, 5, 5, 5, 5, 5, 5, 5, 5, 5, 5, 10, 5, 5, 10, 15, 5, 5, 5, 5, 5, 5, 5, 5, 5, 5, 5, 5, 5, 5, 5, 5, 5, 5, 5, 5, 5, 5, 5, 5, 5, 5, 5, 5, 5, 5, 5, 5, 5, 5, 10, 5, 5, 10, 15, 5, 5, 5, 5, 10, 5, 5, 5, 5, 5, 10, 15, 5, 5, 5, 5, 5, 5, 5, 10, 10, 15, 10, 5, 10, 15, 10, 5, 10, 15, 5, 5, 5, 5, 5, 5, 5, 5, 5, 5, 5, 5, 5, 5, 5, 5, 15, 15, 15, 5, 15, 5, 5, 5, 15, 5, 5, 5, 5, 5, 15, 5, 5, 5, 5, 5, 5, 5, 5, 5, 10, 5, 10, 5, 15, 5, 10, 5, 5, 5, 5, 10, 5, 10, 5, 5, 5, 5, 5, 5, 5, 5, 5, 5, 5, 15, 5, 5, 5, 5, 5, 5, 5, 5, 15, 5, 10, 10, 5, 5, 10, 5, 15, 5, 10, 5, 5, 5, 5, 10, 5, 10, 10, 5, 10, 5, 5, 5, 5, 10, 5, 5, 10, 5, 5, 5, 5, 5, 5, 5, 5, 10, 5, 10, 5, 10, 5, 5, 10, 5, 5, 10, 5, 15, 10, 5, 10, 5, 5, 10, 5, 5, 5, 5, 5, 5, 5, 5, 10, 5, 5, 5, 10, 15, 5, 10, 10, 5, 10, 5, 5, 5, 10, 10, 5, 5, 5, 5, 5, 5, 5, 5, 5, 15, 5, 5, 10, 10, 5, 5, 5, 5, 5, 5, 5, 10, 5, 5, 5, 5, 10, 10, 10, 5, 5, 10, 5, 5, 5, 5, 5, 5, 10, 5, 5, 5, 5, 5, 5, 5, 5, 5, 5, 5, 5, 5, 5, 10, 5, 5, 5, 5, 5, 10, 5, 10, 5, 5, 5, 5, 5, 10, 5, 5, 5, 5, 5, 5, 5, 5, 5, 5, 5, 5, 5, 10, 5, 10, 10, 5, 10, 5, 5, 5, 10, 5, 5, 5, 5, 5, 10, 5, 5, 15, 10, 5, 5, 5, 10, 5, 10, 5, 5, 5, 5, 10, 5, 5, 5, 5, 10, 5, 10, 10, 5, 5, 10, 5, 5, 5, 5, 5, 5, 5, 5, 5, 10, 5, 5, 5, 5, 5, 5, 10, 10, 5, 5, 5, 5, 5, 5, 5, 5, 5, 5, 5, 5, 5, 5, 5, 5, 5, 5, 10, 5, 5, 5, 5, 10, 5, 5, 5, 5, 5, 5, 5, 5, 5, 10, 5, 5, 5, 5, 5, 5, 5, 5, 10, 5, 5, 5, 5, 10, 5, 10, 10, 5, 5, 10, 5, 5, 5, 5, 5, 5, 5, 5, 5, 5, 5, 5, 10, 10, 5, 5, 5, 5, 5, 5, 5, 10, 5, 10, 5, 5, 5, 10, 5, 5, 5, 5, 5, 5, 5, 5, 5, 5, 10, 5, 5, 5, 5, 5, 5, 5, 5, 5, 5, 5, 5, 5, 5, 5, 5, 5, 5, 5, 5, 5, 5, 5, 5, 5, 5, 5, 5, 10, 5, 5, 5, 5, 5, 5, 5, 5, 5, 5, 5, 5, 5, 5, 5, 5, 5, 5, 5, 5, 5, 5, 5, 10, 5, 5, 5, 5, 5, 10, 5, 5, 5, 5, 5, 5, 5, 5, 5, 5, 5, 5, 5, 5, 5, 5, 10, 5, 5, 10, 10, 5, 5, 10, 5, 5, 5, 10, 10, 5, 5, 5, 5, 10, 5, 10, 10, 5, 10, 5, 10, 10, 10, 5, 5, 10, 5, 10, 5, 10, 10, 10, 5, 5, 10, 10, 5, 10, 10, 10, 5, 5, 5, 5, 5, 15, 10, 5, 10, 10, 5, 10, 5, 10, 5, 5, 10, 10, 5, 10, 10, 10, 10, 5, 5, 10, 5, 5, 5, 5, 5, 15, 10, 5, 5, 10, 10, 5, 5, 10, 5, 5, 10, 5, 5, 5, 10, 10, 5, 10, 5, 10, 5, 10, 10, 5, 10, 5, 10, 5, 5, 5, 5, 5, 5, 10, 5, 5, 5, 5, 5, 10, 5, 15, 5, 10, 5, 10, 10, 5, 10, 10, 5, 5, 5, 5, 5, 5, 5, 5, 5, 5, 5, 5, 10, 5, 5, 5, 5, 5, 5, 5, 10, 5, 5, 5, 5, 5, 5, 5, 5, 5, 5, 5, 10, 5, 5, 5, 5, 5, 5, 5, 5, 5, 5, 5, 5, 5, 10, 5, 5, 5, 5, 5, 5, 5, 5, 5, 5, 5, 5, 5, 5, 5, 5, 5, 5, 5, 5, 5, 5, 5, 10, 10, 5, 5, 5, 10, 5, 5, 5, 5, 5, 10, 5, 5, 5, 5, 5, 5, 5, 5, 10, 5, 5, 5, 5, 5, 5, 10, 5, 5, 5, 5, 5, 5, 5, 5, 5, 5, 5, 5, 10, 10, 5, 5, 5, 5, 5, 5, 5, 5, 5, 5, 5, 10, 10, 5, 10, 5, 5, 5, 5, 10, 10, 10, 10, 10, 5, 5, 5, 5, 10, 5, 5, 5, 10, 5, 5, 5, 5, 10, 5, 5, 5, 5, 10, 10, 5, 5, 5, 5, 5, 5, 10, 5, 5, 5, 10, 10, 10, 5, 5, 5, 5, 5, 5, 10, 5, 10, 5, 10, 5, 5, 5, 10, 5, 10, 10, 5, 5, 10, 5, 5, 5, 10, 5, 5, 5, 10, 5, 5, 10, 10, 10, 10, 10, 10, 10, 5, 5, 5, 10, 5, 10, 5, 10, 5, 5, 5, 5, 5, 5, 5, 5, 10, 5, 10, 5, 10, 5, 5, 15, 15, 10, 10, 15, 5, 10, 15, 5, 10, 10, 10, 5, 10, 10, 5, 5, 5, 5, 5, 5, 5, 5, 5, 5, 5, 5, 5, 10, 10, 5, 5, 5, 10, 10, 5, 5, 10, 10, 10, 5, 10, 5, 5, 10, 5, 10, 10, 5, 5, 5, 5, 5, 10, 5, 10, 5, 5, 10, 5, 5, 5, 5, 10, 5, 10, 5, 5, 5, 5, 5, 15, 5, 5, 5, 5, 5, 10, 5, 10, 5, 5, 5, 5, 15, 5, 10, 5, 5, 5, 5, 5, 5, 10, 5, 5, 15, 5, 10, 5, 5, 5, 10, 5, 5, 5, 5, 5, 10, 5, 10, 5, 5, 5, 5, 10, 5, 5, 5, 5, 5, 5, 5, 5, 5, 15, 15, 15, 5, 10, 5, 10, 5, 10, 5, 5, 5, 5, 5, 5, 5, 10, 5, 10, 5, 10, 5, 5, 5, 5, 5, 5, 5, 5, 5, 5, 5, 5, 5, 5, 5, 5, 5, 5, 5, 5, 5, 5, 5, 5, 5, 5, 5, 5, 5, 5, 5, 5, 5, 5, 5, 5, 5, 10, 10, 5, 10, 5, 10, 5, 5, 5, 5, 5, 5, 5, 5, 5, 5, 5, 5, 5, 5, 5, 5, 5, 5, 5, 5, 5, 5, 5, 10, 10, 10, 5, 5, 5, 5, 10, 10, 10, 5, 10, 10, 5, 10, 10, 5, 10, 10, 5, 5, 10, 5, 10, 5, 5, 5, 5, 5, 5, 5, 5, 10, 10, 5, 5, 5, 5, 5, 5, 5, 5, 5, 5, 5, 5, 5, 10, 5, 5, 5, 5, 5, 5, 5, 5, 5, 5, 5, 5, 10, 5, 5, 5, 5, 5, 5, 5, 5, 5, 5, 5, 5, 5, 5, 5, 5, 5, 5, 5, 5, 5, 10, 5, 5, 5, 5, 5, 5, 5, 5, 5, 5, 5, 5, 10, 10, 5, 5, 5, 5, 10, 5, 5, 5, 5, 5, 5, 5, 5, 5, 5, 10, 5, 10, 5, 10, 10, 10, 5, 5, 5, 5, 5, 5, 5, 5, 5, 5, 5, 5, 5, 5, 5, 5, 5, 5, 5, 5, 5, 5, 5, 10, 5, 10, 10, 5, 5, 5, 5, 5, 5, 5, 5, 5, 5, 5, 5, 10, 5, 5, 5, 5, 5, 5, 5, 5, 5, 5, 10, 10, 10, 10, 5, 5, 5, 5, 5, 5, 5, 5, 5, 5, 5, 5, 5, 5, 5, 5, 5, 5, 5, 5, 5, 5, 10, 5, 5, 5, 5, 5, 5, 5, 5, 5, 5, 5, 5, 5, 5, 5, 5, 5, 5, 5] p=0.52"]
S3 -> S1 [label="2 [5, 5, 5, 5, 5, 5, 5, 5, 10, 5, 5, 5, 5, 5, 5, 5, 5, 10, 5, 5, 5, 5, 5, 10, 5, 5, 15, 5, 5, 5, 5, 5, 5, 5, 5, 5, 10, 5, 5, 5, 5, 5, 5, 5, 10, 5, 5, 5, 5, 5, 5, 10, 5, 5, 5, 5, 5, 5, 10, 5, 5, 5, 5, 5, 5, 5, 10, 5, 10, 5, 5, 5, 5, 5, 5, 5, 5, 5, 5, 5, 5, 5, 5, 5, 5, 5, 5, 5, 10, 5, 5, 5, 5, 5, 5, 5, 5, 5, 5, 5, 10, 5, 5, 10, 5, 5, 10, 10, 5, 5, 5, 5, 5, 5, 5, 5, 5, 10, 5, 5, 10, 5, 5, 5, 5, 5, 5, 5, 5, 5, 5, 5, 10, 5, 10, 5, 5, 10, 5, 5, 5, 5, 10, 5, 5, 5, 5, 5, 5, 5, 10, 5, 5, 5, 5, 5, 5, 10, 5, 10, 5, 5, 5, 5, 10, 5, 5, 10, 5, 5, 5, 5, 5, 5, 5, 10, 5, 5, 10, 5, 5, 10, 5, 5, 5, 5, 5, 10, 5, 10, 5, 10, 5, 5, 5, 5, 5, 5, 10, 5, 5, 5, 5, 5, 5, 5, 5, 5, 5, 5, 5, 10, 5, 5, 5, 10, 5, 10, 10, 5, 5, 10, 5, 5, 5, 5, 5, 5, 5, 5, 5, 5, 5, 5, 5, 10, 5, 5, 10, 5, 15, 5, 5, 5, 5, 5, 5, 10, 5, 5, 5, 5, 5, 5, 10, 5, 5, 5, 10, 5, 5, 5, 10, 5, 5, 5, 5, 10, 5, 5, 5, 5, 5, 5, 5, 5, 5, 5, 5, 5, 10, 10, 5, 5, 5, 5, 5, 5, 10, 5, 5, 5, 5, 5, 5, 5, 5, 10, 5, 5, 10, 5, 5, 5, 5, 5, 5, 5, 5, 5, 5, 5, 10, 5, 5, 5, 5, 5, 10, 5, 10, 5, 5, 10, 5, 5, 5, 10, 10, 5, 5, 5, 10, 5, 5, 5, 5, 5, 5, 5, 5, 10, 10, 5, 10, 5, 10, 5, 5, 5, 5, 5, 5, 5, 5, 5, 5, 10, 5, 10, 5, 5, 5, 5, 5, 5, 5, 10, 5, 10, 5, 5, 5, 10, 5, 5, 5, 5, 10, 10, 5, 5, 10, 5, 5, 10, 10, 5, 5, 10, 10, 5, 5, 5, 10, 5, 5, 5, 5, 5, 5, 10, 5, 5, 10, 10, 5, 5, 10, 5, 5, 5, 5, 5, 5, 5, 5, 5, 10, 10, 5, 5, 5, 10, 10, 5, 5, 10, 15, 5, 5, 5, 5, 5, 5, 5, 10, 5, 10, 5, 5, 5, 10, 5, 5, 5, 10, 10, 10, 5, 5, 5, 5, 5, 10, 5, 5, 5, 5, 5, 5, 5, 5, 5, 5, 5, 5, 5, 5, 5, 10, 10, 5, 5, 5, 5, 5, 10, 5, 10, 15, 5, 5, 5, 5, 10, 10, 5, 5, 10, 5, 5, 5, 5, 5, 5, 5, 5, 5, 5, 5, 5, 15, 5, 5, 5, 5, 10, 10, 5, 10, 5, 5, 5, 5, 5, 5, 5, 5, 5, 5, 5, 5, 5, 5, 10, 10, 5, 5, 5, 5, 5, 5, 5, 10, 10, 10, 10, 10, 5, 5, 5, 5, 5, 5, 5, 5, 5, 5, 5, 5, 5, 5, 5, 5, 5, 5, 5, 10, 5, 10, 5, 10, 5, 10, 10, 5, 10, 10, 5, 5, 10, 5, 5, 5, 5, 5, 5, 5, 5, 5, 10, 5, 5, 5, 5, 5, 5, 5, 5, 5, 5, 5, 5, 10, 10, 5, 5, 5, 5, 5, 10, 10, 5, 5, 5, 5, 5, 10, 5, 5, 5, 10, 10, 5, 5, 5, 10, 5, 5, 5, 5, 10, 5, 10, 5, 10, 5, 5, 5, 5, 5, 10, 5, 5, 5, 10, 5, 5, 10, 10, 5, 5, 10, 10, 5, 10, 10, 15, 5, 10, 10, 5, 15, 5, 10, 10, 5, 5, 15, 5, 5, 5, 5, 10, 5, 10, 5, 5, 5, 5, 5, 5, 5, 5, 5, 5, 5, 5, 5, 5, 5, 5, 5, 5, 5, 5, 5, 5, 5, 5, 5, 5, 10, 5, 5, 5, 10, 5, 15, 5, 10, 15, 5, 10, 10, 10, 5, 5, 5, 5, 5, 5, 5, 5, 5, 5, 5, 5, 5, 10, 10, 5, 5, 5, 5, 5, 5, 10, 5, 5, 5, 5, 10, 5, 5, 5, 5, 5, 5, 5, 5, 5, 5, 5, 5, 5, 5, 5, 5, 5, 5, 5, 5, 5, 5, 5, 5, 5, 5, 5, 5, 5, 5, 5, 10, 10, 10, 5, 10, 10, 5, 10, 5, 5, 5, 5, 5, 5, 5, 5, 5, 5, 5, 5, 5, 5, 5, 5, 5, 5, 10, 5, 5, 5, 5, 5, 10, 5, 5, 5, 10, 5, 5, 5, 5, 5, 5, 5, 5, 5, 5, 5, 5, 5, 5, 5, 5, 5, 5, 5, 5, 5, 5, 5, 10, 5, 5, 5, 5, 10, 5, 10, 5, 10, 5, 10, 5, 5, 5, 5, 5, 10, 5, 5, 5, 10, 5, 10, 5, 5, 5, 5, 5, 5, 10, 5, 5, 5, 5, 5, 5, 5, 5, 5, 5, 5, 5, 5, 5, 5, 10, 5, 5, 5, 5, 5, 5, 10, 5, 10, 5, 5, 10, 5, 5, 10, 5, 5, 10, 5, 5, 10, 5, 5, 5, 10, 5, 5, 5, 5, 5, 5, 5, 5, 5, 5, 5, 5, 5, 5, 5, 5, 5, 5, 5, 5, 5, 5, 5, 5, 5, 5, 5, 5, 5, 5, 5, 5, 5, 5, 5, 5, 5, 5, 5, 5, 5, 5, 5, 5, 5, 5, 5, 5, 5, 5, 5, 10, 5, 5, 5, 10, 5, 5, 5, 5, 5, 5, 5, 5, 5, 5, 5, 5, 5, 10, 5, 5, 5, 5, 5, 5, 5, 5, 5, 5, 5, 5, 10, 5, 5, 5, 5, 5, 10, 5, 5, 5, 5, 5, 10, 10, 5, 5, 5, 5, 5, 5, 5, 5, 5, 5, 5, 5, 5, 5, 5, 5, 5, 5, 5, 5, 5, 5, 5, 5, 5, 5, 5, 5, 5, 5, 5, 5, 10, 5, 5, 10, 5, 5, 5, 5, 5, 5, 5, 5, 10, 5, 5, 10, 5, 5, 5, 5, 5, 5, 5, 5, 5, 5, 10, 5, 10, 5, 5, 5, 5, 5, 5, 10, 5, 5, 5, 5, 10, 5, 5, 5, 5, 5, 5, 5, 5, 5, 5, 5, 5, 5, 5, 10, 5, 5, 10, 10, 10, 5, 5, 5, 10, 5, 10, 5, 5, 5, 5, 5, 5, 5, 5, 5, 5, 10, 10, 5, 5, 10, 5, 10, 5, 5, 5, 5, 5, 5, 5, 5, 5, 10, 5, 5, 5, 5, 5, 5, 5, 10, 10, 5, 5, 10, 5, 5, 10, 5, 10, 5, 5, 10, 5, 5, 10, 5, 5, 5, 5, 10, 5, 5, 5, 5, 5, 5, 10, 10, 5, 5, 5, 5, 5, 5, 5, 5, 10, 10, 5, 10, 5, 10, 5, 5, 10, 10, 5, 10, 10, 10, 5, 5, 5, 5, 5, 5, 10, 5, 5, 5, 5, 10, 5, 5, 5, 5, 5, 10, 5, 5, 5, 5, 5, 5, 5, 5, 10, 5, 5, 10, 10, 5, 5, 10, 5, 10, 5, 5, 5, 5, 5, 10, 5, 5, 5, 5, 5, 5, 5, 5, 5, 5, 5, 5, 5, 5, 5, 5, 5, 10, 5, 5, 5, 10, 5, 5, 10, 5, 10, 5, 5, 10, 10, 5, 5, 5, 5, 10, 5, 5, 5, 5, 10, 5, 5, 5, 5, 10, 5, 5, 5, 5, 5, 5, 5, 5, 5, 5, 5, 5, 10, 5, 5, 5, 5, 10, 5, 5, 5, 5, 5, 10, 5, 5, 5, 5, 5, 5, 5, 5, 10, 5, 5, 10, 5, 5, 5, 5, 5, 5, 5, 5, 5, 5, 5, 5, 5, 5, 5, 5, 5, 5, 5, 5, 5, 10, 5, 5, 5, 5, 5, 5, 5, 5, 5, 5, 5, 5, 5, 5, 5, 5, 10, 5, 5, 5, 5, 5, 5, 5, 5, 5, 5, 10, 5, 5, 5, 5, 5, 5, 5, 5, 10, 5, 10, 5, 5, 5, 5, 5, 5, 10, 5, 5, 5, 10, 5, 10, 5, 5, 10, 5, 5, 5, 10, 10, 5, 5, 5, 5, 10, 5, 5, 5, 5, 5, 5, 5, 10, 5, 5, 5, 5, 5, 5, 5, 5, 5, 10, 5, 5, 5, 5, 5, 5, 5, 5, 5, 5, 5, 5, 5, 5, 5, 5, 5, 5, 5, 5, 10, 5, 5, 5, 5, 5, 5, 5, 5, 5, 5, 5, 10, 5, 5, 5, 5, 5, 5, 5, 5, 5, 10, 5, 10, 5, 5, 5, 5, 5, 5, 10, 5, 5, 5, 5, 10, 5, 5, 5, 10, 5, 10, 5, 5, 5, 10, 5, 5, 5, 5, 10, 5, 10, 5, 5, 5, 5, 5, 5, 5, 5, 5, 10, 5, 5, 5, 5, 5, 5, 5, 5, 5, 5, 10, 5, 5, 5, 5, 5, 5, 5, 5, 5, 5, 5, 5, 5, 5, 10, 5, 5, 5, 5, 5, 5, 5, 5, 5, 5, 5, 5, 5, 5, 5, 5, 5, 10, 5, 5, 5, 5, 5, 5, 5, 10, 5, 5, 5, 5, 5, 5, 5, 5, 5, 5, 10, 10, 5, 5, 5, 10, 5, 10, 5, 10, 5, 5, 5, 10, 5, 5, 5, 5, 5, 5, 5, 5, 5, 5, 5, 10, 5, 5, 5, 5, 5, 5, 5, 5, 10, 5, 5, 5, 5, 5, 5, 5, 5, 5, 5, 5, 5, 5, 5, 5, 5, 5, 5, 5, 5, 5, 5, 5, 5, 5, 5, 5, 5, 5, 5, 10, 5, 5, 5, 5, 10, 10, 5, 5, 5, 5, 5, 5, 5, 5, 5, 5, 5, 5, 5, 5, 5, 5, 5, 5, 10, 5, 5, 5, 5, 5, 5, 5, 5, 5, 10, 5, 10, 10, 5, 5, 5, 5, 5, 5, 5, 5, 5, 5, 5, 5, 5, 5, 5, 5, 5, 5, 5, 5, 5, 5, 5, 5, 10, 5, 10, 5, 5, 5, 5, 5, 5, 5, 5, 5, 10, 5, 5, 5, 5, 5, 5, 5, 5, 5, 5, 5, 10, 5, 5, 5, 5, 5, 5, 5, 5, 5, 5, 5, 5, 5, 5, 10, 5, 5, 5, 5, 5, 5, 5, 5, 5, 5, 5, 5, 5, 5, 5, 5, 10, 5, 5, 5, 5, 5, 5, 5, 10, 5, 10, 10, 5, 5, 5, 5, 5, 5, 5, 5, 5, 5, 5, 5, 5, 5, 5, 5, 5, 5, 5, 5, 5, 5, 5, 5, 5, 5, 5, 5, 5, 5, 5, 5, 5, 5, 5, 5, 5, 5, 5, 5, 5, 5, 5, 5, 5, 5, 10, 5, 10, 5, 10, 5, 5, 5, 5, 5, 5, 5, 5, 5, 5, 5, 5, 5, 5, 5, 5, 5, 10, 10, 5, 5, 5, 5, 10, 5, 5, 5, 5, 10, 5, 5, 5, 5, 5, 5, 10, 5, 5, 5, 5, 5, 5, 5, 5, 5, 5, 5, 5, 5, 5, 5, 5, 5, 5, 5, 5, 5, 5, 5, 10, 10, 10, 5, 5, 5, 5, 5, 5, 5, 5, 5, 5, 5, 5, 5, 5, 5, 5, 5, 5, 5, 5, 5, 5, 5, 5, 5, 5, 5, 5, 5, 5, 5, 10, 5, 5, 5, 5, 10, 10, 10, 5, 5, 5, 5, 5, 5, 10, 5, 5, 5, 10, 5, 5, 5, 5, 5, 5, 5, 10, 10, 5, 5, 10, 10, 5, 10, 5, 5, 5, 5, 5, 5, 5, 5, 5, 5, 5, 5, 5, 10, 5, 5, 5, 10, 5, 5, 5, 5, 5, 10, 5, 5, 10, 5, 5, 5, 5, 5, 5, 5, 5, 5, 5, 5, 5, 10, 5, 5, 5, 5, 5, 5, 5, 5, 10, 5, 5, 10, 5, 10, 5, 5, 5, 5, 10, 5, 5, 10, 5, 10, 5, 5, 5, 5, 5, 5, 5, 10, 10, 5, 5, 5, 5, 5, 10, 5, 10, 5, 10, 5, 5, 5, 5, 10, 10, 5, 5, 5, 5, 10, 10, 5, 5, 5, 10, 5, 5, 5, 10, 5, 5, 5, 10, 10, 5, 5, 5, 5, 5, 5, 5, 5, 5, 5, 5, 10, 5, 5, 10, 5, 5, 5, 5, 10, 5, 5, 5, 5, 5, 5, 5, 5, 5, 5, 5, 5, 5, 5, 10, 5, 5, 10, 5, 5, 5, 10, 5, 5, 5, 5, 5, 5, 5, 5, 5, 5, 5, 5, 5, 5, 5, 5, 5, 10, 5, 5, 5, 5, 5, 5, 5, 10, 5, 5, 5, 10, 5, 5, 5, 5, 5, 5, 5, 5, 5, 5, 5, 5, 10, 5, 10, 5, 5, 5, 10, 5, 5, 5, 5, 5, 5, 5, 5, 5, 5, 5, 5, 5, 10, 5, 5, 5, 5, 5, 5, 5, 5, 5, 5, 5, 5, 5, 5, 5, 5, 5, 5, 5, 5, 5, 5, 5, 5, 5, 5, 5, 5, 5, 5, 5, 5, 10, 10, 5, 10, 5, 5, 5, 5, 5, 5, 5, 5, 5, 5, 5, 5, 5, 5, 5, 5, 5, 5, 5, 5, 5, 5, 5, 5, 5, 5, 5, 5, 5, 5, 5, 10, 5, 10, 5, 5, 5, 5, 5, 5, 5, 5, 5, 5, 5, 5, 5, 5, 5, 5, 5, 5, 10, 5, 10, 10, 10, 5, 5, 5, 5, 5, 5, 5, 5, 5, 5, 5, 5, 5, 5, 5, 5, 5, 5, 5, 5, 5, 5, 5, 10, 5, 5, 5, 5, 5, 10, 10, 10, 5, 5, 5, 5, 5, 5, 5, 5, 5, 5, 5, 5, 5, 5, 5, 5] p=0.48"]