,Process,Breakpoints,SSD,Persistence,k,dt,topsis
0,AIT503,"[256.3766, 258.4113, 260.55423362462307, 262.38464999999997, 264.09900000000005, 265.52485, 267.71984999999995, 268.7292, 269.77059999999994, 270.844, 273.43949999999995, 275.2179, 279.15915, 283.0912164233406]",110484.19660268315,0.9198216492389468,15.0,9.249662135093882,1.2165142103957851
1,AIT503,"[258.9263751554933, 265.03762530951803, 283.2934731136549]",1967872.6136119245,0.6658305130977635,4.0,8.631518346583457,0.7541132081340328
2,AIT503,[282.5187827668293],8337452.216362994,3.3333222222431402e-06,2.0,25.41498890318723,1.0
3,AIT503,"[254.26111042691358, 255.59155116299254, 257.2257, 258.9091360277199, 260.70284970008225, 262.53067382985813, 264.1791, 265.5569, 266.7259783431411, 267.71984999999995, 268.7292, 269.77059999999994, 273.43949999999995, 279.1685599752804]",474707.6484093607,0.9217946172715112,15.0,9.119358995533903,1.2193259408927308
4,AIT503,"[254.41176694907216, 256.8232604364487, 262.7363264606158, 264.54773680925524, 267.23915, 270.9115485591078, 282.81656225675937]",459775.2208830432,0.8547302440369744,8.0,6.698716781564019,0.9701238447303527
5,AIT503,"[262.6447257159805, 269.6442316420462, 283.29962043060857]",1178447.703288436,0.6657435237618388,4.0,8.363533168522956,0.730278885836535
6,AIT503,"[255.87377511371108, 262.7366180966272, 282.4454109208049]",2364954.7168707405,0.6660364056993,4.0,8.984499909502746,0.770428653789477
7,AIT503,"[255.81451560071622, 262.7363264606158, 267.23915, 270.97400949707554, 282.8165641269585]",573690.4441976531,0.7982611825597359,6.0,6.979814403953756,0.8805066423048397
8,AIT503,"[254.4094159166941, 256.8232604364487, 259.5271471313359, 262.7018502227616, 264.43648577381475, 267.23915, 270.68571823548535, 274.88431895976464, 282.86450918790445]",263722.1844848088,0.8856007471696381,10.0,6.961505439804905,1.042372968054221
9,AIT503,"[254.41282439807244, 256.8232604364487, 262.74552394507293, 267.24103520409375, 270.95714826125476, 282.81656225675937]",522552.51230220863,0.8312849012199397,7.0,6.760983999054922,0.9291144129564717
10,AIT503,"[254.05345, 255.62355, 257.1456, 258.82785, 260.67035, 262.59295, 264.30719999999997, 265.63705000000004, 266.5983, 267.51155, 268.36064999999996, 269.16175, 270.0109, 270.92415000000005, 271.8854, 272.95885, 274.12845000000004, 275.5223, 277.65315]",33826.302363849994,0.9396621538731356,20.0,13.565847600625327,1.4142135623730951
11,AIT503,"[263.657986818984, 283.3150153187422]",2581651.6055395594,0.49959558588545505,3.0,11.286878770500483,0.6163685323360187
12,AIT503,"[254.41282439807244, 256.9638518001868, 259.54982336137033, 262.7363264606158, 264.67276616742674, 266.7321939193658, 268.1990177230236, 269.69809398855654, 271.3215082993429, 273.3561901378708, 282.86179971510774]",142272.12327395153,0.9045348855169557,12.0,7.6582936062609726,1.1115052962535048
13,AIT503,"[254.41292487050038, 256.82284057799814, 259.46236165810666, 262.7363264606158, 264.4232619781266, 267.23915, 270.70462517830833, 282.81656225675937]",411177.45818224683,0.8721496687299419,9.0,6.751786884587766,1.0073560014529195
14,AIT503,"[254.41282439807244, 256.8232604364487, 259.4687, 262.7363264606158, 264.6713383159986, 267.23915, 269.096098644687, 270.68571823548535, 274.8813463523727, 283.12463839813216]",182071.95561456776,0.8959741913339307,11.0,7.260221874067618,1.0767978041933233
15,AIT503,"[254.5234317473861, 256.84450943376345, 262.7360538441554, 270.68571823548535, 282.47615258409326]",951754.0039068728,0.7983595245961208,6.0,6.908572613000235,0.8851344813710518
16,AIT503,"[254.05345, 255.62355, 257.1456, 258.82785, 260.67035, 262.59295, 264.30719999999997, 266.5983, 267.51155, 268.36064999999996, 270.12510627293744, 272.04565, 273.32735, 277.1907866283484]",1149617.0514579513,0.9221148966661694,15.0,9.239409722808972,1.225831090967661
17,AIT503,"[259.4745451116787, 266.37795080802084, 270.86086515506923, 283.1381942649986]",802556.781693331,0.7478672691215773,5.0,7.401805736245001,0.8184053982010457
18,AIT503,"[254.04226441699134, 255.63165860171446, 257.22463836576156, 258.90795, 260.70217801288914, 262.51279999999997, 264.1791, 265.5569, 266.7265, 267.7194420687585, 268.7292, 269.77059999999994, 270.86190621305553, 272.06165, 273.43949999999995, 275.2275558745274, 279.09485225074377]",388567.6019972281,0.9331192348756367,18.0,11.556177773014005,1.3334432450758773
19,AIT503,"[256.6751792861785, 262.7403221783829, 267.63977696997745, 282.6178832351744]",1147212.013804996,0.7488587350633538,5.0,7.380645113897019,0.8251521157279815
