,Process,Breakpoints,SSD,Persistence,k,dt,topsis
0,FIT504,"[0.30722450667320567, 0.30963034421543456, 0.3136541062267556]",0.08662757287568715,0.601360469398136,4.0,4.91390356230108,0.8416827268624584
1,FIT504,"[0.30206826683827237, 0.30485255178424464, 0.30577567818058893, 0.30653085315671486, 0.3070172253546448, 0.30775028800422355, 0.3079140177699354, 0.3086023521922875, 0.3094324622706084, 0.3106350866714178, 0.3138571454354887]",0.012006241277767993,0.5972355553321207,12.0,6.086572061457157,1.1223532234733995
2,FIT504,[0.3088284018008244],0.9254176448206003,3.3333222222431402e-06,2.0,15.181269828759945,1.0
3,FIT504,"[0.3088284018008244, 0.31383061474541524]",0.30353690045107345,0.4609808337777377,3.0,6.779778429304349,0.7129205595200399
4,FIT504,"[0.30506933955825377, 0.30745255417572315, 0.3091594116561691, 0.3110449931150233, 0.3136300850489526]",0.02207074379735096,0.7012415100093561,6.0,4.429758621881668,1.0078558883108142
5,FIT504,"[0.30564009999999997, 0.30621655000000003, 0.3065399827521128, 0.3066915280090572, 0.30717312699263927, 0.3081062, 0.30855455, 0.30903335500974205, 0.3095154, 0.30999585, 0.31047616385463134, 0.3108606, 0.3108825910530058, 0.3137121951752034]",0.006658307789238702,0.6226826876924214,15.0,8.116601487944623,1.3137953233353392
6,FIT504,"[0.30564005, 0.30733754999999996, 0.30887485000000003, 0.30983565, 0.31095665, 0.3135547586526135]",0.01582279405662573,0.6485067463478276,7.0,4.281777754463036,0.967242631033159
7,FIT504,"[0.30227608920964305, 0.3060485503371949, 0.3066803742942329, 0.3077194458724582, 0.309585469685745, 0.3106555160499836]",0.02337143114827534,0.7123464025327322,7.0,4.402606291644254,1.0480804890683801
8,FIT504,"[0.30607319321595744, 0.30796329615930956, 0.3089905613678707, 0.31047492686536216, 0.31064518400729463, 0.311173594872206, 0.31284784047647435]",0.025698680203758175,0.7307700579537286,8.0,4.662911581179896,1.1015658109399806
9,FIT504,"[0.3022469987820724, 0.304477098540516, 0.3050523897018045, 0.3063787462744515, 0.3066916509434192, 0.30743989138808303, 0.3083915974558456, 0.3085648946914479, 0.3092839728385931, 0.3107742016333245, 0.31121612092549683]",0.014321463205851592,0.69373065368011,12.0,6.136780797807157,1.2218769305698767
10,FIT504,"[0.3060767637662133, 0.30755781509702745, 0.30963034421543456, 0.3136541062267556]",0.029330346066151772,0.6658482325677313,5.0,4.580489534077208,0.9402524432805949
11,FIT504,"[0.3074365641277516, 0.30887485000000003, 0.31362443989125505]",0.09431970630487652,0.6027899385950899,4.0,4.915252845770689,0.8445002245632488
