,Process,Breakpoints,SSD,Persistence,k,dt,topsis
0,FIT601,[0.7169515940321433],6430.357507504162,3.3333222222431402e-06,2.0,21.47789678125393,1
1,FIT601,"[0.02129640861149429, 0.23777994062395086, 0.6710750006290112, 1.2375519250881282, 1.5340528815420218, 1.719357892618116, 1.745815738224935]",27.781950487596266,0.5688665032495943,8.0,12.896704539076259,1.277375657781861
2,FIT601,"[0.23734649598587437, 0.6710750006290112, 1.2375519250881282, 1.5340528815420218, 1.7458718502150852]",36.85525634411928,0.5070013011143641,6.0,9.048554257498436,0.9727336874259017
3,FIT601,"[3.6937546550012695e-05, 0.02129640861149429, 0.6710750006290112, 1.5340528815420218, 1.7458901783738183]",85.91913448930657,0.7123634109182162,6.0,9.307054669509617,1.1979565921999789
4,FIT601,"[7.51894596080945e-05, 0.02129640861149429, 1.7458894865323387]",1707.1855781601273,0.6545106433689716,4.0,7.822961313353722,1.008030281005613
5,FIT601,"[3.7688249155169704e-05, 1.7457078153194558]",6393.4560142627115,0.49530372110077536,3.0,15.751547499004115,1.2227680635296625
6,FIT601,"[0.00012709178682683653, 0.6710750006290112, 1.5340528815420218, 1.745891072785727]",133.6638911595516,0.6720808040944797,5.0,7.7185640128775574,1.0639474054908622
7,FIT601,"[0.3497859829132547, 1.2264745855569232, 1.745891750416408]",97.04434499839654,0.5678758809083393,4.0,7.47354817590711,0.8606500861497366
8,FIT601,"[0.0018611649147908527, 1.7458937793865688]",2049.123687587412,0.49013972291465624,3.0,8.801779338851484,0.7722650996845173
9,FIT601,"[8.442459238461814e-05, 1.7458899827280232]",6169.588804561673,0.49337824636612604,3.0,15.269969069736108,1.1929547179997213
10,FIT601,"[0.23729297014538753, 0.6710750006290112, 1.2375519250881282, 1.5340528815420218, 1.719357892618116, 1.7458718502150852]",34.584527512989375,0.5305680745971881,7.0,10.65663780910043,1.1153210720952311
11,FIT601,"[0.8039958326528648, 1.745912457928264]",264.6380366517131,0.48398105009376646,3.0,8.617798986922857,0.6974094239273556
12,FIT601,"[3.705877414708607e-05, 0.02129640861149429, 1.5340528815420218, 1.7458878129732047]",423.4790694255604,0.7157450116001816,5.0,7.984189478197992,1.1197408568585898
13,FIT601,"[8.529144429777287e-05, 0.6684241229715606, 1.7093318539259288, 1.7458723620623717]",189.09598641548135,0.6949522102669612,5.0,7.85661756500553,1.0924181103556951
14,FIT601,"[2.255012018522802e-05, 0.33983175005013255, 1.7459144521329402]",500.3422106439892,0.6541282042541454,4.0,7.382454211741643,0.9755991776470939
15,FIT601,"[0.00076479229082431, 1.2375519250881282, 1.7458896421889698]",256.687884028216,0.6266551029730785,4.0,7.35901810027234,0.9375171128780155
16,FIT601,"[0.2794938194913554, 1.7459006993860937]",599.0061359359039,0.48638905750854833,3.0,8.367014867605722,0.7053597609359136
17,FIT601,"[0.07250620921628215, 1.7459030469184829]",1210.025634661498,0.48819208627117616,3.0,8.300798869972187,0.7260156608459225
