,Process,Breakpoints,SSD,Persistence,k,dt,topsis
0,MV201,"[0.8950458129234452, 1.521374983997338]",4358.550920377094,0.49934085354718105,3.0,1.7320508075688772,1.4142135623730951
1,MV201,[0.958954786288823],60190.13534666667,3.3333222222431402e-06,2.0,1.7320508075688772,1.0
