S0 -> S1 [label="2 [0, 0, 0, 0, 0, 0, 0, 0, 0, 0, 0, 0, 0, 0, 0, 0, 0, 0, 0, 0, 0, 0, 0, 0, 0, 0, 0, 0, 0, 0, 0, 0, 0, 0, 0, 0, 0, 0, 0, 0, 0, 0, 0, 0, 0, 0, 0, 0, 0, 0, 0, 0, 0, 0, 0, 0, 0, 0, 0, 0, 0, 0, 0, 0, 0, 0, 0, 0, 0, 0, 0, 0, 0, 0, 0, 0, 0, 0, 0, 0, 0, 0, 0, 0, 0, 0, 0, 0, 0, 0, 0, 0, 0, 0, 0, 0, 0, 0, 0, 0, 0, 0, 0, 0, 0, 0, 0, 0, 0, 0, 0, 0, 0, 0, 0, 0, 0, 0, 0, 0, 0, 0, 0, 0, 0, 0, 0, 0, 0, 0, 0, 0, 0, 0, 0, 0, 0, 0, 0, 0, 0, 0, 0, 0, 0, 0, 0, 0, 0, 0, 0, 0, 0, 0, 0, 0, 0, 0, 0, 0, 0, 0, 0, 0, 0, 0, 0, 0, 0, 0, 0, 0, 0, 0, 0, 0, 0, 0, 0, 0, 0, 0, 0, 0, 0, 0, 0, 0, 0, 0, 0, 0, 0, 0, 0, 0, 0, 0, 0, 0, 0, 0, 0, 0, 0, 0, 0, 0, 0, 0, 0, 0, 0, 0, 0, 0, 0, 0, 0, 0, 0, 0, 0, 0, 0, 0, 0, 0, 0, 0, 0, 0, 0, 0, 0, 0, 0, 0, 0, 0, 0, 0, 0, 0, 0, 0, 0, 0, 0, 0, 0, 0, 0, 0, 0, 0, 0, 0, 0, 0, 0, 0, 0, 0, 0, 0, 0, 0, 0, 0, 0, 0, 0, 0, 0, 0, 0, 0, 0, 0, 0, 0, 0, 0, 0, 0, 0, 0, 0, 0, 0, 0, 0, 0, 0, 0, 0, 0, 0, 0, 0, 0, 0, 0, 0, 0, 0, 0, 0, 0, 0, 0, 0, 0, 0, 0, 0, 0, 0, 0, 0, 0, 0, 0, 0, 0, 0, 0, 0, 0, 0, 0, 0, 0, 0, 0, 0, 0, 0, 0, 0, 0, 0, 0, 0, 0, 0, 0, 0, 0, 0, 0, 0, 0, 0, 0, 0, 0, 0, 0, 0, 0, 0, 0, 0, 0, 0, 0, 0, 0, 0, 0, 0, 0, 0, 0, 0, 0, 0, 0, 0, 0, 0, 0, 0, 0, 0, 0, 0, 0, 0, 0, 0, 0, 0, 0, 0, 0, 0, 0, 0, 0, 0, 0, 0, 0, 0, 0, 0, 0, 0, 0, 0, 0, 0, 0, 0, 0, 0, 0, 0, 0, 0, 0, 0, 0, 0, 0, 0, 0, 0, 0, 0, 0, 0, 0, 0, 0, 0, 0, 0, 0, 0, 0, 0, 0, 0, 0, 0, 0, 0, 0, 0, 0, 0, 0, 0, 0, 0, 0, 0, 0, 0, 0, 0, 0, 0, 0, 0, 0, 0, 0, 0, 0, 0, 0, 0, 0, 0, 0, 0, 0, 0, 0, 0, 0, 0, 0, 0, 0, 0, 0, 0, 0, 0, 0, 0, 0, 0, 0, 0, 0, 0, 0, 0, 0, 0, 0, 0, 0, 0, 0, 0, 0, 0, 0, 0, 0, 0, 0, 0, 0, 0, 0, 0, 0, 0, 0, 0, 0, 0, 0, 0, 0, 0, 0, 0, 0, 0, 0, 0, 0, 0, 0, 0, 0, 0, 0, 0, 0, 0, 0, 0, 0, 0, 0, 0, 0, 0, 0, 0, 0, 0, 0, 0, 0, 0, 0, 0, 0, 0, 0, 0, 0, 0, 0, 0, 0, 0, 0, 0, 0, 0, 0, 0, 0, 0, 0, 0, 0, 0, 0, 0, 0, 0, 0, 0, 0, 0, 0, 0, 0, 0, 0, 0, 0, 0, 0, 0, 0, 0, 0, 0, 0, 0, 0, 0, 0, 0, 0, 0, 0, 0, 0, 0, 0, 0, 0, 0, 0, 0, 0, 0, 0, 0, 0, 0, 0, 0, 0, 0, 0, 0, 0, 0, 0, 0, 0, 0, 0, 0, 0, 0, 0, 0, 0, 0, 0, 0, 0, 0, 0, 0, 0, 0, 0, 0, 0, 0, 0, 0] p=0.5"]
S0 -> S2 [label="1 [0, 0, 0, 0, 0, 0, 0, 0, 0, 0, 0, 0, 0, 0, 0, 0, 0, 0, 0, 0, 0, 0, 0, 0, 0, 0, 0, 0, 0, 0, 0, 0, 0, 0, 0, 0, 0, 0, 0, 0, 0, 0, 0, 0, 0, 0, 0, 0, 0, 0, 0, 0, 0, 0, 0, 0, 0, 0, 0, 0, 0, 0, 0, 0, 0, 0, 0, 0, 0, 0, 0, 0, 0, 0, 0, 0, 0, 0, 0, 0, 0, 0, 0, 0, 0, 0, 0, 0, 0, 0, 0, 0, 0, 0, 0, 0, 0, 0, 0, 0, 0, 0, 0, 0, 0, 0, 0, 0, 0, 0, 0, 0, 0, 0, 0, 0, 0, 0, 0, 0, 0, 0, 0, 0, 0, 0, 0, 0, 0, 0, 0, 0, 0, 0, 0, 0, 0, 0, 0, 0, 0, 0, 0, 0, 0, 0, 0, 0, 0, 0, 0, 0, 0, 0, 0, 0, 0, 0, 0, 0, 0, 0, 0, 0, 0, 0, 0, 0, 0, 0, 0, 0, 0, 0, 0, 0, 0, 0, 0, 0, 0, 0, 0, 0, 0, 0, 0, 0, 0, 0, 0, 0, 0, 0, 0, 0, 0, 0, 0, 0, 0, 0, 0, 0, 0, 0, 0, 0, 0, 0, 0, 0, 0, 0, 0, 0, 0, 0, 0, 0, 0, 0, 0, 0, 0, 0, 0, 0, 0, 0, 0, 0, 0, 0, 0, 0, 0, 0, 0, 0, 0, 0, 0, 0, 0, 0, 0, 0, 0, 0, 0, 0, 0, 0, 0, 0, 0, 0, 0, 0, 0, 0, 0, 0, 0, 0, 0, 0, 0, 0, 0, 0, 0, 0, 0, 0, 0, 0, 0, 0, 0, 0, 0, 0, 0, 0, 0, 0, 0, 0, 0, 0, 0, 0, 0, 0, 0, 0, 0, 0, 0, 0, 0, 0, 0, 0, 0, 0, 0, 0, 0, 0, 0, 0, 0, 0, 0, 0, 0, 0, 0, 0, 0, 0, 0, 0, 0, 0, 0, 0, 0, 0, 0, 0, 0, 0, 0, 0, 0, 0, 0, 0, 0, 0, 0, 0, 0, 0, 0, 0, 0, 0, 0, 0, 0, 0, 0, 0, 0, 0, 0, 0, 0, 0, 0, 0, 0, 0, 0, 0, 0, 0, 0, 0, 0, 0, 0, 0, 0, 0, 0, 0, 0, 0, 0, 0, 0, 0, 0, 0, 0, 0, 0, 0, 0, 0, 0, 0, 0, 0, 0, 0, 0, 0, 0, 0, 0, 0, 0, 0, 0, 0, 0, 0, 0, 0, 0, 0, 0, 0, 0, 0, 0, 0, 0, 0, 0, 0, 0, 0, 0, 0, 0, 0, 0, 0, 0, 0, 0, 0, 0, 0, 0, 0, 0, 0, 0, 0, 0, 0, 0, 0, 0, 0, 0, 0, 0, 0, 0, 0, 0, 0, 0, 0, 0, 0, 0, 0, 0, 0, 0, 0, 0, 0, 0, 0, 0, 0, 0, 0, 0, 0, 0, 0, 0, 0, 0, 0, 0, 0, 0, 0, 0, 0, 0, 0, 0, 0, 0, 0, 0, 0, 0, 0, 0, 0, 0, 0, 0, 0, 0, 0, 0, 0, 0, 0, 0, 0, 0, 0, 0, 0, 0, 0, 0, 0, 0, 0, 0, 0, 0, 0, 0, 0, 0, 0, 0, 0, 0, 0, 0, 0, 0, 0, 0, 0, 0, 0, 0, 0, 0, 0, 0, 0, 0, 0, 0, 0, 0, 0, 0, 0, 0, 0, 0, 0, 0, 0, 0, 0, 0, 0, 0, 0, 0, 0, 0, 0, 0, 0, 0, 0, 0, 0, 0, 0, 0, 0, 0, 0, 0, 0, 0, 0, 0, 0, 0, 0, 0, 0, 0, 0, 0, 0, 0, 0, 0, 0, 0, 0, 0, 0, 0, 0, 0, 0, 0, 0, 0, 0, 0, 0, 0, 0, 0, 0, 0, 0, 0, 0, 0, 0, 0, 0, 0, 0, 0, 0, 0, 0, 0, 0, 0, 0, 0, 0, 0, 0, 0, 0, 0, 0, 0, 0, 0, 0, 0, 0, 0, 0, 0, 0, 0, 0, 0, 0, 0, 0, 0] p=0.5"]
S0 -> S23 [label="3 [0] p=0.0"]
S0 -> S25 [label="4 [0] p=0.0"]
S1 -> S2 [label="1 [2597, 4, 129, 71, 2727, 442, 3, 16, 3, 3, 2844, 30, 7, 25, 351, 5, 341, 4, 11, 3, 2, 32, 3084, 2, 1936, 14, 387, 7, 3, 4, 327, 2, 11, 5, 3, 203, 2, 3014, 13, 400, 10, 4, 26, 4, 20, 157, 30, 764, 4, 3, 3, 77, 2, 2, 1960, 3, 7, 7, 57, 3, 3, 415, 9, 3, 7, 9, 2, 24, 2, 9, 602, 1, 2, 12, 2, 5, 9, 13, 47, 5, 3, 345, 207, 1651, 2178, 3, 49, 11, 23, 357, 3, 5, 69, 41, 3, 21, 2325, 19, 2, 916, 12, 266, 2831, 5, 2625, 19, 197, 1212, 2381, 1748, 669, 494, 16, 644, 6431, 2252, 1550, 1289, 183, 6, 2, 361, 5, 5, 2511, 6, 41, 2, 642, 426, 670, 1375, 348, 485, 1818, 1006, 8, 11, 665, 481, 4, 5, 4121, 3, 352, 3, 3, 3766, 6, 7, 1311, 71, 3, 41, 11, 1331, 26, 13, 177, 10, 6, 186, 419, 3, 242, 8, 2, 13, 3486, 46, 320, 4183, 2, 25, 3, 32, 3575, 156, 5, 190, 2, 32, 2, 3, 5, 3, 29, 1696, 12, 47, 14, 676, 368, 4, 19, 7, 4, 1939, 172, 2, 124, 73, 9, 4, 5, 929, 33, 197, 450, 2, 481, 24, 1638, 7, 3, 6, 3, 64, 2, 3438, 7, 6, 307, 162, 7, 3, 10, 21, 2, 55, 2158, 65, 59, 876, 994, 169, 20, 2198, 67, 8, 9, 81, 79, 9, 128, 791, 2, 26, 954, 3, 357, 1412, 3, 9, 7, 10, 3, 9, 352, 20, 460, 25, 3, 1813, 679, 62, 155, 1900, 16, 3, 4, 4, 8, 1431, 1, 2, 3, 3, 40, 5, 945, 2, 140, 1383, 1, 2, 4, 7, 12, 2, 90, 65, 38, 620, 3, 528, 8, 53, 20, 908, 53, 3, 2, 30, 4, 97, 92, 2, 63, 16, 3, 4, 12, 3, 6, 48, 8, 53, 9, 18, 2, 3, 2, 40, 280, 62, 2, 2, 5, 6, 4, 35, 63, 4, 4, 28, 42, 2, 4, 54, 3, 13, 2, 93, 6, 18, 19, 117, 4, 5, 3, 130, 2, 14, 2, 18, 13, 154, 57, 3, 8, 7, 6, 1, 32, 3, 1, 232, 205, 56, 8, 252, 3, 376, 6, 5, 653, 73, 222, 993, 5, 18, 29, 224, 3, 182, 19, 100, 6, 5, 85, 164, 18, 5, 2, 53, 1034, 741, 15, 9, 3, 76, 59, 5, 6, 3, 5, 332, 122, 17, 14, 249, 18, 48, 13, 8, 373, 953, 634, 2, 777, 1621, 4, 83, 51, 8, 9, 3, 84, 37, 5, 6, 45, 712, 40, 7, 13, 3, 3, 8, 105, 328, 107, 79, 44, 1430, 2, 64, 241, 19, 634, 3, 5, 7, 2, 1123, 64, 19, 6, 263, 36, 45, 89, 1544, 18, 22, 11, 8, 20, 26, 28, 3, 3, 355, 5, 62, 4, 2, 4, 3, 10, 3, 4, 15, 30, 6, 4, 58, 713, 463, 3, 14, 681, 3, 9, 3, 1191, 2, 497, 233, 3, 665, 2595, 2, 3, 3, 21, 32, 22, 3552, 51, 7, 1362, 795, 1167, 1, 111, 3, 19, 13, 47, 1355, 9, 4, 1726, 213, 1241, 26, 6, 471, 831, 41, 435, 224, 1, 9, 259, 42, 2, 59, 5, 210, 55, 3, 54, 5, 5, 7, 4, 3, 168, 3, 11, 37, 81, 6, 30, 3, 3, 3, 53, 6, 146, 55, 3, 6, 7, 105, 55, 3, 63, 64, 1, 5, 5, 12, 64, 3, 26, 3, 63, 11, 3, 3, 34, 5, 3, 5, 4, 65, 11, 152, 63, 2, 168, 48, 46, 63, 50, 132, 61, 197, 3, 5, 303, 61, 3, 52, 6, 36, 8, 395, 9, 247, 5, 352, 10, 24, 674, 3, 3, 3, 2, 139, 11, 16, 4, 25, 314, 383, 5, 56, 5, 7, 225, 3, 2, 389, 3, 5, 2, 159, 24, 24, 27, 21, 4, 5, 1851, 227, 527, 34, 2, 6, 1585, 65, 22, 5, 252, 3, 27, 72, 147, 94, 19, 4, 6, 3, 236, 4, 129, 71, 2727, 442, 3, 16, 3, 3, 2844, 30, 7, 25, 351, 5, 341, 4, 11, 3, 2, 32, 3084, 2, 1936, 14, 387, 7, 3, 4, 327, 2, 11, 5, 3, 203, 2, 3014, 13, 400, 10, 4, 26, 4, 20, 157, 30, 764, 4, 3, 3, 77, 2, 2, 1960, 3, 7, 7, 57, 3, 3, 415, 9, 3, 7, 9, 2, 24, 2, 9, 602, 1, 2, 12, 2, 5, 9, 13, 47, 5, 3, 345, 207, 1651, 2178, 3, 49, 11, 23, 357, 3, 5, 69, 41, 3, 21, 2325, 19, 2, 916, 12, 266, 2831, 5, 2625, 19, 197, 1212, 2381, 1748, 669, 494, 16, 644, 6431, 2252, 1550, 1289, 183, 6, 2, 361, 5, 5, 2511, 6, 41, 2, 642, 426, 670, 1375, 348, 485, 1818, 1006, 8, 11, 665, 481, 4, 5, 4121, 3, 352, 3, 3, 3766, 6, 7, 1311, 71, 3, 41, 11, 1331, 26, 13, 177, 10, 6, 186, 419, 3, 242, 8, 2, 13, 3486, 46, 320, 4183, 2, 25, 3, 32, 3575, 156, 5, 190, 2, 32, 2, 3, 5, 3, 29, 1696, 12, 47, 14, 676, 368, 4, 19, 7, 4, 1939, 172, 2, 124, 73, 9, 4, 5, 929, 33, 197, 450, 2, 481, 24, 1638, 7, 3, 6, 3, 64, 2, 3438, 7, 6, 307, 162, 7, 3, 10, 21, 2, 55, 2158, 65, 59, 876, 994, 169, 20, 2198, 67, 8, 9, 81, 79, 9, 128, 791, 2, 26, 954, 3, 357, 1412, 3, 9, 7, 10, 3, 9, 352, 20, 460, 25, 3, 1813, 679, 62, 155, 1900, 16, 3, 4, 4, 8, 1431, 1, 2, 3, 3, 40, 5, 945, 2, 140, 1383, 1, 2, 4, 7, 12, 2, 90, 65, 38, 620, 3, 528, 8, 53, 20, 908, 53, 3, 2, 30, 4, 97, 92, 2, 63, 16, 3, 4, 12, 3, 6, 48, 8, 53, 9, 18, 2, 3, 2, 40, 280, 62, 2, 2, 5, 6, 4, 35, 63, 4, 4, 28, 42, 2, 4, 54, 3, 13, 2, 93, 6, 18, 19, 117, 4, 5, 3, 130, 2, 14, 2, 18, 13, 154, 57, 3, 8, 7, 6, 1, 32, 3, 1, 232, 205, 56, 8, 252, 3, 376, 6, 5, 653, 73, 222, 993, 5, 18, 29, 224, 3, 182, 19, 100, 6, 5, 85, 164, 18, 5, 2, 53, 1034, 741, 15, 9, 3, 76, 59, 5, 6, 3, 5, 332, 122, 17, 14, 249, 18, 48, 13, 8, 373, 953, 634, 2, 777, 1621, 4, 83, 51, 8, 9, 3, 84, 37, 5, 6, 45, 712, 40, 7, 13, 3, 3, 8, 105, 328, 107, 79, 44, 1430, 2, 64, 241, 19, 634, 3, 5, 7, 2, 1123, 64, 19, 6, 263, 36, 45, 89, 1544, 18, 22, 11, 8, 20, 26, 28, 3, 3, 355, 5, 62, 4, 2, 4, 3, 10, 3, 4, 15, 30, 6, 4, 58, 713, 463, 3, 14, 681, 3, 9, 3, 1191, 2, 497, 233, 3, 665, 2595, 2, 3, 3, 21, 32, 22, 3552, 51, 7, 1362, 795, 1167, 1, 111, 3, 19, 13, 47, 1355, 9, 4, 1726, 213, 1241, 26, 6, 471, 831, 41, 435, 224, 1, 9, 259, 42, 2, 59, 5, 210, 55, 3, 54, 5, 5, 7, 4, 3, 168, 3, 11, 37, 81, 6, 30, 3, 3, 3, 53, 6, 146, 55, 3, 6, 7, 105, 55, 3, 63, 64, 1, 5, 5, 12, 64, 3, 26, 3, 63, 11, 3, 3, 34, 5, 3, 5, 4, 65, 11, 152, 63, 2, 168, 48, 46, 63, 50, 132, 61, 197, 3, 5, 303, 61, 3, 52, 6, 36, 8, 395, 9, 247, 5, 352, 10, 24, 674, 3, 3, 3, 2, 139, 11, 16, 4, 25, 314, 383, 5, 56, 5, 7, 225, 3, 2, 389, 3, 5, 2, 159, 24, 24, 21, 4, 5, 1851, 227, 527, 34, 2, 6, 1585, 65, 22, 5, 252, 3, 27, 72, 147, 94, 19, 4, 6, 3, 236, 4, 129, 71, 2727, 442, 3, 16, 3, 3, 2844, 30, 7, 25, 351, 5, 341, 4, 11, 3, 2, 32, 3084, 2, 1936, 14, 387, 7, 3, 4, 327, 2, 11, 5, 3, 203, 2, 3014, 13, 400, 10, 4, 26, 4, 20, 157, 30, 764, 4, 3, 3, 77, 2, 2, 1960, 3, 7, 7, 57, 3, 3, 415, 9, 3, 7, 9, 2, 24, 2, 9, 602, 1, 2, 12, 2, 5, 9, 13, 47, 5, 3, 345, 207, 1651, 2178, 3, 49, 11, 23, 357, 3, 5, 69, 41, 3, 21, 2325, 19, 2, 916, 12, 266, 2831, 5, 2625, 19, 197, 1212, 2381, 1748, 669, 494, 16, 644, 6431, 2252, 1550, 1289, 183, 6, 2, 361, 5, 5, 2511, 6, 41, 2, 642, 426, 670, 1375, 348, 485, 1818, 1006, 8, 11, 665, 481, 4, 5, 4121, 3, 352, 3, 3, 3766, 6, 7, 1311, 71, 3, 41, 11, 1331, 26, 13, 177, 10, 6, 186, 419, 3, 242, 8, 2, 13, 3486, 46, 320, 4183, 2, 25, 3, 32, 3575, 156, 5, 190, 2, 32, 2, 3, 5, 3, 29, 1696, 12, 47, 14, 676, 368, 4, 19, 7, 4, 1939, 172, 2, 124, 73, 9, 4, 5, 929, 33, 197, 450, 2, 481, 24, 1638, 7, 3, 6, 3, 64, 2, 3438, 7, 6, 307, 162, 7, 3, 10, 21, 2, 55, 2158, 65, 59, 876, 994, 169, 20, 2198, 67, 8, 9, 81, 79, 9, 128, 791, 2, 26, 954, 3, 357, 1412, 3, 9, 7, 10, 3, 9, 352, 20, 460, 25, 3, 1813, 679, 62, 155, 1900, 16, 3, 4, 4, 8, 1431, 1, 2, 3, 3, 40, 5, 945, 2, 140, 1383, 1, 2, 4, 7, 12, 2, 90, 65, 38, 620, 3, 528, 8, 53, 20, 908, 53, 3, 2, 30, 4, 97, 92, 2, 63, 16, 3, 4, 12, 3, 6, 48, 8, 53, 9, 18, 2, 3, 2, 40, 280, 62, 2, 2, 5, 6, 4, 35, 63, 4, 4, 28, 42, 2, 4, 54, 3, 13, 2, 93, 6, 18, 19, 117, 4, 5, 3, 130, 2, 14, 2, 18, 13, 154, 57, 3, 8, 7, 6, 1, 32, 3, 1, 232, 205, 56, 8, 252, 3, 376, 6, 5, 653, 73, 222, 993, 5, 18, 29, 224, 3, 182, 19, 100, 6, 5, 85, 164, 18, 5, 2, 53, 1034, 741, 15, 9, 3, 76, 59, 5, 6, 3, 5, 332, 122, 17, 14, 249, 18, 48, 13, 8, 373, 953, 634, 2, 777, 1621, 4, 83, 51, 8, 9, 3, 84, 37, 5, 6, 45, 712, 40, 7, 13, 3, 3, 8, 105, 328, 107, 79, 44, 1430, 2, 64, 241, 19, 634, 3, 5, 7, 2, 1123, 64, 19, 6, 263, 36, 45, 89, 1544, 18, 22, 11, 8, 20, 26, 28, 3, 3, 355, 5, 62, 4, 2, 4, 3, 10, 3, 4, 15, 30, 6, 4, 58, 713, 463, 3, 14, 681, 3, 9, 3, 1191, 2, 497, 233, 3, 665, 2595, 2, 3, 3, 21, 32, 22, 3552, 51, 7, 1362, 795, 1167, 1, 111, 3, 19, 13, 47, 1355, 9, 4, 1726, 213, 1241, 26, 6, 471, 831, 41, 435, 224, 1, 9, 259, 42, 2, 59, 5, 210, 55, 3, 54, 5, 5, 7, 4, 3, 168, 3, 11, 37, 81, 6, 30, 3, 3, 3, 53, 6, 146, 55, 3, 6, 7, 105, 55, 3, 63, 64, 1, 5, 5, 12, 64, 3, 26, 3, 63, 11, 3, 3, 34, 5, 3, 5, 4, 65, 11, 152, 63, 2, 168, 48, 46, 63, 50, 132, 61, 197, 3, 5, 303, 61, 3, 52, 6, 36, 8, 395, 9, 247, 5, 352, 10, 24, 674, 3, 3, 3, 2, 139, 11, 16, 4, 25, 314, 383, 5, 56, 5, 7, 225, 3, 2, 389, 3, 5, 2, 159, 24, 24, 21, 4, 5, 1851, 227, 527, 34, 2, 6, 1585, 65, 22, 5, 252, 3, 27, 72, 147, 94, 19, 4, 6, 3, 236, 129, 71, 2727, 442, 3, 16, 3, 3, 2844, 30, 7, 25, 351, 5, 341, 4, 11, 3, 2, 32, 3084, 2, 1936, 14, 387, 7, 3, 4, 327, 2, 11, 5, 3, 203, 2, 3014, 13, 400, 10, 4, 26, 4, 20, 157, 30, 764, 4, 3, 3, 77, 2, 2, 1960, 3, 7, 7, 57, 3, 3, 415, 9, 3, 7, 9, 2, 24, 2, 9, 602, 1, 2, 12, 2, 5, 9, 13, 47, 5, 3, 345, 207, 1651, 2178, 3, 49, 11, 23, 357, 3, 5, 69, 41, 3, 21, 2325, 19, 2, 916, 12, 266, 2831, 5, 2625, 19, 197, 1212, 2381, 1748, 669, 494, 16, 644, 6431, 2252, 1550, 1289, 183, 6, 2, 361, 5, 5, 2511, 6, 41, 2, 642, 426, 670, 1375, 348, 485, 1818, 1006, 8, 11, 665, 481, 4, 5, 4121, 3, 352, 3, 3, 3766, 6, 7, 1311, 71, 3, 41, 11, 1331, 26, 13, 177, 10, 6, 186, 419, 3, 242, 8, 2, 13, 3486, 46, 320, 4183, 2, 25, 3, 32, 3575, 156, 5, 190, 2, 32, 2, 3, 5, 3, 29, 1696, 12, 47, 14, 676, 368, 4, 19, 7, 4, 1939, 172, 2, 124, 73, 9, 4, 5, 929, 33, 197, 450, 2, 481, 24, 1638, 7, 3, 6, 3, 64, 2, 3438, 7, 6, 307, 162, 7, 3, 10, 21, 2, 55, 2158, 65, 59, 876, 994, 169, 20, 2198, 67, 8, 9, 81, 79, 9, 128, 791, 2, 26, 954, 3, 357, 1412, 3, 9, 7, 10, 3, 9, 352, 20, 460, 25, 3, 1813, 679, 62, 155, 1900, 16, 3, 4, 4, 8, 1431, 1, 2, 3, 3, 40, 5, 945, 2, 140, 1383, 1, 2, 4, 7, 12, 2, 90, 65, 38, 620, 3, 528, 8, 53, 20, 908, 53, 3, 2, 30, 4, 97, 92, 2, 63, 16, 3, 4, 12, 3, 6, 48, 8, 53, 9, 18, 2, 3, 2, 40, 280, 62, 2, 2, 5, 6, 4, 35, 63, 4, 4, 28, 42, 2, 4, 54, 3, 13, 2, 93, 6, 18, 19, 117, 4, 5, 3, 130, 2, 14, 2, 18, 13, 154, 57, 3, 8, 7, 6, 1, 32, 3, 1, 232, 205, 56, 8, 252, 3, 376, 6, 5, 653, 73, 222, 993, 5, 18, 29, 224, 3, 182, 19, 100, 6, 5, 85, 164, 18, 5, 2, 53, 1034, 741, 15, 9, 3, 76, 59, 5, 6, 3, 5, 332, 122, 17, 14, 249, 18, 48, 13, 8, 373, 953, 634, 2, 777, 1621, 4, 83, 51, 8, 9, 3, 84, 37, 5, 6, 45, 712, 40, 7, 13, 3, 3, 8, 105, 328, 107, 79, 44, 1430, 2, 64, 241, 19, 634, 3, 5, 7, 2, 1123, 64, 19, 6, 263, 36, 45, 89, 1544, 18, 22, 11, 8, 20, 26, 28, 3, 3, 355, 5, 62, 4, 2, 4, 3, 10, 3, 4, 15, 30, 6, 4, 58, 713, 463, 3, 14, 681, 3, 9, 3, 1191, 2, 497, 233, 3, 665, 2595, 2, 3, 3, 21, 32, 22, 3552, 51, 7, 1362, 795, 1167, 1, 111, 3, 19, 13, 47, 1355, 9, 4, 1726, 213, 1241, 26, 6, 471, 831, 41, 435, 224, 1, 9, 259, 42, 2, 59, 5, 210, 55, 3, 54, 5, 5, 7, 4, 3, 168, 3, 11, 37, 81, 6, 30, 3, 3, 3, 53, 6, 146, 55, 3, 6, 7, 105, 55, 3, 63, 64, 1, 5, 5, 12, 64, 3, 26, 3, 63, 11, 3, 3, 34, 5, 3, 5, 4, 65, 11, 152, 63, 2, 168, 48, 46, 63, 50, 132, 61, 197, 3, 5, 303, 61, 3, 52, 6, 36, 8, 395, 9, 247, 5, 352, 10, 24, 674, 3, 3, 3, 2, 139, 11, 16, 4, 25, 314, 383, 5, 56, 5, 7, 225, 3, 2, 389, 3, 5, 2, 159, 24, 24, 4, 5, 1851, 227, 527, 34, 2, 6, 1585, 65, 22, 5, 252, 3, 27, 72, 147, 94, 19, 4, 6, 3, 236, 129, 71, 2727, 442, 3, 16, 3, 3, 2844, 30, 7, 25, 351, 5, 341, 4, 11, 3, 2, 32, 3084, 2, 1936, 14, 387, 7, 3, 4, 327, 2, 11, 5, 3, 203, 2, 3014, 13, 400, 10, 4, 26, 4, 20, 157, 30, 764, 4, 3, 3, 77, 2, 2, 1960, 3, 7, 7, 57, 3, 3, 415, 9, 3, 7, 9, 2, 24, 2, 9, 602, 1, 2, 12, 2, 5, 9, 13, 47, 5, 3, 345, 207, 1651, 2178, 3, 49, 11, 23, 357, 3, 5, 69, 41, 3, 21, 2325, 19, 2, 916, 12, 266, 2831, 5, 2625, 19, 197, 1212, 2381, 1748, 669, 494, 16, 644, 6431, 2252, 1550, 1289, 183, 6, 2, 361, 5, 5, 2511, 6, 41, 2, 642, 426, 670, 1375, 348, 485, 1818, 1006, 8, 11, 665, 481, 4, 5, 4121, 3, 352, 3, 3, 3766, 6, 7, 1311, 71, 3, 41, 11, 1331, 26, 13, 177, 10, 6, 186, 419, 3, 242, 8, 2, 13, 3486, 46, 320, 4183, 2, 25, 3, 32, 3575, 156, 5, 190, 2, 32, 2, 3, 5, 3, 29, 1696, 12, 47, 14, 676, 368, 4, 19, 7, 4, 1939, 172, 2, 124, 73, 9, 4, 5, 929, 33, 197, 450, 2, 481, 24, 1638, 7, 3, 6, 3, 64, 2, 3438, 7, 6, 307, 162, 7, 3, 10, 21, 2, 55, 2158, 65, 59, 876, 994, 169, 20, 2198, 67, 8, 9, 81, 79, 9, 128, 791, 2, 26, 954, 3, 357, 1412, 3, 9, 7, 10, 3, 9, 352, 20, 460, 25, 3, 1813, 679, 62, 155, 1900, 16, 3, 4, 4, 8, 1431, 1, 2, 3, 3, 40, 5, 945, 2, 140, 1383, 1, 2, 4, 7, 12, 2, 90, 65, 38, 620, 3, 528, 8, 53, 20, 908, 53, 3, 2, 30, 4, 97, 92, 2, 63, 16, 3, 4, 12, 3, 6, 48, 8, 53, 9, 18, 2, 3, 2, 40, 280, 62, 2, 2, 5, 6, 4, 35, 63, 4, 4, 28, 42, 2, 4, 54, 3, 13, 2, 93, 6, 18, 19, 117, 4, 5, 3, 130, 2, 14, 2, 18, 13, 154, 57, 3, 8, 7, 6, 1, 32, 3, 1, 232, 205, 56, 8, 252, 3, 376, 6, 5, 653, 73, 222, 993, 5, 18, 29, 224, 3, 182, 19, 100, 6, 5, 85, 164, 18, 5, 2, 53, 1034, 741, 15, 9, 3, 76, 59, 5, 6, 3, 5, 332, 122, 17, 14, 249, 18, 48, 13, 8, 373, 953, 634, 2, 777, 1621, 4, 83, 51, 8, 9, 3, 84, 37, 5, 6, 45, 712, 40, 7, 13, 3, 3, 8, 105, 328, 107, 79, 44, 1430, 2, 64, 241, 19, 634, 3, 5, 7, 2, 1123, 64, 19, 6, 263, 36, 45, 89, 1544, 18, 22, 11, 8, 20, 26, 28, 3, 3, 355, 5, 62, 4, 2, 4, 3, 10, 3, 4, 15, 30, 6, 4, 58, 713, 463, 3, 14, 681, 3, 9, 3, 1191, 2, 497, 233, 3, 665, 2595, 2, 3, 3, 21, 32, 22, 3552, 51, 7, 1362, 795, 1167, 1, 111, 3, 19, 13, 47, 1355, 9, 4, 1726, 213, 1241, 26, 6, 471, 831, 41, 435, 224, 1, 9, 259, 42, 2, 59, 5, 210, 55, 3, 54, 5, 5, 7, 4, 3, 168, 3, 11, 37, 81, 6, 30, 3, 3, 3, 53, 6, 146, 55, 3, 6, 7, 105, 55, 3, 63, 64, 1, 5, 5, 12, 64, 3, 26, 3, 63, 11, 3, 3, 34, 5, 3, 5, 4, 65, 11, 152, 63, 2, 168, 48, 46, 63, 50, 132, 61, 197, 3, 5, 303, 61, 3, 52, 6, 36, 8, 395, 9, 247, 5, 352, 10, 24, 674, 3, 3, 3, 2, 139, 11, 16, 4, 25, 314, 383, 5, 56, 5, 7, 225, 3, 2, 389, 3, 5, 2, 159, 24, 24, 4, 5, 1851, 227, 527, 34, 2, 6, 1585, 65, 22, 5, 252, 3, 27, 72, 147, 94, 19, 4, 6, 3, 236, 71, 2727, 442, 3, 16, 3, 3, 2844, 30, 7, 25, 351, 5, 341, 4, 11, 3, 2, 32, 3084, 2, 1936, 14, 387, 7, 3, 4, 327, 2, 11, 5, 3, 203, 2, 3014, 13, 400, 10, 4, 26, 4, 20, 157, 30, 764, 4, 3, 3, 77, 2, 2, 1960, 3, 7, 7, 57, 3, 3, 415, 9, 3, 7, 9, 2, 24, 2, 9, 602, 1, 2, 12, 2, 5, 9, 13, 47, 5, 3, 345, 207, 1651, 2178, 3, 49, 11, 23, 357, 3, 5, 69, 41, 3, 21, 2325, 19, 2, 916, 12, 266, 2831, 5, 2625, 19, 197, 1212, 2381, 1748, 669, 494, 16, 644, 6431, 2252, 1550, 1289, 183, 6, 2, 361, 5, 5, 2511, 6, 41, 2, 642, 426, 670, 1375, 348, 485, 1818, 1006, 8, 11, 665, 481, 4, 5, 4121, 3, 352, 3, 3, 3766, 6, 7, 1311, 71, 3, 41, 11, 1331, 26, 13, 177, 10, 6, 186, 419, 3, 242, 8, 2, 13, 3486, 46, 320, 4183, 2, 25, 3, 32, 3575, 156, 5, 190, 2, 32, 2, 3, 5, 3, 29, 1696, 12, 47, 14, 676, 368, 4, 19, 7, 4, 1939, 172, 2, 124, 73, 9, 4, 5, 929, 33, 197, 450, 2, 481, 24, 1638, 7, 3, 6, 3, 64, 2, 3438, 7, 6, 307, 162, 7, 3, 10, 21, 2, 55, 2158, 65, 59, 876, 994, 169, 20, 2198, 67, 8, 9, 81, 79, 9, 128, 791, 2, 26, 954, 3, 357, 1412, 3, 9, 7, 10, 3, 9, 352, 20, 460, 25, 3, 1813, 679, 62, 155, 1900, 16, 3, 4, 4, 8, 1431, 1, 2, 3, 3, 40, 5, 945, 2, 140, 1383, 1, 2, 4, 7, 12, 2, 90, 65, 38, 620, 3, 528, 8, 53, 20, 908, 53, 3, 2, 30, 4, 97, 92, 2, 63, 16, 3, 4, 12, 3, 6, 48, 8, 53, 9, 18, 2, 3, 2, 40, 280, 62, 2, 2, 5, 6, 4, 35, 63, 4, 4, 28, 42, 2, 4, 54, 3, 13, 2, 93, 6, 18, 19, 117, 4, 5, 3, 130, 2, 14, 2, 18, 13, 154, 57, 3, 8, 7, 6, 1, 32, 3, 1, 232, 205, 56, 8, 252, 3, 376, 6, 5, 653, 73, 222, 993, 5, 18, 29, 224, 3, 182, 19, 100, 6, 5, 85, 164, 18, 5, 2, 53, 1034, 741, 15, 9, 3, 76, 59, 5, 6, 3, 5, 332, 122, 17, 14, 249, 18, 48, 13, 8, 373, 953, 634, 2, 777, 1621, 4, 83, 51, 8, 9, 3, 84, 37, 5, 6, 45, 712, 40, 7, 13, 3, 3, 8, 105, 328, 107, 79, 44, 1430, 2, 64, 241, 19, 634, 3, 5, 7, 2, 1123, 64, 19, 6, 263, 36, 45, 89, 1544, 18, 22, 11, 8, 20, 26, 28, 3, 3, 355, 5, 62, 4, 2, 4, 3, 10, 3, 4, 15, 30, 6, 4, 58, 713, 463, 3, 14, 681, 3, 9, 3, 1191, 2, 497, 233, 3, 665, 2595, 2, 3, 3, 21, 32, 22, 3552, 51, 7, 1362, 795, 1167, 1, 111, 3, 19, 13, 47, 1355, 9, 4, 1726, 213, 1241, 26, 6, 471, 831, 41, 435, 224, 1, 9, 259, 42, 2, 59, 5, 210, 55, 3, 54, 5, 5, 7, 4, 3, 168, 3, 11, 37, 81, 6, 30, 3, 3, 3, 53, 6, 146, 55, 3, 6, 7, 105, 55, 3, 63, 64, 1, 5, 5, 12, 64, 3, 26, 3, 63, 11, 3, 3, 34, 5, 3, 5, 4, 65, 11, 152, 63, 2, 168, 48, 46, 63, 50, 132, 61, 197, 3, 5, 303, 61, 3, 52, 6, 36, 8, 395, 9, 247, 5, 352, 10, 24, 674, 3, 3, 3, 2, 139, 11, 16, 4, 25, 314, 383, 5, 56, 5, 7, 225, 3, 2, 389, 3, 5, 2, 159, 24, 24, 5, 1851, 227, 527, 34, 2, 6, 1585, 65, 22, 5, 252, 3, 27, 72, 147, 94, 19, 4, 6, 3, 236, 71, 2727, 442, 3, 16, 3, 3, 2844, 30, 7, 25, 351, 5, 341, 4, 11, 3, 2, 32, 3084, 2, 1936, 14, 387, 7, 3, 4, 327, 2, 11, 5, 3, 203, 2, 3014, 13, 400, 10, 4, 26, 4, 20, 157, 30, 764, 4, 3, 3, 77, 2, 2, 1960, 3, 7, 7, 57, 3, 3, 415, 9, 3, 7, 9, 2, 24, 2, 9, 602, 1, 2, 12, 2, 5, 9, 13, 47, 5, 3, 345, 207, 1651, 2178, 3, 49, 11, 23, 357, 3, 5, 69, 41, 3, 21, 2325, 19, 2, 916, 12, 266, 2831, 5, 2625, 19, 197, 1212, 2381, 1748, 669, 494, 16, 644, 6431, 2252, 1550, 1289, 183, 6, 2, 361, 5, 5, 2511, 6, 41, 2, 642, 426, 670, 1375, 348, 485, 1818, 1006, 8, 11, 665, 481, 4, 5, 4121, 3, 352, 3, 3, 3766, 6, 7, 1311, 71, 3, 41, 11, 1331, 26, 13, 177, 10, 6, 186, 419, 3, 242, 8, 2, 13, 3486, 46, 320, 4183, 2, 25, 3, 32, 3575, 156, 5, 190, 2, 32, 2, 3, 5, 3, 29, 1696, 12, 47, 14, 676, 368, 4, 19, 7, 4, 1939, 172, 2, 124, 73, 9, 4, 5, 929, 33, 197, 450, 2, 481, 24, 1638, 7, 3, 6, 3, 64, 2, 3438, 7, 6, 307, 162, 7, 3, 10, 21, 2, 55, 2158, 65, 59, 876, 994, 169, 20, 2198, 67, 8, 9, 81, 79, 9, 128, 791, 2, 26, 954, 3, 357, 1412, 3, 9, 7, 10, 3, 9, 352, 20, 460, 25, 3, 1813, 679, 62, 155, 1900, 16, 3, 4, 4, 8, 1431, 1, 2, 3, 3, 40, 5, 945, 2, 140, 1383, 1, 2, 4, 7, 12, 2, 90, 65, 38, 620, 3, 528, 8, 53, 20, 908, 53, 3, 2, 30, 4, 97, 92, 2, 63, 16, 3, 4, 12, 3, 6, 48, 8, 53, 9, 18, 2, 3, 2, 40, 280, 62, 2, 2, 5, 6, 4, 35, 63, 4, 4, 28, 42, 2, 4, 54, 3, 13, 2, 93, 6, 18, 19, 117, 4, 5, 3, 130, 2, 14, 2, 18, 13, 154, 57, 3, 8, 7, 6, 1, 32, 3, 1, 232, 205, 56, 8, 252, 3, 376, 6, 5, 653, 73, 222, 993, 5, 18, 29, 224, 3, 182, 19, 100, 6, 5, 85, 164, 18, 5, 2, 53, 1034, 741, 15, 9, 3, 76, 59, 5, 6, 3, 5, 332, 122, 17, 14, 249, 18, 48, 13, 8, 373, 953, 634, 2, 777, 1621, 4, 83, 51, 8, 9, 3, 84, 37, 5, 6, 45, 712, 40, 7, 13, 3, 3, 8, 105, 328, 107, 79, 44, 1430, 2, 64, 241, 19, 634, 3, 5, 7, 2, 1123, 64, 19, 6, 263, 36, 45, 89, 1544, 18, 22, 11, 8, 20, 26, 28, 3, 3, 355, 5, 62, 4, 2, 4, 3, 10, 3, 4, 15, 30, 6, 4, 58, 713, 463, 3, 14, 681, 3, 9, 3, 1191, 2, 497, 233, 3, 665, 2595, 2, 3, 3, 21, 32, 22, 3552, 51, 7, 1362, 795, 1167, 1, 111, 3, 19, 13, 47, 1355, 9, 4, 1726, 213, 1241, 26, 6, 471, 831, 41, 435, 224, 1, 9, 259, 42, 2, 59, 5, 210, 55, 3, 54, 5, 5, 7, 4, 3, 168, 3, 11, 37, 81, 6, 30, 3, 3, 3, 53, 6, 146, 55, 3, 6, 7, 105, 55, 3, 63, 64, 1, 5, 5, 12, 64, 3, 26, 3, 63, 11, 3, 3, 34, 5, 3, 5, 4, 65, 11, 152, 63, 2, 168, 48, 46, 63, 50, 132, 61, 197, 3, 5, 303, 61, 3, 52, 6, 36, 8, 395, 9, 247, 5, 352, 10, 24, 674, 3, 3, 3, 2, 139, 11, 16, 4, 25, 314, 383, 5, 56, 5, 7, 225, 3, 2, 389, 3, 5, 2, 159, 24, 24, 5, 1851, 227, 527, 34, 2, 6, 1585, 65, 22, 5, 252, 3, 27, 72, 147, 94, 19, 4, 6, 3, 236, 2727, 442, 3, 16, 3, 3, 2844, 30, 7, 25, 351, 5, 341, 4, 11, 3, 2, 32, 3084, 2, 1936, 14, 387, 7, 3, 4, 327, 2, 11, 5, 3, 203, 2, 3014, 13, 400, 10, 4, 26, 4, 20, 157, 30, 764, 4, 3, 3, 77, 2, 2, 1960, 3, 7, 7, 57, 3, 3, 415, 9, 3, 7, 9, 2, 24, 2, 9, 602, 1, 2, 12, 2, 5, 9, 13, 47, 5, 3, 345, 207, 1651, 2178, 3, 49, 11, 23, 357, 3, 5, 69, 41, 3, 21, 2325, 19, 2, 916, 12, 266, 2831, 5, 2625, 19, 197, 1212, 2381, 1748, 669, 494, 16, 644, 6431, 2252, 1550, 1289, 183, 6, 2, 361, 5, 5, 2511, 6, 41, 2, 642, 426, 670, 1375, 348, 485, 1818, 1006, 8, 11, 665, 481, 4, 5, 4121, 3, 352, 3, 3, 3766, 6, 7, 1311, 71, 3, 41, 11, 1331, 26, 13, 177, 10, 6, 186, 419, 3, 242, 8, 2, 13, 3486, 46, 320, 4183, 2, 25, 3, 32, 3575, 156, 5, 190, 2, 32, 2, 3, 5, 3, 29, 1696, 12, 47, 14, 676, 368, 4, 19, 7, 4, 1939, 172, 2, 124, 73, 9, 4, 5, 929, 33, 197, 450, 2, 481, 24, 1638, 7, 3, 6, 3, 64, 2, 3438, 7, 6, 307, 162, 7, 3, 10, 21, 2, 55, 2158, 65, 59, 876, 994, 169, 20, 2198, 67, 8, 9, 81, 79, 9, 128, 791, 2, 26, 954, 3, 357, 1412, 3, 9, 7, 10, 3, 9, 352, 20, 460, 25, 3, 1813, 679, 62, 155, 1900, 16, 3, 4, 4, 8, 1431, 1, 2, 3, 3, 40, 5, 945, 2, 140, 1383, 1, 2, 4, 7, 12, 2, 90, 65, 38, 620, 3, 528, 8, 53, 20, 908, 53, 3, 2, 30, 4, 97, 92, 2, 63, 16, 3, 4, 12, 3, 6, 48, 8, 53, 9, 18, 2, 3, 2, 40, 280, 62, 2, 2, 5, 6, 4, 35, 63, 4, 4, 28, 42, 2, 4, 54, 3, 13, 2, 93, 6, 18, 19, 117, 4, 5, 3, 130, 2, 14, 2, 18, 13, 154, 57, 3, 8, 7, 6, 1, 32, 3, 1, 232, 205, 56, 8, 252, 3, 376, 6, 5, 653, 73, 222, 993, 5, 18, 29, 224, 3, 182, 19, 100, 6, 5, 85, 164, 18, 5, 2, 53, 1034, 741, 15, 9, 3, 76, 59, 5, 6, 3, 5, 332, 122, 17, 14, 249, 18, 48, 13, 8, 373, 953, 634, 2, 777, 1621, 4, 83, 51, 8, 9, 3, 84, 37, 5, 6, 45, 712, 40, 7, 13, 3, 3, 8, 105, 328, 107, 79, 44, 1430, 2, 64, 241, 19, 634, 3, 5, 7, 2, 1123, 64, 19, 6, 263, 36, 45, 89, 1544, 18, 22, 11, 8, 20, 26, 28, 3, 3, 355, 5, 62, 4, 2, 4, 3, 10, 3, 4, 15, 30, 6, 4, 58, 713, 463, 3, 14, 681, 3, 9, 3, 1191, 2, 497, 233, 3, 665, 2595, 2, 3, 3, 21, 32, 22, 3552, 51, 7, 1362, 795, 1167, 1, 111, 3, 19, 13, 47, 1355, 9, 4, 1726, 213, 1241, 26, 6, 471, 831, 41, 435, 224, 1, 9, 259, 42, 2, 59, 5, 210, 55, 3, 54, 5, 5, 7, 4, 3, 168, 3, 11, 37, 81, 6, 30, 3, 3, 3, 53, 6, 146, 55, 3, 6, 7, 105, 55, 3, 63, 64, 1, 5, 5, 12, 64, 3, 26, 3, 63, 11, 3, 3, 34, 5, 3, 5, 4, 65, 11, 152, 63, 2, 168, 48, 46, 63, 50, 132, 61, 197, 3, 5, 303, 61, 3, 52, 6, 36, 8, 395, 9, 247, 5, 352, 10, 24, 674, 3, 3, 3, 2, 139, 11, 16, 4, 25, 314, 383, 5, 56, 5, 7, 225, 3, 2, 389, 3, 5, 2, 159, 24, 24, 1851, 227, 527, 34, 2, 6, 1585, 65, 22, 5, 252, 3, 27, 72, 147, 94, 19, 4, 6, 3, 236, 2727, 442, 3, 16, 3, 3, 2844, 30, 7, 25, 351, 5, 341, 4, 11, 3, 2, 32, 3084, 2, 1936, 14, 387, 7, 3, 4, 327, 2, 11, 5, 3, 203, 2, 3014, 13, 400, 10, 4, 26, 4, 20, 157, 30, 764, 4, 3, 3, 77, 2, 2, 1960, 3, 7, 7, 57, 3, 3, 415, 9, 3, 7, 9, 2, 24, 2, 9, 602, 1, 2, 12, 2, 5, 9, 13, 47, 5, 3, 345, 207, 1651, 2178, 3, 49, 11, 23, 357, 3, 5, 69, 41, 3, 21, 2325, 19, 2, 916, 12, 266, 2831, 5, 2625, 19, 197, 1212, 2381, 1748, 669, 494, 16, 644, 6431, 2252, 1550, 1289, 183, 6, 2, 361, 5, 5, 2511, 6, 41, 2, 642, 426, 670, 1375, 348, 485, 1818, 1006, 8, 11, 665, 481, 4, 5, 4121, 3, 352, 3, 3, 3766, 6, 7, 1311, 71, 3, 41, 11, 1331, 26, 13, 177, 10, 6, 186, 419, 3, 242, 8, 2, 13, 3486, 46, 320, 4183, 2, 25, 3, 32, 3575, 156, 5, 190, 2, 32, 2, 3, 5, 3, 29, 1696, 12, 47, 14, 676, 368, 4, 19, 7, 4, 1939, 172, 2, 124, 73, 9, 4, 5, 929, 33, 197, 450, 2, 481, 24, 1638, 7, 3, 6, 3, 64, 2, 3438, 7, 6, 307, 162, 7, 3, 10, 21, 2, 55, 2158, 65, 59, 876, 994, 169, 20, 2198, 67, 8, 9, 81, 79, 9, 128, 791, 2, 26, 954, 3, 357, 1412, 3, 9, 7, 10, 3, 9, 352, 20, 460, 25, 3, 1813, 679, 62, 155, 1900, 16, 3, 4, 4, 8, 1431, 1, 2, 3, 3, 40, 5, 945, 2, 140, 1383, 1, 2, 4, 7, 12, 2, 90, 65, 38, 620, 3, 528, 8, 53, 20, 908, 53, 3, 2, 30, 4, 97, 92, 2, 63, 16, 3, 4, 12, 3, 6, 48, 8, 53, 9, 18, 2, 3, 2, 40, 280, 62, 2, 2, 5, 6, 4, 35, 63, 4, 4, 28, 42, 2, 4, 54, 3, 13, 2, 93, 6, 18, 19, 117, 4, 5, 3, 130, 2, 14, 2, 18, 13, 154, 57, 3, 8, 7, 6, 1, 32, 3, 1, 232, 205, 56, 8, 252, 3, 376, 6, 5, 653, 73, 222, 993, 5, 18, 29, 224, 3, 182, 19, 100, 6, 5, 85, 164, 18, 5, 2, 53, 1034, 741, 15, 9, 3, 76, 59, 5, 6, 3, 5, 332, 122, 17, 14, 249, 18, 48, 13, 8, 373, 953, 634, 2, 777, 1621, 4, 83, 51, 8, 9, 3, 84, 37, 5, 6, 45, 712, 40, 7, 13, 3, 3, 8, 105, 328, 107, 79, 44, 1430, 2, 64, 241, 19, 634, 3, 5, 7, 2, 1123, 64, 19, 6, 263, 36, 45, 89, 1544, 18, 22, 11, 8, 20, 26, 28, 3, 3, 355, 5, 62, 4, 2, 4, 3, 10, 3, 4, 15, 30, 6, 4, 58, 713, 463, 3, 14, 681, 3, 9, 3, 1191, 2, 497, 233, 3, 665, 2595, 2, 3, 3, 21, 32, 22, 3552, 51, 7, 1362, 795, 1167, 1, 111, 3, 19, 13, 47, 1355, 9, 4, 1726, 213, 1241, 26, 6, 471, 831, 41, 435, 224, 1, 9, 259, 42, 2, 59, 5, 210, 55, 3, 54, 5, 5, 7, 4, 3, 168, 3, 11, 37, 81, 6, 30, 3, 3, 3, 53, 6, 146, 55, 3, 6, 7, 105, 55, 3, 63, 64, 1, 5, 5, 12, 64, 3, 26, 3, 63, 11, 3, 3, 34, 5, 3, 5, 4, 65, 11, 152, 63, 2, 168, 48, 46, 63, 50, 132, 61, 197, 3, 5, 303, 61, 3, 52, 6, 36, 8, 395, 9, 247, 5, 352, 10, 24, 674, 3, 3, 3, 2, 139, 11, 16, 4, 25, 314, 383, 5, 56, 5, 7, 225, 3, 2, 389, 3, 5, 2, 159, 24, 24, 1851, 227, 527, 34, 2, 6, 1585, 65, 22, 5, 252, 3, 27, 72, 147, 94, 19, 4, 6, 3, 236, 442, 3, 16, 3, 3, 2844, 30, 7, 25, 351, 5, 341, 4, 11, 3, 2, 32, 3084, 2, 1936, 14, 387, 7, 3, 4, 327, 2, 11, 5, 3, 203, 2, 3014, 13, 400, 10, 4, 26, 4, 20, 157, 30, 764, 4, 3, 3, 77, 2, 2, 1960, 3, 7, 7, 57, 3, 3, 415, 9, 3, 7, 9, 2, 24, 2, 9, 602, 1, 2, 12, 2, 5, 9, 13, 47, 5, 3, 345, 207, 1651, 2178, 3, 49, 11, 23, 357, 3, 5, 69, 41, 3, 21, 2325, 19, 2, 916, 12, 266, 2831, 5, 2625, 19, 197, 1212, 2381, 1748, 669, 494, 16, 644, 6431, 2252, 1550, 1289, 183, 6, 2, 361, 5, 5, 2511, 6, 41, 2, 642, 426, 670, 1375, 348, 485, 1818, 1006, 8, 11, 665, 481, 4, 5, 4121, 3, 352, 3, 3, 3766, 6, 7, 1311, 71, 3, 41, 11, 1331, 26, 13, 177, 10, 6, 186, 419, 3, 242, 8, 2, 13, 3486, 46, 320, 4183, 2, 25, 3, 32, 3575, 156, 5, 190, 2, 32, 2, 3, 5, 3, 29, 1696, 12, 47, 14, 676, 368, 4, 19, 7, 4, 1939, 172, 2, 124, 73, 9, 4, 5, 929, 33, 197, 450, 2, 481, 24, 1638, 7, 3, 6, 3, 64, 2, 3438, 7, 6, 307, 162, 7, 3, 10, 21, 2, 55, 2158, 65, 59, 876, 994, 169, 20, 2198, 67, 8, 9, 81, 79, 9, 128, 791, 2, 26, 954, 3, 357, 1412, 3, 9, 7, 10, 3, 9, 352, 20, 460, 25, 3, 1813, 679, 62, 155, 1900, 16, 3, 4, 4, 8, 1431, 1, 2, 3, 3, 40, 5, 945, 2, 140, 1383, 1, 2, 4, 7, 12, 2, 90, 65, 38, 620, 3, 528, 8, 53, 20, 908, 53, 3, 2, 30, 4, 97, 92, 2, 63, 16, 3, 4, 12, 3, 6, 48, 8, 53, 9, 18, 2, 3, 2, 40, 280, 62, 2, 2, 5, 6, 4, 35, 63, 4, 4, 28, 42, 2, 4, 54, 3, 13, 2, 93, 6, 18, 19, 117, 4, 5, 3, 130, 2, 14, 2, 18, 13, 154, 57, 3, 8, 7, 6, 1, 32, 3, 1, 232, 205, 56, 8, 252, 3, 376, 6, 5, 653, 73, 222, 993, 5, 18, 29, 224, 3, 182, 19, 100, 6, 5, 85, 164, 18, 5, 2, 53, 1034, 741, 15, 9, 3, 76, 59, 5, 6, 3, 5, 332, 122, 17, 14, 249, 18, 48, 13, 8, 373, 953, 634, 2, 777, 1621, 4, 83, 51, 8, 9, 3, 84, 37, 5, 6, 45, 712, 40, 7, 13, 3, 3, 8, 105, 328, 107, 79, 44, 1430, 2, 64, 241, 19, 634, 3, 5, 7, 2, 1123, 64, 19, 6, 263, 36, 45, 89, 1544, 18, 22, 11, 8, 20, 26, 28, 3, 3, 355, 5, 62, 4, 2, 4, 3, 10, 3, 4, 15, 30, 6, 4, 58, 713, 463, 3, 14, 681, 3, 9, 3, 1191, 2, 497, 233, 3, 665, 2595, 2, 3, 3, 21, 32, 22, 3552, 51, 7, 1362, 795, 1167, 1, 111, 3, 19, 13, 47, 1355, 9, 4, 1726, 213, 1241, 26, 6, 471, 831, 41, 435, 224, 1, 9, 259, 42, 2, 59, 5, 210, 55, 3, 54, 5, 5, 7, 4, 3, 168, 3, 11, 37, 81, 6, 30, 3, 3, 3, 53, 6, 146, 55, 3, 6, 7, 105, 55, 3, 63, 64, 1, 5, 5, 12, 64, 3, 26, 3, 63, 11, 3, 3, 34, 5, 3, 5, 4, 65, 11, 152, 63, 2, 168, 48, 46, 63, 50, 132, 61, 197, 3, 5, 303, 61, 3, 52, 6, 36, 8, 395, 9, 247, 5, 352, 10, 24, 674, 3, 3, 3, 2, 139, 11, 16, 4, 25, 314, 383, 5, 56, 5, 7, 225, 3, 2, 389, 3, 5, 2, 159, 24, 24, 227, 527, 34, 2, 6, 1585, 65, 22, 5, 252, 3, 27, 72, 147, 94, 19, 4, 6, 3, 236] p=1.0"]
S1 -> S23 [label="3 [2048, 2048, 2048, 2048, 2048, 2048, 2048, 2048, 2048, 2048] p=0.0"]
S2 -> S1 [label="2 [393, 423, 3, 3, 2, 4, 3, 7, 168, 7, 12, 52, 80, 193, 40, 9, 472, 289, 9, 3, 4, 287, 11, 7, 228, 149, 4, 43, 165, 12, 8, 1, 5, 3, 600, 4, 559, 3, 147, 9, 4, 242, 6, 5, 152, 4, 2, 5, 14, 38, 5, 64, 6, 41, 4, 380, 3, 6, 3, 17, 3, 229, 19, 5, 205, 4, 357, 594, 23, 154, 3, 4, 485, 204, 7, 4, 41, 6, 5, 5, 21, 13, 4, 297, 47, 305, 17, 11, 7, 6, 6, 11, 5, 107, 53, 667, 8, 31, 15, 4, 10, 14, 4, 12, 10, 4, 3, 6, 2, 12, 3, 5, 3, 4, 4, 10, 2, 4, 5, 5, 6, 3, 4, 6, 3, 3, 3, 2, 9, 5, 3, 2, 5, 15, 6, 3, 2, 3, 4, 7, 2, 1, 5, 1, 4, 3, 2, 9, 3, 14, 2, 3, 42, 2, 4, 5, 17, 11, 57, 4, 1, 3, 22, 65, 3, 4, 3, 162, 3, 101, 20, 5, 2, 4, 2, 4, 3, 124, 5, 22, 217, 3, 8, 248, 40, 119, 124, 17, 16, 28, 297, 104, 5, 7, 3, 5, 3, 165, 4, 5, 10, 3, 3, 9, 287, 6, 57, 2, 4, 24, 345, 7, 546, 3, 3, 5, 521, 3, 7, 3, 3, 52, 200, 3, 14, 6, 174, 3, 675, 2, 9, 3, 3, 17, 3, 200, 3, 43, 7, 169, 154, 12, 132, 2, 175, 2, 2, 7, 6, 39, 3, 3, 13, 3, 3, 145, 6, 104, 8, 205, 45, 3, 11, 3, 72, 20, 252, 268, 6, 5, 42, 4, 22, 4, 3, 13, 16, 6, 1143, 17, 226, 7, 183, 4, 4, 2, 178, 3, 4, 2, 4, 105, 3, 10, 3, 5, 212, 1032, 2, 143, 15, 710, 27, 7, 4, 526, 3, 2626, 15, 6, 3, 2820, 8, 2, 30, 2, 1212, 16, 12, 4, 1867, 19, 10, 6, 1979, 3, 5, 7, 5, 9, 3, 4172, 126, 3, 4, 3641, 24, 3, 373, 1, 26, 1155, 6, 5, 4, 2643, 3, 3, 3, 3, 4, 2, 4, 9, 4, 2, 3, 8, 1065, 5, 10, 304, 37, 1417, 3, 41, 245, 21, 2, 2, 3, 3, 3, 4, 31, 135, 2, 32, 224, 256, 92, 26, 306, 4, 399, 29, 5, 45, 3, 298, 4, 697, 5, 714, 6, 3, 2, 4, 15, 7, 31, 23, 3, 10, 503, 30, 203, 2, 3, 9, 175, 3, 7, 200, 158, 7, 12, 5, 4, 212, 20, 4, 3, 719, 533, 12, 45, 4, 4, 5, 166, 12, 20, 3, 1, 200, 5, 1, 140, 8, 3, 14, 395, 38, 12, 2, 192, 38, 6, 1135, 3, 267, 54, 91, 4, 498, 22, 398, 159, 98, 220, 3, 4, 6, 3, 362, 5, 195, 3, 3, 3, 123, 2, 7, 28, 16, 3, 2, 3, 3, 6, 9, 4, 15, 233, 13, 8, 288, 7, 3, 3, 49, 7, 3, 176, 125, 3, 3, 15, 157, 3, 19, 3, 23, 184, 17, 20, 320, 4, 5, 848, 2, 10, 16, 3, 10, 3, 5, 3, 3, 1, 7, 738, 139, 14, 39, 141, 32, 3, 4, 1, 528, 8, 3, 32, 2, 616, 71, 745, 3, 4, 2195, 2, 15, 3, 622, 594, 2, 8, 14, 4, 7, 262, 5, 2, 11, 6, 2, 7, 3174, 3, 2940, 1232, 20, 2, 82, 221, 1420, 12, 3289, 1858, 16, 7, 3, 4, 3243, 3, 87, 35, 1700, 128, 7, 5, 56, 65, 615, 1167, 4, 3, 11, 4, 875, 3, 7, 495, 14, 1074, 12, 3, 3, 12, 5, 2, 12, 2035, 281, 58, 2, 11, 3316, 497, 11, 2, 3, 2075, 714, 182, 3, 14, 7, 1656, 25, 4, 3, 1295, 3, 4, 12, 3, 6, 326, 18, 9, 2485, 12, 2, 1170, 30, 131, 40, 1812, 4, 6, 3, 674, 12, 5, 195, 1267, 502, 10, 1016, 475, 3, 37, 12, 3, 3, 4, 589, 4, 7, 348, 709, 4, 2, 1, 2, 132, 393, 423, 3, 3, 2, 4, 3, 7, 168, 7, 12, 52, 80, 193, 40, 9, 472, 289, 9, 3, 4, 287, 11, 7, 228, 149, 4, 43, 165, 12, 8, 1, 5, 3, 600, 4, 559, 3, 147, 9, 4, 242, 6, 5, 152, 4, 2, 5, 14, 38, 5, 64, 6, 41, 4, 380, 3, 6, 3, 17, 3, 229, 19, 5, 205, 4, 357, 594, 23, 154, 3, 4, 485, 204, 7, 4, 41, 6, 5, 5, 21, 13, 4, 297, 47, 305, 17, 11, 7, 6, 6, 11, 5, 107, 53, 667, 8, 31, 15, 4, 10, 14, 4, 12, 10, 4, 3, 6, 2, 12, 3, 5, 3, 4, 4, 10, 2, 4, 5, 5, 6, 3, 4, 6, 3, 3, 3, 2, 9, 5, 3, 2, 5, 15, 6, 3, 2, 3, 4, 7, 2, 1, 5, 1, 4, 3, 2, 9, 3, 14, 2, 3, 42, 2, 4, 5, 17, 11, 57, 4, 1, 3, 22, 65, 3, 4, 3, 162, 3, 101, 20, 5, 2, 4, 2, 4, 3, 124, 5, 22, 217, 3, 8, 248, 40, 119, 124, 17, 16, 28, 297, 104, 5, 7, 3, 5, 3, 165, 4, 5, 10, 3, 3, 9, 287, 6, 57, 2, 4, 24, 345, 7, 546, 3, 3, 5, 521, 3, 7, 3, 3, 52, 200, 3, 14, 6, 174, 3, 675, 2, 9, 3, 3, 17, 3, 200, 3, 43, 7, 169, 154, 12, 132, 2, 175, 2, 2, 7, 6, 39, 3, 3, 13, 3, 3, 145, 6, 104, 8, 205, 45, 3, 11, 3, 72, 20, 252, 268, 6, 5, 42, 4, 22, 4, 3, 13, 16, 6, 1143, 17, 226, 7, 183, 4, 4, 2, 178, 3, 4, 2, 4, 105, 3, 10, 3, 5, 212, 1032, 2, 143, 15, 710, 27, 7, 4, 526, 3, 2626, 15, 6, 3, 2820, 8, 2, 30, 2, 1212, 16, 12, 4, 1867, 19, 10, 6, 1979, 3, 5, 7, 5, 9, 3, 4172, 126, 3, 4, 3641, 24, 3, 373, 1, 26, 1155, 6, 5, 4, 2643, 3, 3, 3, 3, 4, 2, 4, 9, 4, 2, 3, 8, 1065, 5, 10, 304, 37, 1417, 3, 41, 245, 21, 2, 2, 3, 3, 3, 4, 31, 135, 2, 32, 224, 256, 92, 26, 306, 4, 399, 29, 5, 45, 3, 298, 4, 697, 5, 714, 6, 3, 2, 4, 15, 7, 31, 23, 3, 10, 503, 30, 203, 2, 3, 9, 175, 3, 7, 200, 158, 7, 12, 5, 4, 212, 20, 4, 3, 719, 533, 12, 45, 4, 4, 5, 166, 12, 20, 3, 1, 200, 5, 1, 140, 8, 3, 14, 395, 38, 12, 2, 192, 38, 6, 1135, 3, 267, 54, 91, 4, 498, 22, 398, 159, 98, 220, 3, 4, 6, 3, 362, 5, 195, 3, 3, 3, 123, 2, 7, 28, 16, 3, 2, 3, 3, 6, 9, 4, 15, 233, 13, 8, 288, 7, 3, 3, 49, 7, 3, 176, 125, 3, 3, 15, 157, 3, 19, 3, 23, 184, 17, 20, 320, 4, 5, 848, 2, 10, 16, 3, 10, 3, 5, 3, 3, 1, 7, 738, 139, 14, 39, 141, 32, 3, 4, 1, 528, 8, 3, 32, 2, 616, 71, 745, 3, 4, 2195, 2, 15, 3, 622, 594, 2, 8, 14, 4, 7, 262, 5, 2, 11, 6, 2, 7, 3174, 3, 2940, 1232, 20, 2, 82, 221, 1420, 12, 3289, 1858, 16, 7, 3, 4, 3243, 3, 87, 35, 1700, 128, 7, 5, 56, 65, 615, 1167, 4, 3, 11, 4, 875, 3, 7, 495, 14, 1074, 12, 3, 3, 12, 5, 2, 12, 2035, 281, 58, 2, 11, 3316, 497, 11, 2, 3, 2075, 714, 182, 3, 14, 7, 1656, 25, 4, 3, 1295, 3, 4, 12, 3, 6, 326, 18, 9, 2485, 12, 2, 1170, 30, 131, 40, 1812, 4, 6, 3, 674, 12, 5, 195, 1267, 502, 10, 1016, 475, 3, 37, 12, 3, 3, 4, 589, 4, 7, 348, 709, 4, 2, 1, 2, 132, 423, 3, 3, 2, 4, 3, 7, 168, 7, 12, 52, 80, 193, 40, 9, 472, 289, 9, 3, 4, 287, 11, 7, 228, 149, 4, 43, 165, 12, 8, 1, 5, 3, 600, 4, 559, 3, 147, 9, 4, 242, 6, 5, 152, 4, 2, 5, 14, 38, 5, 64, 6, 41, 4, 380, 3, 6, 3, 17, 3, 229, 19, 5, 205, 4, 357, 594, 23, 154, 3, 4, 485, 204, 7, 4, 41, 6, 5, 5, 21, 13, 4, 297, 47, 305, 17, 11, 7, 6, 6, 11, 5, 107, 53, 667, 8, 31, 15, 4, 10, 14, 4, 12, 10, 4, 3, 6, 2, 12, 3, 5, 3, 4, 4, 10, 2, 4, 5, 5, 6, 3, 4, 6, 3, 3, 3, 2, 9, 5, 3, 2, 5, 15, 6, 3, 2, 3, 4, 7, 2, 1, 5, 1, 4, 3, 2, 9, 3, 14, 2, 3, 42, 2, 4, 5, 17, 11, 57, 4, 1, 3, 22, 65, 3, 4, 3, 162, 3, 101, 20, 5, 2, 4, 2, 4, 3, 124, 5, 22, 217, 3, 8, 248, 40, 119, 124, 17, 16, 28, 297, 104, 5, 7, 3, 5, 3, 165, 4, 5, 10, 3, 3, 9, 287, 6, 57, 2, 4, 24, 345, 7, 546, 3, 3, 5, 521, 3, 7, 3, 3, 52, 200, 3, 14, 6, 174, 3, 675, 2, 9, 3, 3, 17, 3, 200, 3, 43, 7, 169, 154, 12, 132, 2, 175, 2, 2, 7, 6, 39, 3, 3, 13, 3, 3, 145, 6, 104, 8, 205, 45, 3, 11, 3, 72, 20, 252, 268, 6, 5, 42, 4, 22, 4, 3, 13, 16, 6, 1143, 17, 226, 7, 183, 4, 4, 2, 178, 3, 4, 2, 4, 105, 3, 10, 3, 5, 212, 1032, 2, 143, 15, 710, 27, 7, 4, 526, 3, 2626, 15, 6, 3, 2820, 8, 2, 30, 2, 1212, 16, 12, 4, 1867, 19, 10, 6, 1979, 3, 5, 7, 5, 9, 3, 4172, 126, 3, 4, 3641, 24, 3, 373, 1, 26, 1155, 6, 5, 4, 2643, 3, 3, 3, 3, 4, 2, 4, 9, 4, 2, 3, 8, 1065, 5, 10, 304, 37, 1417, 3, 41, 245, 21, 2, 2, 3, 3, 3, 4, 31, 135, 2, 32, 224, 256, 92, 26, 306, 4, 399, 29, 5, 45, 3, 298, 4, 697, 5, 714, 6, 3, 2, 4, 15, 7, 31, 23, 3, 10, 503, 30, 203, 2, 3, 9, 175, 3, 7, 200, 158, 7, 12, 5, 4, 212, 20, 4, 3, 719, 533, 12, 45, 4, 4, 5, 166, 12, 20, 3, 1, 200, 5, 1, 140, 8, 3, 14, 395, 38, 12, 2, 192, 38, 6, 1135, 3, 267, 54, 91, 4, 498, 22, 398, 159, 98, 220, 3, 4, 6, 3, 362, 5, 195, 3, 3, 3, 123, 2, 7, 28, 16, 3, 2, 3, 3, 6, 9, 4, 15, 233, 13, 8, 288, 7, 3, 3, 49, 7, 3, 176, 125, 3, 3, 15, 157, 3, 19, 3, 23, 184, 17, 20, 320, 4, 5, 848, 2, 10, 16, 3, 10, 3, 5, 3, 3, 1, 7, 738, 139, 14, 39, 141, 32, 3, 4, 1, 528, 8, 3, 32, 2, 616, 71, 745, 3, 4, 2195, 2, 15, 3, 622, 594, 2, 8, 14, 4, 7, 262, 5, 2, 11, 6, 2, 7, 3174, 3, 2940, 1232, 20, 2, 82, 221, 1420, 12, 3289, 1858, 16, 7, 3, 4, 3243, 3, 87, 35, 1700, 128, 7, 5, 56, 65, 615, 1167, 4, 3, 11, 4, 875, 3, 7, 495, 14, 1074, 12, 3, 3, 12, 5, 2, 12, 2035, 281, 58, 2, 11, 3316, 497, 11, 2, 3, 2075, 714, 182, 3, 14, 7, 1656, 25, 4, 3, 1295, 3, 4, 12, 3, 6, 326, 18, 9, 2485, 12, 2, 1170, 30, 131, 40, 1812, 4, 6, 3, 12, 5, 195, 1267, 502, 10, 1016, 475, 3, 37, 12, 3, 3, 4, 589, 4, 7, 348, 709, 4, 2, 1, 2, 132, 423, 3, 3, 2, 4, 3, 7, 168, 7, 12, 52, 80, 193, 40, 9, 472, 289, 9, 3, 4, 287, 11, 7, 228, 149, 4, 43, 165, 12, 8, 1, 5, 3, 600, 4, 559, 3, 147, 9, 4, 242, 6, 5, 152, 4, 2, 5, 14, 38, 5, 64, 6, 41, 4, 380, 3, 6, 3, 17, 3, 229, 19, 5, 205, 4, 357, 594, 23, 154, 3, 4, 485, 204, 7, 4, 41, 6, 5, 5, 21, 13, 4, 297, 47, 305, 17, 11, 7, 6, 6, 11, 5, 107, 53, 667, 8, 31, 15, 4, 10, 14, 4, 12, 10, 4, 3, 6, 2, 12, 3, 5, 3, 4, 4, 10, 2, 4, 5, 5, 6, 3, 4, 6, 3, 3, 3, 2, 9, 5, 3, 2, 5, 15, 6, 3, 2, 3, 4, 7, 2, 1, 5, 1, 4, 3, 2, 9, 3, 14, 2, 3, 42, 2, 4, 5, 17, 11, 57, 4, 1, 3, 22, 65, 3, 4, 3, 162, 3, 101, 20, 5, 2, 4, 2, 4, 3, 124, 5, 22, 217, 3, 8, 248, 40, 119, 124, 17, 16, 28, 297, 104, 5, 7, 3, 5, 3, 165, 4, 5, 10, 3, 3, 9, 287, 6, 57, 2, 4, 24, 345, 7, 546, 3, 3, 5, 521, 3, 7, 3, 3, 52, 200, 3, 14, 6, 174, 3, 675, 2, 9, 3, 3, 17, 3, 200, 3, 43, 7, 169, 154, 12, 132, 2, 175, 2, 2, 7, 6, 39, 3, 3, 13, 3, 3, 145, 6, 104, 8, 205, 45, 3, 11, 3, 72, 20, 252, 268, 6, 5, 42, 4, 22, 4, 3, 13, 16, 6, 1143, 17, 226, 7, 183, 4, 4, 2, 178, 3, 4, 2, 4, 105, 3, 10, 3, 5, 212, 1032, 2, 143, 15, 710, 27, 7, 4, 526, 3, 2626, 15, 6, 3, 2820, 8, 2, 30, 2, 1212, 16, 12, 4, 1867, 19, 10, 6, 1979, 3, 5, 7, 5, 9, 3, 4172, 126, 3, 4, 3641, 24, 3, 373, 1, 26, 1155, 6, 5, 4, 2643, 3, 3, 3, 3, 4, 2, 4, 9, 4, 2, 3, 8, 1065, 5, 10, 304, 37, 1417, 3, 41, 245, 21, 2, 2, 3, 3, 3, 4, 31, 135, 2, 32, 224, 256, 92, 26, 306, 4, 399, 29, 5, 45, 3, 298, 4, 697, 5, 714, 6, 3, 2, 4, 15, 7, 31, 23, 3, 10, 503, 30, 203, 2, 3, 9, 175, 3, 7, 200, 158, 7, 12, 5, 4, 212, 20, 4, 3, 719, 533, 12, 45, 4, 4, 5, 166, 12, 20, 3, 1, 200, 5, 1, 140, 8, 3, 14, 395, 38, 12, 2, 192, 38, 6, 1135, 3, 267, 54, 91, 4, 498, 22, 398, 159, 98, 220, 3, 4, 6, 3, 362, 5, 195, 3, 3, 3, 123, 2, 7, 28, 16, 3, 2, 3, 3, 6, 9, 4, 15, 233, 13, 8, 288, 7, 3, 3, 49, 7, 3, 176, 125, 3, 3, 15, 157, 3, 19, 3, 23, 184, 17, 20, 320, 4, 5, 848, 2, 10, 16, 3, 10, 3, 5, 3, 3, 1, 7, 738, 139, 14, 39, 141, 32, 3, 4, 1, 528, 8, 3, 32, 2, 616, 71, 745, 3, 4, 2195, 2, 15, 3, 622, 594, 2, 8, 14, 4, 7, 262, 5, 2, 11, 6, 2, 7, 3174, 3, 2940, 1232, 20, 2, 82, 221, 1420, 12, 3289, 1858, 16, 7, 3, 4, 3243, 3, 87, 35, 1700, 128, 7, 5, 56, 65, 615, 1167, 4, 3, 11, 4, 875, 3, 7, 495, 14, 1074, 12, 3, 3, 12, 5, 2, 12, 2035, 281, 58, 2, 11, 3316, 497, 11, 2, 3, 2075, 714, 182, 3, 14, 7, 1656, 25, 4, 3, 1295, 3, 4, 12, 3, 6, 326, 18, 9, 2485, 12, 2, 1170, 30, 131, 40, 1812, 4, 6, 3, 12, 5, 195, 1267, 502, 10, 1016, 475, 3, 37, 12, 3, 3, 4, 589, 4, 7, 348, 709, 4, 2, 1, 2, 132, 3, 3, 2, 4, 3, 7, 168, 7, 12, 52, 80, 193, 40, 9, 472, 289, 9, 3, 4, 287, 11, 7, 228, 149, 4, 43, 165, 12, 8, 1, 5, 3, 600, 4, 559, 3, 147, 9, 4, 242, 6, 5, 152, 4, 2, 5, 14, 38, 5, 64, 6, 41, 4, 380, 3, 6, 3, 17, 3, 229, 19, 5, 205, 4, 357, 594, 23, 154, 3, 4, 485, 204, 7, 4, 41, 6, 5, 5, 21, 13, 4, 297, 47, 305, 17, 11, 7, 6, 6, 11, 5, 107, 53, 667, 8, 31, 15, 4, 10, 14, 4, 12, 10, 4, 3, 6, 2, 12, 3, 5, 3, 4, 4, 10, 2, 4, 5, 5, 6, 3, 4, 6, 3, 3, 3, 2, 9, 5, 3, 2, 5, 15, 6, 3, 2, 3, 4, 7, 2, 1, 5, 1, 4, 3, 2, 9, 3, 14, 2, 3, 42, 2, 4, 5, 17, 11, 57, 4, 1, 3, 22, 65, 3, 4, 3, 162, 3, 101, 20, 5, 2, 4, 2, 4, 3, 124, 5, 22, 217, 3, 8, 248, 40, 119, 124, 17, 16, 28, 297, 104, 5, 7, 3, 5, 3, 165, 4, 5, 10, 3, 3, 9, 287, 6, 57, 2, 4, 24, 345, 7, 546, 3, 3, 5, 521, 3, 7, 3, 3, 52, 200, 3, 14, 6, 174, 3, 675, 2, 9, 3, 3, 17, 3, 200, 3, 43, 7, 169, 154, 12, 132, 2, 175, 2, 2, 7, 6, 39, 3, 3, 13, 3, 3, 145, 6, 104, 8, 205, 45, 3, 11, 3, 72, 20, 252, 268, 6, 5, 42, 4, 22, 4, 3, 13, 16, 6, 1143, 17, 226, 7, 183, 4, 4, 2, 178, 3, 4, 2, 4, 105, 3, 10, 3, 5, 212, 1032, 2, 143, 15, 710, 27, 7, 4, 526, 3, 2626, 15, 6, 3, 2820, 8, 2, 30, 2, 1212, 16, 12, 4, 1867, 19, 10, 6, 1979, 3, 5, 7, 5, 9, 3, 4172, 126, 3, 4, 3641, 24, 3, 373, 1, 26, 1155, 6, 5, 4, 2643, 3, 3, 3, 3, 4, 2, 4, 9, 4, 2, 3, 8, 1065, 5, 10, 304, 37, 1417, 3, 41, 245, 21, 2, 2, 3, 3, 3, 4, 31, 135, 2, 32, 224, 256, 92, 26, 306, 4, 399, 29, 5, 45, 3, 298, 4, 697, 5, 714, 6, 3, 2, 4, 15, 7, 31, 23, 3, 10, 503, 30, 203, 2, 3, 9, 175, 3, 7, 200, 158, 7, 12, 5, 4, 212, 20, 4, 3, 719, 533, 12, 45, 4, 4, 5, 166, 12, 20, 3, 1, 200, 5, 1, 140, 8, 3, 14, 395, 38, 12, 2, 192, 38, 6, 1135, 3, 267, 54, 91, 4, 498, 22, 398, 159, 98, 220, 3, 4, 6, 3, 362, 5, 195, 3, 3, 3, 123, 2, 7, 28, 16, 3, 2, 3, 3, 6, 9, 4, 15, 233, 13, 8, 288, 7, 3, 3, 49, 7, 3, 176, 125, 3, 3, 15, 157, 3, 19, 3, 23, 184, 17, 20, 320, 4, 5, 848, 2, 10, 16, 3, 10, 3, 5, 3, 3, 1, 7, 738, 139, 14, 39, 141, 32, 3, 4, 1, 528, 8, 3, 32, 2, 616, 71, 745, 3, 4, 2195, 2, 15, 3, 622, 594, 2, 8, 14, 4, 7, 262, 5, 2, 11, 6, 2, 7, 3174, 3, 2940, 1232, 20, 2, 82, 221, 1420, 12, 3289, 1858, 16, 7, 3, 4, 3243, 3, 87, 35, 1700, 128, 7, 5, 56, 65, 615, 1167, 4, 3, 11, 4, 875, 3, 7, 495, 14, 1074, 12, 3, 3, 12, 5, 2, 12, 2035, 281, 58, 2, 11, 3316, 497, 11, 2, 3, 2075, 714, 182, 3, 14, 7, 1656, 25, 4, 3, 1295, 3, 4, 12, 3, 6, 326, 18, 9, 2485, 12, 2, 1170, 30, 131, 40, 1812, 4, 6, 3, 5, 195, 1267, 502, 10, 1016, 475, 3, 37, 12, 3, 3, 4, 589, 4, 7, 348, 709, 4, 2, 1, 2, 132, 3, 3, 2, 4, 3, 7, 168, 7, 12, 52, 80, 193, 40, 9, 472, 289, 9, 3, 4, 287, 11, 7, 228, 149, 4, 43, 165, 12, 8, 1, 5, 3, 600, 4, 559, 3, 147, 9, 4, 242, 6, 5, 152, 4, 2, 5, 14, 38, 5, 64, 6, 41, 4, 380, 3, 6, 3, 17, 3, 229, 19, 5, 205, 4, 357, 594, 23, 154, 3, 4, 485, 204, 7, 4, 41, 6, 5, 5, 21, 13, 4, 297, 47, 305, 17, 11, 7, 6, 6, 11, 5, 107, 53, 667, 8, 31, 15, 4, 10, 14, 4, 12, 10, 4, 3, 6, 2, 12, 3, 5, 3, 4, 4, 10, 2, 4, 5, 5, 6, 3, 4, 6, 3, 3, 3, 2, 9, 5, 3, 2, 5, 15, 6, 3, 2, 3, 4, 7, 2, 1, 5, 1, 4, 3, 2, 9, 3, 14, 2, 3, 42, 2, 4, 5, 17, 11, 57, 4, 1, 3, 22, 65, 3, 4, 3, 162, 3, 101, 20, 5, 2, 4, 2, 4, 3, 124, 5, 22, 217, 3, 8, 248, 40, 119, 124, 17, 16, 28, 297, 104, 5, 7, 3, 5, 3, 165, 4, 5, 10, 3, 3, 9, 287, 6, 57, 2, 4, 24, 345, 7, 546, 3, 3, 5, 521, 3, 7, 3, 3, 52, 200, 3, 14, 6, 174, 3, 675, 2, 9, 3, 3, 17, 3, 200, 3, 43, 7, 169, 154, 12, 132, 2, 175, 2, 2, 7, 6, 39, 3, 3, 13, 3, 3, 145, 6, 104, 8, 205, 45, 3, 11, 3, 72, 20, 252, 268, 6, 5, 42, 4, 22, 4, 3, 13, 16, 6, 1143, 17, 226, 7, 183, 4, 4, 2, 178, 3, 4, 2, 4, 105, 3, 10, 3, 5, 212, 1032, 2, 143, 15, 710, 27, 7, 4, 526, 3, 2626, 15, 6, 3, 2820, 8, 2, 30, 2, 1212, 16, 12, 4, 1867, 19, 10, 6, 1979, 3, 5, 7, 5, 9, 3, 4172, 126, 3, 4, 3641, 24, 3, 373, 1, 26, 1155, 6, 5, 4, 2643, 3, 3, 3, 3, 4, 2, 4, 9, 4, 2, 3, 8, 1065, 5, 10, 304, 37, 1417, 3, 41, 245, 21, 2, 2, 3, 3, 3, 4, 31, 135, 2, 32, 224, 256, 92, 26, 306, 4, 399, 29, 5, 45, 3, 298, 4, 697, 5, 714, 6, 3, 2, 4, 15, 7, 31, 23, 3, 10, 503, 30, 203, 2, 3, 9, 175, 3, 7, 200, 158, 7, 12, 5, 4, 212, 20, 4, 3, 719, 533, 12, 45, 4, 4, 5, 166, 12, 20, 3, 1, 200, 5, 1, 140, 8, 3, 14, 395, 38, 12, 2, 192, 38, 6, 1135, 3, 267, 54, 91, 4, 498, 22, 398, 159, 98, 220, 3, 4, 6, 3, 362, 5, 195, 3, 3, 3, 123, 2, 7, 28, 16, 3, 2, 3, 3, 6, 9, 4, 15, 233, 13, 8, 288, 7, 3, 3, 49, 7, 3, 176, 125, 3, 3, 15, 157, 3, 19, 3, 23, 184, 17, 20, 320, 4, 5, 848, 2, 10, 16, 3, 10, 3, 5, 3, 3, 1, 7, 738, 139, 14, 39, 141, 32, 3, 4, 1, 528, 8, 3, 32, 2, 616, 71, 745, 3, 4, 2195, 2, 15, 3, 622, 594, 2, 8, 14, 4, 7, 262, 5, 2, 11, 6, 2, 7, 3174, 3, 2940, 1232, 20, 2, 82, 221, 1420, 12, 3289, 1858, 16, 7, 3, 4, 3243, 3, 87, 35, 1700, 128, 7, 5, 56, 65, 615, 1167, 4, 3, 11, 4, 875, 3, 7, 495, 14, 1074, 12, 3, 3, 12, 5, 2, 12, 2035, 281, 58, 2, 11, 3316, 497, 11, 2, 3, 2075, 714, 182, 3, 14, 7, 1656, 25, 4, 3, 1295, 3, 4, 12, 3, 6, 326, 18, 9, 2485, 12, 2, 1170, 30, 131, 40, 1812, 4, 6, 3, 5, 195, 1267, 502, 10, 1016, 475, 3, 37, 12, 3, 3, 4, 589, 4, 7, 348, 709, 4, 2, 1, 2, 132, 3, 2, 4, 3, 7, 168, 7, 12, 52, 80, 193, 40, 9, 472, 289, 9, 3, 4, 287, 11, 7, 228, 149, 4, 43, 165, 12, 8, 1, 5, 3, 600, 4, 559, 3, 147, 9, 4, 242, 6, 5, 152, 4, 2, 5, 14, 38, 5, 64, 6, 41, 4, 380, 3, 6, 3, 17, 3, 229, 19, 5, 205, 4, 357, 594, 23, 154, 3, 4, 485, 204, 7, 4, 41, 6, 5, 5, 21, 13, 4, 297, 47, 305, 17, 11, 7, 6, 6, 11, 5, 107, 53, 667, 8, 31, 15, 4, 10, 14, 4, 12, 10, 4, 3, 6, 2, 12, 3, 5, 3, 4, 4, 10, 2, 4, 5, 5, 6, 3, 4, 6, 3, 3, 3, 2, 9, 5, 3, 2, 5, 15, 6, 3, 2, 3, 4, 7, 2, 1, 5, 1, 4, 3, 2, 9, 3, 14, 2, 3, 42, 2, 4, 5, 17, 11, 57, 4, 1, 3, 22, 65, 3, 4, 3, 162, 3, 101, 20, 5, 2, 4, 2, 4, 3, 124, 5, 22, 217, 3, 8, 248, 40, 119, 124, 17, 16, 28, 297, 104, 5, 7, 3, 5, 3, 165, 4, 5, 10, 3, 3, 9, 287, 6, 57, 2, 4, 24, 345, 7, 546, 3, 3, 5, 521, 3, 7, 3, 3, 52, 200, 3, 14, 6, 174, 3, 675, 2, 9, 3, 3, 17, 3, 200, 3, 43, 7, 169, 154, 12, 132, 2, 175, 2, 2, 7, 6, 39, 3, 3, 13, 3, 3, 145, 6, 104, 8, 205, 45, 3, 11, 3, 72, 20, 252, 268, 6, 5, 42, 4, 22, 4, 3, 13, 16, 6, 1143, 17, 226, 7, 183, 4, 4, 2, 178, 3, 4, 2, 4, 105, 3, 10, 3, 5, 212, 1032, 2, 143, 15, 710, 27, 7, 4, 526, 3, 2626, 15, 6, 3, 2820, 8, 2, 30, 2, 1212, 16, 12, 4, 1867, 19, 10, 6, 1979, 3, 5, 7, 5, 9, 3, 4172, 126, 3, 4, 3641, 24, 3, 373, 1, 26, 1155, 6, 5, 4, 2643, 3, 3, 3, 3, 4, 2, 4, 9, 4, 2, 3, 8, 1065, 5, 10, 304, 37, 1417, 3, 41, 245, 21, 2, 2, 3, 3, 3, 4, 31, 135, 2, 32, 224, 256, 92, 26, 306, 4, 399, 29, 5, 45, 3, 298, 4, 697, 5, 714, 6, 3, 2, 4, 15, 7, 31, 23, 3, 10, 503, 30, 203, 2, 3, 9, 175, 3, 7, 200, 158, 7, 12, 5, 4, 212, 20, 4, 3, 719, 533, 12, 45, 4, 4, 5, 166, 12, 20, 3, 1, 200, 5, 1, 140, 8, 3, 14, 395, 38, 12, 2, 192, 38, 6, 1135, 3, 267, 54, 91, 4, 498, 22, 398, 159, 98, 220, 3, 4, 6, 3, 362, 5, 195, 3, 3, 3, 123, 2, 7, 28, 16, 3, 2, 3, 3, 6, 9, 4, 15, 233, 13, 8, 288, 7, 3, 3, 49, 7, 3, 176, 125, 3, 3, 15, 157, 3, 19, 3, 23, 184, 17, 20, 320, 4, 5, 848, 2, 10, 16, 3, 10, 3, 5, 3, 3, 1, 7, 738, 139, 14, 39, 141, 32, 3, 4, 1, 528, 8, 3, 32, 2, 616, 71, 745, 3, 4, 2195, 2, 15, 3, 622, 594, 2, 8, 14, 4, 7, 262, 5, 2, 11, 6, 2, 7, 3174, 3, 2940, 1232, 20, 2, 82, 221, 1420, 12, 3289, 1858, 16, 7, 3, 4, 3243, 3, 87, 35, 1700, 128, 7, 5, 56, 65, 615, 1167, 4, 3, 11, 4, 875, 3, 7, 495, 14, 1074, 12, 3, 3, 12, 5, 2, 12, 2035, 281, 58, 2, 11, 3316, 497, 11, 2, 3, 2075, 714, 182, 3, 14, 7, 1656, 25, 4, 3, 1295, 3, 4, 12, 3, 6, 326, 18, 9, 2485, 12, 2, 1170, 30, 131, 40, 1812, 4, 6, 3, 195, 1267, 502, 10, 1016, 475, 3, 37, 12, 3, 3, 4, 589, 4, 7, 348, 709, 4, 2, 1, 2, 132, 3, 2, 4, 3, 7, 168, 7, 12, 52, 80, 193, 40, 9, 472, 289, 9, 3, 4, 287, 11, 7, 228, 149, 4, 43, 165, 12, 8, 1, 5, 3, 600, 4, 559, 3, 147, 9, 4, 242, 6, 5, 152, 4, 2, 5, 14, 38, 5, 64, 6, 41, 4, 380, 3, 6, 3, 17, 3, 229, 19, 5, 205, 4, 357, 594, 23, 154, 3, 4, 485, 204, 7, 4, 41, 6, 5, 5, 21, 13, 4, 297, 47, 305, 17, 11, 7, 6, 6, 11, 5, 107, 53, 667, 8, 31, 15, 4, 10, 14, 4, 12, 10, 4, 3, 6, 2, 12, 3, 5, 3, 4, 4, 10, 2, 4, 5, 5, 6, 3, 4, 6, 3, 3, 3, 2, 9, 5, 3, 2, 5, 15, 6, 3, 2, 3, 4, 7, 2, 1, 5, 1, 4, 3, 2, 9, 3, 14, 2, 3, 42, 2, 4, 5, 17, 11, 57, 4, 1, 3, 22, 65, 3, 4, 3, 162, 3, 101, 20, 5, 2, 4, 2, 4, 3, 124, 5, 22, 217, 3, 8, 248, 40, 119, 124, 17, 16, 28, 297, 104, 5, 7, 3, 5, 3, 165, 4, 5, 10, 3, 3, 9, 287, 6, 57, 2, 4, 24, 345, 7, 546, 3, 3, 5, 521, 3, 7, 3, 3, 52, 200, 3, 14, 6, 174, 3, 675, 2, 9, 3, 3, 17, 3, 200, 3, 43, 7, 169, 154, 12, 132, 2, 175, 2, 2, 7, 6, 39, 3, 3, 13, 3, 3, 145, 6, 104, 8, 205, 45, 3, 11, 3, 72, 20, 252, 268, 6, 5, 42, 4, 22, 4, 3, 13, 16, 6, 1143, 17, 226, 7, 183, 4, 4, 2, 178, 3, 4, 2, 4, 105, 3, 10, 3, 5, 212, 1032, 2, 143, 15, 710, 27, 7, 4, 526, 3, 2626, 15, 6, 3, 2820, 8, 2, 30, 2, 1212, 16, 12, 4, 1867, 19, 10, 6, 1979, 3, 5, 7, 5, 9, 3, 4172, 126, 3, 4, 3641, 24, 3, 373, 1, 26, 1155, 6, 5, 4, 2643, 3, 3, 3, 3, 4, 2, 4, 9, 4, 2, 3, 8, 1065, 5, 10, 304, 37, 1417, 3, 41, 245, 21, 2, 2, 3, 3, 3, 4, 31, 135, 2, 32, 224, 256, 92, 26, 306, 4, 399, 29, 5, 45, 3, 298, 4, 697, 5, 714, 6, 3, 2, 4, 15, 7, 31, 23, 3, 10, 503, 30, 203, 2, 3, 9, 175, 3, 7, 200, 158, 7, 12, 5, 4, 212, 20, 4, 3, 719, 533, 12, 45, 4, 4, 5, 166, 12, 20, 3, 1, 200, 5, 1, 140, 8, 3, 14, 395, 38, 12, 2, 192, 38, 6, 1135, 3, 267, 54, 91, 4, 498, 22, 398, 159, 98, 220, 3, 4, 6, 3, 362, 5, 195, 3, 3, 3, 123, 2, 7, 28, 16, 3, 2, 3, 3, 6, 9, 4, 15, 233, 13, 8, 288, 7, 3, 3, 49, 7, 3, 176, 125, 3, 3, 15, 157, 3, 19, 3, 23, 184, 17, 20, 320, 4, 5, 848, 2, 10, 16, 3, 10, 3, 5, 3, 3, 1, 7, 738, 139, 14, 39, 141, 32, 3, 4, 1, 528, 8, 3, 32, 2, 616, 71, 745, 3, 4, 2195, 2, 15, 3, 622, 594, 2, 8, 14, 4, 7, 262, 5, 2, 11, 6, 2, 7, 3174, 3, 2940, 1232, 20, 2, 82, 221, 1420, 12, 3289, 1858, 16, 7, 3, 4, 3243, 3, 87, 35, 1700, 128, 7, 5, 56, 65, 615, 1167, 4, 3, 11, 4, 875, 3, 7, 495, 14, 1074, 12, 3, 3, 12, 5, 2, 12, 2035, 281, 58, 2, 11, 3316, 497, 11, 2, 3, 2075, 714, 182, 3, 14, 7, 1656, 25, 4, 3, 1295, 3, 4, 12, 3, 6, 326, 18, 9, 2485, 12, 2, 1170, 30, 131, 40, 1812, 4, 6, 3, 195, 1267, 502, 10, 1016, 475, 3, 37, 12, 3, 3, 4, 589, 4, 7, 348, 709, 4, 2, 1, 2, 132, 2, 4, 3, 7, 168, 7, 12, 52, 80, 193, 40, 9, 472, 289, 9, 3, 4, 287, 11, 7, 228, 149, 4, 43, 165, 12, 8, 1, 5, 3, 600, 4, 559, 3, 147, 9, 4, 242, 6, 5, 152, 4, 2, 5, 14, 38, 5, 64, 6, 41, 4, 380, 3, 6, 3, 17, 3, 229, 19, 5, 205, 4, 357, 594, 23, 154, 3, 4, 485, 204, 7, 4, 41, 6, 5, 5, 21, 13, 4, 297, 47, 305, 17, 11, 7, 6, 6, 11, 5, 107, 53, 667, 8, 31, 15, 4, 10, 14, 4, 12, 10, 4, 3, 6, 2, 12, 3, 5, 3, 4, 4, 10, 2, 4, 5, 5, 6, 3, 4, 6, 3, 3, 3, 2, 9, 5, 3, 2, 5, 15, 6, 3, 2, 3, 4, 7, 2, 1, 5, 1, 4, 3, 2, 9, 3, 14, 2, 3, 42, 2, 4, 5, 17, 11, 57, 4, 1, 3, 22, 65, 3, 4, 3, 162, 3, 101, 20, 5, 2, 4, 2, 4, 3, 124, 5, 22, 217, 3, 8, 248, 40, 119, 124, 17, 16, 28, 297, 104, 5, 7, 3, 5, 3, 165, 4, 5, 10, 3, 3, 9, 287, 6, 57, 2, 4, 24, 345, 7, 546, 3, 3, 5, 521, 3, 7, 3, 3, 52, 200, 3, 14, 6, 174, 3, 675, 2, 9, 3, 3, 17, 3, 200, 3, 43, 7, 169, 154, 12, 132, 2, 175, 2, 2, 7, 6, 39, 3, 3, 13, 3, 3, 145, 6, 104, 8, 205, 45, 3, 11, 3, 72, 20, 252, 268, 6, 5, 42, 4, 22, 4, 3, 13, 16, 6, 1143, 17, 226, 7, 183, 4, 4, 2, 178, 3, 4, 2, 4, 105, 3, 10, 3, 5, 212, 1032, 2, 143, 15, 710, 27, 7, 4, 526, 3, 2626, 15, 6, 3, 2820, 8, 2, 30, 2, 1212, 16, 12, 4, 1867, 19, 10, 6, 1979, 3, 5, 7, 5, 9, 3, 4172, 126, 3, 4, 3641, 24, 3, 373, 1, 26, 1155, 6, 5, 4, 2643, 3, 3, 3, 3, 4, 2, 4, 9, 4, 2, 3, 8, 1065, 5, 10, 304, 37, 1417, 3, 41, 245, 21, 2, 2, 3, 3, 3, 4, 31, 135, 2, 32, 224, 256, 92, 26, 306, 4, 399, 29, 5, 45, 3, 298, 4, 697, 5, 714, 6, 3, 2, 4, 15, 7, 31, 23, 3, 10, 503, 30, 203, 2, 3, 9, 175, 3, 7, 200, 158, 7, 12, 5, 4, 212, 20, 4, 3, 719, 533, 12, 45, 4, 4, 5, 166, 12, 20, 3, 1, 200, 5, 1, 140, 8, 3, 14, 395, 38, 12, 2, 192, 38, 6, 1135, 3, 267, 54, 91, 4, 498, 22, 398, 159, 98, 220, 3, 4, 6, 3, 362, 5, 195, 3, 3, 3, 123, 2, 7, 28, 16, 3, 2, 3, 3, 6, 9, 4, 15, 233, 13, 8, 288, 7, 3, 3, 49, 7, 3, 176, 125, 3, 3, 15, 157, 3, 19, 3, 23, 184, 17, 20, 320, 4, 5, 848, 2, 10, 16, 3, 10, 3, 5, 3, 3, 1, 7, 738, 139, 14, 39, 141, 32, 3, 4, 1, 528, 8, 3, 32, 2, 616, 71, 745, 3, 4, 2195, 2, 15, 3, 622, 594, 2, 8, 14, 4, 7, 262, 5, 2, 11, 6, 2, 7, 3174, 3, 2940, 1232, 20, 2, 82, 221, 1420, 12, 3289, 1858, 16, 7, 3, 4, 3243, 3, 87, 35, 1700, 128, 7, 5, 56, 65, 615, 1167, 4, 3, 11, 4, 875, 3, 7, 495, 14, 1074, 12, 3, 3, 12, 5, 2, 12, 2035, 281, 58, 2, 11, 3316, 497, 11, 2, 3, 2075, 714, 182, 3, 14, 7, 1656, 25, 4, 3, 1295, 3, 4, 12, 3, 6, 326, 18, 9, 2485, 12, 2, 1170, 30, 131, 40, 1812, 4, 6, 3, 1267, 502, 10, 1016, 475, 3, 37, 12, 3, 3, 4, 589, 4, 7, 348, 709, 4, 2, 1, 2, 132, 2, 4, 3, 7, 168, 7, 12, 52, 80, 193, 40, 9, 472, 289, 9, 3, 4, 287, 11, 7, 228, 149, 4, 43, 165, 12, 8, 1, 5, 3, 600, 4, 559, 3, 147, 9, 4, 242, 6, 5, 152, 4, 2, 5, 14, 38, 5, 64, 6, 41, 4, 380, 3, 6, 3, 17, 3, 229, 19, 5, 205, 4, 357, 594, 23, 154, 3, 4, 485, 204, 7, 4, 41, 6, 5, 5, 21, 13, 4, 297, 47, 305, 17, 11, 7, 6, 6, 11, 5, 107, 53, 667, 8, 31, 15, 4, 10, 14, 4, 12, 10, 4, 3, 6, 2, 12, 3, 5, 3, 4, 4, 10, 2, 4, 5, 5, 6, 3, 4, 6, 3, 3, 3, 2, 9, 5, 3, 2, 5, 15, 6, 3, 2, 3, 4, 7, 2, 1, 5, 1, 4, 3, 2, 9, 3, 14, 2, 3, 42, 2, 4, 5, 17, 11, 57, 4, 1, 3, 22, 65, 3, 4, 3, 162, 3, 101, 20, 5, 2, 4, 2, 4, 3, 124, 5, 22, 217, 3, 8, 248, 40, 119, 124, 17, 16, 28, 297, 104, 5, 7, 3, 5, 3, 165, 4, 5, 10, 3, 3, 9, 287, 6, 57, 2, 4, 24, 345, 7, 546, 3, 3, 5, 521, 3, 7, 3, 3, 52, 200, 3, 14, 6, 174, 3, 675, 2, 9, 3, 3, 17, 3, 200, 3, 43, 7, 169, 154, 12, 132, 2, 175, 2, 2, 7, 6, 39, 3, 3, 13, 3, 3, 145, 6, 104, 8, 205, 45, 3, 11, 3, 72, 20, 252, 268, 6, 5, 42, 4, 22, 4, 3, 13, 16, 6, 1143, 17, 226, 7, 183, 4, 4, 2, 178, 3, 4, 2, 4, 105, 3, 10, 3, 5, 212, 1032, 2, 143, 15, 710, 27, 7, 4, 526, 3, 2626, 15, 6, 3, 2820, 8, 2, 30, 2, 1212, 16, 12, 4, 1867, 19, 10, 6, 1979, 3, 5, 7, 5, 9, 3, 4172, 126, 3, 4, 3641, 24, 3, 373, 1, 26, 1155, 6, 5, 4, 2643, 3, 3, 3, 3, 4, 2, 4, 9, 4, 2, 3, 8, 1065, 5, 10, 304, 37, 1417, 3, 41, 245, 21, 2, 2, 3, 3, 3, 4, 31, 135, 2, 32, 224, 256, 92, 26, 306, 4, 399, 29, 5, 45, 3, 298, 4, 697, 5, 714, 6, 3, 2, 4, 15, 7, 31, 23, 3, 10, 503, 30, 203, 2, 3, 9, 175, 3, 7, 200, 158, 7, 12, 5, 4, 212, 20, 4, 3, 719, 533, 12, 45, 4, 4, 5, 166, 12, 20, 3, 1, 200, 5, 1, 140, 8, 3, 14, 395, 38, 12, 2, 192, 38, 6, 1135, 3, 267, 54, 91, 4, 498, 22, 398, 159, 98, 220, 3, 4, 6, 3, 362, 5, 195, 3, 3, 3, 123, 2, 7, 28, 16, 3, 2, 3, 3, 6, 9, 4, 15, 233, 13, 8, 288, 7, 3, 3, 49, 7, 3, 176, 125, 3, 3, 15, 157, 3, 19, 3, 23, 184, 17, 20, 320, 4, 5, 848, 2, 10, 16, 3, 10, 3, 5, 3, 3, 1, 7, 738, 139, 14, 39, 141, 32, 3, 4, 1, 528, 8, 3, 32, 2, 616, 71, 745, 3, 4, 2195, 2, 15, 3, 622, 594, 2, 8, 14, 4, 7, 262, 5, 2, 11, 6, 2, 7, 3174, 3, 2940, 1232, 20, 2, 82, 221, 1420, 12, 3289, 1858, 16, 7, 3, 4, 3243, 3, 87, 35, 1700, 128, 7, 5, 56, 65, 615, 1167, 4, 3, 11, 4, 875, 3, 7, 495, 14, 1074, 12, 3, 3, 12, 5, 2, 12, 2035, 281, 58, 2, 11, 3316, 497, 11, 2, 3, 2075, 714, 182, 3, 14, 7, 1656, 25, 4, 3, 1295, 3, 4, 12, 3, 6, 326, 18, 9, 2485, 12, 2, 1170, 30, 131, 40, 1812, 4, 6, 3, 1267, 502, 10, 1016, 475, 3, 37, 12, 3, 3, 4, 589, 4, 7, 348, 709, 4, 2, 1, 2, 132] p=1.0"]
S23 -> S25 [label="4 [1, 1, 1, 1, 1, 1, 1, 1, 1, 1] p=1.0"]
S25 -> S28 [label="2 [2, 2, 2, 2, 2, 2, 2, 2, 2, 2, 674, 674, 674, 674, 674, 674, 674, 674, 12, 12, 12, 12, 12, 12, 5, 5, 5, 5, 195, 195] p=1.0"]
S28 -> S25 [label="1 [27, 27, 27, 27, 27, 27, 27, 27, 27, 21, 21, 21, 21, 21, 21, 21, 4, 4, 4, 4, 4, 5, 5, 5, 1851] p=1.0"]