S0 -> S1 [label="1 [0, 0, 0, 0, 0, 0, 0, 0, 0, 0, 0, 0, 0, 0, 0, 0, 0, 0, 0, 0, 0, 0, 0, 0, 0, 0, 0, 0, 0, 0, 0, 0, 0, 0, 0, 0, 0, 0, 0, 0, 0, 0, 0, 0, 0, 0, 0, 0, 0, 0, 0, 0, 0, 0, 0, 0, 0, 0, 0, 0, 0, 0, 0, 0, 0, 0, 0, 0, 0, 0, 0, 0, 0, 0, 0, 0] p=0.25"]
S0 -> S12 [label="2 [0, 0, 0, 0, 0, 0, 0, 0, 0, 0, 0, 0, 0, 0, 0, 0, 0, 0, 0, 0, 0, 0, 0, 0, 0, 0, 0, 0, 0, 0, 0, 0, 0, 0, 0, 0, 0, 0, 0, 0, 0, 0, 0, 0, 0, 0, 0, 0, 0, 0, 0, 0, 0, 0, 0, 0, 0, 0, 0, 0, 0, 0, 0, 0, 0, 0, 0, 0, 0, 0, 0, 0, 0, 0, 0, 0, 0, 0, 0, 0, 0, 0, 0, 0, 0, 0, 0, 0, 0, 0, 0, 0, 0, 0, 0, 0, 0, 0, 0, 0, 0, 0, 0, 0, 0, 0, 0, 0, 0, 0, 0, 0, 0, 0, 0, 0, 0, 0, 0, 0, 0, 0, 0, 0, 0, 0, 0, 0, 0, 0, 0, 0, 0, 0, 0, 0, 0, 0, 0, 0, 0, 0, 0, 0, 0, 0, 0, 0, 0, 0] p=0.5"]
S0 -> S3 [label="3 [0, 0, 0, 0, 0, 0, 0, 0, 0, 0, 0, 0, 0, 0, 0, 0, 0, 0, 0, 0, 0, 0, 0, 0, 0, 0, 0, 0, 0, 0, 0, 0, 0, 0, 0, 0, 0, 0, 0, 0, 0, 0, 0, 0, 0, 0, 0, 0, 0, 0, 0, 0, 0, 0, 0, 0, 0, 0, 0, 0, 0, 0, 0, 0, 0, 0, 0, 0, 0, 0, 0, 0, 0, 0, 0, 0] p=0.25"]
S0 -> S44 [label="5 [0] p=0.0"]
S1 -> S2 [label="2 [2539, 4165, 4163, 4164, 4105, 4105, 4104, 4103, 4102, 4103, 4104, 4044, 4105, 4104, 4104, 4104, 4044, 3984, 3985, 4103, 4103, 4105, 4105, 4163, 4103, 4104, 4044, 4103, 4163, 4106, 4105, 4104, 4045, 4103, 4104, 4105, 4164, 4224, 4283, 4284, 4285, 4222, 4223, 4284, 4165, 4165, 4163, 4225, 4165, 4163, 4162, 4164, 4165, 4224, 4164, 4223, 4284, 1884, 3264, 4344, 1884, 3323, 1884, 3323, 1884, 3264, 1884, 3264, 4224, 4285, 4283, 4284, 4283, 4224, 4224, 4165, 4163, 4164, 4105, 4105, 4104, 4103, 4102, 4103, 4104, 4044, 4105, 4104, 4104, 4104, 4044, 3984, 3985, 4103, 4103, 4105, 4105, 4163, 4103, 4104, 4044, 4103, 4163, 4106, 4105, 4104, 4045, 4103, 4104, 4105, 4164, 4224, 4283, 4284, 4285, 4222, 4223, 4284, 4165, 4165, 4163, 4225, 4165, 4163, 4162, 4164, 4165, 4224, 4164, 4223, 4284, 1884, 3264, 4344, 1884, 3323, 1884, 3323, 1884, 3264, 1884, 3264, 4224, 4285, 4283, 4284, 4283, 4224, 4224, 4165, 4163, 4164, 4105, 4105, 4104, 4103, 4102, 4103, 4104, 4044, 4105, 4104, 4104, 4104, 4044, 3984, 3985, 4103, 4103, 4105, 4105, 4163, 4103, 4104, 4044, 4103, 4163, 4106, 4105, 4104, 4045, 4103, 4104, 4105, 4164, 4224, 4283, 4284, 4285, 4222, 4223, 4284, 4165, 4165, 4163, 4225, 4165, 4163, 4162, 4164, 4165, 4224, 4164, 4223, 4284, 1884, 3264, 4344, 1884, 3323, 1884, 3323, 1884, 3264, 1884, 3264, 4224, 4285, 4283, 4284, 4283, 4224, 4224, 4165, 4163, 4164, 4105, 4105, 4104, 4103, 4102, 4103, 4104, 4044, 4105, 4104, 4104, 4104, 4044, 3984, 3985, 4103, 4103, 4105, 4105, 4163, 4103, 4104, 4044, 4103, 4163, 4106, 4105, 4104, 4045, 4103, 4104, 4105, 4164, 4224, 4283, 4284, 4285, 4222, 4223, 4284, 4165, 4165, 4163, 4225, 4165, 4163, 4162, 4164, 4165, 4224, 4164, 4223, 4284, 1884, 3264, 4344, 1884, 3323, 1884, 3323, 1884, 3264, 1884, 3264, 4224, 4285, 4283, 4284, 4283, 4224, 4224, 4165, 4163, 4164, 4105, 4105, 4104, 4103, 4102, 4103, 4104, 4044, 4105, 4104, 4104, 4104, 4044, 3984, 3985, 4103, 4103, 4105, 4105, 4163, 4103, 4104, 4044, 4103, 4163, 4106, 4105, 4104, 4045, 4103, 4104, 4105, 4164, 4224, 4283, 4284, 4285, 4222, 4223, 4284, 4165, 4165, 4163, 4225, 4165, 4163, 4162, 4164, 4165, 4224, 4164, 4223, 4284, 1884, 3264, 4344, 1884, 3323, 1884, 3323, 1884, 3264, 1884, 3264, 4224, 4285, 4283, 4284, 4283, 4224, 4163, 4164, 4105, 4105, 4104, 4103, 4102, 4103, 4104, 4044, 4105, 4104, 4104, 4104, 4044, 3984, 3985, 4103, 4103, 4105, 4105, 4163, 4103, 4104, 4044, 4103, 4163, 4106, 4105, 4104, 4045, 4103, 4104, 4105, 4164, 4224, 4283, 4284, 4285, 4222, 4223, 4284, 4165, 4165, 4163, 4225, 4165, 4163, 4162, 4164, 4165, 4224, 4164, 4223, 4284, 1884, 3264, 4344, 1884, 3323, 1884, 3323, 1884, 3264, 1884, 3264, 4224, 4285, 4283, 4284, 4283, 4224, 4163, 4164, 4105, 4105, 4104, 4103, 4102, 4103, 4104, 4044, 4105, 4104, 4104, 4104, 4044, 3984, 3985, 4103, 4103, 4105, 4105, 4163, 4103, 4104, 4044, 4103, 4163, 4106, 4105, 4104, 4045, 4103, 4104, 4105, 4164, 4224, 4283, 4284, 4285, 4222, 4223, 4284, 4165, 4165, 4163, 4225, 4165, 4163, 4162, 4164, 4165, 4224, 4164, 4223, 4284, 1884, 3264, 4344, 1884, 3323, 1884, 3323, 1884, 3264, 1884, 3264, 4224, 4285, 4283, 4284, 4283, 4224, 4163, 4164, 4105, 4105, 4104, 4103, 4102, 4103, 4104, 4044, 4105, 4104, 4104, 4104, 4044, 3984, 3985, 4103, 4103, 4105, 4105, 4163, 4103, 4104, 4044, 4103, 4163, 4106, 4105, 4104, 4045, 4103, 4104, 4105, 4164, 4224, 4283, 4284, 4285, 4222, 4223, 4284, 4165, 4165, 4163, 4225, 4165, 4163, 4162, 4164, 4165, 4224, 4164, 4223, 4284, 1884, 3264, 4344, 1884, 3323, 1884, 3323, 1884, 3264, 1884, 3264, 4224, 4285, 4283, 4284, 4283, 4224, 4163, 4164, 4105, 4105, 4104, 4103, 4102, 4103, 4104, 4044, 4105, 4104, 4104, 4104, 4044, 3984, 3985, 4103, 4103, 4105, 4105, 4163, 4103, 4104, 4044, 4103, 4163, 4106, 4105, 4104, 4045, 4103, 4104, 4105, 4164, 4224, 4283, 4284, 4285, 4222, 4223, 4284, 4165, 4165, 4163, 4225, 4165, 4163, 4162, 4164, 4165, 4224, 4164, 4223, 4284, 1884, 3264, 4344, 1884, 3323, 1884, 3323, 1884, 3264, 1884, 3264, 4224, 4285, 4283, 4284, 4283, 4164, 4105, 4105, 4104, 4103, 4102, 4103, 4104, 4044, 4105, 4104, 4104, 4104, 4044, 3984, 3985, 4103, 4103, 4105, 4105, 4163, 4103, 4104, 4044, 4103, 4163, 4106, 4105, 4104, 4045, 4103, 4104, 4105, 4164, 4224, 4283, 4284, 4285, 4222, 4223, 4284, 4165, 4165, 4163, 4225, 4165, 4163, 4162, 4164, 4165, 4224, 4164, 4223, 4284, 1884, 3264, 4344, 1884, 3323, 1884, 3323, 1884, 3264, 1884, 3264, 4224, 4285, 4283, 4284, 4283, 4224, 4224, 4224, 4224, 4224, 4224, 4224, 4224] p=1.0"]
S12 -> S3 [label="3 [4, 3, 4, 4, 3, 3, 4, 4, 4, 4, 3, 4, 3, 3, 4, 3, 3, 3, 3, 4, 3, 3, 3, 3, 4, 3, 3, 3, 3, 3, 3, 3, 3, 4, 3, 3, 4, 3, 3, 3, 3, 3, 4, 3, 3, 4, 4, 3, 3, 3, 3, 3, 3, 5, 3, 4, 4, 4, 3, 4, 4, 3, 3, 3, 4, 4, 3, 3, 4, 3, 4, 3, 4, 4, 3] p=0.5"]
S12 -> S1 [label="1 [4, 5, 4, 4, 4, 4, 6, 4, 5, 4, 4, 4, 4, 4, 5, 4, 5, 4, 5, 4, 4, 4, 5, 4, 4, 5, 5, 4, 4, 4, 4, 3, 4, 4, 5, 4, 4, 6, 4, 4, 5, 4, 4, 4, 4, 5, 4, 4, 4, 6, 5, 4, 4, 3, 5, 4, 4, 4, 5, 5, 4, 4, 4, 4, 4, 5, 4, 4, 4, 4, 4, 4, 5, 4, 4] p=0.5"]
S3 -> S4 [label="2 [29, 28, 29, 28, 28, 29, 27, 30, 29, 29, 29, 28, 29, 29, 28, 29, 28, 29, 28, 30, 29, 28, 29, 30, 29, 29, 29, 30, 29, 28, 28, 30, 29, 29, 29, 28, 29, 28, 30, 28, 30, 30, 29, 29, 28, 28, 28, 28, 30, 29, 29, 29, 28, 29, 28, 29, 28, 29, 28, 27, 29, 30, 30, 29, 28, 28, 29, 29, 28, 29, 30, 29, 29, 29, 28, 29, 28, 28, 29, 27, 30, 29, 29, 29, 28, 29, 29, 28, 29, 28, 29, 28, 30, 29, 28, 29, 30, 29, 29, 29, 30, 29, 28, 28, 30, 29, 29, 29, 28, 29, 28, 30, 28, 30, 30, 29, 29, 28, 28, 28, 28, 30, 29, 29, 29, 28, 29, 28, 29, 28, 29, 28, 27, 29, 30, 30, 29, 28, 28, 29, 29, 28, 29, 30, 29, 29, 29, 28, 29, 28, 28, 29, 27, 30, 29, 29, 29, 28, 29, 29, 28, 29, 28, 29, 28, 30, 29, 28, 29, 30, 29, 29, 29, 30, 29, 28, 28, 30, 29, 29, 29, 28, 29, 28, 30, 28, 30, 30, 29, 29, 28, 28, 28, 28, 30, 29, 29, 29, 28, 29, 28, 29, 28, 29, 28, 27, 29, 30, 30, 29, 28, 28, 29, 29, 28, 29, 30, 29, 29, 29, 28, 29, 28, 28, 29, 27, 30, 29, 29, 29, 28, 29, 29, 28, 29, 28, 29, 28, 30, 29, 28, 29, 30, 29, 29, 29, 30, 29, 28, 28, 30, 29, 29, 29, 28, 29, 28, 30, 28, 30, 30, 29, 29, 28, 28, 28, 28, 30, 29, 29, 29, 28, 29, 28, 29, 28, 29, 28, 27, 29, 30, 30, 29, 28, 28, 29, 29, 28, 29, 30, 29, 29, 29, 28, 29, 28, 28, 29, 27, 30, 29, 29, 29, 28, 29, 29, 28, 29, 28, 29, 28, 30, 29, 28, 29, 30, 29, 29, 29, 30, 29, 28, 28, 30, 29, 29, 29, 28, 29, 28, 30, 28, 30, 30, 29, 29, 28, 28, 28, 28, 30, 29, 29, 29, 28, 29, 28, 29, 28, 29, 28, 27, 29, 30, 30, 29, 28, 28, 29, 29, 28, 29, 30, 29, 29, 29, 28, 28, 29, 27, 30, 29, 29, 29, 28, 29, 29, 28, 29, 28, 29, 28, 30, 29, 28, 29, 30, 29, 29, 29, 30, 29, 28, 28, 30, 29, 29, 29, 28, 29, 28, 30, 28, 30, 30, 29, 29, 28, 28, 28, 28, 30, 29, 29, 29, 28, 29, 28, 29, 28, 29, 28, 27, 29, 30, 30, 29, 28, 28, 29, 29, 28, 29, 30, 29, 29, 29, 28, 28, 29, 27, 30, 29, 29, 29, 28, 29, 29, 28, 29, 28, 29, 28, 30, 29, 28, 29, 30, 29, 29, 29, 30, 29, 28, 28, 30, 29, 29, 29, 28, 29, 28, 30, 28, 30, 30, 29, 29, 28, 28, 28, 28, 30, 29, 29, 29, 28, 29, 28, 29, 28, 29, 28, 27, 29, 30, 30, 29, 28, 28, 29, 29, 28, 29, 30, 29, 29, 29, 28, 28, 29, 27, 30, 29, 29, 29, 28, 29, 29, 28, 29, 28, 29, 28, 30, 29, 28, 29, 30, 29, 29, 29, 30, 29, 28, 28, 30, 29, 29, 29, 28, 29, 28, 30, 28, 30, 30, 29, 29, 28, 28, 28, 28, 30, 29, 29, 29, 28, 29, 28, 29, 28, 29, 28, 27, 29, 30, 30, 29, 28, 28, 29, 29, 28, 29, 30, 29, 29, 29, 29, 29, 29, 29, 28, 29, 28, 28, 29, 27, 30, 29, 29, 29, 28, 29, 29, 28, 29, 28, 29, 28, 30, 29, 28, 29, 30, 29, 29, 29, 30, 29, 28, 28, 30, 29, 29, 29, 28, 29, 28, 30, 28, 30, 30, 29, 29, 28, 28, 28, 28, 30, 29, 29, 29, 28, 29, 28, 29, 28, 29, 28, 27, 29, 30, 30, 29, 28, 28, 29, 29, 28, 29, 30, 29, 29, 29, 29, 28, 29, 28, 28, 29, 27, 30, 29, 29, 29, 28, 29, 29, 28, 29, 28, 29, 28, 30, 29, 28, 29, 30, 29, 29, 29, 30, 29, 28, 28, 30, 29, 29, 29, 28, 29, 28, 30, 28, 30, 30, 29, 29, 28, 28, 28, 28, 30, 29, 29, 29, 28, 29, 28, 29, 28, 29, 28, 27, 29, 30, 30, 29, 28, 28, 29, 29, 28, 29, 30, 29, 3, 29, 29] p=0.99"]
S3 -> S44 [label="5 [23, 23, 23, 23, 23, 23, 23, 23, 23, 23] p=0.01"]
S44 -> S46 [label="3 [2, 2, 2, 2, 2, 2, 2, 2, 2, 2] p=1.0"]
S2 -> S3 [label="3 [4, 3, 4, 4, 3, 3, 4, 4, 4, 4, 3, 4, 3, 3, 4, 3, 3, 3, 3, 4, 3, 3, 3, 3, 4, 3, 3, 3, 3, 3, 3, 3, 3, 4, 3, 3, 4, 3, 3, 3, 3, 3, 4, 3, 3, 4, 4, 3, 3, 3, 3, 3, 3, 5, 3, 4, 4, 4, 3, 4, 4, 3, 3, 3, 4, 4, 3, 3, 4, 3, 4, 3, 4, 4, 3, 3, 4, 4, 3, 3, 4, 4, 4, 4, 3, 4, 3, 3, 4, 3, 3, 3, 3, 4, 3, 3, 3, 3, 4, 3, 3, 3, 3, 3, 3, 3, 3, 4, 3, 3, 4, 3, 3, 3, 3, 3, 4, 3, 3, 4, 4, 3, 3, 3, 3, 3, 3, 5, 3, 4, 4, 4, 3, 4, 4, 3, 3, 3, 4, 4, 3, 3, 4, 3, 4, 3, 4, 4, 3, 3, 4, 4, 3, 3, 4, 4, 4, 4, 3, 4, 3, 3, 4, 3, 3, 3, 3, 4, 3, 3, 3, 3, 4, 3, 3, 3, 3, 3, 3, 3, 3, 4, 3, 3, 4, 3, 3, 3, 3, 3, 4, 3, 3, 4, 4, 3, 3, 3, 3, 3, 3, 5, 3, 4, 4, 4, 3, 4, 4, 3, 3, 3, 4, 4, 3, 3, 4, 3, 4, 3, 4, 4, 3, 3, 4, 4, 3, 3, 4, 4, 4, 4, 3, 4, 3, 3, 4, 3, 3, 3, 3, 4, 3, 3, 3, 3, 4, 3, 3, 3, 3, 3, 3, 3, 3, 4, 3, 3, 4, 3, 3, 3, 3, 3, 4, 3, 3, 4, 4, 3, 3, 3, 3, 3, 3, 5, 3, 4, 4, 4, 3, 4, 4, 3, 3, 3, 4, 4, 3, 3, 4, 3, 4, 3, 4, 3, 4, 3, 4, 4, 3, 3, 4, 4, 4, 4, 3, 4, 3, 3, 4, 3, 3, 3, 3, 4, 3, 3, 3, 3, 4, 3, 3, 3, 3, 3, 3, 3, 3, 4, 3, 3, 4, 3, 3, 3, 3, 3, 4, 3, 3, 4, 4, 3, 3, 3, 3, 3, 3, 5, 3, 4, 4, 4, 3, 4, 4, 3, 3, 3, 4, 4, 3, 3, 4, 3, 4, 3, 4, 3, 4, 4, 3, 3, 4, 4, 4, 4, 3, 4, 3, 3, 4, 3, 3, 3, 3, 4, 3, 3, 3, 3, 4, 3, 3, 3, 3, 3, 3, 3, 3, 4, 3, 3, 4, 3, 3, 3, 3, 3, 4, 3, 3, 4, 4, 3, 3, 3, 3, 3, 3, 5, 3, 4, 4, 4, 3, 4, 4, 3, 3, 3, 4, 4, 3, 3, 4, 3, 4, 3, 4, 3, 4, 4, 3, 3, 4, 4, 4, 4, 3, 4, 3, 3, 4, 3, 3, 3, 3, 4, 3, 3, 3, 3, 4, 3, 3, 3, 3, 3, 3, 3, 3, 4, 3, 3, 4, 3, 3, 3, 3, 3, 4, 3, 3, 4, 4, 3, 3, 3, 3, 3, 3, 5, 3, 4, 4, 4, 3, 4, 4, 3, 3, 3, 4, 4, 3, 3, 4, 3, 4, 3, 4, 3, 4, 4, 3, 3, 4, 4, 4, 4, 3, 4, 3, 3, 4, 3, 3, 3, 3, 4, 3, 3, 3, 3, 4, 3, 3, 3, 3, 3, 3, 3, 3, 4, 3, 3, 4, 3, 3, 3, 3, 3, 4, 3, 3, 4, 4, 3, 3, 3, 3, 3, 3, 5, 3, 4, 4, 4, 3, 4, 4, 3, 3, 3, 4, 4, 3, 3, 4, 3, 4, 3, 4, 3, 4, 4, 3, 3, 4, 4, 4, 4, 3, 4, 3, 3, 4, 3, 3, 3, 3, 4, 3, 3, 3, 3, 4, 3, 3, 3, 3, 3, 3, 3, 3, 4, 3, 3, 4, 3, 3, 3, 3, 3, 4, 3, 3, 4, 4, 3, 3, 3, 3, 3, 3, 5, 3, 4, 4, 4, 3, 4, 4, 3, 3, 3, 4, 4, 3, 3, 4, 3, 4, 3, 4, 4, 3, 4, 4, 4, 4] p=1.0"]
S4 -> S1 [label="1 [4, 5, 4, 4, 4, 4, 6, 4, 5, 4, 4, 4, 4, 4, 5, 4, 5, 4, 5, 4, 4, 4, 5, 4, 4, 5, 5, 4, 4, 4, 4, 3, 4, 4, 5, 4, 4, 6, 4, 4, 5, 4, 4, 4, 4, 5, 4, 4, 4, 6, 5, 4, 4, 3, 5, 4, 4, 4, 5, 5, 4, 4, 4, 4, 4, 5, 4, 4, 4, 4, 4, 4, 5, 4, 4, 4, 5, 4, 4, 4, 4, 6, 4, 5, 4, 4, 4, 4, 4, 5, 4, 5, 4, 5, 4, 4, 4, 5, 4, 4, 5, 5, 4, 4, 4, 4, 3, 4, 4, 5, 4, 4, 6, 4, 4, 5, 4, 4, 4, 4, 5, 4, 4, 4, 6, 5, 4, 4, 3, 5, 4, 4, 4, 5, 5, 4, 4, 4, 4, 4, 5, 4, 4, 4, 4, 4, 4, 4, 4, 4, 5, 4, 4, 4, 4, 6, 4, 5, 4, 4, 4, 4, 4, 5, 4, 5, 4, 5, 4, 4, 4, 5, 4, 4, 5, 5, 4, 4, 4, 4, 3, 4, 4, 5, 4, 4, 6, 4, 4, 5, 4, 4, 4, 4, 5, 4, 4, 4, 6, 5, 4, 4, 3, 5, 4, 4, 4, 5, 5, 4, 4, 4, 4, 4, 5, 4, 4, 4, 4, 4, 4, 4, 4, 5, 4, 4, 4, 4, 6, 4, 5, 4, 4, 4, 4, 4, 5, 4, 5, 4, 5, 4, 4, 4, 5, 4, 4, 5, 5, 4, 4, 4, 4, 3, 4, 4, 5, 4, 4, 6, 4, 4, 5, 4, 4, 4, 4, 5, 4, 4, 4, 6, 5, 4, 4, 3, 5, 4, 4, 4, 5, 5, 4, 4, 4, 4, 4, 5, 4, 4, 4, 4, 4, 4, 4, 4, 5, 4, 4, 4, 4, 6, 4, 5, 4, 4, 4, 4, 4, 5, 4, 5, 4, 5, 4, 4, 4, 5, 4, 4, 5, 5, 4, 4, 4, 4, 3, 4, 4, 5, 4, 4, 6, 4, 4, 5, 4, 4, 4, 4, 5, 4, 4, 4, 6, 5, 4, 4, 3, 5, 4, 4, 4, 5, 5, 4, 4, 4, 4, 4, 5, 4, 4, 4, 4, 4, 4, 4, 4, 5, 4, 4, 4, 4, 6, 4, 5, 4, 4, 4, 4, 4, 5, 4, 5, 4, 5, 4, 4, 4, 5, 4, 4, 5, 5, 4, 4, 4, 4, 3, 4, 4, 5, 4, 4, 6, 4, 4, 5, 4, 4, 4, 4, 5, 4, 4, 4, 6, 5, 4, 4, 3, 5, 4, 4, 4, 5, 5, 4, 4, 4, 4, 4, 5, 4, 4, 4, 4, 4, 4, 4, 4, 5, 4, 4, 4, 4, 6, 4, 5, 4, 4, 4, 4, 4, 5, 4, 5, 4, 5, 4, 4, 4, 5, 4, 4, 5, 5, 4, 4, 4, 4, 3, 4, 4, 5, 4, 4, 6, 4, 4, 5, 4, 4, 4, 4, 5, 4, 4, 4, 6, 5, 4, 4, 3, 5, 4, 4, 4, 5, 5, 4, 4, 4, 4, 4, 5, 4, 4, 4, 4, 4, 4, 4, 4, 4, 4, 4, 6, 4, 5, 4, 4, 4, 4, 4, 5, 4, 5, 4, 5, 4, 4, 4, 5, 4, 4, 5, 5, 4, 4, 4, 4, 3, 4, 4, 5, 4, 4, 6, 4, 4, 5, 4, 4, 4, 4, 5, 4, 4, 4, 6, 5, 4, 4, 3, 5, 4, 4, 4, 5, 5, 4, 4, 4, 4, 4, 5, 4, 4, 4, 4, 4, 4, 4, 4, 4, 4, 4, 6, 4, 5, 4, 4, 4, 4, 4, 5, 4, 5, 4, 5, 4, 4, 4, 5, 4, 4, 5, 5, 4, 4, 4, 4, 3, 4, 4, 5, 4, 4, 6, 4, 4, 5, 4, 4, 4, 4, 5, 4, 4, 4, 6, 5, 4, 4, 3, 5, 4, 4, 4, 5, 5, 4, 4, 4, 4, 4, 5, 4, 4, 4, 4, 4, 4, 4, 4, 4, 4, 5, 5, 5, 5, 5, 5, 5, 5] p=1.0"]
S46 -> S4 [label="2 [3, 3, 3, 3, 3, 3, 3, 3, 3] p=1.0"]