,Process,Breakpoints,SSD,Persistence,k,dt,topsis
0,var1,[-0.0019907545421577405],22.798457213718972,0.40103713490810255,2.0,19.383581938422086,1.4142135623730951
1,var1,"[-0.07885570309421583, 0.21040224431188148]",8.111123549252028,0.3537571792288774,3.0,10.19163759566621,0.9703662038042992
2,var1,"[0.00579613749702666, 0.22938040547223715]",14.969367314145575,0.3854437080243531,3.0,13.265536482895785,1.1710687417604835
3,var1,"[-0.2984735036395245, 0.07357643571357103, 0.24699090125315623]",5.361966322009705,0.34331697714050646,4.0,9.673780530373799,0.9231874025769814
4,var1,"[-0.3517390798995136, 0.04103895392292671, 0.21364147296085048, 0.2962307405978942]",3.5093756790361974,0.301320248379072,5.0,9.977078068612396,0.841181299429758
5,var1,"[-0.30577088388769, -0.08540161506195806, 0.03783060998190256, 0.22481275276496937, 0.2961893813649348]",2.398836096188124,0.22610020698255995,6.0,11.65088607575985,0.7196997490729187
6,var1,"[-0.32416652791616735, -0.11282726890224688, 0.04461054579282991, 0.16637658492890173, 0.26323455227672654, 0.3650207586779597, 0.4814976058505847]",0.6519349081807805,0.06332515523692006,8.0,18.54198811318576,0.5761106397165022
7,var1,"[-0.23276271594314982, -0.10125319496723895, 0.04644532743546461, 0.16602190003527478, 0.26323455227672654, 0.38304570859422005]",0.9638377748851267,0.07237160598505143,7.0,17.3492489170961,0.5173707470498526
8,var1,"[-0.10679949645253498, 0.15015134447212486]",7.974204401846658,0.2743412248129229,3.0,9.99556516929144,0.8142932237580494
9,var1,"[-0.17213057297619835, 0.24351982192845226]",8.88839099750355,0.3640265394982376,3.0,10.484423806259182,1.0032763660450794
10,var1,"[-0.3041109216559439, 0.09409236862397237, 0.29620787380023905]",4.917020276816906,0.2766503104738398,4.0,9.43135163946559,0.7846730861555035
11,var1,[-0.1794260237647394],22.510913592745446,0.35404846725601447,2.0,18.561234440128686,1.336336159608095
12,var1,"[-0.29517684036147945, 0.06993381422739152, 0.22383402378826173]",5.575225180372862,0.37513515895868843,4.0,10.422324959698367,0.9897030118067874
13,var1,"[-0.059300152052987415, 0.2412271584048739]",11.193526537491762,0.3666646586244575,3.0,11.208235395326344,1.0515969334277118
14,var1,"[-0.3472603945636217, 0.04103895392292671, 0.2138132793420539, 0.2962307405978942, 0.4797401362082431]",2.5635627038833615,0.26221131809367115,6.0,11.099371874174288,0.7884219916876264
15,var1,[-0.054214043063417205],22.69296870734107,0.37499698793668634,2.0,18.892367800662235,1.3724150759229612
16,var1,"[-0.29524874865730416, 0.0815333873334089, 0.23503886299753987, 0.2924273793131515]",3.7214056723817888,0.34132024837907204,5.0,10.368834966943103,0.9226368151541307
17,var1,"[-0.1786601347106766, -0.010034733013385522]",16.83604521217611,0.4010281343945692,3.0,14.64837321261788,1.245297313593433
18,var1,[0.01788397351495645],22.449255157284743,0.31628412155795527,2.0,18.501285409864373,1.2817371916422824
19,var1,"[-0.2338143410859364, 0.04101953153533277, 0.2611423772397428]",5.20132992082796,0.28220586602939557,4.0,9.317694722504298,0.7991612804030457
20,var1,"[-0.29586164005924664, 0.07448477297632017, 0.2561658473791889]",5.214102445687118,0.2893487231722527,4.0,9.285000389995545,0.8134954694878459
21,var1,"[-0.4534216993614532, -0.31310508155536143, -0.1335326869116817, -0.03348534697909615, 0.03782763218344625, 0.1089028265584661, 0.16966737315504452, 0.22385034329933737, 0.26147423033942396, 0.2924273793131515, 0.32183157693101055, 0.38227070297213034, 0.4814976058505847]",0.08727478483510882,-0.07135721421435703,14.0,30.64819590316138,1.0
22,var1,"[-0.34930436358925326, 0.04468424049751756, 0.20263827212297336, 0.37162025342622107]",2.6276527270052243,0.22798691504573854,5.0,11.041587777257655,0.6903294608915568
23,var1,"[-0.3011301145788875, 0.06442755175566617, 0.2147439314138293, 0.2962307405978942, 0.4797401362082431]",2.7755926972289533,0.29554465142700437,6.0,10.948390139983092,0.8534418343455286
24,var1,"[-0.11145285754405711, 0.1579153522333658, 0.3814690579813302]",4.558556241983236,0.18267899553276923,4.0,11.629568779202371,0.5964284586844878
25,var1,"[-0.3140919474327566, 0.05275787578122401, 0.23928020223527166]",5.248854626321868,0.33617411999764935,4.0,9.579096799417188,0.9075620985399917
26,var2,"[0.09333106911682432, 0.17768057268666276, 0.2495246385702104, 0.338649395727506, 0.45448919404731636, 0.5388199873788156, 0.6091960574813196, 0.7182978681599286]",0.3261353421221701,0.04711053128774645,9.0,11.194309732255409,0.7012050195296227
27,var2,[0.4244619439435619],9.841000526456684,0.26085595522011706,2.0,6.932717953391961,0.6265037566218101
28,var2,"[0.27957786632907855, 0.418459594512637, 0.6447774359291449]",3.912824809506166,0.4944845510883247,4.0,7.708362981086181,1.030532941362676
29,var2,"[0.2766942379766032, 0.6503596516816855]",7.0254371514853196,0.45560903108072925,3.0,6.86366838445087,0.9606151270168558
30,var2,"[0.39477683779518713, 0.650100519990769]",5.651262271713292,0.3943295698012679,3.0,6.041519996398042,0.8204096198860978
31,var2,[0.6497348108142575],25.78598150496799,0.35404846725601447,2.0,12.276516707139784,1.2199088913457246
32,var2,"[0.2519849542605248, 0.4065469078816732, 0.6021798628392873]",3.47709119418766,0.33582494766540005,4.0,5.978417730040197,0.7016580077134558
33,var2,"[0.17449198690893664, 0.3225517069075034, 0.4713827043991748, 0.5945084585452884, 0.7182556177259154]",0.9607977671661438,0.12423722550304817,6.0,8.377897469164946,0.4510014307427951
34,var2,"[0.4130052154318376, 0.647844844373879]",6.289726133227966,0.42783125330295135,3.0,6.375947485298574,0.8958016649014362
35,var2,"[0.079227978356196, 0.13297579489578795, 0.20985420183343215, 0.25033373695212124, 0.3300331985663236, 0.3789202108738816, 0.4649505977471338, 0.5148400148881623, 0.5561019770785763, 0.6111239911645263, 0.7129234310352593]",0.10368546114594256,0.028388454021365472,12.0,14.08497381342915,1.0
36,var2,"[0.356998035892962, 0.6125434500053071]",5.185656008301073,0.3013380254586284,3.0,5.989566520432865,0.6261728946719978
37,var2,"[0.17516354733082962, 0.32393375772471744, 0.517566550515842, 0.7125404857260376]",1.7930858541421169,0.0850370515560388,5.0,8.742069280153355,0.33030092420385593
38,var2,"[0.2907431857334824, 0.4308155277625907, 0.6074112910830899]",3.643734419532595,0.4183646302050823,4.0,6.413924580126487,0.8712311349470877
39,var2,[0.2889379402509783],13.129941472164646,0.3275730529251657,2.0,7.369900271141454,0.8181004360460977
40,var3,"[-0.3362687577199656, -0.16571290814068798, 0.009237855513678141]",3.7204061949190517,0.1911177902557213,4.0,8.866031991794648,0.72635868507707
41,var3,[-0.19589421146200314],13.986595844348086,0.316589338496555,2.0,20.63759306638967,1.4142135623730951
42,var3,"[-0.43239643002704653, -0.23966452372734628, -0.1045712114933808, 0.06404374302641015]",1.7235956111730084,0.07326175616498198,5.0,11.005400551756635,0.4329772922045077
43,var3,"[-0.3245186820727037, -0.15181061101864424, 0.0336612138832232]",3.434397994731791,0.12401767139670361,4.0,9.306733854877178,0.5563863872612704
44,var3,"[-0.249758486744468, 0.009610730829986959]",6.842345460665808,0.20561737113461254,3.0,10.407050692453272,0.8537964758740659
45,var3,"[-0.25624996579395143, -0.1032069559967344, 0.009873405417454469]",5.023534633416421,0.24171302835095942,4.0,9.888222691257399,0.8872391712795702
46,var3,"[-0.33840664398376813, -0.10356983592758581, 0.007897100329442717]",3.9405391150024274,0.23278445692238803,4.0,9.597709083186558,0.8362341133667853
47,var3,"[-0.33760780227757076, -0.10102080026160988, -0.05171337490243254, 0.009238344900908378]",3.7268504180376514,0.21956089887124364,5.0,9.130655660940638,0.8191809706636856
48,var3,"[-0.44617869548668965, -0.15287504621168568, 0.0047049298437260995]",3.133098445558881,0.07653445692238803,4.0,10.670557526214637,0.4400095156967582
49,var3,"[-0.33946172559415877, -0.19759279074263514]",11.324699860961616,0.2943928923310366,3.0,16.401187382006047,1.2425461723479885
50,var3,"[-0.21867902050354907, -0.0008614381979323293]",6.769282790515623,0.12772979625347314,3.0,10.86628125122001,0.6871792320535564
51,var3,"[-0.34231773675601357, -0.23512906924035765, -0.10361024013364341, -0.0458703774778074, 0.0069583537638381225, 0.0411439366613542, 0.20266463712035995]",1.7768362240674413,0.1147082084582085,8.0,11.535800309745893,0.6814647512679548
52,var3,"[-0.4483870061834646, -0.23141131700278214, -0.10335813171514696, 0.005208420951410237]",2.0641430921571255,0.1305132798236246,5.0,9.412196825888193,0.568383921193366
53,var3,"[-0.33767388396293535, -0.23512906924035765, -0.1035789481653984, -0.04557240700808389, 0.009621929311727848]",2.977943504505394,0.20876106651968707,6.0,9.492417191698088,0.8071204763783121
54,var3,"[-0.44837429975442655, -0.23138975978546303, -0.08924439055708655, 0.005301017418199161, 0.15850100508556733]",1.1555722636753285,0.09659507159507164,6.0,10.81526407566152,0.5238618968850408
55,var3,"[-0.33707004935766843, -0.07796065872190486]",7.387556259488347,0.25659504272221034,3.0,11.725379520934638,0.9914087699988392
56,var3,"[-0.3197256199784932, -0.23512906924035765, -0.1035805368039661, 0.00683903912211864]",3.19163220147017,0.21717994649029126,5.0,9.21445318045538,0.8016425725476736
57,var3,"[-0.33773819128719756, -0.08860657514624534]",7.280045773541085,0.23830045923069187,3.0,11.168399413348912,0.9452125917256193
58,var3,"[-0.3383808976026646, -0.23679079327075828, -0.10358021083426258, -0.051392346493507796, 0.00791560840344487, 0.20203445802461986]",2.069372676023597,0.16851006136720414,7.0,10.153544918236713,0.7397433695677031
59,var3,[-0.07848424634849244],13.61683043366427,0.2598925640833154,2.0,18.847657353150222,1.2886408977923545
60,var3,"[-0.4296253236166233, -0.2999082713993042, -0.2345829259209745, -0.16570881310568, -0.047990114967673594, 0.0411439366613542, 0.20386319196280728]",0.34513039039184695,-0.041541791541791495,8.0,17.553307800795547,0.5008176006819353
61,var3,"[-0.4453837372594982, -0.3370442871406045, -0.23512906924035765, -0.09755250449795275, -0.05148898304411425, 0.031274967547223476, 0.13206458158280984, 0.20263440295380608]",0.3166232182938086,0.01862951862951867,9.0,15.79156421937997,0.6113600842957765
62,var3,"[-0.3347519419974861, -0.23511605618965775, -0.10359265743298432, 0.014018066012064012]",2.8510847204860537,0.15992842283164865,5.0,8.793408276621129,0.6544179678022045
63,var3,"[-0.4522744056730549, -0.3376111167490357, -0.3005881291039505, -0.27152236208985364, -0.22695191527550496, -0.16948952811574425, -0.09746141231971281, -0.04587905810891232, -0.006382780322502651, 0.037263340295883886, 0.0832834058186077, 0.12477855851987127, 0.20263440295380608]",0.01867734066742785,-0.04754769040483331,14.0,24.447312309170222,1.0
64,var4,"[0.3839022566583042, 1.2216699978677146, 1.5288366655788102, 2.877965907817029]",33.87582473132442,0.5313202483790718,5.0,8.06714258220358,1.0334476182742744
65,var4,"[0.2807966859548899, 0.4783011879726469, 0.6776611961639686, 0.7613088505319193, 0.9283025216334467, 1.177620798662359, 1.3388063723698311, 1.6136492213420501, 2.0414868674581426, 2.381455014427567, 2.6128328594089782, 2.9136398834827664, 3.2213554330988208, 3.3733000440584417]",0.49022066213396653,0.08895548895548888,15.0,9.764677955010601,1.0
66,var4,"[0.47986261171853584, 0.707969023213999, 0.9414994794897905, 1.1366909110784365, 1.36553599671961, 1.6918911063291915, 2.0414868674581426, 2.3822409970964866, 2.6204246183287614, 2.9142975392088157, 3.3733000440584417]",2.4086945755023232,0.20894400957692105,12.0,6.205239124462138,0.815682349488949
67,var4,[1.2741590054901937],275.2940626852482,0.4213281499294026,2.0,14.243393516812382,1.250813044903481
68,var4,"[0.7050586304594074, 1.215339271257111, 1.666709869631664, 2.3955211841933, 2.864071497020724]",18.05339867156979,0.47411607999843297,6.0,6.566232466345391,0.9256632956321896
69,var4,"[0.4570053790914811, 0.7093361841058319, 0.9262087650653095, 1.2059120989244527, 1.3504452272242817, 1.5344984144852147, 2.404498552152299, 2.7993560361162966]",7.382991195123115,0.3618445824328176,9.0,4.9958900697333135,0.819218895568985
70,var4,"[0.4605135960257779, 0.7245739638072065, 1.2094584435667908, 1.5840951137896682, 2.460513492506606, 2.9089596512354765]",10.574035471571586,0.4152287488421942,7.0,5.480207034722043,0.8326339355941557
71,var4,"[0.4570053790914811, 0.7093361841058319, 0.9262087650653095, 1.2059120989244527, 1.3488264434173356, 1.5342801095327867, 2.0415328884111665, 2.404498552152299, 2.798582429828598]",4.30783154328806,0.275660124189536,10.0,5.085628793754599,0.7463418615853926
72,var4,"[0.4622735624276679, 0.6989484478216443, 0.9111005255883153, 1.395424200223317, 1.5726974383581136, 2.3834480862346803, 2.8832395447550274]",8.737135354980058,0.3862418219035866,8.0,5.109044925999653,0.8158153382051504
73,var4,"[0.4693604071506846, 0.9361126115906543, 1.561027326386779, 2.4366120242353237, 2.802664923522876]",12.905748614802794,0.41360020698255995,6.0,5.817919591455733,0.7970586363917805
74,var4,"[0.28214095328602806, 0.49925865049744067, 0.704882262678495, 0.9055348984144356, 1.192335674521012, 1.351331365654887, 1.6094840433754933, 2.043775468663339, 2.36259236009469, 2.906526624194816]",3.2336673311380455,0.2202970825965478,11.0,5.767500462045124,0.7533551025503166
75,var4,"[0.2839415157937398, 0.516743758660507, 0.7036896436653846, 0.9234583128149616, 1.1934236877550264, 1.4032485297137256, 1.598325691887429, 2.0388705727724132, 2.3842211434799983, 2.616896996876644, 2.9164869583714763, 3.368588473766063]",1.3345303633523087,0.16723036781459366,13.0,7.252759553936302,0.8644627356240818
76,var4,"[0.3067855564409701, 0.5140189434082715, 0.683316094634783, 0.9395304449473665, 1.1666750987472279, 1.3577068668734227, 1.6438004440799359, 2.385929139222248, 2.8961308764250715]",6.269731324714179,0.285660124189536,10.0,5.0311553580106825,0.7595186181438882
77,var5,"[-0.44857601575400136, -0.047529099981001924, 0.23829202072048958]",9.374609459235854,0.4792597753124068,4.0,2.835347476980147,1.4142135623730951
78,var5,"[-0.32667605889908663, 0.11371929588287362]",9.410277414070084,0.3493073847979902,3.0,2.731153051647624,0.0025961590407737123
79,var5,"[-0.44859579509151387, 0.24100096796278303]",23.11334975751887,0.46105955899770334,3.0,2.738068637956359,1.3189044393059681
