8:0 3:5 11:5 3:5 11:5 4:5 9:5 5:5 11:5 5:5 8:5
3:0 11:5 3:5 11:5 4:5 9:5 5:5 11:5 5:5 8:5 6:5
11:0 3:5 11:5 4:5 9:5 5:5 11:5 5:5 8:5 6:5 9:5
3:0 11:5 4:5 9:5 5:5 11:5 5:5 8:5 6:5 9:5 4:5
11:0 4:5 9:5 5:5 11:5 5:5 8:5 6:5 9:5 4:5 11:5
4:0 9:5 5:5 11:5 5:5 8:5 6:5 9:5 4:5 11:5 2:5
9:0 5:5 11:5 5:5 8:5 6:5 9:5 4:5 11:5 2:5 11:5
5:0 11:5 5:5 8:5 6:5 9:5 4:5 11:5 2:5 11:5 3:5
11:0 5:5 8:5 6:5 9:5 4:5 11:5 2:5 11:5 3:5 10:5
5:0 8:5 6:5 9:5 4:5 11:5 2:5 11:5 3:5 10:5 5:5
8:0 6:5 9:5 4:5 11:5 2:5 11:5 3:5 10:5 5:5 7:10
6:0 9:5 4:5 11:5 2:5 11:5 3:5 10:5 5:5 7:10 10:15
9:0 4:5 11:5 2:5 11:5 3:5 10:5 5:5 7:10 10:15 2:5
4:0 11:5 2:5 11:5 3:5 10:5 5:5 7:10 10:15 2:5 11:5
11:0 2:5 11:5 3:5 10:5 5:5 7:10 10:15 2:5 11:5 5:5
2:0 11:5 3:5 10:5 5:5 7:10 10:15 2:5 11:5 5:5 11:5
11:0 3:5 10:5 5:5 7:10 10:15 2:5 11:5 5:5 11:5 4:5
3:0 10:5 5:5 7:10 10:15 2:5 11:5 5:5 11:5 4:5 7:5
10:0 5:5 7:10 10:15 2:5 11:5 5:5 11:5 4:5 7:5 9:5
5:0 7:10 10:15 2:5 11:5 5:5 11:5 4:5 7:5 9:5 6:5
7:0 10:15 2:5 11:5 5:5 11:5 4:5 7:5 9:5 6:5 11:5
10:0 2:5 11:5 5:5 11:5 4:5 7:5 9:5 6:5 11:5 2:5
2:0 11:5 5:5 11:5 4:5 7:5 9:5 6:5 11:5 2:5 9:5
11:0 5:5 11:5 4:5 7:5 9:5 6:5 11:5 2:5 9:5 5:5
5:0 11:5 4:5 7:5 9:5 6:5 11:5 2:5 9:5 5:5 11:5
11:0 4:5 7:5 9:5 6:5 11:5 2:5 9:5 5:5 11:5 7:5
4:0 7:5 9:5 6:5 11:5 2:5 9:5 5:5 11:5 7:5 5:5
7:0 9:5 6:5 11:5 2:5 9:5 5:5 11:5 7:5 5:5 9:5
9:0 6:5 11:5 2:5 9:5 5:5 11:5 7:5 5:5 9:5 5:5
6:0 11:5 2:5 9:5 5:5 11:5 7:5 5:5 9:5 5:5 10:5
11:0 2:5 9:5 5:5 11:5 7:5 5:5 9:5 5:5 10:5 3:5
2:0 9:5 5:5 11:5 7:5 5:5 9:5 5:5 10:5 3:5 10:5
9:0 5:5 11:5 7:5 5:5 9:5 5:5 10:5 3:5 10:5 6:5
5:0 11:5 7:5 5:5 9:5 5:5 10:5 3:5 10:5 6:5 9:5
11:0 7:5 5:5 9:5 5:5 10:5 3:5 10:5 6:5 9:5 6:5
7:0 5:5 9:5 5:5 10:5 3:5 10:5 6:5 9:5 6:5 9:5
5:0 9:5 5:5 10:5 3:5 10:5 6:5 9:5 6:5 9:5 3:5
9:0 5:5 10:5 3:5 10:5 6:5 9:5 6:5 9:5 3:5 11:5
5:0 10:5 3:5 10:5 6:5 9:5 6:5 9:5 3:5 11:5 3:5
10:0 3:5 10:5 6:5 9:5 6:5 9:5 3:5 11:5 3:5 10:5
3:0 10:5 6:5 9:5 6:5 9:5 3:5 11:5 3:5 10:5 4:5
10:0 6:5 9:5 6:5 9:5 3:5 11:5 3:5 10:5 4:5 7:5
6:0 9:5 6:5 9:5 3:5 11:5 3:5 10:5 4:5 7:5 8:10
9:0 6:5 9:5 3:5 11:5 3:5 10:5 4:5 7:5 8:10 10:5
6:0 9:5 3:5 11:5 3:5 10:5 4:5 7:5 8:10 10:5 2:5
9:0 3:5 11:5 3:5 10:5 4:5 7:5 8:10 10:5 2:5 11:5
3:0 11:5 3:5 10:5 4:5 7:5 8:10 10:5 2:5 11:5 5:5
11:0 3:5 10:5 4:5 7:5 8:10 10:5 2:5 11:5 5:5 11:5
3:0 10:5 4:5 7:5 8:10 10:5 2:5 11:5 5:5 11:5 5:5
10:0 4:5 7:5 8:10 10:5 2:5 11:5 5:5 11:5 5:5 6:5
4:0 7:5 8:10 10:5 2:5 11:5 5:5 11:5 5:5 6:5 7:5
7:0 8:10 10:5 2:5 11:5 5:5 11:5 5:5 6:5 7:5 11:5
8:0 10:5 2:5 11:5 5:5 11:5 5:5 6:5 7:5 11:5 4:5
10:0 2:5 11:5 5:5 11:5 5:5 6:5 7:5 11:5 4:5 9:5
2:0 11:5 5:5 11:5 5:5 6:5 7:5 11:5 4:5 9:5 4:5
11:0 5:5 11:5 5:5 6:5 7:5 11:5 4:5 9:5 4:5 11:5
5:0 11:5 5:5 6:5 7:5 11:5 4:5 9:5 4:5 11:5 3:5
11:0 5:5 6:5 7:5 11:5 4:5 9:5 4:5 11:5 3:5 11:5
5:0 6:5 7:5 11:5 4:5 9:5 4:5 11:5 3:5 11:5 4:5
6:0 7:5 11:5 4:5 9:5 4:5 11:5 3:5 11:5 4:5 9:5
7:0 11:5 4:5 9:5 4:5 11:5 3:5 11:5 4:5 9:5 5:5
11:0 4:5 9:5 4:5 11:5 3:5 11:5 4:5 9:5 5:5 9:5
4:0 9:5 4:5 11:5 3:5 11:5 4:5 9:5 5:5 9:5 5:5
9:0 4:5 11:5 3:5 11:5 4:5 9:5 5:5 9:5 5:5 10:5
4:0 11:5 3:5 11:5 4:5 9:5 5:5 9:5 5:5 10:5 5:5
11:0 3:5 11:5 4:5 9:5 5:5 9:5 5:5 10:5 5:5 11:5
3:0 11:5 4:5 9:5 5:5 9:5 5:5 10:5 5:5 11:5 5:5
11:0 4:5 9:5 5:5 9:5 5:5 10:5 5:5 11:5 5:5 10:5
4:0 9:5 5:5 9:5 5:5 10:5 5:5 11:5 5:5 10:5 2:5
9:0 5:5 9:5 5:5 10:5 5:5 11:5 5:5 10:5 2:5 9:5
5:0 9:5 5:5 10:5 5:5 11:5 5:5 10:5 2:5 9:5 5:5
9:0 5:5 10:5 5:5 11:5 5:5 10:5 2:5 9:5 5:5 9:5
5:0 10:5 5:5 11:5 5:5 10:5 2:5 9:5 5:5 9:5 7:5
10:0 5:5 11:5 5:5 10:5 2:5 9:5 5:5 9:5 7:5 5:5
5:0 11:5 5:5 10:5 2:5 9:5 5:5 9:5 7:5 5:5 8:10
11:0 5:5 10:5 2:5 9:5 5:5 9:5 7:5 5:5 8:10 9:5
5:0 10:5 2:5 9:5 5:5 9:5 7:5 5:5 8:10 9:5 7:5
10:0 2:5 9:5 5:5 9:5 7:5 5:5 8:10 9:5 7:5 4:5
2:0 9:5 5:5 9:5 7:5 5:5 8:10 9:5 7:5 4:5 11:5
9:0 5:5 9:5 7:5 5:5 8:10 9:5 7:5 4:5 11:5 3:5
5:0 9:5 7:5 5:5 8:10 9:5 7:5 4:5 11:5 3:5 11:5
9:0 7:5 5:5 8:10 9:5 7:5 4:5 11:5 3:5 11:5 6:5
7:0 5:5 8:10 9:5 7:5 4:5 11:5 3:5 11:5 6:5 5:5
5:0 8:10 9:5 7:5 4:5 11:5 3:5 11:5 6:5 5:5 7:5
8:0 9:5 7:5 4:5 11:5 3:5 11:5 6:5 5:5 7:5 8:5
9:0 7:5 4:5 11:5 3:5 11:5 6:5 5:5 7:5 8:5 10:5
7:0 4:5 11:5 3:5 11:5 6:5 5:5 7:5 8:5 10:5 2:5
4:0 11:5 3:5 11:5 6:5 5:5 7:5 8:5 10:5 2:5 10:5
11:0 3:5 11:5 6:5 5:5 7:5 8:5 10:5 2:5 10:5 7:5
3:0 11:5 6:5 5:5 7:5 8:5 10:5 2:5 10:5 7:5 8:10
11:0 6:5 5:5 7:5 8:5 10:5 2:5 10:5 7:5 8:10 6:5
6:0 5:5 7:5 8:5 10:5 2:5 10:5 7:5 8:10 6:5 9:10
5:0 7:5 8:5 10:5 2:5 10:5 7:5 8:10 6:5 9:10 4:5
7:0 8:5 10:5 2:5 10:5 7:5 8:10 6:5 9:10 4:5 11:5
8:0 10:5 2:5 10:5 7:5 8:10 6:5 9:10 4:5 11:5 2:5
10:0 2:5 10:5 7:5 8:10 6:5 9:10 4:5 11:5 2:5 11:5
2:0 10:5 7:5 8:10 6:5 9:10 4:5 11:5 2:5 11:5 5:5
10:0 7:5 8:10 6:5 9:10 4:5 11:5 2:5 11:5 5:5 11:5
7:0 8:10 6:5 9:10 4:5 11:5 2:5 11:5 5:5 11:5 3:5
8:0 6:5 9:10 4:5 11:5 2:5 11:5 5:5 11:5 3:5 10:5
6:0 9:10 4:5 11:5 2:5 11:5 5:5 11:5 3:5 10:5 5:5
9:0 4:5 11:5 2:5 11:5 5:5 11:5 3:5 10:5 5:5 11:5
4:0 11:5 2:5 11:5 5:5 11:5 3:5 10:5 5:5 11:5 4:5
11:0 2:5 11:5 5:5 11:5 3:5 10:5 5:5 11:5 4:5 8:5
2:0 11:5 5:5 11:5 3:5 10:5 5:5 11:5 4:5 8:5 3:5
11:0 5:5 11:5 3:5 10:5 5:5 11:5 4:5 8:5 3:5 11:5
5:0 11:5 3:5 10:5 5:5 11:5 4:5 8:5 3:5 11:5 5:5
11:0 3:5 10:5 5:5 11:5 4:5 8:5 3:5 11:5 5:5 11:5
3:0 10:5 5:5 11:5 4:5 8:5 3:5 11:5 5:5 11:5 2:5
10:0 5:5 11:5 4:5 8:5 3:5 11:5 5:5 11:5 2:5 11:5
5:0 11:5 4:5 8:5 3:5 11:5 5:5 11:5 2:5 11:5 3:5
11:0 4:5 8:5 3:5 11:5 5:5 11:5 2:5 11:5 3:5 9:5
4:0 8:5 3:5 11:5 5:5 11:5 2:5 11:5 3:5 9:5 6:5
8:0 3:5 11:5 5:5 11:5 2:5 11:5 3:5 9:5 6:5 5:10
3:0 11:5 5:5 11:5 2:5 11:5 3:5 9:5 6:5 5:10 11:5
11:0 5:5 11:5 2:5 11:5 3:5 9:5 6:5 5:10 11:5 4:5
5:0 11:5 2:5 11:5 3:5 9:5 6:5 5:10 11:5 4:5 11:5
11:0 2:5 11:5 3:5 9:5 6:5 5:10 11:5 4:5 11:5 2:5
2:0 11:5 3:5 9:5 6:5 5:10 11:5 4:5 11:5 2:5 11:5
11:0 3:5 9:5 6:5 5:10 11:5 4:5 11:5 2:5 11:5 5:5
3:0 9:5 6:5 5:10 11:5 4:5 11:5 2:5 11:5 5:5 8:5
9:0 6:5 5:10 11:5 4:5 11:5 2:5 11:5 5:5 8:5 7:5
6:0 5:10 11:5 4:5 11:5 2:5 11:5 5:5 8:5 7:5 5:5
5:0 11:5 4:5 11:5 2:5 11:5 5:5 8:5 7:5 5:5 10:5
11:0 4:5 11:5 2:5 11:5 5:5 8:5 7:5 5:5 10:5 7:5
4:0 11:5 2:5 11:5 5:5 8:5 7:5 5:5 10:5 7:5 9:5
11:0 2:5 11:5 5:5 8:5 7:5 5:5 10:5 7:5 9:5 8:5
2:0 11:5 5:5 8:5 7:5 5:5 10:5 7:5 9:5 8:5 3:5
11:0 5:5 8:5 7:5 5:5 10:5 7:5 9:5 8:5 3:5 11:5
5:0 8:5 7:5 5:5 10:5 7:5 9:5 8:5 3:5 11:5 3:5
8:0 7:5 5:5 10:5 7:5 9:5 8:5 3:5 11:5 3:5 10:5
7:0 5:5 10:5 7:5 9:5 8:5 3:5 11:5 3:5 10:5 6:5
5:0 10:5 7:5 9:5 8:5 3:5 11:5 3:5 10:5 6:5 7:5
10:0 7:5 9:5 8:5 3:5 11:5 3:5 10:5 6:5 7:5 9:10
7:0 9:5 8:5 3:5 11:5 3:5 10:5 6:5 7:5 9:10 7:5
9:0 8:5 3:5 11:5 3:5 10:5 6:5 7:5 9:10 7:5 6:5
8:0 3:5 11:5 3:5 10:5 6:5 7:5 9:10 7:5 6:5 5:5
3:0 11:5 3:5 10:5 6:5 7:5 9:10 7:5 6:5 5:5 9:5
11:0 3:5 10:5 6:5 7:5 9:10 7:5 6:5 5:5 9:5 5:5
3:0 10:5 6:5 7:5 9:10 7:5 6:5 5:5 9:5 5:5 11:5
10:0 6:5 7:5 9:10 7:5 6:5 5:5 9:5 5:5 11:5 4:5
6:0 7:5 9:10 7:5 6:5 5:5 9:5 5:5 11:5 4:5 8:5
7:0 9:10 7:5 6:5 5:5 9:5 5:5 11:5 4:5 8:5 7:5
9:0 7:5 6:5 5:5 9:5 5:5 11:5 4:5 8:5 7:5 6:5
7:0 6:5 5:5 9:5 5:5 11:5 4:5 8:5 7:5 6:5 7:5
6:0 5:5 9:5 5:5 11:5 4:5 8:5 7:5 6:5 7:5 2:5
5:0 9:5 5:5 11:5 4:5 8:5 7:5 6:5 7:5 2:5 11:5
9:0 5:5 11:5 4:5 8:5 7:5 6:5 7:5 2:5 11:5 4:5
5:0 11:5 4:5 8:5 7:5 6:5 7:5 2:5 11:5 4:5 10:5
11:0 4:5 8:5 7:5 6:5 7:5 2:5 11:5 4:5 10:5 6:5
4:0 8:5 7:5 6:5 7:5 2:5 11:5 4:5 10:5 6:5 7:5
8:0 7:5 6:5 7:5 2:5 11:5 4:5 10:5 6:5 7:5 8:10
7:0 6:5 7:5 2:5 11:5 4:5 10:5 6:5 7:5 8:10 9:5
6:0 7:5 2:5 11:5 4:5 10:5 6:5 7:5 8:10 9:5 6:5
7:0 2:5 11:5 4:5 10:5 6:5 7:5 8:10 9:5 6:5 5:5
2:0 11:5 4:5 10:5 6:5 7:5 8:10 9:5 6:5 5:5 11:5
11:0 4:5 10:5 6:5 7:5 8:10 9:5 6:5 5:5 11:5 5:5
4:0 10:5 6:5 7:5 8:10 9:5 6:5 5:5 11:5 5:5 9:5
10:0 6:5 7:5 8:10 9:5 6:5 5:5 11:5 5:5 9:5 6:5
6:0 7:5 8:10 9:5 6:5 5:5 11:5 5:5 9:5 6:5 7:5
7:0 8:10 9:5 6:5 5:5 11:5 5:5 9:5 6:5 7:5 9:5
8:0 9:5 6:5 5:5 11:5 5:5 9:5 6:5 7:5 9:5 4:5
9:0 6:5 5:5 11:5 5:5 9:5 6:5 7:5 9:5 4:5 9:5
6:0 5:5 11:5 5:5 9:5 6:5 7:5 9:5 4:5 9:5 2:5
5:0 11:5 5:5 9:5 6:5 7:5 9:5 4:5 9:5 2:5 11:5
11:0 5:5 9:5 6:5 7:5 9:5 4:5 9:5 2:5 11:5 3:5
5:0 9:5 6:5 7:5 9:5 4:5 9:5 2:5 11:5 3:5 10:5
9:0 6:5 7:5 9:5 4:5 9:5 2:5 11:5 3:5 10:5 5:5
6:0 7:5 9:5 4:5 9:5 2:5 11:5 3:5 10:5 5:5 8:5
7:0 9:5 4:5 9:5 2:5 11:5 3:5 10:5 5:5 8:5 7:5
9:0 4:5 9:5 2:5 11:5 3:5 10:5 5:5 8:5 7:5 6:10
4:0 9:5 2:5 11:5 3:5 10:5 5:5 8:5 7:5 6:10 8:5
9:0 2:5 11:5 3:5 10:5 5:5 8:5 7:5 6:10 8:5 5:5
2:0 11:5 3:5 10:5 5:5 8:5 7:5 6:10 8:5 5:5 9:5
11:0 3:5 10:5 5:5 8:5 7:5 6:10 8:5 5:5 9:5 5:5
3:0 10:5 5:5 8:5 7:5 6:10 8:5 5:5 9:5 5:5 10:5
10:0 5:5 8:5 7:5 6:10 8:5 5:5 9:5 5:5 10:5 4:5
5:0 8:5 7:5 6:10 8:5 5:5 9:5 5:5 10:5 4:5 7:5
8:0 7:5 6:10 8:5 5:5 9:5 5:5 10:5 4:5 7:5 6:10
7:0 6:10 8:5 5:5 9:5 5:5 10:5 4:5 7:5 6:10 9:5
6:0 8:5 5:5 9:5 5:5 10:5 4:5 7:5 6:10 9:5 3:5
8:0 5:5 9:5 5:5 10:5 4:5 7:5 6:10 9:5 3:5 8:5
5:0 9:5 5:5 10:5 4:5 7:5 6:10 9:5 3:5 8:5 9:5
9:0 5:5 10:5 4:5 7:5 6:10 9:5 3:5 8:5 9:5 5:5
5:0 10:5 4:5 7:5 6:10 9:5 3:5 8:5 9:5 5:5 8:5
10:0 4:5 7:5 6:10 9:5 3:5 8:5 9:5 5:5 8:5 4:5
4:0 7:5 6:10 9:5 3:5 8:5 9:5 5:5 8:5 4:5 9:5
7:0 6:10 9:5 3:5 8:5 9:5 5:5 8:5 4:5 9:5 5:5
6:0 9:5 3:5 8:5 9:5 5:5 8:5 4:5 9:5 5:5 9:5
9:0 3:5 8:5 9:5 5:5 8:5 4:5 9:5 5:5 9:5 8:5
3:0 8:5 9:5 5:5 8:5 4:5 9:5 5:5 9:5 8:5 3:5
8:0 9:5 5:5 8:5 4:5 9:5 5:5 9:5 8:5 3:5 11:5
9:0 5:5 8:5 4:5 9:5 5:5 9:5 8:5 3:5 11:5 5:5
5:0 8:5 4:5 9:5 5:5 9:5 8:5 3:5 11:5 5:5 11:5
8:0 4:5 9:5 5:5 9:5 8:5 3:5 11:5 5:5 11:5 4:5
4:0 9:5 5:5 9:5 8:5 3:5 11:5 5:5 11:5 4:5 9:5
9:0 5:5 9:5 8:5 3:5 11:5 5:5 11:5 4:5 9:5 5:5
5:0 9:5 8:5 3:5 11:5 5:5 11:5 4:5 9:5 5:5 11:5
9:0 8:5 3:5 11:5 5:5 11:5 4:5 9:5 5:5 11:5 4:5
8:0 3:5 11:5 5:5 11:5 4:5 9:5 5:5 11:5 4:5 10:5
3:0 11:5 5:5 11:5 4:5 9:5 5:5 11:5 4:5 10:5 5:5
11:0 5:5 11:5 4:5 9:5 5:5 11:5 4:5 10:5 5:5 9:5
5:0 11:5 4:5 9:5 5:5 11:5 4:5 10:5 5:5 9:5 5:5
11:0 4:5 9:5 5:5 11:5 4:5 10:5 5:5 9:5 5:5 10:5
4:0 9:5 5:5 11:5 4:5 10:5 5:5 9:5 5:5 10:5 2:5
9:0 5:5 11:5 4:5 10:5 5:5 9:5 5:5 10:5 2:5 11:5
5:0 11:5 4:5 10:5 5:5 9:5 5:5 10:5 2:5 11:5 3:5
11:0 4:5 10:5 5:5 9:5 5:5 10:5 2:5 11:5 3:5 10:5
4:0 10:5 5:5 9:5 5:5 10:5 2:5 11:5 3:5 10:5 7:5
10:0 5:5 9:5 5:5 10:5 2:5 11:5 3:5 10:5 7:5 4:5
5:0 9:5 5:5 10:5 2:5 11:5 3:5 10:5 7:5 4:5 9:5
9:0 5:5 10:5 2:5 11:5 3:5 10:5 7:5 4:5 9:5 6:5
5:0 10:5 2:5 11:5 3:5 10:5 7:5 4:5 9:5 6:5 10:5
10:0 2:5 11:5 3:5 10:5 7:5 4:5 9:5 6:5 10:5 5:5
2:0 11:5 3:5 10:5 7:5 4:5 9:5 6:5 10:5 5:5 9:5
11:0 3:5 10:5 7:5 4:5 9:5 6:5 10:5 5:5 9:5 5:5
3:0 10:5 7:5 4:5 9:5 6:5 10:5 5:5 9:5 5:5 11:5
10:0 7:5 4:5 9:5 6:5 10:5 5:5 9:5 5:5 11:5 3:5
7:0 4:5 9:5 6:5 10:5 5:5 9:5 5:5 11:5 3:5 10:5
4:0 9:5 6:5 10:5 5:5 9:5 5:5 11:5 3:5 10:5 3:5
9:0 6:5 10:5 5:5 9:5 5:5 11:5 3:5 10:5 3:5 11:5
6:0 10:5 5:5 9:5 5:5 11:5 3:5 10:5 3:5 11:5 3:5
10:0 5:5 9:5 5:5 11:5 3:5 10:5 3:5 11:5 3:5 11:5
5:0 9:5 5:5 11:5 3:5 10:5 3:5 11:5 3:5 11:5 4:5
9:0 5:5 11:5 3:5 10:5 3:5 11:5 3:5 11:5 4:5 8:5
5:0 11:5 3:5 10:5 3:5 11:5 3:5 11:5 4:5 8:5 7:5
11:0 3:5 10:5 3:5 11:5 3:5 11:5 4:5 8:5 7:5 6:5
3:0 10:5 3:5 11:5 3:5 11:5 4:5 8:5 7:5 6:5 11:5
10:0 3:5 11:5 3:5 11:5 4:5 8:5 7:5 6:5 11:5 2:5
3:0 11:5 3:5 11:5 4:5 8:5 7:5 6:5 11:5 2:5 11:5
11:0 3:5 11:5 4:5 8:5 7:5 6:5 11:5 2:5 11:5 3:5
3:0 11:5 4:5 8:5 7:5 6:5 11:5 2:5 11:5 3:5 10:5
11:0 4:5 8:5 7:5 6:5 11:5 2:5 11:5 3:5 10:5 3:5
4:0 8:5 7:5 6:5 11:5 2:5 11:5 3:5 10:5 3:5 6:5
8:0 7:5 6:5 11:5 2:5 11:5 3:5 10:5 3:5 6:5 7:5
7:0 6:5 11:5 2:5 11:5 3:5 10:5 3:5 6:5 7:5 8:5
6:0 11:5 2:5 11:5 3:5 10:5 3:5 6:5 7:5 8:5 6:5
11:0 2:5 11:5 3:5 10:5 3:5 6:5 7:5 8:5 6:5 7:5
2:0 11:5 3:5 10:5 3:5 6:5 7:5 8:5 6:5 7:5 5:5
11:0 3:5 10:5 3:5 6:5 7:5 8:5 6:5 7:5 5:5 9:5
3:0 10:5 3:5 6:5 7:5 8:5 6:5 7:5 5:5 9:5 5:5
10:0 3:5 6:5 7:5 8:5 6:5 7:5 5:5 9:5 5:5 10:5
3:0 6:5 7:5 8:5 6:5 7:5 5:5 9:5 5:5 10:5 4:5
6:0 7:5 8:5 6:5 7:5 5:5 9:5 5:5 10:5 4:5 8:5
7:0 8:5 6:5 7:5 5:5 9:5 5:5 10:5 4:5 8:5 5:5
8:0 6:5 7:5 5:5 9:5 5:5 10:5 4:5 8:5 5:5 10:5
6:0 7:5 5:5 9:5 5:5 10:5 4:5 8:5 5:5 10:5 9:5
7:0 5:5 9:5 5:5 10:5 4:5 8:5 5:5 10:5 9:5 8:5
5:0 9:5 5:5 10:5 4:5 8:5 5:5 10:5 9:5 8:5 3:5
9:0 5:5 10:5 4:5 8:5 5:5 10:5 9:5 8:5 3:5 11:5
5:0 10:5 4:5 8:5 5:5 10:5 9:5 8:5 3:5 11:5 3:5
10:0 4:5 8:5 5:5 10:5 9:5 8:5 3:5 11:5 3:5 11:5
4:0 8:5 5:5 10:5 9:5 8:5 3:5 11:5 3:5 11:5 2:5
8:0 5:5 10:5 9:5 8:5 3:5 11:5 3:5 11:5 2:5 11:5
5:0 10:5 9:5 8:5 3:5 11:5 3:5 11:5 2:5 11:5 3:5
10:0 9:5 8:5 3:5 11:5 3:5 11:5 2:5 11:5 3:5 10:5
9:0 8:5 3:5 11:5 3:5 11:5 2:5 11:5 3:5 10:5 6:5
8:0 3:5 11:5 3:5 11:5 2:5 11:5 3:5 10:5 6:5 8:10
3:0 11:5 3:5 11:5 2:5 11:5 3:5 10:5 6:5 8:10 7:5
11:0 3:5 11:5 2:5 11:5 3:5 10:5 6:5 8:10 7:5 9:5
3:0 11:5 2:5 11:5 3:5 10:5 6:5 8:10 7:5 9:5 7:5
11:0 2:5 11:5 3:5 10:5 6:5 8:10 7:5 9:5 7:5 5:5
2:0 11:5 3:5 10:5 6:5 8:10 7:5 9:5 7:5 5:5 9:5
11:0 3:5 10:5 6:5 8:10 7:5 9:5 7:5 5:5 9:5 5:5
3:0 10:5 6:5 8:10 7:5 9:5 7:5 5:5 9:5 5:5 9:5
10:0 6:5 8:10 7:5 9:5 7:5 5:5 9:5 5:5 9:5 6:5
6:0 8:10 7:5 9:5 7:5 5:5 9:5 5:5 9:5 6:5 5:5
8:0 7:5 9:5 7:5 5:5 9:5 5:5 9:5 6:5 5:5 11:5
7:0 9:5 7:5 5:5 9:5 5:5 9:5 6:5 5:5 11:5 3:5
9:0 7:5 5:5 9:5 5:5 9:5 6:5 5:5 11:5 3:5 10:5
7:0 5:5 9:5 5:5 9:5 6:5 5:5 11:5 3:5 10:5 4:5
5:0 9:5 5:5 9:5 6:5 5:5 11:5 3:5 10:5 4:5 9:5
9:0 5:5 9:5 6:5 5:5 11:5 3:5 10:5 4:5 9:5 7:5
5:0 9:5 6:5 5:5 11:5 3:5 10:5 4:5 9:5 7:5 9:10
9:0 6:5 5:5 11:5 3:5 10:5 4:5 9:5 7:5 9:10 2:5
6:0 5:5 11:5 3:5 10:5 4:5 9:5 7:5 9:10 2:5 11:5
5:0 11:5 3:5 10:5 4:5 9:5 7:5 9:10 2:5 11:5 4:5
11:0 3:5 10:5 4:5 9:5 7:5 9:10 2:5 11:5 4:5 10:5
3:0 10:5 4:5 9:5 7:5 9:10 2:5 11:5 4:5 10:5 5:5
10:0 4:5 9:5 7:5 9:10 2:5 11:5 4:5 10:5 5:5 10:5
4:0 9:5 7:5 9:10 2:5 11:5 4:5 10:5 5:5 10:5 5:5
9:0 7:5 9:10 2:5 11:5 4:5 10:5 5:5 10:5 5:5 10:5
7:0 9:10 2:5 11:5 4:5 10:5 5:5 10:5 5:5 10:5 5:5
9:0 2:5 11:5 4:5 10:5 5:5 10:5 5:5 10:5 5:5 10:5
2:0 11:5 4:5 10:5 5:5 10:5 5:5 10:5 5:5 10:5 3:5
11:0 4:5 10:5 5:5 10:5 5:5 10:5 5:5 10:5 3:5 11:5
4:0 10:5 5:5 10:5 5:5 10:5 5:5 10:5 3:5 11:5 3:5
10:0 5:5 10:5 5:5 10:5 5:5 10:5 3:5 11:5 3:5 10:5
5:0 10:5 5:5 10:5 5:5 10:5 3:5 11:5 3:5 10:5 5:5
10:0 5:5 10:5 5:5 10:5 3:5 11:5 3:5 10:5 5:5 7:5
5:0 10:5 5:5 10:5 3:5 11:5 3:5 10:5 5:5 7:5 9:5
10:0 5:5 10:5 3:5 11:5 3:5 10:5 5:5 7:5 9:5 5:5
5:0 10:5 3:5 11:5 3:5 10:5 5:5 7:5 9:5 5:5 10:5
10:0 3:5 11:5 3:5 10:5 5:5 7:5 9:5 5:5 10:5 4:5
3:0 11:5 3:5 10:5 5:5 7:5 9:5 5:5 10:5 4:5 7:5
11:0 3:5 10:5 5:5 7:5 9:5 5:5 10:5 4:5 7:5 6:20
3:0 10:5 5:5 7:5 9:5 5:5 10:5 4:5 7:5 6:20 3:5
10:0 5:5 7:5 9:5 5:5 10:5 4:5 7:5 6:20 3:5 11:5
5:0 7:5 9:5 5:5 10:5 4:5 7:5 6:20 3:5 11:5 4:5
7:0 9:5 5:5 10:5 4:5 7:5 6:20 3:5 11:5 4:5 10:5
9:0 5:5 10:5 4:5 7:5 6:20 3:5 11:5 4:5 10:5 4:5
5:0 10:5 4:5 7:5 6:20 3:5 11:5 4:5 10:5 4:5 9:5
10:0 4:5 7:5 6:20 3:5 11:5 4:5 10:5 4:5 9:5 5:5
4:0 7:5 6:20 3:5 11:5 4:5 10:5 4:5 9:5 5:5 9:5
7:0 6:20 3:5 11:5 4:5 10:5 4:5 9:5 5:5 9:5 8:5
6:0 3:5 11:5 4:5 10:5 4:5 9:5 5:5 9:5 8:5 4:5
3:0 11:5 4:5 10:5 4:5 9:5 5:5 9:5 8:5 4:5 10:5
11:0 4:5 10:5 4:5 9:5 5:5 9:5 8:5 4:5 10:5 4:5
4:0 10:5 4:5 9:5 5:5 9:5 8:5 4:5 10:5 4:5 10:5
10:0 4:5 9:5 5:5 9:5 8:5 4:5 10:5 4:5 10:5 5:5
4:0 9:5 5:5 9:5 8:5 4:5 10:5 4:5 10:5 5:5 7:5
9:0 5:5 9:5 8:5 4:5 10:5 4:5 10:5 5:5 7:5 9:10
5:0 9:5 8:5 4:5 10:5 4:5 10:5 5:5 7:5 9:10 7:5
9:0 8:5 4:5 10:5 4:5 10:5 5:5 7:5 9:10 7:5 10:5
8:0 4:5 10:5 4:5 10:5 5:5 7:5 9:10 7:5 10:5 3:5
4:0 10:5 4:5 10:5 5:5 7:5 9:10 7:5 10:5 3:5 11:5
10:0 4:5 10:5 5:5 7:5 9:10 7:5 10:5 3:5 11:5 3:5
4:0 10:5 5:5 7:5 9:10 7:5 10:5 3:5 11:5 3:5 10:5
10:0 5:5 7:5 9:10 7:5 10:5 3:5 11:5 3:5 10:5 6:5
5:0 7:5 9:10 7:5 10:5 3:5 11:5 3:5 10:5 6:5 7:5
7:0 9:10 7:5 10:5 3:5 11:5 3:5 10:5 6:5 7:5 9:10
9:0 7:5 10:5 3:5 11:5 3:5 10:5 6:5 7:5 9:10 7:5
7:0 10:5 3:5 11:5 3:5 10:5 6:5 7:5 9:10 7:5 6:5
10:0 3:5 11:5 3:5 10:5 6:5 7:5 9:10 7:5 6:5 5:5
3:0 11:5 3:5 10:5 6:5 7:5 9:10 7:5 6:5 5:5 11:5
11:0 3:5 10:5 6:5 7:5 9:10 7:5 6:5 5:5 11:5 4:5
3:0 10:5 6:5 7:5 9:10 7:5 6:5 5:5 11:5 4:5 9:5
10:0 6:5 7:5 9:10 7:5 6:5 5:5 11:5 4:5 9:5 2:5
6:0 7:5 9:10 7:5 6:5 5:5 11:5 4:5 9:5 2:5 10:5
7:0 9:10 7:5 6:5 5:5 11:5 4:5 9:5 2:5 10:5 5:5
9:0 7:5 6:5 5:5 11:5 4:5 9:5 2:5 10:5 5:5 8:5
7:0 6:5 5:5 11:5 4:5 9:5 2:5 10:5 5:5 8:5 6:5
6:0 5:5 11:5 4:5 9:5 2:5 10:5 5:5 8:5 6:5 7:5
5:0 11:5 4:5 9:5 2:5 10:5 5:5 8:5 6:5 7:5 9:10
11:0 4:5 9:5 2:5 10:5 5:5 8:5 6:5 7:5 9:10 7:5
4:0 9:5 2:5 10:5 5:5 8:5 6:5 7:5 9:10 7:5 8:5
9:0 2:5 10:5 5:5 8:5 6:5 7:5 9:10 7:5 8:5 2:5
2:0 10:5 5:5 8:5 6:5 7:5 9:10 7:5 8:5 2:5 11:5
10:0 5:5 8:5 6:5 7:5 9:10 7:5 8:5 2:5 11:5 4:5
5:0 8:5 6:5 7:5 9:10 7:5 8:5 2:5 11:5 4:5 11:5
8:0 6:5 7:5 9:10 7:5 8:5 2:5 11:5 4:5 11:5 4:5
6:0 7:5 9:10 7:5 8:5 2:5 11:5 4:5 11:5 4:5 9:5
7:0 9:10 7:5 8:5 2:5 11:5 4:5 11:5 4:5 9:5 6:5
9:0 7:5 8:5 2:5 11:5 4:5 11:5 4:5 9:5 6:5 8:5
7:0 8:5 2:5 11:5 4:5 11:5 4:5 9:5 6:5 8:5 9:5
8:0 2:5 11:5 4:5 11:5 4:5 9:5 6:5 8:5 9:5 2:5
2:0 11:5 4:5 11:5 4:5 9:5 6:5 8:5 9:5 2:5 11:5
11:0 4:5 11:5 4:5 9:5 6:5 8:5 9:5 2:5 11:5 5:5
4:0 11:5 4:5 9:5 6:5 8:5 9:5 2:5 11:5 5:5 11:5
11:0 4:5 9:5 6:5 8:5 9:5 2:5 11:5 5:5 11:5 3:5
4:0 9:5 6:5 8:5 9:5 2:5 11:5 5:5 11:5 3:5 10:5
9:0 6:5 8:5 9:5 2:5 11:5 5:5 11:5 3:5 10:5 7:5
6:0 8:5 9:5 2:5 11:5 5:5 11:5 3:5 10:5 7:5 8:10
8:0 9:5 2:5 11:5 5:5 11:5 3:5 10:5 7:5 8:10 5:10
9:0 2:5 11:5 5:5 11:5 3:5 10:5 7:5 8:10 5:10 11:5
2:0 11:5 5:5 11:5 3:5 10:5 7:5 8:10 5:10 11:5 3:5
11:0 5:5 11:5 3:5 10:5 7:5 8:10 5:10 11:5 3:5 10:5
5:0 11:5 3:5 10:5 7:5 8:10 5:10 11:5 3:5 10:5 4:5
11:0 3:5 10:5 7:5 8:10 5:10 11:5 3:5 10:5 4:5 7:5
3:0 10:5 7:5 8:10 5:10 11:5 3:5 10:5 4:5 7:5 5:5
10:0 7:5 8:10 5:10 11:5 3:5 10:5 4:5 7:5 5:5 9:5
7:0 8:10 5:10 11:5 3:5 10:5 4:5 7:5 5:5 9:5 7:5
8:0 5:10 11:5 3:5 10:5 4:5 7:5 5:5 9:5 7:5 6:5
5:0 11:5 3:5 10:5 4:5 7:5 5:5 9:5 7:5 6:5 5:5
11:0 3:5 10:5 4:5 7:5 5:5 9:5 7:5 6:5 5:5 11:5
3:0 10:5 4:5 7:5 5:5 9:5 7:5 6:5 5:5 11:5 5:5
10:0 4:5 7:5 5:5 9:5 7:5 6:5 5:5 11:5 5:5 11:5
4:0 7:5 5:5 9:5 7:5 6:5 5:5 11:5 5:5 11:5 4:5
7:0 5:5 9:5 7:5 6:5 5:5 11:5 5:5 11:5 4:5 9:5
5:0 9:5 7:5 6:5 5:5 11:5 5:5 11:5 4:5 9:5 7:5
9:0 7:5 6:5 5:5 11:5 5:5 11:5 4:5 9:5 7:5 8:5
7:0 6:5 5:5 11:5 5:5 11:5 4:5 9:5 7:5 8:5 7:5
6:0 5:5 11:5 5:5 11:5 4:5 9:5 7:5 8:5 7:5 5:5
5:0 11:5 5:5 11:5 4:5 9:5 7:5 8:5 7:5 5:5 9:5
11:0 5:5 11:5 4:5 9:5 7:5 8:5 7:5 5:5 9:5 4:5
5:0 11:5 4:5 9:5 7:5 8:5 7:5 5:5 9:5 4:5 10:5
11:0 4:5 9:5 7:5 8:5 7:5 5:5 9:5 4:5 10:5 3:5
4:0 9:5 7:5 8:5 7:5 5:5 9:5 4:5 10:5 3:5 10:5
9:0 7:5 8:5 7:5 5:5 9:5 4:5 10:5 3:5 10:5 5:5
7:0 8:5 7:5 5:5 9:5 4:5 10:5 3:5 10:5 5:5 9:5
8:0 7:5 5:5 9:5 4:5 10:5 3:5 10:5 5:5 9:5 6:5
7:0 5:5 9:5 4:5 10:5 3:5 10:5 5:5 9:5 6:5 8:5
5:0 9:5 4:5 10:5 3:5 10:5 5:5 9:5 6:5 8:5 5:5
9:0 4:5 10:5 3:5 10:5 5:5 9:5 6:5 8:5 5:5 11:5
4:0 10:5 3:5 10:5 5:5 9:5 6:5 8:5 5:5 11:5 5:5
10:0 3:5 10:5 5:5 9:5 6:5 8:5 5:5 11:5 5:5 11:5
3:0 10:5 5:5 9:5 6:5 8:5 5:5 11:5 5:5 11:5 2:5
10:0 5:5 9:5 6:5 8:5 5:5 11:5 5:5 11:5 2:5 11:5
5:0 9:5 6:5 8:5 5:5 11:5 5:5 11:5 2:5 11:5 3:5
9:0 6:5 8:5 5:5 11:5 5:5 11:5 2:5 11:5 3:5 10:5
6:0 8:5 5:5 11:5 5:5 11:5 2:5 11:5 3:5 10:5 7:5
8:0 5:5 11:5 5:5 11:5 2:5 11:5 3:5 10:5 7:5 6:5
5:0 11:5 5:5 11:5 2:5 11:5 3:5 10:5 7:5 6:5 5:5
11:0 5:5 11:5 2:5 11:5 3:5 10:5 7:5 6:5 5:5 11:5
5:0 11:5 2:5 11:5 3:5 10:5 7:5 6:5 5:5 11:5 4:5
11:0 2:5 11:5 3:5 10:5 7:5 6:5 5:5 11:5 4:5 11:5
2:0 11:5 3:5 10:5 7:5 6:5 5:5 11:5 4:5 11:5 2:5
11:0 3:5 10:5 7:5 6:5 5:5 11:5 4:5 11:5 2:5 11:5
3:0 10:5 7:5 6:5 5:5 11:5 4:5 11:5 2:5 11:5 3:5
10:0 7:5 6:5 5:5 11:5 4:5 11:5 2:5 11:5 3:5 10:5
7:0 6:5 5:5 11:5 4:5 11:5 2:5 11:5 3:5 10:5 6:5
6:0 5:5 11:5 4:5 11:5 2:5 11:5 3:5 10:5 6:5 5:5
5:0 11:5 4:5 11:5 2:5 11:5 3:5 10:5 6:5 5:5 11:5
11:0 4:5 11:5 2:5 11:5 3:5 10:5 6:5 5:5 11:5 4:5
4:0 11:5 2:5 11:5 3:5 10:5 6:5 5:5 11:5 4:5 10:5
11:0 2:5 11:5 3:5 10:5 6:5 5:5 11:5 4:5 10:5 4:5
2:0 11:5 3:5 10:5 6:5 5:5 11:5 4:5 10:5 4:5 5:5
11:0 3:5 10:5 6:5 5:5 11:5 4:5 10:5 4:5 5:5 10:5
3:0 10:5 6:5 5:5 11:5 4:5 10:5 4:5 5:5 10:5 7:5
10:0 6:5 5:5 11:5 4:5 10:5 4:5 5:5 10:5 7:5 11:5
6:0 5:5 11:5 4:5 10:5 4:5 5:5 10:5 7:5 11:5 2:5
5:0 11:5 4:5 10:5 4:5 5:5 10:5 7:5 11:5 2:5 11:5
11:0 4:5 10:5 4:5 5:5 10:5 7:5 11:5 2:5 11:5 3:5
4:0 10:5 4:5 5:5 10:5 7:5 11:5 2:5 11:5 3:5 11:5
10:0 4:5 5:5 10:5 7:5 11:5 2:5 11:5 3:5 11:5 3:5
4:0 5:5 10:5 7:5 11:5 2:5 11:5 3:5 11:5 3:5 8:5
5:0 10:5 7:5 11:5 2:5 11:5 3:5 11:5 3:5 8:5 5:5
10:0 7:5 11:5 2:5 11:5 3:5 11:5 3:5 8:5 5:5 7:5
7:0 11:5 2:5 11:5 3:5 11:5 3:5 8:5 5:5 7:5 6:5
11:0 2:5 11:5 3:5 11:5 3:5 8:5 5:5 7:5 6:5 9:5
2:0 11:5 3:5 11:5 3:5 8:5 5:5 7:5 6:5 9:5 4:5
11:0 3:5 11:5 3:5 8:5 5:5 7:5 6:5 9:5 4:5 11:5
3:0 11:5 3:5 8:5 5:5 7:5 6:5 9:5 4:5 11:5 3:5
11:0 3:5 8:5 5:5 7:5 6:5 9:5 4:5 11:5 3:5 11:5
3:0 8:5 5:5 7:5 6:5 9:5 4:5 11:5 3:5 11:5 5:5
8:0 5:5 7:5 6:5 9:5 4:5 11:5 3:5 11:5 5:5 6:5
5:0 7:5 6:5 9:5 4:5 11:5 3:5 11:5 5:5 6:5 9:5
7:0 6:5 9:5 4:5 11:5 3:5 11:5 5:5 6:5 9:5 5:5
6:0 9:5 4:5 11:5 3:5 11:5 5:5 6:5 9:5 5:5 9:5
9:0 4:5 11:5 3:5 11:5 5:5 6:5 9:5 5:5 9:5 6:5
4:0 11:5 3:5 11:5 5:5 6:5 9:5 5:5 9:5 6:5 5:5
11:0 3:5 11:5 5:5 6:5 9:5 5:5 9:5 6:5 5:5 9:5
3:0 11:5 5:5 6:5 9:5 5:5 9:5 6:5 5:5 9:5 5:5
11:0 5:5 6:5 9:5 5:5 9:5 6:5 5:5 9:5 5:5 10:5
5:0 6:5 9:5 5:5 9:5 6:5 5:5 9:5 5:5 10:5 2:5
6:0 9:5 5:5 9:5 6:5 5:5 9:5 5:5 10:5 2:5 10:5
9:0 5:5 9:5 6:5 5:5 9:5 5:5 10:5 2:5 10:5 5:5
5:0 9:5 6:5 5:5 9:5 5:5 10:5 2:5 10:5 5:5 10:5
9:0 6:5 5:5 9:5 5:5 10:5 2:5 10:5 5:5 10:5 9:5
6:0 5:5 9:5 5:5 10:5 2:5 10:5 5:5 10:5 9:5 6:5
5:0 9:5 5:5 10:5 2:5 10:5 5:5 10:5 9:5 6:5 7:5
9:0 5:5 10:5 2:5 10:5 5:5 10:5 9:5 6:5 7:5 5:10
5:0 10:5 2:5 10:5 5:5 10:5 9:5 6:5 7:5 5:10 8:5
10:0 2:5 10:5 5:5 10:5 9:5 6:5 7:5 5:10 8:5 4:5
2:0 10:5 5:5 10:5 9:5 6:5 7:5 5:10 8:5 4:5 8:5
10:0 5:5 10:5 9:5 6:5 7:5 5:10 8:5 4:5 8:5 7:5
5:0 10:5 9:5 6:5 7:5 5:10 8:5 4:5 8:5 7:5 6:5
10:0 9:5 6:5 7:5 5:10 8:5 4:5 8:5 7:5 6:5 10:5
9:0 6:5 7:5 5:10 8:5 4:5 8:5 7:5 6:5 10:5 3:5
6:0 7:5 5:10 8:5 4:5 8:5 7:5 6:5 10:5 3:5 11:5
7:0 5:10 8:5 4:5 8:5 7:5 6:5 10:5 3:5 11:5 3:5
5:0 8:5 4:5 8:5 7:5 6:5 10:5 3:5 11:5 3:5 11:5
8:0 4:5 8:5 7:5 6:5 10:5 3:5 11:5 3:5 11:5 3:5
4:0 8:5 7:5 6:5 10:5 3:5 11:5 3:5 11:5 3:5 9:5
8:0 7:5 6:5 10:5 3:5 11:5 3:5 11:5 3:5 9:5 3:5
7:0 6:5 10:5 3:5 11:5 3:5 11:5 3:5 9:5 3:5 11:5
6:0 10:5 3:5 11:5 3:5 11:5 3:5 9:5 3:5 11:5 4:5
10:0 3:5 11:5 3:5 11:5 3:5 9:5 3:5 11:5 4:5 10:5
3:0 11:5 3:5 11:5 3:5 9:5 3:5 11:5 4:5 10:5 3:5
11:0 3:5 11:5 3:5 9:5 3:5 11:5 4:5 10:5 3:5 11:5
3:0 11:5 3:5 9:5 3:5 11:5 4:5 10:5 3:5 11:5 3:5
11:0 3:5 9:5 3:5 11:5 4:5 10:5 3:5 11:5 3:5 10:5
3:0 9:5 3:5 11:5 4:5 10:5 3:5 11:5 3:5 10:5 4:5
9:0 3:5 11:5 4:5 10:5 3:5 11:5 3:5 10:5 4:5 9:5
3:0 11:5 4:5 10:5 3:5 11:5 3:5 10:5 4:5 9:5 7:5
11:0 4:5 10:5 3:5 11:5 3:5 10:5 4:5 9:5 7:5 6:5
4:0 10:5 3:5 11:5 3:5 10:5 4:5 9:5 7:5 6:5 9:5
10:0 3:5 11:5 3:5 10:5 4:5 9:5 7:5 6:5 9:5 2:5
3:0 11:5 3:5 10:5 4:5 9:5 7:5 6:5 9:5 2:5 11:5
11:0 3:5 10:5 4:5 9:5 7:5 6:5 9:5 2:5 11:5 5:5
3:0 10:5 4:5 9:5 7:5 6:5 9:5 2:5 11:5 5:5 10:5
10:0 4:5 9:5 7:5 6:5 9:5 2:5 11:5 5:5 10:5 7:5
4:0 9:5 7:5 6:5 9:5 2:5 11:5 5:5 10:5 7:5 5:5
9:0 7:5 6:5 9:5 2:5 11:5 5:5 10:5 7:5 5:5 11:5
7:0 6:5 9:5 2:5 11:5 5:5 10:5 7:5 5:5 11:5 5:5
6:0 9:5 2:5 11:5 5:5 10:5 7:5 5:5 11:5 5:5 11:5
9:0 2:5 11:5 5:5 10:5 7:5 5:5 11:5 5:5 11:5 2:5
2:0 11:5 5:5 10:5 7:5 5:5 11:5 5:5 11:5 2:5 11:5
11:0 5:5 10:5 7:5 5:5 11:5 5:5 11:5 2:5 11:5 3:5
5:0 10:5 7:5 5:5 11:5 5:5 11:5 2:5 11:5 3:5 10:5
10:0 7:5 5:5 11:5 5:5 11:5 2:5 11:5 3:5 10:5 6:5
7:0 5:5 11:5 5:5 11:5 2:5 11:5 3:5 10:5 6:5 8:5
5:0 11:5 5:5 11:5 2:5 11:5 3:5 10:5 6:5 8:5 5:5
11:0 5:5 11:5 2:5 11:5 3:5 10:5 6:5 8:5 5:5 10:5
5:0 11:5 2:5 11:5 3:5 10:5 6:5 8:5 5:5 10:5 3:5
11:0 2:5 11:5 3:5 10:5 6:5 8:5 5:5 10:5 3:5 10:5
2:0 11:5 3:5 10:5 6:5 8:5 5:5 10:5 3:5 10:5 4:5
11:0 3:5 10:5 6:5 8:5 5:5 10:5 3:5 10:5 4:5 7:5
3:0 10:5 6:5 8:5 5:5 10:5 3:5 10:5 4:5 7:5 8:5
10:0 6:5 8:5 5:5 10:5 3:5 10:5 4:5 7:5 8:5 9:5
6:0 8:5 5:5 10:5 3:5 10:5 4:5 7:5 8:5 9:5 7:5
8:0 5:5 10:5 3:5 10:5 4:5 7:5 8:5 9:5 7:5 4:5
5:0 10:5 3:5 10:5 4:5 7:5 8:5 9:5 7:5 4:5 8:5
10:0 3:5 10:5 4:5 7:5 8:5 9:5 7:5 4:5 8:5 7:5
3:0 10:5 4:5 7:5 8:5 9:5 7:5 4:5 8:5 7:5 9:10
10:0 4:5 7:5 8:5 9:5 7:5 4:5 8:5 7:5 9:10 4:5
4:0 7:5 8:5 9:5 7:5 4:5 8:5 7:5 9:10 4:5 11:5
7:0 8:5 9:5 7:5 4:5 8:5 7:5 9:10 4:5 11:5 3:5
8:0 9:5 7:5 4:5 8:5 7:5 9:10 4:5 11:5 3:5 10:5
9:0 7:5 4:5 8:5 7:5 9:10 4:5 11:5 3:5 10:5 6:5
7:0 4:5 8:5 7:5 9:10 4:5 11:5 3:5 10:5 6:5 5:5
4:0 8:5 7:5 9:10 4:5 11:5 3:5 10:5 6:5 5:5 9:5
8:0 7:5 9:10 4:5 11:5 3:5 10:5 6:5 5:5 9:5 6:5
7:0 9:10 4:5 11:5 3:5 10:5 6:5 5:5 9:5 6:5 10:5
9:0 4:5 11:5 3:5 10:5 6:5 5:5 9:5 6:5 10:5 4:5
4:0 11:5 3:5 10:5 6:5 5:5 9:5 6:5 10:5 4:5 9:5
11:0 3:5 10:5 6:5 5:5 9:5 6:5 10:5 4:5 9:5 7:5
3:0 10:5 6:5 5:5 9:5 6:5 10:5 4:5 9:5 7:5 9:5
10:0 6:5 5:5 9:5 6:5 10:5 4:5 9:5 7:5 9:5 3:10
6:0 5:5 9:5 6:5 10:5 4:5 9:5 7:5 9:5 3:10 5:5
5:0 9:5 6:5 10:5 4:5 9:5 7:5 9:5 3:10 5:5 11:5
9:0 6:5 10:5 4:5 9:5 7:5 9:5 3:10 5:5 11:5 5:5
6:0 10:5 4:5 9:5 7:5 9:5 3:10 5:5 11:5 5:5 11:5
10:0 4:5 9:5 7:5 9:5 3:10 5:5 11:5 5:5 11:5 4:5
4:0 9:5 7:5 9:5 3:10 5:5 11:5 5:5 11:5 4:5 8:5
9:0 7:5 9:5 3:10 5:5 11:5 5:5 11:5 4:5 8:5 7:5
7:0 9:5 3:10 5:5 11:5 5:5 11:5 4:5 8:5 7:5 8:5
9:0 3:10 5:5 11:5 5:5 11:5 4:5 8:5 7:5 8:5 9:5
3:0 5:5 11:5 5:5 11:5 4:5 8:5 7:5 8:5 9:5 2:5
5:0 11:5 5:5 11:5 4:5 8:5 7:5 8:5 9:5 2:5 11:5
11:0 5:5 11:5 4:5 8:5 7:5 8:5 9:5 2:5 11:5 3:5
5:0 11:5 4:5 8:5 7:5 8:5 9:5 2:5 11:5 3:5 11:5
11:0 4:5 8:5 7:5 8:5 9:5 2:5 11:5 3:5 11:5 4:5
4:0 8:5 7:5 8:5 9:5 2:5 11:5 3:5 11:5 4:5 10:5
8:0 7:5 8:5 9:5 2:5 11:5 3:5 11:5 4:5 10:5 7:5
7:0 8:5 9:5 2:5 11:5 3:5 11:5 4:5 10:5 7:5 6:10
8:0 9:5 2:5 11:5 3:5 11:5 4:5 10:5 7:5 6:10 5:10
9:0 2:5 11:5 3:5 11:5 4:5 10:5 7:5 6:10 5:10 9:5
2:0 11:5 3:5 11:5 4:5 10:5 7:5 6:10 5:10 9:5 5:5
11:0 3:5 11:5 4:5 10:5 7:5 6:10 5:10 9:5 5:5 11:5
3:0 11:5 4:5 10:5 7:5 6:10 5:10 9:5 5:5 11:5 2:5
11:0 4:5 10:5 7:5 6:10 5:10 9:5 5:5 11:5 2:5 9:5
4:0 10:5 7:5 6:10 5:10 9:5 5:5 11:5 2:5 9:5 5:5
10:0 7:5 6:10 5:10 9:5 5:5 11:5 2:5 9:5 5:5 10:5
7:0 6:10 5:10 9:5 5:5 11:5 2:5 9:5 5:5 10:5 7:5
6:0 5:10 9:5 5:5 11:5 2:5 9:5 5:5 10:5 7:5 5:5
5:0 9:5 5:5 11:5 2:5 9:5 5:5 10:5 7:5 5:5 11:5
9:0 5:5 11:5 2:5 9:5 5:5 10:5 7:5 5:5 11:5 3:5
5:0 11:5 2:5 9:5 5:5 10:5 7:5 5:5 11:5 3:5 10:5
11:0 2:5 9:5 5:5 10:5 7:5 5:5 11:5 3:5 10:5 5:5
2:0 9:5 5:5 10:5 7:5 5:5 11:5 3:5 10:5 5:5 7:5
9:0 5:5 10:5 7:5 5:5 11:5 3:5 10:5 5:5 7:5 3:5
5:0 10:5 7:5 5:5 11:5 3:5 10:5 5:5 7:5 3:5 11:5
10:0 7:5 5:5 11:5 3:5 10:5 5:5 7:5 3:5 11:5 4:5
7:0 5:5 11:5 3:5 10:5 5:5 7:5 3:5 11:5 4:5 9:5
5:0 11:5 3:5 10:5 5:5 7:5 3:5 11:5 4:5 9:5 3:5
11:0 3:5 10:5 5:5 7:5 3:5 11:5 4:5 9:5 3:5 9:5
3:0 10:5 5:5 7:5 3:5 11:5 4:5 9:5 3:5 9:5 5:5
10:0 5:5 7:5 3:5 11:5 4:5 9:5 3:5 9:5 5:5 11:5
5:0 7:5 3:5 11:5 4:5 9:5 3:5 9:5 5:5 11:5 2:5
7:0 3:5 11:5 4:5 9:5 3:5 9:5 5:5 11:5 2:5 9:5
3:0 11:5 4:5 9:5 3:5 9:5 5:5 11:5 2:5 9:5 5:5
11:0 4:5 9:5 3:5 9:5 5:5 11:5 2:5 9:5 5:5 11:5
4:0 9:5 3:5 9:5 5:5 11:5 2:5 9:5 5:5 11:5 3:5
9:0 3:5 9:5 5:5 11:5 2:5 9:5 5:5 11:5 3:5 8:5
3:0 9:5 5:5 11:5 2:5 9:5 5:5 11:5 3:5 8:5 6:5
9:0 5:5 11:5 2:5 9:5 5:5 11:5 3:5 8:5 6:5 9:5
5:0 11:5 2:5 9:5 5:5 11:5 3:5 8:5 6:5 9:5 6:5
11:0 2:5 9:5 5:5 11:5 3:5 8:5 6:5 9:5 6:5 9:5
2:0 9:5 5:5 11:5 3:5 8:5 6:5 9:5 6:5 9:5 2:5
9:0 5:5 11:5 3:5 8:5 6:5 9:5 6:5 9:5 2:5 11:5
5:0 11:5 3:5 8:5 6:5 9:5 6:5 9:5 2:5 11:5 5:5
11:0 3:5 8:5 6:5 9:5 6:5 9:5 2:5 11:5 5:5 10:5
3:0 8:5 6:5 9:5 6:5 9:5 2:5 11:5 5:5 10:5 5:5
8:0 6:5 9:5 6:5 9:5 2:5 11:5 5:5 10:5 5:5 4:5
6:0 9:5 6:5 9:5 2:5 11:5 5:5 10:5 5:5 4:5 9:5
9:0 6:5 9:5 2:5 11:5 5:5 10:5 5:5 4:5 9:5 4:5
6:0 9:5 2:5 11:5 5:5 10:5 5:5 4:5 9:5 4:5 11:5
9:0 2:5 11:5 5:5 10:5 5:5 4:5 9:5 4:5 11:5 2:5
2:0 11:5 5:5 10:5 5:5 4:5 9:5 4:5 11:5 2:5 9:5
11:0 5:5 10:5 5:5 4:5 9:5 4:5 11:5 2:5 9:5 4:5
5:0 10:5 5:5 4:5 9:5 4:5 11:5 2:5 9:5 4:5 9:5
10:0 5:5 4:5 9:5 4:5 11:5 2:5 9:5 4:5 9:5 6:5
5:0 4:5 9:5 4:5 11:5 2:5 9:5 4:5 9:5 6:5 8:5
4:0 9:5 4:5 11:5 2:5 9:5 4:5 9:5 6:5 8:5 5:5
9:0 4:5 11:5 2:5 9:5 4:5 9:5 6:5 8:5 5:5 9:5
4:0 11:5 2:5 9:5 4:5 9:5 6:5 8:5 5:5 9:5 5:5
11:0 2:5 9:5 4:5 9:5 6:5 8:5 5:5 9:5 5:5 11:5
2:0 9:5 4:5 9:5 6:5 8:5 5:5 9:5 5:5 11:5 2:5
9:0 4:5 9:5 6:5 8:5 5:5 9:5 5:5 11:5 2:5 11:5
4:0 9:5 6:5 8:5 5:5 9:5 5:5 11:5 2:5 11:5 5:5
9:0 6:5 8:5 5:5 9:5 5:5 11:5 2:5 11:5 5:5 9:5
6:0 8:5 5:5 9:5 5:5 11:5 2:5 11:5 5:5 9:5 6:5
8:0 5:5 9:5 5:5 11:5 2:5 11:5 5:5 9:5 6:5 7:10
5:0 9:5 5:5 11:5 2:5 11:5 5:5 9:5 6:5 7:10 9:10
9:0 5:5 11:5 2:5 11:5 5:5 9:5 6:5 7:10 9:10 8:5
5:0 11:5 2:5 11:5 5:5 9:5 6:5 7:10 9:10 8:5 5:5
11:0 2:5 11:5 5:5 9:5 6:5 7:10 9:10 8:5 5:5 10:5
2:0 11:5 5:5 9:5 6:5 7:10 9:10 8:5 5:5 10:5 5:5
11:0 5:5 9:5 6:5 7:10 9:10 8:5 5:5 10:5 5:5 10:5
5:0 9:5 6:5 7:10 9:10 8:5 5:5 10:5 5:5 10:5 2:5
9:0 6:5 7:10 9:10 8:5 5:5 10:5 5:5 10:5 2:5 11:5
6:0 7:10 9:10 8:5 5:5 10:5 5:5 10:5 2:5 11:5 5:5
7:0 9:10 8:5 5:5 10:5 5:5 10:5 2:5 11:5 5:5 10:5
9:0 8:5 5:5 10:5 5:5 10:5 2:5 11:5 5:5 10:5 6:5
8:0 5:5 10:5 5:5 10:5 2:5 11:5 5:5 10:5 6:5 8:5
5:0 10:5 5:5 10:5 2:5 11:5 5:5 10:5 6:5 8:5 5:5
10:0 5:5 10:5 2:5 11:5 5:5 10:5 6:5 8:5 5:5 11:5
5:0 10:5 2:5 11:5 5:5 10:5 6:5 8:5 5:5 11:5 4:5
10:0 2:5 11:5 5:5 10:5 6:5 8:5 5:5 11:5 4:5 10:5
2:0 11:5 5:5 10:5 6:5 8:5 5:5 11:5 4:5 10:5 4:5
11:0 5:5 10:5 6:5 8:5 5:5 11:5 4:5 10:5 4:5 9:5
5:0 10:5 6:5 8:5 5:5 11:5 4:5 10:5 4:5 9:5 7:5
10:0 6:5 8:5 5:5 11:5 4:5 10:5 4:5 9:5 7:5 9:5
6:0 8:5 5:5 11:5 4:5 10:5 4:5 9:5 7:5 9:5 5:5
8:0 5:5 11:5 4:5 10:5 4:5 9:5 7:5 9:5 5:5 9:5
5:0 11:5 4:5 10:5 4:5 9:5 7:5 9:5 5:5 9:5 5:5
11:0 4:5 10:5 4:5 9:5 7:5 9:5 5:5 9:5 5:5 10:5
4:0 10:5 4:5 9:5 7:5 9:5 5:5 9:5 5:5 10:5 6:5
10:0 4:5 9:5 7:5 9:5 5:5 9:5 5:5 10:5 6:5 9:5
4:0 9:5 7:5 9:5 5:5 9:5 5:5 10:5 6:5 9:5 2:5
9:0 7:5 9:5 5:5 9:5 5:5 10:5 6:5 9:5 2:5 11:5
7:0 9:5 5:5 9:5 5:5 10:5 6:5 9:5 2:5 11:5 5:5
9:0 5:5 9:5 5:5 10:5 6:5 9:5 2:5 11:5 5:5 11:5
5:0 9:5 5:5 10:5 6:5 9:5 2:5 11:5 5:5 11:5 6:5
9:0 5:5 10:5 6:5 9:5 2:5 11:5 5:5 11:5 6:5 5:5
5:0 10:5 6:5 9:5 2:5 11:5 5:5 11:5 6:5 5:5 9:5
10:0 6:5 9:5 2:5 11:5 5:5 11:5 6:5 5:5 9:5 7:5
6:0 9:5 2:5 11:5 5:5 11:5 6:5 5:5 9:5 7:5 11:5
9:0 2:5 11:5 5:5 11:5 6:5 5:5 9:5 7:5 11:5 2:5
2:0 11:5 5:5 11:5 6:5 5:5 9:5 7:5 11:5 2:5 11:5
11:0 5:5 11:5 6:5 5:5 9:5 7:5 11:5 2:5 11:5 5:5
5:0 11:5 6:5 5:5 9:5 7:5 11:5 2:5 11:5 5:5 11:5
11:0 6:5 5:5 9:5 7:5 11:5 2:5 11:5 5:5 11:5 4:5
6:0 5:5 9:5 7:5 11:5 2:5 11:5 5:5 11:5 4:5 8:5
5:0 9:5 7:5 11:5 2:5 11:5 5:5 11:5 4:5 8:5 5:5
9:0 7:5 11:5 2:5 11:5 5:5 11:5 4:5 8:5 5:5 10:5
7:0 11:5 2:5 11:5 5:5 11:5 4:5 8:5 5:5 10:5 5:5
11:0 2:5 11:5 5:5 11:5 4:5 8:5 5:5 10:5 5:5 10:5
2:0 11:5 5:5 11:5 4:5 8:5 5:5 10:5 5:5 10:5 2:5
11:0 5:5 11:5 4:5 8:5 5:5 10:5 5:5 10:5 2:5 9:5
5:0 11:5 4:5 8:5 5:5 10:5 5:5 10:5 2:5 9:5 5:5
11:0 4:5 8:5 5:5 10:5 5:5 10:5 2:5 9:5 5:5 10:5
4:0 8:5 5:5 10:5 5:5 10:5 2:5 9:5 5:5 10:5 7:5
8:0 5:5 10:5 5:5 10:5 2:5 9:5 5:5 10:5 7:5 5:5
5:0 10:5 5:5 10:5 2:5 9:5 5:5 10:5 7:5 5:5 8:5
10:0 5:5 10:5 2:5 9:5 5:5 10:5 7:5 5:5 8:5 7:5
5:0 10:5 2:5 9:5 5:5 10:5 7:5 5:5 8:5 7:5 9:5
10:0 2:5 9:5 5:5 10:5 7:5 5:5 8:5 7:5 9:5 7:5
2:0 9:5 5:5 10:5 7:5 5:5 8:5 7:5 9:5 7:5 4:5
9:0 5:5 10:5 7:5 5:5 8:5 7:5 9:5 7:5 4:5 10:5
5:0 10:5 7:5 5:5 8:5 7:5 9:5 7:5 4:5 10:5 5:5
10:0 7:5 5:5 8:5 7:5 9:5 7:5 4:5 10:5 5:5 10:5
7:0 5:5 8:5 7:5 9:5 7:5 4:5 10:5 5:5 10:5 6:5
5:0 8:5 7:5 9:5 7:5 4:5 10:5 5:5 10:5 6:5 5:5
8:0 7:5 9:5 7:5 4:5 10:5 5:5 10:5 6:5 5:5 8:5
7:0 9:5 7:5 4:5 10:5 5:5 10:5 6:5 5:5 8:5 7:5
9:0 7:5 4:5 10:5 5:5 10:5 6:5 5:5 8:5 7:5 9:5
7:0 4:5 10:5 5:5 10:5 6:5 5:5 8:5 7:5 9:5 4:5
4:0 10:5 5:5 10:5 6:5 5:5 8:5 7:5 9:5 4:5 10:5
10:0 5:5 10:5 6:5 5:5 8:5 7:5 9:5 4:5 10:5 3:5
5:0 10:5 6:5 5:5 8:5 7:5 9:5 4:5 10:5 3:5 11:5
10:0 6:5 5:5 8:5 7:5 9:5 4:5 10:5 3:5 11:5 5:5
6:0 5:5 8:5 7:5 9:5 4:5 10:5 3:5 11:5 5:5 8:5
5:0 8:5 7:5 9:5 4:5 10:5 3:5 11:5 5:5 8:5 7:5
8:0 7:5 9:5 4:5 10:5 3:5 11:5 5:5 8:5 7:5 9:5
7:0 9:5 4:5 10:5 3:5 11:5 5:5 8:5 7:5 9:5 6:5
9:0 4:5 10:5 3:5 11:5 5:5 8:5 7:5 9:5 6:5 9:5
4:0 10:5 3:5 11:5 5:5 8:5 7:5 9:5 6:5 9:5 3:5
10:0 3:5 11:5 5:5 8:5 7:5 9:5 6:5 9:5 3:5 11:5
3:0 11:5 5:5 8:5 7:5 9:5 6:5 9:5 3:5 11:5 3:5
11:0 5:5 8:5 7:5 9:5 6:5 9:5 3:5 11:5 3:5 11:5
5:0 8:5 7:5 9:5 6:5 9:5 3:5 11:5 3:5 11:5 4:5
8:0 7:5 9:5 6:5 9:5 3:5 11:5 3:5 11:5 4:5 7:5
7:0 9:5 6:5 9:5 3:5 11:5 3:5 11:5 4:5 7:5 6:10
9:0 6:5 9:5 3:5 11:5 3:5 11:5 4:5 7:5 6:10 10:5
6:0 9:5 3:5 11:5 3:5 11:5 4:5 7:5 6:10 10:5 4:5
9:0 3:5 11:5 3:5 11:5 4:5 7:5 6:10 10:5 4:5 9:5
3:0 11:5 3:5 11:5 4:5 7:5 6:10 10:5 4:5 9:5 5:5
11:0 3:5 11:5 4:5 7:5 6:10 10:5 4:5 9:5 5:5 9:5
3:0 11:5 4:5 7:5 6:10 10:5 4:5 9:5 5:5 9:5 5:5
11:0 4:5 7:5 6:10 10:5 4:5 9:5 5:5 9:5 5:5 10:5
4:0 7:5 6:10 10:5 4:5 9:5 5:5 9:5 5:5 10:5 3:5
7:0 6:10 10:5 4:5 9:5 5:5 9:5 5:5 10:5 3:5 11:5
6:0 10:5 4:5 9:5 5:5 9:5 5:5 10:5 3:5 11:5 4:5
10:0 4:5 9:5 5:5 9:5 5:5 10:5 3:5 11:5 4:5 11:5
4:0 9:5 5:5 9:5 5:5 10:5 3:5 11:5 4:5 11:5 2:5
9:0 5:5 9:5 5:5 10:5 3:5 11:5 4:5 11:5 2:5 11:5
5:0 9:5 5:5 10:5 3:5 11:5 4:5 11:5 2:5 11:5 3:5
9:0 5:5 10:5 3:5 11:5 4:5 11:5 2:5 11:5 3:5 11:5
5:0 10:5 3:5 11:5 4:5 11:5 2:5 11:5 3:5 11:5 5:5
10:0 3:5 11:5 4:5 11:5 2:5 11:5 3:5 11:5 5:5 10:5
3:0 11:5 4:5 11:5 2:5 11:5 3:5 11:5 5:5 10:5 3:5
11:0 4:5 11:5 2:5 11:5 3:5 11:5 5:5 10:5 3:5 11:5
4:0 11:5 2:5 11:5 3:5 11:5 5:5 10:5 3:5 11:5 4:5
11:0 2:5 11:5 3:5 11:5 5:5 10:5 3:5 11:5 4:5 10:5
2:0 11:5 3:5 11:5 5:5 10:5 3:5 11:5 4:5 10:5 3:5
11:0 3:5 11:5 5:5 10:5 3:5 11:5 4:5 10:5 3:5 10:5
3:0 11:5 5:5 10:5 3:5 11:5 4:5 10:5 3:5 10:5 5:5
11:0 5:5 10:5 3:5 11:5 4:5 10:5 3:5 10:5 5:5 10:5
5:0 10:5 3:5 11:5 4:5 10:5 3:5 10:5 5:5 10:5 4:5
10:0 3:5 11:5 4:5 10:5 3:5 10:5 5:5 10:5 4:5 7:5
3:0 11:5 4:5 10:5 3:5 10:5 5:5 10:5 4:5 7:5 9:15
11:0 4:5 10:5 3:5 10:5 5:5 10:5 4:5 7:5 9:15 2:5
4:0 10:5 3:5 10:5 5:5 10:5 4:5 7:5 9:15 2:5 10:5
10:0 3:5 10:5 5:5 10:5 4:5 7:5 9:15 2:5 10:5 3:5
3:0 10:5 5:5 10:5 4:5 7:5 9:15 2:5 10:5 3:5 10:5
10:0 5:5 10:5 4:5 7:5 9:15 2:5 10:5 3:5 10:5 7:5
5:0 10:5 4:5 7:5 9:15 2:5 10:5 3:5 10:5 7:5 8:5
10:0 4:5 7:5 9:15 2:5 10:5 3:5 10:5 7:5 8:5 3:5
4:0 7:5 9:15 2:5 10:5 3:5 10:5 7:5 8:5 3:5 11:5
7:0 9:15 2:5 10:5 3:5 10:5 7:5 8:5 3:5 11:5 4:5
9:0 2:5 10:5 3:5 10:5 7:5 8:5 3:5 11:5 4:5 11:5
2:0 10:5 3:5 10:5 7:5 8:5 3:5 11:5 4:5 11:5 2:5
10:0 3:5 10:5 7:5 8:5 3:5 11:5 4:5 11:5 2:5 10:5
3:0 10:5 7:5 8:5 3:5 11:5 4:5 11:5 2:5 10:5 5:5
10:0 7:5 8:5 3:5 11:5 4:5 11:5 2:5 10:5 5:5 9:5
7:0 8:5 3:5 11:5 4:5 11:5 2:5 10:5 5:5 9:5 8:5
8:0 3:5 11:5 4:5 11:5 2:5 10:5 5:5 9:5 8:5 5:5
3:0 11:5 4:5 11:5 2:5 10:5 5:5 9:5 8:5 5:5 10:5
11:0 4:5 11:5 2:5 10:5 5:5 9:5 8:5 5:5 10:5 7:5
4:0 11:5 2:5 10:5 5:5 9:5 8:5 5:5 10:5 7:5 10:5
11:0 2:5 10:5 5:5 9:5 8:5 5:5 10:5 7:5 10:5 4:5
2:0 10:5 5:5 9:5 8:5 5:5 10:5 7:5 10:5 4:5 9:5
10:0 5:5 9:5 8:5 5:5 10:5 7:5 10:5 4:5 9:5 5:5
5:0 9:5 8:5 5:5 10:5 7:5 10:5 4:5 9:5 5:5 10:5
9:0 8:5 5:5 10:5 7:5 10:5 4:5 9:5 5:5 10:5 7:5
8:0 5:5 10:5 7:5 10:5 4:5 9:5 5:5 10:5 7:5 6:5
5:0 10:5 7:5 10:5 4:5 9:5 5:5 10:5 7:5 6:5 7:5
10:0 7:5 10:5 4:5 9:5 5:5 10:5 7:5 6:5 7:5 9:5
7:0 10:5 4:5 9:5 5:5 10:5 7:5 6:5 7:5 9:5 6:5
10:0 4:5 9:5 5:5 10:5 7:5 6:5 7:5 9:5 6:5 11:5
4:0 9:5 5:5 10:5 7:5 6:5 7:5 9:5 6:5 11:5 2:5
9:0 5:5 10:5 7:5 6:5 7:5 9:5 6:5 11:5 2:5 11:5
5:0 10:5 7:5 6:5 7:5 9:5 6:5 11:5 2:5 11:5 3:5
10:0 7:5 6:5 7:5 9:5 6:5 11:5 2:5 11:5 3:5 11:5
7:0 6:5 7:5 9:5 6:5 11:5 2:5 11:5 3:5 11:5 4:5
6:0 7:5 9:5 6:5 11:5 2:5 11:5 3:5 11:5 4:5 8:5
7:0 9:5 6:5 11:5 2:5 11:5 3:5 11:5 4:5 8:5 5:5
9:0 6:5 11:5 2:5 11:5 3:5 11:5 4:5 8:5 5:5 10:5
6:0 11:5 2:5 11:5 3:5 11:5 4:5 8:5 5:5 10:5 6:5
11:0 2:5 11:5 3:5 11:5 4:5 8:5 5:5 10:5 6:5 10:5
2:0 11:5 3:5 11:5 4:5 8:5 5:5 10:5 6:5 10:5 3:5
11:0 3:5 11:5 4:5 8:5 5:5 10:5 6:5 10:5 3:5 11:5
3:0 11:5 4:5 8:5 5:5 10:5 6:5 10:5 3:5 11:5 3:5
11:0 4:5 8:5 5:5 10:5 6:5 10:5 3:5 11:5 3:5 11:5
4:0 8:5 5:5 10:5 6:5 10:5 3:5 11:5 3:5 11:5 6:5
8:0 5:5 10:5 6:5 10:5 3:5 11:5 3:5 11:5 6:5 7:5
5:0 10:5 6:5 10:5 3:5 11:5 3:5 11:5 6:5 7:5 6:10
10:0 6:5 10:5 3:5 11:5 3:5 11:5 6:5 7:5 6:10 9:5
6:0 10:5 3:5 11:5 3:5 11:5 6:5 7:5 6:10 9:5 4:5
10:0 3:5 11:5 3:5 11:5 6:5 7:5 6:10 9:5 4:5 10:5
3:0 11:5 3:5 11:5 6:5 7:5 6:10 9:5 4:5 10:5 6:5
11:0 3:5 11:5 6:5 7:5 6:10 9:5 4:5 10:5 6:5 7:5
3:0 11:5 6:5 7:5 6:10 9:5 4:5 10:5 6:5 7:5 9:5
11:0 6:5 7:5 6:10 9:5 4:5 10:5 6:5 7:5 9:5 4:5
6:0 7:5 6:10 9:5 4:5 10:5 6:5 7:5 9:5 4:5 9:5
7:0 6:10 9:5 4:5 10:5 6:5 7:5 9:5 4:5 9:5 5:5
6:0 9:5 4:5 10:5 6:5 7:5 9:5 4:5 9:5 5:5 8:5
9:0 4:5 10:5 6:5 7:5 9:5 4:5 9:5 5:5 8:5 7:5
4:0 10:5 6:5 7:5 9:5 4:5 9:5 5:5 8:5 7:5 3:5
10:0 6:5 7:5 9:5 4:5 9:5 5:5 8:5 7:5 3:5 9:5
6:0 7:5 9:5 4:5 9:5 5:5 8:5 7:5 3:5 9:5 5:5
7:0 9:5 4:5 9:5 5:5 8:5 7:5 3:5 9:5 5:5 11:5
9:0 4:5 9:5 5:5 8:5 7:5 3:5 9:5 5:5 11:5 4:5
4:0 9:5 5:5 8:5 7:5 3:5 9:5 5:5 11:5 4:5 6:5
9:0 5:5 8:5 7:5 3:5 9:5 5:5 11:5 4:5 6:5 9:5
5:0 8:5 7:5 3:5 9:5 5:5 11:5 4:5 6:5 9:5 5:5
8:0 7:5 3:5 9:5 5:5 11:5 4:5 6:5 9:5 5:5 11:5
7:0 3:5 9:5 5:5 11:5 4:5 6:5 9:5 5:5 11:5 6:5
3:0 9:5 5:5 11:5 4:5 6:5 9:5 5:5 11:5 6:5 5:5
9:0 5:5 11:5 4:5 6:5 9:5 5:5 11:5 6:5 5:5 10:5
5:0 11:5 4:5 6:5 9:5 5:5 11:5 6:5 5:5 10:5 4:5
11:0 4:5 6:5 9:5 5:5 11:5 6:5 5:5 10:5 4:5 11:5
4:0 6:5 9:5 5:5 11:5 6:5 5:5 10:5 4:5 11:5 2:5
6:0 9:5 5:5 11:5 6:5 5:5 10:5 4:5 11:5 2:5 9:5
9:0 5:5 11:5 6:5 5:5 10:5 4:5 11:5 2:5 9:5 5:5
5:0 11:5 6:5 5:5 10:5 4:5 11:5 2:5 9:5 5:5 8:5
11:0 6:5 5:5 10:5 4:5 11:5 2:5 9:5 5:5 8:5 9:5
6:0 5:5 10:5 4:5 11:5 2:5 9:5 5:5 8:5 9:5 3:5
5:0 10:5 4:5 11:5 2:5 9:5 5:5 8:5 9:5 3:5 11:5
10:0 4:5 11:5 2:5 9:5 5:5 8:5 9:5 3:5 11:5 5:5
4:0 11:5 2:5 9:5 5:5 8:5 9:5 3:5 11:5 5:5 9:5
11:0 2:5 9:5 5:5 8:5 9:5 3:5 11:5 5:5 9:5 5:5
2:0 9:5 5:5 8:5 9:5 3:5 11:5 5:5 9:5 5:5 6:5
9:0 5:5 8:5 9:5 3:5 11:5 5:5 9:5 5:5 6:5 9:5
5:0 8:5 9:5 3:5 11:5 5:5 9:5 5:5 6:5 9:5 3:5
8:0 9:5 3:5 11:5 5:5 9:5 5:5 6:5 9:5 3:5 11:5
9:0 3:5 11:5 5:5 9:5 5:5 6:5 9:5 3:5 11:5 6:5
3:0 11:5 5:5 9:5 5:5 6:5 9:5 3:5 11:5 6:5 7:5
11:0 5:5 9:5 5:5 6:5 9:5 3:5 11:5 6:5 7:5 6:10
5:0 9:5 5:5 6:5 9:5 3:5 11:5 6:5 7:5 6:10 9:5
9:0 5:5 6:5 9:5 3:5 11:5 6:5 7:5 6:10 9:5 4:5
5:0 6:5 9:5 3:5 11:5 6:5 7:5 6:10 9:5 4:5 9:5
6:0 9:5 3:5 11:5 6:5 7:5 6:10 9:5 4:5 9:5 7:5
9:0 3:5 11:5 6:5 7:5 6:10 9:5 4:5 9:5 7:5 8:5
3:0 11:5 6:5 7:5 6:10 9:5 4:5 9:5 7:5 8:5 9:5
11:0 6:5 7:5 6:10 9:5 4:5 9:5 7:5 8:5 9:5 4:5
6:0 7:5 6:10 9:5 4:5 9:5 7:5 8:5 9:5 4:5 9:5
7:0 6:10 9:5 4:5 9:5 7:5 8:5 9:5 4:5 9:5 7:5
6:0 9:5 4:5 9:5 7:5 8:5 9:5 4:5 9:5 7:5 9:10
9:0 4:5 9:5 7:5 8:5 9:5 4:5 9:5 7:5 9:10 2:5
4:0 9:5 7:5 8:5 9:5 4:5 9:5 7:5 9:10 2:5 11:5
9:0 7:5 8:5 9:5 4:5 9:5 7:5 9:10 2:5 11:5 4:5
7:0 8:5 9:5 4:5 9:5 7:5 9:10 2:5 11:5 4:5 10:5
8:0 9:5 4:5 9:5 7:5 9:10 2:5 11:5 4:5 10:5 5:5
9:0 4:5 9:5 7:5 9:10 2:5 11:5 4:5 10:5 5:5 9:10
4:0 9:5 7:5 9:10 2:5 11:5 4:5 10:5 5:5 9:10 7:5
9:0 7:5 9:10 2:5 11:5 4:5 10:5 5:5 9:10 7:5 8:10
7:0 9:10 2:5 11:5 4:5 10:5 5:5 9:10 7:5 8:10 4:5
9:0 2:5 11:5 4:5 10:5 5:5 9:10 7:5 8:10 4:5 11:5
2:0 11:5 4:5 10:5 5:5 9:10 7:5 8:10 4:5 11:5 5:5
11:0 4:5 10:5 5:5 9:10 7:5 8:10 4:5 11:5 5:5 10:5
4:0 10:5 5:5 9:10 7:5 8:10 4:5 11:5 5:5 10:5 4:5
10:0 5:5 9:10 7:5 8:10 4:5 11:5 5:5 10:5 4:5 8:5
5:0 9:10 7:5 8:10 4:5 11:5 5:5 10:5 4:5 8:5 7:5
9:0 7:5 8:10 4:5 11:5 5:5 10:5 4:5 8:5 7:5 6:5
7:0 8:10 4:5 11:5 5:5 10:5 4:5 8:5 7:5 6:5 9:5
8:0 4:5 11:5 5:5 10:5 4:5 8:5 7:5 6:5 9:5 2:5
4:0 11:5 5:5 10:5 4:5 8:5 7:5 6:5 9:5 2:5 11:5
11:0 5:5 10:5 4:5 8:5 7:5 6:5 9:5 2:5 11:5 3:5
5:0 10:5 4:5 8:5 7:5 6:5 9:5 2:5 11:5 3:5 11:5
10:0 4:5 8:5 7:5 6:5 9:5 2:5 11:5 3:5 11:5 3:5
4:0 8:5 7:5 6:5 9:5 2:5 11:5 3:5 11:5 3:5 6:5
8:0 7:5 6:5 9:5 2:5 11:5 3:5 11:5 3:5 6:5 7:5
7:0 6:5 9:5 2:5 11:5 3:5 11:5 3:5 6:5 7:5 8:5
6:0 9:5 2:5 11:5 3:5 11:5 3:5 6:5 7:5 8:5 6:5
9:0 2:5 11:5 3:5 11:5 3:5 6:5 7:5 8:5 6:5 10:5
2:0 11:5 3:5 11:5 3:5 6:5 7:5 8:5 6:5 10:5 4:5
11:0 3:5 11:5 3:5 6:5 7:5 8:5 6:5 10:5 4:5 11:5
3:0 11:5 3:5 6:5 7:5 8:5 6:5 10:5 4:5 11:5 3:5
11:0 3:5 6:5 7:5 8:5 6:5 10:5 4:5 11:5 3:5 10:5
3:0 6:5 7:5 8:5 6:5 10:5 4:5 11:5 3:5 10:5 6:5
6:0 7:5 8:5 6:5 10:5 4:5 11:5 3:5 10:5 6:5 5:5
7:0 8:5 6:5 10:5 4:5 11:5 3:5 10:5 6:5 5:5 9:5
8:0 6:5 10:5 4:5 11:5 3:5 10:5 6:5 5:5 9:5 6:5
6:0 10:5 4:5 11:5 3:5 10:5 6:5 5:5 9:5 6:5 11:5
10:0 4:5 11:5 3:5 10:5 6:5 5:5 9:5 6:5 11:5 3:5
4:0 11:5 3:5 10:5 6:5 5:5 9:5 6:5 11:5 3:5 10:5
11:0 3:5 10:5 6:5 5:5 9:5 6:5 11:5 3:5 10:5 3:5
3:0 10:5 6:5 5:5 9:5 6:5 11:5 3:5 10:5 3:5 11:5
10:0 6:5 5:5 9:5 6:5 11:5 3:5 10:5 3:5 11:5 4:5
6:0 5:5 9:5 6:5 11:5 3:5 10:5 3:5 11:5 4:5 8:5
5:0 9:5 6:5 11:5 3:5 10:5 3:5 11:5 4:5 8:5 5:5
9:0 6:5 11:5 3:5 10:5 3:5 11:5 4:5 8:5 5:5 7:5
6:0 11:5 3:5 10:5 3:5 11:5 4:5 8:5 5:5 7:5 9:5
11:0 3:5 10:5 3:5 11:5 4:5 8:5 5:5 7:5 9:5 7:5
3:0 10:5 3:5 11:5 4:5 8:5 5:5 7:5 9:5 7:5 8:5
10:0 3:5 11:5 4:5 8:5 5:5 7:5 9:5 7:5 8:5 3:5
3:0 11:5 4:5 8:5 5:5 7:5 9:5 7:5 8:5 3:5 11:5
11:0 4:5 8:5 5:5 7:5 9:5 7:5 8:5 3:5 11:5 3:5
4:0 8:5 5:5 7:5 9:5 7:5 8:5 3:5 11:5 3:5 10:5
8:0 5:5 7:5 9:5 7:5 8:5 3:5 11:5 3:5 10:5 2:5
5:0 7:5 9:5 7:5 8:5 3:5 11:5 3:5 10:5 2:5 8:5
7:0 9:5 7:5 8:5 3:5 11:5 3:5 10:5 2:5 8:5 7:5
9:0 7:5 8:5 3:5 11:5 3:5 10:5 2:5 8:5 7:5 9:5
7:0 8:5 3:5 11:5 3:5 10:5 2:5 8:5 7:5 9:5 8:5
8:0 3:5 11:5 3:5 10:5 2:5 8:5 7:5 9:5 8:5 5:5
3:0 11:5 3:5 10:5 2:5 8:5 7:5 9:5 8:5 5:5 7:5
11:0 3:5 10:5 2:5 8:5 7:5 9:5 8:5 5:5 7:5 8:5
3:0 10:5 2:5 8:5 7:5 9:5 8:5 5:5 7:5 8:5 5:5
10:0 2:5 8:5 7:5 9:5 8:5 5:5 7:5 8:5 5:5 11:5
2:0 8:5 7:5 9:5 8:5 5:5 7:5 8:5 5:5 11:5 3:5
8:0 7:5 9:5 8:5 5:5 7:5 8:5 5:5 11:5 3:5 10:5
7:0 9:5 8:5 5:5 7:5 8:5 5:5 11:5 3:5 10:5 5:5
9:0 8:5 5:5 7:5 8:5 5:5 11:5 3:5 10:5 5:5 10:5
8:0 5:5 7:5 8:5 5:5 11:5 3:5 10:5 5:5 10:5 4:5
5:0 7:5 8:5 5:5 11:5 3:5 10:5 5:5 10:5 4:5 7:5
7:0 8:5 5:5 11:5 3:5 10:5 5:5 10:5 4:5 7:5 9:5
8:0 5:5 11:5 3:5 10:5 5:5 10:5 4:5 7:5 9:5 6:5
5:0 11:5 3:5 10:5 5:5 10:5 4:5 7:5 9:5 6:5 10:5
11:0 3:5 10:5 5:5 10:5 4:5 7:5 9:5 6:5 10:5 2:5
3:0 10:5 5:5 10:5 4:5 7:5 9:5 6:5 10:5 2:5 11:5
10:0 5:5 10:5 4:5 7:5 9:5 6:5 10:5 2:5 11:5 3:5
5:0 10:5 4:5 7:5 9:5 6:5 10:5 2:5 11:5 3:5 11:5
10:0 4:5 7:5 9:5 6:5 10:5 2:5 11:5 3:5 11:5 5:5
4:0 7:5 9:5 6:5 10:5 2:5 11:5 3:5 11:5 5:5 8:5
7:0 9:5 6:5 10:5 2:5 11:5 3:5 11:5 5:5 8:5 5:5
9:0 6:5 10:5 2:5 11:5 3:5 11:5 5:5 8:5 5:5 10:5
6:0 10:5 2:5 11:5 3:5 11:5 5:5 8:5 5:5 10:5 6:5
10:0 2:5 11:5 3:5 11:5 5:5 8:5 5:5 10:5 6:5 9:5
2:0 11:5 3:5 11:5 5:5 8:5 5:5 10:5 6:5 9:5 2:5
11:0 3:5 11:5 5:5 8:5 5:5 10:5 6:5 9:5 2:5 10:5
3:0 11:5 5:5 8:5 5:5 10:5 6:5 9:5 2:5 10:5 5:5
11:0 5:5 8:5 5:5 10:5 6:5 9:5 2:5 10:5 5:5 10:5
5:0 8:5 5:5 10:5 6:5 9:5 2:5 10:5 5:5 10:5 7:5
8:0 5:5 10:5 6:5 9:5 2:5 10:5 5:5 10:5 7:5 5:5
5:0 10:5 6:5 9:5 2:5 10:5 5:5 10:5 7:5 5:5 9:5
10:0 6:5 9:5 2:5 10:5 5:5 10:5 7:5 5:5 9:5 5:5
6:0 9:5 2:5 10:5 5:5 10:5 7:5 5:5 9:5 5:5 11:5
9:0 2:5 10:5 5:5 10:5 7:5 5:5 9:5 5:5 11:5 2:5
2:0 10:5 5:5 10:5 7:5 5:5 9:5 5:5 11:5 2:5 11:5
10:0 5:5 10:5 7:5 5:5 9:5 5:5 11:5 2:5 11:5 3:5
5:0 10:5 7:5 5:5 9:5 5:5 11:5 2:5 11:5 3:5 11:5
10:0 7:5 5:5 9:5 5:5 11:5 2:5 11:5 3:5 11:5 5:5
7:0 5:5 9:5 5:5 11:5 2:5 11:5 3:5 11:5 5:5 6:5
5:0 9:5 5:5 11:5 2:5 11:5 3:5 11:5 5:5 6:5 7:5
9:0 5:5 11:5 2:5 11:5 3:5 11:5 5:5 6:5 7:5 11:15
5:0 11:5 2:5 11:5 3:5 11:5 5:5 6:5 7:5 11:15 2:5
11:0 2:5 11:5 3:5 11:5 5:5 6:5 7:5 11:15 2:5 9:5
2:0 11:5 3:5 11:5 5:5 6:5 7:5 11:15 2:5 9:5 5:5
11:0 3:5 11:5 5:5 6:5 7:5 11:15 2:5 9:5 5:5 10:5
3:0 11:5 5:5 6:5 7:5 11:15 2:5 9:5 5:5 10:5 7:5
11:0 5:5 6:5 7:5 11:15 2:5 9:5 5:5 10:5 7:5 4:5
5:0 6:5 7:5 11:15 2:5 9:5 5:5 10:5 7:5 4:5 9:5
6:0 7:5 11:15 2:5 9:5 5:5 10:5 7:5 4:5 9:5 7:5
7:0 11:15 2:5 9:5 5:5 10:5 7:5 4:5 9:5 7:5 10:10
11:0 2:5 9:5 5:5 10:5 7:5 4:5 9:5 7:5 10:10 2:5
2:0 9:5 5:5 10:5 7:5 4:5 9:5 7:5 10:10 2:5 11:5
9:0 5:5 10:5 7:5 4:5 9:5 7:5 10:10 2:5 11:5 3:5
5:0 10:5 7:5 4:5 9:5 7:5 10:10 2:5 11:5 3:5 11:5
10:0 7:5 4:5 9:5 7:5 10:10 2:5 11:5 3:5 11:5 5:5
7:0 4:5 9:5 7:5 10:10 2:5 11:5 3:5 11:5 5:5 7:5
4:0 9:5 7:5 10:10 2:5 11:5 3:5 11:5 5:5 7:5 6:10
9:0 7:5 10:10 2:5 11:5 3:5 11:5 5:5 7:5 6:10 9:5
7:0 10:10 2:5 11:5 3:5 11:5 5:5 7:5 6:10 9:5 2:5
10:0 2:5 11:5 3:5 11:5 5:5 7:5 6:10 9:5 2:5 11:5
2:0 11:5 3:5 11:5 5:5 7:5 6:10 9:5 2:5 11:5 3:5
11:0 3:5 11:5 5:5 7:5 6:10 9:5 2:5 11:5 3:5 9:5
3:0 11:5 5:5 7:5 6:10 9:5 2:5 11:5 3:5 9:5 7:5
11:0 5:5 7:5 6:10 9:5 2:5 11:5 3:5 9:5 7:5 6:5
5:0 7:5 6:10 9:5 2:5 11:5 3:5 9:5 7:5 6:5 9:5
7:0 6:10 9:5 2:5 11:5 3:5 9:5 7:5 6:5 9:5 5:5
6:0 9:5 2:5 11:5 3:5 9:5 7:5 6:5 9:5 5:5 8:5
9:0 2:5 11:5 3:5 9:5 7:5 6:5 9:5 5:5 8:5 7:5
2:0 11:5 3:5 9:5 7:5 6:5 9:5 5:5 8:5 7:5 5:5
11:0 3:5 9:5 7:5 6:5 9:5 5:5 8:5 7:5 5:5 9:5
3:0 9:5 7:5 6:5 9:5 5:5 8:5 7:5 5:5 9:5 5:5
9:0 7:5 6:5 9:5 5:5 8:5 7:5 5:5 9:5 5:5 10:5
7:0 6:5 9:5 5:5 8:5 7:5 5:5 9:5 5:5 10:5 4:5
6:0 9:5 5:5 8:5 7:5 5:5 9:5 5:5 10:5 4:5 8:5
9:0 5:5 8:5 7:5 5:5 9:5 5:5 10:5 4:5 8:5 5:5
5:0 8:5 7:5 5:5 9:5 5:5 10:5 4:5 8:5 5:5 11:5
8:0 7:5 5:5 9:5 5:5 10:5 4:5 8:5 5:5 11:5 7:5
7:0 5:5 9:5 5:5 10:5 4:5 8:5 5:5 11:5 7:5 8:5
5:0 9:5 5:5 10:5 4:5 8:5 5:5 11:5 7:5 8:5 3:5
9:0 5:5 10:5 4:5 8:5 5:5 11:5 7:5 8:5 3:5 11:5
5:0 10:5 4:5 8:5 5:5 11:5 7:5 8:5 3:5 11:5 5:5
10:0 4:5 8:5 5:5 11:5 7:5 8:5 3:5 11:5 5:5 10:5
4:0 8:5 5:5 11:5 7:5 8:5 3:5 11:5 5:5 10:5 4:5
8:0 5:5 11:5 7:5 8:5 3:5 11:5 5:5 10:5 4:5 9:5
5:0 11:5 7:5 8:5 3:5 11:5 5:5 10:5 4:5 9:5 5:5
11:0 7:5 8:5 3:5 11:5 5:5 10:5 4:5 9:5 5:5 11:5
7:0 8:5 3:5 11:5 5:5 10:5 4:5 9:5 5:5 11:5 7:5
8:0 3:5 11:5 5:5 10:5 4:5 9:5 5:5 11:5 7:5 4:5
3:0 11:5 5:5 10:5 4:5 9:5 5:5 11:5 7:5 4:5 9:5
11:0 5:5 10:5 4:5 9:5 5:5 11:5 7:5 4:5 9:5 5:5
5:0 10:5 4:5 9:5 5:5 11:5 7:5 4:5 9:5 5:5 9:5
10:0 4:5 9:5 5:5 11:5 7:5 4:5 9:5 5:5 9:5 7:5
4:0 9:5 5:5 11:5 7:5 4:5 9:5 5:5 9:5 7:5 4:5
9:0 5:5 11:5 7:5 4:5 9:5 5:5 9:5 7:5 4:5 10:5
5:0 11:5 7:5 4:5 9:5 5:5 9:5 7:5 4:5 10:5 5:5
11:0 7:5 4:5 9:5 5:5 9:5 7:5 4:5 10:5 5:5 10:5
7:0 4:5 9:5 5:5 9:5 7:5 4:5 10:5 5:5 10:5 6:5
4:0 9:5 5:5 9:5 7:5 4:5 10:5 5:5 10:5 6:5 5:5
9:0 5:5 9:5 7:5 4:5 10:5 5:5 10:5 6:5 5:5 9:5
5:0 9:5 7:5 4:5 10:5 5:5 10:5 6:5 5:5 9:5 6:5
9:0 7:5 4:5 10:5 5:5 10:5 6:5 5:5 9:5 6:5 10:5
7:0 4:5 10:5 5:5 10:5 6:5 5:5 9:5 6:5 10:5 4:5
4:0 10:5 5:5 10:5 6:5 5:5 9:5 6:5 10:5 4:5 9:5
10:0 5:5 10:5 6:5 5:5 9:5 6:5 10:5 4:5 9:5 5:5
5:0 10:5 6:5 5:5 9:5 6:5 10:5 4:5 9:5 5:5 11:5
10:0 6:5 5:5 9:5 6:5 10:5 4:5 9:5 5:5 11:5 4:5
6:0 5:5 9:5 6:5 10:5 4:5 9:5 5:5 11:5 4:5 6:5
5:0 9:5 6:5 10:5 4:5 9:5 5:5 11:5 4:5 6:5 5:5
9:0 6:5 10:5 4:5 9:5 5:5 11:5 4:5 6:5 5:5 11:5
6:0 10:5 4:5 9:5 5:5 11:5 4:5 6:5 5:5 11:5 4:5
10:0 4:5 9:5 5:5 11:5 4:5 6:5 5:5 11:5 4:5 11:5
4:0 9:5 5:5 11:5 4:5 6:5 5:5 11:5 4:5 11:5 2:5
9:0 5:5 11:5 4:5 6:5 5:5 11:5 4:5 11:5 2:5 11:5
5:0 11:5 4:5 6:5 5:5 11:5 4:5 11:5 2:5 11:5 5:5
11:0 4:5 6:5 5:5 11:5 4:5 11:5 2:5 11:5 5:5 11:5
4:0 6:5 5:5 11:5 4:5 11:5 2:5 11:5 5:5 11:5 5:5
6:0 5:5 11:5 4:5 11:5 2:5 11:5 5:5 11:5 5:5 7:5
5:0 11:5 4:5 11:5 2:5 11:5 5:5 11:5 5:5 7:5 5:5
11:0 4:5 11:5 2:5 11:5 5:5 11:5 5:5 7:5 5:5 11:5
4:0 11:5 2:5 11:5 5:5 11:5 5:5 7:5 5:5 11:5 5:5
11:0 2:5 11:5 5:5 11:5 5:5 7:5 5:5 11:5 5:5 10:5
2:0 11:5 5:5 11:5 5:5 7:5 5:5 11:5 5:5 10:5 2:5
11:0 5:5 11:5 5:5 7:5 5:5 11:5 5:5 10:5 2:5 11:5
5:0 11:5 5:5 7:5 5:5 11:5 5:5 10:5 2:5 11:5 3:5
11:0 5:5 7:5 5:5 11:5 5:5 10:5 2:5 11:5 3:5 10:5
5:0 7:5 5:5 11:5 5:5 10:5 2:5 11:5 3:5 10:5 6:5
7:0 5:5 11:5 5:5 10:5 2:5 11:5 3:5 10:5 6:5 7:5
5:0 11:5 5:5 10:5 2:5 11:5 3:5 10:5 6:5 7:5 9:15
11:0 5:5 10:5 2:5 11:5 3:5 10:5 6:5 7:5 9:15 4:5
5:0 10:5 2:5 11:5 3:5 10:5 6:5 7:5 9:15 4:5 11:5
10:0 2:5 11:5 3:5 10:5 6:5 7:5 9:15 4:5 11:5 5:5
2:0 11:5 3:5 10:5 6:5 7:5 9:15 4:5 11:5 5:5 9:5
11:0 3:5 10:5 6:5 7:5 9:15 4:5 11:5 5:5 9:5 4:10
3:0 10:5 6:5 7:5 9:15 4:5 11:5 5:5 9:5 4:10 9:5
10:0 6:5 7:5 9:15 4:5 11:5 5:5 9:5 4:10 9:5 5:5
6:0 7:5 9:15 4:5 11:5 5:5 9:5 4:10 9:5 5:5 9:5
7:0 9:15 4:5 11:5 5:5 9:5 4:10 9:5 5:5 9:5 8:5
9:0 4:5 11:5 5:5 9:5 4:10 9:5 5:5 9:5 8:5 3:5
4:0 11:5 5:5 9:5 4:10 9:5 5:5 9:5 8:5 3:5 11:5
11:0 5:5 9:5 4:10 9:5 5:5 9:5 8:5 3:5 11:5 4:5
5:0 9:5 4:10 9:5 5:5 9:5 8:5 3:5 11:5 4:5 10:5
9:0 4:10 9:5 5:5 9:5 8:5 3:5 11:5 4:5 10:5 5:5
4:0 9:5 5:5 9:5 8:5 3:5 11:5 4:5 10:5 5:5 7:5
9:0 5:5 9:5 8:5 3:5 11:5 4:5 10:5 5:5 7:5 5:5
5:0 9:5 8:5 3:5 11:5 4:5 10:5 5:5 7:5 5:5 11:5
9:0 8:5 3:5 11:5 4:5 10:5 5:5 7:5 5:5 11:5 5:5
8:0 3:5 11:5 4:5 10:5 5:5 7:5 5:5 11:5 5:5 10:5
3:0 11:5 4:5 10:5 5:5 7:5 5:5 11:5 5:5 10:5 3:5
11:0 4:5 10:5 5:5 7:5 5:5 11:5 5:5 10:5 3:5 11:5
4:0 10:5 5:5 7:5 5:5 11:5 5:5 10:5 3:5 11:5 4:5
10:0 5:5 7:5 5:5 11:5 5:5 10:5 3:5 11:5 4:5 10:5
5:0 7:5 5:5 11:5 5:5 10:5 3:5 11:5 4:5 10:5 4:5
7:0 5:5 11:5 5:5 10:5 3:5 11:5 4:5 10:5 4:5 9:5
5:0 11:5 5:5 10:5 3:5 11:5 4:5 10:5 4:5 9:5 5:5
11:0 5:5 10:5 3:5 11:5 4:5 10:5 4:5 9:5 5:5 11:5
5:0 10:5 3:5 11:5 4:5 10:5 4:5 9:5 5:5 11:5 5:5
10:0 3:5 11:5 4:5 10:5 4:5 9:5 5:5 11:5 5:5 11:5
3:0 11:5 4:5 10:5 4:5 9:5 5:5 11:5 5:5 11:5 5:5
11:0 4:5 10:5 4:5 9:5 5:5 11:5 5:5 11:5 5:5 9:5
4:0 10:5 4:5 9:5 5:5 11:5 5:5 11:5 5:5 9:5 6:5
10:0 4:5 9:5 5:5 11:5 5:5 11:5 5:5 9:5 6:5 9:5
4:0 9:5 5:5 11:5 5:5 11:5 5:5 9:5 6:5 9:5 2:5
9:0 5:5 11:5 5:5 11:5 5:5 9:5 6:5 9:5 2:5 11:5
5:0 11:5 5:5 11:5 5:5 9:5 6:5 9:5 2:5 11:5 5:5
11:0 5:5 11:5 5:5 9:5 6:5 9:5 2:5 11:5 5:5 11:5
5:0 11:5 5:5 9:5 6:5 9:5 2:5 11:5 5:5 11:5 4:5
11:0 5:5 9:5 6:5 9:5 2:5 11:5 5:5 11:5 4:5 7:5
5:0 9:5 6:5 9:5 2:5 11:5 5:5 11:5 4:5 7:5 5:5
9:0 6:5 9:5 2:5 11:5 5:5 11:5 4:5 7:5 5:5 11:5
6:0 9:5 2:5 11:5 5:5 11:5 4:5 7:5 5:5 11:5 5:5
9:0 2:5 11:5 5:5 11:5 4:5 7:5 5:5 11:5 5:5 10:5
2:0 11:5 5:5 11:5 4:5 7:5 5:5 11:5 5:5 10:5 4:5
11:0 5:5 11:5 4:5 7:5 5:5 11:5 5:5 10:5 4:5 11:5
5:0 11:5 4:5 7:5 5:5 11:5 5:5 10:5 4:5 11:5 4:5
11:0 4:5 7:5 5:5 11:5 5:5 10:5 4:5 11:5 4:5 11:5
4:0 7:5 5:5 11:5 5:5 10:5 4:5 11:5 4:5 11:5 2:5
7:0 5:5 11:5 5:5 10:5 4:5 11:5 4:5 11:5 2:5 10:5
5:0 11:5 5:5 10:5 4:5 11:5 4:5 11:5 2:5 10:5 3:5
11:0 5:5 10:5 4:5 11:5 4:5 11:5 2:5 10:5 3:5 11:5
5:0 10:5 4:5 11:5 4:5 11:5 2:5 10:5 3:5 11:5 5:5
10:0 4:5 11:5 4:5 11:5 2:5 10:5 3:5 11:5 5:5 10:5
4:0 11:5 4:5 11:5 2:5 10:5 3:5 11:5 5:5 10:5 5:5
11:0 4:5 11:5 2:5 10:5 3:5 11:5 5:5 10:5 5:5 9:5
4:0 11:5 2:5 10:5 3:5 11:5 5:5 10:5 5:5 9:5 6:5
11:0 2:5 10:5 3:5 11:5 5:5 10:5 5:5 9:5 6:5 10:5
2:0 10:5 3:5 11:5 5:5 10:5 5:5 9:5 6:5 10:5 2:5
10:0 3:5 11:5 5:5 10:5 5:5 9:5 6:5 10:5 2:5 11:5
3:0 11:5 5:5 10:5 5:5 9:5 6:5 10:5 2:5 11:5 3:5
11:0 5:5 10:5 5:5 9:5 6:5 10:5 2:5 11:5 3:5 10:5
5:0 10:5 5:5 9:5 6:5 10:5 2:5 11:5 3:5 10:5 3:5
10:0 5:5 9:5 6:5 10:5 2:5 11:5 3:5 10:5 3:5 9:5
5:0 9:5 6:5 10:5 2:5 11:5 3:5 10:5 3:5 9:5 5:5
9:0 6:5 10:5 2:5 11:5 3:5 10:5 3:5 9:5 5:5 9:5
6:0 10:5 2:5 11:5 3:5 10:5 3:5 9:5 5:5 9:5 5:5
10:0 2:5 11:5 3:5 10:5 3:5 9:5 5:5 9:5 5:5 10:5
2:0 11:5 3:5 10:5 3:5 9:5 5:5 9:5 5:5 10:5 3:5
11:0 3:5 10:5 3:5 9:5 5:5 9:5 5:5 10:5 3:5 9:5
3:0 10:5 3:5 9:5 5:5 9:5 5:5 10:5 3:5 9:5 5:5
10:0 3:5 9:5 5:5 9:5 5:5 10:5 3:5 9:5 5:5 11:5
3:0 9:5 5:5 9:5 5:5 10:5 3:5 9:5 5:5 11:5 2:5
9:0 5:5 9:5 5:5 10:5 3:5 9:5 5:5 11:5 2:5 11:5
5:0 9:5 5:5 10:5 3:5 9:5 5:5 11:5 2:5 11:5 3:5
9:0 5:5 10:5 3:5 9:5 5:5 11:5 2:5 11:5 3:5 11:5
5:0 10:5 3:5 9:5 5:5 11:5 2:5 11:5 3:5 11:5 3:5
10:0 3:5 9:5 5:5 11:5 2:5 11:5 3:5 11:5 3:5 7:5
3:0 9:5 5:5 11:5 2:5 11:5 3:5 11:5 3:5 7:5 5:5
9:0 5:5 11:5 2:5 11:5 3:5 11:5 3:5 7:5 5:5 10:5
5:0 11:5 2:5 11:5 3:5 11:5 3:5 7:5 5:5 10:5 4:5
11:0 2:5 11:5 3:5 11:5 3:5 7:5 5:5 10:5 4:5 11:5
2:0 11:5 3:5 11:5 3:5 7:5 5:5 10:5 4:5 11:5 2:5
11:0 3:5 11:5 3:5 7:5 5:5 10:5 4:5 11:5 2:5 11:5
3:0 11:5 3:5 7:5 5:5 10:5 4:5 11:5 2:5 11:5 5:5
11:0 3:5 7:5 5:5 10:5 4:5 11:5 2:5 11:5 5:5 10:5
3:0 7:5 5:5 10:5 4:5 11:5 2:5 11:5 5:5 10:5 6:5
7:0 5:5 10:5 4:5 11:5 2:5 11:5 5:5 10:5 6:5 7:5
5:0 10:5 4:5 11:5 2:5 11:5 5:5 10:5 6:5 7:5 8:20
10:0 4:5 11:5 2:5 11:5 5:5 10:5 6:5 7:5 8:20 5:5
4:0 11:5 2:5 11:5 5:5 10:5 6:5 7:5 8:20 5:5 11:5
11:0 2:5 11:5 5:5 10:5 6:5 7:5 8:20 5:5 11:5 5:5
2:0 11:5 5:5 10:5 6:5 7:5 8:20 5:5 11:5 5:5 11:5
11:0 5:5 10:5 6:5 7:5 8:20 5:5 11:5 5:5 11:5 4:5
5:0 10:5 6:5 7:5 8:20 5:5 11:5 5:5 11:5 4:5 9:5
10:0 6:5 7:5 8:20 5:5 11:5 5:5 11:5 4:5 9:5 5:5
6:0 7:5 8:20 5:5 11:5 5:5 11:5 4:5 9:5 5:5 10:5
7:0 8:20 5:5 11:5 5:5 11:5 4:5 9:5 5:5 10:5 5:5
8:0 5:5 11:5 5:5 11:5 4:5 9:5 5:5 10:5 5:5 8:5
5:0 11:5 5:5 11:5 4:5 9:5 5:5 10:5 5:5 8:5 5:5
11:0 5:5 11:5 4:5 9:5 5:5 10:5 5:5 8:5 5:5 11:5
5:0 11:5 4:5 9:5 5:5 10:5 5:5 8:5 5:5 11:5 5:5
11:0 4:5 9:5 5:5 10:5 5:5 8:5 5:5 11:5 5:5 10:5
4:0 9:5 5:5 10:5 5:5 8:5 5:5 11:5 5:5 10:5 2:5
9:0 5:5 10:5 5:5 8:5 5:5 11:5 5:5 10:5 2:5 11:5
5:0 10:5 5:5 8:5 5:5 11:5 5:5 10:5 2:5 11:5 3:5
10:0 5:5 8:5 5:5 11:5 5:5 10:5 2:5 11:5 3:5 11:5
5:0 8:5 5:5 11:5 5:5 10:5 2:5 11:5 3:5 11:5 6:5
8:0 5:5 11:5 5:5 10:5 2:5 11:5 3:5 11:5 6:5 7:5
5:0 11:5 5:5 10:5 2:5 11:5 3:5 11:5 6:5 7:5 8:10
11:0 5:5 10:5 2:5 11:5 3:5 11:5 6:5 7:5 8:10 10:5
5:0 10:5 2:5 11:5 3:5 11:5 6:5 7:5 8:10 10:5 2:5
10:0 2:5 11:5 3:5 11:5 6:5 7:5 8:10 10:5 2:5 10:5
2:0 11:5 3:5 11:5 6:5 7:5 8:10 10:5 2:5 10:5 3:5
11:0 3:5 11:5 6:5 7:5 8:10 10:5 2:5 10:5 3:5 11:5
3:0 11:5 6:5 7:5 8:10 10:5 2:5 10:5 3:5 11:5 4:5
11:0 6:5 7:5 8:10 10:5 2:5 10:5 3:5 11:5 4:5 8:5
6:0 7:5 8:10 10:5 2:5 10:5 3:5 11:5 4:5 8:5 5:5
7:0 8:10 10:5 2:5 10:5 3:5 11:5 4:5 8:5 5:5 7:5
8:0 10:5 2:5 10:5 3:5 11:5 4:5 8:5 5:5 7:5 8:5
10:0 2:5 10:5 3:5 11:5 4:5 8:5 5:5 7:5 8:5 9:5
2:0 10:5 3:5 11:5 4:5 8:5 5:5 7:5 8:5 9:5 3:5
10:0 3:5 11:5 4:5 8:5 5:5 7:5 8:5 9:5 3:5 11:5
3:0 11:5 4:5 8:5 5:5 7:5 8:5 9:5 3:5 11:5 5:5
11:0 4:5 8:5 5:5 7:5 8:5 9:5 3:5 11:5 5:5 11:5
4:0 8:5 5:5 7:5 8:5 9:5 3:5 11:5 5:5 11:5 3:5
8:0 5:5 7:5 8:5 9:5 3:5 11:5 5:5 11:5 3:5 10:5
5:0 7:5 8:5 9:5 3:5 11:5 5:5 11:5 3:5 10:5 5:5
7:0 8:5 9:5 3:5 11:5 5:5 11:5 3:5 10:5 5:5 9:5
8:0 9:5 3:5 11:5 5:5 11:5 3:5 10:5 5:5 9:5 6:5
9:0 3:5 11:5 5:5 11:5 3:5 10:5 5:5 9:5 6:5 9:5
3:0 11:5 5:5 11:5 3:5 10:5 5:5 9:5 6:5 9:5 3:5
11:0 5:5 11:5 3:5 10:5 5:5 9:5 6:5 9:5 3:5 11:5
5:0 11:5 3:5 10:5 5:5 9:5 6:5 9:5 3:5 11:5 3:5
11:0 3:5 10:5 5:5 9:5 6:5 9:5 3:5 11:5 3:5 11:5
3:0 10:5 5:5 9:5 6:5 9:5 3:5 11:5 3:5 11:5 4:5
10:0 5:5 9:5 6:5 9:5 3:5 11:5 3:5 11:5 4:5 9:5
5:0 9:5 6:5 9:5 3:5 11:5 3:5 11:5 4:5 9:5 3:5
9:0 6:5 9:5 3:5 11:5 3:5 11:5 4:5 9:5 3:5 11:5
6:0 9:5 3:5 11:5 3:5 11:5 4:5 9:5 3:5 11:5 5:5
9:0 3:5 11:5 3:5 11:5 4:5 9:5 3:5 11:5 5:5 8:5
3:0 11:5 3:5 11:5 4:5 9:5 3:5 11:5 5:5 8:5 3:5
11:0 3:5 11:5 4:5 9:5 3:5 11:5 5:5 8:5 3:5 11:5
3:0 11:5 4:5 9:5 3:5 11:5 5:5 8:5 3:5 11:5 4:5
11:0 4:5 9:5 3:5 11:5 5:5 8:5 3:5 11:5 4:5 11:5
4:0 9:5 3:5 11:5 5:5 8:5 3:5 11:5 4:5 11:5 2:5
9:0 3:5 11:5 5:5 8:5 3:5 11:5 4:5 11:5 2:5 9:5
3:0 11:5 5:5 8:5 3:5 11:5 4:5 11:5 2:5 9:5 5:5
11:0 5:5 8:5 3:5 11:5 4:5 11:5 2:5 9:5 5:5 8:5
5:0 8:5 3:5 11:5 4:5 11:5 2:5 9:5 5:5 8:5 7:5
8:0 3:5 11:5 4:5 11:5 2:5 9:5 5:5 8:5 7:5 3:5
3:0 11:5 4:5 11:5 2:5 9:5 5:5 8:5 7:5 3:5 10:5
11:0 4:5 11:5 2:5 9:5 5:5 8:5 7:5 3:5 10:5 3:5
4:0 11:5 2:5 9:5 5:5 8:5 7:5 3:5 10:5 3:5 11:5
11:0 2:5 9:5 5:5 8:5 7:5 3:5 10:5 3:5 11:5 3:5
2:0 9:5 5:5 8:5 7:5 3:5 10:5 3:5 11:5 3:5 10:5
9:0 5:5 8:5 7:5 3:5 10:5 3:5 11:5 3:5 10:5 3:5
5:0 8:5 7:5 3:5 10:5 3:5 11:5 3:5 10:5 3:5 9:5
8:0 7:5 3:5 10:5 3:5 11:5 3:5 10:5 3:5 9:5 6:5
7:0 3:5 10:5 3:5 11:5 3:5 10:5 3:5 9:5 6:5 8:5
3:0 10:5 3:5 11:5 3:5 10:5 3:5 9:5 6:5 8:5 5:5
10:0 3:5 11:5 3:5 10:5 3:5 9:5 6:5 8:5 5:5 11:5
3:0 11:5 3:5 10:5 3:5 9:5 6:5 8:5 5:5 11:5 4:5
11:0 3:5 10:5 3:5 9:5 6:5 8:5 5:5 11:5 4:5 10:5
3:0 10:5 3:5 9:5 6:5 8:5 5:5 11:5 4:5 10:5 4:5
10:0 3:5 9:5 6:5 8:5 5:5 11:5 4:5 10:5 4:5 9:5
3:0 9:5 6:5 8:5 5:5 11:5 4:5 10:5 4:5 9:5 5:5
9:0 6:5 8:5 5:5 11:5 4:5 10:5 4:5 9:5 5:5 11:5
6:0 8:5 5:5 11:5 4:5 10:5 4:5 9:5 5:5 11:5 5:5
8:0 5:5 11:5 4:5 10:5 4:5 9:5 5:5 11:5 5:5 10:5
5:0 11:5 4:5 10:5 4:5 9:5 5:5 11:5 5:5 10:5 3:5
11:0 4:5 10:5 4:5 9:5 5:5 11:5 5:5 10:5 3:5 9:5
4:0 10:5 4:5 9:5 5:5 11:5 5:5 10:5 3:5 9:5 4:5
10:0 4:5 9:5 5:5 11:5 5:5 10:5 3:5 9:5 4:5 10:5
4:0 9:5 5:5 11:5 5:5 10:5 3:5 9:5 4:5 10:5 2:5
9:0 5:5 11:5 5:5 10:5 3:5 9:5 4:5 10:5 2:5 10:5
5:0 11:5 5:5 10:5 3:5 9:5 4:5 10:5 2:5 10:5 5:5
11:0 5:5 10:5 3:5 9:5 4:5 10:5 2:5 10:5 5:5 10:5
5:0 10:5 3:5 9:5 4:5 10:5 2:5 10:5 5:5 10:5 7:5
10:0 3:5 9:5 4:5 10:5 2:5 10:5 5:5 10:5 7:5 5:5
3:0 9:5 4:5 10:5 2:5 10:5 5:5 10:5 7:5 5:5 7:5
9:0 4:5 10:5 2:5 10:5 5:5 10:5 7:5 5:5 7:5 11:10
4:0 10:5 2:5 10:5 5:5 10:5 7:5 5:5 7:5 11:10 2:5
10:0 2:5 10:5 5:5 10:5 7:5 5:5 7:5 11:10 2:5 8:5
2:0 10:5 5:5 10:5 7:5 5:5 7:5 11:10 2:5 8:5 7:5
10:0 5:5 10:5 7:5 5:5 7:5 11:10 2:5 8:5 7:5 5:5
5:0 10:5 7:5 5:5 7:5 11:10 2:5 8:5 7:5 5:5 8:5
10:0 7:5 5:5 7:5 11:10 2:5 8:5 7:5 5:5 8:5 6:5
7:0 5:5 7:5 11:10 2:5 8:5 7:5 5:5 8:5 6:5 11:10
5:0 7:5 11:10 2:5 8:5 7:5 5:5 8:5 6:5 11:10 3:5
7:0 11:10 2:5 8:5 7:5 5:5 8:5 6:5 11:10 3:5 11:5
11:0 2:5 8:5 7:5 5:5 8:5 6:5 11:10 3:5 11:5 2:5
2:0 8:5 7:5 5:5 8:5 6:5 11:10 3:5 11:5 2:5 11:5
8:0 7:5 5:5 8:5 6:5 11:10 3:5 11:5 2:5 11:5 5:5
7:0 5:5 8:5 6:5 11:10 3:5 11:5 2:5 11:5 5:5 8:5
5:0 8:5 6:5 11:10 3:5 11:5 2:5 11:5 5:5 8:5 7:5
8:0 6:5 11:10 3:5 11:5 2:5 11:5 5:5 8:5 7:5 5:5
6:0 11:10 3:5 11:5 2:5 11:5 5:5 8:5 7:5 5:5 7:5
11:0 3:5 11:5 2:5 11:5 5:5 8:5 7:5 5:5 7:5 9:10
3:0 11:5 2:5 11:5 5:5 8:5 7:5 5:5 7:5 9:10 8:5
11:0 2:5 11:5 5:5 8:5 7:5 5:5 7:5 9:10 8:5 3:5
2:0 11:5 5:5 8:5 7:5 5:5 7:5 9:10 8:5 3:5 11:5
11:0 5:5 8:5 7:5 5:5 7:5 9:10 8:5 3:5 11:5 3:5
5:0 8:5 7:5 5:5 7:5 9:10 8:5 3:5 11:5 3:5 10:5
8:0 7:5 5:5 7:5 9:10 8:5 3:5 11:5 3:5 10:5 6:5
7:0 5:5 7:5 9:10 8:5 3:5 11:5 3:5 10:5 6:5 5:5
5:0 7:5 9:10 8:5 3:5 11:5 3:5 10:5 6:5 5:5 9:5
7:0 9:10 8:5 3:5 11:5 3:5 10:5 6:5 5:5 9:5 6:5
9:0 8:5 3:5 11:5 3:5 10:5 6:5 5:5 9:5 6:5 11:5
8:0 3:5 11:5 3:5 10:5 6:5 5:5 9:5 6:5 11:5 2:5
3:0 11:5 3:5 10:5 6:5 5:5 9:5 6:5 11:5 2:5 9:5
11:0 3:5 10:5 6:5 5:5 9:5 6:5 11:5 2:5 9:5 5:5
3:0 10:5 6:5 5:5 9:5 6:5 11:5 2:5 9:5 5:5 8:5
10:0 6:5 5:5 9:5 6:5 11:5 2:5 9:5 5:5 8:5 7:5
6:0 5:5 9:5 6:5 11:5 2:5 9:5 5:5 8:5 7:5 3:5
5:0 9:5 6:5 11:5 2:5 9:5 5:5 8:5 7:5 3:5 9:5
9:0 6:5 11:5 2:5 9:5 5:5 8:5 7:5 3:5 9:5 5:5
6:0 11:5 2:5 9:5 5:5 8:5 7:5 3:5 9:5 5:5 9:5
11:0 2:5 9:5 5:5 8:5 7:5 3:5 9:5 5:5 9:5 7:5
2:0 9:5 5:5 8:5 7:5 3:5 9:5 5:5 9:5 7:5 4:5
9:0 5:5 8:5 7:5 3:5 9:5 5:5 9:5 7:5 4:5 11:5
5:0 8:5 7:5 3:5 9:5 5:5 9:5 7:5 4:5 11:5 5:5
8:0 7:5 3:5 9:5 5:5 9:5 7:5 4:5 11:5 5:5 8:5
7:0 3:5 9:5 5:5 9:5 7:5 4:5 11:5 5:5 8:5 5:10
3:0 9:5 5:5 9:5 7:5 4:5 11:5 5:5 8:5 5:10 10:5
9:0 5:5 9:5 7:5 4:5 11:5 5:5 8:5 5:10 10:5 5:5
5:0 9:5 7:5 4:5 11:5 5:5 8:5 5:10 10:5 5:5 10:5
9:0 7:5 4:5 11:5 5:5 8:5 5:10 10:5 5:5 10:5 4:5
7:0 4:5 11:5 5:5 8:5 5:10 10:5 5:5 10:5 4:5 9:5
4:0 11:5 5:5 8:5 5:10 10:5 5:5 10:5 4:5 9:5 5:5
11:0 5:5 8:5 5:10 10:5 5:5 10:5 4:5 9:5 5:5 11:5
5:0 8:5 5:10 10:5 5:5 10:5 4:5 9:5 5:5 11:5 5:5
8:0 5:10 10:5 5:5 10:5 4:5 9:5 5:5 11:5 5:5 8:5
5:0 10:5 5:5 10:5 4:5 9:5 5:5 11:5 5:5 8:5 5:5
10:0 5:5 10:5 4:5 9:5 5:5 11:5 5:5 8:5 5:5 9:5
5:0 10:5 4:5 9:5 5:5 11:5 5:5 8:5 5:5 9:5 4:5
10:0 4:5 9:5 5:5 11:5 5:5 8:5 5:5 9:5 4:5 11:5
4:0 9:5 5:5 11:5 5:5 8:5 5:5 9:5 4:5 11:5 2:5
9:0 5:5 11:5 5:5 8:5 5:5 9:5 4:5 11:5 2:5 9:5
5:0 11:5 5:5 8:5 5:5 9:5 4:5 11:5 2:5 9:5 5:5
11:0 5:5 8:5 5:5 9:5 4:5 11:5 2:5 9:5 5:5 10:5
5:0 8:5 5:5 9:5 4:5 11:5 2:5 9:5 5:5 10:5 8:5
8:0 5:5 9:5 4:5 11:5 2:5 9:5 5:5 10:5 8:5 5:5
5:0 9:5 4:5 11:5 2:5 9:5 5:5 10:5 8:5 5:5 8:5
9:0 4:5 11:5 2:5 9:5 5:5 10:5 8:5 5:5 8:5 7:5
4:0 11:5 2:5 9:5 5:5 10:5 8:5 5:5 8:5 7:5 9:5
11:0 2:5 9:5 5:5 10:5 8:5 5:5 8:5 7:5 9:5 6:5
2:0 9:5 5:5 10:5 8:5 5:5 8:5 7:5 9:5 6:5 5:5
9:0 5:5 10:5 8:5 5:5 8:5 7:5 9:5 6:5 5:5 9:5
5:0 10:5 8:5 5:5 8:5 7:5 9:5 6:5 5:5 9:5 5:5
10:0 8:5 5:5 8:5 7:5 9:5 6:5 5:5 9:5 5:5 9:5
8:0 5:5 8:5 7:5 9:5 6:5 5:5 9:5 5:5 9:5 6:5
5:0 8:5 7:5 9:5 6:5 5:5 9:5 5:5 9:5 6:5 7:5
8:0 7:5 9:5 6:5 5:5 9:5 5:5 9:5 6:5 7:5 9:5
7:0 9:5 6:5 5:5 9:5 5:5 9:5 6:5 7:5 9:5 7:5
9:0 6:5 5:5 9:5 5:5 9:5 6:5 7:5 9:5 7:5 10:5
6:0 5:5 9:5 5:5 9:5 6:5 7:5 9:5 7:5 10:5 2:5
5:0 9:5 5:5 9:5 6:5 7:5 9:5 7:5 10:5 2:5 11:5
9:0 5:5 9:5 6:5 7:5 9:5 7:5 10:5 2:5 11:5 3:5
5:0 9:5 6:5 7:5 9:5 7:5 10:5 2:5 11:5 3:5 11:5
9:0 6:5 7:5 9:5 7:5 10:5 2:5 11:5 3:5 11:5 3:5
6:0 7:5 9:5 7:5 10:5 2:5 11:5 3:5 11:5 3:5 8:5
7:0 9:5 7:5 10:5 2:5 11:5 3:5 11:5 3:5 8:5 7:5
9:0 7:5 10:5 2:5 11:5 3:5 11:5 3:5 8:5 7:5 9:5
7:0 10:5 2:5 11:5 3:5 11:5 3:5 8:5 7:5 9:5 6:5
10:0 2:5 11:5 3:5 11:5 3:5 8:5 7:5 9:5 6:5 9:5
2:0 11:5 3:5 11:5 3:5 8:5 7:5 9:5 6:5 9:5 3:5
11:0 3:5 11:5 3:5 8:5 7:5 9:5 6:5 9:5 3:5 11:5
3:0 11:5 3:5 8:5 7:5 9:5 6:5 9:5 3:5 11:5 3:5
11:0 3:5 8:5 7:5 9:5 6:5 9:5 3:5 11:5 3:5 11:5
3:0 8:5 7:5 9:5 6:5 9:5 3:5 11:5 3:5 11:5 4:5
8:0 7:5 9:5 6:5 9:5 3:5 11:5 3:5 11:5 4:5 8:5
7:0 9:5 6:5 9:5 3:5 11:5 3:5 11:5 4:5 8:5 7:5
9:0 6:5 9:5 3:5 11:5 3:5 11:5 4:5 8:5 7:5 8:5
6:0 9:5 3:5 11:5 3:5 11:5 4:5 8:5 7:5 8:5 10:5
9:0 3:5 11:5 3:5 11:5 4:5 8:5 7:5 8:5 10:5 3:5
3:0 11:5 3:5 11:5 4:5 8:5 7:5 8:5 10:5 3:5 10:5
11:0 3:5 11:5 4:5 8:5 7:5 8:5 10:5 3:5 10:5 7:5
3:0 11:5 4:5 8:5 7:5 8:5 10:5 3:5 10:5 7:5 8:10
11:0 4:5 8:5 7:5 8:5 10:5 3:5 10:5 7:5 8:10 6:5
4:0 8:5 7:5 8:5 10:5 3:5 10:5 7:5 8:10 6:5 7:5
8:0 7:5 8:5 10:5 3:5 10:5 7:5 8:10 6:5 7:5 8:5
7:0 8:5 10:5 3:5 10:5 7:5 8:10 6:5 7:5 8:5 9:10
8:0 10:5 3:5 10:5 7:5 8:10 6:5 7:5 8:5 9:10 4:5
10:0 3:5 10:5 7:5 8:10 6:5 7:5 8:5 9:10 4:5 11:5
3:0 10:5 7:5 8:10 6:5 7:5 8:5 9:10 4:5 11:5 3:5
10:0 7:5 8:10 6:5 7:5 8:5 9:10 4:5 11:5 3:5 9:5
7:0 8:10 6:5 7:5 8:5 9:10 4:5 11:5 3:5 9:5 7:5
8:0 6:5 7:5 8:5 9:10 4:5 11:5 3:5 9:5 7:5 6:5
6:0 7:5 8:5 9:10 4:5 11:5 3:5 9:5 7:5 6:5 7:5
7:0 8:5 9:10 4:5 11:5 3:5 9:5 7:5 6:5 7:5 6:10
8:0 9:10 4:5 11:5 3:5 9:5 7:5 6:5 7:5 6:10 9:5
9:0 4:5 11:5 3:5 9:5 7:5 6:5 7:5 6:10 9:5 3:5
4:0 11:5 3:5 9:5 7:5 6:5 7:5 6:10 9:5 3:5 11:5
11:0 3:5 9:5 7:5 6:5 7:5 6:10 9:5 3:5 11:5 3:5
3:0 9:5 7:5 6:5 7:5 6:10 9:5 3:5 11:5 3:5 11:5
9:0 7:5 6:5 7:5 6:10 9:5 3:5 11:5 3:5 11:5 4:5
7:0 6:5 7:5 6:10 9:5 3:5 11:5 3:5 11:5 4:5 10:5
6:0 7:5 6:10 9:5 3:5 11:5 3:5 11:5 4:5 10:5 3:5
7:0 6:10 9:5 3:5 11:5 3:5 11:5 4:5 10:5 3:5 9:5
6:0 9:5 3:5 11:5 3:5 11:5 4:5 10:5 3:5 9:5 4:5
9:0 3:5 11:5 3:5 11:5 4:5 10:5 3:5 9:5 4:5 8:5
3:0 11:5 3:5 11:5 4:5 10:5 3:5 9:5 4:5 8:5 3:5
11:0 3:5 11:5 4:5 10:5 3:5 9:5 4:5 8:5 3:5 11:5
3:0 11:5 4:5 10:5 3:5 9:5 4:5 8:5 3:5 11:5 4:5
11:0 4:5 10:5 3:5 9:5 4:5 8:5 3:5 11:5 4:5 11:5
4:0 10:5 3:5 9:5 4:5 8:5 3:5 11:5 4:5 11:5 4:5
10:0 3:5 9:5 4:5 8:5 3:5 11:5 4:5 11:5 4:5 9:5
3:0 9:5 4:5 8:5 3:5 11:5 4:5 11:5 4:5 9:5 7:5
9:0 4:5 8:5 3:5 11:5 4:5 11:5 4:5 9:5 7:5 6:5
4:0 8:5 3:5 11:5 4:5 11:5 4:5 9:5 7:5 6:5 11:5
8:0 3:5 11:5 4:5 11:5 4:5 9:5 7:5 6:5 11:5 2:5
3:0 11:5 4:5 11:5 4:5 9:5 7:5 6:5 11:5 2:5 11:5
11:0 4:5 11:5 4:5 9:5 7:5 6:5 11:5 2:5 11:5 3:5
4:0 11:5 4:5 9:5 7:5 6:5 11:5 2:5 11:5 3:5 10:5
11:0 4:5 9:5 7:5 6:5 11:5 2:5 11:5 3:5 10:5 5:5
4:0 9:5 7:5 6:5 11:5 2:5 11:5 3:5 10:5 5:5 7:5
9:0 7:5 6:5 11:5 2:5 11:5 3:5 10:5 5:5 7:5 5:5
7:0 6:5 11:5 2:5 11:5 3:5 10:5 5:5 7:5 5:5 9:5
6:0 11:5 2:5 11:5 3:5 10:5 5:5 7:5 5:5 9:5 3:5
11:0 2:5 11:5 3:5 10:5 5:5 7:5 5:5 9:5 3:5 11:5
2:0 11:5 3:5 10:5 5:5 7:5 5:5 9:5 3:5 11:5 3:5
11:0 3:5 10:5 5:5 7:5 5:5 9:5 3:5 11:5 3:5 10:5
3:0 10:5 5:5 7:5 5:5 9:5 3:5 11:5 3:5 10:5 3:5
10:0 5:5 7:5 5:5 9:5 3:5 11:5 3:5 10:5 3:5 10:5
5:0 7:5 5:5 9:5 3:5 11:5 3:5 10:5 3:5 10:5 4:5
7:0 5:5 9:5 3:5 11:5 3:5 10:5 3:5 10:5 4:5 7:5
5:0 9:5 3:5 11:5 3:5 10:5 3:5 10:5 4:5 7:5 8:5
9:0 3:5 11:5 3:5 10:5 3:5 10:5 4:5 7:5 8:5 7:5
3:0 11:5 3:5 10:5 3:5 10:5 4:5 7:5 8:5 7:5 10:5
11:0 3:5 10:5 3:5 10:5 4:5 7:5 8:5 7:5 10:5 2:5
3:0 10:5 3:5 10:5 4:5 7:5 8:5 7:5 10:5 2:5 11:5
10:0 3:5 10:5 4:5 7:5 8:5 7:5 10:5 2:5 11:5 3:5
3:0 10:5 4:5 7:5 8:5 7:5 10:5 2:5 11:5 3:5 11:5
10:0 4:5 7:5 8:5 7:5 10:5 2:5 11:5 3:5 11:5 7:5
4:0 7:5 8:5 7:5 10:5 2:5 11:5 3:5 11:5 7:5 6:5
7:0 8:5 7:5 10:5 2:5 11:5 3:5 11:5 7:5 6:5 5:5
8:0 7:5 10:5 2:5 11:5 3:5 11:5 7:5 6:5 5:5 10:5
7:0 10:5 2:5 11:5 3:5 11:5 7:5 6:5 5:5 10:5 8:5
10:0 2:5 11:5 3:5 11:5 7:5 6:5 5:5 10:5 8:5 5:5
2:0 11:5 3:5 11:5 7:5 6:5 5:5 10:5 8:5 5:5 4:5
11:0 3:5 11:5 7:5 6:5 5:5 10:5 8:5 5:5 4:5 9:5
3:0 11:5 7:5 6:5 5:5 10:5 8:5 5:5 4:5 9:5 5:5
11:0 7:5 6:5 5:5 10:5 8:5 5:5 4:5 9:5 5:5 9:5
7:0 6:5 5:5 10:5 8:5 5:5 4:5 9:5 5:5 9:5 8:5
6:0 5:5 10:5 8:5 5:5 4:5 9:5 5:5 9:5 8:5 5:5
5:0 10:5 8:5 5:5 4:5 9:5 5:5 9:5 8:5 5:5 10:5
10:0 8:5 5:5 4:5 9:5 5:5 9:5 8:5 5:5 10:5 5:5
8:0 5:5 4:5 9:5 5:5 9:5 8:5 5:5 10:5 5:5 9:5
5:0 4:5 9:5 5:5 9:5 8:5 5:5 10:5 5:5 9:5 4:5
4:0 9:5 5:5 9:5 8:5 5:5 10:5 5:5 9:5 4:5 5:5
9:0 5:5 9:5 8:5 5:5 10:5 5:5 9:5 4:5 5:5 11:5
5:0 9:5 8:5 5:5 10:5 5:5 9:5 4:5 5:5 11:5 5:5
9:0 8:5 5:5 10:5 5:5 9:5 4:5 5:5 11:5 5:5 10:5
8:0 5:5 10:5 5:5 9:5 4:5 5:5 11:5 5:5 10:5 4:5
5:0 10:5 5:5 9:5 4:5 5:5 11:5 5:5 10:5 4:5 7:5
10:0 5:5 9:5 4:5 5:5 11:5 5:5 10:5 4:5 7:5 10:5
5:0 9:5 4:5 5:5 11:5 5:5 10:5 4:5 7:5 10:5 6:5
9:0 4:5 5:5 11:5 5:5 10:5 4:5 7:5 10:5 6:5 10:5
4:0 5:5 11:5 5:5 10:5 4:5 7:5 10:5 6:5 10:5 4:5
5:0 11:5 5:5 10:5 4:5 7:5 10:5 6:5 10:5 4:5 11:5
11:0 5:5 10:5 4:5 7:5 10:5 6:5 10:5 4:5 11:5 3:5
5:0 10:5 4:5 7:5 10:5 6:5 10:5 4:5 11:5 3:5 10:5
10:0 4:5 7:5 10:5 6:5 10:5 4:5 11:5 3:5 10:5 5:5
4:0 7:5 10:5 6:5 10:5 4:5 11:5 3:5 10:5 5:5 7:5
7:0 10:5 6:5 10:5 4:5 11:5 3:5 10:5 5:5 7:5 3:5
10:0 6:5 10:5 4:5 11:5 3:5 10:5 5:5 7:5 3:5 11:5
6:0 10:5 4:5 11:5 3:5 10:5 5:5 7:5 3:5 11:5 4:5
10:0 4:5 11:5 3:5 10:5 5:5 7:5 3:5 11:5 4:5 10:5
4:0 11:5 3:5 10:5 5:5 7:5 3:5 11:5 4:5 10:5 2:5
11:0 3:5 10:5 5:5 7:5 3:5 11:5 4:5 10:5 2:5 10:5
3:0 10:5 5:5 7:5 3:5 11:5 4:5 10:5 2:5 10:5 4:5
10:0 5:5 7:5 3:5 11:5 4:5 10:5 2:5 10:5 4:5 10:5
5:0 7:5 3:5 11:5 4:5 10:5 2:5 10:5 4:5 10:5 6:5
7:0 3:5 11:5 4:5 10:5 2:5 10:5 4:5 10:5 6:5 7:5
3:0 11:5 4:5 10:5 2:5 10:5 4:5 10:5 6:5 7:5 9:15
11:0 4:5 10:5 2:5 10:5 4:5 10:5 6:5 7:5 9:15 2:5
4:0 10:5 2:5 10:5 4:5 10:5 6:5 7:5 9:15 2:5 11:5
10:0 2:5 10:5 4:5 10:5 6:5 7:5 9:15 2:5 11:5 3:5
2:0 10:5 4:5 10:5 6:5 7:5 9:15 2:5 11:5 3:5 10:5
10:0 4:5 10:5 6:5 7:5 9:15 2:5 11:5 3:5 10:5 7:5
4:0 10:5 6:5 7:5 9:15 2:5 11:5 3:5 10:5 7:5 5:5
10:0 6:5 7:5 9:15 2:5 11:5 3:5 10:5 7:5 5:5 7:5
6:0 7:5 9:15 2:5 11:5 3:5 10:5 7:5 5:5 7:5 9:10
7:0 9:15 2:5 11:5 3:5 10:5 7:5 5:5 7:5 9:10 7:5
9:0 2:5 11:5 3:5 10:5 7:5 5:5 7:5 9:10 7:5 4:5
2:0 11:5 3:5 10:5 7:5 5:5 7:5 9:10 7:5 4:5 11:5
11:0 3:5 10:5 7:5 5:5 7:5 9:10 7:5 4:5 11:5 5:5
3:0 10:5 7:5 5:5 7:5 9:10 7:5 4:5 11:5 5:5 11:5
10:0 7:5 5:5 7:5 9:10 7:5 4:5 11:5 5:5 11:5 4:5
7:0 5:5 7:5 9:10 7:5 4:5 11:5 5:5 11:5 4:5 9:5
5:0 7:5 9:10 7:5 4:5 11:5 5:5 11:5 4:5 9:5 3:5
7:0 9:10 7:5 4:5 11:5 5:5 11:5 4:5 9:5 3:5 10:5
9:0 7:5 4:5 11:5 5:5 11:5 4:5 9:5 3:5 10:5 5:5
7:0 4:5 11:5 5:5 11:5 4:5 9:5 3:5 10:5 5:5 10:5
4:0 11:5 5:5 11:5 4:5 9:5 3:5 10:5 5:5 10:5 3:5
11:0 5:5 11:5 4:5 9:5 3:5 10:5 5:5 10:5 3:5 9:5
5:0 11:5 4:5 9:5 3:5 10:5 5:5 10:5 3:5 9:5 4:5
11:0 4:5 9:5 3:5 10:5 5:5 10:5 3:5 9:5 4:5 10:5
4:0 9:5 3:5 10:5 5:5 10:5 3:5 9:5 4:5 10:5 4:5
9:0 3:5 10:5 5:5 10:5 3:5 9:5 4:5 10:5 4:5 7:5
3:0 10:5 5:5 10:5 3:5 9:5 4:5 10:5 4:5 7:5 9:5
10:0 5:5 10:5 3:5 9:5 4:5 10:5 4:5 7:5 9:5 6:5
5:0 10:5 3:5 9:5 4:5 10:5 4:5 7:5 9:5 6:5 9:5
10:0 3:5 9:5 4:5 10:5 4:5 7:5 9:5 6:5 9:5 4:5
3:0 9:5 4:5 10:5 4:5 7:5 9:5 6:5 9:5 4:5 11:5
9:0 4:5 10:5 4:5 7:5 9:5 6:5 9:5 4:5 11:5 3:5
4:0 10:5 4:5 7:5 9:5 6:5 9:5 4:5 11:5 3:5 11:5
10:0 4:5 7:5 9:5 6:5 9:5 4:5 11:5 3:5 11:5 5:5
4:0 7:5 9:5 6:5 9:5 4:5 11:5 3:5 11:5 5:5 6:5
7:0 9:5 6:5 9:5 4:5 11:5 3:5 11:5 5:5 6:5 9:5
9:0 6:5 9:5 4:5 11:5 3:5 11:5 5:5 6:5 9:5 7:5
6:0 9:5 4:5 11:5 3:5 11:5 5:5 6:5 9:5 7:5 6:5
9:0 4:5 11:5 3:5 11:5 5:5 6:5 9:5 7:5 6:5 8:5
4:0 11:5 3:5 11:5 5:5 6:5 9:5 7:5 6:5 8:5 3:5
11:0 3:5 11:5 5:5 6:5 9:5 7:5 6:5 8:5 3:5 11:5
3:0 11:5 5:5 6:5 9:5 7:5 6:5 8:5 3:5 11:5 3:5
11:0 5:5 6:5 9:5 7:5 6:5 8:5 3:5 11:5 3:5 11:5
5:0 6:5 9:5 7:5 6:5 8:5 3:5 11:5 3:5 11:5 4:5
6:0 9:5 7:5 6:5 8:5 3:5 11:5 3:5 11:5 4:5 9:5
9:0 7:5 6:5 8:5 3:5 11:5 3:5 11:5 4:5 9:5 7:5
7:0 6:5 8:5 3:5 11:5 3:5 11:5 4:5 9:5 7:5 6:5
6:0 8:5 3:5 11:5 3:5 11:5 4:5 9:5 7:5 6:5 10:5
8:0 3:5 11:5 3:5 11:5 4:5 9:5 7:5 6:5 10:5 2:5
3:0 11:5 3:5 11:5 4:5 9:5 7:5 6:5 10:5 2:5 9:5
11:0 3:5 11:5 4:5 9:5 7:5 6:5 10:5 2:5 9:5 5:5
3:0 11:5 4:5 9:5 7:5 6:5 10:5 2:5 9:5 5:5 11:5
11:0 4:5 9:5 7:5 6:5 10:5 2:5 9:5 5:5 11:5 5:5
4:0 9:5 7:5 6:5 10:5 2:5 9:5 5:5 11:5 5:5 8:5
9:0 7:5 6:5 10:5 2:5 9:5 5:5 11:5 5:5 8:5 5:5
7:0 6:5 10:5 2:5 9:5 5:5 11:5 5:5 8:5 5:5 11:5
6:0 10:5 2:5 9:5 5:5 11:5 5:5 8:5 5:5 11:5 3:5
10:0 2:5 9:5 5:5 11:5 5:5 8:5 5:5 11:5 3:5 11:5
2:0 9:5 5:5 11:5 5:5 8:5 5:5 11:5 3:5 11:5 2:5
9:0 5:5 11:5 5:5 8:5 5:5 11:5 3:5 11:5 2:5 11:5
5:0 11:5 5:5 8:5 5:5 11:5 3:5 11:5 2:5 11:5 5:5
11:0 5:5 8:5 5:5 11:5 3:5 11:5 2:5 11:5 5:5 11:5
5:0 8:5 5:5 11:5 3:5 11:5 2:5 11:5 5:5 11:5 4:5
8:0 5:5 11:5 3:5 11:5 2:5 11:5 5:5 11:5 4:5 10:5
5:0 11:5 3:5 11:5 2:5 11:5 5:5 11:5 4:5 10:5 5:5
11:0 3:5 11:5 2:5 11:5 5:5 11:5 4:5 10:5 5:5 11:5
3:0 11:5 2:5 11:5 5:5 11:5 4:5 10:5 5:5 11:5 4:5
11:0 2:5 11:5 5:5 11:5 4:5 10:5 5:5 11:5 4:5 10:5
2:0 11:5 5:5 11:5 4:5 10:5 5:5 11:5 4:5 10:5 3:5
11:0 5:5 11:5 4:5 10:5 5:5 11:5 4:5 10:5 3:5 10:5
5:0 11:5 4:5 10:5 5:5 11:5 4:5 10:5 3:5 10:5 5:5
11:0 4:5 10:5 5:5 11:5 4:5 10:5 3:5 10:5 5:5 11:5
4:0 10:5 5:5 11:5 4:5 10:5 3:5 10:5 5:5 11:5 2:5
10:0 5:5 11:5 4:5 10:5 3:5 10:5 5:5 11:5 2:5 11:5
5:0 11:5 4:5 10:5 3:5 10:5 5:5 11:5 2:5 11:5 3:5
11:0 4:5 10:5 3:5 10:5 5:5 11:5 2:5 11:5 3:5 11:5
4:0 10:5 3:5 10:5 5:5 11:5 2:5 11:5 3:5 11:5 5:5
10:0 3:5 10:5 5:5 11:5 2:5 11:5 3:5 11:5 5:5 8:5
3:0 10:5 5:5 11:5 2:5 11:5 3:5 11:5 5:5 8:5 7:5
10:0 5:5 11:5 2:5 11:5 3:5 11:5 5:5 8:5 7:5 8:5
5:0 11:5 2:5 11:5 3:5 11:5 5:5 8:5 7:5 8:5 6:5
11:0 2:5 11:5 3:5 11:5 5:5 8:5 7:5 8:5 6:5 10:5
2:0 11:5 3:5 11:5 5:5 8:5 7:5 8:5 6:5 10:5 4:5
11:0 3:5 11:5 5:5 8:5 7:5 8:5 6:5 10:5 4:5 11:5
3:0 11:5 5:5 8:5 7:5 8:5 6:5 10:5 4:5 11:5 3:5
11:0 5:5 8:5 7:5 8:5 6:5 10:5 4:5 11:5 3:5 10:5
5:0 8:5 7:5 8:5 6:5 10:5 4:5 11:5 3:5 10:5 5:5
8:0 7:5 8:5 6:5 10:5 4:5 11:5 3:5 10:5 5:5 7:5
7:0 8:5 6:5 10:5 4:5 11:5 3:5 10:5 5:5 7:5 5:5
8:0 6:5 10:5 4:5 11:5 3:5 10:5 5:5 7:5 5:5 9:5
6:0 10:5 4:5 11:5 3:5 10:5 5:5 7:5 5:5 9:5 5:5
10:0 4:5 11:5 3:5 10:5 5:5 7:5 5:5 9:5 5:5 8:5
4:0 11:5 3:5 10:5 5:5 7:5 5:5 9:5 5:5 8:5 3:5
11:0 3:5 10:5 5:5 7:5 5:5 9:5 5:5 8:5 3:5 10:5
3:0 10:5 5:5 7:5 5:5 9:5 5:5 8:5 3:5 10:5 4:5
10:0 5:5 7:5 5:5 9:5 5:5 8:5 3:5 10:5 4:5 11:5
5:0 7:5 5:5 9:5 5:5 8:5 3:5 10:5 4:5 11:5 2:5
7:0 5:5 9:5 5:5 8:5 3:5 10:5 4:5 11:5 2:5 9:5
5:0 9:5 5:5 8:5 3:5 10:5 4:5 11:5 2:5 9:5 3:5
9:0 5:5 8:5 3:5 10:5 4:5 11:5 2:5 9:5 3:5 11:5
5:0 8:5 3:5 10:5 4:5 11:5 2:5 9:5 3:5 11:5 3:5
8:0 3:5 10:5 4:5 11:5 2:5 9:5 3:5 11:5 3:5 8:5
3:0 10:5 4:5 11:5 2:5 9:5 3:5 11:5 3:5 8:5 7:5
10:0 4:5 11:5 2:5 9:5 3:5 11:5 3:5 8:5 7:5 8:5
4:0 11:5 2:5 9:5 3:5 11:5 3:5 8:5 7:5 8:5 9:10
11:0 2:5 9:5 3:5 11:5 3:5 8:5 7:5 8:5 9:10 3:5
2:0 9:5 3:5 11:5 3:5 8:5 7:5 8:5 9:10 3:5 11:5
9:0 3:5 11:5 3:5 8:5 7:5 8:5 9:10 3:5 11:5 5:5
3:0 11:5 3:5 8:5 7:5 8:5 9:10 3:5 11:5 5:5 10:5
11:0 3:5 8:5 7:5 8:5 9:10 3:5 11:5 5:5 10:5 4:5
3:0 8:5 7:5 8:5 9:10 3:5 11:5 5:5 10:5 4:5 10:5
8:0 7:5 8:5 9:10 3:5 11:5 5:5 10:5 4:5 10:5 5:5
7:0 8:5 9:10 3:5 11:5 5:5 10:5 4:5 10:5 5:5 11:5
8:0 9:10 3:5 11:5 5:5 10:5 4:5 10:5 5:5 11:5 4:5
9:0 3:5 11:5 5:5 10:5 4:5 10:5 5:5 11:5 4:5 8:5
3:0 11:5 5:5 10:5 4:5 10:5 5:5 11:5 4:5 8:5 4:5
11:0 5:5 10:5 4:5 10:5 5:5 11:5 4:5 8:5 4:5 11:5
5:0 10:5 4:5 10:5 5:5 11:5 4:5 8:5 4:5 11:5 5:5
10:0 4:5 10:5 5:5 11:5 4:5 8:5 4:5 11:5 5:5 11:5
4:0 10:5 5:5 11:5 4:5 8:5 4:5 11:5 5:5 11:5 4:5
10:0 5:5 11:5 4:5 8:5 4:5 11:5 5:5 11:5 4:5 10:5
5:0 11:5 4:5 8:5 4:5 11:5 5:5 11:5 4:5 10:5 3:5
11:0 4:5 8:5 4:5 11:5 5:5 11:5 4:5 10:5 3:5 11:5
4:0 8:5 4:5 11:5 5:5 11:5 4:5 10:5 3:5 11:5 7:5
8:0 4:5 11:5 5:5 11:5 4:5 10:5 3:5 11:5 7:5 4:5
4:0 11:5 5:5 11:5 4:5 10:5 3:5 11:5 7:5 4:5 7:5
11:0 5:5 11:5 4:5 10:5 3:5 11:5 7:5 4:5 7:5 9:5
5:0 11:5 4:5 10:5 3:5 11:5 7:5 4:5 7:5 9:5 11:5
11:0 4:5 10:5 3:5 11:5 7:5 4:5 7:5 9:5 11:5 3:5
4:0 10:5 3:5 11:5 7:5 4:5 7:5 9:5 11:5 3:5 6:5
10:0 3:5 11:5 7:5 4:5 7:5 9:5 11:5 3:5 6:5 9:5
3:0 11:5 7:5 4:5 7:5 9:5 11:5 3:5 6:5 9:5 5:5
11:0 7:5 4:5 7:5 9:5 11:5 3:5 6:5 9:5 5:5 8:5
7:0 4:5 7:5 9:5 11:5 3:5 6:5 9:5 5:5 8:5 3:10
4:0 7:5 9:5 11:5 3:5 6:5 9:5 5:5 8:5 3:10 11:5
7:0 9:5 11:5 3:5 6:5 9:5 5:5 8:5 3:10 11:5 3:5
9:0 11:5 3:5 6:5 9:5 5:5 8:5 3:10 11:5 3:5 11:5
11:0 3:5 6:5 9:5 5:5 8:5 3:10 11:5 3:5 11:5 2:5
3:0 6:5 9:5 5:5 8:5 3:10 11:5 3:5 11:5 2:5 10:5
6:0 9:5 5:5 8:5 3:10 11:5 3:5 11:5 2:5 10:5 5:5
9:0 5:5 8:5 3:10 11:5 3:5 11:5 2:5 10:5 5:5 8:5
5:0 8:5 3:10 11:5 3:5 11:5 2:5 10:5 5:5 8:5 6:10
8:0 3:10 11:5 3:5 11:5 2:5 10:5 5:5 8:5 6:10 7:10
3:0 11:5 3:5 11:5 2:5 10:5 5:5 8:5 6:10 7:10 6:5
11:0 3:5 11:5 2:5 10:5 5:5 8:5 6:10 7:10 6:5 11:5
3:0 11:5 2:5 10:5 5:5 8:5 6:10 7:10 6:5 11:5 2:5
11:0 2:5 10:5 5:5 8:5 6:10 7:10 6:5 11:5 2:5 11:5
2:0 10:5 5:5 8:5 6:10 7:10 6:5 11:5 2:5 11:5 5:5
10:0 5:5 8:5 6:10 7:10 6:5 11:5 2:5 11:5 5:5 11:5
5:0 8:5 6:10 7:10 6:5 11:5 2:5 11:5 5:5 11:5 4:5
8:0 6:10 7:10 6:5 11:5 2:5 11:5 5:5 11:5 4:5 8:5
6:0 7:10 6:5 11:5 2:5 11:5 5:5 11:5 4:5 8:5 7:5
7:0 6:5 11:5 2:5 11:5 5:5 11:5 4:5 8:5 7:5 8:10
6:0 11:5 2:5 11:5 5:5 11:5 4:5 8:5 7:5 8:10 3:10
11:0 2:5 11:5 5:5 11:5 4:5 8:5 7:5 8:10 3:10 11:5
2:0 11:5 5:5 11:5 4:5 8:5 7:5 8:10 3:10 11:5 4:5
11:0 5:5 11:5 4:5 8:5 7:5 8:10 3:10 11:5 4:5 10:5
5:0 11:5 4:5 8:5 7:5 8:10 3:10 11:5 4:5 10:5 4:5
11:0 4:5 8:5 7:5 8:10 3:10 11:5 4:5 10:5 4:5 7:5
4:0 8:5 7:5 8:10 3:10 11:5 4:5 10:5 4:5 7:5 8:5
8:0 7:5 8:10 3:10 11:5 4:5 10:5 4:5 7:5 8:5 9:10
7:0 8:10 3:10 11:5 4:5 10:5 4:5 7:5 8:5 9:10 2:5
8:0 3:10 11:5 4:5 10:5 4:5 7:5 8:5 9:10 2:5 11:5
3:0 11:5 4:5 10:5 4:5 7:5 8:5 9:10 2:5 11:5 5:5
11:0 4:5 10:5 4:5 7:5 8:5 9:10 2:5 11:5 5:5 9:5
4:0 10:5 4:5 7:5 8:5 9:10 2:5 11:5 5:5 9:5 7:5
10:0 4:5 7:5 8:5 9:10 2:5 11:5 5:5 9:5 7:5 6:5
4:0 7:5 8:5 9:10 2:5 11:5 5:5 9:5 7:5 6:5 7:5
7:0 8:5 9:10 2:5 11:5 5:5 9:5 7:5 6:5 7:5 8:10
8:0 9:10 2:5 11:5 5:5 9:5 7:5 6:5 7:5 8:10 9:5
9:0 2:5 11:5 5:5 9:5 7:5 6:5 7:5 8:10 9:5 3:5
2:0 11:5 5:5 9:5 7:5 6:5 7:5 8:10 9:5 3:5 11:5
11:0 5:5 9:5 7:5 6:5 7:5 8:10 9:5 3:5 11:5 3:5
5:0 9:5 7:5 6:5 7:5 8:10 9:5 3:5 11:5 3:5 10:5
9:0 7:5 6:5 7:5 8:10 9:5 3:5 11:5 3:5 10:5 6:5
7:0 6:5 7:5 8:10 9:5 3:5 11:5 3:5 10:5 6:5 7:5
6:0 7:5 8:10 9:5 3:5 11:5 3:5 10:5 6:5 7:5 5:5
7:0 8:10 9:5 3:5 11:5 3:5 10:5 6:5 7:5 5:5 9:5
8:0 9:5 3:5 11:5 3:5 10:5 6:5 7:5 5:5 9:5 5:5
9:0 3:5 11:5 3:5 10:5 6:5 7:5 5:5 9:5 5:5 10:5
3:0 11:5 3:5 10:5 6:5 7:5 5:5 9:5 5:5 10:5 5:5
11:0 3:5 10:5 6:5 7:5 5:5 9:5 5:5 10:5 5:5 11:5
3:0 10:5 6:5 7:5 5:5 9:5 5:5 10:5 5:5 11:5 3:5
10:0 6:5 7:5 5:5 9:5 5:5 10:5 5:5 11:5 3:5 10:5
6:0 7:5 5:5 9:5 5:5 10:5 5:5 11:5 3:5 10:5 4:5
7:0 5:5 9:5 5:5 10:5 5:5 11:5 3:5 10:5 4:5 7:5
5:0 9:5 5:5 10:5 5:5 11:5 3:5 10:5 4:5 7:5 8:10
9:0 5:5 10:5 5:5 11:5 3:5 10:5 4:5 7:5 8:10 11:5
5:0 10:5 5:5 11:5 3:5 10:5 4:5 7:5 8:10 11:5 2:5
10:0 5:5 11:5 3:5 10:5 4:5 7:5 8:10 11:5 2:5 11:5
5:0 11:5 3:5 10:5 4:5 7:5 8:10 11:5 2:5 11:5 5:5
11:0 3:5 10:5 4:5 7:5 8:10 11:5 2:5 11:5 5:5 11:5
3:0 10:5 4:5 7:5 8:10 11:5 2:5 11:5 5:5 11:5 5:5
10:0 4:5 7:5 8:10 11:5 2:5 11:5 5:5 11:5 5:5 6:5
4:0 7:5 8:10 11:5 2:5 11:5 5:5 11:5 5:5 6:5 9:5
7:0 8:10 11:5 2:5 11:5 5:5 11:5 5:5 6:5 9:5 5:5
8:0 11:5 2:5 11:5 5:5 11:5 5:5 6:5 9:5 5:5 11:5
11:0 2:5 11:5 5:5 11:5 5:5 6:5 9:5 5:5 11:5 8:5
2:0 11:5 5:5 11:5 5:5 6:5 9:5 5:5 11:5 8:5 3:5
11:0 5:5 11:5 5:5 6:5 9:5 5:5 11:5 8:5 3:5 10:5
5:0 11:5 5:5 6:5 9:5 5:5 11:5 8:5 3:5 10:5 3:5
11:0 5:5 6:5 9:5 5:5 11:5 8:5 3:5 10:5 3:5 10:5
5:0 6:5 9:5 5:5 11:5 8:5 3:5 10:5 3:5 10:5 4:5
6:0 9:5 5:5 11:5 8:5 3:5 10:5 3:5 10:5 4:5 9:5
9:0 5:5 11:5 8:5 3:5 10:5 3:5 10:5 4:5 9:5 8:5
5:0 11:5 8:5 3:5 10:5 3:5 10:5 4:5 9:5 8:5 7:5
11:0 8:5 3:5 10:5 3:5 10:5 4:5 9:5 8:5 7:5 9:5
8:0 3:5 10:5 3:5 10:5 4:5 9:5 8:5 7:5 9:5 5:5
3:0 10:5 3:5 10:5 4:5 9:5 8:5 7:5 9:5 5:5 7:5
10:0 3:5 10:5 4:5 9:5 8:5 7:5 9:5 5:5 7:5 9:5
3:0 10:5 4:5 9:5 8:5 7:5 9:5 5:5 7:5 9:5 5:5
10:0 4:5 9:5 8:5 7:5 9:5 5:5 7:5 9:5 5:5 11:5
4:0 9:5 8:5 7:5 9:5 5:5 7:5 9:5 5:5 11:5 4:5
9:0 8:5 7:5 9:5 5:5 7:5 9:5 5:5 11:5 4:5 9:5
8:0 7:5 9:5 5:5 7:5 9:5 5:5 11:5 4:5 9:5 5:5
7:0 9:5 5:5 7:5 9:5 5:5 11:5 4:5 9:5 5:5 6:5
9:0 5:5 7:5 9:5 5:5 11:5 4:5 9:5 5:5 6:5 8:5
5:0 7:5 9:5 5:5 11:5 4:5 9:5 5:5 6:5 8:5 4:5
7:0 9:5 5:5 11:5 4:5 9:5 5:5 6:5 8:5 4:5 10:5
9:0 5:5 11:5 4:5 9:5 5:5 6:5 8:5 4:5 10:5 4:5
5:0 11:5 4:5 9:5 5:5 6:5 8:5 4:5 10:5 4:5 10:5
11:0 4:5 9:5 5:5 6:5 8:5 4:5 10:5 4:5 10:5 5:5
4:0 9:5 5:5 6:5 8:5 4:5 10:5 4:5 10:5 5:5 8:5
9:0 5:5 6:5 8:5 4:5 10:5 4:5 10:5 5:5 8:5 5:5
5:0 6:5 8:5 4:5 10:5 4:5 10:5 5:5 8:5 5:5 9:5
6:0 8:5 4:5 10:5 4:5 10:5 5:5 8:5 5:5 9:5 5:5
8:0 4:5 10:5 4:5 10:5 5:5 8:5 5:5 9:5 5:5 10:5
4:0 10:5 4:5 10:5 5:5 8:5 5:5 9:5 5:5 10:5 3:5
10:0 4:5 10:5 5:5 8:5 5:5 9:5 5:5 10:5 3:5 11:5
4:0 10:5 5:5 8:5 5:5 9:5 5:5 10:5 3:5 11:5 3:5
10:0 5:5 8:5 5:5 9:5 5:5 10:5 3:5 11:5 3:5 10:5
5:0 8:5 5:5 9:5 5:5 10:5 3:5 11:5 3:5 10:5 4:5
8:0 5:5 9:5 5:5 10:5 3:5 11:5 3:5 10:5 4:5 9:5
5:0 9:5 5:5 10:5 3:5 11:5 3:5 10:5 4:5 9:5 5:5
9:0 5:5 10:5 3:5 11:5 3:5 10:5 4:5 9:5 5:5 9:5
5:0 10:5 3:5 11:5 3:5 10:5 4:5 9:5 5:5 9:5 7:5
10:0 3:5 11:5 3:5 10:5 4:5 9:5 5:5 9:5 7:5 5:5
3:0 11:5 3:5 10:5 4:5 9:5 5:5 9:5 7:5 5:5 8:10
11:0 3:5 10:5 4:5 9:5 5:5 9:5 7:5 5:5 8:10 5:5
3:0 10:5 4:5 9:5 5:5 9:5 7:5 5:5 8:10 5:5 9:5
10:0 4:5 9:5 5:5 9:5 7:5 5:5 8:10 5:5 9:5 4:5
4:0 9:5 5:5 9:5 7:5 5:5 8:10 5:5 9:5 4:5 9:5
9:0 5:5 9:5 7:5 5:5 8:10 5:5 9:5 4:5 9:5 7:5
5:0 9:5 7:5 5:5 8:10 5:5 9:5 4:5 9:5 7:5 9:5
9:0 7:5 5:5 8:10 5:5 9:5 4:5 9:5 7:5 9:5 8:5
7:0 5:5 8:10 5:5 9:5 4:5 9:5 7:5 9:5 8:5 5:5
5:0 8:10 5:5 9:5 4:5 9:5 7:5 9:5 8:5 5:5 10:5
8:0 5:5 9:5 4:5 9:5 7:5 9:5 8:5 5:5 10:5 5:5
5:0 9:5 4:5 9:5 7:5 9:5 8:5 5:5 10:5 5:5 10:5
9:0 4:5 9:5 7:5 9:5 8:5 5:5 10:5 5:5 10:5 2:5
4:0 9:5 7:5 9:5 8:5 5:5 10:5 5:5 10:5 2:5 9:5
9:0 7:5 9:5 8:5 5:5 10:5 5:5 10:5 2:5 9:5 3:5
7:0 9:5 8:5 5:5 10:5 5:5 10:5 2:5 9:5 3:5 10:5
9:0 8:5 5:5 10:5 5:5 10:5 2:5 9:5 3:5 10:5 7:5
8:0 5:5 10:5 5:5 10:5 2:5 9:5 3:5 10:5 7:5 8:5
5:0 10:5 5:5 10:5 2:5 9:5 3:5 10:5 7:5 8:5 3:5
10:0 5:5 10:5 2:5 9:5 3:5 10:5 7:5 8:5 3:5 11:5
5:0 10:5 2:5 9:5 3:5 10:5 7:5 8:5 3:5 11:5 4:5
10:0 2:5 9:5 3:5 10:5 7:5 8:5 3:5 11:5 4:5 10:5
2:0 9:5 3:5 10:5 7:5 8:5 3:5 11:5 4:5 10:5 4:5
9:0 3:5 10:5 7:5 8:5 3:5 11:5 4:5 10:5 4:5 9:5
3:0 10:5 7:5 8:5 3:5 11:5 4:5 10:5 4:5 9:5 5:5
10:0 7:5 8:5 3:5 11:5 4:5 10:5 4:5 9:5 5:5 11:5
7:0 8:5 3:5 11:5 4:5 10:5 4:5 9:5 5:5 11:5 5:5
8:0 3:5 11:5 4:5 10:5 4:5 9:5 5:5 11:5 5:5 8:5
3:0 11:5 4:5 10:5 4:5 9:5 5:5 11:5 5:5 8:5 5:5
11:0 4:5 10:5 4:5 9:5 5:5 11:5 5:5 8:5 5:5 11:5
4:0 10:5 4:5 9:5 5:5 11:5 5:5 8:5 5:5 11:5 4:5
10:0 4:5 9:5 5:5 11:5 5:5 8:5 5:5 11:5 4:5 10:5
4:0 9:5 5:5 11:5 5:5 8:5 5:5 11:5 4:5 10:5 3:5
9:0 5:5 11:5 5:5 8:5 5:5 11:5 4:5 10:5 3:5 11:5
5:0 11:5 5:5 8:5 5:5 11:5 4:5 10:5 3:5 11:5 5:5
11:0 5:5 8:5 5:5 11:5 4:5 10:5 3:5 11:5 5:5 11:5
5:0 8:5 5:5 11:5 4:5 10:5 3:5 11:5 5:5 11:5 4:5
8:0 5:5 11:5 4:5 10:5 3:5 11:5 5:5 11:5 4:5 9:5
5:0 11:5 4:5 10:5 3:5 11:5 5:5 11:5 4:5 9:5 5:5
11:0 4:5 10:5 3:5 11:5 5:5 11:5 4:5 9:5 5:5 9:5
4:0 10:5 3:5 11:5 5:5 11:5 4:5 9:5 5:5 9:5 7:5
10:0 3:5 11:5 5:5 11:5 4:5 9:5 5:5 9:5 7:5 3:10
3:0 11:5 5:5 11:5 4:5 9:5 5:5 9:5 7:5 3:10 11:5
11:0 5:5 11:5 4:5 9:5 5:5 9:5 7:5 3:10 11:5 5:5
5:0 11:5 4:5 9:5 5:5 9:5 7:5 3:10 11:5 5:5 11:5
11:0 4:5 9:5 5:5 9:5 7:5 3:10 11:5 5:5 11:5 2:5
4:0 9:5 5:5 9:5 7:5 3:10 11:5 5:5 11:5 2:5 9:5
9:0 5:5 9:5 7:5 3:10 11:5 5:5 11:5 2:5 9:5 7:5
5:0 9:5 7:5 3:10 11:5 5:5 11:5 2:5 9:5 7:5 8:5
9:0 7:5 3:10 11:5 5:5 11:5 2:5 9:5 7:5 8:5 7:5
7:0 3:10 11:5 5:5 11:5 2:5 9:5 7:5 8:5 7:5 5:5
3:0 11:5 5:5 11:5 2:5 9:5 7:5 8:5 7:5 5:5 7:5
11:0 5:5 11:5 2:5 9:5 7:5 8:5 7:5 5:5 7:5 10:15
5:0 11:5 2:5 9:5 7:5 8:5 7:5 5:5 7:5 10:15 3:5
11:0 2:5 9:5 7:5 8:5 7:5 5:5 7:5 10:15 3:5 11:5
2:0 9:5 7:5 8:5 7:5 5:5 7:5 10:15 3:5 11:5 3:5
9:0 7:5 8:5 7:5 5:5 7:5 10:15 3:5 11:5 3:5 11:5
7:0 8:5 7:5 5:5 7:5 10:15 3:5 11:5 3:5 11:5 4:5
8:0 7:5 5:5 7:5 10:15 3:5 11:5 3:5 11:5 4:5 6:5
7:0 5:5 7:5 10:15 3:5 11:5 3:5 11:5 4:5 6:5 9:5
5:0 7:5 10:15 3:5 11:5 3:5 11:5 4:5 6:5 9:5 4:5
7:0 10:15 3:5 11:5 3:5 11:5 4:5 6:5 9:5 4:5 11:5
10:0 3:5 11:5 3:5 11:5 4:5 6:5 9:5 4:5 11:5 2:5
3:0 11:5 3:5 11:5 4:5 6:5 9:5 4:5 11:5 2:5 11:5
11:0 3:5 11:5 4:5 6:5 9:5 4:5 11:5 2:5 11:5 5:5
3:0 11:5 4:5 6:5 9:5 4:5 11:5 2:5 11:5 5:5 10:5
11:0 4:5 6:5 9:5 4:5 11:5 2:5 11:5 5:5 10:5 5:5
4:0 6:5 9:5 4:5 11:5 2:5 11:5 5:5 10:5 5:5 10:5
6:0 9:5 4:5 11:5 2:5 11:5 5:5 10:5 5:5 10:5 5:5
9:0 4:5 11:5 2:5 11:5 5:5 10:5 5:5 10:5 5:5 9:5
4:0 11:5 2:5 11:5 5:5 10:5 5:5 10:5 5:5 9:5 7:5
11:0 2:5 11:5 5:5 10:5 5:5 10:5 5:5 9:5 7:5 10:5
2:0 11:5 5:5 10:5 5:5 10:5 5:5 9:5 7:5 10:5 3:5
11:0 5:5 10:5 5:5 10:5 5:5 9:5 7:5 10:5 3:5 9:5
5:0 10:5 5:5 10:5 5:5 9:5 7:5 10:5 3:5 9:5 5:5
10:0 5:5 10:5 5:5 9:5 7:5 10:5 3:5 9:5 5:5 9:5
5:0 10:5 5:5 9:5 7:5 10:5 3:5 9:5 5:5 9:5 4:5
10:0 5:5 9:5 7:5 10:5 3:5 9:5 5:5 9:5 4:5 6:5
5:0 9:5 7:5 10:5 3:5 9:5 5:5 9:5 4:5 6:5 8:5
9:0 7:5 10:5 3:5 9:5 5:5 9:5 4:5 6:5 8:5 10:5
7:0 10:5 3:5 9:5 5:5 9:5 4:5 6:5 8:5 10:5 4:5
10:0 3:5 9:5 5:5 9:5 4:5 6:5 8:5 10:5 4:5 8:5
3:0 9:5 5:5 9:5 4:5 6:5 8:5 10:5 4:5 8:5 5:5
9:0 5:5 9:5 4:5 6:5 8:5 10:5 4:5 8:5 5:5 9:5
5:0 9:5 4:5 6:5 8:5 10:5 4:5 8:5 5:5 9:5 5:5
9:0 4:5 6:5 8:5 10:5 4:5 8:5 5:5 9:5 5:5 11:5
4:0 6:5 8:5 10:5 4:5 8:5 5:5 9:5 5:5 11:5
6:0 8:5 10:5 4:5 8:5 5:5 9:5 5:5 11:5
8:0 10:5 4:5 8:5 5:5 9:5 5:5 11:5
10:0 4:5 8:5 5:5 9:5 5:5 11:5
4:0 8:5 5:5 9:5 5:5 11:5
8:0 5:5 9:5 5:5 11:5
5:0 9:5 5:5 11:5
9:0 5:5 11:5
5:0 11:5
11:0