7:0 8:5 7:5 8:5 9:5 8:15 2:10 1:5 7:10 10:15 9:5
8:0 7:5 8:5 9:5 8:15 2:10 1:5 7:10 10:15 9:5 2:5
7:0 8:5 9:5 8:15 2:10 1:5 7:10 10:15 9:5 2:5 1:5
8:0 9:5 8:15 2:10 1:5 7:10 10:15 9:5 2:5 1:5 7:5
9:0 8:15 2:10 1:5 7:10 10:15 9:5 2:5 1:5 7:5 8:5
8:0 2:10 1:5 7:10 10:15 9:5 2:5 1:5 7:5 8:5 9:15
2:0 1:5 7:10 10:15 9:5 2:5 1:5 7:5 8:5 9:15 8:15
1:0 7:10 10:15 9:5 2:5 1:5 7:5 8:5 9:15 8:15 7:5
7:0 10:15 9:5 2:5 1:5 7:5 8:5 9:15 8:15 7:5 2:5
10:0 9:5 2:5 1:5 7:5 8:5 9:15 8:15 7:5 2:5 1:5
9:0 2:5 1:5 7:5 8:5 9:15 8:15 7:5 2:5 1:5 3:10
2:0 1:5 7:5 8:5 9:15 8:15 7:5 2:5 1:5 3:10 7:5
1:0 7:5 8:5 9:15 8:15 7:5 2:5 1:5 3:10 7:5 8:10
7:0 8:5 9:15 8:15 7:5 2:5 1:5 3:10 7:5 8:10 9:5
8:0 9:15 8:15 7:5 2:5 1:5 3:10 7:5 8:10 9:5 8:10
9:0 8:15 7:5 2:5 1:5 3:10 7:5 8:10 9:5 8:10 9:10
8:0 7:5 2:5 1:5 3:10 7:5 8:10 9:5 8:10 9:10 6:5
7:0 2:5 1:5 3:10 7:5 8:10 9:5 8:10 9:10 6:5 1:5
2:0 1:5 3:10 7:5 8:10 9:5 8:10 9:10 6:5 1:5 6:10
1:0 3:10 7:5 8:10 9:5 8:10 9:10 6:5 1:5 6:10 8:5
3:0 7:5 8:10 9:5 8:10 9:10 6:5 1:5 6:10 8:5 9:10
7:0 8:10 9:5 8:10 9:10 6:5 1:5 6:10 8:5 9:10 2:5
8:0 9:5 8:10 9:10 6:5 1:5 6:10 8:5 9:10 2:5 1:5
9:0 8:10 9:10 6:5 1:5 6:10 8:5 9:10 2:5 1:5 2:5
8:0 9:10 6:5 1:5 6:10 8:5 9:10 2:5 1:5 2:5 7:5
9:0 6:5 1:5 6:10 8:5 9:10 2:5 1:5 2:5 7:5 9:15
6:0 1:5 6:10 8:5 9:10 2:5 1:5 2:5 7:5 9:15 10:5
1:0 6:10 8:5 9:10 2:5 1:5 2:5 7:5 9:15 10:5 6:5
6:0 8:5 9:10 2:5 1:5 2:5 7:5 9:15 10:5 6:5 1:5
8:0 9:10 2:5 1:5 2:5 7:5 9:15 10:5 6:5 1:5 3:5
9:0 2:5 1:5 2:5 7:5 9:15 10:5 6:5 1:5 3:5 8:5
2:0 1:5 2:5 7:5 9:15 10:5 6:5 1:5 3:5 8:5 9:15
1:0 2:5 7:5 9:15 10:5 6:5 1:5 3:5 8:5 9:15 8:10
2:0 7:5 9:15 10:5 6:5 1:5 3:5 8:5 9:15 8:10 1:5
7:0 9:15 10:5 6:5 1:5 3:5 8:5 9:15 8:10 1:5 7:15
9:0 10:5 6:5 1:5 3:5 8:5 9:15 8:10 1:5 7:15 8:5
10:0 6:5 1:5 3:5 8:5 9:15 8:10 1:5 7:15 8:5 9:15
6:0 1:5 3:5 8:5 9:15 8:10 1:5 7:15 8:5 9:15 6:20
1:0 3:5 8:5 9:15 8:10 1:5 7:15 8:5 9:15 6:20 2:5
3:0 8:5 9:15 8:10 1:5 7:15 8:5 9:15 6:20 2:5 1:5
8:0 9:15 8:10 1:5 7:15 8:5 9:15 6:20 2:5 1:5 5:10
9:0 8:10 1:5 7:15 8:5 9:15 6:20 2:5 1:5 5:10 7:5
8:0 1:5 7:15 8:5 9:15 6:20 2:5 1:5 5:10 7:5 9:10
1:0 7:15 8:5 9:15 6:20 2:5 1:5 5:10 7:5 9:10 8:15
7:0 8:5 9:15 6:20 2:5 1:5 5:10 7:5 9:10 8:15 9:10
8:0 9:15 6:20 2:5 1:5 5:10 7:5 9:10 8:15 9:10 2:5
9:0 6:20 2:5 1:5 5:10 7:5 9:10 8:15 9:10 2:5 1:5
6:0 2:5 1:5 5:10 7:5 9:10 8:15 9:10 2:5 1:5 7:10
2:0 1:5 5:10 7:5 9:10 8:15 9:10 2:5 1:5 7:10 8:5
1:0 5:10 7:5 9:10 8:15 9:10 2:5 1:5 7:10 8:5 9:10
5:0 7:5 9:10 8:15 9:10 2:5 1:5 7:10 8:5 9:10 3:15
7:0 9:10 8:15 9:10 2:5 1:5 7:10 8:5 9:10 3:15 1:5
9:0 8:15 9:10 2:5 1:5 7:10 8:5 9:10 3:15 1:5 2:5
8:0 9:10 2:5 1:5 7:10 8:5 9:10 3:15 1:5 2:5 7:5
9:0 2:5 1:5 7:10 8:5 9:10 3:15 1:5 2:5 7:5 8:5
2:0 1:5 7:10 8:5 9:10 3:15 1:5 2:5 7:5 8:5 9:5
1:0 7:10 8:5 9:10 3:15 1:5 2:5 7:5 8:5 9:5 6:5
7:0 8:5 9:10 3:15 1:5 2:5 7:5 8:5 9:5 6:5 1:5
8:0 9:10 3:15 1:5 2:5 7:5 8:5 9:5 6:5 1:5 3:5
9:0 3:15 1:5 2:5 7:5 8:5 9:5 6:5 1:5 3:5 8:5
3:0 1:5 2:5 7:5 8:5 9:5 6:5 1:5 3:5 8:5 9:15
1:0 2:5 7:5 8:5 9:5 6:5 1:5 3:5 8:5 9:15 8:15
2:0 7:5 8:5 9:5 6:5 1:5 3:5 8:5 9:15 8:15 9:5
7:0 8:5 9:5 6:5 1:5 3:5 8:5 9:15 8:15 9:5 6:5
8:0 9:5 6:5 1:5 3:5 8:5 9:15 8:15 9:5 6:5 1:5
9:0 6:5 1:5 3:5 8:5 9:15 8:15 9:5 6:5 1:5 7:15
6:0 1:5 3:5 8:5 9:15 8:15 9:5 6:5 1:5 7:15 8:10
1:0 3:5 8:5 9:15 8:15 9:5 6:5 1:5 7:15 8:10 10:5
3:0 8:5 9:15 8:15 9:5 6:5 1:5 7:15 8:10 10:5 9:5
8:0 9:15 8:15 9:5 6:5 1:5 7:15 8:10 10:5 9:5 8:5
9:0 8:15 9:5 6:5 1:5 7:15 8:10 10:5 9:5 8:5 9:10
8:0 9:5 6:5 1:5 7:15 8:10 10:5 9:5 8:5 9:10 3:5
9:0 6:5 1:5 7:15 8:10 10:5 9:5 8:5 9:10 3:5 2:5
6:0 1:5 7:15 8:10 10:5 9:5 8:5 9:10 3:5 2:5 1:5
1:0 7:15 8:10 10:5 9:5 8:5 9:10 3:5 2:5 1:5 4:5
7:0 8:10 10:5 9:5 8:5 9:10 3:5 2:5 1:5 4:5 8:5
8:0 10:5 9:5 8:5 9:10 3:5 2:5 1:5 4:5 8:5 9:5
10:0 9:5 8:5 9:10 3:5 2:5 1:5 4:5 8:5 9:5 8:10
9:0 8:5 9:10 3:5 2:5 1:5 4:5 8:5 9:5 8:10 9:10
8:0 9:10 3:5 2:5 1:5 4:5 8:5 9:5 8:10 9:10 10:5
9:0 3:5 2:5 1:5 4:5 8:5 9:5 8:10 9:10 10:5 1:5
3:0 2:5 1:5 4:5 8:5 9:5 8:10 9:10 10:5 1:5 5:10
2:0 1:5 4:5 8:5 9:5 8:10 9:10 10:5 1:5 5:10 8:5
1:0 4:5 8:5 9:5 8:10 9:10 10:5 1:5 5:10 8:5 10:10
4:0 8:5 9:5 8:10 9:10 10:5 1:5 5:10 8:5 10:10 9:5
8:0 9:5 8:10 9:10 10:5 1:5 5:10 8:5 10:10 9:5 8:5
9:0 8:10 9:10 10:5 1:5 5:10 8:5 10:10 9:5 8:5 9:5
8:0 9:10 10:5 1:5 5:10 8:5 10:10 9:5 8:5 9:5 3:5
9:0 10:5 1:5 5:10 8:5 10:10 9:5 8:5 9:5 3:5 1:5
10:0 1:5 5:10 8:5 10:10 9:5 8:5 9:5 3:5 1:5 8:10
1:0 5:10 8:5 10:10 9:5 8:5 9:5 3:5 1:5 8:10 9:20
5:0 8:5 10:10 9:5 8:5 9:5 3:5 1:5 8:10 9:20 8:10
8:0 10:10 9:5 8:5 9:5 3:5 1:5 8:10 9:20 8:10 6:10
10:0 9:5 8:5 9:5 3:5 1:5 8:10 9:20 8:10 6:10 1:5
9:0 8:5 9:5 3:5 1:5 8:10 9:20 8:10 6:10 1:5 7:15
8:0 9:5 3:5 1:5 8:10 9:20 8:10 6:10 1:5 7:15 8:10
9:0 3:5 1:5 8:10 9:20 8:10 6:10 1:5 7:15 8:10 10:5
3:0 1:5 8:10 9:20 8:10 6:10 1:5 7:15 8:10 10:5 4:5
1:0 8:10 9:20 8:10 6:10 1:5 7:15 8:10 10:5 4:5 1:5
8:0 9:20 8:10 6:10 1:5 7:15 8:10 10:5 4:5 1:5 2:5
9:0 8:10 6:10 1:5 7:15 8:10 10:5 4:5 1:5 2:5 7:5
8:0 6:10 1:5 7:15 8:10 10:5 4:5 1:5 2:5 7:5 8:5
6:0 1:5 7:15 8:10 10:5 4:5 1:5 2:5 7:5 8:5 9:15
1:0 7:15 8:10 10:5 4:5 1:5 2:5 7:5 8:5 9:15 10:5
7:0 8:10 10:5 4:5 1:5 2:5 7:5 8:5 9:15 10:5 8:5
8:0 10:5 4:5 1:5 2:5 7:5 8:5 9:15 10:5 8:5 9:10
10:0 4:5 1:5 2:5 7:5 8:5 9:15 10:5 8:5 9:10 3:5
4:0 1:5 2:5 7:5 8:5 9:15 10:5 8:5 9:10 3:5 1:5
1:0 2:5 7:5 8:5 9:15 10:5 8:5 9:10 3:5 1:5 5:10
2:0 7:5 8:5 9:15 10:5 8:5 9:10 3:5 1:5 5:10 7:5
7:0 8:5 9:15 10:5 8:5 9:10 3:5 1:5 5:10 7:5 9:10
8:0 9:15 10:5 8:5 9:10 3:5 1:5 5:10 7:5 9:10 10:5
9:0 10:5 8:5 9:10 3:5 1:5 5:10 7:5 9:10 10:5 2:5
10:0 8:5 9:10 3:5 1:5 5:10 7:5 9:10 10:5 2:5 1:5
8:0 9:10 3:5 1:5 5:10 7:5 9:10 10:5 2:5 1:5 7:5
9:0 3:5 1:5 5:10 7:5 9:10 10:5 2:5 1:5 7:5 8:5
3:0 1:5 5:10 7:5 9:10 10:5 2:5 1:5 7:5 8:5 9:10
1:0 5:10 7:5 9:10 10:5 2:5 1:5 7:5 8:5 9:10 8:5
5:0 7:5 9:10 10:5 2:5 1:5 7:5 8:5 9:10 8:5 9:10
7:0 9:10 10:5 2:5 1:5 7:5 8:5 9:10 8:5 9:10 2:10
9:0 10:5 2:5 1:5 7:5 8:5 9:10 8:5 9:10 2:10 1:5
10:0 2:5 1:5 7:5 8:5 9:10 8:5 9:10 2:10 1:5 5:5
2:0 1:5 7:5 8:5 9:10 8:5 9:10 2:10 1:5 5:5 8:5
1:0 7:5 8:5 9:10 8:5 9:10 2:10 1:5 5:5 8:5 9:5
7:0 8:5 9:10 8:5 9:10 2:10 1:5 5:5 8:5 9:5 8:5
8:0 9:10 8:5 9:10 2:10 1:5 5:5 8:5 9:5 8:5 9:10
9:0 8:5 9:10 2:10 1:5 5:5 8:5 9:5 8:5 9:10 2:10
8:0 9:10 2:10 1:5 5:5 8:5 9:5 8:5 9:10 2:10 1:5
9:0 2:10 1:5 5:5 8:5 9:5 8:5 9:10 2:10 1:5 2:5
2:0 1:5 5:5 8:5 9:5 8:5 9:10 2:10 1:5 2:5 8:5
1:0 5:5 8:5 9:5 8:5 9:10 2:10 1:5 2:5 8:5 9:20
5:0 8:5 9:5 8:5 9:10 2:10 1:5 2:5 8:5 9:20 8:10
8:0 9:5 8:5 9:10 2:10 1:5 2:5 8:5 9:20 8:10 9:5
9:0 8:5 9:10 2:10 1:5 2:5 8:5 9:20 8:10 9:5 4:5
8:0 9:10 2:10 1:5 2:5 8:5 9:20 8:10 9:5 4:5 1:5
9:0 2:10 1:5 2:5 8:5 9:20 8:10 9:5 4:5 1:5 4:10
2:0 1:5 2:5 8:5 9:20 8:10 9:5 4:5 1:5 4:10 7:5
1:0 2:5 8:5 9:20 8:10 9:5 4:5 1:5 4:10 7:5 9:10
2:0 8:5 9:20 8:10 9:5 4:5 1:5 4:10 7:5 9:10 10:5
8:0 9:20 8:10 9:5 4:5 1:5 4:10 7:5 9:10 10:5 4:5
9:0 8:10 9:5 4:5 1:5 4:10 7:5 9:10 10:5 4:5 1:5
8:0 9:5 4:5 1:5 4:10 7:5 9:10 10:5 4:5 1:5 3:5
9:0 4:5 1:5 4:10 7:5 9:10 10:5 4:5 1:5 3:5 8:5
4:0 1:5 4:10 7:5 9:10 10:5 4:5 1:5 3:5 8:5 9:10
1:0 4:10 7:5 9:10 10:5 4:5 1:5 3:5 8:5 9:10 8:5
4:0 7:5 9:10 10:5 4:5 1:5 3:5 8:5 9:10 8:5 10:10
7:0 9:10 10:5 4:5 1:5 3:5 8:5 9:10 8:5 10:10 3:5
9:0 10:5 4:5 1:5 3:5 8:5 9:10 8:5 10:10 3:5 1:5
10:0 4:5 1:5 3:5 8:5 9:10 8:5 10:10 3:5 1:5 7:10
4:0 1:5 3:5 8:5 9:10 8:5 10:10 3:5 1:5 7:10 8:5
1:0 3:5 8:5 9:10 8:5 10:10 3:5 1:5 7:10 8:5 9:15
3:0 8:5 9:10 8:5 10:10 3:5 1:5 7:10 8:5 9:15 8:15
8:0 9:10 8:5 10:10 3:5 1:5 7:10 8:5 9:15 8:15 6:5
9:0 8:5 10:10 3:5 1:5 7:10 8:5 9:15 8:15 6:5 1:5
8:0 10:10 3:5 1:5 7:10 8:5 9:15 8:15 6:5 1:5 7:15
10:0 3:5 1:5 7:10 8:5 9:15 8:15 6:5 1:5 7:15 9:15
3:0 1:5 7:10 8:5 9:15 8:15 6:5 1:5 7:15 9:15 6:10
1:0 7:10 8:5 9:15 8:15 6:5 1:5 7:15 9:15 6:10 1:5
7:0 8:5 9:15 8:15 6:5 1:5 7:15 9:15 6:10 1:5 4:5
8:0 9:15 8:15 6:5 1:5 7:15 9:15 6:10 1:5 4:5 8:5
9:0 8:15 6:5 1:5 7:15 9:15 6:10 1:5 4:5 8:5 10:10
8:0 6:5 1:5 7:15 9:15 6:10 1:5 4:5 8:5 10:10 3:5
6:0 1:5 7:15 9:15 6:10 1:5 4:5 8:5 10:10 3:5 1:5
1:0 7:15 9:15 6:10 1:5 4:5 8:5 10:10 3:5 1:5 2:5
7:0 9:15 6:10 1:5 4:5 8:5 10:10 3:5 1:5 2:5 7:5
9:0 6:10 1:5 4:5 8:5 10:10 3:5 1:5 2:5 7:5 8:5
6:0 1:5 4:5 8:5 10:10 3:5 1:5 2:5 7:5 8:5 7:5
1:0 4:5 8:5 10:10 3:5 1:5 2:5 7:5 8:5 7:5 8:5
4:0 8:5 10:10 3:5 1:5 2:5 7:5 8:5 7:5 8:5 10:5
8:0 10:10 3:5 1:5 2:5 7:5 8:5 7:5 8:5 10:5 5:5
10:0 3:5 1:5 2:5 7:5 8:5 7:5 8:5 10:5 5:5 1:5
3:0 1:5 2:5 7:5 8:5 7:5 8:5 10:5 5:5 1:5 3:5
1:0 2:5 7:5 8:5 7:5 8:5 10:5 5:5 1:5 3:5 8:5
2:0 7:5 8:5 7:5 8:5 10:5 5:5 1:5 3:5 8:5 7:10
7:0 8:5 7:5 8:5 10:5 5:5 1:5 3:5 8:5 7:10 8:5
8:0 7:5 8:5 10:5 5:5 1:5 3:5 8:5 7:10 8:5 9:5
7:0 8:5 10:5 5:5 1:5 3:5 8:5 7:10 8:5 9:5 8:10
8:0 10:5 5:5 1:5 3:5 8:5 7:10 8:5 9:5 8:10 7:10
10:0 5:5 1:5 3:5 8:5 7:10 8:5 9:5 8:10 7:10 1:5
5:0 1:5 3:5 8:5 7:10 8:5 9:5 8:10 7:10 1:5 7:15
1:0 3:5 8:5 7:10 8:5 9:5 8:10 7:10 1:5 7:15 9:15
3:0 8:5 7:10 8:5 9:5 8:10 7:10 1:5 7:15 9:15 10:5
8:0 7:10 8:5 9:5 8:10 7:10 1:5 7:15 9:15 10:5 8:5
7:0 8:5 9:5 8:10 7:10 1:5 7:15 9:15 10:5 8:5 9:10
8:0 9:5 8:10 7:10 1:5 7:15 9:15 10:5 8:5 9:10 7:5
9:0 8:10 7:10 1:5 7:15 9:15 10:5 8:5 9:10 7:5 2:5
8:0 7:10 1:5 7:15 9:15 10:5 8:5 9:10 7:5 2:5 1:5
7:0 1:5 7:15 9:15 10:5 8:5 9:10 7:5 2:5 1:5 2:5
1:0 7:15 9:15 10:5 8:5 9:10 7:5 2:5 1:5 2:5 8:5
7:0 9:15 10:5 8:5 9:10 7:5 2:5 1:5 2:5 8:5 9:10
9:0 10:5 8:5 9:10 7:5 2:5 1:5 2:5 8:5 9:10 8:5
10:0 8:5 9:10 7:5 2:5 1:5 2:5 8:5 9:10 8:5 9:10
8:0 9:10 7:5 2:5 1:5 2:5 8:5 9:10 8:5 9:10 3:5
9:0 7:5 2:5 1:5 2:5 8:5 9:10 8:5 9:10 3:5 1:5
7:0 2:5 1:5 2:5 8:5 9:10 8:5 9:10 3:5 1:5 7:10
2:0 1:5 2:5 8:5 9:10 8:5 9:10 3:5 1:5 7:10 8:5
1:0 2:5 8:5 9:10 8:5 9:10 3:5 1:5 7:10 8:5 9:15
2:0 8:5 9:10 8:5 9:10 3:5 1:5 7:10 8:5 9:15 8:15
8:0 9:10 8:5 9:10 3:5 1:5 7:10 8:5 9:15 8:15 7:5
9:0 8:5 9:10 3:5 1:5 7:10 8:5 9:15 8:15 7:5 1:5
8:0 9:10 3:5 1:5 7:10 8:5 9:15 8:15 7:5 1:5 7:15
9:0 3:5 1:5 7:10 8:5 9:15 8:15 7:5 1:5 7:15 8:5
3:0 1:5 7:10 8:5 9:15 8:15 7:5 1:5 7:15 8:5 7:5
1:0 7:10 8:5 9:15 8:15 7:5 1:5 7:15 8:5 7:5 8:5
7:0 8:5 9:15 8:15 7:5 1:5 7:15 8:5 7:5 8:5 10:5
8:0 9:15 8:15 7:5 1:5 7:15 8:5 7:5 8:5 10:5 9:5
9:0 8:15 7:5 1:5 7:15 8:5 7:5 8:5 10:5 9:5 8:5
8:0 7:5 1:5 7:15 8:5 7:5 8:5 10:5 9:5 8:5 9:10
7:0 1:5 7:15 8:5 7:5 8:5 10:5 9:5 8:5 9:10 3:5
1:0 7:15 8:5 7:5 8:5 10:5 9:5 8:5 9:10 3:5 1:5
7:0 8:5 7:5 8:5 10:5 9:5 8:5 9:10 3:5 1:5 3:10
8:0 7:5 8:5 10:5 9:5 8:5 9:10 3:5 1:5 3:10 8:5
7:0 8:5 10:5 9:5 8:5 9:10 3:5 1:5 3:10 8:5 9:15
8:0 10:5 9:5 8:5 9:10 3:5 1:5 3:10 8:5 9:15 4:10
10:0 9:5 8:5 9:10 3:5 1:5 3:10 8:5 9:15 4:10 1:5
9:0 8:5 9:10 3:5 1:5 3:10 8:5 9:15 4:10 1:5 7:10
8:0 9:10 3:5 1:5 3:10 8:5 9:15 4:10 1:5 7:10 8:5
9:0 3:5 1:5 3:10 8:5 9:15 4:10 1:5 7:10 8:5 9:10
3:0 1:5 3:10 8:5 9:15 4:10 1:5 7:10 8:5 9:10 8:5
1:0 3:10 8:5 9:15 4:10 1:5 7:10 8:5 9:10 8:5 10:15
3:0 8:5 9:15 4:10 1:5 7:10 8:5 9:10 8:5 10:15 3:5
8:0 9:15 4:10 1:5 7:10 8:5 9:10 8:5 10:15 3:5 1:5
9:0 4:10 1:5 7:10 8:5 9:10 8:5 10:15 3:5 1:5 3:5
4:0 1:5 7:10 8:5 9:10 8:5 10:15 3:5 1:5 3:5 8:5
1:0 7:10 8:5 9:10 8:5 10:15 3:5 1:5 3:5 8:5 9:15
7:0 8:5 9:10 8:5 10:15 3:5 1:5 3:5 8:5 9:15 8:15
8:0 9:10 8:5 10:15 3:5 1:5 3:5 8:5 9:15 8:15 9:5
9:0 8:5 10:15 3:5 1:5 3:5 8:5 9:15 8:15 9:5 5:5
8:0 10:15 3:5 1:5 3:5 8:5 9:15 8:15 9:5 5:5 1:5
10:0 3:5 1:5 3:5 8:5 9:15 8:15 9:5 5:5 1:5 7:15
3:0 1:5 3:5 8:5 9:15 8:15 9:5 5:5 1:5 7:15 8:10
1:0 3:5 8:5 9:15 8:15 9:5 5:5 1:5 7:15 8:10 9:5
3:0 8:5 9:15 8:15 9:5 5:5 1:5 7:15 8:10 9:5 10:5
8:0 9:15 8:15 9:5 5:5 1:5 7:15 8:10 9:5 10:5 1:5
9:0 8:15 9:5 5:5 1:5 7:15 8:10 9:5 10:5 1:5 8:10
8:0 9:5 5:5 1:5 7:15 8:10 9:5 10:5 1:5 8:10 9:5
9:0 5:5 1:5 7:15 8:10 9:5 10:5 1:5 8:10 9:5 8:10
5:0 1:5 7:15 8:10 9:5 10:5 1:5 8:10 9:5 8:10 9:10
1:0 7:15 8:10 9:5 10:5 1:5 8:10 9:5 8:10 9:10 8:5
7:0 8:10 9:5 10:5 1:5 8:10 9:5 8:10 9:10 8:5 1:5
8:0 9:5 10:5 1:5 8:10 9:5 8:10 9:10 8:5 1:5 5:10
9:0 10:5 1:5 8:10 9:5 8:10 9:10 8:5 1:5 5:10 8:5
10:0 1:5 8:10 9:5 8:10 9:10 8:5 1:5 5:10 8:5 9:15
1:0 8:10 9:5 8:10 9:10 8:5 1:5 5:10 8:5 9:15 10:5
8:0 9:5 8:10 9:10 8:5 1:5 5:10 8:5 9:15 10:5 9:5
9:0 8:10 9:10 8:5 1:5 5:10 8:5 9:15 10:5 9:5 2:15
8:0 9:10 8:5 1:5 5:10 8:5 9:15 10:5 9:5 2:15 1:5
9:0 8:5 1:5 5:10 8:5 9:15 10:5 9:5 2:15 1:5 4:10
8:0 1:5 5:10 8:5 9:15 10:5 9:5 2:15 1:5 4:10 7:5
1:0 5:10 8:5 9:15 10:5 9:5 2:15 1:5 4:10 7:5 8:10
5:0 8:5 9:15 10:5 9:5 2:15 1:5 4:10 7:5 8:10 10:5
8:0 9:15 10:5 9:5 2:15 1:5 4:10 7:5 8:10 10:5 9:5
9:0 10:5 9:5 2:15 1:5 4:10 7:5 8:10 10:5 9:5 8:5
10:0 9:5 2:15 1:5 4:10 7:5 8:10 10:5 9:5 8:5 9:10
9:0 2:15 1:5 4:10 7:5 8:10 10:5 9:5 8:5 9:10 3:5
2:0 1:5 4:10 7:5 8:10 10:5 9:5 8:5 9:10 3:5 1:5
1:0 4:10 7:5 8:10 10:5 9:5 8:5 9:10 3:5 1:5 5:10
4:0 7:5 8:10 10:5 9:5 8:5 9:10 3:5 1:5 5:10 8:5
7:0 8:10 10:5 9:5 8:5 9:10 3:5 1:5 5:10 8:5 9:5
8:0 10:5 9:5 8:5 9:10 3:5 1:5 5:10 8:5 9:5 8:10
10:0 9:5 8:5 9:10 3:5 1:5 5:10 8:5 9:5 8:10 9:10
9:0 8:5 9:10 3:5 1:5 5:10 8:5 9:5 8:10 9:10 6:5
8:0 9:10 3:5 1:5 5:10 8:5 9:5 8:10 9:10 6:5 1:5
9:0 3:5 1:5 5:10 8:5 9:5 8:10 9:10 6:5 1:5 8:10
3:0 1:5 5:10 8:5 9:5 8:10 9:10 6:5 1:5 8:10 9:20
1:0 5:10 8:5 9:5 8:10 9:10 6:5 1:5 8:10 9:20 8:15
5:0 8:5 9:5 8:10 9:10 6:5 1:5 8:10 9:20 8:15 6:5
8:0 9:5 8:10 9:10 6:5 1:5 8:10 9:20 8:15 6:5 2:5
9:0 8:10 9:10 6:5 1:5 8:10 9:20 8:15 6:5 2:5 1:5
8:0 9:10 6:5 1:5 8:10 9:20 8:15 6:5 2:5 1:5 5:10
9:0 6:5 1:5 8:10 9:20 8:15 6:5 2:5 1:5 5:10 7:5
6:0 1:5 8:10 9:20 8:15 6:5 2:5 1:5 5:10 7:5 9:10
1:0 8:10 9:20 8:15 6:5 2:5 1:5 5:10 7:5 9:10 10:5
8:0 9:20 8:15 6:5 2:5 1:5 5:10 7:5 9:10 10:5 2:5
9:0 8:15 6:5 2:5 1:5 5:10 7:5 9:10 10:5 2:5 1:5
8:0 6:5 2:5 1:5 5:10 7:5 9:10 10:5 2:5 1:5 7:5
6:0 2:5 1:5 5:10 7:5 9:10 10:5 2:5 1:5 7:5 8:5
2:0 1:5 5:10 7:5 9:10 10:5 2:5 1:5 7:5 8:5 9:15
1:0 5:10 7:5 9:10 10:5 2:5 1:5 7:5 8:5 9:15 4:10
5:0 7:5 9:10 10:5 2:5 1:5 7:5 8:5 9:15 4:10 1:5
7:0 9:10 10:5 2:5 1:5 7:5 8:5 9:15 4:10 1:5 2:5
9:0 10:5 2:5 1:5 7:5 8:5 9:15 4:10 1:5 2:5 7:5
10:0 2:5 1:5 7:5 8:5 9:15 4:10 1:5 2:5 7:5 8:5
2:0 1:5 7:5 8:5 9:15 4:10 1:5 2:5 7:5 8:5 9:5
1:0 7:5 8:5 9:15 4:10 1:5 2:5 7:5 8:5 9:5 8:10
7:0 8:5 9:15 4:10 1:5 2:5 7:5 8:5 9:5 8:10 9:10
8:0 9:15 4:10 1:5 2:5 7:5 8:5 9:5 8:10 9:10 5:5
9:0 4:10 1:5 2:5 7:5 8:5 9:5 8:10 9:10 5:5 2:5
4:0 1:5 2:5 7:5 8:5 9:5 8:10 9:10 5:5 2:5 1:5
1:0 2:5 7:5 8:5 9:5 8:10 9:10 5:5 2:5 1:5 3:5
2:0 7:5 8:5 9:5 8:10 9:10 5:5 2:5 1:5 3:5 8:5
7:0 8:5 9:5 8:10 9:10 5:5 2:5 1:5 3:5 8:5 9:10
8:0 9:5 8:10 9:10 5:5 2:5 1:5 3:5 8:5 9:10 8:5
9:0 8:10 9:10 5:5 2:5 1:5 3:5 8:5 9:10 8:5 10:10
8:0 9:10 5:5 2:5 1:5 3:5 8:5 9:10 8:5 10:10 3:5
9:0 5:5 2:5 1:5 3:5 8:5 9:10 8:5 10:10 3:5 1:5
5:0 2:5 1:5 3:5 8:5 9:10 8:5 10:10 3:5 1:5 7:10
2:0 1:5 3:5 8:5 9:10 8:5 10:10 3:5 1:5 7:10 8:5
1:0 3:5 8:5 9:10 8:5 10:10 3:5 1:5 7:10 8:5 9:5
3:0 8:5 9:10 8:5 10:10 3:5 1:5 7:10 8:5 9:5 8:10
8:0 9:10 8:5 10:10 3:5 1:5 7:10 8:5 9:5 8:10 9:10
9:0 8:5 10:10 3:5 1:5 7:10 8:5 9:5 8:10 9:10 2:5
8:0 10:10 3:5 1:5 7:10 8:5 9:5 8:10 9:10 2:5 1:5
10:0 3:5 1:5 7:10 8:5 9:5 8:10 9:10 2:5 1:5 8:10
3:0 1:5 7:10 8:5 9:5 8:10 9:10 2:5 1:5 8:10 9:5
1:0 7:10 8:5 9:5 8:10 9:10 2:5 1:5 8:10 9:5 8:10
7:0 8:5 9:5 8:10 9:10 2:5 1:5 8:10 9:5 8:10 9:10
8:0 9:5 8:10 9:10 2:5 1:5 8:10 9:5 8:10 9:10 8:5
9:0 8:10 9:10 2:5 1:5 8:10 9:5 8:10 9:10 8:5 1:5
8:0 9:10 2:5 1:5 8:10 9:5 8:10 9:10 8:5 1:5 4:10
9:0 2:5 1:5 8:10 9:5 8:10 9:10 8:5 1:5 4:10 8:5
2:0 1:5 8:10 9:5 8:10 9:10 8:5 1:5 4:10 8:5 9:15
1:0 8:10 9:5 8:10 9:10 8:5 1:5 4:10 8:5 9:15 8:15
8:0 9:5 8:10 9:10 8:5 1:5 4:10 8:5 9:15 8:15 2:10
9:0 8:10 9:10 8:5 1:5 4:10 8:5 9:15 8:15 2:10 1:5
8:0 9:10 8:5 1:5 4:10 8:5 9:15 8:15 2:10 1:5 7:10
9:0 8:5 1:5 4:10 8:5 9:15 8:15 2:10 1:5 7:10 8:15
8:0 1:5 4:10 8:5 9:15 8:15 2:10 1:5 7:10 8:15 10:5
1:0 4:10 8:5 9:15 8:15 2:10 1:5 7:10 8:15 10:5 4:5
4:0 8:5 9:15 8:15 2:10 1:5 7:10 8:15 10:5 4:5 1:5
8:0 9:15 8:15 2:10 1:5 7:10 8:15 10:5 4:5 1:5 3:5
9:0 8:15 2:10 1:5 7:10 8:15 10:5 4:5 1:5 3:5 8:5
8:0 2:10 1:5 7:10 8:15 10:5 4:5 1:5 3:5 8:5 10:10
2:0 1:5 7:10 8:15 10:5 4:5 1:5 3:5 8:5 10:10 8:5
1:0 7:10 8:15 10:5 4:5 1:5 3:5 8:5 10:10 8:5 10:10
7:0 8:15 10:5 4:5 1:5 3:5 8:5 10:10 8:5 10:10 2:5
8:0 10:5 4:5 1:5 3:5 8:5 10:10 8:5 10:10 2:5 1:5
10:0 4:5 1:5 3:5 8:5 10:10 8:5 10:10 2:5 1:5 7:10
4:0 1:5 3:5 8:5 10:10 8:5 10:10 2:5 1:5 7:10 8:5
1:0 3:5 8:5 10:10 8:5 10:10 2:5 1:5 7:10 8:5 9:15
3:0 8:5 10:10 8:5 10:10 2:5 1:5 7:10 8:5 9:15 8:15
8:0 10:10 8:5 10:10 2:5 1:5 7:10 8:5 9:15 8:15 9:5
10:0 8:5 10:10 2:5 1:5 7:10 8:5 9:15 8:15 9:5 2:5
8:0 10:10 2:5 1:5 7:10 8:5 9:15 8:15 9:5 2:5 1:5
10:0 2:5 1:5 7:10 8:5 9:15 8:15 9:5 2:5 1:5 5:10
2:0 1:5 7:10 8:5 9:15 8:15 9:5 2:5 1:5 5:10 7:5
1:0 7:10 8:5 9:15 8:15 9:5 2:5 1:5 5:10 7:5 8:10
7:0 8:5 9:15 8:15 9:5 2:5 1:5 5:10 7:5 8:10 10:5
8:0 9:15 8:15 9:5 2:5 1:5 5:10 7:5 8:10 10:5 9:5
9:0 8:15 9:5 2:5 1:5 5:10 7:5 8:10 10:5 9:5 8:5
8:0 9:5 2:5 1:5 5:10 7:5 8:10 10:5 9:5 8:5 10:10
9:0 2:5 1:5 5:10 7:5 8:10 10:5 9:5 8:5 10:10 2:5
2:0 1:5 5:10 7:5 8:10 10:5 9:5 8:5 10:10 2:5 1:5
1:0 5:10 7:5 8:10 10:5 9:5 8:5 10:10 2:5 1:5 5:10
5:0 7:5 8:10 10:5 9:5 8:5 10:10 2:5 1:5 5:10 8:5
7:0 8:10 10:5 9:5 8:5 10:10 2:5 1:5 5:10 8:5 9:5
8:0 10:5 9:5 8:5 10:10 2:5 1:5 5:10 8:5 9:5 8:10
10:0 9:5 8:5 10:10 2:5 1:5 5:10 8:5 9:5 8:10 7:10
9:0 8:5 10:10 2:5 1:5 5:10 8:5 9:5 8:10 7:10 2:5
8:0 10:10 2:5 1:5 5:10 8:5 9:5 8:10 7:10 2:5 1:5
10:0 2:5 1:5 5:10 8:5 9:5 8:10 7:10 2:5 1:5 3:5
2:0 1:5 5:10 8:5 9:5 8:10 7:10 2:5 1:5 3:5 8:5
1:0 5:10 8:5 9:5 8:10 7:10 2:5 1:5 3:5 8:5 9:20
5:0 8:5 9:5 8:10 7:10 2:5 1:5 3:5 8:5 9:20 8:10
8:0 9:5 8:10 7:10 2:5 1:5 3:5 8:5 9:20 8:10 2:15
9:0 8:10 7:10 2:5 1:5 3:5 8:5 9:20 8:10 2:15 1:5
8:0 7:10 2:5 1:5 3:5 8:5 9:20 8:10 2:15 1:5 7:10
7:0 2:5 1:5 3:5 8:5 9:20 8:10 2:15 1:5 7:10 9:15
2:0 1:5 3:5 8:5 9:20 8:10 2:15 1:5 7:10 9:15 8:15
1:0 3:5 8:5 9:20 8:10 2:15 1:5 7:10 9:15 8:15 2:15
3:0 8:5 9:20 8:10 2:15 1:5 7:10 9:15 8:15 2:15 1:5
8:0 9:20 8:10 2:15 1:5 7:10 9:15 8:15 2:15 1:5 8:10
9:0 8:10 2:15 1:5 7:10 9:15 8:15 2:15 1:5 8:10 9:10
8:0 2:15 1:5 7:10 9:15 8:15 2:15 1:5 8:10 9:10 8:5
2:0 1:5 7:10 9:15 8:15 2:15 1:5 8:10 9:10 8:5 9:10
1:0 7:10 9:15 8:15 2:15 1:5 8:10 9:10 8:5 9:10 3:5
7:0 9:15 8:15 2:15 1:5 8:10 9:10 8:5 9:10 3:5 1:5
9:0 8:15 2:15 1:5 8:10 9:10 8:5 9:10 3:5 1:5 7:10
8:0 2:15 1:5 8:10 9:10 8:5 9:10 3:5 1:5 7:10 8:5
2:0 1:5 8:10 9:10 8:5 9:10 3:5 1:5 7:10 8:5 9:15
1:0 8:10 9:10 8:5 9:10 3:5 1:5 7:10 8:5 9:15 2:20
8:0 9:10 8:5 9:10 3:5 1:5 7:10 8:5 9:15 2:20 1:5
9:0 8:5 9:10 3:5 1:5 7:10 8:5 9:15 2:20 1:5 2:5
8:0 9:10 3:5 1:5 7:10 8:5 9:15 2:20 1:5 2:5 8:5
9:0 3:5 1:5 7:10 8:5 9:15 2:20 1:5 2:5 8:5 9:15
3:0 1:5 7:10 8:5 9:15 2:20 1:5 2:5 8:5 9:15 8:15
1:0 7:10 8:5 9:15 2:20 1:5 2:5 8:5 9:15 8:15 9:5
7:0 8:5 9:15 2:20 1:5 2:5 8:5 9:15 8:15 9:5 2:5
8:0 9:15 2:20 1:5 2:5 8:5 9:15 8:15 9:5 2:5 1:5
9:0 2:20 1:5 2:5 8:5 9:15 8:15 9:5 2:5 1:5 5:10
2:0 1:5 2:5 8:5 9:15 8:15 9:5 2:5 1:5 5:10 7:5
1:0 2:5 8:5 9:15 8:15 9:5 2:5 1:5 5:10 7:5 9:10
2:0 8:5 9:15 8:15 9:5 2:5 1:5 5:10 7:5 9:10 4:10
8:0 9:15 8:15 9:5 2:5 1:5 5:10 7:5 9:10 4:10 1:5
9:0 8:15 9:5 2:5 1:5 5:10 7:5 9:10 4:10 1:5 6:5
8:0 9:5 2:5 1:5 5:10 7:5 9:10 4:10 1:5 6:5 9:5
9:0 2:5 1:5 5:10 7:5 9:10 4:10 1:5 6:5 9:5 8:15
2:0 1:5 5:10 7:5 9:10 4:10 1:5 6:5 9:5 8:15 9:10
1:0 5:10 7:5 9:10 4:10 1:5 6:5 9:5 8:15 9:10 5:5
5:0 7:5 9:10 4:10 1:5 6:5 9:5 8:15 9:10 5:5 1:5
7:0 9:10 4:10 1:5 6:5 9:5 8:15 9:10 5:5 1:5 2:5
9:0 4:10 1:5 6:5 9:5 8:15 9:10 5:5 1:5 2:5 8:5
4:0 1:5 6:5 9:5 8:15 9:10 5:5 1:5 2:5 8:5 9:10
1:0 6:5 9:5 8:15 9:10 5:5 1:5 2:5 8:5 9:10 8:10
6:0 9:5 8:15 9:10 5:5 1:5 2:5 8:5 9:10 8:10 9:5
9:0 8:15 9:10 5:5 1:5 2:5 8:5 9:10 8:10 9:5 2:10
8:0 9:10 5:5 1:5 2:5 8:5 9:10 8:10 9:5 2:10 1:5
9:0 5:5 1:5 2:5 8:5 9:10 8:10 9:5 2:10 1:5 2:5
5:0 1:5 2:5 8:5 9:10 8:10 9:5 2:10 1:5 2:5 8:5
1:0 2:5 8:5 9:10 8:10 9:5 2:10 1:5 2:5 8:5 9:10
2:0 8:5 9:10 8:10 9:5 2:10 1:5 2:5 8:5 9:10 8:5
8:0 9:10 8:10 9:5 2:10 1:5 2:5 8:5 9:10 8:5 9:10
9:0 8:10 9:5 2:10 1:5 2:5 8:5 9:10 8:5 9:10 6:5
8:0 9:5 2:10 1:5 2:5 8:5 9:10 8:5 9:10 6:5 1:5
9:0 2:10 1:5 2:5 8:5 9:10 8:5 9:10 6:5 1:5 8:10
2:0 1:5 2:5 8:5 9:10 8:5 9:10 6:5 1:5 8:10 9:15
1:0 2:5 8:5 9:10 8:5 9:10 6:5 1:5 8:10 9:15 7:10
2:0 8:5 9:10 8:5 9:10 6:5 1:5 8:10 9:15 7:10 1:5
8:0 9:10 8:5 9:10 6:5 1:5 8:10 9:15 7:10 1:5 3:10
9:0 8:5 9:10 6:5 1:5 8:10 9:15 7:10 1:5 3:10 7:5
8:0 9:10 6:5 1:5 8:10 9:15 7:10 1:5 3:10 7:5 8:5
9:0 6:5 1:5 8:10 9:15 7:10 1:5 3:10 7:5 8:5 9:5
6:0 1:5 8:10 9:15 7:10 1:5 3:10 7:5 8:5 9:5 8:10
1:0 8:10 9:15 7:10 1:5 3:10 7:5 8:5 9:5 8:10 9:10
8:0 9:15 7:10 1:5 3:10 7:5 8:5 9:5 8:10 9:10 3:5
9:0 7:10 1:5 3:10 7:5 8:5 9:5 8:10 9:10 3:5 1:5
7:0 1:5 3:10 7:5 8:5 9:5 8:10 9:10 3:5 1:5 7:10
1:0 3:10 7:5 8:5 9:5 8:10 9:10 3:5 1:5 7:10 8:5
3:0 7:5 8:5 9:5 8:10 9:10 3:5 1:5 7:10 8:5 9:15
7:0 8:5 9:5 8:10 9:10 3:5 1:5 7:10 8:5 9:15 8:15
8:0 9:5 8:10 9:10 3:5 1:5 7:10 8:5 9:15 8:15 9:5
9:0 8:10 9:10 3:5 1:5 7:10 8:5 9:15 8:15 9:5 4:5
8:0 9:10 3:5 1:5 7:10 8:5 9:15 8:15 9:5 4:5 2:5
9:0 3:5 1:5 7:10 8:5 9:15 8:15 9:5 4:5 2:5 1:5
3:0 1:5 7:10 8:5 9:15 8:15 9:5 4:5 2:5 1:5 7:10
1:0 7:10 8:5 9:15 8:15 9:5 4:5 2:5 1:5 7:10 9:10
7:0 8:5 9:15 8:15 9:5 4:5 2:5 1:5 7:10 9:10 10:5
8:0 9:15 8:15 9:5 4:5 2:5 1:5 7:10 9:10 10:5 3:5
9:0 8:15 9:5 4:5 2:5 1:5 7:10 9:10 10:5 3:5 1:5
8:0 9:5 4:5 2:5 1:5 7:10 9:10 10:5 3:5 1:5 3:5
9:0 4:5 2:5 1:5 7:10 9:10 10:5 3:5 1:5 3:5 9:5
4:0 2:5 1:5 7:10 9:10 10:5 3:5 1:5 3:5 9:5 8:15
2:0 1:5 7:10 9:10 10:5 3:5 1:5 3:5 9:5 8:15 9:10
1:0 7:10 9:10 10:5 3:5 1:5 3:5 9:5 8:15 9:10 6:5
7:0 9:10 10:5 3:5 1:5 3:5 9:5 8:15 9:10 6:5 1:5
9:0 10:5 3:5 1:5 3:5 9:5 8:15 9:10 6:5 1:5 8:10
10:0 3:5 1:5 3:5 9:5 8:15 9:10 6:5 1:5 8:10 9:20
3:0 1:5 3:5 9:5 8:15 9:10 6:5 1:5 8:10 9:20 8:15
1:0 3:5 9:5 8:15 9:10 6:5 1:5 8:10 9:20 8:15 9:5
3:0 9:5 8:15 9:10 6:5 1:5 8:10 9:20 8:15 9:5 2:5
9:0 8:15 9:10 6:5 1:5 8:10 9:20 8:15 9:5 2:5 1:5
8:0 9:10 6:5 1:5 8:10 9:20 8:15 9:5 2:5 1:5 7:10
9:0 6:5 1:5 8:10 9:20 8:15 9:5 2:5 1:5 7:10 9:15
6:0 1:5 8:10 9:20 8:15 9:5 2:5 1:5 7:10 9:15 10:5
1:0 8:10 9:20 8:15 9:5 2:5 1:5 7:10 9:15 10:5 1:5
8:0 9:20 8:15 9:5 2:5 1:5 7:10 9:15 10:5 1:5 7:10
9:0 8:15 9:5 2:5 1:5 7:10 9:15 10:5 1:5 7:10 8:5
8:0 9:5 2:5 1:5 7:10 9:15 10:5 1:5 7:10 8:5 9:15
9:0 2:5 1:5 7:10 9:15 10:5 1:5 7:10 8:5 9:15 2:10
2:0 1:5 7:10 9:15 10:5 1:5 7:10 8:5 9:15 2:10 1:5
1:0 7:10 9:15 10:5 1:5 7:10 8:5 9:15 2:10 1:5 2:5
7:0 9:15 10:5 1:5 7:10 8:5 9:15 2:10 1:5 2:5 7:5
9:0 10:5 1:5 7:10 8:5 9:15 2:10 1:5 2:5 7:5 8:5
10:0 1:5 7:10 8:5 9:15 2:10 1:5 2:5 7:5 8:5 9:5
1:0 7:10 8:5 9:15 2:10 1:5 2:5 7:5 8:5 9:5 8:10
7:0 8:5 9:15 2:10 1:5 2:5 7:5 8:5 9:5 8:10 9:10
8:0 9:15 2:10 1:5 2:5 7:5 8:5 9:5 8:10 9:10 5:5
9:0 2:10 1:5 2:5 7:5 8:5 9:5 8:10 9:10 5:5 1:5
2:0 1:5 2:5 7:5 8:5 9:5 8:10 9:10 5:5 1:5 3:10
1:0 2:5 7:5 8:5 9:5 8:10 9:10 5:5 1:5 3:10 8:5
2:0 7:5 8:5 9:5 8:10 9:10 5:5 1:5 3:10 8:5 9:15
7:0 8:5 9:5 8:10 9:10 5:5 1:5 3:10 8:5 9:15 4:10
8:0 9:5 8:10 9:10 5:5 1:5 3:10 8:5 9:15 4:10 1:5
9:0 8:10 9:10 5:5 1:5 3:10 8:5 9:15 4:10 1:5 2:5
8:0 9:10 5:5 1:5 3:10 8:5 9:15 4:10 1:5 2:5 7:5
9:0 5:5 1:5 3:10 8:5 9:15 4:10 1:5 2:5 7:5 8:5
5:0 1:5 3:10 8:5 9:15 4:10 1:5 2:5 7:5 8:5 10:5
1:0 3:10 8:5 9:15 4:10 1:5 2:5 7:5 8:5 10:5 9:5
3:0 8:5 9:15 4:10 1:5 2:5 7:5 8:5 10:5 9:5 8:5
8:0 9:15 4:10 1:5 2:5 7:5 8:5 10:5 9:5 8:5 9:10
9:0 4:10 1:5 2:5 7:5 8:5 10:5 9:5 8:5 9:10 5:5
4:0 1:5 2:5 7:5 8:5 10:5 9:5 8:5 9:10 5:5 1:5
1:0 2:5 7:5 8:5 10:5 9:5 8:5 9:10 5:5 1:5 5:10
2:0 7:5 8:5 10:5 9:5 8:5 9:10 5:5 1:5 5:10 8:5
7:0 8:5 10:5 9:5 8:5 9:10 5:5 1:5 5:10 8:5 9:5
8:0 10:5 9:5 8:5 9:10 5:5 1:5 5:10 8:5 9:5 8:10
10:0 9:5 8:5 9:10 5:5 1:5 5:10 8:5 9:5 8:10 9:10
9:0 8:5 9:10 5:5 1:5 5:10 8:5 9:5 8:10 9:10 8:5
8:0 9:10 5:5 1:5 5:10 8:5 9:5 8:10 9:10 8:5 1:5
9:0 5:5 1:5 5:10 8:5 9:5 8:10 9:10 8:5 1:5 5:10
5:0 1:5 5:10 8:5 9:5 8:10 9:10 8:5 1:5 5:10 8:5
1:0 5:10 8:5 9:5 8:10 9:10 8:5 1:5 5:10 8:5 9:10
5:0 8:5 9:5 8:10 9:10 8:5 1:5 5:10 8:5 9:10 8:5
8:0 9:5 8:10 9:10 8:5 1:5 5:10 8:5 9:10 8:5 9:10
9:0 8:10 9:10 8:5 1:5 5:10 8:5 9:10 8:5 9:10 2:5
8:0 9:10 8:5 1:5 5:10 8:5 9:10 8:5 9:10 2:5 1:5
9:0 8:5 1:5 5:10 8:5 9:10 8:5 9:10 2:5 1:5 2:5
8:0 1:5 5:10 8:5 9:10 8:5 9:10 2:5 1:5 2:5 8:5
1:0 5:10 8:5 9:10 8:5 9:10 2:5 1:5 2:5 8:5 9:15
5:0 8:5 9:10 8:5 9:10 2:5 1:5 2:5 8:5 9:15 3:15
8:0 9:10 8:5 9:10 2:5 1:5 2:5 8:5 9:15 3:15 1:5
9:0 8:5 9:10 2:5 1:5 2:5 8:5 9:15 3:15 1:5 2:5
8:0 9:10 2:5 1:5 2:5 8:5 9:15 3:15 1:5 2:5 7:5
9:0 2:5 1:5 2:5 8:5 9:15 3:15 1:5 2:5 7:5 9:5
2:0 1:5 2:5 8:5 9:15 3:15 1:5 2:5 7:5 9:5 8:15
1:0 2:5 8:5 9:15 3:15 1:5 2:5 7:5 9:5 8:15 7:10
2:0 8:5 9:15 3:15 1:5 2:5 7:5 9:5 8:15 7:10 2:5
8:0 9:15 3:15 1:5 2:5 7:5 9:5 8:15 7:10 2:5 1:5
9:0 3:15 1:5 2:5 7:5 9:5 8:15 7:10 2:5 1:5 2:5
3:0 1:5 2:5 7:5 9:5 8:15 7:10 2:5 1:5 2:5 8:5
1:0 2:5 7:5 9:5 8:15 7:10 2:5 1:5 2:5 8:5 9:20
2:0 7:5 9:5 8:15 7:10 2:5 1:5 2:5 8:5 9:20 3:10
7:0 9:5 8:15 7:10 2:5 1:5 2:5 8:5 9:20 3:10 1:5
9:0 8:15 7:10 2:5 1:5 2:5 8:5 9:20 3:10 1:5 2:5
8:0 7:10 2:5 1:5 2:5 8:5 9:20 3:10 1:5 2:5 7:5
7:0 2:5 1:5 2:5 8:5 9:20 3:10 1:5 2:5 7:5 9:5
2:0 1:5 2:5 8:5 9:20 3:10 1:5 2:5 7:5 9:5 8:15
1:0 2:5 8:5 9:20 3:10 1:5 2:5 7:5 9:5 8:15 9:10
2:0 8:5 9:20 3:10 1:5 2:5 7:5 9:5 8:15 9:10 3:5
8:0 9:20 3:10 1:5 2:5 7:5 9:5 8:15 9:10 3:5 1:5
9:0 3:10 1:5 2:5 7:5 9:5 8:15 9:10 3:5 1:5 7:10
3:0 1:5 2:5 7:5 9:5 8:15 9:10 3:5 1:5 7:10 8:5
1:0 2:5 7:5 9:5 8:15 9:10 3:5 1:5 7:10 8:5 9:15
2:0 7:5 9:5 8:15 9:10 3:5 1:5 7:10 8:5 9:15 8:15
7:0 9:5 8:15 9:10 3:5 1:5 7:10 8:5 9:15 8:15 6:5
9:0 8:15 9:10 3:5 1:5 7:10 8:5 9:15 8:15 6:5 1:5
8:0 9:10 3:5 1:5 7:10 8:5 9:15 8:15 6:5 1:5 3:15
9:0 3:5 1:5 7:10 8:5 9:15 8:15 6:5 1:5 3:15 7:5
3:0 1:5 7:10 8:5 9:15 8:15 6:5 1:5 3:15 7:5 8:10
1:0 7:10 8:5 9:15 8:15 6:5 1:5 3:15 7:5 8:10 9:5
7:0 8:5 9:15 8:15 6:5 1:5 3:15 7:5 8:10 9:5 8:10
8:0 9:15 8:15 6:5 1:5 3:15 7:5 8:10 9:5 8:10 9:10
9:0 8:15 6:5 1:5 3:15 7:5 8:10 9:5 8:10 9:10 5:5
8:0 6:5 1:5 3:15 7:5 8:10 9:5 8:10 9:10 5:5 1:5
6:0 1:5 3:15 7:5 8:10 9:5 8:10 9:10 5:5 1:5 7:10
1:0 3:15 7:5 8:10 9:5 8:10 9:10 5:5 1:5 7:10 8:5
3:0 7:5 8:10 9:5 8:10 9:10 5:5 1:5 7:10 8:5 9:5
7:0 8:10 9:5 8:10 9:10 5:5 1:5 7:10 8:5 9:5 8:10
8:0 9:5 8:10 9:10 5:5 1:5 7:10 8:5 9:5 8:10 10:10
9:0 8:10 9:10 5:5 1:5 7:10 8:5 9:5 8:10 10:10 3:5
8:0 9:10 5:5 1:5 7:10 8:5 9:5 8:10 10:10 3:5 1:5
9:0 5:5 1:5 7:10 8:5 9:5 8:10 10:10 3:5 1:5 2:5
5:0 1:5 7:10 8:5 9:5 8:10 10:10 3:5 1:5 2:5 8:5
1:0 7:10 8:5 9:5 8:10 10:10 3:5 1:5 2:5 8:5 9:15
7:0 8:5 9:5 8:10 10:10 3:5 1:5 2:5 8:5 9:15 7:10
8:0 9:5 8:10 10:10 3:5 1:5 2:5 8:5 9:15 7:10 1:5
9:0 8:10 10:10 3:5 1:5 2:5 8:5 9:15 7:10 1:5 4:10
8:0 10:10 3:5 1:5 2:5 8:5 9:15 7:10 1:5 4:10 7:5
10:0 3:5 1:5 2:5 8:5 9:15 7:10 1:5 4:10 7:5 10:5
3:0 1:5 2:5 8:5 9:15 7:10 1:5 4:10 7:5 10:5 2:10
1:0 2:5 8:5 9:15 7:10 1:5 4:10 7:5 10:5 2:10 1:5
2:0 8:5 9:15 7:10 1:5 4:10 7:5 10:5 2:10 1:5 7:5
8:0 9:15 7:10 1:5 4:10 7:5 10:5 2:10 1:5 7:5 8:5
9:0 7:10 1:5 4:10 7:5 10:5 2:10 1:5 7:5 8:5 9:15
7:0 1:5 4:10 7:5 10:5 2:10 1:5 7:5 8:5 9:15 2:20
1:0 4:10 7:5 10:5 2:10 1:5 7:5 8:5 9:15 2:20 1:5
4:0 7:5 10:5 2:10 1:5 7:5 8:5 9:15 2:20 1:5 4:10
7:0 10:5 2:10 1:5 7:5 8:5 9:15 2:20 1:5 4:10 7:5
10:0 2:10 1:5 7:5 8:5 9:15 2:20 1:5 4:10 7:5 8:5
2:0 1:5 7:5 8:5 9:15 2:20 1:5 4:10 7:5 8:5 7:5
1:0 7:5 8:5 9:15 2:20 1:5 4:10 7:5 8:5 7:5 9:5
7:0 8:5 9:15 2:20 1:5 4:10 7:5 8:5 7:5 9:5 4:10
8:0 9:15 2:20 1:5 4:10 7:5 8:5 7:5 9:5 4:10 1:5
9:0 2:20 1:5 4:10 7:5 8:5 7:5 9:5 4:10 1:5 5:5
2:0 1:5 4:10 7:5 8:5 7:5 9:5 4:10 1:5 5:5 8:5
1:0 4:10 7:5 8:5 7:5 9:5 4:10 1:5 5:5 8:5 9:5
4:0 7:5 8:5 7:5 9:5 4:10 1:5 5:5 8:5 9:5 8:10
7:0 8:5 7:5 9:5 4:10 1:5 5:5 8:5 9:5 8:10 9:10
8:0 7:5 9:5 4:10 1:5 5:5 8:5 9:5 8:10 9:10 3:5
7:0 9:5 4:10 1:5 5:5 8:5 9:5 8:10 9:10 3:5 1:5
9:0 4:10 1:5 5:5 8:5 9:5 8:10 9:10 3:5 1:5 8:10
4:0 1:5 5:5 8:5 9:5 8:10 9:10 3:5 1:5 8:10 9:5
1:0 5:5 8:5 9:5 8:10 9:10 3:5 1:5 8:10 9:5 8:10
5:0 8:5 9:5 8:10 9:10 3:5 1:5 8:10 9:5 8:10 9:15
8:0 9:5 8:10 9:10 3:5 1:5 8:10 9:5 8:10 9:15 7:5
9:0 8:10 9:10 3:5 1:5 8:10 9:5 8:10 9:15 7:5 1:5
8:0 9:10 3:5 1:5 8:10 9:5 8:10 9:15 7:5 1:5 8:10
9:0 3:5 1:5 8:10 9:5 8:10 9:15 7:5 1:5 8:10 10:10
3:0 1:5 8:10 9:5 8:10 9:15 7:5 1:5 8:10 10:10 9:5
1:0 8:10 9:5 8:10 9:15 7:5 1:5 8:10 10:10 9:5 8:5
8:0 9:5 8:10 9:15 7:5 1:5 8:10 10:10 9:5 8:5 9:5
9:0 8:10 9:15 7:5 1:5 8:10 10:10 9:5 8:5 9:5 5:5
8:0 9:15 7:5 1:5 8:10 10:10 9:5 8:5 9:5 5:5 1:5
9:0 7:5 1:5 8:10 10:10 9:5 8:5 9:5 5:5 1:5 5:10
7:0 1:5 8:10 10:10 9:5 8:5 9:5 5:5 1:5 5:10 8:5
1:0 8:10 10:10 9:5 8:5 9:5 5:5 1:5 5:10 8:5 9:15
8:0 10:10 9:5 8:5 9:5 5:5 1:5 5:10 8:5 9:15 8:15
10:0 9:5 8:5 9:5 5:5 1:5 5:10 8:5 9:15 8:15 9:5
9:0 8:5 9:5 5:5 1:5 5:10 8:5 9:15 8:15 9:5 2:5
8:0 9:5 5:5 1:5 5:10 8:5 9:15 8:15 9:5 2:5 1:5
9:0 5:5 1:5 5:10 8:5 9:15 8:15 9:5 2:5 1:5 4:10
5:0 1:5 5:10 8:5 9:15 8:15 9:5 2:5 1:5 4:10 7:5
1:0 5:10 8:5 9:15 8:15 9:5 2:5 1:5 4:10 7:5 9:10
5:0 8:5 9:15 8:15 9:5 2:5 1:5 4:10 7:5 9:10 10:5
8:0 9:15 8:15 9:5 2:5 1:5 4:10 7:5 9:10 10:5 2:5
9:0 8:15 9:5 2:5 1:5 4:10 7:5 9:10 10:5 2:5 1:5
8:0 9:5 2:5 1:5 4:10 7:5 9:10 10:5 2:5 1:5 7:5
9:0 2:5 1:5 4:10 7:5 9:10 10:5 2:5 1:5 7:5 8:5
2:0 1:5 4:10 7:5 9:10 10:5 2:5 1:5 7:5 8:5 9:15
1:0 4:10 7:5 9:10 10:5 2:5 1:5 7:5 8:5 9:15 8:15
4:0 7:5 9:10 10:5 2:5 1:5 7:5 8:5 9:15 8:15 9:5
7:0 9:10 10:5 2:5 1:5 7:5 8:5 9:15 8:15 9:5 3:5
9:0 10:5 2:5 1:5 7:5 8:5 9:15 8:15 9:5 3:5 1:5
10:0 2:5 1:5 7:5 8:5 9:15 8:15 9:5 3:5 1:5 4:10
2:0 1:5 7:5 8:5 9:15 8:15 9:5 3:5 1:5 4:10 7:5
1:0 7:5 8:5 9:15 8:15 9:5 3:5 1:5 4:10 7:5 8:10
7:0 8:5 9:15 8:15 9:5 3:5 1:5 4:10 7:5 8:10 9:5
8:0 9:15 8:15 9:5 3:5 1:5 4:10 7:5 8:10 9:5 8:10
9:0 8:15 9:5 3:5 1:5 4:10 7:5 8:10 9:5 8:10 9:10
8:0 9:5 3:5 1:5 4:10 7:5 8:10 9:5 8:10 9:10 7:5
9:0 3:5 1:5 4:10 7:5 8:10 9:5 8:10 9:10 7:5 2:5
3:0 1:5 4:10 7:5 8:10 9:5 8:10 9:10 7:5 2:5 1:5
1:0 4:10 7:5 8:10 9:5 8:10 9:10 7:5 2:5 1:5 2:5
4:0 7:5 8:10 9:5 8:10 9:10 7:5 2:5 1:5 2:5 8:5
7:0 8:10 9:5 8:10 9:10 7:5 2:5 1:5 2:5 8:5 9:5
8:0 9:5 8:10 9:10 7:5 2:5 1:5 2:5 8:5 9:5 8:10
9:0 8:10 9:10 7:5 2:5 1:5 2:5 8:5 9:5 8:10 10:10
8:0 9:10 7:5 2:5 1:5 2:5 8:5 9:5 8:10 10:10 2:5
9:0 7:5 2:5 1:5 2:5 8:5 9:5 8:10 10:10 2:5 1:5
7:0 2:5 1:5 2:5 8:5 9:5 8:10 10:10 2:5 1:5 7:10
2:0 1:5 2:5 8:5 9:5 8:10 10:10 2:5 1:5 7:10 8:5
1:0 2:5 8:5 9:5 8:10 10:10 2:5 1:5 7:10 8:5 9:15
2:0 8:5 9:5 8:10 10:10 2:5 1:5 7:10 8:5 9:15 6:20
8:0 9:5 8:10 10:10 2:5 1:5 7:10 8:5 9:15 6:20 1:5
9:0 8:10 10:10 2:5 1:5 7:10 8:5 9:15 6:20 1:5 5:15
8:0 10:10 2:5 1:5 7:10 8:5 9:15 6:20 1:5 5:15 8:5
10:0 2:5 1:5 7:10 8:5 9:15 6:20 1:5 5:15 8:5 7:5
2:0 1:5 7:10 8:5 9:15 6:20 1:5 5:15 8:5 7:5 9:5
1:0 7:10 8:5 9:15 6:20 1:5 5:15 8:5 7:5 9:5 2:10
7:0 8:5 9:15 6:20 1:5 5:15 8:5 7:5 9:5 2:10 1:5
8:0 9:15 6:20 1:5 5:15 8:5 7:5 9:5 2:10 1:5 4:5
9:0 6:20 1:5 5:15 8:5 7:5 9:5 2:10 1:5 4:5 8:5
6:0 1:5 5:15 8:5 7:5 9:5 2:10 1:5 4:5 8:5 9:10
1:0 5:15 8:5 7:5 9:5 2:10 1:5 4:5 8:5 9:10 8:5
5:0 8:5 7:5 9:5 2:10 1:5 4:5 8:5 9:10 8:5 9:10
8:0 7:5 9:5 2:10 1:5 4:5 8:5 9:10 8:5 9:10 6:5
7:0 9:5 2:10 1:5 4:5 8:5 9:10 8:5 9:10 6:5 1:5
9:0 2:10 1:5 4:5 8:5 9:10 8:5 9:10 6:5 1:5 8:10
2:0 1:5 4:5 8:5 9:10 8:5 9:10 6:5 1:5 8:10 9:5
1:0 4:5 8:5 9:10 8:5 9:10 6:5 1:5 8:10 9:5 8:10
4:0 8:5 9:10 8:5 9:10 6:5 1:5 8:10 9:5 8:10 2:20
8:0 9:10 8:5 9:10 6:5 1:5 8:10 9:5 8:10 2:20 1:5
9:0 8:5 9:10 6:5 1:5 8:10 9:5 8:10 2:20 1:5 3:5
8:0 9:10 6:5 1:5 8:10 9:5 8:10 2:20 1:5 3:5 8:5
9:0 6:5 1:5 8:10 9:5 8:10 2:20 1:5 3:5 8:5 9:15
6:0 1:5 8:10 9:5 8:10 2:20 1:5 3:5 8:5 9:15 8:15
1:0 8:10 9:5 8:10 2:20 1:5 3:5 8:5 9:15 8:15 9:5
8:0 9:5 8:10 2:20 1:5 3:5 8:5 9:15 8:15 9:5 2:5
9:0 8:10 2:20 1:5 3:5 8:5 9:15 8:15 9:5 2:5 1:5
8:0 2:20 1:5 3:5 8:5 9:15 8:15 9:5 2:5 1:5 5:10
2:0 1:5 3:5 8:5 9:15 8:15 9:5 2:5 1:5 5:10 7:5
1:0 3:5 8:5 9:15 8:15 9:5 2:5 1:5 5:10 7:5 8:10
3:0 8:5 9:15 8:15 9:5 2:5 1:5 5:10 7:5 8:10 10:5
8:0 9:15 8:15 9:5 2:5 1:5 5:10 7:5 8:10 10:5 8:5
9:0 8:15 9:5 2:5 1:5 5:10 7:5 8:10 10:5 8:5 1:5
8:0 9:5 2:5 1:5 5:10 7:5 8:10 10:5 8:5 1:5 8:10
9:0 2:5 1:5 5:10 7:5 8:10 10:5 8:5 1:5 8:10 9:10
2:0 1:5 5:10 7:5 8:10 10:5 8:5 1:5 8:10 9:10 8:10
1:0 5:10 7:5 8:10 10:5 8:5 1:5 8:10 9:10 8:10 9:5
5:0 7:5 8:10 10:5 8:5 1:5 8:10 9:10 8:10 9:5 4:5
7:0 8:10 10:5 8:5 1:5 8:10 9:10 8:10 9:5 4:5 1:5
8:0 10:5 8:5 1:5 8:10 9:10 8:10 9:5 4:5 1:5 7:10
10:0 8:5 1:5 8:10 9:10 8:10 9:5 4:5 1:5 7:10 8:5
8:0 1:5 8:10 9:10 8:10 9:5 4:5 1:5 7:10 8:5 9:15
1:0 8:10 9:10 8:10 9:5 4:5 1:5 7:10 8:5 9:15 2:25
8:0 9:10 8:10 9:5 4:5 1:5 7:10 8:5 9:15 2:25 1:5
9:0 8:10 9:5 4:5 1:5 7:10 8:5 9:15 2:25 1:5 3:10
8:0 9:5 4:5 1:5 7:10 8:5 9:15 2:25 1:5 3:10 7:5
9:0 4:5 1:5 7:10 8:5 9:15 2:25 1:5 3:10 7:5 8:10
4:0 1:5 7:10 8:5 9:15 2:25 1:5 3:10 7:5 8:10 10:5
1:0 7:10 8:5 9:15 2:25 1:5 3:10 7:5 8:10 10:5 9:5
7:0 8:5 9:15 2:25 1:5 3:10 7:5 8:10 10:5 9:5 8:5
8:0 9:15 2:25 1:5 3:10 7:5 8:10 10:5 9:5 8:5 9:10
9:0 2:25 1:5 3:10 7:5 8:10 10:5 9:5 8:5 9:10 3:5
2:0 1:5 3:10 7:5 8:10 10:5 9:5 8:5 9:10 3:5 2:5
1:0 3:10 7:5 8:10 10:5 9:5 8:5 9:10 3:5 2:5 1:5
3:0 7:5 8:10 10:5 9:5 8:5 9:10 3:5 2:5 1:5 4:5
7:0 8:10 10:5 9:5 8:5 9:10 3:5 2:5 1:5 4:5 8:5
8:0 10:5 9:5 8:5 9:10 3:5 2:5 1:5 4:5 8:5 9:15
10:0 9:5 8:5 9:10 3:5 2:5 1:5 4:5 8:5 9:15 10:5
9:0 8:5 9:10 3:5 2:5 1:5 4:5 8:5 9:15 10:5 4:5
8:0 9:10 3:5 2:5 1:5 4:5 8:5 9:15 10:5 4:5 1:5
9:0 3:5 2:5 1:5 4:5 8:5 9:15 10:5 4:5 1:5 7:10
3:0 2:5 1:5 4:5 8:5 9:15 10:5 4:5 1:5 7:10 8:5
2:0 1:5 4:5 8:5 9:15 10:5 4:5 1:5 7:10 8:5 9:5
1:0 4:5 8:5 9:15 10:5 4:5 1:5 7:10 8:5 9:5 10:5
4:0 8:5 9:15 10:5 4:5 1:5 7:10 8:5 9:5 10:5 8:5
8:0 9:15 10:5 4:5 1:5 7:10 8:5 9:5 10:5 8:5 9:10
9:0 10:5 4:5 1:5 7:10 8:5 9:5 10:5 8:5 9:10 7:5
10:0 4:5 1:5 7:10 8:5 9:5 10:5 8:5 9:10 7:5 2:5
4:0 1:5 7:10 8:5 9:5 10:5 8:5 9:10 7:5 2:5 1:5
1:0 7:10 8:5 9:5 10:5 8:5 9:10 7:5 2:5 1:5 3:5
7:0 8:5 9:5 10:5 8:5 9:10 7:5 2:5 1:5 3:5 8:5
8:0 9:5 10:5 8:5 9:10 7:5 2:5 1:5 3:5 8:5 9:15
9:0 10:5 8:5 9:10 7:5 2:5 1:5 3:5 8:5 9:15 1:15
10:0 8:5 9:10 7:5 2:5 1:5 3:5 8:5 9:15 1:15 2:10
8:0 9:10 7:5 2:5 1:5 3:5 8:5 9:15 1:15 2:10 7:5
9:0 7:5 2:5 1:5 3:5 8:5 9:15 1:15 2:10 7:5 9:5
7:0 2:5 1:5 3:5 8:5 9:15 1:15 2:10 7:5 9:5 8:15
2:0 1:5 3:5 8:5 9:15 1:15 2:10 7:5 9:5 8:15 9:5
1:0 3:5 8:5 9:15 1:15 2:10 7:5 9:5 8:15 9:5 7:5
3:0 8:5 9:15 1:15 2:10 7:5 9:5 8:15 9:5 7:5 2:5
8:0 9:15 1:15 2:10 7:5 9:5 8:15 9:5 7:5 2:5 1:5
9:0 1:15 2:10 7:5 9:5 8:15 9:5 7:5 2:5 1:5 2:5
1:0 2:10 7:5 9:5 8:15 9:5 7:5 2:5 1:5 2:5 8:5
2:0 7:5 9:5 8:15 9:5 7:5 2:5 1:5 2:5 8:5 9:5
7:0 9:5 8:15 9:5 7:5 2:5 1:5 2:5 8:5 9:5 8:10
9:0 8:15 9:5 7:5 2:5 1:5 2:5 8:5 9:5 8:10 9:10
8:0 9:5 7:5 2:5 1:5 2:5 8:5 9:5 8:10 9:10 2:10
9:0 7:5 2:5 1:5 2:5 8:5 9:5 8:10 9:10 2:10 1:5
7:0 2:5 1:5 2:5 8:5 9:5 8:10 9:10 2:10 1:5 3:5
2:0 1:5 2:5 8:5 9:5 8:10 9:10 2:10 1:5 3:5 8:5
1:0 2:5 8:5 9:5 8:10 9:10 2:10 1:5 3:5 8:5 9:10
2:0 8:5 9:5 8:10 9:10 2:10 1:5 3:5 8:5 9:10 8:5
8:0 9:5 8:10 9:10 2:10 1:5 3:5 8:5 9:10 8:5 10:10
9:0 8:10 9:10 2:10 1:5 3:5 8:5 9:10 8:5 10:10 2:5
8:0 9:10 2:10 1:5 3:5 8:5 9:10 8:5 10:10 2:5 1:5
9:0 2:10 1:5 3:5 8:5 9:10 8:5 10:10 2:5 1:5 8:10
2:0 1:5 3:5 8:5 9:10 8:5 10:10 2:5 1:5 8:10 9:20
1:0 3:5 8:5 9:10 8:5 10:10 2:5 1:5 8:10 9:20 2:20
3:0 8:5 9:10 8:5 10:10 2:5 1:5 8:10 9:20 2:20 1:5
8:0 9:10 8:5 10:10 2:5 1:5 8:10 9:20 2:20 1:5 4:10
9:0 8:5 10:10 2:5 1:5 8:10 9:20 2:20 1:5 4:10 8:5
8:0 10:10 2:5 1:5 8:10 9:20 2:20 1:5 4:10 8:5 7:5
10:0 2:5 1:5 8:10 9:20 2:20 1:5 4:10 8:5 7:5 8:5
2:0 1:5 8:10 9:20 2:20 1:5 4:10 8:5 7:5 8:5 10:5
1:0 8:10 9:20 2:20 1:5 4:10 8:5 7:5 8:5 10:5 5:5
8:0 9:20 2:20 1:5 4:10 8:5 7:5 8:5 10:5 5:5 1:5
9:0 2:20 1:5 4:10 8:5 7:5 8:5 10:5 5:5 1:5 2:5
2:0 1:5 4:10 8:5 7:5 8:5 10:5 5:5 1:5 2:5 7:5
1:0 4:10 8:5 7:5 8:5 10:5 5:5 1:5 2:5 7:5 8:5
4:0 8:5 7:5 8:5 10:5 5:5 1:5 2:5 7:5 8:5 10:20
8:0 7:5 8:5 10:5 5:5 1:5 2:5 7:5 8:5 10:20 2:5
7:0 8:5 10:5 5:5 1:5 2:5 7:5 8:5 10:20 2:5 1:5
8:0 10:5 5:5 1:5 2:5 7:5 8:5 10:20 2:5 1:5 4:5
10:0 5:5 1:5 2:5 7:5 8:5 10:20 2:5 1:5 4:5 7:5
5:0 1:5 2:5 7:5 8:5 10:20 2:5 1:5 4:5 7:5 8:5
1:0 2:5 7:5 8:5 10:20 2:5 1:5 4:5 7:5 8:5 9:10
2:0 7:5 8:5 10:20 2:5 1:5 4:5 7:5 8:5 9:10 8:5
7:0 8:5 10:20 2:5 1:5 4:5 7:5 8:5 9:10 8:5 9:10
8:0 10:20 2:5 1:5 4:5 7:5 8:5 9:10 8:5 9:10 6:5
10:0 2:5 1:5 4:5 7:5 8:5 9:10 8:5 9:10 6:5 1:5
2:0 1:5 4:5 7:5 8:5 9:10 8:5 9:10 6:5 1:5 5:10
1:0 4:5 7:5 8:5 9:10 8:5 9:10 6:5 1:5 5:10 8:5
4:0 7:5 8:5 9:10 8:5 9:10 6:5 1:5 5:10 8:5 9:15
7:0 8:5 9:10 8:5 9:10 6:5 1:5 5:10 8:5 9:15 8:15
8:0 9:10 8:5 9:10 6:5 1:5 5:10 8:5 9:15 8:15 9:5
9:0 8:5 9:10 6:5 1:5 5:10 8:5 9:15 8:15 9:5 2:5
8:0 9:10 6:5 1:5 5:10 8:5 9:15 8:15 9:5 2:5 1:5
9:0 6:5 1:5 5:10 8:5 9:15 8:15 9:5 2:5 1:5 7:15
6:0 1:5 5:10 8:5 9:15 8:15 9:5 2:5 1:5 7:15 8:10
1:0 5:10 8:5 9:15 8:15 9:5 2:5 1:5 7:15 8:10 9:5
5:0 8:5 9:15 8:15 9:5 2:5 1:5 7:15 8:10 9:5 10:5
8:0 9:15 8:15 9:5 2:5 1:5 7:15 8:10 9:5 10:5 8:5
9:0 8:15 9:5 2:5 1:5 7:15 8:10 9:5 10:5 8:5 9:10
8:0 9:5 2:5 1:5 7:15 8:10 9:5 10:5 8:5 9:10 5:5
9:0 2:5 1:5 7:15 8:10 9:5 10:5 8:5 9:10 5:5 1:5
2:0 1:5 7:15 8:10 9:5 10:5 8:5 9:10 5:5 1:5 5:10
1:0 7:15 8:10 9:5 10:5 8:5 9:10 5:5 1:5 5:10 8:5
7:0 8:10 9:5 10:5 8:5 9:10 5:5 1:5 5:10 8:5 9:5
8:0 9:5 10:5 8:5 9:10 5:5 1:5 5:10 8:5 9:5 8:10
9:0 10:5 8:5 9:10 5:5 1:5 5:10 8:5 9:5 8:10 9:10
10:0 8:5 9:10 5:5 1:5 5:10 8:5 9:5 8:10 9:10 3:5
8:0 9:10 5:5 1:5 5:10 8:5 9:5 8:10 9:10 3:5 1:5
9:0 5:5 1:5 5:10 8:5 9:5 8:10 9:10 3:5 1:5 7:10
5:0 1:5 5:10 8:5 9:5 8:10 9:10 3:5 1:5 7:10 8:5
1:0 5:10 8:5 9:5 8:10 9:10 3:5 1:5 7:10 8:5 9:5
5:0 8:5 9:5 8:10 9:10 3:5 1:5 7:10 8:5 9:5 8:10
8:0 9:5 8:10 9:10 3:5 1:5 7:10 8:5 9:5 8:10 9:5
9:0 8:10 9:10 3:5 1:5 7:10 8:5 9:5 8:10 9:5 2:10
8:0 9:10 3:5 1:5 7:10 8:5 9:5 8:10 9:5 2:10 1:5
9:0 3:5 1:5 7:10 8:5 9:5 8:10 9:5 2:10 1:5 2:5
3:0 1:5 7:10 8:5 9:5 8:10 9:5 2:10 1:5 2:5 8:5
1:0 7:10 8:5 9:5 8:10 9:5 2:10 1:5 2:5 8:5 9:5
7:0 8:5 9:5 8:10 9:5 2:10 1:5 2:5 8:5 9:5 8:10
8:0 9:5 8:10 9:5 2:10 1:5 2:5 8:5 9:5 8:10 9:10
9:0 8:10 9:5 2:10 1:5 2:5 8:5 9:5 8:10 9:10 8:5
8:0 9:5 2:10 1:5 2:5 8:5 9:5 8:10 9:10 8:5 1:5
9:0 2:10 1:5 2:5 8:5 9:5 8:10 9:10 8:5 1:5 5:10
2:0 1:5 2:5 8:5 9:5 8:10 9:10 8:5 1:5 5:10 8:5
1:0 2:5 8:5 9:5 8:10 9:10 8:5 1:5 5:10 8:5 7:5
2:0 8:5 9:5 8:10 9:10 8:5 1:5 5:10 8:5 7:5 8:5
8:0 9:5 8:10 9:10 8:5 1:5 5:10 8:5 7:5 8:5 9:5
9:0 8:10 9:10 8:5 1:5 5:10 8:5 7:5 8:5 9:5 10:5
8:0 9:10 8:5 1:5 5:10 8:5 7:5 8:5 9:5 10:5 3:5
9:0 8:5 1:5 5:10 8:5 7:5 8:5 9:5 10:5 3:5 1:5
8:0 1:5 5:10 8:5 7:5 8:5 9:5 10:5 3:5 1:5 2:5
1:0 5:10 8:5 7:5 8:5 9:5 10:5 3:5 1:5 2:5 7:5
5:0 8:5 7:5 8:5 9:5 10:5 3:5 1:5 2:5 7:5 8:5
8:0 7:5 8:5 9:5 10:5 3:5 1:5 2:5 7:5 8:5 10:5
7:0 8:5 9:5 10:5 3:5 1:5 2:5 7:5 8:5 10:5 4:5
8:0 9:5 10:5 3:5 1:5 2:5 7:5 8:5 10:5 4:5 1:5
9:0 10:5 3:5 1:5 2:5 7:5 8:5 10:5 4:5 1:5 3:5
10:0 3:5 1:5 2:5 7:5 8:5 10:5 4:5 1:5 3:5 8:5
3:0 1:5 2:5 7:5 8:5 10:5 4:5 1:5 3:5 8:5 9:15
1:0 2:5 7:5 8:5 10:5 4:5 1:5 3:5 8:5 9:15 3:25
2:0 7:5 8:5 10:5 4:5 1:5 3:5 8:5 9:15 3:25 1:5
7:0 8:5 10:5 4:5 1:5 3:5 8:5 9:15 3:25 1:5 7:15
8:0 10:5 4:5 1:5 3:5 8:5 9:15 3:25 1:5 7:15 8:10
10:0 4:5 1:5 3:5 8:5 9:15 3:25 1:5 7:15 8:10 9:5
4:0 1:5 3:5 8:5 9:15 3:25 1:5 7:15 8:10 9:5 10:5
1:0 3:5 8:5 9:15 3:25 1:5 7:15 8:10 9:5 10:5 8:5
3:0 8:5 9:15 3:25 1:5 7:15 8:10 9:5 10:5 8:5 9:10
8:0 9:15 3:25 1:5 7:15 8:10 9:5 10:5 8:5 9:10 8:5
9:0 3:25 1:5 7:15 8:10 9:5 10:5 8:5 9:10 8:5 2:5
3:0 1:5 7:15 8:10 9:5 10:5 8:5 9:10 8:5 2:5 1:5
1:0 7:15 8:10 9:5 10:5 8:5 9:10 8:5 2:5 1:5 2:5
7:0 8:10 9:5 10:5 8:5 9:10 8:5 2:5 1:5 2:5 8:5
8:0 9:5 10:5 8:5 9:10 8:5 2:5 1:5 2:5 8:5 9:15
9:0 10:5 8:5 9:10 8:5 2:5 1:5 2:5 8:5 9:15 7:10
10:0 8:5 9:10 8:5 2:5 1:5 2:5 8:5 9:15 7:10 1:5
8:0 9:10 8:5 2:5 1:5 2:5 8:5 9:15 7:10 1:5 7:10
9:0 8:5 2:5 1:5 2:5 8:5 9:15 7:10 1:5 7:10 8:5
8:0 2:5 1:5 2:5 8:5 9:15 7:10 1:5 7:10 8:5 9:5
2:0 1:5 2:5 8:5 9:15 7:10 1:5 7:10 8:5 9:5 10:5
1:0 2:5 8:5 9:15 7:10 1:5 7:10 8:5 9:5 10:5 8:5
2:0 8:5 9:15 7:10 1:5 7:10 8:5 9:5 10:5 8:5 7:15
8:0 9:15 7:10 1:5 7:10 8:5 9:5 10:5 8:5 7:15 2:5
9:0 7:10 1:5 7:10 8:5 9:5 10:5 8:5 7:15 2:5 1:5
7:0 1:5 7:10 8:5 9:5 10:5 8:5 7:15 2:5 1:5 2:5
1:0 7:10 8:5 9:5 10:5 8:5 7:15 2:5 1:5 2:5 8:5
7:0 8:5 9:5 10:5 8:5 7:15 2:5 1:5 2:5 8:5 9:5
8:0 9:5 10:5 8:5 7:15 2:5 1:5 2:5 8:5 9:5 8:10
9:0 10:5 8:5 7:15 2:5 1:5 2:5 8:5 9:5 8:10 9:10
10:0 8:5 7:15 2:5 1:5 2:5 8:5 9:5 8:10 9:10 10:5
8:0 7:15 2:5 1:5 2:5 8:5 9:5 8:10 9:10 10:5 2:5
7:0 2:5 1:5 2:5 8:5 9:5 8:10 9:10 10:5 2:5 1:5
2:0 1:5 2:5 8:5 9:5 8:10 9:10 10:5 2:5 1:5 3:5
1:0 2:5 8:5 9:5 8:10 9:10 10:5 2:5 1:5 3:5 8:5
2:0 8:5 9:5 8:10 9:10 10:5 2:5 1:5 3:5 8:5 9:15
8:0 9:5 8:10 9:10 10:5 2:5 1:5 3:5 8:5 9:15 8:15
9:0 8:10 9:10 10:5 2:5 1:5 3:5 8:5 9:15 8:15 2:10
8:0 9:10 10:5 2:5 1:5 3:5 8:5 9:15 8:15 2:10 1:5
9:0 10:5 2:5 1:5 3:5 8:5 9:15 8:15 2:10 1:5 5:10
10:0 2:5 1:5 3:5 8:5 9:15 8:15 2:10 1:5 5:10 7:5
2:0 1:5 3:5 8:5 9:15 8:15 2:10 1:5 5:10 7:5 8:10
1:0 3:5 8:5 9:15 8:15 2:10 1:5 5:10 7:5 8:10 10:5
3:0 8:5 9:15 8:15 2:10 1:5 5:10 7:5 8:10 10:5 9:5
8:0 9:15 8:15 2:10 1:5 5:10 7:5 8:10 10:5 9:5 8:5
9:0 8:15 2:10 1:5 5:10 7:5 8:10 10:5 9:5 8:5 9:10
8:0 2:10 1:5 5:10 7:5 8:10 10:5 9:5 8:5 9:10 3:5
2:0 1:5 5:10 7:5 8:10 10:5 9:5 8:5 9:10 3:5 1:5
1:0 5:10 7:5 8:10 10:5 9:5 8:5 9:10 3:5 1:5 5:10
5:0 7:5 8:10 10:5 9:5 8:5 9:10 3:5 1:5 5:10 8:5
7:0 8:10 10:5 9:5 8:5 9:10 3:5 1:5 5:10 8:5 9:5
8:0 10:5 9:5 8:5 9:10 3:5 1:5 5:10 8:5 9:5 8:10
10:0 9:5 8:5 9:10 3:5 1:5 5:10 8:5 9:5 8:10 9:10
9:0 8:5 9:10 3:5 1:5 5:10 8:5 9:5 8:10 9:10 6:5
8:0 9:10 3:5 1:5 5:10 8:5 9:5 8:10 9:10 6:5 1:5
9:0 3:5 1:5 5:10 8:5 9:5 8:10 9:10 6:5 1:5 6:10
3:0 1:5 5:10 8:5 9:5 8:10 9:10 6:5 1:5 6:10 8:5
1:0 5:10 8:5 9:5 8:10 9:10 6:5 1:5 6:10 8:5 9:15
5:0 8:5 9:5 8:10 9:10 6:5 1:5 6:10 8:5 9:15 1:10
8:0 9:5 8:10 9:10 6:5 1:5 6:10 8:5 9:15 1:10 4:10
9:0 8:10 9:10 6:5 1:5 6:10 8:5 9:15 1:10 4:10 7:5
8:0 9:10 6:5 1:5 6:10 8:5 9:15 1:10 4:10 7:5 9:5
9:0 6:5 1:5 6:10 8:5 9:15 1:10 4:10 7:5 9:5 8:15
6:0 1:5 6:10 8:5 9:15 1:10 4:10 7:5 9:5 8:15 9:10
1:0 6:10 8:5 9:15 1:10 4:10 7:5 9:5 8:15 9:10 3:5
6:0 8:5 9:15 1:10 4:10 7:5 9:5 8:15 9:10 3:5 1:5
8:0 9:15 1:10 4:10 7:5 9:5 8:15 9:10 3:5 1:5 7:10
9:0 1:10 4:10 7:5 9:5 8:15 9:10 3:5 1:5 7:10 8:5
1:0 4:10 7:5 9:5 8:15 9:10 3:5 1:5 7:10 8:5 7:5
4:0 7:5 9:5 8:15 9:10 3:5 1:5 7:10 8:5 7:5 8:5
7:0 9:5 8:15 9:10 3:5 1:5 7:10 8:5 7:5 8:5 9:5
9:0 8:15 9:10 3:5 1:5 7:10 8:5 7:5 8:5 9:5 4:10
8:0 9:10 3:5 1:5 7:10 8:5 7:5 8:5 9:5 4:10 1:5
9:0 3:5 1:5 7:10 8:5 7:5 8:5 9:5 4:10 1:5 2:5
3:0 1:5 7:10 8:5 7:5 8:5 9:5 4:10 1:5 2:5 7:5
1:0 7:10 8:5 7:5 8:5 9:5 4:10 1:5 2:5 7:5 8:5
7:0 8:5 7:5 8:5 9:5 4:10 1:5 2:5 7:5 8:5 9:5
8:0 7:5 8:5 9:5 4:10 1:5 2:5 7:5 8:5 9:5 8:10
7:0 8:5 9:5 4:10 1:5 2:5 7:5 8:5 9:5 8:10 9:10
8:0 9:5 4:10 1:5 2:5 7:5 8:5 9:5 8:10 9:10 3:5
9:0 4:10 1:5 2:5 7:5 8:5 9:5 8:10 9:10 3:5 2:5
4:0 1:5 2:5 7:5 8:5 9:5 8:10 9:10 3:5 2:5 1:5
1:0 2:5 7:5 8:5 9:5 8:10 9:10 3:5 2:5 1:5 3:5
2:0 7:5 8:5 9:5 8:10 9:10 3:5 2:5 1:5 3:5 8:5
7:0 8:5 9:5 8:10 9:10 3:5 2:5 1:5 3:5 8:5 10:10
8:0 9:5 8:10 9:10 3:5 2:5 1:5 3:5 8:5 10:10 8:5
9:0 8:10 9:10 3:5 2:5 1:5 3:5 8:5 10:10 8:5 9:10
8:0 9:10 3:5 2:5 1:5 3:5 8:5 10:10 8:5 9:10 5:5
9:0 3:5 2:5 1:5 3:5 8:5 10:10 8:5 9:10 5:5 1:5
3:0 2:5 1:5 3:5 8:5 10:10 8:5 9:10 5:5 1:5 7:10
2:0 1:5 3:5 8:5 10:10 8:5 9:10 5:5 1:5 7:10 8:5
1:0 3:5 8:5 10:10 8:5 9:10 5:5 1:5 7:10 8:5 9:15
3:0 8:5 10:10 8:5 9:10 5:5 1:5 7:10 8:5 9:15 5:15
8:0 10:10 8:5 9:10 5:5 1:5 7:10 8:5 9:15 5:15 1:5
10:0 8:5 9:10 5:5 1:5 7:10 8:5 9:15 5:15 1:5 6:10
8:0 9:10 5:5 1:5 7:10 8:5 9:15 5:15 1:5 6:10 9:5
9:0 5:5 1:5 7:10 8:5 9:15 5:15 1:5 6:10 9:5 8:10
5:0 1:5 7:10 8:5 9:15 5:15 1:5 6:10 9:5 8:10 9:10
1:0 7:10 8:5 9:15 5:15 1:5 6:10 9:5 8:10 9:10 6:5
7:0 8:5 9:15 5:15 1:5 6:10 9:5 8:10 9:10 6:5 2:5
8:0 9:15 5:15 1:5 6:10 9:5 8:10 9:10 6:5 2:5 1:5
9:0 5:15 1:5 6:10 9:5 8:10 9:10 6:5 2:5 1:5 3:5
5:0 1:5 6:10 9:5 8:10 9:10 6:5 2:5 1:5 3:5 8:5
1:0 6:10 9:5 8:10 9:10 6:5 2:5 1:5 3:5 8:5 9:15
6:0 9:5 8:10 9:10 6:5 2:5 1:5 3:5 8:5 9:15 8:15
9:0 8:10 9:10 6:5 2:5 1:5 3:5 8:5 9:15 8:15 9:5
8:0 9:10 6:5 2:5 1:5 3:5 8:5 9:15 8:15 9:5 5:5
9:0 6:5 2:5 1:5 3:5 8:5 9:15 8:15 9:5 5:5 1:5
6:0 2:5 1:5 3:5 8:5 9:15 8:15 9:5 5:5 1:5 8:15
2:0 1:5 3:5 8:5 9:15 8:15 9:5 5:5 1:5 8:15 7:5
1:0 3:5 8:5 9:15 8:15 9:5 5:5 1:5 8:15 7:5 9:5
3:0 8:5 9:15 8:15 9:5 5:5 1:5 8:15 7:5 9:5 10:5
8:0 9:15 8:15 9:5 5:5 1:5 8:15 7:5 9:5 10:5 6:5
9:0 8:15 9:5 5:5 1:5 8:15 7:5 9:5 10:5 6:5 1:5
8:0 9:5 5:5 1:5 8:15 7:5 9:5 10:5 6:5 1:5 2:5
9:0 5:5 1:5 8:15 7:5 9:5 10:5 6:5 1:5 2:5 8:5
5:0 1:5 8:15 7:5 9:5 10:5 6:5 1:5 2:5 8:5 9:15
1:0 8:15 7:5 9:5 10:5 6:5 1:5 2:5 8:5 9:15 3:15
8:0 7:5 9:5 10:5 6:5 1:5 2:5 8:5 9:15 3:15 1:5
7:0 9:5 10:5 6:5 1:5 2:5 8:5 9:15 3:15 1:5 7:10
9:0 10:5 6:5 1:5 2:5 8:5 9:15 3:15 1:5 7:10 8:5
10:0 6:5 1:5 2:5 8:5 9:15 3:15 1:5 7:10 8:5 9:15
6:0 1:5 2:5 8:5 9:15 3:15 1:5 7:10 8:5 9:15 8:15
1:0 2:5 8:5 9:15 3:15 1:5 7:10 8:5 9:15 8:15 2:10
2:0 8:5 9:15 3:15 1:5 7:10 8:5 9:15 8:15 2:10 1:5
8:0 9:15 3:15 1:5 7:10 8:5 9:15 8:15 2:10 1:5 5:10
9:0 3:15 1:5 7:10 8:5 9:15 8:15 2:10 1:5 5:10 7:5
3:0 1:5 7:10 8:5 9:15 8:15 2:10 1:5 5:10 7:5 9:10
1:0 7:10 8:5 9:15 8:15 2:10 1:5 5:10 7:5 9:10 10:5
7:0 8:5 9:15 8:15 2:10 1:5 5:10 7:5 9:10 10:5 9:5
8:0 9:15 8:15 2:10 1:5 5:10 7:5 9:10 10:5 9:5 8:5
9:0 8:15 2:10 1:5 5:10 7:5 9:10 10:5 9:5 8:5 9:10
8:0 2:10 1:5 5:10 7:5 9:10 10:5 9:5 8:5 9:10 2:5
2:0 1:5 5:10 7:5 9:10 10:5 9:5 8:5 9:10 2:5 1:5
1:0 5:10 7:5 9:10 10:5 9:5 8:5 9:10 2:5 1:5 7:10
5:0 7:5 9:10 10:5 9:5 8:5 9:10 2:5 1:5 7:10 8:5
7:0 9:10 10:5 9:5 8:5 9:10 2:5 1:5 7:10 8:5 9:15
9:0 10:5 9:5 8:5 9:10 2:5 1:5 7:10 8:5 9:15 6:10
10:0 9:5 8:5 9:10 2:5 1:5 7:10 8:5 9:15 6:10 1:5
9:0 8:5 9:10 2:5 1:5 7:10 8:5 9:15 6:10 1:5 7:10
8:0 9:10 2:5 1:5 7:10 8:5 9:15 6:10 1:5 7:10 8:5
9:0 2:5 1:5 7:10 8:5 9:15 6:10 1:5 7:10 8:5 9:5
2:0 1:5 7:10 8:5 9:15 6:10 1:5 7:10 8:5 9:5 8:10
1:0 7:10 8:5 9:15 6:10 1:5 7:10 8:5 9:5 8:10 10:10
7:0 8:5 9:15 6:10 1:5 7:10 8:5 9:5 8:10 10:10 2:5
8:0 9:15 6:10 1:5 7:10 8:5 9:5 8:10 10:10 2:5 1:5
9:0 6:10 1:5 7:10 8:5 9:5 8:10 10:10 2:5 1:5 7:10
6:0 1:5 7:10 8:5 9:5 8:10 10:10 2:5 1:5 7:10 8:5
1:0 7:10 8:5 9:5 8:10 10:10 2:5 1:5 7:10 8:5 9:15
7:0 8:5 9:5 8:10 10:10 2:5 1:5 7:10 8:5 9:15 8:15
8:0 9:5 8:10 10:10 2:5 1:5 7:10 8:5 9:15 8:15 9:5
9:0 8:10 10:10 2:5 1:5 7:10 8:5 9:15 8:15 9:5 3:5
8:0 10:10 2:5 1:5 7:10 8:5 9:15 8:15 9:5 3:5 1:5
10:0 2:5 1:5 7:10 8:5 9:15 8:15 9:5 3:5 1:5 4:10
2:0 1:5 7:10 8:5 9:15 8:15 9:5 3:5 1:5 4:10 7:5
1:0 7:10 8:5 9:15 8:15 9:5 3:5 1:5 4:10 7:5 8:10
7:0 8:5 9:15 8:15 9:5 3:5 1:5 4:10 7:5 8:10 10:5
8:0 9:15 8:15 9:5 3:5 1:5 4:10 7:5 8:10 10:5 6:5
9:0 8:15 9:5 3:5 1:5 4:10 7:5 8:10 10:5 6:5 1:5
8:0 9:5 3:5 1:5 4:10 7:5 8:10 10:5 6:5 1:5 2:5
9:0 3:5 1:5 4:10 7:5 8:10 10:5 6:5 1:5 2:5 8:5
3:0 1:5 4:10 7:5 8:10 10:5 6:5 1:5 2:5 8:5 9:5
1:0 4:10 7:5 8:10 10:5 6:5 1:5 2:5 8:5 9:5 8:10
4:0 7:5 8:10 10:5 6:5 1:5 2:5 8:5 9:5 8:10 9:10
7:0 8:10 10:5 6:5 1:5 2:5 8:5 9:5 8:10 9:10 2:10
8:0 10:5 6:5 1:5 2:5 8:5 9:5 8:10 9:10 2:10 1:5
10:0 6:5 1:5 2:5 8:5 9:5 8:10 9:10 2:10 1:5 4:5
6:0 1:5 2:5 8:5 9:5 8:10 9:10 2:10 1:5 4:5 8:5
1:0 2:5 8:5 9:5 8:10 9:10 2:10 1:5 4:5 8:5 9:15
2:0 8:5 9:5 8:10 9:10 2:10 1:5 4:5 8:5 9:15 8:15
8:0 9:5 8:10 9:10 2:10 1:5 4:5 8:5 9:15 8:15 9:5
9:0 8:10 9:10 2:10 1:5 4:5 8:5 9:15 8:15 9:5 4:5
8:0 9:10 2:10 1:5 4:5 8:5 9:15 8:15 9:5 4:5 1:5
9:0 2:10 1:5 4:5 8:5 9:15 8:15 9:5 4:5 1:5 5:10
2:0 1:5 4:5 8:5 9:15 8:15 9:5 4:5 1:5 5:10 7:5
1:0 4:5 8:5 9:15 8:15 9:5 4:5 1:5 5:10 7:5 9:10
4:0 8:5 9:15 8:15 9:5 4:5 1:5 5:10 7:5 9:10 8:15
8:0 9:15 8:15 9:5 4:5 1:5 5:10 7:5 9:10 8:15 9:10
9:0 8:15 9:5 4:5 1:5 5:10 7:5 9:10 8:15 9:10 3:5
8:0 9:5 4:5 1:5 5:10 7:5 9:10 8:15 9:10 3:5 1:5
9:0 4:5 1:5 5:10 7:5 9:10 8:15 9:10 3:5 1:5 5:10
4:0 1:5 5:10 7:5 9:10 8:15 9:10 3:5 1:5 5:10 9:5
1:0 5:10 7:5 9:10 8:15 9:10 3:5 1:5 5:10 9:5 8:15
5:0 7:5 9:10 8:15 9:10 3:5 1:5 5:10 9:5 8:15 9:10
7:0 9:10 8:15 9:10 3:5 1:5 5:10 9:5 8:15 9:10 3:5
9:0 8:15 9:10 3:5 1:5 5:10 9:5 8:15 9:10 3:5 1:5
8:0 9:10 3:5 1:5 5:10 9:5 8:15 9:10 3:5 1:5 8:10
9:0 3:5 1:5 5:10 9:5 8:15 9:10 3:5 1:5 8:10 9:10
3:0 1:5 5:10 9:5 8:15 9:10 3:5 1:5 8:10 9:10 8:10
1:0 5:10 9:5 8:15 9:10 3:5 1:5 8:10 9:10 8:10 9:5
5:0 9:5 8:15 9:10 3:5 1:5 8:10 9:10 8:10 9:5 5:5
9:0 8:15 9:10 3:5 1:5 8:10 9:10 8:10 9:5 5:5 1:5
8:0 9:10 3:5 1:5 8:10 9:10 8:10 9:5 5:5 1:5 5:10
9:0 3:5 1:5 8:10 9:10 8:10 9:5 5:5 1:5 5:10 8:5
3:0 1:5 8:10 9:10 8:10 9:5 5:5 1:5 5:10 8:5 9:10
1:0 8:10 9:10 8:10 9:5 5:5 1:5 5:10 8:5 9:10 8:5
8:0 9:10 8:10 9:5 5:5 1:5 5:10 8:5 9:10 8:5 9:10
9:0 8:10 9:5 5:5 1:5 5:10 8:5 9:10 8:5 9:10 5:5
8:0 9:5 5:5 1:5 5:10 8:5 9:10 8:5 9:10 5:5 1:5
9:0 5:5 1:5 5:10 8:5 9:10 8:5 9:10 5:5 1:5 8:10
5:0 1:5 5:10 8:5 9:10 8:5 9:10 5:5 1:5 8:10 9:15
1:0 5:10 8:5 9:10 8:5 9:10 5:5 1:5 8:10 9:15 1:15
5:0 8:5 9:10 8:5 9:10 5:5 1:5 8:10 9:15 1:15 3:10
8:0 9:10 8:5 9:10 5:5 1:5 8:10 9:15 1:15 3:10 7:5
9:0 8:5 9:10 5:5 1:5 8:10 9:15 1:15 3:10 7:5 9:5
8:0 9:10 5:5 1:5 8:10 9:15 1:15 3:10 7:5 9:5 10:10
9:0 5:5 1:5 8:10 9:15 1:15 3:10 7:5 9:5 10:10 8:5
5:0 1:5 8:10 9:15 1:15 3:10 7:5 9:5 10:10 8:5 10:10
1:0 8:10 9:15 1:15 3:10 7:5 9:5 10:10 8:5 10:10 2:5
8:0 9:15 1:15 3:10 7:5 9:5 10:10 8:5 10:10 2:5 1:5
9:0 1:15 3:10 7:5 9:5 10:10 8:5 10:10 2:5 1:5 7:10
1:0 3:10 7:5 9:5 10:10 8:5 10:10 2:5 1:5 7:10 8:5
3:0 7:5 9:5 10:10 8:5 10:10 2:5 1:5 7:10 8:5 9:5
7:0 9:5 10:10 8:5 10:10 2:5 1:5 7:10 8:5 9:5 8:10
9:0 10:10 8:5 10:10 2:5 1:5 7:10 8:5 9:5 8:10 9:10
10:0 8:5 10:10 2:5 1:5 7:10 8:5 9:5 8:10 9:10 3:5
8:0 10:10 2:5 1:5 7:10 8:5 9:5 8:10 9:10 3:5 1:5
10:0 2:5 1:5 7:10 8:5 9:5 8:10 9:10 3:5 1:5 8:10
2:0 1:5 7:10 8:5 9:5 8:10 9:10 3:5 1:5 8:10 9:10
1:0 7:10 8:5 9:5 8:10 9:10 3:5 1:5 8:10 9:10 8:10
7:0 8:5 9:5 8:10 9:10 3:5 1:5 8:10 9:10 8:10 9:5
8:0 9:5 8:10 9:10 3:5 1:5 8:10 9:10 8:10 9:5 2:10
9:0 8:10 9:10 3:5 1:5 8:10 9:10 8:10 9:5 2:10 1:5
8:0 9:10 3:5 1:5 8:10 9:10 8:10 9:5 2:10 1:5 3:5
9:0 3:5 1:5 8:10 9:10 8:10 9:5 2:10 1:5 3:5 9:5
3:0 1:5 8:10 9:10 8:10 9:5 2:10 1:5 3:5 9:5 8:15
1:0 8:10 9:10 8:10 9:5 2:10 1:5 3:5 9:5 8:15 9:10
8:0 9:10 8:10 9:5 2:10 1:5 3:5 9:5 8:15 9:10 5:5
9:0 8:10 9:5 2:10 1:5 3:5 9:5 8:15 9:10 5:5 1:5
8:0 9:5 2:10 1:5 3:5 9:5 8:15 9:10 5:5 1:5 8:10
9:0 2:10 1:5 3:5 9:5 8:15 9:10 5:5 1:5 8:10 9:20
2:0 1:5 3:5 9:5 8:15 9:10 5:5 1:5 8:10 9:20 3:20
1:0 3:5 9:5 8:15 9:10 5:5 1:5 8:10 9:20 3:20 1:5
3:0 9:5 8:15 9:10 5:5 1:5 8:10 9:20 3:20 1:5 7:15
9:0 8:15 9:10 5:5 1:5 8:10 9:20 3:20 1:5 7:15 9:15
8:0 9:10 5:5 1:5 8:10 9:20 3:20 1:5 7:15 9:15 8:15
9:0 5:5 1:5 8:10 9:20 3:20 1:5 7:15 9:15 8:15 10:10
5:0 1:5 8:10 9:20 3:20 1:5 7:15 9:15 8:15 10:10 2:5
1:0 8:10 9:20 3:20 1:5 7:15 9:15 8:15 10:10 2:5 1:5
8:0 9:20 3:20 1:5 7:15 9:15 8:15 10:10 2:5 1:5 8:10
9:0 3:20 1:5 7:15 9:15 8:15 10:10 2:5 1:5 8:10 9:5
3:0 1:5 7:15 9:15 8:15 10:10 2:5 1:5 8:10 9:5 8:10
1:0 7:15 9:15 8:15 10:10 2:5 1:5 8:10 9:5 8:10 9:15
7:0 9:15 8:15 10:10 2:5 1:5 8:10 9:5 8:10 9:15 3:5
9:0 8:15 10:10 2:5 1:5 8:10 9:5 8:10 9:15 3:5 1:5
8:0 10:10 2:5 1:5 8:10 9:5 8:10 9:15 3:5 1:5 2:5
10:0 2:5 1:5 8:10 9:5 8:10 9:15 3:5 1:5 2:5 8:5
2:0 1:5 8:10 9:5 8:10 9:15 3:5 1:5 2:5 8:5 10:10
1:0 8:10 9:5 8:10 9:15 3:5 1:5 2:5 8:5 10:10 9:5
8:0 9:5 8:10 9:15 3:5 1:5 2:5 8:5 10:10 9:5 8:5
9:0 8:10 9:15 3:5 1:5 2:5 8:5 10:10 9:5 8:5 9:5
8:0 9:15 3:5 1:5 2:5 8:5 10:10 9:5 8:5 9:5 3:5
9:0 3:5 1:5 2:5 8:5 10:10 9:5 8:5 9:5 3:5 1:5
3:0 1:5 2:5 8:5 10:10 9:5 8:5 9:5 3:5 1:5 7:10
1:0 2:5 8:5 10:10 9:5 8:5 9:5 3:5 1:5 7:10 8:5
2:0 8:5 10:10 9:5 8:5 9:5 3:5 1:5 7:10 8:5 9:20
8:0 10:10 9:5 8:5 9:5 3:5 1:5 7:10 8:5 9:20 8:10
10:0 9:5 8:5 9:5 3:5 1:5 7:10 8:5 9:20 8:10 9:5
9:0 8:5 9:5 3:5 1:5 7:10 8:5 9:20 8:10 9:5 4:5
8:0 9:5 3:5 1:5 7:10 8:5 9:20 8:10 9:5 4:5 1:5
9:0 3:5 1:5 7:10 8:5 9:20 8:10 9:5 4:5 1:5 4:10
3:0 1:5 7:10 8:5 9:20 8:10 9:5 4:5 1:5 4:10 8:5
1:0 7:10 8:5 9:20 8:10 9:5 4:5 1:5 4:10 8:5 7:5
7:0 8:5 9:20 8:10 9:5 4:5 1:5 4:10 8:5 7:5 9:5
8:0 9:20 8:10 9:5 4:5 1:5 4:10 8:5 7:5 9:5 1:10
9:0 8:10 9:5 4:5 1:5 4:10 8:5 7:5 9:5 1:10 7:10
8:0 9:5 4:5 1:5 4:10 8:5 7:5 9:5 1:10 7:10 8:5
9:0 4:5 1:5 4:10 8:5 7:5 9:5 1:10 7:10 8:5 7:5
4:0 1:5 4:10 8:5 7:5 9:5 1:10 7:10 8:5 7:5 8:5
1:0 4:10 8:5 7:5 9:5 1:10 7:10 8:5 7:5 8:5 10:10
4:0 8:5 7:5 9:5 1:10 7:10 8:5 7:5 8:5 10:10 9:5
8:0 7:5 9:5 1:10 7:10 8:5 7:5 8:5 10:10 9:5 8:5
7:0 9:5 1:10 7:10 8:5 7:5 8:5 10:10 9:5 8:5 9:10
9:0 1:10 7:10 8:5 7:5 8:5 10:10 9:5 8:5 9:10 2:5
1:0 7:10 8:5 7:5 8:5 10:10 9:5 8:5 9:10 2:5 1:5
7:0 8:5 7:5 8:5 10:10 9:5 8:5 9:10 2:5 1:5 7:10
8:0 7:5 8:5 10:10 9:5 8:5 9:10 2:5 1:5 7:10 8:10
7:0 8:5 10:10 9:5 8:5 9:10 2:5 1:5 7:10 8:10 9:5
8:0 10:10 9:5 8:5 9:10 2:5 1:5 7:10 8:10 9:5 8:10
10:0 9:5 8:5 9:10 2:5 1:5 7:10 8:10 9:5 8:10 9:10
9:0 8:5 9:10 2:5 1:5 7:10 8:10 9:5 8:10 9:10 3:5
8:0 9:10 2:5 1:5 7:10 8:10 9:5 8:10 9:10 3:5 1:5
9:0 2:5 1:5 7:10 8:10 9:5 8:10 9:10 3:5 1:5 5:10
2:0 1:5 7:10 8:10 9:5 8:10 9:10 3:5 1:5 5:10 8:5
1:0 7:10 8:10 9:5 8:10 9:10 3:5 1:5 5:10 8:5 9:15
7:0 8:10 9:5 8:10 9:10 3:5 1:5 5:10 8:5 9:15 6:10
8:0 9:5 8:10 9:10 3:5 1:5 5:10 8:5 9:15 6:10 1:5
9:0 8:10 9:10 3:5 1:5 5:10 8:5 9:15 6:10 1:5 7:10
8:0 9:10 3:5 1:5 5:10 8:5 9:15 6:10 1:5 7:10 8:5
9:0 3:5 1:5 5:10 8:5 9:15 6:10 1:5 7:10 8:5 9:5
3:0 1:5 5:10 8:5 9:15 6:10 1:5 7:10 8:5 9:5 8:10
1:0 5:10 8:5 9:15 6:10 1:5 7:10 8:5 9:5 8:10 9:10
5:0 8:5 9:15 6:10 1:5 7:10 8:5 9:5 8:10 9:10 5:5
8:0 9:15 6:10 1:5 7:10 8:5 9:5 8:10 9:10 5:5 2:5
9:0 6:10 1:5 7:10 8:5 9:5 8:10 9:10 5:5 2:5 1:5
6:0 1:5 7:10 8:5 9:5 8:10 9:10 5:5 2:5 1:5 3:5
1:0 7:10 8:5 9:5 8:10 9:10 5:5 2:5 1:5 3:5 8:5
7:0 8:5 9:5 8:10 9:10 5:5 2:5 1:5 3:5 8:5 9:20
8:0 9:5 8:10 9:10 5:5 2:5 1:5 3:5 8:5 9:20 5:5
9:0 8:10 9:10 5:5 2:5 1:5 3:5 8:5 9:20 5:5 1:5
8:0 9:10 5:5 2:5 1:5 3:5 8:5 9:20 5:5 1:5 2:5
9:0 5:5 2:5 1:5 3:5 8:5 9:20 5:5 1:5 2:5 7:5
5:0 2:5 1:5 3:5 8:5 9:20 5:5 1:5 2:5 7:5 8:5
2:0 1:5 3:5 8:5 9:20 5:5 1:5 2:5 7:5 8:5 9:5
1:0 3:5 8:5 9:20 5:5 1:5 2:5 7:5 8:5 9:5 8:15
3:0 8:5 9:20 5:5 1:5 2:5 7:5 8:5 9:5 8:15 9:5
8:0 9:20 5:5 1:5 2:5 7:5 8:5 9:5 8:15 9:5 7:5
9:0 5:5 1:5 2:5 7:5 8:5 9:5 8:15 9:5 7:5 2:5
5:0 1:5 2:5 7:5 8:5 9:5 8:15 9:5 7:5 2:5 1:5
1:0 2:5 7:5 8:5 9:5 8:15 9:5 7:5 2:5 1:5 2:5
2:0 7:5 8:5 9:5 8:15 9:5 7:5 2:5 1:5 2:5 8:5
7:0 8:5 9:5 8:15 9:5 7:5 2:5 1:5 2:5 8:5 9:5
8:0 9:5 8:15 9:5 7:5 2:5 1:5 2:5 8:5 9:5 8:10
9:0 8:15 9:5 7:5 2:5 1:5 2:5 8:5 9:5 8:10 9:15
8:0 9:5 7:5 2:5 1:5 2:5 8:5 9:5 8:10 9:15 3:5
9:0 7:5 2:5 1:5 2:5 8:5 9:5 8:10 9:15 3:5 1:5
7:0 2:5 1:5 2:5 8:5 9:5 8:10 9:15 3:5 1:5 3:5
2:0 1:5 2:5 8:5 9:5 8:10 9:15 3:5 1:5 3:5 8:5
1:0 2:5 8:5 9:5 8:10 9:15 3:5 1:5 3:5 8:5 9:10
2:0 8:5 9:5 8:10 9:15 3:5 1:5 3:5 8:5 9:10 8:5
8:0 9:5 8:10 9:15 3:5 1:5 3:5 8:5 9:10 8:5 9:10
9:0 8:10 9:15 3:5 1:5 3:5 8:5 9:10 8:5 9:10 3:5
8:0 9:15 3:5 1:5 3:5 8:5 9:10 8:5 9:10 3:5 1:5
9:0 3:5 1:5 3:5 8:5 9:10 8:5 9:10 3:5 1:5 8:10
3:0 1:5 3:5 8:5 9:10 8:5 9:10 3:5 1:5 8:10 10:15
1:0 3:5 8:5 9:10 8:5 9:10 3:5 1:5 8:10 10:15 8:5
3:0 8:5 9:10 8:5 9:10 3:5 1:5 8:10 10:15 8:5 9:5
8:0 9:10 8:5 9:10 3:5 1:5 8:10 10:15 8:5 9:5 2:15
9:0 8:5 9:10 3:5 1:5 8:10 10:15 8:5 9:5 2:15 1:5
8:0 9:10 3:5 1:5 8:10 10:15 8:5 9:5 2:15 1:5 4:10
9:0 3:5 1:5 8:10 10:15 8:5 9:5 2:15 1:5 4:10 7:5
3:0 1:5 8:10 10:15 8:5 9:5 2:15 1:5 4:10 7:5 10:15
1:0 8:10 10:15 8:5 9:5 2:15 1:5 4:10 7:5 10:15 8:5
8:0 10:15 8:5 9:5 2:15 1:5 4:10 7:5 10:15 8:5 1:5
10:0 8:5 9:5 2:15 1:5 4:10 7:5 10:15 8:5 1:5 7:10
8:0 9:5 2:15 1:5 4:10 7:5 10:15 8:5 1:5 7:10 8:5
9:0 2:15 1:5 4:10 7:5 10:15 8:5 1:5 7:10 8:5 9:15
2:0 1:5 4:10 7:5 10:15 8:5 1:5 7:10 8:5 9:15 8:15
1:0 4:10 7:5 10:15 8:5 1:5 7:10 8:5 9:15 8:15 9:5
4:0 7:5 10:15 8:5 1:5 7:10 8:5 9:15 8:15 9:5 2:5
7:0 10:15 8:5 1:5 7:10 8:5 9:15 8:15 9:5 2:5 1:5
10:0 8:5 1:5 7:10 8:5 9:15 8:15 9:5 2:5 1:5 5:10
8:0 1:5 7:10 8:5 9:15 8:15 9:5 2:5 1:5 5:10 7:5
1:0 7:10 8:5 9:15 8:15 9:5 2:5 1:5 5:10 7:5 9:10
7:0 8:5 9:15 8:15 9:5 2:5 1:5 5:10 7:5 9:10 10:5
8:0 9:15 8:15 9:5 2:5 1:5 5:10 7:5 9:10 10:5 2:5
9:0 8:15 9:5 2:5 1:5 5:10 7:5 9:10 10:5 2:5 1:5
8:0 9:5 2:5 1:5 5:10 7:5 9:10 10:5 2:5 1:5 5:5
9:0 2:5 1:5 5:10 7:5 9:10 10:5 2:5 1:5 5:5 8:5
2:0 1:5 5:10 7:5 9:10 10:5 2:5 1:5 5:5 8:5 9:15
1:0 5:10 7:5 9:10 10:5 2:5 1:5 5:5 8:5 9:15 8:15
5:0 7:5 9:10 10:5 2:5 1:5 5:5 8:5 9:15 8:15 9:5
7:0 9:10 10:5 2:5 1:5 5:5 8:5 9:15 8:15 9:5 3:5
9:0 10:5 2:5 1:5 5:5 8:5 9:15 8:15 9:5 3:5 2:5
10:0 2:5 1:5 5:5 8:5 9:15 8:15 9:5 3:5 2:5 1:5
2:0 1:5 5:5 8:5 9:15 8:15 9:5 3:5 2:5 1:5 7:10
1:0 5:5 8:5 9:15 8:15 9:5 3:5 2:5 1:5 7:10 8:10
5:0 8:5 9:15 8:15 9:5 3:5 2:5 1:5 7:10 8:10 9:5
8:0 9:15 8:15 9:5 3:5 2:5 1:5 7:10 8:10 9:5 8:10
9:0 8:15 9:5 3:5 2:5 1:5 7:10 8:10 9:5 8:10
8:0 9:5 3:5 2:5 1:5 7:10 8:10 9:5 8:10
9:0 3:5 2:5 1:5 7:10 8:10 9:5 8:10
3:0 2:5 1:5 7:10 8:10 9:5 8:10
2:0 1:5 7:10 8:10 9:5 8:10
1:0 7:10 8:10 9:5 8:10
7:0 8:10 9:5 8:10
8:0 9:5 8:10
9:0 8:10
8:0