3:0 4:5 5:15 4:10 8:10 14:5 3:15 4:5 3:5 6:5 13:10
4:0 5:15 4:10 8:10 14:5 3:15 4:5 3:5 6:5 13:10 14:5
5:0 4:10 8:10 14:5 3:15 4:5 3:5 6:5 13:10 14:5 3:5
4:0 8:10 14:5 3:15 4:5 3:5 6:5 13:10 14:5 3:5 4:5
8:0 14:5 3:15 4:5 3:5 6:5 13:10 14:5 3:5 4:5 5:15
14:0 3:15 4:5 3:5 6:5 13:10 14:5 3:5 4:5 5:15 4:15
3:0 4:5 3:5 6:5 13:10 14:5 3:5 4:5 5:15 4:15 10:5
4:0 3:5 6:5 13:10 14:5 3:5 4:5 5:15 4:15 10:5 14:5
3:0 6:5 13:10 14:5 3:5 4:5 5:15 4:15 10:5 14:5 8:15
6:0 13:10 14:5 3:5 4:5 5:15 4:15 10:5 14:5 8:15 3:5
13:0 14:5 3:5 4:5 5:15 4:15 10:5 14:5 8:15 3:5 4:10
14:0 3:5 4:5 5:15 4:15 10:5 14:5 8:15 3:5 4:10 5:5
3:0 4:5 5:15 4:15 10:5 14:5 8:15 3:5 4:10 5:5 4:10
4:0 5:15 4:15 10:5 14:5 8:15 3:5 4:10 5:5 4:10 5:10
5:0 4:15 10:5 14:5 8:15 3:5 4:10 5:5 4:10 5:10 10:5
4:0 10:5 14:5 8:15 3:5 4:10 5:5 4:10 5:10 10:5 14:5
10:0 14:5 8:15 3:5 4:10 5:5 4:10 5:10 10:5 14:5 6:10
14:0 8:15 3:5 4:10 5:5 4:10 5:10 10:5 14:5 6:10 4:5
8:0 3:5 4:10 5:5 4:10 5:10 10:5 14:5 6:10 4:5 5:10
3:0 4:10 5:5 4:10 5:10 10:5 14:5 6:10 4:5 5:10 13:5
4:0 5:5 4:10 5:10 10:5 14:5 6:10 4:5 5:10 13:5 14:5
5:0 4:10 5:10 10:5 14:5 6:10 4:5 5:10 13:5 14:5 13:5
4:0 5:10 10:5 14:5 6:10 4:5 5:10 13:5 14:5 13:5 3:5
5:0 10:5 14:5 6:10 4:5 5:10 13:5 14:5 13:5 3:5 4:5
10:0 14:5 6:10 4:5 5:10 13:5 14:5 13:5 3:5 4:5 3:5
14:0 6:10 4:5 5:10 13:5 14:5 13:5 3:5 4:5 3:5 4:5
6:0 4:5 5:10 13:5 14:5 13:5 3:5 4:5 3:5 4:5 6:5
4:0 5:10 13:5 14:5 13:5 3:5 4:5 3:5 4:5 6:5 10:5
5:0 13:5 14:5 13:5 3:5 4:5 3:5 4:5 6:5 10:5 14:5
13:0 14:5 13:5 3:5 4:5 3:5 4:5 6:5 10:5 14:5 8:5
14:0 13:5 3:5 4:5 3:5 4:5 6:5 10:5 14:5 8:5 4:5
13:0 3:5 4:5 3:5 4:5 6:5 10:5 14:5 8:5 4:5 5:15
3:0 4:5 3:5 4:5 6:5 10:5 14:5 8:5 4:5 5:15 7:10
4:0 3:5 4:5 6:5 10:5 14:5 8:5 4:5 5:15 7:10 14:5
3:0 4:5 6:5 10:5 14:5 8:5 4:5 5:15 7:10 14:5 12:10
4:0 6:5 10:5 14:5 8:5 4:5 5:15 7:10 14:5 12:10 3:5
6:0 10:5 14:5 8:5 4:5 5:15 7:10 14:5 12:10 3:5 4:5
10:0 14:5 8:5 4:5 5:15 7:10 14:5 12:10 3:5 4:5 5:15
14:0 8:5 4:5 5:15 7:10 14:5 12:10 3:5 4:5 5:15 4:15
8:0 4:5 5:15 7:10 14:5 12:10 3:5 4:5 5:15 4:15 10:5
4:0 5:15 7:10 14:5 12:10 3:5 4:5 5:15 4:15 10:5 14:5
5:0 7:10 14:5 12:10 3:5 4:5 5:15 4:15 10:5 14:5 6:15
7:0 14:5 12:10 3:5 4:5 5:15 4:15 10:5 14:5 6:15 3:5
14:0 12:10 3:5 4:5 5:15 4:15 10:5 14:5 6:15 3:5 5:10
12:0 3:5 4:5 5:15 4:15 10:5 14:5 6:15 3:5 5:10 4:15
3:0 4:5 5:15 4:15 10:5 14:5 6:15 3:5 5:10 4:15 8:10
4:0 5:15 4:15 10:5 14:5 6:15 3:5 5:10 4:15 8:10 14:5
5:0 4:15 10:5 14:5 6:15 3:5 5:10 4:15 8:10 14:5 3:15
4:0 10:5 14:5 6:15 3:5 5:10 4:15 8:10 14:5 3:15 4:5
10:0 14:5 6:15 3:5 5:10 4:15 8:10 14:5 3:15 4:5 5:10
14:0 6:15 3:5 5:10 4:15 8:10 14:5 3:15 4:5 5:10 13:15
6:0 3:5 5:10 4:15 8:10 14:5 3:15 4:5 5:10 13:15 14:5
3:0 5:10 4:15 8:10 14:5 3:15 4:5 5:10 13:15 14:5 11:5
5:0 4:15 8:10 14:5 3:15 4:5 5:10 13:15 14:5 11:5 3:5
4:0 8:10 14:5 3:15 4:5 5:10 13:15 14:5 11:5 3:5 4:5
8:0 14:5 3:15 4:5 5:10 13:15 14:5 11:5 3:5 4:5 5:5
14:0 3:15 4:5 5:10 13:15 14:5 11:5 3:5 4:5 5:5 10:5
3:0 4:5 5:10 13:15 14:5 11:5 3:5 4:5 5:5 10:5 14:5
4:0 5:10 13:15 14:5 11:5 3:5 4:5 5:5 10:5 14:5 8:5
5:0 13:15 14:5 11:5 3:5 4:5 5:5 10:5 14:5 8:5 4:5
13:0 14:5 11:5 3:5 4:5 5:5 10:5 14:5 8:5 4:5 5:20
14:0 11:5 3:5 4:5 5:5 10:5 14:5 8:5 4:5 5:20 4:10
11:0 3:5 4:5 5:5 10:5 14:5 8:5 4:5 5:20 4:10 5:5
3:0 4:5 5:5 10:5 14:5 8:5 4:5 5:20 4:10 5:5 10:5
4:0 5:5 10:5 14:5 8:5 4:5 5:20 4:10 5:5 10:5 14:5
5:0 10:5 14:5 8:5 4:5 5:20 4:10 5:5 10:5 14:5 13:10
10:0 14:5 8:5 4:5 5:20 4:10 5:5 10:5 14:5 13:10 3:5
14:0 8:5 4:5 5:20 4:10 5:5 10:5 14:5 13:10 3:5 4:10
8:0 4:5 5:20 4:10 5:5 10:5 14:5 13:10 3:5 4:10 6:5
4:0 5:20 4:10 5:5 10:5 14:5 13:10 3:5 4:10 6:5 5:5
5:0 4:10 5:5 10:5 14:5 13:10 3:5 4:10 6:5 5:5 4:5
4:0 5:5 10:5 14:5 13:10 3:5 4:10 6:5 5:5 4:5 5:10
5:0 10:5 14:5 13:10 3:5 4:10 6:5 5:5 4:5 5:10 13:5
10:0 14:5 13:10 3:5 4:10 6:5 5:5 4:5 5:10 13:5 14:5
14:0 13:10 3:5 4:10 6:5 5:5 4:5 5:10 13:5 14:5 8:10
13:0 3:5 4:10 6:5 5:5 4:5 5:10 13:5 14:5 8:10 4:5
3:0 4:10 6:5 5:5 4:5 5:10 13:5 14:5 8:10 4:5 5:5
4:0 6:5 5:5 4:5 5:10 13:5 14:5 8:10 4:5 5:5 4:10
6:0 5:5 4:5 5:10 13:5 14:5 8:10 4:5 5:5 4:10 5:10
5:0 4:5 5:10 13:5 14:5 8:10 4:5 5:5 4:10 5:10 6:5
4:0 5:10 13:5 14:5 8:10 4:5 5:5 4:10 5:10 6:5 14:5
5:0 13:5 14:5 8:10 4:5 5:5 4:10 5:10 6:5 14:5 6:10
13:0 14:5 8:10 4:5 5:5 4:10 5:10 6:5 14:5 6:10 4:5
14:0 8:10 4:5 5:5 4:10 5:10 6:5 14:5 6:10 4:5 6:10
8:0 4:5 5:5 4:10 5:10 6:5 14:5 6:10 4:5 6:10 4:5
4:0 5:5 4:10 5:10 6:5 14:5 6:10 4:5 6:10 4:5 5:10
5:0 4:10 5:10 6:5 14:5 6:10 4:5 6:10 4:5 5:10 13:5
4:0 5:10 6:5 14:5 6:10 4:5 6:10 4:5 5:10 13:5 14:5
5:0 6:5 14:5 6:10 4:5 6:10 4:5 5:10 13:5 14:5 12:5
6:0 14:5 6:10 4:5 6:10 4:5 5:10 13:5 14:5 12:5 4:5
14:0 6:10 4:5 6:10 4:5 5:10 13:5 14:5 12:5 4:5 5:20
6:0 4:5 6:10 4:5 5:10 13:5 14:5 12:5 4:5 5:20 4:10
4:0 6:10 4:5 5:10 13:5 14:5 12:5 4:5 5:20 4:10 10:10
6:0 4:5 5:10 13:5 14:5 12:5 4:5 5:20 4:10 10:10 14:5
4:0 5:10 13:5 14:5 12:5 4:5 5:20 4:10 10:10 14:5 13:10
5:0 13:5 14:5 12:5 4:5 5:20 4:10 10:10 14:5 13:10 3:5
13:0 14:5 12:5 4:5 5:20 4:10 10:10 14:5 13:10 3:5 4:10
14:0 12:5 4:5 5:20 4:10 10:10 14:5 13:10 3:5 4:10 6:5
12:0 4:5 5:20 4:10 10:10 14:5 13:10 3:5 4:10 6:5 12:5
4:0 5:20 4:10 10:10 14:5 13:10 3:5 4:10 6:5 12:5 14:5
5:0 4:10 10:10 14:5 13:10 3:5 4:10 6:5 12:5 14:5 10:5
4:0 10:10 14:5 13:10 3:5 4:10 6:5 12:5 14:5 10:5 4:5
10:0 14:5 13:10 3:5 4:10 6:5 12:5 14:5 10:5 4:5 5:20
14:0 13:10 3:5 4:10 6:5 12:5 14:5 10:5 4:5 5:20 6:5
13:0 3:5 4:10 6:5 12:5 14:5 10:5 4:5 5:20 6:5 4:5
3:0 4:10 6:5 12:5 14:5 10:5 4:5 5:20 6:5 4:5 5:10
4:0 6:5 12:5 14:5 10:5 4:5 5:20 6:5 4:5 5:10 13:5
6:0 12:5 14:5 10:5 4:5 5:20 6:5 4:5 5:10 13:5 14:5
12:0 14:5 10:5 4:5 5:20 6:5 4:5 5:10 13:5 14:5 6:10
14:0 10:5 4:5 5:20 6:5 4:5 5:10 13:5 14:5 6:10 4:5
10:0 4:5 5:20 6:5 4:5 5:10 13:5 14:5 6:10 4:5 3:5
4:0 5:20 6:5 4:5 5:10 13:5 14:5 6:10 4:5 3:5 5:5
5:0 6:5 4:5 5:10 13:5 14:5 6:10 4:5 3:5 5:5 6:5
6:0 4:5 5:10 13:5 14:5 6:10 4:5 3:5 5:5 6:5 13:5
4:0 5:10 13:5 14:5 6:10 4:5 3:5 5:5 6:5 13:5 14:5
5:0 13:5 14:5 6:10 4:5 3:5 5:5 6:5 13:5 14:5 3:5
13:0 14:5 6:10 4:5 3:5 5:5 6:5 13:5 14:5 3:5 4:5
14:0 6:10 4:5 3:5 5:5 6:5 13:5 14:5 3:5 4:5 5:10
6:0 4:5 3:5 5:5 6:5 13:5 14:5 3:5 4:5 5:10 4:5
4:0 3:5 5:5 6:5 13:5 14:5 3:5 4:5 5:10 4:5 5:10
3:0 5:5 6:5 13:5 14:5 3:5 4:5 5:10 4:5 5:10 14:10
5:0 6:5 13:5 14:5 3:5 4:5 5:10 4:5 5:10 14:10 9:10
6:0 13:5 14:5 3:5 4:5 5:10 4:5 5:10 14:10 9:10 4:5
13:0 14:5 3:5 4:5 5:10 4:5 5:10 14:10 9:10 4:5 5:5
14:0 3:5 4:5 5:10 4:5 5:10 14:10 9:10 4:5 5:5 4:5
3:0 4:5 5:10 4:5 5:10 14:10 9:10 4:5 5:5 4:5 5:15
4:0 5:10 4:5 5:10 14:10 9:10 4:5 5:5 4:5 5:15 14:5
5:0 4:5 5:10 14:10 9:10 4:5 5:5 4:5 5:15 14:5 11:10
4:0 5:10 14:10 9:10 4:5 5:5 4:5 5:15 14:5 11:10 4:5
5:0 14:10 9:10 4:5 5:5 4:5 5:15 14:5 11:10 4:5 5:20
14:0 9:10 4:5 5:5 4:5 5:15 14:5 11:10 4:5 5:20 4:10
9:0 4:5 5:5 4:5 5:15 14:5 11:10 4:5 5:20 4:10 5:5
4:0 5:5 4:5 5:15 14:5 11:10 4:5 5:20 4:10 5:5 12:5
5:0 4:5 5:15 14:5 11:10 4:5 5:20 4:10 5:5 12:5 14:5
4:0 5:15 14:5 11:10 4:5 5:20 4:10 5:5 12:5 14:5 8:10
5:0 14:5 11:10 4:5 5:20 4:10 5:5 12:5 14:5 8:10 3:5
14:0 11:10 4:5 5:20 4:10 5:5 12:5 14:5 8:10 3:5 5:10
11:0 4:5 5:20 4:10 5:5 12:5 14:5 8:10 3:5 5:10 6:5
4:0 5:20 4:10 5:5 12:5 14:5 8:10 3:5 5:10 6:5 12:5
5:0 4:10 5:5 12:5 14:5 8:10 3:5 5:10 6:5 12:5 14:5
4:0 5:5 12:5 14:5 8:10 3:5 5:10 6:5 12:5 14:5 8:5
5:0 12:5 14:5 8:10 3:5 5:10 6:5 12:5 14:5 8:5 4:5
12:0 14:5 8:10 3:5 5:10 6:5 12:5 14:5 8:5 4:5 5:10
14:0 8:10 3:5 5:10 6:5 12:5 14:5 8:5 4:5 5:10 4:5
8:0 3:5 5:10 6:5 12:5 14:5 8:5 4:5 5:10 4:5 6:10
3:0 5:10 6:5 12:5 14:5 8:5 4:5 5:10 4:5 6:10 13:5
5:0 6:5 12:5 14:5 8:5 4:5 5:10 4:5 6:10 13:5 14:5
6:0 12:5 14:5 8:5 4:5 5:10 4:5 6:10 13:5 14:5 12:5
12:0 14:5 8:5 4:5 5:10 4:5 6:10 13:5 14:5 12:5 3:5
14:0 8:5 4:5 5:10 4:5 6:10 13:5 14:5 12:5 3:5 4:5
8:0 4:5 5:10 4:5 6:10 13:5 14:5 12:5 3:5 4:5 5:15
4:0 5:10 4:5 6:10 13:5 14:5 12:5 3:5 4:5 5:15 4:15
5:0 4:5 6:10 13:5 14:5 12:5 3:5 4:5 5:15 4:15 10:5
4:0 6:10 13:5 14:5 12:5 3:5 4:5 5:15 4:15 10:5 14:5
6:0 13:5 14:5 12:5 3:5 4:5 5:15 4:15 10:5 14:5 3:15
13:0 14:5 12:5 3:5 4:5 5:15 4:15 10:5 14:5 3:15 5:15
14:0 12:5 3:5 4:5 5:15 4:15 10:5 14:5 3:15 5:15 10:10
12:0 3:5 4:5 5:15 4:15 10:5 14:5 3:15 5:15 10:10 14:5
3:0 4:5 5:15 4:15 10:5 14:5 3:15 5:15 10:10 14:5 8:5
4:0 5:15 4:15 10:5 14:5 3:15 5:15 10:10 14:5 8:5 4:5
5:0 4:15 10:5 14:5 3:15 5:15 10:10 14:5 8:5 4:5 6:10
4:0 10:5 14:5 3:15 5:15 10:10 14:5 8:5 4:5 6:10 12:5
10:0 14:5 3:15 5:15 10:10 14:5 8:5 4:5 6:10 12:5 14:5
14:0 3:15 5:15 10:10 14:5 8:5 4:5 6:10 12:5 14:5 13:5
3:0 5:15 10:10 14:5 8:5 4:5 6:10 12:5 14:5 13:5 3:5
5:0 10:10 14:5 8:5 4:5 6:10 12:5 14:5 13:5 3:5 4:5
10:0 14:5 8:5 4:5 6:10 12:5 14:5 13:5 3:5 4:5 3:5
14:0 8:5 4:5 6:10 12:5 14:5 13:5 3:5 4:5 3:5 4:5
8:0 4:5 6:10 12:5 14:5 13:5 3:5 4:5 3:5 4:5 6:5
4:0 6:10 12:5 14:5 13:5 3:5 4:5 3:5 4:5 6:5 12:5
6:0 12:5 14:5 13:5 3:5 4:5 3:5 4:5 6:5 12:5 14:5
12:0 14:5 13:5 3:5 4:5 3:5 4:5 6:5 12:5 14:5 8:5
14:0 13:5 3:5 4:5 3:5 4:5 6:5 12:5 14:5 8:5 4:5
13:0 3:5 4:5 3:5 4:5 6:5 12:5 14:5 8:5 4:5 5:20
3:0 4:5 3:5 4:5 6:5 12:5 14:5 8:5 4:5 5:20 4:10
4:0 3:5 4:5 6:5 12:5 14:5 8:5 4:5 5:20 4:10 10:10
3:0 4:5 6:5 12:5 14:5 8:5 4:5 5:20 4:10 10:10 14:5
4:0 6:5 12:5 14:5 8:5 4:5 5:20 4:10 10:10 14:5 13:10
6:0 12:5 14:5 8:5 4:5 5:20 4:10 10:10 14:5 13:10 3:5
12:0 14:5 8:5 4:5 5:20 4:10 10:10 14:5 13:10 3:5 4:10
14:0 8:5 4:5 5:20 4:10 10:10 14:5 13:10 3:5 4:10 5:5
8:0 4:5 5:20 4:10 10:10 14:5 13:10 3:5 4:10 5:5 6:5
4:0 5:20 4:10 10:10 14:5 13:10 3:5 4:10 5:5 6:5 4:5
5:0 4:10 10:10 14:5 13:10 3:5 4:10 5:5 6:5 4:5 11:15
4:0 10:10 14:5 13:10 3:5 4:10 5:5 6:5 4:5 11:15 14:5
10:0 14:5 13:10 3:5 4:10 5:5 6:5 4:5 11:15 14:5 10:10
14:0 13:10 3:5 4:10 5:5 6:5 4:5 11:15 14:5 10:10 4:5
13:0 3:5 4:10 5:5 6:5 4:5 11:15 14:5 10:10 4:5 5:10
3:0 4:10 5:5 6:5 4:5 11:15 14:5 10:10 4:5 5:10 4:5
4:0 5:5 6:5 4:5 11:15 14:5 10:10 4:5 5:10 4:5 5:10
5:0 6:5 4:5 11:15 14:5 10:10 4:5 5:10 4:5 5:10 13:5
6:0 4:5 11:15 14:5 10:10 4:5 5:10 4:5 5:10 13:5 14:5
4:0 11:15 14:5 10:10 4:5 5:10 4:5 5:10 13:5 14:5 3:10
11:0 14:5 10:10 4:5 5:10 4:5 5:10 13:5 14:5 3:10 4:5
14:0 10:10 4:5 5:10 4:5 5:10 13:5 14:5 3:10 4:5 5:15
10:0 4:5 5:10 4:5 5:10 13:5 14:5 3:10 4:5 5:15 4:15
4:0 5:10 4:5 5:10 13:5 14:5 3:10 4:5 5:15 4:15 10:5
5:0 4:5 5:10 13:5 14:5 3:10 4:5 5:15 4:15 10:5 14:5
4:0 5:10 13:5 14:5 3:10 4:5 5:15 4:15 10:5 14:5 3:15
5:0 13:5 14:5 3:10 4:5 5:15 4:15 10:5 14:5 3:15 4:5
13:0 14:5 3:10 4:5 5:15 4:15 10:5 14:5 3:15 4:5 3:5
14:0 3:10 4:5 5:15 4:15 10:5 14:5 3:15 4:5 3:5 4:5
3:0 4:5 5:15 4:15 10:5 14:5 3:15 4:5 3:5 4:5 6:5
4:0 5:15 4:15 10:5 14:5 3:15 4:5 3:5 4:5 6:5 5:5
5:0 4:15 10:5 14:5 3:15 4:5 3:5 4:5 6:5 5:5 4:5
4:0 10:5 14:5 3:15 4:5 3:5 4:5 6:5 5:5 4:5 5:10
10:0 14:5 3:15 4:5 3:5 4:5 6:5 5:5 4:5 5:10 13:5
14:0 3:15 4:5 3:5 4:5 6:5 5:5 4:5 5:10 13:5 14:5
3:0 4:5 3:5 4:5 6:5 5:5 4:5 5:10 13:5 14:5 8:10
4:0 3:5 4:5 6:5 5:5 4:5 5:10 13:5 14:5 8:10 4:5
3:0 4:5 6:5 5:5 4:5 5:10 13:5 14:5 8:10 4:5 5:15
4:0 6:5 5:5 4:5 5:10 13:5 14:5 8:10 4:5 5:15 12:10
6:0 5:5 4:5 5:10 13:5 14:5 8:10 4:5 5:15 12:10 14:5
5:0 4:5 5:10 13:5 14:5 8:10 4:5 5:15 12:10 14:5 12:5
4:0 5:10 13:5 14:5 8:10 4:5 5:15 12:10 14:5 12:5 3:5
5:0 13:5 14:5 8:10 4:5 5:15 12:10 14:5 12:5 3:5 4:5
13:0 14:5 8:10 4:5 5:15 12:10 14:5 12:5 3:5 4:5 5:10
14:0 8:10 4:5 5:15 12:10 14:5 12:5 3:5 4:5 5:10 4:5
8:0 4:5 5:15 12:10 14:5 12:5 3:5 4:5 5:10 4:5 6:15
4:0 5:15 12:10 14:5 12:5 3:5 4:5 5:10 4:5 6:15 13:5
5:0 12:10 14:5 12:5 3:5 4:5 5:10 4:5 6:15 13:5 14:5
12:0 14:5 12:5 3:5 4:5 5:10 4:5 6:15 13:5 14:5 8:5
14:0 12:5 3:5 4:5 5:10 4:5 6:15 13:5 14:5 8:5 4:5
12:0 3:5 4:5 5:10 4:5 6:15 13:5 14:5 8:5 4:5 5:15
3:0 4:5 5:10 4:5 6:15 13:5 14:5 8:5 4:5 5:15 4:15
4:0 5:10 4:5 6:15 13:5 14:5 8:5 4:5 5:15 4:15 5:5
5:0 4:5 6:15 13:5 14:5 8:5 4:5 5:15 4:15 5:5 12:5
4:0 6:15 13:5 14:5 8:5 4:5 5:15 4:15 5:5 12:5 14:5
6:0 13:5 14:5 8:5 4:5 5:15 4:15 5:5 12:5 14:5 13:10
13:0 14:5 8:5 4:5 5:15 4:15 5:5 12:5 14:5 13:10 3:5
14:0 8:5 4:5 5:15 4:15 5:5 12:5 14:5 13:10 3:5 4:10
8:0 4:5 5:15 4:15 5:5 12:5 14:5 13:10 3:5 4:10 5:5
4:0 5:15 4:15 5:5 12:5 14:5 13:10 3:5 4:10 5:5 6:5
5:0 4:15 5:5 12:5 14:5 13:10 3:5 4:10 5:5 6:5 14:5
4:0 5:5 12:5 14:5 13:10 3:5 4:10 5:5 6:5 14:5 13:5
5:0 12:5 14:5 13:10 3:5 4:10 5:5 6:5 14:5 13:5 4:5
12:0 14:5 13:10 3:5 4:10 5:5 6:5 14:5 13:5 4:5 5:5
14:0 13:10 3:5 4:10 5:5 6:5 14:5 13:5 4:5 5:5 4:10
13:0 3:5 4:10 5:5 6:5 14:5 13:5 4:5 5:5 4:10 5:10
3:0 4:10 5:5 6:5 14:5 13:5 4:5 5:5 4:10 5:10 8:5
4:0 5:5 6:5 14:5 13:5 4:5 5:5 4:10 5:10 8:5 14:5
5:0 6:5 14:5 13:5 4:5 5:5 4:10 5:10 8:5 14:5 5:10
6:0 14:5 13:5 4:5 5:5 4:10 5:10 8:5 14:5 5:10 4:5
14:0 13:5 4:5 5:5 4:10 5:10 8:5 14:5 5:10 4:5 6:20
13:0 4:5 5:5 4:10 5:10 8:5 14:5 5:10 4:5 6:20 5:5
4:0 5:5 4:10 5:10 8:5 14:5 5:10 4:5 6:20 5:5 4:5
5:0 4:10 5:10 8:5 14:5 5:10 4:5 6:20 5:5 4:5 5:5
4:0 5:10 8:5 14:5 5:10 4:5 6:20 5:5 4:5 5:5 14:5
5:0 8:5 14:5 5:10 4:5 6:20 5:5 4:5 5:5 14:5 8:15
8:0 14:5 5:10 4:5 6:20 5:5 4:5 5:5 14:5 8:15 4:5
14:0 5:10 4:5 6:20 5:5 4:5 5:5 14:5 8:15 4:5 3:5
5:0 4:5 6:20 5:5 4:5 5:5 14:5 8:15 4:5 3:5 4:5
4:0 6:20 5:5 4:5 5:5 14:5 8:15 4:5 3:5 4:5 6:5
6:0 5:5 4:5 5:5 14:5 8:15 4:5 3:5 4:5 6:5 5:5
5:0 4:5 5:5 14:5 8:15 4:5 3:5 4:5 6:5 5:5 4:5
4:0 5:5 14:5 8:15 4:5 3:5 4:5 6:5 5:5 4:5 5:10
5:0 14:5 8:15 4:5 3:5 4:5 6:5 5:5 4:5 5:10 13:5
14:0 8:15 4:5 3:5 4:5 6:5 5:5 4:5 5:10 13:5 14:5
8:0 4:5 3:5 4:5 6:5 5:5 4:5 5:10 13:5 14:5 6:10
4:0 3:5 4:5 6:5 5:5 4:5 5:10 13:5 14:5 6:10 4:5
3:0 4:5 6:5 5:5 4:5 5:10 13:5 14:5 6:10 4:5 5:5
4:0 6:5 5:5 4:5 5:10 13:5 14:5 6:10 4:5 5:5 4:10
6:0 5:5 4:5 5:10 13:5 14:5 6:10 4:5 5:5 4:10 5:10
5:0 4:5 5:10 13:5 14:5 6:10 4:5 5:5 4:10 5:10 10:5
4:0 5:10 13:5 14:5 6:10 4:5 5:5 4:10 5:10 10:5 14:5
5:0 13:5 14:5 6:10 4:5 5:5 4:10 5:10 10:5 14:5 4:10
13:0 14:5 6:10 4:5 5:5 4:10 5:10 10:5 14:5 4:10 5:20
14:0 6:10 4:5 5:5 4:10 5:10 10:5 14:5 4:10 5:20 4:15
6:0 4:5 5:5 4:10 5:10 10:5 14:5 4:10 5:20 4:15 10:5
4:0 5:5 4:10 5:10 10:5 14:5 4:10 5:20 4:15 10:5 14:5
5:0 4:10 5:10 10:5 14:5 4:10 5:20 4:15 10:5 14:5 6:15
4:0 5:10 10:5 14:5 4:10 5:20 4:15 10:5 14:5 6:15 3:5
5:0 10:5 14:5 4:10 5:20 4:15 10:5 14:5 6:15 3:5 5:10
10:0 14:5 4:10 5:20 4:15 10:5 14:5 6:15 3:5 5:10 6:5
14:0 4:10 5:20 4:15 10:5 14:5 6:15 3:5 5:10 6:5 13:5
4:0 5:20 4:15 10:5 14:5 6:15 3:5 5:10 6:5 13:5 14:5
5:0 4:15 10:5 14:5 6:15 3:5 5:10 6:5 13:5 14:5 3:5
4:0 10:5 14:5 6:15 3:5 5:10 6:5 13:5 14:5 3:5 4:5
10:0 14:5 6:15 3:5 5:10 6:5 13:5 14:5 3:5 4:5 5:15
14:0 6:15 3:5 5:10 6:5 13:5 14:5 3:5 4:5 5:15 12:10
6:0 3:5 5:10 6:5 13:5 14:5 3:5 4:5 5:15 12:10 14:5
3:0 5:10 6:5 13:5 14:5 3:5 4:5 5:15 12:10 14:5 11:5
5:0 6:5 13:5 14:5 3:5 4:5 5:15 12:10 14:5 11:5 3:5
6:0 13:5 14:5 3:5 4:5 5:15 12:10 14:5 11:5 3:5 4:5
13:0 14:5 3:5 4:5 5:15 12:10 14:5 11:5 3:5 4:5 5:5
14:0 3:5 4:5 5:15 12:10 14:5 11:5 3:5 4:5 5:5 6:5
3:0 4:5 5:15 12:10 14:5 11:5 3:5 4:5 5:5 6:5 4:5
4:0 5:15 12:10 14:5 11:5 3:5 4:5 5:5 6:5 4:5 5:10
5:0 12:10 14:5 11:5 3:5 4:5 5:5 6:5 4:5 5:10 12:5
12:0 14:5 11:5 3:5 4:5 5:5 6:5 4:5 5:10 12:5 14:5
14:0 11:5 3:5 4:5 5:5 6:5 4:5 5:10 12:5 14:5 8:10
11:0 3:5 4:5 5:5 6:5 4:5 5:10 12:5 14:5 8:10 4:5
3:0 4:5 5:5 6:5 4:5 5:10 12:5 14:5 8:10 4:5 5:10
4:0 5:5 6:5 4:5 5:10 12:5 14:5 8:10 4:5 5:10 4:5
5:0 6:5 4:5 5:10 12:5 14:5 8:10 4:5 5:10 4:5 6:10
6:0 4:5 5:10 12:5 14:5 8:10 4:5 5:10 4:5 6:10 13:5
4:0 5:10 12:5 14:5 8:10 4:5 5:10 4:5 6:10 13:5 14:5
5:0 12:5 14:5 8:10 4:5 5:10 4:5 6:10 13:5 14:5 13:5
12:0 14:5 8:10 4:5 5:10 4:5 6:10 13:5 14:5 13:5 3:5
14:0 8:10 4:5 5:10 4:5 6:10 13:5 14:5 13:5 3:5 4:5
8:0 4:5 5:10 4:5 6:10 13:5 14:5 13:5 3:5 4:5 5:5
4:0 5:10 4:5 6:10 13:5 14:5 13:5 3:5 4:5 5:5 4:10
5:0 4:5 6:10 13:5 14:5 13:5 3:5 4:5 5:5 4:10 5:10
4:0 6:10 13:5 14:5 13:5 3:5 4:5 5:5 4:10 5:10 14:5
6:0 13:5 14:5 13:5 3:5 4:5 5:5 4:10 5:10 14:5 12:10
13:0 14:5 13:5 3:5 4:5 5:5 4:10 5:10 14:5 12:10 4:5
14:0 13:5 3:5 4:5 5:5 4:10 5:10 14:5 12:10 4:5 5:5
13:0 3:5 4:5 5:5 4:10 5:10 14:5 12:10 4:5 5:5 4:10
3:0 4:5 5:5 4:10 5:10 14:5 12:10 4:5 5:5 4:10 8:15
4:0 5:5 4:10 5:10 14:5 12:10 4:5 5:5 4:10 8:15 14:5
5:0 4:10 5:10 14:5 12:10 4:5 5:5 4:10 8:15 14:5 8:10
4:0 5:10 14:5 12:10 4:5 5:5 4:10 8:15 14:5 8:10 4:5
5:0 14:5 12:10 4:5 5:5 4:10 8:15 14:5 8:10 4:5 5:15
14:0 12:10 4:5 5:5 4:10 8:15 14:5 8:10 4:5 5:15 4:15
12:0 4:5 5:5 4:10 8:15 14:5 8:10 4:5 5:15 4:15 8:5
4:0 5:5 4:10 8:15 14:5 8:10 4:5 5:15 4:15 8:5 14:5
5:0 4:10 8:15 14:5 8:10 4:5 5:15 4:15 8:5 14:5 3:15
4:0 8:15 14:5 8:10 4:5 5:15 4:15 8:5 14:5 3:15 4:5
8:0 14:5 8:10 4:5 5:15 4:15 8:5 14:5 3:15 4:5 3:5
14:0 8:10 4:5 5:15 4:15 8:5 14:5 3:15 4:5 3:5 4:5
8:0 4:5 5:15 4:15 8:5 14:5 3:15 4:5 3:5 4:5 6:5
4:0 5:15 4:15 8:5 14:5 3:15 4:5 3:5 4:5 6:5 12:5
5:0 4:15 8:5 14:5 3:15 4:5 3:5 4:5 6:5 12:5 14:5
4:0 8:5 14:5 3:15 4:5 3:5 4:5 6:5 12:5 14:5 8:5
8:0 14:5 3:15 4:5 3:5 4:5 6:5 12:5 14:5 8:5 4:5
14:0 3:15 4:5 3:5 4:5 6:5 12:5 14:5 8:5 4:5 6:10
3:0 4:5 3:5 4:5 6:5 12:5 14:5 8:5 4:5 6:10 4:5
4:0 3:5 4:5 6:5 12:5 14:5 8:5 4:5 6:10 4:5 6:10
3:0 4:5 6:5 12:5 14:5 8:5 4:5 6:10 4:5 6:10 14:5
4:0 6:5 12:5 14:5 8:5 4:5 6:10 4:5 6:10 14:5 12:10
6:0 12:5 14:5 8:5 4:5 6:10 4:5 6:10 14:5 12:10 4:5
12:0 14:5 8:5 4:5 6:10 4:5 6:10 14:5 12:10 4:5 5:20
14:0 8:5 4:5 6:10 4:5 6:10 14:5 12:10 4:5 5:20 4:15
8:0 4:5 6:10 4:5 6:10 14:5 12:10 4:5 5:20 4:15 5:5
4:0 6:10 4:5 6:10 14:5 12:10 4:5 5:20 4:15 5:5 14:5
6:0 4:5 6:10 14:5 12:10 4:5 5:20 4:15 5:5 14:5 6:15
4:0 6:10 14:5 12:10 4:5 5:20 4:15 5:5 14:5 6:15 3:5
6:0 14:5 12:10 4:5 5:20 4:15 5:5 14:5 6:15 3:5 4:10
14:0 12:10 4:5 5:20 4:15 5:5 14:5 6:15 3:5 4:10 6:5
12:0 4:5 5:20 4:15 5:5 14:5 6:15 3:5 4:10 6:5 5:5
4:0 5:20 4:15 5:5 14:5 6:15 3:5 4:10 6:5 5:5 4:5
5:0 4:15 5:5 14:5 6:15 3:5 4:10 6:5 5:5 4:5 6:10
4:0 5:5 14:5 6:15 3:5 4:10 6:5 5:5 4:5 6:10 14:5
5:0 14:5 6:15 3:5 4:10 6:5 5:5 4:5 6:10 14:5 6:15
14:0 6:15 3:5 4:10 6:5 5:5 4:5 6:10 14:5 6:15 4:5
6:0 3:5 4:10 6:5 5:5 4:5 6:10 14:5 6:15 4:5 5:5
3:0 4:10 6:5 5:5 4:5 6:10 14:5 6:15 4:5 5:5 4:10
4:0 6:5 5:5 4:5 6:10 14:5 6:15 4:5 5:5 4:10 11:10
6:0 5:5 4:5 6:10 14:5 6:15 4:5 5:5 4:10 11:10 14:5
5:0 4:5 6:10 14:5 6:15 4:5 5:5 4:10 11:10 14:5 8:10
4:0 6:10 14:5 6:15 4:5 5:5 4:10 11:10 14:5 8:10 4:5
6:0 14:5 6:15 4:5 5:5 4:10 11:10 14:5 8:10 4:5 5:20
14:0 6:15 4:5 5:5 4:10 11:10 14:5 8:10 4:5 5:20 4:10
6:0 4:5 5:5 4:10 11:10 14:5 8:10 4:5 5:20 4:10 8:10
4:0 5:5 4:10 11:10 14:5 8:10 4:5 5:20 4:10 8:10 14:5
5:0 4:10 11:10 14:5 8:10 4:5 5:20 4:10 8:10 14:5 3:15
4:0 11:10 14:5 8:10 4:5 5:20 4:10 8:10 14:5 3:15 4:10
11:0 14:5 8:10 4:5 5:20 4:10 8:10 14:5 3:15 4:10 5:5
14:0 8:10 4:5 5:20 4:10 8:10 14:5 3:15 4:10 5:5 4:15
8:0 4:5 5:20 4:10 8:10 14:5 3:15 4:10 5:5 4:15 8:10
4:0 5:20 4:10 8:10 14:5 3:15 4:10 5:5 4:15 8:10 14:5
5:0 4:10 8:10 14:5 3:15 4:10 5:5 4:15 8:10 14:5 13:10
4:0 8:10 14:5 3:15 4:10 5:5 4:15 8:10 14:5 13:10 4:5
8:0 14:5 3:15 4:10 5:5 4:15 8:10 14:5 13:10 4:5 5:10
14:0 3:15 4:10 5:5 4:15 8:10 14:5 13:10 4:5 5:10 4:5
3:0 4:10 5:5 4:15 8:10 14:5 13:10 4:5 5:10 4:5 5:10
4:0 5:5 4:15 8:10 14:5 13:10 4:5 5:10 4:5 5:10 13:5
5:0 4:15 8:10 14:5 13:10 4:5 5:10 4:5 5:10 13:5 14:5
4:0 8:10 14:5 13:10 4:5 5:10 4:5 5:10 13:5 14:5 3:10
8:0 14:5 13:10 4:5 5:10 4:5 5:10 13:5 14:5 3:10 4:5
14:0 13:10 4:5 5:10 4:5 5:10 13:5 14:5 3:10 4:5 5:20
13:0 4:5 5:10 4:5 5:10 13:5 14:5 3:10 4:5 5:20 14:15
4:0 5:10 4:5 5:10 13:5 14:5 3:10 4:5 5:20 14:15 11:10
5:0 4:5 5:10 13:5 14:5 3:10 4:5 5:20 14:15 11:10 4:5
4:0 5:10 13:5 14:5 3:10 4:5 5:20 14:15 11:10 4:5 5:15
5:0 13:5 14:5 3:10 4:5 5:20 14:15 11:10 4:5 5:15 4:10
13:0 14:5 3:10 4:5 5:20 14:15 11:10 4:5 5:15 4:10 5:10
14:0 3:10 4:5 5:20 14:15 11:10 4:5 5:15 4:10 5:10 14:5
3:0 4:5 5:20 14:15 11:10 4:5 5:15 4:10 5:10 14:5 6:15
4:0 5:20 14:15 11:10 4:5 5:15 4:10 5:10 14:5 6:15 3:5
5:0 14:15 11:10 4:5 5:15 4:10 5:10 14:5 6:15 3:5 5:10
14:0 11:10 4:5 5:15 4:10 5:10 14:5 6:15 3:5 5:10 12:10
11:0 4:5 5:15 4:10 5:10 14:5 6:15 3:5 5:10 12:10 14:5
4:0 5:15 4:10 5:10 14:5 6:15 3:5 5:10 12:10 14:5 6:5
5:0 4:10 5:10 14:5 6:15 3:5 5:10 12:10 14:5 6:5 4:5
4:0 5:10 14:5 6:15 3:5 5:10 12:10 14:5 6:5 4:5 5:5
5:0 14:5 6:15 3:5 5:10 12:10 14:5 6:5 4:5 5:5 4:10
14:0 6:15 3:5 5:10 12:10 14:5 6:5 4:5 5:5 4:10 5:10
6:0 3:5 5:10 12:10 14:5 6:5 4:5 5:5 4:10 5:10 12:5
3:0 5:10 12:10 14:5 6:5 4:5 5:5 4:10 5:10 12:5 14:5
5:0 12:10 14:5 6:5 4:5 5:5 4:10 5:10 12:5 14:5 11:5
12:0 14:5 6:5 4:5 5:5 4:10 5:10 12:5 14:5 11:5 4:5
14:0 6:5 4:5 5:5 4:10 5:10 12:5 14:5 11:5 4:5 5:10
6:0 4:5 5:5 4:10 5:10 12:5 14:5 11:5 4:5 5:10 4:5
4:0 5:5 4:10 5:10 12:5 14:5 11:5 4:5 5:10 4:5 5:10
5:0 4:10 5:10 12:5 14:5 11:5 4:5 5:10 4:5 5:10 14:10
4:0 5:10 12:5 14:5 11:5 4:5 5:10 4:5 5:10 14:10 11:10
5:0 12:5 14:5 11:5 4:5 5:10 4:5 5:10 14:10 11:10 4:5
12:0 14:5 11:5 4:5 5:10 4:5 5:10 14:10 11:10 4:5 5:10
14:0 11:5 4:5 5:10 4:5 5:10 14:10 11:10 4:5 5:10 4:5
11:0 4:5 5:10 4:5 5:10 14:10 11:10 4:5 5:10 4:5 5:10
4:0 5:10 4:5 5:10 14:10 11:10 4:5 5:10 4:5 5:10 10:5
5:0 4:5 5:10 14:10 11:10 4:5 5:10 4:5 5:10 10:5 14:5
4:0 5:10 14:10 11:10 4:5 5:10 4:5 5:10 10:5 14:5 4:10
5:0 14:10 11:10 4:5 5:10 4:5 5:10 10:5 14:5 4:10 5:15
14:0 11:10 4:5 5:10 4:5 5:10 10:5 14:5 4:10 5:15 7:10
11:0 4:5 5:10 4:5 5:10 10:5 14:5 4:10 5:15 7:10 14:5
4:0 5:10 4:5 5:10 10:5 14:5 4:10 5:15 7:10 14:5 8:10
5:0 4:5 5:10 10:5 14:5 4:10 5:15 7:10 14:5 8:10 3:5
4:0 5:10 10:5 14:5 4:10 5:15 7:10 14:5 8:10 3:5 4:5
5:0 10:5 14:5 4:10 5:15 7:10 14:5 8:10 3:5 4:5 5:5
10:0 14:5 4:10 5:15 7:10 14:5 8:10 3:5 4:5 5:5 4:10
14:0 4:10 5:15 7:10 14:5 8:10 3:5 4:5 5:5 4:10 5:10
4:0 5:15 7:10 14:5 8:10 3:5 4:5 5:5 4:10 5:10 13:5
5:0 7:10 14:5 8:10 3:5 4:5 5:5 4:10 5:10 13:5 14:5
7:0 14:5 8:10 3:5 4:5 5:5 4:10 5:10 13:5 14:5 3:10
14:0 8:10 3:5 4:5 5:5 4:10 5:10 13:5 14:5 3:10 4:5
8:0 3:5 4:5 5:5 4:10 5:10 13:5 14:5 3:10 4:5 5:15
3:0 4:5 5:5 4:10 5:10 13:5 14:5 3:10 4:5 5:15 4:15
4:0 5:5 4:10 5:10 13:5 14:5 3:10 4:5 5:15 4:15 5:5
5:0 4:10 5:10 13:5 14:5 3:10 4:5 5:15 4:15 5:5 12:5
4:0 5:10 13:5 14:5 3:10 4:5 5:15 4:15 5:5 12:5 14:5
5:0 13:5 14:5 3:10 4:5 5:15 4:15 5:5 12:5 14:5 13:10
13:0 14:5 3:10 4:5 5:15 4:15 5:5 12:5 14:5 13:10 4:5
14:0 3:10 4:5 5:15 4:15 5:5 12:5 14:5 13:10 4:5 3:5
3:0 4:5 5:15 4:15 5:5 12:5 14:5 13:10 4:5 3:5 4:5
4:0 5:15 4:15 5:5 12:5 14:5 13:10 4:5 3:5 4:5 6:5
5:0 4:15 5:5 12:5 14:5 13:10 4:5 3:5 4:5 6:5 12:5
4:0 5:5 12:5 14:5 13:10 4:5 3:5 4:5 6:5 12:5 14:5
5:0 12:5 14:5 13:10 4:5 3:5 4:5 6:5 12:5 14:5 8:5
12:0 14:5 13:10 4:5 3:5 4:5 6:5 12:5 14:5 8:5 4:5
14:0 13:10 4:5 3:5 4:5 6:5 12:5 14:5 8:5 4:5 5:5
13:0 4:5 3:5 4:5 6:5 12:5 14:5 8:5 4:5 5:5 4:10
4:0 3:5 4:5 6:5 12:5 14:5 8:5 4:5 5:5 4:10 5:10
3:0 4:5 6:5 12:5 14:5 8:5 4:5 5:5 4:10 5:10 10:5
4:0 6:5 12:5 14:5 8:5 4:5 5:5 4:10 5:10 10:5 14:5
6:0 12:5 14:5 8:5 4:5 5:5 4:10 5:10 10:5 14:5 4:10
12:0 14:5 8:5 4:5 5:5 4:10 5:10 10:5 14:5 4:10 5:20
14:0 8:5 4:5 5:5 4:10 5:10 10:5 14:5 4:10 5:20 4:15
8:0 4:5 5:5 4:10 5:10 10:5 14:5 4:10 5:20 4:15 5:5
4:0 5:5 4:10 5:10 10:5 14:5 4:10 5:20 4:15 5:5 14:5
5:0 4:10 5:10 10:5 14:5 4:10 5:20 4:15 5:5 14:5 3:15
4:0 5:10 10:5 14:5 4:10 5:20 4:15 5:5 14:5 3:15 4:5
5:0 10:5 14:5 4:10 5:20 4:15 5:5 14:5 3:15 4:5 3:5
10:0 14:5 4:10 5:20 4:15 5:5 14:5 3:15 4:5 3:5 5:5
14:0 4:10 5:20 4:15 5:5 14:5 3:15 4:5 3:5 5:5 6:5
4:0 5:20 4:15 5:5 14:5 3:15 4:5 3:5 5:5 6:5 14:5
5:0 4:15 5:5 14:5 3:15 4:5 3:5 5:5 6:5 14:5 3:10
4:0 5:5 14:5 3:15 4:5 3:5 5:5 6:5 14:5 3:10 4:5
5:0 14:5 3:15 4:5 3:5 5:5 6:5 14:5 3:10 4:5 5:15
14:0 3:15 4:5 3:5 5:5 6:5 14:5 3:10 4:5 5:15 13:10
3:0 4:5 3:5 5:5 6:5 14:5 3:10 4:5 5:15 13:10 14:5
4:0 3:5 5:5 6:5 14:5 3:10 4:5 5:15 13:10 14:5 11:5
3:0 5:5 6:5 14:5 3:10 4:5 5:15 13:10 14:5 11:5 3:5
5:0 6:5 14:5 3:10 4:5 5:15 13:10 14:5 11:5 3:5 4:5
6:0 14:5 3:10 4:5 5:15 13:10 14:5 11:5 3:5 4:5 5:5
14:0 3:10 4:5 5:15 13:10 14:5 11:5 3:5 4:5 5:5 4:10
3:0 4:5 5:15 13:10 14:5 11:5 3:5 4:5 5:5 4:10 5:10
4:0 5:15 13:10 14:5 11:5 3:5 4:5 5:5 4:10 5:10 12:5
5:0 13:10 14:5 11:5 3:5 4:5 5:5 4:10 5:10 12:5 14:5
13:0 14:5 11:5 3:5 4:5 5:5 4:10 5:10 12:5 14:5 8:10
14:0 11:5 3:5 4:5 5:5 4:10 5:10 12:5 14:5 8:10 4:5
11:0 3:5 4:5 5:5 4:10 5:10 12:5 14:5 8:10 4:5 5:15
3:0 4:5 5:5 4:10 5:10 12:5 14:5 8:10 4:5 5:15 12:10
4:0 5:5 4:10 5:10 12:5 14:5 8:10 4:5 5:15 12:10 14:5
5:0 4:10 5:10 12:5 14:5 8:10 4:5 5:15 12:10 14:5 11:5
4:0 5:10 12:5 14:5 8:10 4:5 5:15 12:10 14:5 11:5 3:5
5:0 12:5 14:5 8:10 4:5 5:15 12:10 14:5 11:5 3:5 4:5
12:0 14:5 8:10 4:5 5:15 12:10 14:5 11:5 3:5 4:5 6:5
14:0 8:10 4:5 5:15 12:10 14:5 11:5 3:5 4:5 6:5 5:5
8:0 4:5 5:15 12:10 14:5 11:5 3:5 4:5 6:5 5:5 4:5
4:0 5:15 12:10 14:5 11:5 3:5 4:5 6:5 5:5 4:5 5:10
5:0 12:10 14:5 11:5 3:5 4:5 6:5 5:5 4:5 5:10 12:5
12:0 14:5 11:5 3:5 4:5 6:5 5:5 4:5 5:10 12:5 14:5
14:0 11:5 3:5 4:5 6:5 5:5 4:5 5:10 12:5 14:5 5:10
11:0 3:5 4:5 6:5 5:5 4:5 5:10 12:5 14:5 5:10 4:5
3:0 4:5 6:5 5:5 4:5 5:10 12:5 14:5 5:10 4:5 5:5
4:0 6:5 5:5 4:5 5:10 12:5 14:5 5:10 4:5 5:5 4:10
6:0 5:5 4:5 5:10 12:5 14:5 5:10 4:5 5:5 4:10 5:10
5:0 4:5 5:10 12:5 14:5 5:10 4:5 5:5 4:10 5:10 8:5
4:0 5:10 12:5 14:5 5:10 4:5 5:5 4:10 5:10 8:5 14:5
5:0 12:5 14:5 5:10 4:5 5:5 4:10 5:10 8:5 14:5 6:10
12:0 14:5 5:10 4:5 5:5 4:10 5:10 8:5 14:5 6:10 4:5
14:0 5:10 4:5 5:5 4:10 5:10 8:5 14:5 6:10 4:5 5:10
5:0 4:5 5:5 4:10 5:10 8:5 14:5 6:10 4:5 5:10 4:5
4:0 5:5 4:10 5:10 8:5 14:5 6:10 4:5 5:10 4:5 6:10
5:0 4:10 5:10 8:5 14:5 6:10 4:5 5:10 4:5 6:10 14:5
4:0 5:10 8:5 14:5 6:10 4:5 5:10 4:5 6:10 14:5 10:10
5:0 8:5 14:5 6:10 4:5 5:10 4:5 6:10 14:5 10:10 4:5
8:0 14:5 6:10 4:5 5:10 4:5 6:10 14:5 10:10 4:5 6:15
14:0 6:10 4:5 5:10 4:5 6:10 14:5 10:10 4:5 6:15 5:5
6:0 4:5 5:10 4:5 6:10 14:5 10:10 4:5 6:15 5:5 11:10
4:0 5:10 4:5 6:10 14:5 10:10 4:5 6:15 5:5 11:10 14:5
5:0 4:5 6:10 14:5 10:10 4:5 6:15 5:5 11:10 14:5 11:5
4:0 6:10 14:5 10:10 4:5 6:15 5:5 11:10 14:5 11:5 3:5
6:0 14:5 10:10 4:5 6:15 5:5 11:10 14:5 11:5 3:5 5:5
14:0 10:10 4:5 6:15 5:5 11:10 14:5 11:5 3:5 5:5 4:15
10:0 4:5 6:15 5:5 11:10 14:5 11:5 3:5 5:5 4:15 11:10
4:0 6:15 5:5 11:10 14:5 11:5 3:5 5:5 4:15 11:10 14:5
6:0 5:5 11:10 14:5 11:5 3:5 5:5 4:15 11:10 14:5 10:10
5:0 11:10 14:5 11:5 3:5 5:5 4:15 11:10 14:5 10:10 4:5
11:0 14:5 11:5 3:5 5:5 4:15 11:10 14:5 10:10 4:5 5:20
14:0 11:5 3:5 5:5 4:15 11:10 14:5 10:10 4:5 5:20 11:10
11:0 3:5 5:5 4:15 11:10 14:5 10:10 4:5 5:20 11:10 14:5
3:0 5:5 4:15 11:10 14:5 10:10 4:5 5:20 11:10 14:5 11:5
5:0 4:15 11:10 14:5 10:10 4:5 5:20 11:10 14:5 11:5 3:5
4:0 11:10 14:5 10:10 4:5 5:20 11:10 14:5 11:5 3:5 5:5
11:0 14:5 10:10 4:5 5:20 11:10 14:5 11:5 3:5 5:5 4:15
14:0 10:10 4:5 5:20 11:10 14:5 11:5 3:5 5:5 4:15 5:10
10:0 4:5 5:20 11:10 14:5 11:5 3:5 5:5 4:15 5:10 13:5
4:0 5:20 11:10 14:5 11:5 3:5 5:5 4:15 5:10 13:5 14:5
5:0 11:10 14:5 11:5 3:5 5:5 4:15 5:10 13:5 14:5 3:10
11:0 14:5 11:5 3:5 5:5 4:15 5:10 13:5 14:5 3:10 4:5
14:0 11:5 3:5 5:5 4:15 5:10 13:5 14:5 3:10 4:5 5:15
11:0 3:5 5:5 4:15 5:10 13:5 14:5 3:10 4:5 5:15 4:15
3:0 5:5 4:15 5:10 13:5 14:5 3:10 4:5 5:15 4:15 10:5
5:0 4:15 5:10 13:5 14:5 3:10 4:5 5:15 4:15 10:5 14:5
4:0 5:10 13:5 14:5 3:10 4:5 5:15 4:15 10:5 14:5 8:15
5:0 13:5 14:5 3:10 4:5 5:15 4:15 10:5 14:5 8:15 3:5
13:0 14:5 3:10 4:5 5:15 4:15 10:5 14:5 8:15 3:5 4:10
14:0 3:10 4:5 5:15 4:15 10:5 14:5 8:15 3:5 4:10 5:5
3:0 4:5 5:15 4:15 10:5 14:5 8:15 3:5 4:10 5:5 4:10
4:0 5:15 4:15 10:5 14:5 8:15 3:5 4:10 5:5 4:10 5:10
5:0 4:15 10:5 14:5 8:15 3:5 4:10 5:5 4:10 5:10 12:5
4:0 10:5 14:5 8:15 3:5 4:10 5:5 4:10 5:10 12:5 14:5
10:0 14:5 8:15 3:5 4:10 5:5 4:10 5:10 12:5 14:5 4:10
14:0 8:15 3:5 4:10 5:5 4:10 5:10 12:5 14:5 4:10 5:10
8:0 3:5 4:10 5:5 4:10 5:10 12:5 14:5 4:10 5:10 4:10
3:0 4:10 5:5 4:10 5:10 12:5 14:5 4:10 5:10 4:10 6:10
4:0 5:5 4:10 5:10 12:5 14:5 4:10 5:10 4:10 6:10 13:5
5:0 4:10 5:10 12:5 14:5 4:10 5:10 4:10 6:10 13:5 14:5
4:0 5:10 12:5 14:5 4:10 5:10 4:10 6:10 13:5 14:5 10:5
5:0 12:5 14:5 4:10 5:10 4:10 6:10 13:5 14:5 10:5 4:5
12:0 14:5 4:10 5:10 4:10 6:10 13:5 14:5 10:5 4:5 5:15
14:0 4:10 5:10 4:10 6:10 13:5 14:5 10:5 4:5 5:15 7:10
4:0 5:10 4:10 6:10 13:5 14:5 10:5 4:5 5:15 7:10 14:5
5:0 4:10 6:10 13:5 14:5 10:5 4:5 5:15 7:10 14:5 8:10
4:0 6:10 13:5 14:5 10:5 4:5 5:15 7:10 14:5 8:10 3:5
6:0 13:5 14:5 10:5 4:5 5:15 7:10 14:5 8:10 3:5 6:5
13:0 14:5 10:5 4:5 5:15 7:10 14:5 8:10 3:5 6:5 13:10
14:0 10:5 4:5 5:15 7:10 14:5 8:10 3:5 6:5 13:10 12:5
10:0 4:5 5:15 7:10 14:5 8:10 3:5 6:5 13:10 12:5 3:5
4:0 5:15 7:10 14:5 8:10 3:5 6:5 13:10 12:5 3:5 4:5
5:0 7:10 14:5 8:10 3:5 6:5 13:10 12:5 3:5 4:5 5:15
7:0 14:5 8:10 3:5 6:5 13:10 12:5 3:5 4:5 5:15 14:20
14:0 8:10 3:5 6:5 13:10 12:5 3:5 4:5 5:15 14:20 8:15
8:0 3:5 6:5 13:10 12:5 3:5 4:5 5:15 14:20 8:15 3:5
3:0 6:5 13:10 12:5 3:5 4:5 5:15 14:20 8:15 3:5 4:5
6:0 13:10 12:5 3:5 4:5 5:15 14:20 8:15 3:5 4:5 3:5
13:0 12:5 3:5 4:5 5:15 14:20 8:15 3:5 4:5 3:5 5:5
12:0 3:5 4:5 5:15 14:20 8:15 3:5 4:5 3:5 5:5 6:5
3:0 4:5 5:15 14:20 8:15 3:5 4:5 3:5 5:5 6:5 12:5
4:0 5:15 14:20 8:15 3:5 4:5 3:5 5:5 6:5 12:5 14:5
5:0 14:20 8:15 3:5 4:5 3:5 5:5 6:5 12:5 14:5 6:5
14:0 8:15 3:5 4:5 3:5 5:5 6:5 12:5 14:5 6:5 4:5
8:0 3:5 4:5 3:5 5:5 6:5 12:5 14:5 6:5 4:5 5:5
3:0 4:5 3:5 5:5 6:5 12:5 14:5 6:5 4:5 5:5 4:10
4:0 3:5 5:5 6:5 12:5 14:5 6:5 4:5 5:5 4:10 5:10
3:0 5:5 6:5 12:5 14:5 6:5 4:5 5:5 4:10 5:10 13:5
5:0 6:5 12:5 14:5 6:5 4:5 5:5 4:10 5:10 13:5 14:5
6:0 12:5 14:5 6:5 4:5 5:5 4:10 5:10 13:5 14:5 12:5
12:0 14:5 6:5 4:5 5:5 4:10 5:10 13:5 14:5 12:5 4:5
14:0 6:5 4:5 5:5 4:10 5:10 13:5 14:5 12:5 4:5 5:5
6:0 4:5 5:5 4:10 5:10 13:5 14:5 12:5 4:5 5:5 4:10
4:0 5:5 4:10 5:10 13:5 14:5 12:5 4:5 5:5 4:10 5:15
5:0 4:10 5:10 13:5 14:5 12:5 4:5 5:5 4:10 5:15 10:5
4:0 5:10 13:5 14:5 12:5 4:5 5:5 4:10 5:15 10:5 14:5
5:0 13:5 14:5 12:5 4:5 5:5 4:10 5:15 10:5 14:5 4:10
13:0 14:5 12:5 4:5 5:5 4:10 5:15 10:5 14:5 4:10 6:10
14:0 12:5 4:5 5:5 4:10 5:15 10:5 14:5 4:10 6:10 5:5
12:0 4:5 5:5 4:10 5:15 10:5 14:5 4:10 6:10 5:5 4:5
4:0 5:5 4:10 5:15 10:5 14:5 4:10 6:10 5:5 4:5 5:5
5:0 4:10 5:15 10:5 14:5 4:10 6:10 5:5 4:5 5:5 12:5
4:0 5:15 10:5 14:5 4:10 6:10 5:5 4:5 5:5 12:5 14:5
5:0 10:5 14:5 4:10 6:10 5:5 4:5 5:5 12:5 14:5 5:10
10:0 14:5 4:10 6:10 5:5 4:5 5:5 12:5 14:5 5:10 4:5
14:0 4:10 6:10 5:5 4:5 5:5 12:5 14:5 5:10 4:5 5:15
4:0 6:10 5:5 4:5 5:5 12:5 14:5 5:10 4:5 5:15 4:15
6:0 5:5 4:5 5:5 12:5 14:5 5:10 4:5 5:15 4:15 5:5
5:0 4:5 5:5 12:5 14:5 5:10 4:5 5:15 4:15 5:5 14:5
4:0 5:5 12:5 14:5 5:10 4:5 5:15 4:15 5:5 14:5 8:15
5:0 12:5 14:5 5:10 4:5 5:15 4:15 5:5 14:5 8:15 4:5
12:0 14:5 5:10 4:5 5:15 4:15 5:5 14:5 8:15 4:5 3:5
14:0 5:10 4:5 5:15 4:15 5:5 14:5 8:15 4:5 3:5 5:5
5:0 4:5 5:15 4:15 5:5 14:5 8:15 4:5 3:5 5:5 6:5
4:0 5:15 4:15 5:5 14:5 8:15 4:5 3:5 5:5 6:5 13:5
5:0 4:15 5:5 14:5 8:15 4:5 3:5 5:5 6:5 13:5 14:5
4:0 5:5 14:5 8:15 4:5 3:5 5:5 6:5 13:5 14:5 3:5
5:0 14:5 8:15 4:5 3:5 5:5 6:5 13:5 14:5 3:5 4:5
14:0 8:15 4:5 3:5 5:5 6:5 13:5 14:5 3:5 4:5 5:15
8:0 4:5 3:5 5:5 6:5 13:5 14:5 3:5 4:5 5:15 4:15
4:0 3:5 5:5 6:5 13:5 14:5 3:5 4:5 5:15 4:15 5:5
3:0 5:5 6:5 13:5 14:5 3:5 4:5 5:15 4:15 5:5 13:5
5:0 6:5 13:5 14:5 3:5 4:5 5:15 4:15 5:5 13:5 14:5
6:0 13:5 14:5 3:5 4:5 5:15 4:15 5:5 13:5 14:5 8:10
13:0 14:5 3:5 4:5 5:15 4:15 5:5 13:5 14:5 8:10 4:5
14:0 3:5 4:5 5:15 4:15 5:5 13:5 14:5 8:10 4:5 3:5
3:0 4:5 5:15 4:15 5:5 13:5 14:5 8:10 4:5 3:5 4:5
4:0 5:15 4:15 5:5 13:5 14:5 8:10 4:5 3:5 4:5 5:5
5:0 4:15 5:5 13:5 14:5 8:10 4:5 3:5 4:5 5:5 6:5
4:0 5:5 13:5 14:5 8:10 4:5 3:5 4:5 5:5 6:5 4:5
5:0 13:5 14:5 8:10 4:5 3:5 4:5 5:5 6:5 4:5 5:10
13:0 14:5 8:10 4:5 3:5 4:5 5:5 6:5 4:5 5:10 10:5
14:0 8:10 4:5 3:5 4:5 5:5 6:5 4:5 5:10 10:5 14:5
8:0 4:5 3:5 4:5 5:5 6:5 4:5 5:10 10:5 14:5 11:10
4:0 3:5 4:5 5:5 6:5 4:5 5:10 10:5 14:5 11:10 4:5
3:0 4:5 5:5 6:5 4:5 5:10 10:5 14:5 11:10 4:5 5:5
4:0 5:5 6:5 4:5 5:10 10:5 14:5 11:10 4:5 5:5 4:10
5:0 6:5 4:5 5:10 10:5 14:5 11:10 4:5 5:5 4:10 6:10
6:0 4:5 5:10 10:5 14:5 11:10 4:5 5:5 4:10 6:10 14:5
4:0 5:10 10:5 14:5 11:10 4:5 5:5 4:10 6:10 14:5 12:10
5:0 10:5 14:5 11:10 4:5 5:5 4:10 6:10 14:5 12:10 3:5
10:0 14:5 11:10 4:5 5:5 4:10 6:10 14:5 12:10 3:5 4:5
14:0 11:10 4:5 5:5 4:10 6:10 14:5 12:10 3:5 4:5 5:15
11:0 4:5 5:5 4:10 6:10 14:5 12:10 3:5 4:5 5:15 4:15
4:0 5:5 4:10 6:10 14:5 12:10 3:5 4:5 5:15 4:15 10:5
5:0 4:10 6:10 14:5 12:10 3:5 4:5 5:15 4:15 10:5 14:5
4:0 6:10 14:5 12:10 3:5 4:5 5:15 4:15 10:5 14:5 6:15
6:0 14:5 12:10 3:5 4:5 5:15 4:15 10:5 14:5 6:15 4:5
14:0 12:10 3:5 4:5 5:15 4:15 10:5 14:5 6:15 4:5 3:5
12:0 3:5 4:5 5:15 4:15 10:5 14:5 6:15 4:5 3:5 5:5
3:0 4:5 5:15 4:15 10:5 14:5 6:15 4:5 3:5 5:5 13:10
4:0 5:15 4:15 10:5 14:5 6:15 4:5 3:5 5:5 13:10 14:5
5:0 4:15 10:5 14:5 6:15 4:5 3:5 5:5 13:10 14:5 8:5
4:0 10:5 14:5 6:15 4:5 3:5 5:5 13:10 14:5 8:5 4:5
10:0 14:5 6:15 4:5 3:5 5:5 13:10 14:5 8:5 4:5 5:10
14:0 6:15 4:5 3:5 5:5 13:10 14:5 8:5 4:5 5:10 4:5
6:0 4:5 3:5 5:5 13:10 14:5 8:5 4:5 5:10 4:5 5:10
4:0 3:5 5:5 13:10 14:5 8:5 4:5 5:10 4:5 5:10 10:5
3:0 5:5 13:10 14:5 8:5 4:5 5:10 4:5 5:10 10:5 14:5
5:0 13:10 14:5 8:5 4:5 5:10 4:5 5:10 10:5 14:5 4:10
13:0 14:5 8:5 4:5 5:10 4:5 5:10 10:5 14:5 4:10 5:5
14:0 8:5 4:5 5:10 4:5 5:10 10:5 14:5 4:10 5:5 6:5
8:0 4:5 5:10 4:5 5:10 10:5 14:5 4:10 5:5 6:5 4:5
4:0 5:10 4:5 5:10 10:5 14:5 4:10 5:5 6:5 4:5 8:15
5:0 4:5 5:10 10:5 14:5 4:10 5:5 6:5 4:5 8:15 14:5
4:0 5:10 10:5 14:5 4:10 5:5 6:5 4:5 8:15 14:5 8:10
5:0 10:5 14:5 4:10 5:5 6:5 4:5 8:15 14:5 8:10 4:5
10:0 14:5 4:10 5:5 6:5 4:5 8:15 14:5 8:10 4:5 5:15
14:0 4:10 5:5 6:5 4:5 8:15 14:5 8:10 4:5 5:15 4:15
4:0 5:5 6:5 4:5 8:15 14:5 8:10 4:5 5:15 4:15 5:5
5:0 6:5 4:5 8:15 14:5 8:10 4:5 5:15 4:15 5:5 14:5
6:0 4:5 8:15 14:5 8:10 4:5 5:15 4:15 5:5 14:5 5:15
4:0 8:15 14:5 8:10 4:5 5:15 4:15 5:5 14:5 5:15 3:5
8:0 14:5 8:10 4:5 5:15 4:15 5:5 14:5 5:15 3:5 4:10
14:0 8:10 4:5 5:15 4:15 5:5 14:5 5:15 3:5 4:10 6:5
8:0 4:5 5:15 4:15 5:5 14:5 5:15 3:5 4:10 6:5 8:5
4:0 5:15 4:15 5:5 14:5 5:15 3:5 4:10 6:5 8:5 14:5
5:0 4:15 5:5 14:5 5:15 3:5 4:10 6:5 8:5 14:5 12:5
4:0 5:5 14:5 5:15 3:5 4:10 6:5 8:5 14:5 12:5 4:5
5:0 14:5 5:15 3:5 4:10 6:5 8:5 14:5 12:5 4:5 5:10
14:0 5:15 3:5 4:10 6:5 8:5 14:5 12:5 4:5 5:10 4:5
5:0 3:5 4:10 6:5 8:5 14:5 12:5 4:5 5:10 4:5 5:10
3:0 4:10 6:5 8:5 14:5 12:5 4:5 5:10 4:5 5:10 13:5
4:0 6:5 8:5 14:5 12:5 4:5 5:10 4:5 5:10 13:5 14:5
6:0 8:5 14:5 12:5 4:5 5:10 4:5 5:10 13:5 14:5 3:10
8:0 14:5 12:5 4:5 5:10 4:5 5:10 13:5 14:5 3:10 4:5
14:0 12:5 4:5 5:10 4:5 5:10 13:5 14:5 3:10 4:5 5:15
12:0 4:5 5:10 4:5 5:10 13:5 14:5 3:10 4:5 5:15 14:25
4:0 5:10 4:5 5:10 13:5 14:5 3:10 4:5 5:15 14:25 8:15
5:0 4:5 5:10 13:5 14:5 3:10 4:5 5:15 14:25 8:15 3:5
4:0 5:10 13:5 14:5 3:10 4:5 5:15 14:25 8:15 3:5 4:10
5:0 13:5 14:5 3:10 4:5 5:15 14:25 8:15 3:5 4:10 6:5
13:0 14:5 3:10 4:5 5:15 14:25 8:15 3:5 4:10 6:5 5:5
14:0 3:10 4:5 5:15 14:25 8:15 3:5 4:10 6:5 5:5 4:5
3:0 4:5 5:15 14:25 8:15 3:5 4:10 6:5 5:5 4:5 5:10
4:0 5:15 14:25 8:15 3:5 4:10 6:5 5:5 4:5 5:10 13:5
5:0 14:25 8:15 3:5 4:10 6:5 5:5 4:5 5:10 13:5 14:5
14:0 8:15 3:5 4:10 6:5 5:5 4:5 5:10 13:5 14:5 8:10
8:0 3:5 4:10 6:5 5:5 4:5 5:10 13:5 14:5 8:10 4:5
3:0 4:10 6:5 5:5 4:5 5:10 13:5 14:5 8:10 4:5 5:15
4:0 6:5 5:5 4:5 5:10 13:5 14:5 8:10 4:5 5:15 6:5
6:0 5:5 4:5 5:10 13:5 14:5 8:10 4:5 5:15 6:5 12:5
5:0 4:5 5:10 13:5 14:5 8:10 4:5 5:15 6:5 12:5 14:5
4:0 5:10 13:5 14:5 8:10 4:5 5:15 6:5 12:5 14:5 13:5
5:0 13:5 14:5 8:10 4:5 5:15 6:5 12:5 14:5 13:5 3:5
13:0 14:5 8:10 4:5 5:15 6:5 12:5 14:5 13:5 3:5 4:5
14:0 8:10 4:5 5:15 6:5 12:5 14:5 13:5 3:5 4:5 6:10
8:0 4:5 5:15 6:5 12:5 14:5 13:5 3:5 4:5 6:10 4:5
4:0 5:15 6:5 12:5 14:5 13:5 3:5 4:5 6:10 4:5 11:15
5:0 6:5 12:5 14:5 13:5 3:5 4:5 6:10 4:5 11:15 14:5
6:0 12:5 14:5 13:5 3:5 4:5 6:10 4:5 11:15 14:5 8:10
12:0 14:5 13:5 3:5 4:5 6:10 4:5 11:15 14:5 8:10 4:5
14:0 13:5 3:5 4:5 6:10 4:5 11:15 14:5 8:10 4:5 5:15
13:0 3:5 4:5 6:10 4:5 11:15 14:5 8:10 4:5 5:15 14:15
3:0 4:5 6:10 4:5 11:15 14:5 8:10 4:5 5:15 14:15 11:10
4:0 6:10 4:5 11:15 14:5 8:10 4:5 5:15 14:15 11:10 4:5
6:0 4:5 11:15 14:5 8:10 4:5 5:15 14:15 11:10 4:5 5:5
4:0 11:15 14:5 8:10 4:5 5:15 14:15 11:10 4:5 5:5 4:15
11:0 14:5 8:10 4:5 5:15 14:15 11:10 4:5 5:5 4:15 10:10
14:0 8:10 4:5 5:15 14:15 11:10 4:5 5:5 4:15 10:10 14:5
8:0 4:5 5:15 14:15 11:10 4:5 5:5 4:15 10:10 14:5 11:10
4:0 5:15 14:15 11:10 4:5 5:5 4:15 10:10 14:5 11:10 4:5
5:0 14:15 11:10 4:5 5:5 4:15 10:10 14:5 11:10 4:5 5:5
14:0 11:10 4:5 5:5 4:15 10:10 14:5 11:10 4:5 5:5 4:10
11:0 4:5 5:5 4:15 10:10 14:5 11:10 4:5 5:5 4:10 5:10
4:0 5:5 4:15 10:10 14:5 11:10 4:5 5:5 4:10 5:10 14:10
5:0 4:15 10:10 14:5 11:10 4:5 5:5 4:10 5:10 14:10 8:10
4:0 10:10 14:5 11:10 4:5 5:5 4:10 5:10 14:10 8:10 4:5
10:0 14:5 11:10 4:5 5:5 4:10 5:10 14:10 8:10 4:5 5:10
14:0 11:10 4:5 5:5 4:10 5:10 14:10 8:10 4:5 5:10 4:5
11:0 4:5 5:5 4:10 5:10 14:10 8:10 4:5 5:10 4:5 6:10
4:0 5:5 4:10 5:10 14:10 8:10 4:5 5:10 4:5 6:10 14:5
5:0 4:10 5:10 14:10 8:10 4:5 5:10 4:5 6:10 14:5 12:10
4:0 5:10 14:10 8:10 4:5 5:10 4:5 6:10 14:5 12:10 4:5
5:0 14:10 8:10 4:5 5:10 4:5 6:10 14:5 12:10 4:5 5:20
14:0 8:10 4:5 5:10 4:5 6:10 14:5 12:10 4:5 5:20 4:10
8:0 4:5 5:10 4:5 6:10 14:5 12:10 4:5 5:20 4:10 5:5
4:0 5:10 4:5 6:10 14:5 12:10 4:5 5:20 4:10 5:5 14:5
5:0 4:5 6:10 14:5 12:10 4:5 5:20 4:10 5:5 14:5 8:15
4:0 6:10 14:5 12:10 4:5 5:20 4:10 5:5 14:5 8:15 4:5
6:0 14:5 12:10 4:5 5:20 4:10 5:5 14:5 8:15 4:5 3:5
14:0 12:10 4:5 5:20 4:10 5:5 14:5 8:15 4:5 3:5 4:5
12:0 4:5 5:20 4:10 5:5 14:5 8:15 4:5 3:5 4:5 6:5
4:0 5:20 4:10 5:5 14:5 8:15 4:5 3:5 4:5 6:5 12:5
5:0 4:10 5:5 14:5 8:15 4:5 3:5 4:5 6:5 12:5 14:5
4:0 5:5 14:5 8:15 4:5 3:5 4:5 6:5 12:5 14:5 10:5
5:0 14:5 8:15 4:5 3:5 4:5 6:5 12:5 14:5 10:5 3:5
14:0 8:15 4:5 3:5 4:5 6:5 12:5 14:5 10:5 3:5 4:5
8:0 4:5 3:5 4:5 6:5 12:5 14:5 10:5 3:5 4:5 6:20
4:0 3:5 4:5 6:5 12:5 14:5 10:5 3:5 4:5 6:20 13:5
3:0 4:5 6:5 12:5 14:5 10:5 3:5 4:5 6:20 13:5 14:5
4:0 6:5 12:5 14:5 10:5 3:5 4:5 6:20 13:5 14:5 8:5
6:0 12:5 14:5 10:5 3:5 4:5 6:20 13:5 14:5 8:5 3:5
12:0 14:5 10:5 3:5 4:5 6:20 13:5 14:5 8:5 3:5 4:5
14:0 10:5 3:5 4:5 6:20 13:5 14:5 8:5 3:5 4:5 6:10
10:0 3:5 4:5 6:20 13:5 14:5 8:5 3:5 4:5 6:10 4:5
3:0 4:5 6:20 13:5 14:5 8:5 3:5 4:5 6:10 4:5 5:10
4:0 6:20 13:5 14:5 8:5 3:5 4:5 6:10 4:5 5:10 10:5
6:0 13:5 14:5 8:5 3:5 4:5 6:10 4:5 5:10 10:5 14:5
13:0 14:5 8:5 3:5 4:5 6:10 4:5 5:10 10:5 14:5 6:10
14:0 8:5 3:5 4:5 6:10 4:5 5:10 10:5 14:5 6:10 4:5
8:0 3:5 4:5 6:10 4:5 5:10 10:5 14:5 6:10 4:5 5:15
3:0 4:5 6:10 4:5 5:10 10:5 14:5 6:10 4:5 5:15 4:15
4:0 6:10 4:5 5:10 10:5 14:5 6:10 4:5 5:15 4:15 5:5
6:0 4:5 5:10 10:5 14:5 6:10 4:5 5:15 4:15 5:5 14:5
4:0 5:10 10:5 14:5 6:10 4:5 5:15 4:15 5:5 14:5 13:15
5:0 10:5 14:5 6:10 4:5 5:15 4:15 5:5 14:5 13:15 3:5
10:0 14:5 6:10 4:5 5:15 4:15 5:5 14:5 13:15 3:5 4:10
14:0 6:10 4:5 5:15 4:15 5:5 14:5 13:15 3:5 4:10 5:5
6:0 4:5 5:15 4:15 5:5 14:5 13:15 3:5 4:10 5:5 6:5
4:0 5:15 4:15 5:5 14:5 13:15 3:5 4:10 5:5 6:5 4:5
5:0 4:15 5:5 14:5 13:15 3:5 4:10 5:5 6:5 4:5 5:10
4:0 5:5 14:5 13:15 3:5 4:10 5:5 6:5 4:5 5:10 12:5
5:0 14:5 13:15 3:5 4:10 5:5 6:5 4:5 5:10 12:5 14:5
14:0 13:15 3:5 4:10 5:5 6:5 4:5 5:10 12:5 14:5 5:10
13:0 3:5 4:10 5:5 6:5 4:5 5:10 12:5 14:5 5:10 4:5
3:0 4:10 5:5 6:5 4:5 5:10 12:5 14:5 5:10 4:5 5:10
4:0 5:5 6:5 4:5 5:10 12:5 14:5 5:10 4:5 5:10 4:5
5:0 6:5 4:5 5:10 12:5 14:5 5:10 4:5 5:10 4:5 5:10
6:0 4:5 5:10 12:5 14:5 5:10 4:5 5:10 4:5 5:10 13:5
4:0 5:10 12:5 14:5 5:10 4:5 5:10 4:5 5:10 13:5 14:5
5:0 12:5 14:5 5:10 4:5 5:10 4:5 5:10 13:5 14:5 12:5
12:0 14:5 5:10 4:5 5:10 4:5 5:10 13:5 14:5 12:5 4:5
14:0 5:10 4:5 5:10 4:5 5:10 13:5 14:5 12:5 4:5 5:10
5:0 4:5 5:10 4:5 5:10 13:5 14:5 12:5 4:5 5:10 4:10
4:0 5:10 4:5 5:10 13:5 14:5 12:5 4:5 5:10 4:10 5:10
5:0 4:5 5:10 13:5 14:5 12:5 4:5 5:10 4:10 5:10 14:5
4:0 5:10 13:5 14:5 12:5 4:5 5:10 4:10 5:10 14:5 11:10
5:0 13:5 14:5 12:5 4:5 5:10 4:10 5:10 14:5 11:10 4:5
13:0 14:5 12:5 4:5 5:10 4:10 5:10 14:5 11:10 4:5 5:5
14:0 12:5 4:5 5:10 4:10 5:10 14:5 11:10 4:5 5:5 4:10
12:0 4:5 5:10 4:10 5:10 14:5 11:10 4:5 5:5 4:10 5:10
4:0 5:10 4:10 5:10 14:5 11:10 4:5 5:5 4:10 5:10 8:5
5:0 4:10 5:10 14:5 11:10 4:5 5:5 4:10 5:10 8:5 14:5
4:0 5:10 14:5 11:10 4:5 5:5 4:10 5:10 8:5 14:5 6:10
5:0 14:5 11:10 4:5 5:5 4:10 5:10 8:5 14:5 6:10 4:5
14:0 11:10 4:5 5:5 4:10 5:10 8:5 14:5 6:10 4:5 3:5
11:0 4:5 5:5 4:10 5:10 8:5 14:5 6:10 4:5 3:5 4:5
4:0 5:5 4:10 5:10 8:5 14:5 6:10 4:5 3:5 4:5 5:5
5:0 4:10 5:10 8:5 14:5 6:10 4:5 3:5 4:5 5:5 6:5
4:0 5:10 8:5 14:5 6:10 4:5 3:5 4:5 5:5 6:5 11:5
5:0 8:5 14:5 6:10 4:5 3:5 4:5 5:5 6:5 11:5 14:5
8:0 14:5 6:10 4:5 3:5 4:5 5:5 6:5 11:5 14:5 11:5
14:0 6:10 4:5 3:5 4:5 5:5 6:5 11:5 14:5 11:5 3:5
6:0 4:5 3:5 4:5 5:5 6:5 11:5 14:5 11:5 3:5 4:5
4:0 3:5 4:5 5:5 6:5 11:5 14:5 11:5 3:5 4:5 6:5
3:0 4:5 5:5 6:5 11:5 14:5 11:5 3:5 4:5 6:5 12:5
4:0 5:5 6:5 11:5 14:5 11:5 3:5 4:5 6:5 12:5 14:5
5:0 6:5 11:5 14:5 11:5 3:5 4:5 6:5 12:5 14:5 8:5
6:0 11:5 14:5 11:5 3:5 4:5 6:5 12:5 14:5 8:5 4:5
11:0 14:5 11:5 3:5 4:5 6:5 12:5 14:5 8:5 4:5 5:15
14:0 11:5 3:5 4:5 6:5 12:5 14:5 8:5 4:5 5:15 4:15
11:0 3:5 4:5 6:5 12:5 14:5 8:5 4:5 5:15 4:15 5:5
3:0 4:5 6:5 12:5 14:5 8:5 4:5 5:15 4:15 5:5 13:5
4:0 6:5 12:5 14:5 8:5 4:5 5:15 4:15 5:5 13:5 14:5
6:0 12:5 14:5 8:5 4:5 5:15 4:15 5:5 13:5 14:5 3:15
12:0 14:5 8:5 4:5 5:15 4:15 5:5 13:5 14:5 3:15 4:10
14:0 8:5 4:5 5:15 4:15 5:5 13:5 14:5 3:15 4:10 5:5
8:0 4:5 5:15 4:15 5:5 13:5 14:5 3:15 4:10 5:5 6:5
4:0 5:15 4:15 5:5 13:5 14:5 3:15 4:10 5:5 6:5 4:5
5:0 4:15 5:5 13:5 14:5 3:15 4:10 5:5 6:5 4:5 5:10
4:0 5:5 13:5 14:5 3:15 4:10 5:5 6:5 4:5 5:10 8:5
5:0 13:5 14:5 3:15 4:10 5:5 6:5 4:5 5:10 8:5 14:5
13:0 14:5 3:15 4:10 5:5 6:5 4:5 5:10 8:5 14:5 11:10
14:0 3:15 4:10 5:5 6:5 4:5 5:10 8:5 14:5 11:10 4:5
3:0 4:10 5:5 6:5 4:5 5:10 8:5 14:5 11:10 4:5 5:15
4:0 5:5 6:5 4:5 5:10 8:5 14:5 11:10 4:5 5:15 7:10
5:0 6:5 4:5 5:10 8:5 14:5 11:10 4:5 5:15 7:10 14:5
6:0 4:5 5:10 8:5 14:5 11:10 4:5 5:15 7:10 14:5 13:5
4:0 5:10 8:5 14:5 11:10 4:5 5:15 7:10 14:5 13:5 3:5
5:0 8:5 14:5 11:10 4:5 5:15 7:10 14:5 13:5 3:5 4:5
8:0 14:5 11:10 4:5 5:15 7:10 14:5 13:5 3:5 4:5 5:5
14:0 11:10 4:5 5:15 7:10 14:5 13:5 3:5 4:5 5:5 6:5
11:0 4:5 5:15 7:10 14:5 13:5 3:5 4:5 5:5 6:5 4:5
4:0 5:15 7:10 14:5 13:5 3:5 4:5 5:5 6:5 4:5 10:15
5:0 7:10 14:5 13:5 3:5 4:5 5:5 6:5 4:5 10:15 14:5
7:0 14:5 13:5 3:5 4:5 5:5 6:5 4:5 10:15 14:5 11:10
14:0 13:5 3:5 4:5 5:5 6:5 4:5 10:15 14:5 11:10 4:5
13:0 3:5 4:5 5:5 6:5 4:5 10:15 14:5 11:10 4:5 5:5
3:0 4:5 5:5 6:5 4:5 10:15 14:5 11:10 4:5 5:5 4:10
4:0 5:5 6:5 4:5 10:15 14:5 11:10 4:5 5:5 4:10 5:10
5:0 6:5 4:5 10:15 14:5 11:10 4:5 5:5 4:10 5:10 6:5
6:0 4:5 10:15 14:5 11:10 4:5 5:5 4:10 5:10 6:5 14:5
4:0 10:15 14:5 11:10 4:5 5:5 4:10 5:10 6:5 14:5 8:10
10:0 14:5 11:10 4:5 5:5 4:10 5:10 6:5 14:5 8:10 4:5
14:0 11:10 4:5 5:5 4:10 5:10 6:5 14:5 8:10 4:5 5:15
11:0 4:5 5:5 4:10 5:10 6:5 14:5 8:10 4:5 5:15 4:15
4:0 5:5 4:10 5:10 6:5 14:5 8:10 4:5 5:15 4:15 7:5
5:0 4:10 5:10 6:5 14:5 8:10 4:5 5:15 4:15 7:5 14:5
4:0 5:10 6:5 14:5 8:10 4:5 5:15 4:15 7:5 14:5 5:15
5:0 6:5 14:5 8:10 4:5 5:15 4:15 7:5 14:5 5:15 3:5
6:0 14:5 8:10 4:5 5:15 4:15 7:5 14:5 5:15 3:5 4:10
14:0 8:10 4:5 5:15 4:15 7:5 14:5 5:15 3:5 4:10 6:5
8:0 4:5 5:15 4:15 7:5 14:5 5:15 3:5 4:10 6:5 5:5
4:0 5:15 4:15 7:5 14:5 5:15 3:5 4:10 6:5 5:5 4:5
5:0 4:15 7:5 14:5 5:15 3:5 4:10 6:5 5:5 4:5 5:10
4:0 7:5 14:5 5:15 3:5 4:10 6:5 5:5 4:5 5:10 13:5
7:0 14:5 5:15 3:5 4:10 6:5 5:5 4:5 5:10 13:5 14:5
14:0 5:15 3:5 4:10 6:5 5:5 4:5 5:10 13:5 14:5 6:10
5:0 3:5 4:10 6:5 5:5 4:5 5:10 13:5 14:5 6:10 4:5
3:0 4:10 6:5 5:5 4:5 5:10 13:5 14:5 6:10 4:5 5:5
4:0 6:5 5:5 4:5 5:10 13:5 14:5 6:10 4:5 5:5 4:10
6:0 5:5 4:5 5:10 13:5 14:5 6:10 4:5 5:5 4:10 5:10
5:0 4:5 5:10 13:5 14:5 6:10 4:5 5:5 4:10 5:10 10:5
4:0 5:10 13:5 14:5 6:10 4:5 5:5 4:10 5:10 10:5 14:5
5:0 13:5 14:5 6:10 4:5 5:5 4:10 5:10 10:5 14:5 6:10
13:0 14:5 6:10 4:5 5:5 4:10 5:10 10:5 14:5 6:10 4:5
14:0 6:10 4:5 5:5 4:10 5:10 10:5 14:5 6:10 4:5 5:15
6:0 4:5 5:5 4:10 5:10 10:5 14:5 6:10 4:5 5:15 14:10
4:0 5:5 4:10 5:10 10:5 14:5 6:10 4:5 5:15 14:10 8:10
5:0 4:10 5:10 10:5 14:5 6:10 4:5 5:15 14:10 8:10 3:5
4:0 5:10 10:5 14:5 6:10 4:5 5:15 14:10 8:10 3:5 5:5
5:0 10:5 14:5 6:10 4:5 5:15 14:10 8:10 3:5 5:5 4:15
10:0 14:5 6:10 4:5 5:15 14:10 8:10 3:5 5:5 4:15 5:10
14:0 6:10 4:5 5:15 14:10 8:10 3:5 5:5 4:15 5:10 13:5
6:0 4:5 5:15 14:10 8:10 3:5 5:5 4:15 5:10 13:5 14:5
4:0 5:15 14:10 8:10 3:5 5:5 4:15 5:10 13:5 14:5 3:10
5:0 14:10 8:10 3:5 5:5 4:15 5:10 13:5 14:5 3:10 4:5
14:0 8:10 3:5 5:5 4:15 5:10 13:5 14:5 3:10 4:5 5:15
8:0 3:5 5:5 4:15 5:10 13:5 14:5 3:10 4:5 5:15 12:10
3:0 5:5 4:15 5:10 13:5 14:5 3:10 4:5 5:15 12:10 14:5
5:0 4:15 5:10 13:5 14:5 3:10 4:5 5:15 12:10 14:5 11:5
4:0 5:10 13:5 14:5 3:10 4:5 5:15 12:10 14:5 11:5 3:5
5:0 13:5 14:5 3:10 4:5 5:15 12:10 14:5 11:5 3:5 4:5
13:0 14:5 3:10 4:5 5:15 12:10 14:5 11:5 3:5 4:5 5:5
14:0 3:10 4:5 5:15 12:10 14:5 11:5 3:5 4:5 5:5 4:10
3:0 4:5 5:15 12:10 14:5 11:5 3:5 4:5 5:5 4:10 5:10
4:0 5:15 12:10 14:5 11:5 3:5 4:5 5:5 4:10 5:10 13:5
5:0 12:10 14:5 11:5 3:5 4:5 5:5 4:10 5:10 13:5 14:5
12:0 14:5 11:5 3:5 4:5 5:5 4:10 5:10 13:5 14:5 8:10
14:0 11:5 3:5 4:5 5:5 4:10 5:10 13:5 14:5 8:10 4:5
11:0 3:5 4:5 5:5 4:10 5:10 13:5 14:5 8:10 4:5 6:10
3:0 4:5 5:5 4:10 5:10 13:5 14:5 8:10 4:5 6:10 4:5
4:0 5:5 4:10 5:10 13:5 14:5 8:10 4:5 6:10 4:5 5:10
5:0 4:10 5:10 13:5 14:5 8:10 4:5 6:10 4:5 5:10 12:5
4:0 5:10 13:5 14:5 8:10 4:5 6:10 4:5 5:10 12:5 14:5
5:0 13:5 14:5 8:10 4:5 6:10 4:5 5:10 12:5 14:5 3:10
13:0 14:5 8:10 4:5 6:10 4:5 5:10 12:5 14:5 3:10 4:5
14:0 8:10 4:5 6:10 4:5 5:10 12:5 14:5 3:10 4:5 5:15
8:0 4:5 6:10 4:5 5:10 12:5 14:5 3:10 4:5 5:15 12:15
4:0 6:10 4:5 5:10 12:5 14:5 3:10 4:5 5:15 12:15 14:5
6:0 4:5 5:10 12:5 14:5 3:10 4:5 5:15 12:15 14:5 6:10
4:0 5:10 12:5 14:5 3:10 4:5 5:15 12:15 14:5 6:10 5:5
5:0 12:5 14:5 3:10 4:5 5:15 12:15 14:5 6:10 5:5 4:10
12:0 14:5 3:10 4:5 5:15 12:15 14:5 6:10 5:5 4:10 5:10
14:0 3:10 4:5 5:15 12:15 14:5 6:10 5:5 4:10 5:10 10:5
3:0 4:5 5:15 12:15 14:5 6:10 5:5 4:10 5:10 10:5 14:5
4:0 5:15 12:15 14:5 6:10 5:5 4:10 5:10 10:5 14:5 8:10
5:0 12:15 14:5 6:10 5:5 4:10 5:10 10:5 14:5 8:10 4:5
12:0 14:5 6:10 5:5 4:10 5:10 10:5 14:5 8:10 4:5 5:15
14:0 6:10 5:5 4:10 5:10 10:5 14:5 8:10 4:5 5:15 6:5
6:0 5:5 4:10 5:10 10:5 14:5 8:10 4:5 5:15 6:5 5:5
5:0 4:10 5:10 10:5 14:5 8:10 4:5 5:15 6:5 5:5 4:5
4:0 5:10 10:5 14:5 8:10 4:5 5:15 6:5 5:5 4:5 5:5
5:0 10:5 14:5 8:10 4:5 5:15 6:5 5:5 4:5 5:5 12:5
10:0 14:5 8:10 4:5 5:15 6:5 5:5 4:5 5:5 12:5 14:5
14:0 8:10 4:5 5:15 6:5 5:5 4:5 5:5 12:5 14:5 13:10
8:0 4:5 5:15 6:5 5:5 4:5 5:5 12:5 14:5 13:10 4:5
4:0 5:15 6:5 5:5 4:5 5:5 12:5 14:5 13:10 4:5 3:5
5:0 6:5 5:5 4:5 5:5 12:5 14:5 13:10 4:5 3:5 5:5
6:0 5:5 4:5 5:5 12:5 14:5 13:10 4:5 3:5 5:5 6:5
5:0 4:5 5:5 12:5 14:5 13:10 4:5 3:5 5:5 6:5 10:5
4:0 5:5 12:5 14:5 13:10 4:5 3:5 5:5 6:5 10:5 14:5
5:0 12:5 14:5 13:10 4:5 3:5 5:5 6:5 10:5 14:5 11:5
12:0 14:5 13:10 4:5 3:5 5:5 6:5 10:5 14:5 11:5 4:5
14:0 13:10 4:5 3:5 5:5 6:5 10:5 14:5 11:5 4:5 5:15
13:0 4:5 3:5 5:5 6:5 10:5 14:5 11:5 4:5 5:15 13:15
4:0 3:5 5:5 6:5 10:5 14:5 11:5 4:5 5:15 13:15 14:5
3:0 5:5 6:5 10:5 14:5 11:5 4:5 5:15 13:15 14:5 12:5
5:0 6:5 10:5 14:5 11:5 4:5 5:15 13:15 14:5 12:5 3:5
6:0 10:5 14:5 11:5 4:5 5:15 13:15 14:5 12:5 3:5 4:5
10:0 14:5 11:5 4:5 5:15 13:15 14:5 12:5 3:5 4:5 5:15
14:0 11:5 4:5 5:15 13:15 14:5 12:5 3:5 4:5 5:15 4:15
11:0 4:5 5:15 13:15 14:5 12:5 3:5 4:5 5:15 4:15 8:5
4:0 5:15 13:15 14:5 12:5 3:5 4:5 5:15 4:15 8:5 14:5
5:0 13:15 14:5 12:5 3:5 4:5 5:15 4:15 8:5 14:5 5:15
13:0 14:5 12:5 3:5 4:5 5:15 4:15 8:5 14:5 5:15 3:5
14:0 12:5 3:5 4:5 5:15 4:15 8:5 14:5 5:15 3:5 5:10
12:0 3:5 4:5 5:15 4:15 8:5 14:5 5:15 3:5 5:10 6:5
3:0 4:5 5:15 4:15 8:5 14:5 5:15 3:5 5:10 6:5 5:5
4:0 5:15 4:15 8:5 14:5 5:15 3:5 5:10 6:5 5:5 4:5
5:0 4:15 8:5 14:5 5:15 3:5 5:10 6:5 5:5 4:5 8:10
4:0 8:5 14:5 5:15 3:5 5:10 6:5 5:5 4:5 8:10 14:5
8:0 14:5 5:15 3:5 5:10 6:5 5:5 4:5 8:10 14:5 12:10
14:0 5:15 3:5 5:10 6:5 5:5 4:5 8:10 14:5 12:10 4:5
5:0 3:5 5:10 6:5 5:5 4:5 8:10 14:5 12:10 4:5 5:20
3:0 5:10 6:5 5:5 4:5 8:10 14:5 12:10 4:5 5:20 10:10
5:0 6:5 5:5 4:5 8:10 14:5 12:10 4:5 5:20 10:10 14:5
6:0 5:5 4:5 8:10 14:5 12:10 4:5 5:20 10:10 14:5 13:5
5:0 4:5 8:10 14:5 12:10 4:5 5:20 10:10 14:5 13:5 3:5
4:0 8:10 14:5 12:10 4:5 5:20 10:10 14:5 13:5 3:5 4:5
8:0 14:5 12:10 4:5 5:20 10:10 14:5 13:5 3:5 4:5 6:5
14:0 12:10 4:5 5:20 10:10 14:5 13:5 3:5 4:5 6:5 5:5
12:0 4:5 5:20 10:10 14:5 13:5 3:5 4:5 6:5 5:5 4:5
4:0 5:20 10:10 14:5 13:5 3:5 4:5 6:5 5:5 4:5 6:10
5:0 10:10 14:5 13:5 3:5 4:5 6:5 5:5 4:5 6:10 14:5
10:0 14:5 13:5 3:5 4:5 6:5 5:5 4:5 6:10 14:5 3:15
14:0 13:5 3:5 4:5 6:5 5:5 4:5 6:10 14:5 3:15 4:5
13:0 3:5 4:5 6:5 5:5 4:5 6:10 14:5 3:15 4:5 5:15
3:0 4:5 6:5 5:5 4:5 6:10 14:5 3:15 4:5 5:15 4:15
4:0 6:5 5:5 4:5 6:10 14:5 3:15 4:5 5:15 4:15 5:5
6:0 5:5 4:5 6:10 14:5 3:15 4:5 5:15 4:15 5:5 13:5
5:0 4:5 6:10 14:5 3:15 4:5 5:15 4:15 5:5 13:5 14:5
4:0 6:10 14:5 3:15 4:5 5:15 4:15 5:5 13:5 14:5 8:10
6:0 14:5 3:15 4:5 5:15 4:15 5:5 13:5 14:5 8:10 3:5
14:0 3:15 4:5 5:15 4:15 5:5 13:5 14:5 8:10 3:5 4:10
3:0 4:5 5:15 4:15 5:5 13:5 14:5 8:10 3:5 4:10 6:5
4:0 5:15 4:15 5:5 13:5 14:5 8:10 3:5 4:10 6:5 10:5
5:0 4:15 5:5 13:5 14:5 8:10 3:5 4:10 6:5 10:5 14:5
4:0 5:5 13:5 14:5 8:10 3:5 4:10 6:5 10:5 14:5 11:5
5:0 13:5 14:5 8:10 3:5 4:10 6:5 10:5 14:5 11:5 4:5
13:0 14:5 8:10 3:5 4:10 6:5 10:5 14:5 11:5 4:5 5:5
14:0 8:10 3:5 4:10 6:5 10:5 14:5 11:5 4:5 5:5 4:10
8:0 3:5 4:10 6:5 10:5 14:5 11:5 4:5 5:5 4:10 5:10
3:0 4:10 6:5 10:5 14:5 11:5 4:5 5:5 4:10 5:10 6:5
4:0 6:5 10:5 14:5 11:5 4:5 5:5 4:10 5:10 6:5 14:5
6:0 10:5 14:5 11:5 4:5 5:5 4:10 5:10 6:5 14:5 8:10
10:0 14:5 11:5 4:5 5:5 4:10 5:10 6:5 14:5 8:10 4:5
14:0 11:5 4:5 5:5 4:10 5:10 6:5 14:5 8:10 4:5 5:15
11:0 4:5 5:5 4:10 5:10 6:5 14:5 8:10 4:5 5:15 4:15
4:0 5:5 4:10 5:10 6:5 14:5 8:10 4:5 5:15 4:15 5:5
5:0 4:10 5:10 6:5 14:5 8:10 4:5 5:15 4:15 5:5 12:5
4:0 5:10 6:5 14:5 8:10 4:5 5:15 4:15 5:5 12:5 14:5
5:0 6:5 14:5 8:10 4:5 5:15 4:15 5:5 12:5 14:5 6:10
6:0 14:5 8:10 4:5 5:15 4:15 5:5 12:5 14:5 6:10 4:5
14:0 8:10 4:5 5:15 4:15 5:5 12:5 14:5 6:10 4:5 3:5
8:0 4:5 5:15 4:15 5:5 12:5 14:5 6:10 4:5 3:5 5:5
4:0 5:15 4:15 5:5 12:5 14:5 6:10 4:5 3:5 5:5 6:5
5:0 4:15 5:5 12:5 14:5 6:10 4:5 3:5 5:5 6:5 5:5
4:0 5:5 12:5 14:5 6:10 4:5 3:5 5:5 6:5 5:5 4:5
5:0 12:5 14:5 6:10 4:5 3:5 5:5 6:5 5:5 4:5 5:10
12:0 14:5 6:10 4:5 3:5 5:5 6:5 5:5 4:5 5:10 13:5
14:0 6:10 4:5 3:5 5:5 6:5 5:5 4:5 5:10 13:5 14:5
6:0 4:5 3:5 5:5 6:5 5:5 4:5 5:10 13:5 14:5 6:10
4:0 3:5 5:5 6:5 5:5 4:5 5:10 13:5 14:5 6:10 5:5
3:0 5:5 6:5 5:5 4:5 5:10 13:5 14:5 6:10 5:5 4:10
5:0 6:5 5:5 4:5 5:10 13:5 14:5 6:10 5:5 4:10 5:15
6:0 5:5 4:5 5:10 13:5 14:5 6:10 5:5 4:10 5:15 13:5
5:0 4:5 5:10 13:5 14:5 6:10 5:5 4:10 5:15 13:5 14:5
4:0 5:10 13:5 14:5 6:10 5:5 4:10 5:15 13:5 14:5 12:5
5:0 13:5 14:5 6:10 5:5 4:10 5:15 13:5 14:5 12:5 4:5
13:0 14:5 6:10 5:5 4:10 5:15 13:5 14:5 12:5 4:5 6:10
14:0 6:10 5:5 4:10 5:15 13:5 14:5 12:5 4:5 6:10 5:5
6:0 5:5 4:10 5:15 13:5 14:5 12:5 4:5 6:10 5:5 4:5
5:0 4:10 5:15 13:5 14:5 12:5 4:5 6:10 5:5 4:5 5:5
4:0 5:15 13:5 14:5 12:5 4:5 6:10 5:5 4:5 5:5 12:5
5:0 13:5 14:5 12:5 4:5 6:10 5:5 4:5 5:5 12:5 14:5
13:0 14:5 12:5 4:5 6:10 5:5 4:5 5:5 12:5 14:5 6:10
14:0 12:5 4:5 6:10 5:5 4:5 5:5 12:5 14:5 6:10 4:5
12:0 4:5 6:10 5:5 4:5 5:5 12:5 14:5 6:10 4:5 5:10
4:0 6:10 5:5 4:5 5:5 12:5 14:5 6:10 4:5 5:10 4:5
6:0 5:5 4:5 5:5 12:5 14:5 6:10 4:5 5:10 4:5 5:10
5:0 4:5 5:5 12:5 14:5 6:10 4:5 5:10 4:5 5:10 12:5
4:0 5:5 12:5 14:5 6:10 4:5 5:10 4:5 5:10 12:5 14:5
5:0 12:5 14:5 6:10 4:5 5:10 4:5 5:10 12:5 14:5 12:5
12:0 14:5 6:10 4:5 5:10 4:5 5:10 12:5 14:5 12:5 4:5
14:0 6:10 4:5 5:10 4:5 5:10 12:5 14:5 12:5 4:5 5:15
6:0 4:5 5:10 4:5 5:10 12:5 14:5 12:5 4:5 5:15 14:15
4:0 5:10 4:5 5:10 12:5 14:5 12:5 4:5 5:15 14:15 8:10
5:0 4:5 5:10 12:5 14:5 12:5 4:5 5:15 14:15 8:10 3:5
4:0 5:10 12:5 14:5 12:5 4:5 5:15 14:15 8:10 3:5 5:5
5:0 12:5 14:5 12:5 4:5 5:15 14:15 8:10 3:5 5:5 6:10
12:0 14:5 12:5 4:5 5:15 14:15 8:10 3:5 5:5 6:10 4:5
14:0 12:5 4:5 5:15 14:15 8:10 3:5 5:5 6:10 4:5 6:10
12:0 4:5 5:15 14:15 8:10 3:5 5:5 6:10 4:5 6:10 14:5
4:0 5:15 14:15 8:10 3:5 5:5 6:10 4:5 6:10 14:5 3:15
5:0 14:15 8:10 3:5 5:5 6:10 4:5 6:10 14:5 3:15 4:5
14:0 8:10 3:5 5:5 6:10 4:5 6:10 14:5 3:15 4:5 5:5
8:0 3:5 5:5 6:10 4:5 6:10 14:5 3:15 4:5 5:5 4:10
3:0 5:5 6:10 4:5 6:10 14:5 3:15 4:5 5:5 4:10 5:10
5:0 6:10 4:5 6:10 14:5 3:15 4:5 5:5 4:10 5:10 13:5
6:0 4:5 6:10 14:5 3:15 4:5 5:5 4:10 5:10 13:5 14:5
4:0 6:10 14:5 3:15 4:5 5:5 4:10 5:10 13:5 14:5 13:5
6:0 14:5 3:15 4:5 5:5 4:10 5:10 13:5 14:5 13:5 4:5
14:0 3:15 4:5 5:5 4:10 5:10 13:5 14:5 13:5 4:5 5:10
3:0 4:5 5:5 4:10 5:10 13:5 14:5 13:5 4:5 5:10 4:10
4:0 5:5 4:10 5:10 13:5 14:5 13:5 4:5 5:10 4:10 5:5
5:0 4:10 5:10 13:5 14:5 13:5 4:5 5:10 4:10 5:5 6:5
4:0 5:10 13:5 14:5 13:5 4:5 5:10 4:10 5:5 6:5 14:5
5:0 13:5 14:5 13:5 4:5 5:10 4:10 5:5 6:5 14:5 8:10
13:0 14:5 13:5 4:5 5:10 4:10 5:5 6:5 14:5 8:10 4:5
14:0 13:5 4:5 5:10 4:10 5:5 6:5 14:5 8:10 4:5 5:5
13:0 4:5 5:10 4:10 5:5 6:5 14:5 8:10 4:5 5:5 4:10
4:0 5:10 4:10 5:5 6:5 14:5 8:10 4:5 5:5 4:10 5:10
5:0 4:10 5:5 6:5 14:5 8:10 4:5 5:5 4:10 5:10 12:5
4:0 5:5 6:5 14:5 8:10 4:5 5:5 4:10 5:10 12:5 14:5
5:0 6:5 14:5 8:10 4:5 5:5 4:10 5:10 12:5 14:5 12:5
6:0 14:5 8:10 4:5 5:5 4:10 5:10 12:5 14:5 12:5 4:5
14:0 8:10 4:5 5:5 4:10 5:10 12:5 14:5 12:5 4:5 5:20
8:0 4:5 5:5 4:10 5:10 12:5 14:5 12:5 4:5 5:20 4:10
4:0 5:5 4:10 5:10 12:5 14:5 12:5 4:5 5:20 4:10 5:5
5:0 4:10 5:10 12:5 14:5 12:5 4:5 5:20 4:10 5:5 13:5
4:0 5:10 12:5 14:5 12:5 4:5 5:20 4:10 5:5 13:5 14:5
5:0 12:5 14:5 12:5 4:5 5:20 4:10 5:5 13:5 14:5 13:10
12:0 14:5 12:5 4:5 5:20 4:10 5:5 13:5 14:5 13:10 3:5
14:0 12:5 4:5 5:20 4:10 5:5 13:5 14:5 13:10 3:5 5:15
12:0 4:5 5:20 4:10 5:5 13:5 14:5 13:10 3:5 5:15 4:15
4:0 5:20 4:10 5:5 13:5 14:5 13:10 3:5 5:15 4:15 6:10
5:0 4:10 5:5 13:5 14:5 13:10 3:5 5:15 4:15 6:10 14:5
4:0 5:5 13:5 14:5 13:10 3:5 5:15 4:15 6:10 14:5 4:15
5:0 13:5 14:5 13:10 3:5 5:15 4:15 6:10 14:5 4:15 5:5
13:0 14:5 13:10 3:5 5:15 4:15 6:10 14:5 4:15 5:5 4:10
14:0 13:10 3:5 5:15 4:15 6:10 14:5 4:15 5:5 4:10 5:15
13:0 3:5 5:15 4:15 6:10 14:5 4:15 5:5 4:10 5:15 13:5
3:0 5:15 4:15 6:10 14:5 4:15 5:5 4:10 5:15 13:5 14:5
5:0 4:15 6:10 14:5 4:15 5:5 4:10 5:15 13:5 14:5 11:5
4:0 6:10 14:5 4:15 5:5 4:10 5:15 13:5 14:5 11:5 4:5
6:0 14:5 4:15 5:5 4:10 5:15 13:5 14:5 11:5 4:5 6:10
14:0 4:15 5:5 4:10 5:15 13:5 14:5 11:5 4:5 6:10 4:5
4:0 5:5 4:10 5:15 13:5 14:5 11:5 4:5 6:10 4:5 5:10
5:0 4:10 5:15 13:5 14:5 11:5 4:5 6:10 4:5 5:10 13:5
4:0 5:15 13:5 14:5 11:5 4:5 6:10 4:5 5:10 13:5 14:5
5:0 13:5 14:5 11:5 4:5 6:10 4:5 5:10 13:5 14:5 3:10
13:0 14:5 11:5 4:5 6:10 4:5 5:10 13:5 14:5 3:10 4:5
14:0 11:5 4:5 6:10 4:5 5:10 13:5 14:5 3:10 4:5 5:20
11:0 4:5 6:10 4:5 5:10 13:5 14:5 3:10 4:5 5:20 4:5
4:0 6:10 4:5 5:10 13:5 14:5 3:10 4:5 5:20 4:5 5:10
6:0 4:5 5:10 13:5 14:5 3:10 4:5 5:20 4:5 5:10 12:5
4:0 5:10 13:5 14:5 3:10 4:5 5:20 4:5 5:10 12:5 14:5
5:0 13:5 14:5 3:10 4:5 5:20 4:5 5:10 12:5 14:5 8:10
13:0 14:5 3:10 4:5 5:20 4:5 5:10 12:5 14:5 8:10 4:5
14:0 3:10 4:5 5:20 4:5 5:10 12:5 14:5 8:10 4:5 3:5
3:0 4:5 5:20 4:5 5:10 12:5 14:5 8:10 4:5 3:5 5:5
4:0 5:20 4:5 5:10 12:5 14:5 8:10 4:5 3:5 5:5 9:5
5:0 4:5 5:10 12:5 14:5 8:10 4:5 3:5 5:5 9:5 14:5
4:0 5:10 12:5 14:5 8:10 4:5 3:5 5:5 9:5 14:5 3:10
5:0 12:5 14:5 8:10 4:5 3:5 5:5 9:5 14:5 3:10 4:5
12:0 14:5 8:10 4:5 3:5 5:5 9:5 14:5 3:10 4:5 6:20
14:0 8:10 4:5 3:5 5:5 9:5 14:5 3:10 4:5 6:20 5:5
8:0 4:5 3:5 5:5 9:5 14:5 3:10 4:5 6:20 5:5 4:5
4:0 3:5 5:5 9:5 14:5 3:10 4:5 6:20 5:5 4:5 5:10
3:0 5:5 9:5 14:5 3:10 4:5 6:20 5:5 4:5 5:10 14:5
5:0 9:5 14:5 3:10 4:5 6:20 5:5 4:5 5:10 14:5 3:15
9:0 14:5 3:10 4:5 6:20 5:5 4:5 5:10 14:5 3:15 4:10
14:0 3:10 4:5 6:20 5:5 4:5 5:10 14:5 3:15 4:10 5:5
3:0 4:5 6:20 5:5 4:5 5:10 14:5 3:15 4:10 5:5 4:10
4:0 6:20 5:5 4:5 5:10 14:5 3:15 4:10 5:5 4:10 5:10
6:0 5:5 4:5 5:10 14:5 3:15 4:10 5:5 4:10 5:10 13:5
5:0 4:5 5:10 14:5 3:15 4:10 5:5 4:10 5:10 13:5 14:5
4:0 5:10 14:5 3:15 4:10 5:5 4:10 5:10 13:5 14:5 5:10
5:0 14:5 3:15 4:10 5:5 4:10 5:10 13:5 14:5 5:10 4:5
14:0 3:15 4:10 5:5 4:10 5:10 13:5 14:5 5:10 4:5 5:15
3:0 4:10 5:5 4:10 5:10 13:5 14:5 5:10 4:5 5:15 10:10
4:0 5:5 4:10 5:10 13:5 14:5 5:10 4:5 5:15 10:10 14:5
5:0 4:10 5:10 13:5 14:5 5:10 4:5 5:15 10:10 14:5 3:10
4:0 5:10 13:5 14:5 5:10 4:5 5:15 10:10 14:5 3:10 4:5
5:0 13:5 14:5 5:10 4:5 5:15 10:10 14:5 3:10 4:5 5:5
13:0 14:5 5:10 4:5 5:15 10:10 14:5 3:10 4:5 5:5 4:10
14:0 5:10 4:5 5:15 10:10 14:5 3:10 4:5 5:5 4:10 5:10
5:0 4:5 5:15 10:10 14:5 3:10 4:5 5:5 4:10 5:10 12:5
4:0 5:15 10:10 14:5 3:10 4:5 5:5 4:10 5:10 12:5 14:5
5:0 10:10 14:5 3:10 4:5 5:5 4:10 5:10 12:5 14:5 8:10
10:0 14:5 3:10 4:5 5:5 4:10 5:10 12:5 14:5 8:10 4:5
14:0 3:10 4:5 5:5 4:10 5:10 12:5 14:5 8:10 4:5 6:20
3:0 4:5 5:5 4:10 5:10 12:5 14:5 8:10 4:5 6:20 10:5
4:0 5:5 4:10 5:10 12:5 14:5 8:10 4:5 6:20 10:5 14:5
5:0 4:10 5:10 12:5 14:5 8:10 4:5 6:20 10:5 14:5 11:5
4:0 5:10 12:5 14:5 8:10 4:5 6:20 10:5 14:5 11:5 3:5
5:0 12:5 14:5 8:10 4:5 6:20 10:5 14:5 11:5 3:5 4:5
12:0 14:5 8:10 4:5 6:20 10:5 14:5 11:5 3:5 4:5 5:5
14:0 8:10 4:5 6:20 10:5 14:5 11:5 3:5 4:5 5:5 4:10
8:0 4:5 6:20 10:5 14:5 11:5 3:5 4:5 5:5 4:10 10:15
4:0 6:20 10:5 14:5 11:5 3:5 4:5 5:5 4:10 10:15 14:5
6:0 10:5 14:5 11:5 3:5 4:5 5:5 4:10 10:15 14:5 10:10
10:0 14:5 11:5 3:5 4:5 5:5 4:10 10:15 14:5 10:10 4:5
14:0 11:5 3:5 4:5 5:5 4:10 10:15 14:5 10:10 4:5 5:10
11:0 3:5 4:5 5:5 4:10 10:15 14:5 10:10 4:5 5:10 4:5
3:0 4:5 5:5 4:10 10:15 14:5 10:10 4:5 5:10 4:5 5:15
4:0 5:5 4:10 10:15 14:5 10:10 4:5 5:10 4:5 5:15 13:5
5:0 4:10 10:15 14:5 10:10 4:5 5:10 4:5 5:15 13:5 14:5
4:0 10:15 14:5 10:10 4:5 5:10 4:5 5:15 13:5 14:5 8:5
10:0 14:5 10:10 4:5 5:10 4:5 5:15 13:5 14:5 8:5 4:5
14:0 10:10 4:5 5:10 4:5 5:15 13:5 14:5 8:5 4:5 5:10
10:0 4:5 5:10 4:5 5:15 13:5 14:5 8:5 4:5 5:10 4:5
4:0 5:10 4:5 5:15 13:5 14:5 8:5 4:5 5:10 4:5 5:10
5:0 4:5 5:15 13:5 14:5 8:5 4:5 5:10 4:5 5:10 13:5
4:0 5:15 13:5 14:5 8:5 4:5 5:10 4:5 5:10 13:5 14:5
5:0 13:5 14:5 8:5 4:5 5:10 4:5 5:10 13:5 14:5 4:10
13:0 14:5 8:5 4:5 5:10 4:5 5:10 13:5 14:5 4:10 6:15
14:0 8:5 4:5 5:10 4:5 5:10 13:5 14:5 4:10 6:15 4:5
8:0 4:5 5:10 4:5 5:10 13:5 14:5 4:10 6:15 4:5 5:5
4:0 5:10 4:5 5:10 13:5 14:5 4:10 6:15 4:5 5:5 4:5
5:0 4:5 5:10 13:5 14:5 4:10 6:15 4:5 5:5 4:5 5:5
4:0 5:10 13:5 14:5 4:10 6:15 4:5 5:5 4:5 5:5 14:5
5:0 13:5 14:5 4:10 6:15 4:5 5:5 4:5 5:5 14:5 8:15
13:0 14:5 4:10 6:15 4:5 5:5 4:5 5:5 14:5 8:15 3:5
14:0 4:10 6:15 4:5 5:5 4:5 5:5 14:5 8:15 3:5 4:5
4:0 6:15 4:5 5:5 4:5 5:5 14:5 8:15 3:5 4:5 3:5
6:0 4:5 5:5 4:5 5:5 14:5 8:15 3:5 4:5 3:5 6:5
4:0 5:5 4:5 5:5 14:5 8:15 3:5 4:5 3:5 6:5 8:5
5:0 4:5 5:5 14:5 8:15 3:5 4:5 3:5 6:5 8:5 14:5
4:0 5:5 14:5 8:15 3:5 4:5 3:5 6:5 8:5 14:5 12:5
5:0 14:5 8:15 3:5 4:5 3:5 6:5 8:5 14:5 12:5 3:5
14:0 8:15 3:5 4:5 3:5 6:5 8:5 14:5 12:5 3:5 4:5
8:0 3:5 4:5 3:5 6:5 8:5 14:5 12:5 3:5 4:5 5:15
3:0 4:5 3:5 6:5 8:5 14:5 12:5 3:5 4:5 5:15 4:15
4:0 3:5 6:5 8:5 14:5 12:5 3:5 4:5 5:15 4:15 5:5
3:0 6:5 8:5 14:5 12:5 3:5 4:5 5:15 4:15 5:5 14:5
6:0 8:5 14:5 12:5 3:5 4:5 5:15 4:15 5:5 14:5 6:15
8:0 14:5 12:5 3:5 4:5 5:15 4:15 5:5 14:5 6:15 4:5
14:0 12:5 3:5 4:5 5:15 4:15 5:5 14:5 6:15 4:5 3:5
12:0 3:5 4:5 5:15 4:15 5:5 14:5 6:15 4:5 3:5 5:5
3:0 4:5 5:15 4:15 5:5 14:5 6:15 4:5 3:5 5:5 6:5
4:0 5:15 4:15 5:5 14:5 6:15 4:5 3:5 5:5 6:5 13:5
5:0 4:15 5:5 14:5 6:15 4:5 3:5 5:5 6:5 13:5 14:5
4:0 5:5 14:5 6:15 4:5 3:5 5:5 6:5 13:5 14:5 6:5
5:0 14:5 6:15 4:5 3:5 5:5 6:5 13:5 14:5 6:5 4:5
14:0 6:15 4:5 3:5 5:5 6:5 13:5 14:5 6:5 4:5 5:15
6:0 4:5 3:5 5:5 6:5 13:5 14:5 6:5 4:5 5:15 4:15
4:0 3:5 5:5 6:5 13:5 14:5 6:5 4:5 5:15 4:15 5:5
3:0 5:5 6:5 13:5 14:5 6:5 4:5 5:15 4:15 5:5 13:5
5:0 6:5 13:5 14:5 6:5 4:5 5:15 4:15 5:5 13:5 14:5
6:0 13:5 14:5 6:5 4:5 5:15 4:15 5:5 13:5 14:5 3:15
13:0 14:5 6:5 4:5 5:15 4:15 5:5 13:5 14:5 3:15 4:10
14:0 6:5 4:5 5:15 4:15 5:5 13:5 14:5 3:15 4:10 5:5
6:0 4:5 5:15 4:15 5:5 13:5 14:5 3:15 4:10 5:5 4:10
4:0 5:15 4:15 5:5 13:5 14:5 3:15 4:10 5:5 4:10
5:0 4:15 5:5 13:5 14:5 3:15 4:10 5:5 4:10
4:0 5:5 13:5 14:5 3:15 4:10 5:5 4:10
5:0 13:5 14:5 3:15 4:10 5:5 4:10
13:0 14:5 3:15 4:10 5:5 4:10
14:0 3:15 4:10 5:5 4:10
3:0 4:10 5:5 4:10
4:0 5:5 4:10
5:0 4:10
4:0