4:0 3:40 1:5 4:15 1:25 4:10 2:40 1:5 3:15 4:5 2:40
3:0 1:5 4:15 1:25 4:10 2:40 1:5 3:15 4:5 2:40 1:5
1:0 4:15 1:25 4:10 2:40 1:5 3:15 4:5 2:40 1:5 3:10
4:0 1:25 4:10 2:40 1:5 3:15 4:5 2:40 1:5 3:10 4:5
1:0 4:10 2:40 1:5 3:15 4:5 2:40 1:5 3:10 4:5 1:15
4:0 2:40 1:5 3:15 4:5 2:40 1:5 3:10 4:5 1:15 4:15
2:0 1:5 3:15 4:5 2:40 1:5 3:10 4:5 1:15 4:15 2:25
1:0 3:15 4:5 2:40 1:5 3:10 4:5 1:15 4:15 2:25 1:5
3:0 4:5 2:40 1:5 3:10 4:5 1:15 4:15 2:25 1:5 3:5
4:0 2:40 1:5 3:10 4:5 1:15 4:15 2:25 1:5 3:5 4:5
2:0 1:5 3:10 4:5 1:15 4:15 2:25 1:5 3:5 4:5 3:25
1:0 3:10 4:5 1:15 4:15 2:25 1:5 3:5 4:5 3:25 1:5
3:0 4:5 1:15 4:15 2:25 1:5 3:5 4:5 3:25 1:5 4:15
4:0 1:15 4:15 2:25 1:5 3:5 4:5 3:25 1:5 4:15 2:40
1:0 4:15 2:25 1:5 3:5 4:5 3:25 1:5 4:15 2:40 1:5
4:0 2:25 1:5 3:5 4:5 3:25 1:5 4:15 2:40 1:5 3:15
2:0 1:5 3:5 4:5 3:25 1:5 4:15 2:40 1:5 3:15 4:5
1:0 3:5 4:5 3:25 1:5 4:15 2:40 1:5 3:15 4:5 3:35
3:0 4:5 3:25 1:5 4:15 2:40 1:5 3:15 4:5 3:35 1:5
4:0 3:25 1:5 4:15 2:40 1:5 3:15 4:5 3:35 1:5 4:15
3:0 1:5 4:15 2:40 1:5 3:15 4:5 3:35 1:5 4:15 1:30
1:0 4:15 2:40 1:5 3:15 4:5 3:35 1:5 4:15 1:30 2:10
4:0 2:40 1:5 3:15 4:5 3:35 1:5 4:15 1:30 2:10 4:5
2:0 1:5 3:15 4:5 3:35 1:5 4:15 1:30 2:10 4:5 2:15
1:0 3:15 4:5 3:35 1:5 4:15 1:30 2:10 4:5 2:15 1:5
3:0 4:5 3:35 1:5 4:15 1:30 2:10 4:5 2:15 1:5 3:5
4:0 3:35 1:5 4:15 1:30 2:10 4:5 2:15 1:5 3:5 4:5
3:0 1:5 4:15 1:30 2:10 4:5 2:15 1:5 3:5 4:5 2:40
1:0 4:15 1:30 2:10 4:5 2:15 1:5 3:5 4:5 2:40 1:5
4:0 1:30 2:10 4:5 2:15 1:5 3:5 4:5 2:40 1:5 4:15
1:0 2:10 4:5 2:15 1:5 3:5 4:5 2:40 1:5 4:15 1:40
2:0 4:5 2:15 1:5 3:5 4:5 2:40 1:5 4:15 1:40 3:15
4:0 2:15 1:5 3:5 4:5 2:40 1:5 4:15 1:40 3:15 4:5
2:0 1:5 3:5 4:5 2:40 1:5 4:15 1:40 3:15 4:5 1:35
1:0 3:5 4:5 2:40 1:5 4:15 1:40 3:15 4:5 1:35 3:10
3:0 4:5 2:40 1:5 4:15 1:40 3:15 4:5 1:35 3:10 4:5
4:0 2:40 1:5 4:15 1:40 3:15 4:5 1:35 3:10 4:5 1:30
2:0 1:5 4:15 1:40 3:15 4:5 1:35 3:10 4:5 1:30 4:15
1:0 4:15 1:40 3:15 4:5 1:35 3:10 4:5 1:30 4:15 2:40
4:0 1:40 3:15 4:5 1:35 3:10 4:5 1:30 4:15 2:40 1:5
1:0 3:15 4:5 1:35 3:10 4:5 1:30 4:15 2:40 1:5 4:15
3:0 4:5 1:35 3:10 4:5 1:30 4:15 2:40 1:5 4:15 2:20
4:0 1:35 3:10 4:5 1:30 4:15 2:40 1:5 4:15 2:20 1:5
1:0 3:10 4:5 1:30 4:15 2:40 1:5 4:15 2:20 1:5 2:5
3:0 4:5 1:30 4:15 2:40 1:5 4:15 2:20 1:5 2:5 4:5
4:0 1:30 4:15 2:40 1:5 4:15 2:20 1:5 2:5 4:5 1:45
1:0 4:15 2:40 1:5 4:15 2:20 1:5 2:5 4:5 1:45 3:15
4:0 2:40 1:5 4:15 2:20 1:5 2:5 4:5 1:45 3:15 4:5
2:0 1:5 4:15 2:20 1:5 2:5 4:5 1:45 3:15 4:5 1:20
1:0 4:15 2:20 1:5 2:5 4:5 1:45 3:15 4:5 1:20 4:10
4:0 2:20 1:5 2:5 4:5 1:45 3:15 4:5 1:20 4:10 1:40
2:0 1:5 2:5 4:5 1:45 3:15 4:5 1:20 4:10 1:40 2:10
1:0 2:5 4:5 1:45 3:15 4:5 1:20 4:10 1:40 2:10 4:5
2:0 4:5 1:45 3:15 4:5 1:20 4:10 1:40 2:10 4:5 1:30
4:0 1:45 3:15 4:5 1:20 4:10 1:40 2:10 4:5 1:30 2:10
1:0 3:15 4:5 1:20 4:10 1:40 2:10 4:5 1:30 2:10 4:5
3:0 4:5 1:20 4:10 1:40 2:10 4:5 1:30 2:10 4:5 2:40
4:0 1:20 4:10 1:40 2:10 4:5 1:30 2:10 4:5 2:40 1:5
1:0 4:10 1:40 2:10 4:5 1:30 2:10 4:5 2:40 1:5 2:10
4:0 1:40 2:10 4:5 1:30 2:10 4:5 2:40 1:5 2:10 4:5
1:0 2:10 4:5 1:30 2:10 4:5 2:40 1:5 2:10 4:5 2:20
2:0 4:5 1:30 2:10 4:5 2:40 1:5 2:10 4:5 2:20 1:5
4:0 1:30 2:10 4:5 2:40 1:5 2:10 4:5 2:20 1:5 3:5
1:0 2:10 4:5 2:40 1:5 2:10 4:5 2:20 1:5 3:5 4:5
2:0 4:5 2:40 1:5 2:10 4:5 2:20 1:5 3:5 4:5 1:30
4:0 2:40 1:5 2:10 4:5 2:20 1:5 3:5 4:5 1:30 4:15
2:0 1:5 2:10 4:5 2:20 1:5 3:5 4:5 1:30 4:15 2:40
1:0 2:10 4:5 2:20 1:5 3:5 4:5 1:30 4:15 2:40 1:5
2:0 4:5 2:20 1:5 3:5 4:5 1:30 4:15 2:40 1:5 4:15
4:0 2:20 1:5 3:5 4:5 1:30 4:15 2:40 1:5 4:15 2:25
2:0 1:5 3:5 4:5 1:30 4:15 2:40 1:5 4:15 2:25 1:5
1:0 3:5 4:5 1:30 4:15 2:40 1:5 4:15 2:25 1:5 2:5
3:0 4:5 1:30 4:15 2:40 1:5 4:15 2:25 1:5 2:5 4:5
4:0 1:30 4:15 2:40 1:5 4:15 2:25 1:5 2:5 4:5 2:15
1:0 4:15 2:40 1:5 4:15 2:25 1:5 2:5 4:5 2:15 1:5
4:0 2:40 1:5 4:15 2:25 1:5 2:5 4:5 2:15 1:5 4:10
2:0 1:5 4:15 2:25 1:5 2:5 4:5 2:15 1:5 4:10 2:25
1:0 4:15 2:25 1:5 2:5 4:5 2:15 1:5 4:10 2:25 1:5
4:0 2:25 1:5 2:5 4:5 2:15 1:5 4:10 2:25 1:5 3:5
2:0 1:5 2:5 4:5 2:15 1:5 4:10 2:25 1:5 3:5 4:5
1:0 2:5 4:5 2:15 1:5 4:10 2:25 1:5 3:5 4:5 2:40
2:0 4:5 2:15 1:5 4:10 2:25 1:5 3:5 4:5 2:40 1:5
4:0 2:15 1:5 4:10 2:25 1:5 3:5 4:5 2:40 1:5 4:15
2:0 1:5 4:10 2:25 1:5 3:5 4:5 2:40 1:5 4:15 2:40
1:0 4:10 2:25 1:5 3:5 4:5 2:40 1:5 4:15 2:40 1:5
4:0 2:25 1:5 3:5 4:5 2:40 1:5 4:15 2:40 1:5 2:10
2:0 1:5 3:5 4:5 2:40 1:5 4:15 2:40 1:5 2:10 4:5
1:0 3:5 4:5 2:40 1:5 4:15 2:40 1:5 2:10 4:5 1:30
3:0 4:5 2:40 1:5 4:15 2:40 1:5 2:10 4:5 1:30 4:15
4:0 2:40 1:5 4:15 2:40 1:5 2:10 4:5 1:30 4:15 2:40
2:0 1:5 4:15 2:40 1:5 2:10 4:5 1:30 4:15 2:40 1:5
1:0 4:15 2:40 1:5 2:10 4:5 1:30 4:15 2:40 1:5 4:15
4:0 2:40 1:5 2:10 4:5 1:30 4:15 2:40 1:5 4:15 1:45
2:0 1:5 2:10 4:5 1:30 4:15 2:40 1:5 4:15 1:45 3:15
1:0 2:10 4:5 1:30 4:15 2:40 1:5 4:15 1:45 3:15 4:5
2:0 4:5 1:30 4:15 2:40 1:5 4:15 1:45 3:15 4:5 2:25
4:0 1:30 4:15 2:40 1:5 4:15 1:45 3:15 4:5 2:25 1:5
1:0 4:15 2:40 1:5 4:15 1:45 3:15 4:5 2:25 1:5 4:10
4:0 2:40 1:5 4:15 1:45 3:15 4:5 2:25 1:5 4:10 1:40
2:0 1:5 4:15 1:45 3:15 4:5 2:25 1:5 4:10 1:40 3:10
1:0 4:15 1:45 3:15 4:5 2:25 1:5 4:10 1:40 3:10 4:5
4:0 1:45 3:15 4:5 2:25 1:5 4:10 1:40 3:10 4:5 2:40
1:0 3:15 4:5 2:25 1:5 4:10 1:40 3:10 4:5 2:40 1:5
3:0 4:5 2:25 1:5 4:10 1:40 3:10 4:5 2:40 1:5 4:15
4:0 2:25 1:5 4:10 1:40 3:10 4:5 2:40 1:5 4:15 1:25
2:0 1:5 4:10 1:40 3:10 4:5 2:40 1:5 4:15 1:25 4:10
1:0 4:10 1:40 3:10 4:5 2:40 1:5 4:15 1:25 4:10 3:30
4:0 1:40 3:10 4:5 2:40 1:5 4:15 1:25 4:10 3:30 1:5
1:0 3:10 4:5 2:40 1:5 4:15 1:25 4:10 3:30 1:5 3:10
3:0 4:5 2:40 1:5 4:15 1:25 4:10 3:30 1:5 3:10 4:5
4:0 2:40 1:5 4:15 1:25 4:10 3:30 1:5 3:10 4:5 1:40
2:0 1:5 4:15 1:25 4:10 3:30 1:5 3:10 4:5 1:40 3:15
1:0 4:15 1:25 4:10 3:30 1:5 3:10 4:5 1:40 3:15 4:5
4:0 1:25 4:10 3:30 1:5 3:10 4:5 1:40 3:15 4:5 1:40
1:0 4:10 3:30 1:5 3:10 4:5 1:40 3:15 4:5 1:40 3:15
4:0 3:30 1:5 3:10 4:5 1:40 3:15 4:5 1:40 3:15 4:5
3:0 1:5 3:10 4:5 1:40 3:15 4:5 1:40 3:15 4:5 2:30
1:0 3:10 4:5 1:40 3:15 4:5 1:40 3:15 4:5 2:30 1:5
3:0 4:5 1:40 3:15 4:5 1:40 3:15 4:5 2:30 1:5 4:10
4:0 1:40 3:15 4:5 1:40 3:15 4:5 2:30 1:5 4:10 2:40
1:0 3:15 4:5 1:40 3:15 4:5 2:30 1:5 4:10 2:40 1:5
3:0 4:5 1:40 3:15 4:5 2:30 1:5 4:10 2:40 1:5 3:15
4:0 1:40 3:15 4:5 2:30 1:5 4:10 2:40 1:5 3:15 4:5
1:0 3:15 4:5 2:30 1:5 4:10 2:40 1:5 3:15 4:5 1:20
3:0 4:5 2:30 1:5 4:10 2:40 1:5 3:15 4:5 1:20 4:10
4:0 2:30 1:5 4:10 2:40 1:5 3:15 4:5 1:20 4:10 2:30
2:0 1:5 4:10 2:40 1:5 3:15 4:5 1:20 4:10 2:30 1:5
1:0 4:10 2:40 1:5 3:15 4:5 1:20 4:10 2:30 1:5 2:5
4:0 2:40 1:5 3:15 4:5 1:20 4:10 2:30 1:5 2:5 4:5
2:0 1:5 3:15 4:5 1:20 4:10 2:30 1:5 2:5 4:5 2:35
1:0 3:15 4:5 1:20 4:10 2:30 1:5 2:5 4:5 2:35 1:5
3:0 4:5 1:20 4:10 2:30 1:5 2:5 4:5 2:35 1:5 3:10
4:0 1:20 4:10 2:30 1:5 2:5 4:5 2:35 1:5 3:10 4:5
1:0 4:10 2:30 1:5 2:5 4:5 2:35 1:5 3:10 4:5 1:30
4:0 2:30 1:5 2:5 4:5 2:35 1:5 3:10 4:5 1:30 4:15
2:0 1:5 2:5 4:5 2:35 1:5 3:10 4:5 1:30 4:15 1:35
1:0 2:5 4:5 2:35 1:5 3:10 4:5 1:30 4:15 1:35 4:15
2:0 4:5 2:35 1:5 3:10 4:5 1:30 4:15 1:35 4:15 3:30
4:0 2:35 1:5 3:10 4:5 1:30 4:15 1:35 4:15 3:30 1:5
2:0 1:5 3:10 4:5 1:30 4:15 1:35 4:15 3:30 1:5 2:10
1:0 3:10 4:5 1:30 4:15 1:35 4:15 3:30 1:5 2:10 4:5
3:0 4:5 1:30 4:15 1:35 4:15 3:30 1:5 2:10 4:5 3:35
4:0 1:30 4:15 1:35 4:15 3:30 1:5 2:10 4:5 3:35 1:5
1:0 4:15 1:35 4:15 3:30 1:5 2:10 4:5 3:35 1:5 4:15
4:0 1:35 4:15 3:30 1:5 2:10 4:5 3:35 1:5 4:15 2:25
1:0 4:15 3:30 1:5 2:10 4:5 3:35 1:5 4:15 2:25 1:5
4:0 3:30 1:5 2:10 4:5 3:35 1:5 4:15 2:25 1:5 3:5
3:0 1:5 2:10 4:5 3:35 1:5 4:15 2:25 1:5 3:5 4:5
1:0 2:10 4:5 3:35 1:5 4:15 2:25 1:5 3:5 4:5 1:30
2:0 4:5 3:35 1:5 4:15 2:25 1:5 3:5 4:5 1:30 4:15
4:0 3:35 1:5 4:15 2:25 1:5 3:5 4:5 1:30 4:15 1:45
3:0 1:5 4:15 2:25 1:5 3:5 4:5 1:30 4:15 1:45 3:15
1:0 4:15 2:25 1:5 3:5 4:5 1:30 4:15 1:45 3:15 4:5
4:0 2:25 1:5 3:5 4:5 1:30 4:15 1:45 3:15 4:5 1:40
2:0 1:5 3:5 4:5 1:30 4:15 1:45 3:15 4:5 1:40 3:15
1:0 3:5 4:5 1:30 4:15 1:45 3:15 4:5 1:40 3:15 4:5
3:0 4:5 1:30 4:15 1:45 3:15 4:5 1:40 3:15 4:5 2:25
4:0 1:30 4:15 1:45 3:15 4:5 1:40 3:15 4:5 2:25 1:5
1:0 4:15 1:45 3:15 4:5 1:40 3:15 4:5 2:25 1:5 3:10
4:0 1:45 3:15 4:5 1:40 3:15 4:5 2:25 1:5 3:10 4:5
1:0 3:15 4:5 1:40 3:15 4:5 2:25 1:5 3:10 4:5 3:40
3:0 4:5 1:40 3:15 4:5 2:25 1:5 3:10 4:5 3:40 1:5
4:0 1:40 3:15 4:5 2:25 1:5 3:10 4:5 3:40 1:5 4:15
1:0 3:15 4:5 2:25 1:5 3:10 4:5 3:40 1:5 4:15 3:40
3:0 4:5 2:25 1:5 3:10 4:5 3:40 1:5 4:15 3:40 1:5
4:0 2:25 1:5 3:10 4:5 3:40 1:5 4:15 3:40 1:5 4:15
2:0 1:5 3:10 4:5 3:40 1:5 4:15 3:40 1:5 4:15 1:30
1:0 3:10 4:5 3:40 1:5 4:15 3:40 1:5 4:15 1:30 4:15
3:0 4:5 3:40 1:5 4:15 3:40 1:5 4:15 1:30 4:15 1:40
4:0 3:40 1:5 4:15 3:40 1:5 4:15 1:30 4:15 1:40 2:10
3:0 1:5 4:15 3:40 1:5 4:15 1:30 4:15 1:40 2:10 4:5
1:0 4:15 3:40 1:5 4:15 1:30 4:15 1:40 2:10 4:5 1:40
4:0 3:40 1:5 4:15 1:30 4:15 1:40 2:10 4:5 1:40 3:15
3:0 1:5 4:15 1:30 4:15 1:40 2:10 4:5 1:40 3:15 4:5
1:0 4:15 1:30 4:15 1:40 2:10 4:5 1:40 3:15 4:5 2:20
4:0 1:30 4:15 1:40 2:10 4:5 1:40 3:15 4:5 2:20 1:5
1:0 4:15 1:40 2:10 4:5 1:40 3:15 4:5 2:20 1:5 3:5
4:0 1:40 2:10 4:5 1:40 3:15 4:5 2:20 1:5 3:5 4:5
1:0 2:10 4:5 1:40 3:15 4:5 2:20 1:5 3:5 4:5 2:30
2:0 4:5 1:40 3:15 4:5 2:20 1:5 3:5 4:5 2:30 1:5
4:0 1:40 3:15 4:5 2:20 1:5 3:5 4:5 2:30 1:5 2:5
1:0 3:15 4:5 2:20 1:5 3:5 4:5 2:30 1:5 2:5 4:5
3:0 4:5 2:20 1:5 3:5 4:5 2:30 1:5 2:5 4:5 1:35
4:0 2:20 1:5 3:5 4:5 2:30 1:5 2:5 4:5 1:35 2:10
2:0 1:5 3:5 4:5 2:30 1:5 2:5 4:5 1:35 2:10 4:5
1:0 3:5 4:5 2:30 1:5 2:5 4:5 1:35 2:10 4:5 2:30
3:0 4:5 2:30 1:5 2:5 4:5 1:35 2:10 4:5 2:30 1:5
4:0 2:30 1:5 2:5 4:5 1:35 2:10 4:5 2:30 1:5 4:10
2:0 1:5 2:5 4:5 1:35 2:10 4:5 2:30 1:5 4:10 3:25
1:0 2:5 4:5 1:35 2:10 4:5 2:30 1:5 4:10 3:25 1:5
2:0 4:5 1:35 2:10 4:5 2:30 1:5 4:10 3:25 1:5 3:10
4:0 1:35 2:10 4:5 2:30 1:5 4:10 3:25 1:5 3:10 4:5
1:0 2:10 4:5 2:30 1:5 4:10 3:25 1:5 3:10 4:5 1:35
2:0 4:5 2:30 1:5 4:10 3:25 1:5 3:10 4:5 1:35 4:15
4:0 2:30 1:5 4:10 3:25 1:5 3:10 4:5 1:35 4:15 2:45
2:0 1:5 4:10 3:25 1:5 3:10 4:5 1:35 4:15 2:45 1:5
1:0 4:10 3:25 1:5 3:10 4:5 1:35 4:15 2:45 1:5 4:15
4:0 3:25 1:5 3:10 4:5 1:35 4:15 2:45 1:5 4:15 2:20
3:0 1:5 3:10 4:5 1:35 4:15 2:45 1:5 4:15 2:20 1:5
1:0 3:10 4:5 1:35 4:15 2:45 1:5 4:15 2:20 1:5 3:5
3:0 4:5 1:35 4:15 2:45 1:5 4:15 2:20 1:5 3:5 4:5
4:0 1:35 4:15 2:45 1:5 4:15 2:20 1:5 3:5 4:5 2:30
1:0 4:15 2:45 1:5 4:15 2:20 1:5 3:5 4:5 2:30 1:5
4:0 2:45 1:5 4:15 2:20 1:5 3:5 4:5 2:30 1:5 4:10
2:0 1:5 4:15 2:20 1:5 3:5 4:5 2:30 1:5 4:10 1:45
1:0 4:15 2:20 1:5 3:5 4:5 2:30 1:5 4:10 1:45 4:15
4:0 2:20 1:5 3:5 4:5 2:30 1:5 4:10 1:45 4:15 1:25
2:0 1:5 3:5 4:5 2:30 1:5 4:10 1:45 4:15 1:25 4:10
1:0 3:5 4:5 2:30 1:5 4:10 1:45 4:15 1:25 4:10 1:30
3:0 4:5 2:30 1:5 4:10 1:45 4:15 1:25 4:10 1:30 2:10
4:0 2:30 1:5 4:10 1:45 4:15 1:25 4:10 1:30 2:10 4:5
2:0 1:5 4:10 1:45 4:15 1:25 4:10 1:30 2:10 4:5 2:35
1:0 4:10 1:45 4:15 1:25 4:10 1:30 2:10 4:5 2:35 1:5
4:0 1:45 4:15 1:25 4:10 1:30 2:10 4:5 2:35 1:5 2:10
1:0 4:15 1:25 4:10 1:30 2:10 4:5 2:35 1:5 2:10 4:5
4:0 1:25 4:10 1:30 2:10 4:5 2:35 1:5 2:10 4:5 2:25
1:0 4:10 1:30 2:10 4:5 2:35 1:5 2:10 4:5 2:25 1:5
4:0 1:30 2:10 4:5 2:35 1:5 2:10 4:5 2:25 1:5 2:5
1:0 2:10 4:5 2:35 1:5 2:10 4:5 2:25 1:5 2:5 4:5
2:0 4:5 2:35 1:5 2:10 4:5 2:25 1:5 2:5 4:5 2:35
4:0 2:35 1:5 2:10 4:5 2:25 1:5 2:5 4:5 2:35 1:5
2:0 1:5 2:10 4:5 2:25 1:5 2:5 4:5 2:35 1:5 3:10
1:0 2:10 4:5 2:25 1:5 2:5 4:5 2:35 1:5 3:10 4:5
2:0 4:5 2:25 1:5 2:5 4:5 2:35 1:5 3:10 4:5 3:30
4:0 2:25 1:5 2:5 4:5 2:35 1:5 3:10 4:5 3:30 1:5
2:0 1:5 2:5 4:5 2:35 1:5 3:10 4:5 3:30 1:5 3:10
1:0 2:5 4:5 2:35 1:5 3:10 4:5 3:30 1:5 3:10 4:5
2:0 4:5 2:35 1:5 3:10 4:5 3:30 1:5 3:10 4:5 1:30
4:0 2:35 1:5 3:10 4:5 3:30 1:5 3:10 4:5 1:30 2:10
2:0 1:5 3:10 4:5 3:30 1:5 3:10 4:5 1:30 2:10 4:5
1:0 3:10 4:5 3:30 1:5 3:10 4:5 1:30 2:10 4:5 2:30
3:0 4:5 3:30 1:5 3:10 4:5 1:30 2:10 4:5 2:30 1:5
4:0 3:30 1:5 3:10 4:5 1:30 2:10 4:5 2:30 1:5 2:5
3:0 1:5 3:10 4:5 1:30 2:10 4:5 2:30 1:5 2:5 4:5
1:0 3:10 4:5 1:30 2:10 4:5 2:30 1:5 2:5 4:5 2:30
3:0 4:5 1:30 2:10 4:5 2:30 1:5 2:5 4:5 2:30 1:5
4:0 1:30 2:10 4:5 2:30 1:5 2:5 4:5 2:30 1:5 2:10
1:0 2:10 4:5 2:30 1:5 2:5 4:5 2:30 1:5 2:10 4:5
2:0 4:5 2:30 1:5 2:5 4:5 2:30 1:5 2:10 4:5 2:30
4:0 2:30 1:5 2:5 4:5 2:30 1:5 2:10 4:5 2:30 1:5
2:0 1:5 2:5 4:5 2:30 1:5 2:10 4:5 2:30 1:5 2:5
1:0 2:5 4:5 2:30 1:5 2:10 4:5 2:30 1:5 2:5 4:5
2:0 4:5 2:30 1:5 2:10 4:5 2:30 1:5 2:5 4:5 1:35
4:0 2:30 1:5 2:10 4:5 2:30 1:5 2:5 4:5 1:35 4:15
2:0 1:5 2:10 4:5 2:30 1:5 2:5 4:5 1:35 4:15 2:40
1:0 2:10 4:5 2:30 1:5 2:5 4:5 1:35 4:15 2:40 1:5
2:0 4:5 2:30 1:5 2:5 4:5 1:35 4:15 2:40 1:5 3:15
4:0 2:30 1:5 2:5 4:5 1:35 4:15 2:40 1:5 3:15 4:5
2:0 1:5 2:5 4:5 1:35 4:15 2:40 1:5 3:15 4:5 2:40
1:0 2:5 4:5 1:35 4:15 2:40 1:5 3:15 4:5 2:40 1:5
2:0 4:5 1:35 4:15 2:40 1:5 3:15 4:5 2:40 1:5 4:10
4:0 1:35 4:15 2:40 1:5 3:15 4:5 2:40 1:5 4:10 1:35
1:0 4:15 2:40 1:5 3:15 4:5 2:40 1:5 4:10 1:35 2:10
4:0 2:40 1:5 3:15 4:5 2:40 1:5 4:10 1:35 2:10 4:5
2:0 1:5 3:15 4:5 2:40 1:5 4:10 1:35 2:10 4:5 3:25
1:0 3:15 4:5 2:40 1:5 4:10 1:35 2:10 4:5 3:25 1:5
3:0 4:5 2:40 1:5 4:10 1:35 2:10 4:5 3:25 1:5 3:10
4:0 2:40 1:5 4:10 1:35 2:10 4:5 3:25 1:5 3:10 4:5
2:0 1:5 4:10 1:35 2:10 4:5 3:25 1:5 3:10 4:5 1:15
1:0 4:10 1:35 2:10 4:5 3:25 1:5 3:10 4:5 1:15 4:10
4:0 1:35 2:10 4:5 3:25 1:5 3:10 4:5 1:15 4:10 1:40
1:0 2:10 4:5 3:25 1:5 3:10 4:5 1:15 4:10 1:40 3:15
2:0 4:5 3:25 1:5 3:10 4:5 1:15 4:10 1:40 3:15 4:5
4:0 3:25 1:5 3:10 4:5 1:15 4:10 1:40 3:15 4:5 2:25
3:0 1:5 3:10 4:5 1:15 4:10 1:40 3:15 4:5 2:25 1:5
1:0 3:10 4:5 1:15 4:10 1:40 3:15 4:5 2:25 1:5 3:5
3:0 4:5 1:15 4:10 1:40 3:15 4:5 2:25 1:5 3:5 4:5
4:0 1:15 4:10 1:40 3:15 4:5 2:25 1:5 3:5 4:5 1:30
1:0 4:10 1:40 3:15 4:5 2:25 1:5 3:5 4:5 1:30 4:15
4:0 1:40 3:15 4:5 2:25 1:5 3:5 4:5 1:30 4:15 2:35
1:0 3:15 4:5 2:25 1:5 3:5 4:5 1:30 4:15 2:35 1:5
3:0 4:5 2:25 1:5 3:5 4:5 1:30 4:15 2:35 1:5 4:10
4:0 2:25 1:5 3:5 4:5 1:30 4:15 2:35 1:5 4:10 2:30
2:0 1:5 3:5 4:5 1:30 4:15 2:35 1:5 4:10 2:30 1:5
1:0 3:5 4:5 1:30 4:15 2:35 1:5 4:10 2:30 1:5 3:10
3:0 4:5 1:30 4:15 2:35 1:5 4:10 2:30 1:5 3:10 4:5
4:0 1:30 4:15 2:35 1:5 4:10 2:30 1:5 3:10 4:5 1:40
1:0 4:15 2:35 1:5 4:10 2:30 1:5 3:10 4:5 1:40 3:15
4:0 2:35 1:5 4:10 2:30 1:5 3:10 4:5 1:40 3:15 4:5
2:0 1:5 4:10 2:30 1:5 3:10 4:5 1:40 3:15 4:5 1:20
1:0 4:10 2:30 1:5 3:10 4:5 1:40 3:15 4:5 1:20 4:10
4:0 2:30 1:5 3:10 4:5 1:40 3:15 4:5 1:20 4:10 1:45
2:0 1:5 3:10 4:5 1:40 3:15 4:5 1:20 4:10 1:45 2:15
1:0 3:10 4:5 1:40 3:15 4:5 1:20 4:10 1:45 2:15 4:5
3:0 4:5 1:40 3:15 4:5 1:20 4:10 1:45 2:15 4:5 2:40
4:0 1:40 3:15 4:5 1:20 4:10 1:45 2:15 4:5 2:40 1:5
1:0 3:15 4:5 1:20 4:10 1:45 2:15 4:5 2:40 1:5 2:10
3:0 4:5 1:20 4:10 1:45 2:15 4:5 2:40 1:5 2:10 4:5
4:0 1:20 4:10 1:45 2:15 4:5 2:40 1:5 2:10 4:5 1:30
1:0 4:10 1:45 2:15 4:5 2:40 1:5 2:10 4:5 1:30 4:15
4:0 1:45 2:15 4:5 2:40 1:5 2:10 4:5 1:30 4:15 2:40
1:0 2:15 4:5 2:40 1:5 2:10 4:5 1:30 4:15 2:40 1:5
2:0 4:5 2:40 1:5 2:10 4:5 1:30 4:15 2:40 1:5 3:15
4:0 2:40 1:5 2:10 4:5 1:30 4:15 2:40 1:5 3:15 4:5
2:0 1:5 2:10 4:5 1:30 4:15 2:40 1:5 3:15 4:5 1:20
1:0 2:10 4:5 1:30 4:15 2:40 1:5 3:15 4:5 1:20 2:10
2:0 4:5 1:30 4:15 2:40 1:5 3:15 4:5 1:20 2:10 4:5
4:0 1:30 4:15 2:40 1:5 3:15 4:5 1:20 2:10 4:5 2:30
1:0 4:15 2:40 1:5 3:15 4:5 1:20 2:10 4:5 2:30 1:5
4:0 2:40 1:5 3:15 4:5 1:20 2:10 4:5 2:30 1:5 4:10
2:0 1:5 3:15 4:5 1:20 2:10 4:5 2:30 1:5 4:10 3:30
1:0 3:15 4:5 1:20 2:10 4:5 2:30 1:5 4:10 3:30 1:5
3:0 4:5 1:20 2:10 4:5 2:30 1:5 4:10 3:30 1:5 3:10
4:0 1:20 2:10 4:5 2:30 1:5 4:10 3:30 1:5 3:10 4:5
1:0 2:10 4:5 2:30 1:5 4:10 3:30 1:5 3:10 4:5 1:40
2:0 4:5 2:30 1:5 4:10 3:30 1:5 3:10 4:5 1:40 3:15
4:0 2:30 1:5 4:10 3:30 1:5 3:10 4:5 1:40 3:15 4:5
2:0 1:5 4:10 3:30 1:5 3:10 4:5 1:40 3:15 4:5 3:20
1:0 4:10 3:30 1:5 3:10 4:5 1:40 3:15 4:5 3:20 1:5
4:0 3:30 1:5 3:10 4:5 1:40 3:15 4:5 3:20 1:5 4:10
3:0 1:5 3:10 4:5 1:40 3:15 4:5 3:20 1:5 4:10 1:30
1:0 3:10 4:5 1:40 3:15 4:5 3:20 1:5 4:10 1:30 4:15
3:0 4:5 1:40 3:15 4:5 3:20 1:5 4:10 1:30 4:15 1:45
4:0 1:40 3:15 4:5 3:20 1:5 4:10 1:30 4:15 1:45 3:15
1:0 3:15 4:5 3:20 1:5 4:10 1:30 4:15 1:45 3:15 4:5
3:0 4:5 3:20 1:5 4:10 1:30 4:15 1:45 3:15 4:5 1:40
4:0 3:20 1:5 4:10 1:30 4:15 1:45 3:15 4:5 1:40 2:15
3:0 1:5 4:10 1:30 4:15 1:45 3:15 4:5 1:40 2:15 4:5
1:0 4:10 1:30 4:15 1:45 3:15 4:5 1:40 2:15 4:5 2:25
4:0 1:30 4:15 1:45 3:15 4:5 1:40 2:15 4:5 2:25 1:5
1:0 4:15 1:45 3:15 4:5 1:40 2:15 4:5 2:25 1:5 4:10
4:0 1:45 3:15 4:5 1:40 2:15 4:5 2:25 1:5 4:10 2:35
1:0 3:15 4:5 1:40 2:15 4:5 2:25 1:5 4:10 2:35 1:5
3:0 4:5 1:40 2:15 4:5 2:25 1:5 4:10 2:35 1:5 3:10
4:0 1:40 2:15 4:5 2:25 1:5 4:10 2:35 1:5 3:10 4:5
1:0 2:15 4:5 2:25 1:5 4:10 2:35 1:5 3:10 4:5 1:30
2:0 4:5 2:25 1:5 4:10 2:35 1:5 3:10 4:5 1:30 2:10
4:0 2:25 1:5 4:10 2:35 1:5 3:10 4:5 1:30 2:10 4:5
2:0 1:5 4:10 2:35 1:5 3:10 4:5 1:30 2:10 4:5 2:30
1:0 4:10 2:35 1:5 3:10 4:5 1:30 2:10 4:5 2:30 1:5
4:0 2:35 1:5 3:10 4:5 1:30 2:10 4:5 2:30 1:5 2:10
2:0 1:5 3:10 4:5 1:30 2:10 4:5 2:30 1:5 2:10 4:5
1:0 3:10 4:5 1:30 2:10 4:5 2:30 1:5 2:10 4:5 1:35
3:0 4:5 1:30 2:10 4:5 2:30 1:5 2:10 4:5 1:35 2:10
4:0 1:30 2:10 4:5 2:30 1:5 2:10 4:5 1:35 2:10 4:5
1:0 2:10 4:5 2:30 1:5 2:10 4:5 1:35 2:10 4:5 1:30
2:0 4:5 2:30 1:5 2:10 4:5 1:35 2:10 4:5 1:30 4:15
4:0 2:30 1:5 2:10 4:5 1:35 2:10 4:5 1:30 4:15 1:40
2:0 1:5 2:10 4:5 1:35 2:10 4:5 1:30 4:15 1:40 3:15
1:0 2:10 4:5 1:35 2:10 4:5 1:30 4:15 1:40 3:15 4:5
2:0 4:5 1:35 2:10 4:5 1:30 4:15 1:40 3:15 4:5 2:20
4:0 1:35 2:10 4:5 1:30 4:15 1:40 3:15 4:5 2:20 1:5
1:0 2:10 4:5 1:30 4:15 1:40 3:15 4:5 2:20 1:5 2:5
2:0 4:5 1:30 4:15 1:40 3:15 4:5 2:20 1:5 2:5 4:5
4:0 1:30 4:15 1:40 3:15 4:5 2:20 1:5 2:5 4:5 1:30
1:0 4:15 1:40 3:15 4:5 2:20 1:5 2:5 4:5 1:30 3:10
4:0 1:40 3:15 4:5 2:20 1:5 2:5 4:5 1:30 3:10 4:5
1:0 3:15 4:5 2:20 1:5 2:5 4:5 1:30 3:10 4:5 2:35
3:0 4:5 2:20 1:5 2:5 4:5 1:30 3:10 4:5 2:35 1:5
4:0 2:20 1:5 2:5 4:5 1:30 3:10 4:5 2:35 1:5 3:10
2:0 1:5 2:5 4:5 1:30 3:10 4:5 2:35 1:5 3:10 4:5
1:0 2:5 4:5 1:30 3:10 4:5 2:35 1:5 3:10 4:5 1:40
2:0 4:5 1:30 3:10 4:5 2:35 1:5 3:10 4:5 1:40 4:20
4:0 1:30 3:10 4:5 2:35 1:5 3:10 4:5 1:40 4:20 2:40
1:0 3:10 4:5 2:35 1:5 3:10 4:5 1:40 4:20 2:40 1:5
3:0 4:5 2:35 1:5 3:10 4:5 1:40 4:20 2:40 1:5 3:10
4:0 2:35 1:5 3:10 4:5 1:40 4:20 2:40 1:5 3:10 4:5
2:0 1:5 3:10 4:5 1:40 4:20 2:40 1:5 3:10 4:5 1:30
1:0 3:10 4:5 1:40 4:20 2:40 1:5 3:10 4:5 1:30 4:15
3:0 4:5 1:40 4:20 2:40 1:5 3:10 4:5 1:30 4:15 1:35
4:0 1:40 4:20 2:40 1:5 3:10 4:5 1:30 4:15 1:35 2:10
1:0 4:20 2:40 1:5 3:10 4:5 1:30 4:15 1:35 2:10 4:5
4:0 2:40 1:5 3:10 4:5 1:30 4:15 1:35 2:10 4:5 3:30
2:0 1:5 3:10 4:5 1:30 4:15 1:35 2:10 4:5 3:30 1:5
1:0 3:10 4:5 1:30 4:15 1:35 2:10 4:5 3:30 1:5 3:10
3:0 4:5 1:30 4:15 1:35 2:10 4:5 3:30 1:5 3:10 4:5
4:0 1:30 4:15 1:35 2:10 4:5 3:30 1:5 3:10 4:5 2:25
1:0 4:15 1:35 2:10 4:5 3:30 1:5 3:10 4:5 2:25 1:5
4:0 1:35 2:10 4:5 3:30 1:5 3:10 4:5 2:25 1:5 2:5
1:0 2:10 4:5 3:30 1:5 3:10 4:5 2:25 1:5 2:5 4:5
2:0 4:5 3:30 1:5 3:10 4:5 2:25 1:5 2:5 4:5 2:15
4:0 3:30 1:5 3:10 4:5 2:25 1:5 2:5 4:5 2:15 1:5
3:0 1:5 3:10 4:5 2:25 1:5 2:5 4:5 2:15 1:5 3:5
1:0 3:10 4:5 2:25 1:5 2:5 4:5 2:15 1:5 3:5 4:5
3:0 4:5 2:25 1:5 2:5 4:5 2:15 1:5 3:5 4:5 1:40
4:0 2:25 1:5 2:5 4:5 2:15 1:5 3:5 4:5 1:40 4:20
2:0 1:5 2:5 4:5 2:15 1:5 3:5 4:5 1:40 4:20 3:40
1:0 2:5 4:5 2:15 1:5 3:5 4:5 1:40 4:20 3:40 1:5
2:0 4:5 2:15 1:5 3:5 4:5 1:40 4:20 3:40 1:5 2:10
4:0 2:15 1:5 3:5 4:5 1:40 4:20 3:40 1:5 2:10 4:5
2:0 1:5 3:5 4:5 1:40 4:20 3:40 1:5 2:10 4:5 3:25
1:0 3:5 4:5 1:40 4:20 3:40 1:5 2:10 4:5 3:25 1:5
3:0 4:5 1:40 4:20 3:40 1:5 2:10 4:5 3:25 1:5 4:10
4:0 1:40 4:20 3:40 1:5 2:10 4:5 3:25 1:5 4:10 2:35
1:0 4:20 3:40 1:5 2:10 4:5 3:25 1:5 4:10 2:35 1:5
4:0 3:40 1:5 2:10 4:5 3:25 1:5 4:10 2:35 1:5 2:10
3:0 1:5 2:10 4:5 3:25 1:5 4:10 2:35 1:5 2:10 4:5
1:0 2:10 4:5 3:25 1:5 4:10 2:35 1:5 2:10 4:5 1:35
2:0 4:5 3:25 1:5 4:10 2:35 1:5 2:10 4:5 1:35 2:10
4:0 3:25 1:5 4:10 2:35 1:5 2:10 4:5 1:35 2:10 4:5
3:0 1:5 4:10 2:35 1:5 2:10 4:5 1:35 2:10 4:5 3:35
1:0 4:10 2:35 1:5 2:10 4:5 1:35 2:10 4:5 3:35 1:5
4:0 2:35 1:5 2:10 4:5 1:35 2:10 4:5 3:35 1:5 3:15
2:0 1:5 2:10 4:5 1:35 2:10 4:5 3:35 1:5 3:15 4:5
1:0 2:10 4:5 1:35 2:10 4:5 3:35 1:5 3:15 4:5 1:40
2:0 4:5 1:35 2:10 4:5 3:35 1:5 3:15 4:5 1:40 3:15
4:0 1:35 2:10 4:5 3:35 1:5 3:15 4:5 1:40 3:15 4:5
1:0 2:10 4:5 3:35 1:5 3:15 4:5 1:40 3:15 4:5 2:30
2:0 4:5 3:35 1:5 3:15 4:5 1:40 3:15 4:5 2:30 1:5
4:0 3:35 1:5 3:15 4:5 1:40 3:15 4:5 2:30 1:5 3:10
3:0 1:5 3:15 4:5 1:40 3:15 4:5 2:30 1:5 3:10 4:5
1:0 3:15 4:5 1:40 3:15 4:5 2:30 1:5 3:10 4:5 1:25
3:0 4:5 1:40 3:15 4:5 2:30 1:5 3:10 4:5 1:25 2:10
4:0 1:40 3:15 4:5 2:30 1:5 3:10 4:5 1:25 2:10 4:5
1:0 3:15 4:5 2:30 1:5 3:10 4:5 1:25 2:10 4:5 1:35
3:0 4:5 2:30 1:5 3:10 4:5 1:25 2:10 4:5 1:35 4:15
4:0 2:30 1:5 3:10 4:5 1:25 2:10 4:5 1:35 4:15 2:30
2:0 1:5 3:10 4:5 1:25 2:10 4:5 1:35 4:15 2:30 1:5
1:0 3:10 4:5 1:25 2:10 4:5 1:35 4:15 2:30 1:5 2:5
3:0 4:5 1:25 2:10 4:5 1:35 4:15 2:30 1:5 2:5 4:5
4:0 1:25 2:10 4:5 1:35 4:15 2:30 1:5 2:5 4:5 1:35
1:0 2:10 4:5 1:35 4:15 2:30 1:5 2:5 4:5 1:35 3:15
2:0 4:5 1:35 4:15 2:30 1:5 2:5 4:5 1:35 3:15 4:5
4:0 1:35 4:15 2:30 1:5 2:5 4:5 1:35 3:15 4:5 2:30
1:0 4:15 2:30 1:5 2:5 4:5 1:35 3:15 4:5 2:30 1:5
4:0 2:30 1:5 2:5 4:5 1:35 3:15 4:5 2:30 1:5 4:10
2:0 1:5 2:5 4:5 1:35 3:15 4:5 2:30 1:5 4:10 2:35
1:0 2:5 4:5 1:35 3:15 4:5 2:30 1:5 4:10 2:35 1:5
2:0 4:5 1:35 3:15 4:5 2:30 1:5 4:10 2:35 1:5 3:10
4:0 1:35 3:15 4:5 2:30 1:5 4:10 2:35 1:5 3:10 4:5
1:0 3:15 4:5 2:30 1:5 4:10 2:35 1:5 3:10 4:5 2:25
3:0 4:5 2:30 1:5 4:10 2:35 1:5 3:10 4:5 2:25 1:5
4:0 2:30 1:5 4:10 2:35 1:5 3:10 4:5 2:25 1:5 3:10
2:0 1:5 4:10 2:35 1:5 3:10 4:5 2:25 1:5 3:10 4:5
1:0 4:10 2:35 1:5 3:10 4:5 2:25 1:5 3:10 4:5 2:40
4:0 2:35 1:5 3:10 4:5 2:25 1:5 3:10 4:5 2:40 1:5
2:0 1:5 3:10 4:5 2:25 1:5 3:10 4:5 2:40 1:5 4:15
1:0 3:10 4:5 2:25 1:5 3:10 4:5 2:40 1:5 4:15 2:20
3:0 4:5 2:25 1:5 3:10 4:5 2:40 1:5 4:15 2:20 1:5
4:0 2:25 1:5 3:10 4:5 2:40 1:5 4:15 2:20 1:5 2:5
2:0 1:5 3:10 4:5 2:40 1:5 4:15 2:20 1:5 2:5 4:5
1:0 3:10 4:5 2:40 1:5 4:15 2:20 1:5 2:5 4:5 1:30
3:0 4:5 2:40 1:5 4:15 2:20 1:5 2:5 4:5 1:30 4:15
4:0 2:40 1:5 4:15 2:20 1:5 2:5 4:5 1:30 4:15 3:40
2:0 1:5 4:15 2:20 1:5 2:5 4:5 1:30 4:15 3:40 1:5
1:0 4:15 2:20 1:5 2:5 4:5 1:30 4:15 3:40 1:5 3:15
4:0 2:20 1:5 2:5 4:5 1:30 4:15 3:40 1:5 3:15 4:5
2:0 1:5 2:5 4:5 1:30 4:15 3:40 1:5 3:15 4:5 3:35
1:0 2:5 4:5 1:30 4:15 3:40 1:5 3:15 4:5 3:35 1:5
2:0 4:5 1:30 4:15 3:40 1:5 3:15 4:5 3:35 1:5 4:15
4:0 1:30 4:15 3:40 1:5 3:15 4:5 3:35 1:5 4:15 2:30
1:0 4:15 3:40 1:5 3:15 4:5 3:35 1:5 4:15 2:30 1:5
4:0 3:40 1:5 3:15 4:5 3:35 1:5 4:15 2:30 1:5 4:10
3:0 1:5 3:15 4:5 3:35 1:5 4:15 2:30 1:5 4:10 1:35
1:0 3:15 4:5 3:35 1:5 4:15 2:30 1:5 4:10 1:35 4:15
3:0 4:5 3:35 1:5 4:15 2:30 1:5 4:10 1:35 4:15 1:45
4:0 3:35 1:5 4:15 2:30 1:5 4:10 1:35 4:15 1:45 2:15
3:0 1:5 4:15 2:30 1:5 4:10 1:35 4:15 1:45 2:15 4:5
1:0 4:15 2:30 1:5 4:10 1:35 4:15 1:45 2:15 4:5 2:20
4:0 2:30 1:5 4:10 1:35 4:15 1:45 2:15 4:5 2:20 1:5
2:0 1:5 4:10 1:35 4:15 1:45 2:15 4:5 2:20 1:5 2:5
1:0 4:10 1:35 4:15 1:45 2:15 4:5 2:20 1:5 2:5 4:5
4:0 1:35 4:15 1:45 2:15 4:5 2:20 1:5 2:5 4:5 1:35
1:0 4:15 1:45 2:15 4:5 2:20 1:5 2:5 4:5 1:35 2:10
4:0 1:45 2:15 4:5 2:20 1:5 2:5 4:5 1:35 2:10 4:5
1:0 2:15 4:5 2:20 1:5 2:5 4:5 1:35 2:10 4:5 2:40
2:0 4:5 2:20 1:5 2:5 4:5 1:35 2:10 4:5 2:40 1:5
4:0 2:20 1:5 2:5 4:5 1:35 2:10 4:5 2:40 1:5 3:10
2:0 1:5 2:5 4:5 1:35 2:10 4:5 2:40 1:5 3:10 4:5
1:0 2:5 4:5 1:35 2:10 4:5 2:40 1:5 3:10 4:5 1:40
2:0 4:5 1:35 2:10 4:5 2:40 1:5 3:10 4:5 1:40 3:15
4:0 1:35 2:10 4:5 2:40 1:5 3:10 4:5 1:40 3:15 4:5
1:0 2:10 4:5 2:40 1:5 3:10 4:5 1:40 3:15 4:5 1:30
2:0 4:5 2:40 1:5 3:10 4:5 1:40 3:15 4:5 1:30 4:15
4:0 2:40 1:5 3:10 4:5 1:40 3:15 4:5 1:30 4:15 2:30
2:0 1:5 3:10 4:5 1:40 3:15 4:5 1:30 4:15 2:30 1:5
1:0 3:10 4:5 1:40 3:15 4:5 1:30 4:15 2:30 1:5 3:10
3:0 4:5 1:40 3:15 4:5 1:30 4:15 2:30 1:5 3:10 4:5
4:0 1:40 3:15 4:5 1:30 4:15 2:30 1:5 3:10 4:5 2:30
1:0 3:15 4:5 1:30 4:15 2:30 1:5 3:10 4:5 2:30 1:5
3:0 4:5 1:30 4:15 2:30 1:5 3:10 4:5 2:30 1:5 4:10
4:0 1:30 4:15 2:30 1:5 3:10 4:5 2:30 1:5 4:10 1:30
1:0 4:15 2:30 1:5 3:10 4:5 2:30 1:5 4:10 1:30 3:10
4:0 2:30 1:5 3:10 4:5 2:30 1:5 4:10 1:30 3:10 4:5
2:0 1:5 3:10 4:5 2:30 1:5 4:10 1:30 3:10 4:5 1:35
1:0 3:10 4:5 2:30 1:5 4:10 1:30 3:10 4:5 1:35 4:15
3:0 4:5 2:30 1:5 4:10 1:30 3:10 4:5 1:35 4:15 1:35
4:0 2:30 1:5 4:10 1:30 3:10 4:5 1:35 4:15 1:35 4:15
2:0 1:5 4:10 1:30 3:10 4:5 1:35 4:15 1:35 4:15 1:35
1:0 4:10 1:30 3:10 4:5 1:35 4:15 1:35 4:15 1:35 2:10
4:0 1:30 3:10 4:5 1:35 4:15 1:35 4:15 1:35 2:10 4:5
1:0 3:10 4:5 1:35 4:15 1:35 4:15 1:35 2:10 4:5 2:30
3:0 4:5 1:35 4:15 1:35 4:15 1:35 2:10 4:5 2:30 1:5
4:0 1:35 4:15 1:35 4:15 1:35 2:10 4:5 2:30 1:5 4:10
1:0 4:15 1:35 4:15 1:35 2:10 4:5 2:30 1:5 4:10 1:40
4:0 1:35 4:15 1:35 2:10 4:5 2:30 1:5 4:10 1:40 4:20
1:0 4:15 1:35 2:10 4:5 2:30 1:5 4:10 1:40 4:20 1:45
4:0 1:35 2:10 4:5 2:30 1:5 4:10 1:40 4:20 1:45 4:15
1:0 2:10 4:5 2:30 1:5 4:10 1:40 4:20 1:45 4:15 1:35
2:0 4:5 2:30 1:5 4:10 1:40 4:20 1:45 4:15 1:35 2:10
4:0 2:30 1:5 4:10 1:40 4:20 1:45 4:15 1:35 2:10 4:5
2:0 1:5 4:10 1:40 4:20 1:45 4:15 1:35 2:10 4:5 1:30
1:0 4:10 1:40 4:20 1:45 4:15 1:35 2:10 4:5 1:30 4:15
4:0 1:40 4:20 1:45 4:15 1:35 2:10 4:5 1:30 4:15 2:45
1:0 4:20 1:45 4:15 1:35 2:10 4:5 1:30 4:15 2:45 1:5
4:0 1:45 4:15 1:35 2:10 4:5 1:30 4:15 2:45 1:5 3:10
1:0 4:15 1:35 2:10 4:5 1:30 4:15 2:45 1:5 3:10 4:5
4:0 1:35 2:10 4:5 1:30 4:15 2:45 1:5 3:10 4:5 3:15
1:0 2:10 4:5 1:30 4:15 2:45 1:5 3:10 4:5 3:15 1:5
2:0 4:5 1:30 4:15 2:45 1:5 3:10 4:5 3:15 1:5 4:10
4:0 1:30 4:15 2:45 1:5 3:10 4:5 3:15 1:5 4:10 1:50
1:0 4:15 2:45 1:5 3:10 4:5 3:15 1:5 4:10 1:50 4:15
4:0 2:45 1:5 3:10 4:5 3:15 1:5 4:10 1:50 4:15 1:40
2:0 1:5 3:10 4:5 3:15 1:5 4:10 1:50 4:15 1:40 3:15
1:0 3:10 4:5 3:15 1:5 4:10 1:50 4:15 1:40 3:15 4:5
3:0 4:5 3:15 1:5 4:10 1:50 4:15 1:40 3:15 4:5 2:25
4:0 3:15 1:5 4:10 1:50 4:15 1:40 3:15 4:5 2:25 1:5
3:0 1:5 4:10 1:50 4:15 1:40 3:15 4:5 2:25 1:5 4:10
1:0 4:10 1:50 4:15 1:40 3:15 4:5 2:25 1:5 4:10 2:35
4:0 1:50 4:15 1:40 3:15 4:5 2:25 1:5 4:10 2:35 1:5
1:0 4:15 1:40 3:15 4:5 2:25 1:5 4:10 2:35 1:5 3:10
4:0 1:40 3:15 4:5 2:25 1:5 4:10 2:35 1:5 3:10 4:5
1:0 3:15 4:5 2:25 1:5 4:10 2:35 1:5 3:10 4:5 2:25
3:0 4:5 2:25 1:5 4:10 2:35 1:5 3:10 4:5 2:25 1:5
4:0 2:25 1:5 4:10 2:35 1:5 3:10 4:5 2:25 1:5 2:5
2:0 1:5 4:10 2:35 1:5 3:10 4:5 2:25 1:5 2:5 4:5
1:0 4:10 2:35 1:5 3:10 4:5 2:25 1:5 2:5 4:5 2:35
4:0 2:35 1:5 3:10 4:5 2:25 1:5 2:5 4:5 2:35 1:5
2:0 1:5 3:10 4:5 2:25 1:5 2:5 4:5 2:35 1:5 2:10
1:0 3:10 4:5 2:25 1:5 2:5 4:5 2:35 1:5 2:10 4:5
3:0 4:5 2:25 1:5 2:5 4:5 2:35 1:5 2:10 4:5 1:35
4:0 2:25 1:5 2:5 4:5 2:35 1:5 2:10 4:5 1:35 3:10
2:0 1:5 2:5 4:5 2:35 1:5 2:10 4:5 1:35 3:10 4:5
1:0 2:5 4:5 2:35 1:5 2:10 4:5 1:35 3:10 4:5 1:30
2:0 4:5 2:35 1:5 2:10 4:5 1:35 3:10 4:5 1:30 4:15
4:0 2:35 1:5 2:10 4:5 1:35 3:10 4:5 1:30 4:15 1:40
2:0 1:5 2:10 4:5 1:35 3:10 4:5 1:30 4:15 1:40 3:15
1:0 2:10 4:5 1:35 3:10 4:5 1:30 4:15 1:40 3:15 4:5
2:0 4:5 1:35 3:10 4:5 1:30 4:15 1:40 3:15 4:5 3:20
4:0 1:35 3:10 4:5 1:30 4:15 1:40 3:15 4:5 3:20 1:5
1:0 3:10 4:5 1:30 4:15 1:40 3:15 4:5 3:20 1:5 4:10
3:0 4:5 1:30 4:15 1:40 3:15 4:5 3:20 1:5 4:10 1:45
4:0 1:30 4:15 1:40 3:15 4:5 3:20 1:5 4:10 1:45 3:15
1:0 4:15 1:40 3:15 4:5 3:20 1:5 4:10 1:45 3:15 4:5
4:0 1:40 3:15 4:5 3:20 1:5 4:10 1:45 3:15 4:5 1:20
1:0 3:15 4:5 3:20 1:5 4:10 1:45 3:15 4:5 1:20 3:10
3:0 4:5 3:20 1:5 4:10 1:45 3:15 4:5 1:20 3:10 4:5
4:0 3:20 1:5 4:10 1:45 3:15 4:5 1:20 3:10 4:5 1:40
3:0 1:5 4:10 1:45 3:15 4:5 1:20 3:10 4:5 1:40 4:20
1:0 4:10 1:45 3:15 4:5 1:20 3:10 4:5 1:40 4:20
4:0 1:45 3:15 4:5 1:20 3:10 4:5 1:40 4:20
1:0 3:15 4:5 1:20 3:10 4:5 1:40 4:20
3:0 4:5 1:20 3:10 4:5 1:40 4:20
4:0 1:20 3:10 4:5 1:40 4:20
1:0 3:10 4:5 1:40 4:20
3:0 4:5 1:40 4:20
4:0 1:40 4:20
1:0 4:20
4:0