2:0 1:5 2:5 1:5 2:5 1:5 2:5 1:5 2:5 1:5 2:5
1:0 2:5 1:5 2:5 1:5 2:5 1:5 2:5 1:5 2:5 1:5
2:0 1:5 2:5 1:5 2:5 1:5 2:5 1:5 2:5 1:5 2:5
1:0 2:5 1:5 2:5 1:5 2:5 1:5 2:5 1:5 2:5 1:5
2:0 1:5 2:5 1:5 2:5 1:5 2:5 1:5 2:5 1:5 2:5
1:0 2:5 1:5 2:5 1:5 2:5 1:5 2:5 1:5 2:5 1:5
2:0 1:5 2:5 1:5 2:5 1:5 2:5 1:5 2:5 1:5 2:5
1:0 2:5 1:5 2:5 1:5 2:5 1:5 2:5 1:5 2:5 1:5
2:0 1:5 2:5 1:5 2:5 1:5 2:5 1:5 2:5 1:5 2:5
1:0 2:5 1:5 2:5 1:5 2:5 1:5 2:5 1:5 2:5 1:5
2:0 1:5 2:5 1:5 2:5 1:5 2:5 1:5 2:5 1:5 2:10
1:0 2:5 1:5 2:5 1:5 2:5 1:5 2:5 1:5 2:10 1:5
2:0 1:5 2:5 1:5 2:5 1:5 2:5 1:5 2:10 1:5 2:10
1:0 2:5 1:5 2:5 1:5 2:5 1:5 2:10 1:5 2:10 1:5
2:0 1:5 2:5 1:5 2:5 1:5 2:10 1:5 2:10 1:5 2:5
1:0 2:5 1:5 2:5 1:5 2:10 1:5 2:10 1:5 2:5 1:5
2:0 1:5 2:5 1:5 2:10 1:5 2:10 1:5 2:5 1:5 2:5
1:0 2:5 1:5 2:10 1:5 2:10 1:5 2:5 1:5 2:5 1:5
2:0 1:5 2:10 1:5 2:10 1:5 2:5 1:5 2:5 1:5 2:5
1:0 2:10 1:5 2:10 1:5 2:5 1:5 2:5 1:5 2:5 1:10
2:0 1:5 2:10 1:5 2:5 1:5 2:5 1:5 2:5 1:10 2:5
1:0 2:10 1:5 2:5 1:5 2:5 1:5 2:5 1:10 2:5 1:5
2:0 1:5 2:5 1:5 2:5 1:5 2:5 1:10 2:5 1:5 2:5
1:0 2:5 1:5 2:5 1:5 2:5 1:10 2:5 1:5 2:5 1:5
2:0 1:5 2:5 1:5 2:5 1:10 2:5 1:5 2:5 1:5 2:5
1:0 2:5 1:5 2:5 1:10 2:5 1:5 2:5 1:5 2:5 1:10
2:0 1:5 2:5 1:10 2:5 1:5 2:5 1:5 2:5 1:10 2:5
1:0 2:5 1:10 2:5 1:5 2:5 1:5 2:5 1:10 2:5 1:5
2:0 1:10 2:5 1:5 2:5 1:5 2:5 1:10 2:5 1:5 2:5
1:0 2:5 1:5 2:5 1:5 2:5 1:10 2:5 1:5 2:5 1:5
2:0 1:5 2:5 1:5 2:5 1:10 2:5 1:5 2:5 1:5 2:5
1:0 2:5 1:5 2:5 1:10 2:5 1:5 2:5 1:5 2:5 1:5
2:0 1:5 2:5 1:10 2:5 1:5 2:5 1:5 2:5 1:5 2:5
1:0 2:5 1:10 2:5 1:5 2:5 1:5 2:5 1:5 2:5 1:5
2:0 1:10 2:5 1:5 2:5 1:5 2:5 1:5 2:5 1:5 2:5
1:0 2:5 1:5 2:5 1:5 2:5 1:5 2:5 1:5 2:5 1:5
2:0 1:5 2:5 1:5 2:5 1:5 2:5 1:5 2:5 1:5 2:5
1:0 2:5 1:5 2:5 1:5 2:5 1:5 2:5 1:5 2:5 1:5
2:0 1:5 2:5 1:5 2:5 1:5 2:5 1:5 2:5 1:5 2:5
1:0 2:5 1:5 2:5 1:5 2:5 1:5 2:5 1:5 2:5 1:5
2:0 1:5 2:5 1:5 2:5 1:5 2:5 1:5 2:5 1:5 2:10
1:0 2:5 1:5 2:5 1:5 2:5 1:5 2:5 1:5 2:10 1:15
2:0 1:5 2:5 1:5 2:5 1:5 2:5 1:5 2:10 1:15 2:5
1:0 2:5 1:5 2:5 1:5 2:5 1:5 2:10 1:15 2:5 1:5
2:0 1:5 2:5 1:5 2:5 1:5 2:10 1:15 2:5 1:5 2:5
1:0 2:5 1:5 2:5 1:5 2:10 1:15 2:5 1:5 2:5 1:5
2:0 1:5 2:5 1:5 2:10 1:15 2:5 1:5 2:5 1:5 2:15
1:0 2:5 1:5 2:10 1:15 2:5 1:5 2:5 1:5 2:15 1:5
2:0 1:5 2:10 1:15 2:5 1:5 2:5 1:5 2:15 1:5 2:5
1:0 2:10 1:15 2:5 1:5 2:5 1:5 2:15 1:5 2:5 1:5
2:0 1:15 2:5 1:5 2:5 1:5 2:15 1:5 2:5 1:5 2:5
1:0 2:5 1:5 2:5 1:5 2:15 1:5 2:5 1:5 2:5 1:5
2:0 1:5 2:5 1:5 2:15 1:5 2:5 1:5 2:5 1:5 2:5
1:0 2:5 1:5 2:15 1:5 2:5 1:5 2:5 1:5 2:5 1:5
2:0 1:5 2:15 1:5 2:5 1:5 2:5 1:5 2:5 1:5 2:5
1:0 2:15 1:5 2:5 1:5 2:5 1:5 2:5 1:5 2:5 1:5
2:0 1:5 2:5 1:5 2:5 1:5 2:5 1:5 2:5 1:5 2:5
1:0 2:5 1:5 2:5 1:5 2:5 1:5 2:5 1:5 2:5 1:5
2:0 1:5 2:5 1:5 2:5 1:5 2:5 1:5 2:5 1:5 2:5
1:0 2:5 1:5 2:5 1:5 2:5 1:5 2:5 1:5 2:5 1:5
2:0 1:5 2:5 1:5 2:5 1:5 2:5 1:5 2:5 1:5 2:5
1:0 2:5 1:5 2:5 1:5 2:5 1:5 2:5 1:5 2:5 1:5
2:0 1:5 2:5 1:5 2:5 1:5 2:5 1:5 2:5 1:5 2:5
1:0 2:5 1:5 2:5 1:5 2:5 1:5 2:5 1:5 2:5 1:5
2:0 1:5 2:5 1:5 2:5 1:5 2:5 1:5 2:5 1:5 2:5
1:0 2:5 1:5 2:5 1:5 2:5 1:5 2:5 1:5 2:5 1:5
2:0 1:5 2:5 1:5 2:5 1:5 2:5 1:5 2:5 1:5 2:5
1:0 2:5 1:5 2:5 1:5 2:5 1:5 2:5 1:5 2:5 1:10
2:0 1:5 2:5 1:5 2:5 1:5 2:5 1:5 2:5 1:10 2:10
1:0 2:5 1:5 2:5 1:5 2:5 1:5 2:5 1:10 2:10 1:10
2:0 1:5 2:5 1:5 2:5 1:5 2:5 1:10 2:10 1:10 2:10
1:0 2:5 1:5 2:5 1:5 2:5 1:10 2:10 1:10 2:10 1:5
2:0 1:5 2:5 1:5 2:5 1:10 2:10 1:10 2:10 1:5 2:5
1:0 2:5 1:5 2:5 1:10 2:10 1:10 2:10 1:5 2:5 1:5
2:0 1:5 2:5 1:10 2:10 1:10 2:10 1:5 2:5 1:5 2:15
1:0 2:5 1:10 2:10 1:10 2:10 1:5 2:5 1:5 2:15 1:10
2:0 1:10 2:10 1:10 2:10 1:5 2:5 1:5 2:15 1:10 2:5
1:0 2:10 1:10 2:10 1:5 2:5 1:5 2:15 1:10 2:5 1:5
2:0 1:10 2:10 1:5 2:5 1:5 2:15 1:10 2:5 1:5 2:10
1:0 2:10 1:5 2:5 1:5 2:15 1:10 2:5 1:5 2:10 1:5
2:0 1:5 2:5 1:5 2:15 1:10 2:5 1:5 2:10 1:5 2:10
1:0 2:5 1:5 2:15 1:10 2:5 1:5 2:10 1:5 2:10 1:5
2:0 1:5 2:15 1:10 2:5 1:5 2:10 1:5 2:10 1:5 2:5
1:0 2:15 1:10 2:5 1:5 2:10 1:5 2:10 1:5 2:5 1:5
2:0 1:10 2:5 1:5 2:10 1:5 2:10 1:5 2:5 1:5 2:5
1:0 2:5 1:5 2:10 1:5 2:10 1:5 2:5 1:5 2:5 1:5
2:0 1:5 2:10 1:5 2:10 1:5 2:5 1:5 2:5 1:5 2:5
1:0 2:10 1:5 2:10 1:5 2:5 1:5 2:5 1:5 2:5 1:5
2:0 1:5 2:10 1:5 2:5 1:5 2:5 1:5 2:5 1:5 2:5
1:0 2:10 1:5 2:5 1:5 2:5 1:5 2:5 1:5 2:5 1:5
2:0 1:5 2:5 1:5 2:5 1:5 2:5 1:5 2:5 1:5 2:5
1:0 2:5 1:5 2:5 1:5 2:5 1:5 2:5 1:5 2:5 1:5
2:0 1:5 2:5 1:5 2:5 1:5 2:5 1:5 2:5 1:5 2:5
1:0 2:5 1:5 2:5 1:5 2:5 1:5 2:5 1:5 2:5 1:5
2:0 1:5 2:5 1:5 2:5 1:5 2:5 1:5 2:5 1:5 2:5
1:0 2:5 1:5 2:5 1:5 2:5 1:5 2:5 1:5 2:5 1:5
2:0 1:5 2:5 1:5 2:5 1:5 2:5 1:5 2:5 1:5 2:5
1:0 2:5 1:5 2:5 1:5 2:5 1:5 2:5 1:5 2:5 1:5
2:0 1:5 2:5 1:5 2:5 1:5 2:5 1:5 2:5 1:5 2:5
1:0 2:5 1:5 2:5 1:5 2:5 1:5 2:5 1:5 2:5 1:5
2:0 1:5 2:5 1:5 2:5 1:5 2:5 1:5 2:5 1:5 2:5
1:0 2:5 1:5 2:5 1:5 2:5 1:5 2:5 1:5 2:5 1:5
2:0 1:5 2:5 1:5 2:5 1:5 2:5 1:5 2:5 1:5 2:15
1:0 2:5 1:5 2:5 1:5 2:5 1:5 2:5 1:5 2:15 1:5
2:0 1:5 2:5 1:5 2:5 1:5 2:5 1:5 2:15 1:5 2:5
1:0 2:5 1:5 2:5 1:5 2:5 1:5 2:15 1:5 2:5 1:5
2:0 1:5 2:5 1:5 2:5 1:5 2:15 1:5 2:5 1:5 2:5
1:0 2:5 1:5 2:5 1:5 2:15 1:5 2:5 1:5 2:5 1:5
2:0 1:5 2:5 1:5 2:15 1:5 2:5 1:5 2:5 1:5 2:5
1:0 2:5 1:5 2:15 1:5 2:5 1:5 2:5 1:5 2:5 1:10
2:0 1:5 2:15 1:5 2:5 1:5 2:5 1:5 2:5 1:10 2:5
1:0 2:15 1:5 2:5 1:5 2:5 1:5 2:5 1:10 2:5 1:20
2:0 1:5 2:5 1:5 2:5 1:5 2:5 1:10 2:5 1:20 2:5
1:0 2:5 1:5 2:5 1:5 2:5 1:10 2:5 1:20 2:5 1:5
2:0 1:5 2:5 1:5 2:5 1:10 2:5 1:20 2:5 1:5 2:5
1:0 2:5 1:5 2:5 1:10 2:5 1:20 2:5 1:5 2:5 1:5
2:0 1:5 2:5 1:10 2:5 1:20 2:5 1:5 2:5 1:5 2:10
1:0 2:5 1:10 2:5 1:20 2:5 1:5 2:5 1:5 2:10 1:15
2:0 1:10 2:5 1:20 2:5 1:5 2:5 1:5 2:10 1:15 2:10
1:0 2:5 1:20 2:5 1:5 2:5 1:5 2:10 1:15 2:10 1:5
2:0 1:20 2:5 1:5 2:5 1:5 2:10 1:15 2:10 1:5 2:5
1:0 2:5 1:5 2:5 1:5 2:10 1:15 2:10 1:5 2:5 1:5
2:0 1:5 2:5 1:5 2:10 1:15 2:10 1:5 2:5 1:5 2:5
1:0 2:5 1:5 2:10 1:15 2:10 1:5 2:5 1:5 2:5 1:10
2:0 1:5 2:10 1:15 2:10 1:5 2:5 1:5 2:5 1:10 2:5
1:0 2:10 1:15 2:10 1:5 2:5 1:5 2:5 1:10 2:5 1:5
2:0 1:15 2:10 1:5 2:5 1:5 2:5 1:10 2:5 1:5 2:5
1:0 2:10 1:5 2:5 1:5 2:5 1:10 2:5 1:5 2:5 1:5
2:0 1:5 2:5 1:5 2:5 1:10 2:5 1:5 2:5 1:5 2:5
1:0 2:5 1:5 2:5 1:10 2:5 1:5 2:5 1:5 2:5 1:5
2:0 1:5 2:5 1:10 2:5 1:5 2:5 1:5 2:5 1:5 2:15
1:0 2:5 1:10 2:5 1:5 2:5 1:5 2:5 1:5 2:15 1:10
2:0 1:10 2:5 1:5 2:5 1:5 2:5 1:5 2:15 1:10 2:10
1:0 2:5 1:5 2:5 1:5 2:5 1:5 2:15 1:10 2:10 1:5
2:0 1:5 2:5 1:5 2:5 1:5 2:15 1:10 2:10 1:5 2:5
1:0 2:5 1:5 2:5 1:5 2:15 1:10 2:10 1:5 2:5 1:5
2:0 1:5 2:5 1:5 2:15 1:10 2:10 1:5 2:5 1:5 2:10
1:0 2:5 1:5 2:15 1:10 2:10 1:5 2:5 1:5 2:10 1:5
2:0 1:5 2:15 1:10 2:10 1:5 2:5 1:5 2:10 1:5 2:5
1:0 2:15 1:10 2:10 1:5 2:5 1:5 2:10 1:5 2:5 1:5
2:0 1:10 2:10 1:5 2:5 1:5 2:10 1:5 2:5 1:5 2:5
1:0 2:10 1:5 2:5 1:5 2:10 1:5 2:5 1:5 2:5 1:5
2:0 1:5 2:5 1:5 2:10 1:5 2:5 1:5 2:5 1:5 2:5
1:0 2:5 1:5 2:10 1:5 2:5 1:5 2:5 1:5 2:5 1:5
2:0 1:5 2:10 1:5 2:5 1:5 2:5 1:5 2:5 1:5 2:5
1:0 2:10 1:5 2:5 1:5 2:5 1:5 2:5 1:5 2:5 1:5
2:0 1:5 2:5 1:5 2:5 1:5 2:5 1:5 2:5 1:5 2:5
1:0 2:5 1:5 2:5 1:5 2:5 1:5 2:5 1:5 2:5 1:5
2:0 1:5 2:5 1:5 2:5 1:5 2:5 1:5 2:5 1:5 2:5
1:0 2:5 1:5 2:5 1:5 2:5 1:5 2:5 1:5 2:5 1:5
2:0 1:5 2:5 1:5 2:5 1:5 2:5 1:5 2:5 1:5 2:5
1:0 2:5 1:5 2:5 1:5 2:5 1:5 2:5 1:5 2:5 1:5
2:0 1:5 2:5 1:5 2:5 1:5 2:5 1:5 2:5 1:5 2:5
1:0 2:5 1:5 2:5 1:5 2:5 1:5 2:5 1:5 2:5 1:5
2:0 1:5 2:5 1:5 2:5 1:5 2:5 1:5 2:5 1:5 2:5
1:0 2:5 1:5 2:5 1:5 2:5 1:5 2:5 1:5 2:5 1:5
2:0 1:5 2:5 1:5 2:5 1:5 2:5 1:5 2:5 1:5 2:10
1:0 2:5 1:5 2:5 1:5 2:5 1:5 2:5 1:5 2:10 1:5
2:0 1:5 2:5 1:5 2:5 1:5 2:5 1:5 2:10 1:5 2:5
1:0 2:5 1:5 2:5 1:5 2:5 1:5 2:10 1:5 2:5 1:10
2:0 1:5 2:5 1:5 2:5 1:5 2:10 1:5 2:5 1:10 2:5
1:0 2:5 1:5 2:5 1:5 2:10 1:5 2:5 1:10 2:5 1:5
2:0 1:5 2:5 1:5 2:10 1:5 2:5 1:10 2:5 1:5 2:5
1:0 2:5 1:5 2:10 1:5 2:5 1:10 2:5 1:5 2:5 1:5
2:0 1:5 2:10 1:5 2:5 1:10 2:5 1:5 2:5 1:5 2:5
1:0 2:10 1:5 2:5 1:10 2:5 1:5 2:5 1:5 2:5 1:10
2:0 1:5 2:5 1:10 2:5 1:5 2:5 1:5 2:5 1:10 2:5
1:0 2:5 1:10 2:5 1:5 2:5 1:5 2:5 1:10 2:5 1:5
2:0 1:10 2:5 1:5 2:5 1:5 2:5 1:10 2:5 1:5 2:5
1:0 2:5 1:5 2:5 1:5 2:5 1:10 2:5 1:5 2:5 1:5
2:0 1:5 2:5 1:5 2:5 1:10 2:5 1:5 2:5 1:5 2:5
1:0 2:5 1:5 2:5 1:10 2:5 1:5 2:5 1:5 2:5 1:5
2:0 1:5 2:5 1:10 2:5 1:5 2:5 1:5 2:5 1:5 2:5
1:0 2:5 1:10 2:5 1:5 2:5 1:5 2:5 1:5 2:5 1:5
2:0 1:10 2:5 1:5 2:5 1:5 2:5 1:5 2:5 1:5 2:5
1:0 2:5 1:5 2:5 1:5 2:5 1:5 2:5 1:5 2:5 1:5
2:0 1:5 2:5 1:5 2:5 1:5 2:5 1:5 2:5 1:5 2:5
1:0 2:5 1:5 2:5 1:5 2:5 1:5 2:5 1:5 2:5 1:5
2:0 1:5 2:5 1:5 2:5 1:5 2:5 1:5 2:5 1:5 2:5
1:0 2:5 1:5 2:5 1:5 2:5 1:5 2:5 1:5 2:5 1:5
2:0 1:5 2:5 1:5 2:5 1:5 2:5 1:5 2:5 1:5 2:5
1:0 2:5 1:5 2:5 1:5 2:5 1:5 2:5 1:5 2:5 1:5
2:0 1:5 2:5 1:5 2:5 1:5 2:5 1:5 2:5 1:5 2:5
1:0 2:5 1:5 2:5 1:5 2:5 1:5 2:5 1:5 2:5 1:10
2:0 1:5 2:5 1:5 2:5 1:5 2:5 1:5 2:5 1:10 2:5
1:0 2:5 1:5 2:5 1:5 2:5 1:5 2:5 1:10 2:5 1:5
2:0 1:5 2:5 1:5 2:5 1:5 2:5 1:10 2:5 1:5 2:5
1:0 2:5 1:5 2:5 1:5 2:5 1:10 2:5 1:5 2:5 1:5
2:0 1:5 2:5 1:5 2:5 1:10 2:5 1:5 2:5 1:5 2:5
1:0 2:5 1:5 2:5 1:10 2:5 1:5 2:5 1:5 2:5 1:5
2:0 1:5 2:5 1:10 2:5 1:5 2:5 1:5 2:5 1:5 2:5
1:0 2:5 1:10 2:5 1:5 2:5 1:5 2:5 1:5 2:5 1:5
2:0 1:10 2:5 1:5 2:5 1:5 2:5 1:5 2:5 1:5 2:5
1:0 2:5 1:5 2:5 1:5 2:5 1:5 2:5 1:5 2:5 1:5
2:0 1:5 2:5 1:5 2:5 1:5 2:5 1:5 2:5 1:5 2:5
1:0 2:5 1:5 2:5 1:5 2:5 1:5 2:5 1:5 2:5 1:5
2:0 1:5 2:5 1:5 2:5 1:5 2:5 1:5 2:5 1:5 2:5
1:0 2:5 1:5 2:5 1:5 2:5 1:5 2:5 1:5 2:5 1:5
2:0 1:5 2:5 1:5 2:5 1:5 2:5 1:5 2:5 1:5 2:5
1:0 2:5 1:5 2:5 1:5 2:5 1:5 2:5 1:5 2:5 1:10
2:0 1:5 2:5 1:5 2:5 1:5 2:5 1:5 2:5 1:10 2:5
1:0 2:5 1:5 2:5 1:5 2:5 1:5 2:5 1:10 2:5 1:5
2:0 1:5 2:5 1:5 2:5 1:5 2:5 1:10 2:5 1:5 2:5
1:0 2:5 1:5 2:5 1:5 2:5 1:10 2:5 1:5 2:5 1:5
2:0 1:5 2:5 1:5 2:5 1:10 2:5 1:5 2:5 1:5 2:5
1:0 2:5 1:5 2:5 1:10 2:5 1:5 2:5 1:5 2:5 1:5
2:0 1:5 2:5 1:10 2:5 1:5 2:5 1:5 2:5 1:5 2:15
1:0 2:5 1:10 2:5 1:5 2:5 1:5 2:5 1:5 2:15 1:5
2:0 1:10 2:5 1:5 2:5 1:5 2:5 1:5 2:15 1:5 2:5
1:0 2:5 1:5 2:5 1:5 2:5 1:5 2:15 1:5 2:5 1:5
2:0 1:5 2:5 1:5 2:5 1:5 2:15 1:5 2:5 1:5 2:5
1:0 2:5 1:5 2:5 1:5 2:15 1:5 2:5 1:5 2:5 1:5
2:0 1:5 2:5 1:5 2:15 1:5 2:5 1:5 2:5 1:5 2:5
1:0 2:5 1:5 2:15 1:5 2:5 1:5 2:5 1:5 2:5 1:5
2:0 1:5 2:15 1:5 2:5 1:5 2:5 1:5 2:5 1:5 2:5
1:0 2:15 1:5 2:5 1:5 2:5 1:5 2:5 1:5 2:5 1:5
2:0 1:5 2:5 1:5 2:5 1:5 2:5 1:5 2:5 1:5 2:5
1:0 2:5 1:5 2:5 1:5 2:5 1:5 2:5 1:5 2:5 1:15
2:0 1:5 2:5 1:5 2:5 1:5 2:5 1:5 2:5 1:15 2:5
1:0 2:5 1:5 2:5 1:5 2:5 1:5 2:5 1:15 2:5 1:5
2:0 1:5 2:5 1:5 2:5 1:5 2:5 1:15 2:5 1:5 2:5
1:0 2:5 1:5 2:5 1:5 2:5 1:15 2:5 1:5 2:5 1:5
2:0 1:5 2:5 1:5 2:5 1:15 2:5 1:5 2:5 1:5 2:5
1:0 2:5 1:5 2:5 1:15 2:5 1:5 2:5 1:5 2:5 1:5
2:0 1:5 2:5 1:15 2:5 1:5 2:5 1:5 2:5 1:5 2:5
1:0 2:5 1:15 2:5 1:5 2:5 1:5 2:5 1:5 2:5 1:5
2:0 1:15 2:5 1:5 2:5 1:5 2:5 1:5 2:5 1:5 2:10
1:0 2:5 1:5 2:5 1:5 2:5 1:5 2:5 1:5 2:10 1:5
2:0 1:5 2:5 1:5 2:5 1:5 2:5 1:5 2:10 1:5 2:5
1:0 2:5 1:5 2:5 1:5 2:5 1:5 2:10 1:5 2:5 1:10
2:0 1:5 2:5 1:5 2:5 1:5 2:10 1:5 2:5 1:10 2:5
1:0 2:5 1:5 2:5 1:5 2:10 1:5 2:5 1:10 2:5 1:5
2:0 1:5 2:5 1:5 2:10 1:5 2:5 1:10 2:5 1:5 2:5
1:0 2:5 1:5 2:10 1:5 2:5 1:10 2:5 1:5 2:5 1:5
2:0 1:5 2:10 1:5 2:5 1:10 2:5 1:5 2:5 1:5 2:10
1:0 2:10 1:5 2:5 1:10 2:5 1:5 2:5 1:5 2:10 1:5
2:0 1:5 2:5 1:10 2:5 1:5 2:5 1:5 2:10 1:5 2:5
1:0 2:5 1:10 2:5 1:5 2:5 1:5 2:10 1:5 2:5 1:5
2:0 1:10 2:5 1:5 2:5 1:5 2:10 1:5 2:5 1:5 2:5
1:0 2:5 1:5 2:5 1:5 2:10 1:5 2:5 1:5 2:5 1:10
2:0 1:5 2:5 1:5 2:10 1:5 2:5 1:5 2:5 1:10 2:5
1:0 2:5 1:5 2:10 1:5 2:5 1:5 2:5 1:10 2:5 1:5
2:0 1:5 2:10 1:5 2:5 1:5 2:5 1:10 2:5 1:5 2:5
1:0 2:10 1:5 2:5 1:5 2:5 1:10 2:5 1:5 2:5 1:5
2:0 1:5 2:5 1:5 2:5 1:10 2:5 1:5 2:5 1:5 2:5
1:0 2:5 1:5 2:5 1:10 2:5 1:5 2:5 1:5 2:5 1:5
2:0 1:5 2:5 1:10 2:5 1:5 2:5 1:5 2:5 1:5 2:5
1:0 2:5 1:10 2:5 1:5 2:5 1:5 2:5 1:5 2:5 1:5
2:0 1:10 2:5 1:5 2:5 1:5 2:5 1:5 2:5 1:5 2:5
1:0 2:5 1:5 2:5 1:5 2:5 1:5 2:5 1:5 2:5 1:5
2:0 1:5 2:5 1:5 2:5 1:5 2:5 1:5 2:5 1:5 2:5
1:0 2:5 1:5 2:5 1:5 2:5 1:5 2:5 1:5 2:5 1:5
2:0 1:5 2:5 1:5 2:5 1:5 2:5 1:5 2:5 1:5 2:5
1:0 2:5 1:5 2:5 1:5 2:5 1:5 2:5 1:5 2:5 1:5
2:0 1:5 2:5 1:5 2:5 1:5 2:5 1:5 2:5 1:5 2:5
1:0 2:5 1:5 2:5 1:5 2:5 1:5 2:5 1:5 2:5 1:5
2:0 1:5 2:5 1:5 2:5 1:5 2:5 1:5 2:5 1:5 2:10
1:0 2:5 1:5 2:5 1:5 2:5 1:5 2:5 1:5 2:10 1:5
2:0 1:5 2:5 1:5 2:5 1:5 2:5 1:5 2:10 1:5 2:5
1:0 2:5 1:5 2:5 1:5 2:5 1:5 2:10 1:5 2:5 1:5
2:0 1:5 2:5 1:5 2:5 1:5 2:10 1:5 2:5 1:5 2:5
1:0 2:5 1:5 2:5 1:5 2:10 1:5 2:5 1:5 2:5 1:20
2:0 1:5 2:5 1:5 2:10 1:5 2:5 1:5 2:5 1:20 2:10
1:0 2:5 1:5 2:10 1:5 2:5 1:5 2:5 1:20 2:10 1:5
2:0 1:5 2:10 1:5 2:5 1:5 2:5 1:20 2:10 1:5 2:5
1:0 2:10 1:5 2:5 1:5 2:5 1:20 2:10 1:5 2:5 1:5
2:0 1:5 2:5 1:5 2:5 1:20 2:10 1:5 2:5 1:5 2:5
1:0 2:5 1:5 2:5 1:20 2:10 1:5 2:5 1:5 2:5 1:5
2:0 1:5 2:5 1:20 2:10 1:5 2:5 1:5 2:5 1:5 2:5
1:0 2:5 1:20 2:10 1:5 2:5 1:5 2:5 1:5 2:5 1:10
2:0 1:20 2:10 1:5 2:5 1:5 2:5 1:5 2:5 1:10 2:5
1:0 2:10 1:5 2:5 1:5 2:5 1:5 2:5 1:10 2:5 1:5
2:0 1:5 2:5 1:5 2:5 1:5 2:5 1:10 2:5 1:5 2:5
1:0 2:5 1:5 2:5 1:5 2:5 1:10 2:5 1:5 2:5 1:5
2:0 1:5 2:5 1:5 2:5 1:10 2:5 1:5 2:5 1:5 2:5
1:0 2:5 1:5 2:5 1:10 2:5 1:5 2:5 1:5 2:5 1:15
2:0 1:5 2:5 1:10 2:5 1:5 2:5 1:5 2:5 1:15 2:5
1:0 2:5 1:10 2:5 1:5 2:5 1:5 2:5 1:15 2:5 1:5
2:0 1:10 2:5 1:5 2:5 1:5 2:5 1:15 2:5 1:5 2:5
1:0 2:5 1:5 2:5 1:5 2:5 1:15 2:5 1:5 2:5 1:5
2:0 1:5 2:5 1:5 2:5 1:15 2:5 1:5 2:5 1:5 2:5
1:0 2:5 1:5 2:5 1:15 2:5 1:5 2:5 1:5 2:5 1:5
2:0 1:5 2:5 1:15 2:5 1:5 2:5 1:5 2:5 1:5 2:10
1:0 2:5 1:15 2:5 1:5 2:5 1:5 2:5 1:5 2:10 1:15
2:0 1:15 2:5 1:5 2:5 1:5 2:5 1:5 2:10 1:15 2:10
1:0 2:5 1:5 2:5 1:5 2:5 1:5 2:10 1:15 2:10 1:5
2:0 1:5 2:5 1:5 2:5 1:5 2:10 1:15 2:10 1:5 2:5
1:0 2:5 1:5 2:5 1:5 2:10 1:15 2:10 1:5 2:5 1:5
2:0 1:5 2:5 1:5 2:10 1:15 2:10 1:5 2:5 1:5 2:5
1:0 2:5 1:5 2:10 1:15 2:10 1:5 2:5 1:5 2:5 1:5
2:0 1:5 2:10 1:15 2:10 1:5 2:5 1:5 2:5 1:5 2:5
1:0 2:10 1:15 2:10 1:5 2:5 1:5 2:5 1:5 2:5 1:5
2:0 1:15 2:10 1:5 2:5 1:5 2:5 1:5 2:5 1:5 2:5
1:0 2:10 1:5 2:5 1:5 2:5 1:5 2:5 1:5 2:5 1:15
2:0 1:5 2:5 1:5 2:5 1:5 2:5 1:5 2:5 1:15 2:5
1:0 2:5 1:5 2:5 1:5 2:5 1:5 2:5 1:15 2:5 1:5
2:0 1:5 2:5 1:5 2:5 1:5 2:5 1:15 2:5 1:5 2:5
1:0 2:5 1:5 2:5 1:5 2:5 1:15 2:5 1:5 2:5 1:5
2:0 1:5 2:5 1:5 2:5 1:15 2:5 1:5 2:5 1:5 2:5
1:0 2:5 1:5 2:5 1:15 2:5 1:5 2:5 1:5 2:5 1:5
2:0 1:5 2:5 1:15 2:5 1:5 2:5 1:5 2:5 1:5 2:5
1:0 2:5 1:15 2:5 1:5 2:5 1:5 2:5 1:5 2:5 1:5
2:0 1:15 2:5 1:5 2:5 1:5 2:5 1:5 2:5 1:5 2:5
1:0 2:5 1:5 2:5 1:5 2:5 1:5 2:5 1:5 2:5 1:10
2:0 1:5 2:5 1:5 2:5 1:5 2:5 1:5 2:5 1:10 2:5
1:0 2:5 1:5 2:5 1:5 2:5 1:5 2:5 1:10 2:5 1:5
2:0 1:5 2:5 1:5 2:5 1:5 2:5 1:10 2:5 1:5 2:5
1:0 2:5 1:5 2:5 1:5 2:5 1:10 2:5 1:5 2:5 1:5
2:0 1:5 2:5 1:5 2:5 1:10 2:5 1:5 2:5 1:5 2:5
1:0 2:5 1:5 2:5 1:10 2:5 1:5 2:5 1:5 2:5 1:5
2:0 1:5 2:5 1:10 2:5 1:5 2:5 1:5 2:5 1:5 2:5
1:0 2:5 1:10 2:5 1:5 2:5 1:5 2:5 1:5 2:5 1:15
2:0 1:10 2:5 1:5 2:5 1:5 2:5 1:5 2:5 1:15 2:5
1:0 2:5 1:5 2:5 1:5 2:5 1:5 2:5 1:15 2:5 1:5
2:0 1:5 2:5 1:5 2:5 1:5 2:5 1:15 2:5 1:5 2:5
1:0 2:5 1:5 2:5 1:5 2:5 1:15 2:5 1:5 2:5 1:5
2:0 1:5 2:5 1:5 2:5 1:15 2:5 1:5 2:5 1:5 2:15
1:0 2:5 1:5 2:5 1:15 2:5 1:5 2:5 1:5 2:15 1:10
2:0 1:5 2:5 1:15 2:5 1:5 2:5 1:5 2:15 1:10 2:10
1:0 2:5 1:15 2:5 1:5 2:5 1:5 2:15 1:10 2:10 1:5
2:0 1:15 2:5 1:5 2:5 1:5 2:15 1:10 2:10 1:5 2:5
1:0 2:5 1:5 2:5 1:5 2:15 1:10 2:10 1:5 2:5 1:5
2:0 1:5 2:5 1:5 2:15 1:10 2:10 1:5 2:5 1:5 2:5
1:0 2:5 1:5 2:15 1:10 2:10 1:5 2:5 1:5 2:5 1:5
2:0 1:5 2:15 1:10 2:10 1:5 2:5 1:5 2:5 1:5 2:5
1:0 2:15 1:10 2:10 1:5 2:5 1:5 2:5 1:5 2:5 1:10
2:0 1:10 2:10 1:5 2:5 1:5 2:5 1:5 2:5 1:10 2:5
1:0 2:10 1:5 2:5 1:5 2:5 1:5 2:5 1:10 2:5 1:5
2:0 1:5 2:5 1:5 2:5 1:5 2:5 1:10 2:5 1:5 2:5
1:0 2:5 1:5 2:5 1:5 2:5 1:10 2:5 1:5 2:5 1:5
2:0 1:5 2:5 1:5 2:5 1:10 2:5 1:5 2:5 1:5 2:5
1:0 2:5 1:5 2:5 1:10 2:5 1:5 2:5 1:5 2:5 1:5
2:0 1:5 2:5 1:10 2:5 1:5 2:5 1:5 2:5 1:5 2:5
1:0 2:5 1:10 2:5 1:5 2:5 1:5 2:5 1:5 2:5 1:5
2:0 1:10 2:5 1:5 2:5 1:5 2:5 1:5 2:5 1:5 2:5
1:0 2:5 1:5 2:5 1:5 2:5 1:5 2:5 1:5 2:5 1:5
2:0 1:5 2:5 1:5 2:5 1:5 2:5 1:5 2:5 1:5 2:5
1:0 2:5 1:5 2:5 1:5 2:5 1:5 2:5 1:5 2:5 1:5
2:0 1:5 2:5 1:5 2:5 1:5 2:5 1:5 2:5 1:5 2:5
1:0 2:5 1:5 2:5 1:5 2:5 1:5 2:5 1:5 2:5 1:5
2:0 1:5 2:5 1:5 2:5 1:5 2:5 1:5 2:5 1:5 2:5
1:0 2:5 1:5 2:5 1:5 2:5 1:5 2:5 1:5 2:5 1:5
2:0 1:5 2:5 1:5 2:5 1:5 2:5 1:5 2:5 1:5 2:5
1:0 2:5 1:5 2:5 1:5 2:5 1:5 2:5 1:5 2:5 1:10
2:0 1:5 2:5 1:5 2:5 1:5 2:5 1:5 2:5 1:10 2:10
1:0 2:5 1:5 2:5 1:5 2:5 1:5 2:5 1:10 2:10 1:5
2:0 1:5 2:5 1:5 2:5 1:5 2:5 1:10 2:10 1:5 2:5
1:0 2:5 1:5 2:5 1:5 2:5 1:10 2:10 1:5 2:5 1:5
2:0 1:5 2:5 1:5 2:5 1:10 2:10 1:5 2:5 1:5 2:5
1:0 2:5 1:5 2:5 1:10 2:10 1:5 2:5 1:5 2:5 1:5
2:0 1:5 2:5 1:10 2:10 1:5 2:5 1:5 2:5 1:5 2:5
1:0 2:5 1:10 2:10 1:5 2:5 1:5 2:5 1:5 2:5 1:5
2:0 1:10 2:10 1:5 2:5 1:5 2:5 1:5 2:5 1:5 2:10
1:0 2:10 1:5 2:5 1:5 2:5 1:5 2:5 1:5 2:10 1:5
2:0 1:5 2:5 1:5 2:5 1:5 2:5 1:5 2:10 1:5 2:5
1:0 2:5 1:5 2:5 1:5 2:5 1:5 2:10 1:5 2:5 1:5
2:0 1:5 2:5 1:5 2:5 1:5 2:10 1:5 2:5 1:5 2:10
1:0 2:5 1:5 2:5 1:5 2:10 1:5 2:5 1:5 2:10 1:5
2:0 1:5 2:5 1:5 2:10 1:5 2:5 1:5 2:10 1:5 2:5
1:0 2:5 1:5 2:10 1:5 2:5 1:5 2:10 1:5 2:5 1:5
2:0 1:5 2:10 1:5 2:5 1:5 2:10 1:5 2:5 1:5 2:5
1:0 2:10 1:5 2:5 1:5 2:10 1:5 2:5 1:5 2:5 1:5
2:0 1:5 2:5 1:5 2:10 1:5 2:5 1:5 2:5 1:5 2:5
1:0 2:5 1:5 2:10 1:5 2:5 1:5 2:5 1:5 2:5 1:5
2:0 1:5 2:10 1:5 2:5 1:5 2:5 1:5 2:5 1:5 2:5
1:0 2:10 1:5 2:5 1:5 2:5 1:5 2:5 1:5 2:5 1:5
2:0 1:5 2:5 1:5 2:5 1:5 2:5 1:5 2:5 1:5 2:5
1:0 2:5 1:5 2:5 1:5 2:5 1:5 2:5 1:5 2:5 1:5
2:0 1:5 2:5 1:5 2:5 1:5 2:5 1:5 2:5 1:5 2:5
1:0 2:5 1:5 2:5 1:5 2:5 1:5 2:5 1:5 2:5 1:5
2:0 1:5 2:5 1:5 2:5 1:5 2:5 1:5 2:5 1:5 2:5
1:0 2:5 1:5 2:5 1:5 2:5 1:5 2:5 1:5 2:5 1:5
2:0 1:5 2:5 1:5 2:5 1:5 2:5 1:5 2:5 1:5 2:5
1:0 2:5 1:5 2:5 1:5 2:5 1:5 2:5 1:5 2:5 1:5
2:0 1:5 2:5 1:5 2:5 1:5 2:5 1:5 2:5 1:5 2:10
1:0 2:5 1:5 2:5 1:5 2:5 1:5 2:5 1:5 2:10 1:5
2:0 1:5 2:5 1:5 2:5 1:5 2:5 1:5 2:10 1:5 2:5
1:0 2:5 1:5 2:5 1:5 2:5 1:5 2:10 1:5 2:5 1:5
2:0 1:5 2:5 1:5 2:5 1:5 2:10 1:5 2:5 1:5 2:10
1:0 2:5 1:5 2:5 1:5 2:10 1:5 2:5 1:5 2:10 1:5
2:0 1:5 2:5 1:5 2:10 1:5 2:5 1:5 2:10 1:5 2:5
1:0 2:5 1:5 2:10 1:5 2:5 1:5 2:10 1:5 2:5 1:5
2:0 1:5 2:10 1:5 2:5 1:5 2:10 1:5 2:5 1:5 2:5
1:0 2:10 1:5 2:5 1:5 2:10 1:5 2:5 1:5 2:5 1:5
2:0 1:5 2:5 1:5 2:10 1:5 2:5 1:5 2:5 1:5 2:5
1:0 2:5 1:5 2:10 1:5 2:5 1:5 2:5 1:5 2:5 1:10
2:0 1:5 2:10 1:5 2:5 1:5 2:5 1:5 2:5 1:10 2:5
1:0 2:10 1:5 2:5 1:5 2:5 1:5 2:5 1:10 2:5 1:5
2:0 1:5 2:5 1:5 2:5 1:5 2:5 1:10 2:5 1:5 2:10
1:0 2:5 1:5 2:5 1:5 2:5 1:10 2:5 1:5 2:10 1:5
2:0 1:5 2:5 1:5 2:5 1:10 2:5 1:5 2:10 1:5 2:5
1:0 2:5 1:5 2:5 1:10 2:5 1:5 2:10 1:5 2:5 1:10
2:0 1:5 2:5 1:10 2:5 1:5 2:10 1:5 2:5 1:10 2:5
1:0 2:5 1:10 2:5 1:5 2:10 1:5 2:5 1:10 2:5 1:5
2:0 1:10 2:5 1:5 2:10 1:5 2:5 1:10 2:5 1:5 2:5
1:0 2:5 1:5 2:10 1:5 2:5 1:10 2:5 1:5 2:5 1:5
2:0 1:5 2:10 1:5 2:5 1:10 2:5 1:5 2:5 1:5 2:5
1:0 2:10 1:5 2:5 1:10 2:5 1:5 2:5 1:5 2:5 1:5
2:0 1:5 2:5 1:10 2:5 1:5 2:5 1:5 2:5 1:5 2:5
1:0 2:5 1:10 2:5 1:5 2:5 1:5 2:5 1:5 2:5 1:5
2:0 1:10 2:5 1:5 2:5 1:5 2:5 1:5 2:5 1:5 2:5
1:0 2:5 1:5 2:5 1:5 2:5 1:5 2:5 1:5 2:5 1:5
2:0 1:5 2:5 1:5 2:5 1:5 2:5 1:5 2:5 1:5 2:5
1:0 2:5 1:5 2:5 1:5 2:5 1:5 2:5 1:5 2:5 1:5
2:0 1:5 2:5 1:5 2:5 1:5 2:5 1:5 2:5 1:5 2:5
1:0 2:5 1:5 2:5 1:5 2:5 1:5 2:5 1:5 2:5 1:5
2:0 1:5 2:5 1:5 2:5 1:5 2:5 1:5 2:5 1:5 2:5
1:0 2:5 1:5 2:5 1:5 2:5 1:5 2:5 1:5 2:5 1:5
2:0 1:5 2:5 1:5 2:5 1:5 2:5 1:5 2:5 1:5 2:5
1:0 2:5 1:5 2:5 1:5 2:5 1:5 2:5 1:5 2:5 1:10
2:0 1:5 2:5 1:5 2:5 1:5 2:5 1:5 2:5 1:10 2:5
1:0 2:5 1:5 2:5 1:5 2:5 1:5 2:5 1:10 2:5 1:5
2:0 1:5 2:5 1:5 2:5 1:5 2:5 1:10 2:5 1:5 2:5
1:0 2:5 1:5 2:5 1:5 2:5 1:10 2:5 1:5 2:5 1:5
2:0 1:5 2:5 1:5 2:5 1:10 2:5 1:5 2:5 1:5 2:5
1:0 2:5 1:5 2:5 1:10 2:5 1:5 2:5 1:5 2:5 1:10
2:0 1:5 2:5 1:10 2:5 1:5 2:5 1:5 2:5 1:10 2:5
1:0 2:5 1:10 2:5 1:5 2:5 1:5 2:5 1:10 2:5 1:5
2:0 1:10 2:5 1:5 2:5 1:5 2:5 1:10 2:5 1:5 2:5
1:0 2:5 1:5 2:5 1:5 2:5 1:10 2:5 1:5 2:5 1:5
2:0 1:5 2:5 1:5 2:5 1:10 2:5 1:5 2:5 1:5 2:5
1:0 2:5 1:5 2:5 1:10 2:5 1:5 2:5 1:5 2:5 1:5
2:0 1:5 2:5 1:10 2:5 1:5 2:5 1:5 2:5 1:5 2:5
1:0 2:5 1:10 2:5 1:5 2:5 1:5 2:5 1:5 2:5 1:5
2:0 1:10 2:5 1:5 2:5 1:5 2:5 1:5 2:5 1:5 2:5
1:0 2:5 1:5 2:5 1:5 2:5 1:5 2:5 1:5 2:5 1:5
2:0 1:5 2:5 1:5 2:5 1:5 2:5 1:5 2:5 1:5 2:5
1:0 2:5 1:5 2:5 1:5 2:5 1:5 2:5 1:5 2:5 1:5
2:0 1:5 2:5 1:5 2:5 1:5 2:5 1:5 2:5 1:5 2:5
1:0 2:5 1:5 2:5 1:5 2:5 1:5 2:5 1:5 2:5 1:5
2:0 1:5 2:5 1:5 2:5 1:5 2:5 1:5 2:5 1:5 2:10
1:0 2:5 1:5 2:5 1:5 2:5 1:5 2:5 1:5 2:10 1:15
2:0 1:5 2:5 1:5 2:5 1:5 2:5 1:5 2:10 1:15 2:5
1:0 2:5 1:5 2:5 1:5 2:5 1:5 2:10 1:15 2:5 1:5
2:0 1:5 2:5 1:5 2:5 1:5 2:10 1:15 2:5 1:5 2:5
1:0 2:5 1:5 2:5 1:5 2:10 1:15 2:5 1:5 2:5 1:10
2:0 1:5 2:5 1:5 2:10 1:15 2:5 1:5 2:5 1:10 2:5
1:0 2:5 1:5 2:10 1:15 2:5 1:5 2:5 1:10 2:5 1:5
2:0 1:5 2:10 1:15 2:5 1:5 2:5 1:10 2:5 1:5 2:5
1:0 2:10 1:15 2:5 1:5 2:5 1:10 2:5 1:5 2:5 1:5
2:0 1:15 2:5 1:5 2:5 1:10 2:5 1:5 2:5 1:5 2:10
1:0 2:5 1:5 2:5 1:10 2:5 1:5 2:5 1:5 2:10 1:5
2:0 1:5 2:5 1:10 2:5 1:5 2:5 1:5 2:10 1:5 2:5
1:0 2:5 1:10 2:5 1:5 2:5 1:5 2:10 1:5 2:5 1:5
2:0 1:10 2:5 1:5 2:5 1:5 2:10 1:5 2:5 1:5 2:5
1:0 2:5 1:5 2:5 1:5 2:10 1:5 2:5 1:5 2:5 1:5
2:0 1:5 2:5 1:5 2:10 1:5 2:5 1:5 2:5 1:5 2:5
1:0 2:5 1:5 2:10 1:5 2:5 1:5 2:5 1:5 2:5 1:10
2:0 1:5 2:10 1:5 2:5 1:5 2:5 1:5 2:5 1:10 2:10
1:0 2:10 1:5 2:5 1:5 2:5 1:5 2:5 1:10 2:10 1:5
2:0 1:5 2:5 1:5 2:5 1:5 2:5 1:10 2:10 1:5 2:5
1:0 2:5 1:5 2:5 1:5 2:5 1:10 2:10 1:5 2:5 1:5
2:0 1:5 2:5 1:5 2:5 1:10 2:10 1:5 2:5 1:5 2:5
1:0 2:5 1:5 2:5 1:10 2:10 1:5 2:5 1:5 2:5 1:20
2:0 1:5 2:5 1:10 2:10 1:5 2:5 1:5 2:5 1:20 2:5
1:0 2:5 1:10 2:10 1:5 2:5 1:5 2:5 1:20 2:5 1:5
2:0 1:10 2:10 1:5 2:5 1:5 2:5 1:20 2:5 1:5 2:5
1:0 2:10 1:5 2:5 1:5 2:5 1:20 2:5 1:5 2:5 1:5
2:0 1:5 2:5 1:5 2:5 1:20 2:5 1:5 2:5 1:5 2:5
1:0 2:5 1:5 2:5 1:20 2:5 1:5 2:5 1:5 2:5 1:5
2:0 1:5 2:5 1:20 2:5 1:5 2:5 1:5 2:5 1:5 2:5
1:0 2:5 1:20 2:5 1:5 2:5 1:5 2:5 1:5 2:5 1:5
2:0 1:20 2:5 1:5 2:5 1:5 2:5 1:5 2:5 1:5 2:15
1:0 2:5 1:5 2:5 1:5 2:5 1:5 2:5 1:5 2:15 1:5
2:0 1:5 2:5 1:5 2:5 1:5 2:5 1:5 2:15 1:5 2:5
1:0 2:5 1:5 2:5 1:5 2:5 1:5 2:15 1:5 2:5 1:5
2:0 1:5 2:5 1:5 2:5 1:5 2:15 1:5 2:5 1:5 2:5
1:0 2:5 1:5 2:5 1:5 2:15 1:5 2:5 1:5 2:5 1:5
2:0 1:5 2:5 1:5 2:15 1:5 2:5 1:5 2:5 1:5 2:5
1:0 2:5 1:5 2:15 1:5 2:5 1:5 2:5 1:5 2:5 1:10
2:0 1:5 2:15 1:5 2:5 1:5 2:5 1:5 2:5 1:10 2:5
1:0 2:15 1:5 2:5 1:5 2:5 1:5 2:5 1:10 2:5 1:5
2:0 1:5 2:5 1:5 2:5 1:5 2:5 1:10 2:5 1:5 2:5
1:0 2:5 1:5 2:5 1:5 2:5 1:10 2:5 1:5 2:5 1:5
2:0 1:5 2:5 1:5 2:5 1:10 2:5 1:5 2:5 1:5 2:5
1:0 2:5 1:5 2:5 1:10 2:5 1:5 2:5 1:5 2:5 1:5
2:0 1:5 2:5 1:10 2:5 1:5 2:5 1:5 2:5 1:5 2:5
1:0 2:5 1:10 2:5 1:5 2:5 1:5 2:5 1:5 2:5 1:5
2:0 1:10 2:5 1:5 2:5 1:5 2:5 1:5 2:5 1:5 2:5
1:0 2:5 1:5 2:5 1:5 2:5 1:5 2:5 1:5 2:5 1:5
2:0 1:5 2:5 1:5 2:5 1:5 2:5 1:5 2:5 1:5 2:5
1:0 2:5 1:5 2:5 1:5 2:5 1:5 2:5 1:5 2:5 1:5
2:0 1:5 2:5 1:5 2:5 1:5 2:5 1:5 2:5 1:5 2:5
1:0 2:5 1:5 2:5 1:5 2:5 1:5 2:5 1:5 2:5 1:5
2:0 1:5 2:5 1:5 2:5 1:5 2:5 1:5 2:5 1:5 2:5
1:0 2:5 1:5 2:5 1:5 2:5 1:5 2:5 1:5 2:5 1:5
2:0 1:5 2:5 1:5 2:5 1:5 2:5 1:5 2:5 1:5 2:5
1:0 2:5 1:5 2:5 1:5 2:5 1:5 2:5 1:5 2:5 1:5
2:0 1:5 2:5 1:5 2:5 1:5 2:5 1:5 2:5 1:5 2:5
1:0 2:5 1:5 2:5 1:5 2:5 1:5 2:5 1:5 2:5 1:5
2:0 1:5 2:5 1:5 2:5 1:5 2:5 1:5 2:5 1:5 2:5
1:0 2:5 1:5 2:5 1:5 2:5 1:5 2:5 1:5 2:5 1:5
2:0 1:5 2:5 1:5 2:5 1:5 2:5 1:5 2:5 1:5 2:5
1:0 2:5 1:5 2:5 1:5 2:5 1:5 2:5 1:5 2:5 1:5
2:0 1:5 2:5 1:5 2:5 1:5 2:5 1:5 2:5 1:5 2:5
1:0 2:5 1:5 2:5 1:5 2:5 1:5 2:5 1:5 2:5 1:5
2:0 1:5 2:5 1:5 2:5 1:5 2:5 1:5 2:5 1:5 2:5
1:0 2:5 1:5 2:5 1:5 2:5 1:5 2:5 1:5 2:5 1:5
2:0 1:5 2:5 1:5 2:5 1:5 2:5 1:5 2:5 1:5 2:10
1:0 2:5 1:5 2:5 1:5 2:5 1:5 2:5 1:5 2:10 1:5
2:0 1:5 2:5 1:5 2:5 1:5 2:5 1:5 2:10 1:5 2:5
1:0 2:5 1:5 2:5 1:5 2:5 1:5 2:10 1:5 2:5 1:5
2:0 1:5 2:5 1:5 2:5 1:5 2:10 1:5 2:5 1:5 2:5
1:0 2:5 1:5 2:5 1:5 2:10 1:5 2:5 1:5 2:5 1:5
2:0 1:5 2:5 1:5 2:10 1:5 2:5 1:5 2:5 1:5 2:5
1:0 2:5 1:5 2:10 1:5 2:5 1:5 2:5 1:5 2:5 1:5
2:0 1:5 2:10 1:5 2:5 1:5 2:5 1:5 2:5 1:5 2:5
1:0 2:10 1:5 2:5 1:5 2:5 1:5 2:5 1:5 2:5 1:5
2:0 1:5 2:5 1:5 2:5 1:5 2:5 1:5 2:5 1:5 2:5
1:0 2:5 1:5 2:5 1:5 2:5 1:5 2:5 1:5 2:5 1:5
2:0 1:5 2:5 1:5 2:5 1:5 2:5 1:5 2:5 1:5 2:5
1:0 2:5 1:5 2:5 1:5 2:5 1:5 2:5 1:5 2:5 1:5
2:0 1:5 2:5 1:5 2:5 1:5 2:5 1:5 2:5 1:5 2:5
1:0 2:5 1:5 2:5 1:5 2:5 1:5 2:5 1:5 2:5 1:5
2:0 1:5 2:5 1:5 2:5 1:5 2:5 1:5 2:5 1:5 2:5
1:0 2:5 1:5 2:5 1:5 2:5 1:5 2:5 1:5 2:5 1:5
2:0 1:5 2:5 1:5 2:5 1:5 2:5 1:5 2:5 1:5 2:15
1:0 2:5 1:5 2:5 1:5 2:5 1:5 2:5 1:5 2:15 1:15
2:0 1:5 2:5 1:5 2:5 1:5 2:5 1:5 2:15 1:15 2:5
1:0 2:5 1:5 2:5 1:5 2:5 1:5 2:15 1:15 2:5 1:5
2:0 1:5 2:5 1:5 2:5 1:5 2:15 1:15 2:5 1:5 2:5
1:0 2:5 1:5 2:5 1:5 2:15 1:15 2:5 1:5 2:5 1:5
2:0 1:5 2:5 1:5 2:15 1:15 2:5 1:5 2:5 1:5 2:5
1:0 2:5 1:5 2:15 1:15 2:5 1:5 2:5 1:5 2:5 1:5
2:0 1:5 2:15 1:15 2:5 1:5 2:5 1:5 2:5 1:5 2:5
1:0 2:15 1:15 2:5 1:5 2:5 1:5 2:5 1:5 2:5 1:5
2:0 1:15 2:5 1:5 2:5 1:5 2:5 1:5 2:5 1:5 2:5
1:0 2:5 1:5 2:5 1:5 2:5 1:5 2:5 1:5 2:5 1:5
2:0 1:5 2:5 1:5 2:5 1:5 2:5 1:5 2:5 1:5 2:5
1:0 2:5 1:5 2:5 1:5 2:5 1:5 2:5 1:5 2:5 1:5
2:0 1:5 2:5 1:5 2:5 1:5 2:5 1:5 2:5 1:5 2:5
1:0 2:5 1:5 2:5 1:5 2:5 1:5 2:5 1:5 2:5 1:5
2:0 1:5 2:5 1:5 2:5 1:5 2:5 1:5 2:5 1:5 2:5
1:0 2:5 1:5 2:5 1:5 2:5 1:5 2:5 1:5 2:5 1:15
2:0 1:5 2:5 1:5 2:5 1:5 2:5 1:5 2:5 1:15 2:5
1:0 2:5 1:5 2:5 1:5 2:5 1:5 2:5 1:15 2:5 1:5
2:0 1:5 2:5 1:5 2:5 1:5 2:5 1:15 2:5 1:5 2:5
1:0 2:5 1:5 2:5 1:5 2:5 1:15 2:5 1:5 2:5 1:5
2:0 1:5 2:5 1:5 2:5 1:15 2:5 1:5 2:5 1:5 2:5
1:0 2:5 1:5 2:5 1:15 2:5 1:5 2:5 1:5 2:5 1:5
2:0 1:5 2:5 1:15 2:5 1:5 2:5 1:5 2:5 1:5 2:5
1:0 2:5 1:15 2:5 1:5 2:5 1:5 2:5 1:5 2:5 1:5
2:0 1:15 2:5 1:5 2:5 1:5 2:5 1:5 2:5 1:5 2:5
1:0 2:5 1:5 2:5 1:5 2:5 1:5 2:5 1:5 2:5 1:5
2:0 1:5 2:5 1:5 2:5 1:5 2:5 1:5 2:5 1:5 2:10
1:0 2:5 1:5 2:5 1:5 2:5 1:5 2:5 1:5 2:10 1:5
2:0 1:5 2:5 1:5 2:5 1:5 2:5 1:5 2:10 1:5 2:5
1:0 2:5 1:5 2:5 1:5 2:5 1:5 2:10 1:5 2:5 1:5
2:0 1:5 2:5 1:5 2:5 1:5 2:10 1:5 2:5 1:5 2:5
1:0 2:5 1:5 2:5 1:5 2:10 1:5 2:5 1:5 2:5 1:5
2:0 1:5 2:5 1:5 2:10 1:5 2:5 1:5 2:5 1:5 2:5
1:0 2:5 1:5 2:10 1:5 2:5 1:5 2:5 1:5 2:5 1:5
2:0 1:5 2:10 1:5 2:5 1:5 2:5 1:5 2:5 1:5 2:5
1:0 2:10 1:5 2:5 1:5 2:5 1:5 2:5 1:5 2:5 1:5
2:0 1:5 2:5 1:5 2:5 1:5 2:5 1:5 2:5 1:5 2:5
1:0 2:5 1:5 2:5 1:5 2:5 1:5 2:5 1:5 2:5 1:5
2:0 1:5 2:5 1:5 2:5 1:5 2:5 1:5 2:5 1:5 2:5
1:0 2:5 1:5 2:5 1:5 2:5 1:5 2:5 1:5 2:5 1:5
2:0 1:5 2:5 1:5 2:5 1:5 2:5 1:5 2:5 1:5 2:5
1:0 2:5 1:5 2:5 1:5 2:5 1:5 2:5 1:5 2:5 1:5
2:0 1:5 2:5 1:5 2:5 1:5 2:5 1:5 2:5 1:5 2:5
1:0 2:5 1:5 2:5 1:5 2:5 1:5 2:5 1:5 2:5 1:10
2:0 1:5 2:5 1:5 2:5 1:5 2:5 1:5 2:5 1:10 2:5
1:0 2:5 1:5 2:5 1:5 2:5 1:5 2:5 1:10 2:5 1:5
2:0 1:5 2:5 1:5 2:5 1:5 2:5 1:10 2:5 1:5 2:5
1:0 2:5 1:5 2:5 1:5 2:5 1:10 2:5 1:5 2:5 1:10
2:0 1:5 2:5 1:5 2:5 1:10 2:5 1:5 2:5 1:10 2:5
1:0 2:5 1:5 2:5 1:10 2:5 1:5 2:5 1:10 2:5 1:5
2:0 1:5 2:5 1:10 2:5 1:5 2:5 1:10 2:5 1:5 2:5
1:0 2:5 1:10 2:5 1:5 2:5 1:10 2:5 1:5 2:5 1:5
2:0 1:10 2:5 1:5 2:5 1:10 2:5 1:5 2:5 1:5 2:10
1:0 2:5 1:5 2:5 1:10 2:5 1:5 2:5 1:5 2:10 1:5
2:0 1:5 2:5 1:10 2:5 1:5 2:5 1:5 2:10 1:5 2:5
1:0 2:5 1:10 2:5 1:5 2:5 1:5 2:10 1:5 2:5 1:5
2:0 1:10 2:5 1:5 2:5 1:5 2:10 1:5 2:5 1:5 2:5
1:0 2:5 1:5 2:5 1:5 2:10 1:5 2:5 1:5 2:5 1:5
2:0 1:5 2:5 1:5 2:10 1:5 2:5 1:5 2:5 1:5 2:5
1:0 2:5 1:5 2:10 1:5 2:5 1:5 2:5 1:5 2:5 1:5
2:0 1:5 2:10 1:5 2:5 1:5 2:5 1:5 2:5 1:5 2:5
1:0 2:10 1:5 2:5 1:5 2:5 1:5 2:5 1:5 2:5 1:15
2:0 1:5 2:5 1:5 2:5 1:5 2:5 1:5 2:5 1:15 2:5
1:0 2:5 1:5 2:5 1:5 2:5 1:5 2:5 1:15 2:5 1:5
2:0 1:5 2:5 1:5 2:5 1:5 2:5 1:15 2:5 1:5 2:5
1:0 2:5 1:5 2:5 1:5 2:5 1:15 2:5 1:5 2:5 1:5
2:0 1:5 2:5 1:5 2:5 1:15 2:5 1:5 2:5 1:5 2:5
1:0 2:5 1:5 2:5 1:15 2:5 1:5 2:5 1:5 2:5 1:5
2:0 1:5 2:5 1:15 2:5 1:5 2:5 1:5 2:5 1:5 2:5
1:0 2:5 1:15 2:5 1:5 2:5 1:5 2:5 1:5 2:5 1:5
2:0 1:15 2:5 1:5 2:5 1:5 2:5 1:5 2:5 1:5 2:10
1:0 2:5 1:5 2:5 1:5 2:5 1:5 2:5 1:5 2:10 1:5
2:0 1:5 2:5 1:5 2:5 1:5 2:5 1:5 2:10 1:5 2:5
1:0 2:5 1:5 2:5 1:5 2:5 1:5 2:10 1:5 2:5 1:5
2:0 1:5 2:5 1:5 2:5 1:5 2:10 1:5 2:5 1:5 2:5
1:0 2:5 1:5 2:5 1:5 2:10 1:5 2:5 1:5 2:5 1:5
2:0 1:5 2:5 1:5 2:10 1:5 2:5 1:5 2:5 1:5 2:5
1:0 2:5 1:5 2:10 1:5 2:5 1:5 2:5 1:5 2:5 1:5
2:0 1:5 2:10 1:5 2:5 1:5 2:5 1:5 2:5 1:5 2:5
1:0 2:10 1:5 2:5 1:5 2:5 1:5 2:5 1:5 2:5 1:5
2:0 1:5 2:5 1:5 2:5 1:5 2:5 1:5 2:5 1:5 2:5
1:0 2:5 1:5 2:5 1:5 2:5 1:5 2:5 1:5 2:5 1:5
2:0 1:5 2:5 1:5 2:5 1:5 2:5 1:5 2:5 1:5 2:5
1:0 2:5 1:5 2:5 1:5 2:5 1:5 2:5 1:5 2:5 1:5
2:0 1:5 2:5 1:5 2:5 1:5 2:5 1:5 2:5 1:5 2:5
1:0 2:5 1:5 2:5 1:5 2:5 1:5 2:5 1:5 2:5 1:5
2:0 1:5 2:5 1:5 2:5 1:5 2:5 1:5 2:5 1:5 2:5
1:0 2:5 1:5 2:5 1:5 2:5 1:5 2:5 1:5 2:5 1:5
2:0 1:5 2:5 1:5 2:5 1:5 2:5 1:5 2:5 1:5 2:5
1:0 2:5 1:5 2:5 1:5 2:5 1:5 2:5 1:5 2:5 1:5
2:0 1:5 2:5 1:5 2:5 1:5 2:5 1:5 2:5 1:5 2:5
1:0 2:5 1:5 2:5 1:5 2:5 1:5 2:5 1:5 2:5 1:5
2:0 1:5 2:5 1:5 2:5 1:5 2:5 1:5 2:5 1:5 2:5
1:0 2:5 1:5 2:5 1:5 2:5 1:5 2:5 1:5 2:5 1:5
2:0 1:5 2:5 1:5 2:5 1:5 2:5 1:5 2:5 1:5 2:5
1:0 2:5 1:5 2:5 1:5 2:5 1:5 2:5 1:5 2:5 1:5
2:0 1:5 2:5 1:5 2:5 1:5 2:5 1:5 2:5 1:5 2:5
1:0 2:5 1:5 2:5 1:5 2:5 1:5 2:5 1:5 2:5 1:10
2:0 1:5 2:5 1:5 2:5 1:5 2:5 1:5 2:5 1:10 2:5
1:0 2:5 1:5 2:5 1:5 2:5 1:5 2:5 1:10 2:5 1:5
2:0 1:5 2:5 1:5 2:5 1:5 2:5 1:10 2:5 1:5 2:5
1:0 2:5 1:5 2:5 1:5 2:5 1:10 2:5 1:5 2:5 1:5
2:0 1:5 2:5 1:5 2:5 1:10 2:5 1:5 2:5 1:5 2:5
1:0 2:5 1:5 2:5 1:10 2:5 1:5 2:5 1:5 2:5 1:15
2:0 1:5 2:5 1:10 2:5 1:5 2:5 1:5 2:5 1:15 2:5
1:0 2:5 1:10 2:5 1:5 2:5 1:5 2:5 1:15 2:5 1:5
2:0 1:10 2:5 1:5 2:5 1:5 2:5 1:15 2:5 1:5 2:5
1:0 2:5 1:5 2:5 1:5 2:5 1:15 2:5 1:5 2:5 1:5
2:0 1:5 2:5 1:5 2:5 1:15 2:5 1:5 2:5 1:5 2:5
1:0 2:5 1:5 2:5 1:15 2:5 1:5 2:5 1:5 2:5 1:5
2:0 1:5 2:5 1:15 2:5 1:5 2:5 1:5 2:5 1:5 2:5
1:0 2:5 1:15 2:5 1:5 2:5 1:5 2:5 1:5 2:5 1:10
2:0 1:15 2:5 1:5 2:5 1:5 2:5 1:5 2:5 1:10 2:5
1:0 2:5 1:5 2:5 1:5 2:5 1:5 2:5 1:10 2:5 1:5
2:0 1:5 2:5 1:5 2:5 1:5 2:5 1:10 2:5 1:5 2:5
1:0 2:5 1:5 2:5 1:5 2:5 1:10 2:5 1:5 2:5 1:5
2:0 1:5 2:5 1:5 2:5 1:10 2:5 1:5 2:5 1:5 2:5
1:0 2:5 1:5 2:5 1:10 2:5 1:5 2:5 1:5 2:5 1:5
2:0 1:5 2:5 1:10 2:5 1:5 2:5 1:5 2:5 1:5 2:5
1:0 2:5 1:10 2:5 1:5 2:5 1:5 2:5 1:5 2:5 1:5
2:0 1:10 2:5 1:5 2:5 1:5 2:5 1:5 2:5 1:5 2:15
1:0 2:5 1:5 2:5 1:5 2:5 1:5 2:5 1:5 2:15 1:5
2:0 1:5 2:5 1:5 2:5 1:5 2:5 1:5 2:15 1:5 2:5
1:0 2:5 1:5 2:5 1:5 2:5 1:5 2:15 1:5 2:5 1:5
2:0 1:5 2:5 1:5 2:5 1:5 2:15 1:5 2:5 1:5 2:5
1:0 2:5 1:5 2:5 1:5 2:15 1:5 2:5 1:5 2:5 1:5
2:0 1:5 2:5 1:5 2:15 1:5 2:5 1:5 2:5 1:5 2:5
1:0 2:5 1:5 2:15 1:5 2:5 1:5 2:5 1:5 2:5 1:5
2:0 1:5 2:15 1:5 2:5 1:5 2:5 1:5 2:5 1:5 2:5
1:0 2:15 1:5 2:5 1:5 2:5 1:5 2:5 1:5 2:5 1:5
2:0 1:5 2:5 1:5 2:5 1:5 2:5 1:5 2:5 1:5 2:5
1:0 2:5 1:5 2:5 1:5 2:5 1:5 2:5 1:5 2:5 1:5
2:0 1:5 2:5 1:5 2:5 1:5 2:5 1:5 2:5 1:5 2:5
1:0 2:5 1:5 2:5 1:5 2:5 1:5 2:5 1:5 2:5 1:5
2:0 1:5 2:5 1:5 2:5 1:5 2:5 1:5 2:5 1:5 2:5
1:0 2:5 1:5 2:5 1:5 2:5 1:5 2:5 1:5 2:5 1:5
2:0 1:5 2:5 1:5 2:5 1:5 2:5 1:5 2:5 1:5 2:5
1:0 2:5 1:5 2:5 1:5 2:5 1:5 2:5 1:5 2:5 1:5
2:0 1:5 2:5 1:5 2:5 1:5 2:5 1:5 2:5 1:5 2:20
1:0 2:5 1:5 2:5 1:5 2:5 1:5 2:5 1:5 2:20 1:5
2:0 1:5 2:5 1:5 2:5 1:5 2:5 1:5 2:20 1:5 2:5
1:0 2:5 1:5 2:5 1:5 2:5 1:5 2:20 1:5 2:5 1:5
2:0 1:5 2:5 1:5 2:5 1:5 2:20 1:5 2:5 1:5 2:5
1:0 2:5 1:5 2:5 1:5 2:20 1:5 2:5 1:5 2:5 1:10
2:0 1:5 2:5 1:5 2:20 1:5 2:5 1:5 2:5 1:10 2:5
1:0 2:5 1:5 2:20 1:5 2:5 1:5 2:5 1:10 2:5 1:5
2:0 1:5 2:20 1:5 2:5 1:5 2:5 1:10 2:5 1:5 2:5
1:0 2:20 1:5 2:5 1:5 2:5 1:10 2:5 1:5 2:5 1:10
2:0 1:5 2:5 1:5 2:5 1:10 2:5 1:5 2:5 1:10 2:5
1:0 2:5 1:5 2:5 1:10 2:5 1:5 2:5 1:10 2:5 1:5
2:0 1:5 2:5 1:10 2:5 1:5 2:5 1:10 2:5 1:5 2:5
1:0 2:5 1:10 2:5 1:5 2:5 1:10 2:5 1:5 2:5 1:5
2:0 1:10 2:5 1:5 2:5 1:10 2:5 1:5 2:5 1:5 2:10
1:0 2:5 1:5 2:5 1:10 2:5 1:5 2:5 1:5 2:10 1:5
2:0 1:5 2:5 1:10 2:5 1:5 2:5 1:5 2:10 1:5 2:5
1:0 2:5 1:10 2:5 1:5 2:5 1:5 2:10 1:5 2:5 1:5
2:0 1:10 2:5 1:5 2:5 1:5 2:10 1:5 2:5 1:5 2:10
1:0 2:5 1:5 2:5 1:5 2:10 1:5 2:5 1:5 2:10 1:5
2:0 1:5 2:5 1:5 2:10 1:5 2:5 1:5 2:10 1:5 2:5
1:0 2:5 1:5 2:10 1:5 2:5 1:5 2:10 1:5 2:5 1:5
2:0 1:5 2:10 1:5 2:5 1:5 2:10 1:5 2:5 1:5 2:5
1:0 2:10 1:5 2:5 1:5 2:10 1:5 2:5 1:5 2:5 1:5
2:0 1:5 2:5 1:5 2:10 1:5 2:5 1:5 2:5 1:5 2:5
1:0 2:5 1:5 2:10 1:5 2:5 1:5 2:5 1:5 2:5 1:10
2:0 1:5 2:10 1:5 2:5 1:5 2:5 1:5 2:5 1:10 2:5
1:0 2:10 1:5 2:5 1:5 2:5 1:5 2:5 1:10 2:5 1:5
2:0 1:5 2:5 1:5 2:5 1:5 2:5 1:10 2:5 1:5 2:5
1:0 2:5 1:5 2:5 1:5 2:5 1:10 2:5 1:5 2:5 1:5
2:0 1:5 2:5 1:5 2:5 1:10 2:5 1:5 2:5 1:5 2:10
1:0 2:5 1:5 2:5 1:10 2:5 1:5 2:5 1:5 2:10 1:5
2:0 1:5 2:5 1:10 2:5 1:5 2:5 1:5 2:10 1:5 2:5
1:0 2:5 1:10 2:5 1:5 2:5 1:5 2:10 1:5 2:5 1:5
2:0 1:10 2:5 1:5 2:5 1:5 2:10 1:5 2:5 1:5 2:10
1:0 2:5 1:5 2:5 1:5 2:10 1:5 2:5 1:5 2:10 1:5
2:0 1:5 2:5 1:5 2:10 1:5 2:5 1:5 2:10 1:5 2:5
1:0 2:5 1:5 2:10 1:5 2:5 1:5 2:10 1:5 2:5 1:5
2:0 1:5 2:10 1:5 2:5 1:5 2:10 1:5 2:5 1:5 2:5
1:0 2:10 1:5 2:5 1:5 2:10 1:5 2:5 1:5 2:5 1:5
2:0 1:5 2:5 1:5 2:10 1:5 2:5 1:5 2:5 1:5 2:5
1:0 2:5 1:5 2:10 1:5 2:5 1:5 2:5 1:5 2:5 1:10
2:0 1:5 2:10 1:5 2:5 1:5 2:5 1:5 2:5 1:10 2:5
1:0 2:10 1:5 2:5 1:5 2:5 1:5 2:5 1:10 2:5 1:10
2:0 1:5 2:5 1:5 2:5 1:5 2:5 1:10 2:5 1:10 2:5
1:0 2:5 1:5 2:5 1:5 2:5 1:10 2:5 1:10 2:5 1:5
2:0 1:5 2:5 1:5 2:5 1:10 2:5 1:10 2:5 1:5 2:5
1:0 2:5 1:5 2:5 1:10 2:5 1:10 2:5 1:5 2:5 1:5
2:0 1:5 2:5 1:10 2:5 1:10 2:5 1:5 2:5 1:5 2:5
1:0 2:5 1:10 2:5 1:10 2:5 1:5 2:5 1:5 2:5 1:5
2:0 1:10 2:5 1:10 2:5 1:5 2:5 1:5 2:5 1:5 2:10
1:0 2:5 1:10 2:5 1:5 2:5 1:5 2:5 1:5 2:10 1:20
2:0 1:10 2:5 1:5 2:5 1:5 2:5 1:5 2:10 1:20 2:5
1:0 2:5 1:5 2:5 1:5 2:5 1:5 2:10 1:20 2:5 1:5
2:0 1:5 2:5 1:5 2:5 1:5 2:10 1:20 2:5 1:5 2:5
1:0 2:5 1:5 2:5 1:5 2:10 1:20 2:5 1:5 2:5 1:5
2:0 1:5 2:5 1:5 2:10 1:20 2:5 1:5 2:5 1:5 2:5
1:0 2:5 1:5 2:10 1:20 2:5 1:5 2:5 1:5 2:5 1:10
2:0 1:5 2:10 1:20 2:5 1:5 2:5 1:5 2:5 1:10 2:5
1:0 2:10 1:20 2:5 1:5 2:5 1:5 2:5 1:10 2:5 1:5
2:0 1:20 2:5 1:5 2:5 1:5 2:5 1:10 2:5 1:5 2:5
1:0 2:5 1:5 2:5 1:5 2:5 1:10 2:5 1:5 2:5 1:5
2:0 1:5 2:5 1:5 2:5 1:10 2:5 1:5 2:5 1:5 2:5
1:0 2:5 1:5 2:5 1:10 2:5 1:5 2:5 1:5 2:5 1:5
2:0 1:5 2:5 1:10 2:5 1:5 2:5 1:5 2:5 1:5 2:15
1:0 2:5 1:10 2:5 1:5 2:5 1:5 2:5 1:5 2:15 1:5
2:0 1:10 2:5 1:5 2:5 1:5 2:5 1:5 2:15 1:5 2:5
1:0 2:5 1:5 2:5 1:5 2:5 1:5 2:15 1:5 2:5 1:5
2:0 1:5 2:5 1:5 2:5 1:5 2:15 1:5 2:5 1:5 2:5
1:0 2:5 1:5 2:5 1:5 2:15 1:5 2:5 1:5 2:5 1:5
2:0 1:5 2:5 1:5 2:15 1:5 2:5 1:5 2:5 1:5 2:5
1:0 2:5 1:5 2:15 1:5 2:5 1:5 2:5 1:5 2:5 1:5
2:0 1:5 2:15 1:5 2:5 1:5 2:5 1:5 2:5 1:5 2:10
1:0 2:15 1:5 2:5 1:5 2:5 1:5 2:5 1:5 2:10 1:5
2:0 1:5 2:5 1:5 2:5 1:5 2:5 1:5 2:10 1:5 2:5
1:0 2:5 1:5 2:5 1:5 2:5 1:5 2:10 1:5 2:5 1:5
2:0 1:5 2:5 1:5 2:5 1:5 2:10 1:5 2:5 1:5 2:5
1:0 2:5 1:5 2:5 1:5 2:10 1:5 2:5 1:5 2:5 1:5
2:0 1:5 2:5 1:5 2:10 1:5 2:5 1:5 2:5 1:5 2:5
1:0 2:5 1:5 2:10 1:5 2:5 1:5 2:5 1:5 2:5 1:5
2:0 1:5 2:10 1:5 2:5 1:5 2:5 1:5 2:5 1:5 2:5
1:0 2:10 1:5 2:5 1:5 2:5 1:5 2:5 1:5 2:5 1:5
2:0 1:5 2:5 1:5 2:5 1:5 2:5 1:5 2:5 1:5 2:5
1:0 2:5 1:5 2:5 1:5 2:5 1:5 2:5 1:5 2:5 1:10
2:0 1:5 2:5 1:5 2:5 1:5 2:5 1:5 2:5 1:10 2:5
1:0 2:5 1:5 2:5 1:5 2:5 1:5 2:5 1:10 2:5 1:5
2:0 1:5 2:5 1:5 2:5 1:5 2:5 1:10 2:5 1:5 2:5
1:0 2:5 1:5 2:5 1:5 2:5 1:10 2:5 1:5 2:5 1:5
2:0 1:5 2:5 1:5 2:5 1:10 2:5 1:5 2:5 1:5 2:5
1:0 2:5 1:5 2:5 1:10 2:5 1:5 2:5 1:5 2:5 1:5
2:0 1:5 2:5 1:10 2:5 1:5 2:5 1:5 2:5 1:5 2:5
1:0 2:5 1:10 2:5 1:5 2:5 1:5 2:5 1:5 2:5 1:5
2:0 1:10 2:5 1:5 2:5 1:5 2:5 1:5 2:5 1:5 2:5
1:0 2:5 1:5 2:5 1:5 2:5 1:5 2:5 1:5 2:5 1:10
2:0 1:5 2:5 1:5 2:5 1:5 2:5 1:5 2:5 1:10 2:5
1:0 2:5 1:5 2:5 1:5 2:5 1:5 2:5 1:10 2:5 1:10
2:0 1:5 2:5 1:5 2:5 1:5 2:5 1:10 2:5 1:10 2:5
1:0 2:5 1:5 2:5 1:5 2:5 1:10 2:5 1:10 2:5 1:5
2:0 1:5 2:5 1:5 2:5 1:10 2:5 1:10 2:5 1:5 2:5
1:0 2:5 1:5 2:5 1:10 2:5 1:10 2:5 1:5 2:5 1:5
2:0 1:5 2:5 1:10 2:5 1:10 2:5 1:5 2:5 1:5 2:5
1:0 2:5 1:10 2:5 1:10 2:5 1:5 2:5 1:5 2:5 1:5
2:0 1:10 2:5 1:10 2:5 1:5 2:5 1:5 2:5 1:5 2:5
1:0 2:5 1:10 2:5 1:5 2:5 1:5 2:5 1:5 2:5 1:10
2:0 1:10 2:5 1:5 2:5 1:5 2:5 1:5 2:5 1:10 2:5
1:0 2:5 1:5 2:5 1:5 2:5 1:5 2:5 1:10 2:5 1:5
2:0 1:5 2:5 1:5 2:5 1:5 2:5 1:10 2:5 1:5 2:5
1:0 2:5 1:5 2:5 1:5 2:5 1:10 2:5 1:5 2:5 1:5
2:0 1:5 2:5 1:5 2:5 1:10 2:5 1:5 2:5 1:5 2:5
1:0 2:5 1:5 2:5 1:10 2:5 1:5 2:5 1:5 2:5 1:5
2:0 1:5 2:5 1:10 2:5 1:5 2:5 1:5 2:5 1:5 2:5
1:0 2:5 1:10 2:5 1:5 2:5 1:5 2:5 1:5 2:5 1:5
2:0 1:10 2:5 1:5 2:5 1:5 2:5 1:5 2:5 1:5 2:5
1:0 2:5 1:5 2:5 1:5 2:5 1:5 2:5 1:5 2:5 1:5
2:0 1:5 2:5 1:5 2:5 1:5 2:5 1:5 2:5 1:5 2:5
1:0 2:5 1:5 2:5 1:5 2:5 1:5 2:5 1:5 2:5 1:5
2:0 1:5 2:5 1:5 2:5 1:5 2:5 1:5 2:5 1:5 2:5
1:0 2:5 1:5 2:5 1:5 2:5 1:5 2:5 1:5 2:5 1:5
2:0 1:5 2:5 1:5 2:5 1:5 2:5 1:5 2:5 1:5 2:5
1:0 2:5 1:5 2:5 1:5 2:5 1:5 2:5 1:5 2:5 1:10
2:0 1:5 2:5 1:5 2:5 1:5 2:5 1:5 2:5 1:10 2:5
1:0 2:5 1:5 2:5 1:5 2:5 1:5 2:5 1:10 2:5 1:5
2:0 1:5 2:5 1:5 2:5 1:5 2:5 1:10 2:5 1:5 2:5
1:0 2:5 1:5 2:5 1:5 2:5 1:10 2:5 1:5 2:5 1:5
2:0 1:5 2:5 1:5 2:5 1:10 2:5 1:5 2:5 1:5 2:5
1:0 2:5 1:5 2:5 1:10 2:5 1:5 2:5 1:5 2:5 1:5
2:0 1:5 2:5 1:10 2:5 1:5 2:5 1:5 2:5 1:5 2:5
1:0 2:5 1:10 2:5 1:5 2:5 1:5 2:5 1:5 2:5 1:5
2:0 1:10 2:5 1:5 2:5 1:5 2:5 1:5 2:5 1:5 2:15
1:0 2:5 1:5 2:5 1:5 2:5 1:5 2:5 1:5 2:15 1:5
2:0 1:5 2:5 1:5 2:5 1:5 2:5 1:5 2:15 1:5 2:5
1:0 2:5 1:5 2:5 1:5 2:5 1:5 2:15 1:5 2:5 1:5
2:0 1:5 2:5 1:5 2:5 1:5 2:15 1:5 2:5 1:5 2:5
1:0 2:5 1:5 2:5 1:5 2:15 1:5 2:5 1:5 2:5 1:5
2:0 1:5 2:5 1:5 2:15 1:5 2:5 1:5 2:5 1:5 2:5
1:0 2:5 1:5 2:15 1:5 2:5 1:5 2:5 1:5 2:5 1:10
2:0 1:5 2:15 1:5 2:5 1:5 2:5 1:5 2:5 1:10 2:5
1:0 2:15 1:5 2:5 1:5 2:5 1:5 2:5 1:10 2:5 1:10
2:0 1:5 2:5 1:5 2:5 1:5 2:5 1:10 2:5 1:10 2:5
1:0 2:5 1:5 2:5 1:5 2:5 1:10 2:5 1:10 2:5 1:5
2:0 1:5 2:5 1:5 2:5 1:10 2:5 1:10 2:5 1:5 2:5
1:0 2:5 1:5 2:5 1:10 2:5 1:10 2:5 1:5 2:5 1:5
2:0 1:5 2:5 1:10 2:5 1:10 2:5 1:5 2:5 1:5 2:5
1:0 2:5 1:10 2:5 1:10 2:5 1:5 2:5 1:5 2:5 1:5
2:0 1:10 2:5 1:10 2:5 1:5 2:5 1:5 2:5 1:5 2:10
1:0 2:5 1:10 2:5 1:5 2:5 1:5 2:5 1:5 2:10 1:5
2:0 1:10 2:5 1:5 2:5 1:5 2:5 1:5 2:10 1:5 2:5
1:0 2:5 1:5 2:5 1:5 2:5 1:5 2:10 1:5 2:5 1:5
2:0 1:5 2:5 1:5 2:5 1:5 2:10 1:5 2:5 1:5 2:5
1:0 2:5 1:5 2:5 1:5 2:10 1:5 2:5 1:5 2:5 1:5
2:0 1:5 2:5 1:5 2:10 1:5 2:5 1:5 2:5 1:5 2:5
1:0 2:5 1:5 2:10 1:5 2:5 1:5 2:5 1:5 2:5 1:5
2:0 1:5 2:10 1:5 2:5 1:5 2:5 1:5 2:5 1:5 2:10
1:0 2:10 1:5 2:5 1:5 2:5 1:5 2:5 1:5 2:10 1:5
2:0 1:5 2:5 1:5 2:5 1:5 2:5 1:5 2:10 1:5 2:5
1:0 2:5 1:5 2:5 1:5 2:5 1:5 2:10 1:5 2:5 1:10
2:0 1:5 2:5 1:5 2:5 1:5 2:10 1:5 2:5 1:10 2:5
1:0 2:5 1:5 2:5 1:5 2:10 1:5 2:5 1:10 2:5 1:5
2:0 1:5 2:5 1:5 2:10 1:5 2:5 1:10 2:5 1:5 2:5
1:0 2:5 1:5 2:10 1:5 2:5 1:10 2:5 1:5 2:5 1:5
2:0 1:5 2:10 1:5 2:5 1:10 2:5 1:5 2:5 1:5 2:5
1:0 2:10 1:5 2:5 1:10 2:5 1:5 2:5 1:5 2:5 1:5
2:0 1:5 2:5 1:10 2:5 1:5 2:5 1:5 2:5 1:5 2:5
1:0 2:5 1:10 2:5 1:5 2:5 1:5 2:5 1:5 2:5 1:5
2:0 1:10 2:5 1:5 2:5 1:5 2:5 1:5 2:5 1:5 2:5
1:0 2:5 1:5 2:5 1:5 2:5 1:5 2:5 1:5 2:5 1:5
2:0 1:5 2:5 1:5 2:5 1:5 2:5 1:5 2:5 1:5 2:5
1:0 2:5 1:5 2:5 1:5 2:5 1:5 2:5 1:5 2:5 1:5
2:0 1:5 2:5 1:5 2:5 1:5 2:5 1:5 2:5 1:5 2:5
1:0 2:5 1:5 2:5 1:5 2:5 1:5 2:5 1:5 2:5 1:5
2:0 1:5 2:5 1:5 2:5 1:5 2:5 1:5 2:5 1:5 2:5
1:0 2:5 1:5 2:5 1:5 2:5 1:5 2:5 1:5 2:5 1:5
2:0 1:5 2:5 1:5 2:5 1:5 2:5 1:5 2:5 1:5 2:5
1:0 2:5 1:5 2:5 1:5 2:5 1:5 2:5 1:5 2:5 1:10
2:0 1:5 2:5 1:5 2:5 1:5 2:5 1:5 2:5 1:10 2:5
1:0 2:5 1:5 2:5 1:5 2:5 1:5 2:5 1:10 2:5 1:5
2:0 1:5 2:5 1:5 2:5 1:5 2:5 1:10 2:5 1:5 2:5
1:0 2:5 1:5 2:5 1:5 2:5 1:10 2:5 1:5 2:5 1:5
2:0 1:5 2:5 1:5 2:5 1:10 2:5 1:5 2:5 1:5 2:10
1:0 2:5 1:5 2:5 1:10 2:5 1:5 2:5 1:5 2:10 1:5
2:0 1:5 2:5 1:10 2:5 1:5 2:5 1:5 2:10 1:5 2:5
1:0 2:5 1:10 2:5 1:5 2:5 1:5 2:10 1:5 2:5 1:5
2:0 1:10 2:5 1:5 2:5 1:5 2:10 1:5 2:5 1:5 2:10
1:0 2:5 1:5 2:5 1:5 2:10 1:5 2:5 1:5 2:10 1:5
2:0 1:5 2:5 1:5 2:10 1:5 2:5 1:5 2:10 1:5 2:5
1:0 2:5 1:5 2:10 1:5 2:5 1:5 2:10 1:5 2:5 1:5
2:0 1:5 2:10 1:5 2:5 1:5 2:10 1:5 2:5 1:5 2:5
1:0 2:10 1:5 2:5 1:5 2:10 1:5 2:5 1:5 2:5 1:5
2:0 1:5 2:5 1:5 2:10 1:5 2:5 1:5 2:5 1:5 2:5
1:0 2:5 1:5 2:10 1:5 2:5 1:5 2:5 1:5 2:5 1:5
2:0 1:5 2:10 1:5 2:5 1:5 2:5 1:5 2:5 1:5 2:15
1:0 2:10 1:5 2:5 1:5 2:5 1:5 2:5 1:5 2:15 1:5
2:0 1:5 2:5 1:5 2:5 1:5 2:5 1:5 2:15 1:5 2:5
1:0 2:5 1:5 2:5 1:5 2:5 1:5 2:15 1:5 2:5 1:5
2:0 1:5 2:5 1:5 2:5 1:5 2:15 1:5 2:5 1:5 2:5
1:0 2:5 1:5 2:5 1:5 2:15 1:5 2:5 1:5 2:5 1:5
2:0 1:5 2:5 1:5 2:15 1:5 2:5 1:5 2:5 1:5 2:5
1:0 2:5 1:5 2:15 1:5 2:5 1:5 2:5 1:5 2:5 1:5
2:0 1:5 2:15 1:5 2:5 1:5 2:5 1:5 2:5 1:5 2:5
1:0 2:15 1:5 2:5 1:5 2:5 1:5 2:5 1:5 2:5 1:5
2:0 1:5 2:5 1:5 2:5 1:5 2:5 1:5 2:5 1:5 2:5
1:0 2:5 1:5 2:5 1:5 2:5 1:5 2:5 1:5 2:5 1:5
2:0 1:5 2:5 1:5 2:5 1:5 2:5 1:5 2:5 1:5 2:5
1:0 2:5 1:5 2:5 1:5 2:5 1:5 2:5 1:5 2:5 1:5
2:0 1:5 2:5 1:5 2:5 1:5 2:5 1:5 2:5 1:5 2:5
1:0 2:5 1:5 2:5 1:5 2:5 1:5 2:5 1:5 2:5 1:5
2:0 1:5 2:5 1:5 2:5 1:5 2:5 1:5 2:5 1:5 2:5
1:0 2:5 1:5 2:5 1:5 2:5 1:5 2:5 1:5 2:5 1:5
2:0 1:5 2:5 1:5 2:5 1:5 2:5 1:5 2:5 1:5 2:5
1:0 2:5 1:5 2:5 1:5 2:5 1:5 2:5 1:5 2:5 1:10
2:0 1:5 2:5 1:5 2:5 1:5 2:5 1:5 2:5 1:10 2:5
1:0 2:5 1:5 2:5 1:5 2:5 1:5 2:5 1:10 2:5 1:5
2:0 1:5 2:5 1:5 2:5 1:5 2:5 1:10 2:5 1:5 2:5
1:0 2:5 1:5 2:5 1:5 2:5 1:10 2:5 1:5 2:5 1:5
2:0 1:5 2:5 1:5 2:5 1:10 2:5 1:5 2:5 1:5 2:5
1:0 2:5 1:5 2:5 1:10 2:5 1:5 2:5 1:5 2:5 1:10
2:0 1:5 2:5 1:10 2:5 1:5 2:5 1:5 2:5 1:10 2:5
1:0 2:5 1:10 2:5 1:5 2:5 1:5 2:5 1:10 2:5 1:5
2:0 1:10 2:5 1:5 2:5 1:5 2:5 1:10 2:5 1:5 2:5
1:0 2:5 1:5 2:5 1:5 2:5 1:10 2:5 1:5 2:5 1:10
2:0 1:5 2:5 1:5 2:5 1:10 2:5 1:5 2:5 1:10 2:5
1:0 2:5 1:5 2:5 1:10 2:5 1:5 2:5 1:10 2:5 1:5
2:0 1:5 2:5 1:10 2:5 1:5 2:5 1:10 2:5 1:5 2:5
1:0 2:5 1:10 2:5 1:5 2:5 1:10 2:5 1:5 2:5 1:5
2:0 1:10 2:5 1:5 2:5 1:10 2:5 1:5 2:5 1:5 2:5
1:0 2:5 1:5 2:5 1:10 2:5 1:5 2:5 1:5 2:5 1:5
2:0 1:5 2:5 1:10 2:5 1:5 2:5 1:5 2:5 1:5 2:5
1:0 2:5 1:10 2:5 1:5 2:5 1:5 2:5 1:5 2:5 1:5
2:0 1:10 2:5 1:5 2:5 1:5 2:5 1:5 2:5 1:5 2:5
1:0 2:5 1:5 2:5 1:5 2:5 1:5 2:5 1:5 2:5 1:5
2:0 1:5 2:5 1:5 2:5 1:5 2:5 1:5 2:5 1:5 2:5
1:0 2:5 1:5 2:5 1:5 2:5 1:5 2:5 1:5 2:5 1:5
2:0 1:5 2:5 1:5 2:5 1:5 2:5 1:5 2:5 1:5 2:5
1:0 2:5 1:5 2:5 1:5 2:5 1:5 2:5 1:5 2:5 1:5
2:0 1:5 2:5 1:5 2:5 1:5 2:5 1:5 2:5 1:5 2:5
1:0 2:5 1:5 2:5 1:5 2:5 1:5 2:5 1:5 2:5 1:5
2:0 1:5 2:5 1:5 2:5 1:5 2:5 1:5 2:5 1:5 2:5
1:0 2:5 1:5 2:5 1:5 2:5 1:5 2:5 1:5 2:5 1:5
2:0 1:5 2:5 1:5 2:5 1:5 2:5 1:5 2:5 1:5 2:5
1:0 2:5 1:5 2:5 1:5 2:5 1:5 2:5 1:5 2:5 1:5
2:0 1:5 2:5 1:5 2:5 1:5 2:5 1:5 2:5 1:5 2:5
1:0 2:5 1:5 2:5 1:5 2:5 1:5 2:5 1:5 2:5 1:5
2:0 1:5 2:5 1:5 2:5 1:5 2:5 1:5 2:5 1:5 2:5
1:0 2:5 1:5 2:5 1:5 2:5 1:5 2:5 1:5 2:5 1:5
2:0 1:5 2:5 1:5 2:5 1:5 2:5 1:5 2:5 1:5 2:5
1:0 2:5 1:5 2:5 1:5 2:5 1:5 2:5 1:5 2:5 1:5
2:0 1:5 2:5 1:5 2:5 1:5 2:5 1:5 2:5 1:5 2:5
1:0 2:5 1:5 2:5 1:5 2:5 1:5 2:5 1:5 2:5 1:5
2:0 1:5 2:5 1:5 2:5 1:5 2:5 1:5 2:5 1:5 2:5
1:0 2:5 1:5 2:5 1:5 2:5 1:5 2:5 1:5 2:5 1:5
2:0 1:5 2:5 1:5 2:5 1:5 2:5 1:5 2:5 1:5 2:5
1:0 2:5 1:5 2:5 1:5 2:5 1:5 2:5 1:5 2:5 1:5
2:0 1:5 2:5 1:5 2:5 1:5 2:5 1:5 2:5 1:5 2:5
1:0 2:5 1:5 2:5 1:5 2:5 1:5 2:5 1:5 2:5 1:5
2:0 1:5 2:5 1:5 2:5 1:5 2:5 1:5 2:5 1:5 2:5
1:0 2:5 1:5 2:5 1:5 2:5 1:5 2:5 1:5 2:5 1:5
2:0 1:5 2:5 1:5 2:5 1:5 2:5 1:5 2:5 1:5 2:5
1:0 2:5 1:5 2:5 1:5 2:5 1:5 2:5 1:5 2:5 1:5
2:0 1:5 2:5 1:5 2:5 1:5 2:5 1:5 2:5 1:5 2:5
1:0 2:5 1:5 2:5 1:5 2:5 1:5 2:5 1:5 2:5 1:5
2:0 1:5 2:5 1:5 2:5 1:5 2:5 1:5 2:5 1:5 2:5
1:0 2:5 1:5 2:5 1:5 2:5 1:5 2:5 1:5 2:5 1:5
2:0 1:5 2:5 1:5 2:5 1:5 2:5 1:5 2:5 1:5 2:5
1:0 2:5 1:5 2:5 1:5 2:5 1:5 2:5 1:5 2:5 1:5
2:0 1:5 2:5 1:5 2:5 1:5 2:5 1:5 2:5 1:5 2:5
1:0 2:5 1:5 2:5 1:5 2:5 1:5 2:5 1:5 2:5 1:5
2:0 1:5 2:5 1:5 2:5 1:5 2:5 1:5 2:5 1:5 2:5
1:0 2:5 1:5 2:5 1:5 2:5 1:5 2:5 1:5 2:5 1:5
2:0 1:5 2:5 1:5 2:5 1:5 2:5 1:5 2:5 1:5 2:5
1:0 2:5 1:5 2:5 1:5 2:5 1:5 2:5 1:5 2:5 1:5
2:0 1:5 2:5 1:5 2:5 1:5 2:5 1:5 2:5 1:5 2:5
1:0 2:5 1:5 2:5 1:5 2:5 1:5 2:5 1:5 2:5 1:5
2:0 1:5 2:5 1:5 2:5 1:5 2:5 1:5 2:5 1:5 2:5
1:0 2:5 1:5 2:5 1:5 2:5 1:5 2:5 1:5 2:5 1:5
2:0 1:5 2:5 1:5 2:5 1:5 2:5 1:5 2:5 1:5 2:5
1:0 2:5 1:5 2:5 1:5 2:5 1:5 2:5 1:5 2:5 1:5
2:0 1:5 2:5 1:5 2:5 1:5 2:5 1:5 2:5 1:5 2:5
1:0 2:5 1:5 2:5 1:5 2:5 1:5 2:5 1:5 2:5 1:5
2:0 1:5 2:5 1:5 2:5 1:5 2:5 1:5 2:5 1:5 2:5
1:0 2:5 1:5 2:5 1:5 2:5 1:5 2:5 1:5 2:5 1:5
2:0 1:5 2:5 1:5 2:5 1:5 2:5 1:5 2:5 1:5 2:5
1:0 2:5 1:5 2:5 1:5 2:5 1:5 2:5 1:5 2:5 1:5
2:0 1:5 2:5 1:5 2:5 1:5 2:5 1:5 2:5 1:5 2:5
1:0 2:5 1:5 2:5 1:5 2:5 1:5 2:5 1:5 2:5 1:5
2:0 1:5 2:5 1:5 2:5 1:5 2:5 1:5 2:5 1:5 2:5
1:0 2:5 1:5 2:5 1:5 2:5 1:5 2:5 1:5 2:5 1:5
2:0 1:5 2:5 1:5 2:5 1:5 2:5 1:5 2:5 1:5 2:15
1:0 2:5 1:5 2:5 1:5 2:5 1:5 2:5 1:5 2:15 1:5
2:0 1:5 2:5 1:5 2:5 1:5 2:5 1:5 2:15 1:5 2:5
1:0 2:5 1:5 2:5 1:5 2:5 1:5 2:15 1:5 2:5 1:5
2:0 1:5 2:5 1:5 2:5 1:5 2:15 1:5 2:5 1:5 2:5
1:0 2:5 1:5 2:5 1:5 2:15 1:5 2:5 1:5 2:5 1:5
2:0 1:5 2:5 1:5 2:15 1:5 2:5 1:5 2:5 1:5 2:5
1:0 2:5 1:5 2:15 1:5 2:5 1:5 2:5 1:5 2:5 1:5
2:0 1:5 2:15 1:5 2:5 1:5 2:5 1:5 2:5 1:5 2:25
1:0 2:15 1:5 2:5 1:5 2:5 1:5 2:5 1:5 2:25 1:5
2:0 1:5 2:5 1:5 2:5 1:5 2:5 1:5 2:25 1:5 2:5
1:0 2:5 1:5 2:5 1:5 2:5 1:5 2:25 1:5 2:5 1:5
2:0 1:5 2:5 1:5 2:5 1:5 2:25 1:5 2:5 1:5 2:5
1:0 2:5 1:5 2:5 1:5 2:25 1:5 2:5 1:5 2:5 1:5
2:0 1:5 2:5 1:5 2:25 1:5 2:5 1:5 2:5 1:5 2:5
1:0 2:5 1:5 2:25 1:5 2:5 1:5 2:5 1:5 2:5 1:5
2:0 1:5 2:25 1:5 2:5 1:5 2:5 1:5 2:5 1:5 2:5
1:0 2:25 1:5 2:5 1:5 2:5 1:5 2:5 1:5 2:5 1:5
2:0 1:5 2:5 1:5 2:5 1:5 2:5 1:5 2:5 1:5 2:5
1:0 2:5 1:5 2:5 1:5 2:5 1:5 2:5 1:5 2:5 1:5
2:0 1:5 2:5 1:5 2:5 1:5 2:5 1:5 2:5 1:5 2:5
1:0 2:5 1:5 2:5 1:5 2:5 1:5 2:5 1:5 2:5 1:5
2:0 1:5 2:5 1:5 2:5 1:5 2:5 1:5 2:5 1:5 2:5
1:0 2:5 1:5 2:5 1:5 2:5 1:5 2:5 1:5 2:5 1:5
2:0 1:5 2:5 1:5 2:5 1:5 2:5 1:5 2:5 1:5 2:5
1:0 2:5 1:5 2:5 1:5 2:5 1:5 2:5 1:5 2:5 1:5
2:0 1:5 2:5 1:5 2:5 1:5 2:5 1:5 2:5 1:5 2:5
1:0 2:5 1:5 2:5 1:5 2:5 1:5 2:5 1:5 2:5 1:5
2:0 1:5 2:5 1:5 2:5 1:5 2:5 1:5 2:5 1:5 2:5
1:0 2:5 1:5 2:5 1:5 2:5 1:5 2:5 1:5 2:5 1:5
2:0 1:5 2:5 1:5 2:5 1:5 2:5 1:5 2:5 1:5 2:5
1:0 2:5 1:5 2:5 1:5 2:5 1:5 2:5 1:5 2:5 1:10
2:0 1:5 2:5 1:5 2:5 1:5 2:5 1:5 2:5 1:10 2:5
1:0 2:5 1:5 2:5 1:5 2:5 1:5 2:5 1:10 2:5 1:5
2:0 1:5 2:5 1:5 2:5 1:5 2:5 1:10 2:5 1:5 2:5
1:0 2:5 1:5 2:5 1:5 2:5 1:10 2:5 1:5 2:5 1:5
2:0 1:5 2:5 1:5 2:5 1:10 2:5 1:5 2:5 1:5 2:5
1:0 2:5 1:5 2:5 1:10 2:5 1:5 2:5 1:5 2:5 1:5
2:0 1:5 2:5 1:10 2:5 1:5 2:5 1:5 2:5 1:5 2:5
1:0 2:5 1:10 2:5 1:5 2:5 1:5 2:5 1:5 2:5 1:15
2:0 1:10 2:5 1:5 2:5 1:5 2:5 1:5 2:5 1:15 2:5
1:0 2:5 1:5 2:5 1:5 2:5 1:5 2:5 1:15 2:5 1:5
2:0 1:5 2:5 1:5 2:5 1:5 2:5 1:15 2:5 1:5 2:5
1:0 2:5 1:5 2:5 1:5 2:5 1:15 2:5 1:5 2:5 1:5
2:0 1:5 2:5 1:5 2:5 1:15 2:5 1:5 2:5 1:5 2:5
1:0 2:5 1:5 2:5 1:15 2:5 1:5 2:5 1:5 2:5 1:5
2:0 1:5 2:5 1:15 2:5 1:5 2:5 1:5 2:5 1:5 2:5
1:0 2:5 1:15 2:5 1:5 2:5 1:5 2:5 1:5 2:5 1:5
2:0 1:15 2:5 1:5 2:5 1:5 2:5 1:5 2:5 1:5 2:5
1:0 2:5 1:5 2:5 1:5 2:5 1:5 2:5 1:5 2:5 1:5
2:0 1:5 2:5 1:5 2:5 1:5 2:5 1:5 2:5 1:5 2:5
1:0 2:5 1:5 2:5 1:5 2:5 1:5 2:5 1:5 2:5 1:5
2:0 1:5 2:5 1:5 2:5 1:5 2:5 1:5 2:5 1:5 2:5
1:0 2:5 1:5 2:5 1:5 2:5 1:5 2:5 1:5 2:5 1:5
2:0 1:5 2:5 1:5 2:5 1:5 2:5 1:5 2:5 1:5 2:5
1:0 2:5 1:5 2:5 1:5 2:5 1:5 2:5 1:5 2:5 1:5
2:0 1:5 2:5 1:5 2:5 1:5 2:5 1:5 2:5 1:5 2:5
1:0 2:5 1:5 2:5 1:5 2:5 1:5 2:5 1:5 2:5 1:5
2:0 1:5 2:5 1:5 2:5 1:5 2:5 1:5 2:5 1:5 2:5
1:0 2:5 1:5 2:5 1:5 2:5 1:5 2:5 1:5 2:5 1:5
2:0 1:5 2:5 1:5 2:5 1:5 2:5 1:5 2:5 1:5 2:5
1:0 2:5 1:5 2:5 1:5 2:5 1:5 2:5 1:5 2:5 1:5
2:0 1:5 2:5 1:5 2:5 1:5 2:5 1:5 2:5 1:5 2:5
1:0 2:5 1:5 2:5 1:5 2:5 1:5 2:5 1:5 2:5 1:5
2:0 1:5 2:5 1:5 2:5 1:5 2:5 1:5 2:5 1:5 2:5
1:0 2:5 1:5 2:5 1:5 2:5 1:5 2:5 1:5 2:5 1:5
2:0 1:5 2:5 1:5 2:5 1:5 2:5 1:5 2:5 1:5 2:5
1:0 2:5 1:5 2:5 1:5 2:5 1:5 2:5 1:5 2:5 1:10
2:0 1:5 2:5 1:5 2:5 1:5 2:5 1:5 2:5 1:10 2:5
1:0 2:5 1:5 2:5 1:5 2:5 1:5 2:5 1:10 2:5 1:5
2:0 1:5 2:5 1:5 2:5 1:5 2:5 1:10 2:5 1:5 2:5
1:0 2:5 1:5 2:5 1:5 2:5 1:10 2:5 1:5 2:5 1:5
2:0 1:5 2:5 1:5 2:5 1:10 2:5 1:5 2:5 1:5 2:5
1:0 2:5 1:5 2:5 1:10 2:5 1:5 2:5 1:5 2:5 1:5
2:0 1:5 2:5 1:10 2:5 1:5 2:5 1:5 2:5 1:5 2:5
1:0 2:5 1:10 2:5 1:5 2:5 1:5 2:5 1:5 2:5 1:5
2:0 1:10 2:5 1:5 2:5 1:5 2:5 1:5 2:5 1:5 2:5
1:0 2:5 1:5 2:5 1:5 2:5 1:5 2:5 1:5 2:5 1:5
2:0 1:5 2:5 1:5 2:5 1:5 2:5 1:5 2:5 1:5 2:5
1:0 2:5 1:5 2:5 1:5 2:5 1:5 2:5 1:5 2:5 1:5
2:0 1:5 2:5 1:5 2:5 1:5 2:5 1:5 2:5 1:5 2:5
1:0 2:5 1:5 2:5 1:5 2:5 1:5 2:5 1:5 2:5 1:5
2:0 1:5 2:5 1:5 2:5 1:5 2:5 1:5 2:5 1:5 2:5
1:0 2:5 1:5 2:5 1:5 2:5 1:5 2:5 1:5 2:5 1:5
2:0 1:5 2:5 1:5 2:5 1:5 2:5 1:5 2:5 1:5 2:5
1:0 2:5 1:5 2:5 1:5 2:5 1:5 2:5 1:5 2:5 1:5
2:0 1:5 2:5 1:5 2:5 1:5 2:5 1:5 2:5 1:5 2:5
1:0 2:5 1:5 2:5 1:5 2:5 1:5 2:5 1:5 2:5 1:5
2:0 1:5 2:5 1:5 2:5 1:5 2:5 1:5 2:5 1:5 2:5
1:0 2:5 1:5 2:5 1:5 2:5 1:5 2:5 1:5 2:5 1:5
2:0 1:5 2:5 1:5 2:5 1:5 2:5 1:5 2:5 1:5 2:5
1:0 2:5 1:5 2:5 1:5 2:5 1:5 2:5 1:5 2:5 1:5
2:0 1:5 2:5 1:5 2:5 1:5 2:5 1:5 2:5 1:5 2:5
1:0 2:5 1:5 2:5 1:5 2:5 1:5 2:5 1:5 2:5 1:5
2:0 1:5 2:5 1:5 2:5 1:5 2:5 1:5 2:5 1:5 2:5
1:0 2:5 1:5 2:5 1:5 2:5 1:5 2:5 1:5 2:5 1:10
2:0 1:5 2:5 1:5 2:5 1:5 2:5 1:5 2:5 1:10 2:5
1:0 2:5 1:5 2:5 1:5 2:5 1:5 2:5 1:10 2:5 1:5
2:0 1:5 2:5 1:5 2:5 1:5 2:5 1:10 2:5 1:5 2:5
1:0 2:5 1:5 2:5 1:5 2:5 1:10 2:5 1:5 2:5 1:5
2:0 1:5 2:5 1:5 2:5 1:10 2:5 1:5 2:5 1:5 2:5
1:0 2:5 1:5 2:5 1:10 2:5 1:5 2:5 1:5 2:5 1:10
2:0 1:5 2:5 1:10 2:5 1:5 2:5 1:5 2:5 1:10 2:5
1:0 2:5 1:10 2:5 1:5 2:5 1:5 2:5 1:10 2:5 1:5
2:0 1:10 2:5 1:5 2:5 1:5 2:5 1:10 2:5 1:5 2:10
1:0 2:5 1:5 2:5 1:5 2:5 1:10 2:5 1:5 2:10 1:5
2:0 1:5 2:5 1:5 2:5 1:10 2:5 1:5 2:10 1:5 2:5
1:0 2:5 1:5 2:5 1:10 2:5 1:5 2:10 1:5 2:5 1:5
2:0 1:5 2:5 1:10 2:5 1:5 2:10 1:5 2:5 1:5 2:5
1:0 2:5 1:10 2:5 1:5 2:10 1:5 2:5 1:5 2:5 1:5
2:0 1:10 2:5 1:5 2:10 1:5 2:5 1:5 2:5 1:5 2:5
1:0 2:5 1:5 2:10 1:5 2:5 1:5 2:5 1:5 2:5 1:10
2:0 1:5 2:10 1:5 2:5 1:5 2:5 1:5 2:5 1:10 2:5
1:0 2:10 1:5 2:5 1:5 2:5 1:5 2:5 1:10 2:5 1:5
2:0 1:5 2:5 1:5 2:5 1:5 2:5 1:10 2:5 1:5 2:5
1:0 2:5 1:5 2:5 1:5 2:5 1:10 2:5 1:5 2:5 1:10
2:0 1:5 2:5 1:5 2:5 1:10 2:5 1:5 2:5 1:10 2:5
1:0 2:5 1:5 2:5 1:10 2:5 1:5 2:5 1:10 2:5 1:5
2:0 1:5 2:5 1:10 2:5 1:5 2:5 1:10 2:5 1:5 2:5
1:0 2:5 1:10 2:5 1:5 2:5 1:10 2:5 1:5 2:5 1:5
2:0 1:10 2:5 1:5 2:5 1:10 2:5 1:5 2:5 1:5 2:10
1:0 2:5 1:5 2:5 1:10 2:5 1:5 2:5 1:5 2:10 1:5
2:0 1:5 2:5 1:10 2:5 1:5 2:5 1:5 2:10 1:5 2:5
1:0 2:5 1:10 2:5 1:5 2:5 1:5 2:10 1:5 2:5 1:5
2:0 1:10 2:5 1:5 2:5 1:5 2:10 1:5 2:5 1:5 2:5
1:0 2:5 1:5 2:5 1:5 2:10 1:5 2:5 1:5 2:5 1:5
2:0 1:5 2:5 1:5 2:10 1:5 2:5 1:5 2:5 1:5 2:5
1:0 2:5 1:5 2:10 1:5 2:5 1:5 2:5 1:5 2:5 1:5
2:0 1:5 2:10 1:5 2:5 1:5 2:5 1:5 2:5 1:5 2:10
1:0 2:10 1:5 2:5 1:5 2:5 1:5 2:5 1:5 2:10 1:5
2:0 1:5 2:5 1:5 2:5 1:5 2:5 1:5 2:10 1:5 2:5
1:0 2:5 1:5 2:5 1:5 2:5 1:5 2:10 1:5 2:5 1:10
2:0 1:5 2:5 1:5 2:5 1:5 2:10 1:5 2:5 1:10 2:5
1:0 2:5 1:5 2:5 1:5 2:10 1:5 2:5 1:10 2:5 1:5
2:0 1:5 2:5 1:5 2:10 1:5 2:5 1:10 2:5 1:5 2:5
1:0 2:5 1:5 2:10 1:5 2:5 1:10 2:5 1:5 2:5 1:10
2:0 1:5 2:10 1:5 2:5 1:10 2:5 1:5 2:5 1:10 2:5
1:0 2:10 1:5 2:5 1:10 2:5 1:5 2:5 1:10 2:5 1:5
2:0 1:5 2:5 1:10 2:5 1:5 2:5 1:10 2:5 1:5 2:5
1:0 2:5 1:10 2:5 1:5 2:5 1:10 2:5 1:5 2:5 1:5
2:0 1:10 2:5 1:5 2:5 1:10 2:5 1:5 2:5 1:5 2:5
1:0 2:5 1:5 2:5 1:10 2:5 1:5 2:5 1:5 2:5 1:5
2:0 1:5 2:5 1:10 2:5 1:5 2:5 1:5 2:5 1:5 2:5
1:0 2:5 1:10 2:5 1:5 2:5 1:5 2:5 1:5 2:5 1:5
2:0 1:10 2:5 1:5 2:5 1:5 2:5 1:5 2:5 1:5 2:5
1:0 2:5 1:5 2:5 1:5 2:5 1:5 2:5 1:5 2:5 1:5
2:0 1:5 2:5 1:5 2:5 1:5 2:5 1:5 2:5 1:5 2:5
1:0 2:5 1:5 2:5 1:5 2:5 1:5 2:5 1:5 2:5 1:5
2:0 1:5 2:5 1:5 2:5 1:5 2:5 1:5 2:5 1:5 2:5
1:0 2:5 1:5 2:5 1:5 2:5 1:5 2:5 1:5 2:5 1:5
2:0 1:5 2:5 1:5 2:5 1:5 2:5 1:5 2:5 1:5 2:5
1:0 2:5 1:5 2:5 1:5 2:5 1:5 2:5 1:5 2:5 1:5
2:0 1:5 2:5 1:5 2:5 1:5 2:5 1:5 2:5 1:5 2:5
1:0 2:5 1:5 2:5 1:5 2:5 1:5 2:5 1:5 2:5 1:10
2:0 1:5 2:5 1:5 2:5 1:5 2:5 1:5 2:5 1:10 2:5
1:0 2:5 1:5 2:5 1:5 2:5 1:5 2:5 1:10 2:5 1:15
2:0 1:5 2:5 1:5 2:5 1:5 2:5 1:10 2:5 1:15 2:10
1:0 2:5 1:5 2:5 1:5 2:5 1:10 2:5 1:15 2:10 1:5
2:0 1:5 2:5 1:5 2:5 1:10 2:5 1:15 2:10 1:5 2:5
1:0 2:5 1:5 2:5 1:10 2:5 1:15 2:10 1:5 2:5 1:5
2:0 1:5 2:5 1:10 2:5 1:15 2:10 1:5 2:5 1:5 2:5
1:0 2:5 1:10 2:5 1:15 2:10 1:5 2:5 1:5 2:5 1:10
2:0 1:10 2:5 1:15 2:10 1:5 2:5 1:5 2:5 1:10 2:5
1:0 2:5 1:15 2:10 1:5 2:5 1:5 2:5 1:10 2:5 1:5
2:0 1:15 2:10 1:5 2:5 1:5 2:5 1:10 2:5 1:5 2:5
1:0 2:10 1:5 2:5 1:5 2:5 1:10 2:5 1:5 2:5 1:5
2:0 1:5 2:5 1:5 2:5 1:10 2:5 1:5 2:5 1:5 2:5
1:0 2:5 1:5 2:5 1:10 2:5 1:5 2:5 1:5 2:5 1:5
2:0 1:5 2:5 1:10 2:5 1:5 2:5 1:5 2:5 1:5 2:5
1:0 2:5 1:10 2:5 1:5 2:5 1:5 2:5 1:5 2:5 1:5
2:0 1:10 2:5 1:5 2:5 1:5 2:5 1:5 2:5 1:5 2:5
1:0 2:5 1:5 2:5 1:5 2:5 1:5 2:5 1:5 2:5 1:5
2:0 1:5 2:5 1:5 2:5 1:5 2:5 1:5 2:5 1:5 2:5
1:0 2:5 1:5 2:5 1:5 2:5 1:5 2:5 1:5 2:5 1:5
2:0 1:5 2:5 1:5 2:5 1:5 2:5 1:5 2:5 1:5 2:5
1:0 2:5 1:5 2:5 1:5 2:5 1:5 2:5 1:5 2:5 1:5
2:0 1:5 2:5 1:5 2:5 1:5 2:5 1:5 2:5 1:5 2:5
1:0 2:5 1:5 2:5 1:5 2:5 1:5 2:5 1:5 2:5 1:5
2:0 1:5 2:5 1:5 2:5 1:5 2:5 1:5 2:5 1:5 2:5
1:0 2:5 1:5 2:5 1:5 2:5 1:5 2:5 1:5 2:5 1:5
2:0 1:5 2:5 1:5 2:5 1:5 2:5 1:5 2:5 1:5 2:5
1:0 2:5 1:5 2:5 1:5 2:5 1:5 2:5 1:5 2:5 1:10
2:0 1:5 2:5 1:5 2:5 1:5 2:5 1:5 2:5 1:10 2:5
1:0 2:5 1:5 2:5 1:5 2:5 1:5 2:5 1:10 2:5 1:20
2:0 1:5 2:5 1:5 2:5 1:5 2:5 1:10 2:5 1:20 2:10
1:0 2:5 1:5 2:5 1:5 2:5 1:10 2:5 1:20 2:10 1:15
2:0 1:5 2:5 1:5 2:5 1:10 2:5 1:20 2:10 1:15 2:5
1:0 2:5 1:5 2:5 1:10 2:5 1:20 2:10 1:15 2:5 1:5
2:0 1:5 2:5 1:10 2:5 1:20 2:10 1:15 2:5 1:5 2:5
1:0 2:5 1:10 2:5 1:20 2:10 1:15 2:5 1:5 2:5 1:5
2:0 1:10 2:5 1:20 2:10 1:15 2:5 1:5 2:5 1:5 2:15
1:0 2:5 1:20 2:10 1:15 2:5 1:5 2:5 1:5 2:15 1:5
2:0 1:20 2:10 1:15 2:5 1:5 2:5 1:5 2:15 1:5 2:5
1:0 2:10 1:15 2:5 1:5 2:5 1:5 2:15 1:5 2:5 1:5
2:0 1:15 2:5 1:5 2:5 1:5 2:15 1:5 2:5 1:5 2:5
1:0 2:5 1:5 2:5 1:5 2:15 1:5 2:5 1:5 2:5 1:5
2:0 1:5 2:5 1:5 2:15 1:5 2:5 1:5 2:5 1:5 2:5
1:0 2:5 1:5 2:15 1:5 2:5 1:5 2:5 1:5 2:5 1:5
2:0 1:5 2:15 1:5 2:5 1:5 2:5 1:5 2:5 1:5 2:5
1:0 2:15 1:5 2:5 1:5 2:5 1:5 2:5 1:5 2:5 1:5
2:0 1:5 2:5 1:5 2:5 1:5 2:5 1:5 2:5 1:5 2:5
1:0 2:5 1:5 2:5 1:5 2:5 1:5 2:5 1:5 2:5 1:5
2:0 1:5 2:5 1:5 2:5 1:5 2:5 1:5 2:5 1:5 2:5
1:0 2:5 1:5 2:5 1:5 2:5 1:5 2:5 1:5 2:5 1:5
2:0 1:5 2:5 1:5 2:5 1:5 2:5 1:5 2:5 1:5 2:5
1:0 2:5 1:5 2:5 1:5 2:5 1:5 2:5 1:5 2:5 1:5
2:0 1:5 2:5 1:5 2:5 1:5 2:5 1:5 2:5 1:5 2:5
1:0 2:5 1:5 2:5 1:5 2:5 1:5 2:5 1:5 2:5 1:5
2:0 1:5 2:5 1:5 2:5 1:5 2:5 1:5 2:5 1:5 2:5
1:0 2:5 1:5 2:5 1:5 2:5 1:5 2:5 1:5 2:5 1:10
2:0 1:5 2:5 1:5 2:5 1:5 2:5 1:5 2:5 1:10 2:5
1:0 2:5 1:5 2:5 1:5 2:5 1:5 2:5 1:10 2:5 1:5
2:0 1:5 2:5 1:5 2:5 1:5 2:5 1:10 2:5 1:5 2:5
1:0 2:5 1:5 2:5 1:5 2:5 1:10 2:5 1:5 2:5 1:5
2:0 1:5 2:5 1:5 2:5 1:10 2:5 1:5 2:5 1:5 2:5
1:0 2:5 1:5 2:5 1:10 2:5 1:5 2:5 1:5 2:5 1:5
2:0 1:5 2:5 1:10 2:5 1:5 2:5 1:5 2:5 1:5 2:5
1:0 2:5 1:10 2:5 1:5 2:5 1:5 2:5 1:5 2:5 1:5
2:0 1:10 2:5 1:5 2:5 1:5 2:5 1:5 2:5 1:5 2:5
1:0 2:5 1:5 2:5 1:5 2:5 1:5 2:5 1:5 2:5 1:5
2:0 1:5 2:5 1:5 2:5 1:5 2:5 1:5 2:5 1:5 2:5
1:0 2:5 1:5 2:5 1:5 2:5 1:5 2:5 1:5 2:5 1:5
2:0 1:5 2:5 1:5 2:5 1:5 2:5 1:5 2:5 1:5 2:5
1:0 2:5 1:5 2:5 1:5 2:5 1:5 2:5 1:5 2:5 1:5
2:0 1:5 2:5 1:5 2:5 1:5 2:5 1:5 2:5 1:5 2:5
1:0 2:5 1:5 2:5 1:5 2:5 1:5 2:5 1:5 2:5 1:5
2:0 1:5 2:5 1:5 2:5 1:5 2:5 1:5 2:5 1:5 2:5
1:0 2:5 1:5 2:5 1:5 2:5 1:5 2:5 1:5 2:5 1:10
2:0 1:5 2:5 1:5 2:5 1:5 2:5 1:5 2:5 1:10 2:5
1:0 2:5 1:5 2:5 1:5 2:5 1:5 2:5 1:10 2:5 1:5
2:0 1:5 2:5 1:5 2:5 1:5 2:5 1:10 2:5 1:5 2:5
1:0 2:5 1:5 2:5 1:5 2:5 1:10 2:5 1:5 2:5 1:5
2:0 1:5 2:5 1:5 2:5 1:10 2:5 1:5 2:5 1:5 2:5
1:0 2:5 1:5 2:5 1:10 2:5 1:5 2:5 1:5 2:5 1:10
2:0 1:5 2:5 1:10 2:5 1:5 2:5 1:5 2:5 1:10 2:10
1:0 2:5 1:10 2:5 1:5 2:5 1:5 2:5 1:10 2:10 1:10
2:0 1:10 2:5 1:5 2:5 1:5 2:5 1:10 2:10 1:10 2:10
1:0 2:5 1:5 2:5 1:5 2:5 1:10 2:10 1:10 2:10 1:5
2:0 1:5 2:5 1:5 2:5 1:10 2:10 1:10 2:10 1:5 2:5
1:0 2:5 1:5 2:5 1:10 2:10 1:10 2:10 1:5 2:5 1:10
2:0 1:5 2:5 1:10 2:10 1:10 2:10 1:5 2:5 1:10 2:5
1:0 2:5 1:10 2:10 1:10 2:10 1:5 2:5 1:10 2:5 1:5
2:0 1:10 2:10 1:10 2:10 1:5 2:5 1:10 2:5 1:5 2:5
1:0 2:10 1:10 2:10 1:5 2:5 1:10 2:5 1:5 2:5 1:5
2:0 1:10 2:10 1:5 2:5 1:10 2:5 1:5 2:5 1:5 2:10
1:0 2:10 1:5 2:5 1:10 2:5 1:5 2:5 1:5 2:10 1:5
2:0 1:5 2:5 1:10 2:5 1:5 2:5 1:5 2:10 1:5 2:5
1:0 2:5 1:10 2:5 1:5 2:5 1:5 2:10 1:5 2:5 1:5
2:0 1:10 2:5 1:5 2:5 1:5 2:10 1:5 2:5 1:5 2:10
1:0 2:5 1:5 2:5 1:5 2:10 1:5 2:5 1:5 2:10 1:5
2:0 1:5 2:5 1:5 2:10 1:5 2:5 1:5 2:10 1:5 2:5
1:0 2:5 1:5 2:10 1:5 2:5 1:5 2:10 1:5 2:5 1:5
2:0 1:5 2:10 1:5 2:5 1:5 2:10 1:5 2:5 1:5 2:5
1:0 2:10 1:5 2:5 1:5 2:10 1:5 2:5 1:5 2:5 1:5
2:0 1:5 2:5 1:5 2:10 1:5 2:5 1:5 2:5 1:5 2:5
1:0 2:5 1:5 2:10 1:5 2:5 1:5 2:5 1:5 2:5 1:5
2:0 1:5 2:10 1:5 2:5 1:5 2:5 1:5 2:5 1:5 2:5
1:0 2:10 1:5 2:5 1:5 2:5 1:5 2:5 1:5 2:5 1:5
2:0 1:5 2:5 1:5 2:5 1:5 2:5 1:5 2:5 1:5 2:5
1:0 2:5 1:5 2:5 1:5 2:5 1:5 2:5 1:5 2:5 1:5
2:0 1:5 2:5 1:5 2:5 1:5 2:5 1:5 2:5 1:5 2:5
1:0 2:5 1:5 2:5 1:5 2:5 1:5 2:5 1:5 2:5 1:5
2:0 1:5 2:5 1:5 2:5 1:5 2:5 1:5 2:5 1:5 2:5
1:0 2:5 1:5 2:5 1:5 2:5 1:5 2:5 1:5 2:5 1:5
2:0 1:5 2:5 1:5 2:5 1:5 2:5 1:5 2:5 1:5 2:5
1:0 2:5 1:5 2:5 1:5 2:5 1:5 2:5 1:5 2:5 1:5
2:0 1:5 2:5 1:5 2:5 1:5 2:5 1:5 2:5 1:5 2:5
1:0 2:5 1:5 2:5 1:5 2:5 1:5 2:5 1:5 2:5 1:10
2:0 1:5 2:5 1:5 2:5 1:5 2:5 1:5 2:5 1:10 2:5
1:0 2:5 1:5 2:5 1:5 2:5 1:5 2:5 1:10 2:5 1:5
2:0 1:5 2:5 1:5 2:5 1:5 2:5 1:10 2:5 1:5 2:5
1:0 2:5 1:5 2:5 1:5 2:5 1:10 2:5 1:5 2:5 1:5
2:0 1:5 2:5 1:5 2:5 1:10 2:5 1:5 2:5 1:5 2:5
1:0 2:5 1:5 2:5 1:10 2:5 1:5 2:5 1:5 2:5 1:5
2:0 1:5 2:5 1:10 2:5 1:5 2:5 1:5 2:5 1:5 2:10
1:0 2:5 1:10 2:5 1:5 2:5 1:5 2:5 1:5 2:10 1:5
2:0 1:10 2:5 1:5 2:5 1:5 2:5 1:5 2:10 1:5 2:5
1:0 2:5 1:5 2:5 1:5 2:5 1:5 2:10 1:5 2:5 1:10
2:0 1:5 2:5 1:5 2:5 1:5 2:10 1:5 2:5 1:10 2:5
1:0 2:5 1:5 2:5 1:5 2:10 1:5 2:5 1:10 2:5 1:5
2:0 1:5 2:5 1:5 2:10 1:5 2:5 1:10 2:5 1:5 2:5
1:0 2:5 1:5 2:10 1:5 2:5 1:10 2:5 1:5 2:5 1:5
2:0 1:5 2:10 1:5 2:5 1:10 2:5 1:5 2:5 1:5 2:5
1:0 2:10 1:5 2:5 1:10 2:5 1:5 2:5 1:5 2:5 1:5
2:0 1:5 2:5 1:10 2:5 1:5 2:5 1:5 2:5 1:5 2:5
1:0 2:5 1:10 2:5 1:5 2:5 1:5 2:5 1:5 2:5 1:5
2:0 1:10 2:5 1:5 2:5 1:5 2:5 1:5 2:5 1:5 2:5
1:0 2:5 1:5 2:5 1:5 2:5 1:5 2:5 1:5 2:5 1:5
2:0 1:5 2:5 1:5 2:5 1:5 2:5 1:5 2:5 1:5 2:5
1:0 2:5 1:5 2:5 1:5 2:5 1:5 2:5 1:5 2:5 1:5
2:0 1:5 2:5 1:5 2:5 1:5 2:5 1:5 2:5 1:5 2:5
1:0 2:5 1:5 2:5 1:5 2:5 1:5 2:5 1:5 2:5 1:5
2:0 1:5 2:5 1:5 2:5 1:5 2:5 1:5 2:5 1:5 2:5
1:0 2:5 1:5 2:5 1:5 2:5 1:5 2:5 1:5 2:5 1:10
2:0 1:5 2:5 1:5 2:5 1:5 2:5 1:5 2:5 1:10 2:5
1:0 2:5 1:5 2:5 1:5 2:5 1:5 2:5 1:10 2:5 1:5
2:0 1:5 2:5 1:5 2:5 1:5 2:5 1:10 2:5 1:5 2:5
1:0 2:5 1:5 2:5 1:5 2:5 1:10 2:5 1:5 2:5 1:5
2:0 1:5 2:5 1:5 2:5 1:10 2:5 1:5 2:5 1:5 2:5
1:0 2:5 1:5 2:5 1:10 2:5 1:5 2:5 1:5 2:5 1:5
2:0 1:5 2:5 1:10 2:5 1:5 2:5 1:5 2:5 1:5 2:10
1:0 2:5 1:10 2:5 1:5 2:5 1:5 2:5 1:5 2:10 1:10
2:0 1:10 2:5 1:5 2:5 1:5 2:5 1:5 2:10 1:10 2:5
1:0 2:5 1:5 2:5 1:5 2:5 1:5 2:10 1:10 2:5 1:5
2:0 1:5 2:5 1:5 2:5 1:5 2:10 1:10 2:5 1:5 2:5
1:0 2:5 1:5 2:5 1:5 2:10 1:10 2:5 1:5 2:5 1:5
2:0 1:5 2:5 1:5 2:10 1:10 2:5 1:5 2:5 1:5 2:5
1:0 2:5 1:5 2:10 1:10 2:5 1:5 2:5 1:5 2:5 1:5
2:0 1:5 2:10 1:10 2:5 1:5 2:5 1:5 2:5 1:5 2:5
1:0 2:10 1:10 2:5 1:5 2:5 1:5 2:5 1:5 2:5 1:5
2:0 1:10 2:5 1:5 2:5 1:5 2:5 1:5 2:5 1:5 2:10
1:0 2:5 1:5 2:5 1:5 2:5 1:5 2:5 1:5 2:10 1:5
2:0 1:5 2:5 1:5 2:5 1:5 2:5 1:5 2:10 1:5 2:5
1:0 2:5 1:5 2:5 1:5 2:5 1:5 2:10 1:5 2:5 1:5
2:0 1:5 2:5 1:5 2:5 1:5 2:10 1:5 2:5 1:5 2:5
1:0 2:5 1:5 2:5 1:5 2:10 1:5 2:5 1:5 2:5 1:5
2:0 1:5 2:5 1:5 2:10 1:5 2:5 1:5 2:5 1:5 2:5
1:0 2:5 1:5 2:10 1:5 2:5 1:5 2:5 1:5 2:5 1:5
2:0 1:5 2:10 1:5 2:5 1:5 2:5 1:5 2:5 1:5 2:5
1:0 2:10 1:5 2:5 1:5 2:5 1:5 2:5 1:5 2:5 1:5
2:0 1:5 2:5 1:5 2:5 1:5 2:5 1:5 2:5 1:5 2:5
1:0 2:5 1:5 2:5 1:5 2:5 1:5 2:5 1:5 2:5 1:5
2:0 1:5 2:5 1:5 2:5 1:5 2:5 1:5 2:5 1:5 2:5
1:0 2:5 1:5 2:5 1:5 2:5 1:5 2:5 1:5 2:5 1:5
2:0 1:5 2:5 1:5 2:5 1:5 2:5 1:5 2:5 1:5 2:5
1:0 2:5 1:5 2:5 1:5 2:5 1:5 2:5 1:5 2:5 1:5
2:0 1:5 2:5 1:5 2:5 1:5 2:5 1:5 2:5 1:5 2:5
1:0 2:5 1:5 2:5 1:5 2:5 1:5 2:5 1:5 2:5 1:5
2:0 1:5 2:5 1:5 2:5 1:5 2:5 1:5 2:5 1:5 2:5
1:0 2:5 1:5 2:5 1:5 2:5 1:5 2:5 1:5 2:5 1:5
2:0 1:5 2:5 1:5 2:5 1:5 2:5 1:5 2:5 1:5 2:5
1:0 2:5 1:5 2:5 1:5 2:5 1:5 2:5 1:5 2:5 1:5
2:0 1:5 2:5 1:5 2:5 1:5 2:5 1:5 2:5 1:5 2:5
1:0 2:5 1:5 2:5 1:5 2:5 1:5 2:5 1:5 2:5 1:5
2:0 1:5 2:5 1:5 2:5 1:5 2:5 1:5 2:5 1:5 2:5
1:0 2:5 1:5 2:5 1:5 2:5 1:5 2:5 1:5 2:5 1:5
2:0 1:5 2:5 1:5 2:5 1:5 2:5 1:5 2:5 1:5 2:5
1:0 2:5 1:5 2:5 1:5 2:5 1:5 2:5 1:5 2:5 1:5
2:0 1:5 2:5 1:5 2:5 1:5 2:5 1:5 2:5 1:5 2:5
1:0 2:5 1:5 2:5 1:5 2:5 1:5 2:5 1:5 2:5 1:5
2:0 1:5 2:5 1:5 2:5 1:5 2:5 1:5 2:5 1:5 2:5
1:0 2:5 1:5 2:5 1:5 2:5 1:5 2:5 1:5 2:5 1:5
2:0 1:5 2:5 1:5 2:5 1:5 2:5 1:5 2:5 1:5 2:5
1:0 2:5 1:5 2:5 1:5 2:5 1:5 2:5 1:5 2:5 1:5
2:0 1:5 2:5 1:5 2:5 1:5 2:5 1:5 2:5 1:5 2:5
1:0 2:5 1:5 2:5 1:5 2:5 1:5 2:5 1:5 2:5 1:5
2:0 1:5 2:5 1:5 2:5 1:5 2:5 1:5 2:5 1:5 2:5
1:0 2:5 1:5 2:5 1:5 2:5 1:5 2:5 1:5 2:5 1:5
2:0 1:5 2:5 1:5 2:5 1:5 2:5 1:5 2:5 1:5 2:5
1:0 2:5 1:5 2:5 1:5 2:5 1:5 2:5 1:5 2:5 1:5
2:0 1:5 2:5 1:5 2:5 1:5 2:5 1:5 2:5 1:5 2:5
1:0 2:5 1:5 2:5 1:5 2:5 1:5 2:5 1:5 2:5 1:5
2:0 1:5 2:5 1:5 2:5 1:5 2:5 1:5 2:5 1:5 2:5
1:0 2:5 1:5 2:5 1:5 2:5 1:5 2:5 1:5 2:5 1:5
2:0 1:5 2:5 1:5 2:5 1:5 2:5 1:5 2:5 1:5 2:5
1:0 2:5 1:5 2:5 1:5 2:5 1:5 2:5 1:5 2:5 1:5
2:0 1:5 2:5 1:5 2:5 1:5 2:5 1:5 2:5 1:5 2:5
1:0 2:5 1:5 2:5 1:5 2:5 1:5 2:5 1:5 2:5 1:5
2:0 1:5 2:5 1:5 2:5 1:5 2:5 1:5 2:5 1:5 2:5
1:0 2:5 1:5 2:5 1:5 2:5 1:5 2:5 1:5 2:5 1:5
2:0 1:5 2:5 1:5 2:5 1:5 2:5 1:5 2:5 1:5 2:5
1:0 2:5 1:5 2:5 1:5 2:5 1:5 2:5 1:5 2:5 1:5
2:0 1:5 2:5 1:5 2:5 1:5 2:5 1:5 2:5 1:5 2:5
1:0 2:5 1:5 2:5 1:5 2:5 1:5 2:5 1:5 2:5 1:5
2:0 1:5 2:5 1:5 2:5 1:5 2:5 1:5 2:5 1:5 2:5
1:0 2:5 1:5 2:5 1:5 2:5 1:5 2:5 1:5 2:5 1:5
2:0 1:5 2:5 1:5 2:5 1:5 2:5 1:5 2:5 1:5 2:5
1:0 2:5 1:5 2:5 1:5 2:5 1:5 2:5 1:5 2:5 1:15
2:0 1:5 2:5 1:5 2:5 1:5 2:5 1:5 2:5 1:15 2:5
1:0 2:5 1:5 2:5 1:5 2:5 1:5 2:5 1:15 2:5 1:5
2:0 1:5 2:5 1:5 2:5 1:5 2:5 1:15 2:5 1:5 2:5
1:0 2:5 1:5 2:5 1:5 2:5 1:15 2:5 1:5 2:5 1:5
2:0 1:5 2:5 1:5 2:5 1:15 2:5 1:5 2:5 1:5 2:5
1:0 2:5 1:5 2:5 1:15 2:5 1:5 2:5 1:5 2:5 1:5
2:0 1:5 2:5 1:15 2:5 1:5 2:5 1:5 2:5 1:5 2:5
1:0 2:5 1:15 2:5 1:5 2:5 1:5 2:5 1:5 2:5 1:5
2:0 1:15 2:5 1:5 2:5 1:5 2:5 1:5 2:5 1:5 2:5
1:0 2:5 1:5 2:5 1:5 2:5 1:5 2:5 1:5 2:5 1:5
2:0 1:5 2:5 1:5 2:5 1:5 2:5 1:5 2:5 1:5 2:5
1:0 2:5 1:5 2:5 1:5 2:5 1:5 2:5 1:5 2:5 1:5
2:0 1:5 2:5 1:5 2:5 1:5 2:5 1:5 2:5 1:5 2:5
1:0 2:5 1:5 2:5 1:5 2:5 1:5 2:5 1:5 2:5 1:5
2:0 1:5 2:5 1:5 2:5 1:5 2:5 1:5 2:5 1:5 2:5
1:0 2:5 1:5 2:5 1:5 2:5 1:5 2:5 1:5 2:5 1:5
2:0 1:5 2:5 1:5 2:5 1:5 2:5 1:5 2:5 1:5 2:5
1:0 2:5 1:5 2:5 1:5 2:5 1:5 2:5 1:5 2:5 1:5
2:0 1:5 2:5 1:5 2:5 1:5 2:5 1:5 2:5 1:5 2:10
1:0 2:5 1:5 2:5 1:5 2:5 1:5 2:5 1:5 2:10 1:15
2:0 1:5 2:5 1:5 2:5 1:5 2:5 1:5 2:10 1:15 2:10
1:0 2:5 1:5 2:5 1:5 2:5 1:5 2:10 1:15 2:10 1:5
2:0 1:5 2:5 1:5 2:5 1:5 2:10 1:15 2:10 1:5 2:5
1:0 2:5 1:5 2:5 1:5 2:10 1:15 2:10 1:5 2:5 1:10
2:0 1:5 2:5 1:5 2:10 1:15 2:10 1:5 2:5 1:10 2:5
1:0 2:5 1:5 2:10 1:15 2:10 1:5 2:5 1:10 2:5 1:5
2:0 1:5 2:10 1:15 2:10 1:5 2:5 1:10 2:5 1:5 2:5
1:0 2:10 1:15 2:10 1:5 2:5 1:10 2:5 1:5 2:5 1:5
2:0 1:15 2:10 1:5 2:5 1:10 2:5 1:5 2:5 1:5 2:5
1:0 2:10 1:5 2:5 1:10 2:5 1:5 2:5 1:5 2:5 1:5
2:0 1:5 2:5 1:10 2:5 1:5 2:5 1:5 2:5 1:5 2:5
1:0 2:5 1:10 2:5 1:5 2:5 1:5 2:5 1:5 2:5 1:10
2:0 1:10 2:5 1:5 2:5 1:5 2:5 1:5 2:5 1:10 2:10
1:0 2:5 1:5 2:5 1:5 2:5 1:5 2:5 1:10 2:10 1:5
2:0 1:5 2:5 1:5 2:5 1:5 2:5 1:10 2:10 1:5 2:5
1:0 2:5 1:5 2:5 1:5 2:5 1:10 2:10 1:5 2:5 1:5
2:0 1:5 2:5 1:5 2:5 1:10 2:10 1:5 2:5 1:5 2:5
1:0 2:5 1:5 2:5 1:10 2:10 1:5 2:5 1:5 2:5 1:5
2:0 1:5 2:5 1:10 2:10 1:5 2:5 1:5 2:5 1:5 2:5
1:0 2:5 1:10 2:10 1:5 2:5 1:5 2:5 1:5 2:5 1:5
2:0 1:10 2:10 1:5 2:5 1:5 2:5 1:5 2:5 1:5 2:5
1:0 2:10 1:5 2:5 1:5 2:5 1:5 2:5 1:5 2:5 1:5
2:0 1:5 2:5 1:5 2:5 1:5 2:5 1:5 2:5 1:5 2:5
1:0 2:5 1:5 2:5 1:5 2:5 1:5 2:5 1:5 2:5 1:15
2:0 1:5 2:5 1:5 2:5 1:5 2:5 1:5 2:5 1:15 2:5
1:0 2:5 1:5 2:5 1:5 2:5 1:5 2:5 1:15 2:5 1:5
2:0 1:5 2:5 1:5 2:5 1:5 2:5 1:15 2:5 1:5 2:5
1:0 2:5 1:5 2:5 1:5 2:5 1:15 2:5 1:5 2:5 1:5
2:0 1:5 2:5 1:5 2:5 1:15 2:5 1:5 2:5 1:5 2:10
1:0 2:5 1:5 2:5 1:15 2:5 1:5 2:5 1:5 2:10 1:15
2:0 1:5 2:5 1:15 2:5 1:5 2:5 1:5 2:10 1:15 2:5
1:0 2:5 1:15 2:5 1:5 2:5 1:5 2:10 1:15 2:5 1:5
2:0 1:15 2:5 1:5 2:5 1:5 2:10 1:15 2:5 1:5 2:5
1:0 2:5 1:5 2:5 1:5 2:10 1:15 2:5 1:5 2:5 1:5
2:0 1:5 2:5 1:5 2:10 1:15 2:5 1:5 2:5 1:5 2:15
1:0 2:5 1:5 2:10 1:15 2:5 1:5 2:5 1:5 2:15 1:15
2:0 1:5 2:10 1:15 2:5 1:5 2:5 1:5 2:15 1:15 2:5
1:0 2:10 1:15 2:5 1:5 2:5 1:5 2:15 1:15 2:5 1:5
2:0 1:15 2:5 1:5 2:5 1:5 2:15 1:15 2:5 1:5 2:5
1:0 2:5 1:5 2:5 1:5 2:15 1:15 2:5 1:5 2:5 1:5
2:0 1:5 2:5 1:5 2:15 1:15 2:5 1:5 2:5 1:5 2:5
1:0 2:5 1:5 2:15 1:15 2:5 1:5 2:5 1:5 2:5 1:5
2:0 1:5 2:15 1:15 2:5 1:5 2:5 1:5 2:5 1:5 2:5
1:0 2:15 1:15 2:5 1:5 2:5 1:5 2:5 1:5 2:5 1:5
2:0 1:15 2:5 1:5 2:5 1:5 2:5 1:5 2:5 1:5 2:5
1:0 2:5 1:5 2:5 1:5 2:5 1:5 2:5 1:5 2:5 1:5
2:0 1:5 2:5 1:5 2:5 1:5 2:5 1:5 2:5 1:5 2:5
1:0 2:5 1:5 2:5 1:5 2:5 1:5 2:5 1:5 2:5 1:5
2:0 1:5 2:5 1:5 2:5 1:5 2:5 1:5 2:5 1:5 2:5
1:0 2:5 1:5 2:5 1:5 2:5 1:5 2:5 1:5 2:5 1:5
2:0 1:5 2:5 1:5 2:5 1:5 2:5 1:5 2:5 1:5 2:5
1:0 2:5 1:5 2:5 1:5 2:5 1:5 2:5 1:5 2:5 1:20
2:0 1:5 2:5 1:5 2:5 1:5 2:5 1:5 2:5 1:20 2:5
1:0 2:5 1:5 2:5 1:5 2:5 1:5 2:5 1:20 2:5 1:5
2:0 1:5 2:5 1:5 2:5 1:5 2:5 1:20 2:5 1:5 2:5
1:0 2:5 1:5 2:5 1:5 2:5 1:20 2:5 1:5 2:5 1:5
2:0 1:5 2:5 1:5 2:5 1:20 2:5 1:5 2:5 1:5 2:10
1:0 2:5 1:5 2:5 1:20 2:5 1:5 2:5 1:5 2:10 1:5
2:0 1:5 2:5 1:20 2:5 1:5 2:5 1:5 2:10 1:5 2:5
1:0 2:5 1:20 2:5 1:5 2:5 1:5 2:10 1:5 2:5 1:10
2:0 1:20 2:5 1:5 2:5 1:5 2:10 1:5 2:5 1:10 2:5
1:0 2:5 1:5 2:5 1:5 2:10 1:5 2:5 1:10 2:5 1:5
2:0 1:5 2:5 1:5 2:10 1:5 2:5 1:10 2:5 1:5 2:5
1:0 2:5 1:5 2:10 1:5 2:5 1:10 2:5 1:5 2:5 1:5
2:0 1:5 2:10 1:5 2:5 1:10 2:5 1:5 2:5 1:5 2:5
1:0 2:10 1:5 2:5 1:10 2:5 1:5 2:5 1:5 2:5 1:10
2:0 1:5 2:5 1:10 2:5 1:5 2:5 1:5 2:5 1:10 2:5
1:0 2:5 1:10 2:5 1:5 2:5 1:5 2:5 1:10 2:5 1:5
2:0 1:10 2:5 1:5 2:5 1:5 2:5 1:10 2:5 1:5 2:5
1:0 2:5 1:5 2:5 1:5 2:5 1:10 2:5 1:5 2:5 1:10
2:0 1:5 2:5 1:5 2:5 1:10 2:5 1:5 2:5 1:10 2:5
1:0 2:5 1:5 2:5 1:10 2:5 1:5 2:5 1:10 2:5 1:5
2:0 1:5 2:5 1:10 2:5 1:5 2:5 1:10 2:5 1:5 2:5
1:0 2:5 1:10 2:5 1:5 2:5 1:10 2:5 1:5 2:5 1:5
2:0 1:10 2:5 1:5 2:5 1:10 2:5 1:5 2:5 1:5 2:10
1:0 2:5 1:5 2:5 1:10 2:5 1:5 2:5 1:5 2:10 1:5
2:0 1:5 2:5 1:10 2:5 1:5 2:5 1:5 2:10 1:5 2:5
1:0 2:5 1:10 2:5 1:5 2:5 1:5 2:10 1:5 2:5 1:5
2:0 1:10 2:5 1:5 2:5 1:5 2:10 1:5 2:5 1:5 2:5
1:0 2:5 1:5 2:5 1:5 2:10 1:5 2:5 1:5 2:5 1:5
2:0 1:5 2:5 1:5 2:10 1:5 2:5 1:5 2:5 1:5 2:5
1:0 2:5 1:5 2:10 1:5 2:5 1:5 2:5 1:5 2:5 1:5
2:0 1:5 2:10 1:5 2:5 1:5 2:5 1:5 2:5 1:5 2:5
1:0 2:10 1:5 2:5 1:5 2:5 1:5 2:5 1:5 2:5 1:5
2:0 1:5 2:5 1:5 2:5 1:5 2:5 1:5 2:5 1:5 2:5
1:0 2:5 1:5 2:5 1:5 2:5 1:5 2:5 1:5 2:5 1:5
2:0 1:5 2:5 1:5 2:5 1:5 2:5 1:5 2:5 1:5 2:5
1:0 2:5 1:5 2:5 1:5 2:5 1:5 2:5 1:5 2:5 1:5
2:0 1:5 2:5 1:5 2:5 1:5 2:5 1:5 2:5 1:5 2:5
1:0 2:5 1:5 2:5 1:5 2:5 1:5 2:5 1:5 2:5 1:5
2:0 1:5 2:5 1:5 2:5 1:5 2:5 1:5 2:5 1:5 2:5
1:0 2:5 1:5 2:5 1:5 2:5 1:5 2:5 1:5 2:5 1:5
2:0 1:5 2:5 1:5 2:5 1:5 2:5 1:5 2:5 1:5 2:5
1:0 2:5 1:5 2:5 1:5 2:5 1:5 2:5 1:5 2:5 1:10
2:0 1:5 2:5 1:5 2:5 1:5 2:5 1:5 2:5 1:10 2:10
1:0 2:5 1:5 2:5 1:5 2:5 1:5 2:5 1:10 2:10 1:5
2:0 1:5 2:5 1:5 2:5 1:5 2:5 1:10 2:10 1:5 2:5
1:0 2:5 1:5 2:5 1:5 2:5 1:10 2:10 1:5 2:5 1:5
2:0 1:5 2:5 1:5 2:5 1:10 2:10 1:5 2:5 1:5 2:5
1:0 2:5 1:5 2:5 1:10 2:10 1:5 2:5 1:5 2:5 1:20
2:0 1:5 2:5 1:10 2:10 1:5 2:5 1:5 2:5 1:20 2:5
1:0 2:5 1:10 2:10 1:5 2:5 1:5 2:5 1:20 2:5 1:5
2:0 1:10 2:10 1:5 2:5 1:5 2:5 1:20 2:5 1:5 2:5
1:0 2:10 1:5 2:5 1:5 2:5 1:20 2:5 1:5 2:5 1:5
2:0 1:5 2:5 1:5 2:5 1:20 2:5 1:5 2:5 1:5 2:5
1:0 2:5 1:5 2:5 1:20 2:5 1:5 2:5 1:5 2:5 1:5
2:0 1:5 2:5 1:20 2:5 1:5 2:5 1:5 2:5 1:5 2:5
1:0 2:5 1:20 2:5 1:5 2:5 1:5 2:5 1:5 2:5 1:15
2:0 1:20 2:5 1:5 2:5 1:5 2:5 1:5 2:5 1:15 2:5
1:0 2:5 1:5 2:5 1:5 2:5 1:5 2:5 1:15 2:5 1:5
2:0 1:5 2:5 1:5 2:5 1:5 2:5 1:15 2:5 1:5 2:5
1:0 2:5 1:5 2:5 1:5 2:5 1:15 2:5 1:5 2:5 1:5
2:0 1:5 2:5 1:5 2:5 1:15 2:5 1:5 2:5 1:5 2:5
1:0 2:5 1:5 2:5 1:15 2:5 1:5 2:5 1:5 2:5 1:5
2:0 1:5 2:5 1:15 2:5 1:5 2:5 1:5 2:5 1:5 2:5
1:0 2:5 1:15 2:5 1:5 2:5 1:5 2:5 1:5 2:5 1:5
2:0 1:15 2:5 1:5 2:5 1:5 2:5 1:5 2:5 1:5 2:5
1:0 2:5 1:5 2:5 1:5 2:5 1:5 2:5 1:5 2:5 1:5
2:0 1:5 2:5 1:5 2:5 1:5 2:5 1:5 2:5 1:5 2:5
1:0 2:5 1:5 2:5 1:5 2:5 1:5 2:5 1:5 2:5 1:5
2:0 1:5 2:5 1:5 2:5 1:5 2:5 1:5 2:5 1:5 2:5
1:0 2:5 1:5 2:5 1:5 2:5 1:5 2:5 1:5 2:5 1:5
2:0 1:5 2:5 1:5 2:5 1:5 2:5 1:5 2:5 1:5 2:5
1:0 2:5 1:5 2:5 1:5 2:5 1:5 2:5 1:5 2:5 1:5
2:0 1:5 2:5 1:5 2:5 1:5 2:5 1:5 2:5 1:5 2:5
1:0 2:5 1:5 2:5 1:5 2:5 1:5 2:5 1:5 2:5 1:5
2:0 1:5 2:5 1:5 2:5 1:5 2:5 1:5 2:5 1:5 2:5
1:0 2:5 1:5 2:5 1:5 2:5 1:5 2:5 1:5 2:5 1:5
2:0 1:5 2:5 1:5 2:5 1:5 2:5 1:5 2:5 1:5 2:5
1:0 2:5 1:5 2:5 1:5 2:5 1:5 2:5 1:5 2:5 1:5
2:0 1:5 2:5 1:5 2:5 1:5 2:5 1:5 2:5 1:5 2:5
1:0 2:5 1:5 2:5 1:5 2:5 1:5 2:5 1:5 2:5 1:5
2:0 1:5 2:5 1:5 2:5 1:5 2:5 1:5 2:5 1:5 2:5
1:0 2:5 1:5 2:5 1:5 2:5 1:5 2:5 1:5 2:5 1:5
2:0 1:5 2:5 1:5 2:5 1:5 2:5 1:5 2:5 1:5 2:5
1:0 2:5 1:5 2:5 1:5 2:5 1:5 2:5 1:5 2:5 1:5
2:0 1:5 2:5 1:5 2:5 1:5 2:5 1:5 2:5 1:5 2:5
1:0 2:5 1:5 2:5 1:5 2:5 1:5 2:5 1:5 2:5 1:5
2:0 1:5 2:5 1:5 2:5 1:5 2:5 1:5 2:5 1:5 2:5
1:0 2:5 1:5 2:5 1:5 2:5 1:5 2:5 1:5 2:5 1:10
2:0 1:5 2:5 1:5 2:5 1:5 2:5 1:5 2:5 1:10 2:5
1:0 2:5 1:5 2:5 1:5 2:5 1:5 2:5 1:10 2:5 1:5
2:0 1:5 2:5 1:5 2:5 1:5 2:5 1:10 2:5 1:5 2:5
1:0 2:5 1:5 2:5 1:5 2:5 1:10 2:5 1:5 2:5 1:10
2:0 1:5 2:5 1:5 2:5 1:10 2:5 1:5 2:5 1:10 2:5
1:0 2:5 1:5 2:5 1:10 2:5 1:5 2:5 1:10 2:5 1:5
2:0 1:5 2:5 1:10 2:5 1:5 2:5 1:10 2:5 1:5 2:5
1:0 2:5 1:10 2:5 1:5 2:5 1:10 2:5 1:5 2:5 1:5
2:0 1:10 2:5 1:5 2:5 1:10 2:5 1:5 2:5 1:5 2:10
1:0 2:5 1:5 2:5 1:10 2:5 1:5 2:5 1:5 2:10 1:5
2:0 1:5 2:5 1:10 2:5 1:5 2:5 1:5 2:10 1:5 2:5
1:0 2:5 1:10 2:5 1:5 2:5 1:5 2:10 1:5 2:5 1:5
2:0 1:10 2:5 1:5 2:5 1:5 2:10 1:5 2:5 1:5 2:5
1:0 2:5 1:5 2:5 1:5 2:10 1:5 2:5 1:5 2:5 1:5
2:0 1:5 2:5 1:5 2:10 1:5 2:5 1:5 2:5 1:5 2:5
1:0 2:5 1:5 2:10 1:5 2:5 1:5 2:5 1:5 2:5 1:5
2:0 1:5 2:10 1:5 2:5 1:5 2:5 1:5 2:5 1:5 2:5
1:0 2:10 1:5 2:5 1:5 2:5 1:5 2:5 1:5 2:5 1:5
2:0 1:5 2:5 1:5 2:5 1:5 2:5 1:5 2:5 1:5 2:5
1:0 2:5 1:5 2:5 1:5 2:5 1:5 2:5 1:5 2:5 1:5
2:0 1:5 2:5 1:5 2:5 1:5 2:5 1:5 2:5 1:5 2:5
1:0 2:5 1:5 2:5 1:5 2:5 1:5 2:5 1:5 2:5 1:5
2:0 1:5 2:5 1:5 2:5 1:5 2:5 1:5 2:5 1:5 2:5
1:0 2:5 1:5 2:5 1:5 2:5 1:5 2:5 1:5 2:5 1:5
2:0 1:5 2:5 1:5 2:5 1:5 2:5 1:5 2:5 1:5 2:5
1:0 2:5 1:5 2:5 1:5 2:5 1:5 2:5 1:5 2:5 1:5
2:0 1:5 2:5 1:5 2:5 1:5 2:5 1:5 2:5 1:5 2:10
1:0 2:5 1:5 2:5 1:5 2:5 1:5 2:5 1:5 2:10 1:10
2:0 1:5 2:5 1:5 2:5 1:5 2:5 1:5 2:10 1:10 2:5
1:0 2:5 1:5 2:5 1:5 2:5 1:5 2:10 1:10 2:5 1:5
2:0 1:5 2:5 1:5 2:5 1:5 2:10 1:10 2:5 1:5 2:5
1:0 2:5 1:5 2:5 1:5 2:10 1:10 2:5 1:5 2:5 1:5
2:0 1:5 2:5 1:5 2:10 1:10 2:5 1:5 2:5 1:5 2:5
1:0 2:5 1:5 2:10 1:10 2:5 1:5 2:5 1:5 2:5
2:0 1:5 2:10 1:10 2:5 1:5 2:5 1:5 2:5
1:0 2:10 1:10 2:5 1:5 2:5 1:5 2:5
2:0 1:10 2:5 1:5 2:5 1:5 2:5
1:0 2:5 1:5 2:5 1:5 2:5
2:0 1:5 2:5 1:5 2:5
1:0 2:5 1:5 2:5
2:0 1:5 2:5
1:0 2:5
2:0