8:0 15:2345 8:10 15:500 8:5 15:160 8:10 15:325 8:5 15:500 8:5
15:0 8:10 15:500 8:5 15:160 8:10 15:325 8:5 15:500 8:5 15:500
8:0 15:500 8:5 15:160 8:10 15:325 8:5 15:500 8:5 15:500 8:5
15:0 8:5 15:160 8:10 15:325 8:5 15:500 8:5 15:500 8:5 15:2855
8:0 15:160 8:10 15:325 8:5 15:500 8:5 15:500 8:5 15:2855 8:5
15:0 8:10 15:325 8:5 15:500 8:5 15:500 8:5 15:2855 8:5
8:0 15:325 8:5 15:500 8:5 15:500 8:5 15:2855 8:5
15:0 8:5 15:500 8:5 15:500 8:5 15:2855 8:5
8:0 15:500 8:5 15:500 8:5 15:2855 8:5
15:0 8:5 15:500 8:5 15:2855 8:5
8:0 15:500 8:5 15:2855 8:5
15:0 8:5 15:2855 8:5
8:0 15:2855 8:5
15:0 8:5
8:0