7:0 3:5 11:5 3:5 11:5 3:5 9:5 5:5 11:5 5:5 7:5
3:0 11:5 3:5 11:5 3:5 9:5 5:5 11:5 5:5 7:5 9:10
11:0 3:5 11:5 3:5 9:5 5:5 11:5 5:5 7:5 9:10 5:5
3:0 11:5 3:5 9:5 5:5 11:5 5:5 7:5 9:10 5:5 11:5
11:0 3:5 9:5 5:5 11:5 5:5 7:5 9:10 5:5 11:5 2:5
3:0 9:5 5:5 11:5 5:5 7:5 9:10 5:5 11:5 2:5 11:5
9:0 5:5 11:5 5:5 7:5 9:10 5:5 11:5 2:5 11:5 3:5
5:0 11:5 5:5 7:5 9:10 5:5 11:5 2:5 11:5 3:5 11:5
11:0 5:5 7:5 9:10 5:5 11:5 2:5 11:5 3:5 11:5 5:5
5:0 7:5 9:10 5:5 11:5 2:5 11:5 3:5 11:5 5:5 7:10
7:0 9:10 5:5 11:5 2:5 11:5 3:5 11:5 5:5 7:10 9:15
9:0 5:5 11:5 2:5 11:5 3:5 11:5 5:5 7:10 9:15 2:5
5:0 11:5 2:5 11:5 3:5 11:5 5:5 7:10 9:15 2:5 11:5
11:0 2:5 11:5 3:5 11:5 5:5 7:10 9:15 2:5 11:5 5:5
2:0 11:5 3:5 11:5 5:5 7:10 9:15 2:5 11:5 5:5 11:5
11:0 3:5 11:5 5:5 7:10 9:15 2:5 11:5 5:5 11:5 3:5
3:0 11:5 5:5 7:10 9:15 2:5 11:5 5:5 11:5 3:5 7:5
11:0 5:5 7:10 9:15 2:5 11:5 5:5 11:5 3:5 7:5 9:5
5:0 7:10 9:15 2:5 11:5 5:5 11:5 3:5 7:5 9:5 7:5
7:0 9:15 2:5 11:5 5:5 11:5 3:5 7:5 9:5 7:5 11:5
9:0 2:5 11:5 5:5 11:5 3:5 7:5 9:5 7:5 11:5 2:5
2:0 11:5 5:5 11:5 3:5 7:5 9:5 7:5 11:5 2:5 9:5
11:0 5:5 11:5 3:5 7:5 9:5 7:5 11:5 2:5 9:5 5:5
5:0 11:5 3:5 7:5 9:5 7:5 11:5 2:5 9:5 5:5 11:5
11:0 3:5 7:5 9:5 7:5 11:5 2:5 9:5 5:5 11:5 7:5
3:0 7:5 9:5 7:5 11:5 2:5 9:5 5:5 11:5 7:5 5:5
7:0 9:5 7:5 11:5 2:5 9:5 5:5 11:5 7:5 5:5 9:5
9:0 7:5 11:5 2:5 9:5 5:5 11:5 7:5 5:5 9:5 5:5
7:0 11:5 2:5 9:5 5:5 11:5 7:5 5:5 9:5 5:5 11:5
11:0 2:5 9:5 5:5 11:5 7:5 5:5 9:5 5:5 11:5 3:5
2:0 9:5 5:5 11:5 7:5 5:5 9:5 5:5 11:5 3:5 9:5
9:0 5:5 11:5 7:5 5:5 9:5 5:5 11:5 3:5 9:5 7:5
5:0 11:5 7:5 5:5 9:5 5:5 11:5 3:5 9:5 7:5 9:5
11:0 7:5 5:5 9:5 5:5 11:5 3:5 9:5 7:5 9:5 7:5
7:0 5:5 9:5 5:5 11:5 3:5 9:5 7:5 9:5 7:5 9:5
5:0 9:5 5:5 11:5 3:5 9:5 7:5 9:5 7:5 9:5 3:5
9:0 5:5 11:5 3:5 9:5 7:5 9:5 7:5 9:5 3:5 11:5
5:0 11:5 3:5 9:5 7:5 9:5 7:5 9:5 3:5 11:5 3:5
11:0 3:5 9:5 7:5 9:5 7:5 9:5 3:5 11:5 3:5 11:5
3:0 9:5 7:5 9:5 7:5 9:5 3:5 11:5 3:5 11:5 3:5
9:0 7:5 9:5 7:5 9:5 3:5 11:5 3:5 11:5 3:5 7:5
7:0 9:5 7:5 9:5 3:5 11:5 3:5 11:5 3:5 7:5 9:10
9:0 7:5 9:5 3:5 11:5 3:5 11:5 3:5 7:5 9:10 11:5
7:0 9:5 3:5 11:5 3:5 11:5 3:5 7:5 9:10 11:5 2:5
9:0 3:5 11:5 3:5 11:5 3:5 7:5 9:10 11:5 2:5 11:5
3:0 11:5 3:5 11:5 3:5 7:5 9:10 11:5 2:5 11:5 5:5
11:0 3:5 11:5 3:5 7:5 9:10 11:5 2:5 11:5 5:5 11:5
3:0 11:5 3:5 7:5 9:10 11:5 2:5 11:5 5:5 11:5 5:5
11:0 3:5 7:5 9:10 11:5 2:5 11:5 5:5 11:5 5:5 7:10
3:0 7:5 9:10 11:5 2:5 11:5 5:5 11:5 5:5 7:10 11:5
7:0 9:10 11:5 2:5 11:5 5:5 11:5 5:5 7:10 11:5 5:5
9:0 11:5 2:5 11:5 5:5 11:5 5:5 7:10 11:5 5:5 9:5
11:0 2:5 11:5 5:5 11:5 5:5 7:10 11:5 5:5 9:5 3:5
2:0 11:5 5:5 11:5 5:5 7:10 11:5 5:5 9:5 3:5 11:5
11:0 5:5 11:5 5:5 7:10 11:5 5:5 9:5 3:5 11:5 3:5
5:0 11:5 5:5 7:10 11:5 5:5 9:5 3:5 11:5 3:5 11:5
11:0 5:5 7:10 11:5 5:5 9:5 3:5 11:5 3:5 11:5 3:5
5:0 7:10 11:5 5:5 9:5 3:5 11:5 3:5 11:5 3:5 9:5
7:0 11:5 5:5 9:5 3:5 11:5 3:5 11:5 3:5 9:5 5:5
11:0 5:5 9:5 3:5 11:5 3:5 11:5 3:5 9:5 5:5 9:5
5:0 9:5 3:5 11:5 3:5 11:5 3:5 9:5 5:5 9:5 5:5
9:0 3:5 11:5 3:5 11:5 3:5 9:5 5:5 9:5 5:5 9:5
3:0 11:5 3:5 11:5 3:5 9:5 5:5 9:5 5:5 9:5 5:5
11:0 3:5 11:5 3:5 9:5 5:5 9:5 5:5 9:5 5:5 11:5
3:0 11:5 3:5 9:5 5:5 9:5 5:5 9:5 5:5 11:5 5:5
11:0 3:5 9:5 5:5 9:5 5:5 9:5 5:5 11:5 5:5 11:5
3:0 9:5 5:5 9:5 5:5 9:5 5:5 11:5 5:5 11:5 2:5
9:0 5:5 9:5 5:5 9:5 5:5 11:5 5:5 11:5 2:5 9:5
5:0 9:5 5:5 9:5 5:5 11:5 5:5 11:5 2:5 9:5 5:5
9:0 5:5 9:5 5:5 11:5 5:5 11:5 2:5 9:5 5:5 9:5
5:0 9:5 5:5 11:5 5:5 11:5 2:5 9:5 5:5 9:5 7:5
9:0 5:5 11:5 5:5 11:5 2:5 9:5 5:5 9:5 7:5 5:5
5:0 11:5 5:5 11:5 2:5 9:5 5:5 9:5 7:5 5:5 9:10
11:0 5:5 11:5 2:5 9:5 5:5 9:5 7:5 5:5 9:10 7:10
5:0 11:5 2:5 9:5 5:5 9:5 7:5 5:5 9:10 7:10 3:5
11:0 2:5 9:5 5:5 9:5 7:5 5:5 9:10 7:10 3:5 11:5
2:0 9:5 5:5 9:5 7:5 5:5 9:10 7:10 3:5 11:5 3:5
9:0 5:5 9:5 7:5 5:5 9:10 7:10 3:5 11:5 3:5 11:5
5:0 9:5 7:5 5:5 9:10 7:10 3:5 11:5 3:5 11:5 5:5
9:0 7:5 5:5 9:10 7:10 3:5 11:5 3:5 11:5 5:5 7:10
7:0 5:5 9:10 7:10 3:5 11:5 3:5 11:5 5:5 7:10 9:5
5:0 9:10 7:10 3:5 11:5 3:5 11:5 5:5 7:10 9:5 11:5
9:0 7:10 3:5 11:5 3:5 11:5 5:5 7:10 9:5 11:5 2:5
7:0 3:5 11:5 3:5 11:5 5:5 7:10 9:5 11:5 2:5 9:5
3:0 11:5 3:5 11:5 5:5 7:10 9:5 11:5 2:5 9:5 7:5
11:0 3:5 11:5 5:5 7:10 9:5 11:5 2:5 9:5 7:5 9:10
3:0 11:5 5:5 7:10 9:5 11:5 2:5 9:5 7:5 9:10 5:5
11:0 5:5 7:10 9:5 11:5 2:5 9:5 7:5 9:10 5:5 7:5
5:0 7:10 9:5 11:5 2:5 9:5 7:5 9:10 5:5 7:5 9:5
7:0 9:5 11:5 2:5 9:5 7:5 9:10 5:5 7:5 9:5 5:5
9:0 11:5 2:5 9:5 7:5 9:10 5:5 7:5 9:5 5:5 11:5
11:0 2:5 9:5 7:5 9:10 5:5 7:5 9:5 5:5 11:5 2:5
2:0 9:5 7:5 9:10 5:5 7:5 9:5 5:5 11:5 2:5 11:5
9:0 7:5 9:10 5:5 7:5 9:5 5:5 11:5 2:5 11:5 5:5
7:0 9:10 5:5 7:5 9:5 5:5 11:5 2:5 11:5 5:5 11:5
9:0 5:5 7:5 9:5 5:5 11:5 2:5 11:5 5:5 11:5 3:5
5:0 7:5 9:5 5:5 11:5 2:5 11:5 5:5 11:5 3:5 9:5
7:0 9:5 5:5 11:5 2:5 11:5 5:5 11:5 3:5 9:5 5:5
9:0 5:5 11:5 2:5 11:5 5:5 11:5 3:5 9:5 5:5 11:5
5:0 11:5 2:5 11:5 5:5 11:5 3:5 9:5 5:5 11:5 5:5
11:0 2:5 11:5 5:5 11:5 3:5 9:5 5:5 11:5 5:5 7:5
2:0 11:5 5:5 11:5 3:5 9:5 5:5 11:5 5:5 7:5 3:5
11:0 5:5 11:5 3:5 9:5 5:5 11:5 5:5 7:5 3:5 11:5
5:0 11:5 3:5 9:5 5:5 11:5 5:5 7:5 3:5 11:5 5:5
11:0 3:5 9:5 5:5 11:5 5:5 7:5 3:5 11:5 5:5 11:5
3:0 9:5 5:5 11:5 5:5 7:5 3:5 11:5 5:5 11:5 2:5
9:0 5:5 11:5 5:5 7:5 3:5 11:5 5:5 11:5 2:5 11:5
5:0 11:5 5:5 7:5 3:5 11:5 5:5 11:5 2:5 11:5 3:5
11:0 5:5 7:5 3:5 11:5 5:5 11:5 2:5 11:5 3:5 9:5
5:0 7:5 3:5 11:5 5:5 11:5 2:5 11:5 3:5 9:5 7:5
7:0 3:5 11:5 5:5 11:5 2:5 11:5 3:5 9:5 7:5 5:5
3:0 11:5 5:5 11:5 2:5 11:5 3:5 9:5 7:5 5:5 11:10
11:0 5:5 11:5 2:5 11:5 3:5 9:5 7:5 5:5 11:10 5:5
5:0 11:5 2:5 11:5 3:5 9:5 7:5 5:5 11:10 5:5 11:5
11:0 2:5 11:5 3:5 9:5 7:5 5:5 11:10 5:5 11:5 2:5
2:0 11:5 3:5 9:5 7:5 5:5 11:10 5:5 11:5 2:5 11:5
11:0 3:5 9:5 7:5 5:5 11:10 5:5 11:5 2:5 11:5 5:5
3:0 9:5 7:5 5:5 11:10 5:5 11:5 2:5 11:5 5:5 9:5
9:0 7:5 5:5 11:10 5:5 11:5 2:5 11:5 5:5 9:5 7:5
7:0 5:5 11:10 5:5 11:5 2:5 11:5 5:5 9:5 7:5 5:5
5:0 11:10 5:5 11:5 2:5 11:5 5:5 9:5 7:5 5:5 9:5
11:0 5:5 11:5 2:5 11:5 5:5 9:5 7:5 5:5 9:5 7:5
5:0 11:5 2:5 11:5 5:5 9:5 7:5 5:5 9:5 7:5 9:5
11:0 2:5 11:5 5:5 9:5 7:5 5:5 9:5 7:5 9:5 7:5
2:0 11:5 5:5 9:5 7:5 5:5 9:5 7:5 9:5 7:5 3:5
11:0 5:5 9:5 7:5 5:5 9:5 7:5 9:5 7:5 3:5 11:5
5:0 9:5 7:5 5:5 9:5 7:5 9:5 7:5 3:5 11:5 3:5
9:0 7:5 5:5 9:5 7:5 9:5 7:5 3:5 11:5 3:5 11:5
7:0 5:5 9:5 7:5 9:5 7:5 3:5 11:5 3:5 11:5 5:5
5:0 9:5 7:5 9:5 7:5 3:5 11:5 3:5 11:5 5:5 7:5
9:0 7:5 9:5 7:5 3:5 11:5 3:5 11:5 5:5 7:5 9:10
7:0 9:5 7:5 3:5 11:5 3:5 11:5 5:5 7:5 9:10 7:5
9:0 7:5 3:5 11:5 3:5 11:5 5:5 7:5 9:10 7:5 5:5
7:0 3:5 11:5 3:5 11:5 5:5 7:5 9:10 7:5 5:5 9:10
3:0 11:5 3:5 11:5 5:5 7:5 9:10 7:5 5:5 9:10 5:5
11:0 3:5 11:5 5:5 7:5 9:10 7:5 5:5 9:10 5:5 11:5
3:0 11:5 5:5 7:5 9:10 7:5 5:5 9:10 5:5 11:5 3:5
11:0 5:5 7:5 9:10 7:5 5:5 9:10 5:5 11:5 3:5 9:5
5:0 7:5 9:10 7:5 5:5 9:10 5:5 11:5 3:5 9:5 7:5
7:0 9:10 7:5 5:5 9:10 5:5 11:5 3:5 9:5 7:5 2:15
9:0 7:5 5:5 9:10 5:5 11:5 3:5 9:5 7:5 2:15 11:5
7:0 5:5 9:10 5:5 11:5 3:5 9:5 7:5 2:15 11:5 5:5
5:0 9:10 5:5 11:5 3:5 9:5 7:5 2:15 11:5 5:5 11:5
9:0 5:5 11:5 3:5 9:5 7:5 2:15 11:5 5:5 11:5 5:5
5:0 11:5 3:5 9:5 7:5 2:15 11:5 5:5 11:5 5:5 7:5
11:0 3:5 9:5 7:5 2:15 11:5 5:5 11:5 5:5 7:5 9:10
3:0 9:5 7:5 2:15 11:5 5:5 11:5 5:5 7:5 9:10 5:10
9:0 7:5 2:15 11:5 5:5 11:5 5:5 7:5 9:10 5:10 11:10
7:0 2:15 11:5 5:5 11:5 5:5 7:5 9:10 5:10 11:10 5:5
2:0 11:5 5:5 11:5 5:5 7:5 9:10 5:10 11:10 5:5 9:5
11:0 5:5 11:5 5:5 7:5 9:10 5:10 11:10 5:5 9:5 5:5
5:0 11:5 5:5 7:5 9:10 5:10 11:10 5:5 9:5 5:5 7:5
11:0 5:5 7:5 9:10 5:10 11:10 5:5 9:5 5:5 7:5 9:5
5:0 7:5 9:10 5:10 11:10 5:5 9:5 5:5 7:5 9:5 5:5
7:0 9:10 5:10 11:10 5:5 9:5 5:5 7:5 9:5 5:5 9:5
9:0 5:10 11:10 5:5 9:5 5:5 7:5 9:5 5:5 9:5 2:5
5:0 11:10 5:5 9:5 5:5 7:5 9:5 5:5 9:5 2:5 11:5
11:0 5:5 9:5 5:5 7:5 9:5 5:5 9:5 2:5 11:5 3:5
5:0 9:5 5:5 7:5 9:5 5:5 9:5 2:5 11:5 3:5 11:5
9:0 5:5 7:5 9:5 5:5 9:5 2:5 11:5 3:5 11:5 5:5
5:0 7:5 9:5 5:5 9:5 2:5 11:5 3:5 11:5 5:5 7:5
7:0 9:5 5:5 9:5 2:5 11:5 3:5 11:5 5:5 7:5 5:25
9:0 5:5 9:5 2:5 11:5 3:5 11:5 5:5 7:5 5:25 9:5
5:0 9:5 2:5 11:5 3:5 11:5 5:5 7:5 5:25 9:5 5:5
9:0 2:5 11:5 3:5 11:5 5:5 7:5 5:25 9:5 5:5 11:5
2:0 11:5 3:5 11:5 5:5 7:5 5:25 9:5 5:5 11:5 3:5
11:0 3:5 11:5 5:5 7:5 5:25 9:5 5:5 11:5 3:5 7:5
3:0 11:5 5:5 7:5 5:25 9:5 5:5 11:5 3:5 7:5 9:15
11:0 5:5 7:5 5:25 9:5 5:5 11:5 3:5 7:5 9:15 3:5
5:0 7:5 5:25 9:5 5:5 11:5 3:5 7:5 9:15 3:5 7:5
7:0 5:25 9:5 5:5 11:5 3:5 7:5 9:15 3:5 7:5 9:5
5:0 9:5 5:5 11:5 3:5 7:5 9:15 3:5 7:5 9:5 5:5
9:0 5:5 11:5 3:5 7:5 9:15 3:5 7:5 9:5 5:5 9:5
5:0 11:5 3:5 7:5 9:15 3:5 7:5 9:5 5:5 9:5 3:5
11:0 3:5 7:5 9:15 3:5 7:5 9:5 5:5 9:5 3:5 9:5
3:0 7:5 9:15 3:5 7:5 9:5 5:5 9:5 3:5 9:5 5:5
7:0 9:15 3:5 7:5 9:5 5:5 9:5 3:5 9:5 5:5 9:5
9:0 3:5 7:5 9:5 5:5 9:5 3:5 9:5 5:5 9:5 7:5
3:0 7:5 9:5 5:5 9:5 3:5 9:5 5:5 9:5 7:5 3:5
7:0 9:5 5:5 9:5 3:5 9:5 5:5 9:5 7:5 3:5 11:5
9:0 5:5 9:5 3:5 9:5 5:5 9:5 7:5 3:5 11:5 5:5
5:0 9:5 3:5 9:5 5:5 9:5 7:5 3:5 11:5 5:5 11:5
9:0 3:5 9:5 5:5 9:5 7:5 3:5 11:5 5:5 11:5 3:5
3:0 9:5 5:5 9:5 7:5 3:5 11:5 5:5 11:5 3:5 9:5
9:0 5:5 9:5 7:5 3:5 11:5 5:5 11:5 3:5 9:5 5:5
5:0 9:5 7:5 3:5 11:5 5:5 11:5 3:5 9:5 5:5 11:5
9:0 7:5 3:5 11:5 5:5 11:5 3:5 9:5 5:5 11:5 5:5
7:0 3:5 11:5 5:5 11:5 3:5 9:5 5:5 11:5 5:5 9:5
3:0 11:5 5:5 11:5 3:5 9:5 5:5 11:5 5:5 9:5 5:5
11:0 5:5 11:5 3:5 9:5 5:5 11:5 5:5 9:5 5:5 9:5
5:0 11:5 3:5 9:5 5:5 11:5 5:5 9:5 5:5 9:5 5:5
11:0 3:5 9:5 5:5 11:5 5:5 9:5 5:5 9:5 5:5 11:5
3:0 9:5 5:5 11:5 5:5 9:5 5:5 9:5 5:5 11:5 2:5
9:0 5:5 11:5 5:5 9:5 5:5 9:5 5:5 11:5 2:5 11:5
5:0 11:5 5:5 9:5 5:5 9:5 5:5 11:5 2:5 11:5 3:5
11:0 5:5 9:5 5:5 9:5 5:5 11:5 2:5 11:5 3:5 11:5
5:0 9:5 5:5 9:5 5:5 11:5 2:5 11:5 3:5 11:5 7:5
9:0 5:5 9:5 5:5 11:5 2:5 11:5 3:5 11:5 7:5 3:5
5:0 9:5 5:5 11:5 2:5 11:5 3:5 11:5 7:5 3:5 9:5
9:0 5:5 11:5 2:5 11:5 3:5 11:5 7:5 3:5 9:5 7:5
5:0 11:5 2:5 11:5 3:5 11:5 7:5 3:5 9:5 7:5 11:5
11:0 2:5 11:5 3:5 11:5 7:5 3:5 9:5 7:5 11:5 5:5
2:0 11:5 3:5 11:5 7:5 3:5 9:5 7:5 11:5 5:5 9:5
11:0 3:5 11:5 7:5 3:5 9:5 7:5 11:5 5:5 9:5 5:5
3:0 11:5 7:5 3:5 9:5 7:5 11:5 5:5 9:5 5:5 11:5
11:0 7:5 3:5 9:5 7:5 11:5 5:5 9:5 5:5 11:5 3:5
7:0 3:5 9:5 7:5 11:5 5:5 9:5 5:5 11:5 3:5 9:5
3:0 9:5 7:5 11:5 5:5 9:5 5:5 11:5 3:5 9:5 3:5
9:0 7:5 11:5 5:5 9:5 5:5 11:5 3:5 9:5 3:5 11:5
7:0 11:5 5:5 9:5 5:5 11:5 3:5 9:5 3:5 11:5 3:5
11:0 5:5 9:5 5:5 11:5 3:5 9:5 3:5 11:5 3:5 11:5
5:0 9:5 5:5 11:5 3:5 9:5 3:5 11:5 3:5 11:5 3:5
9:0 5:5 11:5 3:5 9:5 3:5 11:5 3:5 11:5 3:5 9:5
5:0 11:5 3:5 9:5 3:5 11:5 3:5 11:5 3:5 9:5 7:5
11:0 3:5 9:5 3:5 11:5 3:5 11:5 3:5 9:5 7:5 11:10
3:0 9:5 3:5 11:5 3:5 11:5 3:5 9:5 7:5 11:10 2:5
9:0 3:5 11:5 3:5 11:5 3:5 9:5 7:5 11:10 2:5 11:5
3:0 11:5 3:5 11:5 3:5 9:5 7:5 11:10 2:5 11:5 3:5
11:0 3:5 11:5 3:5 9:5 7:5 11:10 2:5 11:5 3:5 11:5
3:0 11:5 3:5 9:5 7:5 11:10 2:5 11:5 3:5 11:5 3:5
11:0 3:5 9:5 7:5 11:10 2:5 11:5 3:5 11:5 3:5 5:5
3:0 9:5 7:5 11:10 2:5 11:5 3:5 11:5 3:5 5:5 7:5
9:0 7:5 11:10 2:5 11:5 3:5 11:5 3:5 5:5 7:5 5:20
7:0 11:10 2:5 11:5 3:5 11:5 3:5 5:5 7:5 5:20 9:5
11:0 2:5 11:5 3:5 11:5 3:5 5:5 7:5 5:20 9:5 5:5
2:0 11:5 3:5 11:5 3:5 5:5 7:5 5:20 9:5 5:5 11:5
11:0 3:5 11:5 3:5 5:5 7:5 5:20 9:5 5:5 11:5 3:5
3:0 11:5 3:5 5:5 7:5 5:20 9:5 5:5 11:5 3:5 7:5
11:0 3:5 5:5 7:5 5:20 9:5 5:5 11:5 3:5 7:5 5:5
3:0 5:5 7:5 5:20 9:5 5:5 11:5 3:5 7:5 5:5 11:5
5:0 7:5 5:20 9:5 5:5 11:5 3:5 7:5 5:5 11:5 9:5
7:0 5:20 9:5 5:5 11:5 3:5 7:5 5:5 11:5 9:5 7:5
5:0 9:5 5:5 11:5 3:5 7:5 5:5 11:5 9:5 7:5 3:5
9:0 5:5 11:5 3:5 7:5 5:5 11:5 9:5 7:5 3:5 11:5
5:0 11:5 3:5 7:5 5:5 11:5 9:5 7:5 3:5 11:5 3:5
11:0 3:5 7:5 5:5 11:5 9:5 7:5 3:5 11:5 3:5 11:5
3:0 7:5 5:5 11:5 9:5 7:5 3:5 11:5 3:5 11:5 2:5
7:0 5:5 11:5 9:5 7:5 3:5 11:5 3:5 11:5 2:5 11:5
5:0 11:5 9:5 7:5 3:5 11:5 3:5 11:5 2:5 11:5 3:5
11:0 9:5 7:5 3:5 11:5 3:5 11:5 2:5 11:5 3:5 9:5
9:0 7:5 3:5 11:5 3:5 11:5 2:5 11:5 3:5 9:5 7:5
7:0 3:5 11:5 3:5 11:5 2:5 11:5 3:5 9:5 7:5 5:5
3:0 11:5 3:5 11:5 2:5 11:5 3:5 9:5 7:5 5:5 9:5
11:0 3:5 11:5 2:5 11:5 3:5 9:5 7:5 5:5 9:5 7:5
3:0 11:5 2:5 11:5 3:5 9:5 7:5 5:5 9:5 7:5 9:5
11:0 2:5 11:5 3:5 9:5 7:5 5:5 9:5 7:5 9:5 7:5
2:0 11:5 3:5 9:5 7:5 5:5 9:5 7:5 9:5 7:5 5:5
11:0 3:5 9:5 7:5 5:5 9:5 7:5 9:5 7:5 5:5 9:5
3:0 9:5 7:5 5:5 9:5 7:5 9:5 7:5 5:5 9:5 5:5
9:0 7:5 5:5 9:5 7:5 9:5 7:5 5:5 9:5 5:5 9:5
7:0 5:5 9:5 7:5 9:5 7:5 5:5 9:5 5:5 9:5 5:5
5:0 9:5 7:5 9:5 7:5 5:5 9:5 5:5 9:5 5:5 11:10
9:0 7:5 9:5 7:5 5:5 9:5 5:5 9:5 5:5 11:10 3:5
7:0 9:5 7:5 5:5 9:5 5:5 9:5 5:5 11:10 3:5 11:5
9:0 7:5 5:5 9:5 5:5 9:5 5:5 11:10 3:5 11:5 3:5
7:0 5:5 9:5 5:5 9:5 5:5 11:10 3:5 11:5 3:5 9:5
5:0 9:5 5:5 9:5 5:5 11:10 3:5 11:5 3:5 9:5 7:5
9:0 5:5 9:5 5:5 11:10 3:5 11:5 3:5 9:5 7:5 9:10
5:0 9:5 5:5 11:10 3:5 11:5 3:5 9:5 7:5 9:10 2:5
9:0 5:5 11:10 3:5 11:5 3:5 9:5 7:5 9:10 2:5 11:5
5:0 11:10 3:5 11:5 3:5 9:5 7:5 9:10 2:5 11:5 5:5
11:0 3:5 11:5 3:5 9:5 7:5 9:10 2:5 11:5 5:5 11:5
3:0 11:5 3:5 9:5 7:5 9:10 2:5 11:5 5:5 11:5 5:5
11:0 3:5 9:5 7:5 9:10 2:5 11:5 5:5 11:5 5:5 9:5
3:0 9:5 7:5 9:10 2:5 11:5 5:5 11:5 5:5 9:5 5:5
9:0 7:5 9:10 2:5 11:5 5:5 11:5 5:5 9:5 5:5 9:5
7:0 9:10 2:5 11:5 5:5 11:5 5:5 9:5 5:5 9:5 5:5
9:0 2:5 11:5 5:5 11:5 5:5 9:5 5:5 9:5 5:5 9:5
2:0 11:5 5:5 11:5 5:5 9:5 5:5 9:5 5:5 9:5 3:5
11:0 5:5 11:5 5:5 9:5 5:5 9:5 5:5 9:5 3:5 11:5
5:0 11:5 5:5 9:5 5:5 9:5 5:5 9:5 3:5 11:5 3:5
11:0 5:5 9:5 5:5 9:5 5:5 9:5 3:5 11:5 3:5 11:5
5:0 9:5 5:5 9:5 5:5 9:5 3:5 11:5 3:5 11:5 5:5
9:0 5:5 9:5 5:5 9:5 3:5 11:5 3:5 11:5 5:5 7:5
5:0 9:5 5:5 9:5 3:5 11:5 3:5 11:5 5:5 7:5 9:5
9:0 5:5 9:5 3:5 11:5 3:5 11:5 5:5 7:5 9:5 5:5
5:0 9:5 3:5 11:5 3:5 11:5 5:5 7:5 9:5 5:5 11:5
9:0 3:5 11:5 3:5 11:5 5:5 7:5 9:5 5:5 11:5 3:5
3:0 11:5 3:5 11:5 5:5 7:5 9:5 5:5 11:5 3:5 7:5
11:0 3:5 11:5 5:5 7:5 9:5 5:5 11:5 3:5 7:5 5:20
3:0 11:5 5:5 7:5 9:5 5:5 11:5 3:5 7:5 5:20 3:5
11:0 5:5 7:5 9:5 5:5 11:5 3:5 7:5 5:20 3:5 11:5
5:0 7:5 9:5 5:5 11:5 3:5 7:5 5:20 3:5 11:5 5:5
7:0 9:5 5:5 11:5 3:5 7:5 5:20 3:5 11:5 5:5 11:5
9:0 5:5 11:5 3:5 7:5 5:20 3:5 11:5 5:5 11:5 3:5
5:0 11:5 3:5 7:5 5:20 3:5 11:5 5:5 11:5 3:5 9:5
11:0 3:5 7:5 5:20 3:5 11:5 5:5 11:5 3:5 9:5 5:5
3:0 7:5 5:20 3:5 11:5 5:5 11:5 3:5 9:5 5:5 9:5
7:0 5:20 3:5 11:5 5:5 11:5 3:5 9:5 5:5 9:5 7:5
5:0 3:5 11:5 5:5 11:5 3:5 9:5 5:5 9:5 7:5 3:5
3:0 11:5 5:5 11:5 3:5 9:5 5:5 9:5 7:5 3:5 11:5
11:0 5:5 11:5 3:5 9:5 5:5 9:5 7:5 3:5 11:5 5:5
5:0 11:5 3:5 9:5 5:5 9:5 7:5 3:5 11:5 5:5 11:5
11:0 3:5 9:5 5:5 9:5 7:5 3:5 11:5 5:5 11:5 5:5
3:0 9:5 5:5 9:5 7:5 3:5 11:5 5:5 11:5 5:5 7:5
9:0 5:5 9:5 7:5 3:5 11:5 5:5 11:5 5:5 7:5 9:10
5:0 9:5 7:5 3:5 11:5 5:5 11:5 5:5 7:5 9:10 7:5
9:0 7:5 3:5 11:5 5:5 11:5 5:5 7:5 9:10 7:5 9:5
7:0 3:5 11:5 5:5 11:5 5:5 7:5 9:10 7:5 9:5 3:5
3:0 11:5 5:5 11:5 5:5 7:5 9:10 7:5 9:5 3:5 11:5
11:0 5:5 11:5 5:5 7:5 9:10 7:5 9:5 3:5 11:5 3:5
5:0 11:5 5:5 7:5 9:10 7:5 9:5 3:5 11:5 3:5 11:5
11:0 5:5 7:5 9:10 7:5 9:5 3:5 11:5 3:5 11:5 5:5
5:0 7:5 9:10 7:5 9:5 3:5 11:5 3:5 11:5 5:5 7:5
7:0 9:10 7:5 9:5 3:5 11:5 3:5 11:5 5:5 7:5 9:10
9:0 7:5 9:5 3:5 11:5 3:5 11:5 5:5 7:5 9:10 7:5
7:0 9:5 3:5 11:5 3:5 11:5 5:5 7:5 9:10 7:5 5:5
9:0 3:5 11:5 3:5 11:5 5:5 7:5 9:10 7:5 5:5 11:10
3:0 11:5 3:5 11:5 5:5 7:5 9:10 7:5 5:5 11:10 5:5
11:0 3:5 11:5 5:5 7:5 9:10 7:5 5:5 11:10 5:5 9:5
3:0 11:5 5:5 7:5 9:10 7:5 5:5 11:10 5:5 9:5 2:5
11:0 5:5 7:5 9:10 7:5 5:5 11:10 5:5 9:5 2:5 11:5
5:0 7:5 9:10 7:5 5:5 11:10 5:5 9:5 2:5 11:5 5:5
7:0 9:10 7:5 5:5 11:10 5:5 9:5 2:5 11:5 5:5 9:5
9:0 7:5 5:5 11:10 5:5 9:5 2:5 11:5 5:5 9:5 5:5
7:0 5:5 11:10 5:5 9:5 2:5 11:5 5:5 9:5 5:5 7:5
5:0 11:10 5:5 9:5 2:5 11:5 5:5 9:5 5:5 7:5 9:10
11:0 5:5 9:5 2:5 11:5 5:5 9:5 5:5 7:5 9:10 7:5
5:0 9:5 2:5 11:5 5:5 9:5 5:5 7:5 9:10 7:5 2:10
9:0 2:5 11:5 5:5 9:5 5:5 7:5 9:10 7:5 2:10 11:5
2:0 11:5 5:5 9:5 5:5 7:5 9:10 7:5 2:10 11:5 5:5
11:0 5:5 9:5 5:5 7:5 9:10 7:5 2:10 11:5 5:5 11:5
5:0 9:5 5:5 7:5 9:10 7:5 2:10 11:5 5:5 11:5 3:5
9:0 5:5 7:5 9:10 7:5 2:10 11:5 5:5 11:5 3:5 9:5
5:0 7:5 9:10 7:5 2:10 11:5 5:5 11:5 3:5 9:5 5:5
7:0 9:10 7:5 2:10 11:5 5:5 11:5 3:5 9:5 5:5 9:5
9:0 7:5 2:10 11:5 5:5 11:5 3:5 9:5 5:5 9:5 2:10
7:0 2:10 11:5 5:5 11:5 3:5 9:5 5:5 9:5 2:10 11:5
2:0 11:5 5:5 11:5 3:5 9:5 5:5 9:5 2:10 11:5 5:5
11:0 5:5 11:5 3:5 9:5 5:5 9:5 2:10 11:5 5:5 11:5
5:0 11:5 3:5 9:5 5:5 9:5 2:10 11:5 5:5 11:5 3:5
11:0 3:5 9:5 5:5 9:5 2:10 11:5 5:5 11:5 3:5 9:5
3:0 9:5 5:5 9:5 2:10 11:5 5:5 11:5 3:5 9:5 7:5
9:0 5:5 9:5 2:10 11:5 5:5 11:5 3:5 9:5 7:5 9:10
5:0 9:5 2:10 11:5 5:5 11:5 3:5 9:5 7:5 9:10 7:5
9:0 2:10 11:5 5:5 11:5 3:5 9:5 7:5 9:10 7:5 5:5
2:0 11:5 5:5 11:5 3:5 9:5 7:5 9:10 7:5 5:5 11:5
11:0 5:5 11:5 3:5 9:5 7:5 9:10 7:5 5:5 11:5 3:5
5:0 11:5 3:5 9:5 7:5 9:10 7:5 5:5 11:5 3:5 11:5
11:0 3:5 9:5 7:5 9:10 7:5 5:5 11:5 3:5 11:5 3:5
3:0 9:5 7:5 9:10 7:5 5:5 11:5 3:5 11:5 3:5 7:5
9:0 7:5 9:10 7:5 5:5 11:5 3:5 11:5 3:5 7:5 5:5
7:0 9:10 7:5 5:5 11:5 3:5 11:5 3:5 7:5 5:5 9:5
9:0 7:5 5:5 11:5 3:5 11:5 3:5 7:5 5:5 9:5 7:5
7:0 5:5 11:5 3:5 11:5 3:5 7:5 5:5 9:5 7:5 5:5
5:0 11:5 3:5 11:5 3:5 7:5 5:5 9:5 7:5 5:5 11:10
11:0 3:5 11:5 3:5 7:5 5:5 9:5 7:5 5:5 11:10 5:5
3:0 11:5 3:5 7:5 5:5 9:5 7:5 5:5 11:10 5:5 11:5
11:0 3:5 7:5 5:5 9:5 7:5 5:5 11:10 5:5 11:5 3:5
3:0 7:5 5:5 9:5 7:5 5:5 11:10 5:5 11:5 3:5 9:5
7:0 5:5 9:5 7:5 5:5 11:10 5:5 11:5 3:5 9:5 7:5
5:0 9:5 7:5 5:5 11:10 5:5 11:5 3:5 9:5 7:5 9:5
9:0 7:5 5:5 11:10 5:5 11:5 3:5 9:5 7:5 9:5 7:5
7:0 5:5 11:10 5:5 11:5 3:5 9:5 7:5 9:5 7:5 5:5
5:0 11:10 5:5 11:5 3:5 9:5 7:5 9:5 7:5 5:5 9:5
11:0 5:5 11:5 3:5 9:5 7:5 9:5 7:5 5:5 9:5 5:5
5:0 11:5 3:5 9:5 7:5 9:5 7:5 5:5 9:5 5:5 11:5
11:0 3:5 9:5 7:5 9:5 7:5 5:5 9:5 5:5 11:5 3:5
3:0 9:5 7:5 9:5 7:5 5:5 9:5 5:5 11:5 3:5 9:5
9:0 7:5 9:5 7:5 5:5 9:5 5:5 11:5 3:5 9:5 5:5
7:0 9:5 7:5 5:5 9:5 5:5 11:5 3:5 9:5 5:5 9:5
9:0 7:5 5:5 9:5 5:5 11:5 3:5 9:5 5:5 9:5 7:5
7:0 5:5 9:5 5:5 11:5 3:5 9:5 5:5 9:5 7:5 5:10
5:0 9:5 5:5 11:5 3:5 9:5 5:5 9:5 7:5 5:10 11:5
9:0 5:5 11:5 3:5 9:5 5:5 9:5 7:5 5:10 11:5 5:5
5:0 11:5 3:5 9:5 5:5 9:5 7:5 5:10 11:5 5:5 11:5
11:0 3:5 9:5 5:5 9:5 7:5 5:10 11:5 5:5 11:5 2:5
3:0 9:5 5:5 9:5 7:5 5:10 11:5 5:5 11:5 2:5 11:5
9:0 5:5 9:5 7:5 5:10 11:5 5:5 11:5 2:5 11:5 3:5
5:0 9:5 7:5 5:10 11:5 5:5 11:5 2:5 11:5 3:5 11:5
9:0 7:5 5:10 11:5 5:5 11:5 2:5 11:5 3:5 11:5 7:5
7:0 5:10 11:5 5:5 11:5 2:5 11:5 3:5 11:5 7:5 5:5
5:0 11:5 5:5 11:5 2:5 11:5 3:5 11:5 7:5 5:5 11:10
11:0 5:5 11:5 2:5 11:5 3:5 11:5 7:5 5:5 11:10 5:5
5:0 11:5 2:5 11:5 3:5 11:5 7:5 5:5 11:10 5:5 11:5
11:0 2:5 11:5 3:5 11:5 7:5 5:5 11:10 5:5 11:5 2:5
2:0 11:5 3:5 11:5 7:5 5:5 11:10 5:5 11:5 2:5 11:5
11:0 3:5 11:5 7:5 5:5 11:10 5:5 11:5 2:5 11:5 3:5
3:0 11:5 7:5 5:5 11:10 5:5 11:5 2:5 11:5 3:5 11:5
11:0 7:5 5:5 11:10 5:5 11:5 2:5 11:5 3:5 11:5 5:5
7:0 5:5 11:10 5:5 11:5 2:5 11:5 3:5 11:5 5:5 11:10
5:0 11:10 5:5 11:5 2:5 11:5 3:5 11:5 5:5 11:10 5:5
11:0 5:5 11:5 2:5 11:5 3:5 11:5 5:5 11:10 5:5 11:5
5:0 11:5 2:5 11:5 3:5 11:5 5:5 11:10 5:5 11:5 3:5
11:0 2:5 11:5 3:5 11:5 5:5 11:10 5:5 11:5 3:5 5:5
2:0 11:5 3:5 11:5 5:5 11:10 5:5 11:5 3:5 5:5 9:5
11:0 3:5 11:5 5:5 11:10 5:5 11:5 3:5 5:5 9:5 7:5
3:0 11:5 5:5 11:10 5:5 11:5 3:5 5:5 9:5 7:5 11:5
11:0 5:5 11:10 5:5 11:5 3:5 5:5 9:5 7:5 11:5 2:5
5:0 11:10 5:5 11:5 3:5 5:5 9:5 7:5 11:5 2:5 11:5
11:0 5:5 11:5 3:5 5:5 9:5 7:5 11:5 2:5 11:5 3:5
5:0 11:5 3:5 5:5 9:5 7:5 11:5 2:5 11:5 3:5 11:5
11:0 3:5 5:5 9:5 7:5 11:5 2:5 11:5 3:5 11:5 3:5
3:0 5:5 9:5 7:5 11:5 2:5 11:5 3:5 11:5 3:5 7:5
5:0 9:5 7:5 11:5 2:5 11:5 3:5 11:5 3:5 7:5 5:5
9:0 7:5 11:5 2:5 11:5 3:5 11:5 3:5 7:5 5:5 7:5
7:0 11:5 2:5 11:5 3:5 11:5 3:5 7:5 5:5 7:5 9:10
11:0 2:5 11:5 3:5 11:5 3:5 7:5 5:5 7:5 9:10 3:5
2:0 11:5 3:5 11:5 3:5 7:5 5:5 7:5 9:10 3:5 11:5
11:0 3:5 11:5 3:5 7:5 5:5 7:5 9:10 3:5 11:5 3:5
3:0 11:5 3:5 7:5 5:5 7:5 9:10 3:5 11:5 3:5 11:5
11:0 3:5 7:5 5:5 7:5 9:10 3:5 11:5 3:5 11:5 5:5
3:0 7:5 5:5 7:5 9:10 3:5 11:5 3:5 11:5 5:5 9:10
7:0 5:5 7:5 9:10 3:5 11:5 3:5 11:5 5:5 9:10 5:5
5:0 7:5 9:10 3:5 11:5 3:5 11:5 5:5 9:10 5:5 9:5
7:0 9:10 3:5 11:5 3:5 11:5 5:5 9:10 5:5 9:5 5:5
9:0 3:5 11:5 3:5 11:5 5:5 9:10 5:5 9:5 5:5 9:10
3:0 11:5 3:5 11:5 5:5 9:10 5:5 9:5 5:5 9:10 5:5
11:0 3:5 11:5 5:5 9:10 5:5 9:5 5:5 9:10 5:5 11:5
3:0 11:5 5:5 9:10 5:5 9:5 5:5 9:10 5:5 11:5 2:5
11:0 5:5 9:10 5:5 9:5 5:5 9:10 5:5 11:5 2:5 9:5
5:0 9:10 5:5 9:5 5:5 9:10 5:5 11:5 2:5 9:5 5:5
9:0 5:5 9:5 5:5 9:10 5:5 11:5 2:5 9:5 5:5 11:5
5:0 9:5 5:5 9:10 5:5 11:5 2:5 9:5 5:5 11:5 9:5
9:0 5:5 9:10 5:5 11:5 2:5 9:5 5:5 11:5 9:5 5:5
5:0 9:10 5:5 11:5 2:5 9:5 5:5 11:5 9:5 5:5 7:5
9:0 5:5 11:5 2:5 9:5 5:5 11:5 9:5 5:5 7:5 5:10
5:0 11:5 2:5 9:5 5:5 11:5 9:5 5:5 7:5 5:10 9:5
11:0 2:5 9:5 5:5 11:5 9:5 5:5 7:5 5:10 9:5 3:5
2:0 9:5 5:5 11:5 9:5 5:5 7:5 5:10 9:5 3:5 9:5
9:0 5:5 11:5 9:5 5:5 7:5 5:10 9:5 3:5 9:5 7:5
5:0 11:5 9:5 5:5 7:5 5:10 9:5 3:5 9:5 7:5 9:10
11:0 9:5 5:5 7:5 5:10 9:5 3:5 9:5 7:5 9:10 3:5
9:0 5:5 7:5 5:10 9:5 3:5 9:5 7:5 9:10 3:5 11:5
5:0 7:5 5:10 9:5 3:5 9:5 7:5 9:10 3:5 11:5 3:5
7:0 5:10 9:5 3:5 9:5 7:5 9:10 3:5 11:5 3:5 11:5
5:0 9:5 3:5 9:5 7:5 9:10 3:5 11:5 3:5 11:5 3:5
9:0 3:5 9:5 7:5 9:10 3:5 11:5 3:5 11:5 3:5 9:5
3:0 9:5 7:5 9:10 3:5 11:5 3:5 11:5 3:5 9:5 3:5
9:0 7:5 9:10 3:5 11:5 3:5 11:5 3:5 9:5 3:5 11:5
7:0 9:10 3:5 11:5 3:5 11:5 3:5 9:5 3:5 11:5 5:5
9:0 3:5 11:5 3:5 11:5 3:5 9:5 3:5 11:5 5:5 9:5
3:0 11:5 3:5 11:5 3:5 9:5 3:5 11:5 5:5 9:5 3:5
11:0 3:5 11:5 3:5 9:5 3:5 11:5 5:5 9:5 3:5 11:5
3:0 11:5 3:5 9:5 3:5 11:5 5:5 9:5 3:5 11:5 3:5
11:0 3:5 9:5 3:5 11:5 5:5 9:5 3:5 11:5 3:5 11:5
3:0 9:5 3:5 11:5 5:5 9:5 3:5 11:5 3:5 11:5 3:5
9:0 3:5 11:5 5:5 9:5 3:5 11:5 3:5 11:5 3:5 9:5
3:0 11:5 5:5 9:5 3:5 11:5 3:5 11:5 3:5 9:5 7:5
11:0 5:5 9:5 3:5 11:5 3:5 11:5 3:5 9:5 7:5 9:10
5:0 9:5 3:5 11:5 3:5 11:5 3:5 9:5 7:5 9:10 2:5
9:0 3:5 11:5 3:5 11:5 3:5 9:5 7:5 9:10 2:5 11:5
3:0 11:5 3:5 11:5 3:5 9:5 7:5 9:10 2:5 11:5 5:5
11:0 3:5 11:5 3:5 9:5 7:5 9:10 2:5 11:5 5:5 11:5
3:0 11:5 3:5 9:5 7:5 9:10 2:5 11:5 5:5 11:5 7:5
11:0 3:5 9:5 7:5 9:10 2:5 11:5 5:5 11:5 7:5 5:5
3:0 9:5 7:5 9:10 2:5 11:5 5:5 11:5 7:5 5:5 11:5
9:0 7:5 9:10 2:5 11:5 5:5 11:5 7:5 5:5 11:5 5:5
7:0 9:10 2:5 11:5 5:5 11:5 7:5 5:5 11:5 5:5 11:5
9:0 2:5 11:5 5:5 11:5 7:5 5:5 11:5 5:5 11:5 2:5
2:0 11:5 5:5 11:5 7:5 5:5 11:5 5:5 11:5 2:5 11:5
11:0 5:5 11:5 7:5 5:5 11:5 5:5 11:5 2:5 11:5 3:5
5:0 11:5 7:5 5:5 11:5 5:5 11:5 2:5 11:5 3:5 9:5
11:0 7:5 5:5 11:5 5:5 11:5 2:5 11:5 3:5 9:5 7:5
7:0 5:5 11:5 5:5 11:5 2:5 11:5 3:5 9:5 7:5 5:10
5:0 11:5 5:5 11:5 2:5 11:5 3:5 9:5 7:5 5:10 11:5
11:0 5:5 11:5 2:5 11:5 3:5 9:5 7:5 5:10 11:5 3:5
5:0 11:5 2:5 11:5 3:5 9:5 7:5 5:10 11:5 3:5 11:5
11:0 2:5 11:5 3:5 9:5 7:5 5:10 11:5 3:5 11:5 3:5
2:0 11:5 3:5 9:5 7:5 5:10 11:5 3:5 11:5 3:5 7:5
11:0 3:5 9:5 7:5 5:10 11:5 3:5 11:5 3:5 7:5 9:10
3:0 9:5 7:5 5:10 11:5 3:5 11:5 3:5 7:5 9:10 7:5
9:0 7:5 5:10 11:5 3:5 11:5 3:5 7:5 9:10 7:5 3:5
7:0 5:10 11:5 3:5 11:5 3:5 7:5 9:10 7:5 3:5 7:5
5:0 11:5 3:5 11:5 3:5 7:5 9:10 7:5 3:5 7:5 9:15
11:0 3:5 11:5 3:5 7:5 9:10 7:5 3:5 7:5 9:15 3:5
3:0 11:5 3:5 7:5 9:10 7:5 3:5 7:5 9:15 3:5 11:5
11:0 3:5 7:5 9:10 7:5 3:5 7:5 9:15 3:5 11:5 3:5
3:0 7:5 9:10 7:5 3:5 7:5 9:15 3:5 11:5 3:5 11:5
7:0 9:10 7:5 3:5 7:5 9:15 3:5 11:5 3:5 11:5 5:5
9:0 7:5 3:5 7:5 9:15 3:5 11:5 3:5 11:5 5:5 9:10
7:0 3:5 7:5 9:15 3:5 11:5 3:5 11:5 5:5 9:10 7:5
3:0 7:5 9:15 3:5 11:5 3:5 11:5 5:5 9:10 7:5 11:5
7:0 9:15 3:5 11:5 3:5 11:5 5:5 9:10 7:5 11:5 3:5
9:0 3:5 11:5 3:5 11:5 5:5 9:10 7:5 11:5 3:5 9:5
3:0 11:5 3:5 11:5 5:5 9:10 7:5 11:5 3:5 9:5 7:5
11:0 3:5 11:5 5:5 9:10 7:5 11:5 3:5 9:5 7:5 9:5
3:0 11:5 5:5 9:10 7:5 11:5 3:5 9:5 7:5 9:5 3:10
11:0 5:5 9:10 7:5 11:5 3:5 9:5 7:5 9:5 3:10 5:5
5:0 9:10 7:5 11:5 3:5 9:5 7:5 9:5 3:10 5:5 11:5
9:0 7:5 11:5 3:5 9:5 7:5 9:5 3:10 5:5 11:5 5:5
7:0 11:5 3:5 9:5 7:5 9:5 3:10 5:5 11:5 5:5 11:5
11:0 3:5 9:5 7:5 9:5 3:10 5:5 11:5 5:5 11:5 3:5
3:0 9:5 7:5 9:5 3:10 5:5 11:5 5:5 11:5 3:5 9:5
9:0 7:5 9:5 3:10 5:5 11:5 5:5 11:5 3:5 9:5 7:5
7:0 9:5 3:10 5:5 11:5 5:5 11:5 3:5 9:5 7:5 9:5
9:0 3:10 5:5 11:5 5:5 11:5 3:5 9:5 7:5 9:5 2:10
3:0 5:5 11:5 5:5 11:5 3:5 9:5 7:5 9:5 2:10 11:5
5:0 11:5 5:5 11:5 3:5 9:5 7:5 9:5 2:10 11:5 3:5
11:0 5:5 11:5 3:5 9:5 7:5 9:5 2:10 11:5 3:5 11:5
5:0 11:5 3:5 9:5 7:5 9:5 2:10 11:5 3:5 11:5 3:5
11:0 3:5 9:5 7:5 9:5 2:10 11:5 3:5 11:5 3:5 9:5
3:0 9:5 7:5 9:5 2:10 11:5 3:5 11:5 3:5 9:5 7:5
9:0 7:5 9:5 2:10 11:5 3:5 11:5 3:5 9:5 7:5 5:15
7:0 9:5 2:10 11:5 3:5 11:5 3:5 9:5 7:5 5:15 9:10
9:0 2:10 11:5 3:5 11:5 3:5 9:5 7:5 5:15 9:10 5:5
2:0 11:5 3:5 11:5 3:5 9:5 7:5 5:15 9:10 5:5 11:5
11:0 3:5 11:5 3:5 9:5 7:5 5:15 9:10 5:5 11:5 2:5
3:0 11:5 3:5 9:5 7:5 5:15 9:10 5:5 11:5 2:5 9:5
11:0 3:5 9:5 7:5 5:15 9:10 5:5 11:5 2:5 9:5 5:5
3:0 9:5 7:5 5:15 9:10 5:5 11:5 2:5 9:5 5:5 11:5
9:0 7:5 5:15 9:10 5:5 11:5 2:5 9:5 5:5 11:5 7:5
7:0 5:15 9:10 5:5 11:5 2:5 9:5 5:5 11:5 7:5 5:5
5:0 9:10 5:5 11:5 2:5 9:5 5:5 11:5 7:5 5:5 11:5
9:0 5:5 11:5 2:5 9:5 5:5 11:5 7:5 5:5 11:5 3:5
5:0 11:5 2:5 9:5 5:5 11:5 7:5 5:5 11:5 3:5 11:5
11:0 2:5 9:5 5:5 11:5 7:5 5:5 11:5 3:5 11:5 5:5
2:0 9:5 5:5 11:5 7:5 5:5 11:5 3:5 11:5 5:5 7:5
9:0 5:5 11:5 7:5 5:5 11:5 3:5 11:5 5:5 7:5 3:5
5:0 11:5 7:5 5:5 11:5 3:5 11:5 5:5 7:5 3:5 11:5
11:0 7:5 5:5 11:5 3:5 11:5 5:5 7:5 3:5 11:5 5:5
7:0 5:5 11:5 3:5 11:5 5:5 7:5 3:5 11:5 5:5 9:5
5:0 11:5 3:5 11:5 5:5 7:5 3:5 11:5 5:5 9:5 3:5
11:0 3:5 11:5 5:5 7:5 3:5 11:5 5:5 9:5 3:5 9:5
3:0 11:5 5:5 7:5 3:5 11:5 5:5 9:5 3:5 9:5 5:5
11:0 5:5 7:5 3:5 11:5 5:5 9:5 3:5 9:5 5:5 11:5
5:0 7:5 3:5 11:5 5:5 9:5 3:5 9:5 5:5 11:5 2:5
7:0 3:5 11:5 5:5 9:5 3:5 9:5 5:5 11:5 2:5 9:5
3:0 11:5 5:5 9:5 3:5 9:5 5:5 11:5 2:5 9:5 5:5
11:0 5:5 9:5 3:5 9:5 5:5 11:5 2:5 9:5 5:5 11:5
5:0 9:5 3:5 9:5 5:5 11:5 2:5 9:5 5:5 11:5 3:5
9:0 3:5 9:5 5:5 11:5 2:5 9:5 5:5 11:5 3:5 7:5
3:0 9:5 5:5 11:5 2:5 9:5 5:5 11:5 3:5 7:5 9:10
9:0 5:5 11:5 2:5 9:5 5:5 11:5 3:5 7:5 9:10 7:5
5:0 11:5 2:5 9:5 5:5 11:5 3:5 7:5 9:10 7:5 9:5
11:0 2:5 9:5 5:5 11:5 3:5 7:5 9:10 7:5 9:5 2:5
2:0 9:5 5:5 11:5 3:5 7:5 9:10 7:5 9:5 2:5 11:5
9:0 5:5 11:5 3:5 7:5 9:10 7:5 9:5 2:5 11:5 5:5
5:0 11:5 3:5 7:5 9:10 7:5 9:5 2:5 11:5 5:5 11:5
11:0 3:5 7:5 9:10 7:5 9:5 2:5 11:5 5:5 11:5 5:5
3:0 7:5 9:10 7:5 9:5 2:5 11:5 5:5 11:5 5:5 3:5
7:0 9:10 7:5 9:5 2:5 11:5 5:5 11:5 5:5 3:5 9:5
9:0 7:5 9:5 2:5 11:5 5:5 11:5 5:5 3:5 9:5 5:5
7:0 9:5 2:5 11:5 5:5 11:5 5:5 3:5 9:5 5:5 11:5
9:0 2:5 11:5 5:5 11:5 5:5 3:5 9:5 5:5 11:5 2:5
2:0 11:5 5:5 11:5 5:5 3:5 9:5 5:5 11:5 2:5 9:5
11:0 5:5 11:5 5:5 3:5 9:5 5:5 11:5 2:5 9:5 5:5
5:0 11:5 5:5 3:5 9:5 5:5 11:5 2:5 9:5 5:5 9:5
11:0 5:5 3:5 9:5 5:5 11:5 2:5 9:5 5:5 9:5 7:5
5:0 3:5 9:5 5:5 11:5 2:5 9:5 5:5 9:5 7:5 5:10
3:0 9:5 5:5 11:5 2:5 9:5 5:5 9:5 7:5 5:10 9:5
9:0 5:5 11:5 2:5 9:5 5:5 9:5 7:5 5:10 9:5 5:5
5:0 11:5 2:5 9:5 5:5 9:5 7:5 5:10 9:5 5:5 11:5
11:0 2:5 9:5 5:5 9:5 7:5 5:10 9:5 5:5 11:5 2:5
2:0 9:5 5:5 9:5 7:5 5:10 9:5 5:5 11:5 2:5 11:5
9:0 5:5 9:5 7:5 5:10 9:5 5:5 11:5 2:5 11:5 5:5
5:0 9:5 7:5 5:10 9:5 5:5 11:5 2:5 11:5 5:5 9:5
9:0 7:5 5:10 9:5 5:5 11:5 2:5 11:5 5:5 9:5 7:5
7:0 5:10 9:5 5:5 11:5 2:5 11:5 5:5 9:5 7:5 5:5
5:0 9:5 5:5 11:5 2:5 11:5 5:5 9:5 7:5 5:5 7:5
9:0 5:5 11:5 2:5 11:5 5:5 9:5 7:5 5:5 7:5 9:10
5:0 11:5 2:5 11:5 5:5 9:5 7:5 5:5 7:5 9:10 7:5
11:0 2:5 11:5 5:5 9:5 7:5 5:5 7:5 9:10 7:5 5:5
2:0 11:5 5:5 9:5 7:5 5:5 7:5 9:10 7:5 5:5 9:5
11:0 5:5 9:5 7:5 5:5 7:5 9:10 7:5 5:5 9:5 5:5
5:0 9:5 7:5 5:5 7:5 9:10 7:5 5:5 9:5 5:5 11:5
9:0 7:5 5:5 7:5 9:10 7:5 5:5 9:5 5:5 11:5 2:5
7:0 5:5 7:5 9:10 7:5 5:5 9:5 5:5 11:5 2:5 11:5
5:0 7:5 9:10 7:5 5:5 9:5 5:5 11:5 2:5 11:5 5:5
7:0 9:10 7:5 5:5 9:5 5:5 11:5 2:5 11:5 5:5 9:5
9:0 7:5 5:5 9:5 5:5 11:5 2:5 11:5 5:5 9:5 7:5
7:0 5:5 9:5 5:5 11:5 2:5 11:5 5:5 9:5 7:5 5:10
5:0 9:5 5:5 11:5 2:5 11:5 5:5 9:5 7:5 5:10 11:5
9:0 5:5 11:5 2:5 11:5 5:5 9:5 7:5 5:10 11:5 5:5
5:0 11:5 2:5 11:5 5:5 9:5 7:5 5:10 11:5 5:5 11:5
11:0 2:5 11:5 5:5 9:5 7:5 5:10 11:5 5:5 11:5 3:5
2:0 11:5 5:5 9:5 7:5 5:10 11:5 5:5 11:5 3:5 9:5
11:0 5:5 9:5 7:5 5:10 11:5 5:5 11:5 3:5 9:5 7:5
5:0 9:5 7:5 5:10 11:5 5:5 11:5 3:5 9:5 7:5 9:5
9:0 7:5 5:10 11:5 5:5 11:5 3:5 9:5 7:5 9:5 5:5
7:0 5:10 11:5 5:5 11:5 3:5 9:5 7:5 9:5 5:5 7:5
5:0 11:5 5:5 11:5 3:5 9:5 7:5 9:5 5:5 7:5 5:5
11:0 5:5 11:5 3:5 9:5 7:5 9:5 5:5 7:5 5:5 9:5
5:0 11:5 3:5 9:5 7:5 9:5 5:5 7:5 5:5 9:5 7:5
11:0 3:5 9:5 7:5 9:5 5:5 7:5 5:5 9:5 7:5 9:5
3:0 9:5 7:5 9:5 5:5 7:5 5:5 9:5 7:5 9:5 2:5
9:0 7:5 9:5 5:5 7:5 5:5 9:5 7:5 9:5 2:5 11:5
7:0 9:5 5:5 7:5 5:5 9:5 7:5 9:5 2:5 11:5 5:5
9:0 5:5 7:5 5:5 9:5 7:5 9:5 2:5 11:5 5:5 11:5
5:0 7:5 5:5 9:5 7:5 9:5 2:5 11:5 5:5 11:5 5:5
7:0 5:5 9:5 7:5 9:5 2:5 11:5 5:5 11:5 5:5 9:10
5:0 9:5 7:5 9:5 2:5 11:5 5:5 11:5 5:5 9:10 7:5
9:0 7:5 9:5 2:5 11:5 5:5 11:5 5:5 9:10 7:5 11:5
7:0 9:5 2:5 11:5 5:5 11:5 5:5 9:10 7:5 11:5 2:5
9:0 2:5 11:5 5:5 11:5 5:5 9:10 7:5 11:5 2:5 11:5
2:0 11:5 5:5 11:5 5:5 9:10 7:5 11:5 2:5 11:5 5:5
11:0 5:5 11:5 5:5 9:10 7:5 11:5 2:5 11:5 5:5 11:5
5:0 11:5 5:5 9:10 7:5 11:5 2:5 11:5 5:5 11:5 5:5
11:0 5:5 9:10 7:5 11:5 2:5 11:5 5:5 11:5 5:5 7:5
5:0 9:10 7:5 11:5 2:5 11:5 5:5 11:5 5:5 7:5 5:5
9:0 7:5 11:5 2:5 11:5 5:5 11:5 5:5 7:5 5:5 9:5
7:0 11:5 2:5 11:5 5:5 11:5 5:5 7:5 5:5 9:5 5:5
11:0 2:5 11:5 5:5 11:5 5:5 7:5 5:5 9:5 5:5 10:5
2:0 11:5 5:5 11:5 5:5 7:5 5:5 9:5 5:5 10:5 2:5
11:0 5:5 11:5 5:5 7:5 5:5 9:5 5:5 10:5 2:5 9:5
5:0 11:5 5:5 7:5 5:5 9:5 5:5 10:5 2:5 9:5 5:5
11:0 5:5 7:5 5:5 9:5 5:5 10:5 2:5 9:5 5:5 11:5
5:0 7:5 5:5 9:5 5:5 10:5 2:5 9:5 5:5 11:5 7:5
7:0 5:5 9:5 5:5 10:5 2:5 9:5 5:5 11:5 7:5 5:5
5:0 9:5 5:5 10:5 2:5 9:5 5:5 11:5 7:5 5:5 7:5
9:0 5:5 10:5 2:5 9:5 5:5 11:5 7:5 5:5 7:5 9:10
5:0 10:5 2:5 9:5 5:5 11:5 7:5 5:5 7:5 9:10 7:5
10:0 2:5 9:5 5:5 11:5 7:5 5:5 7:5 9:10 7:5 3:5
2:0 9:5 5:5 11:5 7:5 5:5 7:5 9:10 7:5 3:5 11:5
9:0 5:5 11:5 7:5 5:5 7:5 9:10 7:5 3:5 11:5 5:5
5:0 11:5 7:5 5:5 7:5 9:10 7:5 3:5 11:5 5:5 11:5
11:0 7:5 5:5 7:5 9:10 7:5 3:5 11:5 5:5 11:5 5:5
7:0 5:5 7:5 9:10 7:5 3:5 11:5 5:5 11:5 5:5 7:10
5:0 7:5 9:10 7:5 3:5 11:5 5:5 11:5 5:5 7:10 9:10
7:0 9:10 7:5 3:5 11:5 5:5 11:5 5:5 7:10 9:10 3:5
9:0 7:5 3:5 11:5 5:5 11:5 5:5 7:10 9:10 3:5 11:5
7:0 3:5 11:5 5:5 11:5 5:5 7:10 9:10 3:5 11:5 3:5
3:0 11:5 5:5 11:5 5:5 7:10 9:10 3:5 11:5 3:5 11:5
11:0 5:5 11:5 5:5 7:10 9:10 3:5 11:5 3:5 11:5 5:5
5:0 11:5 5:5 7:10 9:10 3:5 11:5 3:5 11:5 5:5 7:5
11:0 5:5 7:10 9:10 3:5 11:5 3:5 11:5 5:5 7:5 9:10
5:0 7:10 9:10 3:5 11:5 3:5 11:5 5:5 7:5 9:10 7:5
7:0 9:10 3:5 11:5 3:5 11:5 5:5 7:5 9:10 7:5 9:5
9:0 3:5 11:5 3:5 11:5 5:5 7:5 9:10 7:5 9:5 3:5
3:0 11:5 3:5 11:5 5:5 7:5 9:10 7:5 9:5 3:5 11:5
11:0 3:5 11:5 5:5 7:5 9:10 7:5 9:5 3:5 11:5 3:5
3:0 11:5 5:5 7:5 9:10 7:5 9:5 3:5 11:5 3:5 11:5
11:0 5:5 7:5 9:10 7:5 9:5 3:5 11:5 3:5 11:5 3:5
5:0 7:5 9:10 7:5 9:5 3:5 11:5 3:5 11:5 3:5 7:5
7:0 9:10 7:5 9:5 3:5 11:5 3:5 11:5 3:5 7:5 11:15
9:0 7:5 9:5 3:5 11:5 3:5 11:5 3:5 7:5 11:15 3:5
7:0 9:5 3:5 11:5 3:5 11:5 3:5 7:5 11:15 3:5 9:5
9:0 3:5 11:5 3:5 11:5 3:5 7:5 11:15 3:5 9:5 5:5
3:0 11:5 3:5 11:5 3:5 7:5 11:15 3:5 9:5 5:5 9:5
11:0 3:5 11:5 3:5 7:5 11:15 3:5 9:5 5:5 9:5 5:5
3:0 11:5 3:5 7:5 11:15 3:5 9:5 5:5 9:5 5:5 9:5
11:0 3:5 7:5 11:15 3:5 9:5 5:5 9:5 5:5 9:5 3:5
3:0 7:5 11:15 3:5 9:5 5:5 9:5 5:5 9:5 3:5 11:5
7:0 11:15 3:5 9:5 5:5 9:5 5:5 9:5 3:5 11:5 5:5
11:0 3:5 9:5 5:5 9:5 5:5 9:5 3:5 11:5 5:5 11:5
3:0 9:5 5:5 9:5 5:5 9:5 3:5 11:5 5:5 11:5 2:5
9:0 5:5 9:5 5:5 9:5 3:5 11:5 5:5 11:5 2:5 11:5
5:0 9:5 5:5 9:5 3:5 11:5 5:5 11:5 2:5 11:5 3:5
9:0 5:5 9:5 3:5 11:5 5:5 11:5 2:5 11:5 3:5 11:5
5:0 9:5 3:5 11:5 5:5 11:5 2:5 11:5 3:5 11:5 5:5
9:0 3:5 11:5 5:5 11:5 2:5 11:5 3:5 11:5 5:5 9:5
3:0 11:5 5:5 11:5 2:5 11:5 3:5 11:5 5:5 9:5 3:5
11:0 5:5 11:5 2:5 11:5 3:5 11:5 5:5 9:5 3:5 11:5
5:0 11:5 2:5 11:5 3:5 11:5 5:5 9:5 3:5 11:5 5:5
11:0 2:5 11:5 3:5 11:5 5:5 9:5 3:5 11:5 5:5 9:5
2:0 11:5 3:5 11:5 5:5 9:5 3:5 11:5 5:5 9:5 3:5
11:0 3:5 11:5 5:5 9:5 3:5 11:5 5:5 9:5 3:5 9:5
3:0 11:5 5:5 9:5 3:5 11:5 5:5 9:5 3:5 9:5 5:5
11:0 5:5 9:5 3:5 11:5 5:5 9:5 3:5 9:5 5:5 11:5
5:0 9:5 3:5 11:5 5:5 9:5 3:5 9:5 5:5 11:5 3:5
9:0 3:5 11:5 5:5 9:5 3:5 9:5 5:5 11:5 3:5 7:5
3:0 11:5 5:5 9:5 3:5 9:5 5:5 11:5 3:5 7:5 9:15
11:0 5:5 9:5 3:5 9:5 5:5 11:5 3:5 7:5 9:15 2:5
5:0 9:5 3:5 9:5 5:5 11:5 3:5 7:5 9:15 2:5 9:5
9:0 3:5 9:5 5:5 11:5 3:5 7:5 9:15 2:5 9:5 3:5
3:0 9:5 5:5 11:5 3:5 7:5 9:15 2:5 9:5 3:5 11:5
9:0 5:5 11:5 3:5 7:5 9:15 2:5 9:5 3:5 11:5 7:5
5:0 11:5 3:5 7:5 9:15 2:5 9:5 3:5 11:5 7:5 3:10
11:0 3:5 7:5 9:15 2:5 9:5 3:5 11:5 7:5 3:10 11:5
3:0 7:5 9:15 2:5 9:5 3:5 11:5 7:5 3:10 11:5 5:5
7:0 9:15 2:5 9:5 3:5 11:5 7:5 3:10 11:5 5:5 11:5
9:0 2:5 9:5 3:5 11:5 7:5 3:10 11:5 5:5 11:5 2:5
2:0 9:5 3:5 11:5 7:5 3:10 11:5 5:5 11:5 2:5 11:5
9:0 3:5 11:5 7:5 3:10 11:5 5:5 11:5 2:5 11:5 5:5
3:0 11:5 7:5 3:10 11:5 5:5 11:5 2:5 11:5 5:5 9:5
11:0 7:5 3:10 11:5 5:5 11:5 2:5 11:5 5:5 9:5 7:5
7:0 3:10 11:5 5:5 11:5 2:5 11:5 5:5 9:5 7:5 5:5
3:0 11:5 5:5 11:5 2:5 11:5 5:5 9:5 7:5 5:5 9:5
11:0 5:5 11:5 2:5 11:5 5:5 9:5 7:5 5:5 9:5 7:5
5:0 11:5 2:5 11:5 5:5 9:5 7:5 5:5 9:5 7:5 11:5
11:0 2:5 11:5 5:5 9:5 7:5 5:5 9:5 7:5 11:5 3:5
2:0 11:5 5:5 9:5 7:5 5:5 9:5 7:5 11:5 3:5 9:5
11:0 5:5 9:5 7:5 5:5 9:5 7:5 11:5 3:5 9:5 5:5
5:0 9:5 7:5 5:5 9:5 7:5 11:5 3:5 9:5 5:5 9:5
9:0 7:5 5:5 9:5 7:5 11:5 3:5 9:5 5:5 9:5 7:5
7:0 5:5 9:5 7:5 11:5 3:5 9:5 5:5 9:5 7:5 5:5
5:0 9:5 7:5 11:5 3:5 9:5 5:5 9:5 7:5 5:5 7:5
9:0 7:5 11:5 3:5 9:5 5:5 9:5 7:5 5:5 7:5 9:5
7:0 11:5 3:5 9:5 5:5 9:5 7:5 5:5 7:5 9:5 7:5
11:0 3:5 9:5 5:5 9:5 7:5 5:5 7:5 9:5 7:5 11:5
3:0 9:5 5:5 9:5 7:5 5:5 7:5 9:5 7:5 11:5 2:5
9:0 5:5 9:5 7:5 5:5 7:5 9:5 7:5 11:5 2:5 11:5
5:0 9:5 7:5 5:5 7:5 9:5 7:5 11:5 2:5 11:5 3:5
9:0 7:5 5:5 7:5 9:5 7:5 11:5 2:5 11:5 3:5 11:5
7:0 5:5 7:5 9:5 7:5 11:5 2:5 11:5 3:5 11:5 3:5
5:0 7:5 9:5 7:5 11:5 2:5 11:5 3:5 11:5 3:5 7:5
7:0 9:5 7:5 11:5 2:5 11:5 3:5 11:5 3:5 7:5 5:5
9:0 7:5 11:5 2:5 11:5 3:5 11:5 3:5 7:5 5:5 11:5
7:0 11:5 2:5 11:5 3:5 11:5 3:5 7:5 5:5 11:5 7:5
11:0 2:5 11:5 3:5 11:5 3:5 7:5 5:5 11:5 7:5 9:5
2:0 11:5 3:5 11:5 3:5 7:5 5:5 11:5 7:5 9:5 3:5
11:0 3:5 11:5 3:5 7:5 5:5 11:5 7:5 9:5 3:5 11:5
3:0 11:5 3:5 7:5 5:5 11:5 7:5 9:5 3:5 11:5 3:5
11:0 3:5 7:5 5:5 11:5 7:5 9:5 3:5 11:5 3:5 11:5
3:0 7:5 5:5 11:5 7:5 9:5 3:5 11:5 3:5 11:5 5:5
7:0 5:5 11:5 7:5 9:5 3:5 11:5 3:5 11:5 5:5 7:5
5:0 11:5 7:5 9:5 3:5 11:5 3:5 11:5 5:5 7:5 9:15
11:0 7:5 9:5 3:5 11:5 3:5 11:5 5:5 7:5 9:15 3:5
7:0 9:5 3:5 11:5 3:5 11:5 5:5 7:5 9:15 3:5 9:5
9:0 3:5 11:5 3:5 11:5 5:5 7:5 9:15 3:5 9:5 7:5
3:0 11:5 3:5 11:5 5:5 7:5 9:15 3:5 9:5 7:5 9:10
11:0 3:5 11:5 5:5 7:5 9:15 3:5 9:5 7:5 9:10 3:5
3:0 11:5 5:5 7:5 9:15 3:5 9:5 7:5 9:10 3:5 9:5
11:0 5:5 7:5 9:15 3:5 9:5 7:5 9:10 3:5 9:5 5:5
5:0 7:5 9:15 3:5 9:5 7:5 9:10 3:5 9:5 5:5 9:5
7:0 9:15 3:5 9:5 7:5 9:10 3:5 9:5 5:5 9:5 7:5
9:0 3:5 9:5 7:5 9:10 3:5 9:5 5:5 9:5 7:5 3:5
3:0 9:5 7:5 9:10 3:5 9:5 5:5 9:5 7:5 3:5 9:5
9:0 7:5 9:10 3:5 9:5 5:5 9:5 7:5 3:5 9:5 5:5
7:0 9:10 3:5 9:5 5:5 9:5 7:5 3:5 9:5 5:5 11:5
9:0 3:5 9:5 5:5 9:5 7:5 3:5 9:5 5:5 11:5 3:5
3:0 9:5 5:5 9:5 7:5 3:5 9:5 5:5 11:5 3:5 5:5
9:0 5:5 9:5 7:5 3:5 9:5 5:5 11:5 3:5 5:5 9:5
5:0 9:5 7:5 3:5 9:5 5:5 11:5 3:5 5:5 9:5 5:5
9:0 7:5 3:5 9:5 5:5 11:5 3:5 5:5 9:5 5:5 11:5
7:0 3:5 9:5 5:5 11:5 3:5 5:5 9:5 5:5 11:5 5:5
3:0 9:5 5:5 11:5 3:5 5:5 9:5 5:5 11:5 5:5 11:10
9:0 5:5 11:5 3:5 5:5 9:5 5:5 11:5 5:5 11:10 5:5
5:0 11:5 3:5 5:5 9:5 5:5 11:5 5:5 11:10 5:5 11:5
11:0 3:5 5:5 9:5 5:5 11:5 5:5 11:10 5:5 11:5 2:5
3:0 5:5 9:5 5:5 11:5 5:5 11:10 5:5 11:5 2:5 9:5
5:0 9:5 5:5 11:5 5:5 11:10 5:5 11:5 2:5 9:5 5:5
9:0 5:5 11:5 5:5 11:10 5:5 11:5 2:5 9:5 5:5 9:5
5:0 11:5 5:5 11:10 5:5 11:5 2:5 9:5 5:5 9:5 3:10
11:0 5:5 11:10 5:5 11:5 2:5 9:5 5:5 9:5 3:10 11:5
5:0 11:10 5:5 11:5 2:5 9:5 5:5 9:5 3:10 11:5 5:5
11:0 5:5 11:5 2:5 9:5 5:5 9:5 3:10 11:5 5:5 9:5
5:0 11:5 2:5 9:5 5:5 9:5 3:10 11:5 5:5 9:5 5:5
11:0 2:5 9:5 5:5 9:5 3:10 11:5 5:5 9:5 5:5 9:10
2:0 9:5 5:5 9:5 3:10 11:5 5:5 9:5 5:5 9:10 3:5
9:0 5:5 9:5 3:10 11:5 5:5 9:5 5:5 9:10 3:5 11:5
5:0 9:5 3:10 11:5 5:5 9:5 5:5 9:10 3:5 11:5 5:5
9:0 3:10 11:5 5:5 9:5 5:5 9:10 3:5 11:5 5:5 7:5
3:0 11:5 5:5 9:5 5:5 9:10 3:5 11:5 5:5 7:5 9:15
11:0 5:5 9:5 5:5 9:10 3:5 11:5 5:5 7:5 9:15 3:5
5:0 9:5 5:5 9:10 3:5 11:5 5:5 7:5 9:15 3:5 9:5
9:0 5:5 9:10 3:5 11:5 5:5 7:5 9:15 3:5 9:5 7:5
5:0 9:10 3:5 11:5 5:5 7:5 9:15 3:5 9:5 7:5 9:10
9:0 3:5 11:5 5:5 7:5 9:15 3:5 9:5 7:5 9:10 3:5
3:0 11:5 5:5 7:5 9:15 3:5 9:5 7:5 9:10 3:5 9:5
11:0 5:5 7:5 9:15 3:5 9:5 7:5 9:10 3:5 9:5 7:5
5:0 7:5 9:15 3:5 9:5 7:5 9:10 3:5 9:5 7:5 9:10
7:0 9:15 3:5 9:5 7:5 9:10 3:5 9:5 7:5 9:10 2:5
9:0 3:5 9:5 7:5 9:10 3:5 9:5 7:5 9:10 2:5 11:5
3:0 9:5 7:5 9:10 3:5 9:5 7:5 9:10 2:5 11:5 5:5
9:0 7:5 9:10 3:5 9:5 7:5 9:10 2:5 11:5 5:5 11:5
7:0 9:10 3:5 9:5 7:5 9:10 2:5 11:5 5:5 11:5 5:5
9:0 3:5 9:5 7:5 9:10 2:5 11:5 5:5 11:5 5:5 9:10
3:0 9:5 7:5 9:10 2:5 11:5 5:5 11:5 5:5 9:10 7:5
9:0 7:5 9:10 2:5 11:5 5:5 11:5 5:5 9:10 7:5 3:15
7:0 9:10 2:5 11:5 5:5 11:5 5:5 9:10 7:5 3:15 11:5
9:0 2:5 11:5 5:5 11:5 5:5 9:10 7:5 3:15 11:5 5:5
2:0 11:5 5:5 11:5 5:5 9:10 7:5 3:15 11:5 5:5 11:5
11:0 5:5 11:5 5:5 9:10 7:5 3:15 11:5 5:5 11:5 3:5
5:0 11:5 5:5 9:10 7:5 3:15 11:5 5:5 11:5 3:5 9:5
11:0 5:5 9:10 7:5 3:15 11:5 5:5 11:5 3:5 9:5 7:5
5:0 9:10 7:5 3:15 11:5 5:5 11:5 3:5 9:5 7:5 9:10
9:0 7:5 3:15 11:5 5:5 11:5 3:5 9:5 7:5 9:10 2:5
7:0 3:15 11:5 5:5 11:5 3:5 9:5 7:5 9:10 2:5 11:5
3:0 11:5 5:5 11:5 3:5 9:5 7:5 9:10 2:5 11:5 3:5
11:0 5:5 11:5 3:5 9:5 7:5 9:10 2:5 11:5 3:5 11:5
5:0 11:5 3:5 9:5 7:5 9:10 2:5 11:5 3:5 11:5 3:5
11:0 3:5 9:5 7:5 9:10 2:5 11:5 3:5 11:5 3:5 5:5
3:0 9:5 7:5 9:10 2:5 11:5 3:5 11:5 3:5 5:5 7:5
9:0 7:5 9:10 2:5 11:5 3:5 11:5 3:5 5:5 7:5 9:15
7:0 9:10 2:5 11:5 3:5 11:5 3:5 5:5 7:5 9:15 3:5
9:0 2:5 11:5 3:5 11:5 3:5 5:5 7:5 9:15 3:5 11:5
2:0 11:5 3:5 11:5 3:5 5:5 7:5 9:15 3:5 11:5 3:5
11:0 3:5 11:5 3:5 5:5 7:5 9:15 3:5 11:5 3:5 11:5
3:0 11:5 3:5 5:5 7:5 9:15 3:5 11:5 3:5 11:5 5:5
11:0 3:5 5:5 7:5 9:15 3:5 11:5 3:5 11:5 5:5 9:10
3:0 5:5 7:5 9:15 3:5 11:5 3:5 11:5 5:5 9:10 7:5
5:0 7:5 9:15 3:5 11:5 3:5 11:5 5:5 9:10 7:5 11:5
7:0 9:15 3:5 11:5 3:5 11:5 5:5 9:10 7:5 11:5 3:5
9:0 3:5 11:5 3:5 11:5 5:5 9:10 7:5 11:5 3:5 9:5
3:0 11:5 3:5 11:5 5:5 9:10 7:5 11:5 3:5 9:5 3:5
11:0 3:5 11:5 5:5 9:10 7:5 11:5 3:5 9:5 3:5 11:5
3:0 11:5 5:5 9:10 7:5 11:5 3:5 9:5 3:5 11:5 5:5
11:0 5:5 9:10 7:5 11:5 3:5 9:5 3:5 11:5 5:5 7:5
5:0 9:10 7:5 11:5 3:5 9:5 3:5 11:5 5:5 7:5 5:5
9:0 7:5 11:5 3:5 9:5 3:5 11:5 5:5 7:5 5:5 7:5
7:0 11:5 3:5 9:5 3:5 11:5 5:5 7:5 5:5 7:5 9:5
11:0 3:5 9:5 3:5 11:5 5:5 7:5 5:5 7:5 9:5 7:5
3:0 9:5 3:5 11:5 5:5 7:5 5:5 7:5 9:5 7:5 3:10
9:0 3:5 11:5 5:5 7:5 5:5 7:5 9:5 7:5 3:10 11:5
3:0 11:5 5:5 7:5 5:5 7:5 9:5 7:5 3:10 11:5 3:5
11:0 5:5 7:5 5:5 7:5 9:5 7:5 3:10 11:5 3:5 11:5
5:0 7:5 5:5 7:5 9:5 7:5 3:10 11:5 3:5 11:5 2:5
7:0 5:5 7:5 9:5 7:5 3:10 11:5 3:5 11:5 2:5 9:5
5:0 7:5 9:5 7:5 3:10 11:5 3:5 11:5 2:5 9:5 7:5
7:0 9:5 7:5 3:10 11:5 3:5 11:5 2:5 9:5 7:5 9:5
9:0 7:5 3:10 11:5 3:5 11:5 2:5 9:5 7:5 9:5 7:5
7:0 3:10 11:5 3:5 11:5 2:5 9:5 7:5 9:5 7:5 5:5
3:0 11:5 3:5 11:5 2:5 9:5 7:5 9:5 7:5 5:5 7:5
11:0 3:5 11:5 2:5 9:5 7:5 9:5 7:5 5:5 7:5 5:10
3:0 11:5 2:5 9:5 7:5 9:5 7:5 5:5 7:5 5:10 11:5
11:0 2:5 9:5 7:5 9:5 7:5 5:5 7:5 5:10 11:5 3:5
2:0 9:5 7:5 9:5 7:5 5:5 7:5 5:10 11:5 3:5 11:5
9:0 7:5 9:5 7:5 5:5 7:5 5:10 11:5 3:5 11:5 5:5
7:0 9:5 7:5 5:5 7:5 5:10 11:5 3:5 11:5 5:5 11:5
9:0 7:5 5:5 7:5 5:10 11:5 3:5 11:5 5:5 11:5 3:5
7:0 5:5 7:5 5:10 11:5 3:5 11:5 5:5 11:5 3:5 7:5
5:0 7:5 5:10 11:5 3:5 11:5 5:5 11:5 3:5 7:5 9:5
7:0 5:10 11:5 3:5 11:5 5:5 11:5 3:5 7:5 9:5 7:5
5:0 11:5 3:5 11:5 5:5 11:5 3:5 7:5 9:5 7:5 11:5
11:0 3:5 11:5 5:5 11:5 3:5 7:5 9:5 7:5 11:5 2:5
3:0 11:5 5:5 11:5 3:5 7:5 9:5 7:5 11:5 2:5 11:5
11:0 5:5 11:5 3:5 7:5 9:5 7:5 11:5 2:5 11:5 3:5
5:0 11:5 3:5 7:5 9:5 7:5 11:5 2:5 11:5 3:5 11:5
11:0 3:5 7:5 9:5 7:5 11:5 2:5 11:5 3:5 11:5 5:5
3:0 7:5 9:5 7:5 11:5 2:5 11:5 3:5 11:5 5:5 7:5
7:0 9:5 7:5 11:5 2:5 11:5 3:5 11:5 5:5 7:5 5:5
9:0 7:5 11:5 2:5 11:5 3:5 11:5 5:5 7:5 5:5 9:5
7:0 11:5 2:5 11:5 3:5 11:5 5:5 7:5 5:5 9:5 7:5
11:0 2:5 11:5 3:5 11:5 5:5 7:5 5:5 9:5 7:5 9:5
2:0 11:5 3:5 11:5 5:5 7:5 5:5 9:5 7:5 9:5 2:5
11:0 3:5 11:5 5:5 7:5 5:5 9:5 7:5 9:5 2:5 11:5
3:0 11:5 5:5 7:5 5:5 9:5 7:5 9:5 2:5 11:5 5:5
11:0 5:5 7:5 5:5 9:5 7:5 9:5 2:5 11:5 5:5 11:5
5:0 7:5 5:5 9:5 7:5 9:5 2:5 11:5 5:5 11:5 7:5
7:0 5:5 9:5 7:5 9:5 2:5 11:5 5:5 11:5 7:5 5:5
5:0 9:5 7:5 9:5 2:5 11:5 5:5 11:5 7:5 5:5 9:5
9:0 7:5 9:5 2:5 11:5 5:5 11:5 7:5 5:5 9:5 5:5
7:0 9:5 2:5 11:5 5:5 11:5 7:5 5:5 9:5 5:5 11:5
9:0 2:5 11:5 5:5 11:5 7:5 5:5 9:5 5:5 11:5 2:5
2:0 11:5 5:5 11:5 7:5 5:5 9:5 5:5 11:5 2:5 11:5
11:0 5:5 11:5 7:5 5:5 9:5 5:5 11:5 2:5 11:5 3:5
5:0 11:5 7:5 5:5 9:5 5:5 11:5 2:5 11:5 3:5 11:5
11:0 7:5 5:5 9:5 5:5 11:5 2:5 11:5 3:5 11:5 5:5
7:0 5:5 9:5 5:5 11:5 2:5 11:5 3:5 11:5 5:5 7:10
5:0 9:5 5:5 11:5 2:5 11:5 3:5 11:5 5:5 7:10 11:15
9:0 5:5 11:5 2:5 11:5 3:5 11:5 5:5 7:10 11:15 2:5
5:0 11:5 2:5 11:5 3:5 11:5 5:5 7:10 11:15 2:5 9:5
11:0 2:5 11:5 3:5 11:5 5:5 7:10 11:15 2:5 9:5 5:5
2:0 11:5 3:5 11:5 5:5 7:10 11:15 2:5 9:5 5:5 11:5
11:0 3:5 11:5 5:5 7:10 11:15 2:5 9:5 5:5 11:5 7:5
3:0 11:5 5:5 7:10 11:15 2:5 9:5 5:5 11:5 7:5 3:5
11:0 5:5 7:10 11:15 2:5 9:5 5:5 11:5 7:5 3:5 9:5
5:0 7:10 11:15 2:5 9:5 5:5 11:5 7:5 3:5 9:5 7:5
7:0 11:15 2:5 9:5 5:5 11:5 7:5 3:5 9:5 7:5 9:10
11:0 2:5 9:5 5:5 11:5 7:5 3:5 9:5 7:5 9:10 2:5
2:0 9:5 5:5 11:5 7:5 3:5 9:5 7:5 9:10 2:5 11:5
9:0 5:5 11:5 7:5 3:5 9:5 7:5 9:10 2:5 11:5 3:5
5:0 11:5 7:5 3:5 9:5 7:5 9:10 2:5 11:5 3:5 11:5
11:0 7:5 3:5 9:5 7:5 9:10 2:5 11:5 3:5 11:5 5:5
7:0 3:5 9:5 7:5 9:10 2:5 11:5 3:5 11:5 5:5 7:5
3:0 9:5 7:5 9:10 2:5 11:5 3:5 11:5 5:5 7:5 9:15
9:0 7:5 9:10 2:5 11:5 3:5 11:5 5:5 7:5 9:15 2:5
7:0 9:10 2:5 11:5 3:5 11:5 5:5 7:5 9:15 2:5 11:5
9:0 2:5 11:5 3:5 11:5 5:5 7:5 9:15 2:5 11:5 3:5
2:0 11:5 3:5 11:5 5:5 7:5 9:15 2:5 11:5 3:5 9:5
11:0 3:5 11:5 5:5 7:5 9:15 2:5 11:5 3:5 9:5 7:5
3:0 11:5 5:5 7:5 9:15 2:5 11:5 3:5 9:5 7:5 5:5
11:0 5:5 7:5 9:15 2:5 11:5 3:5 9:5 7:5 5:5 9:5
5:0 7:5 9:15 2:5 11:5 3:5 9:5 7:5 5:5 9:5 5:5
7:0 9:15 2:5 11:5 3:5 9:5 7:5 5:5 9:5 5:5 9:5
9:0 2:5 11:5 3:5 9:5 7:5 5:5 9:5 5:5 9:5 7:5
2:0 11:5 3:5 9:5 7:5 5:5 9:5 5:5 9:5 7:5 5:5
11:0 3:5 9:5 7:5 5:5 9:5 5:5 9:5 7:5 5:5 9:5
3:0 9:5 7:5 5:5 9:5 5:5 9:5 7:5 5:5 9:5 5:5
9:0 7:5 5:5 9:5 5:5 9:5 7:5 5:5 9:5 5:5 11:5
7:0 5:5 9:5 5:5 9:5 7:5 5:5 9:5 5:5 11:5 3:5
5:0 9:5 5:5 9:5 7:5 5:5 9:5 5:5 11:5 3:5 7:5
9:0 5:5 9:5 7:5 5:5 9:5 5:5 11:5 3:5 7:5 5:5
5:0 9:5 7:5 5:5 9:5 5:5 11:5 3:5 7:5 5:5 11:5
9:0 7:5 5:5 9:5 5:5 11:5 3:5 7:5 5:5 11:5 7:5
7:0 5:5 9:5 5:5 11:5 3:5 7:5 5:5 11:5 7:5 3:10
5:0 9:5 5:5 11:5 3:5 7:5 5:5 11:5 7:5 3:10 11:5
9:0 5:5 11:5 3:5 7:5 5:5 11:5 7:5 3:10 11:5 5:5
5:0 11:5 3:5 7:5 5:5 11:5 7:5 3:10 11:5 5:5 11:5
11:0 3:5 7:5 5:5 11:5 7:5 3:10 11:5 5:5 11:5 3:5
3:0 7:5 5:5 11:5 7:5 3:10 11:5 5:5 11:5 3:5 9:5
7:0 5:5 11:5 7:5 3:10 11:5 5:5 11:5 3:5 9:5 5:5
5:0 11:5 7:5 3:10 11:5 5:5 11:5 3:5 9:5 5:5 11:5
11:0 7:5 3:10 11:5 5:5 11:5 3:5 9:5 5:5 11:5 7:5
7:0 3:10 11:5 5:5 11:5 3:5 9:5 5:5 11:5 7:5 3:5
3:0 11:5 5:5 11:5 3:5 9:5 5:5 11:5 7:5 3:5 9:5
11:0 5:5 11:5 3:5 9:5 5:5 11:5 7:5 3:5 9:5 5:5
5:0 11:5 3:5 9:5 5:5 11:5 7:5 3:5 9:5 5:5 9:5
11:0 3:5 9:5 5:5 11:5 7:5 3:5 9:5 5:5 9:5 7:5
3:0 9:5 5:5 11:5 7:5 3:5 9:5 5:5 9:5 7:5 3:5
9:0 5:5 11:5 7:5 3:5 9:5 5:5 9:5 7:5 3:5 11:5
5:0 11:5 7:5 3:5 9:5 5:5 9:5 7:5 3:5 11:5 5:5
11:0 7:5 3:5 9:5 5:5 9:5 7:5 3:5 11:5 5:5 11:5
7:0 3:5 9:5 5:5 9:5 7:5 3:5 11:5 5:5 11:5 5:5
3:0 9:5 5:5 9:5 7:5 3:5 11:5 5:5 11:5 5:5 9:10
9:0 5:5 9:5 7:5 3:5 11:5 5:5 11:5 5:5 9:10 7:5
5:0 9:5 7:5 3:5 11:5 5:5 11:5 5:5 9:10 7:5 11:5
9:0 7:5 3:5 11:5 5:5 11:5 5:5 9:10 7:5 11:5 3:5
7:0 3:5 11:5 5:5 11:5 5:5 9:10 7:5 11:5 3:5 9:5
3:0 11:5 5:5 11:5 5:5 9:10 7:5 11:5 3:5 9:5 5:5
11:0 5:5 11:5 5:5 9:10 7:5 11:5 3:5 9:5 5:5 11:5
5:0 11:5 5:5 9:10 7:5 11:5 3:5 9:5 5:5 11:5 5:5
11:0 5:5 9:10 7:5 11:5 3:5 9:5 5:5 11:5 5:5 11:15
5:0 9:10 7:5 11:5 3:5 9:5 5:5 11:5 5:5 11:15 5:5
9:0 7:5 11:5 3:5 9:5 5:5 11:5 5:5 11:15 5:5 11:5
7:0 11:5 3:5 9:5 5:5 11:5 5:5 11:15 5:5 11:5 2:5
11:0 3:5 9:5 5:5 11:5 5:5 11:15 5:5 11:5 2:5 11:5
3:0 9:5 5:5 11:5 5:5 11:15 5:5 11:5 2:5 11:5 5:5
9:0 5:5 11:5 5:5 11:15 5:5 11:5 2:5 11:5 5:5 11:5
5:0 11:5 5:5 11:15 5:5 11:5 2:5 11:5 5:5 11:5 5:5
11:0 5:5 11:15 5:5 11:5 2:5 11:5 5:5 11:5 5:5 7:5
5:0 11:15 5:5 11:5 2:5 11:5 5:5 11:5 5:5 7:5 5:5
11:0 5:5 11:5 2:5 11:5 5:5 11:5 5:5 7:5 5:5 11:5
5:0 11:5 2:5 11:5 5:5 11:5 5:5 7:5 5:5 11:5 5:5
11:0 2:5 11:5 5:5 11:5 5:5 7:5 5:5 11:5 5:5 9:5
2:0 11:5 5:5 11:5 5:5 7:5 5:5 11:5 5:5 9:5 2:5
11:0 5:5 11:5 5:5 7:5 5:5 11:5 5:5 9:5 2:5 11:5
5:0 11:5 5:5 7:5 5:5 11:5 5:5 9:5 2:5 11:5 3:5
11:0 5:5 7:5 5:5 11:5 5:5 9:5 2:5 11:5 3:5 11:5
5:0 7:5 5:5 11:5 5:5 9:5 2:5 11:5 3:5 11:5 5:5
7:0 5:5 11:5 5:5 9:5 2:5 11:5 3:5 11:5 5:5 7:5
5:0 11:5 5:5 9:5 2:5 11:5 3:5 11:5 5:5 7:5 9:15
11:0 5:5 9:5 2:5 11:5 3:5 11:5 5:5 7:5 9:15 3:5
5:0 9:5 2:5 11:5 3:5 11:5 5:5 7:5 9:15 3:5 11:5
9:0 2:5 11:5 3:5 11:5 5:5 7:5 9:15 3:5 11:5 5:5
2:0 11:5 3:5 11:5 5:5 7:5 9:15 3:5 11:5 5:5 9:5
11:0 3:5 11:5 5:5 7:5 9:15 3:5 11:5 5:5 9:5 3:10
3:0 11:5 5:5 7:5 9:15 3:5 11:5 5:5 9:5 3:10 9:5
11:0 5:5 7:5 9:15 3:5 11:5 5:5 9:5 3:10 9:5 5:5
5:0 7:5 9:15 3:5 11:5 5:5 9:5 3:10 9:5 5:5 9:5
7:0 9:15 3:5 11:5 5:5 9:5 3:10 9:5 5:5 9:5 7:5
9:0 3:5 11:5 5:5 9:5 3:10 9:5 5:5 9:5 7:5 3:5
3:0 11:5 5:5 9:5 3:10 9:5 5:5 9:5 7:5 3:5 11:5
11:0 5:5 9:5 3:10 9:5 5:5 9:5 7:5 3:5 11:5 5:5
5:0 9:5 3:10 9:5 5:5 9:5 7:5 3:5 11:5 5:5 11:5
9:0 3:10 9:5 5:5 9:5 7:5 3:5 11:5 5:5 11:5 5:5
3:0 9:5 5:5 9:5 7:5 3:5 11:5 5:5 11:5 5:5 7:5
9:0 5:5 9:5 7:5 3:5 11:5 5:5 11:5 5:5 7:5 5:5
5:0 9:5 7:5 3:5 11:5 5:5 11:5 5:5 7:5 5:5 11:5
9:0 7:5 3:5 11:5 5:5 11:5 5:5 7:5 5:5 11:5 5:5
7:0 3:5 11:5 5:5 11:5 5:5 7:5 5:5 11:5 5:5 9:5
3:0 11:5 5:5 11:5 5:5 7:5 5:5 11:5 5:5 9:5 3:5
11:0 5:5 11:5 5:5 7:5 5:5 11:5 5:5 9:5 3:5 11:5
5:0 11:5 5:5 7:5 5:5 11:5 5:5 9:5 3:5 11:5 5:5
11:0 5:5 7:5 5:5 11:5 5:5 9:5 3:5 11:5 5:5 11:5
5:0 7:5 5:5 11:5 5:5 9:5 3:5 11:5 5:5 11:5 3:5
7:0 5:5 11:5 5:5 9:5 3:5 11:5 5:5 11:5 3:5 9:5
5:0 11:5 5:5 9:5 3:5 11:5 5:5 11:5 3:5 9:5 5:5
11:0 5:5 9:5 3:5 11:5 5:5 11:5 3:5 9:5 5:5 11:5
5:0 9:5 3:5 11:5 5:5 11:5 3:5 9:5 5:5 11:5 5:5
9:0 3:5 11:5 5:5 11:5 3:5 9:5 5:5 11:5 5:5 9:5
3:0 11:5 5:5 11:5 3:5 9:5 5:5 11:5 5:5 9:5 5:5
11:0 5:5 11:5 3:5 9:5 5:5 11:5 5:5 9:5 5:5 9:5
5:0 11:5 3:5 9:5 5:5 11:5 5:5 9:5 5:5 9:5 7:5
11:0 3:5 9:5 5:5 11:5 5:5 9:5 5:5 9:5 7:5 9:5
3:0 9:5 5:5 11:5 5:5 9:5 5:5 9:5 7:5 9:5 2:5
9:0 5:5 11:5 5:5 9:5 5:5 9:5 7:5 9:5 2:5 11:5
5:0 11:5 5:5 9:5 5:5 9:5 7:5 9:5 2:5 11:5 5:5
11:0 5:5 9:5 5:5 9:5 7:5 9:5 2:5 11:5 5:5 11:5
5:0 9:5 5:5 9:5 7:5 9:5 2:5 11:5 5:5 11:5 3:5
9:0 5:5 9:5 7:5 9:5 2:5 11:5 5:5 11:5 3:5 7:5
5:0 9:5 7:5 9:5 2:5 11:5 5:5 11:5 3:5 7:5 5:5
9:0 7:5 9:5 2:5 11:5 5:5 11:5 3:5 7:5 5:5 11:5
7:0 9:5 2:5 11:5 5:5 11:5 3:5 7:5 5:5 11:5 5:5
9:0 2:5 11:5 5:5 11:5 3:5 7:5 5:5 11:5 5:5 9:5
2:0 11:5 5:5 11:5 3:5 7:5 5:5 11:5 5:5 9:5 3:5
11:0 5:5 11:5 3:5 7:5 5:5 11:5 5:5 9:5 3:5 11:5
5:0 11:5 3:5 7:5 5:5 11:5 5:5 9:5 3:5 11:5 5:5
11:0 3:5 7:5 5:5 11:5 5:5 9:5 3:5 11:5 5:5 11:5
3:0 7:5 5:5 11:5 5:5 9:5 3:5 11:5 5:5 11:5 2:5
7:0 5:5 11:5 5:5 9:5 3:5 11:5 5:5 11:5 2:5 9:5
5:0 11:5 5:5 9:5 3:5 11:5 5:5 11:5 2:5 9:5 3:5
11:0 5:5 9:5 3:5 11:5 5:5 11:5 2:5 9:5 3:5 11:5
5:0 9:5 3:5 11:5 5:5 11:5 2:5 9:5 3:5 11:5 5:5
9:0 3:5 11:5 5:5 11:5 2:5 9:5 3:5 11:5 5:5 9:5
3:0 11:5 5:5 11:5 2:5 9:5 3:5 11:5 5:5 9:5 5:5
11:0 5:5 11:5 2:5 9:5 3:5 11:5 5:5 9:5 5:5 9:5
5:0 11:5 2:5 9:5 3:5 11:5 5:5 9:5 5:5 9:5 7:5
11:0 2:5 9:5 3:5 11:5 5:5 9:5 5:5 9:5 7:5 9:5
2:0 9:5 3:5 11:5 5:5 9:5 5:5 9:5 7:5 9:5 2:5
9:0 3:5 11:5 5:5 9:5 5:5 9:5 7:5 9:5 2:5 11:5
3:0 11:5 5:5 9:5 5:5 9:5 7:5 9:5 2:5 11:5 3:5
11:0 5:5 9:5 5:5 9:5 7:5 9:5 2:5 11:5 3:5 11:5
5:0 9:5 5:5 9:5 7:5 9:5 2:5 11:5 3:5 11:5 3:5
9:0 5:5 9:5 7:5 9:5 2:5 11:5 3:5 11:5 3:5 9:5
5:0 9:5 7:5 9:5 2:5 11:5 3:5 11:5 3:5 9:5 5:5
9:0 7:5 9:5 2:5 11:5 3:5 11:5 3:5 9:5 5:5 9:5
7:0 9:5 2:5 11:5 3:5 11:5 3:5 9:5 5:5 9:5 5:5
9:0 2:5 11:5 3:5 11:5 3:5 9:5 5:5 9:5 5:5 9:5
2:0 11:5 3:5 11:5 3:5 9:5 5:5 9:5 5:5 9:5 3:5
11:0 3:5 11:5 3:5 9:5 5:5 9:5 5:5 9:5 3:5 9:5
3:0 11:5 3:5 9:5 5:5 9:5 5:5 9:5 3:5 9:5 5:5
11:0 3:5 9:5 5:5 9:5 5:5 9:5 3:5 9:5 5:5 11:5
3:0 9:5 5:5 9:5 5:5 9:5 3:5 9:5 5:5 11:5 2:5
9:0 5:5 9:5 5:5 9:5 3:5 9:5 5:5 11:5 2:5 11:5
5:0 9:5 5:5 9:5 3:5 9:5 5:5 11:5 2:5 11:5 3:5
9:0 5:5 9:5 3:5 9:5 5:5 11:5 2:5 11:5 3:5 11:5
5:0 9:5 3:5 9:5 5:5 11:5 2:5 11:5 3:5 11:5 3:5
9:0 3:5 9:5 5:5 11:5 2:5 11:5 3:5 11:5 3:5 5:5
3:0 9:5 5:5 11:5 2:5 11:5 3:5 11:5 3:5 5:5 11:10
9:0 5:5 11:5 2:5 11:5 3:5 11:5 3:5 5:5 11:10 5:5
5:0 11:5 2:5 11:5 3:5 11:5 3:5 5:5 11:10 5:5 11:5
11:0 2:5 11:5 3:5 11:5 3:5 5:5 11:10 5:5 11:5 2:5
2:0 11:5 3:5 11:5 3:5 5:5 11:10 5:5 11:5 2:5 11:5
11:0 3:5 11:5 3:5 5:5 11:10 5:5 11:5 2:5 11:5 5:5
3:0 11:5 3:5 5:5 11:10 5:5 11:5 2:5 11:5 5:5 11:5
11:0 3:5 5:5 11:10 5:5 11:5 2:5 11:5 5:5 11:5 5:5
3:0 5:5 11:10 5:5 11:5 2:5 11:5 5:5 11:5 5:5 7:5
5:0 11:10 5:5 11:5 2:5 11:5 5:5 11:5 5:5 7:5 5:25
11:0 5:5 11:5 2:5 11:5 5:5 11:5 5:5 7:5 5:25 11:5
5:0 11:5 2:5 11:5 5:5 11:5 5:5 7:5 5:25 11:5 5:5
11:0 2:5 11:5 5:5 11:5 5:5 7:5 5:25 11:5 5:5 11:5
2:0 11:5 5:5 11:5 5:5 7:5 5:25 11:5 5:5 11:5 3:5
11:0 5:5 11:5 5:5 7:5 5:25 11:5 5:5 11:5 3:5 9:5
5:0 11:5 5:5 7:5 5:25 11:5 5:5 11:5 3:5 9:5 5:5
11:0 5:5 7:5 5:25 11:5 5:5 11:5 3:5 9:5 5:5 11:5
5:0 7:5 5:25 11:5 5:5 11:5 3:5 9:5 5:5 11:5 5:5
7:0 5:25 11:5 5:5 11:5 3:5 9:5 5:5 11:5 5:5 7:5
5:0 11:5 5:5 11:5 3:5 9:5 5:5 11:5 5:5 7:5 5:5
11:0 5:5 11:5 3:5 9:5 5:5 11:5 5:5 7:5 5:5 11:5
5:0 11:5 3:5 9:5 5:5 11:5 5:5 7:5 5:5 11:5 5:5
11:0 3:5 9:5 5:5 11:5 5:5 7:5 5:5 11:5 5:5 9:5
3:0 9:5 5:5 11:5 5:5 7:5 5:5 11:5 5:5 9:5 2:5
9:0 5:5 11:5 5:5 7:5 5:5 11:5 5:5 9:5 2:5 11:5
5:0 11:5 5:5 7:5 5:5 11:5 5:5 9:5 2:5 11:5 3:5
11:0 5:5 7:5 5:5 11:5 5:5 9:5 2:5 11:5 3:5 11:5
5:0 7:5 5:5 11:5 5:5 9:5 2:5 11:5 3:5 11:5 5:5
7:0 5:5 11:5 5:5 9:5 2:5 11:5 3:5 11:5 5:5 7:5
5:0 11:5 5:5 9:5 2:5 11:5 3:5 11:5 5:5 7:5 9:10
11:0 5:5 9:5 2:5 11:5 3:5 11:5 5:5 7:5 9:10 11:5
5:0 9:5 2:5 11:5 3:5 11:5 5:5 7:5 9:10 11:5 2:5
9:0 2:5 11:5 3:5 11:5 5:5 7:5 9:10 11:5 2:5 9:5
2:0 11:5 3:5 11:5 5:5 7:5 9:10 11:5 2:5 9:5 3:5
11:0 3:5 11:5 5:5 7:5 9:10 11:5 2:5 9:5 3:5 11:5
3:0 11:5 5:5 7:5 9:10 11:5 2:5 9:5 3:5 11:5 5:5
11:0 5:5 7:5 9:10 11:5 2:5 9:5 3:5 11:5 5:5 7:5
5:0 7:5 9:10 11:5 2:5 9:5 3:5 11:5 5:5 7:5 5:5
7:0 9:10 11:5 2:5 9:5 3:5 11:5 5:5 7:5 5:5 7:5
9:0 11:5 2:5 9:5 3:5 11:5 5:5 7:5 5:5 7:5 9:5
11:0 2:5 9:5 3:5 11:5 5:5 7:5 5:5 7:5 9:5 3:10
2:0 9:5 3:5 11:5 5:5 7:5 5:5 7:5 9:5 3:10 11:5
9:0 3:5 11:5 5:5 7:5 5:5 7:5 9:5 3:10 11:5 5:5
3:0 11:5 5:5 7:5 5:5 7:5 9:5 3:10 11:5 5:5 11:5
11:0 5:5 7:5 5:5 7:5 9:5 3:10 11:5 5:5 11:5 3:5
5:0 7:5 5:5 7:5 9:5 3:10 11:5 5:5 11:5 3:5 9:5
7:0 5:5 7:5 9:5 3:10 11:5 5:5 11:5 3:5 9:5 5:5
5:0 7:5 9:5 3:10 11:5 5:5 11:5 3:5 9:5 5:5 9:5
7:0 9:5 3:10 11:5 5:5 11:5 3:5 9:5 5:5 9:5 7:5
9:0 3:10 11:5 5:5 11:5 3:5 9:5 5:5 9:5 7:5 9:5
3:0 11:5 5:5 11:5 3:5 9:5 5:5 9:5 7:5 9:5 3:5
11:0 5:5 11:5 3:5 9:5 5:5 9:5 7:5 9:5 3:5 11:5
5:0 11:5 3:5 9:5 5:5 9:5 7:5 9:5 3:5 11:5 3:5
11:0 3:5 9:5 5:5 9:5 7:5 9:5 3:5 11:5 3:5 11:5
3:0 9:5 5:5 9:5 7:5 9:5 3:5 11:5 3:5 11:5 3:5
9:0 5:5 9:5 7:5 9:5 3:5 11:5 3:5 11:5 3:5 9:5
5:0 9:5 7:5 9:5 3:5 11:5 3:5 11:5 3:5 9:5 3:5
9:0 7:5 9:5 3:5 11:5 3:5 11:5 3:5 9:5 3:5 11:5
7:0 9:5 3:5 11:5 3:5 11:5 3:5 9:5 3:5 11:5 5:5
9:0 3:5 11:5 3:5 11:5 3:5 9:5 3:5 11:5 5:5 7:5
3:0 11:5 3:5 11:5 3:5 9:5 3:5 11:5 5:5 7:5 3:5
11:0 3:5 11:5 3:5 9:5 3:5 11:5 5:5 7:5 3:5 11:5
3:0 11:5 3:5 9:5 3:5 11:5 5:5 7:5 3:5 11:5 5:5
11:0 3:5 9:5 3:5 11:5 5:5 7:5 3:5 11:5 5:5 11:5
3:0 9:5 3:5 11:5 5:5 7:5 3:5 11:5 5:5 11:5 2:5
9:0 3:5 11:5 5:5 7:5 3:5 11:5 5:5 11:5 2:5 9:5
3:0 11:5 5:5 7:5 3:5 11:5 5:5 11:5 2:5 9:5 5:5
11:0 5:5 7:5 3:5 11:5 5:5 11:5 2:5 9:5 5:5 9:5
5:0 7:5 3:5 11:5 5:5 11:5 2:5 9:5 5:5 9:5 7:5
7:0 3:5 11:5 5:5 11:5 2:5 9:5 5:5 9:5 7:5 3:5
3:0 11:5 5:5 11:5 2:5 9:5 5:5 9:5 7:5 3:5 11:5
11:0 5:5 11:5 2:5 9:5 5:5 9:5 7:5 3:5 11:5 3:5
5:0 11:5 2:5 9:5 5:5 9:5 7:5 3:5 11:5 3:5 11:5
11:0 2:5 9:5 5:5 9:5 7:5 3:5 11:5 3:5 11:5 3:5
2:0 9:5 5:5 9:5 7:5 3:5 11:5 3:5 11:5 3:5 9:5
9:0 5:5 9:5 7:5 3:5 11:5 3:5 11:5 3:5 9:5 3:5
5:0 9:5 7:5 3:5 11:5 3:5 11:5 3:5 9:5 3:5 9:5
9:0 7:5 3:5 11:5 3:5 11:5 3:5 9:5 3:5 9:5 7:5
7:0 3:5 11:5 3:5 11:5 3:5 9:5 3:5 9:5 7:5 5:10
3:0 11:5 3:5 11:5 3:5 9:5 3:5 9:5 7:5 5:10 11:5
11:0 3:5 11:5 3:5 9:5 3:5 9:5 7:5 5:10 11:5 5:5
3:0 11:5 3:5 9:5 3:5 9:5 7:5 5:10 11:5 5:5 11:5
11:0 3:5 9:5 3:5 9:5 7:5 5:10 11:5 5:5 11:5 3:5
3:0 9:5 3:5 9:5 7:5 5:10 11:5 5:5 11:5 3:5 9:5
9:0 3:5 9:5 7:5 5:10 11:5 5:5 11:5 3:5 9:5 5:5
3:0 9:5 7:5 5:10 11:5 5:5 11:5 3:5 9:5 5:5 11:5
9:0 7:5 5:10 11:5 5:5 11:5 3:5 9:5 5:5 11:5 5:5
7:0 5:10 11:5 5:5 11:5 3:5 9:5 5:5 11:5 5:5 9:5
5:0 11:5 5:5 11:5 3:5 9:5 5:5 11:5 5:5 9:5 3:5
11:0 5:5 11:5 3:5 9:5 5:5 11:5 5:5 9:5 3:5 9:5
5:0 11:5 3:5 9:5 5:5 11:5 5:5 9:5 3:5 9:5 5:5
11:0 3:5 9:5 5:5 11:5 5:5 9:5 3:5 9:5 5:5 9:5
3:0 9:5 5:5 11:5 5:5 9:5 3:5 9:5 5:5 9:5 2:5
9:0 5:5 11:5 5:5 9:5 3:5 9:5 5:5 9:5 2:5 11:5
5:0 11:5 5:5 9:5 3:5 9:5 5:5 9:5 2:5 11:5 5:5
11:0 5:5 9:5 3:5 9:5 5:5 9:5 2:5 11:5 5:5 11:5
5:0 9:5 3:5 9:5 5:5 9:5 2:5 11:5 5:5 11:5 7:5
9:0 3:5 9:5 5:5 9:5 2:5 11:5 5:5 11:5 7:5 5:5
3:0 9:5 5:5 9:5 2:5 11:5 5:5 11:5 7:5 5:5 7:5
9:0 5:5 9:5 2:5 11:5 5:5 11:5 7:5 5:5 7:5 11:10
5:0 9:5 2:5 11:5 5:5 11:5 7:5 5:5 7:5 11:10 2:5
9:0 2:5 11:5 5:5 11:5 7:5 5:5 7:5 11:10 2:5 7:5
2:0 11:5 5:5 11:5 7:5 5:5 7:5 11:10 2:5 7:5 5:10
11:0 5:5 11:5 7:5 5:5 7:5 11:10 2:5 7:5 5:10 9:5
5:0 11:5 7:5 5:5 7:5 11:10 2:5 7:5 5:10 9:5 5:5
11:0 7:5 5:5 7:5 11:10 2:5 7:5 5:10 9:5 5:5 7:5
7:0 5:5 7:5 11:10 2:5 7:5 5:10 9:5 5:5 7:5 11:5
5:0 7:5 11:10 2:5 7:5 5:10 9:5 5:5 7:5 11:5 3:5
7:0 11:10 2:5 7:5 5:10 9:5 5:5 7:5 11:5 3:5 11:5
11:0 2:5 7:5 5:10 9:5 5:5 7:5 11:5 3:5 11:5 2:5
2:0 7:5 5:10 9:5 5:5 7:5 11:5 3:5 11:5 2:5 11:5
7:0 5:10 9:5 5:5 7:5 11:5 3:5 11:5 2:5 11:5 5:5
5:0 9:5 5:5 7:5 11:5 3:5 11:5 2:5 11:5 5:5 9:5
9:0 5:5 7:5 11:5 3:5 11:5 2:5 11:5 5:5 9:5 7:5
5:0 7:5 11:5 3:5 11:5 2:5 11:5 5:5 9:5 7:5 5:5
7:0 11:5 3:5 11:5 2:5 11:5 5:5 9:5 7:5 5:5 7:5
11:0 3:5 11:5 2:5 11:5 5:5 9:5 7:5 5:5 7:5 9:10
3:0 11:5 2:5 11:5 5:5 9:5 7:5 5:5 7:5 9:10 7:5
11:0 2:5 11:5 5:5 9:5 7:5 5:5 7:5 9:10 7:5 3:5
2:0 11:5 5:5 9:5 7:5 5:5 7:5 9:10 7:5 3:5 11:5
11:0 5:5 9:5 7:5 5:5 7:5 9:10 7:5 3:5 11:5 3:5
5:0 9:5 7:5 5:5 7:5 9:10 7:5 3:5 11:5 3:5 11:5
9:0 7:5 5:5 7:5 9:10 7:5 3:5 11:5 3:5 11:5 5:5
7:0 5:5 7:5 9:10 7:5 3:5 11:5 3:5 11:5 5:5 9:10
5:0 7:5 9:10 7:5 3:5 11:5 3:5 11:5 5:5 9:10 7:5
7:0 9:10 7:5 3:5 11:5 3:5 11:5 5:5 9:10 7:5 11:5
9:0 7:5 3:5 11:5 3:5 11:5 5:5 9:10 7:5 11:5 2:5
7:0 3:5 11:5 3:5 11:5 5:5 9:10 7:5 11:5 2:5 9:5
3:0 11:5 3:5 11:5 5:5 9:10 7:5 11:5 2:5 9:5 5:5
11:0 3:5 11:5 5:5 9:10 7:5 11:5 2:5 9:5 5:5 9:5
3:0 11:5 5:5 9:10 7:5 11:5 2:5 9:5 5:5 9:5 7:5
11:0 5:5 9:10 7:5 11:5 2:5 9:5 5:5 9:5 7:5 3:5
5:0 9:10 7:5 11:5 2:5 9:5 5:5 9:5 7:5 3:5 9:5
9:0 7:5 11:5 2:5 9:5 5:5 9:5 7:5 3:5 9:5 5:5
7:0 11:5 2:5 9:5 5:5 9:5 7:5 3:5 9:5 5:5 9:5
11:0 2:5 9:5 5:5 9:5 7:5 3:5 9:5 5:5 9:5 7:5
2:0 9:5 5:5 9:5 7:5 3:5 9:5 5:5 9:5 7:5 3:5
9:0 5:5 9:5 7:5 3:5 9:5 5:5 9:5 7:5 3:5 11:5
5:0 9:5 7:5 3:5 9:5 5:5 9:5 7:5 3:5 11:5 5:5
9:0 7:5 3:5 9:5 5:5 9:5 7:5 3:5 11:5 5:5 9:5
7:0 3:5 9:5 5:5 9:5 7:5 3:5 11:5 5:5 9:5 7:5
3:0 9:5 5:5 9:5 7:5 3:5 11:5 5:5 9:5 7:5 5:5
9:0 5:5 9:5 7:5 3:5 11:5 5:5 9:5 7:5 5:5 11:5
5:0 9:5 7:5 3:5 11:5 5:5 9:5 7:5 5:5 11:5 5:5
9:0 7:5 3:5 11:5 5:5 9:5 7:5 5:5 11:5 5:5 11:5
7:0 3:5 11:5 5:5 9:5 7:5 5:5 11:5 5:5 11:5 3:5
3:0 11:5 5:5 9:5 7:5 5:5 11:5 5:5 11:5 3:5 9:5
11:0 5:5 9:5 7:5 5:5 11:5 5:5 11:5 3:5 9:5 5:5
5:0 9:5 7:5 5:5 11:5 5:5 11:5 3:5 9:5 5:5 11:5
9:0 7:5 5:5 11:5 5:5 11:5 3:5 9:5 5:5 11:5 5:5
7:0 5:5 11:5 5:5 11:5 3:5 9:5 5:5 11:5 5:5 7:5
5:0 11:5 5:5 11:5 3:5 9:5 5:5 11:5 5:5 7:5 5:5
11:0 5:5 11:5 3:5 9:5 5:5 11:5 5:5 7:5 5:5 9:5
5:0 11:5 3:5 9:5 5:5 11:5 5:5 7:5 5:5 9:5 5:5
11:0 3:5 9:5 5:5 11:5 5:5 7:5 5:5 9:5 5:5 11:5
3:0 9:5 5:5 11:5 5:5 7:5 5:5 9:5 5:5 11:5 2:5
9:0 5:5 11:5 5:5 7:5 5:5 9:5 5:5 11:5 2:5 9:5
5:0 11:5 5:5 7:5 5:5 9:5 5:5 11:5 2:5 9:5 5:5
11:0 5:5 7:5 5:5 9:5 5:5 11:5 2:5 9:5 5:5 11:5
5:0 7:5 5:5 9:5 5:5 11:5 2:5 9:5 5:5 11:5 7:5
7:0 5:5 9:5 5:5 11:5 2:5 9:5 5:5 11:5 7:5 5:5
5:0 9:5 5:5 11:5 2:5 9:5 5:5 11:5 7:5 5:5 7:5
9:0 5:5 11:5 2:5 9:5 5:5 11:5 7:5 5:5 7:5 9:10
5:0 11:5 2:5 9:5 5:5 11:5 7:5 5:5 7:5 9:10 5:5
11:0 2:5 9:5 5:5 11:5 7:5 5:5 7:5 9:10 5:5 9:10
2:0 9:5 5:5 11:5 7:5 5:5 7:5 9:10 5:5 9:10 5:5
9:0 5:5 11:5 7:5 5:5 7:5 9:10 5:5 9:10 5:5 9:5
5:0 11:5 7:5 5:5 7:5 9:10 5:5 9:10 5:5 9:5 5:5
11:0 7:5 5:5 7:5 9:10 5:5 9:10 5:5 9:5 5:5 7:5
7:0 5:5 7:5 9:10 5:5 9:10 5:5 9:5 5:5 7:5 9:5
5:0 7:5 9:10 5:5 9:10 5:5 9:5 5:5 7:5 9:5 7:5
7:0 9:10 5:5 9:10 5:5 9:5 5:5 7:5 9:5 7:5 11:5
9:0 5:5 9:10 5:5 9:5 5:5 7:5 9:5 7:5 11:5 2:5
5:0 9:10 5:5 9:5 5:5 7:5 9:5 7:5 11:5 2:5 11:5
9:0 5:5 9:5 5:5 7:5 9:5 7:5 11:5 2:5 11:5 3:5
5:0 9:5 5:5 7:5 9:5 7:5 11:5 2:5 11:5 3:5 11:5
9:0 5:5 7:5 9:5 7:5 11:5 2:5 11:5 3:5 11:5 3:5
5:0 7:5 9:5 7:5 11:5 2:5 11:5 3:5 11:5 3:5 7:5
7:0 9:5 7:5 11:5 2:5 11:5 3:5 11:5 3:5 7:5 9:10
9:0 7:5 11:5 2:5 11:5 3:5 11:5 3:5 7:5 9:10 7:5
7:0 11:5 2:5 11:5 3:5 11:5 3:5 7:5 9:10 7:5 9:5
11:0 2:5 11:5 3:5 11:5 3:5 7:5 9:10 7:5 9:5 3:5
2:0 11:5 3:5 11:5 3:5 7:5 9:10 7:5 9:5 3:5 11:5
11:0 3:5 11:5 3:5 7:5 9:10 7:5 9:5 3:5 11:5 3:5
3:0 11:5 3:5 7:5 9:10 7:5 9:5 3:5 11:5 3:5 11:5
11:0 3:5 7:5 9:10 7:5 9:5 3:5 11:5 3:5 11:5 3:5
3:0 7:5 9:10 7:5 9:5 3:5 11:5 3:5 11:5 3:5 7:5
7:0 9:10 7:5 9:5 3:5 11:5 3:5 11:5 3:5 7:5 9:10
9:0 7:5 9:5 3:5 11:5 3:5 11:5 3:5 7:5 9:10 11:5
7:0 9:5 3:5 11:5 3:5 11:5 3:5 7:5 9:10 11:5 3:5
9:0 3:5 11:5 3:5 11:5 3:5 7:5 9:10 11:5 3:5 9:5
3:0 11:5 3:5 11:5 3:5 7:5 9:10 11:5 3:5 9:5 7:5
11:0 3:5 11:5 3:5 7:5 9:10 11:5 3:5 9:5 7:5 9:10
3:0 11:5 3:5 7:5 9:10 11:5 3:5 9:5 7:5 9:10 5:5
11:0 3:5 7:5 9:10 11:5 3:5 9:5 7:5 9:10 5:5 7:5
3:0 7:5 9:10 11:5 3:5 9:5 7:5 9:10 5:5 7:5 9:10
7:0 9:10 11:5 3:5 9:5 7:5 9:10 5:5 7:5 9:10 3:10
9:0 11:5 3:5 9:5 7:5 9:10 5:5 7:5 9:10 3:10 11:5
11:0 3:5 9:5 7:5 9:10 5:5 7:5 9:10 3:10 11:5 3:5
3:0 9:5 7:5 9:10 5:5 7:5 9:10 3:10 11:5 3:5 9:5
9:0 7:5 9:10 5:5 7:5 9:10 3:10 11:5 3:5 9:5 7:5
7:0 9:10 5:5 7:5 9:10 3:10 11:5 3:5 9:5 7:5 5:5
9:0 5:5 7:5 9:10 3:10 11:5 3:5 9:5 7:5 5:5 7:5
5:0 7:5 9:10 3:10 11:5 3:5 9:5 7:5 5:5 7:5 9:15
7:0 9:10 3:10 11:5 3:5 9:5 7:5 5:5 7:5 9:15 3:5
9:0 3:10 11:5 3:5 9:5 7:5 5:5 7:5 9:15 3:5 11:5
3:0 11:5 3:5 9:5 7:5 5:5 7:5 9:15 3:5 11:5 3:5
11:0 3:5 9:5 7:5 5:5 7:5 9:15 3:5 11:5 3:5 11:5
3:0 9:5 7:5 5:5 7:5 9:15 3:5 11:5 3:5 11:5 3:5
9:0 7:5 5:5 7:5 9:15 3:5 11:5 3:5 11:5 3:5 9:5
7:0 5:5 7:5 9:15 3:5 11:5 3:5 11:5 3:5 9:5 3:5
5:0 7:5 9:15 3:5 11:5 3:5 11:5 3:5 9:5 3:5 9:5
7:0 9:15 3:5 11:5 3:5 11:5 3:5 9:5 3:5 9:5 5:5
9:0 3:5 11:5 3:5 11:5 3:5 9:5 3:5 9:5 5:5 7:5
3:0 11:5 3:5 11:5 3:5 9:5 3:5 9:5 5:5 7:5 3:5
11:0 3:5 11:5 3:5 9:5 3:5 9:5 5:5 7:5 3:5 11:5
3:0 11:5 3:5 9:5 3:5 9:5 5:5 7:5 3:5 11:5 5:5
11:0 3:5 9:5 3:5 9:5 5:5 7:5 3:5 11:5 5:5 11:5
3:0 9:5 3:5 9:5 5:5 7:5 3:5 11:5 5:5 11:5 3:5
9:0 3:5 9:5 5:5 7:5 3:5 11:5 5:5 11:5 3:5 9:5
3:0 9:5 5:5 7:5 3:5 11:5 5:5 11:5 3:5 9:5 7:5
9:0 5:5 7:5 3:5 11:5 5:5 11:5 3:5 9:5 7:5 11:10
5:0 7:5 3:5 11:5 5:5 11:5 3:5 9:5 7:5 11:10 2:5
7:0 3:5 11:5 5:5 11:5 3:5 9:5 7:5 11:10 2:5 11:5
3:0 11:5 5:5 11:5 3:5 9:5 7:5 11:10 2:5 11:5 3:5
11:0 5:5 11:5 3:5 9:5 7:5 11:10 2:5 11:5 3:5 11:5
5:0 11:5 3:5 9:5 7:5 11:10 2:5 11:5 3:5 11:5 5:5
11:0 3:5 9:5 7:5 11:10 2:5 11:5 3:5 11:5 5:5 7:5
3:0 9:5 7:5 11:10 2:5 11:5 3:5 11:5 5:5 7:5 5:5
9:0 7:5 11:10 2:5 11:5 3:5 11:5 5:5 7:5 5:5 9:5
7:0 11:10 2:5 11:5 3:5 11:5 5:5 7:5 5:5 9:5 3:5
11:0 2:5 11:5 3:5 11:5 5:5 7:5 5:5 9:5 3:5 11:5
2:0 11:5 3:5 11:5 5:5 7:5 5:5 9:5 3:5 11:5 3:5
11:0 3:5 11:5 5:5 7:5 5:5 9:5 3:5 11:5 3:5 11:5
3:0 11:5 5:5 7:5 5:5 9:5 3:5 11:5 3:5 11:5 3:5
11:0 5:5 7:5 5:5 9:5 3:5 11:5 3:5 11:5 3:5 11:5
5:0 7:5 5:5 9:5 3:5 11:5 3:5 11:5 3:5 11:5 3:5
7:0 5:5 9:5 3:5 11:5 3:5 11:5 3:5 11:5 3:5 7:5
5:0 9:5 3:5 11:5 3:5 11:5 3:5 11:5 3:5 7:5 11:15
9:0 3:5 11:5 3:5 11:5 3:5 11:5 3:5 7:5 11:15 2:5
3:0 11:5 3:5 11:5 3:5 11:5 3:5 7:5 11:15 2:5 11:5
11:0 3:5 11:5 3:5 11:5 3:5 7:5 11:15 2:5 11:5 3:5
3:0 11:5 3:5 11:5 3:5 7:5 11:15 2:5 11:5 3:5 11:5
11:0 3:5 11:5 3:5 7:5 11:15 2:5 11:5 3:5 11:5 7:5
3:0 11:5 3:5 7:5 11:15 2:5 11:5 3:5 11:5 7:5 5:5
11:0 3:5 7:5 11:15 2:5 11:5 3:5 11:5 7:5 5:5 11:10
3:0 7:5 11:15 2:5 11:5 3:5 11:5 7:5 5:5 11:10 9:5
7:0 11:15 2:5 11:5 3:5 11:5 7:5 5:5 11:10 9:5 5:5
11:0 2:5 11:5 3:5 11:5 7:5 5:5 11:10 9:5 5:5 3:5
2:0 11:5 3:5 11:5 7:5 5:5 11:10 9:5 5:5 3:5 9:5
11:0 3:5 11:5 7:5 5:5 11:10 9:5 5:5 3:5 9:5 5:5
3:0 11:5 7:5 5:5 11:10 9:5 5:5 3:5 9:5 5:5 9:5
11:0 7:5 5:5 11:10 9:5 5:5 3:5 9:5 5:5 9:5 7:5
7:0 5:5 11:10 9:5 5:5 3:5 9:5 5:5 9:5 7:5 5:5
5:0 11:10 9:5 5:5 3:5 9:5 5:5 9:5 7:5 5:5 9:5
11:0 9:5 5:5 3:5 9:5 5:5 9:5 7:5 5:5 9:5 5:5
9:0 5:5 3:5 9:5 5:5 9:5 7:5 5:5 9:5 5:5 9:5
5:0 3:5 9:5 5:5 9:5 7:5 5:5 9:5 5:5 9:5 3:5
3:0 9:5 5:5 9:5 7:5 5:5 9:5 5:5 9:5 3:5 5:5
9:0 5:5 9:5 7:5 5:5 9:5 5:5 9:5 3:5 5:5 11:5
5:0 9:5 7:5 5:5 9:5 5:5 9:5 3:5 5:5 11:5 5:5
9:0 7:5 5:5 9:5 5:5 9:5 3:5 5:5 11:5 5:5 11:5
7:0 5:5 9:5 5:5 9:5 3:5 5:5 11:5 5:5 11:5 3:5
5:0 9:5 5:5 9:5 3:5 5:5 11:5 5:5 11:5 3:5 7:5
9:0 5:5 9:5 3:5 5:5 11:5 5:5 11:5 3:5 7:5 9:5
5:0 9:5 3:5 5:5 11:5 5:5 11:5 3:5 7:5 9:5 7:5
9:0 3:5 5:5 11:5 5:5 11:5 3:5 7:5 9:5 7:5 9:5
3:0 5:5 11:5 5:5 11:5 3:5 7:5 9:5 7:5 9:5 3:5
5:0 11:5 5:5 11:5 3:5 7:5 9:5 7:5 9:5 3:5 11:5
11:0 5:5 11:5 3:5 7:5 9:5 7:5 9:5 3:5 11:5 3:5
5:0 11:5 3:5 7:5 9:5 7:5 9:5 3:5 11:5 3:5 11:5
11:0 3:5 7:5 9:5 7:5 9:5 3:5 11:5 3:5 11:5 5:5
3:0 7:5 9:5 7:5 9:5 3:5 11:5 3:5 11:5 5:5 7:5
7:0 9:5 7:5 9:5 3:5 11:5 3:5 11:5 5:5 7:5 3:5
9:0 7:5 9:5 3:5 11:5 3:5 11:5 5:5 7:5 3:5 11:5
7:0 9:5 3:5 11:5 3:5 11:5 5:5 7:5 3:5 11:5 5:5
9:0 3:5 11:5 3:5 11:5 5:5 7:5 3:5 11:5 5:5 9:5
3:0 11:5 3:5 11:5 5:5 7:5 3:5 11:5 5:5 9:5 2:5
11:0 3:5 11:5 5:5 7:5 3:5 11:5 5:5 9:5 2:5 11:5
3:0 11:5 5:5 7:5 3:5 11:5 5:5 9:5 2:5 11:5 5:5
11:0 5:5 7:5 3:5 11:5 5:5 9:5 2:5 11:5 5:5 11:5
5:0 7:5 3:5 11:5 5:5 9:5 2:5 11:5 5:5 11:5 5:5
7:0 3:5 11:5 5:5 9:5 2:5 11:5 5:5 11:5 5:5 7:5
3:0 11:5 5:5 9:5 2:5 11:5 5:5 11:5 5:5 7:5 9:15
11:0 5:5 9:5 2:5 11:5 5:5 11:5 5:5 7:5 9:15 2:5
5:0 9:5 2:5 11:5 5:5 11:5 5:5 7:5 9:15 2:5 11:5
9:0 2:5 11:5 5:5 11:5 5:5 7:5 9:15 2:5 11:5 3:5
2:0 11:5 5:5 11:5 5:5 7:5 9:15 2:5 11:5 3:5 11:5
11:0 5:5 11:5 5:5 7:5 9:15 2:5 11:5 3:5 11:5 7:5
5:0 11:5 5:5 7:5 9:15 2:5 11:5 3:5 11:5 7:5 5:5
11:0 5:5 7:5 9:15 2:5 11:5 3:5 11:5 7:5 5:5 7:5
5:0 7:5 9:15 2:5 11:5 3:5 11:5 7:5 5:5 7:5 9:10
7:0 9:15 2:5 11:5 3:5 11:5 7:5 5:5 7:5 9:10 7:5
9:0 2:5 11:5 3:5 11:5 7:5 5:5 7:5 9:10 7:5 3:5
2:0 11:5 3:5 11:5 7:5 5:5 7:5 9:10 7:5 3:5 11:5
11:0 3:5 11:5 7:5 5:5 7:5 9:10 7:5 3:5 11:5 5:5
3:0 11:5 7:5 5:5 7:5 9:10 7:5 3:5 11:5 5:5 11:5
11:0 7:5 5:5 7:5 9:10 7:5 3:5 11:5 5:5 11:5 3:5
7:0 5:5 7:5 9:10 7:5 3:5 11:5 5:5 11:5 3:5 9:5
5:0 7:5 9:10 7:5 3:5 11:5 5:5 11:5 3:5 9:5 3:5
7:0 9:10 7:5 3:5 11:5 5:5 11:5 3:5 9:5 3:5 11:5
9:0 7:5 3:5 11:5 5:5 11:5 3:5 9:5 3:5 11:5 5:5
7:0 3:5 11:5 5:5 11:5 3:5 9:5 3:5 11:5 5:5 9:5
3:0 11:5 5:5 11:5 3:5 9:5 3:5 11:5 5:5 9:5 3:5
11:0 5:5 11:5 3:5 9:5 3:5 11:5 5:5 9:5 3:5 9:5
5:0 11:5 3:5 9:5 3:5 11:5 5:5 9:5 3:5 9:5 5:5
11:0 3:5 9:5 3:5 11:5 5:5 9:5 3:5 9:5 5:5 11:5
3:0 9:5 3:5 11:5 5:5 9:5 3:5 9:5 5:5 11:5 3:5
9:0 3:5 11:5 5:5 9:5 3:5 9:5 5:5 11:5 3:5 7:5
3:0 11:5 5:5 9:5 3:5 9:5 5:5 11:5 3:5 7:5 9:5
11:0 5:5 9:5 3:5 9:5 5:5 11:5 3:5 7:5 9:5 7:5
5:0 9:5 3:5 9:5 5:5 11:5 3:5 7:5 9:5 7:5 9:5
9:0 3:5 9:5 5:5 11:5 3:5 7:5 9:5 7:5 9:5 3:5
3:0 9:5 5:5 11:5 3:5 7:5 9:5 7:5 9:5 3:5 11:5
9:0 5:5 11:5 3:5 7:5 9:5 7:5 9:5 3:5 11:5 3:5
5:0 11:5 3:5 7:5 9:5 7:5 9:5 3:5 11:5 3:5 11:5
11:0 3:5 7:5 9:5 7:5 9:5 3:5 11:5 3:5 11:5 5:5
3:0 7:5 9:5 7:5 9:5 3:5 11:5 3:5 11:5 5:5 9:10
7:0 9:5 7:5 9:5 3:5 11:5 3:5 11:5 5:5 9:10 7:5
9:0 7:5 9:5 3:5 11:5 3:5 11:5 5:5 9:10 7:5 3:15
7:0 9:5 3:5 11:5 3:5 11:5 5:5 9:10 7:5 3:15 11:5
9:0 3:5 11:5 3:5 11:5 5:5 9:10 7:5 3:15 11:5 3:5
3:0 11:5 3:5 11:5 5:5 9:10 7:5 3:15 11:5 3:5 11:5
11:0 3:5 11:5 5:5 9:10 7:5 3:15 11:5 3:5 11:5 3:5
3:0 11:5 5:5 9:10 7:5 3:15 11:5 3:5 11:5 3:5 9:5
11:0 5:5 9:10 7:5 3:15 11:5 3:5 11:5 3:5 9:5 7:5
5:0 9:10 7:5 3:15 11:5 3:5 11:5 3:5 9:5 7:5 11:10
9:0 7:5 3:15 11:5 3:5 11:5 3:5 9:5 7:5 11:10 2:5
7:0 3:15 11:5 3:5 11:5 3:5 9:5 7:5 11:10 2:5 9:5
3:0 11:5 3:5 11:5 3:5 9:5 7:5 11:10 2:5 9:5 5:5
11:0 3:5 11:5 3:5 9:5 7:5 11:10 2:5 9:5 5:5 11:5
3:0 11:5 3:5 9:5 7:5 11:10 2:5 9:5 5:5 11:5 5:5
11:0 3:5 9:5 7:5 11:10 2:5 9:5 5:5 11:5 5:5 7:5
3:0 9:5 7:5 11:10 2:5 9:5 5:5 11:5 5:5 7:5 5:5
9:0 7:5 11:10 2:5 9:5 5:5 11:5 5:5 7:5 5:5 11:5
7:0 11:10 2:5 9:5 5:5 11:5 5:5 7:5 5:5 11:5 3:5
11:0 2:5 9:5 5:5 11:5 5:5 7:5 5:5 11:5 3:5 11:5
2:0 9:5 5:5 11:5 5:5 7:5 5:5 11:5 3:5 11:5 2:5
9:0 5:5 11:5 5:5 7:5 5:5 11:5 3:5 11:5 2:5 11:5
5:0 11:5 5:5 7:5 5:5 11:5 3:5 11:5 2:5 11:5 5:5
11:0 5:5 7:5 5:5 11:5 3:5 11:5 2:5 11:5 5:5 11:5
5:0 7:5 5:5 11:5 3:5 11:5 2:5 11:5 5:5 11:5 3:5
7:0 5:5 11:5 3:5 11:5 2:5 11:5 5:5 11:5 3:5 9:5
5:0 11:5 3:5 11:5 2:5 11:5 5:5 11:5 3:5 9:5 5:5
11:0 3:5 11:5 2:5 11:5 5:5 11:5 3:5 9:5 5:5 11:5
3:0 11:5 2:5 11:5 5:5 11:5 3:5 9:5 5:5 11:5 5:5
11:0 2:5 11:5 5:5 11:5 3:5 9:5 5:5 11:5 5:5 9:5
2:0 11:5 5:5 11:5 3:5 9:5 5:5 11:5 5:5 9:5 3:5
11:0 5:5 11:5 3:5 9:5 5:5 11:5 5:5 9:5 3:5 9:5
5:0 11:5 3:5 9:5 5:5 11:5 5:5 9:5 3:5 9:5 5:5
11:0 3:5 9:5 5:5 11:5 5:5 9:5 3:5 9:5 5:5 11:5
3:0 9:5 5:5 11:5 5:5 9:5 3:5 9:5 5:5 11:5 2:5
9:0 5:5 11:5 5:5 9:5 3:5 9:5 5:5 11:5 2:5 11:5
5:0 11:5 5:5 9:5 3:5 9:5 5:5 11:5 2:5 11:5 3:5
11:0 5:5 9:5 3:5 9:5 5:5 11:5 2:5 11:5 3:5 11:5
5:0 9:5 3:5 9:5 5:5 11:5 2:5 11:5 3:5 11:5 5:5
9:0 3:5 9:5 5:5 11:5 2:5 11:5 3:5 11:5 5:5 7:5
3:0 9:5 5:5 11:5 2:5 11:5 3:5 11:5 5:5 7:5 9:20
9:0 5:5 11:5 2:5 11:5 3:5 11:5 5:5 7:5 9:20 3:5
5:0 11:5 2:5 11:5 3:5 11:5 5:5 7:5 9:20 3:5 11:5
11:0 2:5 11:5 3:5 11:5 5:5 7:5 9:20 3:5 11:5 3:5
2:0 11:5 3:5 11:5 5:5 7:5 9:20 3:5 11:5 3:5 11:5
11:0 3:5 11:5 5:5 7:5 9:20 3:5 11:5 3:5 11:5 5:5
3:0 11:5 5:5 7:5 9:20 3:5 11:5 3:5 11:5 5:5 7:5
11:0 5:5 7:5 9:20 3:5 11:5 3:5 11:5 5:5 7:5 5:5
5:0 7:5 9:20 3:5 11:5 3:5 11:5 5:5 7:5 5:5 9:5
7:0 9:20 3:5 11:5 3:5 11:5 5:5 7:5 5:5 9:5 5:5
9:0 3:5 11:5 3:5 11:5 5:5 7:5 5:5 9:5 5:5 7:5
3:0 11:5 3:5 11:5 5:5 7:5 5:5 9:5 5:5 7:5 3:5
11:0 3:5 11:5 5:5 7:5 5:5 9:5 5:5 7:5 3:5 11:5
3:0 11:5 5:5 7:5 5:5 9:5 5:5 7:5 3:5 11:5 5:5
11:0 5:5 7:5 5:5 9:5 5:5 7:5 3:5 11:5 5:5 11:5
5:0 7:5 5:5 9:5 5:5 7:5 3:5 11:5 5:5 11:5 2:5
7:0 5:5 9:5 5:5 7:5 3:5 11:5 5:5 11:5 2:5 9:5
5:0 9:5 5:5 7:5 3:5 11:5 5:5 11:5 2:5 9:5 3:5
9:0 5:5 7:5 3:5 11:5 5:5 11:5 2:5 9:5 3:5 11:5
5:0 7:5 3:5 11:5 5:5 11:5 2:5 9:5 3:5 11:5 3:5
7:0 3:5 11:5 5:5 11:5 2:5 9:5 3:5 11:5 3:5 7:5
3:0 11:5 5:5 11:5 2:5 9:5 3:5 11:5 3:5 7:5 9:15
11:0 5:5 11:5 2:5 9:5 3:5 11:5 3:5 7:5 9:15 3:10
5:0 11:5 2:5 9:5 3:5 11:5 3:5 7:5 9:15 3:10 11:5
11:0 2:5 9:5 3:5 11:5 3:5 7:5 9:15 3:10 11:5 5:5
2:0 9:5 3:5 11:5 3:5 7:5 9:15 3:10 11:5 5:5 11:5
9:0 3:5 11:5 3:5 7:5 9:15 3:10 11:5 5:5 11:5 3:5
3:0 11:5 3:5 7:5 9:15 3:10 11:5 5:5 11:5 3:5 9:5
11:0 3:5 7:5 9:15 3:10 11:5 5:5 11:5 3:5 9:5 5:5
3:0 7:5 9:15 3:10 11:5 5:5 11:5 3:5 9:5 5:5 11:5
7:0 9:15 3:10 11:5 5:5 11:5 3:5 9:5 5:5 11:5 5:5
9:0 3:10 11:5 5:5 11:5 3:5 9:5 5:5 11:5 5:5 7:5
3:0 11:5 5:5 11:5 3:5 9:5 5:5 11:5 5:5 7:5 5:5
11:0 5:5 11:5 3:5 9:5 5:5 11:5 5:5 7:5 5:5 11:5
5:0 11:5 3:5 9:5 5:5 11:5 5:5 7:5 5:5 11:5 5:5
11:0 3:5 9:5 5:5 11:5 5:5 7:5 5:5 11:5 5:5 11:5
3:0 9:5 5:5 11:5 5:5 7:5 5:5 11:5 5:5 11:5 3:5
9:0 5:5 11:5 5:5 7:5 5:5 11:5 5:5 11:5 3:5 9:5
5:0 11:5 5:5 7:5 5:5 11:5 5:5 11:5 3:5 9:5 3:5
11:0 5:5 7:5 5:5 11:5 5:5 11:5 3:5 9:5 3:5 11:5
5:0 7:5 5:5 11:5 5:5 11:5 3:5 9:5 3:5 11:5 7:5
7:0 5:5 11:5 5:5 11:5 3:5 9:5 3:5 11:5 7:5 3:5
5:0 11:5 5:5 11:5 3:5 9:5 3:5 11:5 7:5 3:5 7:5
11:0 5:5 11:5 3:5 9:5 3:5 11:5 7:5 3:5 7:5 9:5
5:0 11:5 3:5 9:5 3:5 11:5 7:5 3:5 7:5 9:5 11:5
11:0 3:5 9:5 3:5 11:5 7:5 3:5 7:5 9:5 11:5 3:5
3:0 9:5 3:5 11:5 7:5 3:5 7:5 9:5 11:5 3:5 5:5
9:0 3:5 11:5 7:5 3:5 7:5 9:5 11:5 3:5 5:5 9:5
3:0 11:5 7:5 3:5 7:5 9:5 11:5 3:5 5:5 9:5 5:5
11:0 7:5 3:5 7:5 9:5 11:5 3:5 5:5 9:5 5:5 9:5
7:0 3:5 7:5 9:5 11:5 3:5 5:5 9:5 5:5 9:5 7:5
3:0 7:5 9:5 11:5 3:5 5:5 9:5 5:5 9:5 7:5 3:5
7:0 9:5 11:5 3:5 5:5 9:5 5:5 9:5 7:5 3:5 11:5
9:0 11:5 3:5 5:5 9:5 5:5 9:5 7:5 3:5 11:5 3:5
11:0 3:5 5:5 9:5 5:5 9:5 7:5 3:5 11:5 3:5 11:5
3:0 5:5 9:5 5:5 9:5 7:5 3:5 11:5 3:5 11:5 2:5
5:0 9:5 5:5 9:5 7:5 3:5 11:5 3:5 11:5 2:5 9:5
9:0 5:5 9:5 7:5 3:5 11:5 3:5 11:5 2:5 9:5 5:5
5:0 9:5 7:5 3:5 11:5 3:5 11:5 2:5 9:5 5:5 7:5
9:0 7:5 3:5 11:5 3:5 11:5 2:5 9:5 5:5 7:5 9:5
7:0 3:5 11:5 3:5 11:5 2:5 9:5 5:5 7:5 9:5 5:5
3:0 11:5 3:5 11:5 2:5 9:5 5:5 7:5 9:5 5:5 7:5
11:0 3:5 11:5 2:5 9:5 5:5 7:5 9:5 5:5 7:5 11:15
3:0 11:5 2:5 9:5 5:5 7:5 9:5 5:5 7:5 11:15 2:5
11:0 2:5 9:5 5:5 7:5 9:5 5:5 7:5 11:15 2:5 11:5
2:0 9:5 5:5 7:5 9:5 5:5 7:5 11:15 2:5 11:5 5:5
9:0 5:5 7:5 9:5 5:5 7:5 11:15 2:5 11:5 5:5 11:5
5:0 7:5 9:5 5:5 7:5 11:15 2:5 11:5 5:5 11:5 3:5
7:0 9:5 5:5 7:5 11:15 2:5 11:5 5:5 11:5 3:5 7:5
9:0 5:5 7:5 11:15 2:5 11:5 5:5 11:5 3:5 7:5 9:15
5:0 7:5 11:15 2:5 11:5 5:5 11:5 3:5 7:5 9:15 7:5
7:0 11:15 2:5 11:5 5:5 11:5 3:5 7:5 9:15 7:5 3:5
11:0 2:5 11:5 5:5 11:5 3:5 7:5 9:15 7:5 3:5 11:5
2:0 11:5 5:5 11:5 3:5 7:5 9:15 7:5 3:5 11:5 5:5
11:0 5:5 11:5 3:5 7:5 9:15 7:5 3:5 11:5 5:5 11:5
5:0 11:5 3:5 7:5 9:15 7:5 3:5 11:5 5:5 11:5 3:5
11:0 3:5 7:5 9:15 7:5 3:5 11:5 5:5 11:5 3:5 7:5
3:0 7:5 9:15 7:5 3:5 11:5 5:5 11:5 3:5 7:5 9:10
7:0 9:15 7:5 3:5 11:5 5:5 11:5 3:5 7:5 9:10 2:10
9:0 7:5 3:5 11:5 5:5 11:5 3:5 7:5 9:10 2:10 11:5
7:0 3:5 11:5 5:5 11:5 3:5 7:5 9:10 2:10 11:5 5:5
3:0 11:5 5:5 11:5 3:5 7:5 9:10 2:10 11:5 5:5 9:5
11:0 5:5 11:5 3:5 7:5 9:10 2:10 11:5 5:5 9:5 7:5
5:0 11:5 3:5 7:5 9:10 2:10 11:5 5:5 9:5 7:5 5:5
11:0 3:5 7:5 9:10 2:10 11:5 5:5 9:5 7:5 5:5 7:5
3:0 7:5 9:10 2:10 11:5 5:5 9:5 7:5 5:5 7:5 9:10
7:0 9:10 2:10 11:5 5:5 9:5 7:5 5:5 7:5 9:10 3:10
9:0 2:10 11:5 5:5 9:5 7:5 5:5 7:5 9:10 3:10 11:5
2:0 11:5 5:5 9:5 7:5 5:5 7:5 9:10 3:10 11:5 3:5
11:0 5:5 9:5 7:5 5:5 7:5 9:10 3:10 11:5 3:5 11:5
5:0 9:5 7:5 5:5 7:5 9:10 3:10 11:5 3:5 11:5 5:5
9:0 7:5 5:5 7:5 9:10 3:10 11:5 3:5 11:5 5:5 7:5
7:0 5:5 7:5 9:10 3:10 11:5 3:5 11:5 5:5 7:5 5:5
5:0 7:5 9:10 3:10 11:5 3:5 11:5 5:5 7:5 5:5 9:5
7:0 9:10 3:10 11:5 3:5 11:5 5:5 7:5 5:5 9:5 5:5
9:0 3:10 11:5 3:5 11:5 5:5 7:5 5:5 9:5 5:5 9:5
3:0 11:5 3:5 11:5 5:5 7:5 5:5 9:5 5:5 9:5 5:5
11:0 3:5 11:5 5:5 7:5 5:5 9:5 5:5 9:5 5:5 11:5
3:0 11:5 5:5 7:5 5:5 9:5 5:5 9:5 5:5 11:5 3:5
11:0 5:5 7:5 5:5 9:5 5:5 9:5 5:5 11:5 3:5 11:5
5:0 7:5 5:5 9:5 5:5 9:5 5:5 11:5 3:5 11:5 3:5
7:0 5:5 9:5 5:5 9:5 5:5 11:5 3:5 11:5 3:5 7:5
5:0 9:5 5:5 9:5 5:5 11:5 3:5 11:5 3:5 7:5 9:10
9:0 5:5 9:5 5:5 11:5 3:5 11:5 3:5 7:5 9:10 11:5
5:0 9:5 5:5 11:5 3:5 11:5 3:5 7:5 9:10 11:5 2:5
9:0 5:5 11:5 3:5 11:5 3:5 7:5 9:10 11:5 2:5 11:5
5:0 11:5 3:5 11:5 3:5 7:5 9:10 11:5 2:5 11:5 5:5
11:0 3:5 11:5 3:5 7:5 9:10 11:5 2:5 11:5 5:5 11:5
3:0 11:5 3:5 7:5 9:10 11:5 2:5 11:5 5:5 11:5 5:5
11:0 3:5 7:5 9:10 11:5 2:5 11:5 5:5 11:5 5:5 9:10
3:0 7:5 9:10 11:5 2:5 11:5 5:5 11:5 5:5 9:10 5:5
7:0 9:10 11:5 2:5 11:5 5:5 11:5 5:5 9:10 5:5 11:5
9:0 11:5 2:5 11:5 5:5 11:5 5:5 9:10 5:5 11:5 7:5
11:0 2:5 11:5 5:5 11:5 5:5 9:10 5:5 11:5 7:5 3:5
2:0 11:5 5:5 11:5 5:5 9:10 5:5 11:5 7:5 3:5 11:5
11:0 5:5 11:5 5:5 9:10 5:5 11:5 7:5 3:5 11:5 3:5
5:0 11:5 5:5 9:10 5:5 11:5 7:5 3:5 11:5 3:5 11:5
11:0 5:5 9:10 5:5 11:5 7:5 3:5 11:5 3:5 11:5 3:5
5:0 9:10 5:5 11:5 7:5 3:5 11:5 3:5 11:5 3:5 9:5
9:0 5:5 11:5 7:5 3:5 11:5 3:5 11:5 3:5 9:5 7:5
5:0 11:5 7:5 3:5 11:5 3:5 11:5 3:5 9:5 7:5 9:10
11:0 7:5 3:5 11:5 3:5 11:5 3:5 9:5 7:5 9:10 5:5
7:0 3:5 11:5 3:5 11:5 3:5 9:5 7:5 9:10 5:5 7:5
3:0 11:5 3:5 11:5 3:5 9:5 7:5 9:10 5:5 7:5 9:5
11:0 3:5 11:5 3:5 9:5 7:5 9:10 5:5 7:5 9:5 5:5
3:0 11:5 3:5 9:5 7:5 9:10 5:5 7:5 9:5 5:5 11:5
11:0 3:5 9:5 7:5 9:10 5:5 7:5 9:5 5:5 11:5 3:5
3:0 9:5 7:5 9:10 5:5 7:5 9:5 5:5 11:5 3:5 9:5
9:0 7:5 9:10 5:5 7:5 9:5 5:5 11:5 3:5 9:5 5:5
7:0 9:10 5:5 7:5 9:5 5:5 11:5 3:5 9:5 5:5 7:5
9:0 5:5 7:5 9:5 5:5 11:5 3:5 9:5 5:5 7:5 3:10
5:0 7:5 9:5 5:5 11:5 3:5 9:5 5:5 7:5 3:10 11:5
7:0 9:5 5:5 11:5 3:5 9:5 5:5 7:5 3:10 11:5 5:5
9:0 5:5 11:5 3:5 9:5 5:5 7:5 3:10 11:5 5:5 11:5
5:0 11:5 3:5 9:5 5:5 7:5 3:10 11:5 5:5 11:5 5:5
11:0 3:5 9:5 5:5 7:5 3:10 11:5 5:5 11:5 5:5 7:5
3:0 9:5 5:5 7:5 3:10 11:5 5:5 11:5 5:5 7:5 5:5
9:0 5:5 7:5 3:10 11:5 5:5 11:5 5:5 7:5 5:5 9:5
5:0 7:5 3:10 11:5 5:5 11:5 5:5 7:5 5:5 9:5 5:5
7:0 3:10 11:5 5:5 11:5 5:5 7:5 5:5 9:5 5:5 9:5
3:0 11:5 5:5 11:5 5:5 7:5 5:5 9:5 5:5 9:5 3:5
11:0 5:5 11:5 5:5 7:5 5:5 9:5 5:5 9:5 3:5 11:5
5:0 11:5 5:5 7:5 5:5 9:5 5:5 9:5 3:5 11:5 3:5
11:0 5:5 7:5 5:5 9:5 5:5 9:5 3:5 11:5 3:5 11:5
5:0 7:5 5:5 9:5 5:5 9:5 3:5 11:5 3:5 11:5 3:5
7:0 5:5 9:5 5:5 9:5 3:5 11:5 3:5 11:5 3:5 9:5
5:0 9:5 5:5 9:5 3:5 11:5 3:5 11:5 3:5 9:5 5:5
9:0 5:5 9:5 3:5 11:5 3:5 11:5 3:5 9:5 5:5 9:5
5:0 9:5 3:5 11:5 3:5 11:5 3:5 9:5 5:5 9:5 7:5
9:0 3:5 11:5 3:5 11:5 3:5 9:5 5:5 9:5 7:5 5:5
3:0 11:5 3:5 11:5 3:5 9:5 5:5 9:5 7:5 5:5 9:10
11:0 3:5 11:5 3:5 9:5 5:5 9:5 7:5 5:5 9:10 5:5
3:0 11:5 3:5 9:5 5:5 9:5 7:5 5:5 9:10 5:5 9:5
11:0 3:5 9:5 5:5 9:5 7:5 5:5 9:10 5:5 9:5 3:5
3:0 9:5 5:5 9:5 7:5 5:5 9:10 5:5 9:5 3:5 9:5
9:0 5:5 9:5 7:5 5:5 9:10 5:5 9:5 3:5 9:5 7:5
5:0 9:5 7:5 5:5 9:10 5:5 9:5 3:5 9:5 7:5 9:5
9:0 7:5 5:5 9:10 5:5 9:5 3:5 9:5 7:5 9:5 7:5
7:0 5:5 9:10 5:5 9:5 3:5 9:5 7:5 9:5 7:5 5:5
5:0 9:10 5:5 9:5 3:5 9:5 7:5 9:5 7:5 5:5 9:5
9:0 5:5 9:5 3:5 9:5 7:5 9:5 7:5 5:5 9:5 5:5
5:0 9:5 3:5 9:5 7:5 9:5 7:5 5:5 9:5 5:5 11:5
9:0 3:5 9:5 7:5 9:5 7:5 5:5 9:5 5:5 11:5 2:5
3:0 9:5 7:5 9:5 7:5 5:5 9:5 5:5 11:5 2:5 9:5
9:0 7:5 9:5 7:5 5:5 9:5 5:5 11:5 2:5 9:5 3:5
7:0 9:5 7:5 5:5 9:5 5:5 11:5 2:5 9:5 3:5 11:5
9:0 7:5 5:5 9:5 5:5 11:5 2:5 9:5 3:5 11:5 7:5
7:0 5:5 9:5 5:5 11:5 2:5 9:5 3:5 11:5 7:5 3:10
5:0 9:5 5:5 11:5 2:5 9:5 3:5 11:5 7:5 3:10 11:5
9:0 5:5 11:5 2:5 9:5 3:5 11:5 7:5 3:10 11:5 5:5
5:0 11:5 2:5 9:5 3:5 11:5 7:5 3:10 11:5 5:5 11:5
11:0 2:5 9:5 3:5 11:5 7:5 3:10 11:5 5:5 11:5 3:5
2:0 9:5 3:5 11:5 7:5 3:10 11:5 5:5 11:5 3:5 9:5
9:0 3:5 11:5 7:5 3:10 11:5 5:5 11:5 3:5 9:5 5:5
3:0 11:5 7:5 3:10 11:5 5:5 11:5 3:5 9:5 5:5 11:5
11:0 7:5 3:10 11:5 5:5 11:5 3:5 9:5 5:5 11:5 5:5
7:0 3:10 11:5 5:5 11:5 3:5 9:5 5:5 11:5 5:5 7:5
3:0 11:5 5:5 11:5 3:5 9:5 5:5 11:5 5:5 7:5 5:5
11:0 5:5 11:5 3:5 9:5 5:5 11:5 5:5 7:5 5:5 11:5
5:0 11:5 3:5 9:5 5:5 11:5 5:5 7:5 5:5 11:5 5:5
11:0 3:5 9:5 5:5 11:5 5:5 7:5 5:5 11:5 5:5 9:5
3:0 9:5 5:5 11:5 5:5 7:5 5:5 11:5 5:5 9:5 3:5
9:0 5:5 11:5 5:5 7:5 5:5 11:5 5:5 9:5 3:5 11:5
5:0 11:5 5:5 7:5 5:5 11:5 5:5 9:5 3:5 11:5 5:5
11:0 5:5 7:5 5:5 11:5 5:5 9:5 3:5 11:5 5:5 11:5
5:0 7:5 5:5 11:5 5:5 9:5 3:5 11:5 5:5 11:5 3:5
7:0 5:5 11:5 5:5 9:5 3:5 11:5 5:5 11:5 3:5 9:5
5:0 11:5 5:5 9:5 3:5 11:5 5:5 11:5 3:5 9:5 5:5
11:0 5:5 9:5 3:5 11:5 5:5 11:5 3:5 9:5 5:5 9:5
5:0 9:5 3:5 11:5 5:5 11:5 3:5 9:5 5:5 9:5 7:5
9:0 3:5 11:5 5:5 11:5 3:5 9:5 5:5 9:5 7:5 3:10
3:0 11:5 5:5 11:5 3:5 9:5 5:5 9:5 7:5 3:10 11:5
11:0 5:5 11:5 3:5 9:5 5:5 9:5 7:5 3:10 11:5 5:5
5:0 11:5 3:5 9:5 5:5 9:5 7:5 3:10 11:5 5:5 11:5
11:0 3:5 9:5 5:5 9:5 7:5 3:10 11:5 5:5 11:5 2:5
3:0 9:5 5:5 9:5 7:5 3:10 11:5 5:5 11:5 2:5 9:5
9:0 5:5 9:5 7:5 3:10 11:5 5:5 11:5 2:5 9:5 7:5
5:0 9:5 7:5 3:10 11:5 5:5 11:5 2:5 9:5 7:5 9:5
9:0 7:5 3:10 11:5 5:5 11:5 2:5 9:5 7:5 9:5 7:5
7:0 3:10 11:5 5:5 11:5 2:5 9:5 7:5 9:5 7:5 5:5
3:0 11:5 5:5 11:5 2:5 9:5 7:5 9:5 7:5 5:5 7:5
11:0 5:5 11:5 2:5 9:5 7:5 9:5 7:5 5:5 7:5 9:15
5:0 11:5 2:5 9:5 7:5 9:5 7:5 5:5 7:5 9:15 3:5
11:0 2:5 9:5 7:5 9:5 7:5 5:5 7:5 9:15 3:5 11:5
2:0 9:5 7:5 9:5 7:5 5:5 7:5 9:15 3:5 11:5 3:5
9:0 7:5 9:5 7:5 5:5 7:5 9:15 3:5 11:5 3:5 11:5
7:0 9:5 7:5 5:5 7:5 9:15 3:5 11:5 3:5 11:5 3:5
9:0 7:5 5:5 7:5 9:15 3:5 11:5 3:5 11:5 3:5 7:5
7:0 5:5 7:5 9:15 3:5 11:5 3:5 11:5 3:5 7:5 9:5
5:0 7:5 9:15 3:5 11:5 3:5 11:5 3:5 7:5 9:5 5:5
7:0 9:15 3:5 11:5 3:5 11:5 3:5 7:5 9:5 5:5 11:5
9:0 3:5 11:5 3:5 11:5 3:5 7:5 9:5 5:5 11:5 2:5
3:0 11:5 3:5 11:5 3:5 7:5 9:5 5:5 11:5 2:5 11:5
11:0 3:5 11:5 3:5 7:5 9:5 5:5 11:5 2:5 11:5 5:5
3:0 11:5 3:5 7:5 9:5 5:5 11:5 2:5 11:5 5:5 11:5
11:0 3:5 7:5 9:5 5:5 11:5 2:5 11:5 5:5 11:5 5:5
3:0 7:5 9:5 5:5 11:5 2:5 11:5 5:5 11:5 5:5 9:5
7:0 9:5 5:5 11:5 2:5 11:5 5:5 11:5 5:5 9:5 5:5
9:0 5:5 11:5 2:5 11:5 5:5 11:5 5:5 9:5 5:5 9:5
5:0 11:5 2:5 11:5 5:5 11:5 5:5 9:5 5:5 9:5 7:5
11:0 2:5 11:5 5:5 11:5 5:5 9:5 5:5 9:5 7:5 9:5
2:0 11:5 5:5 11:5 5:5 9:5 5:5 9:5 7:5 9:5 3:5
11:0 5:5 11:5 5:5 9:5 5:5 9:5 7:5 9:5 3:5 9:5
5:0 11:5 5:5 9:5 5:5 9:5 7:5 9:5 3:5 9:5 5:5
11:0 5:5 9:5 5:5 9:5 7:5 9:5 3:5 9:5 5:5 9:5
5:0 9:5 5:5 9:5 7:5 9:5 3:5 9:5 5:5 9:5 3:5
9:0 5:5 9:5 7:5 9:5 3:5 9:5 5:5 9:5 3:5 5:5
5:0 9:5 7:5 9:5 3:5 9:5 5:5 9:5 3:5 5:5 9:5
9:0 7:5 9:5 3:5 9:5 5:5 9:5 3:5 5:5 9:5 11:5
7:0 9:5 3:5 9:5 5:5 9:5 3:5 5:5 9:5 11:5 5:5
9:0 3:5 9:5 5:5 9:5 3:5 5:5 9:5 11:5 5:5 7:5
3:0 9:5 5:5 9:5 3:5 5:5 9:5 11:5 5:5 7:5 5:5
9:0 5:5 9:5 3:5 5:5 9:5 11:5 5:5 7:5 5:5 9:5
5:0 9:5 3:5 5:5 9:5 11:5 5:5 7:5 5:5 9:5 5:5
9:0 3:5 5:5 9:5 11:5 5:5 7:5 5:5 9:5 5:5 11:5
3:0 5:5 9:5 11:5 5:5 7:5 5:5 9:5 5:5 11:5
5:0 9:5 11:5 5:5 7:5 5:5 9:5 5:5 11:5
9:0 11:5 5:5 7:5 5:5 9:5 5:5 11:5
11:0 5:5 7:5 5:5 9:5 5:5 11:5
5:0 7:5 5:5 9:5 5:5 11:5
7:0 5:5 9:5 5:5 11:5
5:0 9:5 5:5 11:5
9:0 5:5 11:5
5:0 11:5
11:0