9:0 4:5 9:5 7:5 9:5 6:5 7:5 9:10 4:10 6:5 7:10
4:0 9:5 7:5 9:5 6:5 7:5 9:10 4:10 6:5 7:10 9:5
9:0 7:5 9:5 6:5 7:5 9:10 4:10 6:5 7:10 9:5 4:5
7:0 9:5 6:5 7:5 9:10 4:10 6:5 7:10 9:5 4:5 9:5
9:0 6:5 7:5 9:10 4:10 6:5 7:10 9:5 4:5 9:5 7:10
6:0 7:5 9:10 4:10 6:5 7:10 9:5 4:5 9:5 7:10 9:5
7:0 9:10 4:10 6:5 7:10 9:5 4:5 9:5 7:10 9:5 4:5
9:0 4:10 6:5 7:10 9:5 4:5 9:5 7:10 9:5 4:5 7:5
4:0 6:5 7:10 9:5 4:5 9:5 7:10 9:5 4:5 7:5 9:5
6:0 7:10 9:5 4:5 9:5 7:10 9:5 4:5 7:5 9:5 4:10
7:0 9:5 4:5 9:5 7:10 9:5 4:5 7:5 9:5 4:10 7:5
9:0 4:5 9:5 7:10 9:5 4:5 7:5 9:5 4:10 7:5 9:5
4:0 9:5 7:10 9:5 4:5 7:5 9:5 4:10 7:5 9:5 4:5
9:0 7:10 9:5 4:5 7:5 9:5 4:10 7:5 9:5 4:5 9:5
7:0 9:5 4:5 7:5 9:5 4:10 7:5 9:5 4:5 9:5 4:5
9:0 4:5 7:5 9:5 4:10 7:5 9:5 4:5 9:5 4:5 9:10
4:0 7:5 9:5 4:10 7:5 9:5 4:5 9:5 4:5 9:10 6:15
7:0 9:5 4:10 7:5 9:5 4:5 9:5 4:5 9:10 6:15 9:10
9:0 4:10 7:5 9:5 4:5 9:5 4:5 9:10 6:15 9:10 4:15
4:0 7:5 9:5 4:5 9:5 4:5 9:10 6:15 9:10 4:15 6:5
7:0 9:5 4:5 9:5 4:5 9:10 6:15 9:10 4:15 6:5 9:5
9:0 4:5 9:5 4:5 9:10 6:15 9:10 4:15 6:5 9:5 7:5
4:0 9:5 4:5 9:10 6:15 9:10 4:15 6:5 9:5 7:5 9:5
9:0 4:5 9:10 6:15 9:10 4:15 6:5 9:5 7:5 9:5 4:5
4:0 9:10 6:15 9:10 4:15 6:5 9:5 7:5 9:5 4:5 6:5
9:0 6:15 9:10 4:15 6:5 9:5 7:5 9:5 4:5 6:5 9:5
6:0 9:10 4:15 6:5 9:5 7:5 9:5 4:5 6:5 9:5 6:10
9:0 4:15 6:5 9:5 7:5 9:5 4:5 6:5 9:5 6:10 4:5
4:0 6:5 9:5 7:5 9:5 4:5 6:5 9:5 6:10 4:5 6:5
6:0 9:5 7:5 9:5 4:5 6:5 9:5 6:10 4:5 6:5 9:5
9:0 7:5 9:5 4:5 6:5 9:5 6:10 4:5 6:5 9:5 4:10
7:0 9:5 4:5 6:5 9:5 6:10 4:5 6:5 9:5 4:10 6:5
9:0 4:5 6:5 9:5 6:10 4:5 6:5 9:5 4:10 6:5 9:5
4:0 6:5 9:5 6:10 4:5 6:5 9:5 4:10 6:5 9:5 2:15
6:0 9:5 6:10 4:5 6:5 9:5 4:10 6:5 9:5 2:15 9:5
9:0 6:10 4:5 6:5 9:5 4:10 6:5 9:5 2:15 9:5 7:5
6:0 4:5 6:5 9:5 4:10 6:5 9:5 2:15 9:5 7:5 9:5
4:0 6:5 9:5 4:10 6:5 9:5 2:15 9:5 7:5 9:5 2:10
6:0 9:5 4:10 6:5 9:5 2:15 9:5 7:5 9:5 2:10 7:5
9:0 4:10 6:5 9:5 2:15 9:5 7:5 9:5 2:10 7:5 9:5
4:0 6:5 9:5 2:15 9:5 7:5 9:5 2:10 7:5 9:5 2:15
6:0 9:5 2:15 9:5 7:5 9:5 2:10 7:5 9:5 2:15 9:5
9:0 2:15 9:5 7:5 9:5 2:10 7:5 9:5 2:15 9:5 7:5
2:0 9:5 7:5 9:5 2:10 7:5 9:5 2:15 9:5 7:5 9:5
9:0 7:5 9:5 2:10 7:5 9:5 2:15 9:5 7:5 9:5 4:10
7:0 9:5 2:10 7:5 9:5 2:15 9:5 7:5 9:5 4:10 9:5
9:0 2:10 7:5 9:5 2:15 9:5 7:5 9:5 4:10 9:5 6:5
2:0 7:5 9:5 2:15 9:5 7:5 9:5 4:10 9:5 6:5 9:5
7:0 9:5 2:15 9:5 7:5 9:5 4:10 9:5 6:5 9:5 4:5
9:0 2:15 9:5 7:5 9:5 4:10 9:5 6:5 9:5 4:5 9:5
2:0 9:5 7:5 9:5 4:10 9:5 6:5 9:5 4:5 9:5 6:5
9:0 7:5 9:5 4:10 9:5 6:5 9:5 4:5 9:5 6:5 9:5
7:0 9:5 4:10 9:5 6:5 9:5 4:5 9:5 6:5 9:5 4:10
9:0 4:10 9:5 6:5 9:5 4:5 9:5 6:5 9:5 4:10 6:5
4:0 9:5 6:5 9:5 4:5 9:5 6:5 9:5 4:10 6:5 9:5
9:0 6:5 9:5 4:5 9:5 6:5 9:5 4:10 6:5 9:5 7:5
6:0 9:5 4:5 9:5 6:5 9:5 4:10 6:5 9:5 7:5 9:5
9:0 4:5 9:5 6:5 9:5 4:10 6:5 9:5 7:5 9:5 4:5
4:0 9:5 6:5 9:5 4:10 6:5 9:5 7:5 9:5 4:5 6:5
9:0 6:5 9:5 4:10 6:5 9:5 7:5 9:5 4:5 6:5 9:5
6:0 9:5 4:10 6:5 9:5 7:5 9:5 4:5 6:5 9:5 6:10
9:0 4:10 6:5 9:5 7:5 9:5 4:5 6:5 9:5 6:10 9:10
4:0 6:5 9:5 7:5 9:5 4:5 6:5 9:5 6:10 9:10 6:5
6:0 9:5 7:5 9:5 4:5 6:5 9:5 6:10 9:10 6:5 9:5
9:0 7:5 9:5 4:5 6:5 9:5 6:10 9:10 6:5 9:5 6:5
7:0 9:5 4:5 6:5 9:5 6:10 9:10 6:5 9:5 6:5 4:5
9:0 4:5 6:5 9:5 6:10 9:10 6:5 9:5 6:5 4:5 9:5
4:0 6:5 9:5 6:10 9:10 6:5 9:5 6:5 4:5 9:5 4:15
6:0 9:5 6:10 9:10 6:5 9:5 6:5 4:5 9:5 4:15 6:5
9:0 6:10 9:10 6:5 9:5 6:5 4:5 9:5 4:15 6:5 9:5
6:0 9:10 6:5 9:5 6:5 4:5 9:5 4:15 6:5 9:5 4:15
9:0 6:5 9:5 6:5 4:5 9:5 4:15 6:5 9:5 4:15 7:5
6:0 9:5 6:5 4:5 9:5 4:15 6:5 9:5 4:15 7:5 9:5
9:0 6:5 4:5 9:5 4:15 6:5 9:5 4:15 7:5 9:5 7:5
6:0 4:5 9:5 4:15 6:5 9:5 4:15 7:5 9:5 7:5 9:5
4:0 9:5 4:15 6:5 9:5 4:15 7:5 9:5 7:5 9:5 4:5
9:0 4:15 6:5 9:5 4:15 7:5 9:5 7:5 9:5 4:5 9:5
4:0 6:5 9:5 4:15 7:5 9:5 7:5 9:5 4:5 9:5 7:5
6:0 9:5 4:15 7:5 9:5 7:5 9:5 4:5 9:5 7:5 9:5
9:0 4:15 7:5 9:5 7:5 9:5 4:5 9:5 7:5 9:5 6:5
4:0 7:5 9:5 7:5 9:5 4:5 9:5 7:5 9:5 6:5 4:5
7:0 9:5 7:5 9:5 4:5 9:5 7:5 9:5 6:5 4:5 9:5
9:0 7:5 9:5 4:5 9:5 7:5 9:5 6:5 4:5 9:5 6:5
7:0 9:5 4:5 9:5 7:5 9:5 6:5 4:5 9:5 6:5 7:5
9:0 4:5 9:5 7:5 9:5 6:5 4:5 9:5 6:5 7:5 6:5
4:0 9:5 7:5 9:5 6:5 4:5 9:5 6:5 7:5 6:5 2:5
9:0 7:5 9:5 6:5 4:5 9:5 6:5 7:5 6:5 2:5 9:5
7:0 9:5 6:5 4:5 9:5 6:5 7:5 6:5 2:5 9:5 7:10
9:0 6:5 4:5 9:5 6:5 7:5 6:5 2:5 9:5 7:10 4:5
6:0 4:5 9:5 6:5 7:5 6:5 2:5 9:5 7:10 4:5 6:5
4:0 9:5 6:5 7:5 6:5 2:5 9:5 7:10 4:5 6:5 9:5
9:0 6:5 7:5 6:5 2:5 9:5 7:10 4:5 6:5 9:5 4:15
6:0 7:5 6:5 2:5 9:5 7:10 4:5 6:5 9:5 4:15 6:5
7:0 6:5 2:5 9:5 7:10 4:5 6:5 9:5 4:15 6:5 9:5
6:0 2:5 9:5 7:10 4:5 6:5 9:5 4:15 6:5 9:5 4:15
2:0 9:5 7:10 4:5 6:5 9:5 4:15 6:5 9:5 4:15 9:5
9:0 7:10 4:5 6:5 9:5 4:15 6:5 9:5 4:15 9:5 6:5
7:0 4:5 6:5 9:5 4:15 6:5 9:5 4:15 9:5 6:5 9:10
4:0 6:5 9:5 4:15 6:5 9:5 4:15 9:5 6:5 9:10 2:5
6:0 9:5 4:15 6:5 9:5 4:15 9:5 6:5 9:10 2:5 6:5
9:0 4:15 6:5 9:5 4:15 9:5 6:5 9:10 2:5 6:5 9:5
4:0 6:5 9:5 4:15 9:5 6:5 9:10 2:5 6:5 9:5 6:10
6:0 9:5 4:15 9:5 6:5 9:10 2:5 6:5 9:5 6:10 9:10
9:0 4:15 9:5 6:5 9:10 2:5 6:5 9:5 6:10 9:10 6:5
4:0 9:5 6:5 9:10 2:5 6:5 9:5 6:10 9:10 6:5 9:5
9:0 6:5 9:10 2:5 6:5 9:5 6:10 9:10 6:5 9:5 6:5
6:0 9:10 2:5 6:5 9:5 6:10 9:10 6:5 9:5 6:5 9:10
9:0 2:5 6:5 9:5 6:10 9:10 6:5 9:5 6:5 9:10 7:5
2:0 6:5 9:5 6:10 9:10 6:5 9:5 6:5 9:10 7:5 9:5
6:0 9:5 6:10 9:10 6:5 9:5 6:5 9:10 7:5 9:5 3:5
9:0 6:10 9:10 6:5 9:5 6:5 9:10 7:5 9:5 3:5 9:5
6:0 9:10 6:5 9:5 6:5 9:10 7:5 9:5 3:5 9:5 6:5
9:0 6:5 9:5 6:5 9:10 7:5 9:5 3:5 9:5 6:5 9:5
6:0 9:5 6:5 9:10 7:5 9:5 3:5 9:5 6:5 9:5 6:5
9:0 6:5 9:10 7:5 9:5 3:5 9:5 6:5 9:5 6:5 2:5
6:0 9:10 7:5 9:5 3:5 9:5 6:5 9:5 6:5 2:5 9:5
9:0 7:5 9:5 3:5 9:5 6:5 9:5 6:5 2:5 9:5 6:5
7:0 9:5 3:5 9:5 6:5 9:5 6:5 2:5 9:5 6:5 10:5
9:0 3:5 9:5 6:5 9:5 6:5 2:5 9:5 6:5 10:5 6:5
3:0 9:5 6:5 9:5 6:5 2:5 9:5 6:5 10:5 6:5 2:5
9:0 6:5 9:5 6:5 2:5 9:5 6:5 10:5 6:5 2:5 9:5
6:0 9:5 6:5 2:5 9:5 6:5 10:5 6:5 2:5 9:5 6:20
9:0 6:5 2:5 9:5 6:5 10:5 6:5 2:5 9:5 6:20 7:5
6:0 2:5 9:5 6:5 10:5 6:5 2:5 9:5 6:20 7:5 9:5
2:0 9:5 6:5 10:5 6:5 2:5 9:5 6:20 7:5 9:5 6:5
9:0 6:5 10:5 6:5 2:5 9:5 6:20 7:5 9:5 6:5 9:10
6:0 10:5 6:5 2:5 9:5 6:20 7:5 9:5 6:5 9:10 7:5
10:0 6:5 2:5 9:5 6:20 7:5 9:5 6:5 9:10 7:5 9:10
6:0 2:5 9:5 6:20 7:5 9:5 6:5 9:10 7:5 9:10 6:5
2:0 9:5 6:20 7:5 9:5 6:5 9:10 7:5 9:10 6:5 9:5
9:0 6:20 7:5 9:5 6:5 9:10 7:5 9:10 6:5 9:5 7:10
6:0 7:5 9:5 6:5 9:10 7:5 9:10 6:5 9:5 7:10 9:5
7:0 9:5 6:5 9:10 7:5 9:10 6:5 9:5 7:10 9:5 4:5
9:0 6:5 9:10 7:5 9:10 6:5 9:5 7:10 9:5 4:5 6:5
6:0 9:10 7:5 9:10 6:5 9:5 7:10 9:5 4:5 6:5 9:5
9:0 7:5 9:10 6:5 9:5 7:10 9:5 4:5 6:5 9:5 4:5
7:0 9:10 6:5 9:5 7:10 9:5 4:5 6:5 9:5 4:5 9:5
9:0 6:5 9:5 7:10 9:5 4:5 6:5 9:5 4:5 9:5 4:5
6:0 9:5 7:10 9:5 4:5 6:5 9:5 4:5 9:5 4:5 6:5
9:0 7:10 9:5 4:5 6:5 9:5 4:5 9:5 4:5 6:5 9:5
7:0 9:5 4:5 6:5 9:5 4:5 9:5 4:5 6:5 9:5 7:5
9:0 4:5 6:5 9:5 4:5 9:5 4:5 6:5 9:5 7:5 9:5
4:0 6:5 9:5 4:5 9:5 4:5 6:5 9:5 7:5 9:5 7:5
6:0 9:5 4:5 9:5 4:5 6:5 9:5 7:5 9:5 7:5 6:5
9:0 4:5 9:5 4:5 6:5 9:5 7:5 9:5 7:5 6:5 9:10
4:0 9:5 4:5 6:5 9:5 7:5 9:5 7:5 6:5 9:10 4:5
9:0 4:5 6:5 9:5 7:5 9:5 7:5 6:5 9:10 4:5 9:10
4:0 6:5 9:5 7:5 9:5 7:5 6:5 9:10 4:5 9:10 6:15
6:0 9:5 7:5 9:5 7:5 6:5 9:10 4:5 9:10 6:15 4:5
9:0 7:5 9:5 7:5 6:5 9:10 4:5 9:10 6:15 4:5 9:5
7:0 9:5 7:5 6:5 9:10 4:5 9:10 6:15 4:5 9:5 7:5
9:0 7:5 6:5 9:10 4:5 9:10 6:15 4:5 9:5 7:5 9:5
7:0 6:5 9:10 4:5 9:10 6:15 4:5 9:5 7:5 9:5 4:5
6:0 9:10 4:5 9:10 6:15 4:5 9:5 7:5 9:5 4:5 7:5
9:0 4:5 9:10 6:15 4:5 9:5 7:5 9:5 4:5 7:5 9:5
4:0 9:10 6:15 4:5 9:5 7:5 9:5 4:5 7:5 9:5 4:5
9:0 6:15 4:5 9:5 7:5 9:5 4:5 7:5 9:5 4:5 9:5
6:0 4:5 9:5 7:5 9:5 4:5 7:5 9:5 4:5 9:5 4:5
4:0 9:5 7:5 9:5 4:5 7:5 9:5 4:5 9:5 4:5 7:5
9:0 7:5 9:5 4:5 7:5 9:5 4:5 9:5 4:5 7:5 4:5
7:0 9:5 4:5 7:5 9:5 4:5 9:5 4:5 7:5 4:5 9:5
9:0 4:5 7:5 9:5 4:5 9:5 4:5 7:5 4:5 9:5 4:10
4:0 7:5 9:5 4:5 9:5 4:5 7:5 4:5 9:5 4:10 6:5
7:0 9:5 4:5 9:5 4:5 7:5 4:5 9:5 4:10 6:5 9:5
9:0 4:5 9:5 4:5 7:5 4:5 9:5 4:10 6:5 9:5 4:10
4:0 9:5 4:5 7:5 4:5 9:5 4:10 6:5 9:5 4:10 6:5
9:0 4:5 7:5 4:5 9:5 4:10 6:5 9:5 4:10 6:5 9:5
4:0 7:5 4:5 9:5 4:10 6:5 9:5 4:10 6:5 9:5 4:5
7:0 4:5 9:5 4:10 6:5 9:5 4:10 6:5 9:5 4:5 9:5
4:0 9:5 4:10 6:5 9:5 4:10 6:5 9:5 4:5 9:5 4:5
9:0 4:10 6:5 9:5 4:10 6:5 9:5 4:5 9:5 4:5 6:5
4:0 6:5 9:5 4:10 6:5 9:5 4:5 9:5 4:5 6:5 9:5
6:0 9:5 4:10 6:5 9:5 4:5 9:5 4:5 6:5 9:5 6:5
9:0 4:10 6:5 9:5 4:5 9:5 4:5 6:5 9:5 6:5 9:5
4:0 6:5 9:5 4:5 9:5 4:5 6:5 9:5 6:5 9:5 4:5
6:0 9:5 4:5 9:5 4:5 6:5 9:5 6:5 9:5 4:5 6:5
9:0 4:5 9:5 4:5 6:5 9:5 6:5 9:5 4:5 6:5 9:5
4:0 9:5 4:5 6:5 9:5 6:5 9:5 4:5 6:5 9:5 2:15
9:0 4:5 6:5 9:5 6:5 9:5 4:5 6:5 9:5 2:15 7:5
4:0 6:5 9:5 6:5 9:5 4:5 6:5 9:5 2:15 7:5 9:10
6:0 9:5 6:5 9:5 4:5 6:5 9:5 2:15 7:5 9:10 6:5
9:0 6:5 9:5 4:5 6:5 9:5 2:15 7:5 9:10 6:5 4:5
6:0 9:5 4:5 6:5 9:5 2:15 7:5 9:10 6:5 4:5 9:5
9:0 4:5 6:5 9:5 2:15 7:5 9:10 6:5 4:5 9:5 6:5
4:0 6:5 9:5 2:15 7:5 9:10 6:5 4:5 9:5 6:5 9:5
6:0 9:5 2:15 7:5 9:10 6:5 4:5 9:5 6:5 9:5 6:5
9:0 2:15 7:5 9:10 6:5 4:5 9:5 6:5 9:5 6:5 9:15
2:0 7:5 9:10 6:5 4:5 9:5 6:5 9:5 6:5 9:15 6:10
7:0 9:10 6:5 4:5 9:5 6:5 9:5 6:5 9:15 6:10 4:5
9:0 6:5 4:5 9:5 6:5 9:5 6:5 9:15 6:10 4:5 9:5
6:0 4:5 9:5 6:5 9:5 6:5 9:15 6:10 4:5 9:5 6:5
4:0 9:5 6:5 9:5 6:5 9:15 6:10 4:5 9:5 6:5 9:5
9:0 6:5 9:5 6:5 9:15 6:10 4:5 9:5 6:5 9:5 4:5
6:0 9:5 6:5 9:15 6:10 4:5 9:5 6:5 9:5 4:5 7:5
9:0 6:5 9:15 6:10 4:5 9:5 6:5 9:5 4:5 7:5 9:5
6:0 9:15 6:10 4:5 9:5 6:5 9:5 4:5 7:5 9:5 4:10
9:0 6:10 4:5 9:5 6:5 9:5 4:5 7:5 9:5 4:10 6:5
6:0 4:5 9:5 6:5 9:5 4:5 7:5 9:5 4:10 6:5 4:5
4:0 9:5 6:5 9:5 4:5 7:5 9:5 4:10 6:5 4:5 6:5
9:0 6:5 9:5 4:5 7:5 9:5 4:10 6:5 4:5 6:5 10:5
6:0 9:5 4:5 7:5 9:5 4:10 6:5 4:5 6:5 10:5 6:5
9:0 4:5 7:5 9:5 4:10 6:5 4:5 6:5 10:5 6:5 4:5
4:0 7:5 9:5 4:10 6:5 4:5 6:5 10:5 6:5 4:5 9:5
7:0 9:5 4:10 6:5 4:5 6:5 10:5 6:5 4:5 9:5 6:15
9:0 4:10 6:5 4:5 6:5 10:5 6:5 4:5 9:5 6:15 7:5
4:0 6:5 4:5 6:5 10:5 6:5 4:5 9:5 6:15 7:5 9:5
6:0 4:5 6:5 10:5 6:5 4:5 9:5 6:15 7:5 9:5 7:5
4:0 6:5 10:5 6:5 4:5 9:5 6:15 7:5 9:5 7:5 9:5
6:0 10:5 6:5 4:5 9:5 6:15 7:5 9:5 7:5 9:5 4:5
10:0 6:5 4:5 9:5 6:15 7:5 9:5 7:5 9:5 4:5 9:5
6:0 4:5 9:5 6:15 7:5 9:5 7:5 9:5 4:5 9:5 4:5
4:0 9:5 6:15 7:5 9:5 7:5 9:5 4:5 9:5 4:5 9:5
9:0 6:15 7:5 9:5 7:5 9:5 4:5 9:5 4:5 9:5 4:10
6:0 7:5 9:5 7:5 9:5 4:5 9:5 4:5 9:5 4:10 6:5
7:0 9:5 7:5 9:5 4:5 9:5 4:5 9:5 4:10 6:5 9:5
9:0 7:5 9:5 4:5 9:5 4:5 9:5 4:10 6:5 9:5 7:5
7:0 9:5 4:5 9:5 4:5 9:5 4:10 6:5 9:5 7:5 9:5
9:0 4:5 9:5 4:5 9:5 4:10 6:5 9:5 7:5 9:5 2:5
4:0 9:5 4:5 9:5 4:10 6:5 9:5 7:5 9:5 2:5 9:5
9:0 4:5 9:5 4:10 6:5 9:5 7:5 9:5 2:5 9:5 6:5
4:0 9:5 4:10 6:5 9:5 7:5 9:5 2:5 9:5 6:5 9:5
9:0 4:10 6:5 9:5 7:5 9:5 2:5 9:5 6:5 9:5 4:5
4:0 6:5 9:5 7:5 9:5 2:5 9:5 6:5 9:5 4:5 6:5
6:0 9:5 7:5 9:5 2:5 9:5 6:5 9:5 4:5 6:5 9:5
9:0 7:5 9:5 2:5 9:5 6:5 9:5 4:5 6:5 9:5 6:5
7:0 9:5 2:5 9:5 6:5 9:5 4:5 6:5 9:5 6:5 9:5
9:0 2:5 9:5 6:5 9:5 4:5 6:5 9:5 6:5 9:5 4:5
2:0 9:5 6:5 9:5 4:5 6:5 9:5 6:5 9:5 4:5 6:5
9:0 6:5 9:5 4:5 6:5 9:5 6:5 9:5 4:5 6:5 9:5
6:0 9:5 4:5 6:5 9:5 6:5 9:5 4:5 6:5 9:5 6:5
9:0 4:5 6:5 9:5 6:5 9:5 4:5 6:5 9:5 6:5 9:5
4:0 6:5 9:5 6:5 9:5 4:5 6:5 9:5 6:5 9:5 4:5
6:0 9:5 6:5 9:5 4:5 6:5 9:5 6:5 9:5 4:5 9:10
9:0 6:5 9:5 4:5 6:5 9:5 6:5 9:5 4:5 9:10 2:15
6:0 9:5 4:5 6:5 9:5 6:5 9:5 4:5 9:10 2:15 9:5
9:0 4:5 6:5 9:5 6:5 9:5 4:5 9:10 2:15 9:5 7:5
4:0 6:5 9:5 6:5 9:5 4:5 9:10 2:15 9:5 7:5 9:5
6:0 9:5 6:5 9:5 4:5 9:10 2:15 9:5 7:5 9:5 4:10
9:0 6:5 9:5 4:5 9:10 2:15 9:5 7:5 9:5 4:10 9:5
6:0 9:5 4:5 9:10 2:15 9:5 7:5 9:5 4:10 9:5 6:5
9:0 4:5 9:10 2:15 9:5 7:5 9:5 4:10 9:5 6:5 9:5
4:0 9:10 2:15 9:5 7:5 9:5 4:10 9:5 6:5 9:5 4:5
9:0 2:15 9:5 7:5 9:5 4:10 9:5 6:5 9:5 4:5 9:10
2:0 9:5 7:5 9:5 4:10 9:5 6:5 9:5 4:5 9:10 7:5
9:0 7:5 9:5 4:10 9:5 6:5 9:5 4:5 9:10 7:5 9:5
7:0 9:5 4:10 9:5 6:5 9:5 4:5 9:10 7:5 9:5 4:5
9:0 4:10 9:5 6:5 9:5 4:5 9:10 7:5 9:5 4:5 9:10
4:0 9:5 6:5 9:5 4:5 9:10 7:5 9:5 4:5 9:10 6:5
9:0 6:5 9:5 4:5 9:10 7:5 9:5 4:5 9:10 6:5 10:5
6:0 9:5 4:5 9:10 7:5 9:5 4:5 9:10 6:5 10:5 4:5
9:0 4:5 9:10 7:5 9:5 4:5 9:10 6:5 10:5 4:5 6:5
4:0 9:10 7:5 9:5 4:5 9:10 6:5 10:5 4:5 6:5 9:5
9:0 7:5 9:5 4:5 9:10 6:5 10:5 4:5 6:5 9:5 2:15
7:0 9:5 4:5 9:10 6:5 10:5 4:5 6:5 9:5 2:15 9:5
9:0 4:5 9:10 6:5 10:5 4:5 6:5 9:5 2:15 9:5 4:5
4:0 9:10 6:5 10:5 4:5 6:5 9:5 2:15 9:5 4:5 6:5
9:0 6:5 10:5 4:5 6:5 9:5 2:15 9:5 4:5 6:5 9:5
6:0 10:5 4:5 6:5 9:5 2:15 9:5 4:5 6:5 9:5 2:5
10:0 4:5 6:5 9:5 2:15 9:5 4:5 6:5 9:5 2:5 7:5
4:0 6:5 9:5 2:15 9:5 4:5 6:5 9:5 2:5 7:5 9:5
6:0 9:5 2:15 9:5 4:5 6:5 9:5 2:5 7:5 9:5 10:5
9:0 2:15 9:5 4:5 6:5 9:5 2:5 7:5 9:5 10:5 6:5
2:0 9:5 4:5 6:5 9:5 2:5 7:5 9:5 10:5 6:5 9:15
9:0 4:5 6:5 9:5 2:5 7:5 9:5 10:5 6:5 9:15 4:10
4:0 6:5 9:5 2:5 7:5 9:5 10:5 6:5 9:15 4:10 6:5
6:0 9:5 2:5 7:5 9:5 10:5 6:5 9:15 4:10 6:5 9:5
9:0 2:5 7:5 9:5 10:5 6:5 9:15 4:10 6:5 9:5 6:15
2:0 7:5 9:5 10:5 6:5 9:15 4:10 6:5 9:5 6:15 7:5
7:0 9:5 10:5 6:5 9:15 4:10 6:5 9:5 6:15 7:5 9:5
9:0 10:5 6:5 9:15 4:10 6:5 9:5 6:15 7:5 9:5 7:5
10:0 6:5 9:15 4:10 6:5 9:5 6:15 7:5 9:5 7:5 9:5
6:0 9:15 4:10 6:5 9:5 6:15 7:5 9:5 7:5 9:5 4:5
9:0 4:10 6:5 9:5 6:15 7:5 9:5 7:5 9:5 4:5 7:5
4:0 6:5 9:5 6:15 7:5 9:5 7:5 9:5 4:5 7:5 9:5
6:0 9:5 6:15 7:5 9:5 7:5 9:5 4:5 7:5 9:5 6:5
9:0 6:15 7:5 9:5 7:5 9:5 4:5 7:5 9:5 6:5 9:5
6:0 7:5 9:5 7:5 9:5 4:5 7:5 9:5 6:5 9:5 6:5
7:0 9:5 7:5 9:5 4:5 7:5 9:5 6:5 9:5 6:5 9:5
9:0 7:5 9:5 4:5 7:5 9:5 6:5 9:5 6:5 9:5 4:5
7:0 9:5 4:5 7:5 9:5 6:5 9:5 6:5 9:5 4:5 9:5
9:0 4:5 7:5 9:5 6:5 9:5 6:5 9:5 4:5 9:5 4:5
4:0 7:5 9:5 6:5 9:5 6:5 9:5 4:5 9:5 4:5 6:5
7:0 9:5 6:5 9:5 6:5 9:5 4:5 9:5 4:5 6:5 9:5
9:0 6:5 9:5 6:5 9:5 4:5 9:5 4:5 6:5 9:5 6:5
6:0 9:5 6:5 9:5 4:5 9:5 4:5 6:5 9:5 6:5 9:5
9:0 6:5 9:5 4:5 9:5 4:5 6:5 9:5 6:5 9:5 4:5
6:0 9:5 4:5 9:5 4:5 6:5 9:5 6:5 9:5 4:5 9:10
9:0 4:5 9:5 4:5 6:5 9:5 6:5 9:5 4:5 9:10 4:15
4:0 9:5 4:5 6:5 9:5 6:5 9:5 4:5 9:10 4:15 9:5
9:0 4:5 6:5 9:5 6:5 9:5 4:5 9:10 4:15 9:5 6:10
4:0 6:5 9:5 6:5 9:5 4:5 9:10 4:15 9:5 6:10 9:5
6:0 9:5 6:5 9:5 4:5 9:10 4:15 9:5 6:10 9:5 4:5
9:0 6:5 9:5 4:5 9:10 4:15 9:5 6:10 9:5 4:5 7:5
6:0 9:5 4:5 9:10 4:15 9:5 6:10 9:5 4:5 7:5 9:5
9:0 4:5 9:10 4:15 9:5 6:10 9:5 4:5 7:5 9:5 6:5
4:0 9:10 4:15 9:5 6:10 9:5 4:5 7:5 9:5 6:5 9:5
9:0 4:15 9:5 6:10 9:5 4:5 7:5 9:5 6:5 9:5 4:5
4:0 9:5 6:10 9:5 4:5 7:5 9:5 6:5 9:5 4:5 7:5
9:0 6:10 9:5 4:5 7:5 9:5 6:5 9:5 4:5 7:5 9:5
6:0 9:5 4:5 7:5 9:5 6:5 9:5 4:5 7:5 9:5 6:5
9:0 4:5 7:5 9:5 6:5 9:5 4:5 7:5 9:5 6:5 9:20
4:0 7:5 9:5 6:5 9:5 4:5 7:5 9:5 6:5 9:20 4:10
7:0 9:5 6:5 9:5 4:5 7:5 9:5 6:5 9:20 4:10 9:5
9:0 6:5 9:5 4:5 7:5 9:5 6:5 9:20 4:10 9:5 7:10
6:0 9:5 4:5 7:5 9:5 6:5 9:20 4:10 9:5 7:10 9:5
9:0 4:5 7:5 9:5 6:5 9:20 4:10 9:5 7:10 9:5 6:5
4:0 7:5 9:5 6:5 9:20 4:10 9:5 7:10 9:5 6:5 9:5
7:0 9:5 6:5 9:20 4:10 9:5 7:10 9:5 6:5 9:5 6:5
9:0 6:5 9:20 4:10 9:5 7:10 9:5 6:5 9:5 6:5 9:5
6:0 9:20 4:10 9:5 7:10 9:5 6:5 9:5 6:5 9:5 6:5
9:0 4:10 9:5 7:10 9:5 6:5 9:5 6:5 9:5 6:5 4:5
4:0 9:5 7:10 9:5 6:5 9:5 6:5 9:5 6:5 4:5 9:10
9:0 7:10 9:5 6:5 9:5 6:5 9:5 6:5 4:5 9:10 4:15
7:0 9:5 6:5 9:5 6:5 9:5 6:5 4:5 9:10 4:15 6:5
9:0 6:5 9:5 6:5 9:5 6:5 4:5 9:10 4:15 6:5 9:5
6:0 9:5 6:5 9:5 6:5 4:5 9:10 4:15 6:5 9:5 4:10
9:0 6:5 9:5 6:5 4:5 9:10 4:15 6:5 9:5 4:10 9:10
6:0 9:5 6:5 4:5 9:10 4:15 6:5 9:5 4:10 9:10 6:10
9:0 6:5 4:5 9:10 4:15 6:5 9:5 4:10 9:10 6:10 7:10
6:0 4:5 9:10 4:15 6:5 9:5 4:10 9:10 6:10 7:10 6:10
4:0 9:10 4:15 6:5 9:5 4:10 9:10 6:10 7:10 6:10 9:5
9:0 4:15 6:5 9:5 4:10 9:10 6:10 7:10 6:10 9:5 4:5
4:0 6:5 9:5 4:10 9:10 6:10 7:10 6:10 9:5 4:5 6:10
6:0 9:5 4:10 9:10 6:10 7:10 6:10 9:5 4:5 6:10 7:5
9:0 4:10 9:10 6:10 7:10 6:10 9:5 4:5 6:10 7:5 9:5
4:0 9:10 6:10 7:10 6:10 9:5 4:5 6:10 7:5 9:5 4:5
9:0 6:10 7:10 6:10 9:5 4:5 6:10 7:5 9:5 4:5 6:5
6:0 7:10 6:10 9:5 4:5 6:10 7:5 9:5 4:5 6:5 9:10
7:0 6:10 9:5 4:5 6:10 7:5 9:5 4:5 6:5 9:10 4:5
6:0 9:5 4:5 6:10 7:5 9:5 4:5 6:5 9:10 4:5 9:10
9:0 4:5 6:10 7:5 9:5 4:5 6:5 9:10 4:5 9:10 7:5
4:0 6:10 7:5 9:5 4:5 6:5 9:10 4:5 9:10 7:5 9:5
6:0 7:5 9:5 4:5 6:5 9:10 4:5 9:10 7:5 9:5 3:5
7:0 9:5 4:5 6:5 9:10 4:5 9:10 7:5 9:5 3:5 6:5
9:0 4:5 6:5 9:10 4:5 9:10 7:5 9:5 3:5 6:5 9:5
4:0 6:5 9:10 4:5 9:10 7:5 9:5 3:5 6:5 9:5 4:15
6:0 9:10 4:5 9:10 7:5 9:5 3:5 6:5 9:5 4:15 6:5
9:0 4:5 9:10 7:5 9:5 3:5 6:5 9:5 4:15 6:5 9:15
4:0 9:10 7:5 9:5 3:5 6:5 9:5 4:15 6:5 9:15 6:5
9:0 7:5 9:5 3:5 6:5 9:5 4:15 6:5 9:15 6:5 9:10
7:0 9:5 3:5 6:5 9:5 4:15 6:5 9:15 6:5 9:10 6:5
9:0 3:5 6:5 9:5 4:15 6:5 9:15 6:5 9:10 6:5 9:5
3:0 6:5 9:5 4:15 6:5 9:15 6:5 9:10 6:5 9:5 4:5
6:0 9:5 4:15 6:5 9:15 6:5 9:10 6:5 9:5 4:5 7:5
9:0 4:15 6:5 9:15 6:5 9:10 6:5 9:5 4:5 7:5 9:5
4:0 6:5 9:15 6:5 9:10 6:5 9:5 4:5 7:5 9:5 6:5
6:0 9:15 6:5 9:10 6:5 9:5 4:5 7:5 9:5 6:5 9:5
9:0 6:5 9:10 6:5 9:5 4:5 7:5 9:5 6:5 9:5 4:5
6:0 9:10 6:5 9:5 4:5 7:5 9:5 6:5 9:5 4:5 9:5
9:0 6:5 9:5 4:5 7:5 9:5 6:5 9:5 4:5 9:5 6:5
6:0 9:5 4:5 7:5 9:5 6:5 9:5 4:5 9:5 6:5 9:5
9:0 4:5 7:5 9:5 6:5 9:5 4:5 9:5 6:5 9:5 6:5
4:0 7:5 9:5 6:5 9:5 4:5 9:5 6:5 9:5 6:5 2:5
7:0 9:5 6:5 9:5 4:5 9:5 6:5 9:5 6:5 2:5 9:5
9:0 6:5 9:5 4:5 9:5 6:5 9:5 6:5 2:5 9:5 7:10
6:0 9:5 4:5 9:5 6:5 9:5 6:5 2:5 9:5 7:10 4:5
9:0 4:5 9:5 6:5 9:5 6:5 2:5 9:5 7:10 4:5 6:5
4:0 9:5 6:5 9:5 6:5 2:5 9:5 7:10 4:5 6:5 9:5
9:0 6:5 9:5 6:5 2:5 9:5 7:10 4:5 6:5 9:5 6:5
6:0 9:5 6:5 2:5 9:5 7:10 4:5 6:5 9:5 6:5 9:5
9:0 6:5 2:5 9:5 7:10 4:5 6:5 9:5 6:5 9:5 4:5
6:0 2:5 9:5 7:10 4:5 6:5 9:5 6:5 9:5 4:5 6:5
2:0 9:5 7:10 4:5 6:5 9:5 6:5 9:5 4:5 6:5 9:5
9:0 7:10 4:5 6:5 9:5 6:5 9:5 4:5 6:5 9:5 8:10
7:0 4:5 6:5 9:5 6:5 9:5 4:5 6:5 9:5 8:10 4:5
4:0 6:5 9:5 6:5 9:5 4:5 6:5 9:5 8:10 4:5 9:5
6:0 9:5 6:5 9:5 4:5 6:5 9:5 8:10 4:5 9:5 6:10
9:0 6:5 9:5 4:5 6:5 9:5 8:10 4:5 9:5 6:10 9:5
6:0 9:5 4:5 6:5 9:5 8:10 4:5 9:5 6:10 9:5 6:5
9:0 4:5 6:5 9:5 8:10 4:5 9:5 6:10 9:5 6:5 9:5
4:0 6:5 9:5 8:10 4:5 9:5 6:10 9:5 6:5 9:5 6:5
6:0 9:5 8:10 4:5 9:5 6:10 9:5 6:5 9:5 6:5 9:5
9:0 8:10 4:5 9:5 6:10 9:5 6:5 9:5 6:5 9:5 2:10
8:0 4:5 9:5 6:10 9:5 6:5 9:5 6:5 9:5 2:10 9:5
4:0 9:5 6:10 9:5 6:5 9:5 6:5 9:5 2:10 9:5 6:5
9:0 6:10 9:5 6:5 9:5 6:5 9:5 2:10 9:5 6:5 9:5
6:0 9:5 6:5 9:5 6:5 9:5 2:10 9:5 6:5 9:5 4:5
9:0 6:5 9:5 6:5 9:5 2:10 9:5 6:5 9:5 4:5 6:5
6:0 9:5 6:5 9:5 2:10 9:5 6:5 9:5 4:5 6:5 9:5
9:0 6:5 9:5 2:10 9:5 6:5 9:5 4:5 6:5 9:5 7:5
6:0 9:5 2:10 9:5 6:5 9:5 4:5 6:5 9:5 7:5 10:5
9:0 2:10 9:5 6:5 9:5 4:5 6:5 9:5 7:5 10:5 4:5
2:0 9:5 6:5 9:5 4:5 6:5 9:5 7:5 10:5 4:5 9:5
9:0 6:5 9:5 4:5 6:5 9:5 7:5 10:5 4:5 9:5 3:5
6:0 9:5 4:5 6:5 9:5 7:5 10:5 4:5 9:5 3:5 9:5
9:0 4:5 6:5 9:5 7:5 10:5 4:5 9:5 3:5 9:5 2:10
4:0 6:5 9:5 7:5 10:5 4:5 9:5 3:5 9:5 2:10 9:5
6:0 9:5 7:5 10:5 4:5 9:5 3:5 9:5 2:10 9:5 6:5
9:0 7:5 10:5 4:5 9:5 3:5 9:5 2:10 9:5 6:5 9:5
7:0 10:5 4:5 9:5 3:5 9:5 2:10 9:5 6:5 9:5 1:10
10:0 4:5 9:5 3:5 9:5 2:10 9:5 6:5 9:5 1:10 9:5
4:0 9:5 3:5 9:5 2:10 9:5 6:5 9:5 1:10 9:5 6:15
9:0 3:5 9:5 2:10 9:5 6:5 9:5 1:10 9:5 6:15 7:5
3:0 9:5 2:10 9:5 6:5 9:5 1:10 9:5 6:15 7:5 9:5
9:0 2:10 9:5 6:5 9:5 1:10 9:5 6:15 7:5 9:5 7:5
2:0 9:5 6:5 9:5 1:10 9:5 6:15 7:5 9:5 7:5 9:5
9:0 6:5 9:5 1:10 9:5 6:15 7:5 9:5 7:5 9:5 6:5
6:0 9:5 1:10 9:5 6:15 7:5 9:5 7:5 9:5 6:5 7:5
9:0 1:10 9:5 6:15 7:5 9:5 7:5 9:5 6:5 7:5 9:10
1:0 9:5 6:15 7:5 9:5 7:5 9:5 6:5 7:5 9:10 4:10
9:0 6:15 7:5 9:5 7:5 9:5 6:5 7:5 9:10 4:10 9:5
6:0 7:5 9:5 7:5 9:5 6:5 7:5 9:10 4:10 9:5 6:5
7:0 9:5 7:5 9:5 6:5 7:5 9:10 4:10 9:5 6:5 9:5
9:0 7:5 9:5 6:5 7:5 9:10 4:10 9:5 6:5 9:5 4:10
7:0 9:5 6:5 7:5 9:10 4:10 9:5 6:5 9:5 4:10 6:5
9:0 6:5 7:5 9:10 4:10 9:5 6:5 9:5 4:10 6:5 9:10
6:0 7:5 9:10 4:10 9:5 6:5 9:5 4:10 6:5 9:10 2:10
7:0 9:10 4:10 9:5 6:5 9:5 4:10 6:5 9:10 2:10 9:5
9:0 4:10 9:5 6:5 9:5 4:10 6:5 9:10 2:10 9:5 6:5
4:0 9:5 6:5 9:5 4:10 6:5 9:10 2:10 9:5 6:5 9:5
9:0 6:5 9:5 4:10 6:5 9:10 2:10 9:5 6:5 9:5 6:5
6:0 9:5 4:10 6:5 9:10 2:10 9:5 6:5 9:5 6:5 9:10
9:0 4:10 6:5 9:10 2:10 9:5 6:5 9:5 6:5 9:10 7:10
4:0 6:5 9:10 2:10 9:5 6:5 9:5 6:5 9:10 7:10 6:5
6:0 9:10 2:10 9:5 6:5 9:5 6:5 9:10 7:10 6:5 2:5
9:0 2:10 9:5 6:5 9:5 6:5 9:10 7:10 6:5 2:5 9:5
2:0 9:5 6:5 9:5 6:5 9:10 7:10 6:5 2:5 9:5 6:15
9:0 6:5 9:5 6:5 9:10 7:10 6:5 2:5 9:5 6:15 9:5
6:0 9:5 6:5 9:10 7:10 6:5 2:5 9:5 6:15 9:5 7:5
9:0 6:5 9:10 7:10 6:5 2:5 9:5 6:15 9:5 7:5 9:10
6:0 9:10 7:10 6:5 2:5 9:5 6:15 9:5 7:5 9:10 6:5
9:0 7:10 6:5 2:5 9:5 6:15 9:5 7:5 9:10 6:5 9:10
7:0 6:5 2:5 9:5 6:15 9:5 7:5 9:10 6:5 9:10 7:5
6:0 2:5 9:5 6:15 9:5 7:5 9:10 6:5 9:10 7:5 9:5
2:0 9:5 6:15 9:5 7:5 9:10 6:5 9:10 7:5 9:5 4:5
9:0 6:15 9:5 7:5 9:10 6:5 9:10 7:5 9:5 4:5 6:5
6:0 9:5 7:5 9:10 6:5 9:10 7:5 9:5 4:5 6:5 9:5
9:0 7:5 9:10 6:5 9:10 7:5 9:5 4:5 6:5 9:5 7:5
7:0 9:10 6:5 9:10 7:5 9:5 4:5 6:5 9:5 7:5 9:5
9:0 6:5 9:10 7:5 9:5 4:5 6:5 9:5 7:5 9:5 4:5
6:0 9:10 7:5 9:5 4:5 6:5 9:5 7:5 9:5 4:5 6:5
9:0 7:5 9:5 4:5 6:5 9:5 7:5 9:5 4:5 6:5 9:5
7:0 9:5 4:5 6:5 9:5 7:5 9:5 4:5 6:5 9:5 7:5
9:0 4:5 6:5 9:5 7:5 9:5 4:5 6:5 9:5 7:5 9:5
4:0 6:5 9:5 7:5 9:5 4:5 6:5 9:5 7:5 9:5 6:5
6:0 9:5 7:5 9:5 4:5 6:5 9:5 7:5 9:5 6:5 9:5
9:0 7:5 9:5 4:5 6:5 9:5 7:5 9:5 6:5 9:5 6:5
7:0 9:5 4:5 6:5 9:5 7:5 9:5 6:5 9:5 6:5 9:5
9:0 4:5 6:5 9:5 7:5 9:5 6:5 9:5 6:5 9:5 4:5
4:0 6:5 9:5 7:5 9:5 6:5 9:5 6:5 9:5 4:5 7:5
6:0 9:5 7:5 9:5 6:5 9:5 6:5 9:5 4:5 7:5 9:5
9:0 7:5 9:5 6:5 9:5 6:5 9:5 4:5 7:5 9:5 7:10
7:0 9:5 6:5 9:5 6:5 9:5 4:5 7:5 9:5 7:10 4:5
9:0 6:5 9:5 6:5 9:5 4:5 7:5 9:5 7:10 4:5 6:5
6:0 9:5 6:5 9:5 4:5 7:5 9:5 7:10 4:5 6:5 9:5
9:0 6:5 9:5 4:5 7:5 9:5 7:10 4:5 6:5 9:5 8:10
6:0 9:5 4:5 7:5 9:5 7:10 4:5 6:5 9:5 8:10 4:5
9:0 4:5 7:5 9:5 7:10 4:5 6:5 9:5 8:10 4:5 6:5
4:0 7:5 9:5 7:10 4:5 6:5 9:5 8:10 4:5 6:5 9:5
7:0 9:5 7:10 4:5 6:5 9:5 8:10 4:5 6:5 9:5 4:5
9:0 7:10 4:5 6:5 9:5 8:10 4:5 6:5 9:5 4:5 9:5
7:0 4:5 6:5 9:5 8:10 4:5 6:5 9:5 4:5 9:5 4:5
4:0 6:5 9:5 8:10 4:5 6:5 9:5 4:5 9:5 4:5 7:5
6:0 9:5 8:10 4:5 6:5 9:5 4:5 9:5 4:5 7:5 9:5
9:0 8:10 4:5 6:5 9:5 4:5 9:5 4:5 7:5 9:5 6:10
8:0 4:5 6:5 9:5 4:5 9:5 4:5 7:5 9:5 6:10 4:5
4:0 6:5 9:5 4:5 9:5 4:5 7:5 9:5 6:10 4:5 9:5
6:0 9:5 4:5 9:5 4:5 7:5 9:5 6:10 4:5 9:5 7:5
9:0 4:5 9:5 4:5 7:5 9:5 6:10 4:5 9:5 7:5 9:5
4:0 9:5 4:5 7:5 9:5 6:10 4:5 9:5 7:5 9:5 6:5
9:0 4:5 7:5 9:5 6:10 4:5 9:5 7:5 9:5 6:5 7:5
4:0 7:5 9:5 6:10 4:5 9:5 7:5 9:5 6:5 7:5 4:5
7:0 9:5 6:10 4:5 9:5 7:5 9:5 6:5 7:5 4:5 9:5
9:0 6:10 4:5 9:5 7:5 9:5 6:5 7:5 4:5 9:5 4:10
6:0 4:5 9:5 7:5 9:5 6:5 7:5 4:5 9:5 4:10 9:5
4:0 9:5 7:5 9:5 6:5 7:5 4:5 9:5 4:10 9:5 4:5
9:0 7:5 9:5 6:5 7:5 4:5 9:5 4:10 9:5 4:5 9:5
7:0 9:5 6:5 7:5 4:5 9:5 4:10 9:5 4:5 9:5 2:10
9:0 6:5 7:5 4:5 9:5 4:10 9:5 4:5 9:5 2:10 9:5
6:0 7:5 4:5 9:5 4:10 9:5 4:5 9:5 2:10 9:5 6:5
7:0 4:5 9:5 4:10 9:5 4:5 9:5 2:10 9:5 6:5 9:5
4:0 9:5 4:10 9:5 4:5 9:5 2:10 9:5 6:5 9:5 2:10
9:0 4:10 9:5 4:5 9:5 2:10 9:5 6:5 9:5 2:10 9:5
4:0 9:5 4:5 9:5 2:10 9:5 6:5 9:5 2:10 9:5 5:15
9:0 4:5 9:5 2:10 9:5 6:5 9:5 2:10 9:5 5:15 4:5
4:0 9:5 2:10 9:5 6:5 9:5 2:10 9:5 5:15 4:5 9:5
9:0 2:10 9:5 6:5 9:5 2:10 9:5 5:15 4:5 9:5 6:5
2:0 9:5 6:5 9:5 2:10 9:5 5:15 4:5 9:5 6:5 9:5
9:0 6:5 9:5 2:10 9:5 5:15 4:5 9:5 6:5 9:5 4:5
6:0 9:5 2:10 9:5 5:15 4:5 9:5 6:5 9:5 4:5 6:5
9:0 2:10 9:5 5:15 4:5 9:5 6:5 9:5 4:5 6:5 9:5
2:0 9:5 5:15 4:5 9:5 6:5 9:5 4:5 6:5 9:5 4:15
9:0 5:15 4:5 9:5 6:5 9:5 4:5 6:5 9:5 4:15 7:5
5:0 4:5 9:5 6:5 9:5 4:5 6:5 9:5 4:15 7:5 9:5
4:0 9:5 6:5 9:5 4:5 6:5 9:5 4:15 7:5 9:5 6:5
9:0 6:5 9:5 4:5 6:5 9:5 4:15 7:5 9:5 6:5 9:5
6:0 9:5 4:5 6:5 9:5 4:15 7:5 9:5 6:5 9:5 6:5
9:0 4:5 6:5 9:5 4:15 7:5 9:5 6:5 9:5 6:5 9:10
4:0 6:5 9:5 4:15 7:5 9:5 6:5 9:5 6:5 9:10 6:10
6:0 9:5 4:15 7:5 9:5 6:5 9:5 6:5 9:10 6:10 9:10
9:0 4:15 7:5 9:5 6:5 9:5 6:5 9:10 6:10 9:10 6:15
4:0 7:5 9:5 6:5 9:5 6:5 9:10 6:10 9:10 6:15 9:10
7:0 9:5 6:5 9:5 6:5 9:10 6:10 9:10 6:15 9:10 4:5
9:0 6:5 9:5 6:5 9:10 6:10 9:10 6:15 9:10 4:5 9:5
6:0 9:5 6:5 9:10 6:10 9:10 6:15 9:10 4:5 9:5 3:5
9:0 6:5 9:10 6:10 9:10 6:15 9:10 4:5 9:5 3:5 4:5
6:0 9:10 6:10 9:10 6:15 9:10 4:5 9:5 3:5 4:5 9:5
9:0 6:10 9:10 6:15 9:10 4:5 9:5 3:5 4:5 9:5 10:5
6:0 9:10 6:15 9:10 4:5 9:5 3:5 4:5 9:5 10:5 9:5
9:0 6:15 9:10 4:5 9:5 3:5 4:5 9:5 10:5 9:5 6:5
6:0 9:10 4:5 9:5 3:5 4:5 9:5 10:5 9:5 6:5 9:10
9:0 4:5 9:5 3:5 4:5 9:5 10:5 9:5 6:5 9:10 1:15
4:0 9:5 3:5 4:5 9:5 10:5 9:5 6:5 9:10 1:15 9:5
9:0 3:5 4:5 9:5 10:5 9:5 6:5 9:10 1:15 9:5 4:10
3:0 4:5 9:5 10:5 9:5 6:5 9:10 1:15 9:5 4:10 9:5
4:0 9:5 10:5 9:5 6:5 9:10 1:15 9:5 4:10 9:5 4:5
9:0 10:5 9:5 6:5 9:10 1:15 9:5 4:10 9:5 4:5 9:5
10:0 9:5 6:5 9:10 1:15 9:5 4:10 9:5 4:5 9:5 7:5
9:0 6:5 9:10 1:15 9:5 4:10 9:5 4:5 9:5 7:5 9:5
6:0 9:10 1:15 9:5 4:10 9:5 4:5 9:5 7:5 9:5 6:5
9:0 1:15 9:5 4:10 9:5 4:5 9:5 7:5 9:5 6:5 9:10
1:0 9:5 4:10 9:5 4:5 9:5 7:5 9:5 6:5 9:10 7:5
9:0 4:10 9:5 4:5 9:5 7:5 9:5 6:5 9:10 7:5 9:5
4:0 9:5 4:5 9:5 7:5 9:5 6:5 9:10 7:5 9:5 6:5
9:0 4:5 9:5 7:5 9:5 6:5 9:10 7:5 9:5 6:5 4:5
4:0 9:5 7:5 9:5 6:5 9:10 7:5 9:5 6:5 4:5 9:5
9:0 7:5 9:5 6:5 9:10 7:5 9:5 6:5 4:5 9:5 7:5
7:0 9:5 6:5 9:10 7:5 9:5 6:5 4:5 9:5 7:5 9:5
9:0 6:5 9:10 7:5 9:5 6:5 4:5 9:5 7:5 9:5 6:5
6:0 9:10 7:5 9:5 6:5 4:5 9:5 7:5 9:5 6:5 9:10
9:0 7:5 9:5 6:5 4:5 9:5 7:5 9:5 6:5 9:10 6:10
7:0 9:5 6:5 4:5 9:5 7:5 9:5 6:5 9:10 6:10 2:5
9:0 6:5 4:5 9:5 7:5 9:5 6:5 9:10 6:10 2:5 6:5
6:0 4:5 9:5 7:5 9:5 6:5 9:10 6:10 2:5 6:5 9:5
4:0 9:5 7:5 9:5 6:5 9:10 6:10 2:5 6:5 9:5 7:5
9:0 7:5 9:5 6:5 9:10 6:10 2:5 6:5 9:5 7:5 6:5
7:0 9:5 6:5 9:10 6:10 2:5 6:5 9:5 7:5 6:5 4:5
9:0 6:5 9:10 6:10 2:5 6:5 9:5 7:5 6:5 4:5 9:5
6:0 9:10 6:10 2:5 6:5 9:5 7:5 6:5 4:5 9:5 7:10
9:0 6:10 2:5 6:5 9:5 7:5 6:5 4:5 9:5 7:10 6:5
6:0 2:5 6:5 9:5 7:5 6:5 4:5 9:5 7:10 6:5 4:5
2:0 6:5 9:5 7:5 6:5 4:5 9:5 7:10 6:5 4:5 9:5
6:0 9:5 7:5 6:5 4:5 9:5 7:10 6:5 4:5 9:5 7:5
9:0 7:5 6:5 4:5 9:5 7:10 6:5 4:5 9:5 7:5 9:5
7:0 6:5 4:5 9:5 7:10 6:5 4:5 9:5 7:5 9:5 3:5
6:0 4:5 9:5 7:10 6:5 4:5 9:5 7:5 9:5 3:5 7:5
4:0 9:5 7:10 6:5 4:5 9:5 7:5 9:5 3:5 7:5 9:5
9:0 7:10 6:5 4:5 9:5 7:5 9:5 3:5 7:5 9:5 7:5
7:0 6:5 4:5 9:5 7:5 9:5 3:5 7:5 9:5 7:5 9:5
6:0 4:5 9:5 7:5 9:5 3:5 7:5 9:5 7:5 9:5 4:5
4:0 9:5 7:5 9:5 3:5 7:5 9:5 7:5 9:5 4:5 9:5
9:0 7:5 9:5 3:5 7:5 9:5 7:5 9:5 4:5 9:5 6:5
7:0 9:5 3:5 7:5 9:5 7:5 9:5 4:5 9:5 6:5 7:5
9:0 3:5 7:5 9:5 7:5 9:5 4:5 9:5 6:5 7:5 9:5
3:0 7:5 9:5 7:5 9:5 4:5 9:5 6:5 7:5 9:5 4:5
7:0 9:5 7:5 9:5 4:5 9:5 6:5 7:5 9:5 4:5 6:5
9:0 7:5 9:5 4:5 9:5 6:5 7:5 9:5 4:5 6:5 9:5
7:0 9:5 4:5 9:5 6:5 7:5 9:5 4:5 6:5 9:5 4:10
9:0 4:5 9:5 6:5 7:5 9:5 4:5 6:5 9:5 4:10 6:5
4:0 9:5 6:5 7:5 9:5 4:5 6:5 9:5 4:10 6:5 9:5
9:0 6:5 7:5 9:5 4:5 6:5 9:5 4:10 6:5 9:5 4:5
6:0 7:5 9:5 4:5 6:5 9:5 4:10 6:5 9:5 4:5 9:5
7:0 9:5 4:5 6:5 9:5 4:10 6:5 9:5 4:5 9:5 6:5
9:0 4:5 6:5 9:5 4:10 6:5 9:5 4:5 9:5 6:5 4:5
4:0 6:5 9:5 4:10 6:5 9:5 4:5 9:5 6:5 4:5 9:5
6:0 9:5 4:10 6:5 9:5 4:5 9:5 6:5 4:5 9:5 4:15
9:0 4:10 6:5 9:5 4:5 9:5 6:5 4:5 9:5 4:15 6:5
4:0 6:5 9:5 4:5 9:5 6:5 4:5 9:5 4:15 6:5 9:5
6:0 9:5 4:5 9:5 6:5 4:5 9:5 4:15 6:5 9:5 4:15
9:0 4:5 9:5 6:5 4:5 9:5 4:15 6:5 9:5 4:15 6:5
4:0 9:5 6:5 4:5 9:5 4:15 6:5 9:5 4:15 6:5 9:5
9:0 6:5 4:5 9:5 4:15 6:5 9:5 4:15 6:5 9:5 6:5
6:0 4:5 9:5 4:15 6:5 9:5 4:15 6:5 9:5 6:5 9:5
4:0 9:5 4:15 6:5 9:5 4:15 6:5 9:5 6:5 9:5 4:5
9:0 4:15 6:5 9:5 4:15 6:5 9:5 6:5 9:5 4:5 7:5
4:0 6:5 9:5 4:15 6:5 9:5 6:5 9:5 4:5 7:5 10:5
6:0 9:5 4:15 6:5 9:5 6:5 9:5 4:5 7:5 10:5 6:5
9:0 4:15 6:5 9:5 6:5 9:5 4:5 7:5 10:5 6:5 9:5
4:0 6:5 9:5 6:5 9:5 4:5 7:5 10:5 6:5 9:5 4:5
6:0 9:5 6:5 9:5 4:5 7:5 10:5 6:5 9:5 4:5 9:5
9:0 6:5 9:5 4:5 7:5 10:5 6:5 9:5 4:5 9:5 6:5
6:0 9:5 4:5 7:5 10:5 6:5 9:5 4:5 9:5 6:5 9:5
9:0 4:5 7:5 10:5 6:5 9:5 4:5 9:5 6:5 9:5 6:5
4:0 7:5 10:5 6:5 9:5 4:5 9:5 6:5 9:5 6:5 9:10
7:0 10:5 6:5 9:5 4:5 9:5 6:5 9:5 6:5 9:10 4:5
10:0 6:5 9:5 4:5 9:5 6:5 9:5 6:5 9:10 4:5 10:5
6:0 9:5 4:5 9:5 6:5 9:5 6:5 9:10 4:5 10:5 6:5
9:0 4:5 9:5 6:5 9:5 6:5 9:10 4:5 10:5 6:5 9:5
4:0 9:5 6:5 9:5 6:5 9:10 4:5 10:5 6:5 9:5 6:5
9:0 6:5 9:5 6:5 9:10 4:5 10:5 6:5 9:5 6:5 9:5
6:0 9:5 6:5 9:10 4:5 10:5 6:5 9:5 6:5 9:5 2:10
9:0 6:5 9:10 4:5 10:5 6:5 9:5 6:5 9:5 2:10 6:5
6:0 9:10 4:5 10:5 6:5 9:5 6:5 9:5 2:10 6:5 9:5
9:0 4:5 10:5 6:5 9:5 6:5 9:5 2:10 6:5 9:5 4:15
4:0 10:5 6:5 9:5 6:5 9:5 2:10 6:5 9:5 4:15 9:5
10:0 6:5 9:5 6:5 9:5 2:10 6:5 9:5 4:15 9:5 6:10
6:0 9:5 6:5 9:5 2:10 6:5 9:5 4:15 9:5 6:10 9:5
9:0 6:5 9:5 2:10 6:5 9:5 4:15 9:5 6:10 9:5 4:5
6:0 9:5 2:10 6:5 9:5 4:15 9:5 6:10 9:5 4:5 6:5
9:0 2:10 6:5 9:5 4:15 9:5 6:10 9:5 4:5 6:5 9:5
2:0 6:5 9:5 4:15 9:5 6:10 9:5 4:5 6:5 9:5 7:5
6:0 9:5 4:15 9:5 6:10 9:5 4:5 6:5 9:5 7:5 6:5
9:0 4:15 9:5 6:10 9:5 4:5 6:5 9:5 7:5 6:5 4:5
4:0 9:5 6:10 9:5 4:5 6:5 9:5 7:5 6:5 4:5 9:5
9:0 6:10 9:5 4:5 6:5 9:5 7:5 6:5 4:5 9:5 6:15
6:0 9:5 4:5 6:5 9:5 7:5 6:5 4:5 9:5 6:15 7:5
9:0 4:5 6:5 9:5 7:5 6:5 4:5 9:5 6:15 7:5 4:5
4:0 6:5 9:5 7:5 6:5 4:5 9:5 6:15 7:5 4:5 9:5
6:0 9:5 7:5 6:5 4:5 9:5 6:15 7:5 4:5 9:5 2:10
9:0 7:5 6:5 4:5 9:5 6:15 7:5 4:5 9:5 2:10 7:5
7:0 6:5 4:5 9:5 6:15 7:5 4:5 9:5 2:10 7:5 9:5
6:0 4:5 9:5 6:15 7:5 4:5 9:5 2:10 7:5 9:5 7:5
4:0 9:5 6:15 7:5 4:5 9:5 2:10 7:5 9:5 7:5 9:5
9:0 6:15 7:5 4:5 9:5 2:10 7:5 9:5 7:5 9:5 2:5
6:0 7:5 4:5 9:5 2:10 7:5 9:5 7:5 9:5 2:5 6:5
7:0 4:5 9:5 2:10 7:5 9:5 7:5 9:5 2:5 6:5 9:5
4:0 9:5 2:10 7:5 9:5 7:5 9:5 2:5 6:5 9:5 7:5
9:0 2:10 7:5 9:5 7:5 9:5 2:5 6:5 9:5 7:5 9:5
2:0 7:5 9:5 7:5 9:5 2:5 6:5 9:5 7:5 9:5 2:5
7:0 9:5 7:5 9:5 2:5 6:5 9:5 7:5 9:5 2:5 6:5
9:0 7:5 9:5 2:5 6:5 9:5 7:5 9:5 2:5 6:5 9:5
7:0 9:5 2:5 6:5 9:5 7:5 9:5 2:5 6:5 9:5 8:5
9:0 2:5 6:5 9:5 7:5 9:5 2:5 6:5 9:5 8:5 4:5
2:0 6:5 9:5 7:5 9:5 2:5 6:5 9:5 8:5 4:5 9:10
6:0 9:5 7:5 9:5 2:5 6:5 9:5 8:5 4:5 9:10 7:5
9:0 7:5 9:5 2:5 6:5 9:5 8:5 4:5 9:10 7:5 9:5
7:0 9:5 2:5 6:5 9:5 8:5 4:5 9:10 7:5 9:5 4:5
9:0 2:5 6:5 9:5 8:5 4:5 9:10 7:5 9:5 4:5 7:5
2:0 6:5 9:5 8:5 4:5 9:10 7:5 9:5 4:5 7:5 6:5
6:0 9:5 8:5 4:5 9:10 7:5 9:5 4:5 7:5 6:5 9:5
9:0 8:5 4:5 9:10 7:5 9:5 4:5 7:5 6:5 9:5 6:10
8:0 4:5 9:10 7:5 9:5 4:5 7:5 6:5 9:5 6:10 9:10
4:0 9:10 7:5 9:5 4:5 7:5 6:5 9:5 6:10 9:10 6:10
9:0 7:5 9:5 4:5 7:5 6:5 9:5 6:10 9:10 6:10 2:5
7:0 9:5 4:5 7:5 6:5 9:5 6:10 9:10 6:10 2:5 9:5
9:0 4:5 7:5 6:5 9:5 6:10 9:10 6:10 2:5 9:5 6:5
4:0 7:5 6:5 9:5 6:10 9:10 6:10 2:5 9:5 6:5 9:5
7:0 6:5 9:5 6:10 9:10 6:10 2:5 9:5 6:5 9:5 6:5
6:0 9:5 6:10 9:10 6:10 2:5 9:5 6:5 9:5 6:5 4:5
9:0 6:10 9:10 6:10 2:5 9:5 6:5 9:5 6:5 4:5 9:5
6:0 9:10 6:10 2:5 9:5 6:5 9:5 6:5 4:5 9:5 7:5
9:0 6:10 2:5 9:5 6:5 9:5 6:5 4:5 9:5 7:5 9:5
6:0 2:5 9:5 6:5 9:5 6:5 4:5 9:5 7:5 9:5 4:5
2:0 9:5 6:5 9:5 6:5 4:5 9:5 7:5 9:5 4:5 9:10
9:0 6:5 9:5 6:5 4:5 9:5 7:5 9:5 4:5 9:10 6:5
6:0 9:5 6:5 4:5 9:5 7:5 9:5 4:5 9:10 6:5 9:5
9:0 6:5 4:5 9:5 7:5 9:5 4:5 9:10 6:5 9:5 3:5
6:0 4:5 9:5 7:5 9:5 4:5 9:10 6:5 9:5 3:5 6:5
4:0 9:5 7:5 9:5 4:5 9:10 6:5 9:5 3:5 6:5 9:5
9:0 7:5 9:5 4:5 9:10 6:5 9:5 3:5 6:5 9:5 10:5
7:0 9:5 4:5 9:10 6:5 9:5 3:5 6:5 9:5 10:5 9:5
9:0 4:5 9:10 6:5 9:5 3:5 6:5 9:5 10:5 9:5 6:5
4:0 9:10 6:5 9:5 3:5 6:5 9:5 10:5 9:5 6:5 9:10
9:0 6:5 9:5 3:5 6:5 9:5 10:5 9:5 6:5 9:10 2:15
6:0 9:5 3:5 6:5 9:5 10:5 9:5 6:5 9:10 2:15 9:5
9:0 3:5 6:5 9:5 10:5 9:5 6:5 9:10 2:15 9:5 6:15
3:0 6:5 9:5 10:5 9:5 6:5 9:10 2:15 9:5 6:15 4:5
6:0 9:5 10:5 9:5 6:5 9:10 2:15 9:5 6:15 4:5 9:5
9:0 10:5 9:5 6:5 9:10 2:15 9:5 6:15 4:5 9:5 6:15
10:0 9:5 6:5 9:10 2:15 9:5 6:15 4:5 9:5 6:15 4:5
9:0 6:5 9:10 2:15 9:5 6:15 4:5 9:5 6:15 4:5 9:5
6:0 9:10 2:15 9:5 6:15 4:5 9:5 6:15 4:5 9:5 6:5
9:0 2:15 9:5 6:15 4:5 9:5 6:15 4:5 9:5 6:5 9:5
2:0 9:5 6:15 4:5 9:5 6:15 4:5 9:5 6:5 9:5 6:5
9:0 6:15 4:5 9:5 6:15 4:5 9:5 6:5 9:5 6:5 9:5
6:0 4:5 9:5 6:15 4:5 9:5 6:5 9:5 6:5 9:5 6:10
4:0 9:5 6:15 4:5 9:5 6:5 9:5 6:5 9:5 6:10 9:5
9:0 6:15 4:5 9:5 6:5 9:5 6:5 9:5 6:10 9:5 4:5
6:0 4:5 9:5 6:5 9:5 6:5 9:5 6:10 9:5 4:5 9:10
4:0 9:5 6:5 9:5 6:5 9:5 6:10 9:5 4:5 9:10 7:5
9:0 6:5 9:5 6:5 9:5 6:10 9:5 4:5 9:10 7:5 6:5
6:0 9:5 6:5 9:5 6:10 9:5 4:5 9:10 7:5 6:5 2:5
9:0 6:5 9:5 6:10 9:5 4:5 9:10 7:5 6:5 2:5 9:5
6:0 9:5 6:10 9:5 4:5 9:10 7:5 6:5 2:5 9:5 2:20
9:0 6:10 9:5 4:5 9:10 7:5 6:5 2:5 9:5 2:20 9:5
6:0 9:5 4:5 9:10 7:5 6:5 2:5 9:5 2:20 9:5 7:5
9:0 4:5 9:10 7:5 6:5 2:5 9:5 2:20 9:5 7:5 9:5
4:0 9:10 7:5 6:5 2:5 9:5 2:20 9:5 7:5 9:5 6:5
9:0 7:5 6:5 2:5 9:5 2:20 9:5 7:5 9:5 6:5 4:5
7:0 6:5 2:5 9:5 2:20 9:5 7:5 9:5 6:5 4:5 6:5
6:0 2:5 9:5 2:20 9:5 7:5 9:5 6:5 4:5 6:5 9:5
2:0 9:5 2:20 9:5 7:5 9:5 6:5 4:5 6:5 9:5 4:10
9:0 2:20 9:5 7:5 9:5 6:5 4:5 6:5 9:5 4:10 9:5
2:0 9:5 7:5 9:5 6:5 4:5 6:5 9:5 4:10 9:5 6:5
9:0 7:5 9:5 6:5 4:5 6:5 9:5 4:10 9:5 6:5 9:5
7:0 9:5 6:5 4:5 6:5 9:5 4:10 9:5 6:5 9:5 7:5
9:0 6:5 4:5 6:5 9:5 4:10 9:5 6:5 9:5 7:5 2:5
6:0 4:5 6:5 9:5 4:10 9:5 6:5 9:5 7:5 2:5 9:5
4:0 6:5 9:5 4:10 9:5 6:5 9:5 7:5 2:5 9:5 6:10
6:0 9:5 4:10 9:5 6:5 9:5 7:5 2:5 9:5 6:10 9:5
9:0 4:10 9:5 6:5 9:5 7:5 2:5 9:5 6:10 9:5 2:5
4:0 9:5 6:5 9:5 7:5 2:5 9:5 6:10 9:5 2:5 6:5
9:0 6:5 9:5 7:5 2:5 9:5 6:10 9:5 2:5 6:5 9:5
6:0 9:5 7:5 2:5 9:5 6:10 9:5 2:5 6:5 9:5 4:10
9:0 7:5 2:5 9:5 6:10 9:5 2:5 6:5 9:5 4:10 9:10
7:0 2:5 9:5 6:10 9:5 2:5 6:5 9:5 4:10 9:10 6:5
2:0 9:5 6:10 9:5 2:5 6:5 9:5 4:10 9:10 6:5 9:5
9:0 6:10 9:5 2:5 6:5 9:5 4:10 9:10 6:5 9:5 6:5
6:0 9:5 2:5 6:5 9:5 4:10 9:10 6:5 9:5 6:5 4:5
9:0 2:5 6:5 9:5 4:10 9:10 6:5 9:5 6:5 4:5 9:5
2:0 6:5 9:5 4:10 9:10 6:5 9:5 6:5 4:5 9:5 8:10
6:0 9:5 4:10 9:10 6:5 9:5 6:5 4:5 9:5 8:10 4:5
9:0 4:10 9:10 6:5 9:5 6:5 4:5 9:5 8:10 4:5 9:10
4:0 9:10 6:5 9:5 6:5 4:5 9:5 8:10 4:5 9:10 4:15
9:0 6:5 9:5 6:5 4:5 9:5 8:10 4:5 9:10 4:15 9:10
6:0 9:5 6:5 4:5 9:5 8:10 4:5 9:10 4:15 9:10 6:10
9:0 6:5 4:5 9:5 8:10 4:5 9:10 4:15 9:10 6:10 9:10
6:0 4:5 9:5 8:10 4:5 9:10 4:15 9:10 6:10 9:10 6:5
4:0 9:5 8:10 4:5 9:10 4:15 9:10 6:10 9:10 6:5 9:5
9:0 8:10 4:5 9:10 4:15 9:10 6:10 9:10 6:5 9:5 2:10
8:0 4:5 9:10 4:15 9:10 6:10 9:10 6:5 9:5 2:10 9:5
4:0 9:10 4:15 9:10 6:10 9:10 6:5 9:5 2:10 9:5 4:10
9:0 4:15 9:10 6:10 9:10 6:5 9:5 2:10 9:5 4:10 9:5
4:0 9:10 6:10 9:10 6:5 9:5 2:10 9:5 4:10 9:5 4:5
9:0 6:10 9:10 6:5 9:5 2:10 9:5 4:10 9:5 4:5 9:5
6:0 9:10 6:5 9:5 2:10 9:5 4:10 9:5 4:5 9:5 6:5
9:0 6:5 9:5 2:10 9:5 4:10 9:5 4:5 9:5 6:5 9:5
6:0 9:5 2:10 9:5 4:10 9:5 4:5 9:5 6:5 9:5 4:5
9:0 2:10 9:5 4:10 9:5 4:5 9:5 6:5 9:5 4:5 6:5
2:0 9:5 4:10 9:5 4:5 9:5 6:5 9:5 4:5 6:5 9:5
9:0 4:10 9:5 4:5 9:5 6:5 9:5 4:5 6:5 9:5 6:5
4:0 9:5 4:5 9:5 6:5 9:5 4:5 6:5 9:5 6:5 9:5
9:0 4:5 9:5 6:5 9:5 4:5 6:5 9:5 6:5 9:5 4:5
4:0 9:5 6:5 9:5 4:5 6:5 9:5 6:5 9:5 4:5 9:10
9:0 6:5 9:5 4:5 6:5 9:5 6:5 9:5 4:5 9:10 1:15
6:0 9:5 4:5 6:5 9:5 6:5 9:5 4:5 9:10 1:15 7:5
9:0 4:5 6:5 9:5 6:5 9:5 4:5 9:10 1:15 7:5 9:5
4:0 6:5 9:5 6:5 9:5 4:5 9:10 1:15 7:5 9:5 7:5
6:0 9:5 6:5 9:5 4:5 9:10 1:15 7:5 9:5 7:5 9:5
9:0 6:5 9:5 4:5 9:10 1:15 7:5 9:5 7:5 9:5 4:5
6:0 9:5 4:5 9:10 1:15 7:5 9:5 7:5 9:5 4:5 7:5
9:0 4:5 9:10 1:15 7:5 9:5 7:5 9:5 4:5 7:5 9:10
4:0 9:10 1:15 7:5 9:5 7:5 9:5 4:5 7:5 9:10 4:10
9:0 1:15 7:5 9:5 7:5 9:5 4:5 7:5 9:10 4:10 9:5
1:0 7:5 9:5 7:5 9:5 4:5 7:5 9:10 4:10 9:5 6:5
7:0 9:5 7:5 9:5 4:5 7:5 9:10 4:10 9:5 6:5 10:5
9:0 7:5 9:5 4:5 7:5 9:10 4:10 9:5 6:5 10:5 4:5
7:0 9:5 4:5 7:5 9:10 4:10 9:5 6:5 10:5 4:5 6:5
9:0 4:5 7:5 9:10 4:10 9:5 6:5 10:5 4:5 6:5 9:5
4:0 7:5 9:10 4:10 9:5 6:5 10:5 4:5 6:5 9:5 6:15
7:0 9:10 4:10 9:5 6:5 10:5 4:5 6:5 9:5 6:15 9:10
9:0 4:10 9:5 6:5 10:5 4:5 6:5 9:5 6:15 9:10 6:5
4:0 9:5 6:5 10:5 4:5 6:5 9:5 6:15 9:10 6:5 9:5
9:0 6:5 10:5 4:5 6:5 9:5 6:15 9:10 6:5 9:5 6:5
6:0 10:5 4:5 6:5 9:5 6:15 9:10 6:5 9:5 6:5 9:10
10:0 4:5 6:5 9:5 6:15 9:10 6:5 9:5 6:5 9:10 2:15
4:0 6:5 9:5 6:15 9:10 6:5 9:5 6:5 9:10 2:15 9:5
6:0 9:5 6:15 9:10 6:5 9:5 6:5 9:10 2:15 9:5 2:20
9:0 6:15 9:10 6:5 9:5 6:5 9:10 2:15 9:5 2:20 7:5
6:0 9:10 6:5 9:5 6:5 9:10 2:15 9:5 2:20 7:5 9:5
9:0 6:5 9:5 6:5 9:10 2:15 9:5 2:20 7:5 9:5 6:5
6:0 9:5 6:5 9:10 2:15 9:5 2:20 7:5 9:5 6:5 4:10
9:0 6:5 9:10 2:15 9:5 2:20 7:5 9:5 6:5 4:10 9:10
6:0 9:10 2:15 9:5 2:20 7:5 9:5 6:5 4:10 9:10 3:10
9:0 2:15 9:5 2:20 7:5 9:5 6:5 4:10 9:10 3:10 6:5
2:0 9:5 2:20 7:5 9:5 6:5 4:10 9:10 3:10 6:5 4:5
9:0 2:20 7:5 9:5 6:5 4:10 9:10 3:10 6:5 4:5 9:5
2:0 7:5 9:5 6:5 4:10 9:10 3:10 6:5 4:5 9:5 2:10
7:0 9:5 6:5 4:10 9:10 3:10 6:5 4:5 9:5 2:10 6:5
9:0 6:5 4:10 9:10 3:10 6:5 4:5 9:5 2:10 6:5 9:5
6:0 4:10 9:10 3:10 6:5 4:5 9:5 2:10 6:5 9:5 6:5
4:0 9:10 3:10 6:5 4:5 9:5 2:10 6:5 9:5 6:5 9:5
9:0 3:10 6:5 4:5 9:5 2:10 6:5 9:5 6:5 9:5 6:5
3:0 6:5 4:5 9:5 2:10 6:5 9:5 6:5 9:5 6:5 9:10
6:0 4:5 9:5 2:10 6:5 9:5 6:5 9:5 6:5 9:10 7:5
4:0 9:5 2:10 6:5 9:5 6:5 9:5 6:5 9:10 7:5 9:5
9:0 2:10 6:5 9:5 6:5 9:5 6:5 9:10 7:5 9:5 4:5
2:0 6:5 9:5 6:5 9:5 6:5 9:10 7:5 9:5 4:5 6:5
6:0 9:5 6:5 9:5 6:5 9:10 7:5 9:5 4:5 6:5 9:5
9:0 6:5 9:5 6:5 9:10 7:5 9:5 4:5 6:5 9:5 6:10
6:0 9:5 6:5 9:10 7:5 9:5 4:5 6:5 9:5 6:10 4:5
9:0 6:5 9:10 7:5 9:5 4:5 6:5 9:5 6:10 4:5 9:5
6:0 9:10 7:5 9:5 4:5 6:5 9:5 6:10 4:5 9:5 6:15
9:0 7:5 9:5 4:5 6:5 9:5 6:10 4:5 9:5 6:15 9:20
7:0 9:5 4:5 6:5 9:5 6:10 4:5 9:5 6:15 9:20 4:5
9:0 4:5 6:5 9:5 6:10 4:5 9:5 6:15 9:20 4:5 7:5
4:0 6:5 9:5 6:10 4:5 9:5 6:15 9:20 4:5 7:5 9:5
6:0 9:5 6:10 4:5 9:5 6:15 9:20 4:5 7:5 9:5 7:5
9:0 6:10 4:5 9:5 6:15 9:20 4:5 7:5 9:5 7:5 9:5
6:0 4:5 9:5 6:15 9:20 4:5 7:5 9:5 7:5 9:5 4:5
4:0 9:5 6:15 9:20 4:5 7:5 9:5 7:5 9:5 4:5 9:5
9:0 6:15 9:20 4:5 7:5 9:5 7:5 9:5 4:5 9:5 4:5
6:0 9:20 4:5 7:5 9:5 7:5 9:5 4:5 9:5 4:5 9:5
9:0 4:5 7:5 9:5 7:5 9:5 4:5 9:5 4:5 9:5 4:10
4:0 7:5 9:5 7:5 9:5 4:5 9:5 4:5 9:5 4:10 9:10
7:0 9:5 7:5 9:5 4:5 9:5 4:5 9:5 4:10 9:10 4:5
9:0 7:5 9:5 4:5 9:5 4:5 9:5 4:10 9:10 4:5 6:5
7:0 9:5 4:5 9:5 4:5 9:5 4:10 9:10 4:5 6:5 9:15
9:0 4:5 9:5 4:5 9:5 4:10 9:10 4:5 6:5 9:15 6:5
4:0 9:5 4:5 9:5 4:10 9:10 4:5 6:5 9:15 6:5 4:5
9:0 4:5 9:5 4:10 9:10 4:5 6:5 9:15 6:5 4:5 7:5
4:0 9:5 4:10 9:10 4:5 6:5 9:15 6:5 4:5 7:5 9:5
9:0 4:10 9:10 4:5 6:5 9:15 6:5 4:5 7:5 9:5 6:5
4:0 9:10 4:5 6:5 9:15 6:5 4:5 7:5 9:5 6:5 9:5
9:0 4:5 6:5 9:15 6:5 4:5 7:5 9:5 6:5 9:5 4:5
4:0 6:5 9:15 6:5 4:5 7:5 9:5 6:5 9:5 4:5 9:10
6:0 9:15 6:5 4:5 7:5 9:5 6:5 9:5 4:5 9:10 4:15
9:0 6:5 4:5 7:5 9:5 6:5 9:5 4:5 9:10 4:15 7:5
6:0 4:5 7:5 9:5 6:5 9:5 4:5 9:10 4:15 7:5 9:5
4:0 7:5 9:5 6:5 9:5 4:5 9:10 4:15 7:5 9:5 6:5
7:0 9:5 6:5 9:5 4:5 9:10 4:15 7:5 9:5 6:5 9:5
9:0 6:5 9:5 4:5 9:10 4:15 7:5 9:5 6:5 9:5 4:5
6:0 9:5 4:5 9:10 4:15 7:5 9:5 6:5 9:5 4:5 9:10
9:0 4:5 9:10 4:15 7:5 9:5 6:5 9:5 4:5 9:10 6:5
4:0 9:10 4:15 7:5 9:5 6:5 9:5 4:5 9:10 6:5 4:10
9:0 4:15 7:5 9:5 6:5 9:5 4:5 9:10 6:5 4:10 6:5
4:0 7:5 9:5 6:5 9:5 4:5 9:10 6:5 4:10 6:5 9:5
7:0 9:5 6:5 9:5 4:5 9:10 6:5 4:10 6:5 9:5 7:5
9:0 6:5 9:5 4:5 9:10 6:5 4:10 6:5 9:5 7:5 6:5
6:0 9:5 4:5 9:10 6:5 4:10 6:5 9:5 7:5 6:5 9:5
9:0 4:5 9:10 6:5 4:10 6:5 9:5 7:5 6:5 9:5 6:5
4:0 9:10 6:5 4:10 6:5 9:5 7:5 6:5 9:5 6:5 9:5
9:0 6:5 4:10 6:5 9:5 7:5 6:5 9:5 6:5 9:5 6:5
6:0 4:10 6:5 9:5 7:5 6:5 9:5 6:5 9:5 6:5 4:5
4:0 6:5 9:5 7:5 6:5 9:5 6:5 9:5 6:5 4:5 6:5
6:0 9:5 7:5 6:5 9:5 6:5 9:5 6:5 4:5 6:5 9:5
9:0 7:5 6:5 9:5 6:5 9:5 6:5 4:5 6:5 9:5 6:10
7:0 6:5 9:5 6:5 9:5 6:5 4:5 6:5 9:5 6:10 4:5
6:0 9:5 6:5 9:5 6:5 4:5 6:5 9:5 6:10 4:5 9:5
9:0 6:5 9:5 6:5 4:5 6:5 9:5 6:10 4:5 9:5 7:5
6:0 9:5 6:5 4:5 6:5 9:5 6:10 4:5 9:5 7:5 4:5
9:0 6:5 4:5 6:5 9:5 6:10 4:5 9:5 7:5 4:5 9:5
6:0 4:5 6:5 9:5 6:10 4:5 9:5 7:5 4:5 9:5 4:5
4:0 6:5 9:5 6:10 4:5 9:5 7:5 4:5 9:5 4:5 7:5
6:0 9:5 6:10 4:5 9:5 7:5 4:5 9:5 4:5 7:5 9:5
9:0 6:10 4:5 9:5 7:5 4:5 9:5 4:5 7:5 9:5 10:5
6:0 4:5 9:5 7:5 4:5 9:5 4:5 7:5 9:5 10:5 9:5
4:0 9:5 7:5 4:5 9:5 4:5 7:5 9:5 10:5 9:5 4:5
9:0 7:5 4:5 9:5 4:5 7:5 9:5 10:5 9:5 4:5 9:5
7:0 4:5 9:5 4:5 7:5 9:5 10:5 9:5 4:5 9:5 6:5
4:0 9:5 4:5 7:5 9:5 10:5 9:5 4:5 9:5 6:5 9:5
9:0 4:5 7:5 9:5 10:5 9:5 4:5 9:5 6:5 9:5 4:5
4:0 7:5 9:5 10:5 9:5 4:5 9:5 6:5 9:5 4:5 6:5
7:0 9:5 10:5 9:5 4:5 9:5 6:5 9:5 4:5 6:5 9:5
9:0 10:5 9:5 4:5 9:5 6:5 9:5 4:5 6:5 9:5 6:5
10:0 9:5 4:5 9:5 6:5 9:5 4:5 6:5 9:5 6:5 9:5
9:0 4:5 9:5 6:5 9:5 4:5 6:5 9:5 6:5 9:5 4:5
4:0 9:5 6:5 9:5 4:5 6:5 9:5 6:5 9:5 4:5 9:5
9:0 6:5 9:5 4:5 6:5 9:5 6:5 9:5 4:5 9:5 7:10
6:0 9:5 4:5 6:5 9:5 6:5 9:5 4:5 9:5 7:10 9:5
9:0 4:5 6:5 9:5 6:5 9:5 4:5 9:5 7:10 9:5 4:5
4:0 6:5 9:5 6:5 9:5 4:5 9:5 7:10 9:5 4:5 9:5
6:0 9:5 6:5 9:5 4:5 9:5 7:10 9:5 4:5 9:5 6:5
9:0 6:5 9:5 4:5 9:5 7:10 9:5 4:5 9:5 6:5 9:5
6:0 9:5 4:5 9:5 7:10 9:5 4:5 9:5 6:5 9:5 6:5
9:0 4:5 9:5 7:10 9:5 4:5 9:5 6:5 9:5 6:5 4:5
4:0 9:5 7:10 9:5 4:5 9:5 6:5 9:5 6:5 4:5 9:5
9:0 7:10 9:5 4:5 9:5 6:5 9:5 6:5 4:5 9:5 6:5
7:0 9:5 4:5 9:5 6:5 9:5 6:5 4:5 9:5 6:5 9:5
9:0 4:5 9:5 6:5 9:5 6:5 4:5 9:5 6:5 9:5 6:5
4:0 9:5 6:5 9:5 6:5 4:5 9:5 6:5 9:5 6:5 4:5
9:0 6:5 9:5 6:5 4:5 9:5 6:5 9:5 6:5 4:5 9:5
6:0 9:5 6:5 4:5 9:5 6:5 9:5 6:5 4:5 9:5 6:5
9:0 6:5 4:5 9:5 6:5 9:5 6:5 4:5 9:5 6:5 9:5
6:0 4:5 9:5 6:5 9:5 6:5 4:5 9:5 6:5 9:5 4:5
4:0 9:5 6:5 9:5 6:5 4:5 9:5 6:5 9:5 4:5 6:5
9:0 6:5 9:5 6:5 4:5 9:5 6:5 9:5 4:5 6:5 9:5
6:0 9:5 6:5 4:5 9:5 6:5 9:5 4:5 6:5 9:5 4:15
9:0 6:5 4:5 9:5 6:5 9:5 4:5 6:5 9:5 4:15 9:5
6:0 4:5 9:5 6:5 9:5 4:5 6:5 9:5 4:15 9:5 6:10
4:0 9:5 6:5 9:5 4:5 6:5 9:5 4:15 9:5 6:10 9:5
9:0 6:5 9:5 4:5 6:5 9:5 4:15 9:5 6:10 9:5 4:5
6:0 9:5 4:5 6:5 9:5 4:15 9:5 6:10 9:5 4:5 6:5
9:0 4:5 6:5 9:5 4:15 9:5 6:10 9:5 4:5 6:5 9:5
4:0 6:5 9:5 4:15 9:5 6:10 9:5 4:5 6:5 9:5 4:10
6:0 9:5 4:15 9:5 6:10 9:5 4:5 6:5 9:5 4:10 6:5
9:0 4:15 9:5 6:10 9:5 4:5 6:5 9:5 4:10 6:5 9:10
4:0 9:5 6:10 9:5 4:5 6:5 9:5 4:10 6:5 9:10 6:5
9:0 6:10 9:5 4:5 6:5 9:5 4:10 6:5 9:10 6:5 4:10
6:0 9:5 4:5 6:5 9:5 4:10 6:5 9:10 6:5 4:10 9:5
9:0 4:5 6:5 9:5 4:10 6:5 9:10 6:5 4:10 9:5 7:5
4:0 6:5 9:5 4:10 6:5 9:10 6:5 4:10 9:5 7:5 9:5
6:0 9:5 4:10 6:5 9:10 6:5 4:10 9:5 7:5 9:5 4:5
9:0 4:10 6:5 9:10 6:5 4:10 9:5 7:5 9:5 4:5 6:5
4:0 6:5 9:10 6:5 4:10 9:5 7:5 9:5 4:5 6:5 9:10
6:0 9:10 6:5 4:10 9:5 7:5 9:5 4:5 6:5 9:10 4:10
9:0 6:5 4:10 9:5 7:5 9:5 4:5 6:5 9:10 4:10 9:5
6:0 4:10 9:5 7:5 9:5 4:5 6:5 9:10 4:10 9:5 6:5
4:0 9:5 7:5 9:5 4:5 6:5 9:10 4:10 9:5 6:5 9:5
9:0 7:5 9:5 4:5 6:5 9:10 4:10 9:5 6:5 9:5 2:10
7:0 9:5 4:5 6:5 9:10 4:10 9:5 6:5 9:5 2:10 9:5
9:0 4:5 6:5 9:10 4:10 9:5 6:5 9:5 2:10 9:5 4:20
4:0 6:5 9:10 4:10 9:5 6:5 9:5 2:10 9:5 4:20 7:5
6:0 9:10 4:10 9:5 6:5 9:5 2:10 9:5 4:20 7:5 9:5
9:0 4:10 9:5 6:5 9:5 2:10 9:5 4:20 7:5 9:5 6:10
4:0 9:5 6:5 9:5 2:10 9:5 4:20 7:5 9:5 6:10 9:10
9:0 6:5 9:5 2:10 9:5 4:20 7:5 9:5 6:10 9:10 4:15
6:0 9:5 2:10 9:5 4:20 7:5 9:5 6:10 9:10 4:15 6:5
9:0 2:10 9:5 4:20 7:5 9:5 6:10 9:10 4:15 6:5 9:5
2:0 9:5 4:20 7:5 9:5 6:10 9:10 4:15 6:5 9:5 6:5
9:0 4:20 7:5 9:5 6:10 9:10 4:15 6:5 9:5 6:5 9:5
4:0 7:5 9:5 6:10 9:10 4:15 6:5 9:5 6:5 9:5 2:5
7:0 9:5 6:10 9:10 4:15 6:5 9:5 6:5 9:5 2:5 9:5
9:0 6:10 9:10 4:15 6:5 9:5 6:5 9:5 2:5 9:5 6:10
6:0 9:10 4:15 6:5 9:5 6:5 9:5 2:5 9:5 6:10 9:5
9:0 4:15 6:5 9:5 6:5 9:5 2:5 9:5 6:10 9:5 4:5
4:0 6:5 9:5 6:5 9:5 2:5 9:5 6:10 9:5 4:5 9:5
6:0 9:5 6:5 9:5 2:5 9:5 6:10 9:5 4:5 9:5 7:5
9:0 6:5 9:5 2:5 9:5 6:10 9:5 4:5 9:5 7:5 9:5
6:0 9:5 2:5 9:5 6:10 9:5 4:5 9:5 7:5 9:5 6:5
9:0 2:5 9:5 6:10 9:5 4:5 9:5 7:5 9:5 6:5 2:5
2:0 9:5 6:10 9:5 4:5 9:5 7:5 9:5 6:5 2:5 10:5
9:0 6:10 9:5 4:5 9:5 7:5 9:5 6:5 2:5 10:5 6:5
6:0 9:5 4:5 9:5 7:5 9:5 6:5 2:5 10:5 6:5 9:5
9:0 4:5 9:5 7:5 9:5 6:5 2:5 10:5 6:5 9:5 6:5
4:0 9:5 7:5 9:5 6:5 2:5 10:5 6:5 9:5 6:5 4:5
9:0 7:5 9:5 6:5 2:5 10:5 6:5 9:5 6:5 4:5 9:5
7:0 9:5 6:5 2:5 10:5 6:5 9:5 6:5 4:5 9:5 4:15
9:0 6:5 2:5 10:5 6:5 9:5 6:5 4:5 9:5 4:15 9:5
6:0 2:5 10:5 6:5 9:5 6:5 4:5 9:5 4:15 9:5 4:10
2:0 10:5 6:5 9:5 6:5 4:5 9:5 4:15 9:5 4:10 9:5
10:0 6:5 9:5 6:5 4:5 9:5 4:15 9:5 4:10 9:5 6:5
6:0 9:5 6:5 4:5 9:5 4:15 9:5 4:10 9:5 6:5 9:10
9:0 6:5 4:5 9:5 4:15 9:5 4:10 9:5 6:5 9:10 6:5
6:0 4:5 9:5 4:15 9:5 4:10 9:5 6:5 9:10 6:5 9:5
4:0 9:5 4:15 9:5 4:10 9:5 6:5 9:10 6:5 9:5 6:5
9:0 4:15 9:5 4:10 9:5 6:5 9:10 6:5 9:5 6:5 9:10
4:0 9:5 4:10 9:5 6:5 9:10 6:5 9:5 6:5 9:10 7:5
9:0 4:10 9:5 6:5 9:10 6:5 9:5 6:5 9:10 7:5 9:5
4:0 9:5 6:5 9:10 6:5 9:5 6:5 9:10 7:5 9:5 4:5
9:0 6:5 9:10 6:5 9:5 6:5 9:10 7:5 9:5 4:5 9:5
6:0 9:10 6:5 9:5 6:5 9:10 7:5 9:5 4:5 9:5 6:5
9:0 6:5 9:5 6:5 9:10 7:5 9:5 4:5 9:5 6:5 9:5
6:0 9:5 6:5 9:10 7:5 9:5 4:5 9:5 6:5 9:5 4:5
9:0 6:5 9:10 7:5 9:5 4:5 9:5 6:5 9:5 4:5 7:5
6:0 9:10 7:5 9:5 4:5 9:5 6:5 9:5 4:5 7:5 9:5
9:0 7:5 9:5 4:5 9:5 6:5 9:5 4:5 7:5 9:5 7:10
7:0 9:5 4:5 9:5 6:5 9:5 4:5 7:5 9:5 7:10 4:5
9:0 4:5 9:5 6:5 9:5 4:5 7:5 9:5 7:10 4:5 6:5
4:0 9:5 6:5 9:5 4:5 7:5 9:5 7:10 4:5 6:5 9:5
9:0 6:5 9:5 4:5 7:5 9:5 7:10 4:5 6:5 9:5 6:5
6:0 9:5 4:5 7:5 9:5 7:10 4:5 6:5 9:5 6:5 9:5
9:0 4:5 7:5 9:5 7:10 4:5 6:5 9:5 6:5 9:5 4:5
4:0 7:5 9:5 7:10 4:5 6:5 9:5 6:5 9:5 4:5 6:5
7:0 9:5 7:10 4:5 6:5 9:5 6:5 9:5 4:5 6:5 9:5
9:0 7:10 4:5 6:5 9:5 6:5 9:5 4:5 6:5 9:5 4:15
7:0 4:5 6:5 9:5 6:5 9:5 4:5 6:5 9:5 4:15 9:5
4:0 6:5 9:5 6:5 9:5 4:5 6:5 9:5 4:15 9:5 7:10
6:0 9:5 6:5 9:5 4:5 6:5 9:5 4:15 9:5 7:10 9:5
9:0 6:5 9:5 4:5 6:5 9:5 4:15 9:5 7:10 9:5 6:5
6:0 9:5 4:5 6:5 9:5 4:15 9:5 7:10 9:5 6:5 9:5
9:0 4:5 6:5 9:5 4:15 9:5 7:10 9:5 6:5 9:5 7:5
4:0 6:5 9:5 4:15 9:5 7:10 9:5 6:5 9:5 7:5 6:5
6:0 9:5 4:15 9:5 7:10 9:5 6:5 9:5 7:5 6:5 9:5
9:0 4:15 9:5 7:10 9:5 6:5 9:5 7:5 6:5 9:5 6:5
4:0 9:5 7:10 9:5 6:5 9:5 7:5 6:5 9:5 6:5 9:5
9:0 7:10 9:5 6:5 9:5 7:5 6:5 9:5 6:5 9:5 4:5
7:0 9:5 6:5 9:5 7:5 6:5 9:5 6:5 9:5 4:5 9:5
9:0 6:5 9:5 7:5 6:5 9:5 6:5 9:5 4:5 9:5 4:5
6:0 9:5 7:5 6:5 9:5 6:5 9:5 4:5 9:5 4:5 9:10
9:0 7:5 6:5 9:5 6:5 9:5 4:5 9:5 4:5 9:10 6:15
7:0 6:5 9:5 6:5 9:5 4:5 9:5 4:5 9:10 6:15 7:5
6:0 9:5 6:5 9:5 4:5 9:5 4:5 9:10 6:15 7:5 9:10
9:0 6:5 9:5 4:5 9:5 4:5 9:10 6:15 7:5 9:10 2:10
6:0 9:5 4:5 9:5 4:5 9:10 6:15 7:5 9:10 2:10 7:5
9:0 4:5 9:5 4:5 9:10 6:15 7:5 9:10 2:10 7:5 6:10
4:0 9:5 4:5 9:10 6:15 7:5 9:10 2:10 7:5 6:10 9:5
9:0 4:5 9:10 6:15 7:5 9:10 2:10 7:5 6:10 9:5 2:5
4:0 9:10 6:15 7:5 9:10 2:10 7:5 6:10 9:5 2:5 7:5
9:0 6:15 7:5 9:10 2:10 7:5 6:10 9:5 2:5 7:5 9:5
6:0 7:5 9:10 2:10 7:5 6:10 9:5 2:5 7:5 9:5 6:10
7:0 9:10 2:10 7:5 6:10 9:5 2:5 7:5 9:5 6:10 9:10
9:0 2:10 7:5 6:10 9:5 2:5 7:5 9:5 6:10 9:10 4:5
2:0 7:5 6:10 9:5 2:5 7:5 9:5 6:10 9:10 4:5 10:5
7:0 6:10 9:5 2:5 7:5 9:5 6:10 9:10 4:5 10:5 4:5
6:0 9:5 2:5 7:5 9:5 6:10 9:10 4:5 10:5 4:5 9:5
9:0 2:5 7:5 9:5 6:10 9:10 4:5 10:5 4:5 9:5 6:5
2:0 7:5 9:5 6:10 9:10 4:5 10:5 4:5 9:5 6:5 9:5
7:0 9:5 6:10 9:10 4:5 10:5 4:5 9:5 6:5 9:5 4:10
9:0 6:10 9:10 4:5 10:5 4:5 9:5 6:5 9:5 4:10 7:5
6:0 9:10 4:5 10:5 4:5 9:5 6:5 9:5 4:10 7:5 9:5
9:0 4:5 10:5 4:5 9:5 6:5 9:5 4:10 7:5 9:5 6:5
4:0 10:5 4:5 9:5 6:5 9:5 4:10 7:5 9:5 6:5 9:5
10:0 4:5 9:5 6:5 9:5 4:10 7:5 9:5 6:5 9:5 4:5
4:0 9:5 6:5 9:5 4:10 7:5 9:5 6:5 9:5 4:5 7:5
9:0 6:5 9:5 4:10 7:5 9:5 6:5 9:5 4:5 7:5 6:5
6:0 9:5 4:10 7:5 9:5 6:5 9:5 4:5 7:5 6:5 10:5
9:0 4:10 7:5 9:5 6:5 9:5 4:5 7:5 6:5 10:5 9:5
4:0 7:5 9:5 6:5 9:5 4:5 7:5 6:5 10:5 9:5 2:5
7:0 9:5 6:5 9:5 4:5 7:5 6:5 10:5 9:5 2:5 9:5
9:0 6:5 9:5 4:5 7:5 6:5 10:5 9:5 2:5 9:5 4:15
6:0 9:5 4:5 7:5 6:5 10:5 9:5 2:5 9:5 4:15 6:5
9:0 4:5 7:5 6:5 10:5 9:5 2:5 9:5 4:15 6:5 9:5
4:0 7:5 6:5 10:5 9:5 2:5 9:5 4:15 6:5 9:5 6:5
7:0 6:5 10:5 9:5 2:5 9:5 4:15 6:5 9:5 6:5 9:5
6:0 10:5 9:5 2:5 9:5 4:15 6:5 9:5 6:5 9:5 4:5
10:0 9:5 2:5 9:5 4:15 6:5 9:5 6:5 9:5 4:5 6:5
9:0 2:5 9:5 4:15 6:5 9:5 6:5 9:5 4:5 6:5 9:5
2:0 9:5 4:15 6:5 9:5 6:5 9:5 4:5 6:5 9:5 4:15
9:0 4:15 6:5 9:5 6:5 9:5 4:5 6:5 9:5 4:15 9:10
4:0 6:5 9:5 6:5 9:5 4:5 6:5 9:5 4:15 9:10 4:15
6:0 9:5 6:5 9:5 4:5 6:5 9:5 4:15 9:10 4:15 10:5
9:0 6:5 9:5 4:5 6:5 9:5 4:15 9:10 4:15 10:5 9:5
6:0 9:5 4:5 6:5 9:5 4:15 9:10 4:15 10:5 9:5 6:5
9:0 4:5 6:5 9:5 4:15 9:10 4:15 10:5 9:5 6:5 9:5
4:0 6:5 9:5 4:15 9:10 4:15 10:5 9:5 6:5 9:5 4:5
6:0 9:5 4:15 9:10 4:15 10:5 9:5 6:5 9:5 4:5 7:5
9:0 4:15 9:10 4:15 10:5 9:5 6:5 9:5 4:5 7:5 9:5
4:0 9:10 4:15 10:5 9:5 6:5 9:5 4:5 7:5 9:5 6:5
9:0 4:15 10:5 9:5 6:5 9:5 4:5 7:5 9:5 6:5 9:5
4:0 10:5 9:5 6:5 9:5 4:5 7:5 9:5 6:5 9:5 4:5
10:0 9:5 6:5 9:5 4:5 7:5 9:5 6:5 9:5 4:5 6:5
9:0 6:5 9:5 4:5 7:5 9:5 6:5 9:5 4:5 6:5 9:5
6:0 9:5 4:5 7:5 9:5 6:5 9:5 4:5 6:5 9:5 4:10
9:0 4:5 7:5 9:5 6:5 9:5 4:5 6:5 9:5 4:10 6:5
4:0 7:5 9:5 6:5 9:5 4:5 6:5 9:5 4:10 6:5 9:5
7:0 9:5 6:5 9:5 4:5 6:5 9:5 4:10 6:5 9:5 7:5
9:0 6:5 9:5 4:5 6:5 9:5 4:10 6:5 9:5 7:5 9:5
6:0 9:5 4:5 6:5 9:5 4:10 6:5 9:5 7:5 9:5 6:5
9:0 4:5 6:5 9:5 4:10 6:5 9:5 7:5 9:5 6:5 4:5
4:0 6:5 9:5 4:10 6:5 9:5 7:5 9:5 6:5 4:5 9:5
6:0 9:5 4:10 6:5 9:5 7:5 9:5 6:5 4:5 9:5 4:5
9:0 4:10 6:5 9:5 7:5 9:5 6:5 4:5 9:5 4:5 9:5
4:0 6:5 9:5 7:5 9:5 6:5 4:5 9:5 4:5 9:5 4:5
6:0 9:5 7:5 9:5 6:5 4:5 9:5 4:5 9:5 4:5 9:10
9:0 7:5 9:5 6:5 4:5 9:5 4:5 9:5 4:5 9:10 2:15
7:0 9:5 6:5 4:5 9:5 4:5 9:5 4:5 9:10 2:15 9:5
9:0 6:5 4:5 9:5 4:5 9:5 4:5 9:10 2:15 9:5 4:15
6:0 4:5 9:5 4:5 9:5 4:5 9:10 2:15 9:5 4:15 6:5
4:0 9:5 4:5 9:5 4:5 9:10 2:15 9:5 4:15 6:5 9:5
9:0 4:5 9:5 4:5 9:10 2:15 9:5 4:15 6:5 9:5 7:5
4:0 9:5 4:5 9:10 2:15 9:5 4:15 6:5 9:5 7:5 9:5
9:0 4:5 9:10 2:15 9:5 4:15 6:5 9:5 7:5 9:5 6:5
4:0 9:10 2:15 9:5 4:15 6:5 9:5 7:5 9:5 6:5 7:5
9:0 2:15 9:5 4:15 6:5 9:5 7:5 9:5 6:5 7:5 9:5
2:0 9:5 4:15 6:5 9:5 7:5 9:5 6:5 7:5 9:5 7:5
9:0 4:15 6:5 9:5 7:5 9:5 6:5 7:5 9:5 7:5 9:5
4:0 6:5 9:5 7:5 9:5 6:5 7:5 9:5 7:5 9:5 4:5
6:0 9:5 7:5 9:5 6:5 7:5 9:5 7:5 9:5 4:5 9:5
9:0 7:5 9:5 6:5 7:5 9:5 7:5 9:5 4:5 9:5 6:5
7:0 9:5 6:5 7:5 9:5 7:5 9:5 4:5 9:5 6:5 9:5
9:0 6:5 7:5 9:5 7:5 9:5 4:5 9:5 6:5 9:5 4:10
6:0 7:5 9:5 7:5 9:5 4:5 9:5 6:5 9:5 4:10 6:5
7:0 9:5 7:5 9:5 4:5 9:5 6:5 9:5 4:10 6:5 9:10
9:0 7:5 9:5 4:5 9:5 6:5 9:5 4:10 6:5 9:10 6:5
7:0 9:5 4:5 9:5 6:5 9:5 4:10 6:5 9:10 6:5 4:5
9:0 4:5 9:5 6:5 9:5 4:10 6:5 9:10 6:5 4:5 10:5
4:0 9:5 6:5 9:5 4:10 6:5 9:10 6:5 4:5 10:5 6:5
9:0 6:5 9:5 4:10 6:5 9:10 6:5 4:5 10:5 6:5 9:5
6:0 9:5 4:10 6:5 9:10 6:5 4:5 10:5 6:5 9:5 6:5
9:0 4:10 6:5 9:10 6:5 4:5 10:5 6:5 9:5 6:5 4:5
4:0 6:5 9:10 6:5 4:5 10:5 6:5 9:5 6:5 4:5 9:5
6:0 9:10 6:5 4:5 10:5 6:5 9:5 6:5 4:5 9:5 4:15
9:0 6:5 4:5 10:5 6:5 9:5 6:5 4:5 9:5 4:15 6:5
6:0 4:5 10:5 6:5 9:5 6:5 4:5 9:5 4:15 6:5 9:5
4:0 10:5 6:5 9:5 6:5 4:5 9:5 4:15 6:5 9:5 6:5
10:0 6:5 9:5 6:5 4:5 9:5 4:15 6:5 9:5 6:5 9:5
6:0 9:5 6:5 4:5 9:5 4:15 6:5 9:5 6:5 9:5 6:5
9:0 6:5 4:5 9:5 4:15 6:5 9:5 6:5 9:5 6:5 9:10
6:0 4:5 9:5 4:15 6:5 9:5 6:5 9:5 6:5 9:10 6:5
4:0 9:5 4:15 6:5 9:5 6:5 9:5 6:5 9:10 6:5 9:5
9:0 4:15 6:5 9:5 6:5 9:5 6:5 9:10 6:5 9:5 4:5
4:0 6:5 9:5 6:5 9:5 6:5 9:10 6:5 9:5 4:5 7:5
6:0 9:5 6:5 9:5 6:5 9:10 6:5 9:5 4:5 7:5 9:5
9:0 6:5 9:5 6:5 9:10 6:5 9:5 4:5 7:5 9:5 6:5
6:0 9:5 6:5 9:10 6:5 9:5 4:5 7:5 9:5 6:5 9:5
9:0 6:5 9:10 6:5 9:5 4:5 7:5 9:5 6:5 9:5 4:5
6:0 9:10 6:5 9:5 4:5 7:5 9:5 6:5 9:5 4:5 6:5
9:0 6:5 9:5 4:5 7:5 9:5 6:5 9:5 4:5 6:5 9:5
6:0 9:5 4:5 7:5 9:5 6:5 9:5 4:5 6:5 9:5 6:5
9:0 4:5 7:5 9:5 6:5 9:5 4:5 6:5 9:5 6:5 9:5
4:0 7:5 9:5 6:5 9:5 4:5 6:5 9:5 6:5 9:5 4:5
7:0 9:5 6:5 9:5 4:5 6:5 9:5 6:5 9:5 4:5 7:5
9:0 6:5 9:5 4:5 6:5 9:5 6:5 9:5 4:5 7:5 9:10
6:0 9:5 4:5 6:5 9:5 6:5 9:5 4:5 7:5 9:10 6:5
9:0 4:5 6:5 9:5 6:5 9:5 4:5 7:5 9:10 6:5 2:5
4:0 6:5 9:5 6:5 9:5 4:5 7:5 9:10 6:5 2:5 9:5
6:0 9:5 6:5 9:5 4:5 7:5 9:10 6:5 2:5 9:5 4:15
9:0 6:5 9:5 4:5 7:5 9:10 6:5 2:5 9:5 4:15 6:5
6:0 9:5 4:5 7:5 9:10 6:5 2:5 9:5 4:15 6:5 9:5
9:0 4:5 7:5 9:10 6:5 2:5 9:5 4:15 6:5 9:5 6:15
4:0 7:5 9:10 6:5 2:5 9:5 4:15 6:5 9:5 6:15 9:5
7:0 9:10 6:5 2:5 9:5 4:15 6:5 9:5 6:15 9:5 6:5
9:0 6:5 2:5 9:5 4:15 6:5 9:5 6:15 9:5 6:5 9:5
6:0 2:5 9:5 4:15 6:5 9:5 6:15 9:5 6:5 9:5 4:10
2:0 9:5 4:15 6:5 9:5 6:15 9:5 6:5 9:5 4:10 9:5
9:0 4:15 6:5 9:5 6:15 9:5 6:5 9:5 4:10 9:5 7:5
4:0 6:5 9:5 6:15 9:5 6:5 9:5 4:10 9:5 7:5 4:5
6:0 9:5 6:15 9:5 6:5 9:5 4:10 9:5 7:5 4:5 9:5
9:0 6:15 9:5 6:5 9:5 4:10 9:5 7:5 4:5 9:5 4:5
6:0 9:5 6:5 9:5 4:10 9:5 7:5 4:5 9:5 4:5 9:5
9:0 6:5 9:5 4:10 9:5 7:5 4:5 9:5 4:5 9:5 7:5
6:0 9:5 4:10 9:5 7:5 4:5 9:5 4:5 9:5 7:5 9:5
9:0 4:10 9:5 7:5 4:5 9:5 4:5 9:5 7:5 9:5 6:5
4:0 9:5 7:5 4:5 9:5 4:5 9:5 7:5 9:5 6:5 4:5
9:0 7:5 4:5 9:5 4:5 9:5 7:5 9:5 6:5 4:5 9:5
7:0 4:5 9:5 4:5 9:5 7:5 9:5 6:5 4:5 9:5 7:5
4:0 9:5 4:5 9:5 7:5 9:5 6:5 4:5 9:5 7:5 10:5
9:0 4:5 9:5 7:5 9:5 6:5 4:5 9:5 7:5 10:5 4:5
4:0 9:5 7:5 9:5 6:5 4:5 9:5 7:5 10:5 4:5 6:5
9:0 7:5 9:5 6:5 4:5 9:5 7:5 10:5 4:5 6:5 9:5
7:0 9:5 6:5 4:5 9:5 7:5 10:5 4:5 6:5 9:5 6:5
9:0 6:5 4:5 9:5 7:5 10:5 4:5 6:5 9:5 6:5 9:5
6:0 4:5 9:5 7:5 10:5 4:5 6:5 9:5 6:5 9:5 6:5
4:0 9:5 7:5 10:5 4:5 6:5 9:5 6:5 9:5 6:5 9:5
9:0 7:5 10:5 4:5 6:5 9:5 6:5 9:5 6:5 9:5 7:5
7:0 10:5 4:5 6:5 9:5 6:5 9:5 6:5 9:5 7:5 9:5
10:0 4:5 6:5 9:5 6:5 9:5 6:5 9:5 7:5 9:5 4:10
4:0 6:5 9:5 6:5 9:5 6:5 9:5 7:5 9:5 4:10 9:10
6:0 9:5 6:5 9:5 6:5 9:5 7:5 9:5 4:10 9:10 4:15
9:0 6:5 9:5 6:5 9:5 7:5 9:5 4:10 9:10 4:15 7:5
6:0 9:5 6:5 9:5 7:5 9:5 4:10 9:10 4:15 7:5 6:5
9:0 6:5 9:5 7:5 9:5 4:10 9:10 4:15 7:5 6:5 9:5
6:0 9:5 7:5 9:5 4:10 9:10 4:15 7:5 6:5 9:5 4:10
9:0 7:5 9:5 4:10 9:10 4:15 7:5 6:5 9:5 4:10 7:5
7:0 9:5 4:10 9:10 4:15 7:5 6:5 9:5 4:10 7:5 9:5
9:0 4:10 9:10 4:15 7:5 6:5 9:5 4:10 7:5 9:5 4:10
4:0 9:10 4:15 7:5 6:5 9:5 4:10 7:5 9:5 4:10 9:10
9:0 4:15 7:5 6:5 9:5 4:10 7:5 9:5 4:10 9:10 2:15
4:0 7:5 6:5 9:5 4:10 7:5 9:5 4:10 9:10 2:15 6:5
7:0 6:5 9:5 4:10 7:5 9:5 4:10 9:10 2:15 6:5 9:5
6:0 9:5 4:10 7:5 9:5 4:10 9:10 2:15 6:5 9:5 6:5
9:0 4:10 7:5 9:5 4:10 9:10 2:15 6:5 9:5 6:5 9:5
4:0 7:5 9:5 4:10 9:10 2:15 6:5 9:5 6:5 9:5 4:5
7:0 9:5 4:10 9:10 2:15 6:5 9:5 6:5 9:5 4:5 9:5
9:0 4:10 9:10 2:15 6:5 9:5 6:5 9:5 4:5 9:5 6:5
4:0 9:10 2:15 6:5 9:5 6:5 9:5 4:5 9:5 6:5 9:5
9:0 2:15 6:5 9:5 6:5 9:5 4:5 9:5 6:5 9:5 6:5
2:0 6:5 9:5 6:5 9:5 4:5 9:5 6:5 9:5 6:5 9:10
6:0 9:5 6:5 9:5 4:5 9:5 6:5 9:5 6:5 9:10 4:5
9:0 6:5 9:5 4:5 9:5 6:5 9:5 6:5 9:10 4:5 9:5
6:0 9:5 4:5 9:5 6:5 9:5 6:5 9:10 4:5 9:5 6:5
9:0 4:5 9:5 6:5 9:5 6:5 9:10 4:5 9:5 6:5 4:5
4:0 9:5 6:5 9:5 6:5 9:10 4:5 9:5 6:5 4:5 10:5
9:0 6:5 9:5 6:5 9:10 4:5 9:5 6:5 4:5 10:5 4:15
6:0 9:5 6:5 9:10 4:5 9:5 6:5 4:5 10:5 4:15 6:5
9:0 6:5 9:10 4:5 9:5 6:5 4:5 10:5 4:15 6:5 7:10
6:0 9:10 4:5 9:5 6:5 4:5 10:5 4:15 6:5 7:10 9:5
9:0 4:5 9:5 6:5 4:5 10:5 4:15 6:5 7:10 9:5 4:5
4:0 9:5 6:5 4:5 10:5 4:15 6:5 7:10 9:5 4:5 6:5
9:0 6:5 4:5 10:5 4:15 6:5 7:10 9:5 4:5 6:5 9:5
6:0 4:5 10:5 4:15 6:5 7:10 9:5 4:5 6:5 9:5 6:10
4:0 10:5 4:15 6:5 7:10 9:5 4:5 6:5 9:5 6:10 4:5
10:0 4:15 6:5 7:10 9:5 4:5 6:5 9:5 6:10 4:5 9:5
4:0 6:5 7:10 9:5 4:5 6:5 9:5 6:10 4:5 9:5 7:5
6:0 7:10 9:5 4:5 6:5 9:5 6:10 4:5 9:5 7:5 9:5
7:0 9:5 4:5 6:5 9:5 6:10 4:5 9:5 7:5 9:5 4:10
9:0 4:5 6:5 9:5 6:10 4:5 9:5 7:5 9:5 4:10 7:5
4:0 6:5 9:5 6:10 4:5 9:5 7:5 9:5 4:10 7:5 9:5
6:0 9:5 6:10 4:5 9:5 7:5 9:5 4:10 7:5 9:5 4:10
9:0 6:10 4:5 9:5 7:5 9:5 4:10 7:5 9:5 4:10 9:10
6:0 4:5 9:5 7:5 9:5 4:10 7:5 9:5 4:10 9:10 6:5
4:0 9:5 7:5 9:5 4:10 7:5 9:5 4:10 9:10 6:5 10:5
9:0 7:5 9:5 4:10 7:5 9:5 4:10 9:10 6:5 10:5 4:5
7:0 9:5 4:10 7:5 9:5 4:10 9:10 6:5 10:5 4:5 6:5
9:0 4:10 7:5 9:5 4:10 9:10 6:5 10:5 4:5 6:5 9:5
4:0 7:5 9:5 4:10 9:10 6:5 10:5 4:5 6:5 9:5 4:5
7:0 9:5 4:10 9:10 6:5 10:5 4:5 6:5 9:5 4:5 9:5
9:0 4:10 9:10 6:5 10:5 4:5 6:5 9:5 4:5 9:5 4:5
4:0 9:10 6:5 10:5 4:5 6:5 9:5 4:5 9:5 4:5 6:5
9:0 6:5 10:5 4:5 6:5 9:5 4:5 9:5 4:5 6:5 9:5
6:0 10:5 4:5 6:5 9:5 4:5 9:5 4:5 6:5 9:5 10:5
10:0 4:5 6:5 9:5 4:5 9:5 4:5 6:5 9:5 10:5 8:5
4:0 6:5 9:5 4:5 9:5 4:5 6:5 9:5 10:5 8:5 2:5
6:0 9:5 4:5 9:5 4:5 6:5 9:5 10:5 8:5 2:5 9:5
9:0 4:5 9:5 4:5 6:5 9:5 10:5 8:5 2:5 9:5 6:5
4:0 9:5 4:5 6:5 9:5 10:5 8:5 2:5 9:5 6:5 9:5
9:0 4:5 6:5 9:5 10:5 8:5 2:5 9:5 6:5 9:5 6:10
4:0 6:5 9:5 10:5 8:5 2:5 9:5 6:5 9:5 6:10 7:5
6:0 9:5 10:5 8:5 2:5 9:5 6:5 9:5 6:10 7:5 6:10
9:0 10:5 8:5 2:5 9:5 6:5 9:5 6:10 7:5 6:10 7:10
10:0 8:5 2:5 9:5 6:5 9:5 6:10 7:5 6:10 7:10 6:5
8:0 2:5 9:5 6:5 9:5 6:10 7:5 6:10 7:10 6:5 9:5
2:0 9:5 6:5 9:5 6:10 7:5 6:10 7:10 6:5 9:5 6:5
9:0 6:5 9:5 6:10 7:5 6:10 7:10 6:5 9:5 6:5 7:10
6:0 9:5 6:10 7:5 6:10 7:10 6:5 9:5 6:5 7:10 4:5
9:0 6:10 7:5 6:10 7:10 6:5 9:5 6:5 7:10 4:5 9:5
6:0 7:5 6:10 7:10 6:5 9:5 6:5 7:10 4:5 9:5 4:10
7:0 6:10 7:10 6:5 9:5 6:5 7:10 4:5 9:5 4:10 6:5
6:0 7:10 6:5 9:5 6:5 7:10 4:5 9:5 4:10 6:5 9:5
7:0 6:5 9:5 6:5 7:10 4:5 9:5 4:10 6:5 9:5 6:10
6:0 9:5 6:5 7:10 4:5 9:5 4:10 6:5 9:5 6:10 4:5
9:0 6:5 7:10 4:5 9:5 4:10 6:5 9:5 6:10 4:5 9:5
6:0 7:10 4:5 9:5 4:10 6:5 9:5 6:10 4:5 9:5 6:5
7:0 4:5 9:5 4:10 6:5 9:5 6:10 4:5 9:5 6:5 9:5
4:0 9:5 4:10 6:5 9:5 6:10 4:5 9:5 6:5 9:5 6:5
9:0 4:10 6:5 9:5 6:10 4:5 9:5 6:5 9:5 6:5 2:5
4:0 6:5 9:5 6:10 4:5 9:5 6:5 9:5 6:5 2:5 9:5
6:0 9:5 6:10 4:5 9:5 6:5 9:5 6:5 2:5 9:5 4:15
9:0 6:10 4:5 9:5 6:5 9:5 6:5 2:5 9:5 4:15 9:10
6:0 4:5 9:5 6:5 9:5 6:5 2:5 9:5 4:15 9:10 4:15
4:0 9:5 6:5 9:5 6:5 2:5 9:5 4:15 9:10 4:15 9:10
9:0 6:5 9:5 6:5 2:5 9:5 4:15 9:10 4:15 9:10 6:5
6:0 9:5 6:5 2:5 9:5 4:15 9:10 4:15 9:10 6:5 9:5
9:0 6:5 2:5 9:5 4:15 9:10 4:15 9:10 6:5 9:5 2:5
6:0 2:5 9:5 4:15 9:10 4:15 9:10 6:5 9:5 2:5 6:5
2:0 9:5 4:15 9:10 4:15 9:10 6:5 9:5 2:5 6:5 9:5
9:0 4:15 9:10 4:15 9:10 6:5 9:5 2:5 6:5 9:5 6:5
4:0 9:10 4:15 9:10 6:5 9:5 2:5 6:5 9:5 6:5 9:5
9:0 4:15 9:10 6:5 9:5 2:5 6:5 9:5 6:5 9:5 4:5
4:0 9:10 6:5 9:5 2:5 6:5 9:5 6:5 9:5 4:5 7:5
9:0 6:5 9:5 2:5 6:5 9:5 6:5 9:5 4:5 7:5 9:5
6:0 9:5 2:5 6:5 9:5 6:5 9:5 4:5 7:5 9:5 4:15
9:0 2:5 6:5 9:5 6:5 9:5 4:5 7:5 9:5 4:15 9:5
2:0 6:5 9:5 6:5 9:5 4:5 7:5 9:5 4:15 9:5 6:5
6:0 9:5 6:5 9:5 4:5 7:5 9:5 4:15 9:5 6:5 9:5
9:0 6:5 9:5 4:5 7:5 9:5 4:15 9:5 6:5 9:5 6:5
6:0 9:5 4:5 7:5 9:5 4:15 9:5 6:5 9:5 6:5 7:5
9:0 4:5 7:5 9:5 4:15 9:5 6:5 9:5 6:5 7:5 9:5
4:0 7:5 9:5 4:15 9:5 6:5 9:5 6:5 7:5 9:5 7:5
7:0 9:5 4:15 9:5 6:5 9:5 6:5 7:5 9:5 7:5 9:5
9:0 4:15 9:5 6:5 9:5 6:5 7:5 9:5 7:5 9:5 4:5
4:0 9:5 6:5 9:5 6:5 7:5 9:5 7:5 9:5 4:5 9:10
9:0 6:5 9:5 6:5 7:5 9:5 7:5 9:5 4:5 9:10 2:15
6:0 9:5 6:5 7:5 9:5 7:5 9:5 4:5 9:10 2:15 9:5
9:0 6:5 7:5 9:5 7:5 9:5 4:5 9:10 2:15 9:5 7:10
6:0 7:5 9:5 7:5 9:5 4:5 9:10 2:15 9:5 7:10 9:5
7:0 9:5 7:5 9:5 4:5 9:10 2:15 9:5 7:10 9:5 4:5
9:0 7:5 9:5 4:5 9:10 2:15 9:5 7:10 9:5 4:5 6:5
7:0 9:5 4:5 9:10 2:15 9:5 7:10 9:5 4:5 6:5 9:5
9:0 4:5 9:10 2:15 9:5 7:10 9:5 4:5 6:5 9:5 6:5
4:0 9:10 2:15 9:5 7:10 9:5 4:5 6:5 9:5 6:5 9:5
9:0 2:15 9:5 7:10 9:5 4:5 6:5 9:5 6:5 9:5 4:5
2:0 9:5 7:10 9:5 4:5 6:5 9:5 6:5 9:5 4:5 6:5
9:0 7:10 9:5 4:5 6:5 9:5 6:5 9:5 4:5 6:5 9:5
7:0 9:5 4:5 6:5 9:5 6:5 9:5 4:5 6:5 9:5 6:10
9:0 4:5 6:5 9:5 6:5 9:5 4:5 6:5 9:5 6:10 9:15
4:0 6:5 9:5 6:5 9:5 4:5 6:5 9:5 6:10 9:15 4:10
6:0 9:5 6:5 9:5 4:5 6:5 9:5 6:10 9:15 4:10 7:5
9:0 6:5 9:5 4:5 6:5 9:5 6:10 9:15 4:10 7:5 9:5
6:0 9:5 4:5 6:5 9:5 6:10 9:15 4:10 7:5 9:5 6:15
9:0 4:5 6:5 9:5 6:10 9:15 4:10 7:5 9:5 6:15 9:10
4:0 6:5 9:5 6:10 9:15 4:10 7:5 9:5 6:15 9:10 6:5
6:0 9:5 6:10 9:15 4:10 7:5 9:5 6:15 9:10 6:5 9:5
9:0 6:10 9:15 4:10 7:5 9:5 6:15 9:10 6:5 9:5 2:5
6:0 9:15 4:10 7:5 9:5 6:15 9:10 6:5 9:5 2:5 6:5
9:0 4:10 7:5 9:5 6:15 9:10 6:5 9:5 2:5 6:5 9:5
4:0 7:5 9:5 6:15 9:10 6:5 9:5 2:5 6:5 9:5 4:15
7:0 9:5 6:15 9:10 6:5 9:5 2:5 6:5 9:5 4:15 9:5
9:0 6:15 9:10 6:5 9:5 2:5 6:5 9:5 4:15 9:5 7:10
6:0 9:10 6:5 9:5 2:5 6:5 9:5 4:15 9:5 7:10 9:5
9:0 6:5 9:5 2:5 6:5 9:5 4:15 9:5 7:10 9:5 4:5
6:0 9:5 2:5 6:5 9:5 4:15 9:5 7:10 9:5 4:5 9:5
9:0 2:5 6:5 9:5 4:15 9:5 7:10 9:5 4:5 9:5 7:5
2:0 6:5 9:5 4:15 9:5 7:10 9:5 4:5 9:5 7:5 9:5
6:0 9:5 4:15 9:5 7:10 9:5 4:5 9:5 7:5 9:5 3:5
9:0 4:15 9:5 7:10 9:5 4:5 9:5 7:5 9:5 3:5 9:5
4:0 9:5 7:10 9:5 4:5 9:5 7:5 9:5 3:5 9:5 6:5
9:0 7:10 9:5 4:5 9:5 7:5 9:5 3:5 9:5 6:5 9:5
7:0 9:5 4:5 9:5 7:5 9:5 3:5 9:5 6:5 9:5 6:10
9:0 4:5 9:5 7:5 9:5 3:5 9:5 6:5 9:5 6:10 9:10
4:0 9:5 7:5 9:5 3:5 9:5 6:5 9:5 6:10 9:10 6:10
9:0 7:5 9:5 3:5 9:5 6:5 9:5 6:10 9:10 6:10 4:5
7:0 9:5 3:5 9:5 6:5 9:5 6:10 9:10 6:10 4:5 9:5
9:0 3:5 9:5 6:5 9:5 6:10 9:10 6:10 4:5 9:5 6:5
3:0 9:5 6:5 9:5 6:10 9:10 6:10 4:5 9:5 6:5 9:5
9:0 6:5 9:5 6:10 9:10 6:10 4:5 9:5 6:5 9:5 6:5
6:0 9:5 6:10 9:10 6:10 4:5 9:5 6:5 9:5 6:5 4:5
9:0 6:10 9:10 6:10 4:5 9:5 6:5 9:5 6:5 4:5 9:5
6:0 9:10 6:10 4:5 9:5 6:5 9:5 6:5 4:5 9:5 6:5
9:0 6:10 4:5 9:5 6:5 9:5 6:5 4:5 9:5 6:5 9:5
6:0 4:5 9:5 6:5 9:5 6:5 4:5 9:5 6:5 9:5 4:5
4:0 9:5 6:5 9:5 6:5 4:5 9:5 6:5 9:5 4:5 6:5
9:0 6:5 9:5 6:5 4:5 9:5 6:5 9:5 4:5 6:5 9:5
6:0 9:5 6:5 4:5 9:5 6:5 9:5 4:5 6:5 9:5 6:15
9:0 6:5 4:5 9:5 6:5 9:5 4:5 6:5 9:5 6:15 9:10
6:0 4:5 9:5 6:5 9:5 4:5 6:5 9:5 6:15 9:10 6:5
4:0 9:5 6:5 9:5 4:5 6:5 9:5 6:15 9:10 6:5 9:5
9:0 6:5 9:5 4:5 6:5 9:5 6:15 9:10 6:5 9:5 4:5
6:0 9:5 4:5 6:5 9:5 6:15 9:10 6:5 9:5 4:5 6:5
9:0 4:5 6:5 9:5 6:15 9:10 6:5 9:5 4:5 6:5 9:10
4:0 6:5 9:5 6:15 9:10 6:5 9:5 4:5 6:5 9:10 2:10
6:0 9:5 6:15 9:10 6:5 9:5 4:5 6:5 9:10 2:10 9:5
9:0 6:15 9:10 6:5 9:5 4:5 6:5 9:10 2:10 9:5 6:5
6:0 9:10 6:5 9:5 4:5 6:5 9:10 2:10 9:5 6:5 9:5
9:0 6:5 9:5 4:5 6:5 9:10 2:10 9:5 6:5 9:5 6:10
6:0 9:5 4:5 6:5 9:10 2:10 9:5 6:5 9:5 6:10 7:5
9:0 4:5 6:5 9:10 2:10 9:5 6:5 9:5 6:10 7:5 9:5
4:0 6:5 9:10 2:10 9:5 6:5 9:5 6:10 7:5 9:5 6:5
6:0 9:10 2:10 9:5 6:5 9:5 6:10 7:5 9:5 6:5 7:10
9:0 2:10 9:5 6:5 9:5 6:10 7:5 9:5 6:5 7:10 9:10
2:0 9:5 6:5 9:5 6:10 7:5 9:5 6:5 7:10 9:10 4:10
9:0 6:5 9:5 6:10 7:5 9:5 6:5 7:10 9:10 4:10 9:10
6:0 9:5 6:10 7:5 9:5 6:5 7:10 9:10 4:10 9:10 7:5
9:0 6:10 7:5 9:5 6:5 7:10 9:10 4:10 9:10 7:5 9:5
6:0 7:5 9:5 6:5 7:10 9:10 4:10 9:10 7:5 9:5 4:5
7:0 9:5 6:5 7:10 9:10 4:10 9:10 7:5 9:5 4:5 6:5
9:0 6:5 7:10 9:10 4:10 9:10 7:5 9:5 4:5 6:5 9:5
6:0 7:10 9:10 4:10 9:10 7:5 9:5 4:5 6:5 9:5 4:15
7:0 9:10 4:10 9:10 7:5 9:5 4:5 6:5 9:5 4:15 7:5
9:0 4:10 9:10 7:5 9:5 4:5 6:5 9:5 4:15 7:5 9:10
4:0 9:10 7:5 9:5 4:5 6:5 9:5 4:15 7:5 9:10 6:5
9:0 7:5 9:5 4:5 6:5 9:5 4:15 7:5 9:10 6:5 4:5
7:0 9:5 4:5 6:5 9:5 4:15 7:5 9:10 6:5 4:5 7:5
9:0 4:5 6:5 9:5 4:15 7:5 9:10 6:5 4:5 7:5 9:5
4:0 6:5 9:5 4:15 7:5 9:10 6:5 4:5 7:5 9:5 6:5
6:0 9:5 4:15 7:5 9:10 6:5 4:5 7:5 9:5 6:5 4:10
9:0 4:15 7:5 9:10 6:5 4:5 7:5 9:5 6:5 4:10 9:5
4:0 7:5 9:10 6:5 4:5 7:5 9:5 6:5 4:10 9:5 6:15
7:0 9:10 6:5 4:5 7:5 9:5 6:5 4:10 9:5 6:15 4:5
9:0 6:5 4:5 7:5 9:5 6:5 4:10 9:5 6:15 4:5 9:5
6:0 4:5 7:5 9:5 6:5 4:10 9:5 6:15 4:5 9:5 6:5
4:0 7:5 9:5 6:5 4:10 9:5 6:15 4:5 9:5 6:5 9:5
7:0 9:5 6:5 4:10 9:5 6:15 4:5 9:5 6:5 9:5 4:5
9:0 6:5 4:10 9:5 6:15 4:5 9:5 6:5 9:5 4:5 9:5
6:0 4:10 9:5 6:15 4:5 9:5 6:5 9:5 4:5 9:5 6:5
4:0 9:5 6:15 4:5 9:5 6:5 9:5 4:5 9:5 6:5 9:5
9:0 6:15 4:5 9:5 6:5 9:5 4:5 9:5 6:5 9:5 2:10
6:0 4:5 9:5 6:5 9:5 4:5 9:5 6:5 9:5 2:10 9:5
4:0 9:5 6:5 9:5 4:5 9:5 6:5 9:5 2:10 9:5 6:5
9:0 6:5 9:5 4:5 9:5 6:5 9:5 2:10 9:5 6:5 9:5
6:0 9:5 4:5 9:5 6:5 9:5 2:10 9:5 6:5 9:5 6:5
9:0 4:5 9:5 6:5 9:5 2:10 9:5 6:5 9:5 6:5 4:5
4:0 9:5 6:5 9:5 2:10 9:5 6:5 9:5 6:5 4:5 9:5
9:0 6:5 9:5 2:10 9:5 6:5 9:5 6:5 4:5 9:5 6:15
6:0 9:5 2:10 9:5 6:5 9:5 6:5 4:5 9:5 6:15 9:15
9:0 2:10 9:5 6:5 9:5 6:5 4:5 9:5 6:15 9:15 2:10
2:0 9:5 6:5 9:5 6:5 4:5 9:5 6:15 9:15 2:10 6:5
9:0 6:5 9:5 6:5 4:5 9:5 6:15 9:15 2:10 6:5 9:10
6:0 9:5 6:5 4:5 9:5 6:15 9:15 2:10 6:5 9:10 4:10
9:0 6:5 4:5 9:5 6:15 9:15 2:10 6:5 9:10 4:10 7:5
6:0 4:5 9:5 6:15 9:15 2:10 6:5 9:10 4:10 7:5 9:5
4:0 9:5 6:15 9:15 2:10 6:5 9:10 4:10 7:5 9:5 7:5
9:0 6:15 9:15 2:10 6:5 9:10 4:10 7:5 9:5 7:5 9:5
6:0 9:15 2:10 6:5 9:10 4:10 7:5 9:5 7:5 9:5 4:5
9:0 2:10 6:5 9:10 4:10 7:5 9:5 7:5 9:5 4:5 6:5
2:0 6:5 9:10 4:10 7:5 9:5 7:5 9:5 4:5 6:5 9:5
6:0 9:10 4:10 7:5 9:5 7:5 9:5 4:5 6:5 9:5 6:10
9:0 4:10 7:5 9:5 7:5 9:5 4:5 6:5 9:5 6:10 2:5
4:0 7:5 9:5 7:5 9:5 4:5 6:5 9:5 6:10 2:5 9:5
7:0 9:5 7:5 9:5 4:5 6:5 9:5 6:10 2:5 9:5 6:5
9:0 7:5 9:5 4:5 6:5 9:5 6:10 2:5 9:5 6:5 9:5
7:0 9:5 4:5 6:5 9:5 6:10 2:5 9:5 6:5 9:5 6:5
9:0 4:5 6:5 9:5 6:10 2:5 9:5 6:5 9:5 6:5 9:10
4:0 6:5 9:5 6:10 2:5 9:5 6:5 9:5 6:5 9:10 6:10
6:0 9:5 6:10 2:5 9:5 6:5 9:5 6:5 9:10 6:10 4:5
9:0 6:10 2:5 9:5 6:5 9:5 6:5 9:10 6:10 4:5 6:5
6:0 2:5 9:5 6:5 9:5 6:5 9:10 6:10 4:5 6:5 9:5
2:0 9:5 6:5 9:5 6:5 9:10 6:10 4:5 6:5 9:5 4:15
9:0 6:5 9:5 6:5 9:10 6:10 4:5 6:5 9:5 4:15 6:5
6:0 9:5 6:5 9:10 6:10 4:5 6:5 9:5 4:15 6:5 9:5
9:0 6:5 9:10 6:10 4:5 6:5 9:5 4:15 6:5 9:5 6:10
6:0 9:10 6:10 4:5 6:5 9:5 4:15 6:5 9:5 6:10 4:5
9:0 6:10 4:5 6:5 9:5 4:15 6:5 9:5 6:10 4:5 9:5
6:0 4:5 6:5 9:5 4:15 6:5 9:5 6:10 4:5 9:5 6:5
4:0 6:5 9:5 4:15 6:5 9:5 6:10 4:5 9:5 6:5 10:5
6:0 9:5 4:15 6:5 9:5 6:10 4:5 9:5 6:5 10:5 9:5
9:0 4:15 6:5 9:5 6:10 4:5 9:5 6:5 10:5 9:5 4:5
4:0 6:5 9:5 6:10 4:5 9:5 6:5 10:5 9:5 4:5 9:5
6:0 9:5 6:10 4:5 9:5 6:5 10:5 9:5 4:5 9:5 6:5
9:0 6:10 4:5 9:5 6:5 10:5 9:5 4:5 9:5 6:5 9:5
6:0 4:5 9:5 6:5 10:5 9:5 4:5 9:5 6:5 9:5 4:5
4:0 9:5 6:5 10:5 9:5 4:5 9:5 6:5 9:5 4:5 6:5
9:0 6:5 10:5 9:5 4:5 9:5 6:5 9:5 4:5 6:5 9:10
6:0 10:5 9:5 4:5 9:5 6:5 9:5 4:5 6:5 9:10 6:10
10:0 9:5 4:5 9:5 6:5 9:5 4:5 6:5 9:10 6:10 7:5
9:0 4:5 9:5 6:5 9:5 4:5 6:5 9:10 6:10 7:5 6:5
4:0 9:5 6:5 9:5 4:5 6:5 9:10 6:10 7:5 6:5 9:5
9:0 6:5 9:5 4:5 6:5 9:10 6:10 7:5 6:5 9:5 4:10
6:0 9:5 4:5 6:5 9:10 6:10 7:5 6:5 9:5 4:10 9:10
9:0 4:5 6:5 9:10 6:10 7:5 6:5 9:5 4:10 9:10 7:5
4:0 6:5 9:10 6:10 7:5 6:5 9:5 4:10 9:10 7:5 9:5
6:0 9:10 6:10 7:5 6:5 9:5 4:10 9:10 7:5 9:5 4:5
9:0 6:10 7:5 6:5 9:5 4:10 9:10 7:5 9:5 4:5 9:10
6:0 7:5 6:5 9:5 4:10 9:10 7:5 9:5 4:5 9:10 4:15
7:0 6:5 9:5 4:10 9:10 7:5 9:5 4:5 9:10 4:15 7:5
6:0 9:5 4:10 9:10 7:5 9:5 4:5 9:10 4:15 7:5 6:5
9:0 4:10 9:10 7:5 9:5 4:5 9:10 4:15 7:5 6:5 9:5
4:0 9:10 7:5 9:5 4:5 9:10 4:15 7:5 6:5 9:5 6:5
9:0 7:5 9:5 4:5 9:10 4:15 7:5 6:5 9:5 6:5 4:5
7:0 9:5 4:5 9:10 4:15 7:5 6:5 9:5 6:5 4:5 9:5
9:0 4:5 9:10 4:15 7:5 6:5 9:5 6:5 4:5 9:5 7:5
4:0 9:10 4:15 7:5 6:5 9:5 6:5 4:5 9:5 7:5 9:5
9:0 4:15 7:5 6:5 9:5 6:5 4:5 9:5 7:5 9:5 6:5
4:0 7:5 6:5 9:5 6:5 4:5 9:5 7:5 9:5 6:5 9:5
7:0 6:5 9:5 6:5 4:5 9:5 7:5 9:5 6:5 9:5 4:5
6:0 9:5 6:5 4:5 9:5 7:5 9:5 6:5 9:5 4:5 9:5
9:0 6:5 4:5 9:5 7:5 9:5 6:5 9:5 4:5 9:5 4:10
6:0 4:5 9:5 7:5 9:5 6:5 9:5 4:5 9:5 4:10 9:5
4:0 9:5 7:5 9:5 6:5 9:5 4:5 9:5 4:10 9:5 6:5
9:0 7:5 9:5 6:5 9:5 4:5 9:5 4:10 9:5 6:5 9:10
7:0 9:5 6:5 9:5 4:5 9:5 4:10 9:5 6:5 9:10 4:5
9:0 6:5 9:5 4:5 9:5 4:10 9:5 6:5 9:10 4:5 7:5
6:0 9:5 4:5 9:5 4:10 9:5 6:5 9:10 4:5 7:5 9:5
9:0 4:5 9:5 4:10 9:5 6:5 9:10 4:5 7:5 9:5 7:5
4:0 9:5 4:10 9:5 6:5 9:10 4:5 7:5 9:5 7:5 9:5
9:0 4:10 9:5 6:5 9:10 4:5 7:5 9:5 7:5 9:5 6:5
4:0 9:5 6:5 9:10 4:5 7:5 9:5 7:5 9:5 6:5 7:5
9:0 6:5 9:10 4:5 7:5 9:5 7:5 9:5 6:5 7:5 4:5
6:0 9:10 4:5 7:5 9:5 7:5 9:5 6:5 7:5 4:5 9:5
9:0 4:5 7:5 9:5 7:5 9:5 6:5 7:5 4:5 9:5 3:5
4:0 7:5 9:5 7:5 9:5 6:5 7:5 4:5 9:5 3:5 4:5
7:0 9:5 7:5 9:5 6:5 7:5 4:5 9:5 3:5 4:5 9:5
9:0 7:5 9:5 6:5 7:5 4:5 9:5 3:5 4:5 9:5 4:15
7:0 9:5 6:5 7:5 4:5 9:5 3:5 4:5 9:5 4:15 6:5
9:0 6:5 7:5 4:5 9:5 3:5 4:5 9:5 4:15 6:5 9:5
6:0 7:5 4:5 9:5 3:5 4:5 9:5 4:15 6:5 9:5 6:5
7:0 4:5 9:5 3:5 4:5 9:5 4:15 6:5 9:5 6:5 9:5
4:0 9:5 3:5 4:5 9:5 4:15 6:5 9:5 6:5 9:5
9:0 3:5 4:5 9:5 4:15 6:5 9:5 6:5 9:5
3:0 4:5 9:5 4:15 6:5 9:5 6:5 9:5
4:0 9:5 4:15 6:5 9:5 6:5 9:5
9:0 4:15 6:5 9:5 6:5 9:5
4:0 6:5 9:5 6:5 9:5
6:0 9:5 6:5 9:5
9:0 6:5 9:5
6:0 9:5
9:0