10:0 5:5 16:5 5:5 16:5 5:5 14:5 7:5 17:5 7:5 10:5
5:0 16:5 5:5 16:5 5:5 14:5 7:5 17:5 7:5 10:5 13:10
16:0 5:5 16:5 5:5 14:5 7:5 17:5 7:5 10:5 13:10 7:5
5:0 16:5 5:5 14:5 7:5 17:5 7:5 10:5 13:10 7:5 16:5
16:0 5:5 14:5 7:5 17:5 7:5 10:5 13:10 7:5 16:5 3:5
5:0 14:5 7:5 17:5 7:5 10:5 13:10 7:5 16:5 3:5 17:5
14:0 7:5 17:5 7:5 10:5 13:10 7:5 16:5 3:5 17:5 5:5
7:0 17:5 7:5 10:5 13:10 7:5 16:5 3:5 17:5 5:5 16:5
17:0 7:5 10:5 13:10 7:5 16:5 3:5 17:5 5:5 16:5 7:5
7:0 10:5 13:10 7:5 16:5 3:5 17:5 5:5 16:5 7:5 11:10
10:0 13:10 7:5 16:5 3:5 17:5 5:5 16:5 7:5 11:10 14:15
13:0 7:5 16:5 3:5 17:5 5:5 16:5 7:5 11:10 14:15 3:5
7:0 16:5 3:5 17:5 5:5 16:5 7:5 11:10 14:15 3:5 16:5
16:0 3:5 17:5 5:5 16:5 7:5 11:10 14:15 3:5 16:5 7:5
3:0 17:5 5:5 16:5 7:5 11:10 14:15 3:5 16:5 7:5 17:5
17:0 5:5 16:5 7:5 11:10 14:15 3:5 16:5 7:5 17:5 5:5
5:0 16:5 7:5 11:10 14:15 3:5 16:5 7:5 17:5 5:5 11:5
16:0 7:5 11:10 14:15 3:5 16:5 7:5 17:5 5:5 11:5 14:5
7:0 11:10 14:15 3:5 16:5 7:5 17:5 5:5 11:5 14:5 11:5
11:0 14:15 3:5 16:5 7:5 17:5 5:5 11:5 14:5 11:5 16:5
14:0 3:5 16:5 7:5 17:5 5:5 11:5 14:5 11:5 16:5 3:5
3:0 16:5 7:5 17:5 5:5 11:5 14:5 11:5 16:5 3:5 14:5
16:0 7:5 17:5 5:5 11:5 14:5 11:5 16:5 3:5 14:5 7:5
7:0 17:5 5:5 11:5 14:5 11:5 16:5 3:5 14:5 7:5 17:5
17:0 5:5 11:5 14:5 11:5 16:5 3:5 14:5 7:5 17:5 10:5
5:0 11:5 14:5 11:5 16:5 3:5 14:5 7:5 17:5 10:5 8:5
11:0 14:5 11:5 16:5 3:5 14:5 7:5 17:5 10:5 8:5 14:5
14:0 11:5 16:5 3:5 14:5 7:5 17:5 10:5 8:5 14:5 7:5
11:0 16:5 3:5 14:5 7:5 17:5 10:5 8:5 14:5 7:5 16:5
16:0 3:5 14:5 7:5 17:5 10:5 8:5 14:5 7:5 16:5 5:5
3:0 14:5 7:5 17:5 10:5 8:5 14:5 7:5 16:5 5:5 14:5
14:0 7:5 17:5 10:5 8:5 14:5 7:5 16:5 5:5 14:5 11:5
7:0 17:5 10:5 8:5 14:5 7:5 16:5 5:5 14:5 11:5 14:5
17:0 10:5 8:5 14:5 7:5 16:5 5:5 14:5 11:5 14:5 11:5
10:0 8:5 14:5 7:5 16:5 5:5 14:5 11:5 14:5 11:5 13:5
8:0 14:5 7:5 16:5 5:5 14:5 11:5 14:5 11:5 13:5 5:5
14:0 7:5 16:5 5:5 14:5 11:5 14:5 11:5 13:5 5:5 16:5
7:0 16:5 5:5 14:5 11:5 14:5 11:5 13:5 5:5 16:5 5:5
16:0 5:5 14:5 11:5 14:5 11:5 13:5 5:5 16:5 5:5 16:5
5:0 14:5 11:5 14:5 11:5 13:5 5:5 16:5 5:5 16:5 5:5
14:0 11:5 14:5 11:5 13:5 5:5 16:5 5:5 16:5 5:5 11:5
11:0 14:5 11:5 13:5 5:5 16:5 5:5 16:5 5:5 11:5 14:10
14:0 11:5 13:5 5:5 16:5 5:5 16:5 5:5 11:5 14:10 16:5
11:0 13:5 5:5 16:5 5:5 16:5 5:5 11:5 14:10 16:5 3:5
13:0 5:5 16:5 5:5 16:5 5:5 11:5 14:10 16:5 3:5 16:5
5:0 16:5 5:5 16:5 5:5 11:5 14:10 16:5 3:5 16:5 7:5
16:0 5:5 16:5 5:5 11:5 14:10 16:5 3:5 16:5 7:5 17:5
5:0 16:5 5:5 11:5 14:10 16:5 3:5 16:5 7:5 17:5 7:5
16:0 5:5 11:5 14:10 16:5 3:5 16:5 7:5 17:5 7:5 11:10
5:0 11:5 14:10 16:5 3:5 16:5 7:5 17:5 7:5 11:10 16:5
11:0 14:10 16:5 3:5 16:5 7:5 17:5 7:5 11:10 16:5 7:5
14:0 16:5 3:5 16:5 7:5 17:5 7:5 11:10 16:5 7:5 13:5
16:0 3:5 16:5 7:5 17:5 7:5 11:10 16:5 7:5 13:5 5:5
3:0 16:5 7:5 17:5 7:5 11:10 16:5 7:5 13:5 5:5 16:5
16:0 7:5 17:5 7:5 11:10 16:5 7:5 13:5 5:5 16:5 5:5
7:0 17:5 7:5 11:10 16:5 7:5 13:5 5:5 16:5 5:5 17:5
17:0 7:5 11:10 16:5 7:5 13:5 5:5 16:5 5:5 17:5 5:5
7:0 11:10 16:5 7:5 13:5 5:5 16:5 5:5 17:5 5:5 14:5
11:0 16:5 7:5 13:5 5:5 16:5 5:5 17:5 5:5 14:5 7:5
16:0 7:5 13:5 5:5 16:5 5:5 17:5 5:5 14:5 7:5 14:5
7:0 13:5 5:5 16:5 5:5 17:5 5:5 14:5 7:5 14:5 7:5
13:0 5:5 16:5 5:5 17:5 5:5 14:5 7:5 14:5 7:5 13:5
5:0 16:5 5:5 17:5 5:5 14:5 7:5 14:5 7:5 13:5 7:5
16:0 5:5 17:5 5:5 14:5 7:5 14:5 7:5 13:5 7:5 16:5
5:0 17:5 5:5 14:5 7:5 14:5 7:5 13:5 7:5 16:5 7:5
17:0 5:5 14:5 7:5 14:5 7:5 13:5 7:5 16:5 7:5 16:5
5:0 14:5 7:5 14:5 7:5 13:5 7:5 16:5 7:5 16:5 3:5
14:0 7:5 14:5 7:5 13:5 7:5 16:5 7:5 16:5 3:5 14:5
7:0 14:5 7:5 13:5 7:5 16:5 7:5 16:5 3:5 14:5 7:5
14:0 7:5 13:5 7:5 16:5 7:5 16:5 3:5 14:5 7:5 14:5
7:0 13:5 7:5 16:5 7:5 16:5 3:5 14:5 7:5 14:5 11:5
13:0 7:5 16:5 7:5 16:5 3:5 14:5 7:5 14:5 11:5 7:5
7:0 16:5 7:5 16:5 3:5 14:5 7:5 14:5 11:5 7:5 14:10
16:0 7:5 16:5 3:5 14:5 7:5 14:5 11:5 7:5 14:10 13:5
7:0 16:5 3:5 14:5 7:5 14:5 11:5 7:5 14:10 13:5 10:5
16:0 3:5 14:5 7:5 14:5 11:5 7:5 14:10 13:5 10:5 5:5
3:0 14:5 7:5 14:5 11:5 7:5 14:10 13:5 10:5 5:5 16:5
14:0 7:5 14:5 11:5 7:5 14:10 13:5 10:5 5:5 16:5 5:5
7:0 14:5 11:5 7:5 14:10 13:5 10:5 5:5 16:5 5:5 17:5
14:0 11:5 7:5 14:10 13:5 10:5 5:5 16:5 5:5 17:5 7:5
11:0 7:5 14:10 13:5 10:5 5:5 16:5 5:5 17:5 7:5 8:5
7:0 14:10 13:5 10:5 5:5 16:5 5:5 17:5 7:5 8:5 10:5
14:0 13:5 10:5 5:5 16:5 5:5 17:5 7:5 8:5 10:5 14:5
13:0 10:5 5:5 16:5 5:5 17:5 7:5 8:5 10:5 14:5 16:5
10:0 5:5 16:5 5:5 17:5 7:5 8:5 10:5 14:5 16:5 3:5
5:0 16:5 5:5 17:5 7:5 8:5 10:5 14:5 16:5 3:5 14:5
16:0 5:5 17:5 7:5 8:5 10:5 14:5 16:5 3:5 14:5 11:5
5:0 17:5 7:5 8:5 10:5 14:5 16:5 3:5 14:5 11:5 10:5
17:0 7:5 8:5 10:5 14:5 16:5 3:5 14:5 11:5 10:5 14:5
7:0 8:5 10:5 14:5 16:5 3:5 14:5 11:5 10:5 14:5 7:5
8:0 10:5 14:5 16:5 3:5 14:5 11:5 10:5 14:5 7:5 11:5
10:0 14:5 16:5 3:5 14:5 11:5 10:5 14:5 7:5 11:5 14:5
14:0 16:5 3:5 14:5 11:5 10:5 14:5 7:5 11:5 14:5 8:5
16:0 3:5 14:5 11:5 10:5 14:5 7:5 11:5 14:5 8:5 16:5
3:0 14:5 11:5 10:5 14:5 7:5 11:5 14:5 8:5 16:5 3:5
14:0 11:5 10:5 14:5 7:5 11:5 14:5 8:5 16:5 3:5 16:5
11:0 10:5 14:5 7:5 11:5 14:5 8:5 16:5 3:5 16:5 8:5
10:0 14:5 7:5 11:5 14:5 8:5 16:5 3:5 16:5 8:5 17:5
14:0 7:5 11:5 14:5 8:5 16:5 3:5 16:5 8:5 17:5 5:5
7:0 11:5 14:5 8:5 16:5 3:5 16:5 8:5 17:5 5:5 14:5
11:0 14:5 8:5 16:5 3:5 16:5 8:5 17:5 5:5 14:5 7:5
14:0 8:5 16:5 3:5 16:5 8:5 17:5 5:5 14:5 7:5 16:5
8:0 16:5 3:5 16:5 8:5 17:5 5:5 14:5 7:5 16:5 7:5
16:0 3:5 16:5 8:5 17:5 5:5 14:5 7:5 16:5 7:5 10:5
3:0 16:5 8:5 17:5 5:5 14:5 7:5 16:5 7:5 10:5 5:5
16:0 8:5 17:5 5:5 14:5 7:5 16:5 7:5 10:5 5:5 17:5
8:0 17:5 5:5 14:5 7:5 16:5 7:5 10:5 5:5 17:5 8:5
17:0 5:5 14:5 7:5 16:5 7:5 10:5 5:5 17:5 8:5 16:5
5:0 14:5 7:5 16:5 7:5 10:5 5:5 17:5 8:5 16:5 3:5
14:0 7:5 16:5 7:5 10:5 5:5 17:5 8:5 16:5 3:5 17:5
7:0 16:5 7:5 10:5 5:5 17:5 8:5 16:5 3:5 17:5 5:5
16:0 7:5 10:5 5:5 17:5 8:5 16:5 3:5 17:5 5:5 14:5
7:0 10:5 5:5 17:5 8:5 16:5 3:5 17:5 5:5 14:5 10:5
10:0 5:5 17:5 8:5 16:5 3:5 17:5 5:5 14:5 10:5 7:5
5:0 17:5 8:5 16:5 3:5 17:5 5:5 14:5 10:5 7:5 8:5
17:0 8:5 16:5 3:5 17:5 5:5 14:5 10:5 7:5 8:5 16:5
8:0 16:5 3:5 17:5 5:5 14:5 10:5 7:5 8:5 16:5 7:5
16:0 3:5 17:5 5:5 14:5 10:5 7:5 8:5 16:5 7:5 16:5
3:0 17:5 5:5 14:5 10:5 7:5 8:5 16:5 7:5 16:5 3:5
17:0 5:5 14:5 10:5 7:5 8:5 16:5 7:5 16:5 3:5 17:5
5:0 14:5 10:5 7:5 8:5 16:5 7:5 16:5 3:5 17:5 7:5
14:0 10:5 7:5 8:5 16:5 7:5 16:5 3:5 17:5 7:5 14:5
10:0 7:5 8:5 16:5 7:5 16:5 3:5 17:5 7:5 14:5 10:5
7:0 8:5 16:5 7:5 16:5 3:5 17:5 7:5 14:5 10:5 7:5
8:0 16:5 7:5 16:5 3:5 17:5 7:5 14:5 10:5 7:5 14:5
16:0 7:5 16:5 3:5 17:5 7:5 14:5 10:5 7:5 14:5 11:5
7:0 16:5 3:5 17:5 7:5 14:5 10:5 7:5 14:5 11:5 14:5
16:0 3:5 17:5 7:5 14:5 10:5 7:5 14:5 11:5 14:5 11:5
3:0 17:5 7:5 14:5 10:5 7:5 14:5 11:5 14:5 11:5 5:5
17:0 7:5 14:5 10:5 7:5 14:5 11:5 14:5 11:5 5:5 17:5
7:0 14:5 10:5 7:5 14:5 11:5 14:5 11:5 5:5 17:5 5:5
14:0 10:5 7:5 14:5 11:5 14:5 11:5 5:5 17:5 5:5 16:5
10:0 7:5 14:5 11:5 14:5 11:5 5:5 17:5 5:5 16:5 7:5
7:0 14:5 11:5 14:5 11:5 5:5 17:5 5:5 16:5 7:5 11:5
14:0 11:5 14:5 11:5 5:5 17:5 5:5 16:5 7:5 11:5 14:10
11:0 14:5 11:5 5:5 17:5 5:5 16:5 7:5 11:5 14:10 11:5
14:0 11:5 5:5 17:5 5:5 16:5 7:5 11:5 14:10 11:5 8:5
11:0 5:5 17:5 5:5 16:5 7:5 11:5 14:10 11:5 8:5 14:10
5:0 17:5 5:5 16:5 7:5 11:5 14:10 11:5 8:5 14:10 7:5
17:0 5:5 16:5 7:5 11:5 14:10 11:5 8:5 14:10 7:5 16:5
5:0 16:5 7:5 11:5 14:10 11:5 8:5 14:10 7:5 16:5 5:5
16:0 7:5 11:5 14:10 11:5 8:5 14:10 7:5 16:5 5:5 14:5
7:0 11:5 14:10 11:5 8:5 14:10 7:5 16:5 5:5 14:5 10:5
11:0 14:10 11:5 8:5 14:10 7:5 16:5 5:5 14:5 10:5 11:5
14:0 11:5 8:5 14:10 7:5 16:5 5:5 14:5 10:5 11:5 10:5
11:0 8:5 14:10 7:5 16:5 5:5 14:5 10:5 11:5 10:5 3:5
8:0 14:10 7:5 16:5 5:5 14:5 10:5 11:5 10:5 3:5 17:5
14:0 7:5 16:5 5:5 14:5 10:5 11:5 10:5 3:5 17:5 7:5
7:0 16:5 5:5 14:5 10:5 11:5 10:5 3:5 17:5 7:5 16:5
16:0 5:5 14:5 10:5 11:5 10:5 3:5 17:5 7:5 16:5 7:5
5:0 14:5 10:5 11:5 10:5 3:5 17:5 7:5 16:5 7:5 11:5
14:0 10:5 11:5 10:5 3:5 17:5 7:5 16:5 7:5 11:5 10:5
10:0 11:5 10:5 3:5 17:5 7:5 16:5 7:5 11:5 10:5 14:5
11:0 10:5 3:5 17:5 7:5 16:5 7:5 11:5 10:5 14:5 8:10
10:0 3:5 17:5 7:5 16:5 7:5 11:5 10:5 14:5 8:10 7:5
3:0 17:5 7:5 16:5 7:5 11:5 10:5 14:5 8:10 7:5 17:5
17:0 7:5 16:5 7:5 11:5 10:5 14:5 8:10 7:5 17:5 7:5
7:0 16:5 7:5 11:5 10:5 14:5 8:10 7:5 17:5 7:5 14:5
16:0 7:5 11:5 10:5 14:5 8:10 7:5 17:5 7:5 14:5 7:5
7:0 11:5 10:5 14:5 8:10 7:5 17:5 7:5 14:5 7:5 10:5
11:0 10:5 14:5 8:10 7:5 17:5 7:5 14:5 7:5 10:5 14:5
10:0 14:5 8:10 7:5 17:5 7:5 14:5 7:5 10:5 14:5 7:5
14:0 8:10 7:5 17:5 7:5 14:5 7:5 10:5 14:5 7:5 13:5
8:0 7:5 17:5 7:5 14:5 7:5 10:5 14:5 7:5 13:5 3:5
7:0 17:5 7:5 14:5 7:5 10:5 14:5 7:5 13:5 3:5 17:5
17:0 7:5 14:5 7:5 10:5 14:5 7:5 13:5 3:5 17:5 5:5
7:0 14:5 7:5 10:5 14:5 7:5 13:5 3:5 17:5 5:5 16:5
14:0 7:5 10:5 14:5 7:5 13:5 3:5 17:5 5:5 16:5 7:5
7:0 10:5 14:5 7:5 13:5 3:5 17:5 5:5 16:5 7:5 11:5
10:0 14:5 7:5 13:5 3:5 17:5 5:5 16:5 7:5 11:5 8:25
14:0 7:5 13:5 3:5 17:5 5:5 16:5 7:5 11:5 8:25 14:5
7:0 13:5 3:5 17:5 5:5 16:5 7:5 11:5 8:25 14:5 7:5
13:0 3:5 17:5 5:5 16:5 7:5 11:5 8:25 14:5 7:5 16:5
3:0 17:5 5:5 16:5 7:5 11:5 8:25 14:5 7:5 16:5 5:5
17:0 5:5 16:5 7:5 11:5 8:25 14:5 7:5 16:5 5:5 11:5
5:0 16:5 7:5 11:5 8:25 14:5 7:5 16:5 5:5 11:5 14:15
16:0 7:5 11:5 8:25 14:5 7:5 16:5 5:5 11:5 14:15 5:5
7:0 11:5 8:25 14:5 7:5 16:5 5:5 11:5 14:15 5:5 11:5
11:0 8:25 14:5 7:5 16:5 5:5 11:5 14:15 5:5 11:5 14:5
8:0 14:5 7:5 16:5 5:5 11:5 14:15 5:5 11:5 14:5 7:5
14:0 7:5 16:5 5:5 11:5 14:15 5:5 11:5 14:5 7:5 13:5
7:0 16:5 5:5 11:5 14:15 5:5 11:5 14:5 7:5 13:5 5:5
16:0 5:5 11:5 14:15 5:5 11:5 14:5 7:5 13:5 5:5 14:5
5:0 11:5 14:15 5:5 11:5 14:5 7:5 13:5 5:5 14:5 7:5
11:0 14:15 5:5 11:5 14:5 7:5 13:5 5:5 14:5 7:5 14:5
14:0 5:5 11:5 14:5 7:5 13:5 5:5 14:5 7:5 14:5 10:5
5:0 11:5 14:5 7:5 13:5 5:5 14:5 7:5 14:5 10:5 5:5
11:0 14:5 7:5 13:5 5:5 14:5 7:5 14:5 10:5 5:5 16:5
14:0 7:5 13:5 5:5 14:5 7:5 14:5 10:5 5:5 16:5 8:5
7:0 13:5 5:5 14:5 7:5 14:5 10:5 5:5 16:5 8:5 17:5
13:0 5:5 14:5 7:5 14:5 10:5 5:5 16:5 8:5 17:5 5:5
5:0 14:5 7:5 14:5 10:5 5:5 16:5 8:5 17:5 5:5 14:5
14:0 7:5 14:5 10:5 5:5 16:5 8:5 17:5 5:5 14:5 7:5
7:0 14:5 10:5 5:5 16:5 8:5 17:5 5:5 14:5 7:5 16:5
14:0 10:5 5:5 16:5 8:5 17:5 5:5 14:5 7:5 16:5 7:5
10:0 5:5 16:5 8:5 17:5 5:5 14:5 7:5 16:5 7:5 14:5
5:0 16:5 8:5 17:5 5:5 14:5 7:5 16:5 7:5 14:5 8:5
16:0 8:5 17:5 5:5 14:5 7:5 16:5 7:5 14:5 8:5 14:5
8:0 17:5 5:5 14:5 7:5 16:5 7:5 14:5 8:5 14:5 7:5
17:0 5:5 14:5 7:5 16:5 7:5 14:5 8:5 14:5 7:5 16:5
5:0 14:5 7:5 16:5 7:5 14:5 8:5 14:5 7:5 16:5 3:5
14:0 7:5 16:5 7:5 14:5 8:5 14:5 7:5 16:5 3:5 16:5
7:0 16:5 7:5 14:5 8:5 14:5 7:5 16:5 3:5 16:5 5:5
16:0 7:5 14:5 8:5 14:5 7:5 16:5 3:5 16:5 5:5 17:5
7:0 14:5 8:5 14:5 7:5 16:5 3:5 16:5 5:5 17:5 11:5
14:0 8:5 14:5 7:5 16:5 3:5 16:5 5:5 17:5 11:5 5:5
8:0 14:5 7:5 16:5 3:5 16:5 5:5 17:5 11:5 5:5 14:5
14:0 7:5 16:5 3:5 16:5 5:5 17:5 11:5 5:5 14:5 10:5
7:0 16:5 3:5 16:5 5:5 17:5 11:5 5:5 14:5 10:5 16:5
16:0 3:5 16:5 5:5 17:5 11:5 5:5 14:5 10:5 16:5 7:5
3:0 16:5 5:5 17:5 11:5 5:5 14:5 10:5 16:5 7:5 14:5
16:0 5:5 17:5 11:5 5:5 14:5 10:5 16:5 7:5 14:5 8:5
5:0 17:5 11:5 5:5 14:5 10:5 16:5 7:5 14:5 8:5 16:5
17:0 11:5 5:5 14:5 10:5 16:5 7:5 14:5 8:5 16:5 5:5
11:0 5:5 14:5 10:5 16:5 7:5 14:5 8:5 16:5 5:5 14:5
5:0 14:5 10:5 16:5 7:5 14:5 8:5 16:5 5:5 14:5 5:5
14:0 10:5 16:5 7:5 14:5 8:5 16:5 5:5 14:5 5:5 17:5
10:0 16:5 7:5 14:5 8:5 16:5 5:5 14:5 5:5 17:5 5:5
16:0 7:5 14:5 8:5 16:5 5:5 14:5 5:5 17:5 5:5 16:5
7:0 14:5 8:5 16:5 5:5 14:5 5:5 17:5 5:5 16:5 5:5
14:0 8:5 16:5 5:5 14:5 5:5 17:5 5:5 16:5 5:5 13:5
8:0 16:5 5:5 14:5 5:5 17:5 5:5 16:5 5:5 13:5 11:5
16:0 5:5 14:5 5:5 17:5 5:5 16:5 5:5 13:5 11:5 16:10
5:0 14:5 5:5 17:5 5:5 16:5 5:5 13:5 11:5 16:10 3:5
14:0 5:5 17:5 5:5 16:5 5:5 13:5 11:5 16:10 3:5 17:5
5:0 17:5 5:5 16:5 5:5 13:5 11:5 16:10 3:5 17:5 5:5
17:0 5:5 16:5 5:5 13:5 11:5 16:10 3:5 17:5 5:5 16:5
5:0 16:5 5:5 13:5 11:5 16:10 3:5 17:5 5:5 16:5 5:5
16:0 5:5 13:5 11:5 16:10 3:5 17:5 5:5 16:5 5:5 7:5
5:0 13:5 11:5 16:10 3:5 17:5 5:5 16:5 5:5 7:5 11:5
13:0 11:5 16:10 3:5 17:5 5:5 16:5 5:5 7:5 11:5 10:15
11:0 16:10 3:5 17:5 5:5 16:5 5:5 7:5 11:5 10:15 7:5
16:0 3:5 17:5 5:5 16:5 5:5 7:5 11:5 10:15 7:5 13:5
3:0 17:5 5:5 16:5 5:5 7:5 11:5 10:15 7:5 13:5 8:5
17:0 5:5 16:5 5:5 7:5 11:5 10:15 7:5 13:5 8:5 16:5
5:0 16:5 5:5 7:5 11:5 10:15 7:5 13:5 8:5 16:5 5:5
16:0 5:5 7:5 11:5 10:15 7:5 13:5 8:5 16:5 5:5 11:5
5:0 7:5 11:5 10:15 7:5 13:5 8:5 16:5 5:5 11:5 7:5
7:0 11:5 10:15 7:5 13:5 8:5 16:5 5:5 11:5 7:5 16:5
11:0 10:15 7:5 13:5 8:5 16:5 5:5 11:5 7:5 16:5 13:5
10:0 7:5 13:5 8:5 16:5 5:5 11:5 7:5 16:5 13:5 11:5
7:0 13:5 8:5 16:5 5:5 11:5 7:5 16:5 13:5 11:5 5:5
13:0 8:5 16:5 5:5 11:5 7:5 16:5 13:5 11:5 5:5 16:5
8:0 16:5 5:5 11:5 7:5 16:5 13:5 11:5 5:5 16:5 5:5
16:0 5:5 11:5 7:5 16:5 13:5 11:5 5:5 16:5 5:5 16:5
5:0 11:5 7:5 16:5 13:5 11:5 5:5 16:5 5:5 16:5 3:5
11:0 7:5 16:5 13:5 11:5 5:5 16:5 5:5 16:5 3:5 17:5
7:0 16:5 13:5 11:5 5:5 16:5 5:5 16:5 3:5 17:5 5:5
16:0 13:5 11:5 5:5 16:5 5:5 16:5 3:5 17:5 5:5 14:5
13:0 11:5 5:5 16:5 5:5 16:5 3:5 17:5 5:5 14:5 10:5
11:0 5:5 16:5 5:5 16:5 3:5 17:5 5:5 14:5 10:5 7:5
5:0 16:5 5:5 16:5 3:5 17:5 5:5 14:5 10:5 7:5 13:5
16:0 5:5 16:5 3:5 17:5 5:5 14:5 10:5 7:5 13:5 10:5
5:0 16:5 3:5 17:5 5:5 14:5 10:5 7:5 13:5 10:5 14:5
16:0 3:5 17:5 5:5 14:5 10:5 7:5 13:5 10:5 14:5 10:5
3:0 17:5 5:5 14:5 10:5 7:5 13:5 10:5 14:5 10:5 8:5
17:0 5:5 14:5 10:5 7:5 13:5 10:5 14:5 10:5 8:5 14:5
5:0 14:5 10:5 7:5 13:5 10:5 14:5 10:5 8:5 14:5 8:5
14:0 10:5 7:5 13:5 10:5 14:5 10:5 8:5 14:5 8:5 14:5
10:0 7:5 13:5 10:5 14:5 10:5 8:5 14:5 8:5 14:5 8:5
7:0 13:5 10:5 14:5 10:5 8:5 14:5 8:5 14:5 8:5 17:10
13:0 10:5 14:5 10:5 8:5 14:5 8:5 14:5 8:5 17:10 5:5
10:0 14:5 10:5 8:5 14:5 8:5 14:5 8:5 17:10 5:5 16:5
14:0 10:5 8:5 14:5 8:5 14:5 8:5 17:10 5:5 16:5 5:5
10:0 8:5 14:5 8:5 14:5 8:5 17:10 5:5 16:5 5:5 14:5
8:0 14:5 8:5 14:5 8:5 17:10 5:5 16:5 5:5 14:5 11:5
14:0 8:5 14:5 8:5 17:10 5:5 16:5 5:5 14:5 11:5 14:10
8:0 14:5 8:5 17:10 5:5 16:5 5:5 14:5 11:5 14:10 3:5
14:0 8:5 17:10 5:5 16:5 5:5 14:5 11:5 14:10 3:5 17:5
8:0 17:10 5:5 16:5 5:5 14:5 11:5 14:10 3:5 17:5 7:5
17:0 5:5 16:5 5:5 14:5 11:5 14:10 3:5 17:5 7:5 16:5
5:0 16:5 5:5 14:5 11:5 14:10 3:5 17:5 7:5 16:5 7:5
16:0 5:5 14:5 11:5 14:10 3:5 17:5 7:5 16:5 7:5 14:5
5:0 14:5 11:5 14:10 3:5 17:5 7:5 16:5 7:5 14:5 7:5
14:0 11:5 14:10 3:5 17:5 7:5 16:5 7:5 14:5 7:5 14:5
11:0 14:10 3:5 17:5 7:5 16:5 7:5 14:5 7:5 14:5 8:5
14:0 3:5 17:5 7:5 16:5 7:5 14:5 7:5 14:5 8:5 14:5
3:0 17:5 7:5 16:5 7:5 14:5 7:5 14:5 8:5 14:5 5:5
17:0 7:5 16:5 7:5 14:5 7:5 14:5 8:5 14:5 5:5 17:5
7:0 16:5 7:5 14:5 7:5 14:5 8:5 14:5 5:5 17:5 5:5
16:0 7:5 14:5 7:5 14:5 8:5 14:5 5:5 17:5 5:5 17:5
7:0 14:5 7:5 14:5 8:5 14:5 5:5 17:5 5:5 17:5 7:5
14:0 7:5 14:5 8:5 14:5 5:5 17:5 5:5 17:5 7:5 11:5
7:0 14:5 8:5 14:5 5:5 17:5 5:5 17:5 7:5 11:5 13:5
14:0 8:5 14:5 5:5 17:5 5:5 17:5 7:5 11:5 13:5 7:5
8:0 14:5 5:5 17:5 5:5 17:5 7:5 11:5 13:5 7:5 16:5
14:0 5:5 17:5 5:5 17:5 7:5 11:5 13:5 7:5 16:5 5:5
5:0 17:5 5:5 17:5 7:5 11:5 13:5 7:5 16:5 5:5 11:5
17:0 5:5 17:5 7:5 11:5 13:5 7:5 16:5 5:5 11:5 8:20
5:0 17:5 7:5 11:5 13:5 7:5 16:5 5:5 11:5 8:20 5:5
17:0 7:5 11:5 13:5 7:5 16:5 5:5 11:5 8:20 5:5 17:5
7:0 11:5 13:5 7:5 16:5 5:5 11:5 8:20 5:5 17:5 7:5
11:0 13:5 7:5 16:5 5:5 11:5 8:20 5:5 17:5 7:5 16:5
13:0 7:5 16:5 5:5 11:5 8:20 5:5 17:5 7:5 16:5 5:5
7:0 16:5 5:5 11:5 8:20 5:5 17:5 7:5 16:5 5:5 14:5
16:0 5:5 11:5 8:20 5:5 17:5 7:5 16:5 5:5 14:5 7:5
5:0 11:5 8:20 5:5 17:5 7:5 16:5 5:5 14:5 7:5 14:5
11:0 8:20 5:5 17:5 7:5 16:5 5:5 14:5 7:5 14:5 11:5
8:0 5:5 17:5 7:5 16:5 5:5 14:5 7:5 14:5 11:5 5:5
5:0 17:5 7:5 16:5 5:5 14:5 7:5 14:5 11:5 5:5 16:5
17:0 7:5 16:5 5:5 14:5 7:5 14:5 11:5 5:5 16:5 7:5
7:0 16:5 5:5 14:5 7:5 14:5 11:5 5:5 16:5 7:5 16:5
16:0 5:5 14:5 7:5 14:5 11:5 5:5 16:5 7:5 16:5 7:5
5:0 14:5 7:5 14:5 11:5 5:5 16:5 7:5 16:5 7:5 11:5
14:0 7:5 14:5 11:5 5:5 16:5 7:5 16:5 7:5 11:5 14:10
7:0 14:5 11:5 5:5 16:5 7:5 16:5 7:5 11:5 14:10 10:5
14:0 11:5 5:5 16:5 7:5 16:5 7:5 11:5 14:10 10:5 14:5
11:0 5:5 16:5 7:5 16:5 7:5 11:5 14:10 10:5 14:5 5:5
5:0 16:5 7:5 16:5 7:5 11:5 14:10 10:5 14:5 5:5 17:5
16:0 7:5 16:5 7:5 11:5 14:10 10:5 14:5 5:5 17:5 5:5
7:0 16:5 7:5 11:5 14:10 10:5 14:5 5:5 17:5 5:5 16:5
16:0 7:5 11:5 14:10 10:5 14:5 5:5 17:5 5:5 16:5 7:5
7:0 11:5 14:10 10:5 14:5 5:5 17:5 5:5 16:5 7:5 11:5
11:0 14:10 10:5 14:5 5:5 17:5 5:5 16:5 7:5 11:5 10:5
14:0 10:5 14:5 5:5 17:5 5:5 16:5 7:5 11:5 10:5 14:5
10:0 14:5 5:5 17:5 5:5 16:5 7:5 11:5 10:5 14:5 11:5
14:0 5:5 17:5 5:5 16:5 7:5 11:5 10:5 14:5 11:5 8:5
5:0 17:5 5:5 16:5 7:5 11:5 10:5 14:5 11:5 8:5 17:10
17:0 5:5 16:5 7:5 11:5 10:5 14:5 11:5 8:5 17:10 7:5
5:0 16:5 7:5 11:5 10:5 14:5 11:5 8:5 17:10 7:5 14:5
16:0 7:5 11:5 10:5 14:5 11:5 8:5 17:10 7:5 14:5 3:5
7:0 11:5 10:5 14:5 11:5 8:5 17:10 7:5 14:5 3:5 16:5
11:0 10:5 14:5 11:5 8:5 17:10 7:5 14:5 3:5 16:5 7:5
10:0 14:5 11:5 8:5 17:10 7:5 14:5 3:5 16:5 7:5 14:5
14:0 11:5 8:5 17:10 7:5 14:5 3:5 16:5 7:5 14:5 7:5
11:0 8:5 17:10 7:5 14:5 3:5 16:5 7:5 14:5 7:5 11:5
8:0 17:10 7:5 14:5 3:5 16:5 7:5 14:5 7:5 11:5 14:10
17:0 7:5 14:5 3:5 16:5 7:5 14:5 7:5 11:5 14:10 10:5
7:0 14:5 3:5 16:5 7:5 14:5 7:5 11:5 14:10 10:5 11:5
14:0 3:5 16:5 7:5 14:5 7:5 11:5 14:10 10:5 11:5 3:5
3:0 16:5 7:5 14:5 7:5 11:5 14:10 10:5 11:5 3:5 17:5
16:0 7:5 14:5 7:5 11:5 14:10 10:5 11:5 3:5 17:5 7:5
7:0 14:5 7:5 11:5 14:10 10:5 11:5 3:5 17:5 7:5 16:5
14:0 7:5 11:5 14:10 10:5 11:5 3:5 17:5 7:5 16:5 5:5
7:0 11:5 14:10 10:5 11:5 3:5 17:5 7:5 16:5 5:5 14:5
11:0 14:10 10:5 11:5 3:5 17:5 7:5 16:5 5:5 14:5 8:5
14:0 10:5 11:5 3:5 17:5 7:5 16:5 5:5 14:5 8:5 14:5
10:0 11:5 3:5 17:5 7:5 16:5 5:5 14:5 8:5 14:5 13:5
11:0 3:5 17:5 7:5 16:5 5:5 14:5 8:5 14:5 13:5 3:5
3:0 17:5 7:5 16:5 5:5 14:5 8:5 14:5 13:5 3:5 16:5
17:0 7:5 16:5 5:5 14:5 8:5 14:5 13:5 3:5 16:5 8:5
7:0 16:5 5:5 14:5 8:5 14:5 13:5 3:5 16:5 8:5 16:5
16:0 5:5 14:5 8:5 14:5 13:5 3:5 16:5 8:5 16:5 5:5
5:0 14:5 8:5 14:5 13:5 3:5 16:5 8:5 16:5 5:5 14:5
14:0 8:5 14:5 13:5 3:5 16:5 8:5 16:5 5:5 14:5 11:5
8:0 14:5 13:5 3:5 16:5 8:5 16:5 5:5 14:5 11:5 14:10
14:0 13:5 3:5 16:5 8:5 16:5 5:5 14:5 11:5 14:10 10:5
13:0 3:5 16:5 8:5 16:5 5:5 14:5 11:5 14:10 10:5 7:5
3:0 16:5 8:5 16:5 5:5 14:5 11:5 14:10 10:5 7:5 16:5
16:0 8:5 16:5 5:5 14:5 11:5 14:10 10:5 7:5 16:5 5:5
8:0 16:5 5:5 14:5 11:5 14:10 10:5 7:5 16:5 5:5 16:5
16:0 5:5 14:5 11:5 14:10 10:5 7:5 16:5 5:5 16:5 5:5
5:0 14:5 11:5 14:10 10:5 7:5 16:5 5:5 16:5 5:5 11:5
14:0 11:5 14:10 10:5 7:5 16:5 5:5 16:5 5:5 11:5 7:5
11:0 14:10 10:5 7:5 16:5 5:5 16:5 5:5 11:5 7:5 14:5
14:0 10:5 7:5 16:5 5:5 16:5 5:5 11:5 7:5 14:5 11:5
10:0 7:5 16:5 5:5 16:5 5:5 11:5 7:5 14:5 11:5 8:5
7:0 16:5 5:5 16:5 5:5 11:5 7:5 14:5 11:5 8:5 17:10
16:0 5:5 16:5 5:5 11:5 7:5 14:5 11:5 8:5 17:10 7:5
5:0 16:5 5:5 11:5 7:5 14:5 11:5 8:5 17:10 7:5 16:5
16:0 5:5 11:5 7:5 14:5 11:5 8:5 17:10 7:5 16:5 5:5
5:0 11:5 7:5 14:5 11:5 8:5 17:10 7:5 16:5 5:5 14:5
11:0 7:5 14:5 11:5 8:5 17:10 7:5 16:5 5:5 14:5 11:5
7:0 14:5 11:5 8:5 17:10 7:5 16:5 5:5 14:5 11:5 14:5
14:0 11:5 8:5 17:10 7:5 16:5 5:5 14:5 11:5 14:5 10:5
11:0 8:5 17:10 7:5 16:5 5:5 14:5 11:5 14:5 10:5 8:5
8:0 17:10 7:5 16:5 5:5 14:5 11:5 14:5 10:5 8:5 14:5
17:0 7:5 16:5 5:5 14:5 11:5 14:5 10:5 8:5 14:5 7:5
7:0 16:5 5:5 14:5 11:5 14:5 10:5 8:5 14:5 7:5 16:5
16:0 5:5 14:5 11:5 14:5 10:5 8:5 14:5 7:5 16:5 5:5
5:0 14:5 11:5 14:5 10:5 8:5 14:5 7:5 16:5 5:5 14:5
14:0 11:5 14:5 10:5 8:5 14:5 7:5 16:5 5:5 14:5 7:5
11:0 14:5 10:5 8:5 14:5 7:5 16:5 5:5 14:5 7:5 14:5
14:0 10:5 8:5 14:5 7:5 16:5 5:5 14:5 7:5 14:5 11:5
10:0 8:5 14:5 7:5 16:5 5:5 14:5 7:5 14:5 11:5 8:10
8:0 14:5 7:5 16:5 5:5 14:5 7:5 14:5 11:5 8:10 16:5
14:0 7:5 16:5 5:5 14:5 7:5 14:5 11:5 8:10 16:5 8:5
7:0 16:5 5:5 14:5 7:5 14:5 11:5 8:10 16:5 8:5 16:5
16:0 5:5 14:5 7:5 14:5 11:5 8:10 16:5 8:5 16:5 3:5
5:0 14:5 7:5 14:5 11:5 8:10 16:5 8:5 16:5 3:5 16:5
14:0 7:5 14:5 11:5 8:10 16:5 8:5 16:5 3:5 16:5 5:5
7:0 14:5 11:5 8:10 16:5 8:5 16:5 3:5 16:5 5:5 16:5
14:0 11:5 8:10 16:5 8:5 16:5 3:5 16:5 5:5 16:5 10:5
11:0 8:10 16:5 8:5 16:5 3:5 16:5 5:5 16:5 10:5 8:5
8:0 16:5 8:5 16:5 3:5 16:5 5:5 16:5 10:5 8:5 16:10
16:0 8:5 16:5 3:5 16:5 5:5 16:5 10:5 8:5 16:10 7:5
8:0 16:5 3:5 16:5 5:5 16:5 10:5 8:5 16:10 7:5 16:5
16:0 3:5 16:5 5:5 16:5 10:5 8:5 16:10 7:5 16:5 3:5
3:0 16:5 5:5 16:5 10:5 8:5 16:10 7:5 16:5 3:5 16:5
16:0 5:5 16:5 10:5 8:5 16:10 7:5 16:5 3:5 16:5 5:5
5:0 16:5 10:5 8:5 16:10 7:5 16:5 3:5 16:5 5:5 17:5
16:0 10:5 8:5 16:10 7:5 16:5 3:5 16:5 5:5 17:5 7:5
10:0 8:5 16:10 7:5 16:5 3:5 16:5 5:5 17:5 7:5 16:10
8:0 16:10 7:5 16:5 3:5 16:5 5:5 17:5 7:5 16:10 7:5
16:0 7:5 16:5 3:5 16:5 5:5 17:5 7:5 16:10 7:5 16:5
7:0 16:5 3:5 16:5 5:5 17:5 7:5 16:10 7:5 16:5 5:5
16:0 3:5 16:5 5:5 17:5 7:5 16:10 7:5 16:5 5:5 7:5
3:0 16:5 5:5 17:5 7:5 16:10 7:5 16:5 5:5 7:5 14:5
16:0 5:5 17:5 7:5 16:10 7:5 16:5 5:5 7:5 14:5 11:5
5:0 17:5 7:5 16:10 7:5 16:5 5:5 7:5 14:5 11:5 16:5
17:0 7:5 16:10 7:5 16:5 5:5 7:5 14:5 11:5 16:5 3:5
7:0 16:10 7:5 16:5 5:5 7:5 14:5 11:5 16:5 3:5 17:5
16:0 7:5 16:5 5:5 7:5 14:5 11:5 16:5 3:5 17:5 5:5
7:0 16:5 5:5 7:5 14:5 11:5 16:5 3:5 17:5 5:5 16:5
16:0 5:5 7:5 14:5 11:5 16:5 3:5 17:5 5:5 16:5 5:5
5:0 7:5 14:5 11:5 16:5 3:5 17:5 5:5 16:5 5:5 10:5
7:0 14:5 11:5 16:5 3:5 17:5 5:5 16:5 5:5 10:5 7:5
14:0 11:5 16:5 3:5 17:5 5:5 16:5 5:5 10:5 7:5 11:5
11:0 16:5 3:5 17:5 5:5 16:5 5:5 10:5 7:5 11:5 14:10
16:0 3:5 17:5 5:5 16:5 5:5 10:5 7:5 11:5 14:10 5:5
3:0 17:5 5:5 16:5 5:5 10:5 7:5 11:5 14:10 5:5 17:5
17:0 5:5 16:5 5:5 10:5 7:5 11:5 14:10 5:5 17:5 5:5
5:0 16:5 5:5 10:5 7:5 11:5 14:10 5:5 17:5 5:5 16:5
16:0 5:5 10:5 7:5 11:5 14:10 5:5 17:5 5:5 16:5 7:5
5:0 10:5 7:5 11:5 14:10 5:5 17:5 5:5 16:5 7:5 14:10
10:0 7:5 11:5 14:10 5:5 17:5 5:5 16:5 7:5 14:10 8:5
7:0 11:5 14:10 5:5 17:5 5:5 16:5 7:5 14:10 8:5 14:5
11:0 14:10 5:5 17:5 5:5 16:5 7:5 14:10 8:5 14:5 7:5
14:0 5:5 17:5 5:5 16:5 7:5 14:10 8:5 14:5 7:5 8:5
5:0 17:5 5:5 16:5 7:5 14:10 8:5 14:5 7:5 8:5 14:5
17:0 5:5 16:5 7:5 14:10 8:5 14:5 7:5 8:5 14:5 7:5
5:0 16:5 7:5 14:10 8:5 14:5 7:5 8:5 14:5 7:5 16:5
16:0 7:5 14:10 8:5 14:5 7:5 8:5 14:5 7:5 16:5 3:5
7:0 14:10 8:5 14:5 7:5 8:5 14:5 7:5 16:5 3:5 14:5
14:0 8:5 14:5 7:5 8:5 14:5 7:5 16:5 3:5 14:5 7:5
8:0 14:5 7:5 8:5 14:5 7:5 16:5 3:5 14:5 7:5 17:5
14:0 7:5 8:5 14:5 7:5 16:5 3:5 14:5 7:5 17:5 14:5
7:0 8:5 14:5 7:5 16:5 3:5 14:5 7:5 17:5 14:5 8:5
8:0 14:5 7:5 16:5 3:5 14:5 7:5 17:5 14:5 8:5 11:5
14:0 7:5 16:5 3:5 14:5 7:5 17:5 14:5 8:5 11:5 10:5
7:0 16:5 3:5 14:5 7:5 17:5 14:5 8:5 11:5 10:5 7:5
16:0 3:5 14:5 7:5 17:5 14:5 8:5 11:5 10:5 7:5 13:5
3:0 14:5 7:5 17:5 14:5 8:5 11:5 10:5 7:5 13:5 5:5
14:0 7:5 17:5 14:5 8:5 11:5 10:5 7:5 13:5 5:5 14:5
7:0 17:5 14:5 8:5 11:5 10:5 7:5 13:5 5:5 14:5 10:5
17:0 14:5 8:5 11:5 10:5 7:5 13:5 5:5 14:5 10:5 11:5
14:0 8:5 11:5 10:5 7:5 13:5 5:5 14:5 10:5 11:5 14:5
8:0 11:5 10:5 7:5 13:5 5:5 14:5 10:5 11:5 14:5 5:5
11:0 10:5 7:5 13:5 5:5 14:5 10:5 11:5 14:5 5:5 17:5
10:0 7:5 13:5 5:5 14:5 10:5 11:5 14:5 5:5 17:5 5:5
7:0 13:5 5:5 14:5 10:5 11:5 14:5 5:5 17:5 5:5 17:5
13:0 5:5 14:5 10:5 11:5 14:5 5:5 17:5 5:5 17:5 5:5
5:0 14:5 10:5 11:5 14:5 5:5 17:5 5:5 17:5 5:5 13:5
14:0 10:5 11:5 14:5 5:5 17:5 5:5 17:5 5:5 13:5 5:5
10:0 11:5 14:5 5:5 17:5 5:5 17:5 5:5 13:5 5:5 16:5
11:0 14:5 5:5 17:5 5:5 17:5 5:5 13:5 5:5 16:5 7:5
14:0 5:5 17:5 5:5 17:5 5:5 13:5 5:5 16:5 7:5 14:5
5:0 17:5 5:5 17:5 5:5 13:5 5:5 16:5 7:5 14:5 5:5
17:0 5:5 17:5 5:5 13:5 5:5 16:5 7:5 14:5 5:5 16:5
5:0 17:5 5:5 13:5 5:5 16:5 7:5 14:5 5:5 16:5 5:5
17:0 5:5 13:5 5:5 16:5 7:5 14:5 5:5 16:5 5:5 16:5
5:0 13:5 5:5 16:5 7:5 14:5 5:5 16:5 5:5 16:5 5:5
13:0 5:5 16:5 7:5 14:5 5:5 16:5 5:5 16:5 5:5 14:5
5:0 16:5 7:5 14:5 5:5 16:5 5:5 16:5 5:5 14:5 11:5
16:0 7:5 14:5 5:5 16:5 5:5 16:5 5:5 14:5 11:5 14:10
7:0 14:5 5:5 16:5 5:5 16:5 5:5 14:5 11:5 14:10 3:5
14:0 5:5 16:5 5:5 16:5 5:5 14:5 11:5 14:10 3:5 17:5
5:0 16:5 5:5 16:5 5:5 14:5 11:5 14:10 3:5 17:5 7:5
16:0 5:5 16:5 5:5 14:5 11:5 14:10 3:5 17:5 7:5 16:5
5:0 16:5 5:5 14:5 11:5 14:10 3:5 17:5 7:5 16:5 10:5
16:0 5:5 14:5 11:5 14:10 3:5 17:5 7:5 16:5 10:5 7:5
5:0 14:5 11:5 14:10 3:5 17:5 7:5 16:5 10:5 7:5 16:5
14:0 11:5 14:10 3:5 17:5 7:5 16:5 10:5 7:5 16:5 7:5
11:0 14:10 3:5 17:5 7:5 16:5 10:5 7:5 16:5 7:5 16:5
14:0 3:5 17:5 7:5 16:5 10:5 7:5 16:5 7:5 16:5 3:5
3:0 17:5 7:5 16:5 10:5 7:5 16:5 7:5 16:5 3:5 17:5
17:0 7:5 16:5 10:5 7:5 16:5 7:5 16:5 3:5 17:5 5:5
7:0 16:5 10:5 7:5 16:5 7:5 16:5 3:5 17:5 5:5 14:5
16:0 10:5 7:5 16:5 7:5 16:5 3:5 17:5 5:5 14:5 11:5
10:0 7:5 16:5 7:5 16:5 3:5 17:5 5:5 14:5 11:5 7:10
7:0 16:5 7:5 16:5 3:5 17:5 5:5 14:5 11:5 7:10 16:5
16:0 7:5 16:5 3:5 17:5 5:5 14:5 11:5 7:10 16:5 5:5
7:0 16:5 3:5 17:5 5:5 14:5 11:5 7:10 16:5 5:5 16:5
16:0 3:5 17:5 5:5 14:5 11:5 7:10 16:5 5:5 16:5 5:5
3:0 17:5 5:5 14:5 11:5 7:10 16:5 5:5 16:5 5:5 11:5
17:0 5:5 14:5 11:5 7:10 16:5 5:5 16:5 5:5 11:5 14:10
5:0 14:5 11:5 7:10 16:5 5:5 16:5 5:5 11:5 14:10 11:5
14:0 11:5 7:10 16:5 5:5 16:5 5:5 11:5 14:10 11:5 5:5
11:0 7:10 16:5 5:5 16:5 5:5 11:5 14:10 11:5 5:5 11:5
7:0 16:5 5:5 16:5 5:5 11:5 14:10 11:5 5:5 11:5 10:5
16:0 5:5 16:5 5:5 11:5 14:10 11:5 5:5 11:5 10:5 11:5
5:0 16:5 5:5 11:5 14:10 11:5 5:5 11:5 10:5 11:5 13:5
16:0 5:5 11:5 14:10 11:5 5:5 11:5 10:5 11:5 13:5 5:5
5:0 11:5 14:10 11:5 5:5 11:5 10:5 11:5 13:5 5:5 17:5
11:0 14:10 11:5 5:5 11:5 10:5 11:5 13:5 5:5 17:5 5:5
14:0 11:5 5:5 11:5 10:5 11:5 13:5 5:5 17:5 5:5 16:5
11:0 5:5 11:5 10:5 11:5 13:5 5:5 17:5 5:5 16:5 7:5
5:0 11:5 10:5 11:5 13:5 5:5 17:5 5:5 16:5 7:5 8:5
11:0 10:5 11:5 13:5 5:5 17:5 5:5 16:5 7:5 8:5 14:5
10:0 11:5 13:5 5:5 17:5 5:5 16:5 7:5 8:5 14:5 10:5
11:0 13:5 5:5 17:5 5:5 16:5 7:5 8:5 14:5 10:5 16:5
13:0 5:5 17:5 5:5 16:5 7:5 8:5 14:5 10:5 16:5 5:5
5:0 17:5 5:5 16:5 7:5 8:5 14:5 10:5 16:5 5:5 14:5
17:0 5:5 16:5 7:5 8:5 14:5 10:5 16:5 5:5 14:5 10:5
5:0 16:5 7:5 8:5 14:5 10:5 16:5 5:5 14:5 10:5 14:5
16:0 7:5 8:5 14:5 10:5 16:5 5:5 14:5 10:5 14:5 5:10
7:0 8:5 14:5 10:5 16:5 5:5 14:5 10:5 14:5 5:10 7:5
8:0 14:5 10:5 16:5 5:5 14:5 10:5 14:5 5:10 7:5 17:5
14:0 10:5 16:5 5:5 14:5 10:5 14:5 5:10 7:5 17:5 7:5
10:0 16:5 5:5 14:5 10:5 14:5 5:10 7:5 17:5 7:5 16:5
16:0 5:5 14:5 10:5 14:5 5:10 7:5 17:5 7:5 16:5 5:5
5:0 14:5 10:5 14:5 5:10 7:5 17:5 7:5 16:5 5:5 14:5
14:0 10:5 14:5 5:10 7:5 17:5 7:5 16:5 5:5 14:5 10:5
10:0 14:5 5:10 7:5 17:5 7:5 16:5 5:5 14:5 10:5 14:5
14:0 5:10 7:5 17:5 7:5 16:5 5:5 14:5 10:5 14:5 13:5
5:0 7:5 17:5 7:5 16:5 5:5 14:5 10:5 14:5 13:5 3:5
7:0 17:5 7:5 16:5 5:5 14:5 10:5 14:5 13:5 3:5 17:5
17:0 7:5 16:5 5:5 14:5 10:5 14:5 13:5 3:5 17:5 5:5
7:0 16:5 5:5 14:5 10:5 14:5 13:5 3:5 17:5 5:5 16:5
16:0 5:5 14:5 10:5 14:5 13:5 3:5 17:5 5:5 16:5 5:5
5:0 14:5 10:5 14:5 13:5 3:5 17:5 5:5 16:5 5:5 14:5
14:0 10:5 14:5 13:5 3:5 17:5 5:5 16:5 5:5 14:5 11:5
10:0 14:5 13:5 3:5 17:5 5:5 16:5 5:5 14:5 11:5 10:10
14:0 13:5 3:5 17:5 5:5 16:5 5:5 14:5 11:5 10:10 7:5
13:0 3:5 17:5 5:5 16:5 5:5 14:5 11:5 10:10 7:5 8:5
3:0 17:5 5:5 16:5 5:5 14:5 11:5 10:10 7:5 8:5 14:5
17:0 5:5 16:5 5:5 14:5 11:5 10:10 7:5 8:5 14:5 8:5
5:0 16:5 5:5 14:5 11:5 10:10 7:5 8:5 14:5 8:5 16:5
16:0 5:5 14:5 11:5 10:10 7:5 8:5 14:5 8:5 16:5 3:5
5:0 14:5 11:5 10:10 7:5 8:5 14:5 8:5 16:5 3:5 14:5
14:0 11:5 10:10 7:5 8:5 14:5 8:5 16:5 3:5 14:5 8:5
11:0 10:10 7:5 8:5 14:5 8:5 16:5 3:5 14:5 8:5 16:5
10:0 7:5 8:5 14:5 8:5 16:5 3:5 14:5 8:5 16:5 10:5
7:0 8:5 14:5 8:5 16:5 3:5 14:5 8:5 16:5 10:5 8:5
8:0 14:5 8:5 16:5 3:5 14:5 8:5 16:5 10:5 8:5 16:5
14:0 8:5 16:5 3:5 14:5 8:5 16:5 10:5 8:5 16:5 5:5
8:0 16:5 3:5 14:5 8:5 16:5 10:5 8:5 16:5 5:5 16:5
16:0 3:5 14:5 8:5 16:5 10:5 8:5 16:5 5:5 16:5 7:5
3:0 14:5 8:5 16:5 10:5 8:5 16:5 5:5 16:5 7:5 10:5
14:0 8:5 16:5 10:5 8:5 16:5 5:5 16:5 7:5 10:5 5:5
8:0 16:5 10:5 8:5 16:5 5:5 16:5 7:5 10:5 5:5 17:5
16:0 10:5 8:5 16:5 5:5 16:5 7:5 10:5 5:5 17:5 7:5
10:0 8:5 16:5 5:5 16:5 7:5 10:5 5:5 17:5 7:5 13:5
8:0 16:5 5:5 16:5 7:5 10:5 5:5 17:5 7:5 13:5 5:5
16:0 5:5 16:5 7:5 10:5 5:5 17:5 7:5 13:5 5:5 14:5
5:0 16:5 7:5 10:5 5:5 17:5 7:5 13:5 5:5 14:5 7:5
16:0 7:5 10:5 5:5 17:5 7:5 13:5 5:5 14:5 7:5 17:5
7:0 10:5 5:5 17:5 7:5 13:5 5:5 14:5 7:5 17:5 3:5
10:0 5:5 17:5 7:5 13:5 5:5 14:5 7:5 17:5 3:5 14:5
5:0 17:5 7:5 13:5 5:5 14:5 7:5 17:5 3:5 14:5 7:5
17:0 7:5 13:5 5:5 14:5 7:5 17:5 3:5 14:5 7:5 16:5
7:0 13:5 5:5 14:5 7:5 17:5 3:5 14:5 7:5 16:5 5:5
13:0 5:5 14:5 7:5 17:5 3:5 14:5 7:5 16:5 5:5 10:5
5:0 14:5 7:5 17:5 3:5 14:5 7:5 16:5 5:5 10:5 13:10
14:0 7:5 17:5 3:5 14:5 7:5 16:5 5:5 10:5 13:10 11:5
7:0 17:5 3:5 14:5 7:5 16:5 5:5 10:5 13:10 11:5 13:5
17:0 3:5 14:5 7:5 16:5 5:5 10:5 13:10 11:5 13:5 3:5
3:0 14:5 7:5 16:5 5:5 10:5 13:10 11:5 13:5 3:5 17:5
14:0 7:5 16:5 5:5 10:5 13:10 11:5 13:5 3:5 17:5 8:5
7:0 16:5 5:5 10:5 13:10 11:5 13:5 3:5 17:5 8:5 16:5
16:0 5:5 10:5 13:10 11:5 13:5 3:5 17:5 8:5 16:5 7:5
5:0 10:5 13:10 11:5 13:5 3:5 17:5 8:5 16:5 7:5 5:5
10:0 13:10 11:5 13:5 3:5 17:5 8:5 16:5 7:5 5:5 14:5
13:0 11:5 13:5 3:5 17:5 8:5 16:5 7:5 5:5 14:5 7:5
11:0 13:5 3:5 17:5 8:5 16:5 7:5 5:5 14:5 7:5 16:5
13:0 3:5 17:5 8:5 16:5 7:5 5:5 14:5 7:5 16:5 3:5
3:0 17:5 8:5 16:5 7:5 5:5 14:5 7:5 16:5 3:5 14:5
17:0 8:5 16:5 7:5 5:5 14:5 7:5 16:5 3:5 14:5 7:5
8:0 16:5 7:5 5:5 14:5 7:5 16:5 3:5 14:5 7:5 14:5
16:0 7:5 5:5 14:5 7:5 16:5 3:5 14:5 7:5 14:5 10:5
7:0 5:5 14:5 7:5 16:5 3:5 14:5 7:5 14:5 10:5 7:10
5:0 14:5 7:5 16:5 3:5 14:5 7:5 14:5 10:5 7:10 14:5
14:0 7:5 16:5 3:5 14:5 7:5 14:5 10:5 7:10 14:5 7:5
7:0 16:5 3:5 14:5 7:5 14:5 10:5 7:10 14:5 7:5 16:5
16:0 3:5 14:5 7:5 14:5 10:5 7:10 14:5 7:5 16:5 3:5
3:0 14:5 7:5 14:5 10:5 7:10 14:5 7:5 16:5 3:5 17:5
14:0 7:5 14:5 10:5 7:10 14:5 7:5 16:5 3:5 17:5 8:5
7:0 14:5 10:5 7:10 14:5 7:5 16:5 3:5 17:5 8:5 14:5
14:0 10:5 7:10 14:5 7:5 16:5 3:5 17:5 8:5 14:5 10:5
10:0 7:10 14:5 7:5 16:5 3:5 17:5 8:5 14:5 10:5 7:5
7:0 14:5 7:5 16:5 3:5 17:5 8:5 14:5 10:5 7:5 11:5
14:0 7:5 16:5 3:5 17:5 8:5 14:5 10:5 7:5 11:5 14:10
7:0 16:5 3:5 17:5 8:5 14:5 10:5 7:5 11:5 14:10 10:5
16:0 3:5 17:5 8:5 14:5 10:5 7:5 11:5 14:10 10:5 7:5
3:0 17:5 8:5 14:5 10:5 7:5 11:5 14:10 10:5 7:5 14:5
17:0 8:5 14:5 10:5 7:5 11:5 14:10 10:5 7:5 14:5 7:5
8:0 14:5 10:5 7:5 11:5 14:10 10:5 7:5 14:5 7:5 16:5
14:0 10:5 7:5 11:5 14:10 10:5 7:5 14:5 7:5 16:5 3:5
10:0 7:5 11:5 14:10 10:5 7:5 14:5 7:5 16:5 3:5 16:5
7:0 11:5 14:10 10:5 7:5 14:5 7:5 16:5 3:5 16:5 7:5
11:0 14:10 10:5 7:5 14:5 7:5 16:5 3:5 16:5 7:5 14:5
14:0 10:5 7:5 14:5 7:5 16:5 3:5 16:5 7:5 14:5 11:5
10:0 7:5 14:5 7:5 16:5 3:5 16:5 7:5 14:5 11:5 10:5
7:0 14:5 7:5 16:5 3:5 16:5 7:5 14:5 11:5 10:5 7:5
14:0 7:5 16:5 3:5 16:5 7:5 14:5 11:5 10:5 7:5 16:5
7:0 16:5 3:5 16:5 7:5 14:5 11:5 10:5 7:5 16:5 7:5
16:0 3:5 16:5 7:5 14:5 11:5 10:5 7:5 16:5 7:5 16:5
3:0 16:5 7:5 14:5 11:5 10:5 7:5 16:5 7:5 16:5 5:5
16:0 7:5 14:5 11:5 10:5 7:5 16:5 7:5 16:5 5:5 14:5
7:0 14:5 11:5 10:5 7:5 16:5 7:5 16:5 5:5 14:5 11:5
14:0 11:5 10:5 7:5 16:5 7:5 16:5 5:5 14:5 11:5 14:5
11:0 10:5 7:5 16:5 7:5 16:5 5:5 14:5 11:5 14:5 7:5
10:0 7:5 16:5 7:5 16:5 5:5 14:5 11:5 14:5 7:5 11:5
7:0 16:5 7:5 16:5 5:5 14:5 11:5 14:5 7:5 11:5 8:5
16:0 7:5 16:5 5:5 14:5 11:5 14:5 7:5 11:5 8:5 14:5
7:0 16:5 5:5 14:5 11:5 14:5 7:5 11:5 8:5 14:5 10:5
16:0 5:5 14:5 11:5 14:5 7:5 11:5 8:5 14:5 10:5 13:5
5:0 14:5 11:5 14:5 7:5 11:5 8:5 14:5 10:5 13:5 3:5
14:0 11:5 14:5 7:5 11:5 8:5 14:5 10:5 13:5 3:5 16:5
11:0 14:5 7:5 11:5 8:5 14:5 10:5 13:5 3:5 16:5 7:5
14:0 7:5 11:5 8:5 14:5 10:5 13:5 3:5 16:5 7:5 17:5
7:0 11:5 8:5 14:5 10:5 13:5 3:5 16:5 7:5 17:5 7:5
11:0 8:5 14:5 10:5 13:5 3:5 16:5 7:5 17:5 7:5 14:10
8:0 14:5 10:5 13:5 3:5 16:5 7:5 17:5 7:5 14:10 11:5
14:0 10:5 13:5 3:5 16:5 7:5 17:5 7:5 14:10 11:5 17:5
10:0 13:5 3:5 16:5 7:5 17:5 7:5 14:10 11:5 17:5 3:5
13:0 3:5 16:5 7:5 17:5 7:5 14:10 11:5 17:5 3:5 16:5
3:0 16:5 7:5 17:5 7:5 14:10 11:5 17:5 3:5 16:5 7:5
16:0 7:5 17:5 7:5 14:10 11:5 17:5 3:5 16:5 7:5 16:5
7:0 17:5 7:5 14:10 11:5 17:5 3:5 16:5 7:5 16:5 7:5
17:0 7:5 14:10 11:5 17:5 3:5 16:5 7:5 16:5 7:5 10:5
7:0 14:10 11:5 17:5 3:5 16:5 7:5 16:5 7:5 10:5 8:5
14:0 11:5 17:5 3:5 16:5 7:5 16:5 7:5 10:5 8:5 14:5
11:0 17:5 3:5 16:5 7:5 16:5 7:5 10:5 8:5 14:5 8:5
17:0 3:5 16:5 7:5 16:5 7:5 10:5 8:5 14:5 8:5 16:5
3:0 16:5 7:5 16:5 7:5 10:5 8:5 14:5 8:5 16:5 3:5
16:0 7:5 16:5 7:5 10:5 8:5 14:5 8:5 16:5 3:5 14:5
7:0 16:5 7:5 10:5 8:5 14:5 8:5 16:5 3:5 14:5 7:5
16:0 7:5 10:5 8:5 14:5 8:5 16:5 3:5 14:5 7:5 16:5
7:0 10:5 8:5 14:5 8:5 16:5 3:5 14:5 7:5 16:5 10:5
10:0 8:5 14:5 8:5 16:5 3:5 14:5 7:5 16:5 10:5 7:5
8:0 14:5 8:5 16:5 3:5 14:5 7:5 16:5 10:5 7:5 11:5
14:0 8:5 16:5 3:5 14:5 7:5 16:5 10:5 7:5 11:5 10:5
8:0 16:5 3:5 14:5 7:5 16:5 10:5 7:5 11:5 10:5 14:5
16:0 3:5 14:5 7:5 16:5 10:5 7:5 11:5 10:5 14:5 10:5
3:0 14:5 7:5 16:5 10:5 7:5 11:5 10:5 14:5 10:5 5:5
14:0 7:5 16:5 10:5 7:5 11:5 10:5 14:5 10:5 5:5 16:5
7:0 16:5 10:5 7:5 11:5 10:5 14:5 10:5 5:5 16:5 7:5
16:0 10:5 7:5 11:5 10:5 14:5 10:5 5:5 16:5 7:5 17:5
10:0 7:5 11:5 10:5 14:5 10:5 5:5 16:5 7:5 17:5 7:5
7:0 11:5 10:5 14:5 10:5 5:5 16:5 7:5 17:5 7:5 8:5
11:0 10:5 14:5 10:5 5:5 16:5 7:5 17:5 7:5 8:5 11:5
10:0 14:5 10:5 5:5 16:5 7:5 17:5 7:5 8:5 11:5 14:10
14:0 10:5 5:5 16:5 7:5 17:5 7:5 8:5 11:5 14:10 5:5
10:0 5:5 16:5 7:5 17:5 7:5 8:5 11:5 14:10 5:5 16:5
5:0 16:5 7:5 17:5 7:5 8:5 11:5 14:10 5:5 16:5 5:5
16:0 7:5 17:5 7:5 8:5 11:5 14:10 5:5 16:5 5:5 16:5
7:0 17:5 7:5 8:5 11:5 14:10 5:5 16:5 5:5 16:5 7:5
17:0 7:5 8:5 11:5 14:10 5:5 16:5 5:5 16:5 7:5 11:5
7:0 8:5 11:5 14:10 5:5 16:5 5:5 16:5 7:5 11:5 14:10
8:0 11:5 14:10 5:5 16:5 5:5 16:5 7:5 11:5 14:10 11:5
11:0 14:10 5:5 16:5 5:5 16:5 7:5 11:5 14:10 11:5 13:5
14:0 5:5 16:5 5:5 16:5 7:5 11:5 14:10 11:5 13:5 5:5
5:0 16:5 5:5 16:5 7:5 11:5 14:10 11:5 13:5 5:5 16:5
16:0 5:5 16:5 7:5 11:5 14:10 11:5 13:5 5:5 16:5 5:5
5:0 16:5 7:5 11:5 14:10 11:5 13:5 5:5 16:5 5:5 17:5
16:0 7:5 11:5 14:10 11:5 13:5 5:5 16:5 5:5 17:5 5:5
7:0 11:5 14:10 11:5 13:5 5:5 16:5 5:5 17:5 5:5 11:5
11:0 14:10 11:5 13:5 5:5 16:5 5:5 17:5 5:5 11:5 10:5
14:0 11:5 13:5 5:5 16:5 5:5 17:5 5:5 11:5 10:5 11:5
11:0 13:5 5:5 16:5 5:5 17:5 5:5 11:5 10:5 11:5 16:5
13:0 5:5 16:5 5:5 17:5 5:5 11:5 10:5 11:5 16:5 5:5
5:0 16:5 5:5 17:5 5:5 11:5 10:5 11:5 16:5 5:5 14:5
16:0 5:5 17:5 5:5 11:5 10:5 11:5 16:5 5:5 14:5 7:5
5:0 17:5 5:5 11:5 10:5 11:5 16:5 5:5 14:5 7:5 14:5
17:0 5:5 11:5 10:5 11:5 16:5 5:5 14:5 7:5 14:5 7:5
5:0 11:5 10:5 11:5 16:5 5:5 14:5 7:5 14:5 7:5 14:5
11:0 10:5 11:5 16:5 5:5 14:5 7:5 14:5 7:5 14:5 5:5
10:0 11:5 16:5 5:5 14:5 7:5 14:5 7:5 14:5 5:5 16:5
11:0 16:5 5:5 14:5 7:5 14:5 7:5 14:5 5:5 16:5 7:5
16:0 5:5 14:5 7:5 14:5 7:5 14:5 5:5 16:5 7:5 16:5
5:0 14:5 7:5 14:5 7:5 14:5 5:5 16:5 7:5 16:5 3:5
14:0 7:5 14:5 7:5 14:5 5:5 16:5 7:5 16:5 3:5 16:5
7:0 14:5 7:5 14:5 5:5 16:5 7:5 16:5 3:5 16:5 5:5
14:0 7:5 14:5 5:5 16:5 7:5 16:5 3:5 16:5 5:5 17:5
7:0 14:5 5:5 16:5 7:5 16:5 3:5 16:5 5:5 17:5 7:5
14:0 5:5 16:5 7:5 16:5 3:5 16:5 5:5 17:5 7:5 14:5
5:0 16:5 7:5 16:5 3:5 16:5 5:5 17:5 7:5 14:5 5:5
16:0 7:5 16:5 3:5 16:5 5:5 17:5 7:5 14:5 5:5 16:5
7:0 16:5 3:5 16:5 5:5 17:5 7:5 14:5 5:5 16:5 7:5
16:0 3:5 16:5 5:5 17:5 7:5 14:5 5:5 16:5 7:5 14:5
3:0 16:5 5:5 17:5 7:5 14:5 5:5 16:5 7:5 14:5 5:5
16:0 5:5 17:5 7:5 14:5 5:5 16:5 7:5 14:5 5:5 14:5
5:0 17:5 7:5 14:5 5:5 16:5 7:5 14:5 5:5 14:5 8:5
17:0 7:5 14:5 5:5 16:5 7:5 14:5 5:5 14:5 8:5 17:5
7:0 14:5 5:5 16:5 7:5 14:5 5:5 14:5 8:5 17:5 5:5
14:0 5:5 16:5 7:5 14:5 5:5 14:5 8:5 17:5 5:5 11:5
5:0 16:5 7:5 14:5 5:5 14:5 8:5 17:5 5:5 11:5 13:15
16:0 7:5 14:5 5:5 14:5 8:5 17:5 5:5 11:5 13:15 3:5
7:0 14:5 5:5 14:5 8:5 17:5 5:5 11:5 13:15 3:5 14:5
14:0 5:5 14:5 8:5 17:5 5:5 11:5 13:15 3:5 14:5 5:5
5:0 14:5 8:5 17:5 5:5 11:5 13:15 3:5 14:5 5:5 17:5
14:0 8:5 17:5 5:5 11:5 13:15 3:5 14:5 5:5 17:5 10:5
8:0 17:5 5:5 11:5 13:15 3:5 14:5 5:5 17:5 10:5 11:5
17:0 5:5 11:5 13:15 3:5 14:5 5:5 17:5 10:5 11:5 5:5
5:0 11:5 13:15 3:5 14:5 5:5 17:5 10:5 11:5 5:5 16:5
11:0 13:15 3:5 14:5 5:5 17:5 10:5 11:5 5:5 16:5 7:5
13:0 3:5 14:5 5:5 17:5 10:5 11:5 5:5 16:5 7:5 16:5
3:0 14:5 5:5 17:5 10:5 11:5 5:5 16:5 7:5 16:5 3:5
14:0 5:5 17:5 10:5 11:5 5:5 16:5 7:5 16:5 3:5 17:5
5:0 17:5 10:5 11:5 5:5 16:5 7:5 16:5 3:5 17:5 7:5
17:0 10:5 11:5 5:5 16:5 7:5 16:5 3:5 17:5 7:5 14:5
10:0 11:5 5:5 16:5 7:5 16:5 3:5 17:5 7:5 14:5 10:5
11:0 5:5 16:5 7:5 16:5 3:5 17:5 7:5 14:5 10:5 8:5
5:0 16:5 7:5 16:5 3:5 17:5 7:5 14:5 10:5 8:5 14:5
16:0 7:5 16:5 3:5 17:5 7:5 14:5 10:5 8:5 14:5 11:5
7:0 16:5 3:5 17:5 7:5 14:5 10:5 8:5 14:5 11:5 16:5
16:0 3:5 17:5 7:5 14:5 10:5 8:5 14:5 11:5 16:5 5:5
3:0 17:5 7:5 14:5 10:5 8:5 14:5 11:5 16:5 5:5 14:5
17:0 7:5 14:5 10:5 8:5 14:5 11:5 16:5 5:5 14:5 7:5
7:0 14:5 10:5 8:5 14:5 11:5 16:5 5:5 14:5 7:5 14:5
14:0 10:5 8:5 14:5 11:5 16:5 5:5 14:5 7:5 14:5 11:5
10:0 8:5 14:5 11:5 16:5 5:5 14:5 7:5 14:5 11:5 7:5
8:0 14:5 11:5 16:5 5:5 14:5 7:5 14:5 11:5 7:5 11:5
14:0 11:5 16:5 5:5 14:5 7:5 14:5 11:5 7:5 11:5 13:5
11:0 16:5 5:5 14:5 7:5 14:5 11:5 7:5 11:5 13:5 11:5
16:0 5:5 14:5 7:5 14:5 11:5 7:5 11:5 13:5 11:5 16:5
5:0 14:5 7:5 14:5 11:5 7:5 11:5 13:5 11:5 16:5 3:5
14:0 7:5 14:5 11:5 7:5 11:5 13:5 11:5 16:5 3:5 17:5
7:0 14:5 11:5 7:5 11:5 13:5 11:5 16:5 3:5 17:5 5:5
14:0 11:5 7:5 11:5 13:5 11:5 16:5 3:5 17:5 5:5 16:5
11:0 7:5 11:5 13:5 11:5 16:5 3:5 17:5 5:5 16:5 5:5
7:0 11:5 13:5 11:5 16:5 3:5 17:5 5:5 16:5 5:5 11:5
11:0 13:5 11:5 16:5 3:5 17:5 5:5 16:5 5:5 11:5 8:5
13:0 11:5 16:5 3:5 17:5 5:5 16:5 5:5 11:5 8:5 16:5
11:0 16:5 3:5 17:5 5:5 16:5 5:5 11:5 8:5 16:5 10:5
16:0 3:5 17:5 5:5 16:5 5:5 11:5 8:5 16:5 10:5 14:5
3:0 17:5 5:5 16:5 5:5 11:5 8:5 16:5 10:5 14:5 5:5
17:0 5:5 16:5 5:5 11:5 8:5 16:5 10:5 14:5 5:5 16:5
5:0 16:5 5:5 11:5 8:5 16:5 10:5 14:5 5:5 16:5 5:5
16:0 5:5 11:5 8:5 16:5 10:5 14:5 5:5 16:5 5:5 17:5
5:0 11:5 8:5 16:5 10:5 14:5 5:5 16:5 5:5 17:5 8:5
11:0 8:5 16:5 10:5 14:5 5:5 16:5 5:5 17:5 8:5 11:5
8:0 16:5 10:5 14:5 5:5 16:5 5:5 17:5 8:5 11:5 10:5
16:0 10:5 14:5 5:5 16:5 5:5 17:5 8:5 11:5 10:5 13:10
10:0 14:5 5:5 16:5 5:5 17:5 8:5 11:5 10:5 13:10 5:5
14:0 5:5 16:5 5:5 17:5 8:5 11:5 10:5 13:10 5:5 14:5
5:0 16:5 5:5 17:5 8:5 11:5 10:5 13:10 5:5 14:5 11:5
16:0 5:5 17:5 8:5 11:5 10:5 13:10 5:5 14:5 11:5 14:10
5:0 17:5 8:5 11:5 10:5 13:10 5:5 14:5 11:5 14:10 5:5
17:0 8:5 11:5 10:5 13:10 5:5 14:5 11:5 14:10 5:5 14:5
8:0 11:5 10:5 13:10 5:5 14:5 11:5 14:10 5:5 14:5 7:5
11:0 10:5 13:10 5:5 14:5 11:5 14:10 5:5 14:5 7:5 14:5
10:0 13:10 5:5 14:5 11:5 14:10 5:5 14:5 7:5 14:5 10:5
13:0 5:5 14:5 11:5 14:10 5:5 14:5 7:5 14:5 10:5 5:5
5:0 14:5 11:5 14:10 5:5 14:5 7:5 14:5 10:5 5:5 14:5
14:0 11:5 14:10 5:5 14:5 7:5 14:5 10:5 5:5 14:5 7:5
11:0 14:10 5:5 14:5 7:5 14:5 10:5 5:5 14:5 7:5 17:5
14:0 5:5 14:5 7:5 14:5 10:5 5:5 14:5 7:5 17:5 5:5
5:0 14:5 7:5 14:5 10:5 5:5 14:5 7:5 17:5 5:5 8:5
14:0 7:5 14:5 10:5 5:5 14:5 7:5 17:5 5:5 8:5 14:5
7:0 14:5 10:5 5:5 14:5 7:5 17:5 5:5 8:5 14:5 7:5
14:0 10:5 5:5 14:5 7:5 17:5 5:5 8:5 14:5 7:5 17:5
10:0 5:5 14:5 7:5 17:5 5:5 8:5 14:5 7:5 17:5 7:5
5:0 14:5 7:5 17:5 5:5 8:5 14:5 7:5 17:5 7:5 8:5
14:0 7:5 17:5 5:5 8:5 14:5 7:5 17:5 7:5 8:5 16:5
7:0 17:5 5:5 8:5 14:5 7:5 17:5 7:5 8:5 16:5 7:5
17:0 5:5 8:5 14:5 7:5 17:5 7:5 8:5 16:5 7:5 16:5
5:0 8:5 14:5 7:5 17:5 7:5 8:5 16:5 7:5 16:5 3:5
8:0 14:5 7:5 17:5 7:5 8:5 16:5 7:5 16:5 3:5 14:5
14:0 7:5 17:5 7:5 8:5 16:5 7:5 16:5 3:5 14:5 7:5
7:0 17:5 7:5 8:5 16:5 7:5 16:5 3:5 14:5 7:5 14:5
17:0 7:5 8:5 16:5 7:5 16:5 3:5 14:5 7:5 14:5 5:10
7:0 8:5 16:5 7:5 16:5 3:5 14:5 7:5 14:5 5:10 17:5
8:0 16:5 7:5 16:5 3:5 14:5 7:5 14:5 5:10 17:5 7:5
16:0 7:5 16:5 3:5 14:5 7:5 14:5 5:10 17:5 7:5 14:5
7:0 16:5 3:5 14:5 7:5 14:5 5:10 17:5 7:5 14:5 7:5
16:0 3:5 14:5 7:5 14:5 5:10 17:5 7:5 14:5 7:5 14:10
3:0 14:5 7:5 14:5 5:10 17:5 7:5 14:5 7:5 14:10 5:5
14:0 7:5 14:5 5:10 17:5 7:5 14:5 7:5 14:10 5:5 17:5
7:0 14:5 5:10 17:5 7:5 14:5 7:5 14:10 5:5 17:5 7:5
14:0 5:10 17:5 7:5 14:5 7:5 14:10 5:5 17:5 7:5 11:5
5:0 17:5 7:5 14:5 7:5 14:10 5:5 17:5 7:5 11:5 10:10
17:0 7:5 14:5 7:5 14:10 5:5 17:5 7:5 11:5 10:10 13:5
7:0 14:5 7:5 14:10 5:5 17:5 7:5 11:5 10:10 13:5 5:5
14:0 7:5 14:10 5:5 17:5 7:5 11:5 10:10 13:5 5:5 14:5
7:0 14:10 5:5 17:5 7:5 11:5 10:10 13:5 5:5 14:5 11:5
14:0 5:5 17:5 7:5 11:5 10:10 13:5 5:5 14:5 11:5 14:10
5:0 17:5 7:5 11:5 10:10 13:5 5:5 14:5 11:5 14:10 5:5
17:0 7:5 11:5 10:10 13:5 5:5 14:5 11:5 14:10 5:5 14:5
7:0 11:5 10:10 13:5 5:5 14:5 11:5 14:10 5:5 14:5 11:5
11:0 10:10 13:5 5:5 14:5 11:5 14:10 5:5 14:5 11:5 13:10
10:0 13:5 5:5 14:5 11:5 14:10 5:5 14:5 11:5 13:10 3:5
13:0 5:5 14:5 11:5 14:10 5:5 14:5 11:5 13:10 3:5 17:5
5:0 14:5 11:5 14:10 5:5 14:5 11:5 13:10 3:5 17:5 7:5
14:0 11:5 14:10 5:5 14:5 11:5 13:10 3:5 17:5 7:5 16:5
11:0 14:10 5:5 14:5 11:5 13:10 3:5 17:5 7:5 16:5 7:5
14:0 5:5 14:5 11:5 13:10 3:5 17:5 7:5 16:5 7:5 14:10
5:0 14:5 11:5 13:10 3:5 17:5 7:5 16:5 7:5 14:10 11:5
14:0 11:5 13:10 3:5 17:5 7:5 16:5 7:5 14:10 11:5 5:15
11:0 13:10 3:5 17:5 7:5 16:5 7:5 14:10 11:5 5:15 17:5
13:0 3:5 17:5 7:5 16:5 7:5 14:10 11:5 5:15 17:5 8:5
3:0 17:5 7:5 16:5 7:5 14:10 11:5 5:15 17:5 8:5 16:5
17:0 7:5 16:5 7:5 14:10 11:5 5:15 17:5 8:5 16:5 5:5
7:0 16:5 7:5 14:10 11:5 5:15 17:5 8:5 16:5 5:5 14:5
16:0 7:5 14:10 11:5 5:15 17:5 8:5 16:5 5:5 14:5 10:5
7:0 14:10 11:5 5:15 17:5 8:5 16:5 5:5 14:5 10:5 11:5
14:0 11:5 5:15 17:5 8:5 16:5 5:5 14:5 10:5 11:5 13:5
11:0 5:15 17:5 8:5 16:5 5:5 14:5 10:5 11:5 13:5 3:5
5:0 17:5 8:5 16:5 5:5 14:5 10:5 11:5 13:5 3:5 17:5
17:0 8:5 16:5 5:5 14:5 10:5 11:5 13:5 3:5 17:5 5:5
8:0 16:5 5:5 14:5 10:5 11:5 13:5 3:5 17:5 5:5 16:5
16:0 5:5 14:5 10:5 11:5 13:5 3:5 17:5 5:5 16:5 5:5
5:0 14:5 10:5 11:5 13:5 3:5 17:5 5:5 16:5 5:5 7:5
14:0 10:5 11:5 13:5 3:5 17:5 5:5 16:5 5:5 7:5 11:5
10:0 11:5 13:5 3:5 17:5 5:5 16:5 5:5 7:5 11:5 13:15
11:0 13:5 3:5 17:5 5:5 16:5 5:5 7:5 11:5 13:15 5:5
13:0 3:5 17:5 5:5 16:5 5:5 7:5 11:5 13:15 5:5 17:5
3:0 17:5 5:5 16:5 5:5 7:5 11:5 13:15 5:5 17:5 5:5
17:0 5:5 16:5 5:5 7:5 11:5 13:15 5:5 17:5 5:5 16:5
5:0 16:5 5:5 7:5 11:5 13:15 5:5 17:5 5:5 16:5 7:5
16:0 5:5 7:5 11:5 13:15 5:5 17:5 5:5 16:5 7:5 8:5
5:0 7:5 11:5 13:15 5:5 17:5 5:5 16:5 7:5 8:5 14:5
7:0 11:5 13:15 5:5 17:5 5:5 16:5 7:5 8:5 14:5 11:5
11:0 13:15 5:5 17:5 5:5 16:5 7:5 8:5 14:5 11:5 16:5
13:0 5:5 17:5 5:5 16:5 7:5 8:5 14:5 11:5 16:5 5:5
5:0 17:5 5:5 16:5 7:5 8:5 14:5 11:5 16:5 5:5 14:5
17:0 5:5 16:5 7:5 8:5 14:5 11:5 16:5 5:5 14:5 5:5
5:0 16:5 7:5 8:5 14:5 11:5 16:5 5:5 14:5 5:5 16:5
16:0 7:5 8:5 14:5 11:5 16:5 5:5 14:5 5:5 16:5 7:5
7:0 8:5 14:5 11:5 16:5 5:5 14:5 5:5 16:5 7:5 10:5
8:0 14:5 11:5 16:5 5:5 14:5 5:5 16:5 7:5 10:5 7:5
14:0 11:5 16:5 5:5 14:5 5:5 16:5 7:5 10:5 7:5 10:5
11:0 16:5 5:5 14:5 5:5 16:5 7:5 10:5 7:5 10:5 14:5
16:0 5:5 14:5 5:5 16:5 7:5 10:5 7:5 10:5 14:5 11:5
5:0 14:5 5:5 16:5 7:5 10:5 7:5 10:5 14:5 11:5 5:10
14:0 5:5 16:5 7:5 10:5 7:5 10:5 14:5 11:5 5:10 17:5
5:0 16:5 7:5 10:5 7:5 10:5 14:5 11:5 5:10 17:5 5:5
16:0 7:5 10:5 7:5 10:5 14:5 11:5 5:10 17:5 5:5 16:5
7:0 10:5 7:5 10:5 14:5 11:5 5:10 17:5 5:5 16:5 3:5
10:0 7:5 10:5 14:5 11:5 5:10 17:5 5:5 16:5 3:5 14:5
7:0 10:5 14:5 11:5 5:10 17:5 5:5 16:5 3:5 14:5 10:5
10:0 14:5 11:5 5:10 17:5 5:5 16:5 3:5 14:5 10:5 14:5
14:0 11:5 5:10 17:5 5:5 16:5 3:5 14:5 10:5 14:5 11:5
11:0 5:10 17:5 5:5 16:5 3:5 14:5 10:5 14:5 11:5 7:5
5:0 17:5 5:5 16:5 3:5 14:5 10:5 14:5 11:5 7:5 11:5
17:0 5:5 16:5 3:5 14:5 10:5 14:5 11:5 7:5 11:5 7:10
5:0 16:5 3:5 14:5 10:5 14:5 11:5 7:5 11:5 7:10 16:5
16:0 3:5 14:5 10:5 14:5 11:5 7:5 11:5 7:10 16:5 5:5
3:0 14:5 10:5 14:5 11:5 7:5 11:5 7:10 16:5 5:5 16:5
14:0 10:5 14:5 11:5 7:5 11:5 7:10 16:5 5:5 16:5 7:5
10:0 14:5 11:5 7:5 11:5 7:10 16:5 5:5 16:5 7:5 16:5
14:0 11:5 7:5 11:5 7:10 16:5 5:5 16:5 7:5 16:5 5:5
11:0 7:5 11:5 7:10 16:5 5:5 16:5 7:5 16:5 5:5 11:5
7:0 11:5 7:10 16:5 5:5 16:5 7:5 16:5 5:5 11:5 14:5
11:0 7:10 16:5 5:5 16:5 7:5 16:5 5:5 11:5 14:5 10:5
7:0 16:5 5:5 16:5 7:5 16:5 5:5 11:5 14:5 10:5 16:5
16:0 5:5 16:5 7:5 16:5 5:5 11:5 14:5 10:5 16:5 3:5
5:0 16:5 7:5 16:5 5:5 11:5 14:5 10:5 16:5 3:5 17:5
16:0 7:5 16:5 5:5 11:5 14:5 10:5 16:5 3:5 17:5 5:5
7:0 16:5 5:5 11:5 14:5 10:5 16:5 3:5 17:5 5:5 17:5
16:0 5:5 11:5 14:5 10:5 16:5 3:5 17:5 5:5 17:5 7:5
5:0 11:5 14:5 10:5 16:5 3:5 17:5 5:5 17:5 7:5 11:5
11:0 14:5 10:5 16:5 3:5 17:5 5:5 17:5 7:5 11:5 7:5
14:0 10:5 16:5 3:5 17:5 5:5 17:5 7:5 11:5 7:5 14:5
10:0 16:5 3:5 17:5 5:5 17:5 7:5 11:5 7:5 14:5 11:5
16:0 3:5 17:5 5:5 17:5 7:5 11:5 7:5 14:5 11:5 14:5
3:0 17:5 5:5 17:5 7:5 11:5 7:5 14:5 11:5 14:5 3:5
17:0 5:5 17:5 7:5 11:5 7:5 14:5 11:5 14:5 3:5 16:5
5:0 17:5 7:5 11:5 7:5 14:5 11:5 14:5 3:5 16:5 7:5
17:0 7:5 11:5 7:5 14:5 11:5 14:5 3:5 16:5 7:5 16:5
7:0 11:5 7:5 14:5 11:5 14:5 3:5 16:5 7:5 16:5 10:5
11:0 7:5 14:5 11:5 14:5 3:5 16:5 7:5 16:5 10:5 8:5
7:0 14:5 11:5 14:5 3:5 16:5 7:5 16:5 10:5 8:5 14:5
14:0 11:5 14:5 3:5 16:5 7:5 16:5 10:5 8:5 14:5 7:5
11:0 14:5 3:5 16:5 7:5 16:5 10:5 8:5 14:5 7:5 16:5
14:0 3:5 16:5 7:5 16:5 10:5 8:5 14:5 7:5 16:5 3:5
3:0 16:5 7:5 16:5 10:5 8:5 14:5 7:5 16:5 3:5 17:5
16:0 7:5 16:5 10:5 8:5 14:5 7:5 16:5 3:5 17:5 5:5
7:0 16:5 10:5 8:5 14:5 7:5 16:5 3:5 17:5 5:5 16:5
16:0 10:5 8:5 14:5 7:5 16:5 3:5 17:5 5:5 16:5 7:5
10:0 8:5 14:5 7:5 16:5 3:5 17:5 5:5 16:5 7:5 11:10
8:0 14:5 7:5 16:5 3:5 17:5 5:5 16:5 7:5 11:10 16:15
14:0 7:5 16:5 3:5 17:5 5:5 16:5 7:5 11:10 16:15 3:5
7:0 16:5 3:5 17:5 5:5 16:5 7:5 11:10 16:15 3:5 14:5
16:0 3:5 17:5 5:5 16:5 7:5 11:10 16:15 3:5 14:5 7:5
3:0 17:5 5:5 16:5 7:5 11:10 16:15 3:5 14:5 7:5 16:5
17:0 5:5 16:5 7:5 11:10 16:15 3:5 14:5 7:5 16:5 10:5
5:0 16:5 7:5 11:10 16:15 3:5 14:5 7:5 16:5 10:5 5:5
16:0 7:5 11:10 16:15 3:5 14:5 7:5 16:5 10:5 5:5 14:5
7:0 11:10 16:15 3:5 14:5 7:5 16:5 10:5 5:5 14:5 11:5
11:0 16:15 3:5 14:5 7:5 16:5 10:5 5:5 14:5 11:5 14:10
16:0 3:5 14:5 7:5 16:5 10:5 5:5 14:5 11:5 14:10 3:5
3:0 14:5 7:5 16:5 10:5 5:5 14:5 11:5 14:10 3:5 17:5
14:0 7:5 16:5 10:5 5:5 14:5 11:5 14:10 3:5 17:5 5:5
7:0 16:5 10:5 5:5 14:5 11:5 14:10 3:5 17:5 5:5 17:5
16:0 10:5 5:5 14:5 11:5 14:10 3:5 17:5 5:5 17:5 7:5
10:0 5:5 14:5 11:5 14:10 3:5 17:5 5:5 17:5 7:5 10:5
5:0 14:5 11:5 14:10 3:5 17:5 5:5 17:5 7:5 10:5 11:10
14:0 11:5 14:10 3:5 17:5 5:5 17:5 7:5 10:5 11:10 14:5
11:0 14:10 3:5 17:5 5:5 17:5 7:5 10:5 11:10 14:5 3:5
14:0 3:5 17:5 5:5 17:5 7:5 10:5 11:10 14:5 3:5 17:5
3:0 17:5 5:5 17:5 7:5 10:5 11:10 14:5 3:5 17:5 5:5
17:0 5:5 17:5 7:5 10:5 11:10 14:5 3:5 17:5 5:5 14:5
5:0 17:5 7:5 10:5 11:10 14:5 3:5 17:5 5:5 14:5 10:5
17:0 7:5 10:5 11:10 14:5 3:5 17:5 5:5 14:5 10:5 7:5
7:0 10:5 11:10 14:5 3:5 17:5 5:5 14:5 10:5 7:5 14:5
10:0 11:10 14:5 3:5 17:5 5:5 14:5 10:5 7:5 14:5 7:5
11:0 14:5 3:5 17:5 5:5 14:5 10:5 7:5 14:5 7:5 14:5
14:0 3:5 17:5 5:5 14:5 10:5 7:5 14:5 7:5 14:5 10:5
3:0 17:5 5:5 14:5 10:5 7:5 14:5 7:5 14:5 10:5 7:5
17:0 5:5 14:5 10:5 7:5 14:5 7:5 14:5 10:5 7:5 14:5
5:0 14:5 10:5 7:5 14:5 7:5 14:5 10:5 7:5 14:5 7:5
14:0 10:5 7:5 14:5 7:5 14:5 10:5 7:5 14:5 7:5 16:5
10:0 7:5 14:5 7:5 14:5 10:5 7:5 14:5 7:5 16:5 5:5
7:0 14:5 7:5 14:5 10:5 7:5 14:5 7:5 16:5 5:5 11:5
14:0 7:5 14:5 10:5 7:5 14:5 7:5 16:5 5:5 11:5 7:5
7:0 14:5 10:5 7:5 14:5 7:5 16:5 5:5 11:5 7:5 17:5
14:0 10:5 7:5 14:5 7:5 16:5 5:5 11:5 7:5 17:5 11:5
10:0 7:5 14:5 7:5 16:5 5:5 11:5 7:5 17:5 11:5 5:10
7:0 14:5 7:5 16:5 5:5 11:5 7:5 17:5 11:5 5:10 17:5
14:0 7:5 16:5 5:5 11:5 7:5 17:5 11:5 5:10 17:5 7:5
7:0 16:5 5:5 11:5 7:5 17:5 11:5 5:10 17:5 7:5 16:5
16:0 5:5 11:5 7:5 17:5 11:5 5:10 17:5 7:5 16:5 5:5
5:0 11:5 7:5 17:5 11:5 5:10 17:5 7:5 16:5 5:5 14:5
11:0 7:5 17:5 11:5 5:10 17:5 7:5 16:5 5:5 14:5 7:5
7:0 17:5 11:5 5:10 17:5 7:5 16:5 5:5 14:5 7:5 16:5
17:0 11:5 5:10 17:5 7:5 16:5 5:5 14:5 7:5 16:5 11:5
11:0 5:10 17:5 7:5 16:5 5:5 14:5 7:5 16:5 11:5 5:5
5:0 17:5 7:5 16:5 5:5 14:5 7:5 16:5 11:5 5:5 14:5
17:0 7:5 16:5 5:5 14:5 7:5 16:5 11:5 5:5 14:5 8:5
7:0 16:5 5:5 14:5 7:5 16:5 11:5 5:5 14:5 8:5 14:5
16:0 5:5 14:5 7:5 16:5 11:5 5:5 14:5 8:5 14:5 10:5
5:0 14:5 7:5 16:5 11:5 5:5 14:5 8:5 14:5 10:5 5:5
14:0 7:5 16:5 11:5 5:5 14:5 8:5 14:5 10:5 5:5 16:5
7:0 16:5 11:5 5:5 14:5 8:5 14:5 10:5 5:5 16:5 7:5
16:0 11:5 5:5 14:5 8:5 14:5 10:5 5:5 16:5 7:5 16:5
11:0 5:5 14:5 8:5 14:5 10:5 5:5 16:5 7:5 16:5 7:5
5:0 14:5 8:5 14:5 10:5 5:5 16:5 7:5 16:5 7:5 8:5
14:0 8:5 14:5 10:5 5:5 16:5 7:5 16:5 7:5 8:5 14:5
8:0 14:5 10:5 5:5 16:5 7:5 16:5 7:5 8:5 14:5 10:5
14:0 10:5 5:5 16:5 7:5 16:5 7:5 8:5 14:5 10:5 16:5
10:0 5:5 16:5 7:5 16:5 7:5 8:5 14:5 10:5 16:5 5:5
5:0 16:5 7:5 16:5 7:5 8:5 14:5 10:5 16:5 5:5 14:5
16:0 7:5 16:5 7:5 8:5 14:5 10:5 16:5 5:5 14:5 7:5
7:0 16:5 7:5 8:5 14:5 10:5 16:5 5:5 14:5 7:5 17:5
16:0 7:5 8:5 14:5 10:5 16:5 5:5 14:5 7:5 17:5 7:5
7:0 8:5 14:5 10:5 16:5 5:5 14:5 7:5 17:5 7:5 8:10
8:0 14:5 10:5 16:5 5:5 14:5 7:5 17:5 7:5 8:10 16:5
14:0 10:5 16:5 5:5 14:5 7:5 17:5 7:5 8:10 16:5 7:5
10:0 16:5 5:5 14:5 7:5 17:5 7:5 8:10 16:5 7:5 16:5
16:0 5:5 14:5 7:5 17:5 7:5 8:10 16:5 7:5 16:5 3:5
5:0 14:5 7:5 17:5 7:5 8:10 16:5 7:5 16:5 3:5 16:5
14:0 7:5 17:5 7:5 8:10 16:5 7:5 16:5 3:5 16:5 7:5
7:0 17:5 7:5 8:10 16:5 7:5 16:5 3:5 16:5 7:5 16:5
17:0 7:5 8:10 16:5 7:5 16:5 3:5 16:5 7:5 16:5 7:5
7:0 8:10 16:5 7:5 16:5 3:5 16:5 7:5 16:5 7:5 11:5
8:0 16:5 7:5 16:5 3:5 16:5 7:5 16:5 7:5 11:5 7:5
16:0 7:5 16:5 3:5 16:5 7:5 16:5 7:5 11:5 7:5 17:5
7:0 16:5 3:5 16:5 7:5 16:5 7:5 11:5 7:5 17:5 7:5
16:0 3:5 16:5 7:5 16:5 7:5 11:5 7:5 17:5 7:5 14:5
3:0 16:5 7:5 16:5 7:5 11:5 7:5 17:5 7:5 14:5 3:5
16:0 7:5 16:5 7:5 11:5 7:5 17:5 7:5 14:5 3:5 16:5
7:0 16:5 7:5 11:5 7:5 17:5 7:5 14:5 3:5 16:5 5:5
16:0 7:5 11:5 7:5 17:5 7:5 14:5 3:5 16:5 5:5 16:5
7:0 11:5 7:5 17:5 7:5 14:5 3:5 16:5 5:5 16:5 7:5
11:0 7:5 17:5 7:5 14:5 3:5 16:5 5:5 16:5 7:5 11:5
7:0 17:5 7:5 14:5 3:5 16:5 5:5 16:5 7:5 11:5 14:15
17:0 7:5 14:5 3:5 16:5 5:5 16:5 7:5 11:5 14:15 5:5
7:0 14:5 3:5 16:5 5:5 16:5 7:5 11:5 14:15 5:5 17:5
14:0 3:5 16:5 5:5 16:5 7:5 11:5 14:15 5:5 17:5 7:5
3:0 16:5 5:5 16:5 7:5 11:5 14:15 5:5 17:5 7:5 14:5
16:0 5:5 16:5 7:5 11:5 14:15 5:5 17:5 7:5 14:5 13:5
5:0 16:5 7:5 11:5 14:15 5:5 17:5 7:5 14:5 13:5 5:5
16:0 7:5 11:5 14:15 5:5 17:5 7:5 14:5 13:5 5:5 14:5
7:0 11:5 14:15 5:5 17:5 7:5 14:5 13:5 5:5 14:5 7:5
11:0 14:15 5:5 17:5 7:5 14:5 13:5 5:5 14:5 7:5 14:5
14:0 5:5 17:5 7:5 14:5 13:5 5:5 14:5 7:5 14:5 11:5
5:0 17:5 7:5 14:5 13:5 5:5 14:5 7:5 14:5 11:5 5:5
17:0 7:5 14:5 13:5 5:5 14:5 7:5 14:5 11:5 5:5 16:5
7:0 14:5 13:5 5:5 14:5 7:5 14:5 11:5 5:5 16:5 7:5
14:0 13:5 5:5 14:5 7:5 14:5 11:5 5:5 16:5 7:5 16:5
13:0 5:5 14:5 7:5 14:5 11:5 5:5 16:5 7:5 16:5 7:5
5:0 14:5 7:5 14:5 11:5 5:5 16:5 7:5 16:5 7:5 11:5
14:0 7:5 14:5 11:5 5:5 16:5 7:5 16:5 7:5 11:5 7:5
7:0 14:5 11:5 5:5 16:5 7:5 16:5 7:5 11:5 7:5 16:5
14:0 11:5 5:5 16:5 7:5 16:5 7:5 11:5 7:5 16:5 7:5
11:0 5:5 16:5 7:5 16:5 7:5 11:5 7:5 16:5 7:5 14:5
5:0 16:5 7:5 16:5 7:5 11:5 7:5 16:5 7:5 14:5 5:5
16:0 7:5 16:5 7:5 11:5 7:5 16:5 7:5 14:5 5:5 17:5
7:0 16:5 7:5 11:5 7:5 16:5 7:5 14:5 5:5 17:5 7:5
16:0 7:5 11:5 7:5 16:5 7:5 14:5 5:5 17:5 7:5 16:5
7:0 11:5 7:5 16:5 7:5 14:5 5:5 17:5 7:5 16:5 5:5
11:0 7:5 16:5 7:5 14:5 5:5 17:5 7:5 16:5 5:5 14:5
7:0 16:5 7:5 14:5 5:5 17:5 7:5 16:5 5:5 14:5 7:5
16:0 7:5 14:5 5:5 17:5 7:5 16:5 5:5 14:5 7:5 16:5
7:0 14:5 5:5 17:5 7:5 16:5 5:5 14:5 7:5 16:5 7:5
14:0 5:5 17:5 7:5 16:5 5:5 14:5 7:5 16:5 7:5 14:5
5:0 17:5 7:5 16:5 5:5 14:5 7:5 16:5 7:5 14:5 7:5
17:0 7:5 16:5 5:5 14:5 7:5 16:5 7:5 14:5 7:5 13:5
7:0 16:5 5:5 14:5 7:5 16:5 7:5 14:5 7:5 13:5 11:5
16:0 5:5 14:5 7:5 16:5 7:5 14:5 7:5 13:5 11:5 13:5
5:0 14:5 7:5 16:5 7:5 14:5 7:5 13:5 11:5 13:5 3:5
14:0 7:5 16:5 7:5 14:5 7:5 13:5 11:5 13:5 3:5 17:5
7:0 16:5 7:5 14:5 7:5 13:5 11:5 13:5 3:5 17:5 7:5
16:0 7:5 14:5 7:5 13:5 11:5 13:5 3:5 17:5 7:5 17:5
7:0 14:5 7:5 13:5 11:5 13:5 3:5 17:5 7:5 17:5 5:5
14:0 7:5 13:5 11:5 13:5 3:5 17:5 7:5 17:5 5:5 11:5
7:0 13:5 11:5 13:5 3:5 17:5 7:5 17:5 5:5 11:5 8:5
13:0 11:5 13:5 3:5 17:5 7:5 17:5 5:5 11:5 8:5 16:5
11:0 13:5 3:5 17:5 7:5 17:5 5:5 11:5 8:5 16:5 7:5
13:0 3:5 17:5 7:5 17:5 5:5 11:5 8:5 16:5 7:5 13:5
3:0 17:5 7:5 17:5 5:5 11:5 8:5 16:5 7:5 13:5 5:5
17:0 7:5 17:5 5:5 11:5 8:5 16:5 7:5 13:5 5:5 17:5
7:0 17:5 5:5 11:5 8:5 16:5 7:5 13:5 5:5 17:5 7:5
17:0 5:5 11:5 8:5 16:5 7:5 13:5 5:5 17:5 7:5 16:5
5:0 11:5 8:5 16:5 7:5 13:5 5:5 17:5 7:5 16:5 3:5
11:0 8:5 16:5 7:5 13:5 5:5 17:5 7:5 16:5 3:5 14:5
8:0 16:5 7:5 13:5 5:5 17:5 7:5 16:5 3:5 14:5 5:5
16:0 7:5 13:5 5:5 17:5 7:5 16:5 3:5 14:5 5:5 16:5
7:0 13:5 5:5 17:5 7:5 16:5 3:5 14:5 5:5 16:5 7:5
13:0 5:5 17:5 7:5 16:5 3:5 14:5 5:5 16:5 7:5 14:5
5:0 17:5 7:5 16:5 3:5 14:5 5:5 16:5 7:5 14:5 7:5
17:0 7:5 16:5 3:5 14:5 5:5 16:5 7:5 14:5 7:5 14:5
7:0 16:5 3:5 14:5 5:5 16:5 7:5 14:5 7:5 14:5 11:5
16:0 3:5 14:5 5:5 16:5 7:5 14:5 7:5 14:5 11:5 14:5
3:0 14:5 5:5 16:5 7:5 14:5 7:5 14:5 11:5 14:5 3:5
14:0 5:5 16:5 7:5 14:5 7:5 14:5 11:5 14:5 3:5 16:5
5:0 16:5 7:5 14:5 7:5 14:5 11:5 14:5 3:5 16:5 5:5
16:0 7:5 14:5 7:5 14:5 11:5 14:5 3:5 16:5 5:5 16:5
7:0 14:5 7:5 14:5 11:5 14:5 3:5 16:5 5:5 16:5 5:5
14:0 7:5 14:5 11:5 14:5 3:5 16:5 5:5 16:5 5:5 14:5
7:0 14:5 11:5 14:5 3:5 16:5 5:5 16:5 5:5 14:5 7:5
14:0 11:5 14:5 3:5 16:5 5:5 16:5 5:5 14:5 7:5 14:5
11:0 14:5 3:5 16:5 5:5 16:5 5:5 14:5 7:5 14:5 7:5
14:0 3:5 16:5 5:5 16:5 5:5 14:5 7:5 14:5 7:5 14:5
3:0 16:5 5:5 16:5 5:5 14:5 7:5 14:5 7:5 14:5 5:5
16:0 5:5 16:5 5:5 14:5 7:5 14:5 7:5 14:5 5:5 14:5
5:0 16:5 5:5 14:5 7:5 14:5 7:5 14:5 5:5 14:5 8:5
16:0 5:5 14:5 7:5 14:5 7:5 14:5 5:5 14:5 8:5 16:5
5:0 14:5 7:5 14:5 7:5 14:5 5:5 14:5 8:5 16:5 3:5
14:0 7:5 14:5 7:5 14:5 5:5 14:5 8:5 16:5 3:5 16:5
7:0 14:5 7:5 14:5 5:5 14:5 8:5 16:5 3:5 16:5 5:5
14:0 7:5 14:5 5:5 14:5 8:5 16:5 3:5 16:5 5:5 16:5
7:0 14:5 5:5 14:5 8:5 16:5 3:5 16:5 5:5 16:5 5:5
14:0 5:5 14:5 8:5 16:5 3:5 16:5 5:5 16:5 5:5 8:5
5:0 14:5 8:5 16:5 3:5 16:5 5:5 16:5 5:5 8:5 7:5
14:0 8:5 16:5 3:5 16:5 5:5 16:5 5:5 8:5 7:5 16:5
8:0 16:5 3:5 16:5 5:5 16:5 5:5 8:5 7:5 16:5 7:5
16:0 3:5 16:5 5:5 16:5 5:5 8:5 7:5 16:5 7:5 16:5
3:0 16:5 5:5 16:5 5:5 8:5 7:5 16:5 7:5 16:5 3:5
16:0 5:5 16:5 5:5 8:5 7:5 16:5 7:5 16:5 3:5 16:5
5:0 16:5 5:5 8:5 7:5 16:5 7:5 16:5 3:5 16:5 7:5
16:0 5:5 8:5 7:5 16:5 7:5 16:5 3:5 16:5 7:5 17:5
5:0 8:5 7:5 16:5 7:5 16:5 3:5 16:5 7:5 17:5 7:5
8:0 7:5 16:5 7:5 16:5 3:5 16:5 7:5 17:5 7:5 10:5
7:0 16:5 7:5 16:5 3:5 16:5 7:5 17:5 7:5 10:5 11:20
16:0 7:5 16:5 3:5 16:5 7:5 17:5 7:5 10:5 11:20 7:5
7:0 16:5 3:5 16:5 7:5 17:5 7:5 10:5 11:20 7:5 17:5
16:0 3:5 16:5 7:5 17:5 7:5 10:5 11:20 7:5 17:5 8:5
3:0 16:5 7:5 17:5 7:5 10:5 11:20 7:5 17:5 8:5 16:5
16:0 7:5 17:5 7:5 10:5 11:20 7:5 17:5 8:5 16:5 5:5
7:0 17:5 7:5 10:5 11:20 7:5 17:5 8:5 16:5 5:5 14:5
17:0 7:5 10:5 11:20 7:5 17:5 8:5 16:5 5:5 14:5 7:5
7:0 10:5 11:20 7:5 17:5 8:5 16:5 5:5 14:5 7:5 16:5
10:0 11:20 7:5 17:5 8:5 16:5 5:5 14:5 7:5 16:5 7:5
11:0 7:5 17:5 8:5 16:5 5:5 14:5 7:5 16:5 7:5 10:5
7:0 17:5 8:5 16:5 5:5 14:5 7:5 16:5 7:5 10:5 7:5
17:0 8:5 16:5 5:5 14:5 7:5 16:5 7:5 10:5 7:5 16:5
8:0 16:5 5:5 14:5 7:5 16:5 7:5 10:5 7:5 16:5 8:5
16:0 5:5 14:5 7:5 16:5 7:5 10:5 7:5 16:5 8:5 14:5
5:0 14:5 7:5 16:5 7:5 10:5 7:5 16:5 8:5 14:5 3:5
14:0 7:5 16:5 7:5 10:5 7:5 16:5 8:5 14:5 3:5 16:5
7:0 16:5 7:5 10:5 7:5 16:5 8:5 14:5 3:5 16:5 5:5
16:0 7:5 10:5 7:5 16:5 8:5 14:5 3:5 16:5 5:5 17:5
7:0 10:5 7:5 16:5 8:5 14:5 3:5 16:5 5:5 17:5 7:5
10:0 7:5 16:5 8:5 14:5 3:5 16:5 5:5 17:5 7:5 10:5
7:0 16:5 8:5 14:5 3:5 16:5 5:5 17:5 7:5 10:5 14:10
16:0 8:5 14:5 3:5 16:5 5:5 17:5 7:5 10:5 14:10 16:5
8:0 14:5 3:5 16:5 5:5 17:5 7:5 10:5 14:10 16:5 3:5
14:0 3:5 16:5 5:5 17:5 7:5 10:5 14:10 16:5 3:5 14:5
3:0 16:5 5:5 17:5 7:5 10:5 14:10 16:5 3:5 14:5 5:5
16:0 5:5 17:5 7:5 10:5 14:10 16:5 3:5 14:5 5:5 16:5
5:0 17:5 7:5 10:5 14:10 16:5 3:5 14:5 5:5 16:5 7:5
17:0 7:5 10:5 14:10 16:5 3:5 14:5 5:5 16:5 7:5 11:5
7:0 10:5 14:10 16:5 3:5 14:5 5:5 16:5 7:5 11:5 7:5
10:0 14:10 16:5 3:5 14:5 5:5 16:5 7:5 11:5 7:5 10:5
14:0 16:5 3:5 14:5 5:5 16:5 7:5 11:5 7:5 10:5 14:5
16:0 3:5 14:5 5:5 16:5 7:5 11:5 7:5 10:5 14:5 13:5
3:0 14:5 5:5 16:5 7:5 11:5 7:5 10:5 14:5 13:5 5:5
14:0 5:5 16:5 7:5 11:5 7:5 10:5 14:5 13:5 5:5 16:5
5:0 16:5 7:5 11:5 7:5 10:5 14:5 13:5 5:5 16:5 8:5
16:0 7:5 11:5 7:5 10:5 14:5 13:5 5:5 16:5 8:5 16:5
7:0 11:5 7:5 10:5 14:5 13:5 5:5 16:5 8:5 16:5 5:5
11:0 7:5 10:5 14:5 13:5 5:5 16:5 8:5 16:5 5:5 14:5
7:0 10:5 14:5 13:5 5:5 16:5 8:5 16:5 5:5 14:5 8:5
10:0 14:5 13:5 5:5 16:5 8:5 16:5 5:5 14:5 8:5 14:5
14:0 13:5 5:5 16:5 8:5 16:5 5:5 14:5 8:5 14:5 10:5
13:0 5:5 16:5 8:5 16:5 5:5 14:5 8:5 14:5 10:5 13:5
5:0 16:5 8:5 16:5 5:5 14:5 8:5 14:5 10:5 13:5 5:5
16:0 8:5 16:5 5:5 14:5 8:5 14:5 10:5 13:5 5:5 17:5
8:0 16:5 5:5 14:5 8:5 14:5 10:5 13:5 5:5 17:5 5:5
16:0 5:5 14:5 8:5 14:5 10:5 13:5 5:5 17:5 5:5 16:5
5:0 14:5 8:5 14:5 10:5 13:5 5:5 17:5 5:5 16:5 5:5
14:0 8:5 14:5 10:5 13:5 5:5 17:5 5:5 16:5 5:5 14:5
8:0 14:5 10:5 13:5 5:5 17:5 5:5 16:5 5:5 14:5 5:5
14:0 10:5 13:5 5:5 17:5 5:5 16:5 5:5 14:5 5:5 16:5
10:0 13:5 5:5 17:5 5:5 16:5 5:5 14:5 5:5 16:5 7:5
13:0 5:5 17:5 5:5 16:5 5:5 14:5 5:5 16:5 7:5 10:5
5:0 17:5 5:5 16:5 5:5 14:5 5:5 16:5 7:5 10:5 5:5
17:0 5:5 16:5 5:5 14:5 5:5 16:5 7:5 10:5 5:5 17:5
5:0 16:5 5:5 14:5 5:5 16:5 7:5 10:5 5:5 17:5 7:5
16:0 5:5 14:5 5:5 16:5 7:5 10:5 5:5 17:5 7:5 16:5
5:0 14:5 5:5 16:5 7:5 10:5 5:5 17:5 7:5 16:5 3:5
14:0 5:5 16:5 7:5 10:5 5:5 17:5 7:5 16:5 3:5 14:5
5:0 16:5 7:5 10:5 5:5 17:5 7:5 16:5 3:5 14:5 7:5
16:0 7:5 10:5 5:5 17:5 7:5 16:5 3:5 14:5 7:5 14:5
7:0 10:5 5:5 17:5 7:5 16:5 3:5 14:5 7:5 14:5 10:5
10:0 5:5 17:5 7:5 16:5 3:5 14:5 7:5 14:5 10:5 5:5
5:0 17:5 7:5 16:5 3:5 14:5 7:5 14:5 10:5 5:5 16:5
17:0 7:5 16:5 3:5 14:5 7:5 14:5 10:5 5:5 16:5 5:5
7:0 16:5 3:5 14:5 7:5 14:5 10:5 5:5 16:5 5:5 16:5
16:0 3:5 14:5 7:5 14:5 10:5 5:5 16:5 5:5 16:5 5:5
3:0 14:5 7:5 14:5 10:5 5:5 16:5 5:5 16:5 5:5 14:5
14:0 7:5 14:5 10:5 5:5 16:5 5:5 16:5 5:5 14:5 5:5
7:0 14:5 10:5 5:5 16:5 5:5 16:5 5:5 14:5 5:5 14:5
14:0 10:5 5:5 16:5 5:5 16:5 5:5 14:5 5:5 14:5 11:5
10:0 5:5 16:5 5:5 16:5 5:5 14:5 5:5 14:5 11:5 10:5
5:0 16:5 5:5 16:5 5:5 14:5 5:5 14:5 11:5 10:5 8:5
16:0 5:5 16:5 5:5 14:5 5:5 14:5 11:5 10:5 8:5 17:5
5:0 16:5 5:5 14:5 5:5 14:5 11:5 10:5 8:5 17:5 7:5
16:0 5:5 14:5 5:5 14:5 11:5 10:5 8:5 17:5 7:5 16:5
5:0 14:5 5:5 14:5 11:5 10:5 8:5 17:5 7:5 16:5 5:5
14:0 5:5 14:5 11:5 10:5 8:5 17:5 7:5 16:5 5:5 14:5
5:0 14:5 11:5 10:5 8:5 17:5 7:5 16:5 5:5 14:5 7:5
14:0 11:5 10:5 8:5 17:5 7:5 16:5 5:5 14:5 7:5 17:5
11:0 10:5 8:5 17:5 7:5 16:5 5:5 14:5 7:5 17:5 7:5
10:0 8:5 17:5 7:5 16:5 5:5 14:5 7:5 17:5 7:5 14:5
8:0 17:5 7:5 16:5 5:5 14:5 7:5 17:5 7:5 14:5 5:5
17:0 7:5 16:5 5:5 14:5 7:5 17:5 7:5 14:5 5:5 14:5
7:0 16:5 5:5 14:5 7:5 17:5 7:5 14:5 5:5 14:5 8:5
16:0 5:5 14:5 7:5 17:5 7:5 14:5 5:5 14:5 8:5 14:5
5:0 14:5 7:5 17:5 7:5 14:5 5:5 14:5 8:5 14:5 3:5
14:0 7:5 17:5 7:5 14:5 5:5 14:5 8:5 14:5 3:5 16:5
7:0 17:5 7:5 14:5 5:5 14:5 8:5 14:5 3:5 16:5 7:5
17:0 7:5 14:5 5:5 14:5 8:5 14:5 3:5 16:5 7:5 16:5
7:0 14:5 5:5 14:5 8:5 14:5 3:5 16:5 7:5 16:5 10:5
14:0 5:5 14:5 8:5 14:5 3:5 16:5 7:5 16:5 10:5 7:5
5:0 14:5 8:5 14:5 3:5 16:5 7:5 16:5 10:5 7:5 11:5
14:0 8:5 14:5 3:5 16:5 7:5 16:5 10:5 7:5 11:5 16:10
8:0 14:5 3:5 16:5 7:5 16:5 10:5 7:5 11:5 16:10 3:5
14:0 3:5 16:5 7:5 16:5 10:5 7:5 11:5 16:10 3:5 11:5
3:0 16:5 7:5 16:5 10:5 7:5 11:5 16:10 3:5 11:5 7:10
16:0 7:5 16:5 10:5 7:5 11:5 16:10 3:5 11:5 7:10 14:5
7:0 16:5 10:5 7:5 11:5 16:10 3:5 11:5 7:10 14:5 7:5
16:0 10:5 7:5 11:5 16:10 3:5 11:5 7:10 14:5 7:5 11:5
10:0 7:5 11:5 16:10 3:5 11:5 7:10 14:5 7:5 11:5 17:5
7:0 11:5 16:10 3:5 11:5 7:10 14:5 7:5 11:5 17:5 5:5
11:0 16:10 3:5 11:5 7:10 14:5 7:5 11:5 17:5 5:5 16:5
16:0 3:5 11:5 7:10 14:5 7:5 11:5 17:5 5:5 16:5 3:5
3:0 11:5 7:10 14:5 7:5 11:5 17:5 5:5 16:5 3:5 16:5
11:0 7:10 14:5 7:5 11:5 17:5 5:5 16:5 3:5 16:5 7:5
7:0 14:5 7:5 11:5 17:5 5:5 16:5 3:5 16:5 7:5 14:5
14:0 7:5 11:5 17:5 5:5 16:5 3:5 16:5 7:5 14:5 10:5
7:0 11:5 17:5 5:5 16:5 3:5 16:5 7:5 14:5 10:5 7:5
11:0 17:5 5:5 16:5 3:5 16:5 7:5 14:5 10:5 7:5 11:5
17:0 5:5 16:5 3:5 16:5 7:5 14:5 10:5 7:5 11:5 14:10
5:0 16:5 3:5 16:5 7:5 14:5 10:5 7:5 11:5 14:10 11:5
16:0 3:5 16:5 7:5 14:5 10:5 7:5 11:5 14:10 11:5 5:5
3:0 16:5 7:5 14:5 10:5 7:5 11:5 14:10 11:5 5:5 17:5
16:0 7:5 14:5 10:5 7:5 11:5 14:10 11:5 5:5 17:5 5:5
7:0 14:5 10:5 7:5 11:5 14:10 11:5 5:5 17:5 5:5 16:5
14:0 10:5 7:5 11:5 14:10 11:5 5:5 17:5 5:5 16:5 7:5
10:0 7:5 11:5 14:10 11:5 5:5 17:5 5:5 16:5 7:5 8:5
7:0 11:5 14:10 11:5 5:5 17:5 5:5 16:5 7:5 8:5 14:5
11:0 14:10 11:5 5:5 17:5 5:5 16:5 7:5 8:5 14:5 11:5
14:0 11:5 5:5 17:5 5:5 16:5 7:5 8:5 14:5 11:5 16:5
11:0 5:5 17:5 5:5 16:5 7:5 8:5 14:5 11:5 16:5 3:5
5:0 17:5 5:5 16:5 7:5 8:5 14:5 11:5 16:5 3:5 14:5
17:0 5:5 16:5 7:5 8:5 14:5 11:5 16:5 3:5 14:5 8:5
5:0 16:5 7:5 8:5 14:5 11:5 16:5 3:5 14:5 8:5 14:5
16:0 7:5 8:5 14:5 11:5 16:5 3:5 14:5 8:5 14:5 10:5
7:0 8:5 14:5 11:5 16:5 3:5 14:5 8:5 14:5 10:5 5:5
8:0 14:5 11:5 16:5 3:5 14:5 8:5 14:5 10:5 5:5 14:5
14:0 11:5 16:5 3:5 14:5 8:5 14:5 10:5 5:5 14:5 7:5
11:0 16:5 3:5 14:5 8:5 14:5 10:5 5:5 14:5 7:5 14:5
16:0 3:5 14:5 8:5 14:5 10:5 5:5 14:5 7:5 14:5 11:5
3:0 14:5 8:5 14:5 10:5 5:5 14:5 7:5 14:5 11:5 5:5
14:0 8:5 14:5 10:5 5:5 14:5 7:5 14:5 11:5 5:5 17:5
8:0 14:5 10:5 5:5 14:5 7:5 14:5 11:5 5:5 17:5 7:5
14:0 10:5 5:5 14:5 7:5 14:5 11:5 5:5 17:5 7:5 14:5
10:0 5:5 14:5 7:5 14:5 11:5 5:5 17:5 7:5 14:5 10:5
5:0 14:5 7:5 14:5 11:5 5:5 17:5 7:5 14:5 10:5 7:5
14:0 7:5 14:5 11:5 5:5 17:5 7:5 14:5 10:5 7:5 16:5
7:0 14:5 11:5 5:5 17:5 7:5 14:5 10:5 7:5 16:5 7:5
14:0 11:5 5:5 17:5 7:5 14:5 10:5 7:5 16:5 7:5 16:5
11:0 5:5 17:5 7:5 14:5 10:5 7:5 16:5 7:5 16:5 5:5
5:0 17:5 7:5 14:5 10:5 7:5 16:5 7:5 16:5 5:5 14:5
17:0 7:5 14:5 10:5 7:5 16:5 7:5 16:5 5:5 14:5 7:5
7:0 14:5 10:5 7:5 16:5 7:5 16:5 5:5 14:5 7:5 17:5
14:0 10:5 7:5 16:5 7:5 16:5 5:5 14:5 7:5 17:5 7:5
10:0 7:5 16:5 7:5 16:5 5:5 14:5 7:5 17:5 7:5 11:5
7:0 16:5 7:5 16:5 5:5 14:5 7:5 17:5 7:5 11:5 8:5
16:0 7:5 16:5 5:5 14:5 7:5 17:5 7:5 11:5 8:5 14:5
7:0 16:5 5:5 14:5 7:5 17:5 7:5 11:5 8:5 14:5 7:5
16:0 5:5 14:5 7:5 17:5 7:5 11:5 8:5 14:5 7:5 16:5
5:0 14:5 7:5 17:5 7:5 11:5 8:5 14:5 7:5 16:5 3:5
14:0 7:5 17:5 7:5 11:5 8:5 14:5 7:5 16:5 3:5 14:5
7:0 17:5 7:5 11:5 8:5 14:5 7:5 16:5 3:5 14:5 7:5
17:0 7:5 11:5 8:5 14:5 7:5 16:5 3:5 14:5 7:5 17:5
7:0 11:5 8:5 14:5 7:5 16:5 3:5 14:5 7:5 17:5 10:5
11:0 8:5 14:5 7:5 16:5 3:5 14:5 7:5 17:5 10:5 8:5
8:0 14:5 7:5 16:5 3:5 14:5 7:5 17:5 10:5 8:5 11:5
14:0 7:5 16:5 3:5 14:5 7:5 17:5 10:5 8:5 11:5 13:10
7:0 16:5 3:5 14:5 7:5 17:5 10:5 8:5 11:5 13:10 8:5
16:0 3:5 14:5 7:5 17:5 10:5 8:5 11:5 13:10 8:5 7:5
3:0 14:5 7:5 17:5 10:5 8:5 11:5 13:10 8:5 7:5 14:5
14:0 7:5 17:5 10:5 8:5 11:5 13:10 8:5 7:5 14:5 7:5
7:0 17:5 10:5 8:5 11:5 13:10 8:5 7:5 14:5 7:5 14:5
17:0 10:5 8:5 11:5 13:10 8:5 7:5 14:5 7:5 14:5 7:5
10:0 8:5 11:5 13:10 8:5 7:5 14:5 7:5 14:5 7:5 11:5
8:0 11:5 13:10 8:5 7:5 14:5 7:5 14:5 7:5 11:5 13:5
11:0 13:10 8:5 7:5 14:5 7:5 14:5 7:5 11:5 13:5 11:5
13:0 8:5 7:5 14:5 7:5 14:5 7:5 11:5 13:5 11:5 16:5
8:0 7:5 14:5 7:5 14:5 7:5 11:5 13:5 11:5 16:5 3:5
7:0 14:5 7:5 14:5 7:5 11:5 13:5 11:5 16:5 3:5 17:5
14:0 7:5 14:5 7:5 11:5 13:5 11:5 16:5 3:5 17:5 5:5
7:0 14:5 7:5 11:5 13:5 11:5 16:5 3:5 17:5 5:5 16:5
14:0 7:5 11:5 13:5 11:5 16:5 3:5 17:5 5:5 16:5 5:5
7:0 11:5 13:5 11:5 16:5 3:5 17:5 5:5 16:5 5:5 11:5
11:0 13:5 11:5 16:5 3:5 17:5 5:5 16:5 5:5 11:5 14:10
13:0 11:5 16:5 3:5 17:5 5:5 16:5 5:5 11:5 14:10 10:5
11:0 16:5 3:5 17:5 5:5 16:5 5:5 11:5 14:10 10:5 13:5
16:0 3:5 17:5 5:5 16:5 5:5 11:5 14:10 10:5 13:5 5:5
3:0 17:5 5:5 16:5 5:5 11:5 14:10 10:5 13:5 5:5 16:5
17:0 5:5 16:5 5:5 11:5 14:10 10:5 13:5 5:5 16:5 5:5
5:0 16:5 5:5 11:5 14:10 10:5 13:5 5:5 16:5 5:5 16:5
16:0 5:5 11:5 14:10 10:5 13:5 5:5 16:5 5:5 16:5 5:5
5:0 11:5 14:10 10:5 13:5 5:5 16:5 5:5 16:5 5:5 11:5
11:0 14:10 10:5 13:5 5:5 16:5 5:5 16:5 5:5 11:5 10:5
14:0 10:5 13:5 5:5 16:5 5:5 16:5 5:5 11:5 10:5 14:5
10:0 13:5 5:5 16:5 5:5 16:5 5:5 11:5 10:5 14:5 16:5
13:0 5:5 16:5 5:5 16:5 5:5 11:5 10:5 14:5 16:5 5:5
5:0 16:5 5:5 16:5 5:5 11:5 10:5 14:5 16:5 5:5 14:5
16:0 5:5 16:5 5:5 11:5 10:5 14:5 16:5 5:5 14:5 11:5
5:0 16:5 5:5 11:5 10:5 14:5 16:5 5:5 14:5 11:5 14:10
16:0 5:5 11:5 10:5 14:5 16:5 5:5 14:5 11:5 14:10 7:5
5:0 11:5 10:5 14:5 16:5 5:5 14:5 11:5 14:10 7:5 11:5
11:0 10:5 14:5 16:5 5:5 14:5 11:5 14:10 7:5 11:5 14:10
10:0 14:5 16:5 5:5 14:5 11:5 14:10 7:5 11:5 14:10 13:5
14:0 16:5 5:5 14:5 11:5 14:10 7:5 11:5 14:10 13:5 5:5
16:0 5:5 14:5 11:5 14:10 7:5 11:5 14:10 13:5 5:5 16:5
5:0 14:5 11:5 14:10 7:5 11:5 14:10 13:5 5:5 16:5 5:5
14:0 11:5 14:10 7:5 11:5 14:10 13:5 5:5 16:5 5:5 14:5
11:0 14:10 7:5 11:5 14:10 13:5 5:5 16:5 5:5 14:5 11:5
14:0 7:5 11:5 14:10 13:5 5:5 16:5 5:5 14:5 11:5 8:5
7:0 11:5 14:10 13:5 5:5 16:5 5:5 14:5 11:5 8:5 11:5
11:0 14:10 13:5 5:5 16:5 5:5 14:5 11:5 8:5 11:5 10:10
14:0 13:5 5:5 16:5 5:5 14:5 11:5 8:5 11:5 10:10 13:5
13:0 5:5 16:5 5:5 14:5 11:5 8:5 11:5 10:10 13:5 5:5
5:0 16:5 5:5 14:5 11:5 8:5 11:5 10:10 13:5 5:5 16:5
16:0 5:5 14:5 11:5 8:5 11:5 10:10 13:5 5:5 16:5 5:5
5:0 14:5 11:5 8:5 11:5 10:10 13:5 5:5 16:5 5:5 16:5
14:0 11:5 8:5 11:5 10:10 13:5 5:5 16:5 5:5 16:5 5:5
11:0 8:5 11:5 10:10 13:5 5:5 16:5 5:5 16:5 5:5 14:5
8:0 11:5 10:10 13:5 5:5 16:5 5:5 16:5 5:5 14:5 5:5
11:0 10:10 13:5 5:5 16:5 5:5 16:5 5:5 14:5 5:5 14:5
10:0 13:5 5:5 16:5 5:5 16:5 5:5 14:5 5:5 14:5 7:5
13:0 5:5 16:5 5:5 16:5 5:5 14:5 5:5 14:5 7:5 10:5
5:0 16:5 5:5 16:5 5:5 14:5 5:5 14:5 7:5 10:5 5:5
16:0 5:5 16:5 5:5 14:5 5:5 14:5 7:5 10:5 5:5 17:5
5:0 16:5 5:5 14:5 5:5 14:5 7:5 10:5 5:5 17:5 7:5
16:0 5:5 14:5 5:5 14:5 7:5 10:5 5:5 17:5 7:5 16:5
5:0 14:5 5:5 14:5 7:5 10:5 5:5 17:5 7:5 16:5 5:5
14:0 5:5 14:5 7:5 10:5 5:5 17:5 7:5 16:5 5:5 14:5
5:0 14:5 7:5 10:5 5:5 17:5 7:5 16:5 5:5 14:5 11:5
14:0 7:5 10:5 5:5 17:5 7:5 16:5 5:5 14:5 11:5 16:10
7:0 10:5 5:5 17:5 7:5 16:5 5:5 14:5 11:5 16:10 3:5
10:0 5:5 17:5 7:5 16:5 5:5 14:5 11:5 16:10 3:5 16:5
5:0 17:5 7:5 16:5 5:5 14:5 11:5 16:10 3:5 16:5 5:5
17:0 7:5 16:5 5:5 14:5 11:5 16:10 3:5 16:5 5:5 16:5
7:0 16:5 5:5 14:5 11:5 16:10 3:5 16:5 5:5 16:5 7:5
16:0 5:5 14:5 11:5 16:10 3:5 16:5 5:5 16:5 7:5 11:5
5:0 14:5 11:5 16:10 3:5 16:5 5:5 16:5 7:5 11:5 7:5
14:0 11:5 16:10 3:5 16:5 5:5 16:5 7:5 11:5 7:5 14:5
11:0 16:10 3:5 16:5 5:5 16:5 7:5 11:5 7:5 14:5 5:5
16:0 3:5 16:5 5:5 16:5 7:5 11:5 7:5 14:5 5:5 17:5
3:0 16:5 5:5 16:5 7:5 11:5 7:5 14:5 5:5 17:5 5:5
16:0 5:5 16:5 7:5 11:5 7:5 14:5 5:5 17:5 5:5 16:5
5:0 16:5 7:5 11:5 7:5 14:5 5:5 17:5 5:5 16:5 5:5
16:0 7:5 11:5 7:5 14:5 5:5 17:5 5:5 16:5 5:5 16:5
7:0 11:5 7:5 14:5 5:5 17:5 5:5 16:5 5:5 16:5 5:5
11:0 7:5 14:5 5:5 17:5 5:5 16:5 5:5 16:5 5:5 11:5
7:0 14:5 5:5 17:5 5:5 16:5 5:5 16:5 5:5 11:5 16:15
14:0 5:5 17:5 5:5 16:5 5:5 16:5 5:5 11:5 16:15 3:5
5:0 17:5 5:5 16:5 5:5 16:5 5:5 11:5 16:15 3:5 16:5
17:0 5:5 16:5 5:5 16:5 5:5 11:5 16:15 3:5 16:5 5:5
5:0 16:5 5:5 16:5 5:5 11:5 16:15 3:5 16:5 5:5 17:5
16:0 5:5 16:5 5:5 11:5 16:15 3:5 16:5 5:5 17:5 11:5
5:0 16:5 5:5 11:5 16:15 3:5 16:5 5:5 17:5 11:5 7:5
16:0 5:5 11:5 16:15 3:5 16:5 5:5 17:5 11:5 7:5 8:5
5:0 11:5 16:15 3:5 16:5 5:5 17:5 11:5 7:5 8:5 16:5
11:0 16:15 3:5 16:5 5:5 17:5 11:5 7:5 8:5 16:5 13:5
16:0 3:5 16:5 5:5 17:5 11:5 7:5 8:5 16:5 13:5 7:5
3:0 16:5 5:5 17:5 11:5 7:5 8:5 16:5 13:5 7:5 5:5
16:0 5:5 17:5 11:5 7:5 8:5 16:5 13:5 7:5 5:5 14:5
5:0 17:5 11:5 7:5 8:5 16:5 13:5 7:5 5:5 14:5 7:5
17:0 11:5 7:5 8:5 16:5 13:5 7:5 5:5 14:5 7:5 14:5
11:0 7:5 8:5 16:5 13:5 7:5 5:5 14:5 7:5 14:5 11:5
7:0 8:5 16:5 13:5 7:5 5:5 14:5 7:5 14:5 11:5 8:5
8:0 16:5 13:5 7:5 5:5 14:5 7:5 14:5 11:5 8:5 14:5
16:0 13:5 7:5 5:5 14:5 7:5 14:5 11:5 8:5 14:5 8:5
13:0 7:5 5:5 14:5 7:5 14:5 11:5 8:5 14:5 8:5 14:5
7:0 5:5 14:5 7:5 14:5 11:5 8:5 14:5 8:5 14:5 5:5
5:0 14:5 7:5 14:5 11:5 8:5 14:5 8:5 14:5 5:5 7:5
14:0 7:5 14:5 11:5 8:5 14:5 8:5 14:5 5:5 7:5 16:5
7:0 14:5 11:5 8:5 14:5 8:5 14:5 5:5 7:5 16:5 7:5
14:0 11:5 8:5 14:5 8:5 14:5 5:5 7:5 16:5 7:5 16:5
11:0 8:5 14:5 8:5 14:5 5:5 7:5 16:5 7:5 16:5 5:5
8:0 14:5 8:5 14:5 5:5 7:5 16:5 7:5 16:5 5:5 11:5
14:0 8:5 14:5 5:5 7:5 16:5 7:5 16:5 5:5 11:5 14:5
8:0 14:5 5:5 7:5 16:5 7:5 16:5 5:5 11:5 14:5 11:5
14:0 5:5 7:5 16:5 7:5 16:5 5:5 11:5 14:5 11:5 14:5
5:0 7:5 16:5 7:5 16:5 5:5 11:5 14:5 11:5 14:5 5:5
7:0 16:5 7:5 16:5 5:5 11:5 14:5 11:5 14:5 5:5 17:5
16:0 7:5 16:5 5:5 11:5 14:5 11:5 14:5 5:5 17:5 5:5
7:0 16:5 5:5 11:5 14:5 11:5 14:5 5:5 17:5 5:5 16:5
16:0 5:5 11:5 14:5 11:5 14:5 5:5 17:5 5:5 16:5 7:5
5:0 11:5 14:5 11:5 14:5 5:5 17:5 5:5 16:5 7:5 11:5
11:0 14:5 11:5 14:5 5:5 17:5 5:5 16:5 7:5 11:5 5:5
14:0 11:5 14:5 5:5 17:5 5:5 16:5 7:5 11:5 5:5 16:5
11:0 14:5 5:5 17:5 5:5 16:5 7:5 11:5 5:5 16:5 8:5
14:0 5:5 17:5 5:5 16:5 7:5 11:5 5:5 16:5 8:5 14:5
5:0 17:5 5:5 16:5 7:5 11:5 5:5 16:5 8:5 14:5 3:5
17:0 5:5 16:5 7:5 11:5 5:5 16:5 8:5 14:5 3:5 16:5
5:0 16:5 7:5 11:5 5:5 16:5 8:5 14:5 3:5 16:5 7:5
16:0 7:5 11:5 5:5 16:5 8:5 14:5 3:5 16:5 7:5 16:5
7:0 11:5 5:5 16:5 8:5 14:5 3:5 16:5 7:5 16:5 7:5
11:0 5:5 16:5 8:5 14:5 3:5 16:5 7:5 16:5 7:5 11:5
5:0 16:5 8:5 14:5 3:5 16:5 7:5 16:5 7:5 11:5 14:15
16:0 8:5 14:5 3:5 16:5 7:5 16:5 7:5 11:5 14:15 3:5
8:0 14:5 3:5 16:5 7:5 16:5 7:5 11:5 14:15 3:5 17:5
14:0 3:5 16:5 7:5 16:5 7:5 11:5 14:15 3:5 17:5 5:5
3:0 16:5 7:5 16:5 7:5 11:5 14:15 3:5 17:5 5:5 16:5
16:0 7:5 16:5 7:5 11:5 14:15 3:5 17:5 5:5 16:5 10:5
7:0 16:5 7:5 11:5 14:15 3:5 17:5 5:5 16:5 10:5 7:5
16:0 7:5 11:5 14:15 3:5 17:5 5:5 16:5 10:5 7:5 10:5
7:0 11:5 14:15 3:5 17:5 5:5 16:5 10:5 7:5 10:5 11:5
11:0 14:15 3:5 17:5 5:5 16:5 10:5 7:5 10:5 11:5 14:5
14:0 3:5 17:5 5:5 16:5 10:5 7:5 10:5 11:5 14:5 11:5
3:0 17:5 5:5 16:5 10:5 7:5 10:5 11:5 14:5 11:5 5:5
17:0 5:5 16:5 10:5 7:5 10:5 11:5 14:5 11:5 5:5 16:5
5:0 16:5 10:5 7:5 10:5 11:5 14:5 11:5 5:5 16:5 7:5
16:0 10:5 7:5 10:5 11:5 14:5 11:5 5:5 16:5 7:5 17:5
10:0 7:5 10:5 11:5 14:5 11:5 5:5 16:5 7:5 17:5 5:5
7:0 10:5 11:5 14:5 11:5 5:5 16:5 7:5 17:5 5:5 13:5
10:0 11:5 14:5 11:5 5:5 16:5 7:5 17:5 5:5 13:5 5:5
11:0 14:5 11:5 5:5 16:5 7:5 17:5 5:5 13:5 5:5 16:5
14:0 11:5 5:5 16:5 7:5 17:5 5:5 13:5 5:5 16:5 7:5
11:0 5:5 16:5 7:5 17:5 5:5 13:5 5:5 16:5 7:5 14:5
5:0 16:5 7:5 17:5 5:5 13:5 5:5 16:5 7:5 14:5 5:5
16:0 7:5 17:5 5:5 13:5 5:5 16:5 7:5 14:5 5:5 14:5
7:0 17:5 5:5 13:5 5:5 16:5 7:5 14:5 5:5 14:5 7:5
17:0 5:5 13:5 5:5 16:5 7:5 14:5 5:5 14:5 7:5 16:5
5:0 13:5 5:5 16:5 7:5 14:5 5:5 14:5 7:5 16:5 5:5
13:0 5:5 16:5 7:5 14:5 5:5 14:5 7:5 16:5 5:5 11:5
5:0 16:5 7:5 14:5 5:5 14:5 7:5 16:5 5:5 11:5 14:5
16:0 7:5 14:5 5:5 14:5 7:5 16:5 5:5 11:5 14:5 11:5
7:0 14:5 5:5 14:5 7:5 16:5 5:5 11:5 14:5 11:5 14:5
14:0 5:5 14:5 7:5 16:5 5:5 11:5 14:5 11:5 14:5 5:5
5:0 14:5 7:5 16:5 5:5 11:5 14:5 11:5 14:5 5:5 17:5
14:0 7:5 16:5 5:5 11:5 14:5 11:5 14:5 5:5 17:5 5:5
7:0 16:5 5:5 11:5 14:5 11:5 14:5 5:5 17:5 5:5 16:5
16:0 5:5 11:5 14:5 11:5 14:5 5:5 17:5 5:5 16:5 7:5
5:0 11:5 14:5 11:5 14:5 5:5 17:5 5:5 16:5 7:5 8:5
11:0 14:5 11:5 14:5 5:5 17:5 5:5 16:5 7:5 8:5 14:5
14:0 11:5 14:5 5:5 17:5 5:5 16:5 7:5 8:5 14:5 10:5
11:0 14:5 5:5 17:5 5:5 16:5 7:5 8:5 14:5 10:5 11:5
14:0 5:5 17:5 5:5 16:5 7:5 8:5 14:5 10:5 11:5 5:10
5:0 17:5 5:5 16:5 7:5 8:5 14:5 10:5 11:5 5:10 16:5
17:0 5:5 16:5 7:5 8:5 14:5 10:5 11:5 5:10 16:5 5:5
5:0 16:5 7:5 8:5 14:5 10:5 11:5 5:10 16:5 5:5 17:5
16:0 7:5 8:5 14:5 10:5 11:5 5:10 16:5 5:5 17:5 5:5
7:0 8:5 14:5 10:5 11:5 5:10 16:5 5:5 17:5 5:5 14:5
8:0 14:5 10:5 11:5 5:10 16:5 5:5 17:5 5:5 14:5 10:5
14:0 10:5 11:5 5:10 16:5 5:5 17:5 5:5 14:5 10:5 11:5
10:0 11:5 5:10 16:5 5:5 17:5 5:5 14:5 10:5 11:5 16:5
11:0 5:10 16:5 5:5 17:5 5:5 14:5 10:5 11:5 16:5 3:5
5:0 16:5 5:5 17:5 5:5 14:5 10:5 11:5 16:5 3:5 14:5
16:0 5:5 17:5 5:5 14:5 10:5 11:5 16:5 3:5 14:5 8:5
5:0 17:5 5:5 14:5 10:5 11:5 16:5 3:5 14:5 8:5 17:5
17:0 5:5 14:5 10:5 11:5 16:5 3:5 14:5 8:5 17:5 7:5
5:0 14:5 10:5 11:5 16:5 3:5 14:5 8:5 17:5 7:5 11:5
14:0 10:5 11:5 16:5 3:5 14:5 8:5 17:5 7:5 11:5 7:5
10:0 11:5 16:5 3:5 14:5 8:5 17:5 7:5 11:5 7:5 17:5
11:0 16:5 3:5 14:5 8:5 17:5 7:5 11:5 7:5 17:5 5:5
16:0 3:5 14:5 8:5 17:5 7:5 11:5 7:5 17:5 5:5 16:5
3:0 14:5 8:5 17:5 7:5 11:5 7:5 17:5 5:5 16:5 3:5
14:0 8:5 17:5 7:5 11:5 7:5 17:5 5:5 16:5 3:5 17:5
8:0 17:5 7:5 11:5 7:5 17:5 5:5 16:5 3:5 17:5 7:5
17:0 7:5 11:5 7:5 17:5 5:5 16:5 3:5 17:5 7:5 16:5
7:0 11:5 7:5 17:5 5:5 16:5 3:5 17:5 7:5 16:5 5:5
11:0 7:5 17:5 5:5 16:5 3:5 17:5 7:5 16:5 5:5 14:5
7:0 17:5 5:5 16:5 3:5 17:5 7:5 16:5 5:5 14:5 8:5
17:0 5:5 16:5 3:5 17:5 7:5 16:5 5:5 14:5 8:5 16:5
5:0 16:5 3:5 17:5 7:5 16:5 5:5 14:5 8:5 16:5 7:5
16:0 3:5 17:5 7:5 16:5 5:5 14:5 8:5 16:5 7:5 13:5
3:0 17:5 7:5 16:5 5:5 14:5 8:5 16:5 7:5 13:5 5:5
17:0 7:5 16:5 5:5 14:5 8:5 16:5 7:5 13:5 5:5 14:5
7:0 16:5 5:5 14:5 8:5 16:5 7:5 13:5 5:5 14:5 8:5
16:0 5:5 14:5 8:5 16:5 7:5 13:5 5:5 14:5 8:5 16:5
5:0 14:5 8:5 16:5 7:5 13:5 5:5 14:5 8:5 16:5 3:5
14:0 8:5 16:5 7:5 13:5 5:5 14:5 8:5 16:5 3:5 17:5
8:0 16:5 7:5 13:5 5:5 14:5 8:5 16:5 3:5 17:5 5:5
16:0 7:5 13:5 5:5 14:5 8:5 16:5 3:5 17:5 5:5 16:5
7:0 13:5 5:5 14:5 8:5 16:5 3:5 17:5 5:5 16:5 7:5
13:0 5:5 14:5 8:5 16:5 3:5 17:5 5:5 16:5 7:5 11:5
5:0 14:5 8:5 16:5 3:5 17:5 5:5 16:5 7:5 11:5 14:20
14:0 8:5 16:5 3:5 17:5 5:5 16:5 7:5 11:5 14:20 5:5
8:0 16:5 3:5 17:5 5:5 16:5 7:5 11:5 14:20 5:5 16:5
16:0 3:5 17:5 5:5 16:5 7:5 11:5 14:20 5:5 16:5 5:5
3:0 17:5 5:5 16:5 7:5 11:5 14:20 5:5 16:5 5:5 16:5
17:0 5:5 16:5 7:5 11:5 14:20 5:5 16:5 5:5 16:5 7:5
5:0 16:5 7:5 11:5 14:20 5:5 16:5 5:5 16:5 7:5 11:5
16:0 7:5 11:5 14:20 5:5 16:5 5:5 16:5 7:5 11:5 8:5
7:0 11:5 14:20 5:5 16:5 5:5 16:5 7:5 11:5 8:5 14:5
11:0 14:20 5:5 16:5 5:5 16:5 7:5 11:5 8:5 14:5 7:5
14:0 5:5 16:5 5:5 16:5 7:5 11:5 8:5 14:5 7:5 11:5
5:0 16:5 5:5 16:5 7:5 11:5 8:5 14:5 7:5 11:5 5:5
16:0 5:5 16:5 7:5 11:5 8:5 14:5 7:5 11:5 5:5 16:5
5:0 16:5 7:5 11:5 8:5 14:5 7:5 11:5 5:5 16:5 7:5
16:0 7:5 11:5 8:5 14:5 7:5 11:5 5:5 16:5 7:5 16:5
7:0 11:5 8:5 14:5 7:5 11:5 5:5 16:5 7:5 16:5 3:5
11:0 8:5 14:5 7:5 11:5 5:5 16:5 7:5 16:5 3:5 14:5
8:0 14:5 7:5 11:5 5:5 16:5 7:5 16:5 3:5 14:5 5:5
14:0 7:5 11:5 5:5 16:5 7:5 16:5 3:5 14:5 5:5 16:5
7:0 11:5 5:5 16:5 7:5 16:5 3:5 14:5 5:5 16:5 5:5
11:0 5:5 16:5 7:5 16:5 3:5 14:5 5:5 16:5 5:5 11:5
5:0 16:5 7:5 16:5 3:5 14:5 5:5 16:5 5:5 11:5 13:15
16:0 7:5 16:5 3:5 14:5 5:5 16:5 5:5 11:5 13:15 5:10
7:0 16:5 3:5 14:5 5:5 16:5 5:5 11:5 13:15 5:10 17:5
16:0 3:5 14:5 5:5 16:5 5:5 11:5 13:15 5:10 17:5 7:5
3:0 14:5 5:5 16:5 5:5 11:5 13:15 5:10 17:5 7:5 16:5
14:0 5:5 16:5 5:5 11:5 13:15 5:10 17:5 7:5 16:5 5:5
5:0 16:5 5:5 11:5 13:15 5:10 17:5 7:5 16:5 5:5 14:5
16:0 5:5 11:5 13:15 5:10 17:5 7:5 16:5 5:5 14:5 7:5
5:0 11:5 13:15 5:10 17:5 7:5 16:5 5:5 14:5 7:5 16:5
11:0 13:15 5:10 17:5 7:5 16:5 5:5 14:5 7:5 16:5 7:5
13:0 5:10 17:5 7:5 16:5 5:5 14:5 7:5 16:5 7:5 10:5
5:0 17:5 7:5 16:5 5:5 14:5 7:5 16:5 7:5 10:5 7:5
17:0 7:5 16:5 5:5 14:5 7:5 16:5 7:5 10:5 7:5 16:5
7:0 16:5 5:5 14:5 7:5 16:5 7:5 10:5 7:5 16:5 7:5
16:0 5:5 14:5 7:5 16:5 7:5 10:5 7:5 16:5 7:5 16:5
5:0 14:5 7:5 16:5 7:5 10:5 7:5 16:5 7:5 16:5 5:5
14:0 7:5 16:5 7:5 10:5 7:5 16:5 7:5 16:5 5:5 14:5
7:0 16:5 7:5 10:5 7:5 16:5 7:5 16:5 5:5 14:5 5:5
16:0 7:5 10:5 7:5 16:5 7:5 16:5 5:5 14:5 5:5 16:5
7:0 10:5 7:5 16:5 7:5 16:5 5:5 14:5 5:5 16:5 10:5
10:0 7:5 16:5 7:5 16:5 5:5 14:5 5:5 16:5 10:5 5:5
7:0 16:5 7:5 16:5 5:5 14:5 5:5 16:5 10:5 5:5 11:5
16:0 7:5 16:5 5:5 14:5 5:5 16:5 10:5 5:5 11:5 14:5
7:0 16:5 5:5 14:5 5:5 16:5 10:5 5:5 11:5 14:5 16:5
16:0 5:5 14:5 5:5 16:5 10:5 5:5 11:5 14:5 16:5 5:5
5:0 14:5 5:5 16:5 10:5 5:5 11:5 14:5 16:5 5:5 8:5
14:0 5:5 16:5 10:5 5:5 11:5 14:5 16:5 5:5 8:5 14:5
5:0 16:5 10:5 5:5 11:5 14:5 16:5 5:5 8:5 14:5 8:5
16:0 10:5 5:5 11:5 14:5 16:5 5:5 8:5 14:5 8:5 14:5
10:0 5:5 11:5 14:5 16:5 5:5 8:5 14:5 8:5 14:5 10:5
5:0 11:5 14:5 16:5 5:5 8:5 14:5 8:5 14:5 10:5 5:5
11:0 14:5 16:5 5:5 8:5 14:5 8:5 14:5 10:5 5:5 16:5
14:0 16:5 5:5 8:5 14:5 8:5 14:5 10:5 5:5 16:5 5:5
16:0 5:5 8:5 14:5 8:5 14:5 10:5 5:5 16:5 5:5 16:5
5:0 8:5 14:5 8:5 14:5 10:5 5:5 16:5 5:5 16:5 3:5
8:0 14:5 8:5 14:5 10:5 5:5 16:5 5:5 16:5 3:5 14:5
14:0 8:5 14:5 10:5 5:5 16:5 5:5 16:5 3:5 14:5 8:5
8:0 14:5 10:5 5:5 16:5 5:5 16:5 3:5 14:5 8:5 11:5
14:0 10:5 5:5 16:5 5:5 16:5 3:5 14:5 8:5 11:5 14:5
10:0 5:5 16:5 5:5 16:5 3:5 14:5 8:5 11:5 14:5 7:5
5:0 16:5 5:5 16:5 3:5 14:5 8:5 11:5 14:5 7:5 11:5
16:0 5:5 16:5 3:5 14:5 8:5 11:5 14:5 7:5 11:5 10:5
5:0 16:5 3:5 14:5 8:5 11:5 14:5 7:5 11:5 10:5 11:5
16:0 3:5 14:5 8:5 11:5 14:5 7:5 11:5 10:5 11:5 16:5
3:0 14:5 8:5 11:5 14:5 7:5 11:5 10:5 11:5 16:5 3:5
14:0 8:5 11:5 14:5 7:5 11:5 10:5 11:5 16:5 3:5 16:5
8:0 11:5 14:5 7:5 11:5 10:5 11:5 16:5 3:5 16:5 7:5
11:0 14:5 7:5 11:5 10:5 11:5 16:5 3:5 16:5 7:5 16:5
14:0 7:5 11:5 10:5 11:5 16:5 3:5 16:5 7:5 16:5 5:5
7:0 11:5 10:5 11:5 16:5 3:5 16:5 7:5 16:5 5:5 10:5
11:0 10:5 11:5 16:5 3:5 16:5 7:5 16:5 5:5 10:5 11:5
10:0 11:5 16:5 3:5 16:5 7:5 16:5 5:5 10:5 11:5 10:5
11:0 16:5 3:5 16:5 7:5 16:5 5:5 10:5 11:5 10:5 14:5
16:0 3:5 16:5 7:5 16:5 5:5 10:5 11:5 10:5 14:5 10:5
3:0 16:5 7:5 16:5 5:5 10:5 11:5 10:5 14:5 10:5 5:5
16:0 7:5 16:5 5:5 10:5 11:5 10:5 14:5 10:5 5:5 17:5
7:0 16:5 5:5 10:5 11:5 10:5 14:5 10:5 5:5 17:5 8:5
16:0 5:5 10:5 11:5 10:5 14:5 10:5 5:5 17:5 8:5 16:5
5:0 10:5 11:5 10:5 14:5 10:5 5:5 17:5 8:5 16:5 5:5
10:0 11:5 10:5 14:5 10:5 5:5 17:5 8:5 16:5 5:5 11:5
11:0 10:5 14:5 10:5 5:5 17:5 8:5 16:5 5:5 11:5 14:10
10:0 14:5 10:5 5:5 17:5 8:5 16:5 5:5 11:5 14:10 13:5
14:0 10:5 5:5 17:5 8:5 16:5 5:5 11:5 14:10 13:5 3:5
10:0 5:5 17:5 8:5 16:5 5:5 11:5 14:10 13:5 3:5 16:5
5:0 17:5 8:5 16:5 5:5 11:5 14:10 13:5 3:5 16:5 8:5
17:0 8:5 16:5 5:5 11:5 14:10 13:5 3:5 16:5 8:5 14:5
8:0 16:5 5:5 11:5 14:10 13:5 3:5 16:5 8:5 14:5 11:5
16:0 5:5 11:5 14:10 13:5 3:5 16:5 8:5 14:5 11:5 8:5
5:0 11:5 14:10 13:5 3:5 16:5 8:5 14:5 11:5 8:5 11:5
11:0 14:10 13:5 3:5 16:5 8:5 14:5 11:5 8:5 11:5 14:10
14:0 13:5 3:5 16:5 8:5 14:5 11:5 8:5 11:5 14:10 13:5
13:0 3:5 16:5 8:5 14:5 11:5 8:5 11:5 14:10 13:5 5:5
3:0 16:5 8:5 14:5 11:5 8:5 11:5 14:10 13:5 5:5 16:5
16:0 8:5 14:5 11:5 8:5 11:5 14:10 13:5 5:5 16:5 5:5
8:0 14:5 11:5 8:5 11:5 14:10 13:5 5:5 16:5 5:5 16:5
14:0 11:5 8:5 11:5 14:10 13:5 5:5 16:5 5:5 16:5 7:5
11:0 8:5 11:5 14:10 13:5 5:5 16:5 5:5 16:5 7:5 11:5
8:0 11:5 14:10 13:5 5:5 16:5 5:5 16:5 7:5 11:5 7:5
11:0 14:10 13:5 5:5 16:5 5:5 16:5 7:5 11:5 7:5 14:5
14:0 13:5 5:5 16:5 5:5 16:5 7:5 11:5 7:5 14:5 7:5
13:0 5:5 16:5 5:5 16:5 7:5 11:5 7:5 14:5 7:5 14:5
5:0 16:5 5:5 16:5 7:5 11:5 7:5 14:5 7:5 14:5 7:5
16:0 5:5 16:5 7:5 11:5 7:5 14:5 7:5 14:5 7:5 16:5
5:0 16:5 7:5 11:5 7:5 14:5 7:5 14:5 7:5 16:5 5:5
16:0 7:5 11:5 7:5 14:5 7:5 14:5 7:5 16:5 5:5 16:5
7:0 11:5 7:5 14:5 7:5 14:5 7:5 16:5 5:5 16:5 5:5
11:0 7:5 14:5 7:5 14:5 7:5 16:5 5:5 16:5 5:5 11:5
7:0 14:5 7:5 14:5 7:5 16:5 5:5 16:5 5:5 11:5 14:10
14:0 7:5 14:5 7:5 16:5 5:5 16:5 5:5 11:5 14:10 16:5
7:0 14:5 7:5 16:5 5:5 16:5 5:5 11:5 14:10 16:5 3:5
14:0 7:5 16:5 5:5 16:5 5:5 11:5 14:10 16:5 3:5 16:5
7:0 16:5 5:5 16:5 5:5 11:5 14:10 16:5 3:5 16:5 7:5
16:0 5:5 16:5 5:5 11:5 14:10 16:5 3:5 16:5 7:5 16:5
5:0 16:5 5:5 11:5 14:10 16:5 3:5 16:5 7:5 16:5 7:5
16:0 5:5 11:5 14:10 16:5 3:5 16:5 7:5 16:5 7:5 8:5
5:0 11:5 14:10 16:5 3:5 16:5 7:5 16:5 7:5 8:5 14:5
11:0 14:10 16:5 3:5 16:5 7:5 16:5 7:5 8:5 14:5 7:5
14:0 16:5 3:5 16:5 7:5 16:5 7:5 8:5 14:5 7:5 17:5
16:0 3:5 16:5 7:5 16:5 7:5 8:5 14:5 7:5 17:5 11:5
3:0 16:5 7:5 16:5 7:5 8:5 14:5 7:5 17:5 11:5 5:5
16:0 7:5 16:5 7:5 8:5 14:5 7:5 17:5 11:5 5:5 16:5
7:0 16:5 7:5 8:5 14:5 7:5 17:5 11:5 5:5 16:5 5:5
16:0 7:5 8:5 14:5 7:5 17:5 11:5 5:5 16:5 5:5 16:5
7:0 8:5 14:5 7:5 17:5 11:5 5:5 16:5 5:5 16:5 5:5
8:0 14:5 7:5 17:5 11:5 5:5 16:5 5:5 16:5 5:5 14:5
14:0 7:5 17:5 11:5 5:5 16:5 5:5 16:5 5:5 14:5 11:5
7:0 17:5 11:5 5:5 16:5 5:5 16:5 5:5 14:5 11:5 14:10
17:0 11:5 5:5 16:5 5:5 16:5 5:5 14:5 11:5 14:10 7:5
11:0 5:5 16:5 5:5 16:5 5:5 14:5 11:5 14:10 7:5 11:5
5:0 16:5 5:5 16:5 5:5 14:5 11:5 14:10 7:5 11:5 14:5
16:0 5:5 16:5 5:5 14:5 11:5 14:10 7:5 11:5 14:5 7:5
5:0 16:5 5:5 14:5 11:5 14:10 7:5 11:5 14:5 7:5 16:5
16:0 5:5 14:5 11:5 14:10 7:5 11:5 14:5 7:5 16:5 5:5
5:0 14:5 11:5 14:10 7:5 11:5 14:5 7:5 16:5 5:5 14:5
14:0 11:5 14:10 7:5 11:5 14:5 7:5 16:5 5:5 14:5 7:5
11:0 14:10 7:5 11:5 14:5 7:5 16:5 5:5 14:5 7:5 11:5
14:0 7:5 11:5 14:5 7:5 16:5 5:5 14:5 7:5 11:5 5:10
7:0 11:5 14:5 7:5 16:5 5:5 14:5 7:5 11:5 5:10 16:5
11:0 14:5 7:5 16:5 5:5 14:5 7:5 11:5 5:10 16:5 7:5
14:0 7:5 16:5 5:5 14:5 7:5 11:5 5:10 16:5 7:5 16:5
7:0 16:5 5:5 14:5 7:5 11:5 5:10 16:5 7:5 16:5 7:5
16:0 5:5 14:5 7:5 11:5 5:10 16:5 7:5 16:5 7:5 11:5
5:0 14:5 7:5 11:5 5:10 16:5 7:5 16:5 7:5 11:5 7:5
14:0 7:5 11:5 5:10 16:5 7:5 16:5 7:5 11:5 7:5 14:5
7:0 11:5 5:10 16:5 7:5 16:5 7:5 11:5 7:5 14:5 7:5
11:0 5:10 16:5 7:5 16:5 7:5 11:5 7:5 14:5 7:5 14:5
5:0 16:5 7:5 16:5 7:5 11:5 7:5 14:5 7:5 14:5 5:5
16:0 7:5 16:5 7:5 11:5 7:5 14:5 7:5 14:5 5:5 16:5
7:0 16:5 7:5 11:5 7:5 14:5 7:5 14:5 5:5 16:5 5:5
16:0 7:5 11:5 7:5 14:5 7:5 14:5 5:5 16:5 5:5 16:5
7:0 11:5 7:5 14:5 7:5 14:5 5:5 16:5 5:5 16:5 5:5
11:0 7:5 14:5 7:5 14:5 5:5 16:5 5:5 16:5 5:5 14:5
7:0 14:5 7:5 14:5 5:5 16:5 5:5 16:5 5:5 14:5 7:5
14:0 7:5 14:5 5:5 16:5 5:5 16:5 5:5 14:5 7:5 14:5
7:0 14:5 5:5 16:5 5:5 16:5 5:5 14:5 7:5 14:5 11:5
14:0 5:5 16:5 5:5 16:5 5:5 14:5 7:5 14:5 11:5 7:5
5:0 16:5 5:5 16:5 5:5 14:5 7:5 14:5 11:5 7:5 14:10
16:0 5:5 16:5 5:5 14:5 7:5 14:5 11:5 7:5 14:10 7:5
5:0 16:5 5:5 14:5 7:5 14:5 11:5 7:5 14:10 7:5 14:5
16:0 5:5 14:5 7:5 14:5 11:5 7:5 14:10 7:5 14:5 5:5
5:0 14:5 7:5 14:5 11:5 7:5 14:10 7:5 14:5 5:5 14:5
14:0 7:5 14:5 11:5 7:5 14:10 7:5 14:5 5:5 14:5 11:5
7:0 14:5 11:5 7:5 14:10 7:5 14:5 5:5 14:5 11:5 14:5
14:0 11:5 7:5 14:10 7:5 14:5 5:5 14:5 11:5 14:5 10:5
11:0 7:5 14:10 7:5 14:5 5:5 14:5 11:5 14:5 10:5 8:5
7:0 14:10 7:5 14:5 5:5 14:5 11:5 14:5 10:5 8:5 14:5
14:0 7:5 14:5 5:5 14:5 11:5 14:5 10:5 8:5 14:5 7:5
7:0 14:5 5:5 14:5 11:5 14:5 10:5 8:5 14:5 7:5 16:5
14:0 5:5 14:5 11:5 14:5 10:5 8:5 14:5 7:5 16:5 3:5
5:0 14:5 11:5 14:5 10:5 8:5 14:5 7:5 16:5 3:5 14:5
14:0 11:5 14:5 10:5 8:5 14:5 7:5 16:5 3:5 14:5 5:5
11:0 14:5 10:5 8:5 14:5 7:5 16:5 3:5 14:5 5:5 17:5
14:0 10:5 8:5 14:5 7:5 16:5 3:5 14:5 5:5 17:5 10:5
10:0 8:5 14:5 7:5 16:5 3:5 14:5 5:5 17:5 10:5 11:5
8:0 14:5 7:5 16:5 3:5 14:5 5:5 17:5 10:5 11:5 5:5
14:0 7:5 16:5 3:5 14:5 5:5 17:5 10:5 11:5 5:5 17:5
7:0 16:5 3:5 14:5 5:5 17:5 10:5 11:5 5:5 17:5 7:5
16:0 3:5 14:5 5:5 17:5 10:5 11:5 5:5 17:5 7:5 16:5
3:0 14:5 5:5 17:5 10:5 11:5 5:5 17:5 7:5 16:5 5:5
14:0 5:5 17:5 10:5 11:5 5:5 17:5 7:5 16:5 5:5 14:5
5:0 17:5 10:5 11:5 5:5 17:5 7:5 16:5 5:5 14:5 7:5
17:0 10:5 11:5 5:5 17:5 7:5 16:5 5:5 14:5 7:5 17:5
10:0 11:5 5:5 17:5 7:5 16:5 5:5 14:5 7:5 17:5 7:5
11:0 5:5 17:5 7:5 16:5 5:5 14:5 7:5 17:5 7:5 11:5
5:0 17:5 7:5 16:5 5:5 14:5 7:5 17:5 7:5 11:5 7:5
17:0 7:5 16:5 5:5 14:5 7:5 17:5 7:5 11:5 7:5 16:5
7:0 16:5 5:5 14:5 7:5 17:5 7:5 11:5 7:5 16:5 7:5
16:0 5:5 14:5 7:5 17:5 7:5 11:5 7:5 16:5 7:5 14:5
5:0 14:5 7:5 17:5 7:5 11:5 7:5 16:5 7:5 14:5 5:5
14:0 7:5 17:5 7:5 11:5 7:5 16:5 7:5 14:5 5:5 16:5
7:0 17:5 7:5 11:5 7:5 16:5 7:5 14:5 5:5 16:5 8:5
17:0 7:5 11:5 7:5 16:5 7:5 14:5 5:5 16:5 8:5 17:5
7:0 11:5 7:5 16:5 7:5 14:5 5:5 16:5 8:5 17:5 5:5
11:0 7:5 16:5 7:5 14:5 5:5 16:5 8:5 17:5 5:5 14:5
7:0 16:5 7:5 14:5 5:5 16:5 8:5 17:5 5:5 14:5 7:5
16:0 7:5 14:5 5:5 16:5 8:5 17:5 5:5 14:5 7:5 14:5
7:0 14:5 5:5 16:5 8:5 17:5 5:5 14:5 7:5 14:5 10:5
14:0 5:5 16:5 8:5 17:5 5:5 14:5 7:5 14:5 10:5 5:10
5:0 16:5 8:5 17:5 5:5 14:5 7:5 14:5 10:5 5:10 16:5
16:0 8:5 17:5 5:5 14:5 7:5 14:5 10:5 5:10 16:5 8:5
8:0 17:5 5:5 14:5 7:5 14:5 10:5 5:10 16:5 8:5 16:5
17:0 5:5 14:5 7:5 14:5 10:5 5:10 16:5 8:5 16:5 3:5
5:0 14:5 7:5 14:5 10:5 5:10 16:5 8:5 16:5 3:5 14:5
14:0 7:5 14:5 10:5 5:10 16:5 8:5 16:5 3:5 14:5 11:5
7:0 14:5 10:5 5:10 16:5 8:5 16:5 3:5 14:5 11:5 13:5
14:0 10:5 5:10 16:5 8:5 16:5 3:5 14:5 11:5 13:5 10:5
10:0 5:10 16:5 8:5 16:5 3:5 14:5 11:5 13:5 10:5 7:5
5:0 16:5 8:5 16:5 3:5 14:5 11:5 13:5 10:5 7:5 10:5
16:0 8:5 16:5 3:5 14:5 11:5 13:5 10:5 7:5 10:5 11:5
8:0 16:5 3:5 14:5 11:5 13:5 10:5 7:5 10:5 11:5 14:10
16:0 3:5 14:5 11:5 13:5 10:5 7:5 10:5 11:5 14:10 5:5
3:0 14:5 11:5 13:5 10:5 7:5 10:5 11:5 14:10 5:5 16:5
14:0 11:5 13:5 10:5 7:5 10:5 11:5 14:10 5:5 16:5 5:5
11:0 13:5 10:5 7:5 10:5 11:5 14:10 5:5 16:5 5:5 17:5
13:0 10:5 7:5 10:5 11:5 14:10 5:5 16:5 5:5 17:5 5:5
10:0 7:5 10:5 11:5 14:10 5:5 16:5 5:5 17:5 5:5 10:5
7:0 10:5 11:5 14:10 5:5 16:5 5:5 17:5 5:5 10:5 14:5
10:0 11:5 14:10 5:5 16:5 5:5 17:5 5:5 10:5 14:5 7:5
11:0 14:10 5:5 16:5 5:5 17:5 5:5 10:5 14:5 7:5 16:5
14:0 5:5 16:5 5:5 17:5 5:5 10:5 14:5 7:5 16:5 3:5
5:0 16:5 5:5 17:5 5:5 10:5 14:5 7:5 16:5 3:5 17:5
16:0 5:5 17:5 5:5 10:5 14:5 7:5 16:5 3:5 17:5 7:5
5:0 17:5 5:5 10:5 14:5 7:5 16:5 3:5 17:5 7:5 16:5
17:0 5:5 10:5 14:5 7:5 16:5 3:5 17:5 7:5 16:5 7:5
5:0 10:5 14:5 7:5 16:5 3:5 17:5 7:5 16:5 7:5 14:5
10:0 14:5 7:5 16:5 3:5 17:5 7:5 16:5 7:5 14:5 7:5
14:0 7:5 16:5 3:5 17:5 7:5 16:5 7:5 14:5 7:5 13:5
7:0 16:5 3:5 17:5 7:5 16:5 7:5 14:5 7:5 13:5 11:5
16:0 3:5 17:5 7:5 16:5 7:5 14:5 7:5 13:5 11:5 14:5
3:0 17:5 7:5 16:5 7:5 14:5 7:5 13:5 11:5 14:5 5:5
17:0 7:5 16:5 7:5 14:5 7:5 13:5 11:5 14:5 5:5 14:5
7:0 16:5 7:5 14:5 7:5 13:5 11:5 14:5 5:5 14:5 8:5
16:0 7:5 14:5 7:5 13:5 11:5 14:5 5:5 14:5 8:5 14:5
7:0 14:5 7:5 13:5 11:5 14:5 5:5 14:5 8:5 14:5 5:5
14:0 7:5 13:5 11:5 14:5 5:5 14:5 8:5 14:5 5:5 7:5
7:0 13:5 11:5 14:5 5:5 14:5 8:5 14:5 5:5 7:5 14:5
13:0 11:5 14:5 5:5 14:5 8:5 14:5 5:5 7:5 14:5 16:5
11:0 14:5 5:5 14:5 8:5 14:5 5:5 7:5 14:5 16:5 7:5
14:0 5:5 14:5 8:5 14:5 5:5 7:5 14:5 16:5 7:5 10:5
5:0 14:5 8:5 14:5 5:5 7:5 14:5 16:5 7:5 10:5 8:5
14:0 8:5 14:5 5:5 7:5 14:5 16:5 7:5 10:5 8:5 14:5
8:0 14:5 5:5 7:5 14:5 16:5 7:5 10:5 8:5 14:5 8:5
14:0 5:5 7:5 14:5 16:5 7:5 10:5 8:5 14:5 8:5 17:5
5:0 7:5 14:5 16:5 7:5 10:5 8:5 14:5 8:5 17:5
7:0 14:5 16:5 7:5 10:5 8:5 14:5 8:5 17:5
14:0 16:5 7:5 10:5 8:5 14:5 8:5 17:5
16:0 7:5 10:5 8:5 14:5 8:5 17:5
7:0 10:5 8:5 14:5 8:5 17:5
10:0 8:5 14:5 8:5 17:5
8:0 14:5 8:5 17:5
14:0 8:5 17:5
8:0 17:5
17:0