6:0 11:2345 6:10 11:500 6:5 11:160 6:10 11:325 6:5 11:500 6:5
11:0 6:10 11:500 6:5 11:160 6:10 11:325 6:5 11:500 6:5 11:500
6:0 11:500 6:5 11:160 6:10 11:325 6:5 11:500 6:5 11:500 6:5
11:0 6:5 11:160 6:10 11:325 6:5 11:500 6:5 11:500 6:5 11:2855
6:0 11:160 6:10 11:325 6:5 11:500 6:5 11:500 6:5 11:2855 6:5
11:0 6:10 11:325 6:5 11:500 6:5 11:500 6:5 11:2855 6:5
6:0 11:325 6:5 11:500 6:5 11:500 6:5 11:2855 6:5
11:0 6:5 11:500 6:5 11:500 6:5 11:2855 6:5
6:0 11:500 6:5 11:500 6:5 11:2855 6:5
11:0 6:5 11:500 6:5 11:2855 6:5
6:0 11:500 6:5 11:2855 6:5
11:0 6:5 11:2855 6:5
6:0 11:2855 6:5
11:0 6:5
6:0