10:0 5:5 10:5 5:5 10:5 5:5 7:5 10:5 5:5 11:5 4:5
5:0 10:5 5:5 10:5 5:5 7:5 10:5 5:5 11:5 4:5 7:5
10:0 5:5 10:5 5:5 7:5 10:5 5:5 11:5 4:5 7:5 10:5
5:0 10:5 5:5 7:5 10:5 5:5 11:5 4:5 7:5 10:5 8:5
10:0 5:5 7:5 10:5 5:5 11:5 4:5 7:5 10:5 8:5 10:5
5:0 7:5 10:5 5:5 11:5 4:5 7:5 10:5 8:5 10:5 5:5
7:0 10:5 5:5 11:5 4:5 7:5 10:5 8:5 10:5 5:5 7:5
10:0 5:5 11:5 4:5 7:5 10:5 8:5 10:5 5:5 7:5 8:5
5:0 11:5 4:5 7:5 10:5 8:5 10:5 5:5 7:5 8:5 10:5
11:0 4:5 7:5 10:5 8:5 10:5 5:5 7:5 8:5 10:5 7:5
4:0 7:5 10:5 8:5 10:5 5:5 7:5 8:5 10:5 7:5 8:10
7:0 10:5 8:5 10:5 5:5 7:5 8:5 10:5 7:5 8:10 7:5
10:0 8:5 10:5 5:5 7:5 8:5 10:5 7:5 8:10 7:5 11:5
8:0 10:5 5:5 7:5 8:5 10:5 7:5 8:10 7:5 11:5 7:5
10:0 5:5 7:5 8:5 10:5 7:5 8:10 7:5 11:5 7:5 3:5
5:0 7:5 8:5 10:5 7:5 8:10 7:5 11:5 7:5 3:5 10:5
7:0 8:5 10:5 7:5 8:10 7:5 11:5 7:5 3:5 10:5 5:5
8:0 10:5 7:5 8:10 7:5 11:5 7:5 3:5 10:5 5:5 10:5
10:0 7:5 8:10 7:5 11:5 7:5 3:5 10:5 5:5 10:5 4:5
7:0 8:10 7:5 11:5 7:5 3:5 10:5 5:5 10:5 4:5 7:5
8:0 7:5 11:5 7:5 3:5 10:5 5:5 10:5 4:5 7:5 10:10
7:0 11:5 7:5 3:5 10:5 5:5 10:5 4:5 7:5 10:10 2:10
11:0 7:5 3:5 10:5 5:5 10:5 4:5 7:5 10:10 2:10 7:5
7:0 3:5 10:5 5:5 10:5 4:5 7:5 10:10 2:10 7:5 11:5
3:0 10:5 5:5 10:5 4:5 7:5 10:10 2:10 7:5 11:5 7:5
10:0 5:5 10:5 4:5 7:5 10:10 2:10 7:5 11:5 7:5 10:5
5:0 10:5 4:5 7:5 10:10 2:10 7:5 11:5 7:5 10:5 5:5
10:0 4:5 7:5 10:10 2:10 7:5 11:5 7:5 10:5 5:5 10:5
4:0 7:5 10:10 2:10 7:5 11:5 7:5 10:5 5:5 10:5 5:5
7:0 10:10 2:10 7:5 11:5 7:5 10:5 5:5 10:5 5:5 10:5
10:0 2:10 7:5 11:5 7:5 10:5 5:5 10:5 5:5 10:5 4:10
2:0 7:5 11:5 7:5 10:5 5:5 10:5 5:5 10:5 4:10 7:5
7:0 11:5 7:5 10:5 5:5 10:5 5:5 10:5 4:10 7:5 10:5
11:0 7:5 10:5 5:5 10:5 5:5 10:5 4:10 7:5 10:5 7:5
7:0 10:5 5:5 10:5 5:5 10:5 4:10 7:5 10:5 7:5 5:10
10:0 5:5 10:5 5:5 10:5 4:10 7:5 10:5 7:5 5:10 10:5
5:0 10:5 5:5 10:5 4:10 7:5 10:5 7:5 5:10 10:5 7:5
10:0 5:5 10:5 4:10 7:5 10:5 7:5 5:10 10:5 7:5 10:5
5:0 10:5 4:10 7:5 10:5 7:5 5:10 10:5 7:5 10:5 4:5
10:0 4:10 7:5 10:5 7:5 5:10 10:5 7:5 10:5 4:5 10:5
4:0 7:5 10:5 7:5 5:10 10:5 7:5 10:5 4:5 10:5 7:5
7:0 10:5 7:5 5:10 10:5 7:5 10:5 4:5 10:5 7:5 10:5
10:0 7:5 5:10 10:5 7:5 10:5 4:5 10:5 7:5 10:5 5:10
7:0 5:10 10:5 7:5 10:5 4:5 10:5 7:5 10:5 5:10 7:5
5:0 10:5 7:5 10:5 4:5 10:5 7:5 10:5 5:10 7:5 10:5
10:0 7:5 10:5 4:5 10:5 7:5 10:5 5:10 7:5 10:5 8:5
7:0 10:5 4:5 10:5 7:5 10:5 5:10 7:5 10:5 8:5 10:5
10:0 4:5 10:5 7:5 10:5 5:10 7:5 10:5 8:5 10:5 5:5
4:0 10:5 7:5 10:5 5:10 7:5 10:5 8:5 10:5 5:5 7:5
10:0 7:5 10:5 5:10 7:5 10:5 8:5 10:5 5:5 7:5 10:5
7:0 10:5 5:10 7:5 10:5 8:5 10:5 5:5 7:5 10:5 5:15
10:0 5:10 7:5 10:5 8:5 10:5 5:5 7:5 10:5 5:15 7:5
5:0 7:5 10:5 8:5 10:5 5:5 7:5 10:5 5:15 7:5 10:5
7:0 10:5 8:5 10:5 5:5 7:5 10:5 5:15 7:5 10:5 5:5
10:0 8:5 10:5 5:5 7:5 10:5 5:15 7:5 10:5 5:5 7:5
8:0 10:5 5:5 7:5 10:5 5:15 7:5 10:5 5:5 7:5 5:10
10:0 5:5 7:5 10:5 5:15 7:5 10:5 5:5 7:5 5:10 10:5
5:0 7:5 10:5 5:15 7:5 10:5 5:5 7:5 5:10 10:5 4:10
7:0 10:5 5:15 7:5 10:5 5:5 7:5 5:10 10:5 4:10 10:5
10:0 5:15 7:5 10:5 5:5 7:5 5:10 10:5 4:10 10:5 4:5
5:0 7:5 10:5 5:5 7:5 5:10 10:5 4:10 10:5 4:5 10:5
7:0 10:5 5:5 7:5 5:10 10:5 4:10 10:5 4:5 10:5 3:10
10:0 5:5 7:5 5:10 10:5 4:10 10:5 4:5 10:5 3:10 7:5
5:0 7:5 5:10 10:5 4:10 10:5 4:5 10:5 3:10 7:5 10:5
7:0 5:10 10:5 4:10 10:5 4:5 10:5 3:10 7:5 10:5 5:5
5:0 10:5 4:10 10:5 4:5 10:5 3:10 7:5 10:5 5:5 10:5
10:0 4:10 10:5 4:5 10:5 3:10 7:5 10:5 5:5 10:5 5:5
4:0 10:5 4:5 10:5 3:10 7:5 10:5 5:5 10:5 5:5 7:5
10:0 4:5 10:5 3:10 7:5 10:5 5:5 10:5 5:5 7:5 10:10
4:0 10:5 3:10 7:5 10:5 5:5 10:5 5:5 7:5 10:10 5:10
10:0 3:10 7:5 10:5 5:5 10:5 5:5 7:5 10:10 5:10 7:5
3:0 7:5 10:5 5:5 10:5 5:5 7:5 10:10 5:10 7:5 5:5
7:0 10:5 5:5 10:5 5:5 7:5 10:10 5:10 7:5 5:5 10:5
10:0 5:5 10:5 5:5 7:5 10:10 5:10 7:5 5:5 10:5 4:5
5:0 10:5 5:5 7:5 10:10 5:10 7:5 5:5 10:5 4:5 3:5
10:0 5:5 7:5 10:10 5:10 7:5 5:5 10:5 4:5 3:5 10:5
5:0 7:5 10:10 5:10 7:5 5:5 10:5 4:5 3:5 10:5 4:15
7:0 10:10 5:10 7:5 5:5 10:5 4:5 3:5 10:5 4:15 10:5
10:0 5:10 7:5 5:5 10:5 4:5 3:5 10:5 4:15 10:5 7:5
5:0 7:5 5:5 10:5 4:5 3:5 10:5 4:15 10:5 7:5 10:5
7:0 5:5 10:5 4:5 3:5 10:5 4:15 10:5 7:5 10:5 7:5
5:0 10:5 4:5 3:5 10:5 4:15 10:5 7:5 10:5 7:5 5:5
10:0 4:5 3:5 10:5 4:15 10:5 7:5 10:5 7:5 5:5 7:5
4:0 3:5 10:5 4:15 10:5 7:5 10:5 7:5 5:5 7:5 10:5
3:0 10:5 4:15 10:5 7:5 10:5 7:5 5:5 7:5 10:5 7:5
10:0 4:15 10:5 7:5 10:5 7:5 5:5 7:5 10:5 7:5 10:5
4:0 10:5 7:5 10:5 7:5 5:5 7:5 10:5 7:5 10:5 5:5
10:0 7:5 10:5 7:5 5:5 7:5 10:5 7:5 10:5 5:5 10:5
7:0 10:5 7:5 5:5 7:5 10:5 7:5 10:5 5:5 10:5 8:5
10:0 7:5 5:5 7:5 10:5 7:5 10:5 5:5 10:5 8:5 10:5
7:0 5:5 7:5 10:5 7:5 10:5 5:5 10:5 8:5 10:5 2:10
5:0 7:5 10:5 7:5 10:5 5:5 10:5 8:5 10:5 2:10 10:5
7:0 10:5 7:5 10:5 5:5 10:5 8:5 10:5 2:10 10:5 7:5
10:0 7:5 10:5 5:5 10:5 8:5 10:5 2:10 10:5 7:5 10:5
7:0 10:5 5:5 10:5 8:5 10:5 2:10 10:5 7:5 10:5 5:10
10:0 5:5 10:5 8:5 10:5 2:10 10:5 7:5 10:5 5:10 7:5
5:0 10:5 8:5 10:5 2:10 10:5 7:5 10:5 5:10 7:5 8:5
10:0 8:5 10:5 2:10 10:5 7:5 10:5 5:10 7:5 8:5 10:5
8:0 10:5 2:10 10:5 7:5 10:5 5:10 7:5 8:5 10:5 5:5
10:0 2:10 10:5 7:5 10:5 5:10 7:5 8:5 10:5 5:5 10:10
2:0 10:5 7:5 10:5 5:10 7:5 8:5 10:5 5:5 10:10 7:5
10:0 7:5 10:5 5:10 7:5 8:5 10:5 5:5 10:10 7:5 10:5
7:0 10:5 5:10 7:5 8:5 10:5 5:5 10:10 7:5 10:5 2:5
10:0 5:10 7:5 8:5 10:5 5:5 10:10 7:5 10:5 2:5 5:5
5:0 7:5 8:5 10:5 5:5 10:10 7:5 10:5 2:5 5:5 10:5
7:0 8:5 10:5 5:5 10:10 7:5 10:5 2:5 5:5 10:5 5:15
8:0 10:5 5:5 10:10 7:5 10:5 2:5 5:5 10:5 5:15 7:5
10:0 5:5 10:10 7:5 10:5 2:5 5:5 10:5 5:15 7:5 10:5
5:0 10:10 7:5 10:5 2:5 5:5 10:5 5:15 7:5 10:5 7:5
10:0 7:5 10:5 2:5 5:5 10:5 5:15 7:5 10:5 7:5 10:5
7:0 10:5 2:5 5:5 10:5 5:15 7:5 10:5 7:5 10:5 5:5
10:0 2:5 5:5 10:5 5:15 7:5 10:5 7:5 10:5 5:5 8:10
2:0 5:5 10:5 5:15 7:5 10:5 7:5 10:5 5:5 8:10 10:5
5:0 10:5 5:15 7:5 10:5 7:5 10:5 5:5 8:10 10:5 5:5
10:0 5:15 7:5 10:5 7:5 10:5 5:5 8:10 10:5 5:5 10:10
5:0 7:5 10:5 7:5 10:5 5:5 8:10 10:5 5:5 10:10 8:5
7:0 10:5 7:5 10:5 5:5 8:10 10:5 5:5 10:10 8:5 10:5
10:0 7:5 10:5 5:5 8:10 10:5 5:5 10:10 8:5 10:5 4:5
7:0 10:5 5:5 8:10 10:5 5:5 10:10 8:5 10:5 4:5 10:5
10:0 5:5 8:10 10:5 5:5 10:10 8:5 10:5 4:5 10:5 7:5
5:0 8:10 10:5 5:5 10:10 8:5 10:5 4:5 10:5 7:5 10:5
8:0 10:5 5:5 10:10 8:5 10:5 4:5 10:5 7:5 10:5 3:10
10:0 5:5 10:10 8:5 10:5 4:5 10:5 7:5 10:5 3:10 8:5
5:0 10:10 8:5 10:5 4:5 10:5 7:5 10:5 3:10 8:5 7:5
10:0 8:5 10:5 4:5 10:5 7:5 10:5 3:10 8:5 7:5 11:5
8:0 10:5 4:5 10:5 7:5 10:5 3:10 8:5 7:5 11:5 10:5
10:0 4:5 10:5 7:5 10:5 3:10 8:5 7:5 11:5 10:5 3:5
4:0 10:5 7:5 10:5 3:10 8:5 7:5 11:5 10:5 3:5 10:5
10:0 7:5 10:5 3:10 8:5 7:5 11:5 10:5 3:5 10:5 7:5
7:0 10:5 3:10 8:5 7:5 11:5 10:5 3:5 10:5 7:5 10:5
10:0 3:10 8:5 7:5 11:5 10:5 3:5 10:5 7:5 10:5 7:5
3:0 8:5 7:5 11:5 10:5 3:5 10:5 7:5 10:5 7:5 3:5
8:0 7:5 11:5 10:5 3:5 10:5 7:5 10:5 7:5 3:5 10:5
7:0 11:5 10:5 3:5 10:5 7:5 10:5 7:5 3:5 10:5 4:15
11:0 10:5 3:5 10:5 7:5 10:5 7:5 3:5 10:5 4:15 7:5
10:0 3:5 10:5 7:5 10:5 7:5 3:5 10:5 4:15 7:5 10:5
3:0 10:5 7:5 10:5 7:5 3:5 10:5 4:15 7:5 10:5 5:15
10:0 7:5 10:5 7:5 3:5 10:5 4:15 7:5 10:5 5:15 8:5
7:0 10:5 7:5 3:5 10:5 4:15 7:5 10:5 5:15 8:5 7:5
10:0 7:5 3:5 10:5 4:15 7:5 10:5 5:15 8:5 7:5 10:10
7:0 3:5 10:5 4:15 7:5 10:5 5:15 8:5 7:5 10:10 4:5
3:0 10:5 4:15 7:5 10:5 5:15 8:5 7:5 10:10 4:5 10:5
10:0 4:15 7:5 10:5 5:15 8:5 7:5 10:10 4:5 10:5 7:5
4:0 7:5 10:5 5:15 8:5 7:5 10:10 4:5 10:5 7:5 10:5
7:0 10:5 5:15 8:5 7:5 10:10 4:5 10:5 7:5 10:5 5:10
10:0 5:15 8:5 7:5 10:10 4:5 10:5 7:5 10:5 5:10 8:10
5:0 8:5 7:5 10:10 4:5 10:5 7:5 10:5 5:10 8:10 10:5
8:0 7:5 10:10 4:5 10:5 7:5 10:5 5:10 8:10 10:5 5:10
7:0 10:10 4:5 10:5 7:5 10:5 5:10 8:10 10:5 5:10 7:5
10:0 4:5 10:5 7:5 10:5 5:10 8:10 10:5 5:10 7:5 10:5
4:0 10:5 7:5 10:5 5:10 8:10 10:5 5:10 7:5 10:5 4:10
10:0 7:5 10:5 5:10 8:10 10:5 5:10 7:5 10:5 4:10 7:5
7:0 10:5 5:10 8:10 10:5 5:10 7:5 10:5 4:10 7:5 10:5
10:0 5:10 8:10 10:5 5:10 7:5 10:5 4:10 7:5 10:5 5:5
5:0 8:10 10:5 5:10 7:5 10:5 4:10 7:5 10:5 5:5 10:5
8:0 10:5 5:10 7:5 10:5 4:10 7:5 10:5 5:5 10:5 2:5
10:0 5:10 7:5 10:5 4:10 7:5 10:5 5:5 10:5 2:5 5:5
5:0 7:5 10:5 4:10 7:5 10:5 5:5 10:5 2:5 5:5 10:5
7:0 10:5 4:10 7:5 10:5 5:5 10:5 2:5 5:5 10:5 7:15
10:0 4:10 7:5 10:5 5:5 10:5 2:5 5:5 10:5 7:15 8:5
4:0 7:5 10:5 5:5 10:5 2:5 5:5 10:5 7:15 8:5 7:5
7:0 10:5 5:5 10:5 2:5 5:5 10:5 7:15 8:5 7:5 10:5
10:0 5:5 10:5 2:5 5:5 10:5 7:15 8:5 7:5 10:5 4:10
5:0 10:5 2:5 5:5 10:5 7:15 8:5 7:5 10:5 4:10 10:10
10:0 2:5 5:5 10:5 7:15 8:5 7:5 10:5 4:10 10:10 5:5
2:0 5:5 10:5 7:15 8:5 7:5 10:5 4:10 10:10 5:5 10:5
5:0 10:5 7:15 8:5 7:5 10:5 4:10 10:10 5:5 10:5 5:5
10:0 7:15 8:5 7:5 10:5 4:10 10:10 5:5 10:5 5:5 10:5
7:0 8:5 7:5 10:5 4:10 10:10 5:5 10:5 5:5 10:5 8:5
8:0 7:5 10:5 4:10 10:10 5:5 10:5 5:5 10:5 8:5 10:5
7:0 10:5 4:10 10:10 5:5 10:5 5:5 10:5 8:5 10:5 5:5
10:0 4:10 10:10 5:5 10:5 5:5 10:5 8:5 10:5 5:5 4:5
4:0 10:10 5:5 10:5 5:5 10:5 8:5 10:5 5:5 4:5 10:5
10:0 5:5 10:5 5:5 10:5 8:5 10:5 5:5 4:5 10:5 7:5
5:0 10:5 5:5 10:5 8:5 10:5 5:5 4:5 10:5 7:5 10:5
10:0 5:5 10:5 8:5 10:5 5:5 4:5 10:5 7:5 10:5 4:5
5:0 10:5 8:5 10:5 5:5 4:5 10:5 7:5 10:5 4:5 8:5
10:0 8:5 10:5 5:5 4:5 10:5 7:5 10:5 4:5 8:5 10:5
8:0 10:5 5:5 4:5 10:5 7:5 10:5 4:5 8:5 10:5 7:5
10:0 5:5 4:5 10:5 7:5 10:5 4:5 8:5 10:5 7:5 10:5
5:0 4:5 10:5 7:5 10:5 4:5 8:5 10:5 7:5 10:5 5:5
4:0 10:5 7:5 10:5 4:5 8:5 10:5 7:5 10:5 5:5 10:5
10:0 7:5 10:5 4:5 8:5 10:5 7:5 10:5 5:5 10:5 5:5
7:0 10:5 4:5 8:5 10:5 7:5 10:5 5:5 10:5 5:5 10:5
10:0 4:5 8:5 10:5 7:5 10:5 5:5 10:5 5:5 10:5 3:10
4:0 8:5 10:5 7:5 10:5 5:5 10:5 5:5 10:5 3:10 8:5
8:0 10:5 7:5 10:5 5:5 10:5 5:5 10:5 3:10 8:5 10:5
10:0 7:5 10:5 5:5 10:5 5:5 10:5 3:10 8:5 10:5 7:10
7:0 10:5 5:5 10:5 5:5 10:5 3:10 8:5 10:5 7:10 4:5
10:0 5:5 10:5 5:5 10:5 3:10 8:5 10:5 7:10 4:5 8:5
5:0 10:5 5:5 10:5 3:10 8:5 10:5 7:10 4:5 8:5 7:5
10:0 5:5 10:5 3:10 8:5 10:5 7:10 4:5 8:5 7:5 8:5
5:0 10:5 3:10 8:5 10:5 7:10 4:5 8:5 7:5 8:5 10:5
10:0 3:10 8:5 10:5 7:10 4:5 8:5 7:5 8:5 10:5 5:5
3:0 8:5 10:5 7:10 4:5 8:5 7:5 8:5 10:5 5:5 7:5
8:0 10:5 7:10 4:5 8:5 7:5 8:5 10:5 5:5 7:5 11:5
10:0 7:10 4:5 8:5 7:5 8:5 10:5 5:5 7:5 11:5 10:5
7:0 4:5 8:5 7:5 8:5 10:5 5:5 7:5 11:5 10:5 2:5
4:0 8:5 7:5 8:5 10:5 5:5 7:5 11:5 10:5 2:5 10:5
8:0 7:5 8:5 10:5 5:5 7:5 11:5 10:5 2:5 10:5 4:5
7:0 8:5 10:5 5:5 7:5 11:5 10:5 2:5 10:5 4:5 10:5
8:0 10:5 5:5 7:5 11:5 10:5 2:5 10:5 4:5 10:5 5:10
10:0 5:5 7:5 11:5 10:5 2:5 10:5 4:5 10:5 5:10 11:10
5:0 7:5 11:5 10:5 2:5 10:5 4:5 10:5 5:10 11:10 10:5
7:0 11:5 10:5 2:5 10:5 4:5 10:5 5:10 11:10 10:5 7:5
11:0 10:5 2:5 10:5 4:5 10:5 5:10 11:10 10:5 7:5 3:5
10:0 2:5 10:5 4:5 10:5 5:10 11:10 10:5 7:5 3:5 10:5
2:0 10:5 4:5 10:5 5:10 11:10 10:5 7:5 3:5 10:5 5:5
10:0 4:5 10:5 5:10 11:10 10:5 7:5 3:5 10:5 5:5 10:5
4:0 10:5 5:10 11:10 10:5 7:5 3:5 10:5 5:5 10:5 4:5
10:0 5:10 11:10 10:5 7:5 3:5 10:5 5:5 10:5 4:5 5:5
5:0 11:10 10:5 7:5 3:5 10:5 5:5 10:5 4:5 5:5 10:5
11:0 10:5 7:5 3:5 10:5 5:5 10:5 4:5 5:5 10:5 5:5
10:0 7:5 3:5 10:5 5:5 10:5 4:5 5:5 10:5 5:5 10:5
7:0 3:5 10:5 5:5 10:5 4:5 5:5 10:5 5:5 10:5 4:5
3:0 10:5 5:5 10:5 4:5 5:5 10:5 5:5 10:5 4:5 8:5
10:0 5:5 10:5 4:5 5:5 10:5 5:5 10:5 4:5 8:5 11:5
5:0 10:5 4:5 5:5 10:5 5:5 10:5 4:5 8:5 11:5 10:5
10:0 4:5 5:5 10:5 5:5 10:5 4:5 8:5 11:5 10:5 4:10
4:0 5:5 10:5 5:5 10:5 4:5 8:5 11:5 10:5 4:10 10:5
5:0 10:5 5:5 10:5 4:5 8:5 11:5 10:5 4:10 10:5 7:5
10:0 5:5 10:5 4:5 8:5 11:5 10:5 4:10 10:5 7:5 10:5
5:0 10:5 4:5 8:5 11:5 10:5 4:10 10:5 7:5 10:5 3:10
10:0 4:5 8:5 11:5 10:5 4:10 10:5 7:5 10:5 3:10 5:5
4:0 8:5 11:5 10:5 4:10 10:5 7:5 10:5 3:10 5:5 10:5
8:0 11:5 10:5 4:10 10:5 7:5 10:5 3:10 5:5 10:5 8:5
11:0 10:5 4:10 10:5 7:5 10:5 3:10 5:5 10:5 8:5 10:5
10:0 4:10 10:5 7:5 10:5 3:10 5:5 10:5 8:5 10:5 2:5
4:0 10:5 7:5 10:5 3:10 5:5 10:5 8:5 10:5 2:5 10:5
10:0 7:5 10:5 3:10 5:5 10:5 8:5 10:5 2:5 10:5 7:10
7:0 10:5 3:10 5:5 10:5 8:5 10:5 2:5 10:5 7:10 10:5
10:0 3:10 5:5 10:5 8:5 10:5 2:5 10:5 7:10 10:5 2:5
3:0 5:5 10:5 8:5 10:5 2:5 10:5 7:10 10:5 2:5 10:5
5:0 10:5 8:5 10:5 2:5 10:5 7:10 10:5 2:5 10:5 8:5
10:0 8:5 10:5 2:5 10:5 7:10 10:5 2:5 10:5 8:5 10:5
8:0 10:5 2:5 10:5 7:10 10:5 2:5 10:5 8:5 10:5 5:5
10:0 2:5 10:5 7:10 10:5 2:5 10:5 8:5 10:5 5:5 8:5
2:0 10:5 7:10 10:5 2:5 10:5 8:5 10:5 5:5 8:5 4:5
10:0 7:10 10:5 2:5 10:5 8:5 10:5 5:5 8:5 4:5 10:5
7:0 10:5 2:5 10:5 8:5 10:5 5:5 8:5 4:5 10:5 4:10
10:0 2:5 10:5 8:5 10:5 5:5 8:5 4:5 10:5 4:10 7:5
2:0 10:5 8:5 10:5 5:5 8:5 4:5 10:5 4:10 7:5 10:5
10:0 8:5 10:5 5:5 8:5 4:5 10:5 4:10 7:5 10:5 7:5
8:0 10:5 5:5 8:5 4:5 10:5 4:10 7:5 10:5 7:5 10:5
10:0 5:5 8:5 4:5 10:5 4:10 7:5 10:5 7:5 10:5 3:5
5:0 8:5 4:5 10:5 4:10 7:5 10:5 7:5 10:5 3:5 5:5
8:0 4:5 10:5 4:10 7:5 10:5 7:5 10:5 3:5 5:5 10:5
4:0 10:5 4:10 7:5 10:5 7:5 10:5 3:5 5:5 10:5 2:15
10:0 4:10 7:5 10:5 7:5 10:5 3:5 5:5 10:5 2:15 7:5
4:0 7:5 10:5 7:5 10:5 3:5 5:5 10:5 2:15 7:5 5:5
7:0 10:5 7:5 10:5 3:5 5:5 10:5 2:15 7:5 5:5 10:5
10:0 7:5 10:5 3:5 5:5 10:5 2:15 7:5 5:5 10:5 7:5
7:0 10:5 3:5 5:5 10:5 2:15 7:5 5:5 10:5 7:5 3:5
10:0 3:5 5:5 10:5 2:15 7:5 5:5 10:5 7:5 3:5 10:5
3:0 5:5 10:5 2:15 7:5 5:5 10:5 7:5 3:5 10:5 8:5
5:0 10:5 2:15 7:5 5:5 10:5 7:5 3:5 10:5 8:5 10:5
10:0 2:15 7:5 5:5 10:5 7:5 3:5 10:5 8:5 10:5 4:5
2:0 7:5 5:5 10:5 7:5 3:5 10:5 8:5 10:5 4:5 10:10
7:0 5:5 10:5 7:5 3:5 10:5 8:5 10:5 4:5 10:10 8:5
5:0 10:5 7:5 3:5 10:5 8:5 10:5 4:5 10:10 8:5 10:5
10:0 7:5 3:5 10:5 8:5 10:5 4:5 10:10 8:5 10:5 4:5
7:0 3:5 10:5 8:5 10:5 4:5 10:10 8:5 10:5 4:5 5:5
3:0 10:5 8:5 10:5 4:5 10:10 8:5 10:5 4:5 5:5 11:5
10:0 8:5 10:5 4:5 10:10 8:5 10:5 4:5 5:5 11:5 5:5
8:0 10:5 4:5 10:10 8:5 10:5 4:5 5:5 11:5 5:5 10:5
10:0 4:5 10:10 8:5 10:5 4:5 5:5 11:5 5:5 10:5 5:5
4:0 10:10 8:5 10:5 4:5 5:5 11:5 5:5 10:5 5:5 10:5
10:0 8:5 10:5 4:5 5:5 11:5 5:5 10:5 5:5 10:5 7:5
8:0 10:5 4:5 5:5 11:5 5:5 10:5 5:5 10:5 7:5 10:10
10:0 4:5 5:5 11:5 5:5 10:5 5:5 10:5 7:5 10:10 5:5
4:0 5:5 11:5 5:5 10:5 5:5 10:5 7:5 10:10 5:5 10:5
5:0 11:5 5:5 10:5 5:5 10:5 7:5 10:10 5:5 10:5 5:5
11:0 5:5 10:5 5:5 10:5 7:5 10:10 5:5 10:5 5:5 10:5
5:0 10:5 5:5 10:5 7:5 10:10 5:5 10:5 5:5 10:5 4:5
10:0 5:5 10:5 7:5 10:10 5:5 10:5 5:5 10:5 4:5 5:5
5:0 10:5 7:5 10:10 5:5 10:5 5:5 10:5 4:5 5:5 10:5
10:0 7:5 10:10 5:5 10:5 5:5 10:5 4:5 5:5 10:5 4:15
7:0 10:10 5:5 10:5 5:5 10:5 4:5 5:5 10:5 4:15 7:5
10:0 5:5 10:5 5:5 10:5 4:5 5:5 10:5 4:15 7:5 10:5
5:0 10:5 5:5 10:5 4:5 5:5 10:5 4:15 7:5 10:5 7:5
10:0 5:5 10:5 4:5 5:5 10:5 4:15 7:5 10:5 7:5 10:5
5:0 10:5 4:5 5:5 10:5 4:15 7:5 10:5 7:5 10:5 4:5
10:0 4:5 5:5 10:5 4:15 7:5 10:5 7:5 10:5 4:5 8:5
4:0 5:5 10:5 4:15 7:5 10:5 7:5 10:5 4:5 8:5 7:5
5:0 10:5 4:15 7:5 10:5 7:5 10:5 4:5 8:5 7:5 8:5
10:0 4:15 7:5 10:5 7:5 10:5 4:5 8:5 7:5 8:5 10:5
4:0 7:5 10:5 7:5 10:5 4:5 8:5 7:5 8:5 10:5 2:5
7:0 10:5 7:5 10:5 4:5 8:5 7:5 8:5 10:5 2:5 10:5
10:0 7:5 10:5 4:5 8:5 7:5 8:5 10:5 2:5 10:5 7:5
7:0 10:5 4:5 8:5 7:5 8:5 10:5 2:5 10:5 7:5 10:10
10:0 4:5 8:5 7:5 8:5 10:5 2:5 10:5 7:5 10:10 3:5
4:0 8:5 7:5 8:5 10:5 2:5 10:5 7:5 10:10 3:5 8:5
8:0 7:5 8:5 10:5 2:5 10:5 7:5 10:10 3:5 8:5 7:5
7:0 8:5 10:5 2:5 10:5 7:5 10:10 3:5 8:5 7:5 11:5
8:0 10:5 2:5 10:5 7:5 10:10 3:5 8:5 7:5 11:5 7:5
10:0 2:5 10:5 7:5 10:10 3:5 8:5 7:5 11:5 7:5 3:5
2:0 10:5 7:5 10:10 3:5 8:5 7:5 11:5 7:5 3:5 7:5
10:0 7:5 10:10 3:5 8:5 7:5 11:5 7:5 3:5 7:5 10:5
7:0 10:10 3:5 8:5 7:5 11:5 7:5 3:5 7:5 10:5 5:10
10:0 3:5 8:5 7:5 11:5 7:5 3:5 7:5 10:5 5:10 10:10
3:0 8:5 7:5 11:5 7:5 3:5 7:5 10:5 5:10 10:10 5:5
8:0 7:5 11:5 7:5 3:5 7:5 10:5 5:10 10:10 5:5 10:5
7:0 11:5 7:5 3:5 7:5 10:5 5:10 10:10 5:5 10:5 2:5
11:0 7:5 3:5 7:5 10:5 5:10 10:10 5:5 10:5 2:5 8:5
7:0 3:5 7:5 10:5 5:10 10:10 5:5 10:5 2:5 8:5 10:5
3:0 7:5 10:5 5:10 10:10 5:5 10:5 2:5 8:5 10:5 11:5
7:0 10:5 5:10 10:10 5:5 10:5 2:5 8:5 10:5 11:5 10:5
10:0 5:10 10:10 5:5 10:5 2:5 8:5 10:5 11:5 10:5 5:5
5:0 10:10 5:5 10:5 2:5 8:5 10:5 11:5 10:5 5:5 10:5
10:0 5:5 10:5 2:5 8:5 10:5 11:5 10:5 5:5 10:5 8:5
5:0 10:5 2:5 8:5 10:5 11:5 10:5 5:5 10:5 8:5 10:5
10:0 2:5 8:5 10:5 11:5 10:5 5:5 10:5 8:5 10:5 3:10
2:0 8:5 10:5 11:5 10:5 5:5 10:5 8:5 10:5 3:10 7:5
8:0 10:5 11:5 10:5 5:5 10:5 8:5 10:5 3:10 7:5 5:5
10:0 11:5 10:5 5:5 10:5 8:5 10:5 3:10 7:5 5:5 10:5
11:0 10:5 5:5 10:5 8:5 10:5 3:10 7:5 5:5 10:5 3:10
10:0 5:5 10:5 8:5 10:5 3:10 7:5 5:5 10:5 3:10 10:5
5:0 10:5 8:5 10:5 3:10 7:5 5:5 10:5 3:10 10:5 8:5
10:0 8:5 10:5 3:10 7:5 5:5 10:5 3:10 10:5 8:5 10:5
8:0 10:5 3:10 7:5 5:5 10:5 3:10 10:5 8:5 10:5 4:5
10:0 3:10 7:5 5:5 10:5 3:10 10:5 8:5 10:5 4:5 7:5
3:0 7:5 5:5 10:5 3:10 10:5 8:5 10:5 4:5 7:5 10:5
7:0 5:5 10:5 3:10 10:5 8:5 10:5 4:5 7:5 10:5 7:5
5:0 10:5 3:10 10:5 8:5 10:5 4:5 7:5 10:5 7:5 10:5
10:0 3:10 10:5 8:5 10:5 4:5 7:5 10:5 7:5 10:5 4:5
3:0 10:5 8:5 10:5 4:5 7:5 10:5 7:5 10:5 4:5 7:5
10:0 8:5 10:5 4:5 7:5 10:5 7:5 10:5 4:5 7:5 8:5
8:0 10:5 4:5 7:5 10:5 7:5 10:5 4:5 7:5 8:5 10:5
10:0 4:5 7:5 10:5 7:5 10:5 4:5 7:5 8:5 10:5 3:10
4:0 7:5 10:5 7:5 10:5 4:5 7:5 8:5 10:5 3:10 8:5
7:0 10:5 7:5 10:5 4:5 7:5 8:5 10:5 3:10 8:5 7:5
10:0 7:5 10:5 4:5 7:5 8:5 10:5 3:10 8:5 7:5 8:5
7:0 10:5 4:5 7:5 8:5 10:5 3:10 8:5 7:5 8:5 10:5
10:0 4:5 7:5 8:5 10:5 3:10 8:5 7:5 8:5 10:5 3:5
4:0 7:5 8:5 10:5 3:10 8:5 7:5 8:5 10:5 3:5 5:5
7:0 8:5 10:5 3:10 8:5 7:5 8:5 10:5 3:5 5:5 10:5
8:0 10:5 3:10 8:5 7:5 8:5 10:5 3:5 5:5 10:5 7:10
10:0 3:10 8:5 7:5 8:5 10:5 3:5 5:5 10:5 7:10 5:5
3:0 8:5 7:5 8:5 10:5 3:5 5:5 10:5 7:10 5:5 10:5
8:0 7:5 8:5 10:5 3:5 5:5 10:5 7:10 5:5 10:5 8:5
7:0 8:5 10:5 3:5 5:5 10:5 7:10 5:5 10:5 8:5 10:5
8:0 10:5 3:5 5:5 10:5 7:10 5:5 10:5 8:5 10:5 4:5
10:0 3:5 5:5 10:5 7:10 5:5 10:5 8:5 10:5 4:5 2:5
3:0 5:5 10:5 7:10 5:5 10:5 8:5 10:5 4:5 2:5 11:5
5:0 10:5 7:10 5:5 10:5 8:5 10:5 4:5 2:5 11:5 10:5
10:0 7:10 5:5 10:5 8:5 10:5 4:5 2:5 11:5 10:5 5:10
7:0 5:5 10:5 8:5 10:5 4:5 2:5 11:5 10:5 5:10 10:10
5:0 10:5 8:5 10:5 4:5 2:5 11:5 10:5 5:10 10:10 5:5
10:0 8:5 10:5 4:5 2:5 11:5 10:5 5:10 10:10 5:5 10:5
8:0 10:5 4:5 2:5 11:5 10:5 5:10 10:10 5:5 10:5 3:5
10:0 4:5 2:5 11:5 10:5 5:10 10:10 5:5 10:5 3:5 7:5
4:0 2:5 11:5 10:5 5:10 10:10 5:5 10:5 3:5 7:5 10:5
2:0 11:5 10:5 5:10 10:10 5:5 10:5 3:5 7:5 10:5 3:15
11:0 10:5 5:10 10:10 5:5 10:5 3:5 7:5 10:5 3:15 8:5
10:0 5:10 10:10 5:5 10:5 3:5 7:5 10:5 3:15 8:5 7:5
5:0 10:10 5:5 10:5 3:5 7:5 10:5 3:15 8:5 7:5 10:5
10:0 5:5 10:5 3:5 7:5 10:5 3:15 8:5 7:5 10:5 7:5
5:0 10:5 3:5 7:5 10:5 3:15 8:5 7:5 10:5 7:5 3:5
10:0 3:5 7:5 10:5 3:15 8:5 7:5 10:5 7:5 3:5 7:5
3:0 7:5 10:5 3:15 8:5 7:5 10:5 7:5 3:5 7:5 10:10
7:0 10:5 3:15 8:5 7:5 10:5 7:5 3:5 7:5 10:10 7:5
10:0 3:15 8:5 7:5 10:5 7:5 3:5 7:5 10:10 7:5 10:15
3:0 8:5 7:5 10:5 7:5 3:5 7:5 10:10 7:5 10:15 4:10
8:0 7:5 10:5 7:5 3:5 7:5 10:10 7:5 10:15 4:10 5:5
7:0 10:5 7:5 3:5 7:5 10:10 7:5 10:15 4:10 5:5 7:5
10:0 7:5 3:5 7:5 10:10 7:5 10:15 4:10 5:5 7:5 10:10
7:0 3:5 7:5 10:10 7:5 10:15 4:10 5:5 7:5 10:10 5:5
3:0 7:5 10:10 7:5 10:15 4:10 5:5 7:5 10:10 5:5 10:5
7:0 10:10 7:5 10:15 4:10 5:5 7:5 10:10 5:5 10:5 8:5
10:0 7:5 10:15 4:10 5:5 7:5 10:10 5:5 10:5 8:5 10:5
7:0 10:15 4:10 5:5 7:5 10:10 5:5 10:5 8:5 10:5 4:10
10:0 4:10 5:5 7:5 10:10 5:5 10:5 8:5 10:5 4:10 7:5
4:0 5:5 7:5 10:10 5:5 10:5 8:5 10:5 4:10 7:5 10:15
5:0 7:5 10:10 5:5 10:5 8:5 10:5 4:10 7:5 10:15 3:5
7:0 10:10 5:5 10:5 8:5 10:5 4:10 7:5 10:15 3:5 7:5
10:0 5:5 10:5 8:5 10:5 4:10 7:5 10:15 3:5 7:5 10:5
5:0 10:5 8:5 10:5 4:10 7:5 10:15 3:5 7:5 10:5 5:5
10:0 8:5 10:5 4:10 7:5 10:15 3:5 7:5 10:5 5:5 10:5
8:0 10:5 4:10 7:5 10:15 3:5 7:5 10:5 5:5 10:5 3:5
10:0 4:10 7:5 10:15 3:5 7:5 10:5 5:5 10:5 3:5 10:5
4:0 7:5 10:15 3:5 7:5 10:5 5:5 10:5 3:5 10:5 8:5
7:0 10:15 3:5 7:5 10:5 5:5 10:5 3:5 10:5 8:5 10:10
10:0 3:5 7:5 10:5 5:5 10:5 3:5 10:5 8:5 10:10 5:5
3:0 7:5 10:5 5:5 10:5 3:5 10:5 8:5 10:10 5:5 10:5
7:0 10:5 5:5 10:5 3:5 10:5 8:5 10:10 5:5 10:5 5:5
10:0 5:5 10:5 3:5 10:5 8:5 10:10 5:5 10:5 5:5 10:5
5:0 10:5 3:5 10:5 8:5 10:10 5:5 10:5 5:5 10:5 5:5
10:0 3:5 10:5 8:5 10:10 5:5 10:5 5:5 10:5 5:5 10:10
3:0 10:5 8:5 10:10 5:5 10:5 5:5 10:5 5:5 10:10 7:10
10:0 8:5 10:10 5:5 10:5 5:5 10:5 5:5 10:10 7:10 3:5
8:0 10:10 5:5 10:5 5:5 10:5 5:5 10:10 7:10 3:5 10:5
10:0 5:5 10:5 5:5 10:5 5:5 10:10 7:10 3:5 10:5 8:5
5:0 10:5 5:5 10:5 5:5 10:10 7:10 3:5 10:5 8:5 10:5
10:0 5:5 10:5 5:5 10:10 7:10 3:5 10:5 8:5 10:5 3:10
5:0 10:5 5:5 10:10 7:10 3:5 10:5 8:5 10:5 3:10 7:5
10:0 5:5 10:10 7:10 3:5 10:5 8:5 10:5 3:10 7:5 10:5
5:0 10:10 7:10 3:5 10:5 8:5 10:5 3:10 7:5 10:5 8:5
10:0 7:10 3:5 10:5 8:5 10:5 3:10 7:5 10:5 8:5 10:5
7:0 3:5 10:5 8:5 10:5 3:10 7:5 10:5 8:5 10:5 5:5
3:0 10:5 8:5 10:5 3:10 7:5 10:5 8:5 10:5 5:5 7:5
10:0 8:5 10:5 3:10 7:5 10:5 8:5 10:5 5:5 7:5 8:5
8:0 10:5 3:10 7:5 10:5 8:5 10:5 5:5 7:5 8:5 10:5
10:0 3:10 7:5 10:5 8:5 10:5 5:5 7:5 8:5 10:5 7:5
3:0 7:5 10:5 8:5 10:5 5:5 7:5 8:5 10:5 7:5 5:5
7:0 10:5 8:5 10:5 5:5 7:5 8:5 10:5 7:5 5:5 10:5
10:0 8:5 10:5 5:5 7:5 8:5 10:5 7:5 5:5 10:5 4:5
8:0 10:5 5:5 7:5 8:5 10:5 7:5 5:5 10:5 4:5 10:5
10:0 5:5 7:5 8:5 10:5 7:5 5:5 10:5 4:5 10:5 4:5
5:0 7:5 8:5 10:5 7:5 5:5 10:5 4:5 10:5 4:5 5:5
7:0 8:5 10:5 7:5 5:5 10:5 4:5 10:5 4:5 5:5 10:5
8:0 10:5 7:5 5:5 10:5 4:5 10:5 4:5 5:5 10:5 8:5
10:0 7:5 5:5 10:5 4:5 10:5 4:5 5:5 10:5 8:5 10:5
7:0 5:5 10:5 4:5 10:5 4:5 5:5 10:5 8:5 10:5 4:5
5:0 10:5 4:5 10:5 4:5 5:5 10:5 8:5 10:5 4:5 5:5
10:0 4:5 10:5 4:5 5:5 10:5 8:5 10:5 4:5 5:5 7:5
4:0 10:5 4:5 5:5 10:5 8:5 10:5 4:5 5:5 7:5 8:5
10:0 4:5 5:5 10:5 8:5 10:5 4:5 5:5 7:5 8:5 10:5
4:0 5:5 10:5 8:5 10:5 4:5 5:5 7:5 8:5 10:5 3:5
5:0 10:5 8:5 10:5 4:5 5:5 7:5 8:5 10:5 3:5 5:5
10:0 8:5 10:5 4:5 5:5 7:5 8:5 10:5 3:5 5:5 10:5
8:0 10:5 4:5 5:5 7:5 8:5 10:5 3:5 5:5 10:5 2:15
10:0 4:5 5:5 7:5 8:5 10:5 3:5 5:5 10:5 2:15 10:5
4:0 5:5 7:5 8:5 10:5 3:5 5:5 10:5 2:15 10:5 5:5
5:0 7:5 8:5 10:5 3:5 5:5 10:5 2:15 10:5 5:5 10:5
7:0 8:5 10:5 3:5 5:5 10:5 2:15 10:5 5:5 10:5 8:5
8:0 10:5 3:5 5:5 10:5 2:15 10:5 5:5 10:5 8:5 5:5
10:0 3:5 5:5 10:5 2:15 10:5 5:5 10:5 8:5 5:5 11:5
3:0 5:5 10:5 2:15 10:5 5:5 10:5 8:5 5:5 11:5 7:5
5:0 10:5 2:15 10:5 5:5 10:5 8:5 5:5 11:5 7:5 10:5
10:0 2:15 10:5 5:5 10:5 8:5 5:5 11:5 7:5 10:5 5:5
2:0 10:5 5:5 10:5 8:5 5:5 11:5 7:5 10:5 5:5 7:5
10:0 5:5 10:5 8:5 5:5 11:5 7:5 10:5 5:5 7:5 10:5
5:0 10:5 8:5 5:5 11:5 7:5 10:5 5:5 7:5 10:5 5:15
10:0 8:5 5:5 11:5 7:5 10:5 5:5 7:5 10:5 5:15 4:5
8:0 5:5 11:5 7:5 10:5 5:5 7:5 10:5 5:15 4:5 8:5
5:0 11:5 7:5 10:5 5:5 7:5 10:5 5:15 4:5 8:5 10:5
11:0 7:5 10:5 5:5 7:5 10:5 5:15 4:5 8:5 10:5 3:10
7:0 10:5 5:5 7:5 10:5 5:15 4:5 8:5 10:5 3:10 8:5
10:0 5:5 7:5 10:5 5:15 4:5 8:5 10:5 3:10 8:5 10:5
5:0 7:5 10:5 5:15 4:5 8:5 10:5 3:10 8:5 10:5 5:5
7:0 10:5 5:15 4:5 8:5 10:5 3:10 8:5 10:5 5:5 10:5
10:0 5:15 4:5 8:5 10:5 3:10 8:5 10:5 5:5 10:5 5:5
5:0 4:5 8:5 10:5 3:10 8:5 10:5 5:5 10:5 5:5 7:5
4:0 8:5 10:5 3:10 8:5 10:5 5:5 10:5 5:5 7:5 8:5
8:0 10:5 3:10 8:5 10:5 5:5 10:5 5:5 7:5 8:5 10:5
10:0 3:10 8:5 10:5 5:5 10:5 5:5 7:5 8:5 10:5 7:5
3:0 8:5 10:5 5:5 10:5 5:5 7:5 8:5 10:5 7:5 5:5
8:0 10:5 5:5 10:5 5:5 7:5 8:5 10:5 7:5 5:5 10:5
10:0 5:5 10:5 5:5 7:5 8:5 10:5 7:5 5:5 10:5 4:15
5:0 10:5 5:5 7:5 8:5 10:5 7:5 5:5 10:5 4:15 10:5
10:0 5:5 7:5 8:5 10:5 7:5 5:5 10:5 4:15 10:5 4:5
5:0 7:5 8:5 10:5 7:5 5:5 10:5 4:15 10:5 4:5 10:5
7:0 8:5 10:5 7:5 5:5 10:5 4:15 10:5 4:5 10:5 5:10
8:0 10:5 7:5 5:5 10:5 4:15 10:5 4:5 10:5 5:10 10:5
10:0 7:5 5:5 10:5 4:15 10:5 4:5 10:5 5:10 10:5 7:5
7:0 5:5 10:5 4:15 10:5 4:5 10:5 5:10 10:5 7:5 10:10
5:0 10:5 4:15 10:5 4:5 10:5 5:10 10:5 7:5 10:10 5:5
10:0 4:15 10:5 4:5 10:5 5:10 10:5 7:5 10:10 5:5 10:5
4:0 10:5 4:5 10:5 5:10 10:5 7:5 10:10 5:5 10:5 7:5
10:0 4:5 10:5 5:10 10:5 7:5 10:10 5:5 10:5 7:5 10:5
4:0 10:5 5:10 10:5 7:5 10:10 5:5 10:5 7:5 10:5 5:10
10:0 5:10 10:5 7:5 10:10 5:5 10:5 7:5 10:5 5:10 10:5
5:0 10:5 7:5 10:10 5:5 10:5 7:5 10:5 5:10 10:5 5:5
10:0 7:5 10:10 5:5 10:5 7:5 10:5 5:10 10:5 5:5 10:5
7:0 10:10 5:5 10:5 7:5 10:5 5:10 10:5 5:5 10:5 5:5
10:0 5:5 10:5 7:5 10:5 5:10 10:5 5:5 10:5 5:5 7:5
5:0 10:5 7:5 10:5 5:10 10:5 5:5 10:5 5:5 7:5 10:5
10:0 7:5 10:5 5:10 10:5 5:5 10:5 5:5 7:5 10:5 7:5
7:0 10:5 5:10 10:5 5:5 10:5 5:5 7:5 10:5 7:5 10:5
10:0 5:10 10:5 5:5 10:5 5:5 7:5 10:5 7:5 10:5 4:5
5:0 10:5 5:5 10:5 5:5 7:5 10:5 7:5 10:5 4:5 5:5
10:0 5:5 10:5 5:5 7:5 10:5 7:5 10:5 4:5 5:5 10:5
5:0 10:5 5:5 7:5 10:5 7:5 10:5 4:5 5:5 10:5 8:5
10:0 5:5 7:5 10:5 7:5 10:5 4:5 5:5 10:5 8:5 10:5
5:0 7:5 10:5 7:5 10:5 4:5 5:5 10:5 8:5 10:5 2:5
7:0 10:5 7:5 10:5 4:5 5:5 10:5 8:5 10:5 2:5 10:5
10:0 7:5 10:5 4:5 5:5 10:5 8:5 10:5 2:5 10:5 8:5
7:0 10:5 4:5 5:5 10:5 8:5 10:5 2:5 10:5 8:5 10:5
10:0 4:5 5:5 10:5 8:5 10:5 2:5 10:5 8:5 10:5 2:10
4:0 5:5 10:5 8:5 10:5 2:5 10:5 8:5 10:5 2:10 10:5
5:0 10:5 8:5 10:5 2:5 10:5 8:5 10:5 2:10 10:5 5:5
10:0 8:5 10:5 2:5 10:5 8:5 10:5 2:10 10:5 5:5 10:5
8:0 10:5 2:5 10:5 8:5 10:5 2:10 10:5 5:5 10:5 7:5
10:0 2:5 10:5 8:5 10:5 2:10 10:5 5:5 10:5 7:5 8:10
2:0 10:5 8:5 10:5 2:10 10:5 5:5 10:5 7:5 8:10 7:5
10:0 8:5 10:5 2:10 10:5 5:5 10:5 7:5 8:10 7:5 8:5
8:0 10:5 2:10 10:5 5:5 10:5 7:5 8:10 7:5 8:5 10:5
10:0 2:10 10:5 5:5 10:5 7:5 8:10 7:5 8:5 10:5 5:5
2:0 10:5 5:5 10:5 7:5 8:10 7:5 8:5 10:5 5:5 7:5
10:0 5:5 10:5 7:5 8:10 7:5 8:5 10:5 5:5 7:5 10:5
5:0 10:5 7:5 8:10 7:5 8:5 10:5 5:5 7:5 10:5 8:5
10:0 7:5 8:10 7:5 8:5 10:5 5:5 7:5 10:5 8:5 7:10
7:0 8:10 7:5 8:5 10:5 5:5 7:5 10:5 8:5 7:10 10:10
8:0 7:5 8:5 10:5 5:5 7:5 10:5 8:5 7:10 10:10 8:5
7:0 8:5 10:5 5:5 7:5 10:5 8:5 7:10 10:10 8:5 4:5
8:0 10:5 5:5 7:5 10:5 8:5 7:10 10:10 8:5 4:5 7:5
10:0 5:5 7:5 10:5 8:5 7:10 10:10 8:5 4:5 7:5 10:5
5:0 7:5 10:5 8:5 7:10 10:10 8:5 4:5 7:5 10:5 4:5
7:0 10:5 8:5 7:10 10:10 8:5 4:5 7:5 10:5 4:5 10:5
10:0 8:5 7:10 10:10 8:5 4:5 7:5 10:5 4:5 10:5 3:5
8:0 7:10 10:10 8:5 4:5 7:5 10:5 4:5 10:5 3:5 7:5
7:0 10:10 8:5 4:5 7:5 10:5 4:5 10:5 3:5 7:5 8:5
10:0 8:5 4:5 7:5 10:5 4:5 10:5 3:5 7:5 8:5 10:5
8:0 4:5 7:5 10:5 4:5 10:5 3:5 7:5 8:5 10:5 6:5
4:0 7:5 10:5 4:5 10:5 3:5 7:5 8:5 10:5 6:5 3:5
7:0 10:5 4:5 10:5 3:5 7:5 8:5 10:5 6:5 3:5 8:5
10:0 4:5 10:5 3:5 7:5 8:5 10:5 6:5 3:5 8:5 11:5
4:0 10:5 3:5 7:5 8:5 10:5 6:5 3:5 8:5 11:5 10:5
10:0 3:5 7:5 8:5 10:5 6:5 3:5 8:5 11:5 10:5 5:5
3:0 7:5 8:5 10:5 6:5 3:5 8:5 11:5 10:5 5:5 10:5
7:0 8:5 10:5 6:5 3:5 8:5 11:5 10:5 5:5 10:5 8:5
8:0 10:5 6:5 3:5 8:5 11:5 10:5 5:5 10:5 8:5 10:5
10:0 6:5 3:5 8:5 11:5 10:5 5:5 10:5 8:5 10:5 4:10
6:0 3:5 8:5 11:5 10:5 5:5 10:5 8:5 10:5 4:10 7:5
3:0 8:5 11:5 10:5 5:5 10:5 8:5 10:5 4:10 7:5 10:5
8:0 11:5 10:5 5:5 10:5 8:5 10:5 4:10 7:5 10:5 8:5
11:0 10:5 5:5 10:5 8:5 10:5 4:10 7:5 10:5 8:5 10:5
10:0 5:5 10:5 8:5 10:5 4:10 7:5 10:5 8:5 10:5 5:5
5:0 10:5 8:5 10:5 4:10 7:5 10:5 8:5 10:5 5:5 8:10
10:0 8:5 10:5 4:10 7:5 10:5 8:5 10:5 5:5 8:10 7:5
8:0 10:5 4:10 7:5 10:5 8:5 10:5 5:5 8:10 7:5 10:5
10:0 4:10 7:5 10:5 8:5 10:5 5:5 8:10 7:5 10:5 5:5
4:0 7:5 10:5 8:5 10:5 5:5 8:10 7:5 10:5 5:5 7:5
7:0 10:5 8:5 10:5 5:5 8:10 7:5 10:5 5:5 7:5 10:5
10:0 8:5 10:5 5:5 8:10 7:5 10:5 5:5 7:5 10:5 7:5
8:0 10:5 5:5 8:10 7:5 10:5 5:5 7:5 10:5 7:5 10:5
10:0 5:5 8:10 7:5 10:5 5:5 7:5 10:5 7:5 10:5 5:5
5:0 8:10 7:5 10:5 5:5 7:5 10:5 7:5 10:5 5:5 10:5
8:0 7:5 10:5 5:5 7:5 10:5 7:5 10:5 5:5 10:5 7:5
7:0 10:5 5:5 7:5 10:5 7:5 10:5 5:5 10:5 7:5 10:5
10:0 5:5 7:5 10:5 7:5 10:5 5:5 10:5 7:5 10:5 5:5
5:0 7:5 10:5 7:5 10:5 5:5 10:5 7:5 10:5 5:5 7:5
7:0 10:5 7:5 10:5 5:5 10:5 7:5 10:5 5:5 7:5 10:5
10:0 7:5 10:5 5:5 10:5 7:5 10:5 5:5 7:5 10:5 7:5
7:0 10:5 5:5 10:5 7:5 10:5 5:5 7:5 10:5 7:5 11:5
10:0 5:5 10:5 7:5 10:5 5:5 7:5 10:5 7:5 11:5 4:5
5:0 10:5 7:5 10:5 5:5 7:5 10:5 7:5 11:5 4:5 7:5
10:0 7:5 10:5 5:5 7:5 10:5 7:5 11:5 4:5 7:5 10:10
7:0 10:5 5:5 7:5 10:5 7:5 11:5 4:5 7:5 10:10 4:10
10:0 5:5 7:5 10:5 7:5 11:5 4:5 7:5 10:10 4:10 7:5
5:0 7:5 10:5 7:5 11:5 4:5 7:5 10:10 4:10 7:5 10:5
7:0 10:5 7:5 11:5 4:5 7:5 10:10 4:10 7:5 10:5 7:5
10:0 7:5 11:5 4:5 7:5 10:10 4:10 7:5 10:5 7:5 10:5
7:0 11:5 4:5 7:5 10:10 4:10 7:5 10:5 7:5 10:5 3:5
11:0 4:5 7:5 10:10 4:10 7:5 10:5 7:5 10:5 3:5 10:5
4:0 7:5 10:10 4:10 7:5 10:5 7:5 10:5 3:5 10:5 5:5
7:0 10:10 4:10 7:5 10:5 7:5 10:5 3:5 10:5 5:5 10:5
10:0 4:10 7:5 10:5 7:5 10:5 3:5 10:5 5:5 10:5 5:10
4:0 7:5 10:5 7:5 10:5 3:5 10:5 5:5 10:5 5:10 7:5
7:0 10:5 7:5 10:5 3:5 10:5 5:5 10:5 5:10 7:5 10:5
10:0 7:5 10:5 3:5 10:5 5:5 10:5 5:10 7:5 10:5 8:5
7:0 10:5 3:5 10:5 5:5 10:5 5:10 7:5 10:5 8:5 10:5
10:0 3:5 10:5 5:5 10:5 5:10 7:5 10:5 8:5 10:5 5:5
3:0 10:5 5:5 10:5 5:10 7:5 10:5 8:5 10:5 5:5 10:5
10:0 5:5 10:5 5:10 7:5 10:5 8:5 10:5 5:5 10:5 7:5
5:0 10:5 5:10 7:5 10:5 8:5 10:5 5:5 10:5 7:5 10:5
10:0 5:10 7:5 10:5 8:5 10:5 5:5 10:5 7:5 10:5 5:5
5:0 7:5 10:5 8:5 10:5 5:5 10:5 7:5 10:5 5:5 7:5
7:0 10:5 8:5 10:5 5:5 10:5 7:5 10:5 5:5 7:5 10:5
10:0 8:5 10:5 5:5 10:5 7:5 10:5 5:5 7:5 10:5 4:5
8:0 10:5 5:5 10:5 7:5 10:5 5:5 7:5 10:5 4:5 10:5
10:0 5:5 10:5 7:5 10:5 5:5 7:5 10:5 4:5 10:5 4:5
5:0 10:5 7:5 10:5 5:5 7:5 10:5 4:5 10:5 4:5 10:5
10:0 7:5 10:5 5:5 7:5 10:5 4:5 10:5 4:5 10:5 7:5
7:0 10:5 5:5 7:5 10:5 4:5 10:5 4:5 10:5 7:5 5:5
10:0 5:5 7:5 10:5 4:5 10:5 4:5 10:5 7:5 5:5 8:5
5:0 7:5 10:5 4:5 10:5 4:5 10:5 7:5 5:5 8:5 3:5
7:0 10:5 4:5 10:5 4:5 10:5 7:5 5:5 8:5 3:5 7:5
10:0 4:5 10:5 4:5 10:5 7:5 5:5 8:5 3:5 7:5 11:5
4:0 10:5 4:5 10:5 7:5 5:5 8:5 3:5 7:5 11:5 10:5
10:0 4:5 10:5 7:5 5:5 8:5 3:5 7:5 11:5 10:5 7:5
4:0 10:5 7:5 5:5 8:5 3:5 7:5 11:5 10:5 7:5 8:10
10:0 7:5 5:5 8:5 3:5 7:5 11:5 10:5 7:5 8:10 10:5
7:0 5:5 8:5 3:5 7:5 11:5 10:5 7:5 8:10 10:5 7:5
5:0 8:5 3:5 7:5 11:5 10:5 7:5 8:10 10:5 7:5 10:5
8:0 3:5 7:5 11:5 10:5 7:5 8:10 10:5 7:5 10:5 5:5
3:0 7:5 11:5 10:5 7:5 8:10 10:5 7:5 10:5 5:5 10:5
7:0 11:5 10:5 7:5 8:10 10:5 7:5 10:5 5:5 10:5 7:5
11:0 10:5 7:5 8:10 10:5 7:5 10:5 5:5 10:5 7:5 10:5
10:0 7:5 8:10 10:5 7:5 10:5 5:5 10:5 7:5 10:5 4:5
7:0 8:10 10:5 7:5 10:5 5:5 10:5 7:5 10:5 4:5 7:5
8:0 10:5 7:5 10:5 5:5 10:5 7:5 10:5 4:5 7:5 8:5
10:0 7:5 10:5 5:5 10:5 7:5 10:5 4:5 7:5 8:5 10:5
7:0 10:5 5:5 10:5 7:5 10:5 4:5 7:5 8:5 10:5 5:10
10:0 5:5 10:5 7:5 10:5 4:5 7:5 8:5 10:5 5:10 7:5
5:0 10:5 7:5 10:5 4:5 7:5 8:5 10:5 5:10 7:5 10:5
10:0 7:5 10:5 4:5 7:5 8:5 10:5 5:10 7:5 10:5 7:5
7:0 10:5 4:5 7:5 8:5 10:5 5:10 7:5 10:5 7:5 10:5
10:0 4:5 7:5 8:5 10:5 5:10 7:5 10:5 7:5 10:5 5:5
4:0 7:5 8:5 10:5 5:10 7:5 10:5 7:5 10:5 5:5 8:5
7:0 8:5 10:5 5:10 7:5 10:5 7:5 10:5 5:5 8:5 10:5
8:0 10:5 5:10 7:5 10:5 7:5 10:5 5:5 8:5 10:5 7:5
10:0 5:10 7:5 10:5 7:5 10:5 5:5 8:5 10:5 7:5 10:5
5:0 7:5 10:5 7:5 10:5 5:5 8:5 10:5 7:5 10:5 5:5
7:0 10:5 7:5 10:5 5:5 8:5 10:5 7:5 10:5 5:5 7:5
10:0 7:5 10:5 5:5 8:5 10:5 7:5 10:5 5:5 7:5 8:5
7:0 10:5 5:5 8:5 10:5 7:5 10:5 5:5 7:5 8:5 7:10
10:0 5:5 8:5 10:5 7:5 10:5 5:5 7:5 8:5 7:10 10:15
5:0 8:5 10:5 7:5 10:5 5:5 7:5 8:5 7:10 10:15 4:10
8:0 10:5 7:5 10:5 5:5 7:5 8:5 7:10 10:15 4:10 7:5
10:0 7:5 10:5 5:5 7:5 8:5 7:10 10:15 4:10 7:5 11:5
7:0 10:5 5:5 7:5 8:5 7:10 10:15 4:10 7:5 11:5 7:5
10:0 5:5 7:5 8:5 7:10 10:15 4:10 7:5 11:5 7:5 10:5
5:0 7:5 8:5 7:10 10:15 4:10 7:5 11:5 7:5 10:5 4:5
7:0 8:5 7:10 10:15 4:10 7:5 11:5 7:5 10:5 4:5 8:5
8:0 7:10 10:15 4:10 7:5 11:5 7:5 10:5 4:5 8:5 7:5
7:0 10:15 4:10 7:5 11:5 7:5 10:5 4:5 8:5 7:5 10:5
10:0 4:10 7:5 11:5 7:5 10:5 4:5 8:5 7:5 10:5 7:5
4:0 7:5 11:5 7:5 10:5 4:5 8:5 7:5 10:5 7:5 2:5
7:0 11:5 7:5 10:5 4:5 8:5 7:5 10:5 7:5 2:5 10:5
11:0 7:5 10:5 4:5 8:5 7:5 10:5 7:5 2:5 10:5 5:10
7:0 10:5 4:5 8:5 7:5 10:5 7:5 2:5 10:5 5:10 10:5
10:0 4:5 8:5 7:5 10:5 7:5 2:5 10:5 5:10 10:5 4:5
4:0 8:5 7:5 10:5 7:5 2:5 10:5 5:10 10:5 4:5 8:5
8:0 7:5 10:5 7:5 2:5 10:5 5:10 10:5 4:5 8:5 10:5
7:0 10:5 7:5 2:5 10:5 5:10 10:5 4:5 8:5 10:5 7:10
10:0 7:5 2:5 10:5 5:10 10:5 4:5 8:5 10:5 7:10 3:5
7:0 2:5 10:5 5:10 10:5 4:5 8:5 10:5 7:10 3:5 4:5
2:0 10:5 5:10 10:5 4:5 8:5 10:5 7:10 3:5 4:5 10:5
10:0 5:10 10:5 4:5 8:5 10:5 7:10 3:5 4:5 10:5 5:10
5:0 10:5 4:5 8:5 10:5 7:10 3:5 4:5 10:5 5:10 10:10
10:0 4:5 8:5 10:5 7:10 3:5 4:5 10:5 5:10 10:10 5:5
4:0 8:5 10:5 7:10 3:5 4:5 10:5 5:10 10:10 5:5 10:5
8:0 10:5 7:10 3:5 4:5 10:5 5:10 10:10 5:5 10:5 5:5
10:0 7:10 3:5 4:5 10:5 5:10 10:10 5:5 10:5 5:5 11:10
7:0 3:5 4:5 10:5 5:10 10:10 5:5 10:5 5:5 11:10 10:5
3:0 4:5 10:5 5:10 10:10 5:5 10:5 5:5 11:10 10:5 2:10
4:0 10:5 5:10 10:10 5:5 10:5 5:5 11:10 10:5 2:10 8:5
10:0 5:10 10:10 5:5 10:5 5:5 11:10 10:5 2:10 8:5 7:5
5:0 10:10 5:5 10:5 5:5 11:10 10:5 2:10 8:5 7:5 10:5
10:0 5:5 10:5 5:5 11:10 10:5 2:10 8:5 7:5 10:5 7:5
5:0 10:5 5:5 11:10 10:5 2:10 8:5 7:5 10:5 7:5 3:5
10:0 5:5 11:10 10:5 2:10 8:5 7:5 10:5 7:5 3:5 10:5
5:0 11:10 10:5 2:10 8:5 7:5 10:5 7:5 3:5 10:5 7:5
11:0 10:5 2:10 8:5 7:5 10:5 7:5 3:5 10:5 7:5 8:15
10:0 2:10 8:5 7:5 10:5 7:5 3:5 10:5 7:5 8:15 7:5
2:0 8:5 7:5 10:5 7:5 3:5 10:5 7:5 8:15 7:5 10:10
8:0 7:5 10:5 7:5 3:5 10:5 7:5 8:15 7:5 10:10 4:5
7:0 10:5 7:5 3:5 10:5 7:5 8:15 7:5 10:10 4:5 7:5
10:0 7:5 3:5 10:5 7:5 8:15 7:5 10:10 4:5 7:5 10:5
7:0 3:5 10:5 7:5 8:15 7:5 10:10 4:5 7:5 10:5 7:5
3:0 10:5 7:5 8:15 7:5 10:10 4:5 7:5 10:5 7:5 10:5
10:0 7:5 8:15 7:5 10:10 4:5 7:5 10:5 7:5 10:5 3:5
7:0 8:15 7:5 10:10 4:5 7:5 10:5 7:5 10:5 3:5 7:5
8:0 7:5 10:10 4:5 7:5 10:5 7:5 10:5 3:5 7:5 10:5
7:0 10:10 4:5 7:5 10:5 7:5 10:5 3:5 7:5 10:5 9:10
10:0 4:5 7:5 10:5 7:5 10:5 3:5 7:5 10:5 9:10 3:5
4:0 7:5 10:5 7:5 10:5 3:5 7:5 10:5 9:10 3:5 7:5
7:0 10:5 7:5 10:5 3:5 7:5 10:5 9:10 3:5 7:5 8:5
10:0 7:5 10:5 3:5 7:5 10:5 9:10 3:5 7:5 8:5 10:5
7:0 10:5 3:5 7:5 10:5 9:10 3:5 7:5 8:5 10:5 7:5
10:0 3:5 7:5 10:5 9:10 3:5 7:5 8:5 10:5 7:5 3:5
3:0 7:5 10:5 9:10 3:5 7:5 8:5 10:5 7:5 3:5 11:5
7:0 10:5 9:10 3:5 7:5 8:5 10:5 7:5 3:5 11:5 10:5
10:0 9:10 3:5 7:5 8:5 10:5 7:5 3:5 11:5 10:5 4:10
9:0 3:5 7:5 8:5 10:5 7:5 3:5 11:5 10:5 4:10 5:5
3:0 7:5 8:5 10:5 7:5 3:5 11:5 10:5 4:10 5:5 10:5
7:0 8:5 10:5 7:5 3:5 11:5 10:5 4:10 5:5 10:5 8:5
8:0 10:5 7:5 3:5 11:5 10:5 4:10 5:5 10:5 8:5 10:5
10:0 7:5 3:5 11:5 10:5 4:10 5:5 10:5 8:5 10:5 2:5
7:0 3:5 11:5 10:5 4:10 5:5 10:5 8:5 10:5 2:5 7:5
3:0 11:5 10:5 4:10 5:5 10:5 8:5 10:5 2:5 7:5 10:5
11:0 10:5 4:10 5:5 10:5 8:5 10:5 2:5 7:5 10:5 3:15
10:0 4:10 5:5 10:5 8:5 10:5 2:5 7:5 10:5 3:15 8:5
4:0 5:5 10:5 8:5 10:5 2:5 7:5 10:5 3:15 8:5 10:5
5:0 10:5 8:5 10:5 2:5 7:5 10:5 3:15 8:5 10:5 8:5
10:0 8:5 10:5 2:5 7:5 10:5 3:15 8:5 10:5 8:5 10:5
8:0 10:5 2:5 7:5 10:5 3:15 8:5 10:5 8:5 10:5 3:5
10:0 2:5 7:5 10:5 3:15 8:5 10:5 8:5 10:5 3:5 7:5
2:0 7:5 10:5 3:15 8:5 10:5 8:5 10:5 3:5 7:5 10:5
7:0 10:5 3:15 8:5 10:5 8:5 10:5 3:5 7:5 10:5 7:5
10:0 3:15 8:5 10:5 8:5 10:5 3:5 7:5 10:5 7:5 10:5
3:0 8:5 10:5 8:5 10:5 3:5 7:5 10:5 7:5 10:5 3:5
8:0 10:5 8:5 10:5 3:5 7:5 10:5 7:5 10:5 3:5 7:5
10:0 8:5 10:5 3:5 7:5 10:5 7:5 10:5 3:5 7:5 10:10
8:0 10:5 3:5 7:5 10:5 7:5 10:5 3:5 7:5 10:10 5:5
10:0 3:5 7:5 10:5 7:5 10:5 3:5 7:5 10:10 5:5 7:10
3:0 7:5 10:5 7:5 10:5 3:5 7:5 10:10 5:5 7:10 8:5
7:0 10:5 7:5 10:5 3:5 7:5 10:10 5:5 7:10 8:5 7:5
10:0 7:5 10:5 3:5 7:5 10:10 5:5 7:10 8:5 7:5 4:5
7:0 10:5 3:5 7:5 10:10 5:5 7:10 8:5 7:5 4:5 5:5
10:0 3:5 7:5 10:10 5:5 7:10 8:5 7:5 4:5 5:5 10:5
3:0 7:5 10:10 5:5 7:10 8:5 7:5 4:5 5:5 10:5 2:15
7:0 10:10 5:5 7:10 8:5 7:5 4:5 5:5 10:5 2:15 10:5
10:0 5:5 7:10 8:5 7:5 4:5 5:5 10:5 2:15 10:5 7:10
5:0 7:10 8:5 7:5 4:5 5:5 10:5 2:15 10:5 7:10 10:5
7:0 8:5 7:5 4:5 5:5 10:5 2:15 10:5 7:10 10:5 5:5
8:0 7:5 4:5 5:5 10:5 2:15 10:5 7:10 10:5 5:5 10:10
7:0 4:5 5:5 10:5 2:15 10:5 7:10 10:5 5:5 10:10 7:5
4:0 5:5 10:5 2:15 10:5 7:10 10:5 5:5 10:10 7:5 10:5
5:0 10:5 2:15 10:5 7:10 10:5 5:5 10:10 7:5 10:5 5:5
10:0 2:15 10:5 7:10 10:5 5:5 10:10 7:5 10:5 5:5 7:5
2:0 10:5 7:10 10:5 5:5 10:10 7:5 10:5 5:5 7:5 10:5
10:0 7:10 10:5 5:5 10:10 7:5 10:5 5:5 7:5 10:5 7:5
7:0 10:5 5:5 10:10 7:5 10:5 5:5 7:5 10:5 7:5 5:10
10:0 5:5 10:10 7:5 10:5 5:5 7:5 10:5 7:5 5:10 7:5
5:0 10:10 7:5 10:5 5:5 7:5 10:5 7:5 5:10 7:5 10:5
10:0 7:5 10:5 5:5 7:5 10:5 7:5 5:10 7:5 10:5 5:10
7:0 10:5 5:5 7:5 10:5 7:5 5:10 7:5 10:5 5:10 7:5
10:0 5:5 7:5 10:5 7:5 5:10 7:5 10:5 5:10 7:5 10:5
5:0 7:5 10:5 7:5 5:10 7:5 10:5 5:10 7:5 10:5 8:5
7:0 10:5 7:5 5:10 7:5 10:5 5:10 7:5 10:5 8:5 10:5
10:0 7:5 5:10 7:5 10:5 5:10 7:5 10:5 8:5 10:5 5:5
7:0 5:10 7:5 10:5 5:10 7:5 10:5 8:5 10:5 5:5 10:5
5:0 7:5 10:5 5:10 7:5 10:5 8:5 10:5 5:5 10:5 7:5
7:0 10:5 5:10 7:5 10:5 8:5 10:5 5:5 10:5 7:5 10:10
10:0 5:10 7:5 10:5 8:5 10:5 5:5 10:5 7:5 10:10 5:5
5:0 7:5 10:5 8:5 10:5 5:5 10:5 7:5 10:10 5:5 10:10
7:0 10:5 8:5 10:5 5:5 10:5 7:5 10:10 5:5 10:10 4:15
10:0 8:5 10:5 5:5 10:5 7:5 10:10 5:5 10:10 4:15 7:5
8:0 10:5 5:5 10:5 7:5 10:10 5:5 10:10 4:15 7:5 8:10
10:0 5:5 10:5 7:5 10:10 5:5 10:10 4:15 7:5 8:10 7:5
5:0 10:5 7:5 10:10 5:5 10:10 4:15 7:5 8:10 7:5 5:5
10:0 7:5 10:10 5:5 10:10 4:15 7:5 8:10 7:5 5:5 10:5
7:0 10:10 5:5 10:10 4:15 7:5 8:10 7:5 5:5 10:5 5:5
10:0 5:5 10:10 4:15 7:5 8:10 7:5 5:5 10:5 5:5 10:5
5:0 10:10 4:15 7:5 8:10 7:5 5:5 10:5 5:5 10:5 7:5
10:0 4:15 7:5 8:10 7:5 5:5 10:5 5:5 10:5 7:5 10:20
4:0 7:5 8:10 7:5 5:5 10:5 5:5 10:5 7:5 10:20 5:5
7:0 8:10 7:5 5:5 10:5 5:5 10:5 7:5 10:20 5:5 10:10
8:0 7:5 5:5 10:5 5:5 10:5 7:5 10:20 5:5 10:10 4:5
7:0 5:5 10:5 5:5 10:5 7:5 10:20 5:5 10:10 4:5 10:5
5:0 10:5 5:5 10:5 7:5 10:20 5:5 10:10 4:5 10:5 5:5
10:0 5:5 10:5 7:5 10:20 5:5 10:10 4:5 10:5 5:5 10:5
5:0 10:5 7:5 10:20 5:5 10:10 4:5 10:5 5:5 10:5 5:5
10:0 7:5 10:20 5:5 10:10 4:5 10:5 5:5 10:5 5:5 10:5
7:0 10:20 5:5 10:10 4:5 10:5 5:5 10:5 5:5 10:5 7:5
10:0 5:5 10:10 4:5 10:5 5:5 10:5 5:5 10:5 7:5 5:5
5:0 10:10 4:5 10:5 5:5 10:5 5:5 10:5 7:5 5:5 10:5
10:0 4:5 10:5 5:5 10:5 5:5 10:5 7:5 5:5 10:5 5:5
4:0 10:5 5:5 10:5 5:5 10:5 7:5 5:5 10:5 5:5 10:5
10:0 5:5 10:5 5:5 10:5 7:5 5:5 10:5 5:5 10:5 7:5
5:0 10:5 5:5 10:5 7:5 5:5 10:5 5:5 10:5 7:5 5:5
10:0 5:5 10:5 7:5 5:5 10:5 5:5 10:5 7:5 5:5 10:5
5:0 10:5 7:5 5:5 10:5 5:5 10:5 7:5 5:5 10:5 5:15
10:0 7:5 5:5 10:5 5:5 10:5 7:5 5:5 10:5 5:15 8:10
7:0 5:5 10:5 5:5 10:5 7:5 5:5 10:5 5:15 8:10 7:5
5:0 10:5 5:5 10:5 7:5 5:5 10:5 5:15 8:10 7:5 10:5
10:0 5:5 10:5 7:5 5:5 10:5 5:15 8:10 7:5 10:5 4:5
5:0 10:5 7:5 5:5 10:5 5:15 8:10 7:5 10:5 4:5 5:5
10:0 7:5 5:5 10:5 5:15 8:10 7:5 10:5 4:5 5:5 7:5
7:0 5:5 10:5 5:15 8:10 7:5 10:5 4:5 5:5 7:5 3:15
5:0 10:5 5:15 8:10 7:5 10:5 4:5 5:5 7:5 3:15 8:5
10:0 5:15 8:10 7:5 10:5 4:5 5:5 7:5 3:15 8:5 5:5
5:0 8:10 7:5 10:5 4:5 5:5 7:5 3:15 8:5 5:5 7:5
8:0 7:5 10:5 4:5 5:5 7:5 3:15 8:5 5:5 7:5 10:5
7:0 10:5 4:5 5:5 7:5 3:15 8:5 5:5 7:5 10:5 5:5
10:0 4:5 5:5 7:5 3:15 8:5 5:5 7:5 10:5 5:5 10:5
4:0 5:5 7:5 3:15 8:5 5:5 7:5 10:5 5:5 10:5 7:5
5:0 7:5 3:15 8:5 5:5 7:5 10:5 5:5 10:5 7:5 10:5
7:0 3:15 8:5 5:5 7:5 10:5 5:5 10:5 7:5 10:5 3:10
3:0 8:5 5:5 7:5 10:5 5:5 10:5 7:5 10:5 3:10 10:5
8:0 5:5 7:5 10:5 5:5 10:5 7:5 10:5 3:10 10:5 5:5
5:0 7:5 10:5 5:5 10:5 7:5 10:5 3:10 10:5 5:5 11:5
7:0 10:5 5:5 10:5 7:5 10:5 3:10 10:5 5:5 11:5 4:5
10:0 5:5 10:5 7:5 10:5 3:10 10:5 5:5 11:5 4:5 7:5
5:0 10:5 7:5 10:5 3:10 10:5 5:5 11:5 4:5 7:5 10:5
10:0 7:5 10:5 3:10 10:5 5:5 11:5 4:5 7:5 10:5 7:5
7:0 10:5 3:10 10:5 5:5 11:5 4:5 7:5 10:5 7:5 10:5
10:0 3:10 10:5 5:5 11:5 4:5 7:5 10:5 7:5 10:5 4:5
3:0 10:5 5:5 11:5 4:5 7:5 10:5 7:5 10:5 4:5 8:5
10:0 5:5 11:5 4:5 7:5 10:5 7:5 10:5 4:5 8:5 10:5
5:0 11:5 4:5 7:5 10:5 7:5 10:5 4:5 8:5 10:5 5:15
11:0 4:5 7:5 10:5 7:5 10:5 4:5 8:5 10:5 5:15 10:10
4:0 7:5 10:5 7:5 10:5 4:5 8:5 10:5 5:15 10:10 7:5
7:0 10:5 7:5 10:5 4:5 8:5 10:5 5:15 10:10 7:5 11:5
10:0 7:5 10:5 4:5 8:5 10:5 5:15 10:10 7:5 11:5 5:5
7:0 10:5 4:5 8:5 10:5 5:15 10:10 7:5 11:5 5:5 10:5
10:0 4:5 8:5 10:5 5:15 10:10 7:5 11:5 5:5 10:5 5:5
4:0 8:5 10:5 5:15 10:10 7:5 11:5 5:5 10:5 5:5 10:5
8:0 10:5 5:15 10:10 7:5 11:5 5:5 10:5 5:5 10:5 4:5
10:0 5:15 10:10 7:5 11:5 5:5 10:5 5:5 10:5 4:5 5:5
5:0 10:10 7:5 11:5 5:5 10:5 5:5 10:5 4:5 5:5 10:5
10:0 7:5 11:5 5:5 10:5 5:5 10:5 4:5 5:5 10:5 4:5
7:0 11:5 5:5 10:5 5:5 10:5 4:5 5:5 10:5 4:5 10:5
11:0 5:5 10:5 5:5 10:5 4:5 5:5 10:5 4:5 10:5 7:5
5:0 10:5 5:5 10:5 4:5 5:5 10:5 4:5 10:5 7:5 5:5
10:0 5:5 10:5 4:5 5:5 10:5 4:5 10:5 7:5 5:5 10:5
5:0 10:5 4:5 5:5 10:5 4:5 10:5 7:5 5:5 10:5 5:5
10:0 4:5 5:5 10:5 4:5 10:5 7:5 5:5 10:5 5:5 10:5
4:0 5:5 10:5 4:5 10:5 7:5 5:5 10:5 5:5 10:5 5:5
5:0 10:5 4:5 10:5 7:5 5:5 10:5 5:5 10:5 5:5 7:5
10:0 4:5 10:5 7:5 5:5 10:5 5:5 10:5 5:5 7:5 10:5
4:0 10:5 7:5 5:5 10:5 5:5 10:5 5:5 7:5 10:5 4:5
10:0 7:5 5:5 10:5 5:5 10:5 5:5 7:5 10:5 4:5 10:5
7:0 5:5 10:5 5:5 10:5 5:5 7:5 10:5 4:5 10:5 4:5
5:0 10:5 5:5 10:5 5:5 7:5 10:5 4:5 10:5 4:5 5:5
10:0 5:5 10:5 5:5 7:5 10:5 4:5 10:5 4:5 5:5 10:5
5:0 10:5 5:5 7:5 10:5 4:5 10:5 4:5 5:5 10:5 7:5
10:0 5:5 7:5 10:5 4:5 10:5 4:5 5:5 10:5 7:5 10:5
5:0 7:5 10:5 4:5 10:5 4:5 5:5 10:5 7:5 10:5 3:5
7:0 10:5 4:5 10:5 4:5 5:5 10:5 7:5 10:5 3:5 7:5
10:0 4:5 10:5 4:5 5:5 10:5 7:5 10:5 3:5 7:5 10:5
4:0 10:5 4:5 5:5 10:5 7:5 10:5 3:5 7:5 10:5 7:10
10:0 4:5 5:5 10:5 7:5 10:5 3:5 7:5 10:5 7:10 3:5
4:0 5:5 10:5 7:5 10:5 3:5 7:5 10:5 7:10 3:5 10:5
5:0 10:5 7:5 10:5 3:5 7:5 10:5 7:10 3:5 10:5 5:5
10:0 7:5 10:5 3:5 7:5 10:5 7:10 3:5 10:5 5:5 10:5
7:0 10:5 3:5 7:5 10:5 7:10 3:5 10:5 5:5 10:5 7:5
10:0 3:5 7:5 10:5 7:10 3:5 10:5 5:5 10:5 7:5 5:5
3:0 7:5 10:5 7:10 3:5 10:5 5:5 10:5 7:5 5:5 7:5
7:0 10:5 7:10 3:5 10:5 5:5 10:5 7:5 5:5 7:5 8:5
10:0 7:10 3:5 10:5 5:5 10:5 7:5 5:5 7:5 8:5 7:5
7:0 3:5 10:5 5:5 10:5 7:5 5:5 7:5 8:5 7:5 4:5
3:0 10:5 5:5 10:5 7:5 5:5 7:5 8:5 7:5 4:5 10:5
10:0 5:5 10:5 7:5 5:5 7:5 8:5 7:5 4:5 10:5 4:10
5:0 10:5 7:5 5:5 7:5 8:5 7:5 4:5 10:5 4:10 10:5
10:0 7:5 5:5 7:5 8:5 7:5 4:5 10:5 4:10 10:5 5:5
7:0 5:5 7:5 8:5 7:5 4:5 10:5 4:10 10:5 5:5 7:5
5:0 7:5 8:5 7:5 4:5 10:5 4:10 10:5 5:5 7:5 10:5
7:0 8:5 7:5 4:5 10:5 4:10 10:5 5:5 7:5 10:5 7:5
8:0 7:5 4:5 10:5 4:10 10:5 5:5 7:5 10:5 7:5 10:5
7:0 4:5 10:5 4:10 10:5 5:5 7:5 10:5 7:5 10:5 5:5
4:0 10:5 4:10 10:5 5:5 7:5 10:5 7:5 10:5 5:5 10:5
10:0 4:10 10:5 5:5 7:5 10:5 7:5 10:5 5:5 10:5 5:5
4:0 10:5 5:5 7:5 10:5 7:5 10:5 5:5 10:5 5:5 10:5
10:0 5:5 7:5 10:5 7:5 10:5 5:5 10:5 5:5 10:5 5:10
5:0 7:5 10:5 7:5 10:5 5:5 10:5 5:5 10:5 5:10 10:10
7:0 10:5 7:5 10:5 5:5 10:5 5:5 10:5 5:10 10:10 4:10
10:0 7:5 10:5 5:5 10:5 5:5 10:5 5:10 10:10 4:10 5:5
7:0 10:5 5:5 10:5 5:5 10:5 5:10 10:10 4:10 5:5 10:5
10:0 5:5 10:5 5:5 10:5 5:10 10:10 4:10 5:5 10:5 7:5
5:0 10:5 5:5 10:5 5:10 10:10 4:10 5:5 10:5 7:5 10:5
10:0 5:5 10:5 5:10 10:10 4:10 5:5 10:5 7:5 10:5 7:5
5:0 10:5 5:10 10:10 4:10 5:5 10:5 7:5 10:5 7:5 8:5
10:0 5:10 10:10 4:10 5:5 10:5 7:5 10:5 7:5 8:5 7:5
5:0 10:10 4:10 5:5 10:5 7:5 10:5 7:5 8:5 7:5 10:5
10:0 4:10 5:5 10:5 7:5 10:5 7:5 8:5 7:5 10:5 5:10
4:0 5:5 10:5 7:5 10:5 7:5 8:5 7:5 10:5 5:10 10:10
5:0 10:5 7:5 10:5 7:5 8:5 7:5 10:5 5:10 10:10 7:10
10:0 7:5 10:5 7:5 8:5 7:5 10:5 5:10 10:10 7:10 3:5
7:0 10:5 7:5 8:5 7:5 10:5 5:10 10:10 7:10 3:5 10:5
10:0 7:5 8:5 7:5 10:5 5:10 10:10 7:10 3:5 10:5 8:5
7:0 8:5 7:5 10:5 5:10 10:10 7:10 3:5 10:5 8:5 10:5
8:0 7:5 10:5 5:10 10:10 7:10 3:5 10:5 8:5 10:5 7:10
7:0 10:5 5:10 10:10 7:10 3:5 10:5 8:5 10:5 7:10 10:5
10:0 5:10 10:10 7:10 3:5 10:5 8:5 10:5 7:10 10:5 7:5
5:0 10:10 7:10 3:5 10:5 8:5 10:5 7:10 10:5 7:5 10:5
10:0 7:10 3:5 10:5 8:5 10:5 7:10 10:5 7:5 10:5 4:5
7:0 3:5 10:5 8:5 10:5 7:10 10:5 7:5 10:5 4:5 5:5
3:0 10:5 8:5 10:5 7:10 10:5 7:5 10:5 4:5 5:5 10:5
10:0 8:5 10:5 7:10 10:5 7:5 10:5 4:5 5:5 10:5 7:5
8:0 10:5 7:10 10:5 7:5 10:5 4:5 5:5 10:5 7:5 10:5
10:0 7:10 10:5 7:5 10:5 4:5 5:5 10:5 7:5 10:5 5:5
7:0 10:5 7:5 10:5 4:5 5:5 10:5 7:5 10:5 5:5 7:5
10:0 7:5 10:5 4:5 5:5 10:5 7:5 10:5 5:5 7:5 10:5
7:0 10:5 4:5 5:5 10:5 7:5 10:5 5:5 7:5 10:5 7:5
10:0 4:5 5:5 10:5 7:5 10:5 5:5 7:5 10:5 7:5 10:5
4:0 5:5 10:5 7:5 10:5 5:5 7:5 10:5 7:5 10:5 3:5
5:0 10:5 7:5 10:5 5:5 7:5 10:5 7:5 10:5 3:5 5:5
10:0 7:5 10:5 5:5 7:5 10:5 7:5 10:5 3:5 5:5 10:5
7:0 10:5 5:5 7:5 10:5 7:5 10:5 3:5 5:5 10:5 9:10
10:0 5:5 7:5 10:5 7:5 10:5 3:5 5:5 10:5 9:10 3:5
5:0 7:5 10:5 7:5 10:5 3:5 5:5 10:5 9:10 3:5 7:5
7:0 10:5 7:5 10:5 3:5 5:5 10:5 9:10 3:5 7:5 5:5
10:0 7:5 10:5 3:5 5:5 10:5 9:10 3:5 7:5 5:5 10:5
7:0 10:5 3:5 5:5 10:5 9:10 3:5 7:5 5:5 10:5 7:5
10:0 3:5 5:5 10:5 9:10 3:5 7:5 5:5 10:5 7:5 5:5
3:0 5:5 10:5 9:10 3:5 7:5 5:5 10:5 7:5 5:5 7:5
5:0 10:5 9:10 3:5 7:5 5:5 10:5 7:5 5:5 7:5 10:5
10:0 9:10 3:5 7:5 5:5 10:5 7:5 5:5 7:5 10:5 11:5
9:0 3:5 7:5 5:5 10:5 7:5 5:5 7:5 10:5 11:5 4:5
3:0 7:5 5:5 10:5 7:5 5:5 7:5 10:5 11:5 4:5 8:5
7:0 5:5 10:5 7:5 5:5 7:5 10:5 11:5 4:5 8:5 7:5
5:0 10:5 7:5 5:5 7:5 10:5 11:5 4:5 8:5 7:5 8:5
10:0 7:5 5:5 7:5 10:5 11:5 4:5 8:5 7:5 8:5 10:5
7:0 5:5 7:5 10:5 11:5 4:5 8:5 7:5 8:5 10:5 2:5
5:0 7:5 10:5 11:5 4:5 8:5 7:5 8:5 10:5 2:5 5:5
7:0 10:5 11:5 4:5 8:5 7:5 8:5 10:5 2:5 5:5 10:5
10:0 11:5 4:5 8:5 7:5 8:5 10:5 2:5 5:5 10:5 7:5
11:0 4:5 8:5 7:5 8:5 10:5 2:5 5:5 10:5 7:5 10:5
4:0 8:5 7:5 8:5 10:5 2:5 5:5 10:5 7:5 10:5 7:5
8:0 7:5 8:5 10:5 2:5 5:5 10:5 7:5 10:5 7:5 10:10
7:0 8:5 10:5 2:5 5:5 10:5 7:5 10:5 7:5 10:10 7:5
8:0 10:5 2:5 5:5 10:5 7:5 10:5 7:5 10:10 7:5 10:5
10:0 2:5 5:5 10:5 7:5 10:5 7:5 10:10 7:5 10:5 5:5
2:0 5:5 10:5 7:5 10:5 7:5 10:10 7:5 10:5 5:5 10:5
5:0 10:5 7:5 10:5 7:5 10:10 7:5 10:5 5:5 10:5 8:5
10:0 7:5 10:5 7:5 10:10 7:5 10:5 5:5 10:5 8:5 7:5
7:0 10:5 7:5 10:10 7:5 10:5 5:5 10:5 8:5 7:5 10:5
10:0 7:5 10:10 7:5 10:5 5:5 10:5 8:5 7:5 10:5 3:5
7:0 10:10 7:5 10:5 5:5 10:5 8:5 7:5 10:5 3:5 7:5
10:0 7:5 10:5 5:5 10:5 8:5 7:5 10:5 3:5 7:5 10:5
7:0 10:5 5:5 10:5 8:5 7:5 10:5 3:5 7:5 10:5 7:10
10:0 5:5 10:5 8:5 7:5 10:5 3:5 7:5 10:5 7:10 5:10
5:0 10:5 8:5 7:5 10:5 3:5 7:5 10:5 7:10 5:10 10:5
10:0 8:5 7:5 10:5 3:5 7:5 10:5 7:10 5:10 10:5 8:5
8:0 7:5 10:5 3:5 7:5 10:5 7:10 5:10 10:5 8:5 7:5
7:0 10:5 3:5 7:5 10:5 7:10 5:10 10:5 8:5 7:5 8:5
10:0 3:5 7:5 10:5 7:10 5:10 10:5 8:5 7:5 8:5 4:5
3:0 7:5 10:5 7:10 5:10 10:5 8:5 7:5 8:5 4:5 10:5
7:0 10:5 7:10 5:10 10:5 8:5 7:5 8:5 4:5 10:5 3:10
10:0 7:10 5:10 10:5 8:5 7:5 8:5 4:5 10:5 3:10 10:5
7:0 5:10 10:5 8:5 7:5 8:5 4:5 10:5 3:10 10:5 7:5
5:0 10:5 8:5 7:5 8:5 4:5 10:5 3:10 10:5 7:5 10:5
10:0 8:5 7:5 8:5 4:5 10:5 3:10 10:5 7:5 10:5 2:10
8:0 7:5 8:5 4:5 10:5 3:10 10:5 7:5 10:5 2:10 8:5
7:0 8:5 4:5 10:5 3:10 10:5 7:5 10:5 2:10 8:5 10:5
8:0 4:5 10:5 3:10 10:5 7:5 10:5 2:10 8:5 10:5 7:5
4:0 10:5 3:10 10:5 7:5 10:5 2:10 8:5 10:5 7:5 10:5
10:0 3:10 10:5 7:5 10:5 2:10 8:5 10:5 7:5 10:5 3:5
3:0 10:5 7:5 10:5 2:10 8:5 10:5 7:5 10:5 3:5 4:5
10:0 7:5 10:5 2:10 8:5 10:5 7:5 10:5 3:5 4:5 10:5
7:0 10:5 2:10 8:5 10:5 7:5 10:5 3:5 4:5 10:5 7:5
10:0 2:10 8:5 10:5 7:5 10:5 3:5 4:5 10:5 7:5 8:15
2:0 8:5 10:5 7:5 10:5 3:5 4:5 10:5 7:5 8:15 4:5
8:0 10:5 7:5 10:5 3:5 4:5 10:5 7:5 8:15 4:5 10:5
10:0 7:5 10:5 3:5 4:5 10:5 7:5 8:15 4:5 10:5 4:5
7:0 10:5 3:5 4:5 10:5 7:5 8:15 4:5 10:5 4:5 5:5
10:0 3:5 4:5 10:5 7:5 8:15 4:5 10:5 4:5 5:5 10:5
3:0 4:5 10:5 7:5 8:15 4:5 10:5 4:5 5:5 10:5 11:5
4:0 10:5 7:5 8:15 4:5 10:5 4:5 5:5 10:5 11:5 10:5
10:0 7:5 8:15 4:5 10:5 4:5 5:5 10:5 11:5 10:5 3:5
7:0 8:15 4:5 10:5 4:5 5:5 10:5 11:5 10:5 3:5 5:5
8:0 4:5 10:5 4:5 5:5 10:5 11:5 10:5 3:5 5:5 10:5
4:0 10:5 4:5 5:5 10:5 11:5 10:5 3:5 5:5 10:5 7:5
10:0 4:5 5:5 10:5 11:5 10:5 3:5 5:5 10:5 7:5 10:5
4:0 5:5 10:5 11:5 10:5 3:5 5:5 10:5 7:5 10:5 4:5
5:0 10:5 11:5 10:5 3:5 5:5 10:5 7:5 10:5 4:5 10:5
10:0 11:5 10:5 3:5 5:5 10:5 7:5 10:5 4:5 10:5 8:5
11:0 10:5 3:5 5:5 10:5 7:5 10:5 4:5 10:5 8:5 10:5
10:0 3:5 5:5 10:5 7:5 10:5 4:5 10:5 8:5 10:5 4:5
3:0 5:5 10:5 7:5 10:5 4:5 10:5 8:5 10:5 4:5 8:5
5:0 10:5 7:5 10:5 4:5 10:5 8:5 10:5 4:5 8:5 10:5
10:0 7:5 10:5 4:5 10:5 8:5 10:5 4:5 8:5 10:5 7:5
7:0 10:5 4:5 10:5 8:5 10:5 4:5 8:5 10:5 7:5 10:5
10:0 4:5 10:5 8:5 10:5 4:5 8:5 10:5 7:5 10:5 5:5
4:0 10:5 8:5 10:5 4:5 8:5 10:5 7:5 10:5 5:5 10:10
10:0 8:5 10:5 4:5 8:5 10:5 7:5 10:5 5:5 10:10 4:5
8:0 10:5 4:5 8:5 10:5 7:5 10:5 5:5 10:10 4:5 11:5
10:0 4:5 8:5 10:5 7:5 10:5 5:5 10:10 4:5 11:5 4:5
4:0 8:5 10:5 7:5 10:5 5:5 10:10 4:5 11:5 4:5 5:5
8:0 10:5 7:5 10:5 5:5 10:10 4:5 11:5 4:5 5:5 10:5
10:0 7:5 10:5 5:5 10:10 4:5 11:5 4:5 5:5 10:5 5:5
7:0 10:5 5:5 10:10 4:5 11:5 4:5 5:5 10:5 5:5 10:5
10:0 5:5 10:10 4:5 11:5 4:5 5:5 10:5 5:5 10:5 3:5
5:0 10:10 4:5 11:5 4:5 5:5 10:5 5:5 10:5 3:5 10:5
10:0 4:5 11:5 4:5 5:5 10:5 5:5 10:5 3:5 10:5 7:5
4:0 11:5 4:5 5:5 10:5 5:5 10:5 3:5 10:5 7:5 10:10
11:0 4:5 5:5 10:5 5:5 10:5 3:5 10:5 7:5 10:10 3:5
4:0 5:5 10:5 5:5 10:5 3:5 10:5 7:5 10:10 3:5 8:5
5:0 10:5 5:5 10:5 3:5 10:5 7:5 10:10 3:5 8:5 10:5
10:0 5:5 10:5 3:5 10:5 7:5 10:10 3:5 8:5 10:5 9:10
5:0 10:5 3:5 10:5 7:5 10:10 3:5 8:5 10:5 9:10 5:5
10:0 3:5 10:5 7:5 10:10 3:5 8:5 10:5 9:10 5:5 7:5
3:0 10:5 7:5 10:10 3:5 8:5 10:5 9:10 5:5 7:5 10:5
10:0 7:5 10:10 3:5 8:5 10:5 9:10 5:5 7:5 10:5 7:5
7:0 10:10 3:5 8:5 10:5 9:10 5:5 7:5 10:5 7:5 10:5
10:0 3:5 8:5 10:5 9:10 5:5 7:5 10:5 7:5 10:5 5:5
3:0 8:5 10:5 9:10 5:5 7:5 10:5 7:5 10:5 5:5 10:5
8:0 10:5 9:10 5:5 7:5 10:5 7:5 10:5 5:5 10:5 4:5
10:0 9:10 5:5 7:5 10:5 7:5 10:5 5:5 10:5 4:5 10:5
9:0 5:5 7:5 10:5 7:5 10:5 5:5 10:5 4:5 10:5 3:5
5:0 7:5 10:5 7:5 10:5 5:5 10:5 4:5 10:5 3:5 7:5
7:0 10:5 7:5 10:5 5:5 10:5 4:5 10:5 3:5 7:5 10:5
10:0 7:5 10:5 5:5 10:5 4:5 10:5 3:5 7:5 10:5 8:5
7:0 10:5 5:5 10:5 4:5 10:5 3:5 7:5 10:5 8:5 10:5
10:0 5:5 10:5 4:5 10:5 3:5 7:5 10:5 8:5 10:5 5:5
5:0 10:5 4:5 10:5 3:5 7:5 10:5 8:5 10:5 5:5 10:5
10:0 4:5 10:5 3:5 7:5 10:5 8:5 10:5 5:5 10:5 5:5
4:0 10:5 3:5 7:5 10:5 8:5 10:5 5:5 10:5 5:5 10:5
10:0 3:5 7:5 10:5 8:5 10:5 5:5 10:5 5:5 10:5 7:5
3:0 7:5 10:5 8:5 10:5 5:5 10:5 5:5 10:5 7:5 2:5
7:0 10:5 8:5 10:5 5:5 10:5 5:5 10:5 7:5 2:5 10:5
10:0 8:5 10:5 5:5 10:5 5:5 10:5 7:5 2:5 10:5 5:10
8:0 10:5 5:5 10:5 5:5 10:5 7:5 2:5 10:5 5:10 10:5
10:0 5:5 10:5 5:5 10:5 7:5 2:5 10:5 5:10 10:5 5:5
5:0 10:5 5:5 10:5 7:5 2:5 10:5 5:10 10:5 5:5 10:5
10:0 5:5 10:5 7:5 2:5 10:5 5:10 10:5 5:5 10:5 8:5
5:0 10:5 7:5 2:5 10:5 5:10 10:5 5:5 10:5 8:5 7:5
10:0 7:5 2:5 10:5 5:10 10:5 5:5 10:5 8:5 7:5 10:20
7:0 2:5 10:5 5:10 10:5 5:5 10:5 8:5 7:5 10:20 5:10
2:0 10:5 5:10 10:5 5:5 10:5 8:5 7:5 10:20 5:10 3:5
10:0 5:10 10:5 5:5 10:5 8:5 7:5 10:20 5:10 3:5 8:5
5:0 10:5 5:5 10:5 8:5 7:5 10:20 5:10 3:5 8:5 10:5
10:0 5:5 10:5 8:5 7:5 10:20 5:10 3:5 8:5 10:5 5:10
5:0 10:5 8:5 7:5 10:20 5:10 3:5 8:5 10:5 5:10 8:5
10:0 8:5 7:5 10:20 5:10 3:5 8:5 10:5 5:10 8:5 7:5
8:0 7:5 10:20 5:10 3:5 8:5 10:5 5:10 8:5 7:5 10:10
7:0 10:20 5:10 3:5 8:5 10:5 5:10 8:5 7:5 10:10 2:5
10:0 5:10 3:5 8:5 10:5 5:10 8:5 7:5 10:10 2:5 10:5
5:0 3:5 8:5 10:5 5:10 8:5 7:5 10:10 2:5 10:5 5:5
3:0 8:5 10:5 5:10 8:5 7:5 10:10 2:5 10:5 5:5 10:5
8:0 10:5 5:10 8:5 7:5 10:10 2:5 10:5 5:5 10:5 5:5
10:0 5:10 8:5 7:5 10:10 2:5 10:5 5:5 10:5 5:5 7:5
5:0 8:5 7:5 10:10 2:5 10:5 5:5 10:5 5:5 7:5 10:5
8:0 7:5 10:10 2:5 10:5 5:5 10:5 5:5 7:5 10:5 4:5
7:0 10:10 2:5 10:5 5:5 10:5 5:5 7:5 10:5 4:5 10:5
10:0 2:5 10:5 5:5 10:5 5:5 7:5 10:5 4:5 10:5 9:5
2:0 10:5 5:5 10:5 5:5 7:5 10:5 4:5 10:5 9:5 5:5
10:0 5:5 10:5 5:5 7:5 10:5 4:5 10:5 9:5 5:5 7:5
5:0 10:5 5:5 7:5 10:5 4:5 10:5 9:5 5:5 7:5 11:5
10:0 5:5 7:5 10:5 4:5 10:5 9:5 5:5 7:5 11:5 10:5
5:0 7:5 10:5 4:5 10:5 9:5 5:5 7:5 11:5 10:5 7:5
7:0 10:5 4:5 10:5 9:5 5:5 7:5 11:5 10:5 7:5 8:5
10:0 4:5 10:5 9:5 5:5 7:5 11:5 10:5 7:5 8:5 10:5
4:0 10:5 9:5 5:5 7:5 11:5 10:5 7:5 8:5 10:5 7:5
10:0 9:5 5:5 7:5 11:5 10:5 7:5 8:5 10:5 7:5 10:5
9:0 5:5 7:5 11:5 10:5 7:5 8:5 10:5 7:5 10:5 2:5
5:0 7:5 11:5 10:5 7:5 8:5 10:5 7:5 10:5 2:5 5:5
7:0 11:5 10:5 7:5 8:5 10:5 7:5 10:5 2:5 5:5 10:5
11:0 10:5 7:5 8:5 10:5 7:5 10:5 2:5 5:5 10:5 11:5
10:0 7:5 8:5 10:5 7:5 10:5 2:5 5:5 10:5 11:5 10:5
7:0 8:5 10:5 7:5 10:5 2:5 5:5 10:5 11:5 10:5 3:5
8:0 10:5 7:5 10:5 2:5 5:5 10:5 11:5 10:5 3:5 5:5
10:0 7:5 10:5 2:5 5:5 10:5 11:5 10:5 3:5 5:5 10:5
7:0 10:5 2:5 5:5 10:5 11:5 10:5 3:5 5:5 10:5 7:5
10:0 2:5 5:5 10:5 11:5 10:5 3:5 5:5 10:5 7:5 10:5
2:0 5:5 10:5 11:5 10:5 3:5 5:5 10:5 7:5 10:5 5:5
5:0 10:5 11:5 10:5 3:5 5:5 10:5 7:5 10:5 5:5 10:5
10:0 11:5 10:5 3:5 5:5 10:5 7:5 10:5 5:5 10:5 7:5
11:0 10:5 3:5 5:5 10:5 7:5 10:5 5:5 10:5 7:5 10:5
10:0 3:5 5:5 10:5 7:5 10:5 5:5 10:5 7:5 10:5 5:5
3:0 5:5 10:5 7:5 10:5 5:5 10:5 7:5 10:5 5:5 10:10
5:0 10:5 7:5 10:5 5:5 10:5 7:5 10:5 5:5 10:10 4:5
10:0 7:5 10:5 5:5 10:5 7:5 10:5 5:5 10:10 4:5 10:5
7:0 10:5 5:5 10:5 7:5 10:5 5:5 10:10 4:5 10:5 4:5
10:0 5:5 10:5 7:5 10:5 5:5 10:10 4:5 10:5 4:5 8:5
5:0 10:5 7:5 10:5 5:5 10:10 4:5 10:5 4:5 8:5 7:5
10:0 7:5 10:5 5:5 10:10 4:5 10:5 4:5 8:5 7:5 10:5
7:0 10:5 5:5 10:10 4:5 10:5 4:5 8:5 7:5 10:5 2:10
10:0 5:5 10:10 4:5 10:5 4:5 8:5 7:5 10:5 2:10 7:5
5:0 10:10 4:5 10:5 4:5 8:5 7:5 10:5 2:10 7:5 10:5
10:0 4:5 10:5 4:5 8:5 7:5 10:5 2:10 7:5 10:5 7:5
4:0 10:5 4:5 8:5 7:5 10:5 2:10 7:5 10:5 7:5 10:5
10:0 4:5 8:5 7:5 10:5 2:10 7:5 10:5 7:5 10:5 2:5
4:0 8:5 7:5 10:5 2:10 7:5 10:5 7:5 10:5 2:5 8:5
8:0 7:5 10:5 2:10 7:5 10:5 7:5 10:5 2:5 8:5 10:5
7:0 10:5 2:10 7:5 10:5 7:5 10:5 2:5 8:5 10:5 8:5
10:0 2:10 7:5 10:5 7:5 10:5 2:5 8:5 10:5 8:5 10:5
2:0 7:5 10:5 7:5 10:5 2:5 8:5 10:5 8:5 10:5 5:5
7:0 10:5 7:5 10:5 2:5 8:5 10:5 8:5 10:5 5:5 7:5
10:0 7:5 10:5 2:5 8:5 10:5 8:5 10:5 5:5 7:5 10:5
7:0 10:5 2:5 8:5 10:5 8:5 10:5 5:5 7:5 10:5 7:10
10:0 2:5 8:5 10:5 8:5 10:5 5:5 7:5 10:5 7:10 10:15
2:0 8:5 10:5 8:5 10:5 5:5 7:5 10:5 7:10 10:15 7:10
8:0 10:5 8:5 10:5 5:5 7:5 10:5 7:10 10:15 7:10 5:5
10:0 8:5 10:5 5:5 7:5 10:5 7:10 10:15 7:10 5:5 10:10
8:0 10:5 5:5 7:5 10:5 7:10 10:15 7:10 5:5 10:10 4:10
10:0 5:5 7:5 10:5 7:10 10:15 7:10 5:5 10:10 4:10 10:5
5:0 7:5 10:5 7:10 10:15 7:10 5:5 10:10 4:10 10:5 4:5
7:0 10:5 7:10 10:15 7:10 5:5 10:10 4:10 10:5 4:5 8:5
10:0 7:10 10:15 7:10 5:5 10:10 4:10 10:5 4:5 8:5 10:5
7:0 10:15 7:10 5:5 10:10 4:10 10:5 4:5 8:5 10:5 5:5
10:0 7:10 5:5 10:10 4:10 10:5 4:5 8:5 10:5 5:5 10:5
7:0 5:5 10:10 4:10 10:5 4:5 8:5 10:5 5:5 10:5 5:10
5:0 10:10 4:10 10:5 4:5 8:5 10:5 5:5 10:5 5:10 10:5
10:0 4:10 10:5 4:5 8:5 10:5 5:5 10:5 5:10 10:5 2:5
4:0 10:5 4:5 8:5 10:5 5:5 10:5 5:10 10:5 2:5 8:5
10:0 4:5 8:5 10:5 5:5 10:5 5:10 10:5 2:5 8:5 10:5
4:0 8:5 10:5 5:5 10:5 5:10 10:5 2:5 8:5 10:5 7:10
8:0 10:5 5:5 10:5 5:10 10:5 2:5 8:5 10:5 7:10 5:5
10:0 5:5 10:5 5:10 10:5 2:5 8:5 10:5 7:10 5:5 10:5
5:0 10:5 5:10 10:5 2:5 8:5 10:5 7:10 5:5 10:5 7:5
10:0 5:10 10:5 2:5 8:5 10:5 7:10 5:5 10:5 7:5 10:5
5:0 10:5 2:5 8:5 10:5 7:10 5:5 10:5 7:5 10:5 4:5
10:0 2:5 8:5 10:5 7:10 5:5 10:5 7:5 10:5 4:5 5:5
2:0 8:5 10:5 7:10 5:5 10:5 7:5 10:5 4:5 5:5 10:5
8:0 10:5 7:10 5:5 10:5 7:5 10:5 4:5 5:5 10:5 5:15
10:0 7:10 5:5 10:5 7:5 10:5 4:5 5:5 10:5 5:15 10:5
7:0 5:5 10:5 7:5 10:5 4:5 5:5 10:5 5:15 10:5 5:5
5:0 10:5 7:5 10:5 4:5 5:5 10:5 5:15 10:5 5:5 10:5
10:0 7:5 10:5 4:5 5:5 10:5 5:15 10:5 5:5 10:5 3:10
7:0 10:5 4:5 5:5 10:5 5:15 10:5 5:5 10:5 3:10 7:5
10:0 4:5 5:5 10:5 5:15 10:5 5:5 10:5 3:10 7:5 10:15
4:0 5:5 10:5 5:15 10:5 5:5 10:5 3:10 7:5 10:15 5:5
5:0 10:5 5:15 10:5 5:5 10:5 3:10 7:5 10:15 5:5 7:5
10:0 5:15 10:5 5:5 10:5 3:10 7:5 10:15 5:5 7:5 10:10
5:0 10:5 5:5 10:5 3:10 7:5 10:15 5:5 7:5 10:10 7:5
10:0 5:5 10:5 3:10 7:5 10:15 5:5 7:5 10:10 7:5 10:10
5:0 10:5 3:10 7:5 10:15 5:5 7:5 10:10 7:5 10:10 7:5
10:0 3:10 7:5 10:15 5:5 7:5 10:10 7:5 10:10 7:5 10:5
3:0 7:5 10:15 5:5 7:5 10:10 7:5 10:10 7:5 10:5 4:5
7:0 10:15 5:5 7:5 10:10 7:5 10:10 7:5 10:5 4:5 7:5
10:0 5:5 7:5 10:10 7:5 10:10 7:5 10:5 4:5 7:5 10:5
5:0 7:5 10:10 7:5 10:10 7:5 10:5 4:5 7:5 10:5 7:5
7:0 10:10 7:5 10:10 7:5 10:5 4:5 7:5 10:5 7:5 10:5
10:0 7:5 10:10 7:5 10:5 4:5 7:5 10:5 7:5 10:5 4:5
7:0 10:10 7:5 10:5 4:5 7:5 10:5 7:5 10:5 4:5 8:5
10:0 7:5 10:5 4:5 7:5 10:5 7:5 10:5 4:5 8:5 10:5
7:0 10:5 4:5 7:5 10:5 7:5 10:5 4:5 8:5 10:5 7:5
10:0 4:5 7:5 10:5 7:5 10:5 4:5 8:5 10:5 7:5 10:5
4:0 7:5 10:5 7:5 10:5 4:5 8:5 10:5 7:5 10:5 3:5
7:0 10:5 7:5 10:5 4:5 8:5 10:5 7:5 10:5 3:5 5:5
10:0 7:5 10:5 4:5 8:5 10:5 7:5 10:5 3:5 5:5 11:5
7:0 10:5 4:5 8:5 10:5 7:5 10:5 3:5 5:5 11:5 10:5
10:0 4:5 8:5 10:5 7:5 10:5 3:5 5:5 11:5 10:5 4:5
4:0 8:5 10:5 7:5 10:5 3:5 5:5 11:5 10:5 4:5 8:5
8:0 10:5 7:5 10:5 3:5 5:5 11:5 10:5 4:5 8:5 11:5
10:0 7:5 10:5 3:5 5:5 11:5 10:5 4:5 8:5 11:5 5:5
7:0 10:5 3:5 5:5 11:5 10:5 4:5 8:5 11:5 5:5 10:5
10:0 3:5 5:5 11:5 10:5 4:5 8:5 11:5 5:5 10:5 4:5
3:0 5:5 11:5 10:5 4:5 8:5 11:5 5:5 10:5 4:5 7:5
5:0 11:5 10:5 4:5 8:5 11:5 5:5 10:5 4:5 7:5 10:5
11:0 10:5 4:5 8:5 11:5 5:5 10:5 4:5 7:5 10:5 5:5
10:0 4:5 8:5 11:5 5:5 10:5 4:5 7:5 10:5 5:5 10:5
4:0 8:5 11:5 5:5 10:5 4:5 7:5 10:5 5:5 10:5 2:5
8:0 11:5 5:5 10:5 4:5 7:5 10:5 5:5 10:5 2:5 5:5
11:0 5:5 10:5 4:5 7:5 10:5 5:5 10:5 2:5 5:5 10:5
5:0 10:5 4:5 7:5 10:5 5:5 10:5 2:5 5:5 10:5 5:5
10:0 4:5 7:5 10:5 5:5 10:5 2:5 5:5 10:5 5:5 10:5
4:0 7:5 10:5 5:5 10:5 2:5 5:5 10:5 5:5 10:5 5:5
7:0 10:5 5:5 10:5 2:5 5:5 10:5 5:5 10:5 5:5 7:5
10:0 5:5 10:5 2:5 5:5 10:5 5:5 10:5 5:5 7:5 8:5
5:0 10:5 2:5 5:5 10:5 5:5 10:5 5:5 7:5 8:5 10:5
10:0 2:5 5:5 10:5 5:5 10:5 5:5 7:5 8:5 10:5 8:5
2:0 5:5 10:5 5:5 10:5 5:5 7:5 8:5 10:5 8:5 2:5
5:0 10:5 5:5 10:5 5:5 7:5 8:5 10:5 8:5 2:5 10:5
10:0 5:5 10:5 5:5 7:5 8:5 10:5 8:5 2:5 10:5 7:5
5:0 10:5 5:5 7:5 8:5 10:5 8:5 2:5 10:5 7:5 10:5
10:0 5:5 7:5 8:5 10:5 8:5 2:5 10:5 7:5 10:5 5:10
5:0 7:5 8:5 10:5 8:5 2:5 10:5 7:5 10:5 5:10 10:5
7:0 8:5 10:5 8:5 2:5 10:5 7:5 10:5 5:10 10:5 7:5
8:0 10:5 8:5 2:5 10:5 7:5 10:5 5:10 10:5 7:5 10:5
10:0 8:5 2:5 10:5 7:5 10:5 5:10 10:5 7:5 10:5 5:5
8:0 2:5 10:5 7:5 10:5 5:10 10:5 7:5 10:5 5:5 10:10
2:0 10:5 7:5 10:5 5:10 10:5 7:5 10:5 5:5 10:10 4:15
10:0 7:5 10:5 5:10 10:5 7:5 10:5 5:5 10:10 4:15 5:5
7:0 10:5 5:10 10:5 7:5 10:5 5:5 10:10 4:15 5:5 10:5
10:0 5:10 10:5 7:5 10:5 5:5 10:10 4:15 5:5 10:5 5:5
5:0 10:5 7:5 10:5 5:5 10:10 4:15 5:5 10:5 5:5 10:5
10:0 7:5 10:5 5:5 10:10 4:15 5:5 10:5 5:5 10:5 4:5
7:0 10:5 5:5 10:10 4:15 5:5 10:5 5:5 10:5 4:5 10:5
10:0 5:5 10:10 4:15 5:5 10:5 5:5 10:5 4:5 10:5 8:5
5:0 10:10 4:15 5:5 10:5 5:5 10:5 4:5 10:5 8:5 10:5
10:0 4:15 5:5 10:5 5:5 10:5 4:5 10:5 8:5 10:5 3:10
4:0 5:5 10:5 5:5 10:5 4:5 10:5 8:5 10:5 3:10 7:5
5:0 10:5 5:5 10:5 4:5 10:5 8:5 10:5 3:10 7:5 8:5
10:0 5:5 10:5 4:5 10:5 8:5 10:5 3:10 7:5 8:5 10:5
5:0 10:5 4:5 10:5 8:5 10:5 3:10 7:5 8:5 10:5 5:10
10:0 4:5 10:5 8:5 10:5 3:10 7:5 8:5 10:5 5:10 8:5
4:0 10:5 8:5 10:5 3:10 7:5 8:5 10:5 5:10 8:5 7:5
10:0 8:5 10:5 3:10 7:5 8:5 10:5 5:10 8:5 7:5 10:5
8:0 10:5 3:10 7:5 8:5 10:5 5:10 8:5 7:5 10:5 5:10
10:0 3:10 7:5 8:5 10:5 5:10 8:5 7:5 10:5 5:10 10:5
3:0 7:5 8:5 10:5 5:10 8:5 7:5 10:5 5:10 10:5 5:5
7:0 8:5 10:5 5:10 8:5 7:5 10:5 5:10 10:5 5:5 10:5
8:0 10:5 5:10 8:5 7:5 10:5 5:10 10:5 5:5 10:5 5:5
10:0 5:10 8:5 7:5 10:5 5:10 10:5 5:5 10:5 5:5 7:5
5:0 8:5 7:5 10:5 5:10 10:5 5:5 10:5 5:5 7:5 11:5
8:0 7:5 10:5 5:10 10:5 5:5 10:5 5:5 7:5 11:5 4:5
7:0 10:5 5:10 10:5 5:5 10:5 5:5 7:5 11:5 4:5 10:5
10:0 5:10 10:5 5:5 10:5 5:5 7:5 11:5 4:5 10:5 4:5
5:0 10:5 5:5 10:5 5:5 7:5 11:5 4:5 10:5 4:5 5:5
10:0 5:5 10:5 5:5 7:5 11:5 4:5 10:5 4:5 5:5 10:5
5:0 10:5 5:5 7:5 11:5 4:5 10:5 4:5 5:5 10:5 5:15
10:0 5:5 7:5 11:5 4:5 10:5 4:5 5:5 10:5 5:15 7:5
5:0 7:5 11:5 4:5 10:5 4:5 5:5 10:5 5:15 7:5 10:15
7:0 11:5 4:5 10:5 4:5 5:5 10:5 5:15 7:5 10:15 3:5
11:0 4:5 10:5 4:5 5:5 10:5 5:15 7:5 10:15 3:5 10:5
4:0 10:5 4:5 5:5 10:5 5:15 7:5 10:15 3:5 10:5 7:5
10:0 4:5 5:5 10:5 5:15 7:5 10:15 3:5 10:5 7:5 10:5
4:0 5:5 10:5 5:15 7:5 10:15 3:5 10:5 7:5 10:5 3:10
5:0 10:5 5:15 7:5 10:15 3:5 10:5 7:5 10:5 3:10 10:5
10:0 5:15 7:5 10:15 3:5 10:5 7:5 10:5 3:10 10:5 5:5
5:0 7:5 10:15 3:5 10:5 7:5 10:5 3:10 10:5 5:5 11:5
7:0 10:15 3:5 10:5 7:5 10:5 3:10 10:5 5:5 11:5 4:5
10:0 3:5 10:5 7:5 10:5 3:10 10:5 5:5 11:5 4:5 7:5
3:0 10:5 7:5 10:5 3:10 10:5 5:5 11:5 4:5 7:5 10:5
10:0 7:5 10:5 3:10 10:5 5:5 11:5 4:5 7:5 10:5 5:5
7:0 10:5 3:10 10:5 5:5 11:5 4:5 7:5 10:5 5:5 10:5
10:0 3:10 10:5 5:5 11:5 4:5 7:5 10:5 5:5 10:5 2:5
3:0 10:5 5:5 11:5 4:5 7:5 10:5 5:5 10:5 2:5 5:5
10:0 5:5 11:5 4:5 7:5 10:5 5:5 10:5 2:5 5:5 10:5
5:0 11:5 4:5 7:5 10:5 5:5 10:5 2:5 5:5 10:5 7:5
11:0 4:5 7:5 10:5 5:5 10:5 2:5 5:5 10:5 7:5 10:5
4:0 7:5 10:5 5:5 10:5 2:5 5:5 10:5 7:5 10:5 5:5
7:0 10:5 5:5 10:5 2:5 5:5 10:5 7:5 10:5 5:5 10:5
10:0 5:5 10:5 2:5 5:5 10:5 7:5 10:5 5:5 10:5 7:5
5:0 10:5 2:5 5:5 10:5 7:5 10:5 5:5 10:5 7:5 10:5
10:0 2:5 5:5 10:5 7:5 10:5 5:5 10:5 7:5 10:5 5:10
2:0 5:5 10:5 7:5 10:5 5:5 10:5 7:5 10:5 5:10 10:10
5:0 10:5 7:5 10:5 5:5 10:5 7:5 10:5 5:10 10:10 7:10
10:0 7:5 10:5 5:5 10:5 7:5 10:5 5:10 10:10 7:10 5:5
7:0 10:5 5:5 10:5 7:5 10:5 5:10 10:10 7:10 5:5 7:5
10:0 5:5 10:5 7:5 10:5 5:10 10:10 7:10 5:5 7:5 8:20
5:0 10:5 7:5 10:5 5:10 10:10 7:10 5:5 7:5 8:20 7:5
10:0 7:5 10:5 5:10 10:10 7:10 5:5 7:5 8:20 7:5 8:5
7:0 10:5 5:10 10:10 7:10 5:5 7:5 8:20 7:5 8:5 10:5
10:0 5:10 10:10 7:10 5:5 7:5 8:20 7:5 8:5 10:5 5:5
5:0 10:10 7:10 5:5 7:5 8:20 7:5 8:5 10:5 5:5 10:5
10:0 7:10 5:5 7:5 8:20 7:5 8:5 10:5 5:5 10:5 7:5
7:0 5:5 7:5 8:20 7:5 8:5 10:5 5:5 10:5 7:5 10:5
5:0 7:5 8:20 7:5 8:5 10:5 5:5 10:5 7:5 10:5 5:10
7:0 8:20 7:5 8:5 10:5 5:5 10:5 7:5 10:5 5:10 7:10
8:0 7:5 8:5 10:5 5:5 10:5 7:5 10:5 5:10 7:10 10:5
7:0 8:5 10:5 5:5 10:5 7:5 10:5 5:10 7:10 10:5 5:10
8:0 10:5 5:5 10:5 7:5 10:5 5:10 7:10 10:5 5:10 10:5
10:0 5:5 10:5 7:5 10:5 5:10 7:10 10:5 5:10 10:5 5:5
5:0 10:5 7:5 10:5 5:10 7:10 10:5 5:10 10:5 5:5 10:5
10:0 7:5 10:5 5:10 7:10 10:5 5:10 10:5 5:5 10:5 7:5
7:0 10:5 5:10 7:10 10:5 5:10 10:5 5:5 10:5 7:5 4:5
10:0 5:10 7:10 10:5 5:10 10:5 5:5 10:5 7:5 4:5 8:5
5:0 7:10 10:5 5:10 10:5 5:5 10:5 7:5 4:5 8:5 7:5
7:0 10:5 5:10 10:5 5:5 10:5 7:5 4:5 8:5 7:5 11:5
10:0 5:10 10:5 5:5 10:5 7:5 4:5 8:5 7:5 11:5 4:5
5:0 10:5 5:5 10:5 7:5 4:5 8:5 7:5 11:5 4:5 5:5
10:0 5:5 10:5 7:5 4:5 8:5 7:5 11:5 4:5 5:5 10:5
5:0 10:5 7:5 4:5 8:5 7:5 11:5 4:5 5:5 10:5 4:15
10:0 7:5 4:5 8:5 7:5 11:5 4:5 5:5 10:5 4:15 8:5
7:0 4:5 8:5 7:5 11:5 4:5 5:5 10:5 4:15 8:5 10:5
4:0 8:5 7:5 11:5 4:5 5:5 10:5 4:15 8:5 10:5 5:5
8:0 7:5 11:5 4:5 5:5 10:5 4:15 8:5 10:5 5:5 10:5
7:0 11:5 4:5 5:5 10:5 4:15 8:5 10:5 5:5 10:5 5:5
11:0 4:5 5:5 10:5 4:15 8:5 10:5 5:5 10:5 5:5 10:10
4:0 5:5 10:5 4:15 8:5 10:5 5:5 10:5 5:5 10:10 4:10
5:0 10:5 4:15 8:5 10:5 5:5 10:5 5:5 10:10 4:10 5:5
10:0 4:15 8:5 10:5 5:5 10:5 5:5 10:10 4:10 5:5 10:5
4:0 8:5 10:5 5:5 10:5 5:5 10:10 4:10 5:5 10:5 7:5
8:0 10:5 5:5 10:5 5:5 10:10 4:10 5:5 10:5 7:5 10:5
10:0 5:5 10:5 5:5 10:10 4:10 5:5 10:5 7:5 10:5 7:5
5:0 10:5 5:5 10:10 4:10 5:5 10:5 7:5 10:5 7:5 3:5
10:0 5:5 10:10 4:10 5:5 10:5 7:5 10:5 7:5 3:5 10:5
5:0 10:10 4:10 5:5 10:5 7:5 10:5 7:5 3:5 10:5 8:10
10:0 4:10 5:5 10:5 7:5 10:5 7:5 3:5 10:5 8:10 10:5
4:0 5:5 10:5 7:5 10:5 7:5 3:5 10:5 8:10 10:5 7:5
5:0 10:5 7:5 10:5 7:5 3:5 10:5 8:10 10:5 7:5 4:5
10:0 7:5 10:5 7:5 3:5 10:5 8:10 10:5 7:5 4:5 10:5
7:0 10:5 7:5 3:5 10:5 8:10 10:5 7:5 4:5 10:5 7:10
10:0 7:5 3:5 10:5 8:10 10:5 7:5 4:5 10:5 7:10 8:5
7:0 3:5 10:5 8:10 10:5 7:5 4:5 10:5 7:10 8:5 10:5
3:0 10:5 8:10 10:5 7:5 4:5 10:5 7:10 8:5 10:5 7:5
10:0 8:10 10:5 7:5 4:5 10:5 7:10 8:5 10:5 7:5 10:5
8:0 10:5 7:5 4:5 10:5 7:10 8:5 10:5 7:5 10:5 4:5
10:0 7:5 4:5 10:5 7:10 8:5 10:5 7:5 10:5 4:5 5:5
7:0 4:5 10:5 7:10 8:5 10:5 7:5 10:5 4:5 5:5 10:5
4:0 10:5 7:10 8:5 10:5 7:5 10:5 4:5 5:5 10:5 5:15
10:0 7:10 8:5 10:5 7:5 10:5 4:5 5:5 10:5 5:15 10:5
7:0 8:5 10:5 7:5 10:5 4:5 5:5 10:5 5:15 10:5 5:5
8:0 10:5 7:5 10:5 4:5 5:5 10:5 5:15 10:5 5:5 7:5
10:0 7:5 10:5 4:5 5:5 10:5 5:15 10:5 5:5 7:5 5:10
7:0 10:5 4:5 5:5 10:5 5:15 10:5 5:5 7:5 5:10 7:5
10:0 4:5 5:5 10:5 5:15 10:5 5:5 7:5 5:10 7:5 10:5
4:0 5:5 10:5 5:15 10:5 5:5 7:5 5:10 7:5 10:5 7:10
5:0 10:5 5:15 10:5 5:5 7:5 5:10 7:5 10:5 7:10 5:5
10:0 5:15 10:5 5:5 7:5 5:10 7:5 10:5 7:10 5:5 10:5
5:0 10:5 5:5 7:5 5:10 7:5 10:5 7:10 5:5 10:5 5:5
10:0 5:5 7:5 5:10 7:5 10:5 7:10 5:5 10:5 5:5 10:5
5:0 7:5 5:10 7:5 10:5 7:10 5:5 10:5 5:5 10:5 2:5
7:0 5:10 7:5 10:5 7:10 5:5 10:5 5:5 10:5 2:5 10:5
5:0 7:5 10:5 7:10 5:5 10:5 5:5 10:5 2:5 10:5 7:10
7:0 10:5 7:10 5:5 10:5 5:5 10:5 2:5 10:5 7:10 10:5
10:0 7:10 5:5 10:5 5:5 10:5 2:5 10:5 7:10 10:5 2:5
7:0 5:5 10:5 5:5 10:5 2:5 10:5 7:10 10:5 2:5 7:5
5:0 10:5 5:5 10:5 2:5 10:5 7:10 10:5 2:5 7:5 8:5
10:0 5:5 10:5 2:5 10:5 7:10 10:5 2:5 7:5 8:5 10:5
5:0 10:5 2:5 10:5 7:10 10:5 2:5 7:5 8:5 10:5 7:5
10:0 2:5 10:5 7:10 10:5 2:5 7:5 8:5 10:5 7:5 3:5
2:0 10:5 7:10 10:5 2:5 7:5 8:5 10:5 7:5 3:5 11:5
10:0 7:10 10:5 2:5 7:5 8:5 10:5 7:5 3:5 11:5 4:5
7:0 10:5 2:5 7:5 8:5 10:5 7:5 3:5 11:5 4:5 10:5
10:0 2:5 7:5 8:5 10:5 7:5 3:5 11:5 4:5 10:5 7:5
2:0 7:5 8:5 10:5 7:5 3:5 11:5 4:5 10:5 7:5 3:5
7:0 8:5 10:5 7:5 3:5 11:5 4:5 10:5 7:5 3:5 7:5
8:0 10:5 7:5 3:5 11:5 4:5 10:5 7:5 3:5 7:5 10:5
10:0 7:5 3:5 11:5 4:5 10:5 7:5 3:5 7:5 10:5 5:10
7:0 3:5 11:5 4:5 10:5 7:5 3:5 7:5 10:5 5:10 7:5
3:0 11:5 4:5 10:5 7:5 3:5 7:5 10:5 5:10 7:5 10:5
11:0 4:5 10:5 7:5 3:5 7:5 10:5 5:10 7:5 10:5 7:5
4:0 10:5 7:5 3:5 7:5 10:5 5:10 7:5 10:5 7:5 10:5
10:0 7:5 3:5 7:5 10:5 5:10 7:5 10:5 7:5 10:5 4:5
7:0 3:5 7:5 10:5 5:10 7:5 10:5 7:5 10:5 4:5 8:5
3:0 7:5 10:5 5:10 7:5 10:5 7:5 10:5 4:5 8:5 7:5
7:0 10:5 5:10 7:5 10:5 7:5 10:5 4:5 8:5 7:5 8:5
10:0 5:10 7:5 10:5 7:5 10:5 4:5 8:5 7:5 8:5 10:5
5:0 7:5 10:5 7:5 10:5 4:5 8:5 7:5 8:5 10:5 5:5
7:0 10:5 7:5 10:5 4:5 8:5 7:5 8:5 10:5 5:5 10:10
10:0 7:5 10:5 4:5 8:5 7:5 8:5 10:5 5:5 10:10 7:5
7:0 10:5 4:5 8:5 7:5 8:5 10:5 5:5 10:10 7:5 10:5
10:0 4:5 8:5 7:5 8:5 10:5 5:5 10:10 7:5 10:5 5:5
4:0 8:5 7:5 8:5 10:5 5:5 10:10 7:5 10:5 5:5 10:5
8:0 7:5 8:5 10:5 5:5 10:10 7:5 10:5 5:5 10:5 7:5
7:0 8:5 10:5 5:5 10:10 7:5 10:5 5:5 10:5 7:5 10:5
8:0 10:5 5:5 10:10 7:5 10:5 5:5 10:5 7:5 10:5 5:5
10:0 5:5 10:10 7:5 10:5 5:5 10:5 7:5 10:5 5:5 10:10
5:0 10:10 7:5 10:5 5:5 10:5 7:5 10:5 5:5 10:10 5:5
10:0 7:5 10:5 5:5 10:5 7:5 10:5 5:5 10:10 5:5 10:5
7:0 10:5 5:5 10:5 7:5 10:5 5:5 10:10 5:5 10:5 4:5
10:0 5:5 10:5 7:5 10:5 5:5 10:10 5:5 10:5 4:5 7:5
5:0 10:5 7:5 10:5 5:5 10:10 5:5 10:5 4:5 7:5 8:5
10:0 7:5 10:5 5:5 10:10 5:5 10:5 4:5 7:5 8:5 7:5
7:0 10:5 5:5 10:10 5:5 10:5 4:5 7:5 8:5 7:5 11:5
10:0 5:5 10:10 5:5 10:5 4:5 7:5 8:5 7:5 11:5 2:5
5:0 10:10 5:5 10:5 4:5 7:5 8:5 7:5 11:5 2:5 5:5
10:0 5:5 10:5 4:5 7:5 8:5 7:5 11:5 2:5 5:5 10:5
5:0 10:5 4:5 7:5 8:5 7:5 11:5 2:5 5:5 10:5 2:15
10:0 4:5 7:5 8:5 7:5 11:5 2:5 5:5 10:5 2:15 10:5
4:0 7:5 8:5 7:5 11:5 2:5 5:5 10:5 2:15 10:5 8:5
7:0 8:5 7:5 11:5 2:5 5:5 10:5 2:15 10:5 8:5 10:5
8:0 7:5 11:5 2:5 5:5 10:5 2:15 10:5 8:5 10:5 8:5
7:0 11:5 2:5 5:5 10:5 2:15 10:5 8:5 10:5 8:5 5:5
11:0 2:5 5:5 10:5 2:15 10:5 8:5 10:5 8:5 5:5 10:5
2:0 5:5 10:5 2:15 10:5 8:5 10:5 8:5 5:5 10:5 7:5
5:0 10:5 2:15 10:5 8:5 10:5 8:5 5:5 10:5 7:5 10:5
10:0 2:15 10:5 8:5 10:5 8:5 5:5 10:5 7:5 10:5 5:10
2:0 10:5 8:5 10:5 8:5 5:5 10:5 7:5 10:5 5:10 7:5
10:0 8:5 10:5 8:5 5:5 10:5 7:5 10:5 5:10 7:5 10:5
8:0 10:5 8:5 5:5 10:5 7:5 10:5 5:10 7:5 10:5 5:10
10:0 8:5 5:5 10:5 7:5 10:5 5:10 7:5 10:5 5:10 3:5
8:0 5:5 10:5 7:5 10:5 5:10 7:5 10:5 5:10 3:5 10:5
5:0 10:5 7:5 10:5 5:10 7:5 10:5 5:10 3:5 10:5 4:5
10:0 7:5 10:5 5:10 7:5 10:5 5:10 3:5 10:5 4:5 10:5
7:0 10:5 5:10 7:5 10:5 5:10 3:5 10:5 4:5 10:5 4:5
10:0 5:10 7:5 10:5 5:10 3:5 10:5 4:5 10:5 4:5 8:5
5:0 7:5 10:5 5:10 3:5 10:5 4:5 10:5 4:5 8:5 10:5
7:0 10:5 5:10 3:5 10:5 4:5 10:5 4:5 8:5 10:5 5:5
10:0 5:10 3:5 10:5 4:5 10:5 4:5 8:5 10:5 5:5 10:5
5:0 3:5 10:5 4:5 10:5 4:5 8:5 10:5 5:5 10:5 5:5
3:0 10:5 4:5 10:5 4:5 8:5 10:5 5:5 10:5 5:5 10:10
10:0 4:5 10:5 4:5 8:5 10:5 5:5 10:5 5:5 10:10 7:5
4:0 10:5 4:5 8:5 10:5 5:5 10:5 5:5 10:10 7:5 10:5
10:0 4:5 8:5 10:5 5:5 10:5 5:5 10:10 7:5 10:5 5:5
4:0 8:5 10:5 5:5 10:5 5:5 10:10 7:5 10:5 5:5 8:5
8:0 10:5 5:5 10:5 5:5 10:10 7:5 10:5 5:5 8:5 10:5
10:0 5:5 10:5 5:5 10:10 7:5 10:5 5:5 8:5 10:5 3:15
5:0 10:5 5:5 10:10 7:5 10:5 5:5 8:5 10:5 3:15 10:5
10:0 5:5 10:10 7:5 10:5 5:5 8:5 10:5 3:15 10:5 5:5
5:0 10:10 7:5 10:5 5:5 8:5 10:5 3:15 10:5 5:5 10:5
10:0 7:5 10:5 5:5 8:5 10:5 3:15 10:5 5:5 10:5 4:5
7:0 10:5 5:5 8:5 10:5 3:15 10:5 5:5 10:5 4:5 5:5
10:0 5:5 8:5 10:5 3:15 10:5 5:5 10:5 4:5 5:5 10:5
5:0 8:5 10:5 3:15 10:5 5:5 10:5 4:5 5:5 10:5 5:15
8:0 10:5 3:15 10:5 5:5 10:5 4:5 5:5 10:5 5:15 10:10
10:0 3:15 10:5 5:5 10:5 4:5 5:5 10:5 5:15 10:10 5:5
3:0 10:5 5:5 10:5 4:5 5:5 10:5 5:15 10:10 5:5 10:5
10:0 5:5 10:5 4:5 5:5 10:5 5:15 10:10 5:5 10:5 2:5
5:0 10:5 4:5 5:5 10:5 5:15 10:10 5:5 10:5 2:5 5:5
10:0 4:5 5:5 10:5 5:15 10:10 5:5 10:5 2:5 5:5 10:5
4:0 5:5 10:5 5:15 10:10 5:5 10:5 2:5 5:5 10:5 4:10
5:0 10:5 5:15 10:10 5:5 10:5 2:5 5:5 10:5 4:10 3:5
10:0 5:15 10:10 5:5 10:5 2:5 5:5 10:5 4:10 3:5 10:5
5:0 10:10 5:5 10:5 2:5 5:5 10:5 4:10 3:5 10:5 5:5
10:0 5:5 10:5 2:5 5:5 10:5 4:10 3:5 10:5 5:5 10:5
5:0 10:5 2:5 5:5 10:5 4:10 3:5 10:5 5:5 10:5 5:5
10:0 2:5 5:5 10:5 4:10 3:5 10:5 5:5 10:5 5:5 4:5
2:0 5:5 10:5 4:10 3:5 10:5 5:5 10:5 5:5 4:5 11:5
5:0 10:5 4:10 3:5 10:5 5:5 10:5 5:5 4:5 11:5 7:5
10:0 4:10 3:5 10:5 5:5 10:5 5:5 4:5 11:5 7:5 10:5
4:0 3:5 10:5 5:5 10:5 5:5 4:5 11:5 7:5 10:5 7:5
3:0 10:5 5:5 10:5 5:5 4:5 11:5 7:5 10:5 7:5 5:5
10:0 5:5 10:5 5:5 4:5 11:5 7:5 10:5 7:5 5:5 8:5
5:0 10:5 5:5 4:5 11:5 7:5 10:5 7:5 5:5 8:5 11:5
10:0 5:5 4:5 11:5 7:5 10:5 7:5 5:5 8:5 11:5 10:5
5:0 4:5 11:5 7:5 10:5 7:5 5:5 8:5 11:5 10:5 4:5
4:0 11:5 7:5 10:5 7:5 5:5 8:5 11:5 10:5 4:5 10:5
11:0 7:5 10:5 7:5 5:5 8:5 11:5 10:5 4:5 10:5 5:5
7:0 10:5 7:5 5:5 8:5 11:5 10:5 4:5 10:5 5:5 10:5
10:0 7:5 5:5 8:5 11:5 10:5 4:5 10:5 5:5 10:5 5:10
7:0 5:5 8:5 11:5 10:5 4:5 10:5 5:5 10:5 5:10 10:5
5:0 8:5 11:5 10:5 4:5 10:5 5:5 10:5 5:10 10:5 8:5
8:0 11:5 10:5 4:5 10:5 5:5 10:5 5:10 10:5 8:5 7:5
11:0 10:5 4:5 10:5 5:5 10:5 5:10 10:5 8:5 7:5 10:5
10:0 4:5 10:5 5:5 10:5 5:10 10:5 8:5 7:5 10:5 5:5
4:0 10:5 5:5 10:5 5:10 10:5 8:5 7:5 10:5 5:5 8:5
10:0 5:5 10:5 5:10 10:5 8:5 7:5 10:5 5:5 8:5 10:5
5:0 10:5 5:10 10:5 8:5 7:5 10:5 5:5 8:5 10:5 7:10
10:0 5:10 10:5 8:5 7:5 10:5 5:5 8:5 10:5 7:10 3:5
5:0 10:5 8:5 7:5 10:5 5:5 8:5 10:5 7:10 3:5 10:5
10:0 8:5 7:5 10:5 5:5 8:5 10:5 7:10 3:5 10:5 5:15
8:0 7:5 10:5 5:5 8:5 10:5 7:10 3:5 10:5 5:15 10:10
7:0 10:5 5:5 8:5 10:5 7:10 3:5 10:5 5:15 10:10 7:5
10:0 5:5 8:5 10:5 7:10 3:5 10:5 5:15 10:10 7:5 11:5
5:0 8:5 10:5 7:10 3:5 10:5 5:15 10:10 7:5 11:5 2:5
8:0 10:5 7:10 3:5 10:5 5:15 10:10 7:5 11:5 2:5 7:5
10:0 7:10 3:5 10:5 5:15 10:10 7:5 11:5 2:5 7:5 10:5
7:0 3:5 10:5 5:15 10:10 7:5 11:5 2:5 7:5 10:5 3:15
3:0 10:5 5:15 10:10 7:5 11:5 2:5 7:5 10:5 3:15 5:5
10:0 5:15 10:10 7:5 11:5 2:5 7:5 10:5 3:15 5:5 10:5
5:0 10:10 7:5 11:5 2:5 7:5 10:5 3:15 5:5 10:5 4:10
10:0 7:5 11:5 2:5 7:5 10:5 3:15 5:5 10:5 4:10 5:5
7:0 11:5 2:5 7:5 10:5 3:15 5:5 10:5 4:10 5:5 10:5
11:0 2:5 7:5 10:5 3:15 5:5 10:5 4:10 5:5 10:5 7:10
2:0 7:5 10:5 3:15 5:5 10:5 4:10 5:5 10:5 7:10 10:5
7:0 10:5 3:15 5:5 10:5 4:10 5:5 10:5 7:10 10:5 5:5
10:0 3:15 5:5 10:5 4:10 5:5 10:5 7:10 10:5 5:5 7:5
3:0 5:5 10:5 4:10 5:5 10:5 7:10 10:5 5:5 7:5 10:10
5:0 10:5 4:10 5:5 10:5 7:10 10:5 5:5 7:5 10:10 7:5
10:0 4:10 5:5 10:5 7:10 10:5 5:5 7:5 10:10 7:5 10:20
4:0 5:5 10:5 7:10 10:5 5:5 7:5 10:10 7:5 10:20 7:5
5:0 10:5 7:10 10:5 5:5 7:5 10:10 7:5 10:20 7:5 10:15
10:0 7:10 10:5 5:5 7:5 10:10 7:5 10:20 7:5 10:15 5:10
7:0 10:5 5:5 7:5 10:10 7:5 10:20 7:5 10:15 5:10 8:5
10:0 5:5 7:5 10:10 7:5 10:20 7:5 10:15 5:10 8:5 10:5
5:0 7:5 10:10 7:5 10:20 7:5 10:15 5:10 8:5 10:5 7:5
7:0 10:10 7:5 10:20 7:5 10:15 5:10 8:5 10:5 7:5 10:5
10:0 7:5 10:20 7:5 10:15 5:10 8:5 10:5 7:5 10:5 4:5
7:0 10:20 7:5 10:15 5:10 8:5 10:5 7:5 10:5 4:5 10:5
10:0 7:5 10:15 5:10 8:5 10:5 7:5 10:5 4:5 10:5 5:5
7:0 10:15 5:10 8:5 10:5 7:5 10:5 4:5 10:5 5:5 10:5
10:0 5:10 8:5 10:5 7:5 10:5 4:5 10:5 5:5 10:5 4:5
5:0 8:5 10:5 7:5 10:5 4:5 10:5 5:5 10:5 4:5 3:5
8:0 10:5 7:5 10:5 4:5 10:5 5:5 10:5 4:5 3:5 10:5
10:0 7:5 10:5 4:5 10:5 5:5 10:5 4:5 3:5 10:5 4:15
7:0 10:5 4:5 10:5 5:5 10:5 4:5 3:5 10:5 4:15 5:5
10:0 4:5 10:5 5:5 10:5 4:5 3:5 10:5 4:15 5:5 8:5
4:0 10:5 5:5 10:5 4:5 3:5 10:5 4:15 5:5 8:5 7:5
10:0 5:5 10:5 4:5 3:5 10:5 4:15 5:5 8:5 7:5 10:5
5:0 10:5 4:5 3:5 10:5 4:15 5:5 8:5 7:5 10:5 4:5
10:0 4:5 3:5 10:5 4:15 5:5 8:5 7:5 10:5 4:5 5:5
4:0 3:5 10:5 4:15 5:5 8:5 7:5 10:5 4:5 5:5 10:5
3:0 10:5 4:15 5:5 8:5 7:5 10:5 4:5 5:5 10:5 8:5
10:0 4:15 5:5 8:5 7:5 10:5 4:5 5:5 10:5 8:5 10:5
4:0 5:5 8:5 7:5 10:5 4:5 5:5 10:5 8:5 10:5 2:5
5:0 8:5 7:5 10:5 4:5 5:5 10:5 8:5 10:5 2:5 10:5
8:0 7:5 10:5 4:5 5:5 10:5 8:5 10:5 2:5 10:5 4:5
7:0 10:5 4:5 5:5 10:5 8:5 10:5 2:5 10:5 4:5 10:5
10:0 4:5 5:5 10:5 8:5 10:5 2:5 10:5 4:5 10:5 3:10
4:0 5:5 10:5 8:5 10:5 2:5 10:5 4:5 10:5 3:10 7:5
5:0 10:5 8:5 10:5 2:5 10:5 4:5 10:5 3:10 7:5 10:5
10:0 8:5 10:5 2:5 10:5 4:5 10:5 3:10 7:5 10:5 7:10
8:0 10:5 2:5 10:5 4:5 10:5 3:10 7:5 10:5 7:10 3:5
10:0 2:5 10:5 4:5 10:5 3:10 7:5 10:5 7:10 3:5 10:5
2:0 10:5 4:5 10:5 3:10 7:5 10:5 7:10 3:5 10:5 5:10
10:0 4:5 10:5 3:10 7:5 10:5 7:10 3:5 10:5 5:10 7:5
4:0 10:5 3:10 7:5 10:5 7:10 3:5 10:5 5:10 7:5 8:5
10:0 3:10 7:5 10:5 7:10 3:5 10:5 5:10 7:5 8:5 7:5
3:0 7:5 10:5 7:10 3:5 10:5 5:10 7:5 8:5 7:5 4:15
7:0 10:5 7:10 3:5 10:5 5:10 7:5 8:5 7:5 4:15 7:5
10:0 7:10 3:5 10:5 5:10 7:5 8:5 7:5 4:15 7:5 8:5
7:0 3:5 10:5 5:10 7:5 8:5 7:5 4:15 7:5 8:5 10:5
3:0 10:5 5:10 7:5 8:5 7:5 4:15 7:5 8:5 10:5 5:10
10:0 5:10 7:5 8:5 7:5 4:15 7:5 8:5 10:5 5:10 10:10
5:0 7:5 8:5 7:5 4:15 7:5 8:5 10:5 5:10 10:10 5:15
7:0 8:5 7:5 4:15 7:5 8:5 10:5 5:10 10:10 5:15 7:10
8:0 7:5 4:15 7:5 8:5 10:5 5:10 10:10 5:15 7:10 10:10
7:0 4:15 7:5 8:5 10:5 5:10 10:10 5:15 7:10 10:10 3:5
4:0 7:5 8:5 10:5 5:10 10:10 5:15 7:10 10:10 3:5 7:5
7:0 8:5 10:5 5:10 10:10 5:15 7:10 10:10 3:5 7:5 10:10
8:0 10:5 5:10 10:10 5:15 7:10 10:10 3:5 7:5 10:10 4:5
10:0 5:10 10:10 5:15 7:10 10:10 3:5 7:5 10:10 4:5 7:5
5:0 10:10 5:15 7:10 10:10 3:5 7:5 10:10 4:5 7:5 10:5
10:0 5:15 7:10 10:10 3:5 7:5 10:10 4:5 7:5 10:5 7:5
5:0 7:10 10:10 3:5 7:5 10:10 4:5 7:5 10:5 7:5 10:5
7:0 10:10 3:5 7:5 10:10 4:5 7:5 10:5 7:5 10:5 4:5
10:0 3:5 7:5 10:10 4:5 7:5 10:5 7:5 10:5 4:5 10:5
3:0 7:5 10:10 4:5 7:5 10:5 7:5 10:5 4:5 10:5 5:5
7:0 10:10 4:5 7:5 10:5 7:5 10:5 4:5 10:5 5:5 10:5
10:0 4:5 7:5 10:5 7:5 10:5 4:5 10:5 5:5 10:5 2:10
4:0 7:5 10:5 7:5 10:5 4:5 10:5 5:5 10:5 2:10 8:5
7:0 10:5 7:5 10:5 4:5 10:5 5:5 10:5 2:10 8:5 10:5
10:0 7:5 10:5 4:5 10:5 5:5 10:5 2:10 8:5 10:5 8:5
7:0 10:5 4:5 10:5 5:5 10:5 2:10 8:5 10:5 8:5 10:5
10:0 4:5 10:5 5:5 10:5 2:10 8:5 10:5 8:5 10:5 5:5
4:0 10:5 5:5 10:5 2:10 8:5 10:5 8:5 10:5 5:5 10:10
10:0 5:5 10:5 2:10 8:5 10:5 8:5 10:5 5:5 10:10 7:10
5:0 10:5 2:10 8:5 10:5 8:5 10:5 5:5 10:10 7:10 5:5
10:0 2:10 8:5 10:5 8:5 10:5 5:5 10:10 7:10 5:5 10:5
2:0 8:5 10:5 8:5 10:5 5:5 10:10 7:10 5:5 10:5 8:10
8:0 10:5 8:5 10:5 5:5 10:10 7:10 5:5 10:5 8:10 4:5
10:0 8:5 10:5 5:5 10:10 7:10 5:5 10:5 8:10 4:5 8:5
8:0 10:5 5:5 10:10 7:10 5:5 10:5 8:10 4:5 8:5 10:5
10:0 5:5 10:10 7:10 5:5 10:5 8:10 4:5 8:5 10:5 8:5
5:0 10:10 7:10 5:5 10:5 8:10 4:5 8:5 10:5 8:5 10:5
10:0 7:10 5:5 10:5 8:10 4:5 8:5 10:5 8:5 10:5 4:5
7:0 5:5 10:5 8:10 4:5 8:5 10:5 8:5 10:5 4:5 10:5
5:0 10:5 8:10 4:5 8:5 10:5 8:5 10:5 4:5 10:5 7:5
10:0 8:10 4:5 8:5 10:5 8:5 10:5 4:5 10:5 7:5 10:5
8:0 4:5 8:5 10:5 8:5 10:5 4:5 10:5 7:5 10:5 5:10
4:0 8:5 10:5 8:5 10:5 4:5 10:5 7:5 10:5 5:10 7:5
8:0 10:5 8:5 10:5 4:5 10:5 7:5 10:5 5:10 7:5 10:10
10:0 8:5 10:5 4:5 10:5 7:5 10:5 5:10 7:5 10:10 4:10
8:0 10:5 4:5 10:5 7:5 10:5 5:10 7:5 10:10 4:10 7:5
10:0 4:5 10:5 7:5 10:5 5:10 7:5 10:10 4:10 7:5 10:5
4:0 10:5 7:5 10:5 5:10 7:5 10:10 4:10 7:5 10:5 8:5
10:0 7:5 10:5 5:10 7:5 10:10 4:10 7:5 10:5 8:5 10:5
7:0 10:5 5:10 7:5 10:10 4:10 7:5 10:5 8:5 10:5 5:5
10:0 5:10 7:5 10:10 4:10 7:5 10:5 8:5 10:5 5:5 10:10
5:0 7:5 10:10 4:10 7:5 10:5 8:5 10:5 5:5 10:10 5:10
7:0 10:10 4:10 7:5 10:5 8:5 10:5 5:5 10:10 5:10 3:5
10:0 4:10 7:5 10:5 8:5 10:5 5:5 10:10 5:10 3:5 10:5
4:0 7:5 10:5 8:5 10:5 5:5 10:10 5:10 3:5 10:5 4:15
7:0 10:5 8:5 10:5 5:5 10:10 5:10 3:5 10:5 4:15 10:5
10:0 8:5 10:5 5:5 10:10 5:10 3:5 10:5 4:15 10:5 7:5
8:0 10:5 5:5 10:10 5:10 3:5 10:5 4:15 10:5 7:5 10:5
10:0 5:5 10:10 5:10 3:5 10:5 4:15 10:5 7:5 10:5 7:5
5:0 10:10 5:10 3:5 10:5 4:15 10:5 7:5 10:5 7:5
10:0 5:10 3:5 10:5 4:15 10:5 7:5 10:5 7:5
5:0 3:5 10:5 4:15 10:5 7:5 10:5 7:5
3:0 10:5 4:15 10:5 7:5 10:5 7:5
10:0 4:15 10:5 7:5 10:5 7:5
4:0 10:5 7:5 10:5 7:5
10:0 7:5 10:5 7:5
7:0 10:5 7:5
10:0 7:5
7:0