13:0 12:25 13:5 10:10 1:5 13:15 12:15 2:10 1:5 13:5 7:40
12:0 13:5 10:10 1:5 13:15 12:15 2:10 1:5 13:5 7:40 1:5
13:0 10:10 1:5 13:15 12:15 2:10 1:5 13:5 7:40 1:5 7:15
10:0 1:5 13:15 12:15 2:10 1:5 13:5 7:40 1:5 7:15 13:5
1:0 13:15 12:15 2:10 1:5 13:5 7:40 1:5 7:15 13:5 7:40
13:0 12:15 2:10 1:5 13:5 7:40 1:5 7:15 13:5 7:40 1:5
12:0 2:10 1:5 13:5 7:40 1:5 7:15 13:5 7:40 1:5 10:10
2:0 1:5 13:5 7:40 1:5 7:15 13:5 7:40 1:5 10:10 13:5
1:0 13:5 7:40 1:5 7:15 13:5 7:40 1:5 10:10 13:5 12:10
13:0 7:40 1:5 7:15 13:5 7:40 1:5 10:10 13:5 12:10 2:5
7:0 1:5 7:15 13:5 7:40 1:5 10:10 13:5 12:10 2:5 1:5
1:0 7:15 13:5 7:40 1:5 10:10 13:5 12:10 2:5 1:5 3:5
7:0 13:5 7:40 1:5 10:10 13:5 12:10 2:5 1:5 3:5 13:5
13:0 7:40 1:5 10:10 13:5 12:10 2:5 1:5 3:5 13:5 12:20
7:0 1:5 10:10 13:5 12:10 2:5 1:5 3:5 13:5 12:20 7:5
1:0 10:10 13:5 12:10 2:5 1:5 3:5 13:5 12:20 7:5 1:5
10:0 13:5 12:10 2:5 1:5 3:5 13:5 12:20 7:5 1:5 7:5
13:0 12:10 2:5 1:5 3:5 13:5 12:20 7:5 1:5 7:5 13:5
12:0 2:5 1:5 3:5 13:5 12:20 7:5 1:5 7:5 13:5 10:25
2:0 1:5 3:5 13:5 12:20 7:5 1:5 7:5 13:5 10:25 1:5
1:0 3:5 13:5 12:20 7:5 1:5 7:5 13:5 10:25 1:5 3:10
3:0 13:5 12:20 7:5 1:5 7:5 13:5 10:25 1:5 3:10 13:5
13:0 12:20 7:5 1:5 7:5 13:5 10:25 1:5 3:10 13:5 7:40
12:0 7:5 1:5 7:5 13:5 10:25 1:5 3:10 13:5 7:40 1:5
7:0 1:5 7:5 13:5 10:25 1:5 3:10 13:5 7:40 1:5 10:15
1:0 7:5 13:5 10:25 1:5 3:10 13:5 7:40 1:5 10:15 13:5
7:0 13:5 10:25 1:5 3:10 13:5 7:40 1:5 10:15 13:5 12:15
13:0 10:25 1:5 3:10 13:5 7:40 1:5 10:15 13:5 12:15 13:5
10:0 1:5 3:10 13:5 7:40 1:5 10:15 13:5 12:15 13:5 9:15
1:0 3:10 13:5 7:40 1:5 10:15 13:5 12:15 13:5 9:15 1:5
3:0 13:5 7:40 1:5 10:15 13:5 12:15 13:5 9:15 1:5 13:15
13:0 7:40 1:5 10:15 13:5 12:15 13:5 9:15 1:5 13:15 2:30
7:0 1:5 10:15 13:5 12:15 13:5 9:15 1:5 13:15 2:30 1:5
1:0 10:15 13:5 12:15 13:5 9:15 1:5 13:15 2:30 1:5 5:5
10:0 13:5 12:15 13:5 9:15 1:5 13:15 2:30 1:5 5:5 13:5
13:0 12:15 13:5 9:15 1:5 13:15 2:30 1:5 5:5 13:5 12:10
12:0 13:5 9:15 1:5 13:15 2:30 1:5 5:5 13:5 12:10 7:5
13:0 9:15 1:5 13:15 2:30 1:5 5:5 13:5 12:10 7:5 1:5
9:0 1:5 13:15 2:30 1:5 5:5 13:5 12:10 7:5 1:5 7:5
1:0 13:15 2:30 1:5 5:5 13:5 12:10 7:5 1:5 7:5 13:5
13:0 2:30 1:5 5:5 13:5 12:10 7:5 1:5 7:5 13:5 7:40
2:0 1:5 5:5 13:5 12:10 7:5 1:5 7:5 13:5 7:40 1:5
1:0 5:5 13:5 12:10 7:5 1:5 7:5 13:5 7:40 1:5 3:10
5:0 13:5 12:10 7:5 1:5 7:5 13:5 7:40 1:5 3:10 13:5
13:0 12:10 7:5 1:5 7:5 13:5 7:40 1:5 3:10 13:5 12:15
12:0 7:5 1:5 7:5 13:5 7:40 1:5 3:10 13:5 12:15 13:5
7:0 1:5 7:5 13:5 7:40 1:5 3:10 13:5 12:15 13:5 2:20
1:0 7:5 13:5 7:40 1:5 3:10 13:5 12:15 13:5 2:20 1:5
7:0 13:5 7:40 1:5 3:10 13:5 12:15 13:5 2:20 1:5 7:10
13:0 7:40 1:5 3:10 13:5 12:15 13:5 2:20 1:5 7:10 13:5
7:0 1:5 3:10 13:5 12:15 13:5 2:20 1:5 7:10 13:5 12:30
1:0 3:10 13:5 12:15 13:5 2:20 1:5 7:10 13:5 12:30 1:5
3:0 13:5 12:15 13:5 2:20 1:5 7:10 13:5 12:30 1:5 10:10
13:0 12:15 13:5 2:20 1:5 7:10 13:5 12:30 1:5 10:10 13:5
12:0 13:5 2:20 1:5 7:10 13:5 12:30 1:5 10:10 13:5 12:10
13:0 2:20 1:5 7:10 13:5 12:30 1:5 10:10 13:5 12:10 13:5
2:0 1:5 7:10 13:5 12:30 1:5 10:10 13:5 12:10 13:5 2:15
1:0 7:10 13:5 12:30 1:5 10:10 13:5 12:10 13:5 2:15 1:5
7:0 13:5 12:30 1:5 10:10 13:5 12:10 13:5 2:15 1:5 3:5
13:0 12:30 1:5 10:10 13:5 12:10 13:5 2:15 1:5 3:5 13:5
12:0 1:5 10:10 13:5 12:10 13:5 2:15 1:5 3:5 13:5 12:25
1:0 10:10 13:5 12:10 13:5 2:15 1:5 3:5 13:5 12:25 13:5
10:0 13:5 12:10 13:5 2:15 1:5 3:5 13:5 12:25 13:5 7:10
13:0 12:10 13:5 2:15 1:5 3:5 13:5 12:25 13:5 7:10 1:5
12:0 13:5 2:15 1:5 3:5 13:5 12:25 13:5 7:10 1:5 3:10
13:0 2:15 1:5 3:5 13:5 12:25 13:5 7:10 1:5 3:10 13:5
2:0 1:5 3:5 13:5 12:25 13:5 7:10 1:5 3:10 13:5 12:15
1:0 3:5 13:5 12:25 13:5 7:10 1:5 3:10 13:5 12:15 4:5
3:0 13:5 12:25 13:5 7:10 1:5 3:10 13:5 12:15 4:5 1:5
13:0 12:25 13:5 7:10 1:5 3:10 13:5 12:15 4:5 1:5 5:5
12:0 13:5 7:10 1:5 3:10 13:5 12:15 4:5 1:5 5:5 13:5
13:0 7:10 1:5 3:10 13:5 12:15 4:5 1:5 5:5 13:5 12:25
7:0 1:5 3:10 13:5 12:15 4:5 1:5 5:5 13:5 12:25 13:5
1:0 3:10 13:5 12:15 4:5 1:5 5:5 13:5 12:25 13:5 2:15
3:0 13:5 12:15 4:5 1:5 5:5 13:5 12:25 13:5 2:15 1:5
13:0 12:15 4:5 1:5 5:5 13:5 12:25 13:5 2:15 1:5 10:10
12:0 4:5 1:5 5:5 13:5 12:25 13:5 2:15 1:5 10:10 13:5
4:0 1:5 5:5 13:5 12:25 13:5 2:15 1:5 10:10 13:5 12:15
1:0 5:5 13:5 12:25 13:5 2:15 1:5 10:10 13:5 12:15 2:5
5:0 13:5 12:25 13:5 2:15 1:5 10:10 13:5 12:15 2:5 1:5
13:0 12:25 13:5 2:15 1:5 10:10 13:5 12:15 2:5 1:5 13:5
12:0 13:5 2:15 1:5 10:10 13:5 12:15 2:5 1:5 13:5 12:15
13:0 2:15 1:5 10:10 13:5 12:15 2:5 1:5 13:5 12:15 13:5
2:0 1:5 10:10 13:5 12:15 2:5 1:5 13:5 12:15 13:5 12:15
1:0 10:10 13:5 12:15 2:5 1:5 13:5 12:15 13:5 12:15 1:5
10:0 13:5 12:15 2:5 1:5 13:5 12:15 13:5 12:15 1:5 7:10
13:0 12:15 2:5 1:5 13:5 12:15 13:5 12:15 1:5 7:10 13:5
12:0 2:5 1:5 13:5 12:15 13:5 12:15 1:5 7:10 13:5 12:25
2:0 1:5 13:5 12:15 13:5 12:15 1:5 7:10 13:5 12:25 1:5
1:0 13:5 12:15 13:5 12:15 1:5 7:10 13:5 12:25 1:5 5:10
13:0 12:15 13:5 12:15 1:5 7:10 13:5 12:25 1:5 5:10 13:5
12:0 13:5 12:15 1:5 7:10 13:5 12:25 1:5 5:10 13:5 4:40
13:0 12:15 1:5 7:10 13:5 12:25 1:5 5:10 13:5 4:40 1:5
12:0 1:5 7:10 13:5 12:25 1:5 5:10 13:5 4:40 1:5 7:10
1:0 7:10 13:5 12:25 1:5 5:10 13:5 4:40 1:5 7:10 13:5
7:0 13:5 12:25 1:5 5:10 13:5 4:40 1:5 7:10 13:5 12:15
13:0 12:25 1:5 5:10 13:5 4:40 1:5 7:10 13:5 12:15 4:5
12:0 1:5 5:10 13:5 4:40 1:5 7:10 13:5 12:15 4:5 1:5
1:0 5:10 13:5 4:40 1:5 7:10 13:5 12:15 4:5 1:5 7:5
5:0 13:5 4:40 1:5 7:10 13:5 12:15 4:5 1:5 7:5 13:5
13:0 4:40 1:5 7:10 13:5 12:15 4:5 1:5 7:5 13:5 12:10
4:0 1:5 7:10 13:5 12:15 4:5 1:5 7:5 13:5 12:10 13:5
1:0 7:10 13:5 12:15 4:5 1:5 7:5 13:5 12:10 13:5 12:10
7:0 13:5 12:15 4:5 1:5 7:5 13:5 12:10 13:5 12:10 2:5
13:0 12:15 4:5 1:5 7:5 13:5 12:10 13:5 12:10 2:5 1:5
12:0 4:5 1:5 7:5 13:5 12:10 13:5 12:10 2:5 1:5 3:5
4:0 1:5 7:5 13:5 12:10 13:5 12:10 2:5 1:5 3:5 13:5
1:0 7:5 13:5 12:10 13:5 12:10 2:5 1:5 3:5 13:5 7:40
7:0 13:5 12:10 13:5 12:10 2:5 1:5 3:5 13:5 7:40 1:5
13:0 12:10 13:5 12:10 2:5 1:5 3:5 13:5 7:40 1:5 13:15
12:0 13:5 12:10 2:5 1:5 3:5 13:5 7:40 1:5 13:15 7:25
13:0 12:10 2:5 1:5 3:5 13:5 7:40 1:5 13:15 7:25 1:5
12:0 2:5 1:5 3:5 13:5 7:40 1:5 13:15 7:25 1:5 7:5
2:0 1:5 3:5 13:5 7:40 1:5 13:15 7:25 1:5 7:5 13:5
1:0 3:5 13:5 7:40 1:5 13:15 7:25 1:5 7:5 13:5 12:10
3:0 13:5 7:40 1:5 13:15 7:25 1:5 7:5 13:5 12:10 4:5
13:0 7:40 1:5 13:15 7:25 1:5 7:5 13:5 12:10 4:5 1:5
7:0 1:5 13:15 7:25 1:5 7:5 13:5 12:10 4:5 1:5 3:5
1:0 13:15 7:25 1:5 7:5 13:5 12:10 4:5 1:5 3:5 13:5
13:0 7:25 1:5 7:5 13:5 12:10 4:5 1:5 3:5 13:5 12:20
7:0 1:5 7:5 13:5 12:10 4:5 1:5 3:5 13:5 12:20 4:5
1:0 7:5 13:5 12:10 4:5 1:5 3:5 13:5 12:20 4:5 1:5
7:0 13:5 12:10 4:5 1:5 3:5 13:5 12:20 4:5 1:5 7:5
13:0 12:10 4:5 1:5 3:5 13:5 12:20 4:5 1:5 7:5 13:5
12:0 4:5 1:5 3:5 13:5 12:20 4:5 1:5 7:5 13:5 7:40
4:0 1:5 3:5 13:5 12:20 4:5 1:5 7:5 13:5 7:40 1:5
1:0 3:5 13:5 12:20 4:5 1:5 7:5 13:5 7:40 1:5 3:10
3:0 13:5 12:20 4:5 1:5 7:5 13:5 7:40 1:5 3:10 13:5
13:0 12:20 4:5 1:5 7:5 13:5 7:40 1:5 3:10 13:5 12:15
12:0 4:5 1:5 7:5 13:5 7:40 1:5 3:10 13:5 12:15 13:10
4:0 1:5 7:5 13:5 7:40 1:5 3:10 13:5 12:15 13:10 6:15
1:0 7:5 13:5 7:40 1:5 3:10 13:5 12:15 13:10 6:15 1:5
7:0 13:5 7:40 1:5 3:10 13:5 12:15 13:10 6:15 1:5 5:10
13:0 7:40 1:5 3:10 13:5 12:15 13:10 6:15 1:5 5:10 13:5
7:0 1:5 3:10 13:5 12:15 13:10 6:15 1:5 5:10 13:5 12:10
1:0 3:10 13:5 12:15 13:10 6:15 1:5 5:10 13:5 12:10 13:5
3:0 13:5 12:15 13:10 6:15 1:5 5:10 13:5 12:10 13:5 12:10
13:0 12:15 13:10 6:15 1:5 5:10 13:5 12:10 13:5 12:10 2:5
12:0 13:10 6:15 1:5 5:10 13:5 12:10 13:5 12:10 2:5 1:5
13:0 6:15 1:5 5:10 13:5 12:10 13:5 12:10 2:5 1:5 13:10
6:0 1:5 5:10 13:5 12:10 13:5 12:10 2:5 1:5 13:10 7:40
1:0 5:10 13:5 12:10 13:5 12:10 2:5 1:5 13:10 7:40 1:5
5:0 13:5 12:10 13:5 12:10 2:5 1:5 13:10 7:40 1:5 13:15
13:0 12:10 13:5 12:10 2:5 1:5 13:10 7:40 1:5 13:15 12:20
12:0 13:5 12:10 2:5 1:5 13:10 7:40 1:5 13:15 12:20 13:5
13:0 12:10 2:5 1:5 13:10 7:40 1:5 13:15 12:20 13:5 2:20
12:0 2:5 1:5 13:10 7:40 1:5 13:15 12:20 13:5 2:20 1:5
2:0 1:5 13:10 7:40 1:5 13:15 12:20 13:5 2:20 1:5 7:10
1:0 13:10 7:40 1:5 13:15 12:20 13:5 2:20 1:5 7:10 13:5
13:0 7:40 1:5 13:15 12:20 13:5 2:20 1:5 7:10 13:5 12:20
7:0 1:5 13:15 12:20 13:5 2:20 1:5 7:10 13:5 12:20 4:5
1:0 13:15 12:20 13:5 2:20 1:5 7:10 13:5 12:20 4:5 1:5
13:0 12:20 13:5 2:20 1:5 7:10 13:5 12:20 4:5 1:5 3:5
12:0 13:5 2:20 1:5 7:10 13:5 12:20 4:5 1:5 3:5 13:5
13:0 2:20 1:5 7:10 13:5 12:20 4:5 1:5 3:5 13:5 12:15
2:0 1:5 7:10 13:5 12:20 4:5 1:5 3:5 13:5 12:15 13:5
1:0 7:10 13:5 12:20 4:5 1:5 3:5 13:5 12:15 13:5 12:15
7:0 13:5 12:20 4:5 1:5 3:5 13:5 12:15 13:5 12:15 2:5
13:0 12:20 4:5 1:5 3:5 13:5 12:15 13:5 12:15 2:5 1:5
12:0 4:5 1:5 3:5 13:5 12:15 13:5 12:15 2:5 1:5 7:5
4:0 1:5 3:5 13:5 12:15 13:5 12:15 2:5 1:5 7:5 13:5
1:0 3:5 13:5 12:15 13:5 12:15 2:5 1:5 7:5 13:5 4:40
3:0 13:5 12:15 13:5 12:15 2:5 1:5 7:5 13:5 4:40 1:5
13:0 12:15 13:5 12:15 2:5 1:5 7:5 13:5 4:40 1:5 3:10
12:0 13:5 12:15 2:5 1:5 7:5 13:5 4:40 1:5 3:10 13:5
13:0 12:15 2:5 1:5 7:5 13:5 4:40 1:5 3:10 13:5 12:20
12:0 2:5 1:5 7:5 13:5 4:40 1:5 3:10 13:5 12:20 1:5
2:0 1:5 7:5 13:5 4:40 1:5 3:10 13:5 12:20 1:5 3:5
1:0 7:5 13:5 4:40 1:5 3:10 13:5 12:20 1:5 3:5 13:5
7:0 13:5 4:40 1:5 3:10 13:5 12:20 1:5 3:5 13:5 12:10
13:0 4:40 1:5 3:10 13:5 12:20 1:5 3:5 13:5 12:10 13:5
4:0 1:5 3:10 13:5 12:20 1:5 3:5 13:5 12:10 13:5 10:15
1:0 3:10 13:5 12:20 1:5 3:5 13:5 12:10 13:5 10:15 1:5
3:0 13:5 12:20 1:5 3:5 13:5 12:10 13:5 10:15 1:5 10:10
13:0 12:20 1:5 3:5 13:5 12:10 13:5 10:15 1:5 10:10 13:5
12:0 1:5 3:5 13:5 12:10 13:5 10:15 1:5 10:10 13:5 12:20
1:0 3:5 13:5 12:10 13:5 10:15 1:5 10:10 13:5 12:20 13:5
3:0 13:5 12:10 13:5 10:15 1:5 10:10 13:5 12:20 13:5 1:15
13:0 12:10 13:5 10:15 1:5 10:10 13:5 12:20 13:5 1:15 7:15
12:0 13:5 10:15 1:5 10:10 13:5 12:20 13:5 1:15 7:15 13:5
13:0 10:15 1:5 10:10 13:5 12:20 13:5 1:15 7:15 13:5 12:15
10:0 1:5 10:10 13:5 12:20 13:5 1:15 7:15 13:5 12:15 13:5
1:0 10:10 13:5 12:20 13:5 1:15 7:15 13:5 12:15 13:5 2:20
10:0 13:5 12:20 13:5 1:15 7:15 13:5 12:15 13:5 2:20 1:5
13:0 12:20 13:5 1:15 7:15 13:5 12:15 13:5 2:20 1:5 10:10
12:0 13:5 1:15 7:15 13:5 12:15 13:5 2:20 1:5 10:10 13:5
13:0 1:15 7:15 13:5 12:15 13:5 2:20 1:5 10:10 13:5 7:30
1:0 7:15 13:5 12:15 13:5 2:20 1:5 10:10 13:5 7:30 1:5
7:0 13:5 12:15 13:5 2:20 1:5 10:10 13:5 7:30 1:5 13:10
13:0 12:15 13:5 2:20 1:5 10:10 13:5 7:30 1:5 13:10 7:40
12:0 13:5 2:20 1:5 10:10 13:5 7:30 1:5 13:10 7:40 1:5
13:0 2:20 1:5 10:10 13:5 7:30 1:5 13:10 7:40 1:5 10:15
2:0 1:5 10:10 13:5 7:30 1:5 13:10 7:40 1:5 10:15 13:5
1:0 10:10 13:5 7:30 1:5 13:10 7:40 1:5 10:15 13:5 12:15
10:0 13:5 7:30 1:5 13:10 7:40 1:5 10:15 13:5 12:15 2:5
13:0 7:30 1:5 13:10 7:40 1:5 10:15 13:5 12:15 2:5 1:5
7:0 1:5 13:10 7:40 1:5 10:15 13:5 12:15 2:5 1:5 13:5
1:0 13:10 7:40 1:5 10:15 13:5 12:15 2:5 1:5 13:5 4:30
13:0 7:40 1:5 10:15 13:5 12:15 2:5 1:5 13:5 4:30 1:5
7:0 1:5 10:15 13:5 12:15 2:5 1:5 13:5 4:30 1:5 5:5
1:0 10:15 13:5 12:15 2:5 1:5 13:5 4:30 1:5 5:5 13:5
10:0 13:5 12:15 2:5 1:5 13:5 4:30 1:5 5:5 13:5 12:15
13:0 12:15 2:5 1:5 13:5 4:30 1:5 5:5 13:5 12:15 13:5
12:0 2:5 1:5 13:5 4:30 1:5 5:5 13:5 12:15 13:5 4:15
2:0 1:5 13:5 4:30 1:5 5:5 13:5 12:15 13:5 4:15 1:5
1:0 13:5 4:30 1:5 5:5 13:5 12:15 13:5 4:15 1:5 7:10
13:0 4:30 1:5 5:5 13:5 12:15 13:5 4:15 1:5 7:10 13:5
4:0 1:5 5:5 13:5 12:15 13:5 4:15 1:5 7:10 13:5 12:25
1:0 5:5 13:5 12:15 13:5 4:15 1:5 7:10 13:5 12:25 2:5
5:0 13:5 12:15 13:5 4:15 1:5 7:10 13:5 12:25 2:5 1:5
13:0 12:15 13:5 4:15 1:5 7:10 13:5 12:25 2:5 1:5 3:5
12:0 13:5 4:15 1:5 7:10 13:5 12:25 2:5 1:5 3:5 13:5
13:0 4:15 1:5 7:10 13:5 12:25 2:5 1:5 3:5 13:5 12:30
4:0 1:5 7:10 13:5 12:25 2:5 1:5 3:5 13:5 12:30 1:5
1:0 7:10 13:5 12:25 2:5 1:5 3:5 13:5 12:30 1:5 3:10
7:0 13:5 12:25 2:5 1:5 3:5 13:5 12:30 1:5 3:10 13:5
13:0 12:25 2:5 1:5 3:5 13:5 12:30 1:5 3:10 13:5 12:10
12:0 2:5 1:5 3:5 13:5 12:30 1:5 3:10 13:5 12:10 13:5
2:0 1:5 3:5 13:5 12:30 1:5 3:10 13:5 12:10 13:5 10:15
1:0 3:5 13:5 12:30 1:5 3:10 13:5 12:10 13:5 10:15 1:5
3:0 13:5 12:30 1:5 3:10 13:5 12:10 13:5 10:15 1:5 7:10
13:0 12:30 1:5 3:10 13:5 12:10 13:5 10:15 1:5 7:10 13:5
12:0 1:5 3:10 13:5 12:10 13:5 10:15 1:5 7:10 13:5 10:35
1:0 3:10 13:5 12:10 13:5 10:15 1:5 7:10 13:5 10:35 1:5
3:0 13:5 12:10 13:5 10:15 1:5 7:10 13:5 10:35 1:5 13:15
13:0 12:10 13:5 10:15 1:5 7:10 13:5 10:35 1:5 13:15 12:20
12:0 13:5 10:15 1:5 7:10 13:5 10:35 1:5 13:15 12:20 4:5
13:0 10:15 1:5 7:10 13:5 10:35 1:5 13:15 12:20 4:5 1:5
10:0 1:5 7:10 13:5 10:35 1:5 13:15 12:20 4:5 1:5 7:5
1:0 7:10 13:5 10:35 1:5 13:15 12:20 4:5 1:5 7:5 13:5
7:0 13:5 10:35 1:5 13:15 12:20 4:5 1:5 7:5 13:5 12:10
13:0 10:35 1:5 13:15 12:20 4:5 1:5 7:5 13:5 12:10 13:5
10:0 1:5 13:15 12:20 4:5 1:5 7:5 13:5 12:10 13:5 12:10
1:0 13:15 12:20 4:5 1:5 7:5 13:5 12:10 13:5 12:10 1:5
13:0 12:20 4:5 1:5 7:5 13:5 12:10 13:5 12:10 1:5 3:10
12:0 4:5 1:5 7:5 13:5 12:10 13:5 12:10 1:5 3:10 13:5
4:0 1:5 7:5 13:5 12:10 13:5 12:10 1:5 3:10 13:5 1:45
1:0 7:5 13:5 12:10 13:5 12:10 1:5 3:10 13:5 1:45 10:15
7:0 13:5 12:10 13:5 12:10 1:5 3:10 13:5 1:45 10:15 13:5
13:0 12:10 13:5 12:10 1:5 3:10 13:5 1:45 10:15 13:5 12:15
12:0 13:5 12:10 1:5 3:10 13:5 1:45 10:15 13:5 12:15 13:5
13:0 12:10 1:5 3:10 13:5 1:45 10:15 13:5 12:15 13:5 12:15
12:0 1:5 3:10 13:5 1:45 10:15 13:5 12:15 13:5 12:15 1:5
1:0 3:10 13:5 1:45 10:15 13:5 12:15 13:5 12:15 1:5 10:15
3:0 13:5 1:45 10:15 13:5 12:15 13:5 12:15 1:5 10:15 13:5
13:0 1:45 10:15 13:5 12:15 13:5 12:15 1:5 10:15 13:5 7:25
1:0 10:15 13:5 12:15 13:5 12:15 1:5 10:15 13:5 7:25 1:5
10:0 13:5 12:15 13:5 12:15 1:5 10:15 13:5 7:25 1:5 7:10
13:0 12:15 13:5 12:15 1:5 10:15 13:5 7:25 1:5 7:10 13:5
12:0 13:5 12:15 1:5 10:15 13:5 7:25 1:5 7:10 13:5 10:40
13:0 12:15 1:5 10:15 13:5 7:25 1:5 7:10 13:5 10:40 1:5
12:0 1:5 10:15 13:5 7:25 1:5 7:10 13:5 10:40 1:5 13:15
1:0 10:15 13:5 7:25 1:5 7:10 13:5 10:40 1:5 13:15 12:15
10:0 13:5 7:25 1:5 7:10 13:5 10:40 1:5 13:15 12:15 13:10
13:0 7:25 1:5 7:10 13:5 10:40 1:5 13:15 12:15 13:10 10:15
7:0 1:5 7:10 13:5 10:40 1:5 13:15 12:15 13:10 10:15 1:5
1:0 7:10 13:5 10:40 1:5 13:15 12:15 13:10 10:15 1:5 3:10
7:0 13:5 10:40 1:5 13:15 12:15 13:10 10:15 1:5 3:10 13:5
13:0 10:40 1:5 13:15 12:15 13:10 10:15 1:5 3:10 13:5 12:25
10:0 1:5 13:15 12:15 13:10 10:15 1:5 3:10 13:5 12:25 2:5
1:0 13:15 12:15 13:10 10:15 1:5 3:10 13:5 12:25 2:5 1:5
13:0 12:15 13:10 10:15 1:5 3:10 13:5 12:25 2:5 1:5 13:10
12:0 13:10 10:15 1:5 3:10 13:5 12:25 2:5 1:5 13:10 1:40
13:0 10:15 1:5 3:10 13:5 12:25 2:5 1:5 13:10 1:40 4:10
10:0 1:5 3:10 13:5 12:25 2:5 1:5 13:10 1:40 4:10 13:5
1:0 3:10 13:5 12:25 2:5 1:5 13:10 1:40 4:10 13:5 12:20
3:0 13:5 12:25 2:5 1:5 13:10 1:40 4:10 13:5 12:20 13:5
13:0 12:25 2:5 1:5 13:10 1:40 4:10 13:5 12:20 13:5 1:15
12:0 2:5 1:5 13:10 1:40 4:10 13:5 12:20 13:5 1:15 10:15
2:0 1:5 13:10 1:40 4:10 13:5 12:20 13:5 1:15 10:15 13:5
1:0 13:10 1:40 4:10 13:5 12:20 13:5 1:15 10:15 13:5 12:15
13:0 1:40 4:10 13:5 12:20 13:5 1:15 10:15 13:5 12:15 4:5
1:0 4:10 13:5 12:20 13:5 1:15 10:15 13:5 12:15 4:5 1:5
4:0 13:5 12:20 13:5 1:15 10:15 13:5 12:15 4:5 1:5 10:5
13:0 12:20 13:5 1:15 10:15 13:5 12:15 4:5 1:5 10:5 13:5
12:0 13:5 1:15 10:15 13:5 12:15 4:5 1:5 10:5 13:5 4:30
13:0 1:15 10:15 13:5 12:15 4:5 1:5 10:5 13:5 4:30 1:5
1:0 10:15 13:5 12:15 4:5 1:5 10:5 13:5 4:30 1:5 5:5
10:0 13:5 12:15 4:5 1:5 10:5 13:5 4:30 1:5 5:5 13:5
13:0 12:15 4:5 1:5 10:5 13:5 4:30 1:5 5:5 13:5 12:30
12:0 4:5 1:5 10:5 13:5 4:30 1:5 5:5 13:5 12:30 1:5
4:0 1:5 10:5 13:5 4:30 1:5 5:5 13:5 12:30 1:5 5:10
1:0 10:5 13:5 4:30 1:5 5:5 13:5 12:30 1:5 5:10 13:5
10:0 13:5 4:30 1:5 5:5 13:5 12:30 1:5 5:10 13:5 12:10
13:0 4:30 1:5 5:5 13:5 12:30 1:5 5:10 13:5 12:10 13:5
4:0 1:5 5:5 13:5 12:30 1:5 5:10 13:5 12:10 13:5 7:15
1:0 5:5 13:5 12:30 1:5 5:10 13:5 12:10 13:5 7:15 1:5
5:0 13:5 12:30 1:5 5:10 13:5 12:10 13:5 7:15 1:5 13:10
13:0 12:30 1:5 5:10 13:5 12:10 13:5 7:15 1:5 13:10 12:20
12:0 1:5 5:10 13:5 12:10 13:5 7:15 1:5 13:10 12:20 10:5
1:0 5:10 13:5 12:10 13:5 7:15 1:5 13:10 12:20 10:5 1:5
5:0 13:5 12:10 13:5 7:15 1:5 13:10 12:20 10:5 1:5 7:10
13:0 12:10 13:5 7:15 1:5 13:10 12:20 10:5 1:5 7:10 13:5
12:0 13:5 7:15 1:5 13:10 12:20 10:5 1:5 7:10 13:5 2:35
13:0 7:15 1:5 13:10 12:20 10:5 1:5 7:10 13:5 2:35 1:5
7:0 1:5 13:10 12:20 10:5 1:5 7:10 13:5 2:35 1:5 13:10
1:0 13:10 12:20 10:5 1:5 7:10 13:5 2:35 1:5 13:10 4:45
13:0 12:20 10:5 1:5 7:10 13:5 2:35 1:5 13:10 4:45 1:5
12:0 10:5 1:5 7:10 13:5 2:35 1:5 13:10 4:45 1:5 3:10
10:0 1:5 7:10 13:5 2:35 1:5 13:10 4:45 1:5 3:10 13:5
1:0 7:10 13:5 2:35 1:5 13:10 4:45 1:5 3:10 13:5 12:15
7:0 13:5 2:35 1:5 13:10 4:45 1:5 3:10 13:5 12:15 4:5
13:0 2:35 1:5 13:10 4:45 1:5 3:10 13:5 12:15 4:5 1:5
2:0 1:5 13:10 4:45 1:5 3:10 13:5 12:15 4:5 1:5 7:5
1:0 13:10 4:45 1:5 3:10 13:5 12:15 4:5 1:5 7:5 13:5
13:0 4:45 1:5 3:10 13:5 12:15 4:5 1:5 7:5 13:5 7:30
4:0 1:5 3:10 13:5 12:15 4:5 1:5 7:5 13:5 7:30 1:5
1:0 3:10 13:5 12:15 4:5 1:5 7:5 13:5 7:30 1:5 13:10
3:0 13:5 12:15 4:5 1:5 7:5 13:5 7:30 1:5 13:10 12:40
13:0 12:15 4:5 1:5 7:5 13:5 7:30 1:5 13:10 12:40 1:5
12:0 4:5 1:5 7:5 13:5 7:30 1:5 13:10 12:40 1:5 13:15
4:0 1:5 7:5 13:5 7:30 1:5 13:10 12:40 1:5 13:15 12:20
1:0 7:5 13:5 7:30 1:5 13:10 12:40 1:5 13:15 12:20 1:5
7:0 13:5 7:30 1:5 13:10 12:40 1:5 13:15 12:20 1:5 13:10
13:0 7:30 1:5 13:10 12:40 1:5 13:15 12:20 1:5 13:10 2:30
7:0 1:5 13:10 12:40 1:5 13:15 12:20 1:5 13:10 2:30 1:5
1:0 13:10 12:40 1:5 13:15 12:20 1:5 13:10 2:30 1:5 5:5
13:0 12:40 1:5 13:15 12:20 1:5 13:10 2:30 1:5 5:5 13:5
12:0 1:5 13:15 12:20 1:5 13:10 2:30 1:5 5:5 13:5 12:15
1:0 13:15 12:20 1:5 13:10 2:30 1:5 5:5 13:5 12:15 13:5
13:0 12:20 1:5 13:10 2:30 1:5 5:5 13:5 12:15 13:5 4:15
12:0 1:5 13:10 2:30 1:5 5:5 13:5 12:15 13:5 4:15 1:5
1:0 13:10 2:30 1:5 5:5 13:5 12:15 13:5 4:15 1:5 7:10
13:0 2:30 1:5 5:5 13:5 12:15 13:5 4:15 1:5 7:10 13:5
2:0 1:5 5:5 13:5 12:15 13:5 4:15 1:5 7:10 13:5 4:25
1:0 5:5 13:5 12:15 13:5 4:15 1:5 7:10 13:5 4:25 1:5
5:0 13:5 12:15 13:5 4:15 1:5 7:10 13:5 4:25 1:5 5:5
13:0 12:15 13:5 4:15 1:5 7:10 13:5 4:25 1:5 5:5 13:5
12:0 13:5 4:15 1:5 7:10 13:5 4:25 1:5 5:5 13:5 12:10
13:0 4:15 1:5 7:10 13:5 4:25 1:5 5:5 13:5 12:10 13:5
4:0 1:5 7:10 13:5 4:25 1:5 5:5 13:5 12:10 13:5 4:20
1:0 7:10 13:5 4:25 1:5 5:5 13:5 12:10 13:5 4:20 1:5
7:0 13:5 4:25 1:5 5:5 13:5 12:10 13:5 4:20 1:5 11:10
13:0 4:25 1:5 5:5 13:5 12:10 13:5 4:20 1:5 11:10 13:5
4:0 1:5 5:5 13:5 12:10 13:5 4:20 1:5 11:10 13:5 10:30
1:0 5:5 13:5 12:10 13:5 4:20 1:5 11:10 13:5 10:30 1:5
5:0 13:5 12:10 13:5 4:20 1:5 11:10 13:5 10:30 1:5 10:10
13:0 12:10 13:5 4:20 1:5 11:10 13:5 10:30 1:5 10:10 13:5
12:0 13:5 4:20 1:5 11:10 13:5 10:30 1:5 10:10 13:5 12:25
13:0 4:20 1:5 11:10 13:5 10:30 1:5 10:10 13:5 12:25 1:5
4:0 1:5 11:10 13:5 10:30 1:5 10:10 13:5 12:25 1:5 5:10
1:0 11:10 13:5 10:30 1:5 10:10 13:5 12:25 1:5 5:10 13:5
11:0 13:5 10:30 1:5 10:10 13:5 12:25 1:5 5:10 13:5 12:15
13:0 10:30 1:5 10:10 13:5 12:25 1:5 5:10 13:5 12:15 13:5
10:0 1:5 10:10 13:5 12:25 1:5 5:10 13:5 12:15 13:5 4:10
1:0 10:10 13:5 12:25 1:5 5:10 13:5 12:15 13:5 4:10 1:5
10:0 13:5 12:25 1:5 5:10 13:5 12:15 13:5 4:10 1:5 5:5
13:0 12:25 1:5 5:10 13:5 12:15 13:5 4:10 1:5 5:5 13:5
12:0 1:5 5:10 13:5 12:15 13:5 4:10 1:5 5:5 13:5 7:30
1:0 5:10 13:5 12:15 13:5 4:10 1:5 5:5 13:5 7:30 1:5
5:0 13:5 12:15 13:5 4:10 1:5 5:5 13:5 7:30 1:5 5:10
13:0 12:15 13:5 4:10 1:5 5:5 13:5 7:30 1:5 5:10 13:5
12:0 13:5 4:10 1:5 5:5 13:5 7:30 1:5 5:10 13:5 4:30
13:0 4:10 1:5 5:5 13:5 7:30 1:5 5:10 13:5 4:30 1:5
4:0 1:5 5:5 13:5 7:30 1:5 5:10 13:5 4:30 1:5 5:5
1:0 5:5 13:5 7:30 1:5 5:10 13:5 4:30 1:5 5:5 13:5
5:0 13:5 7:30 1:5 5:10 13:5 4:30 1:5 5:5 13:5 2:35
13:0 7:30 1:5 5:10 13:5 4:30 1:5 5:5 13:5 2:35 1:5
7:0 1:5 5:10 13:5 4:30 1:5 5:5 13:5 2:35 1:5 13:10
1:0 5:10 13:5 4:30 1:5 5:5 13:5 2:35 1:5 13:10 7:40
5:0 13:5 4:30 1:5 5:5 13:5 2:35 1:5 13:10 7:40 1:5
13:0 4:30 1:5 5:5 13:5 2:35 1:5 13:10 7:40 1:5 7:15
4:0 1:5 5:5 13:5 2:35 1:5 13:10 7:40 1:5 7:15 13:5
1:0 5:5 13:5 2:35 1:5 13:10 7:40 1:5 7:15 13:5 12:35
5:0 13:5 2:35 1:5 13:10 7:40 1:5 7:15 13:5 12:35 4:5
13:0 2:35 1:5 13:10 7:40 1:5 7:15 13:5 12:35 4:5 1:5
2:0 1:5 13:10 7:40 1:5 7:15 13:5 12:35 4:5 1:5 13:10
1:0 13:10 7:40 1:5 7:15 13:5 12:35 4:5 1:5 13:10 12:30
13:0 7:40 1:5 7:15 13:5 12:35 4:5 1:5 13:10 12:30 2:5
7:0 1:5 7:15 13:5 12:35 4:5 1:5 13:10 12:30 2:5 1:5
1:0 7:15 13:5 12:35 4:5 1:5 13:10 12:30 2:5 1:5 5:5
7:0 13:5 12:35 4:5 1:5 13:10 12:30 2:5 1:5 5:5 13:5
13:0 12:35 4:5 1:5 13:10 12:30 2:5 1:5 5:5 13:5 12:15
12:0 4:5 1:5 13:10 12:30 2:5 1:5 5:5 13:5 12:15 10:10
4:0 1:5 13:10 12:30 2:5 1:5 5:5 13:5 12:15 10:10 1:5
1:0 13:10 12:30 2:5 1:5 5:5 13:5 12:15 10:10 1:5 7:10
13:0 12:30 2:5 1:5 5:5 13:5 12:15 10:10 1:5 7:10 13:5
12:0 2:5 1:5 5:5 13:5 12:15 10:10 1:5 7:10 13:5 12:5
2:0 1:5 5:5 13:5 12:15 10:10 1:5 7:10 13:5 12:5 2:10
1:0 5:5 13:5 12:15 10:10 1:5 7:10 13:5 12:5 2:10 3:5
5:0 13:5 12:15 10:10 1:5 7:10 13:5 12:5 2:10 3:5 13:5
13:0 12:15 10:10 1:5 7:10 13:5 12:5 2:10 3:5 13:5 1:40
12:0 10:10 1:5 7:10 13:5 12:5 2:10 3:5 13:5 1:40 7:15
10:0 1:5 7:10 13:5 12:5 2:10 3:5 13:5 1:40 7:15 13:5
1:0 7:10 13:5 12:5 2:10 3:5 13:5 1:40 7:15 13:5 12:20
7:0 13:5 12:5 2:10 3:5 13:5 1:40 7:15 13:5 12:20 4:5
13:0 12:5 2:10 3:5 13:5 1:40 7:15 13:5 12:20 4:5 1:5
12:0 2:10 3:5 13:5 1:40 7:15 13:5 12:20 4:5 1:5 10:5
2:0 3:5 13:5 1:40 7:15 13:5 12:20 4:5 1:5 10:5 13:5
3:0 13:5 1:40 7:15 13:5 12:20 4:5 1:5 10:5 13:5 2:30
13:0 1:40 7:15 13:5 12:20 4:5 1:5 10:5 13:5 2:30 1:5
1:0 7:15 13:5 12:20 4:5 1:5 10:5 13:5 2:30 1:5 3:5
7:0 13:5 12:20 4:5 1:5 10:5 13:5 2:30 1:5 3:5 13:5
13:0 12:20 4:5 1:5 10:5 13:5 2:30 1:5 3:5 13:5 7:35
12:0 4:5 1:5 10:5 13:5 2:30 1:5 3:5 13:5 7:35 1:5
4:0 1:5 10:5 13:5 2:30 1:5 3:5 13:5 7:35 1:5 13:10
1:0 10:5 13:5 2:30 1:5 3:5 13:5 7:35 1:5 13:10 12:10
10:0 13:5 2:30 1:5 3:5 13:5 7:35 1:5 13:10 12:10 13:5
13:0 2:30 1:5 3:5 13:5 7:35 1:5 13:10 12:10 13:5 4:15
2:0 1:5 3:5 13:5 7:35 1:5 13:10 12:10 13:5 4:15 1:5
1:0 3:5 13:5 7:35 1:5 13:10 12:10 13:5 4:15 1:5 11:10
3:0 13:5 7:35 1:5 13:10 12:10 13:5 4:15 1:5 11:10 13:5
13:0 7:35 1:5 13:10 12:10 13:5 4:15 1:5 11:10 13:5 1:40
7:0 1:5 13:10 12:10 13:5 4:15 1:5 11:10 13:5 1:40 7:15
1:0 13:10 12:10 13:5 4:15 1:5 11:10 13:5 1:40 7:15 13:5
13:0 12:10 13:5 4:15 1:5 11:10 13:5 1:40 7:15 13:5 12:15
12:0 13:5 4:15 1:5 11:10 13:5 1:40 7:15 13:5 12:15 2:5
13:0 4:15 1:5 11:10 13:5 1:40 7:15 13:5 12:15 2:5 1:5
4:0 1:5 11:10 13:5 1:40 7:15 13:5 12:15 2:5 1:5 13:5
1:0 11:10 13:5 1:40 7:15 13:5 12:15 2:5 1:5 13:5 2:45
11:0 13:5 1:40 7:15 13:5 12:15 2:5 1:5 13:5 2:45 1:5
13:0 1:40 7:15 13:5 12:15 2:5 1:5 13:5 2:45 1:5 7:10
1:0 7:15 13:5 12:15 2:5 1:5 13:5 2:45 1:5 7:10 13:5
7:0 13:5 12:15 2:5 1:5 13:5 2:45 1:5 7:10 13:5 12:20
13:0 12:15 2:5 1:5 13:5 2:45 1:5 7:10 13:5 12:20 13:5
12:0 2:5 1:5 13:5 2:45 1:5 7:10 13:5 12:20 13:5 7:15
2:0 1:5 13:5 2:45 1:5 7:10 13:5 12:20 13:5 7:15 1:5
1:0 13:5 2:45 1:5 7:10 13:5 12:20 13:5 7:15 1:5 5:10
13:0 2:45 1:5 7:10 13:5 12:20 13:5 7:15 1:5 5:10 13:5
2:0 1:5 7:10 13:5 12:20 13:5 7:15 1:5 5:10 13:5 12:25
1:0 7:10 13:5 12:20 13:5 7:15 1:5 5:10 13:5 12:25 1:5
7:0 13:5 12:20 13:5 7:15 1:5 5:10 13:5 12:25 1:5 3:10
13:0 12:20 13:5 7:15 1:5 5:10 13:5 12:25 1:5 3:10 13:5
12:0 13:5 7:15 1:5 5:10 13:5 12:25 1:5 3:10 13:5 7:40
13:0 7:15 1:5 5:10 13:5 12:25 1:5 3:10 13:5 7:40 1:5
7:0 1:5 5:10 13:5 12:25 1:5 3:10 13:5 7:40 1:5 10:15
1:0 5:10 13:5 12:25 1:5 3:10 13:5 7:40 1:5 10:15 13:5
5:0 13:5 12:25 1:5 3:10 13:5 7:40 1:5 10:15 13:5 12:15
13:0 12:25 1:5 3:10 13:5 7:40 1:5 10:15 13:5 12:15 2:5
12:0 1:5 3:10 13:5 7:40 1:5 10:15 13:5 12:15 2:5 1:5
1:0 3:10 13:5 7:40 1:5 10:15 13:5 12:15 2:5 1:5 7:5
3:0 13:5 7:40 1:5 10:15 13:5 12:15 2:5 1:5 7:5 13:5
13:0 7:40 1:5 10:15 13:5 12:15 2:5 1:5 7:5 13:5 7:30
7:0 1:5 10:15 13:5 12:15 2:5 1:5 7:5 13:5 7:30 1:5
1:0 10:15 13:5 12:15 2:5 1:5 7:5 13:5 7:30 1:5 13:10
10:0 13:5 12:15 2:5 1:5 7:5 13:5 7:30 1:5 13:10 12:10
13:0 12:15 2:5 1:5 7:5 13:5 7:30 1:5 13:10 12:10 13:5
12:0 2:5 1:5 7:5 13:5 7:30 1:5 13:10 12:10 13:5 10:15
2:0 1:5 7:5 13:5 7:30 1:5 13:10 12:10 13:5 10:15 1:5
1:0 7:5 13:5 7:30 1:5 13:10 12:10 13:5 10:15 1:5 7:10
7:0 13:5 7:30 1:5 13:10 12:10 13:5 10:15 1:5 7:10 13:5
13:0 7:30 1:5 13:10 12:10 13:5 10:15 1:5 7:10 13:5 1:40
7:0 1:5 13:10 12:10 13:5 10:15 1:5 7:10 13:5 1:40 10:15
1:0 13:10 12:10 13:5 10:15 1:5 7:10 13:5 1:40 10:15 13:5
13:0 12:10 13:5 10:15 1:5 7:10 13:5 1:40 10:15 13:5 12:15
12:0 13:5 10:15 1:5 7:10 13:5 1:40 10:15 13:5 12:15 10:5
13:0 10:15 1:5 7:10 13:5 1:40 10:15 13:5 12:15 10:5 1:5
10:0 1:5 7:10 13:5 1:40 10:15 13:5 12:15 10:5 1:5 3:5
1:0 7:10 13:5 1:40 10:15 13:5 12:15 10:5 1:5 3:5 13:5
7:0 13:5 1:40 10:15 13:5 12:15 10:5 1:5 3:5 13:5 12:10
13:0 1:40 10:15 13:5 12:15 10:5 1:5 3:5 13:5 12:10 13:5
1:0 10:15 13:5 12:15 10:5 1:5 3:5 13:5 12:10 13:5 12:10
10:0 13:5 12:15 10:5 1:5 3:5 13:5 12:10 13:5 12:10 2:5
13:0 12:15 10:5 1:5 3:5 13:5 12:10 13:5 12:10 2:5 1:5
12:0 10:5 1:5 3:5 13:5 12:10 13:5 12:10 2:5 1:5 13:10
10:0 1:5 3:5 13:5 12:10 13:5 12:10 2:5 1:5 13:10 1:45
1:0 3:5 13:5 12:10 13:5 12:10 2:5 1:5 13:10 1:45 7:15
3:0 13:5 12:10 13:5 12:10 2:5 1:5 13:10 1:45 7:15 13:5
13:0 12:10 13:5 12:10 2:5 1:5 13:10 1:45 7:15 13:5 12:15
12:0 13:5 12:10 2:5 1:5 13:10 1:45 7:15 13:5 12:15 13:5
13:0 12:10 2:5 1:5 13:10 1:45 7:15 13:5 12:15 13:5 2:20
12:0 2:5 1:5 13:10 1:45 7:15 13:5 12:15 13:5 2:20 1:5
2:0 1:5 13:10 1:45 7:15 13:5 12:15 13:5 2:20 1:5 7:10
1:0 13:10 1:45 7:15 13:5 12:15 13:5 2:20 1:5 7:10 13:5
13:0 1:45 7:15 13:5 12:15 13:5 2:20 1:5 7:10 13:5 12:20
1:0 7:15 13:5 12:15 13:5 2:20 1:5 7:10 13:5 12:20 4:5
7:0 13:5 12:15 13:5 2:20 1:5 7:10 13:5 12:20 4:5 1:5
13:0 12:15 13:5 2:20 1:5 7:10 13:5 12:20 4:5 1:5 3:5
12:0 13:5 2:20 1:5 7:10 13:5 12:20 4:5 1:5 3:5 13:5
13:0 2:20 1:5 7:10 13:5 12:20 4:5 1:5 3:5 13:5 12:15
2:0 1:5 7:10 13:5 12:20 4:5 1:5 3:5 13:5 12:15 13:5
1:0 7:10 13:5 12:20 4:5 1:5 3:5 13:5 12:15 13:5 6:15
7:0 13:5 12:20 4:5 1:5 3:5 13:5 12:15 13:5 6:15 1:5
13:0 12:20 4:5 1:5 3:5 13:5 12:15 13:5 6:15 1:5 7:10
12:0 4:5 1:5 3:5 13:5 12:15 13:5 6:15 1:5 7:10 13:5
4:0 1:5 3:5 13:5 12:15 13:5 6:15 1:5 7:10 13:5 1:30
1:0 3:5 13:5 12:15 13:5 6:15 1:5 7:10 13:5 1:30 5:10
3:0 13:5 12:15 13:5 6:15 1:5 7:10 13:5 1:30 5:10 13:5
13:0 12:15 13:5 6:15 1:5 7:10 13:5 1:30 5:10 13:5 7:30
12:0 13:5 6:15 1:5 7:10 13:5 1:30 5:10 13:5 7:30 1:5
13:0 6:15 1:5 7:10 13:5 1:30 5:10 13:5 7:30 1:5 5:10
6:0 1:5 7:10 13:5 1:30 5:10 13:5 7:30 1:5 5:10 13:5
1:0 7:10 13:5 1:30 5:10 13:5 7:30 1:5 5:10 13:5 12:30
7:0 13:5 1:30 5:10 13:5 7:30 1:5 5:10 13:5 12:30 1:5
13:0 1:30 5:10 13:5 7:30 1:5 5:10 13:5 12:30 1:5 7:10
1:0 5:10 13:5 7:30 1:5 5:10 13:5 12:30 1:5 7:10 13:5
5:0 13:5 7:30 1:5 5:10 13:5 12:30 1:5 7:10 13:5 12:25
13:0 7:30 1:5 5:10 13:5 12:30 1:5 7:10 13:5 12:25 1:5
7:0 1:5 5:10 13:5 12:30 1:5 7:10 13:5 12:25 1:5 3:10
1:0 5:10 13:5 12:30 1:5 7:10 13:5 12:25 1:5 3:10 13:5
5:0 13:5 12:30 1:5 7:10 13:5 12:25 1:5 3:10 13:5 12:35
13:0 12:30 1:5 7:10 13:5 12:25 1:5 3:10 13:5 12:35 1:5
12:0 1:5 7:10 13:5 12:25 1:5 3:10 13:5 12:35 1:5 7:15
1:0 7:10 13:5 12:25 1:5 3:10 13:5 12:35 1:5 7:15 13:5
7:0 13:5 12:25 1:5 3:10 13:5 12:35 1:5 7:15 13:5 12:15
13:0 12:25 1:5 3:10 13:5 12:35 1:5 7:15 13:5 12:15 4:5
12:0 1:5 3:10 13:5 12:35 1:5 7:15 13:5 12:15 4:5 1:5
1:0 3:10 13:5 12:35 1:5 7:15 13:5 12:15 4:5 1:5 5:5
3:0 13:5 12:35 1:5 7:15 13:5 12:15 4:5 1:5 5:5 13:5
13:0 12:35 1:5 7:15 13:5 12:15 4:5 1:5 5:5 13:5 12:25
12:0 1:5 7:15 13:5 12:15 4:5 1:5 5:5 13:5 12:25 2:5
1:0 7:15 13:5 12:15 4:5 1:5 5:5 13:5 12:25 2:5 1:5
7:0 13:5 12:15 4:5 1:5 5:5 13:5 12:25 2:5 1:5 7:5
13:0 12:15 4:5 1:5 5:5 13:5 12:25 2:5 1:5 7:5 13:5
12:0 4:5 1:5 5:5 13:5 12:25 2:5 1:5 7:5 13:5 12:15
4:0 1:5 5:5 13:5 12:25 2:5 1:5 7:5 13:5 12:15 13:5
1:0 5:5 13:5 12:25 2:5 1:5 7:5 13:5 12:15 13:5 7:15
5:0 13:5 12:25 2:5 1:5 7:5 13:5 12:15 13:5 7:15 1:5
13:0 12:25 2:5 1:5 7:5 13:5 12:15 13:5 7:15 1:5 10:10
12:0 2:5 1:5 7:5 13:5 12:15 13:5 7:15 1:5 10:10 13:5
2:0 1:5 7:5 13:5 12:15 13:5 7:15 1:5 10:10 13:5 12:15
1:0 7:5 13:5 12:15 13:5 7:15 1:5 10:10 13:5 12:15 13:5
7:0 13:5 12:15 13:5 7:15 1:5 10:10 13:5 12:15 13:5 1:20
13:0 12:15 13:5 7:15 1:5 10:10 13:5 12:15 13:5 1:20 3:15
12:0 13:5 7:15 1:5 10:10 13:5 12:15 13:5 1:20 3:15 13:5
13:0 7:15 1:5 10:10 13:5 12:15 13:5 1:20 3:15 13:5 12:20
7:0 1:5 10:10 13:5 12:15 13:5 1:20 3:15 13:5 12:20 13:5
1:0 10:10 13:5 12:15 13:5 1:20 3:15 13:5 12:20 13:5 4:15
10:0 13:5 12:15 13:5 1:20 3:15 13:5 12:20 13:5 4:15 1:5
13:0 12:15 13:5 1:20 3:15 13:5 12:20 13:5 4:15 1:5 10:10
12:0 13:5 1:20 3:15 13:5 12:20 13:5 4:15 1:5 10:10 13:5
13:0 1:20 3:15 13:5 12:20 13:5 4:15 1:5 10:10 13:5 2:30
1:0 3:15 13:5 12:20 13:5 4:15 1:5 10:10 13:5 2:30 1:5
3:0 13:5 12:20 13:5 4:15 1:5 10:10 13:5 2:30 1:5 3:5
13:0 12:20 13:5 4:15 1:5 10:10 13:5 2:30 1:5 3:5 13:5
12:0 13:5 4:15 1:5 10:10 13:5 2:30 1:5 3:5 13:5 12:30
13:0 4:15 1:5 10:10 13:5 2:30 1:5 3:5 13:5 12:30 1:5
4:0 1:5 10:10 13:5 2:30 1:5 3:5 13:5 12:30 1:5 5:10
1:0 10:10 13:5 2:30 1:5 3:5 13:5 12:30 1:5 5:10 13:5
10:0 13:5 2:30 1:5 3:5 13:5 12:30 1:5 5:10 13:5 9:30
13:0 2:30 1:5 3:5 13:5 12:30 1:5 5:10 13:5 9:30 1:5
2:0 1:5 3:5 13:5 12:30 1:5 5:10 13:5 9:30 1:5 10:10
1:0 3:5 13:5 12:30 1:5 5:10 13:5 9:30 1:5 10:10 13:5
3:0 13:5 12:30 1:5 5:10 13:5 9:30 1:5 10:10 13:5 12:20
13:0 12:30 1:5 5:10 13:5 9:30 1:5 10:10 13:5 12:20 4:5
12:0 1:5 5:10 13:5 9:30 1:5 10:10 13:5 12:20 4:5 1:5
1:0 5:10 13:5 9:30 1:5 10:10 13:5 12:20 4:5 1:5 5:5
5:0 13:5 9:30 1:5 10:10 13:5 12:20 4:5 1:5 5:5 13:5
13:0 9:30 1:5 10:10 13:5 12:20 4:5 1:5 5:5 13:5 12:10
9:0 1:5 10:10 13:5 12:20 4:5 1:5 5:5 13:5 12:10 4:5
1:0 10:10 13:5 12:20 4:5 1:5 5:5 13:5 12:10 4:5 1:5
10:0 13:5 12:20 4:5 1:5 5:5 13:5 12:10 4:5 1:5 7:5
13:0 12:20 4:5 1:5 5:5 13:5 12:10 4:5 1:5 7:5 13:5
12:0 4:5 1:5 5:5 13:5 12:10 4:5 1:5 7:5 13:5 2:40
4:0 1:5 5:5 13:5 12:10 4:5 1:5 7:5 13:5 2:40 1:5
1:0 5:5 13:5 12:10 4:5 1:5 7:5 13:5 2:40 1:5 13:15
5:0 13:5 12:10 4:5 1:5 7:5 13:5 2:40 1:5 13:15 12:20
13:0 12:10 4:5 1:5 7:5 13:5 2:40 1:5 13:15 12:20 13:5
12:0 4:5 1:5 7:5 13:5 2:40 1:5 13:15 12:20 13:5 9:15
4:0 1:5 7:5 13:5 2:40 1:5 13:15 12:20 13:5 9:15 1:5
1:0 7:5 13:5 2:40 1:5 13:15 12:20 13:5 9:15 1:5 5:10
7:0 13:5 2:40 1:5 13:15 12:20 13:5 9:15 1:5 5:10 13:5
13:0 2:40 1:5 13:15 12:20 13:5 9:15 1:5 5:10 13:5 10:25
2:0 1:5 13:15 12:20 13:5 9:15 1:5 5:10 13:5 10:25 1:5
1:0 13:15 12:20 13:5 9:15 1:5 5:10 13:5 10:25 1:5 3:5
13:0 12:20 13:5 9:15 1:5 5:10 13:5 10:25 1:5 3:5 13:5
12:0 13:5 9:15 1:5 5:10 13:5 10:25 1:5 3:5 13:5 12:15
13:0 9:15 1:5 5:10 13:5 10:25 1:5 3:5 13:5 12:15 13:5
9:0 1:5 5:10 13:5 10:25 1:5 3:5 13:5 12:15 13:5 7:15
1:0 5:10 13:5 10:25 1:5 3:5 13:5 12:15 13:5 7:15 1:5
5:0 13:5 10:25 1:5 3:5 13:5 12:15 13:5 7:15 1:5 5:10
13:0 10:25 1:5 3:5 13:5 12:15 13:5 7:15 1:5 5:10 13:5
10:0 1:5 3:5 13:5 12:15 13:5 7:15 1:5 5:10 13:5 12:10
1:0 3:5 13:5 12:15 13:5 7:15 1:5 5:10 13:5 12:10 13:5
3:0 13:5 12:15 13:5 7:15 1:5 5:10 13:5 12:10 13:5 12:15
13:0 12:15 13:5 7:15 1:5 5:10 13:5 12:10 13:5 12:15 1:5
12:0 13:5 7:15 1:5 5:10 13:5 12:10 13:5 12:15 1:5 7:10
13:0 7:15 1:5 5:10 13:5 12:10 13:5 12:15 1:5 7:10 13:5
7:0 1:5 5:10 13:5 12:10 13:5 12:15 1:5 7:10 13:5 10:35
1:0 5:10 13:5 12:10 13:5 12:15 1:5 7:10 13:5 10:35 1:5
5:0 13:5 12:10 13:5 12:15 1:5 7:10 13:5 10:35 1:5 10:15
13:0 12:10 13:5 12:15 1:5 7:10 13:5 10:35 1:5 10:15 13:5
12:0 13:5 12:15 1:5 7:10 13:5 10:35 1:5 10:15 13:5 12:15
13:0 12:15 1:5 7:10 13:5 10:35 1:5 10:15 13:5 12:15 13:5
12:0 1:5 7:10 13:5 10:35 1:5 10:15 13:5 12:15 13:5 2:20
1:0 7:10 13:5 10:35 1:5 10:15 13:5 12:15 13:5 2:20 1:5
7:0 13:5 10:35 1:5 10:15 13:5 12:15 13:5 2:20 1:5 10:10
13:0 10:35 1:5 10:15 13:5 12:15 13:5 2:20 1:5 10:10 13:5
10:0 1:5 10:15 13:5 12:15 13:5 2:20 1:5 10:10 13:5 7:30
1:0 10:15 13:5 12:15 13:5 2:20 1:5 10:10 13:5 7:30 1:5
10:0 13:5 12:15 13:5 2:20 1:5 10:10 13:5 7:30 1:5 10:10
13:0 12:15 13:5 2:20 1:5 10:10 13:5 7:30 1:5 10:10 13:5
12:0 13:5 2:20 1:5 10:10 13:5 7:30 1:5 10:10 13:5 1:25
13:0 2:20 1:5 10:10 13:5 7:30 1:5 10:10 13:5 1:25 7:10
2:0 1:5 10:10 13:5 7:30 1:5 10:10 13:5 1:25 7:10 13:5
1:0 10:10 13:5 7:30 1:5 10:10 13:5 1:25 7:10 13:5 2:35
10:0 13:5 7:30 1:5 10:10 13:5 1:25 7:10 13:5 2:35 1:5
13:0 7:30 1:5 10:10 13:5 1:25 7:10 13:5 2:35 1:5 13:10
7:0 1:5 10:10 13:5 1:25 7:10 13:5 2:35 1:5 13:10 12:25
1:0 10:10 13:5 1:25 7:10 13:5 2:35 1:5 13:10 12:25 4:5
10:0 13:5 1:25 7:10 13:5 2:35 1:5 13:10 12:25 4:5 1:5
13:0 1:25 7:10 13:5 2:35 1:5 13:10 12:25 4:5 1:5 5:5
1:0 7:10 13:5 2:35 1:5 13:10 12:25 4:5 1:5 5:5 13:5
7:0 13:5 2:35 1:5 13:10 12:25 4:5 1:5 5:5 13:5 12:15
13:0 2:35 1:5 13:10 12:25 4:5 1:5 5:5 13:5 12:15 13:5
2:0 1:5 13:10 12:25 4:5 1:5 5:5 13:5 12:15 13:5 2:15
1:0 13:10 12:25 4:5 1:5 5:5 13:5 12:15 13:5 2:15 1:5
13:0 12:25 4:5 1:5 5:5 13:5 12:15 13:5 2:15 1:5 7:10
12:0 4:5 1:5 5:5 13:5 12:15 13:5 2:15 1:5 7:10 13:5
4:0 1:5 5:5 13:5 12:15 13:5 2:15 1:5 7:10 13:5 12:10
1:0 5:5 13:5 12:15 13:5 2:15 1:5 7:10 13:5 12:10 13:5
5:0 13:5 12:15 13:5 2:15 1:5 7:10 13:5 12:10 13:5 4:15
13:0 12:15 13:5 2:15 1:5 7:10 13:5 12:10 13:5 4:15 1:5
12:0 13:5 2:15 1:5 7:10 13:5 12:10 13:5 4:15 1:5 13:10
13:0 2:15 1:5 7:10 13:5 12:10 13:5 4:15 1:5 13:10 4:35
2:0 1:5 7:10 13:5 12:10 13:5 4:15 1:5 13:10 4:35 1:5
1:0 7:10 13:5 12:10 13:5 4:15 1:5 13:10 4:35 1:5 10:10
7:0 13:5 12:10 13:5 4:15 1:5 13:10 4:35 1:5 10:10 13:5
13:0 12:10 13:5 4:15 1:5 13:10 4:35 1:5 10:10 13:5 7:25
12:0 13:5 4:15 1:5 13:10 4:35 1:5 10:10 13:5 7:25 1:5
13:0 4:15 1:5 13:10 4:35 1:5 10:10 13:5 7:25 1:5 7:10
4:0 1:5 13:10 4:35 1:5 10:10 13:5 7:25 1:5 7:10 13:5
1:0 13:10 4:35 1:5 10:10 13:5 7:25 1:5 7:10 13:5 12:20
13:0 4:35 1:5 10:10 13:5 7:25 1:5 7:10 13:5 12:20 13:5
4:0 1:5 10:10 13:5 7:25 1:5 7:10 13:5 12:20 13:5 4:15
1:0 10:10 13:5 7:25 1:5 7:10 13:5 12:20 13:5 4:15 1:5
10:0 13:5 7:25 1:5 7:10 13:5 12:20 13:5 4:15 1:5 3:10
13:0 7:25 1:5 7:10 13:5 12:20 13:5 4:15 1:5 3:10 13:5
7:0 1:5 7:10 13:5 12:20 13:5 4:15 1:5 3:10 13:5 12:15
1:0 7:10 13:5 12:20 13:5 4:15 1:5 3:10 13:5 12:15 7:5
7:0 13:5 12:20 13:5 4:15 1:5 3:10 13:5 12:15 7:5 1:5
13:0 12:20 13:5 4:15 1:5 3:10 13:5 12:15 7:5 1:5 5:5
12:0 13:5 4:15 1:5 3:10 13:5 12:15 7:5 1:5 5:5 13:5
13:0 4:15 1:5 3:10 13:5 12:15 7:5 1:5 5:5 13:5 2:30
4:0 1:5 3:10 13:5 12:15 7:5 1:5 5:5 13:5 2:30 1:5
1:0 3:10 13:5 12:15 7:5 1:5 5:5 13:5 2:30 1:5 3:5
3:0 13:5 12:15 7:5 1:5 5:5 13:5 2:30 1:5 3:5 13:5
13:0 12:15 7:5 1:5 5:5 13:5 2:30 1:5 3:5 13:5 10:40
12:0 7:5 1:5 5:5 13:5 2:30 1:5 3:5 13:5 10:40 1:5
7:0 1:5 5:5 13:5 2:30 1:5 3:5 13:5 10:40 1:5 10:15
1:0 5:5 13:5 2:30 1:5 3:5 13:5 10:40 1:5 10:15 13:5
5:0 13:5 2:30 1:5 3:5 13:5 10:40 1:5 10:15 13:5 12:15
13:0 2:30 1:5 3:5 13:5 10:40 1:5 10:15 13:5 12:15 13:5
2:0 1:5 3:5 13:5 10:40 1:5 10:15 13:5 12:15 13:5 9:15
1:0 3:5 13:5 10:40 1:5 10:15 13:5 12:15 13:5 9:15 1:5
3:0 13:5 10:40 1:5 10:15 13:5 12:15 13:5 9:15 1:5 3:10
13:0 10:40 1:5 10:15 13:5 12:15 13:5 9:15 1:5 3:10 13:5
10:0 1:5 10:15 13:5 12:15 13:5 9:15 1:5 3:10 13:5 7:30
1:0 10:15 13:5 12:15 13:5 9:15 1:5 3:10 13:5 7:30 1:5
10:0 13:5 12:15 13:5 9:15 1:5 3:10 13:5 7:30 1:5 3:5
13:0 12:15 13:5 9:15 1:5 3:10 13:5 7:30 1:5 3:5 13:5
12:0 13:5 9:15 1:5 3:10 13:5 7:30 1:5 3:5 13:5 12:10
13:0 9:15 1:5 3:10 13:5 7:30 1:5 3:5 13:5 12:10 13:5
9:0 1:5 3:10 13:5 7:30 1:5 3:5 13:5 12:10 13:5 12:15
1:0 3:10 13:5 7:30 1:5 3:5 13:5 12:10 13:5 12:15 1:5
3:0 13:5 7:30 1:5 3:5 13:5 12:10 13:5 12:15 1:5 13:15
13:0 7:30 1:5 3:5 13:5 12:10 13:5 12:15 1:5 13:15 2:45
7:0 1:5 3:5 13:5 12:10 13:5 12:15 1:5 13:15 2:45 1:5
1:0 3:5 13:5 12:10 13:5 12:15 1:5 13:15 2:45 1:5 7:10
3:0 13:5 12:10 13:5 12:15 1:5 13:15 2:45 1:5 7:10 13:5
13:0 12:10 13:5 12:15 1:5 13:15 2:45 1:5 7:10 13:5 12:15
12:0 13:5 12:15 1:5 13:15 2:45 1:5 7:10 13:5 12:15 7:5
13:0 12:15 1:5 13:15 2:45 1:5 7:10 13:5 12:15 7:5 1:5
12:0 1:5 13:15 2:45 1:5 7:10 13:5 12:15 7:5 1:5 5:5
1:0 13:15 2:45 1:5 7:10 13:5 12:15 7:5 1:5 5:5 13:5
13:0 2:45 1:5 7:10 13:5 12:15 7:5 1:5 5:5 13:5 12:30
2:0 1:5 7:10 13:5 12:15 7:5 1:5 5:5 13:5 12:30 1:5
1:0 7:10 13:5 12:15 7:5 1:5 5:5 13:5 12:30 1:5 7:10
7:0 13:5 12:15 7:5 1:5 5:5 13:5 12:30 1:5 7:10 13:5
13:0 12:15 7:5 1:5 5:5 13:5 12:30 1:5 7:10 13:5 4:40
12:0 7:5 1:5 5:5 13:5 12:30 1:5 7:10 13:5 4:40 1:5
7:0 1:5 5:5 13:5 12:30 1:5 7:10 13:5 4:40 1:5 10:10
1:0 5:5 13:5 12:30 1:5 7:10 13:5 4:40 1:5 10:10 13:5
5:0 13:5 12:30 1:5 7:10 13:5 4:40 1:5 10:10 13:5 12:15
13:0 12:30 1:5 7:10 13:5 4:40 1:5 10:10 13:5 12:15 13:5
12:0 1:5 7:10 13:5 4:40 1:5 10:10 13:5 12:15 13:5 12:15
1:0 7:10 13:5 4:40 1:5 10:10 13:5 12:15 13:5 12:15 2:5
7:0 13:5 4:40 1:5 10:10 13:5 12:15 13:5 12:15 2:5 1:5
13:0 4:40 1:5 10:10 13:5 12:15 13:5 12:15 2:5 1:5 10:10
4:0 1:5 10:10 13:5 12:15 13:5 12:15 2:5 1:5 10:10 13:5
1:0 10:10 13:5 12:15 13:5 12:15 2:5 1:5 10:10 13:5 2:30
10:0 13:5 12:15 13:5 12:15 2:5 1:5 10:10 13:5 2:30 1:5
13:0 12:15 13:5 12:15 2:5 1:5 10:10 13:5 2:30 1:5 3:5
12:0 13:5 12:15 2:5 1:5 10:10 13:5 2:30 1:5 3:5 13:5
13:0 12:15 2:5 1:5 10:10 13:5 2:30 1:5 3:5 13:5 12:10
12:0 2:5 1:5 10:10 13:5 2:30 1:5 3:5 13:5 12:10 13:5
2:0 1:5 10:10 13:5 2:30 1:5 3:5 13:5 12:10 13:5 4:15
1:0 10:10 13:5 2:30 1:5 3:5 13:5 12:10 13:5 4:15 1:5
10:0 13:5 2:30 1:5 3:5 13:5 12:10 13:5 4:15 1:5 10:10
13:0 2:30 1:5 3:5 13:5 12:10 13:5 4:15 1:5 10:10 13:5
2:0 1:5 3:5 13:5 12:10 13:5 4:15 1:5 10:10 13:5 12:25
1:0 3:5 13:5 12:10 13:5 4:15 1:5 10:10 13:5 12:25 4:5
3:0 13:5 12:10 13:5 4:15 1:5 10:10 13:5 12:25 4:5 1:5
13:0 12:10 13:5 4:15 1:5 10:10 13:5 12:25 4:5 1:5 3:5
12:0 13:5 4:15 1:5 10:10 13:5 12:25 4:5 1:5 3:5 13:5
13:0 4:15 1:5 10:10 13:5 12:25 4:5 1:5 3:5 13:5 12:20
4:0 1:5 10:10 13:5 12:25 4:5 1:5 3:5 13:5 12:20 13:5
1:0 10:10 13:5 12:25 4:5 1:5 3:5 13:5 12:20 13:5 1:5
10:0 13:5 12:25 4:5 1:5 3:5 13:5 12:20 13:5 1:5 7:10
13:0 12:25 4:5 1:5 3:5 13:5 12:20 13:5 1:5 7:10 13:5
12:0 4:5 1:5 3:5 13:5 12:20 13:5 1:5 7:10 13:5 12:15
4:0 1:5 3:5 13:5 12:20 13:5 1:5 7:10 13:5 12:15 13:5
1:0 3:5 13:5 12:20 13:5 1:5 7:10 13:5 12:15 13:5 12:10
3:0 13:5 12:20 13:5 1:5 7:10 13:5 12:15 13:5 12:10 1:5
13:0 12:20 13:5 1:5 7:10 13:5 12:15 13:5 12:10 1:5 13:15
12:0 13:5 1:5 7:10 13:5 12:15 13:5 12:10 1:5 13:15 12:30
13:0 1:5 7:10 13:5 12:15 13:5 12:10 1:5 13:15 12:30 2:5
1:0 7:10 13:5 12:15 13:5 12:10 1:5 13:15 12:30 2:5 1:5
7:0 13:5 12:15 13:5 12:10 1:5 13:15 12:30 2:5 1:5 3:5
13:0 12:15 13:5 12:10 1:5 13:15 12:30 2:5 1:5 3:5 13:5
12:0 13:5 12:10 1:5 13:15 12:30 2:5 1:5 3:5 13:5 12:30
13:0 12:10 1:5 13:15 12:30 2:5 1:5 3:5 13:5 12:30 1:5
12:0 1:5 13:15 12:30 2:5 1:5 3:5 13:5 12:30 1:5 7:10
1:0 13:15 12:30 2:5 1:5 3:5 13:5 12:30 1:5 7:10 13:5
13:0 12:30 2:5 1:5 3:5 13:5 12:30 1:5 7:10 13:5 4:30
12:0 2:5 1:5 3:5 13:5 12:30 1:5 7:10 13:5 4:30 1:5
2:0 1:5 3:5 13:5 12:30 1:5 7:10 13:5 4:30 1:5 3:5
1:0 3:5 13:5 12:30 1:5 7:10 13:5 4:30 1:5 3:5 13:5
3:0 13:5 12:30 1:5 7:10 13:5 4:30 1:5 3:5 13:5 2:40
13:0 12:30 1:5 7:10 13:5 4:30 1:5 3:5 13:5 2:40 1:5
12:0 1:5 7:10 13:5 4:30 1:5 3:5 13:5 2:40 1:5 3:10
1:0 7:10 13:5 4:30 1:5 3:5 13:5 2:40 1:5 3:10 13:5
7:0 13:5 4:30 1:5 3:5 13:5 2:40 1:5 3:10 13:5 12:40
13:0 4:30 1:5 3:5 13:5 2:40 1:5 3:10 13:5 12:40 1:5
4:0 1:5 3:5 13:5 2:40 1:5 3:10 13:5 12:40 1:5 13:15
1:0 3:5 13:5 2:40 1:5 3:10 13:5 12:40 1:5 13:15 12:30
3:0 13:5 2:40 1:5 3:10 13:5 12:40 1:5 13:15 12:30 2:5
13:0 2:40 1:5 3:10 13:5 12:40 1:5 13:15 12:30 2:5 1:5
2:0 1:5 3:10 13:5 12:40 1:5 13:15 12:30 2:5 1:5 5:5
1:0 3:10 13:5 12:40 1:5 13:15 12:30 2:5 1:5 5:5 13:5
3:0 13:5 12:40 1:5 13:15 12:30 2:5 1:5 5:5 13:5 12:10
13:0 12:40 1:5 13:15 12:30 2:5 1:5 5:5 13:5 12:10 13:5
12:0 1:5 13:15 12:30 2:5 1:5 5:5 13:5 12:10 13:5 2:15
1:0 13:15 12:30 2:5 1:5 5:5 13:5 12:10 13:5 2:15 1:5
13:0 12:30 2:5 1:5 5:5 13:5 12:10 13:5 2:15 1:5 13:10
12:0 2:5 1:5 5:5 13:5 12:10 13:5 2:15 1:5 13:10 12:25
2:0 1:5 5:5 13:5 12:10 13:5 2:15 1:5 13:10 12:25 13:5
1:0 5:5 13:5 12:10 13:5 2:15 1:5 13:10 12:25 13:5 4:15
5:0 13:5 12:10 13:5 2:15 1:5 13:10 12:25 13:5 4:15 1:5
13:0 12:10 13:5 2:15 1:5 13:10 12:25 13:5 4:15 1:5 7:10
12:0 13:5 2:15 1:5 13:10 12:25 13:5 4:15 1:5 7:10 13:5
13:0 2:15 1:5 13:10 12:25 13:5 4:15 1:5 7:10 13:5 12:10
2:0 1:5 13:10 12:25 13:5 4:15 1:5 7:10 13:5 12:10 9:5
1:0 13:10 12:25 13:5 4:15 1:5 7:10 13:5 12:10 9:5 1:5
13:0 12:25 13:5 4:15 1:5 7:10 13:5 12:10 9:5 1:5 13:10
12:0 13:5 4:15 1:5 7:10 13:5 12:10 9:5 1:5 13:10 12:25
13:0 4:15 1:5 7:10 13:5 12:10 9:5 1:5 13:10 12:25 13:5
4:0 1:5 7:10 13:5 12:10 9:5 1:5 13:10 12:25 13:5 1:20
1:0 7:10 13:5 12:10 9:5 1:5 13:10 12:25 13:5 1:20 13:15
7:0 13:5 12:10 9:5 1:5 13:10 12:25 13:5 1:20 13:15 12:20
13:0 12:10 9:5 1:5 13:10 12:25 13:5 1:20 13:15 12:20 13:5
12:0 9:5 1:5 13:10 12:25 13:5 1:20 13:15 12:20 13:5 2:15
9:0 1:5 13:10 12:25 13:5 1:20 13:15 12:20 13:5 2:15 1:5
1:0 13:10 12:25 13:5 1:20 13:15 12:20 13:5 2:15 1:5 10:10
13:0 12:25 13:5 1:20 13:15 12:20 13:5 2:15 1:5 10:10 13:5
12:0 13:5 1:20 13:15 12:20 13:5 2:15 1:5 10:10 13:5 7:25
13:0 1:20 13:15 12:20 13:5 2:15 1:5 10:10 13:5 7:25 1:5
1:0 13:15 12:20 13:5 2:15 1:5 10:10 13:5 7:25 1:5 13:10
13:0 12:20 13:5 2:15 1:5 10:10 13:5 7:25 1:5 13:10 12:10
12:0 13:5 2:15 1:5 10:10 13:5 7:25 1:5 13:10 12:10 13:5
13:0 2:15 1:5 10:10 13:5 7:25 1:5 13:10 12:10 13:5 4:20
2:0 1:5 10:10 13:5 7:25 1:5 13:10 12:10 13:5 4:20 1:5
1:0 10:10 13:5 7:25 1:5 13:10 12:10 13:5 4:20 1:5 7:10
10:0 13:5 7:25 1:5 13:10 12:10 13:5 4:20 1:5 7:10 13:5
13:0 7:25 1:5 13:10 12:10 13:5 4:20 1:5 7:10 13:5 12:20
7:0 1:5 13:10 12:10 13:5 4:20 1:5 7:10 13:5 12:20 7:5
1:0 13:10 12:10 13:5 4:20 1:5 7:10 13:5 12:20 7:5 1:5
13:0 12:10 13:5 4:20 1:5 7:10 13:5 12:20 7:5 1:5 5:5
12:0 13:5 4:20 1:5 7:10 13:5 12:20 7:5 1:5 5:5 13:5
13:0 4:20 1:5 7:10 13:5 12:20 7:5 1:5 5:5 13:5 7:35
4:0 1:5 7:10 13:5 12:20 7:5 1:5 5:5 13:5 7:35 1:5
1:0 7:10 13:5 12:20 7:5 1:5 5:5 13:5 7:35 1:5 5:10
7:0 13:5 12:20 7:5 1:5 5:5 13:5 7:35 1:5 5:10 13:5
13:0 12:20 7:5 1:5 5:5 13:5 7:35 1:5 5:10 13:5 12:10
12:0 7:5 1:5 5:5 13:5 7:35 1:5 5:10 13:5 12:10 13:5
7:0 1:5 5:5 13:5 7:35 1:5 5:10 13:5 12:10 13:5 12:15
1:0 5:5 13:5 7:35 1:5 5:10 13:5 12:10 13:5 12:15 2:5
5:0 13:5 7:35 1:5 5:10 13:5 12:10 13:5 12:15 2:5 1:5
13:0 7:35 1:5 5:10 13:5 12:10 13:5 12:15 2:5 1:5 7:5
7:0 1:5 5:10 13:5 12:10 13:5 12:15 2:5 1:5 7:5 13:5
1:0 5:10 13:5 12:10 13:5 12:15 2:5 1:5 7:5 13:5 12:25
5:0 13:5 12:10 13:5 12:15 2:5 1:5 7:5 13:5 12:25 2:5
13:0 12:10 13:5 12:15 2:5 1:5 7:5 13:5 12:25 2:5 1:5
12:0 13:5 12:15 2:5 1:5 7:5 13:5 12:25 2:5 1:5 13:10
13:0 12:15 2:5 1:5 7:5 13:5 12:25 2:5 1:5 13:10 12:15
12:0 2:5 1:5 7:5 13:5 12:25 2:5 1:5 13:10 12:15 13:5
2:0 1:5 7:5 13:5 12:25 2:5 1:5 13:10 12:15 13:5 12:15
1:0 7:5 13:5 12:25 2:5 1:5 13:10 12:15 13:5 12:15 1:5
7:0 13:5 12:25 2:5 1:5 13:10 12:15 13:5 12:15 1:5 7:15
13:0 12:25 2:5 1:5 13:10 12:15 13:5 12:15 1:5 7:15 13:5
12:0 2:5 1:5 13:10 12:15 13:5 12:15 1:5 7:15 13:5 12:15
2:0 1:5 13:10 12:15 13:5 12:15 1:5 7:15 13:5 12:15 9:5
1:0 13:10 12:15 13:5 12:15 1:5 7:15 13:5 12:15 9:5 1:5
13:0 12:15 13:5 12:15 1:5 7:15 13:5 12:15 9:5 1:5 3:5
12:0 13:5 12:15 1:5 7:15 13:5 12:15 9:5 1:5 3:5 13:5
13:0 12:15 1:5 7:15 13:5 12:15 9:5 1:5 3:5 13:5 1:45
12:0 1:5 7:15 13:5 12:15 9:5 1:5 3:5 13:5 1:45 10:15
1:0 7:15 13:5 12:15 9:5 1:5 3:5 13:5 1:45 10:15 13:5
7:0 13:5 12:15 9:5 1:5 3:5 13:5 1:45 10:15 13:5 12:15
13:0 12:15 9:5 1:5 3:5 13:5 1:45 10:15 13:5 12:15 2:5
12:0 9:5 1:5 3:5 13:5 1:45 10:15 13:5 12:15 2:5 1:5
9:0 1:5 3:5 13:5 1:45 10:15 13:5 12:15 2:5 1:5 10:5
1:0 3:5 13:5 1:45 10:15 13:5 12:15 2:5 1:5 10:5 13:5
3:0 13:5 1:45 10:15 13:5 12:15 2:5 1:5 10:5 13:5 2:40
13:0 1:45 10:15 13:5 12:15 2:5 1:5 10:5 13:5 2:40 1:5
1:0 10:15 13:5 12:15 2:5 1:5 10:5 13:5 2:40 1:5 13:15
10:0 13:5 12:15 2:5 1:5 10:5 13:5 2:40 1:5 13:15
13:0 12:15 2:5 1:5 10:5 13:5 2:40 1:5 13:15
12:0 2:5 1:5 10:5 13:5 2:40 1:5 13:15
2:0 1:5 10:5 13:5 2:40 1:5 13:15
1:0 10:5 13:5 2:40 1:5 13:15
10:0 13:5 2:40 1:5 13:15
13:0 2:40 1:5 13:15
2:0 1:5 13:15
1:0 13:15
13:0