11:0 4:5 12:5 8:5 11:5 7:5 8:5 11:10 4:10 8:5 11:15
4:0 12:5 8:5 11:5 7:5 8:5 11:10 4:10 8:5 11:15 4:5
12:0 8:5 11:5 7:5 8:5 11:10 4:10 8:5 11:15 4:5 11:5
8:0 11:5 7:5 8:5 11:10 4:10 8:5 11:15 4:5 11:5 8:10
11:0 7:5 8:5 11:10 4:10 8:5 11:15 4:5 11:5 8:10 11:5
7:0 8:5 11:10 4:10 8:5 11:15 4:5 11:5 8:10 11:5 5:5
8:0 11:10 4:10 8:5 11:15 4:5 11:5 8:10 11:5 5:5 8:5
11:0 4:10 8:5 11:15 4:5 11:5 8:10 11:5 5:5 8:5 12:5
4:0 8:5 11:15 4:5 11:5 8:10 11:5 5:5 8:5 12:5 11:5
8:0 11:15 4:5 11:5 8:10 11:5 5:5 8:5 12:5 11:5 4:5
11:0 4:5 11:5 8:10 11:5 5:5 8:5 12:5 11:5 4:5 8:5
4:0 11:5 8:10 11:5 5:5 8:5 12:5 11:5 4:5 8:5 12:5
11:0 8:10 11:5 5:5 8:5 12:5 11:5 4:5 8:5 12:5 4:5
8:0 11:5 5:5 8:5 12:5 11:5 4:5 8:5 12:5 4:5 11:5
11:0 5:5 8:5 12:5 11:5 4:5 8:5 12:5 4:5 11:5 4:5
5:0 8:5 12:5 11:5 4:5 8:5 12:5 4:5 11:5 4:5 5:5
8:0 12:5 11:5 4:5 8:5 12:5 4:5 11:5 4:5 5:5 11:5
12:0 11:5 4:5 8:5 12:5 4:5 11:5 4:5 5:5 11:5 12:5
11:0 4:5 8:5 12:5 4:5 11:5 4:5 5:5 11:5 12:5 11:5
4:0 8:5 12:5 4:5 11:5 4:5 5:5 11:5 12:5 11:5 8:5
8:0 12:5 4:5 11:5 4:5 5:5 11:5 12:5 11:5 8:5 11:10
12:0 4:5 11:5 4:5 5:5 11:5 12:5 11:5 8:5 11:10 4:15
4:0 11:5 4:5 5:5 11:5 12:5 11:5 8:5 11:10 4:15 7:5
11:0 4:5 5:5 11:5 12:5 11:5 8:5 11:10 4:15 7:5 11:5
4:0 5:5 11:5 12:5 11:5 8:5 11:10 4:15 7:5 11:5 8:5
5:0 11:5 12:5 11:5 8:5 11:10 4:15 7:5 11:5 8:5 11:5
11:0 12:5 11:5 8:5 11:10 4:15 7:5 11:5 8:5 11:5 4:5
12:0 11:5 8:5 11:10 4:15 7:5 11:5 8:5 11:5 4:5 8:5
11:0 8:5 11:10 4:15 7:5 11:5 8:5 11:5 4:5 8:5 11:5
8:0 11:10 4:15 7:5 11:5 8:5 11:5 4:5 8:5 11:5 7:10
11:0 4:15 7:5 11:5 8:5 11:5 4:5 8:5 11:5 7:10 4:5
4:0 7:5 11:5 8:5 11:5 4:5 8:5 11:5 7:10 4:5 8:5
7:0 11:5 8:5 11:5 4:5 8:5 11:5 7:10 4:5 8:5 12:5
11:0 8:5 11:5 4:5 8:5 11:5 7:10 4:5 8:5 12:5 4:10
8:0 11:5 4:5 8:5 11:5 7:10 4:5 8:5 12:5 4:10 8:5
11:0 4:5 8:5 11:5 7:10 4:5 8:5 12:5 4:10 8:5 11:5
4:0 8:5 11:5 7:10 4:5 8:5 12:5 4:10 8:5 11:5 2:15
8:0 11:5 7:10 4:5 8:5 12:5 4:10 8:5 11:5 2:15 12:5
11:0 7:10 4:5 8:5 12:5 4:10 8:5 11:5 2:15 12:5 8:5
7:0 4:5 8:5 12:5 4:10 8:5 11:5 2:15 12:5 8:5 11:5
4:0 8:5 12:5 4:10 8:5 11:5 2:15 12:5 8:5 11:5 2:10
8:0 12:5 4:10 8:5 11:5 2:15 12:5 8:5 11:5 2:10 8:5
12:0 4:10 8:5 11:5 2:15 12:5 8:5 11:5 2:10 8:5 11:5
4:0 8:5 11:5 2:15 12:5 8:5 11:5 2:10 8:5 11:5 2:15
8:0 11:5 2:15 12:5 8:5 11:5 2:10 8:5 11:5 2:15 11:5
11:0 2:15 12:5 8:5 11:5 2:10 8:5 11:5 2:15 11:5 8:5
2:0 12:5 8:5 11:5 2:10 8:5 11:5 2:15 11:5 8:5 11:5
12:0 8:5 11:5 2:10 8:5 11:5 2:15 11:5 8:5 11:5 5:10
8:0 11:5 2:10 8:5 11:5 2:15 11:5 8:5 11:5 5:10 11:5
11:0 2:10 8:5 11:5 2:15 11:5 8:5 11:5 5:10 11:5 8:5
2:0 8:5 11:5 2:15 11:5 8:5 11:5 5:10 11:5 8:5 11:5
8:0 11:5 2:15 11:5 8:5 11:5 5:10 11:5 8:5 11:5 4:5
11:0 2:15 11:5 8:5 11:5 5:10 11:5 8:5 11:5 4:5 11:5
2:0 11:5 8:5 11:5 5:10 11:5 8:5 11:5 4:5 11:5 8:5
11:0 8:5 11:5 5:10 11:5 8:5 11:5 4:5 11:5 8:5 11:5
8:0 11:5 5:10 11:5 8:5 11:5 4:5 11:5 8:5 11:5 4:10
11:0 5:10 11:5 8:5 11:5 4:5 11:5 8:5 11:5 4:10 8:5
5:0 11:5 8:5 11:5 4:5 11:5 8:5 11:5 4:10 8:5 11:5
11:0 8:5 11:5 4:5 11:5 8:5 11:5 4:10 8:5 11:5 8:5
8:0 11:5 4:5 11:5 8:5 11:5 4:10 8:5 11:5 8:5 11:5
11:0 4:5 11:5 8:5 11:5 4:10 8:5 11:5 8:5 11:5 4:5
4:0 11:5 8:5 11:5 4:10 8:5 11:5 8:5 11:5 4:5 8:5
11:0 8:5 11:5 4:10 8:5 11:5 8:5 11:5 4:5 8:5 11:5
8:0 11:5 4:10 8:5 11:5 8:5 11:5 4:5 8:5 11:5 8:10
11:0 4:10 8:5 11:5 8:5 11:5 4:5 8:5 11:5 8:10 12:10
4:0 8:5 11:5 8:5 11:5 4:5 8:5 11:5 8:10 12:10 8:5
8:0 11:5 8:5 11:5 4:5 8:5 11:5 8:10 12:10 8:5 11:5
11:0 8:5 11:5 4:5 8:5 11:5 8:10 12:10 8:5 11:5 7:5
8:0 11:5 4:5 8:5 11:5 8:10 12:10 8:5 11:5 7:5 4:5
11:0 4:5 8:5 11:5 8:10 12:10 8:5 11:5 7:5 4:5 12:5
4:0 8:5 11:5 8:10 12:10 8:5 11:5 7:5 4:5 12:5 11:5
8:0 11:5 8:10 12:10 8:5 11:5 7:5 4:5 12:5 11:5 12:5
11:0 8:10 12:10 8:5 11:5 7:5 4:5 12:5 11:5 12:5 4:5
8:0 12:10 8:5 11:5 7:5 4:5 12:5 11:5 12:5 4:5 8:5
12:0 8:5 11:5 7:5 4:5 12:5 11:5 12:5 4:5 8:5 11:5
8:0 11:5 7:5 4:5 12:5 11:5 12:5 4:5 8:5 11:5 4:15
11:0 7:5 4:5 12:5 11:5 12:5 4:5 8:5 11:5 4:15 8:5
7:0 4:5 12:5 11:5 12:5 4:5 8:5 11:5 4:15 8:5 11:5
4:0 12:5 11:5 12:5 4:5 8:5 11:5 4:15 8:5 11:5 8:5
12:0 11:5 12:5 4:5 8:5 11:5 4:15 8:5 11:5 8:5 11:5
11:0 12:5 4:5 8:5 11:5 4:15 8:5 11:5 8:5 11:5 4:5
12:0 4:5 8:5 11:5 4:15 8:5 11:5 8:5 11:5 4:5 11:5
4:0 8:5 11:5 4:15 8:5 11:5 8:5 11:5 4:5 11:5 8:5
8:0 11:5 4:15 8:5 11:5 8:5 11:5 4:5 11:5 8:5 11:5
11:0 4:15 8:5 11:5 8:5 11:5 4:5 11:5 8:5 11:5 7:5
4:0 8:5 11:5 8:5 11:5 4:5 11:5 8:5 11:5 7:5 4:5
8:0 11:5 8:5 11:5 4:5 11:5 8:5 11:5 7:5 4:5 11:5
11:0 8:5 11:5 4:5 11:5 8:5 11:5 7:5 4:5 11:5 8:5
8:0 11:5 4:5 11:5 8:5 11:5 7:5 4:5 11:5 8:5 2:15
11:0 4:5 11:5 8:5 11:5 7:5 4:5 11:5 8:5 2:15 11:5
4:0 11:5 8:5 11:5 7:5 4:5 11:5 8:5 2:15 11:5 8:10
11:0 8:5 11:5 7:5 4:5 11:5 8:5 2:15 11:5 8:10 4:5
8:0 11:5 7:5 4:5 11:5 8:5 2:15 11:5 8:10 4:5 8:5
11:0 7:5 4:5 11:5 8:5 2:15 11:5 8:10 4:5 8:5 11:5
7:0 4:5 11:5 8:5 2:15 11:5 8:10 4:5 8:5 11:5 4:15
4:0 11:5 8:5 2:15 11:5 8:10 4:5 8:5 11:5 4:15 8:5
11:0 8:5 2:15 11:5 8:10 4:5 8:5 11:5 4:15 8:5 11:5
8:0 2:15 11:5 8:10 4:5 8:5 11:5 4:15 8:5 11:5 4:15
2:0 11:5 8:10 4:5 8:5 11:5 4:15 8:5 11:5 4:15 11:5
11:0 8:10 4:5 8:5 11:5 4:15 8:5 11:5 4:15 11:5 7:5
8:0 4:5 8:5 11:5 4:15 8:5 11:5 4:15 11:5 7:5 8:5
4:0 8:5 11:5 4:15 8:5 11:5 4:15 11:5 7:5 8:5 11:5
8:0 11:5 4:15 8:5 11:5 4:15 11:5 7:5 8:5 11:5 2:5
11:0 4:15 8:5 11:5 4:15 11:5 7:5 8:5 11:5 2:5 8:5
4:0 8:5 11:5 4:15 11:5 7:5 8:5 11:5 2:5 8:5 11:5
8:0 11:5 4:15 11:5 7:5 8:5 11:5 2:5 8:5 11:5 8:10
11:0 4:15 11:5 7:5 8:5 11:5 2:5 8:5 11:5 8:10 11:10
4:0 11:5 7:5 8:5 11:5 2:5 8:5 11:5 8:10 11:10 8:5
11:0 7:5 8:5 11:5 2:5 8:5 11:5 8:10 11:10 8:5 11:5
7:0 8:5 11:5 2:5 8:5 11:5 8:10 11:10 8:5 11:5 7:5
8:0 11:5 2:5 8:5 11:5 8:10 11:10 8:5 11:5 7:5 8:5
11:0 2:5 8:5 11:5 8:10 11:10 8:5 11:5 7:5 8:5 12:5
2:0 8:5 11:5 8:10 11:10 8:5 11:5 7:5 8:5 12:5 8:5
8:0 11:5 8:10 11:10 8:5 11:5 7:5 8:5 12:5 8:5 11:5
11:0 8:10 11:10 8:5 11:5 7:5 8:5 12:5 8:5 11:5 4:5
8:0 11:10 8:5 11:5 7:5 8:5 12:5 8:5 11:5 4:5 12:5
11:0 8:5 11:5 7:5 8:5 12:5 8:5 11:5 4:5 12:5 8:5
8:0 11:5 7:5 8:5 12:5 8:5 11:5 4:5 12:5 8:5 11:5
11:0 7:5 8:5 12:5 8:5 11:5 4:5 12:5 8:5 11:5 7:5
7:0 8:5 12:5 8:5 11:5 4:5 12:5 8:5 11:5 7:5 2:5
8:0 12:5 8:5 11:5 4:5 12:5 8:5 11:5 7:5 2:5 11:5
12:0 8:5 11:5 4:5 12:5 8:5 11:5 7:5 2:5 11:5 8:5
8:0 11:5 4:5 12:5 8:5 11:5 7:5 2:5 11:5 8:5 12:5
11:0 4:5 12:5 8:5 11:5 7:5 2:5 11:5 8:5 12:5 8:5
4:0 12:5 8:5 11:5 7:5 2:5 11:5 8:5 12:5 8:5 2:5
12:0 8:5 11:5 7:5 2:5 11:5 8:5 12:5 8:5 2:5 11:5
8:0 11:5 7:5 2:5 11:5 8:5 12:5 8:5 2:5 11:5 8:20
11:0 7:5 2:5 11:5 8:5 12:5 8:5 2:5 11:5 8:20 11:10
7:0 2:5 11:5 8:5 12:5 8:5 2:5 11:5 8:20 11:10 8:5
2:0 11:5 8:5 12:5 8:5 2:5 11:5 8:20 11:10 8:5 7:5
11:0 8:5 12:5 8:5 2:5 11:5 8:20 11:10 8:5 7:5 11:5
8:0 12:5 8:5 2:5 11:5 8:20 11:10 8:5 7:5 11:5 8:5
12:0 8:5 2:5 11:5 8:20 11:10 8:5 7:5 11:5 8:5 11:10
8:0 2:5 11:5 8:20 11:10 8:5 7:5 11:5 8:5 11:10 7:5
2:0 11:5 8:20 11:10 8:5 7:5 11:5 8:5 11:10 7:5 11:5
11:0 8:20 11:10 8:5 7:5 11:5 8:5 11:10 7:5 11:5 8:10
8:0 11:10 8:5 7:5 11:5 8:5 11:10 7:5 11:5 8:10 11:5
11:0 8:5 7:5 11:5 8:5 11:10 7:5 11:5 8:10 11:5 4:5
8:0 7:5 11:5 8:5 11:10 7:5 11:5 8:10 11:5 4:5 8:5
7:0 11:5 8:5 11:10 7:5 11:5 8:10 11:5 4:5 8:5 11:5
11:0 8:5 11:10 7:5 11:5 8:10 11:5 4:5 8:5 11:5 5:5
8:0 11:10 7:5 11:5 8:10 11:5 4:5 8:5 11:5 5:5 11:5
11:0 7:5 11:5 8:10 11:5 4:5 8:5 11:5 5:5 11:5 4:5
7:0 11:5 8:10 11:5 4:5 8:5 11:5 5:5 11:5 4:5 8:5
11:0 8:10 11:5 4:5 8:5 11:5 5:5 11:5 4:5 8:5 11:5
8:0 11:5 4:5 8:5 11:5 5:5 11:5 4:5 8:5 11:5 8:5
11:0 4:5 8:5 11:5 5:5 11:5 4:5 8:5 11:5 8:5 11:5
4:0 8:5 11:5 5:5 11:5 4:5 8:5 11:5 8:5 11:5 8:5
8:0 11:5 5:5 11:5 4:5 8:5 11:5 8:5 11:5 8:5 7:5
11:0 5:5 11:5 4:5 8:5 11:5 8:5 11:5 8:5 7:5 11:10
5:0 11:5 4:5 8:5 11:5 8:5 11:5 8:5 7:5 11:10 4:5
11:0 4:5 8:5 11:5 8:5 11:5 8:5 7:5 11:10 4:5 5:5
4:0 8:5 11:5 8:5 11:5 8:5 7:5 11:10 4:5 5:5 11:5
8:0 11:5 8:5 11:5 8:5 7:5 11:10 4:5 5:5 11:5 7:15
11:0 8:5 11:5 8:5 7:5 11:10 4:5 5:5 11:5 7:15 5:5
8:0 11:5 8:5 7:5 11:10 4:5 5:5 11:5 7:15 5:5 11:5
11:0 8:5 7:5 11:10 4:5 5:5 11:5 7:15 5:5 11:5 8:5
8:0 7:5 11:10 4:5 5:5 11:5 7:15 5:5 11:5 8:5 11:5
7:0 11:10 4:5 5:5 11:5 7:15 5:5 11:5 8:5 11:5 4:5
11:0 4:5 5:5 11:5 7:15 5:5 11:5 8:5 11:5 4:5 8:5
4:0 5:5 11:5 7:15 5:5 11:5 8:5 11:5 4:5 8:5 11:5
5:0 11:5 7:15 5:5 11:5 8:5 11:5 4:5 8:5 11:5 5:5
11:0 7:15 5:5 11:5 8:5 11:5 4:5 8:5 11:5 5:5 11:5
7:0 5:5 11:5 8:5 11:5 4:5 8:5 11:5 5:5 11:5 5:5
5:0 11:5 8:5 11:5 4:5 8:5 11:5 5:5 11:5 5:5 8:5
11:0 8:5 11:5 4:5 8:5 11:5 5:5 11:5 5:5 8:5 5:5
8:0 11:5 4:5 8:5 11:5 5:5 11:5 5:5 8:5 5:5 11:5
11:0 4:5 8:5 11:5 5:5 11:5 5:5 8:5 5:5 11:5 5:10
4:0 8:5 11:5 5:5 11:5 5:5 8:5 5:5 11:5 5:10 8:5
8:0 11:5 5:5 11:5 5:5 8:5 5:5 11:5 5:10 8:5 11:5
11:0 5:5 11:5 5:5 8:5 5:5 11:5 5:10 8:5 11:5 12:5
5:0 11:5 5:5 8:5 5:5 11:5 5:10 8:5 11:5 12:5 4:5
11:0 5:5 8:5 5:5 11:5 5:10 8:5 11:5 12:5 4:5 8:5
5:0 8:5 5:5 11:5 5:10 8:5 11:5 12:5 4:5 8:5 11:5
8:0 5:5 11:5 5:10 8:5 11:5 12:5 4:5 8:5 11:5 5:5
5:0 11:5 5:10 8:5 11:5 12:5 4:5 8:5 11:5 5:5 11:5
11:0 5:10 8:5 11:5 12:5 4:5 8:5 11:5 5:5 11:5 4:5
5:0 8:5 11:5 12:5 4:5 8:5 11:5 5:5 11:5 4:5 8:5
8:0 11:5 12:5 4:5 8:5 11:5 5:5 11:5 4:5 8:5 11:5
11:0 12:5 4:5 8:5 11:5 5:5 11:5 4:5 8:5 11:5 8:5
12:0 4:5 8:5 11:5 5:5 11:5 4:5 8:5 11:5 8:5 11:5
4:0 8:5 11:5 5:5 11:5 4:5 8:5 11:5 8:5 11:5 4:5
8:0 11:5 5:5 11:5 4:5 8:5 11:5 8:5 11:5 4:5 8:5
11:0 5:5 11:5 4:5 8:5 11:5 8:5 11:5 4:5 8:5 11:5
5:0 11:5 4:5 8:5 11:5 8:5 11:5 4:5 8:5 11:5 2:15
11:0 4:5 8:5 11:5 8:5 11:5 4:5 8:5 11:5 2:15 8:5
4:0 8:5 11:5 8:5 11:5 4:5 8:5 11:5 2:15 8:5 11:10
8:0 11:5 8:5 11:5 4:5 8:5 11:5 2:15 8:5 11:10 7:5
11:0 8:5 11:5 4:5 8:5 11:5 2:15 8:5 11:10 7:5 5:5
8:0 11:5 4:5 8:5 11:5 2:15 8:5 11:10 7:5 5:5 11:5
11:0 4:5 8:5 11:5 2:15 8:5 11:10 7:5 5:5 11:5 8:5
4:0 8:5 11:5 2:15 8:5 11:10 7:5 5:5 11:5 8:5 11:5
8:0 11:5 2:15 8:5 11:10 7:5 5:5 11:5 8:5 11:5 7:5
11:0 2:15 8:5 11:10 7:5 5:5 11:5 8:5 11:5 7:5 8:5
2:0 8:5 11:10 7:5 5:5 11:5 8:5 11:5 7:5 8:5 11:10
8:0 11:10 7:5 5:5 11:5 8:5 11:5 7:5 8:5 11:10 8:10
11:0 7:5 5:5 11:5 8:5 11:5 7:5 8:5 11:10 8:10 5:5
7:0 5:5 11:5 8:5 11:5 7:5 8:5 11:10 8:10 5:5 11:5
5:0 11:5 8:5 11:5 7:5 8:5 11:10 8:10 5:5 11:5 8:5
11:0 8:5 11:5 7:5 8:5 11:10 8:10 5:5 11:5 8:5 11:5
8:0 11:5 7:5 8:5 11:10 8:10 5:5 11:5 8:5 11:5 4:5
11:0 7:5 8:5 11:10 8:10 5:5 11:5 8:5 11:5 4:5 8:5
7:0 8:5 11:10 8:10 5:5 11:5 8:5 11:5 4:5 8:5 11:5
8:0 11:10 8:10 5:5 11:5 8:5 11:5 4:5 8:5 11:5 4:10
11:0 8:10 5:5 11:5 8:5 11:5 4:5 8:5 11:5 4:10 8:5
8:0 5:5 11:5 8:5 11:5 4:5 8:5 11:5 4:10 8:5 5:5
5:0 11:5 8:5 11:5 4:5 8:5 11:5 4:10 8:5 5:5 8:5
11:0 8:5 11:5 4:5 8:5 11:5 4:10 8:5 5:5 8:5 12:5
8:0 11:5 4:5 8:5 11:5 4:10 8:5 5:5 8:5 12:5 8:5
11:0 4:5 8:5 11:5 4:10 8:5 5:5 8:5 12:5 8:5 4:5
4:0 8:5 11:5 4:10 8:5 5:5 8:5 12:5 8:5 4:5 11:5
8:0 11:5 4:10 8:5 5:5 8:5 12:5 8:5 4:5 11:5 7:15
11:0 4:10 8:5 5:5 8:5 12:5 8:5 4:5 11:5 7:15 8:5
4:0 8:5 5:5 8:5 12:5 8:5 4:5 11:5 7:15 8:5 11:5
8:0 5:5 8:5 12:5 8:5 4:5 11:5 7:15 8:5 11:5 8:5
5:0 8:5 12:5 8:5 4:5 11:5 7:15 8:5 11:5 8:5 11:5
8:0 12:5 8:5 4:5 11:5 7:15 8:5 11:5 8:5 11:5 4:5
12:0 8:5 4:5 11:5 7:15 8:5 11:5 8:5 11:5 4:5 12:5
8:0 4:5 11:5 7:15 8:5 11:5 8:5 11:5 4:5 12:5 5:5
4:0 11:5 7:15 8:5 11:5 8:5 11:5 4:5 12:5 5:5 11:5
11:0 7:15 8:5 11:5 8:5 11:5 4:5 12:5 5:5 11:5 4:10
7:0 8:5 11:5 8:5 11:5 4:5 12:5 5:5 11:5 4:10 8:5
8:0 11:5 8:5 11:5 4:5 12:5 5:5 11:5 4:10 8:5 11:5
11:0 8:5 11:5 4:5 12:5 5:5 11:5 4:10 8:5 11:5 8:5
8:0 11:5 4:5 12:5 5:5 11:5 4:10 8:5 11:5 8:5 11:5
11:0 4:5 12:5 5:5 11:5 4:10 8:5 11:5 8:5 11:5 2:5
4:0 12:5 5:5 11:5 4:10 8:5 11:5 8:5 11:5 2:5 11:5
12:0 5:5 11:5 4:10 8:5 11:5 8:5 11:5 2:5 11:5 8:5
5:0 11:5 4:10 8:5 11:5 8:5 11:5 2:5 11:5 8:5 12:5
11:0 4:10 8:5 11:5 8:5 11:5 2:5 11:5 8:5 12:5 4:5
4:0 8:5 11:5 8:5 11:5 2:5 11:5 8:5 12:5 4:5 8:5
8:0 11:5 8:5 11:5 2:5 11:5 8:5 12:5 4:5 8:5 11:5
11:0 8:5 11:5 2:5 11:5 8:5 12:5 4:5 8:5 11:5 8:5
8:0 11:5 2:5 11:5 8:5 12:5 4:5 8:5 11:5 8:5 11:5
11:0 2:5 11:5 8:5 12:5 4:5 8:5 11:5 8:5 11:5 4:5
2:0 11:5 8:5 12:5 4:5 8:5 11:5 8:5 11:5 4:5 8:5
11:0 8:5 12:5 4:5 8:5 11:5 8:5 11:5 4:5 8:5 11:5
8:0 12:5 4:5 8:5 11:5 8:5 11:5 4:5 8:5 11:5 8:5
12:0 4:5 8:5 11:5 8:5 11:5 4:5 8:5 11:5 8:5 11:5
4:0 8:5 11:5 8:5 11:5 4:5 8:5 11:5 8:5 11:5 4:5
8:0 11:5 8:5 11:5 4:5 8:5 11:5 8:5 11:5 4:5 11:10
11:0 8:5 11:5 4:5 8:5 11:5 8:5 11:5 4:5 11:10 2:15
8:0 11:5 4:5 8:5 11:5 8:5 11:5 4:5 11:10 2:15 11:5
11:0 4:5 8:5 11:5 8:5 11:5 4:5 11:10 2:15 11:5 8:5
4:0 8:5 11:5 8:5 11:5 4:5 11:10 2:15 11:5 8:5 11:5
8:0 11:5 8:5 11:5 4:5 11:10 2:15 11:5 8:5 11:5 5:10
11:0 8:5 11:5 4:5 11:10 2:15 11:5 8:5 11:5 5:10 11:5
8:0 11:5 4:5 11:10 2:15 11:5 8:5 11:5 5:10 11:5 8:5
11:0 4:5 11:10 2:15 11:5 8:5 11:5 5:10 11:5 8:5 11:5
4:0 11:10 2:15 11:5 8:5 11:5 5:10 11:5 8:5 11:5 4:5
11:0 2:15 11:5 8:5 11:5 5:10 11:5 8:5 11:5 4:5 5:5
2:0 11:5 8:5 11:5 5:10 11:5 8:5 11:5 4:5 5:5 11:5
11:0 8:5 11:5 5:10 11:5 8:5 11:5 4:5 5:5 11:5 8:5
8:0 11:5 5:10 11:5 8:5 11:5 4:5 5:5 11:5 8:5 12:5
11:0 5:10 11:5 8:5 11:5 4:5 5:5 11:5 8:5 12:5 4:5
5:0 11:5 8:5 11:5 4:5 5:5 11:5 8:5 12:5 4:5 5:5
11:0 8:5 11:5 4:5 5:5 11:5 8:5 12:5 4:5 5:5 11:5
8:0 11:5 4:5 5:5 11:5 8:5 12:5 4:5 5:5 11:5 8:5
11:0 4:5 5:5 11:5 8:5 12:5 4:5 5:5 11:5 8:5 12:5
4:0 5:5 11:5 8:5 12:5 4:5 5:5 11:5 8:5 12:5 4:5
5:0 11:5 8:5 12:5 4:5 5:5 11:5 8:5 12:5 4:5 8:5
11:0 8:5 12:5 4:5 5:5 11:5 8:5 12:5 4:5 8:5 11:5
8:0 12:5 4:5 5:5 11:5 8:5 12:5 4:5 8:5 11:5 2:15
12:0 4:5 5:5 11:5 8:5 12:5 4:5 8:5 11:5 2:15 11:5
4:0 5:5 11:5 8:5 12:5 4:5 8:5 11:5 2:15 11:5 5:5
5:0 11:5 8:5 12:5 4:5 8:5 11:5 2:15 11:5 5:5 8:5
11:0 8:5 12:5 4:5 8:5 11:5 2:15 11:5 5:5 8:5 11:5
8:0 12:5 4:5 8:5 11:5 2:15 11:5 5:5 8:5 11:5 2:5
12:0 4:5 8:5 11:5 2:15 11:5 5:5 8:5 11:5 2:5 8:5
4:0 8:5 11:5 2:15 11:5 5:5 8:5 11:5 2:5 8:5 12:5
8:0 11:5 2:15 11:5 5:5 8:5 11:5 2:5 8:5 12:5 8:10
11:0 2:15 11:5 5:5 8:5 11:5 2:5 8:5 12:5 8:10 7:10
2:0 11:5 5:5 8:5 11:5 2:5 8:5 12:5 8:10 7:10 11:5
11:0 5:5 8:5 11:5 2:5 8:5 12:5 8:10 7:10 11:5 4:10
5:0 8:5 11:5 2:5 8:5 12:5 8:10 7:10 11:5 4:10 8:5
8:0 11:5 2:5 8:5 12:5 8:10 7:10 11:5 4:10 8:5 11:5
11:0 2:5 8:5 12:5 8:10 7:10 11:5 4:10 8:5 11:5 8:15
2:0 8:5 12:5 8:10 7:10 11:5 4:10 8:5 11:5 8:15 11:10
8:0 12:5 8:10 7:10 11:5 4:10 8:5 11:5 8:15 11:10 8:5
12:0 8:10 7:10 11:5 4:10 8:5 11:5 8:15 11:10 8:5 11:5
8:0 7:10 11:5 4:10 8:5 11:5 8:15 11:10 8:5 11:5 4:5
7:0 11:5 4:10 8:5 11:5 8:15 11:10 8:5 11:5 4:5 8:5
11:0 4:10 8:5 11:5 8:15 11:10 8:5 11:5 4:5 8:5 11:5
4:0 8:5 11:5 8:15 11:10 8:5 11:5 4:5 8:5 11:5 8:5
8:0 11:5 8:15 11:10 8:5 11:5 4:5 8:5 11:5 8:5 11:5
11:0 8:15 11:10 8:5 11:5 4:5 8:5 11:5 8:5 11:5 8:5
8:0 11:10 8:5 11:5 4:5 8:5 11:5 8:5 11:5 8:5 11:5
11:0 8:5 11:5 4:5 8:5 11:5 8:5 11:5 8:5 11:5 5:5
8:0 11:5 4:5 8:5 11:5 8:5 11:5 8:5 11:5 5:5 12:5
11:0 4:5 8:5 11:5 8:5 11:5 8:5 11:5 5:5 12:5 4:5
4:0 8:5 11:5 8:5 11:5 8:5 11:5 5:5 12:5 4:5 8:5
8:0 11:5 8:5 11:5 8:5 11:5 5:5 12:5 4:5 8:5 11:5
11:0 8:5 11:5 8:5 11:5 5:5 12:5 4:5 8:5 11:5 8:5
8:0 11:5 8:5 11:5 5:5 12:5 4:5 8:5 11:5 8:5 11:5
11:0 8:5 11:5 5:5 12:5 4:5 8:5 11:5 8:5 11:5 4:5
8:0 11:5 5:5 12:5 4:5 8:5 11:5 8:5 11:5 4:5 5:5
11:0 5:5 12:5 4:5 8:5 11:5 8:5 11:5 4:5 5:5 11:5
5:0 12:5 4:5 8:5 11:5 8:5 11:5 4:5 5:5 11:5 4:15
12:0 4:5 8:5 11:5 8:5 11:5 4:5 5:5 11:5 4:15 11:5
4:0 8:5 11:5 8:5 11:5 4:5 5:5 11:5 4:15 11:5 8:10
8:0 11:5 8:5 11:5 4:5 5:5 11:5 4:15 11:5 8:10 11:5
11:0 8:5 11:5 4:5 5:5 11:5 4:15 11:5 8:10 11:5 4:5
8:0 11:5 4:5 5:5 11:5 4:15 11:5 8:10 11:5 4:5 8:5
11:0 4:5 5:5 11:5 4:15 11:5 8:10 11:5 4:5 8:5 11:5
4:0 5:5 11:5 4:15 11:5 8:10 11:5 4:5 8:5 11:5 8:5
5:0 11:5 4:15 11:5 8:10 11:5 4:5 8:5 11:5 8:5 11:5
11:0 4:15 11:5 8:10 11:5 4:5 8:5 11:5 8:5 11:5 5:5
4:0 11:5 8:10 11:5 4:5 8:5 11:5 8:5 11:5 5:5 8:5
11:0 8:10 11:5 4:5 8:5 11:5 8:5 11:5 5:5 8:5 11:5
8:0 11:5 4:5 8:5 11:5 8:5 11:5 5:5 8:5 11:5 8:5
11:0 4:5 8:5 11:5 8:5 11:5 5:5 8:5 11:5 8:5 7:5
4:0 8:5 11:5 8:5 11:5 5:5 8:5 11:5 8:5 7:5 8:5
8:0 11:5 8:5 11:5 5:5 8:5 11:5 8:5 7:5 8:5 11:10
11:0 8:5 11:5 5:5 8:5 11:5 8:5 7:5 8:5 11:10 4:10
8:0 11:5 5:5 8:5 11:5 8:5 7:5 8:5 11:10 4:10 11:5
11:0 5:5 8:5 11:5 8:5 7:5 8:5 11:10 4:10 11:5 8:10
5:0 8:5 11:5 8:5 7:5 8:5 11:10 4:10 11:5 8:10 12:5
8:0 11:5 8:5 7:5 8:5 11:10 4:10 11:5 8:10 12:5 8:5
11:0 8:5 7:5 8:5 11:10 4:10 11:5 8:10 12:5 8:5 11:5
8:0 7:5 8:5 11:10 4:10 11:5 8:10 12:5 8:5 11:5 7:5
7:0 8:5 11:10 4:10 11:5 8:10 12:5 8:5 11:5 7:5 11:5
8:0 11:10 4:10 11:5 8:10 12:5 8:5 11:5 7:5 11:5 8:5
11:0 4:10 11:5 8:10 12:5 8:5 11:5 7:5 11:5 8:5 4:5
4:0 11:5 8:10 12:5 8:5 11:5 7:5 11:5 8:5 4:5 5:5
11:0 8:10 12:5 8:5 11:5 7:5 11:5 8:5 4:5 5:5 11:5
8:0 12:5 8:5 11:5 7:5 11:5 8:5 4:5 5:5 11:5 12:5
12:0 8:5 11:5 7:5 11:5 8:5 4:5 5:5 11:5 12:5 11:5
8:0 11:5 7:5 11:5 8:5 4:5 5:5 11:5 12:5 11:5 5:5
11:0 7:5 11:5 8:5 4:5 5:5 11:5 12:5 11:5 5:5 7:5
7:0 11:5 8:5 4:5 5:5 11:5 12:5 11:5 5:5 7:5 11:5
11:0 8:5 4:5 5:5 11:5 12:5 11:5 5:5 7:5 11:5 4:10
8:0 4:5 5:5 11:5 12:5 11:5 5:5 7:5 11:5 4:10 5:5
4:0 5:5 11:5 12:5 11:5 5:5 7:5 11:5 4:10 5:5 12:5
5:0 11:5 12:5 11:5 5:5 7:5 11:5 4:10 5:5 12:5 11:5
11:0 12:5 11:5 5:5 7:5 11:5 4:10 5:5 12:5 11:5 8:5
12:0 11:5 5:5 7:5 11:5 4:10 5:5 12:5 11:5 8:5 7:5
11:0 5:5 7:5 11:5 4:10 5:5 12:5 11:5 8:5 7:5 8:5
5:0 7:5 11:5 4:10 5:5 12:5 11:5 8:5 7:5 8:5 11:15
7:0 11:5 4:10 5:5 12:5 11:5 8:5 7:5 8:5 11:15 4:5
11:0 4:10 5:5 12:5 11:5 8:5 7:5 8:5 11:15 4:5 5:5
4:0 5:5 12:5 11:5 8:5 7:5 8:5 11:15 4:5 5:5 8:5
5:0 12:5 11:5 8:5 7:5 8:5 11:15 4:5 5:5 8:5 11:10
12:0 11:5 8:5 7:5 8:5 11:15 4:5 5:5 8:5 11:10 4:5
11:0 8:5 7:5 8:5 11:15 4:5 5:5 8:5 11:10 4:5 7:5
8:0 7:5 8:5 11:15 4:5 5:5 8:5 11:10 4:5 7:5 11:10
7:0 8:5 11:15 4:5 5:5 8:5 11:10 4:5 7:5 11:10 4:5
8:0 11:15 4:5 5:5 8:5 11:10 4:5 7:5 11:10 4:5 5:5
11:0 4:5 5:5 8:5 11:10 4:5 7:5 11:10 4:5 5:5 12:5
4:0 5:5 8:5 11:10 4:5 7:5 11:10 4:5 5:5 12:5 8:5
5:0 8:5 11:10 4:5 7:5 11:10 4:5 5:5 12:5 8:5 11:5
8:0 11:10 4:5 7:5 11:10 4:5 5:5 12:5 8:5 11:5 4:5
11:0 4:5 7:5 11:10 4:5 5:5 12:5 8:5 11:5 4:5 8:5
4:0 7:5 11:10 4:5 5:5 12:5 8:5 11:5 4:5 8:5 11:5
7:0 11:10 4:5 5:5 12:5 8:5 11:5 4:5 8:5 11:5 4:15
11:0 4:5 5:5 12:5 8:5 11:5 4:5 8:5 11:5 4:15 8:5
4:0 5:5 12:5 8:5 11:5 4:5 8:5 11:5 4:15 8:5 7:5
5:0 12:5 8:5 11:5 4:5 8:5 11:5 4:15 8:5 7:5 8:5
12:0 8:5 11:5 4:5 8:5 11:5 4:15 8:5 7:5 8:5 12:5
8:0 11:5 4:5 8:5 11:5 4:15 8:5 7:5 8:5 12:5 8:5
11:0 4:5 8:5 11:5 4:15 8:5 7:5 8:5 12:5 8:5 11:10
4:0 8:5 11:5 4:15 8:5 7:5 8:5 12:5 8:5 11:10 8:5
8:0 11:5 4:15 8:5 7:5 8:5 12:5 8:5 11:10 8:5 11:5
11:0 4:15 8:5 7:5 8:5 12:5 8:5 11:10 8:5 11:5 4:5
4:0 8:5 7:5 8:5 12:5 8:5 11:10 8:5 11:5 4:5 8:5
8:0 7:5 8:5 12:5 8:5 11:10 8:5 11:5 4:5 8:5 11:5
7:0 8:5 12:5 8:5 11:10 8:5 11:5 4:5 8:5 11:5 8:5
8:0 12:5 8:5 11:10 8:5 11:5 4:5 8:5 11:5 8:5 11:5
12:0 8:5 11:10 8:5 11:5 4:5 8:5 11:5 8:5 11:5 4:5
8:0 11:10 8:5 11:5 4:5 8:5 11:5 8:5 11:5 4:5 11:5
11:0 8:5 11:5 4:5 8:5 11:5 8:5 11:5 4:5 11:5 7:5
8:0 11:5 4:5 8:5 11:5 8:5 11:5 4:5 11:5 7:5 11:5
11:0 4:5 8:5 11:5 8:5 11:5 4:5 11:5 7:5 11:5 8:5
4:0 8:5 11:5 8:5 11:5 4:5 11:5 7:5 11:5 8:5 2:5
8:0 11:5 8:5 11:5 4:5 11:5 7:5 11:5 8:5 2:5 11:5
11:0 8:5 11:5 4:5 11:5 7:5 11:5 8:5 2:5 11:5 8:10
8:0 11:5 4:5 11:5 7:5 11:5 8:5 2:5 11:5 8:10 4:5
11:0 4:5 11:5 7:5 11:5 8:5 2:5 11:5 8:10 4:5 8:5
4:0 11:5 7:5 11:5 8:5 2:5 11:5 8:10 4:5 8:5 11:5
11:0 7:5 11:5 8:5 2:5 11:5 8:10 4:5 8:5 11:5 8:5
7:0 11:5 8:5 2:5 11:5 8:10 4:5 8:5 11:5 8:5 11:5
11:0 8:5 2:5 11:5 8:10 4:5 8:5 11:5 8:5 11:5 4:5
8:0 2:5 11:5 8:10 4:5 8:5 11:5 8:5 11:5 4:5 8:5
2:0 11:5 8:10 4:5 8:5 11:5 8:5 11:5 4:5 8:5 11:5
11:0 8:10 4:5 8:5 11:5 8:5 11:5 4:5 8:5 11:5 9:10
8:0 4:5 8:5 11:5 8:5 11:5 4:5 8:5 11:5 9:10 4:5
4:0 8:5 11:5 8:5 11:5 4:5 8:5 11:5 9:10 4:5 11:5
8:0 11:5 8:5 11:5 4:5 8:5 11:5 9:10 4:5 11:5 8:10
11:0 8:5 11:5 4:5 8:5 11:5 9:10 4:5 11:5 8:10 11:5
8:0 11:5 4:5 8:5 11:5 9:10 4:5 11:5 8:10 11:5 8:5
11:0 4:5 8:5 11:5 9:10 4:5 11:5 8:10 11:5 8:5 12:5
4:0 8:5 11:5 9:10 4:5 11:5 8:10 11:5 8:5 12:5 8:5
8:0 11:5 9:10 4:5 11:5 8:10 11:5 8:5 12:5 8:5 11:5
11:0 9:10 4:5 11:5 8:10 11:5 8:5 12:5 8:5 11:5 2:10
9:0 4:5 11:5 8:10 11:5 8:5 12:5 8:5 11:5 2:10 11:5
4:0 11:5 8:10 11:5 8:5 12:5 8:5 11:5 2:10 11:5 8:5
11:0 8:10 11:5 8:5 12:5 8:5 11:5 2:10 11:5 8:5 11:5
8:0 11:5 8:5 12:5 8:5 11:5 2:10 11:5 8:5 11:5 4:5
11:0 8:5 12:5 8:5 11:5 2:10 11:5 8:5 11:5 4:5 8:5
8:0 12:5 8:5 11:5 2:10 11:5 8:5 11:5 4:5 8:5 11:5
12:0 8:5 11:5 2:10 11:5 8:5 11:5 4:5 8:5 11:5 8:5
8:0 11:5 2:10 11:5 8:5 11:5 4:5 8:5 11:5 8:5 12:5
11:0 2:10 11:5 8:5 11:5 4:5 8:5 11:5 8:5 12:5 4:5
2:0 11:5 8:5 11:5 4:5 8:5 11:5 8:5 12:5 4:5 11:5
11:0 8:5 11:5 4:5 8:5 11:5 8:5 12:5 4:5 11:5 4:5
8:0 11:5 4:5 8:5 11:5 8:5 12:5 4:5 11:5 4:5 11:5
11:0 4:5 8:5 11:5 8:5 12:5 4:5 11:5 4:5 11:5 2:10
4:0 8:5 11:5 8:5 12:5 4:5 11:5 4:5 11:5 2:10 11:5
8:0 11:5 8:5 12:5 4:5 11:5 4:5 11:5 2:10 11:5 7:5
11:0 8:5 12:5 4:5 11:5 4:5 11:5 2:10 11:5 7:5 11:5
8:0 12:5 4:5 11:5 4:5 11:5 2:10 11:5 7:5 11:5 1:10
12:0 4:5 11:5 4:5 11:5 2:10 11:5 7:5 11:5 1:10 11:5
4:0 11:5 4:5 11:5 2:10 11:5 7:5 11:5 1:10 11:5 8:15
11:0 4:5 11:5 2:10 11:5 7:5 11:5 1:10 11:5 8:15 12:10
4:0 11:5 2:10 11:5 7:5 11:5 1:10 11:5 8:15 12:10 8:5
11:0 2:10 11:5 7:5 11:5 1:10 11:5 8:15 12:10 8:5 11:5
2:0 11:5 7:5 11:5 1:10 11:5 8:15 12:10 8:5 11:5 7:5
11:0 7:5 11:5 1:10 11:5 8:15 12:10 8:5 11:5 7:5 8:5
7:0 11:5 1:10 11:5 8:15 12:10 8:5 11:5 7:5 8:5 11:10
11:0 1:10 11:5 8:15 12:10 8:5 11:5 7:5 8:5 11:10 4:10
1:0 11:5 8:15 12:10 8:5 11:5 7:5 8:5 11:10 4:10 11:5
11:0 8:15 12:10 8:5 11:5 7:5 8:5 11:10 4:10 11:5 8:5
8:0 12:10 8:5 11:5 7:5 8:5 11:10 4:10 11:5 8:5 11:5
12:0 8:5 11:5 7:5 8:5 11:10 4:10 11:5 8:5 11:5 4:10
8:0 11:5 7:5 8:5 11:10 4:10 11:5 8:5 11:5 4:10 8:5
11:0 7:5 8:5 11:10 4:10 11:5 8:5 11:5 4:10 8:5 7:5
7:0 8:5 11:10 4:10 11:5 8:5 11:5 4:10 8:5 7:5 11:5
8:0 11:10 4:10 11:5 8:5 11:5 4:10 8:5 7:5 11:5 2:10
11:0 4:10 11:5 8:5 11:5 4:10 8:5 7:5 11:5 2:10 11:5
4:0 11:5 8:5 11:5 4:10 8:5 7:5 11:5 2:10 11:5 7:5
11:0 8:5 11:5 4:10 8:5 7:5 11:5 2:10 11:5 7:5 11:5
8:0 11:5 4:10 8:5 7:5 11:5 2:10 11:5 7:5 11:5 8:5
11:0 4:10 8:5 7:5 11:5 2:10 11:5 7:5 11:5 8:5 11:10
4:0 8:5 7:5 11:5 2:10 11:5 7:5 11:5 8:5 11:10 8:10
8:0 7:5 11:5 2:10 11:5 7:5 11:5 8:5 11:10 8:10 2:10
7:0 11:5 2:10 11:5 7:5 11:5 8:5 11:10 8:10 2:10 11:5
11:0 2:10 11:5 7:5 11:5 8:5 11:10 8:10 2:10 11:5 7:15
2:0 11:5 7:5 11:5 8:5 11:10 8:10 2:10 11:5 7:15 11:5
11:0 7:5 11:5 8:5 11:10 8:10 2:10 11:5 7:15 11:5 8:5
7:0 11:5 8:5 11:10 8:10 2:10 11:5 7:15 11:5 8:5 11:10
11:0 8:5 11:10 8:10 2:10 11:5 7:15 11:5 8:5 11:10 7:5
8:0 11:10 8:10 2:10 11:5 7:15 11:5 8:5 11:10 7:5 8:5
11:0 8:10 2:10 11:5 7:15 11:5 8:5 11:10 7:5 8:5 11:5
8:0 2:10 11:5 7:15 11:5 8:5 11:10 7:5 8:5 11:5 8:5
2:0 11:5 7:15 11:5 8:5 11:10 7:5 8:5 11:5 8:5 11:5
11:0 7:15 11:5 8:5 11:10 7:5 8:5 11:5 8:5 11:5 4:5
7:0 11:5 8:5 11:10 7:5 8:5 11:5 8:5 11:5 4:5 8:5
11:0 8:5 11:10 7:5 8:5 11:5 8:5 11:5 4:5 8:5 11:5
8:0 11:10 7:5 8:5 11:5 8:5 11:5 4:5 8:5 11:5 8:5
11:0 7:5 8:5 11:5 8:5 11:5 4:5 8:5 11:5 8:5 11:5
7:0 8:5 11:5 8:5 11:5 4:5 8:5 11:5 8:5 11:5 4:5
8:0 11:5 8:5 11:5 4:5 8:5 11:5 8:5 11:5 4:5 7:5
11:0 8:5 11:5 4:5 8:5 11:5 8:5 11:5 4:5 7:5 11:5
8:0 11:5 4:5 8:5 11:5 8:5 11:5 4:5 7:5 11:5 8:5
11:0 4:5 8:5 11:5 8:5 11:5 4:5 7:5 11:5 8:5 11:5
4:0 8:5 11:5 8:5 11:5 4:5 7:5 11:5 8:5 11:5 8:5
8:0 11:5 8:5 11:5 4:5 7:5 11:5 8:5 11:5 8:5 11:5
11:0 8:5 11:5 4:5 7:5 11:5 8:5 11:5 8:5 11:5 8:5
8:0 11:5 4:5 7:5 11:5 8:5 11:5 8:5 11:5 8:5 11:5
11:0 4:5 7:5 11:5 8:5 11:5 8:5 11:5 8:5 11:5 4:5
4:0 7:5 11:5 8:5 11:5 8:5 11:5 8:5 11:5 4:5 8:5
7:0 11:5 8:5 11:5 8:5 11:5 8:5 11:5 4:5 8:5 11:5
11:0 8:5 11:5 8:5 11:5 8:5 11:5 4:5 8:5 11:5 8:10
8:0 11:5 8:5 11:5 8:5 11:5 4:5 8:5 11:5 8:10 4:5
11:0 8:5 11:5 8:5 11:5 4:5 8:5 11:5 8:10 4:5 8:5
8:0 11:5 8:5 11:5 4:5 8:5 11:5 8:10 4:5 8:5 11:5
11:0 8:5 11:5 4:5 8:5 11:5 8:10 4:5 8:5 11:5 9:10
8:0 11:5 4:5 8:5 11:5 8:10 4:5 8:5 11:5 9:10 4:5
11:0 4:5 8:5 11:5 8:10 4:5 8:5 11:5 9:10 4:5 8:5
4:0 8:5 11:5 8:10 4:5 8:5 11:5 9:10 4:5 8:5 11:5
8:0 11:5 8:10 4:5 8:5 11:5 9:10 4:5 8:5 11:5 5:5
11:0 8:10 4:5 8:5 11:5 9:10 4:5 8:5 11:5 5:5 11:5
8:0 4:5 8:5 11:5 9:10 4:5 8:5 11:5 5:5 11:5 5:5
4:0 8:5 11:5 9:10 4:5 8:5 11:5 5:5 11:5 5:5 8:5
8:0 11:5 9:10 4:5 8:5 11:5 5:5 11:5 5:5 8:5 11:5
11:0 9:10 4:5 8:5 11:5 5:5 11:5 5:5 8:5 11:5 7:10
9:0 4:5 8:5 11:5 5:5 11:5 5:5 8:5 11:5 7:10 5:5
4:0 8:5 11:5 5:5 11:5 5:5 8:5 11:5 7:10 5:5 12:5
8:0 11:5 5:5 11:5 5:5 8:5 11:5 7:10 5:5 12:5 8:5
11:0 5:5 11:5 5:5 8:5 11:5 7:10 5:5 12:5 8:5 11:5
5:0 11:5 5:5 8:5 11:5 7:10 5:5 12:5 8:5 11:5 7:5
11:0 5:5 8:5 11:5 7:10 5:5 12:5 8:5 11:5 7:5 8:5
5:0 8:5 11:5 7:10 5:5 12:5 8:5 11:5 7:5 8:5 5:5
8:0 11:5 7:10 5:5 12:5 8:5 11:5 7:5 8:5 5:5 11:5
11:0 7:10 5:5 12:5 8:5 11:5 7:5 8:5 5:5 11:5 4:10
7:0 5:5 12:5 8:5 11:5 7:5 8:5 5:5 11:5 4:10 11:5
5:0 12:5 8:5 11:5 7:5 8:5 5:5 11:5 4:10 11:5 5:5
12:0 8:5 11:5 7:5 8:5 5:5 11:5 4:10 11:5 5:5 12:5
8:0 11:5 7:5 8:5 5:5 11:5 4:10 11:5 5:5 12:5 11:5
11:0 7:5 8:5 5:5 11:5 4:10 11:5 5:5 12:5 11:5 2:5
7:0 8:5 5:5 11:5 4:10 11:5 5:5 12:5 11:5 2:5 11:5
8:0 5:5 11:5 4:10 11:5 5:5 12:5 11:5 2:5 11:5 7:5
5:0 11:5 4:10 11:5 5:5 12:5 11:5 2:5 11:5 7:5 11:5
11:0 4:10 11:5 5:5 12:5 11:5 2:5 11:5 7:5 11:5 2:10
4:0 11:5 5:5 12:5 11:5 2:5 11:5 7:5 11:5 2:10 11:5
11:0 5:5 12:5 11:5 2:5 11:5 7:5 11:5 2:10 11:5 7:15
5:0 12:5 11:5 2:5 11:5 7:5 11:5 2:10 11:5 7:15 5:5
12:0 11:5 2:5 11:5 7:5 11:5 2:10 11:5 7:15 5:5 11:5
11:0 2:5 11:5 7:5 11:5 2:10 11:5 7:15 5:5 11:5 7:5
2:0 11:5 7:5 11:5 2:10 11:5 7:15 5:5 11:5 7:5 11:5
11:0 7:5 11:5 2:10 11:5 7:15 5:5 11:5 7:5 11:5 4:5
7:0 11:5 2:10 11:5 7:15 5:5 11:5 7:5 11:5 4:5 8:5
11:0 2:10 11:5 7:15 5:5 11:5 7:5 11:5 4:5 8:5 11:5
2:0 11:5 7:15 5:5 11:5 7:5 11:5 4:5 8:5 11:5 5:15
11:0 7:15 5:5 11:5 7:5 11:5 4:5 8:5 11:5 5:15 8:5
7:0 5:5 11:5 7:5 11:5 4:5 8:5 11:5 5:15 8:5 11:5
5:0 11:5 7:5 11:5 4:5 8:5 11:5 5:15 8:5 11:5 8:5
11:0 7:5 11:5 4:5 8:5 11:5 5:15 8:5 11:5 8:5 11:5
7:0 11:5 4:5 8:5 11:5 5:15 8:5 11:5 8:5 11:5 8:5
11:0 4:5 8:5 11:5 5:15 8:5 11:5 8:5 11:5 8:5 11:10
4:0 8:5 11:5 5:15 8:5 11:5 8:5 11:5 8:5 11:10 8:10
8:0 11:5 5:15 8:5 11:5 8:5 11:5 8:5 11:10 8:10 11:10
11:0 5:15 8:5 11:5 8:5 11:5 8:5 11:10 8:10 11:10 7:15
5:0 8:5 11:5 8:5 11:5 8:5 11:10 8:10 11:10 7:15 8:5
8:0 11:5 8:5 11:5 8:5 11:10 8:10 11:10 7:15 8:5 12:5
11:0 8:5 11:5 8:5 11:10 8:10 11:10 7:15 8:5 12:5 5:5
8:0 11:5 8:5 11:10 8:10 11:10 7:15 8:5 12:5 5:5 11:5
11:0 8:5 11:10 8:10 11:10 7:15 8:5 12:5 5:5 11:5 4:5
8:0 11:10 8:10 11:10 7:15 8:5 12:5 5:5 11:5 4:5 5:5
11:0 8:10 11:10 7:15 8:5 12:5 5:5 11:5 4:5 5:5 12:5
8:0 11:10 7:15 8:5 12:5 5:5 11:5 4:5 5:5 12:5 8:15
11:0 7:15 8:5 12:5 5:5 11:5 4:5 5:5 12:5 8:15 11:10
7:0 8:5 12:5 5:5 11:5 4:5 5:5 12:5 8:15 11:10 1:15
8:0 12:5 5:5 11:5 4:5 5:5 12:5 8:15 11:10 1:15 11:5
12:0 5:5 11:5 4:5 5:5 12:5 8:15 11:10 1:15 11:5 5:10
5:0 11:5 4:5 5:5 12:5 8:15 11:10 1:15 11:5 5:10 11:5
11:0 4:5 5:5 12:5 8:15 11:10 1:15 11:5 5:10 11:5 4:5
4:0 5:5 12:5 8:15 11:10 1:15 11:5 5:10 11:5 4:5 12:5
5:0 12:5 8:15 11:10 1:15 11:5 5:10 11:5 4:5 12:5 8:5
12:0 8:15 11:10 1:15 11:5 5:10 11:5 4:5 12:5 8:5 11:5
8:0 11:10 1:15 11:5 5:10 11:5 4:5 12:5 8:5 11:5 7:5
11:0 1:15 11:5 5:10 11:5 4:5 12:5 8:5 11:5 7:5 8:5
1:0 11:5 5:10 11:5 4:5 12:5 8:5 11:5 7:5 8:5 12:5
11:0 5:10 11:5 4:5 12:5 8:5 11:5 7:5 8:5 12:5 8:5
5:0 11:5 4:5 12:5 8:5 11:5 7:5 8:5 12:5 8:5 11:5
11:0 4:5 12:5 8:5 11:5 7:5 8:5 12:5 8:5 11:5 7:5
4:0 12:5 8:5 11:5 7:5 8:5 12:5 8:5 11:5 7:5 5:5
12:0 8:5 11:5 7:5 8:5 12:5 8:5 11:5 7:5 5:5 11:5
8:0 11:5 7:5 8:5 12:5 8:5 11:5 7:5 5:5 11:5 8:5
11:0 7:5 8:5 12:5 8:5 11:5 7:5 5:5 11:5 8:5 11:5
7:0 8:5 12:5 8:5 11:5 7:5 5:5 11:5 8:5 11:5 8:5
8:0 12:5 8:5 11:5 7:5 5:5 11:5 8:5 11:5 8:5 11:10
12:0 8:5 11:5 7:5 5:5 11:5 8:5 11:5 8:5 11:10 8:10
8:0 11:5 7:5 5:5 11:5 8:5 11:5 8:5 11:10 8:10 2:5
11:0 7:5 5:5 11:5 8:5 11:5 8:5 11:10 8:10 2:5 8:5
7:0 5:5 11:5 8:5 11:5 8:5 11:10 8:10 2:5 8:5 11:5
5:0 11:5 8:5 11:5 8:5 11:10 8:10 2:5 8:5 11:5 9:5
11:0 8:5 11:5 8:5 11:10 8:10 2:5 8:5 11:5 9:5 8:5
8:0 11:5 8:5 11:10 8:10 2:5 8:5 11:5 9:5 8:5 4:5
11:0 8:5 11:10 8:10 2:5 8:5 11:5 9:5 8:5 4:5 11:5
8:0 11:10 8:10 2:5 8:5 11:5 9:5 8:5 4:5 11:5 8:10
11:0 8:10 2:5 8:5 11:5 9:5 8:5 4:5 11:5 8:10 5:10
8:0 2:5 8:5 11:5 9:5 8:5 4:5 11:5 8:10 5:10 12:5
2:0 8:5 11:5 9:5 8:5 4:5 11:5 8:10 5:10 12:5 8:5
8:0 11:5 9:5 8:5 4:5 11:5 8:10 5:10 12:5 8:5 11:5
11:0 9:5 8:5 4:5 11:5 8:10 5:10 12:5 8:5 11:5 4:5
9:0 8:5 4:5 11:5 8:10 5:10 12:5 8:5 11:5 4:5 8:5
8:0 4:5 11:5 8:10 5:10 12:5 8:5 11:5 4:5 8:5 12:5
4:0 11:5 8:10 5:10 12:5 8:5 11:5 4:5 8:5 12:5 8:5
11:0 8:10 5:10 12:5 8:5 11:5 4:5 8:5 12:5 8:5 11:5
8:0 5:10 12:5 8:5 11:5 4:5 8:5 12:5 8:5 11:5 4:5
5:0 12:5 8:5 11:5 4:5 8:5 12:5 8:5 11:5 4:5 11:5
12:0 8:5 11:5 4:5 8:5 12:5 8:5 11:5 4:5 11:5 8:5
8:0 11:5 4:5 8:5 12:5 8:5 11:5 4:5 11:5 8:5 11:10
11:0 4:5 8:5 12:5 8:5 11:5 4:5 11:5 8:5 11:10 4:5
4:0 8:5 12:5 8:5 11:5 4:5 11:5 8:5 11:10 4:5 8:5
8:0 12:5 8:5 11:5 4:5 11:5 8:5 11:10 4:5 8:5 11:5
12:0 8:5 11:5 4:5 11:5 8:5 11:10 4:5 8:5 11:5 4:10
8:0 11:5 4:5 11:5 8:5 11:10 4:5 8:5 11:5 4:10 8:5
11:0 4:5 11:5 8:5 11:10 4:5 8:5 11:5 4:10 8:5 12:5
4:0 11:5 8:5 11:10 4:5 8:5 11:5 4:10 8:5 12:5 5:5
11:0 8:5 11:10 4:5 8:5 11:5 4:10 8:5 12:5 5:5 11:5
8:0 11:10 4:5 8:5 11:5 4:10 8:5 12:5 5:5 11:5 7:5
11:0 4:5 8:5 11:5 4:10 8:5 12:5 5:5 11:5 7:5 4:5
4:0 8:5 11:5 4:10 8:5 12:5 5:5 11:5 7:5 4:5 12:5
8:0 11:5 4:10 8:5 12:5 5:5 11:5 7:5 4:5 12:5 11:5
11:0 4:10 8:5 12:5 5:5 11:5 7:5 4:5 12:5 11:5 4:10
4:0 8:5 12:5 5:5 11:5 7:5 4:5 12:5 11:5 4:10 8:5
8:0 12:5 5:5 11:5 7:5 4:5 12:5 11:5 4:10 8:5 11:5
12:0 5:5 11:5 7:5 4:5 12:5 11:5 4:10 8:5 11:5 4:15
5:0 11:5 7:5 4:5 12:5 11:5 4:10 8:5 11:5 4:15 8:5
11:0 7:5 4:5 12:5 11:5 4:10 8:5 11:5 4:15 8:5 11:5
7:0 4:5 12:5 11:5 4:10 8:5 11:5 4:15 8:5 11:5 8:5
4:0 12:5 11:5 4:10 8:5 11:5 4:15 8:5 11:5 8:5 11:5
12:0 11:5 4:10 8:5 11:5 4:15 8:5 11:5 8:5 11:5 4:5
11:0 4:10 8:5 11:5 4:15 8:5 11:5 8:5 11:5 4:5 8:5
4:0 8:5 11:5 4:15 8:5 11:5 8:5 11:5 4:5 8:5 12:5
8:0 11:5 4:15 8:5 11:5 8:5 11:5 4:5 8:5 12:5 8:5
11:0 4:15 8:5 11:5 8:5 11:5 4:5 8:5 12:5 8:5 11:5
4:0 8:5 11:5 8:5 11:5 4:5 8:5 12:5 8:5 11:5 5:5
8:0 11:5 8:5 11:5 4:5 8:5 12:5 8:5 11:5 5:5 11:5
11:0 8:5 11:5 4:5 8:5 12:5 8:5 11:5 5:5 11:5 8:5
8:0 11:5 4:5 8:5 12:5 8:5 11:5 5:5 11:5 8:5 11:5
11:0 4:5 8:5 12:5 8:5 11:5 5:5 11:5 8:5 11:5 8:5
4:0 8:5 12:5 8:5 11:5 5:5 11:5 8:5 11:5 8:5 11:10
8:0 12:5 8:5 11:5 5:5 11:5 8:5 11:5 8:5 11:10 5:5
12:0 8:5 11:5 5:5 11:5 8:5 11:5 8:5 11:10 5:5 12:5
8:0 11:5 5:5 11:5 8:5 11:5 8:5 11:10 5:5 12:5 8:5
11:0 5:5 11:5 8:5 11:5 8:5 11:10 5:5 12:5 8:5 11:5
5:0 11:5 8:5 11:5 8:5 11:10 5:5 12:5 8:5 11:5 7:5
11:0 8:5 11:5 8:5 11:10 5:5 12:5 8:5 11:5 7:5 11:5
8:0 11:5 8:5 11:10 5:5 12:5 8:5 11:5 7:5 11:5 2:10
11:0 8:5 11:10 5:5 12:5 8:5 11:5 7:5 11:5 2:10 8:5
8:0 11:10 5:5 12:5 8:5 11:5 7:5 11:5 2:10 8:5 11:5
11:0 5:5 12:5 8:5 11:5 7:5 11:5 2:10 8:5 11:5 5:15
5:0 12:5 8:5 11:5 7:5 11:5 2:10 8:5 11:5 5:15 11:5
12:0 8:5 11:5 7:5 11:5 2:10 8:5 11:5 5:15 11:5 8:10
8:0 11:5 7:5 11:5 2:10 8:5 11:5 5:15 11:5 8:10 11:5
11:0 7:5 11:5 2:10 8:5 11:5 5:15 11:5 8:10 11:5 5:5
7:0 11:5 2:10 8:5 11:5 5:15 11:5 8:10 11:5 5:5 8:5
11:0 2:10 8:5 11:5 5:15 11:5 8:10 11:5 5:5 8:5 11:5
2:0 8:5 11:5 5:15 11:5 8:10 11:5 5:5 8:5 11:5 8:5
8:0 11:5 5:15 11:5 8:10 11:5 5:5 8:5 11:5 8:5 4:10
11:0 5:15 11:5 8:10 11:5 5:5 8:5 11:5 8:5 4:10 11:5
5:0 11:5 8:10 11:5 5:5 8:5 11:5 8:5 4:10 11:5 7:15
11:0 8:10 11:5 5:5 8:5 11:5 8:5 4:10 11:5 7:15 8:5
8:0 11:5 5:5 8:5 11:5 8:5 4:10 11:5 7:15 8:5 5:5
11:0 5:5 8:5 11:5 8:5 4:10 11:5 7:15 8:5 5:5 11:5
5:0 8:5 11:5 8:5 4:10 11:5 7:15 8:5 5:5 11:5 2:10
8:0 11:5 8:5 4:10 11:5 7:15 8:5 5:5 11:5 2:10 8:5
11:0 8:5 4:10 11:5 7:15 8:5 5:5 11:5 2:10 8:5 11:5
8:0 4:10 11:5 7:15 8:5 5:5 11:5 2:10 8:5 11:5 8:5
4:0 11:5 7:15 8:5 5:5 11:5 2:10 8:5 11:5 8:5 11:5
11:0 7:15 8:5 5:5 11:5 2:10 8:5 11:5 8:5 11:5 2:5
7:0 8:5 5:5 11:5 2:10 8:5 11:5 8:5 11:5 2:5 8:5
8:0 5:5 11:5 2:10 8:5 11:5 8:5 11:5 2:5 8:5 11:5
5:0 11:5 2:10 8:5 11:5 8:5 11:5 2:5 8:5 11:5 8:5
11:0 2:10 8:5 11:5 8:5 11:5 2:5 8:5 11:5 8:5 11:5
2:0 8:5 11:5 8:5 11:5 2:5 8:5 11:5 8:5 11:5 2:5
8:0 11:5 8:5 11:5 2:5 8:5 11:5 8:5 11:5 2:5 7:5
11:0 8:5 11:5 2:5 8:5 11:5 8:5 11:5 2:5 7:5 11:5
8:0 11:5 2:5 8:5 11:5 8:5 11:5 2:5 7:5 11:5 9:5
11:0 2:5 8:5 11:5 8:5 11:5 2:5 7:5 11:5 9:5 4:5
2:0 8:5 11:5 8:5 11:5 2:5 7:5 11:5 9:5 4:5 5:5
8:0 11:5 8:5 11:5 2:5 7:5 11:5 9:5 4:5 5:5 11:5
11:0 8:5 11:5 2:5 7:5 11:5 9:5 4:5 5:5 11:5 8:5
8:0 11:5 2:5 7:5 11:5 9:5 4:5 5:5 11:5 8:5 11:5
11:0 2:5 7:5 11:5 9:5 4:5 5:5 11:5 8:5 11:5 4:5
2:0 7:5 11:5 9:5 4:5 5:5 11:5 8:5 11:5 4:5 8:5
7:0 11:5 9:5 4:5 5:5 11:5 8:5 11:5 4:5 8:5 11:10
11:0 9:5 4:5 5:5 11:5 8:5 11:5 4:5 8:5 11:10 8:10
9:0 4:5 5:5 11:5 8:5 11:5 4:5 8:5 11:10 8:10 11:10
4:0 5:5 11:5 8:5 11:5 4:5 8:5 11:10 8:10 11:10 8:10
5:0 11:5 8:5 11:5 4:5 8:5 11:10 8:10 11:10 8:10 2:5
11:0 8:5 11:5 4:5 8:5 11:10 8:10 11:10 8:10 2:5 11:5
8:0 11:5 4:5 8:5 11:10 8:10 11:10 8:10 2:5 11:5 7:5
11:0 4:5 8:5 11:10 8:10 11:10 8:10 2:5 11:5 7:5 11:5
4:0 8:5 11:10 8:10 11:10 8:10 2:5 11:5 7:5 11:5 7:5
8:0 11:10 8:10 11:10 8:10 2:5 11:5 7:5 11:5 7:5 4:5
11:0 8:10 11:10 8:10 2:5 11:5 7:5 11:5 7:5 4:5 11:5
8:0 11:10 8:10 2:5 11:5 7:5 11:5 7:5 4:5 11:5 8:5
11:0 8:10 2:5 11:5 7:5 11:5 7:5 4:5 11:5 8:5 11:5
8:0 2:5 11:5 7:5 11:5 7:5 4:5 11:5 8:5 11:5 4:5
2:0 11:5 7:5 11:5 7:5 4:5 11:5 8:5 11:5 4:5 5:5
11:0 7:5 11:5 7:5 4:5 11:5 8:5 11:5 4:5 5:5 12:5
7:0 11:5 7:5 4:5 11:5 8:5 11:5 4:5 5:5 12:5 8:5
11:0 7:5 4:5 11:5 8:5 11:5 4:5 5:5 12:5 8:5 11:5
7:0 4:5 11:5 8:5 11:5 4:5 5:5 12:5 8:5 11:5 4:5
4:0 11:5 8:5 11:5 4:5 5:5 12:5 8:5 11:5 4:5 8:5
11:0 8:5 11:5 4:5 5:5 12:5 8:5 11:5 4:5 8:5 11:5
8:0 11:5 4:5 5:5 12:5 8:5 11:5 4:5 8:5 11:5 12:5
11:0 4:5 5:5 12:5 8:5 11:5 4:5 8:5 11:5 12:5 11:5
4:0 5:5 12:5 8:5 11:5 4:5 8:5 11:5 12:5 11:5 8:5
5:0 12:5 8:5 11:5 4:5 8:5 11:5 12:5 11:5 8:5 11:10
12:0 8:5 11:5 4:5 8:5 11:5 12:5 11:5 8:5 11:10 2:15
8:0 11:5 4:5 8:5 11:5 12:5 11:5 8:5 11:10 2:15 11:5
11:0 4:5 8:5 11:5 12:5 11:5 8:5 11:10 2:15 11:5 8:15
4:0 8:5 11:5 12:5 11:5 8:5 11:10 2:15 11:5 8:15 4:5
8:0 11:5 12:5 11:5 8:5 11:10 2:15 11:5 8:15 4:5 11:5
11:0 12:5 11:5 8:5 11:10 2:15 11:5 8:15 4:5 11:5 8:15
12:0 11:5 8:5 11:10 2:15 11:5 8:15 4:5 11:5 8:15 5:5
11:0 8:5 11:10 2:15 11:5 8:15 4:5 11:5 8:15 5:5 11:5
8:0 11:10 2:15 11:5 8:15 4:5 11:5 8:15 5:5 11:5 8:5
11:0 2:15 11:5 8:15 4:5 11:5 8:15 5:5 11:5 8:5 11:5
2:0 11:5 8:15 4:5 11:5 8:15 5:5 11:5 8:5 11:5 8:5
11:0 8:15 4:5 11:5 8:15 5:5 11:5 8:5 11:5 8:5 12:5
8:0 4:5 11:5 8:15 5:5 11:5 8:5 11:5 8:5 12:5 11:5
4:0 11:5 8:15 5:5 11:5 8:5 11:5 8:5 12:5 11:5 8:5
11:0 8:15 5:5 11:5 8:5 11:5 8:5 12:5 11:5 8:5 11:5
8:0 5:5 11:5 8:5 11:5 8:5 12:5 11:5 8:5 11:5 4:5
5:0 11:5 8:5 11:5 8:5 12:5 11:5 8:5 11:5 4:5 5:5
11:0 8:5 11:5 8:5 12:5 11:5 8:5 11:5 4:5 5:5 11:5
8:0 11:5 8:5 12:5 11:5 8:5 11:5 4:5 5:5 11:5 8:5
11:0 8:5 12:5 11:5 8:5 11:5 4:5 5:5 11:5 8:5 2:10
8:0 12:5 11:5 8:5 11:5 4:5 5:5 11:5 8:5 2:10 11:5
12:0 11:5 8:5 11:5 4:5 5:5 11:5 8:5 2:10 11:5 2:20
11:0 8:5 11:5 4:5 5:5 11:5 8:5 2:10 11:5 2:20 11:5
8:0 11:5 4:5 5:5 11:5 8:5 2:10 11:5 2:20 11:5 8:5
11:0 4:5 5:5 11:5 8:5 2:10 11:5 2:20 11:5 8:5 11:5
4:0 5:5 11:5 8:5 2:10 11:5 2:20 11:5 8:5 11:5 7:5
5:0 11:5 8:5 2:10 11:5 2:20 11:5 8:5 11:5 7:5 5:5
11:0 8:5 2:10 11:5 2:20 11:5 8:5 11:5 7:5 5:5 8:5
8:0 2:10 11:5 2:20 11:5 8:5 11:5 7:5 5:5 8:5 11:5
2:0 11:5 2:20 11:5 8:5 11:5 7:5 5:5 8:5 11:5 4:10
11:0 2:20 11:5 8:5 11:5 7:5 5:5 8:5 11:5 4:10 11:5
2:0 11:5 8:5 11:5 7:5 5:5 8:5 11:5 4:10 11:5 8:5
11:0 8:5 11:5 7:5 5:5 8:5 11:5 4:10 11:5 8:5 11:5
8:0 11:5 7:5 5:5 8:5 11:5 4:10 11:5 8:5 11:5 8:5
11:0 7:5 5:5 8:5 11:5 4:10 11:5 8:5 11:5 8:5 2:5
7:0 5:5 8:5 11:5 4:10 11:5 8:5 11:5 8:5 2:5 11:5
5:0 8:5 11:5 4:10 11:5 8:5 11:5 8:5 2:5 11:5 8:10
8:0 11:5 4:10 11:5 8:5 11:5 8:5 2:5 11:5 8:10 11:5
11:0 4:10 11:5 8:5 11:5 8:5 2:5 11:5 8:10 11:5 2:5
4:0 11:5 8:5 11:5 8:5 2:5 11:5 8:10 11:5 2:5 8:5
11:0 8:5 11:5 8:5 2:5 11:5 8:10 11:5 2:5 8:5 11:5
8:0 11:5 8:5 2:5 11:5 8:10 11:5 2:5 8:5 11:5 4:10
11:0 8:5 2:5 11:5 8:10 11:5 2:5 8:5 11:5 4:10 11:10
8:0 2:5 11:5 8:10 11:5 2:5 8:5 11:5 4:10 11:10 7:5
2:0 11:5 8:10 11:5 2:5 8:5 11:5 4:10 11:10 7:5 11:5
11:0 8:10 11:5 2:5 8:5 11:5 4:10 11:10 7:5 11:5 7:5
8:0 11:5 2:5 8:5 11:5 4:10 11:10 7:5 11:5 7:5 4:5
11:0 2:5 8:5 11:5 4:10 11:10 7:5 11:5 7:5 4:5 11:5
2:0 8:5 11:5 4:10 11:10 7:5 11:5 7:5 4:5 11:5 10:10
8:0 11:5 4:10 11:10 7:5 11:5 7:5 4:5 11:5 10:10 4:5
11:0 4:10 11:10 7:5 11:5 7:5 4:5 11:5 10:10 4:5 5:5
4:0 11:10 7:5 11:5 7:5 4:5 11:5 10:10 4:5 5:5 11:5
11:0 7:5 11:5 7:5 4:5 11:5 10:10 4:5 5:5 11:5 4:15
7:0 11:5 7:5 4:5 11:5 10:10 4:5 5:5 11:5 4:15 5:5
11:0 7:5 4:5 11:5 10:10 4:5 5:5 11:5 4:15 5:5 11:5
7:0 4:5 11:5 10:10 4:5 5:5 11:5 4:15 5:5 11:5 8:10
4:0 11:5 10:10 4:5 5:5 11:5 4:15 5:5 11:5 8:10 11:10
11:0 10:10 4:5 5:5 11:5 4:15 5:5 11:5 8:10 11:10 7:5
10:0 4:5 5:5 11:5 4:15 5:5 11:5 8:10 11:10 7:5 11:5
4:0 5:5 11:5 4:15 5:5 11:5 8:10 11:10 7:5 11:5 2:10
5:0 11:5 4:15 5:5 11:5 8:10 11:10 7:5 11:5 2:10 12:5
11:0 4:15 5:5 11:5 8:10 11:10 7:5 11:5 2:10 12:5 11:5
4:0 5:5 11:5 8:10 11:10 7:5 11:5 2:10 12:5 11:5 5:5
5:0 11:5 8:10 11:10 7:5 11:5 2:10 12:5 11:5 5:5 11:5
11:0 8:10 11:10 7:5 11:5 2:10 12:5 11:5 5:5 11:5 5:5
8:0 11:10 7:5 11:5 2:10 12:5 11:5 5:5 11:5 5:5 12:5
11:0 7:5 11:5 2:10 12:5 11:5 5:5 11:5 5:5 12:5 8:5
7:0 11:5 2:10 12:5 11:5 5:5 11:5 5:5 12:5 8:5 11:5
11:0 2:10 12:5 11:5 5:5 11:5 5:5 12:5 8:5 11:5 4:5
2:0 12:5 11:5 5:5 11:5 5:5 12:5 8:5 11:5 4:5 8:5
12:0 11:5 5:5 11:5 5:5 12:5 8:5 11:5 4:5 8:5 11:5
11:0 5:5 11:5 5:5 12:5 8:5 11:5 4:5 8:5 11:5 8:5
5:0 11:5 5:5 12:5 8:5 11:5 4:5 8:5 11:5 8:5 12:5
11:0 5:5 12:5 8:5 11:5 4:5 8:5 11:5 8:5 12:5 4:5
5:0 12:5 8:5 11:5 4:5 8:5 11:5 8:5 12:5 4:5 11:10
12:0 8:5 11:5 4:5 8:5 11:5 8:5 12:5 4:5 11:10 1:15
8:0 11:5 4:5 8:5 11:5 8:5 12:5 4:5 11:10 1:15 8:5
11:0 4:5 8:5 11:5 8:5 12:5 4:5 11:10 1:15 8:5 11:5
4:0 8:5 11:5 8:5 12:5 4:5 11:10 1:15 8:5 11:5 8:5
8:0 11:5 8:5 12:5 4:5 11:10 1:15 8:5 11:5 8:5 11:5
11:0 8:5 12:5 4:5 11:10 1:15 8:5 11:5 8:5 11:5 4:5
8:0 12:5 4:5 11:10 1:15 8:5 11:5 8:5 11:5 4:5 8:5
12:0 4:5 11:10 1:15 8:5 11:5 8:5 11:5 4:5 8:5 11:10
4:0 11:10 1:15 8:5 11:5 8:5 11:5 4:5 8:5 11:10 5:10
11:0 1:15 8:5 11:5 8:5 11:5 4:5 8:5 11:10 5:10 11:5
1:0 8:5 11:5 8:5 11:5 4:5 8:5 11:10 5:10 11:5 8:5
8:0 11:5 8:5 11:5 4:5 8:5 11:10 5:10 11:5 8:5 12:5
11:0 8:5 11:5 4:5 8:5 11:10 5:10 11:5 8:5 12:5 4:5
8:0 11:5 4:5 8:5 11:10 5:10 11:5 8:5 12:5 4:5 8:5
11:0 4:5 8:5 11:10 5:10 11:5 8:5 12:5 4:5 8:5 11:5
4:0 8:5 11:10 5:10 11:5 8:5 12:5 4:5 8:5 11:5 8:15
8:0 11:10 5:10 11:5 8:5 12:5 4:5 8:5 11:5 8:15 11:10
11:0 5:10 11:5 8:5 12:5 4:5 8:5 11:5 8:15 11:10 8:5
5:0 11:5 8:5 12:5 4:5 8:5 11:5 8:15 11:10 8:5 11:5
11:0 8:5 12:5 4:5 8:5 11:5 8:15 11:10 8:5 11:5 8:5
8:0 12:5 4:5 8:5 11:5 8:15 11:10 8:5 11:5 8:5 11:10
12:0 4:5 8:5 11:5 8:15 11:10 8:5 11:5 8:5 11:10 2:15
4:0 8:5 11:5 8:15 11:10 8:5 11:5 8:5 11:10 2:15 11:5
8:0 11:5 8:15 11:10 8:5 11:5 8:5 11:10 2:15 11:5 2:20
11:0 8:15 11:10 8:5 11:5 8:5 11:10 2:15 11:5 2:20 8:5
8:0 11:10 8:5 11:5 8:5 11:10 2:15 11:5 2:20 8:5 11:5
11:0 8:5 11:5 8:5 11:10 2:15 11:5 2:20 8:5 11:5 8:5
8:0 11:5 8:5 11:10 2:15 11:5 2:20 8:5 11:5 8:5 7:5
11:0 8:5 11:10 2:15 11:5 2:20 8:5 11:5 8:5 7:5 5:5
8:0 11:10 2:15 11:5 2:20 8:5 11:5 8:5 7:5 5:5 11:10
11:0 2:15 11:5 2:20 8:5 11:5 8:5 7:5 5:5 11:10 4:10
2:0 11:5 2:20 8:5 11:5 8:5 7:5 5:5 11:10 4:10 8:5
11:0 2:20 8:5 11:5 8:5 7:5 5:5 11:10 4:10 8:5 4:5
2:0 8:5 11:5 8:5 7:5 5:5 11:10 4:10 8:5 4:5 11:5
8:0 11:5 8:5 7:5 5:5 11:10 4:10 8:5 4:5 11:5 2:10
11:0 8:5 7:5 5:5 11:10 4:10 8:5 4:5 11:5 2:10 8:5
8:0 7:5 5:5 11:10 4:10 8:5 4:5 11:5 2:10 8:5 11:5
7:0 5:5 11:10 4:10 8:5 4:5 11:5 2:10 8:5 11:5 8:5
5:0 11:10 4:10 8:5 4:5 11:5 2:10 8:5 11:5 8:5 11:5
11:0 4:10 8:5 4:5 11:5 2:10 8:5 11:5 8:5 11:5 8:5
4:0 8:5 4:5 11:5 2:10 8:5 11:5 8:5 11:5 8:5 11:10
8:0 4:5 11:5 2:10 8:5 11:5 8:5 11:5 8:5 11:10 8:5
4:0 11:5 2:10 8:5 11:5 8:5 11:5 8:5 11:10 8:5 11:5
11:0 2:10 8:5 11:5 8:5 11:5 8:5 11:10 8:5 11:5 5:5
2:0 8:5 11:5 8:5 11:5 8:5 11:10 8:5 11:5 5:5 7:5
8:0 11:5 8:5 11:5 8:5 11:10 8:5 11:5 5:5 7:5 11:5
11:0 8:5 11:5 8:5 11:10 8:5 11:5 5:5 7:5 11:5 7:10
8:0 11:5 8:5 11:10 8:5 11:5 5:5 7:5 11:5 7:10 4:5
11:0 8:5 11:10 8:5 11:5 5:5 7:5 11:5 7:10 4:5 11:5
8:0 11:10 8:5 11:5 5:5 7:5 11:5 7:10 4:5 11:5 8:15
11:0 8:5 11:5 5:5 7:5 11:5 7:10 4:5 11:5 8:15 7:10
8:0 11:5 5:5 7:5 11:5 7:10 4:5 11:5 8:15 7:10 8:5
11:0 5:5 7:5 11:5 7:10 4:5 11:5 8:15 7:10 8:5 11:5
5:0 7:5 11:5 7:10 4:5 11:5 8:15 7:10 8:5 11:5 4:5
7:0 11:5 7:10 4:5 11:5 8:15 7:10 8:5 11:5 4:5 8:5
11:0 7:10 4:5 11:5 8:15 7:10 8:5 11:5 4:5 8:5 11:5
7:0 4:5 11:5 8:15 7:10 8:5 11:5 4:5 8:5 11:5 8:5
4:0 11:5 8:15 7:10 8:5 11:5 4:5 8:5 11:5 8:5 11:5
11:0 8:15 7:10 8:5 11:5 4:5 8:5 11:5 8:5 11:5 4:5
8:0 7:10 8:5 11:5 4:5 8:5 11:5 8:5 11:5 4:5 12:5
7:0 8:5 11:5 4:5 8:5 11:5 8:5 11:5 4:5 12:5 5:5
8:0 11:5 4:5 8:5 11:5 8:5 11:5 4:5 12:5 5:5 11:5
11:0 4:5 8:5 11:5 8:5 11:5 4:5 12:5 5:5 11:5 4:10
4:0 8:5 11:5 8:5 11:5 4:5 12:5 5:5 11:5 4:10 5:5
8:0 11:5 8:5 11:5 4:5 12:5 5:5 11:5 4:10 5:5 11:5
11:0 8:5 11:5 4:5 12:5 5:5 11:5 4:10 5:5 11:5 5:5
8:0 11:5 4:5 12:5 5:5 11:5 4:10 5:5 11:5 5:5 8:5
11:0 4:5 12:5 5:5 11:5 4:10 5:5 11:5 5:5 8:5 7:10
4:0 12:5 5:5 11:5 4:10 5:5 11:5 5:5 8:5 7:10 11:5
12:0 5:5 11:5 4:10 5:5 11:5 5:5 8:5 7:10 11:5 8:5
5:0 11:5 4:10 5:5 11:5 5:5 8:5 7:10 11:5 8:5 4:5
11:0 4:10 5:5 11:5 5:5 8:5 7:10 11:5 8:5 4:5 8:5
4:0 5:5 11:5 5:5 8:5 7:10 11:5 8:5 4:5 8:5 11:5
5:0 11:5 5:5 8:5 7:10 11:5 8:5 4:5 8:5 11:5 8:5
11:0 5:5 8:5 7:10 11:5 8:5 4:5 8:5 11:5 8:5 11:5
5:0 8:5 7:10 11:5 8:5 4:5 8:5 11:5 8:5 11:5 4:5
8:0 7:10 11:5 8:5 4:5 8:5 11:5 8:5 11:5 4:5 11:10
7:0 11:5 8:5 4:5 8:5 11:5 8:5 11:5 4:5 11:10 4:15
11:0 8:5 4:5 8:5 11:5 8:5 11:5 4:5 11:10 4:15 8:5
8:0 4:5 8:5 11:5 8:5 11:5 4:5 11:10 4:15 8:5 11:5
4:0 8:5 11:5 8:5 11:5 4:5 11:10 4:15 8:5 11:5 8:5
8:0 11:5 8:5 11:5 4:5 11:10 4:15 8:5 11:5 8:5 11:5
11:0 8:5 11:5 4:5 11:10 4:15 8:5 11:5 8:5 11:5 5:5
8:0 11:5 4:5 11:10 4:15 8:5 11:5 8:5 11:5 5:5 11:10
11:0 4:5 11:10 4:15 8:5 11:5 8:5 11:5 5:5 11:10 7:5
4:0 11:10 4:15 8:5 11:5 8:5 11:5 5:5 11:10 7:5 5:10
11:0 4:15 8:5 11:5 8:5 11:5 5:5 11:10 7:5 5:10 8:5
4:0 8:5 11:5 8:5 11:5 5:5 11:10 7:5 5:10 8:5 11:5
8:0 11:5 8:5 11:5 5:5 11:10 7:5 5:10 8:5 11:5 8:5
11:0 8:5 11:5 5:5 11:10 7:5 5:10 8:5 11:5 8:5 11:10
8:0 11:5 5:5 11:10 7:5 5:10 8:5 11:5 8:5 11:10 7:5
11:0 5:5 11:10 7:5 5:10 8:5 11:5 8:5 11:10 7:5 11:5
5:0 11:10 7:5 5:10 8:5 11:5 8:5 11:10 7:5 11:5 8:5
11:0 7:5 5:10 8:5 11:5 8:5 11:10 7:5 11:5 8:5 4:5
7:0 5:10 8:5 11:5 8:5 11:10 7:5 11:5 8:5 4:5 8:5
5:0 8:5 11:5 8:5 11:10 7:5 11:5 8:5 4:5 8:5 11:5
8:0 11:5 8:5 11:10 7:5 11:5 8:5 4:5 8:5 11:5 8:10
11:0 8:5 11:10 7:5 11:5 8:5 4:5 8:5 11:5 8:10 4:5
8:0 11:10 7:5 11:5 8:5 4:5 8:5 11:5 8:10 4:5 11:5
11:0 7:5 11:5 8:5 4:5 8:5 11:5 8:10 4:5 11:5 8:5
7:0 11:5 8:5 4:5 8:5 11:5 8:10 4:5 11:5 8:5 5:5
11:0 8:5 4:5 8:5 11:5 8:10 4:5 11:5 8:5 5:5 10:5
8:0 4:5 8:5 11:5 8:10 4:5 11:5 8:5 5:5 10:5 4:5
4:0 8:5 11:5 8:10 4:5 11:5 8:5 5:5 10:5 4:5 8:5
8:0 11:5 8:10 4:5 11:5 8:5 5:5 10:5 4:5 8:5 11:5
11:0 8:10 4:5 11:5 8:5 5:5 10:5 4:5 8:5 11:5 12:5
8:0 4:5 11:5 8:5 5:5 10:5 4:5 8:5 11:5 12:5 11:5
4:0 11:5 8:5 5:5 10:5 4:5 8:5 11:5 12:5 11:5 5:5
11:0 8:5 5:5 10:5 4:5 8:5 11:5 12:5 11:5 5:5 11:5
8:0 5:5 10:5 4:5 8:5 11:5 12:5 11:5 5:5 11:5 8:5
5:0 10:5 4:5 8:5 11:5 12:5 11:5 5:5 11:5 8:5 12:5
10:0 4:5 8:5 11:5 12:5 11:5 5:5 11:5 8:5 12:5 4:5
4:0 8:5 11:5 12:5 11:5 5:5 11:5 8:5 12:5 4:5 8:5
8:0 11:5 12:5 11:5 5:5 11:5 8:5 12:5 4:5 8:5 11:5
11:0 12:5 11:5 5:5 11:5 8:5 12:5 4:5 8:5 11:5 8:5
12:0 11:5 5:5 11:5 8:5 12:5 4:5 8:5 11:5 8:5 11:5
11:0 5:5 11:5 8:5 12:5 4:5 8:5 11:5 8:5 11:5 4:5
5:0 11:5 8:5 12:5 4:5 8:5 11:5 8:5 11:5 4:5 12:5
11:0 8:5 12:5 4:5 8:5 11:5 8:5 11:5 4:5 12:5 11:5
8:0 12:5 4:5 8:5 11:5 8:5 11:5 4:5 12:5 11:5 8:5
12:0 4:5 8:5 11:5 8:5 11:5 4:5 12:5 11:5 8:5 11:5
4:0 8:5 11:5 8:5 11:5 4:5 12:5 11:5 8:5 11:5 5:5
8:0 11:5 8:5 11:5 4:5 12:5 11:5 8:5 11:5 5:5 11:5
11:0 8:5 11:5 4:5 12:5 11:5 8:5 11:5 5:5 11:5 8:5
8:0 11:5 4:5 12:5 11:5 8:5 11:5 5:5 11:5 8:5 11:5
11:0 4:5 12:5 11:5 8:5 11:5 5:5 11:5 8:5 11:5 8:5
4:0 12:5 11:5 8:5 11:5 5:5 11:5 8:5 11:5 8:5 5:5
12:0 11:5 8:5 11:5 5:5 11:5 8:5 11:5 8:5 5:5 11:5
11:0 8:5 11:5 5:5 11:5 8:5 11:5 8:5 5:5 11:5 7:5
8:0 11:5 5:5 11:5 8:5 11:5 8:5 5:5 11:5 7:5 12:5
11:0 5:5 11:5 8:5 11:5 8:5 5:5 11:5 7:5 12:5 8:5
5:0 11:5 8:5 11:5 8:5 5:5 11:5 7:5 12:5 8:5 4:5
11:0 8:5 11:5 8:5 5:5 11:5 7:5 12:5 8:5 4:5 11:5
8:0 11:5 8:5 5:5 11:5 7:5 12:5 8:5 4:5 11:5 7:5
11:0 8:5 5:5 11:5 7:5 12:5 8:5 4:5 11:5 7:5 11:5
8:0 5:5 11:5 7:5 12:5 8:5 4:5 11:5 7:5 11:5 4:5
5:0 11:5 7:5 12:5 8:5 4:5 11:5 7:5 11:5 4:5 8:5
11:0 7:5 12:5 8:5 4:5 11:5 7:5 11:5 4:5 8:5 11:5
7:0 12:5 8:5 4:5 11:5 7:5 11:5 4:5 8:5 11:5 12:10
12:0 8:5 4:5 11:5 7:5 11:5 4:5 8:5 11:5 12:10 4:5
8:0 4:5 11:5 7:5 11:5 4:5 8:5 11:5 12:10 4:5 11:5
4:0 11:5 7:5 11:5 4:5 8:5 11:5 12:10 4:5 11:5 8:10
11:0 7:5 11:5 4:5 8:5 11:5 12:10 4:5 11:5 8:10 11:5
7:0 11:5 4:5 8:5 11:5 12:10 4:5 11:5 8:10 11:5 4:5
11:0 4:5 8:5 11:5 12:10 4:5 11:5 8:10 11:5 4:5 8:5
4:0 8:5 11:5 12:10 4:5 11:5 8:10 11:5 4:5 8:5 11:5
8:0 11:5 12:10 4:5 11:5 8:10 11:5 4:5 8:5 11:5 4:10
11:0 12:10 4:5 11:5 8:10 11:5 4:5 8:5 11:5 4:10 8:5
12:0 4:5 11:5 8:10 11:5 4:5 8:5 11:5 4:10 8:5 7:5
4:0 11:5 8:10 11:5 4:5 8:5 11:5 4:10 8:5 7:5 11:5
11:0 8:10 11:5 4:5 8:5 11:5 4:10 8:5 7:5 11:5 8:5
8:0 11:5 4:5 8:5 11:5 4:10 8:5 7:5 11:5 8:5 5:10
11:0 4:5 8:5 11:5 4:10 8:5 7:5 11:5 8:5 5:10 12:5
4:0 8:5 11:5 4:10 8:5 7:5 11:5 8:5 5:10 12:5 8:5
8:0 11:5 4:10 8:5 7:5 11:5 8:5 5:10 12:5 8:5 11:5
11:0 4:10 8:5 7:5 11:5 8:5 5:10 12:5 8:5 11:5 4:5
4:0 8:5 7:5 11:5 8:5 5:10 12:5 8:5 11:5 4:5 8:5
8:0 7:5 11:5 8:5 5:10 12:5 8:5 11:5 4:5 8:5 11:10
7:0 11:5 8:5 5:10 12:5 8:5 11:5 4:5 8:5 11:10 4:10
11:0 8:5 5:10 12:5 8:5 11:5 4:5 8:5 11:10 4:10 11:5
8:0 5:10 12:5 8:5 11:5 4:5 8:5 11:10 4:10 11:5 8:5
5:0 12:5 8:5 11:5 4:5 8:5 11:10 4:10 11:5 8:5 12:5
12:0 8:5 11:5 4:5 8:5 11:10 4:10 11:5 8:5 12:5 11:5
8:0 11:5 4:5 8:5 11:10 4:10 11:5 8:5 12:5 11:5 2:5
11:0 4:5 8:5 11:10 4:10 11:5 8:5 12:5 11:5 2:5 11:5
4:0 8:5 11:10 4:10 11:5 8:5 12:5 11:5 2:5 11:5 4:20
8:0 11:10 4:10 11:5 8:5 12:5 11:5 2:5 11:5 4:20 8:5
11:0 4:10 11:5 8:5 12:5 11:5 2:5 11:5 4:20 8:5 11:5
4:0 11:5 8:5 12:5 11:5 2:5 11:5 4:20 8:5 11:5 7:10
11:0 8:5 12:5 11:5 2:5 11:5 4:20 8:5 11:5 7:10 8:5
8:0 12:5 11:5 2:5 11:5 4:20 8:5 11:5 7:10 8:5 11:5
12:0 11:5 2:5 11:5 4:20 8:5 11:5 7:10 8:5 11:5 4:15
11:0 2:5 11:5 4:20 8:5 11:5 7:10 8:5 11:5 4:15 8:5
2:0 11:5 4:20 8:5 11:5 7:10 8:5 11:5 4:15 8:5 11:5
11:0 4:20 8:5 11:5 7:10 8:5 11:5 4:15 8:5 11:5 8:5
4:0 8:5 11:5 7:10 8:5 11:5 4:15 8:5 11:5 8:5 11:5
8:0 11:5 7:10 8:5 11:5 4:15 8:5 11:5 8:5 11:5 2:5
11:0 7:10 8:5 11:5 4:15 8:5 11:5 8:5 11:5 2:5 11:5
7:0 8:5 11:5 4:15 8:5 11:5 8:5 11:5 2:5 11:5 8:10
8:0 11:5 4:15 8:5 11:5 8:5 11:5 2:5 11:5 8:10 11:5
11:0 4:15 8:5 11:5 8:5 11:5 2:5 11:5 8:10 11:5 4:5
4:0 8:5 11:5 8:5 11:5 2:5 11:5 8:10 11:5 4:5 12:5
8:0 11:5 8:5 11:5 2:5 11:5 8:10 11:5 4:5 12:5 8:5
11:0 8:5 11:5 2:5 11:5 8:10 11:5 4:5 12:5 8:5 11:5
8:0 11:5 2:5 11:5 8:10 11:5 4:5 12:5 8:5 11:5 7:5
11:0 2:5 11:5 8:10 11:5 4:5 12:5 8:5 11:5 7:5 2:5
2:0 11:5 8:10 11:5 4:5 12:5 8:5 11:5 7:5 2:5 12:5
11:0 8:10 11:5 4:5 12:5 8:5 11:5 7:5 2:5 12:5 8:5
8:0 11:5 4:5 12:5 8:5 11:5 7:5 2:5 12:5 8:5 11:5
11:0 4:5 12:5 8:5 11:5 7:5 2:5 12:5 8:5 11:5 7:5
4:0 12:5 8:5 11:5 7:5 2:5 12:5 8:5 11:5 7:5 4:5
12:0 8:5 11:5 7:5 2:5 12:5 8:5 11:5 7:5 4:5 11:5
8:0 11:5 7:5 2:5 12:5 8:5 11:5 7:5 4:5 11:5 12:5
11:0 7:5 2:5 12:5 8:5 11:5 7:5 4:5 11:5 12:5 4:10
7:0 2:5 12:5 8:5 11:5 7:5 4:5 11:5 12:5 4:10 11:5
2:0 12:5 8:5 11:5 7:5 4:5 11:5 12:5 4:10 11:5 5:10
12:0 8:5 11:5 7:5 4:5 11:5 12:5 4:10 11:5 5:10 12:5
8:0 11:5 7:5 4:5 11:5 12:5 4:10 11:5 5:10 12:5 8:5
11:0 7:5 4:5 11:5 12:5 4:10 11:5 5:10 12:5 8:5 11:10
7:0 4:5 11:5 12:5 4:10 11:5 5:10 12:5 8:5 11:10 8:5
4:0 11:5 12:5 4:10 11:5 5:10 12:5 8:5 11:10 8:5 11:5
11:0 12:5 4:10 11:5 5:10 12:5 8:5 11:10 8:5 11:5 8:5
12:0 4:10 11:5 5:10 12:5 8:5 11:10 8:5 11:5 8:5 11:10
4:0 11:5 5:10 12:5 8:5 11:10 8:5 11:5 8:5 11:10 8:5
11:0 5:10 12:5 8:5 11:10 8:5 11:5 8:5 11:10 8:5 11:5
5:0 12:5 8:5 11:10 8:5 11:5 8:5 11:10 8:5 11:5 4:5
12:0 8:5 11:10 8:5 11:5 8:5 11:10 8:5 11:5 4:5 11:5
8:0 11:10 8:5 11:5 8:5 11:10 8:5 11:5 4:5 11:5 8:5
11:0 8:5 11:5 8:5 11:10 8:5 11:5 4:5 11:5 8:5 11:5
8:0 11:5 8:5 11:10 8:5 11:5 4:5 11:5 8:5 11:5 4:5
11:0 8:5 11:10 8:5 11:5 4:5 11:5 8:5 11:5 4:5 8:5
8:0 11:10 8:5 11:5 4:5 11:5 8:5 11:5 4:5 8:5 11:5
11:0 8:5 11:5 4:5 11:5 8:5 11:5 4:5 8:5 11:5 8:10
8:0 11:5 4:5 11:5 8:5 11:5 4:5 8:5 11:5 8:10 4:5
11:0 4:5 11:5 8:5 11:5 4:5 8:5 11:5 8:10 4:5 8:5
4:0 11:5 8:5 11:5 4:5 8:5 11:5 8:10 4:5 8:5 11:5
11:0 8:5 11:5 4:5 8:5 11:5 8:10 4:5 8:5 11:5 8:5
8:0 11:5 4:5 8:5 11:5 8:10 4:5 8:5 11:5 8:5 11:5
11:0 4:5 8:5 11:5 8:10 4:5 8:5 11:5 8:5 11:5 4:5
4:0 8:5 11:5 8:10 4:5 8:5 11:5 8:5 11:5 4:5 8:5
8:0 11:5 8:10 4:5 8:5 11:5 8:5 11:5 4:5 8:5 11:5
11:0 8:10 4:5 8:5 11:5 8:5 11:5 4:5 8:5 11:5 12:5
8:0 4:5 8:5 11:5 8:5 11:5 4:5 8:5 11:5 12:5 11:5
4:0 8:5 11:5 8:5 11:5 4:5 8:5 11:5 12:5 11:5 4:5
8:0 11:5 8:5 11:5 4:5 8:5 11:5 12:5 11:5 4:5 11:5
11:0 8:5 11:5 4:5 8:5 11:5 12:5 11:5 4:5 11:5 8:10
8:0 11:5 4:5 8:5 11:5 12:5 11:5 4:5 11:5 8:10 11:5
11:0 4:5 8:5 11:5 12:5 11:5 4:5 11:5 8:10 11:5 8:5
4:0 8:5 11:5 12:5 11:5 4:5 11:5 8:10 11:5 8:5 11:5
8:0 11:5 12:5 11:5 4:5 11:5 8:10 11:5 8:5 11:5 8:5
11:0 12:5 11:5 4:5 11:5 8:10 11:5 8:5 11:5 8:5 10:10
12:0 11:5 4:5 11:5 8:10 11:5 8:5 11:5 8:5 10:10 8:5
11:0 4:5 11:5 8:10 11:5 8:5 11:5 8:5 10:10 8:5 11:5
4:0 11:5 8:10 11:5 8:5 11:5 8:5 10:10 8:5 11:5 5:5
11:0 8:10 11:5 8:5 11:5 8:5 10:10 8:5 11:5 5:5 12:5
8:0 11:5 8:5 11:5 8:5 10:10 8:5 11:5 5:5 12:5 4:5
11:0 8:5 11:5 8:5 10:10 8:5 11:5 5:5 12:5 4:5 5:5
8:0 11:5 8:5 10:10 8:5 11:5 5:5 12:5 4:5 5:5 11:5
11:0 8:5 10:10 8:5 11:5 5:5 12:5 4:5 5:5 11:5 7:15
8:0 10:10 8:5 11:5 5:5 12:5 4:5 5:5 11:5 7:15 8:5
10:0 8:5 11:5 5:5 12:5 4:5 5:5 11:5 7:15 8:5 11:10
8:0 11:5 5:5 12:5 4:5 5:5 11:5 7:15 8:5 11:10 2:10
11:0 5:5 12:5 4:5 5:5 11:5 7:15 8:5 11:10 2:10 8:5
5:0 12:5 4:5 5:5 11:5 7:15 8:5 11:10 2:10 8:5 11:15
12:0 4:5 5:5 11:5 7:15 8:5 11:10 2:10 8:5 11:15 2:5
4:0 5:5 11:5 7:15 8:5 11:10 2:10 8:5 11:15 2:5 8:5
5:0 11:5 7:15 8:5 11:10 2:10 8:5 11:15 2:5 8:5 11:5
11:0 7:15 8:5 11:10 2:10 8:5 11:15 2:5 8:5 11:5 8:10
7:0 8:5 11:10 2:10 8:5 11:15 2:5 8:5 11:5 8:10 11:10
8:0 11:10 2:10 8:5 11:15 2:5 8:5 11:5 8:10 11:10 4:5
11:0 2:10 8:5 11:15 2:5 8:5 11:5 8:10 11:10 4:5 12:5
2:0 8:5 11:15 2:5 8:5 11:5 8:10 11:10 4:5 12:5 4:5
8:0 11:15 2:5 8:5 11:5 8:10 11:10 4:5 12:5 4:5 11:5
11:0 2:5 8:5 11:5 8:10 11:10 4:5 12:5 4:5 11:5 7:5
2:0 8:5 11:5 8:10 11:10 4:5 12:5 4:5 11:5 7:5 11:5
8:0 11:5 8:10 11:10 4:5 12:5 4:5 11:5 7:5 11:5 4:10
11:0 8:10 11:10 4:5 12:5 4:5 11:5 7:5 11:5 4:10 8:5
8:0 11:10 4:5 12:5 4:5 11:5 7:5 11:5 4:10 8:5 11:5
11:0 4:5 12:5 4:5 11:5 7:5 11:5 4:10 8:5 11:5 8:5
4:0 12:5 4:5 11:5 7:5 11:5 4:10 8:5 11:5 8:5 11:5
12:0 4:5 11:5 7:5 11:5 4:10 8:5 11:5 8:5 11:5 4:5
4:0 11:5 7:5 11:5 4:10 8:5 11:5 8:5 11:5 4:5 8:5
11:0 7:5 11:5 4:10 8:5 11:5 8:5 11:5 4:5 8:5 12:10
7:0 11:5 4:10 8:5 11:5 8:5 11:5 4:5 8:5 12:10 11:5
11:0 4:10 8:5 11:5 8:5 11:5 4:5 8:5 12:10 11:5 2:5
4:0 8:5 11:5 8:5 11:5 4:5 8:5 12:10 11:5 2:5 11:5
8:0 11:5 8:5 11:5 4:5 8:5 12:10 11:5 2:5 11:5 4:15
11:0 8:5 11:5 4:5 8:5 12:10 11:5 2:5 11:5 4:15 8:5
8:0 11:5 4:5 8:5 12:10 11:5 2:5 11:5 4:15 8:5 11:5
11:0 4:5 8:5 12:10 11:5 2:5 11:5 4:15 8:5 11:5 8:5
4:0 8:5 12:10 11:5 2:5 11:5 4:15 8:5 11:5 8:5 11:5
8:0 12:10 11:5 2:5 11:5 4:15 8:5 11:5 8:5 11:5 4:5
12:0 11:5 2:5 11:5 4:15 8:5 11:5 8:5 11:5 4:5 8:5
11:0 2:5 11:5 4:15 8:5 11:5 8:5 11:5 4:5 8:5 11:5
2:0 11:5 4:15 8:5 11:5 8:5 11:5 4:5 8:5 11:5 4:15
11:0 4:15 8:5 11:5 8:5 11:5 4:5 8:5 11:5 4:15 11:10
4:0 8:5 11:5 8:5 11:5 4:5 8:5 11:5 4:15 11:10 4:15
8:0 11:5 8:5 11:5 4:5 8:5 11:5 4:15 11:10 4:15 12:5
11:0 8:5 11:5 4:5 8:5 11:5 4:15 11:10 4:15 12:5 11:5
8:0 11:5 4:5 8:5 11:5 4:15 11:10 4:15 12:5 11:5 8:5
11:0 4:5 8:5 11:5 4:15 11:10 4:15 12:5 11:5 8:5 11:5
4:0 8:5 11:5 4:15 11:10 4:15 12:5 11:5 8:5 11:5 5:5
8:0 11:5 4:15 11:10 4:15 12:5 11:5 8:5 11:5 5:5 8:5
11:0 4:15 11:10 4:15 12:5 11:5 8:5 11:5 5:5 8:5 11:5
4:0 11:10 4:15 12:5 11:5 8:5 11:5 5:5 8:5 11:5 8:5
11:0 4:15 12:5 11:5 8:5 11:5 5:5 8:5 11:5 8:5 11:5
4:0 12:5 11:5 8:5 11:5 5:5 8:5 11:5 8:5 11:5 5:5
12:0 11:5 8:5 11:5 5:5 8:5 11:5 8:5 11:5 5:5 8:5
11:0 8:5 11:5 5:5 8:5 11:5 8:5 11:5 5:5 8:5 11:5
8:0 11:5 5:5 8:5 11:5 8:5 11:5 5:5 8:5 11:5 4:10
11:0 5:5 8:5 11:5 8:5 11:5 5:5 8:5 11:5 4:10 8:5
5:0 8:5 11:5 8:5 11:5 5:5 8:5 11:5 4:10 8:5 11:5
8:0 11:5 8:5 11:5 5:5 8:5 11:5 4:10 8:5 11:5 8:5
11:0 8:5 11:5 5:5 8:5 11:5 4:10 8:5 11:5 8:5 11:5
8:0 11:5 5:5 8:5 11:5 4:10 8:5 11:5 8:5 11:5 8:5
11:0 5:5 8:5 11:5 4:10 8:5 11:5 8:5 11:5 8:5 4:5
5:0 8:5 11:5 4:10 8:5 11:5 8:5 11:5 8:5 4:5 11:5
8:0 11:5 4:10 8:5 11:5 8:5 11:5 8:5 4:5 11:5 5:5
11:0 4:10 8:5 11:5 8:5 11:5 8:5 4:5 11:5 5:5 11:5
4:0 8:5 11:5 8:5 11:5 8:5 4:5 11:5 5:5 11:5 4:5
8:0 11:5 8:5 11:5 8:5 4:5 11:5 5:5 11:5 4:5 5:5
11:0 8:5 11:5 8:5 4:5 11:5 5:5 11:5 4:5 5:5 11:5
8:0 11:5 8:5 4:5 11:5 5:5 11:5 4:5 5:5 11:5 2:15
11:0 8:5 4:5 11:5 5:5 11:5 4:5 5:5 11:5 2:15 11:5
8:0 4:5 11:5 5:5 11:5 4:5 5:5 11:5 2:15 11:5 4:15
4:0 11:5 5:5 11:5 4:5 5:5 11:5 2:15 11:5 4:15 8:5
11:0 5:5 11:5 4:5 5:5 11:5 2:15 11:5 4:15 8:5 12:5
5:0 11:5 4:5 5:5 11:5 2:15 11:5 4:15 8:5 12:5 8:5
11:0 4:5 5:5 11:5 2:15 11:5 4:15 8:5 12:5 8:5 11:5
4:0 5:5 11:5 2:15 11:5 4:15 8:5 12:5 8:5 11:5 7:5
5:0 11:5 2:15 11:5 4:15 8:5 12:5 8:5 11:5 7:5 8:5
11:0 2:15 11:5 4:15 8:5 12:5 8:5 11:5 7:5 8:5 11:5
2:0 11:5 4:15 8:5 12:5 8:5 11:5 7:5 8:5 11:5 8:5
11:0 4:15 8:5 12:5 8:5 11:5 7:5 8:5 11:5 8:5 12:5
4:0 8:5 12:5 8:5 11:5 7:5 8:5 11:5 8:5 12:5 4:5
8:0 12:5 8:5 11:5 7:5 8:5 11:5 8:5 12:5 4:5 11:5
12:0 8:5 11:5 7:5 8:5 11:5 8:5 12:5 4:5 11:5 8:5
8:0 11:5 7:5 8:5 11:5 8:5 12:5 4:5 11:5 8:5 11:5
11:0 7:5 8:5 11:5 8:5 12:5 4:5 11:5 8:5 11:5 5:10
7:0 8:5 11:5 8:5 12:5 4:5 11:5 8:5 11:5 5:10 7:5
8:0 11:5 8:5 12:5 4:5 11:5 8:5 11:5 5:10 7:5 11:10
11:0 8:5 12:5 4:5 11:5 8:5 11:5 5:10 7:5 11:10 8:5
8:0 12:5 4:5 11:5 8:5 11:5 5:10 7:5 11:10 8:5 5:5
12:0 4:5 11:5 8:5 11:5 5:10 7:5 11:10 8:5 5:5 12:5
4:0 11:5 8:5 11:5 5:10 7:5 11:10 8:5 5:5 12:5 8:5
11:0 8:5 11:5 5:10 7:5 11:10 8:5 5:5 12:5 8:5 11:5
8:0 11:5 5:10 7:5 11:10 8:5 5:5 12:5 8:5 11:5 7:5
11:0 5:10 7:5 11:10 8:5 5:5 12:5 8:5 11:5 7:5 4:5
5:0 7:5 11:10 8:5 5:5 12:5 8:5 11:5 7:5 4:5 12:5
7:0 11:10 8:5 5:5 12:5 8:5 11:5 7:5 4:5 12:5 4:15
11:0 8:5 5:5 12:5 8:5 11:5 7:5 4:5 12:5 4:15 8:5
8:0 5:5 12:5 8:5 11:5 7:5 4:5 12:5 4:15 8:5 10:5
5:0 12:5 8:5 11:5 7:5 4:5 12:5 4:15 8:5 10:5 8:5
12:0 8:5 11:5 7:5 4:5 12:5 4:15 8:5 10:5 8:5 11:5
8:0 11:5 7:5 4:5 12:5 4:15 8:5 10:5 8:5 11:5 8:5
11:0 7:5 4:5 12:5 4:15 8:5 10:5 8:5 11:5 8:5 11:10
7:0 4:5 12:5 4:15 8:5 10:5 8:5 11:5 8:5 11:10 8:5
4:0 12:5 4:15 8:5 10:5 8:5 11:5 8:5 11:10 8:5 11:5
12:0 4:15 8:5 10:5 8:5 11:5 8:5 11:10 8:5 11:5 4:5
4:0 8:5 10:5 8:5 11:5 8:5 11:10 8:5 11:5 4:5 8:5
8:0 10:5 8:5 11:5 8:5 11:10 8:5 11:5 4:5 8:5 11:5
10:0 8:5 11:5 8:5 11:10 8:5 11:5 4:5 8:5 11:5 8:5
8:0 11:5 8:5 11:10 8:5 11:5 4:5 8:5 11:5 8:5 11:5
11:0 8:5 11:10 8:5 11:5 4:5 8:5 11:5 8:5 11:5 4:5
8:0 11:10 8:5 11:5 4:5 8:5 11:5 8:5 11:5 4:5 8:5
11:0 8:5 11:5 4:5 8:5 11:5 8:5 11:5 4:5 8:5 11:5
8:0 11:5 4:5 8:5 11:5 8:5 11:5 4:5 8:5 11:5 8:5
11:0 4:5 8:5 11:5 8:5 11:5 4:5 8:5 11:5 8:5 11:5
4:0 8:5 11:5 8:5 11:5 4:5 8:5 11:5 8:5 11:5 5:5
8:0 11:5 8:5 11:5 4:5 8:5 11:5 8:5 11:5 5:5 8:5
11:0 8:5 11:5 4:5 8:5 11:5 8:5 11:5 5:5 8:5 11:10
8:0 11:5 4:5 8:5 11:5 8:5 11:5 5:5 8:5 11:10 7:5
11:0 4:5 8:5 11:5 8:5 11:5 5:5 8:5 11:10 7:5 2:5
4:0 8:5 11:5 8:5 11:5 5:5 8:5 11:10 7:5 2:5 11:5
8:0 11:5 8:5 11:5 5:5 8:5 11:10 7:5 2:5 11:5 4:15
11:0 8:5 11:5 5:5 8:5 11:10 7:5 2:5 11:5 4:15 8:5
8:0 11:5 5:5 8:5 11:10 7:5 2:5 11:5 4:15 8:5 11:5
11:0 5:5 8:5 11:10 7:5 2:5 11:5 4:15 8:5 11:5 8:15
5:0 8:5 11:10 7:5 2:5 11:5 4:15 8:5 11:5 8:15 11:5
8:0 11:10 7:5 2:5 11:5 4:15 8:5 11:5 8:15 11:5 7:5
11:0 7:5 2:5 11:5 4:15 8:5 11:5 8:15 11:5 7:5 11:5
7:0 2:5 11:5 4:15 8:5 11:5 8:15 11:5 7:5 11:5 4:10
2:0 11:5 4:15 8:5 11:5 8:15 11:5 7:5 11:5 4:10 11:5
11:0 4:15 8:5 11:5 8:15 11:5 7:5 11:5 4:10 11:5 8:5
4:0 8:5 11:5 8:15 11:5 7:5 11:5 4:10 11:5 8:5 5:5
8:0 11:5 8:15 11:5 7:5 11:5 4:10 11:5 8:5 5:5 11:5
11:0 8:15 11:5 7:5 11:5 4:10 11:5 8:5 5:5 11:5 5:5
8:0 11:5 7:5 11:5 4:10 11:5 8:5 5:5 11:5 5:5 12:5
11:0 7:5 11:5 4:10 11:5 8:5 5:5 11:5 5:5 12:5 8:5
7:0 11:5 4:10 11:5 8:5 5:5 11:5 5:5 12:5 8:5 11:5
11:0 4:10 11:5 8:5 5:5 11:5 5:5 12:5 8:5 11:5 7:5
4:0 11:5 8:5 5:5 11:5 5:5 12:5 8:5 11:5 7:5 4:5
11:0 8:5 5:5 11:5 5:5 12:5 8:5 11:5 7:5 4:5 11:5
8:0 5:5 11:5 5:5 12:5 8:5 11:5 7:5 4:5 11:5 8:5
5:0 11:5 5:5 12:5 8:5 11:5 7:5 4:5 11:5 8:5 12:5
11:0 5:5 12:5 8:5 11:5 7:5 4:5 11:5 8:5 12:5 4:5
5:0 12:5 8:5 11:5 7:5 4:5 11:5 8:5 12:5 4:5 8:5
12:0 8:5 11:5 7:5 4:5 11:5 8:5 12:5 4:5 8:5 11:5
8:0 11:5 7:5 4:5 11:5 8:5 12:5 4:5 8:5 11:5 8:5
11:0 7:5 4:5 11:5 8:5 12:5 4:5 8:5 11:5 8:5 11:5
7:0 4:5 11:5 8:5 12:5 4:5 8:5 11:5 8:5 11:5 7:5
4:0 11:5 8:5 12:5 4:5 8:5 11:5 8:5 11:5 7:5 11:5
11:0 8:5 12:5 4:5 8:5 11:5 8:5 11:5 7:5 11:5 8:5
8:0 12:5 4:5 8:5 11:5 8:5 11:5 7:5 11:5 8:5 11:5
12:0 4:5 8:5 11:5 8:5 11:5 7:5 11:5 8:5 11:5 4:10
4:0 8:5 11:5 8:5 11:5 7:5 11:5 8:5 11:5 4:10 11:10
8:0 11:5 8:5 11:5 7:5 11:5 8:5 11:5 4:10 11:10 4:15
11:0 8:5 11:5 7:5 11:5 8:5 11:5 4:10 11:10 4:15 8:5
8:0 11:5 7:5 11:5 8:5 11:5 4:10 11:10 4:15 8:5 11:10
11:0 7:5 11:5 8:5 11:5 4:10 11:10 4:15 8:5 11:10 5:10
7:0 11:5 8:5 11:5 4:10 11:10 4:15 8:5 11:10 5:10 8:5
11:0 8:5 11:5 4:10 11:10 4:15 8:5 11:10 5:10 8:5 11:5
8:0 11:5 4:10 11:10 4:15 8:5 11:10 5:10 8:5 11:5 4:10
11:0 4:10 11:10 4:15 8:5 11:10 5:10 8:5 11:5 4:10 5:5
4:0 11:10 4:15 8:5 11:10 5:10 8:5 11:5 4:10 5:5 11:5
11:0 4:15 8:5 11:10 5:10 8:5 11:5 4:10 5:5 11:5 2:15
4:0 8:5 11:10 5:10 8:5 11:5 4:10 5:5 11:5 2:15 8:5
8:0 11:10 5:10 8:5 11:5 4:10 5:5 11:5 2:15 8:5 11:5
11:0 5:10 8:5 11:5 4:10 5:5 11:5 2:15 8:5 11:5 8:5
5:0 8:5 11:5 4:10 5:5 11:5 2:15 8:5 11:5 8:5 11:5
8:0 11:5 4:10 5:5 11:5 2:15 8:5 11:5 8:5 11:5 4:5
11:0 4:10 5:5 11:5 2:15 8:5 11:5 8:5 11:5 4:5 11:5
4:0 5:5 11:5 2:15 8:5 11:5 8:5 11:5 4:5 11:5 8:5
5:0 11:5 2:15 8:5 11:5 8:5 11:5 4:5 11:5 8:5 11:5
11:0 2:15 8:5 11:5 8:5 11:5 4:5 11:5 8:5 11:5 8:5
2:0 8:5 11:5 8:5 11:5 4:5 11:5 8:5 11:5 8:5 12:10
8:0 11:5 8:5 11:5 4:5 11:5 8:5 11:5 8:5 12:10 5:5
11:0 8:5 11:5 4:5 11:5 8:5 11:5 8:5 12:10 5:5 11:5
8:0 11:5 4:5 11:5 8:5 11:5 8:5 12:10 5:5 11:5 7:5
11:0 4:5 11:5 8:5 11:5 8:5 12:10 5:5 11:5 7:5 5:5
4:0 11:5 8:5 11:5 8:5 12:10 5:5 11:5 7:5 5:5 12:5
11:0 8:5 11:5 8:5 12:10 5:5 11:5 7:5 5:5 12:5 4:15
8:0 11:5 8:5 12:10 5:5 11:5 7:5 5:5 12:5 4:15 8:5
11:0 8:5 12:10 5:5 11:5 7:5 5:5 12:5 4:15 8:5 7:5
8:0 12:10 5:5 11:5 7:5 5:5 12:5 4:15 8:5 7:5 8:5
12:0 5:5 11:5 7:5 5:5 12:5 4:15 8:5 7:5 8:5 11:5
5:0 11:5 7:5 5:5 12:5 4:15 8:5 7:5 8:5 11:5 4:5
11:0 7:5 5:5 12:5 4:15 8:5 7:5 8:5 11:5 4:5 8:5
7:0 5:5 12:5 4:15 8:5 7:5 8:5 11:5 4:5 8:5 11:5
5:0 12:5 4:15 8:5 7:5 8:5 11:5 4:5 8:5 11:5 8:10
12:0 4:15 8:5 7:5 8:5 11:5 4:5 8:5 11:5 8:10 4:5
4:0 8:5 7:5 8:5 11:5 4:5 8:5 11:5 8:10 4:5 12:5
8:0 7:5 8:5 11:5 4:5 8:5 11:5 8:10 4:5 12:5 8:5
7:0 8:5 11:5 4:5 8:5 11:5 8:10 4:5 12:5 8:5 11:5
8:0 11:5 4:5 8:5 11:5 8:10 4:5 12:5 8:5 11:5 4:10
11:0 4:5 8:5 11:5 8:10 4:5 12:5 8:5 11:5 4:10 8:5
4:0 8:5 11:5 8:10 4:5 12:5 8:5 11:5 4:10 8:5 11:5
8:0 11:5 8:10 4:5 12:5 8:5 11:5 4:10 8:5 11:5 4:10
11:0 8:10 4:5 12:5 8:5 11:5 4:10 8:5 11:5 4:10 11:10
8:0 4:5 12:5 8:5 11:5 4:10 8:5 11:5 4:10 11:10 8:5
4:0 12:5 8:5 11:5 4:10 8:5 11:5 4:10 11:10 8:5 12:5
12:0 8:5 11:5 4:10 8:5 11:5 4:10 11:10 8:5 12:5 4:5
8:0 11:5 4:10 8:5 11:5 4:10 11:10 8:5 12:5 4:5 8:5
11:0 4:10 8:5 11:5 4:10 11:10 8:5 12:5 4:5 8:5 11:5
4:0 8:5 11:5 4:10 11:10 8:5 12:5 4:5 8:5 11:5 4:5
8:0 11:5 4:10 11:10 8:5 12:5 4:5 8:5 11:5 4:5 11:5
11:0 4:10 11:10 8:5 12:5 4:5 8:5 11:5 4:5 11:5 4:5
4:0 11:10 8:5 12:5 4:5 8:5 11:5 4:5 11:5 4:5 8:5
11:0 8:5 12:5 4:5 8:5 11:5 4:5 11:5 4:5 8:5 11:5
8:0 12:5 4:5 8:5 11:5 4:5 11:5 4:5 8:5 11:5 12:5
12:0 4:5 8:5 11:5 4:5 11:5 4:5 8:5 11:5 12:5 9:5
4:0 8:5 11:5 4:5 11:5 4:5 8:5 11:5 12:5 9:5 2:5
8:0 11:5 4:5 11:5 4:5 8:5 11:5 12:5 9:5 2:5 11:5
11:0 4:5 11:5 4:5 8:5 11:5 12:5 9:5 2:5 11:5 7:5
4:0 11:5 4:5 8:5 11:5 12:5 9:5 2:5 11:5 7:5 11:5
11:0 4:5 8:5 11:5 12:5 9:5 2:5 11:5 7:5 11:5 8:10
4:0 8:5 11:5 12:5 9:5 2:5 11:5 7:5 11:5 8:10 7:20
8:0 11:5 12:5 9:5 2:5 11:5 7:5 11:5 8:10 7:20 8:5
11:0 12:5 9:5 2:5 11:5 7:5 11:5 8:10 7:20 8:5 11:10
12:0 9:5 2:5 11:5 7:5 11:5 8:10 7:20 8:5 11:10 8:5
9:0 2:5 11:5 7:5 11:5 8:10 7:20 8:5 11:10 8:5 7:5
2:0 11:5 7:5 11:5 8:10 7:20 8:5 11:10 8:5 7:5 8:5
11:0 7:5 11:5 8:10 7:20 8:5 11:10 8:5 7:5 8:5 4:5
7:0 11:5 8:10 7:20 8:5 11:10 8:5 7:5 8:5 4:5 12:5
11:0 8:10 7:20 8:5 11:10 8:5 7:5 8:5 4:5 12:5 11:5
8:0 7:20 8:5 11:10 8:5 7:5 8:5 4:5 12:5 11:5 4:5
7:0 8:5 11:10 8:5 7:5 8:5 4:5 12:5 11:5 4:5 7:5
8:0 11:10 8:5 7:5 8:5 4:5 12:5 11:5 4:5 7:5 11:5
11:0 8:5 7:5 8:5 4:5 12:5 11:5 4:5 7:5 11:5 8:10
8:0 7:5 8:5 4:5 12:5 11:5 4:5 7:5 11:5 8:10 4:5
7:0 8:5 4:5 12:5 11:5 4:5 7:5 11:5 8:10 4:5 11:5
8:0 4:5 12:5 11:5 4:5 7:5 11:5 8:10 4:5 11:5 7:5
4:0 12:5 11:5 4:5 7:5 11:5 8:10 4:5 11:5 7:5 11:5
12:0 11:5 4:5 7:5 11:5 8:10 4:5 11:5 7:5 11:5 8:5
11:0 4:5 7:5 11:5 8:10 4:5 11:5 7:5 11:5 8:5 2:5
4:0 7:5 11:5 8:10 4:5 11:5 7:5 11:5 8:5 2:5 11:5
7:0 11:5 8:10 4:5 11:5 7:5 11:5 8:5 2:5 11:5 4:15
11:0 8:10 4:5 11:5 7:5 11:5 8:5 2:5 11:5 4:15 5:5
8:0 4:5 11:5 7:5 11:5 8:5 2:5 11:5 4:15 5:5 11:5
4:0 11:5 7:5 11:5 8:5 2:5 11:5 4:15 5:5 11:5 4:15
11:0 7:5 11:5 8:5 2:5 11:5 4:15 5:5 11:5 4:15 5:5
7:0 11:5 8:5 2:5 11:5 4:15 5:5 11:5 4:15 5:5 11:5
11:0 8:5 2:5 11:5 4:15 5:5 11:5 4:15 5:5 11:5 8:5
8:0 2:5 11:5 4:15 5:5 11:5 4:15 5:5 11:5 8:5 11:5
2:0 11:5 4:15 5:5 11:5 4:15 5:5 11:5 8:5 11:5 2:5
11:0 4:15 5:5 11:5 4:15 5:5 11:5 8:5 11:5 2:5 8:5
4:0 5:5 11:5 4:15 5:5 11:5 8:5 11:5 2:5 8:5 11:5
5:0 11:5 4:15 5:5 11:5 8:5 11:5 2:5 8:5 11:5 8:5
11:0 4:15 5:5 11:5 8:5 11:5 2:5 8:5 11:5 8:5 11:5
4:0 5:5 11:5 8:5 11:5 2:5 8:5 11:5 8:5 11:5 4:5
5:0 11:5 8:5 11:5 2:5 8:5 11:5 8:5 11:5 4:5 8:5
11:0 8:5 11:5 2:5 8:5 11:5 8:5 11:5 4:5 8:5 11:5
8:0 11:5 2:5 8:5 11:5 8:5 11:5 4:5 8:5 11:5 5:15
11:0 2:5 8:5 11:5 8:5 11:5 4:5 8:5 11:5 5:15 11:5
2:0 8:5 11:5 8:5 11:5 4:5 8:5 11:5 5:15 11:5 8:5
8:0 11:5 8:5 11:5 4:5 8:5 11:5 5:15 11:5 8:5 11:5
11:0 8:5 11:5 4:5 8:5 11:5 5:15 11:5 8:5 11:5 7:5
8:0 11:5 4:5 8:5 11:5 5:15 11:5 8:5 11:5 7:5 8:5
11:0 4:5 8:5 11:5 5:15 11:5 8:5 11:5 7:5 8:5 11:5
4:0 8:5 11:5 5:15 11:5 8:5 11:5 7:5 8:5 11:5 8:5
8:0 11:5 5:15 11:5 8:5 11:5 7:5 8:5 11:5 8:5 11:5
11:0 5:15 11:5 8:5 11:5 7:5 8:5 11:5 8:5 11:5 4:5
5:0 11:5 8:5 11:5 7:5 8:5 11:5 8:5 11:5 4:5 5:5
11:0 8:5 11:5 7:5 8:5 11:5 8:5 11:5 4:5 5:5 11:5
8:0 11:5 7:5 8:5 11:5 8:5 11:5 4:5 5:5 11:5 12:5
11:0 7:5 8:5 11:5 8:5 11:5 4:5 5:5 11:5 12:5 11:5
7:0 8:5 11:5 8:5 11:5 4:5 5:5 11:5 12:5 11:5 2:5
8:0 11:5 8:5 11:5 4:5 5:5 11:5 12:5 11:5 2:5 11:5
11:0 8:5 11:5 4:5 5:5 11:5 12:5 11:5 2:5 11:5 8:10
8:0 11:5 4:5 5:5 11:5 12:5 11:5 2:5 11:5 8:10 11:5
11:0 4:5 5:5 11:5 12:5 11:5 2:5 11:5 8:10 11:5 4:5
4:0 5:5 11:5 12:5 11:5 2:5 11:5 8:10 11:5 4:5 7:5
5:0 11:5 12:5 11:5 2:5 11:5 8:10 11:5 4:5 7:5 11:5
11:0 12:5 11:5 2:5 11:5 8:10 11:5 4:5 7:5 11:5 8:5
12:0 11:5 2:5 11:5 8:10 11:5 4:5 7:5 11:5 8:5 11:5
11:0 2:5 11:5 8:10 11:5 4:5 7:5 11:5 8:5 11:5 5:5
2:0 11:5 8:10 11:5 4:5 7:5 11:5 8:5 11:5 5:5 8:5
11:0 8:10 11:5 4:5 7:5 11:5 8:5 11:5 5:5 8:5 11:5
8:0 11:5 4:5 7:5 11:5 8:5 11:5 5:5 8:5 11:5 12:5
11:0 4:5 7:5 11:5 8:5 11:5 5:5 8:5 11:5 12:5 8:5
4:0 7:5 11:5 8:5 11:5 5:5 8:5 11:5 12:5 8:5 7:10
7:0 11:5 8:5 11:5 5:5 8:5 11:5 12:5 8:5 7:10 11:5
11:0 8:5 11:5 5:5 8:5 11:5 12:5 8:5 7:10 11:5 4:10
8:0 11:5 5:5 8:5 11:5 12:5 8:5 7:10 11:5 4:10 8:5
11:0 5:5 8:5 11:5 12:5 8:5 7:10 11:5 4:10 8:5 11:5
5:0 8:5 11:5 12:5 8:5 7:10 11:5 4:10 8:5 11:5 8:15
8:0 11:5 12:5 8:5 7:10 11:5 4:10 8:5 11:5 8:15 11:10
11:0 12:5 8:5 7:10 11:5 4:10 8:5 11:5 8:15 11:10 8:5
12:0 8:5 7:10 11:5 4:10 8:5 11:5 8:15 11:10 8:5 11:5
8:0 7:10 11:5 4:10 8:5 11:5 8:15 11:10 8:5 11:5 2:5
7:0 11:5 4:10 8:5 11:5 8:15 11:10 8:5 11:5 2:5 8:5
11:0 4:10 8:5 11:5 8:15 11:10 8:5 11:5 2:5 8:5 11:5
4:0 8:5 11:5 8:15 11:10 8:5 11:5 2:5 8:5 11:5 12:5
8:0 11:5 8:15 11:10 8:5 11:5 2:5 8:5 11:5 12:5 11:5
11:0 8:15 11:10 8:5 11:5 2:5 8:5 11:5 12:5 11:5 4:5
8:0 11:10 8:5 11:5 2:5 8:5 11:5 12:5 11:5 4:5 11:5
11:0 8:5 11:5 2:5 8:5 11:5 12:5 11:5 4:5 11:5 8:10
8:0 11:5 2:5 8:5 11:5 12:5 11:5 4:5 11:5 8:10 11:5
11:0 2:5 8:5 11:5 12:5 11:5 4:5 11:5 8:10 11:5 5:5
2:0 8:5 11:5 12:5 11:5 4:5 11:5 8:10 11:5 5:5 11:5
8:0 11:5 12:5 11:5 4:5 11:5 8:10 11:5 5:5 11:5 8:5
11:0 12:5 11:5 4:5 11:5 8:10 11:5 5:5 11:5 8:5 11:5
12:0 11:5 4:5 11:5 8:10 11:5 5:5 11:5 8:5 11:5 4:5
11:0 4:5 11:5 8:10 11:5 5:5 11:5 8:5 11:5 4:5 12:5
4:0 11:5 8:10 11:5 5:5 11:5 8:5 11:5 4:5 12:5 8:5
11:0 8:10 11:5 5:5 11:5 8:5 11:5 4:5 12:5 8:5 11:5
8:0 11:5 5:5 11:5 8:5 11:5 4:5 12:5 8:5 11:5 7:10
11:0 5:5 11:5 8:5 11:5 4:5 12:5 8:5 11:5 7:10 8:5
5:0 11:5 8:5 11:5 4:5 12:5 8:5 11:5 7:10 8:5 11:5
11:0 8:5 11:5 4:5 12:5 8:5 11:5 7:10 8:5 11:5 8:10
8:0 11:5 4:5 12:5 8:5 11:5 7:10 8:5 11:5 8:10 4:5
11:0 4:5 12:5 8:5 11:5 7:10 8:5 11:5 8:10 4:5 11:5
4:0 12:5 8:5 11:5 7:10 8:5 11:5 8:10 4:5 11:5 7:5
12:0 8:5 11:5 7:10 8:5 11:5 8:10 4:5 11:5 7:5 12:5
8:0 11:5 7:10 8:5 11:5 8:10 4:5 11:5 7:5 12:5 8:5
11:0 7:10 8:5 11:5 8:10 4:5 11:5 7:5 12:5 8:5 5:5
7:0 8:5 11:5 8:10 4:5 11:5 7:5 12:5 8:5 5:5 11:5
8:0 11:5 8:10 4:5 11:5 7:5 12:5 8:5 5:5 11:5 7:5
11:0 8:10 4:5 11:5 7:5 12:5 8:5 5:5 11:5 7:5 11:5
8:0 4:5 11:5 7:5 12:5 8:5 5:5 11:5 7:5 11:5 4:5
4:0 11:5 7:5 12:5 8:5 5:5 11:5 7:5 11:5 4:5 8:5
11:0 7:5 12:5 8:5 5:5 11:5 7:5 11:5 4:5 8:5 11:5
7:0 12:5 8:5 5:5 11:5 7:5 11:5 4:5 8:5 11:5 8:15
12:0 8:5 5:5 11:5 7:5 11:5 4:5 8:5 11:5 8:15 11:10
8:0 5:5 11:5 7:5 11:5 4:5 8:5 11:5 8:15 11:10 8:5
5:0 11:5 7:5 11:5 4:5 8:5 11:5 8:15 11:10 8:5 11:5
11:0 7:5 11:5 4:5 8:5 11:5 8:15 11:10 8:5 11:5 4:5
7:0 11:5 4:5 8:5 11:5 8:15 11:10 8:5 11:5 4:5 8:5
11:0 4:5 8:5 11:5 8:15 11:10 8:5 11:5 4:5 8:5 7:5
4:0 8:5 11:5 8:15 11:10 8:5 11:5 4:5 8:5 7:5 11:5
8:0 11:5 8:15 11:10 8:5 11:5 4:5 8:5 7:5 11:5 2:10
11:0 8:15 11:10 8:5 11:5 4:5 8:5 7:5 11:5 2:10 11:5
8:0 11:10 8:5 11:5 4:5 8:5 7:5 11:5 2:10 11:5 7:5
11:0 8:5 11:5 4:5 8:5 7:5 11:5 2:10 11:5 7:5 11:5
8:0 11:5 4:5 8:5 7:5 11:5 2:10 11:5 7:5 11:5 8:10
11:0 4:5 8:5 7:5 11:5 2:10 11:5 7:5 11:5 8:10 12:10
4:0 8:5 7:5 11:5 2:10 11:5 7:5 11:5 8:10 12:10 8:5
8:0 7:5 11:5 2:10 11:5 7:5 11:5 8:10 12:10 8:5 7:5
7:0 11:5 2:10 11:5 7:5 11:5 8:10 12:10 8:5 7:5 8:5
11:0 2:10 11:5 7:5 11:5 8:10 12:10 8:5 7:5 8:5 11:10
2:0 11:5 7:5 11:5 8:10 12:10 8:5 7:5 8:5 11:10 4:10
11:0 7:5 11:5 8:10 12:10 8:5 7:5 8:5 11:10 4:10 5:5
7:0 11:5 8:10 12:10 8:5 7:5 8:5 11:10 4:10 5:5 11:5
11:0 8:10 12:10 8:5 7:5 8:5 11:10 4:10 5:5 11:5 8:5
8:0 12:10 8:5 7:5 8:5 11:10 4:10 5:5 11:5 8:5 11:5
12:0 8:5 7:5 8:5 11:10 4:10 5:5 11:5 8:5 11:5 4:5
8:0 7:5 8:5 11:10 4:10 5:5 11:5 8:5 11:5 4:5 8:5
7:0 8:5 11:10 4:10 5:5 11:5 8:5 11:5 4:5 8:5 11:5
8:0 11:10 4:10 5:5 11:5 8:5 11:5 4:5 8:5 11:5 4:15
11:0 4:10 5:5 11:5 8:5 11:5 4:5 8:5 11:5 4:15 8:5
4:0 5:5 11:5 8:5 11:5 4:5 8:5 11:5 4:15 8:5 11:10
5:0 11:5 8:5 11:5 4:5 8:5 11:5 4:15 8:5 11:10 7:5
11:0 8:5 11:5 4:5 8:5 11:5 4:15 8:5 11:10 7:5 4:5
8:0 11:5 4:5 8:5 11:5 4:15 8:5 11:10 7:5 4:5 8:5
11:0 4:5 8:5 11:5 4:15 8:5 11:10 7:5 4:5 8:5 11:5
4:0 8:5 11:5 4:15 8:5 11:10 7:5 4:5 8:5 11:5 8:5
8:0 11:5 4:15 8:5 11:10 7:5 4:5 8:5 11:5 8:5 7:5
11:0 4:15 8:5 11:10 7:5 4:5 8:5 11:5 8:5 7:5 4:5
4:0 8:5 11:10 7:5 4:5 8:5 11:5 8:5 7:5 4:5 11:5
8:0 11:10 7:5 4:5 8:5 11:5 8:5 7:5 4:5 11:5 8:15
11:0 7:5 4:5 8:5 11:5 8:5 7:5 4:5 11:5 8:15 5:5
7:0 4:5 8:5 11:5 8:5 7:5 4:5 11:5 8:15 5:5 11:5
4:0 8:5 11:5 8:5 7:5 4:5 11:5 8:15 5:5 11:5 8:5
8:0 11:5 8:5 7:5 4:5 11:5 8:15 5:5 11:5 8:5 12:5
11:0 8:5 7:5 4:5 11:5 8:15 5:5 11:5 8:5 12:5 4:5
8:0 7:5 4:5 11:5 8:15 5:5 11:5 8:5 12:5 4:5 11:5
7:0 4:5 11:5 8:15 5:5 11:5 8:5 12:5 4:5 11:5 7:5
4:0 11:5 8:15 5:5 11:5 8:5 12:5 4:5 11:5 7:5 11:5
11:0 8:15 5:5 11:5 8:5 12:5 4:5 11:5 7:5 11:5 2:10
8:0 5:5 11:5 8:5 12:5 4:5 11:5 7:5 11:5 2:10 12:5
5:0 11:5 8:5 12:5 4:5 11:5 7:5 11:5 2:10 12:5 8:5
11:0 8:5 12:5 4:5 11:5 7:5 11:5 2:10 12:5 8:5 11:5
8:0 12:5 4:5 11:5 7:5 11:5 2:10 12:5 8:5 11:5 7:5
12:0 4:5 11:5 7:5 11:5 2:10 12:5 8:5 11:5 7:5 4:5
4:0 11:5 7:5 11:5 2:10 12:5 8:5 11:5 7:5 4:5 12:5
11:0 7:5 11:5 2:10 12:5 8:5 11:5 7:5 4:5 12:5 11:5
7:0 11:5 2:10 12:5 8:5 11:5 7:5 4:5 12:5 11:5 8:10
11:0 2:10 12:5 8:5 11:5 7:5 4:5 12:5 11:5 8:10 7:10
2:0 12:5 8:5 11:5 7:5 4:5 12:5 11:5 8:10 7:10 11:5
12:0 8:5 11:5 7:5 4:5 12:5 11:5 8:10 7:10 11:5 2:10
8:0 11:5 7:5 4:5 12:5 11:5 8:10 7:10 11:5 2:10 8:5
11:0 7:5 4:5 12:5 11:5 8:10 7:10 11:5 2:10 8:5 7:5
7:0 4:5 12:5 11:5 8:10 7:10 11:5 2:10 8:5 7:5 11:5
4:0 12:5 11:5 8:10 7:10 11:5 2:10 8:5 7:5 11:5 4:10
12:0 11:5 8:10 7:10 11:5 2:10 8:5 7:5 11:5 4:10 8:5
11:0 8:10 7:10 11:5 2:10 8:5 7:5 11:5 4:10 8:5 12:5
8:0 7:10 11:5 2:10 8:5 7:5 11:5 4:10 8:5 12:5 8:5
7:0 11:5 2:10 8:5 7:5 11:5 4:10 8:5 12:5 8:5 11:5
11:0 2:10 8:5 7:5 11:5 4:10 8:5 12:5 8:5 11:5 4:5
2:0 8:5 7:5 11:5 4:10 8:5 12:5 8:5 11:5 4:5 8:5
8:0 7:5 11:5 4:10 8:5 12:5 8:5 11:5 4:5 8:5 11:5
7:0 11:5 4:10 8:5 12:5 8:5 11:5 4:5 8:5 11:5 8:10
11:0 4:10 8:5 12:5 8:5 11:5 4:5 8:5 11:5 8:10 2:5
4:0 8:5 12:5 8:5 11:5 4:5 8:5 11:5 8:10 2:5 11:5
8:0 12:5 8:5 11:5 4:5 8:5 11:5 8:10 2:5 11:5 7:5
12:0 8:5 11:5 4:5 8:5 11:5 8:10 2:5 11:5 7:5 12:5
8:0 11:5 4:5 8:5 11:5 8:10 2:5 11:5 7:5 12:5 8:5
11:0 4:5 8:5 11:5 8:10 2:5 11:5 7:5 12:5 8:5 11:10
4:0 8:5 11:5 8:10 2:5 11:5 7:5 12:5 8:5 11:10 8:10
8:0 11:5 8:10 2:5 11:5 7:5 12:5 8:5 11:10 8:10 4:5
11:0 8:10 2:5 11:5 7:5 12:5 8:5 11:10 8:10 4:5 8:5
8:0 2:5 11:5 7:5 12:5 8:5 11:10 8:10 4:5 8:5 11:5
2:0 11:5 7:5 12:5 8:5 11:10 8:10 4:5 8:5 11:5 4:15
11:0 7:5 12:5 8:5 11:10 8:10 4:5 8:5 11:5 4:15 8:5
7:0 12:5 8:5 11:10 8:10 4:5 8:5 11:5 4:15 8:5 11:5
12:0 8:5 11:10 8:10 4:5 8:5 11:5 4:15 8:5 11:5 8:10
8:0 11:10 8:10 4:5 8:5 11:5 4:15 8:5 11:5 8:10 4:5
11:0 8:10 4:5 8:5 11:5 4:15 8:5 11:5 8:10 4:5 11:5
8:0 4:5 8:5 11:5 4:15 8:5 11:5 8:10 4:5 11:5 7:5
4:0 8:5 11:5 4:15 8:5 11:5 8:10 4:5 11:5 7:5 12:5
8:0 11:5 4:15 8:5 11:5 8:10 4:5 11:5 7:5 12:5 11:5
11:0 4:15 8:5 11:5 8:10 4:5 11:5 7:5 12:5 11:5 5:5
4:0 8:5 11:5 8:10 4:5 11:5 7:5 12:5 11:5 5:5 11:5
8:0 11:5 8:10 4:5 11:5 7:5 12:5 11:5 5:5 11:5 8:5
11:0 8:10 4:5 11:5 7:5 12:5 11:5 5:5 11:5 8:5 11:5
8:0 4:5 11:5 7:5 12:5 11:5 5:5 11:5 8:5 11:5 4:5
4:0 11:5 7:5 12:5 11:5 5:5 11:5 8:5 11:5 4:5 8:5
11:0 7:5 12:5 11:5 5:5 11:5 8:5 11:5 4:5 8:5 11:10
7:0 12:5 11:5 5:5 11:5 8:5 11:5 4:5 8:5 11:10 7:10
12:0 11:5 5:5 11:5 8:5 11:5 4:5 8:5 11:10 7:10 8:5
11:0 5:5 11:5 8:5 11:5 4:5 8:5 11:10 7:10 8:5 11:10
5:0 11:5 8:5 11:5 4:5 8:5 11:10 7:10 8:5 11:10 4:10
11:0 8:5 11:5 4:5 8:5 11:10 7:10 8:5 11:10 4:10 5:5
8:0 11:5 4:5 8:5 11:10 7:10 8:5 11:10 4:10 5:5 11:5
11:0 4:5 8:5 11:10 7:10 8:5 11:10 4:10 5:5 11:5 8:5
4:0 8:5 11:10 7:10 8:5 11:10 4:10 5:5 11:5 8:5 11:5
8:0 11:10 7:10 8:5 11:10 4:10 5:5 11:5 8:5 11:5 4:5
11:0 7:10 8:5 11:10 4:10 5:5 11:5 8:5 11:5 4:5 11:10
7:0 8:5 11:10 4:10 5:5 11:5 8:5 11:5 4:5 11:10 4:15
8:0 11:10 4:10 5:5 11:5 8:5 11:5 4:5 11:10 4:15 8:5
11:0 4:10 5:5 11:5 8:5 11:5 4:5 11:10 4:15 8:5 11:10
4:0 5:5 11:5 8:5 11:5 4:5 11:10 4:15 8:5 11:10 7:5
5:0 11:5 8:5 11:5 4:5 11:10 4:15 8:5 11:10 7:5 5:5
11:0 8:5 11:5 4:5 11:10 4:15 8:5 11:10 7:5 5:5 12:5
8:0 11:5 4:5 11:10 4:15 8:5 11:10 7:5 5:5 12:5 8:5
11:0 4:5 11:10 4:15 8:5 11:10 7:5 5:5 12:5 8:5 11:5
4:0 11:10 4:15 8:5 11:10 7:5 5:5 12:5 8:5 11:5 7:5
11:0 4:15 8:5 11:10 7:5 5:5 12:5 8:5 11:5 7:5 11:5
4:0 8:5 11:10 7:5 5:5 12:5 8:5 11:5 7:5 11:5 4:5
8:0 11:10 7:5 5:5 12:5 8:5 11:5 7:5 11:5 4:5 12:5
11:0 7:5 5:5 12:5 8:5 11:5 7:5 11:5 4:5 12:5 11:5
7:0 5:5 12:5 8:5 11:5 7:5 11:5 4:5 12:5 11:5 4:5
5:0 12:5 8:5 11:5 7:5 11:5 4:5 12:5 11:5 4:5 11:5
12:0 8:5 11:5 7:5 11:5 4:5 12:5 11:5 4:5 11:5 7:5
8:0 11:5 7:5 11:5 4:5 12:5 11:5 4:5 11:5 7:5 8:5
11:0 7:5 11:5 4:5 12:5 11:5 4:5 11:5 7:5 8:5 11:5
7:0 11:5 4:5 12:5 11:5 4:5 11:5 7:5 8:5 11:5 4:5
11:0 4:5 12:5 11:5 4:5 11:5 7:5 8:5 11:5 4:5 8:5
4:0 12:5 11:5 4:5 11:5 7:5 8:5 11:5 4:5 8:5 11:5
12:0 11:5 4:5 11:5 7:5 8:5 11:5 4:5 8:5 11:5 8:5
11:0 4:5 11:5 7:5 8:5 11:5 4:5 8:5 11:5 8:5 11:5
4:0 11:5 7:5 8:5 11:5 4:5 8:5 11:5 8:5 11:5 8:5
11:0 7:5 8:5 11:5 4:5 8:5 11:5 8:5 11:5 8:5 5:10
7:0 8:5 11:5 4:5 8:5 11:5 8:5 11:5 8:5 5:10 11:5
8:0 11:5 4:5 8:5 11:5 8:5 11:5 8:5 5:10 11:5 4:5
11:0 4:5 8:5 11:5 8:5 11:5 8:5 5:10 11:5 4:5 11:10
4:0 8:5 11:5 8:5 11:5 8:5 5:10 11:5 4:5 11:10 4:15
8:0 11:5 8:5 11:5 8:5 5:10 11:5 4:5 11:10 4:15 8:5
11:0 8:5 11:5 8:5 5:10 11:5 4:5 11:10 4:15 8:5 11:5
8:0 11:5 8:5 5:10 11:5 4:5 11:10 4:15 8:5 11:5 8:5
11:0 8:5 5:10 11:5 4:5 11:10 4:15 8:5 11:5 8:5 12:5
8:0 5:10 11:5 4:5 11:10 4:15 8:5 11:5 8:5 12:5
5:0 11:5 4:5 11:10 4:15 8:5 11:5 8:5 12:5
11:0 4:5 11:10 4:15 8:5 11:5 8:5 12:5
4:0 11:10 4:15 8:5 11:5 8:5 12:5
11:0 4:15 8:5 11:5 8:5 12:5
4:0 8:5 11:5 8:5 12:5
8:0 11:5 8:5 12:5
11:0 8:5 12:5
8:0 12:5
12:0