9:0 3:5 6:5 5:5 4:5 7:5 2:5 8:5 2:5 6:5 5:5
3:0 6:5 5:5 4:5 7:5 2:5 8:5 2:5 6:5 5:5 3:5
6:0 5:5 4:5 7:5 2:5 8:5 2:5 6:5 5:5 3:5 7:5
5:0 4:5 7:5 2:5 8:5 2:5 6:5 5:5 3:5 7:5 2:5
4:0 7:5 2:5 8:5 2:5 6:5 5:5 3:5 7:5 2:5 8:5
7:0 2:5 8:5 2:5 6:5 5:5 3:5 7:5 2:5 8:5 3:5
2:0 8:5 2:5 6:5 5:5 3:5 7:5 2:5 8:5 3:5 4:5
8:0 2:5 6:5 5:5 3:5 7:5 2:5 8:5 3:5 4:5 6:5
2:0 6:5 5:5 3:5 7:5 2:5 8:5 3:5 4:5 6:5 3:5
6:0 5:5 3:5 7:5 2:5 8:5 3:5 4:5 6:5 3:5 8:5
5:0 3:5 7:5 2:5 8:5 3:5 4:5 6:5 3:5 8:5 3:5
3:0 7:5 2:5 8:5 3:5 4:5 6:5 3:5 8:5 3:5 6:5
7:0 2:5 8:5 3:5 4:5 6:5 3:5 8:5 3:5 6:5 4:5
2:0 8:5 3:5 4:5 6:5 3:5 8:5 3:5 6:5 4:5 5:5
8:0 3:5 4:5 6:5 3:5 8:5 3:5 6:5 4:5 5:5 7:5
3:0 4:5 6:5 3:5 8:5 3:5 6:5 4:5 5:5 7:5 3:5
4:0 6:5 3:5 8:5 3:5 6:5 4:5 5:5 7:5 3:5 8:5
6:0 3:5 8:5 3:5 6:5 4:5 5:5 7:5 3:5 8:5 4:5
3:0 8:5 3:5 6:5 4:5 5:5 7:5 3:5 8:5 4:5 5:5
8:0 3:5 6:5 4:5 5:5 7:5 3:5 8:5 4:5 5:5 6:5
3:0 6:5 4:5 5:5 7:5 3:5 8:5 4:5 5:5 6:5 3:5
6:0 4:5 5:5 7:5 3:5 8:5 4:5 5:5 6:5 3:5 7:5
4:0 5:5 7:5 3:5 8:5 4:5 5:5 6:5 3:5 7:5 3:5
5:0 7:5 3:5 8:5 4:5 5:5 6:5 3:5 7:5 3:5 8:5
7:0 3:5 8:5 4:5 5:5 6:5 3:5 7:5 3:5 8:5 5:5
3:0 8:5 4:5 5:5 6:5 3:5 7:5 3:5 8:5 5:5 3:5
8:0 4:5 5:5 6:5 3:5 7:5 3:5 8:5 5:5 3:5 7:5
4:0 5:5 6:5 3:5 7:5 3:5 8:5 5:5 3:5 7:5 2:5
5:0 6:5 3:5 7:5 3:5 8:5 5:5 3:5 7:5 2:5 9:5
6:0 3:5 7:5 3:5 8:5 5:5 3:5 7:5 2:5 9:5 3:5
3:0 7:5 3:5 8:5 5:5 3:5 7:5 2:5 9:5 3:5 4:5
7:0 3:5 8:5 5:5 3:5 7:5 2:5 9:5 3:5 4:5 6:5
3:0 8:5 5:5 3:5 7:5 2:5 9:5 3:5 4:5 6:5 3:5
8:0 5:5 3:5 7:5 2:5 9:5 3:5 4:5 6:5 3:5 8:5
5:0 3:5 7:5 2:5 9:5 3:5 4:5 6:5 3:5 8:5 3:5
3:0 7:5 2:5 9:5 3:5 4:5 6:5 3:5 8:5 3:5 6:5
7:0 2:5 9:5 3:5 4:5 6:5 3:5 8:5 3:5 6:5 5:5
2:0 9:5 3:5 4:5 6:5 3:5 8:5 3:5 6:5 5:5 4:5
9:0 3:5 4:5 6:5 3:5 8:5 3:5 6:5 5:5 4:5 7:5
3:0 4:5 6:5 3:5 8:5 3:5 6:5 5:5 4:5 7:5 2:5
4:0 6:5 3:5 8:5 3:5 6:5 5:5 4:5 7:5 2:5 8:5
6:0 3:5 8:5 3:5 6:5 5:5 4:5 7:5 2:5 8:5 2:5
3:0 8:5 3:5 6:5 5:5 4:5 7:5 2:5 8:5 2:5 7:5
8:0 3:5 6:5 5:5 4:5 7:5 2:5 8:5 2:5 7:5 5:5
3:0 6:5 5:5 4:5 7:5 2:5 8:5 2:5 7:5 5:5 2:5
6:0 5:5 4:5 7:5 2:5 8:5 2:5 7:5 5:5 2:5 8:5
5:0 4:5 7:5 2:5 8:5 2:5 7:5 5:5 2:5 8:5 2:5
4:0 7:5 2:5 8:5 2:5 7:5 5:5 2:5 8:5 2:5 7:5
7:0 2:5 8:5 2:5 7:5 5:5 2:5 8:5 2:5 7:5 5:5
2:0 8:5 2:5 7:5 5:5 2:5 8:5 2:5 7:5 5:5 3:5
8:0 2:5 7:5 5:5 2:5 8:5 2:5 7:5 5:5 3:5 7:5
2:0 7:5 5:5 2:5 8:5 2:5 7:5 5:5 3:5 7:5 2:5
7:0 5:5 2:5 8:5 2:5 7:5 5:5 3:5 7:5 2:5 8:5
5:0 2:5 8:5 2:5 7:5 5:5 3:5 7:5 2:5 8:5 4:5
2:0 8:5 2:5 7:5 5:5 3:5 7:5 2:5 8:5 4:5 3:5
8:0 2:5 7:5 5:5 3:5 7:5 2:5 8:5 4:5 3:5 8:5
2:0 7:5 5:5 3:5 7:5 2:5 8:5 4:5 3:5 8:5 2:5
7:0 5:5 3:5 7:5 2:5 8:5 4:5 3:5 8:5 2:5 9:5
5:0 3:5 7:5 2:5 8:5 4:5 3:5 8:5 2:5 9:5 3:5
3:0 7:5 2:5 8:5 4:5 3:5 8:5 2:5 9:5 3:5 6:5
7:0 2:5 8:5 4:5 3:5 8:5 2:5 9:5 3:5 6:5 4:5
2:0 8:5 4:5 3:5 8:5 2:5 9:5 3:5 6:5 4:5 5:5
8:0 4:5 3:5 8:5 2:5 9:5 3:5 6:5 4:5 5:5 7:5
4:0 3:5 8:5 2:5 9:5 3:5 6:5 4:5 5:5 7:5 2:5
3:0 8:5 2:5 9:5 3:5 6:5 4:5 5:5 7:5 2:5 8:5
8:0 2:5 9:5 3:5 6:5 4:5 5:5 7:5 2:5 8:5 3:5
2:0 9:5 3:5 6:5 4:5 5:5 7:5 2:5 8:5 3:5 5:5
9:0 3:5 6:5 4:5 5:5 7:5 2:5 8:5 3:5 5:5 6:5
3:0 6:5 4:5 5:5 7:5 2:5 8:5 3:5 5:5 6:5 2:5
6:0 4:5 5:5 7:5 2:5 8:5 3:5 5:5 6:5 2:5 9:5
4:0 5:5 7:5 2:5 8:5 3:5 5:5 6:5 2:5 9:5 2:5
5:0 7:5 2:5 8:5 3:5 5:5 6:5 2:5 9:5 2:5 7:5
7:0 2:5 8:5 3:5 5:5 6:5 2:5 9:5 2:5 7:5 5:5
2:0 8:5 3:5 5:5 6:5 2:5 9:5 2:5 7:5 5:5 3:5
8:0 3:5 5:5 6:5 2:5 9:5 2:5 7:5 5:5 3:5 7:5
3:0 5:5 6:5 2:5 9:5 2:5 7:5 5:5 3:5 7:5 2:5
5:0 6:5 2:5 9:5 2:5 7:5 5:5 3:5 7:5 2:5 8:5
6:0 2:5 9:5 2:5 7:5 5:5 3:5 7:5 2:5 8:5 3:5
2:0 9:5 2:5 7:5 5:5 3:5 7:5 2:5 8:5 3:5 4:5
9:0 2:5 7:5 5:5 3:5 7:5 2:5 8:5 3:5 4:5 6:5
2:0 7:5 5:5 3:5 7:5 2:5 8:5 3:5 4:5 6:5 3:5
7:0 5:5 3:5 7:5 2:5 8:5 3:5 4:5 6:5 3:5 8:5
5:0 3:5 7:5 2:5 8:5 3:5 4:5 6:5 3:5 8:5 3:5
3:0 7:5 2:5 8:5 3:5 4:5 6:5 3:5 8:5 3:5 6:5
7:0 2:5 8:5 3:5 4:5 6:5 3:5 8:5 3:5 6:5 4:5
2:0 8:5 3:5 4:5 6:5 3:5 8:5 3:5 6:5 4:5 3:5
8:0 3:5 4:5 6:5 3:5 8:5 3:5 6:5 4:5 3:5 7:5
3:0 4:5 6:5 3:5 8:5 3:5 6:5 4:5 3:5 7:5 3:5
4:0 6:5 3:5 8:5 3:5 6:5 4:5 3:5 7:5 3:5 6:5
6:0 3:5 8:5 3:5 6:5 4:5 3:5 7:5 3:5 6:5 4:5
3:0 8:5 3:5 6:5 4:5 3:5 7:5 3:5 6:5 4:5 6:5
8:0 3:5 6:5 4:5 3:5 7:5 3:5 6:5 4:5 6:5 2:10
3:0 6:5 4:5 3:5 7:5 3:5 6:5 4:5 6:5 2:10 8:5
6:0 4:5 3:5 7:5 3:5 6:5 4:5 6:5 2:10 8:5 2:5
4:0 3:5 7:5 3:5 6:5 4:5 6:5 2:10 8:5 2:5 7:5
3:0 7:5 3:5 6:5 4:5 6:5 2:10 8:5 2:5 7:5 5:5
7:0 3:5 6:5 4:5 6:5 2:10 8:5 2:5 7:5 5:5 3:5
3:0 6:5 4:5 6:5 2:10 8:5 2:5 7:5 5:5 3:5 8:5
6:0 4:5 6:5 2:10 8:5 2:5 7:5 5:5 3:5 8:5 2:5
4:0 6:5 2:10 8:5 2:5 7:5 5:5 3:5 8:5 2:5 8:5
6:0 2:10 8:5 2:5 7:5 5:5 3:5 8:5 2:5 8:5 3:5
2:0 8:5 2:5 7:5 5:5 3:5 8:5 2:5 8:5 3:5 4:5
8:0 2:5 7:5 5:5 3:5 8:5 2:5 8:5 3:5 4:5 7:5
2:0 7:5 5:5 3:5 8:5 2:5 8:5 3:5 4:5 7:5 4:5
7:0 5:5 3:5 8:5 2:5 8:5 3:5 4:5 7:5 4:5 8:5
5:0 3:5 8:5 2:5 8:5 3:5 4:5 7:5 4:5 8:5 3:5
3:0 8:5 2:5 8:5 3:5 4:5 7:5 4:5 8:5 3:5 6:5
8:0 2:5 8:5 3:5 4:5 7:5 4:5 8:5 3:5 6:5 5:5
2:0 8:5 3:5 4:5 7:5 4:5 8:5 3:5 6:5 5:5 4:5
8:0 3:5 4:5 7:5 4:5 8:5 3:5 6:5 5:5 4:5 7:5
3:0 4:5 7:5 4:5 8:5 3:5 6:5 5:5 4:5 7:5 3:5
4:0 7:5 4:5 8:5 3:5 6:5 5:5 4:5 7:5 3:5 7:5
7:0 4:5 8:5 3:5 6:5 5:5 4:5 7:5 3:5 7:5 4:5
4:0 8:5 3:5 6:5 5:5 4:5 7:5 3:5 7:5 4:5 6:10
8:0 3:5 6:5 5:5 4:5 7:5 3:5 7:5 4:5 6:10 2:5
3:0 6:5 5:5 4:5 7:5 3:5 7:5 4:5 6:10 2:5 8:5
6:0 5:5 4:5 7:5 3:5 7:5 4:5 6:10 2:5 8:5 2:5
5:0 4:5 7:5 3:5 7:5 4:5 6:10 2:5 8:5 2:5 7:5
4:0 7:5 3:5 7:5 4:5 6:10 2:5 8:5 2:5 7:5 5:5
7:0 3:5 7:5 4:5 6:10 2:5 8:5 2:5 7:5 5:5 2:5
3:0 7:5 4:5 6:10 2:5 8:5 2:5 7:5 5:5 2:5 8:5
7:0 4:5 6:10 2:5 8:5 2:5 7:5 5:5 2:5 8:5 3:5
4:0 6:10 2:5 8:5 2:5 7:5 5:5 2:5 8:5 3:5 8:5
6:0 2:5 8:5 2:5 7:5 5:5 2:5 8:5 3:5 8:5 5:5
2:0 8:5 2:5 7:5 5:5 2:5 8:5 3:5 8:5 5:5 3:5
8:0 2:5 7:5 5:5 2:5 8:5 3:5 8:5 5:5 3:5 7:5
2:0 7:5 5:5 2:5 8:5 3:5 8:5 5:5 3:5 7:5 3:5
7:0 5:5 2:5 8:5 3:5 8:5 5:5 3:5 7:5 3:5 9:5
5:0 2:5 8:5 3:5 8:5 5:5 3:5 7:5 3:5 9:5 3:5
2:0 8:5 3:5 8:5 5:5 3:5 7:5 3:5 9:5 3:5 6:5
8:0 3:5 8:5 5:5 3:5 7:5 3:5 9:5 3:5 6:5 5:5
3:0 8:5 5:5 3:5 7:5 3:5 9:5 3:5 6:5 5:5 4:5
8:0 5:5 3:5 7:5 3:5 9:5 3:5 6:5 5:5 4:5 7:5
5:0 3:5 7:5 3:5 9:5 3:5 6:5 5:5 4:5 7:5 2:5
3:0 7:5 3:5 9:5 3:5 6:5 5:5 4:5 7:5 2:5 7:5
7:0 3:5 9:5 3:5 6:5 5:5 4:5 7:5 2:5 7:5 3:5
3:0 9:5 3:5 6:5 5:5 4:5 7:5 2:5 7:5 3:5 6:5
9:0 3:5 6:5 5:5 4:5 7:5 2:5 7:5 3:5 6:5 3:10
3:0 6:5 5:5 4:5 7:5 2:5 7:5 3:5 6:5 3:10 8:5
6:0 5:5 4:5 7:5 2:5 7:5 3:5 6:5 3:10 8:5 2:5
5:0 4:5 7:5 2:5 7:5 3:5 6:5 3:10 8:5 2:5 7:5
4:0 7:5 2:5 7:5 3:5 6:5 3:10 8:5 2:5 7:5 4:5
7:0 2:5 7:5 3:5 6:5 3:10 8:5 2:5 7:5 4:5 3:5
2:0 7:5 3:5 6:5 3:10 8:5 2:5 7:5 4:5 3:5 6:5
7:0 3:5 6:5 3:10 8:5 2:5 7:5 4:5 3:5 6:5 3:5
3:0 6:5 3:10 8:5 2:5 7:5 4:5 3:5 6:5 3:5 7:5
6:0 3:10 8:5 2:5 7:5 4:5 3:5 6:5 3:5 7:5 3:5
3:0 8:5 2:5 7:5 4:5 3:5 6:5 3:5 7:5 3:5 6:5
8:0 2:5 7:5 4:5 3:5 6:5 3:5 7:5 3:5 6:5 5:5
2:0 7:5 4:5 3:5 6:5 3:5 7:5 3:5 6:5 5:5 3:5
7:0 4:5 3:5 6:5 3:5 7:5 3:5 6:5 5:5 3:5 8:5
4:0 3:5 6:5 3:5 7:5 3:5 6:5 5:5 3:5 8:5 3:5
3:0 6:5 3:5 7:5 3:5 6:5 5:5 3:5 8:5 3:5 4:5
6:0 3:5 7:5 3:5 6:5 5:5 3:5 8:5 3:5 4:5 7:5
3:0 7:5 3:5 6:5 5:5 3:5 8:5 3:5 4:5 7:5 3:5
7:0 3:5 6:5 5:5 3:5 8:5 3:5 4:5 7:5 3:5 8:5
3:0 6:5 5:5 3:5 8:5 3:5 4:5 7:5 3:5 8:5 3:5
6:0 5:5 3:5 8:5 3:5 4:5 7:5 3:5 8:5 3:5 6:5
5:0 3:5 8:5 3:5 4:5 7:5 3:5 8:5 3:5 6:5 5:5
3:0 8:5 3:5 4:5 7:5 3:5 8:5 3:5 6:5 5:5 7:10
8:0 3:5 4:5 7:5 3:5 8:5 3:5 6:5 5:5 7:10 2:5
3:0 4:5 7:5 3:5 8:5 3:5 6:5 5:5 7:10 2:5 9:5
4:0 7:5 3:5 8:5 3:5 6:5 5:5 7:10 2:5 9:5 2:5
7:0 3:5 8:5 3:5 6:5 5:5 7:10 2:5 9:5 2:5 6:5
3:0 8:5 3:5 6:5 5:5 7:10 2:5 9:5 2:5 6:5 3:10
8:0 3:5 6:5 5:5 7:10 2:5 9:5 2:5 6:5 3:10 7:5
3:0 6:5 5:5 7:10 2:5 9:5 2:5 6:5 3:10 7:5 3:5
6:0 5:5 7:10 2:5 9:5 2:5 6:5 3:10 7:5 3:5 8:5
5:0 7:10 2:5 9:5 2:5 6:5 3:10 7:5 3:5 8:5 3:5
7:0 2:5 9:5 2:5 6:5 3:10 7:5 3:5 8:5 3:5 4:5
2:0 9:5 2:5 6:5 3:10 7:5 3:5 8:5 3:5 4:5 7:5
9:0 2:5 6:5 3:10 7:5 3:5 8:5 3:5 4:5 7:5 3:5
2:0 6:5 3:10 7:5 3:5 8:5 3:5 4:5 7:5 3:5 9:5
6:0 3:10 7:5 3:5 8:5 3:5 4:5 7:5 3:5 9:5 3:5
3:0 7:5 3:5 8:5 3:5 4:5 7:5 3:5 9:5 3:5 4:5
7:0 3:5 8:5 3:5 4:5 7:5 3:5 9:5 3:5 4:5 6:5
3:0 8:5 3:5 4:5 7:5 3:5 9:5 3:5 4:5 6:5 4:5
8:0 3:5 4:5 7:5 3:5 9:5 3:5 4:5 6:5 4:5 7:5
3:0 4:5 7:5 3:5 9:5 3:5 4:5 6:5 4:5 7:5 3:5
4:0 7:5 3:5 9:5 3:5 4:5 6:5 4:5 7:5 3:5 7:5
7:0 3:5 9:5 3:5 4:5 6:5 4:5 7:5 3:5 7:5 4:5
3:0 9:5 3:5 4:5 6:5 4:5 7:5 3:5 7:5 4:5 5:5
9:0 3:5 4:5 6:5 4:5 7:5 3:5 7:5 4:5 5:5 6:5
3:0 4:5 6:5 4:5 7:5 3:5 7:5 4:5 5:5 6:5 3:5
4:0 6:5 4:5 7:5 3:5 7:5 4:5 5:5 6:5 3:5 6:5
6:0 4:5 7:5 3:5 7:5 4:5 5:5 6:5 3:5 6:5 4:5
4:0 7:5 3:5 7:5 4:5 5:5 6:5 3:5 6:5 4:5 6:5
7:0 3:5 7:5 4:5 5:5 6:5 3:5 6:5 4:5 6:5 2:10
3:0 7:5 4:5 5:5 6:5 3:5 6:5 4:5 6:5 2:10 8:5
7:0 4:5 5:5 6:5 3:5 6:5 4:5 6:5 2:10 8:5 2:5
4:0 5:5 6:5 3:5 6:5 4:5 6:5 2:10 8:5 2:5 7:5
5:0 6:5 3:5 6:5 4:5 6:5 2:10 8:5 2:5 7:5 4:5
6:0 3:5 6:5 4:5 6:5 2:10 8:5 2:5 7:5 4:5 7:10
3:0 6:5 4:5 6:5 2:10 8:5 2:5 7:5 4:5 7:10 3:5
6:0 4:5 6:5 2:10 8:5 2:5 7:5 4:5 7:10 3:5 7:5
4:0 6:5 2:10 8:5 2:5 7:5 4:5 7:10 3:5 7:5 3:5
6:0 2:10 8:5 2:5 7:5 4:5 7:10 3:5 7:5 3:5 6:5
2:0 8:5 2:5 7:5 4:5 7:10 3:5 7:5 3:5 6:5 5:5
8:0 2:5 7:5 4:5 7:10 3:5 7:5 3:5 6:5 5:5 4:5
2:0 7:5 4:5 7:10 3:5 7:5 3:5 6:5 5:5 4:5 7:5
7:0 4:5 7:10 3:5 7:5 3:5 6:5 5:5 4:5 7:5 2:5
4:0 7:10 3:5 7:5 3:5 6:5 5:5 4:5 7:5 2:5 8:5
7:0 3:5 7:5 3:5 6:5 5:5 4:5 7:5 2:5 8:5 2:5
3:0 7:5 3:5 6:5 5:5 4:5 7:5 2:5 8:5 2:5 7:5
7:0 3:5 6:5 5:5 4:5 7:5 2:5 8:5 2:5 7:5 5:5
3:0 6:5 5:5 4:5 7:5 2:5 8:5 2:5 7:5 5:5 3:5
6:0 5:5 4:5 7:5 2:5 8:5 2:5 7:5 5:5 3:5 8:5
5:0 4:5 7:5 2:5 8:5 2:5 7:5 5:5 3:5 8:5 2:5
4:0 7:5 2:5 8:5 2:5 7:5 5:5 3:5 8:5 2:5 7:5
7:0 2:5 8:5 2:5 7:5 5:5 3:5 8:5 2:5 7:5 5:5
2:0 8:5 2:5 7:5 5:5 3:5 8:5 2:5 7:5 5:5 3:5
8:0 2:5 7:5 5:5 3:5 8:5 2:5 7:5 5:5 3:5 7:5
2:0 7:5 5:5 3:5 8:5 2:5 7:5 5:5 3:5 7:5 2:5
7:0 5:5 3:5 8:5 2:5 7:5 5:5 3:5 7:5 2:5 9:5
5:0 3:5 8:5 2:5 7:5 5:5 3:5 7:5 2:5 9:5 4:5
3:0 8:5 2:5 7:5 5:5 3:5 7:5 2:5 9:5 4:5 3:5
8:0 2:5 7:5 5:5 3:5 7:5 2:5 9:5 4:5 3:5 7:5
2:0 7:5 5:5 3:5 7:5 2:5 9:5 4:5 3:5 7:5 2:5
7:0 5:5 3:5 7:5 2:5 9:5 4:5 3:5 7:5 2:5 9:5
5:0 3:5 7:5 2:5 9:5 4:5 3:5 7:5 2:5 9:5 3:5
3:0 7:5 2:5 9:5 4:5 3:5 7:5 2:5 9:5 3:5 6:5
7:0 2:5 9:5 4:5 3:5 7:5 2:5 9:5 3:5 6:5 5:5
2:0 9:5 4:5 3:5 7:5 2:5 9:5 3:5 6:5 5:5 4:5
9:0 4:5 3:5 7:5 2:5 9:5 3:5 6:5 5:5 4:5 7:5
4:0 3:5 7:5 2:5 9:5 3:5 6:5 5:5 4:5 7:5 3:5
3:0 7:5 2:5 9:5 3:5 6:5 5:5 4:5 7:5 3:5 8:5
7:0 2:5 9:5 3:5 6:5 5:5 4:5 7:5 3:5 8:5 4:5
2:0 9:5 3:5 6:5 5:5 4:5 7:5 3:5 8:5 4:5 5:5
9:0 3:5 6:5 5:5 4:5 7:5 3:5 8:5 4:5 5:5 6:5
3:0 6:5 5:5 4:5 7:5 3:5 8:5 4:5 5:5 6:5 3:5
6:0 5:5 4:5 7:5 3:5 8:5 4:5 5:5 6:5 3:5 8:5
5:0 4:5 7:5 3:5 8:5 4:5 5:5 6:5 3:5 8:5 2:5
4:0 7:5 3:5 8:5 4:5 5:5 6:5 3:5 8:5 2:5 7:5
7:0 3:5 8:5 4:5 5:5 6:5 3:5 8:5 2:5 7:5 5:5
3:0 8:5 4:5 5:5 6:5 3:5 8:5 2:5 7:5 5:5 3:5
8:0 4:5 5:5 6:5 3:5 8:5 2:5 7:5 5:5 3:5 8:5
4:0 5:5 6:5 3:5 8:5 2:5 7:5 5:5 3:5 8:5 2:5
5:0 6:5 3:5 8:5 2:5 7:5 5:5 3:5 8:5 2:5 8:5
6:0 3:5 8:5 2:5 7:5 5:5 3:5 8:5 2:5 8:5 3:5
3:0 8:5 2:5 7:5 5:5 3:5 8:5 2:5 8:5 3:5 5:5
8:0 2:5 7:5 5:5 3:5 8:5 2:5 8:5 3:5 5:5 7:5
2:0 7:5 5:5 3:5 8:5 2:5 8:5 3:5 5:5 7:5 2:5
7:0 5:5 3:5 8:5 2:5 8:5 3:5 5:5 7:5 2:5 8:5
5:0 3:5 8:5 2:5 8:5 3:5 5:5 7:5 2:5 8:5 3:5
3:0 8:5 2:5 8:5 3:5 5:5 7:5 2:5 8:5 3:5 6:5
8:0 2:5 8:5 3:5 5:5 7:5 2:5 8:5 3:5 6:5 5:5
2:0 8:5 3:5 5:5 7:5 2:5 8:5 3:5 6:5 5:5 4:5
8:0 3:5 5:5 7:5 2:5 8:5 3:5 6:5 5:5 4:5 8:5
3:0 5:5 7:5 2:5 8:5 3:5 6:5 5:5 4:5 8:5 3:5
5:0 7:5 2:5 8:5 3:5 6:5 5:5 4:5 8:5 3:5 5:5
7:0 2:5 8:5 3:5 6:5 5:5 4:5 8:5 3:5 5:5 4:5
2:0 8:5 3:5 6:5 5:5 4:5 8:5 3:5 5:5 4:5 6:5
8:0 3:5 6:5 5:5 4:5 8:5 3:5 5:5 4:5 6:5 2:10
3:0 6:5 5:5 4:5 8:5 3:5 5:5 4:5 6:5 2:10 8:5
6:0 5:5 4:5 8:5 3:5 5:5 4:5 6:5 2:10 8:5 2:5
5:0 4:5 8:5 3:5 5:5 4:5 6:5 2:10 8:5 2:5 6:5
4:0 8:5 3:5 5:5 4:5 6:5 2:10 8:5 2:5 6:5 5:5
8:0 3:5 5:5 4:5 6:5 2:10 8:5 2:5 6:5 5:5 4:5
3:0 5:5 4:5 6:5 2:10 8:5 2:5 6:5 5:5 4:5 7:5
5:0 4:5 6:5 2:10 8:5 2:5 6:5 5:5 4:5 7:5 3:5
4:0 6:5 2:10 8:5 2:5 6:5 5:5 4:5 7:5 3:5 8:5
6:0 2:10 8:5 2:5 6:5 5:5 4:5 7:5 3:5 8:5 3:5
2:0 8:5 2:5 6:5 5:5 4:5 7:5 3:5 8:5 3:5 6:5
8:0 2:5 6:5 5:5 4:5 7:5 3:5 8:5 3:5 6:5 5:5
2:0 6:5 5:5 4:5 7:5 3:5 8:5 3:5 6:5 5:5 3:5
6:0 5:5 4:5 7:5 3:5 8:5 3:5 6:5 5:5 3:5 7:5
5:0 4:5 7:5 3:5 8:5 3:5 6:5 5:5 3:5 7:5 3:5
4:0 7:5 3:5 8:5 3:5 6:5 5:5 3:5 7:5 3:5 7:5
7:0 3:5 8:5 3:5 6:5 5:5 3:5 7:5 3:5 7:5 4:5
3:0 8:5 3:5 6:5 5:5 3:5 7:5 3:5 7:5 4:5 7:10
8:0 3:5 6:5 5:5 3:5 7:5 3:5 7:5 4:5 7:10 3:5
3:0 6:5 5:5 3:5 7:5 3:5 7:5 4:5 7:10 3:5 7:5
6:0 5:5 3:5 7:5 3:5 7:5 4:5 7:10 3:5 7:5 3:5
5:0 3:5 7:5 3:5 7:5 4:5 7:10 3:5 7:5 3:5 7:5
3:0 7:5 3:5 7:5 4:5 7:10 3:5 7:5 3:5 7:5 6:5
7:0 3:5 7:5 4:5 7:10 3:5 7:5 3:5 7:5 6:5 3:5
3:0 7:5 4:5 7:10 3:5 7:5 3:5 7:5 6:5 3:5 8:5
7:0 4:5 7:10 3:5 7:5 3:5 7:5 6:5 3:5 8:5 2:5
4:0 7:10 3:5 7:5 3:5 7:5 6:5 3:5 8:5 2:5 7:5
7:0 3:5 7:5 3:5 7:5 6:5 3:5 8:5 2:5 7:5 5:5
3:0 7:5 3:5 7:5 6:5 3:5 8:5 2:5 7:5 5:5 3:5
7:0 3:5 7:5 6:5 3:5 8:5 2:5 7:5 5:5 3:5 8:5
3:0 7:5 6:5 3:5 8:5 2:5 7:5 5:5 3:5 8:5 2:5
7:0 6:5 3:5 8:5 2:5 7:5 5:5 3:5 8:5 2:5 8:5
6:0 3:5 8:5 2:5 7:5 5:5 3:5 8:5 2:5 8:5 3:5
3:0 8:5 2:5 7:5 5:5 3:5 8:5 2:5 8:5 3:5 4:5
8:0 2:5 7:5 5:5 3:5 8:5 2:5 8:5 3:5 4:5 5:5
2:0 7:5 5:5 3:5 8:5 2:5 8:5 3:5 4:5 5:5 4:5
7:0 5:5 3:5 8:5 2:5 8:5 3:5 4:5 5:5 4:5 8:5
5:0 3:5 8:5 2:5 8:5 3:5 4:5 5:5 4:5 8:5 3:5
3:0 8:5 2:5 8:5 3:5 4:5 5:5 4:5 8:5 3:5 6:5
8:0 2:5 8:5 3:5 4:5 5:5 4:5 8:5 3:5 6:5 5:5
2:0 8:5 3:5 4:5 5:5 4:5 8:5 3:5 6:5 5:5 4:5
8:0 3:5 4:5 5:5 4:5 8:5 3:5 6:5 5:5 4:5 8:5
3:0 4:5 5:5 4:5 8:5 3:5 6:5 5:5 4:5 8:5 3:5
4:0 5:5 4:5 8:5 3:5 6:5 5:5 4:5 8:5 3:5 6:5
5:0 4:5 8:5 3:5 6:5 5:5 4:5 8:5 3:5 6:5 4:5
4:0 8:5 3:5 6:5 5:5 4:5 8:5 3:5 6:5 4:5 6:5
8:0 3:5 6:5 5:5 4:5 8:5 3:5 6:5 4:5 6:5 2:10
3:0 6:5 5:5 4:5 8:5 3:5 6:5 4:5 6:5 2:10 8:5
6:0 5:5 4:5 8:5 3:5 6:5 4:5 6:5 2:10 8:5 2:5
5:0 4:5 8:5 3:5 6:5 4:5 6:5 2:10 8:5 2:5 7:5
4:0 8:5 3:5 6:5 4:5 6:5 2:10 8:5 2:5 7:5 5:5
8:0 3:5 6:5 4:5 6:5 2:10 8:5 2:5 7:5 5:5 4:5
3:0 6:5 4:5 6:5 2:10 8:5 2:5 7:5 5:5 4:5 7:5
6:0 4:5 6:5 2:10 8:5 2:5 7:5 5:5 4:5 7:5 2:5
4:0 6:5 2:10 8:5 2:5 7:5 5:5 4:5 7:5 2:5 8:5
6:0 2:10 8:5 2:5 7:5 5:5 4:5 7:5 2:5 8:5 3:5
2:0 8:5 2:5 7:5 5:5 4:5 7:5 2:5 8:5 3:5 4:5
8:0 2:5 7:5 5:5 4:5 7:5 2:5 8:5 3:5 4:5 6:5
2:0 7:5 5:5 4:5 7:5 2:5 8:5 3:5 4:5 6:5 3:5
7:0 5:5 4:5 7:5 2:5 8:5 3:5 4:5 6:5 3:5 8:5
5:0 4:5 7:5 2:5 8:5 3:5 4:5 6:5 3:5 8:5 3:5
4:0 7:5 2:5 8:5 3:5 4:5 6:5 3:5 8:5 3:5 4:5
7:0 2:5 8:5 3:5 4:5 6:5 3:5 8:5 3:5 4:5 7:5
2:0 8:5 3:5 4:5 6:5 3:5 8:5 3:5 4:5 7:5 3:5
8:0 3:5 4:5 6:5 3:5 8:5 3:5 4:5 7:5 3:5 7:5
3:0 4:5 6:5 3:5 8:5 3:5 4:5 7:5 3:5 7:5 3:5
4:0 6:5 3:5 8:5 3:5 4:5 7:5 3:5 7:5 3:5 7:5
6:0 3:5 8:5 3:5 4:5 7:5 3:5 7:5 3:5 7:5 3:5
3:0 8:5 3:5 4:5 7:5 3:5 7:5 3:5 7:5 3:5 6:5
8:0 3:5 4:5 7:5 3:5 7:5 3:5 7:5 3:5 6:5 7:5
3:0 4:5 7:5 3:5 7:5 3:5 7:5 3:5 6:5 7:5 2:5
4:0 7:5 3:5 7:5 3:5 7:5 3:5 6:5 7:5 2:5 8:5
7:0 3:5 7:5 3:5 7:5 3:5 6:5 7:5 2:5 8:5 2:5
3:0 7:5 3:5 7:5 3:5 6:5 7:5 2:5 8:5 2:5 7:5
7:0 3:5 7:5 3:5 6:5 7:5 2:5 8:5 2:5 7:5 5:5
3:0 7:5 3:5 6:5 7:5 2:5 8:5 2:5 7:5 5:5 3:5
7:0 3:5 6:5 7:5 2:5 8:5 2:5 7:5 5:5 3:5 8:5
3:0 6:5 7:5 2:5 8:5 2:5 7:5 5:5 3:5 8:5 2:5
6:0 7:5 2:5 8:5 2:5 7:5 5:5 3:5 8:5 2:5 8:5
7:0 2:5 8:5 2:5 7:5 5:5 3:5 8:5 2:5 8:5 3:5
2:0 8:5 2:5 7:5 5:5 3:5 8:5 2:5 8:5 3:5 4:5
8:0 2:5 7:5 5:5 3:5 8:5 2:5 8:5 3:5 4:5 7:5
2:0 7:5 5:5 3:5 8:5 2:5 8:5 3:5 4:5 7:5 2:5
7:0 5:5 3:5 8:5 2:5 8:5 3:5 4:5 7:5 2:5 8:5
5:0 3:5 8:5 2:5 8:5 3:5 4:5 7:5 2:5 8:5 3:5
3:0 8:5 2:5 8:5 3:5 4:5 7:5 2:5 8:5 3:5 6:5
8:0 2:5 8:5 3:5 4:5 7:5 2:5 8:5 3:5 6:5 5:5
2:0 8:5 3:5 4:5 7:5 2:5 8:5 3:5 6:5 5:5 4:5
8:0 3:5 4:5 7:5 2:5 8:5 3:5 6:5 5:5 4:5 7:5
3:0 4:5 7:5 2:5 8:5 3:5 6:5 5:5 4:5 7:5 3:5
4:0 7:5 2:5 8:5 3:5 6:5 5:5 4:5 7:5 3:5 7:5
7:0 2:5 8:5 3:5 6:5 5:5 4:5 7:5 3:5 7:5 3:5
2:0 8:5 3:5 6:5 5:5 4:5 7:5 3:5 7:5 3:5 5:5
8:0 3:5 6:5 5:5 4:5 7:5 3:5 7:5 3:5 5:5 6:5
3:0 6:5 5:5 4:5 7:5 3:5 7:5 3:5 5:5 6:5 3:5
6:0 5:5 4:5 7:5 3:5 7:5 3:5 5:5 6:5 3:5 7:5
5:0 4:5 7:5 3:5 7:5 3:5 5:5 6:5 3:5 7:5 3:5
4:0 7:5 3:5 7:5 3:5 5:5 6:5 3:5 7:5 3:5 7:5
7:0 3:5 7:5 3:5 5:5 6:5 3:5 7:5 3:5 7:5 5:5
3:0 7:5 3:5 5:5 6:5 3:5 7:5 3:5 7:5 5:5 3:5
7:0 3:5 5:5 6:5 3:5 7:5 3:5 7:5 5:5 3:5 8:5
3:0 5:5 6:5 3:5 7:5 3:5 7:5 5:5 3:5 8:5 2:5
5:0 6:5 3:5 7:5 3:5 7:5 5:5 3:5 8:5 2:5 7:5
6:0 3:5 7:5 3:5 7:5 5:5 3:5 8:5 2:5 7:5 5:5
3:0 7:5 3:5 7:5 5:5 3:5 8:5 2:5 7:5 5:5 4:5
7:0 3:5 7:5 5:5 3:5 8:5 2:5 7:5 5:5 4:5 7:5
3:0 7:5 5:5 3:5 8:5 2:5 7:5 5:5 4:5 7:5 3:5
7:0 5:5 3:5 8:5 2:5 7:5 5:5 4:5 7:5 3:5 7:5
5:0 3:5 8:5 2:5 7:5 5:5 4:5 7:5 3:5 7:5 3:5
3:0 8:5 2:5 7:5 5:5 4:5 7:5 3:5 7:5 3:5 6:5
8:0 2:5 7:5 5:5 4:5 7:5 3:5 7:5 3:5 6:5 5:5
2:0 7:5 5:5 4:5 7:5 3:5 7:5 3:5 6:5 5:5 4:5
7:0 5:5 4:5 7:5 3:5 7:5 3:5 6:5 5:5 4:5 7:5
5:0 4:5 7:5 3:5 7:5 3:5 6:5 5:5 4:5 7:5 3:5
4:0 7:5 3:5 7:5 3:5 6:5 5:5 4:5 7:5 3:5 8:5
7:0 3:5 7:5 3:5 6:5 5:5 4:5 7:5 3:5 8:5 4:5
3:0 7:5 3:5 6:5 5:5 4:5 7:5 3:5 8:5 4:5 6:5
7:0 3:5 6:5 5:5 4:5 7:5 3:5 8:5 4:5 6:5 3:10
3:0 6:5 5:5 4:5 7:5 3:5 8:5 4:5 6:5 3:10 8:5
6:0 5:5 4:5 7:5 3:5 8:5 4:5 6:5 3:10 8:5 2:5
5:0 4:5 7:5 3:5 8:5 4:5 6:5 3:10 8:5 2:5 7:5
4:0 7:5 3:5 8:5 4:5 6:5 3:10 8:5 2:5 7:5 5:5
7:0 3:5 8:5 4:5 6:5 3:10 8:5 2:5 7:5 5:5 3:5
3:0 8:5 4:5 6:5 3:10 8:5 2:5 7:5 5:5 3:5 7:5
8:0 4:5 6:5 3:10 8:5 2:5 7:5 5:5 3:5 7:5 2:5
4:0 6:5 3:10 8:5 2:5 7:5 5:5 3:5 7:5 2:5 9:5
6:0 3:10 8:5 2:5 7:5 5:5 3:5 7:5 2:5 9:5 4:5
3:0 8:5 2:5 7:5 5:5 3:5 7:5 2:5 9:5 4:5 3:5
8:0 2:5 7:5 5:5 3:5 7:5 2:5 9:5 4:5 3:5 8:5
2:0 7:5 5:5 3:5 7:5 2:5 9:5 4:5 3:5 8:5 2:5
7:0 5:5 3:5 7:5 2:5 9:5 4:5 3:5 8:5 2:5 9:5
5:0 3:5 7:5 2:5 9:5 4:5 3:5 8:5 2:5 9:5 3:5
3:0 7:5 2:5 9:5 4:5 3:5 8:5 2:5 9:5 3:5 5:5
7:0 2:5 9:5 4:5 3:5 8:5 2:5 9:5 3:5 5:5 4:10
2:0 9:5 4:5 3:5 8:5 2:5 9:5 3:5 5:5 4:10 7:5
9:0 4:5 3:5 8:5 2:5 9:5 3:5 5:5 4:10 7:5 3:5
4:0 3:5 8:5 2:5 9:5 3:5 5:5 4:10 7:5 3:5 7:5
3:0 8:5 2:5 9:5 3:5 5:5 4:10 7:5 3:5 7:5 4:5
8:0 2:5 9:5 3:5 5:5 4:10 7:5 3:5 7:5 4:5 5:5
2:0 9:5 3:5 5:5 4:10 7:5 3:5 7:5 4:5 5:5 7:5
9:0 3:5 5:5 4:10 7:5 3:5 7:5 4:5 5:5 7:5 2:5
3:0 5:5 4:10 7:5 3:5 7:5 4:5 5:5 7:5 2:5 9:5
5:0 4:10 7:5 3:5 7:5 4:5 5:5 7:5 2:5 9:5 2:5
4:0 7:5 3:5 7:5 4:5 5:5 7:5 2:5 9:5 2:5 6:5
7:0 3:5 7:5 4:5 5:5 7:5 2:5 9:5 2:5 6:5 5:5
3:0 7:5 4:5 5:5 7:5 2:5 9:5 2:5 6:5 5:5 3:5
7:0 4:5 5:5 7:5 2:5 9:5 2:5 6:5 5:5 3:5 7:5
4:0 5:5 7:5 2:5 9:5 2:5 6:5 5:5 3:5 7:5 2:5
5:0 7:5 2:5 9:5 2:5 6:5 5:5 3:5 7:5 2:5 8:5
7:0 2:5 9:5 2:5 6:5 5:5 3:5 7:5 2:5 8:5 3:5
2:0 9:5 2:5 6:5 5:5 3:5 7:5 2:5 8:5 3:5 4:5
9:0 2:5 6:5 5:5 3:5 7:5 2:5 8:5 3:5 4:5 6:5
2:0 6:5 5:5 3:5 7:5 2:5 8:5 3:5 4:5 6:5 3:5
6:0 5:5 3:5 7:5 2:5 8:5 3:5 4:5 6:5 3:5 8:5
5:0 3:5 7:5 2:5 8:5 3:5 4:5 6:5 3:5 8:5 3:5
3:0 7:5 2:5 8:5 3:5 4:5 6:5 3:5 8:5 3:5 6:5
7:0 2:5 8:5 3:5 4:5 6:5 3:5 8:5 3:5 6:5 5:5
2:0 8:5 3:5 4:5 6:5 3:5 8:5 3:5 6:5 5:5 4:5
8:0 3:5 4:5 6:5 3:5 8:5 3:5 6:5 5:5 4:5 7:5
3:0 4:5 6:5 3:5 8:5 3:5 6:5 5:5 4:5 7:5 3:5
4:0 6:5 3:5 8:5 3:5 6:5 5:5 4:5 7:5 3:5 7:5
6:0 3:5 8:5 3:5 6:5 5:5 4:5 7:5 3:5 7:5 4:5
3:0 8:5 3:5 6:5 5:5 4:5 7:5 3:5 7:5 4:5 6:5
8:0 3:5 6:5 5:5 4:5 7:5 3:5 7:5 4:5 6:5 2:10
3:0 6:5 5:5 4:5 7:5 3:5 7:5 4:5 6:5 2:10 7:5
6:0 5:5 4:5 7:5 3:5 7:5 4:5 6:5 2:10 7:5 4:5
5:0 4:5 7:5 3:5 7:5 4:5 6:5 2:10 7:5 4:5 7:10
4:0 7:5 3:5 7:5 4:5 6:5 2:10 7:5 4:5 7:10 2:5
7:0 3:5 7:5 4:5 6:5 2:10 7:5 4:5 7:10 2:5 7:5
3:0 7:5 4:5 6:5 2:10 7:5 4:5 7:10 2:5 7:5 3:5
7:0 4:5 6:5 2:10 7:5 4:5 7:10 2:5 7:5 3:5 6:5
4:0 6:5 2:10 7:5 4:5 7:10 2:5 7:5 3:5 6:5 3:10
6:0 2:10 7:5 4:5 7:10 2:5 7:5 3:5 6:5 3:10 8:5
2:0 7:5 4:5 7:10 2:5 7:5 3:5 6:5 3:10 8:5 2:5
7:0 4:5 7:10 2:5 7:5 3:5 6:5 3:10 8:5 2:5 7:5
4:0 7:10 2:5 7:5 3:5 6:5 3:10 8:5 2:5 7:5 4:5
7:0 2:5 7:5 3:5 6:5 3:10 8:5 2:5 7:5 4:5 5:5
2:0 7:5 3:5 6:5 3:10 8:5 2:5 7:5 4:5 5:5 6:5
7:0 3:5 6:5 3:10 8:5 2:5 7:5 4:5 5:5 6:5 3:5
3:0 6:5 3:10 8:5 2:5 7:5 4:5 5:5 6:5 3:5 8:5
6:0 3:10 8:5 2:5 7:5 4:5 5:5 6:5 3:5 8:5 3:5
3:0 8:5 2:5 7:5 4:5 5:5 6:5 3:5 8:5 3:5 5:5
8:0 2:5 7:5 4:5 5:5 6:5 3:5 8:5 3:5 5:5 6:5
2:0 7:5 4:5 5:5 6:5 3:5 8:5 3:5 5:5 6:5 4:5
7:0 4:5 5:5 6:5 3:5 8:5 3:5 5:5 6:5 4:5 7:5
4:0 5:5 6:5 3:5 8:5 3:5 5:5 6:5 4:5 7:5 3:5
5:0 6:5 3:5 8:5 3:5 5:5 6:5 4:5 7:5 3:5 7:5
6:0 3:5 8:5 3:5 5:5 6:5 4:5 7:5 3:5 7:5 4:5
3:0 8:5 3:5 5:5 6:5 4:5 7:5 3:5 7:5 4:5 5:5
8:0 3:5 5:5 6:5 4:5 7:5 3:5 7:5 4:5 5:5 6:5
3:0 5:5 6:5 4:5 7:5 3:5 7:5 4:5 5:5 6:5 3:5
5:0 6:5 4:5 7:5 3:5 7:5 4:5 5:5 6:5 3:5 7:5
6:0 4:5 7:5 3:5 7:5 4:5 5:5 6:5 3:5 7:5 3:5
4:0 7:5 3:5 7:5 4:5 5:5 6:5 3:5 7:5 3:5 6:5
7:0 3:5 7:5 4:5 5:5 6:5 3:5 7:5 3:5 6:5 5:5
3:0 7:5 4:5 5:5 6:5 3:5 7:5 3:5 6:5 5:5 3:5
7:0 4:5 5:5 6:5 3:5 7:5 3:5 6:5 5:5 3:5 8:5
4:0 5:5 6:5 3:5 7:5 3:5 6:5 5:5 3:5 8:5 2:5
5:0 6:5 3:5 7:5 3:5 6:5 5:5 3:5 8:5 2:5 8:5
6:0 3:5 7:5 3:5 6:5 5:5 3:5 8:5 2:5 8:5 3:5
3:0 7:5 3:5 6:5 5:5 3:5 8:5 2:5 8:5 3:5 5:5
7:0 3:5 6:5 5:5 3:5 8:5 2:5 8:5 3:5 5:5 7:5
3:0 6:5 5:5 3:5 8:5 2:5 8:5 3:5 5:5 7:5 3:5
6:0 5:5 3:5 8:5 2:5 8:5 3:5 5:5 7:5 3:5 8:5
5:0 3:5 8:5 2:5 8:5 3:5 5:5 7:5 3:5 8:5 3:5
3:0 8:5 2:5 8:5 3:5 5:5 7:5 3:5 8:5 3:5 7:5
8:0 2:5 8:5 3:5 5:5 7:5 3:5 8:5 3:5 7:5 3:5
2:0 8:5 3:5 5:5 7:5 3:5 8:5 3:5 7:5 3:5 5:5
8:0 3:5 5:5 7:5 3:5 8:5 3:5 7:5 3:5 5:5 7:5
3:0 5:5 7:5 3:5 8:5 3:5 7:5 3:5 5:5 7:5 3:5
5:0 7:5 3:5 8:5 3:5 7:5 3:5 5:5 7:5 3:5 7:5
7:0 3:5 8:5 3:5 7:5 3:5 5:5 7:5 3:5 7:5 3:5
3:0 8:5 3:5 7:5 3:5 5:5 7:5 3:5 7:5 3:5 6:5
8:0 3:5 7:5 3:5 5:5 7:5 3:5 7:5 3:5 6:5 2:10
3:0 7:5 3:5 5:5 7:5 3:5 7:5 3:5 6:5 2:10 8:5
7:0 3:5 5:5 7:5 3:5 7:5 3:5 6:5 2:10 8:5 2:5
3:0 5:5 7:5 3:5 7:5 3:5 6:5 2:10 8:5 2:5 7:5
5:0 7:5 3:5 7:5 3:5 6:5 2:10 8:5 2:5 7:5 5:5
7:0 3:5 7:5 3:5 6:5 2:10 8:5 2:5 7:5 5:5 3:5
3:0 7:5 3:5 6:5 2:10 8:5 2:5 7:5 5:5 3:5 7:5
7:0 3:5 6:5 2:10 8:5 2:5 7:5 5:5 3:5 7:5 2:5
3:0 6:5 2:10 8:5 2:5 7:5 5:5 3:5 7:5 2:5 9:5
6:0 2:10 8:5 2:5 7:5 5:5 3:5 7:5 2:5 9:5 4:5
2:0 8:5 2:5 7:5 5:5 3:5 7:5 2:5 9:5 4:5 3:5
8:0 2:5 7:5 5:5 3:5 7:5 2:5 9:5 4:5 3:5 7:5
2:0 7:5 5:5 3:5 7:5 2:5 9:5 4:5 3:5 7:5 3:5
7:0 5:5 3:5 7:5 2:5 9:5 4:5 3:5 7:5 3:5 8:5
5:0 3:5 7:5 2:5 9:5 4:5 3:5 7:5 3:5 8:5 3:5
3:0 7:5 2:5 9:5 4:5 3:5 7:5 3:5 8:5 3:5 5:5
7:0 2:5 9:5 4:5 3:5 7:5 3:5 8:5 3:5 5:5 4:10
2:0 9:5 4:5 3:5 7:5 3:5 8:5 3:5 5:5 4:10 8:5
9:0 4:5 3:5 7:5 3:5 8:5 3:5 5:5 4:10 8:5 3:5
4:0 3:5 7:5 3:5 8:5 3:5 5:5 4:10 8:5 3:5 8:5
3:0 7:5 3:5 8:5 3:5 5:5 4:10 8:5 3:5 8:5 3:5
7:0 3:5 8:5 3:5 5:5 4:10 8:5 3:5 8:5 3:5 5:5
3:0 8:5 3:5 5:5 4:10 8:5 3:5 8:5 3:5 5:5 6:5
8:0 3:5 5:5 4:10 8:5 3:5 8:5 3:5 5:5 6:5 2:5
3:0 5:5 4:10 8:5 3:5 8:5 3:5 5:5 6:5 2:5 8:5
5:0 4:10 8:5 3:5 8:5 3:5 5:5 6:5 2:5 8:5 2:5
4:0 8:5 3:5 8:5 3:5 5:5 6:5 2:5 8:5 2:5 7:5
8:0 3:5 8:5 3:5 5:5 6:5 2:5 8:5 2:5 7:5 5:5
3:0 8:5 3:5 5:5 6:5 2:5 8:5 2:5 7:5 5:5 3:5
8:0 3:5 5:5 6:5 2:5 8:5 2:5 7:5 5:5 3:5 7:5
3:0 5:5 6:5 2:5 8:5 2:5 7:5 5:5 3:5 7:5 2:5
5:0 6:5 2:5 8:5 2:5 7:5 5:5 3:5 7:5 2:5 8:5
6:0 2:5 8:5 2:5 7:5 5:5 3:5 7:5 2:5 8:5 3:5
2:0 8:5 2:5 7:5 5:5 3:5 7:5 2:5 8:5 3:5 4:5
8:0 2:5 7:5 5:5 3:5 7:5 2:5 8:5 3:5 4:5 6:5
2:0 7:5 5:5 3:5 7:5 2:5 8:5 3:5 4:5 6:5 3:5
7:0 5:5 3:5 7:5 2:5 8:5 3:5 4:5 6:5 3:5 8:5
5:0 3:5 7:5 2:5 8:5 3:5 4:5 6:5 3:5 8:5 3:5
3:0 7:5 2:5 8:5 3:5 4:5 6:5 3:5 8:5 3:5 5:5
7:0 2:5 8:5 3:5 4:5 6:5 3:5 8:5 3:5 5:5 4:10
2:0 8:5 3:5 4:5 6:5 3:5 8:5 3:5 5:5 4:10 7:5
8:0 3:5 4:5 6:5 3:5 8:5 3:5 5:5 4:10 7:5 3:5
3:0 4:5 6:5 3:5 8:5 3:5 5:5 4:10 7:5 3:5 5:5
4:0 6:5 3:5 8:5 3:5 5:5 4:10 7:5 3:5 5:5 6:5
6:0 3:5 8:5 3:5 5:5 4:10 7:5 3:5 5:5 6:5 4:5
3:0 8:5 3:5 5:5 4:10 7:5 3:5 5:5 6:5 4:5 7:5
8:0 3:5 5:5 4:10 7:5 3:5 5:5 6:5 4:5 7:5 2:5
3:0 5:5 4:10 7:5 3:5 5:5 6:5 4:5 7:5 2:5 9:5
5:0 4:10 7:5 3:5 5:5 6:5 4:5 7:5 2:5 9:5 2:5
4:0 7:5 3:5 5:5 6:5 4:5 7:5 2:5 9:5 2:5 5:5
7:0 3:5 5:5 6:5 4:5 7:5 2:5 9:5 2:5 5:5 6:5
3:0 5:5 6:5 4:5 7:5 2:5 9:5 2:5 5:5 6:5 3:5
5:0 6:5 4:5 7:5 2:5 9:5 2:5 5:5 6:5 3:5 8:5
6:0 4:5 7:5 2:5 9:5 2:5 5:5 6:5 3:5 8:5 2:5
4:0 7:5 2:5 9:5 2:5 5:5 6:5 3:5 8:5 2:5 8:5
7:0 2:5 9:5 2:5 5:5 6:5 3:5 8:5 2:5 8:5 5:5
2:0 9:5 2:5 5:5 6:5 3:5 8:5 2:5 8:5 5:5 4:5
9:0 2:5 5:5 6:5 3:5 8:5 2:5 8:5 5:5 4:5 8:5
2:0 5:5 6:5 3:5 8:5 2:5 8:5 5:5 4:5 8:5 3:5
5:0 6:5 3:5 8:5 2:5 8:5 5:5 4:5 8:5 3:5 8:5
6:0 3:5 8:5 2:5 8:5 5:5 4:5 8:5 3:5 8:5 3:5
3:0 8:5 2:5 8:5 5:5 4:5 8:5 3:5 8:5 3:5 5:5
8:0 2:5 8:5 5:5 4:5 8:5 3:5 8:5 3:5 5:5 4:10
2:0 8:5 5:5 4:5 8:5 3:5 8:5 3:5 5:5 4:10 7:5
8:0 5:5 4:5 8:5 3:5 8:5 3:5 5:5 4:10 7:5 3:5
5:0 4:5 8:5 3:5 8:5 3:5 5:5 4:10 7:5 3:5 7:5
4:0 8:5 3:5 8:5 3:5 5:5 4:10 7:5 3:5 7:5 5:5
8:0 3:5 8:5 3:5 5:5 4:10 7:5 3:5 7:5 5:5 4:5
3:0 8:5 3:5 5:5 4:10 7:5 3:5 7:5 5:5 4:5 6:5
8:0 3:5 5:5 4:10 7:5 3:5 7:5 5:5 4:5 6:5 2:5
3:0 5:5 4:10 7:5 3:5 7:5 5:5 4:5 6:5 2:5 8:5
5:0 4:10 7:5 3:5 7:5 5:5 4:5 6:5 2:5 8:5 3:5
4:0 7:5 3:5 7:5 5:5 4:5 6:5 2:5 8:5 3:5 6:5
7:0 3:5 7:5 5:5 4:5 6:5 2:5 8:5 3:5 6:5 5:5
3:0 7:5 5:5 4:5 6:5 2:5 8:5 3:5 6:5 5:5 2:5
7:0 5:5 4:5 6:5 2:5 8:5 3:5 6:5 5:5 2:5 8:5
5:0 4:5 6:5 2:5 8:5 3:5 6:5 5:5 2:5 8:5 2:5
4:0 6:5 2:5 8:5 3:5 6:5 5:5 2:5 8:5 2:5 8:5
6:0 2:5 8:5 3:5 6:5 5:5 2:5 8:5 2:5 8:5 3:5
2:0 8:5 3:5 6:5 5:5 2:5 8:5 2:5 8:5 3:5 5:5
8:0 3:5 6:5 5:5 2:5 8:5 2:5 8:5 3:5 5:5 7:5
3:0 6:5 5:5 2:5 8:5 2:5 8:5 3:5 5:5 7:5 3:5
6:0 5:5 2:5 8:5 2:5 8:5 3:5 5:5 7:5 3:5 7:5
5:0 2:5 8:5 2:5 8:5 3:5 5:5 7:5 3:5 7:5 3:5
2:0 8:5 2:5 8:5 3:5 5:5 7:5 3:5 7:5 3:5 5:5
8:0 2:5 8:5 3:5 5:5 7:5 3:5 7:5 3:5 5:5 6:5
2:0 8:5 3:5 5:5 7:5 3:5 7:5 3:5 5:5 6:5 2:5
8:0 3:5 5:5 7:5 3:5 7:5 3:5 5:5 6:5 2:5 8:5
3:0 5:5 7:5 3:5 7:5 3:5 5:5 6:5 2:5 8:5 3:5
5:0 7:5 3:5 7:5 3:5 5:5 6:5 2:5 8:5 3:5 6:5
7:0 3:5 7:5 3:5 5:5 6:5 2:5 8:5 3:5 6:5 5:5
3:0 7:5 3:5 5:5 6:5 2:5 8:5 3:5 6:5 5:5 4:5
7:0 3:5 5:5 6:5 2:5 8:5 3:5 6:5 5:5 4:5 7:5
3:0 5:5 6:5 2:5 8:5 3:5 6:5 5:5 4:5 7:5 3:5
5:0 6:5 2:5 8:5 3:5 6:5 5:5 4:5 7:5 3:5 7:5
6:0 2:5 8:5 3:5 6:5 5:5 4:5 7:5 3:5 7:5 4:5
2:0 8:5 3:5 6:5 5:5 4:5 7:5 3:5 7:5 4:5 6:5
8:0 3:5 6:5 5:5 4:5 7:5 3:5 7:5 4:5 6:5 3:10
3:0 6:5 5:5 4:5 7:5 3:5 7:5 4:5 6:5 3:10 8:5
6:0 5:5 4:5 7:5 3:5 7:5 4:5 6:5 3:10 8:5 2:5
5:0 4:5 7:5 3:5 7:5 4:5 6:5 3:10 8:5 2:5 8:5
4:0 7:5 3:5 7:5 4:5 6:5 3:10 8:5 2:5 8:5 3:5
7:0 3:5 7:5 4:5 6:5 3:10 8:5 2:5 8:5 3:5 4:5
3:0 7:5 4:5 6:5 3:10 8:5 2:5 8:5 3:5 4:5 6:5
7:0 4:5 6:5 3:10 8:5 2:5 8:5 3:5 4:5 6:5 3:5
4:0 6:5 3:10 8:5 2:5 8:5 3:5 4:5 6:5 3:5 8:5
6:0 3:10 8:5 2:5 8:5 3:5 4:5 6:5 3:5 8:5 3:5
3:0 8:5 2:5 8:5 3:5 4:5 6:5 3:5 8:5 3:5 4:5
8:0 2:5 8:5 3:5 4:5 6:5 3:5 8:5 3:5 4:5 7:5
2:0 8:5 3:5 4:5 6:5 3:5 8:5 3:5 4:5 7:5 3:5
8:0 3:5 4:5 6:5 3:5 8:5 3:5 4:5 7:5 3:5 8:5
3:0 4:5 6:5 3:5 8:5 3:5 4:5 7:5 3:5 8:5 3:5
4:0 6:5 3:5 8:5 3:5 4:5 7:5 3:5 8:5 3:5 7:5
6:0 3:5 8:5 3:5 4:5 7:5 3:5 8:5 3:5 7:5 3:5
3:0 8:5 3:5 4:5 7:5 3:5 8:5 3:5 7:5 3:5 5:5
8:0 3:5 4:5 7:5 3:5 8:5 3:5 7:5 3:5 5:5 6:5
3:0 4:5 7:5 3:5 8:5 3:5 7:5 3:5 5:5 6:5 2:5
4:0 7:5 3:5 8:5 3:5 7:5 3:5 5:5 6:5 2:5 8:5
7:0 3:5 8:5 3:5 7:5 3:5 5:5 6:5 2:5 8:5 3:5
3:0 8:5 3:5 7:5 3:5 5:5 6:5 2:5 8:5 3:5 7:5
8:0 3:5 7:5 3:5 5:5 6:5 2:5 8:5 3:5 7:5 5:5
3:0 7:5 3:5 5:5 6:5 2:5 8:5 3:5 7:5 5:5 2:5
7:0 3:5 5:5 6:5 2:5 8:5 3:5 7:5 5:5 2:5 8:5
3:0 5:5 6:5 2:5 8:5 3:5 7:5 5:5 2:5 8:5 2:5
5:0 6:5 2:5 8:5 3:5 7:5 5:5 2:5 8:5 2:5 7:5
6:0 2:5 8:5 3:5 7:5 5:5 2:5 8:5 2:5 7:5 5:5
2:0 8:5 3:5 7:5 5:5 2:5 8:5 2:5 7:5 5:5 3:5
8:0 3:5 7:5 5:5 2:5 8:5 2:5 7:5 5:5 3:5 7:5
3:0 7:5 5:5 2:5 8:5 2:5 7:5 5:5 3:5 7:5 2:5
7:0 5:5 2:5 8:5 2:5 7:5 5:5 3:5 7:5 2:5 9:5
5:0 2:5 8:5 2:5 7:5 5:5 3:5 7:5 2:5 9:5 3:5
2:0 8:5 2:5 7:5 5:5 3:5 7:5 2:5 9:5 3:5 6:5
8:0 2:5 7:5 5:5 3:5 7:5 2:5 9:5 3:5 6:5 4:10
2:0 7:5 5:5 3:5 7:5 2:5 9:5 3:5 6:5 4:10 7:5
7:0 5:5 3:5 7:5 2:5 9:5 3:5 6:5 4:10 7:5 3:5
5:0 3:5 7:5 2:5 9:5 3:5 6:5 4:10 7:5 3:5 7:5
3:0 7:5 2:5 9:5 3:5 6:5 4:10 7:5 3:5 7:5 4:5
7:0 2:5 9:5 3:5 6:5 4:10 7:5 3:5 7:5 4:5 5:5
2:0 9:5 3:5 6:5 4:10 7:5 3:5 7:5 4:5 5:5 8:5
9:0 3:5 6:5 4:10 7:5 3:5 7:5 4:5 5:5 8:5 3:5
3:0 6:5 4:10 7:5 3:5 7:5 4:5 5:5 8:5 3:5 7:5
6:0 4:10 7:5 3:5 7:5 4:5 5:5 8:5 3:5 7:5 3:5
4:0 7:5 3:5 7:5 4:5 5:5 8:5 3:5 7:5 3:5 7:5
7:0 3:5 7:5 4:5 5:5 8:5 3:5 7:5 3:5 7:5 5:5
3:0 7:5 4:5 5:5 8:5 3:5 7:5 3:5 7:5 5:5 3:5
7:0 4:5 5:5 8:5 3:5 7:5 3:5 7:5 5:5 3:5 7:5
4:0 5:5 8:5 3:5 7:5 3:5 7:5 5:5 3:5 7:5 2:5
5:0 8:5 3:5 7:5 3:5 7:5 5:5 3:5 7:5 2:5 8:5
8:0 3:5 7:5 3:5 7:5 5:5 3:5 7:5 2:5 8:5 4:5
3:0 7:5 3:5 7:5 5:5 3:5 7:5 2:5 8:5 4:5 6:10
7:0 3:5 7:5 5:5 3:5 7:5 2:5 8:5 4:5 6:10 3:5
3:0 7:5 5:5 3:5 7:5 2:5 8:5 4:5 6:10 3:5 8:5
7:0 5:5 3:5 7:5 2:5 8:5 4:5 6:10 3:5 8:5 3:5
5:0 3:5 7:5 2:5 8:5 4:5 6:10 3:5 8:5 3:5 6:5
3:0 7:5 2:5 8:5 4:5 6:10 3:5 8:5 3:5 6:5 5:5
7:0 2:5 8:5 4:5 6:10 3:5 8:5 3:5 6:5 5:5 4:5
2:0 8:5 4:5 6:10 3:5 8:5 3:5 6:5 5:5 4:5 7:5
8:0 4:5 6:10 3:5 8:5 3:5 6:5 5:5 4:5 7:5 2:5
4:0 6:10 3:5 8:5 3:5 6:5 5:5 4:5 7:5 2:5 7:5
6:0 3:5 8:5 3:5 6:5 5:5 4:5 7:5 2:5 7:5 4:5
3:0 8:5 3:5 6:5 5:5 4:5 7:5 2:5 7:5 4:5 5:5
8:0 3:5 6:5 5:5 4:5 7:5 2:5 7:5 4:5 5:5 7:5
3:0 6:5 5:5 4:5 7:5 2:5 7:5 4:5 5:5 7:5 2:5
6:0 5:5 4:5 7:5 2:5 7:5 4:5 5:5 7:5 2:5 8:5
5:0 4:5 7:5 2:5 7:5 4:5 5:5 7:5 2:5 8:5 2:5
4:0 7:5 2:5 7:5 4:5 5:5 7:5 2:5 8:5 2:5 7:5
7:0 2:5 7:5 4:5 5:5 7:5 2:5 8:5 2:5 7:5 5:5
2:0 7:5 4:5 5:5 7:5 2:5 8:5 2:5 7:5 5:5 3:5
7:0 4:5 5:5 7:5 2:5 8:5 2:5 7:5 5:5 3:5 7:5
4:0 5:5 7:5 2:5 8:5 2:5 7:5 5:5 3:5 7:5 2:5
5:0 7:5 2:5 8:5 2:5 7:5 5:5 3:5 7:5 2:5 8:5
7:0 2:5 8:5 2:5 7:5 5:5 3:5 7:5 2:5 8:5 4:5
2:0 8:5 2:5 7:5 5:5 3:5 7:5 2:5 8:5 4:5 3:5
8:0 2:5 7:5 5:5 3:5 7:5 2:5 8:5 4:5 3:5 8:5
2:0 7:5 5:5 3:5 7:5 2:5 8:5 4:5 3:5 8:5 2:5
7:0 5:5 3:5 7:5 2:5 8:5 4:5 3:5 8:5 2:5 8:5
5:0 3:5 7:5 2:5 8:5 4:5 3:5 8:5 2:5 8:5 3:5
3:0 7:5 2:5 8:5 4:5 3:5 8:5 2:5 8:5 3:5 6:5
7:0 2:5 8:5 4:5 3:5 8:5 2:5 8:5 3:5 6:5 4:10
2:0 8:5 4:5 3:5 8:5 2:5 8:5 3:5 6:5 4:10 7:5
8:0 4:5 3:5 8:5 2:5 8:5 3:5 6:5 4:10 7:5 2:5
4:0 3:5 8:5 2:5 8:5 3:5 6:5 4:10 7:5 2:5 8:5
3:0 8:5 2:5 8:5 3:5 6:5 4:10 7:5 2:5 8:5 2:5
8:0 2:5 8:5 3:5 6:5 4:10 7:5 2:5 8:5 2:5 7:5
2:0 8:5 3:5 6:5 4:10 7:5 2:5 8:5 2:5 7:5 6:5
8:0 3:5 6:5 4:10 7:5 2:5 8:5 2:5 7:5 6:5 2:5
3:0 6:5 4:10 7:5 2:5 8:5 2:5 7:5 6:5 2:5 9:5
6:0 4:10 7:5 2:5 8:5 2:5 7:5 6:5 2:5 9:5 2:5
4:0 7:5 2:5 8:5 2:5 7:5 6:5 2:5 9:5 2:5 6:5
7:0 2:5 8:5 2:5 7:5 6:5 2:5 9:5 2:5 6:5 5:5
2:0 8:5 2:5 7:5 6:5 2:5 9:5 2:5 6:5 5:5 3:5
8:0 2:5 7:5 6:5 2:5 9:5 2:5 6:5 5:5 3:5 8:5
2:0 7:5 6:5 2:5 9:5 2:5 6:5 5:5 3:5 8:5 2:5
7:0 6:5 2:5 9:5 2:5 6:5 5:5 3:5 8:5 2:5 9:5
6:0 2:5 9:5 2:5 6:5 5:5 3:5 8:5 2:5 9:5 3:5
2:0 9:5 2:5 6:5 5:5 3:5 8:5 2:5 9:5 3:5 4:5
9:0 2:5 6:5 5:5 3:5 8:5 2:5 9:5 3:5 4:5 6:5
2:0 6:5 5:5 3:5 8:5 2:5 9:5 3:5 4:5 6:5 3:5
6:0 5:5 3:5 8:5 2:5 9:5 3:5 4:5 6:5 3:5 8:5
5:0 3:5 8:5 2:5 9:5 3:5 4:5 6:5 3:5 8:5 3:5
3:0 8:5 2:5 9:5 3:5 4:5 6:5 3:5 8:5 3:5 6:5
8:0 2:5 9:5 3:5 4:5 6:5 3:5 8:5 3:5 6:5 5:5
2:0 9:5 3:5 4:5 6:5 3:5 8:5 3:5 6:5 5:5 4:5
9:0 3:5 4:5 6:5 3:5 8:5 3:5 6:5 5:5 4:5 7:5
3:0 4:5 6:5 3:5 8:5 3:5 6:5 5:5 4:5 7:5 3:5
4:0 6:5 3:5 8:5 3:5 6:5 5:5 4:5 7:5 3:5 6:5
6:0 3:5 8:5 3:5 6:5 5:5 4:5 7:5 3:5 6:5 2:20
3:0 8:5 3:5 6:5 5:5 4:5 7:5 3:5 6:5 2:20 8:5
8:0 3:5 6:5 5:5 4:5 7:5 3:5 6:5 2:20 8:5 2:5
3:0 6:5 5:5 4:5 7:5 3:5 6:5 2:20 8:5 2:5 6:5
6:0 5:5 4:5 7:5 3:5 6:5 2:20 8:5 2:5 6:5 3:10
5:0 4:5 7:5 3:5 6:5 2:20 8:5 2:5 6:5 3:10 7:5
4:0 7:5 3:5 6:5 2:20 8:5 2:5 6:5 3:10 7:5 2:5
7:0 3:5 6:5 2:20 8:5 2:5 6:5 3:10 7:5 2:5 9:5
3:0 6:5 2:20 8:5 2:5 6:5 3:10 7:5 2:5 9:5 3:5
6:0 2:20 8:5 2:5 6:5 3:10 7:5 2:5 9:5 3:5 4:5
2:0 8:5 2:5 6:5 3:10 7:5 2:5 9:5 3:5 4:5 7:5
8:0 2:5 6:5 3:10 7:5 2:5 9:5 3:5 4:5 7:5 3:5
2:0 6:5 3:10 7:5 2:5 9:5 3:5 4:5 7:5 3:5 7:5
6:0 3:10 7:5 2:5 9:5 3:5 4:5 7:5 3:5 7:5 3:5
3:0 7:5 2:5 9:5 3:5 4:5 7:5 3:5 7:5 3:5 7:5
7:0 2:5 9:5 3:5 4:5 7:5 3:5 7:5 3:5 7:5 3:5
2:0 9:5 3:5 4:5 7:5 3:5 7:5 3:5 7:5 3:5 6:5
9:0 3:5 4:5 7:5 3:5 7:5 3:5 7:5 3:5 6:5 2:10
3:0 4:5 7:5 3:5 7:5 3:5 7:5 3:5 6:5 2:10 8:5
4:0 7:5 3:5 7:5 3:5 7:5 3:5 6:5 2:10 8:5 3:5
7:0 3:5 7:5 3:5 7:5 3:5 6:5 2:10 8:5 3:5 7:5
3:0 7:5 3:5 7:5 3:5 6:5 2:10 8:5 3:5 7:5 6:5
7:0 3:5 7:5 3:5 6:5 2:10 8:5 3:5 7:5 6:5 2:5
3:0 7:5 3:5 6:5 2:10 8:5 3:5 7:5 6:5 2:5 8:5
7:0 3:5 6:5 2:10 8:5 3:5 7:5 6:5 2:5 8:5 2:5
3:0 6:5 2:10 8:5 3:5 7:5 6:5 2:5 8:5 2:5 7:5
6:0 2:10 8:5 3:5 7:5 6:5 2:5 8:5 2:5 7:5 5:5
2:0 8:5 3:5 7:5 6:5 2:5 8:5 2:5 7:5 5:5 2:5
8:0 3:5 7:5 6:5 2:5 8:5 2:5 7:5 5:5 2:5 8:5
3:0 7:5 6:5 2:5 8:5 2:5 7:5 5:5 2:5 8:5 3:5
7:0 6:5 2:5 8:5 2:5 7:5 5:5 2:5 8:5 3:5 8:5
6:0 2:5 8:5 2:5 7:5 5:5 2:5 8:5 3:5 8:5 3:5
2:0 8:5 2:5 7:5 5:5 2:5 8:5 3:5 8:5 3:5 4:5
8:0 2:5 7:5 5:5 2:5 8:5 3:5 8:5 3:5 4:5 6:5
2:0 7:5 5:5 2:5 8:5 3:5 8:5 3:5 4:5 6:5 2:5
7:0 5:5 2:5 8:5 3:5 8:5 3:5 4:5 6:5 2:5 8:5
5:0 2:5 8:5 3:5 8:5 3:5 4:5 6:5 2:5 8:5 3:5
2:0 8:5 3:5 8:5 3:5 4:5 6:5 2:5 8:5 3:5 5:5
8:0 3:5 8:5 3:5 4:5 6:5 2:5 8:5 3:5 5:5 6:5
3:0 8:5 3:5 4:5 6:5 2:5 8:5 3:5 5:5 6:5 3:5
8:0 3:5 4:5 6:5 2:5 8:5 3:5 5:5 6:5 3:5 8:5
3:0 4:5 6:5 2:5 8:5 3:5 5:5 6:5 3:5 8:5 3:5
4:0 6:5 2:5 8:5 3:5 5:5 6:5 3:5 8:5 3:5 7:5
6:0 2:5 8:5 3:5 5:5 6:5 3:5 8:5 3:5 7:5 3:5
2:0 8:5 3:5 5:5 6:5 3:5 8:5 3:5 7:5 3:5 5:5
8:0 3:5 5:5 6:5 3:5 8:5 3:5 7:5 3:5 5:5 6:5
3:0 5:5 6:5 3:5 8:5 3:5 7:5 3:5 5:5 6:5 3:5
5:0 6:5 3:5 8:5 3:5 7:5 3:5 5:5 6:5 3:5 8:5
6:0 3:5 8:5 3:5 7:5 3:5 5:5 6:5 3:5 8:5 2:5
3:0 8:5 3:5 7:5 3:5 5:5 6:5 3:5 8:5 2:5 6:5
8:0 3:5 7:5 3:5 5:5 6:5 3:5 8:5 2:5 6:5 3:10
3:0 7:5 3:5 5:5 6:5 3:5 8:5 2:5 6:5 3:10 8:5
7:0 3:5 5:5 6:5 3:5 8:5 2:5 6:5 3:10 8:5 2:5
3:0 5:5 6:5 3:5 8:5 2:5 6:5 3:10 8:5 2:5 9:5
5:0 6:5 3:5 8:5 2:5 6:5 3:10 8:5 2:5 9:5 3:5
6:0 3:5 8:5 2:5 6:5 3:10 8:5 2:5 9:5 3:5 4:5
3:0 8:5 2:5 6:5 3:10 8:5 2:5 9:5 3:5 4:5 6:5
8:0 2:5 6:5 3:10 8:5 2:5 9:5 3:5 4:5 6:5 3:5
2:0 6:5 3:10 8:5 2:5 9:5 3:5 4:5 6:5 3:5 8:5
6:0 3:10 8:5 2:5 9:5 3:5 4:5 6:5 3:5 8:5 3:5
3:0 8:5 2:5 9:5 3:5 4:5 6:5 3:5 8:5 3:5 5:5
8:0 2:5 9:5 3:5 4:5 6:5 3:5 8:5 3:5 5:5 7:5
2:0 9:5 3:5 4:5 6:5 3:5 8:5 3:5 5:5 7:5 3:5
9:0 3:5 4:5 6:5 3:5 8:5 3:5 5:5 7:5 3:5 7:5
3:0 4:5 6:5 3:5 8:5 3:5 5:5 7:5 3:5 7:5 2:5
4:0 6:5 3:5 8:5 3:5 5:5 7:5 3:5 7:5 2:5 7:5
6:0 3:5 8:5 3:5 5:5 7:5 3:5 7:5 2:5 7:5 4:5
3:0 8:5 3:5 5:5 7:5 3:5 7:5 2:5 7:5 4:5 5:5
8:0 3:5 5:5 7:5 3:5 7:5 2:5 7:5 4:5 5:5 6:5
3:0 5:5 7:5 3:5 7:5 2:5 7:5 4:5 5:5 6:5 2:5
5:0 7:5 3:5 7:5 2:5 7:5 4:5 5:5 6:5 2:5 8:5
7:0 3:5 7:5 2:5 7:5 4:5 5:5 6:5 2:5 8:5 2:5
3:0 7:5 2:5 7:5 4:5 5:5 6:5 2:5 8:5 2:5 8:5
7:0 2:5 7:5 4:5 5:5 6:5 2:5 8:5 2:5 8:5 5:5
2:0 7:5 4:5 5:5 6:5 2:5 8:5 2:5 8:5 5:5 3:5
7:0 4:5 5:5 6:5 2:5 8:5 2:5 8:5 5:5 3:5 7:5
4:0 5:5 6:5 2:5 8:5 2:5 8:5 5:5 3:5 7:5 2:5
5:0 6:5 2:5 8:5 2:5 8:5 5:5 3:5 7:5 2:5 8:5
6:0 2:5 8:5 2:5 8:5 5:5 3:5 7:5 2:5 8:5 3:5
2:0 8:5 2:5 8:5 5:5 3:5 7:5 2:5 8:5 3:5 4:5
8:0 2:5 8:5 5:5 3:5 7:5 2:5 8:5 3:5 4:5 7:5
2:0 8:5 5:5 3:5 7:5 2:5 8:5 3:5 4:5 7:5 3:5
8:0 5:5 3:5 7:5 2:5 8:5 3:5 4:5 7:5 3:5 8:5
5:0 3:5 7:5 2:5 8:5 3:5 4:5 7:5 3:5 8:5 3:5
3:0 7:5 2:5 8:5 3:5 4:5 7:5 3:5 8:5 3:5 6:5
7:0 2:5 8:5 3:5 4:5 7:5 3:5 8:5 3:5 6:5 4:5
2:0 8:5 3:5 4:5 7:5 3:5 8:5 3:5 6:5 4:5 5:5
8:0 3:5 4:5 7:5 3:5 8:5 3:5 6:5 4:5 5:5 7:5
3:0 4:5 7:5 3:5 8:5 3:5 6:5 4:5 5:5 7:5 2:5
4:0 7:5 3:5 8:5 3:5 6:5 4:5 5:5 7:5 2:5 8:5
7:0 3:5 8:5 3:5 6:5 4:5 5:5 7:5 2:5 8:5 2:5
3:0 8:5 3:5 6:5 4:5 5:5 7:5 2:5 8:5 2:5 6:5
8:0 3:5 6:5 4:5 5:5 7:5 2:5 8:5 2:5 6:5 2:10
3:0 6:5 4:5 5:5 7:5 2:5 8:5 2:5 6:5 2:10 8:5
6:0 4:5 5:5 7:5 2:5 8:5 2:5 6:5 2:10 8:5 3:5
4:0 5:5 7:5 2:5 8:5 2:5 6:5 2:10 8:5 3:5 8:5
5:0 7:5 2:5 8:5 2:5 6:5 2:10 8:5 3:5 8:5 5:5
7:0 2:5 8:5 2:5 6:5 2:10 8:5 3:5 8:5 5:5 4:5
2:0 8:5 2:5 6:5 2:10 8:5 3:5 8:5 5:5 4:5 6:5
8:0 2:5 6:5 2:10 8:5 3:5 8:5 5:5 4:5 6:5 3:5
2:0 6:5 2:10 8:5 3:5 8:5 5:5 4:5 6:5 3:5 8:5
6:0 2:10 8:5 3:5 8:5 5:5 4:5 6:5 3:5 8:5 3:5
2:0 8:5 3:5 8:5 5:5 4:5 6:5 3:5 8:5 3:5 5:5
8:0 3:5 8:5 5:5 4:5 6:5 3:5 8:5 3:5 5:5 6:5
3:0 8:5 5:5 4:5 6:5 3:5 8:5 3:5 5:5 6:5 2:5
8:0 5:5 4:5 6:5 3:5 8:5 3:5 5:5 6:5 2:5 7:5
5:0 4:5 6:5 3:5 8:5 3:5 5:5 6:5 2:5 7:5 3:5
4:0 6:5 3:5 8:5 3:5 5:5 6:5 2:5 7:5 3:5 6:5
6:0 3:5 8:5 3:5 5:5 6:5 2:5 7:5 3:5 6:5 5:5
3:0 8:5 3:5 5:5 6:5 2:5 7:5 3:5 6:5 5:5 4:5
8:0 3:5 5:5 6:5 2:5 7:5 3:5 6:5 5:5 4:5 7:5
3:0 5:5 6:5 2:5 7:5 3:5 6:5 5:5 4:5 7:5 3:5
5:0 6:5 2:5 7:5 3:5 6:5 5:5 4:5 7:5 3:5 6:5
6:0 2:5 7:5 3:5 6:5 5:5 4:5 7:5 3:5 6:5 4:5
2:0 7:5 3:5 6:5 5:5 4:5 7:5 3:5 6:5 4:5 5:5
7:0 3:5 6:5 5:5 4:5 7:5 3:5 6:5 4:5 5:5 6:5
3:0 6:5 5:5 4:5 7:5 3:5 6:5 4:5 5:5 6:5 2:5
6:0 5:5 4:5 7:5 3:5 6:5 4:5 5:5 6:5 2:5 8:5
5:0 4:5 7:5 3:5 6:5 4:5 5:5 6:5 2:5 8:5 2:5
4:0 7:5 3:5 6:5 4:5 5:5 6:5 2:5 8:5 2:5 8:5
7:0 3:5 6:5 4:5 5:5 6:5 2:5 8:5 2:5 8:5 5:5
3:0 6:5 4:5 5:5 6:5 2:5 8:5 2:5 8:5 5:5 3:5
6:0 4:5 5:5 6:5 2:5 8:5 2:5 8:5 5:5 3:5 8:5
4:0 5:5 6:5 2:5 8:5 2:5 8:5 5:5 3:5 8:5 2:5
5:0 6:5 2:5 8:5 2:5 8:5 5:5 3:5 8:5 2:5 9:5
6:0 2:5 8:5 2:5 8:5 5:5 3:5 8:5 2:5 9:5 4:5
2:0 8:5 2:5 8:5 5:5 3:5 8:5 2:5 9:5 4:5 3:5
8:0 2:5 8:5 5:5 3:5 8:5 2:5 9:5 4:5 3:5 7:5
2:0 8:5 5:5 3:5 8:5 2:5 9:5 4:5 3:5 7:5 2:5
8:0 5:5 3:5 8:5 2:5 9:5 4:5 3:5 7:5 2:5 9:5
5:0 3:5 8:5 2:5 9:5 4:5 3:5 7:5 2:5 9:5 3:5
3:0 8:5 2:5 9:5 4:5 3:5 7:5 2:5 9:5 3:5 6:5
8:0 2:5 9:5 4:5 3:5 7:5 2:5 9:5 3:5 6:5 5:5
2:0 9:5 4:5 3:5 7:5 2:5 9:5 3:5 6:5 5:5 4:5
9:0 4:5 3:5 7:5 2:5 9:5 3:5 6:5 5:5 4:5 7:5
4:0 3:5 7:5 2:5 9:5 3:5 6:5 5:5 4:5 7:5 3:5
3:0 7:5 2:5 9:5 3:5 6:5 5:5 4:5 7:5 3:5 6:5
7:0 2:5 9:5 3:5 6:5 5:5 4:5 7:5 3:5 6:5 3:5
2:0 9:5 3:5 6:5 5:5 4:5 7:5 3:5 6:5 3:5 5:5
9:0 3:5 6:5 5:5 4:5 7:5 3:5 6:5 3:5 5:5 6:5
3:0 6:5 5:5 4:5 7:5 3:5 6:5 3:5 5:5 6:5 2:5
6:0 5:5 4:5 7:5 3:5 6:5 3:5 5:5 6:5 2:5 8:5
5:0 4:5 7:5 3:5 6:5 3:5 5:5 6:5 2:5 8:5 2:5
4:0 7:5 3:5 6:5 3:5 5:5 6:5 2:5 8:5 2:5 7:5
7:0 3:5 6:5 3:5 5:5 6:5 2:5 8:5 2:5 7:5 5:5
3:0 6:5 3:5 5:5 6:5 2:5 8:5 2:5 7:5 5:5 3:5
6:0 3:5 5:5 6:5 2:5 8:5 2:5 7:5 5:5 3:5 7:5
3:0 5:5 6:5 2:5 8:5 2:5 7:5 5:5 3:5 7:5 2:5
5:0 6:5 2:5 8:5 2:5 7:5 5:5 3:5 7:5 2:5 8:5
6:0 2:5 8:5 2:5 7:5 5:5 3:5 7:5 2:5 8:5 3:5
2:0 8:5 2:5 7:5 5:5 3:5 7:5 2:5 8:5 3:5 4:5
8:0 2:5 7:5 5:5 3:5 7:5 2:5 8:5 3:5 4:5 6:5
2:0 7:5 5:5 3:5 7:5 2:5 8:5 3:5 4:5 6:5 2:5
7:0 5:5 3:5 7:5 2:5 8:5 3:5 4:5 6:5 2:5 8:5
5:0 3:5 7:5 2:5 8:5 3:5 4:5 6:5 2:5 8:5 3:5
3:0 7:5 2:5 8:5 3:5 4:5 6:5 2:5 8:5 3:5 5:5
7:0 2:5 8:5 3:5 4:5 6:5 2:5 8:5 3:5 5:5 6:5
2:0 8:5 3:5 4:5 6:5 2:5 8:5 3:5 5:5 6:5 2:5
8:0 3:5 4:5 6:5 2:5 8:5 3:5 5:5 6:5 2:5 8:5
3:0 4:5 6:5 2:5 8:5 3:5 5:5 6:5 2:5 8:5 3:5
4:0 6:5 2:5 8:5 3:5 5:5 6:5 2:5 8:5 3:5 5:5
6:0 2:5 8:5 3:5 5:5 6:5 2:5 8:5 3:5 5:5 4:10
2:0 8:5 3:5 5:5 6:5 2:5 8:5 3:5 5:5 4:10 7:5
8:0 3:5 5:5 6:5 2:5 8:5 3:5 5:5 4:10 7:5 2:5
3:0 5:5 6:5 2:5 8:5 3:5 5:5 4:10 7:5 2:5 7:5
5:0 6:5 2:5 8:5 3:5 5:5 4:10 7:5 2:5 7:5 5:5
6:0 2:5 8:5 3:5 5:5 4:10 7:5 2:5 7:5 5:5 4:5
2:0 8:5 3:5 5:5 4:10 7:5 2:5 7:5 5:5 4:5 8:5
8:0 3:5 5:5 4:10 7:5 2:5 7:5 5:5 4:5 8:5 2:5
3:0 5:5 4:10 7:5 2:5 7:5 5:5 4:5 8:5 2:5 8:5
5:0 4:10 7:5 2:5 7:5 5:5 4:5 8:5 2:5 8:5 3:5
4:0 7:5 2:5 7:5 5:5 4:5 8:5 2:5 8:5 3:5 7:5
7:0 2:5 7:5 5:5 4:5 8:5 2:5 8:5 3:5 7:5 5:5
2:0 7:5 5:5 4:5 8:5 2:5 8:5 3:5 7:5 5:5 3:5
7:0 5:5 4:5 8:5 2:5 8:5 3:5 7:5 5:5 3:5 8:5
5:0 4:5 8:5 2:5 8:5 3:5 7:5 5:5 3:5 8:5 2:5
4:0 8:5 2:5 8:5 3:5 7:5 5:5 3:5 8:5 2:5 8:5
8:0 2:5 8:5 3:5 7:5 5:5 3:5 8:5 2:5 8:5 3:5
2:0 8:5 3:5 7:5 5:5 3:5 8:5 2:5 8:5 3:5 4:5
8:0 3:5 7:5 5:5 3:5 8:5 2:5 8:5 3:5 4:5 5:5
3:0 7:5 5:5 3:5 8:5 2:5 8:5 3:5 4:5 5:5 4:5
7:0 5:5 3:5 8:5 2:5 8:5 3:5 4:5 5:5 4:5 8:5
5:0 3:5 8:5 2:5 8:5 3:5 4:5 5:5 4:5 8:5 3:5
3:0 8:5 2:5 8:5 3:5 4:5 5:5 4:5 8:5 3:5 6:5
8:0 2:5 8:5 3:5 4:5 5:5 4:5 8:5 3:5 6:5 5:5
2:0 8:5 3:5 4:5 5:5 4:5 8:5 3:5 6:5 5:5 3:5
8:0 3:5 4:5 5:5 4:5 8:5 3:5 6:5 5:5 3:5 7:5
3:0 4:5 5:5 4:5 8:5 3:5 6:5 5:5 3:5 7:5 3:5
4:0 5:5 4:5 8:5 3:5 6:5 5:5 3:5 7:5 3:5 7:5
5:0 4:5 8:5 3:5 6:5 5:5 3:5 7:5 3:5 7:5 4:5
4:0 8:5 3:5 6:5 5:5 3:5 7:5 3:5 7:5 4:5 6:5
8:0 3:5 6:5 5:5 3:5 7:5 3:5 7:5 4:5 6:5 7:5
3:0 6:5 5:5 3:5 7:5 3:5 7:5 4:5 6:5 7:5 3:5
6:0 5:5 3:5 7:5 3:5 7:5 4:5 6:5 7:5 3:5 6:5
5:0 3:5 7:5 3:5 7:5 4:5 6:5 7:5 3:5 6:5 4:5
3:0 7:5 3:5 7:5 4:5 6:5 7:5 3:5 6:5 4:5 6:5
7:0 3:5 7:5 4:5 6:5 7:5 3:5 6:5 4:5 6:5 2:10
3:0 7:5 4:5 6:5 7:5 3:5 6:5 4:5 6:5 2:10 8:5
7:0 4:5 6:5 7:5 3:5 6:5 4:5 6:5 2:10 8:5 2:5
4:0 6:5 7:5 3:5 6:5 4:5 6:5 2:10 8:5 2:5 8:5
6:0 7:5 3:5 6:5 4:5 6:5 2:10 8:5 2:5 8:5 3:5
7:0 3:5 6:5 4:5 6:5 2:10 8:5 2:5 8:5 3:5 5:5
3:0 6:5 4:5 6:5 2:10 8:5 2:5 8:5 3:5 5:5 7:5
6:0 4:5 6:5 2:10 8:5 2:5 8:5 3:5 5:5 7:5 3:5
4:0 6:5 2:10 8:5 2:5 8:5 3:5 5:5 7:5 3:5 8:5
6:0 2:10 8:5 2:5 8:5 3:5 5:5 7:5 3:5 8:5 3:5
2:0 8:5 2:5 8:5 3:5 5:5 7:5 3:5 8:5 3:5 6:5
8:0 2:5 8:5 3:5 5:5 7:5 3:5 8:5 3:5 6:5 5:5
2:0 8:5 3:5 5:5 7:5 3:5 8:5 3:5 6:5 5:5 4:5
8:0 3:5 5:5 7:5 3:5 8:5 3:5 6:5 5:5 4:5 7:5
3:0 5:5 7:5 3:5 8:5 3:5 6:5 5:5 4:5 7:5 2:5
5:0 7:5 3:5 8:5 3:5 6:5 5:5 4:5 7:5 2:5 7:5
7:0 3:5 8:5 3:5 6:5 5:5 4:5 7:5 2:5 7:5 3:5
3:0 8:5 3:5 6:5 5:5 4:5 7:5 2:5 7:5 3:5 6:5
8:0 3:5 6:5 5:5 4:5 7:5 2:5 7:5 3:5 6:5 2:10
3:0 6:5 5:5 4:5 7:5 2:5 7:5 3:5 6:5 2:10 8:5
6:0 5:5 4:5 7:5 2:5 7:5 3:5 6:5 2:10 8:5 3:5
5:0 4:5 7:5 2:5 7:5 3:5 6:5 2:10 8:5 3:5 7:5
4:0 7:5 2:5 7:5 3:5 6:5 2:10 8:5 3:5 7:5 5:5
7:0 2:5 7:5 3:5 6:5 2:10 8:5 3:5 7:5 5:5 3:5
2:0 7:5 3:5 6:5 2:10 8:5 3:5 7:5 5:5 3:5 7:5
7:0 3:5 6:5 2:10 8:5 3:5 7:5 5:5 3:5 7:5 2:5
3:0 6:5 2:10 8:5 3:5 7:5 5:5 3:5 7:5 2:5 9:5
6:0 2:10 8:5 3:5 7:5 5:5 3:5 7:5 2:5 9:5 3:5
2:0 8:5 3:5 7:5 5:5 3:5 7:5 2:5 9:5 3:5 7:10
8:0 3:5 7:5 5:5 3:5 7:5 2:5 9:5 3:5 7:10 3:5
3:0 7:5 5:5 3:5 7:5 2:5 9:5 3:5 7:10 3:5 8:5
7:0 5:5 3:5 7:5 2:5 9:5 3:5 7:10 3:5 8:5 3:5
5:0 3:5 7:5 2:5 9:5 3:5 7:10 3:5 8:5 3:5 6:5
3:0 7:5 2:5 9:5 3:5 7:10 3:5 8:5 3:5 6:5 4:5
7:0 2:5 9:5 3:5 7:10 3:5 8:5 3:5 6:5 4:5 7:10
2:0 9:5 3:5 7:10 3:5 8:5 3:5 6:5 4:5 7:10 3:5
9:0 3:5 7:10 3:5 8:5 3:5 6:5 4:5 7:10 3:5 8:5
3:0 7:10 3:5 8:5 3:5 6:5 4:5 7:10 3:5 8:5 4:5
7:0 3:5 8:5 3:5 6:5 4:5 7:10 3:5 8:5 4:5 5:5
3:0 8:5 3:5 6:5 4:5 7:10 3:5 8:5 4:5 5:5 6:5
8:0 3:5 6:5 4:5 7:10 3:5 8:5 4:5 5:5 6:5 2:5
3:0 6:5 4:5 7:10 3:5 8:5 4:5 5:5 6:5 2:5 9:5
6:0 4:5 7:10 3:5 8:5 4:5 5:5 6:5 2:5 9:5 2:5
4:0 7:10 3:5 8:5 4:5 5:5 6:5 2:5 9:5 2:5 7:5
7:0 3:5 8:5 4:5 5:5 6:5 2:5 9:5 2:5 7:5 5:5
3:0 8:5 4:5 5:5 6:5 2:5 9:5 2:5 7:5 5:5 3:5
8:0 4:5 5:5 6:5 2:5 9:5 2:5 7:5 5:5 3:5 7:5
4:0 5:5 6:5 2:5 9:5 2:5 7:5 5:5 3:5 7:5 2:5
5:0 6:5 2:5 9:5 2:5 7:5 5:5 3:5 7:5 2:5 8:5
6:0 2:5 9:5 2:5 7:5 5:5 3:5 7:5 2:5 8:5 3:5
2:0 9:5 2:5 7:5 5:5 3:5 7:5 2:5 8:5 3:5 4:5
9:0 2:5 7:5 5:5 3:5 7:5 2:5 8:5 3:5 4:5 6:5
2:0 7:5 5:5 3:5 7:5 2:5 8:5 3:5 4:5 6:5 3:5
7:0 5:5 3:5 7:5 2:5 8:5 3:5 4:5 6:5 3:5 8:5
5:0 3:5 7:5 2:5 8:5 3:5 4:5 6:5 3:5 8:5 3:5
3:0 7:5 2:5 8:5 3:5 4:5 6:5 3:5 8:5 3:5 5:5
7:0 2:5 8:5 3:5 4:5 6:5 3:5 8:5 3:5 5:5 4:10
2:0 8:5 3:5 4:5 6:5 3:5 8:5 3:5 5:5 4:10 7:5
8:0 3:5 4:5 6:5 3:5 8:5 3:5 5:5 4:10 7:5 3:5
3:0 4:5 6:5 3:5 8:5 3:5 5:5 4:10 7:5 3:5 5:5
4:0 6:5 3:5 8:5 3:5 5:5 4:10 7:5 3:5 5:5 4:5
6:0 3:5 8:5 3:5 5:5 4:10 7:5 3:5 5:5 4:5 6:5
3:0 8:5 3:5 5:5 4:10 7:5 3:5 5:5 4:5 6:5 2:10
8:0 3:5 5:5 4:10 7:5 3:5 5:5 4:5 6:5 2:10 8:5
3:0 5:5 4:10 7:5 3:5 5:5 4:5 6:5 2:10 8:5 2:5
5:0 4:10 7:5 3:5 5:5 4:5 6:5 2:10 8:5 2:5 7:5
4:0 7:5 3:5 5:5 4:5 6:5 2:10 8:5 2:5 7:5 5:5
7:0 3:5 5:5 4:5 6:5 2:10 8:5 2:5 7:5 5:5 4:5
3:0 5:5 4:5 6:5 2:10 8:5 2:5 7:5 5:5 4:5 7:5
5:0 4:5 6:5 2:10 8:5 2:5 7:5 5:5 4:5 7:5 3:5
4:0 6:5 2:10 8:5 2:5 7:5 5:5 4:5 7:5 3:5 7:5
6:0 2:10 8:5 2:5 7:5 5:5 4:5 7:5 3:5 7:5 3:5
2:0 8:5 2:5 7:5 5:5 4:5 7:5 3:5 7:5 3:5 6:5
8:0 2:5 7:5 5:5 4:5 7:5 3:5 7:5 3:5 6:5 5:5
2:0 7:5 5:5 4:5 7:5 3:5 7:5 3:5 6:5 5:5 3:5
7:0 5:5 4:5 7:5 3:5 7:5 3:5 6:5 5:5 3:5 7:5
5:0 4:5 7:5 3:5 7:5 3:5 6:5 5:5 3:5 7:5 3:5
4:0 7:5 3:5 7:5 3:5 6:5 5:5 3:5 7:5 3:5 6:5
7:0 3:5 7:5 3:5 6:5 5:5 3:5 7:5 3:5 6:5 5:5
3:0 7:5 3:5 6:5 5:5 3:5 7:5 3:5 6:5 5:5 4:5
7:0 3:5 6:5 5:5 3:5 7:5 3:5 6:5 5:5 4:5 7:5
3:0 6:5 5:5 3:5 7:5 3:5 6:5 5:5 4:5 7:5 3:5
6:0 5:5 3:5 7:5 3:5 6:5 5:5 4:5 7:5 3:5 7:5
5:0 3:5 7:5 3:5 6:5 5:5 4:5 7:5 3:5 7:5 4:5
3:0 7:5 3:5 6:5 5:5 4:5 7:5 3:5 7:5 4:5 5:5
7:0 3:5 6:5 5:5 4:5 7:5 3:5 7:5 4:5 5:5 6:5
3:0 6:5 5:5 4:5 7:5 3:5 7:5 4:5 5:5 6:5 2:5
6:0 5:5 4:5 7:5 3:5 7:5 4:5 5:5 6:5 2:5 8:5
5:0 4:5 7:5 3:5 7:5 4:5 5:5 6:5 2:5 8:5 2:5
4:0 7:5 3:5 7:5 4:5 5:5 6:5 2:5 8:5 2:5 7:5
7:0 3:5 7:5 4:5 5:5 6:5 2:5 8:5 2:5 7:5 5:5
3:0 7:5 4:5 5:5 6:5 2:5 8:5 2:5 7:5 5:5 2:5
7:0 4:5 5:5 6:5 2:5 8:5 2:5 7:5 5:5 2:5 8:5
4:0 5:5 6:5 2:5 8:5 2:5 7:5 5:5 2:5 8:5 2:5
5:0 6:5 2:5 8:5 2:5 7:5 5:5 2:5 8:5 2:5 8:5
6:0 2:5 8:5 2:5 7:5 5:5 2:5 8:5 2:5 8:5 5:5
2:0 8:5 2:5 7:5 5:5 2:5 8:5 2:5 8:5 5:5 3:5
8:0 2:5 7:5 5:5 2:5 8:5 2:5 8:5 5:5 3:5 7:5
2:0 7:5 5:5 2:5 8:5 2:5 8:5 5:5 3:5 7:5 3:5
7:0 5:5 2:5 8:5 2:5 8:5 5:5 3:5 7:5 3:5 8:5
5:0 2:5 8:5 2:5 8:5 5:5 3:5 7:5 3:5 8:5 3:5
2:0 8:5 2:5 8:5 5:5 3:5 7:5 3:5 8:5 3:5 6:5
8:0 2:5 8:5 5:5 3:5 7:5 3:5 8:5 3:5 6:5 3:5
2:0 8:5 5:5 3:5 7:5 3:5 8:5 3:5 6:5 3:5 5:5
8:0 5:5 3:5 7:5 3:5 8:5 3:5 6:5 3:5 5:5 7:5
5:0 3:5 7:5 3:5 8:5 3:5 6:5 3:5 5:5 7:5 2:5
3:0 7:5 3:5 8:5 3:5 6:5 3:5 5:5 7:5 2:5 8:5
7:0 3:5 8:5 3:5 6:5 3:5 5:5 7:5 2:5 8:5 2:5
3:0 8:5 3:5 6:5 3:5 5:5 7:5 2:5 8:5 2:5 7:5
8:0 3:5 6:5 3:5 5:5 7:5 2:5 8:5 2:5 7:5 5:5
3:0 6:5 3:5 5:5 7:5 2:5 8:5 2:5 7:5 5:5 2:5
6:0 3:5 5:5 7:5 2:5 8:5 2:5 7:5 5:5 2:5 8:5
3:0 5:5 7:5 2:5 8:5 2:5 7:5 5:5 2:5 8:5 2:5
5:0 7:5 2:5 8:5 2:5 7:5 5:5 2:5 8:5 2:5 7:5
7:0 2:5 8:5 2:5 7:5 5:5 2:5 8:5 2:5 7:5 5:5
2:0 8:5 2:5 7:5 5:5 2:5 8:5 2:5 7:5 5:5 3:5
8:0 2:5 7:5 5:5 2:5 8:5 2:5 7:5 5:5 3:5 8:5
2:0 7:5 5:5 2:5 8:5 2:5 7:5 5:5 3:5 8:5 2:5
7:0 5:5 2:5 8:5 2:5 7:5 5:5 3:5 8:5 2:5 8:5
5:0 2:5 8:5 2:5 7:5 5:5 3:5 8:5 2:5 8:5 3:5
2:0 8:5 2:5 7:5 5:5 3:5 8:5 2:5 8:5 3:5 4:5
8:0 2:5 7:5 5:5 3:5 8:5 2:5 8:5 3:5 4:5 7:5
2:0 7:5 5:5 3:5 8:5 2:5 8:5 3:5 4:5 7:5 3:5
7:0 5:5 3:5 8:5 2:5 8:5 3:5 4:5 7:5 3:5 8:5
5:0 3:5 8:5 2:5 8:5 3:5 4:5 7:5 3:5 8:5 3:5
3:0 8:5 2:5 8:5 3:5 4:5 7:5 3:5 8:5 3:5 4:5
8:0 2:5 8:5 3:5 4:5 7:5 3:5 8:5 3:5 4:5 6:5
2:0 8:5 3:5 4:5 7:5 3:5 8:5 3:5 4:5 6:5 4:5
8:0 3:5 4:5 7:5 3:5 8:5 3:5 4:5 6:5 4:5 7:5
3:0 4:5 7:5 3:5 8:5 3:5 4:5 6:5 4:5 7:5 2:5
4:0 7:5 3:5 8:5 3:5 4:5 6:5 4:5 7:5 2:5 7:5
7:0 3:5 8:5 3:5 4:5 6:5 4:5 7:5 2:5 7:5 3:5
3:0 8:5 3:5 4:5 6:5 4:5 7:5 2:5 7:5 3:5 6:5
8:0 3:5 4:5 6:5 4:5 7:5 2:5 7:5 3:5 6:5 2:10
3:0 4:5 6:5 4:5 7:5 2:5 7:5 3:5 6:5 2:10 8:5
4:0 6:5 4:5 7:5 2:5 7:5 3:5 6:5 2:10 8:5 2:5
6:0 4:5 7:5 2:5 7:5 3:5 6:5 2:10 8:5 2:5 7:5
4:0 7:5 2:5 7:5 3:5 6:5 2:10 8:5 2:5 7:5 5:5
7:0 2:5 7:5 3:5 6:5 2:10 8:5 2:5 7:5 5:5 3:5
2:0 7:5 3:5 6:5 2:10 8:5 2:5 7:5 5:5 3:5 8:5
7:0 3:5 6:5 2:10 8:5 2:5 7:5 5:5 3:5 8:5 2:5
3:0 6:5 2:10 8:5 2:5 7:5 5:5 3:5 8:5 2:5 8:5
6:0 2:10 8:5 2:5 7:5 5:5 3:5 8:5 2:5 8:5 3:5
2:0 8:5 2:5 7:5 5:5 3:5 8:5 2:5 8:5 3:5 5:5
8:0 2:5 7:5 5:5 3:5 8:5 2:5 8:5 3:5 5:5 7:5
2:0 7:5 5:5 3:5 8:5 2:5 8:5 3:5 5:5 7:5 3:5
7:0 5:5 3:5 8:5 2:5 8:5 3:5 5:5 7:5 3:5 8:5
5:0 3:5 8:5 2:5 8:5 3:5 5:5 7:5 3:5 8:5 3:5
3:0 8:5 2:5 8:5 3:5 5:5 7:5 3:5 8:5 3:5 5:5
8:0 2:5 8:5 3:5 5:5 7:5 3:5 8:5 3:5 5:5 4:10
2:0 8:5 3:5 5:5 7:5 3:5 8:5 3:5 5:5 4:10 7:5
8:0 3:5 5:5 7:5 3:5 8:5 3:5 5:5 4:10 7:5 3:5
3:0 5:5 7:5 3:5 8:5 3:5 5:5 4:10 7:5 3:5 7:5
5:0 7:5 3:5 8:5 3:5 5:5 4:10 7:5 3:5 7:5 5:5
7:0 3:5 8:5 3:5 5:5 4:10 7:5 3:5 7:5 5:5 4:5
3:0 8:5 3:5 5:5 4:10 7:5 3:5 7:5 5:5 4:5 6:5
8:0 3:5 5:5 4:10 7:5 3:5 7:5 5:5 4:5 6:5 3:5
3:0 5:5 4:10 7:5 3:5 7:5 5:5 4:5 6:5 3:5 6:5
5:0 4:10 7:5 3:5 7:5 5:5 4:5 6:5 3:5 6:5 4:5
4:0 7:5 3:5 7:5 5:5 4:5 6:5 3:5 6:5 4:5 5:5
7:0 3:5 7:5 5:5 4:5 6:5 3:5 6:5 4:5 5:5 6:5
3:0 7:5 5:5 4:5 6:5 3:5 6:5 4:5 5:5 6:5 3:5
7:0 5:5 4:5 6:5 3:5 6:5 4:5 5:5 6:5 3:5 8:5
5:0 4:5 6:5 3:5 6:5 4:5 5:5 6:5 3:5 8:5 2:5
4:0 6:5 3:5 6:5 4:5 5:5 6:5 3:5 8:5 2:5 7:5
6:0 3:5 6:5 4:5 5:5 6:5 3:5 8:5 2:5 7:5 3:5
3:0 6:5 4:5 5:5 6:5 3:5 8:5 2:5 7:5 3:5 5:5
6:0 4:5 5:5 6:5 3:5 8:5 2:5 7:5 3:5 5:5 6:5
4:0 5:5 6:5 3:5 8:5 2:5 7:5 3:5 5:5 6:5 2:5
5:0 6:5 3:5 8:5 2:5 7:5 3:5 5:5 6:5 2:5 8:5
6:0 3:5 8:5 2:5 7:5 3:5 5:5 6:5 2:5 8:5 3:5
3:0 8:5 2:5 7:5 3:5 5:5 6:5 2:5 8:5 3:5 6:5
8:0 2:5 7:5 3:5 5:5 6:5 2:5 8:5 3:5 6:5 5:5
2:0 7:5 3:5 5:5 6:5 2:5 8:5 3:5 6:5 5:5 4:5
7:0 3:5 5:5 6:5 2:5 8:5 3:5 6:5 5:5 4:5 7:5
3:0 5:5 6:5 2:5 8:5 3:5 6:5 5:5 4:5 7:5 2:5
5:0 6:5 2:5 8:5 3:5 6:5 5:5 4:5 7:5 2:5 8:5
6:0 2:5 8:5 3:5 6:5 5:5 4:5 7:5 2:5 8:5 2:5
2:0 8:5 3:5 6:5 5:5 4:5 7:5 2:5 8:5 2:5 6:5
8:0 3:5 6:5 5:5 4:5 7:5 2:5 8:5 2:5 6:5 2:10
3:0 6:5 5:5 4:5 7:5 2:5 8:5 2:5 6:5 2:10 8:5
6:0 5:5 4:5 7:5 2:5 8:5 2:5 6:5 2:10 8:5 2:5
5:0 4:5 7:5 2:5 8:5 2:5 6:5 2:10 8:5 2:5 8:5
4:0 7:5 2:5 8:5 2:5 6:5 2:10 8:5 2:5 8:5 5:5
7:0 2:5 8:5 2:5 6:5 2:10 8:5 2:5 8:5 5:5 3:5
2:0 8:5 2:5 6:5 2:10 8:5 2:5 8:5 5:5 3:5 8:5
8:0 2:5 6:5 2:10 8:5 2:5 8:5 5:5 3:5 8:5 2:5
2:0 6:5 2:10 8:5 2:5 8:5 5:5 3:5 8:5 2:5 9:5
6:0 2:10 8:5 2:5 8:5 5:5 3:5 8:5 2:5 9:5 3:5
2:0 8:5 2:5 8:5 5:5 3:5 8:5 2:5 9:5 3:5 4:5
8:0 2:5 8:5 5:5 3:5 8:5 2:5 9:5 3:5 4:5 7:5
2:0 8:5 5:5 3:5 8:5 2:5 9:5 3:5 4:5 7:5 3:5
8:0 5:5 3:5 8:5 2:5 9:5 3:5 4:5 7:5 3:5 8:5
5:0 3:5 8:5 2:5 9:5 3:5 4:5 7:5 3:5 8:5 3:5
3:0 8:5 2:5 9:5 3:5 4:5 7:5 3:5 8:5 3:5 5:5
8:0 2:5 9:5 3:5 4:5 7:5 3:5 8:5 3:5 5:5 4:10
2:0 9:5 3:5 4:5 7:5 3:5 8:5 3:5 5:5 4:10 7:5
9:0 3:5 4:5 7:5 3:5 8:5 3:5 5:5 4:10 7:5 2:5
3:0 4:5 7:5 3:5 8:5 3:5 5:5 4:10 7:5 2:5 8:5
4:0 7:5 3:5 8:5 3:5 5:5 4:10 7:5 2:5 8:5 2:5
7:0 3:5 8:5 3:5 5:5 4:10 7:5 2:5 8:5 2:5 7:5
3:0 8:5 3:5 5:5 4:10 7:5 2:5 8:5 2:5 7:5 5:5
8:0 3:5 5:5 4:10 7:5 2:5 8:5 2:5 7:5 5:5 2:5
3:0 5:5 4:10 7:5 2:5 8:5 2:5 7:5 5:5 2:5 8:5
5:0 4:10 7:5 2:5 8:5 2:5 7:5 5:5 2:5 8:5 4:5
4:0 7:5 2:5 8:5 2:5 7:5 5:5 2:5 8:5 4:5 6:5
7:0 2:5 8:5 2:5 7:5 5:5 2:5 8:5 4:5 6:5 5:5
2:0 8:5 2:5 7:5 5:5 2:5 8:5 4:5 6:5 5:5 3:5
8:0 2:5 7:5 5:5 2:5 8:5 4:5 6:5 5:5 3:5 7:5
2:0 7:5 5:5 2:5 8:5 4:5 6:5 5:5 3:5 7:5 2:5
7:0 5:5 2:5 8:5 4:5 6:5 5:5 3:5 7:5 2:5 8:5
5:0 2:5 8:5 4:5 6:5 5:5 3:5 7:5 2:5 8:5 3:5
2:0 8:5 4:5 6:5 5:5 3:5 7:5 2:5 8:5 3:5 5:5
8:0 4:5 6:5 5:5 3:5 7:5 2:5 8:5 3:5 5:5 7:5
4:0 6:5 5:5 3:5 7:5 2:5 8:5 3:5 5:5 7:5 3:5
6:0 5:5 3:5 7:5 2:5 8:5 3:5 5:5 7:5 3:5 8:5
5:0 3:5 7:5 2:5 8:5 3:5 5:5 7:5 3:5 8:5 3:5
3:0 7:5 2:5 8:5 3:5 5:5 7:5 3:5 8:5 3:5 6:5
7:0 2:5 8:5 3:5 5:5 7:5 3:5 8:5 3:5 6:5 5:5
2:0 8:5 3:5 5:5 7:5 3:5 8:5 3:5 6:5 5:5 4:5
8:0 3:5 5:5 7:5 3:5 8:5 3:5 6:5 5:5 4:5 7:5
3:0 5:5 7:5 3:5 8:5 3:5 6:5 5:5 4:5 7:5 3:5
5:0 7:5 3:5 8:5 3:5 6:5 5:5 4:5 7:5 3:5 6:5
7:0 3:5 8:5 3:5 6:5 5:5 4:5 7:5 3:5 6:5 4:5
3:0 8:5 3:5 6:5 5:5 4:5 7:5 3:5 6:5 4:5 5:5
8:0 3:5 6:5 5:5 4:5 7:5 3:5 6:5 4:5 5:5 6:5
3:0 6:5 5:5 4:5 7:5 3:5 6:5 4:5 5:5 6:5 2:5
6:0 5:5 4:5 7:5 3:5 6:5 4:5 5:5 6:5 2:5 8:5
5:0 4:5 7:5 3:5 6:5 4:5 5:5 6:5 2:5 8:5 2:5
4:0 7:5 3:5 6:5 4:5 5:5 6:5 2:5 8:5 2:5 7:5
7:0 3:5 6:5 4:5 5:5 6:5 2:5 8:5 2:5 7:5 5:5
3:0 6:5 4:5 5:5 6:5 2:5 8:5 2:5 7:5 5:5 4:5
6:0 4:5 5:5 6:5 2:5 8:5 2:5 7:5 5:5 4:5 7:5
4:0 5:5 6:5 2:5 8:5 2:5 7:5 5:5 4:5 7:5 2:5
5:0 6:5 2:5 8:5 2:5 7:5 5:5 4:5 7:5 2:5 8:5
6:0 2:5 8:5 2:5 7:5 5:5 4:5 7:5 2:5 8:5 3:5
2:0 8:5 2:5 7:5 5:5 4:5 7:5 2:5 8:5 3:5 4:5
8:0 2:5 7:5 5:5 4:5 7:5 2:5 8:5 3:5 4:5 6:5
2:0 7:5 5:5 4:5 7:5 2:5 8:5 3:5 4:5 6:5 3:5
7:0 5:5 4:5 7:5 2:5 8:5 3:5 4:5 6:5 3:5 8:5
5:0 4:5 7:5 2:5 8:5 3:5 4:5 6:5 3:5 8:5 3:5
4:0 7:5 2:5 8:5 3:5 4:5 6:5 3:5 8:5 3:5 6:5
7:0 2:5 8:5 3:5 4:5 6:5 3:5 8:5 3:5 6:5 5:5
2:0 8:5 3:5 4:5 6:5 3:5 8:5 3:5 6:5 5:5 4:5
8:0 3:5 4:5 6:5 3:5 8:5 3:5 6:5 5:5 4:5 7:5
3:0 4:5 6:5 3:5 8:5 3:5 6:5 5:5 4:5 7:5 3:5
4:0 6:5 3:5 8:5 3:5 6:5 5:5 4:5 7:5 3:5 7:5
6:0 3:5 8:5 3:5 6:5 5:5 4:5 7:5 3:5 7:5 3:5
3:0 8:5 3:5 6:5 5:5 4:5 7:5 3:5 7:5 3:5 5:5
8:0 3:5 6:5 5:5 4:5 7:5 3:5 7:5 3:5 5:5 6:5
3:0 6:5 5:5 4:5 7:5 3:5 7:5 3:5 5:5 6:5 2:5
6:0 5:5 4:5 7:5 3:5 7:5 3:5 5:5 6:5 2:5 8:5
5:0 4:5 7:5 3:5 7:5 3:5 5:5 6:5 2:5 8:5 2:5
4:0 7:5 3:5 7:5 3:5 5:5 6:5 2:5 8:5 2:5 7:5
7:0 3:5 7:5 3:5 5:5 6:5 2:5 8:5 2:5 7:5 5:5
3:0 7:5 3:5 5:5 6:5 2:5 8:5 2:5 7:5 5:5 2:5
7:0 3:5 5:5 6:5 2:5 8:5 2:5 7:5 5:5 2:5 8:5
3:0 5:5 6:5 2:5 8:5 2:5 7:5 5:5 2:5 8:5 2:5
5:0 6:5 2:5 8:5 2:5 7:5 5:5 2:5 8:5 2:5 7:5
6:0 2:5 8:5 2:5 7:5 5:5 2:5 8:5 2:5 7:5 5:5
2:0 8:5 2:5 7:5 5:5 2:5 8:5 2:5 7:5 5:5 3:5
8:0 2:5 7:5 5:5 2:5 8:5 2:5 7:5 5:5 3:5 7:5
2:0 7:5 5:5 2:5 8:5 2:5 7:5 5:5 3:5 7:5 2:5
7:0 5:5 2:5 8:5 2:5 7:5 5:5 3:5 7:5 2:5 9:5
5:0 2:5 8:5 2:5 7:5 5:5 3:5 7:5 2:5 9:5 3:5
2:0 8:5 2:5 7:5 5:5 3:5 7:5 2:5 9:5 3:5 5:5
8:0 2:5 7:5 5:5 3:5 7:5 2:5 9:5 3:5 5:5 7:5
2:0 7:5 5:5 3:5 7:5 2:5 9:5 3:5 5:5 7:5 2:5
7:0 5:5 3:5 7:5 2:5 9:5 3:5 5:5 7:5 2:5 8:5
5:0 3:5 7:5 2:5 9:5 3:5 5:5 7:5 2:5 8:5 3:5
3:0 7:5 2:5 9:5 3:5 5:5 7:5 2:5 8:5 3:5 6:5
7:0 2:5 9:5 3:5 5:5 7:5 2:5 8:5 3:5 6:5 5:5
2:0 9:5 3:5 5:5 7:5 2:5 8:5 3:5 6:5 5:5 4:5
9:0 3:5 5:5 7:5 2:5 8:5 3:5 6:5 5:5 4:5 6:5
3:0 5:5 7:5 2:5 8:5 3:5 6:5 5:5 4:5 6:5 2:5
5:0 7:5 2:5 8:5 3:5 6:5 5:5 4:5 6:5 2:5 8:5
7:0 2:5 8:5 3:5 6:5 5:5 4:5 6:5 2:5 8:5 3:5
2:0 8:5 3:5 6:5 5:5 4:5 6:5 2:5 8:5 3:5 6:5
8:0 3:5 6:5 5:5 4:5 6:5 2:5 8:5 3:5 6:5 5:5
3:0 6:5 5:5 4:5 6:5 2:5 8:5 3:5 6:5 5:5 3:5
6:0 5:5 4:5 6:5 2:5 8:5 3:5 6:5 5:5 3:5 7:5
5:0 4:5 6:5 2:5 8:5 3:5 6:5 5:5 3:5 7:5 2:5
4:0 6:5 2:5 8:5 3:5 6:5 5:5 3:5 7:5 2:5 8:5
6:0 2:5 8:5 3:5 6:5 5:5 3:5 7:5 2:5 8:5 3:5
2:0 8:5 3:5 6:5 5:5 3:5 7:5 2:5 8:5 3:5 5:5
8:0 3:5 6:5 5:5 3:5 7:5 2:5 8:5 3:5 5:5 7:5
3:0 6:5 5:5 3:5 7:5 2:5 8:5 3:5 5:5 7:5 3:5
6:0 5:5 3:5 7:5 2:5 8:5 3:5 5:5 7:5 3:5 8:5
5:0 3:5 7:5 2:5 8:5 3:5 5:5 7:5 3:5 8:5 3:5
3:0 7:5 2:5 8:5 3:5 5:5 7:5 3:5 8:5 3:5 4:5
7:0 2:5 8:5 3:5 5:5 7:5 3:5 8:5 3:5 4:5 6:5
2:0 8:5 3:5 5:5 7:5 3:5 8:5 3:5 4:5 6:5 4:5
8:0 3:5 5:5 7:5 3:5 8:5 3:5 4:5 6:5 4:5 7:5
3:0 5:5 7:5 3:5 8:5 3:5 4:5 6:5 4:5 7:5 3:5
5:0 7:5 3:5 8:5 3:5 4:5 6:5 4:5 7:5 3:5 7:5
7:0 3:5 8:5 3:5 4:5 6:5 4:5 7:5 3:5 7:5 5:5
3:0 8:5 3:5 4:5 6:5 4:5 7:5 3:5 7:5 5:5 6:10
8:0 3:5 4:5 6:5 4:5 7:5 3:5 7:5 5:5 6:10 2:5
3:0 4:5 6:5 4:5 7:5 3:5 7:5 5:5 6:10 2:5 7:5
4:0 6:5 4:5 7:5 3:5 7:5 5:5 6:10 2:5 7:5 3:5
6:0 4:5 7:5 3:5 7:5 5:5 6:10 2:5 7:5 3:5 7:5
4:0 7:5 3:5 7:5 5:5 6:10 2:5 7:5 3:5 7:5 5:5
7:0 3:5 7:5 5:5 6:10 2:5 7:5 3:5 7:5 5:5 3:5
3:0 7:5 5:5 6:10 2:5 7:5 3:5 7:5 5:5 3:5 8:5
7:0 5:5 6:10 2:5 7:5 3:5 7:5 5:5 3:5 8:5 2:5
5:0 6:10 2:5 7:5 3:5 7:5 5:5 3:5 8:5 2:5 8:5
6:0 2:5 7:5 3:5 7:5 5:5 3:5 8:5 2:5 8:5 5:5
2:0 7:5 3:5 7:5 5:5 3:5 8:5 2:5 8:5 5:5 4:5
7:0 3:5 7:5 5:5 3:5 8:5 2:5 8:5 5:5 4:5 6:5
3:0 7:5 5:5 3:5 8:5 2:5 8:5 5:5 4:5 6:5 3:5
7:0 5:5 3:5 8:5 2:5 8:5 5:5 4:5 6:5 3:5 8:5
5:0 3:5 8:5 2:5 8:5 5:5 4:5 6:5 3:5 8:5 3:5
3:0 8:5 2:5 8:5 5:5 4:5 6:5 3:5 8:5 3:5 7:5
8:0 2:5 8:5 5:5 4:5 6:5 3:5 8:5 3:5 7:5 5:5
2:0 8:5 5:5 4:5 6:5 3:5 8:5 3:5 7:5 5:5 4:5
8:0 5:5 4:5 6:5 3:5 8:5 3:5 7:5 5:5 4:5 7:5
5:0 4:5 6:5 3:5 8:5 3:5 7:5 5:5 4:5 7:5 3:5
4:0 6:5 3:5 8:5 3:5 7:5 5:5 4:5 7:5 3:5 7:5
6:0 3:5 8:5 3:5 7:5 5:5 4:5 7:5 3:5 7:5 4:5
3:0 8:5 3:5 7:5 5:5 4:5 7:5 3:5 7:5 4:5 5:5
8:0 3:5 7:5 5:5 4:5 7:5 3:5 7:5 4:5 5:5 6:5
3:0 7:5 5:5 4:5 7:5 3:5 7:5 4:5 5:5 6:5 3:5
7:0 5:5 4:5 7:5 3:5 7:5 4:5 5:5 6:5 3:5 6:5
5:0 4:5 7:5 3:5 7:5 4:5 5:5 6:5 3:5 6:5 4:5
4:0 7:5 3:5 7:5 4:5 5:5 6:5 3:5 6:5 4:5 6:5
7:0 3:5 7:5 4:5 5:5 6:5 3:5 6:5 4:5 6:5 5:5
3:0 7:5 4:5 5:5 6:5 3:5 6:5 4:5 6:5 5:5 3:5
7:0 4:5 5:5 6:5 3:5 6:5 4:5 6:5 5:5 3:5 7:5
4:0 5:5 6:5 3:5 6:5 4:5 6:5 5:5 3:5 7:5 2:5
5:0 6:5 3:5 6:5 4:5 6:5 5:5 3:5 7:5 2:5 8:5
6:0 3:5 6:5 4:5 6:5 5:5 3:5 7:5 2:5 8:5 3:5
3:0 6:5 4:5 6:5 5:5 3:5 7:5 2:5 8:5 3:5 4:5
6:0 4:5 6:5 5:5 3:5 7:5 2:5 8:5 3:5 4:5 6:5
4:0 6:5 5:5 3:5 7:5 2:5 8:5 3:5 4:5 6:5 3:5
6:0 5:5 3:5 7:5 2:5 8:5 3:5 4:5 6:5 3:5 8:5
5:0 3:5 7:5 2:5 8:5 3:5 4:5 6:5 3:5 8:5 3:5
3:0 7:5 2:5 8:5 3:5 4:5 6:5 3:5 8:5 3:5 7:5
7:0 2:5 8:5 3:5 4:5 6:5 3:5 8:5 3:5 7:5 4:5
2:0 8:5 3:5 4:5 6:5 3:5 8:5 3:5 7:5 4:5 7:10
8:0 3:5 4:5 6:5 3:5 8:5 3:5 7:5 4:5 7:10 3:5
3:0 4:5 6:5 3:5 8:5 3:5 7:5 4:5 7:10 3:5 6:5
4:0 6:5 3:5 8:5 3:5 7:5 4:5 7:10 3:5 6:5 5:5
6:0 3:5 8:5 3:5 7:5 4:5 7:10 3:5 6:5 5:5 4:5
3:0 8:5 3:5 7:5 4:5 7:10 3:5 6:5 5:5 4:5 6:5
8:0 3:5 7:5 4:5 7:10 3:5 6:5 5:5 4:5 6:5 2:5
3:0 7:5 4:5 7:10 3:5 6:5 5:5 4:5 6:5 2:5 8:5
7:0 4:5 7:10 3:5 6:5 5:5 4:5 6:5 2:5 8:5 2:5
4:0 7:10 3:5 6:5 5:5 4:5 6:5 2:5 8:5 2:5 7:5
7:0 3:5 6:5 5:5 4:5 6:5 2:5 8:5 2:5 7:5 5:5
3:0 6:5 5:5 4:5 6:5 2:5 8:5 2:5 7:5 5:5 3:5
6:0 5:5 4:5 6:5 2:5 8:5 2:5 7:5 5:5 3:5 7:5
5:0 4:5 6:5 2:5 8:5 2:5 7:5 5:5 3:5 7:5 2:5
4:0 6:5 2:5 8:5 2:5 7:5 5:5 3:5 7:5 2:5 7:5
6:0 2:5 8:5 2:5 7:5 5:5 3:5 7:5 2:5 7:5 5:5
2:0 8:5 2:5 7:5 5:5 3:5 7:5 2:5 7:5 5:5 3:5
8:0 2:5 7:5 5:5 3:5 7:5 2:5 7:5 5:5 3:5 8:5
2:0 7:5 5:5 3:5 7:5 2:5 7:5 5:5 3:5 8:5 2:5
7:0 5:5 3:5 7:5 2:5 7:5 5:5 3:5 8:5 2:5 9:5
5:0 3:5 7:5 2:5 7:5 5:5 3:5 8:5 2:5 9:5 3:5
3:0 7:5 2:5 7:5 5:5 3:5 8:5 2:5 9:5 3:5 5:5
7:0 2:5 7:5 5:5 3:5 8:5 2:5 9:5 3:5 5:5 4:10
2:0 7:5 5:5 3:5 8:5 2:5 9:5 3:5 5:5 4:10 7:5
7:0 5:5 3:5 8:5 2:5 9:5 3:5 5:5 4:10 7:5 3:5
5:0 3:5 8:5 2:5 9:5 3:5 5:5 4:10 7:5 3:5 8:5
3:0 8:5 2:5 9:5 3:5 5:5 4:10 7:5 3:5 8:5 3:5
8:0 2:5 9:5 3:5 5:5 4:10 7:5 3:5 8:5 3:5 5:5
2:0 9:5 3:5 5:5 4:10 7:5 3:5 8:5 3:5 5:5 6:5
9:0 3:5 5:5 4:10 7:5 3:5 8:5 3:5 5:5 6:5 2:5
3:0 5:5 4:10 7:5 3:5 8:5 3:5 5:5 6:5 2:5 9:5
5:0 4:10 7:5 3:5 8:5 3:5 5:5 6:5 2:5 9:5 2:5
4:0 7:5 3:5 8:5 3:5 5:5 6:5 2:5 9:5 2:5 7:5
7:0 3:5 8:5 3:5 5:5 6:5 2:5 9:5 2:5 7:5 5:5
3:0 8:5 3:5 5:5 6:5 2:5 9:5 2:5 7:5 5:5 3:5
8:0 3:5 5:5 6:5 2:5 9:5 2:5 7:5 5:5 3:5 7:5
3:0 5:5 6:5 2:5 9:5 2:5 7:5 5:5 3:5 7:5 2:5
5:0 6:5 2:5 9:5 2:5 7:5 5:5 3:5 7:5 2:5 9:5
6:0 2:5 9:5 2:5 7:5 5:5 3:5 7:5 2:5 9:5 3:5
2:0 9:5 2:5 7:5 5:5 3:5 7:5 2:5 9:5 3:5 4:5
9:0 2:5 7:5 5:5 3:5 7:5 2:5 9:5 3:5 4:5 6:5
2:0 7:5 5:5 3:5 7:5 2:5 9:5 3:5 4:5 6:5 3:5
7:0 5:5 3:5 7:5 2:5 9:5 3:5 4:5 6:5 3:5 8:5
5:0 3:5 7:5 2:5 9:5 3:5 4:5 6:5 3:5 8:5 3:5
3:0 7:5 2:5 9:5 3:5 4:5 6:5 3:5 8:5 3:5 6:5
7:0 2:5 9:5 3:5 4:5 6:5 3:5 8:5 3:5 6:5 5:5
2:0 9:5 3:5 4:5 6:5 3:5 8:5 3:5 6:5 5:5 4:5
9:0 3:5 4:5 6:5 3:5 8:5 3:5 6:5 5:5 4:5 7:5
3:0 4:5 6:5 3:5 8:5 3:5 6:5 5:5 4:5 7:5 3:5
4:0 6:5 3:5 8:5 3:5 6:5 5:5 4:5 7:5 3:5 6:5
6:0 3:5 8:5 3:5 6:5 5:5 4:5 7:5 3:5 6:5 4:5
3:0 8:5 3:5 6:5 5:5 4:5 7:5 3:5 6:5 4:5 6:5
8:0 3:5 6:5 5:5 4:5 7:5 3:5 6:5 4:5 6:5 2:10
3:0 6:5 5:5 4:5 7:5 3:5 6:5 4:5 6:5 2:10 8:5
6:0 5:5 4:5 7:5 3:5 6:5 4:5 6:5 2:10 8:5 3:5
5:0 4:5 7:5 3:5 6:5 4:5 6:5 2:10 8:5 3:5 6:5
4:0 7:5 3:5 6:5 4:5 6:5 2:10 8:5 3:5 6:5 2:10
7:0 3:5 6:5 4:5 6:5 2:10 8:5 3:5 6:5 2:10 8:5
3:0 6:5 4:5 6:5 2:10 8:5 3:5 6:5 2:10 8:5 2:5
6:0 4:5 6:5 2:10 8:5 3:5 6:5 2:10 8:5 2:5 6:5
4:0 6:5 2:10 8:5 3:5 6:5 2:10 8:5 2:5 6:5 5:5
6:0 2:10 8:5 3:5 6:5 2:10 8:5 2:5 6:5 5:5 3:5
2:0 8:5 3:5 6:5 2:10 8:5 2:5 6:5 5:5 3:5 7:5
8:0 3:5 6:5 2:10 8:5 2:5 6:5 5:5 3:5 7:5 2:5
3:0 6:5 2:10 8:5 2:5 6:5 5:5 3:5 7:5 2:5 8:5
6:0 2:10 8:5 2:5 6:5 5:5 3:5 7:5 2:5 8:5 3:5
2:0 8:5 2:5 6:5 5:5 3:5 7:5 2:5 8:5 3:5 4:5
8:0 2:5 6:5 5:5 3:5 7:5 2:5 8:5 3:5 4:5 7:5
2:0 6:5 5:5 3:5 7:5 2:5 8:5 3:5 4:5 7:5 3:5
6:0 5:5 3:5 7:5 2:5 8:5 3:5 4:5 7:5 3:5 8:5
5:0 3:5 7:5 2:5 8:5 3:5 4:5 7:5 3:5 8:5 3:5
3:0 7:5 2:5 8:5 3:5 4:5 7:5 3:5 8:5 3:5 6:5
7:0 2:5 8:5 3:5 4:5 7:5 3:5 8:5 3:5 6:5 5:5
2:0 8:5 3:5 4:5 7:5 3:5 8:5 3:5 6:5 5:5 3:5
8:0 3:5 4:5 7:5 3:5 8:5 3:5 6:5 5:5 3:5 7:5
3:0 4:5 7:5 3:5 8:5 3:5 6:5 5:5 3:5 7:5 3:5
4:0 7:5 3:5 8:5 3:5 6:5 5:5 3:5 7:5 3:5 7:5
7:0 3:5 8:5 3:5 6:5 5:5 3:5 7:5 3:5 7:5 4:5
3:0 8:5 3:5 6:5 5:5 3:5 7:5 3:5 7:5 4:5 5:5
8:0 3:5 6:5 5:5 3:5 7:5 3:5 7:5 4:5 5:5 6:5
3:0 6:5 5:5 3:5 7:5 3:5 7:5 4:5 5:5 6:5 2:5
6:0 5:5 3:5 7:5 3:5 7:5 4:5 5:5 6:5 2:5 7:5
5:0 3:5 7:5 3:5 7:5 4:5 5:5 6:5 2:5 7:5 4:5
3:0 7:5 3:5 7:5 4:5 5:5 6:5 2:5 7:5 4:5 6:5
7:0 3:5 7:5 4:5 5:5 6:5 2:5 7:5 4:5 6:5 3:10
3:0 7:5 4:5 5:5 6:5 2:5 7:5 4:5 6:5 3:10 8:5
7:0 4:5 5:5 6:5 2:5 7:5 4:5 6:5 3:10 8:5 2:5
4:0 5:5 6:5 2:5 7:5 4:5 6:5 3:10 8:5 2:5 7:5
5:0 6:5 2:5 7:5 4:5 6:5 3:10 8:5 2:5 7:5 3:5
6:0 2:5 7:5 4:5 6:5 3:10 8:5 2:5 7:5 3:5 4:5
2:0 7:5 4:5 6:5 3:10 8:5 2:5 7:5 3:5 4:5 7:5
7:0 4:5 6:5 3:10 8:5 2:5 7:5 3:5 4:5 7:5 2:5
4:0 6:5 3:10 8:5 2:5 7:5 3:5 4:5 7:5 2:5 8:5
6:0 3:10 8:5 2:5 7:5 3:5 4:5 7:5 2:5 8:5 3:5
3:0 8:5 2:5 7:5 3:5 4:5 7:5 2:5 8:5 3:5 6:5
8:0 2:5 7:5 3:5 4:5 7:5 2:5 8:5 3:5 6:5 5:5
2:0 7:5 3:5 4:5 7:5 2:5 8:5 3:5 6:5 5:5 4:5
7:0 3:5 4:5 7:5 2:5 8:5 3:5 6:5 5:5 4:5 8:5
3:0 4:5 7:5 2:5 8:5 3:5 6:5 5:5 4:5 8:5 3:5
4:0 7:5 2:5 8:5 3:5 6:5 5:5 4:5 8:5 3:5 6:5
7:0 2:5 8:5 3:5 6:5 5:5 4:5 8:5 3:5 6:5 4:5
2:0 8:5 3:5 6:5 5:5 4:5 8:5 3:5 6:5 4:5 6:5
8:0 3:5 6:5 5:5 4:5 8:5 3:5 6:5 4:5 6:5 2:10
3:0 6:5 5:5 4:5 8:5 3:5 6:5 4:5 6:5 2:10 8:5
6:0 5:5 4:5 8:5 3:5 6:5 4:5 6:5 2:10 8:5 3:5
5:0 4:5 8:5 3:5 6:5 4:5 6:5 2:10 8:5 3:5 7:5
4:0 8:5 3:5 6:5 4:5 6:5 2:10 8:5 3:5 7:5 5:5
8:0 3:5 6:5 4:5 6:5 2:10 8:5 3:5 7:5 5:5 7:10
3:0 6:5 4:5 6:5 2:10 8:5 3:5 7:5 5:5 7:10 2:5
6:0 4:5 6:5 2:10 8:5 3:5 7:5 5:5 7:10 2:5 8:5
4:0 6:5 2:10 8:5 3:5 7:5 5:5 7:10 2:5 8:5 4:5
6:0 2:10 8:5 3:5 7:5 5:5 7:10 2:5 8:5 4:5 7:10
2:0 8:5 3:5 7:5 5:5 7:10 2:5 8:5 4:5 7:10 3:5
8:0 3:5 7:5 5:5 7:10 2:5 8:5 4:5 7:10 3:5 8:5
3:0 7:5 5:5 7:10 2:5 8:5 4:5 7:10 3:5 8:5 3:5
7:0 5:5 7:10 2:5 8:5 4:5 7:10 3:5 8:5 3:5 6:5
5:0 7:10 2:5 8:5 4:5 7:10 3:5 8:5 3:5 6:5 5:5
7:0 2:5 8:5 4:5 7:10 3:5 8:5 3:5 6:5 5:5 4:5
2:0 8:5 4:5 7:10 3:5 8:5 3:5 6:5 5:5 4:5 7:5
8:0 4:5 7:10 3:5 8:5 3:5 6:5 5:5 4:5 7:5 2:5
4:0 7:10 3:5 8:5 3:5 6:5 5:5 4:5 7:5 2:5 8:5
7:0 3:5 8:5 3:5 6:5 5:5 4:5 7:5 2:5 8:5 2:5
3:0 8:5 3:5 6:5 5:5 4:5 7:5 2:5 8:5 2:5 6:5
8:0 3:5 6:5 5:5 4:5 7:5 2:5 8:5 2:5 6:5 3:10
3:0 6:5 5:5 4:5 7:5 2:5 8:5 2:5 6:5 3:10 8:5
6:0 5:5 4:5 7:5 2:5 8:5 2:5 6:5 3:10 8:5 2:5
5:0 4:5 7:5 2:5 8:5 2:5 6:5 3:10 8:5 2:5 8:5
4:0 7:5 2:5 8:5 2:5 6:5 3:10 8:5 2:5 8:5 3:5
7:0 2:5 8:5 2:5 6:5 3:10 8:5 2:5 8:5 3:5 4:5
2:0 8:5 2:5 6:5 3:10 8:5 2:5 8:5 3:5 4:5 7:5
8:0 2:5 6:5 3:10 8:5 2:5 8:5 3:5 4:5 7:5 2:5
2:0 6:5 3:10 8:5 2:5 8:5 3:5 4:5 7:5 2:5 9:5
6:0 3:10 8:5 2:5 8:5 3:5 4:5 7:5 2:5 9:5 3:5
3:0 8:5 2:5 8:5 3:5 4:5 7:5 2:5 9:5 3:5 4:5
8:0 2:5 8:5 3:5 4:5 7:5 2:5 9:5 3:5 4:5 6:5
2:0 8:5 3:5 4:5 7:5 2:5 9:5 3:5 4:5 6:5 3:5
8:0 3:5 4:5 7:5 2:5 9:5 3:5 4:5 6:5 3:5 8:5
3:0 4:5 7:5 2:5 9:5 3:5 4:5 6:5 3:5 8:5 3:5
4:0 7:5 2:5 9:5 3:5 4:5 6:5 3:5 8:5 3:5 6:5
7:0 2:5 9:5 3:5 4:5 6:5 3:5 8:5 3:5 6:5 5:5
2:0 9:5 3:5 4:5 6:5 3:5 8:5 3:5 6:5 5:5 4:5
9:0 3:5 4:5 6:5 3:5 8:5 3:5 6:5 5:5 4:5 7:5
3:0 4:5 6:5 3:5 8:5 3:5 6:5 5:5 4:5 7:5 3:5
4:0 6:5 3:5 8:5 3:5 6:5 5:5 4:5 7:5 3:5 6:5
6:0 3:5 8:5 3:5 6:5 5:5 4:5 7:5 3:5 6:5 4:5
3:0 8:5 3:5 6:5 5:5 4:5 7:5 3:5 6:5 4:5 6:10
8:0 3:5 6:5 5:5 4:5 7:5 3:5 6:5 4:5 6:10 2:5
3:0 6:5 5:5 4:5 7:5 3:5 6:5 4:5 6:10 2:5 8:5
6:0 5:5 4:5 7:5 3:5 6:5 4:5 6:10 2:5 8:5 2:5
5:0 4:5 7:5 3:5 6:5 4:5 6:10 2:5 8:5 2:5 7:5
4:0 7:5 3:5 6:5 4:5 6:10 2:5 8:5 2:5 7:5 5:5
7:0 3:5 6:5 4:5 6:10 2:5 8:5 2:5 7:5 5:5 3:5
3:0 6:5 4:5 6:10 2:5 8:5 2:5 7:5 5:5 3:5 7:5
6:0 4:5 6:10 2:5 8:5 2:5 7:5 5:5 3:5 7:5 2:5
4:0 6:10 2:5 8:5 2:5 7:5 5:5 3:5 7:5 2:5 8:5
6:0 2:5 8:5 2:5 7:5 5:5 3:5 7:5 2:5 8:5 3:5
2:0 8:5 2:5 7:5 5:5 3:5 7:5 2:5 8:5 3:5 4:5
8:0 2:5 7:5 5:5 3:5 7:5 2:5 8:5 3:5 4:5 7:5
2:0 7:5 5:5 3:5 7:5 2:5 8:5 3:5 4:5 7:5 4:5
7:0 5:5 3:5 7:5 2:5 8:5 3:5 4:5 7:5 4:5 8:5
5:0 3:5 7:5 2:5 8:5 3:5 4:5 7:5 4:5 8:5 3:5
3:0 7:5 2:5 8:5 3:5 4:5 7:5 4:5 8:5 3:5 6:5
7:0 2:5 8:5 3:5 4:5 7:5 4:5 8:5 3:5 6:5 5:5
2:0 8:5 3:5 4:5 7:5 4:5 8:5 3:5 6:5 5:5 7:10
8:0 3:5 4:5 7:5 4:5 8:5 3:5 6:5 5:5 7:10 3:5
3:0 4:5 7:5 4:5 8:5 3:5 6:5 5:5 7:10 3:5 7:5
4:0 7:5 4:5 8:5 3:5 6:5 5:5 7:10 3:5 7:5 4:5
7:0 4:5 8:5 3:5 6:5 5:5 7:10 3:5 7:5 4:5 6:5
4:0 8:5 3:5 6:5 5:5 7:10 3:5 7:5 4:5 6:5 2:10
8:0 3:5 6:5 5:5 7:10 3:5 7:5 4:5 6:5 2:10 8:5
3:0 6:5 5:5 7:10 3:5 7:5 4:5 6:5 2:10 8:5 2:5
6:0 5:5 7:10 3:5 7:5 4:5 6:5 2:10 8:5 2:5 7:5
5:0 7:10 3:5 7:5 4:5 6:5 2:10 8:5 2:5 7:5 5:5
7:0 3:5 7:5 4:5 6:5 2:10 8:5 2:5 7:5 5:5 2:5
3:0 7:5 4:5 6:5 2:10 8:5 2:5 7:5 5:5 2:5 8:5
7:0 4:5 6:5 2:10 8:5 2:5 7:5 5:5 2:5 8:5 2:5
4:0 6:5 2:10 8:5 2:5 7:5 5:5 2:5 8:5 2:5 8:5
6:0 2:10 8:5 2:5 7:5 5:5 2:5 8:5 2:5 8:5 3:5
2:0 8:5 2:5 7:5 5:5 2:5 8:5 2:5 8:5 3:5 4:5
8:0 2:5 7:5 5:5 2:5 8:5 2:5 8:5 3:5 4:5 6:5
2:0 7:5 5:5 2:5 8:5 2:5 8:5 3:5 4:5 6:5 3:5
7:0 5:5 2:5 8:5 2:5 8:5 3:5 4:5 6:5 3:5 8:5
5:0 2:5 8:5 2:5 8:5 3:5 4:5 6:5 3:5 8:5 3:5
2:0 8:5 2:5 8:5 3:5 4:5 6:5 3:5 8:5 3:5 6:5
8:0 2:5 8:5 3:5 4:5 6:5 3:5 8:5 3:5 6:5 5:5
2:0 8:5 3:5 4:5 6:5 3:5 8:5 3:5 6:5 5:5 4:5
8:0 3:5 4:5 6:5 3:5 8:5 3:5 6:5 5:5 4:5 7:5
3:0 4:5 6:5 3:5 8:5 3:5 6:5 5:5 4:5 7:5 2:5
4:0 6:5 3:5 8:5 3:5 6:5 5:5 4:5 7:5 2:5 7:5
6:0 3:5 8:5 3:5 6:5 5:5 4:5 7:5 2:5 7:5 3:5
3:0 8:5 3:5 6:5 5:5 4:5 7:5 2:5 7:5 3:5 5:5
8:0 3:5 6:5 5:5 4:5 7:5 2:5 7:5 3:5 5:5 6:5
3:0 6:5 5:5 4:5 7:5 2:5 7:5 3:5 5:5 6:5 2:5
6:0 5:5 4:5 7:5 2:5 7:5 3:5 5:5 6:5 2:5 9:5
5:0 4:5 7:5 2:5 7:5 3:5 5:5 6:5 2:5 9:5 2:5
4:0 7:5 2:5 7:5 3:5 5:5 6:5 2:5 9:5 2:5 7:5
7:0 2:5 7:5 3:5 5:5 6:5 2:5 9:5 2:5 7:5 5:5
2:0 7:5 3:5 5:5 6:5 2:5 9:5 2:5 7:5 5:5 4:5
7:0 3:5 5:5 6:5 2:5 9:5 2:5 7:5 5:5 4:5 6:5
3:0 5:5 6:5 2:5 9:5 2:5 7:5 5:5 4:5 6:5 2:5
5:0 6:5 2:5 9:5 2:5 7:5 5:5 4:5 6:5 2:5 8:5
6:0 2:5 9:5 2:5 7:5 5:5 4:5 6:5 2:5 8:5 3:5
2:0 9:5 2:5 7:5 5:5 4:5 6:5 2:5 8:5 3:5 4:5
9:0 2:5 7:5 5:5 4:5 6:5 2:5 8:5 3:5 4:5 6:5
2:0 7:5 5:5 4:5 6:5 2:5 8:5 3:5 4:5 6:5 2:5
7:0 5:5 4:5 6:5 2:5 8:5 3:5 4:5 6:5 2:5 8:5
5:0 4:5 6:5 2:5 8:5 3:5 4:5 6:5 2:5 8:5 3:5
4:0 6:5 2:5 8:5 3:5 4:5 6:5 2:5 8:5 3:5 4:5
6:0 2:5 8:5 3:5 4:5 6:5 2:5 8:5 3:5 4:5 5:5
2:0 8:5 3:5 4:5 6:5 2:5 8:5 3:5 4:5 5:5 3:5
8:0 3:5 4:5 6:5 2:5 8:5 3:5 4:5 5:5 3:5 7:5
3:0 4:5 6:5 2:5 8:5 3:5 4:5 5:5 3:5 7:5 2:5
4:0 6:5 2:5 8:5 3:5 4:5 5:5 3:5 7:5 2:5 7:5
6:0 2:5 8:5 3:5 4:5 5:5 3:5 7:5 2:5 7:5 4:5
2:0 8:5 3:5 4:5 5:5 3:5 7:5 2:5 7:5 4:5 5:5
8:0 3:5 4:5 5:5 3:5 7:5 2:5 7:5 4:5 5:5 6:5
3:0 4:5 5:5 3:5 7:5 2:5 7:5 4:5 5:5 6:5 2:5
4:0 5:5 3:5 7:5 2:5 7:5 4:5 5:5 6:5 2:5 8:5
5:0 3:5 7:5 2:5 7:5 4:5 5:5 6:5 2:5 8:5 3:5
3:0 7:5 2:5 7:5 4:5 5:5 6:5 2:5 8:5 3:5 7:5
7:0 2:5 7:5 4:5 5:5 6:5 2:5 8:5 3:5 7:5 5:5
2:0 7:5 4:5 5:5 6:5 2:5 8:5 3:5 7:5 5:5 2:5
7:0 4:5 5:5 6:5 2:5 8:5 3:5 7:5 5:5 2:5 8:5
4:0 5:5 6:5 2:5 8:5 3:5 7:5 5:5 2:5 8:5 2:5
5:0 6:5 2:5 8:5 3:5 7:5 5:5 2:5 8:5 2:5 7:5
6:0 2:5 8:5 3:5 7:5 5:5 2:5 8:5 2:5 7:5 5:5
2:0 8:5 3:5 7:5 5:5 2:5 8:5 2:5 7:5 5:5 4:5
8:0 3:5 7:5 5:5 2:5 8:5 2:5 7:5 5:5 4:5 6:5
3:0 7:5 5:5 2:5 8:5 2:5 7:5 5:5 4:5 6:5 2:5
7:0 5:5 2:5 8:5 2:5 7:5 5:5 4:5 6:5 2:5 8:5
5:0 2:5 8:5 2:5 7:5 5:5 4:5 6:5 2:5 8:5 3:5
2:0 8:5 2:5 7:5 5:5 4:5 6:5 2:5 8:5 3:5 5:5
8:0 2:5 7:5 5:5 4:5 6:5 2:5 8:5 3:5 5:5 4:10
2:0 7:5 5:5 4:5 6:5 2:5 8:5 3:5 5:5 4:10 7:5
7:0 5:5 4:5 6:5 2:5 8:5 3:5 5:5 4:10 7:5 3:5
5:0 4:5 6:5 2:5 8:5 3:5 5:5 4:10 7:5 3:5 8:5
4:0 6:5 2:5 8:5 3:5 5:5 4:10 7:5 3:5 8:5 4:5
6:0 2:5 8:5 3:5 5:5 4:10 7:5 3:5 8:5 4:5 5:5
2:0 8:5 3:5 5:5 4:10 7:5 3:5 8:5 4:5 5:5 6:5
8:0 3:5 5:5 4:10 7:5 3:5 8:5 4:5 5:5 6:5 3:5
3:0 5:5 4:10 7:5 3:5 8:5 4:5 5:5 6:5 3:5 7:5
5:0 4:10 7:5 3:5 8:5 4:5 5:5 6:5 3:5 7:5 3:5
4:0 7:5 3:5 8:5 4:5 5:5 6:5 3:5 7:5 3:5 7:5
7:0 3:5 8:5 4:5 5:5 6:5 3:5 7:5 3:5 7:5 5:5
3:0 8:5 4:5 5:5 6:5 3:5 7:5 3:5 7:5 5:5 2:5
8:0 4:5 5:5 6:5 3:5 7:5 3:5 7:5 5:5 2:5 8:5
4:0 5:5 6:5 3:5 7:5 3:5 7:5 5:5 2:5 8:5 2:5
5:0 6:5 3:5 7:5 3:5 7:5 5:5 2:5 8:5 2:5 7:5
6:0 3:5 7:5 3:5 7:5 5:5 2:5 8:5 2:5 7:5 3:5
3:0 7:5 3:5 7:5 5:5 2:5 8:5 2:5 7:5 3:5 4:5
7:0 3:5 7:5 5:5 2:5 8:5 2:5 7:5 3:5 4:5 6:5
3:0 7:5 5:5 2:5 8:5 2:5 7:5 3:5 4:5 6:5 3:5
7:0 5:5 2:5 8:5 2:5 7:5 3:5 4:5 6:5 3:5 8:5
5:0 2:5 8:5 2:5 7:5 3:5 4:5 6:5 3:5 8:5 3:5
2:0 8:5 2:5 7:5 3:5 4:5 6:5 3:5 8:5 3:5 5:5
8:0 2:5 7:5 3:5 4:5 6:5 3:5 8:5 3:5 5:5 3:10
2:0 7:5 3:5 4:5 6:5 3:5 8:5 3:5 5:5 3:10 7:5
7:0 3:5 4:5 6:5 3:5 8:5 3:5 5:5 3:10 7:5 2:5
3:0 4:5 6:5 3:5 8:5 3:5 5:5 3:10 7:5 2:5 7:5
4:0 6:5 3:5 8:5 3:5 5:5 3:10 7:5 2:5 7:5 4:5
6:0 3:5 8:5 3:5 5:5 3:10 7:5 2:5 7:5 4:5 5:5
3:0 8:5 3:5 5:5 3:10 7:5 2:5 7:5 4:5 5:5 6:5
8:0 3:5 5:5 3:10 7:5 2:5 7:5 4:5 5:5 6:5 2:5
3:0 5:5 3:10 7:5 2:5 7:5 4:5 5:5 6:5 2:5 7:5
5:0 3:10 7:5 2:5 7:5 4:5 5:5 6:5 2:5 7:5 3:5
3:0 7:5 2:5 7:5 4:5 5:5 6:5 2:5 7:5 3:5 6:5
7:0 2:5 7:5 4:5 5:5 6:5 2:5 7:5 3:5 6:5 5:5
2:0 7:5 4:5 5:5 6:5 2:5 7:5 3:5 6:5 5:5 3:5
7:0 4:5 5:5 6:5 2:5 7:5 3:5 6:5 5:5 3:5 8:5
4:0 5:5 6:5 2:5 7:5 3:5 6:5 5:5 3:5 8:5 2:5
5:0 6:5 2:5 7:5 3:5 6:5 5:5 3:5 8:5 2:5 8:5
6:0 2:5 7:5 3:5 6:5 5:5 3:5 8:5 2:5 8:5 4:5
2:0 7:5 3:5 6:5 5:5 3:5 8:5 2:5 8:5 4:5 3:5
7:0 3:5 6:5 5:5 3:5 8:5 2:5 8:5 4:5 3:5 7:5
3:0 6:5 5:5 3:5 8:5 2:5 8:5 4:5 3:5 7:5 2:5
6:0 5:5 3:5 8:5 2:5 8:5 4:5 3:5 7:5 2:5 8:5
5:0 3:5 8:5 2:5 8:5 4:5 3:5 7:5 2:5 8:5 3:5
3:0 8:5 2:5 8:5 4:5 3:5 7:5 2:5 8:5 3:5 5:5
8:0 2:5 8:5 4:5 3:5 7:5 2:5 8:5 3:5 5:5 3:10
2:0 8:5 4:5 3:5 7:5 2:5 8:5 3:5 5:5 3:10 8:5
8:0 4:5 3:5 7:5 2:5 8:5 3:5 5:5 3:10 8:5 2:5
4:0 3:5 7:5 2:5 8:5 3:5 5:5 3:10 8:5 2:5 8:5
3:0 7:5 2:5 8:5 3:5 5:5 3:10 8:5 2:5 8:5 3:5
7:0 2:5 8:5 3:5 5:5 3:10 8:5 2:5 8:5 3:5 5:5
2:0 8:5 3:5 5:5 3:10 8:5 2:5 8:5 3:5 5:5 6:5
8:0 3:5 5:5 3:10 8:5 2:5 8:5 3:5 5:5 6:5 2:5
3:0 5:5 3:10 8:5 2:5 8:5 3:5 5:5 6:5 2:5 8:5
5:0 3:10 8:5 2:5 8:5 3:5 5:5 6:5 2:5 8:5 2:5
3:0 8:5 2:5 8:5 3:5 5:5 6:5 2:5 8:5 2:5 7:5
8:0 2:5 8:5 3:5 5:5 6:5 2:5 8:5 2:5 7:5 6:5
2:0 8:5 3:5 5:5 6:5 2:5 8:5 2:5 7:5 6:5 3:5
8:0 3:5 5:5 6:5 2:5 8:5 2:5 7:5 6:5 3:5 8:5
3:0 5:5 6:5 2:5 8:5 2:5 7:5 6:5 3:5 8:5 2:5
5:0 6:5 2:5 8:5 2:5 7:5 6:5 3:5 8:5 2:5 8:5
6:0 2:5 8:5 2:5 7:5 6:5 3:5 8:5 2:5 8:5 3:5
2:0 8:5 2:5 7:5 6:5 3:5 8:5 2:5 8:5 3:5 4:5
8:0 2:5 7:5 6:5 3:5 8:5 2:5 8:5 3:5 4:5 6:5
2:0 7:5 6:5 3:5 8:5 2:5 8:5 3:5 4:5 6:5 3:5
7:0 6:5 3:5 8:5 2:5 8:5 3:5 4:5 6:5 3:5 8:5
6:0 3:5 8:5 2:5 8:5 3:5 4:5 6:5 3:5 8:5 3:5
3:0 8:5 2:5 8:5 3:5 4:5 6:5 3:5 8:5 3:5 5:5
8:0 2:5 8:5 3:5 4:5 6:5 3:5 8:5 3:5 5:5 4:10
2:0 8:5 3:5 4:5 6:5 3:5 8:5 3:5 5:5 4:10 7:5
8:0 3:5 4:5 6:5 3:5 8:5 3:5 5:5 4:10 7:5 3:5
3:0 4:5 6:5 3:5 8:5 3:5 5:5 4:10 7:5 3:5 5:5
4:0 6:5 3:5 8:5 3:5 5:5 4:10 7:5 3:5 5:5 4:5
6:0 3:5 8:5 3:5 5:5 4:10 7:5 3:5 5:5 4:5 6:10
3:0 8:5 3:5 5:5 4:10 7:5 3:5 5:5 4:5 6:10 2:5
8:0 3:5 5:5 4:10 7:5 3:5 5:5 4:5 6:10 2:5 8:5
3:0 5:5 4:10 7:5 3:5 5:5 4:5 6:10 2:5 8:5 2:5
5:0 4:10 7:5 3:5 5:5 4:5 6:10 2:5 8:5 2:5 7:5
4:0 7:5 3:5 5:5 4:5 6:10 2:5 8:5 2:5 7:5 5:5
7:0 3:5 5:5 4:5 6:10 2:5 8:5 2:5 7:5 5:5 3:5
3:0 5:5 4:5 6:10 2:5 8:5 2:5 7:5 5:5 3:5 7:5
5:0 4:5 6:10 2:5 8:5 2:5 7:5 5:5 3:5 7:5 2:5
4:0 6:10 2:5 8:5 2:5 7:5 5:5 3:5 7:5 2:5 7:5
6:0 2:5 8:5 2:5 7:5 5:5 3:5 7:5 2:5 7:5 3:5
2:0 8:5 2:5 7:5 5:5 3:5 7:5 2:5 7:5 3:5 4:5
8:0 2:5 7:5 5:5 3:5 7:5 2:5 7:5 3:5 4:5 6:5
2:0 7:5 5:5 3:5 7:5 2:5 7:5 3:5 4:5 6:5 3:5
7:0 5:5 3:5 7:5 2:5 7:5 3:5 4:5 6:5 3:5 8:5
5:0 3:5 7:5 2:5 7:5 3:5 4:5 6:5 3:5 8:5 3:5
3:0 7:5 2:5 7:5 3:5 4:5 6:5 3:5 8:5 3:5 6:5
7:0 2:5 7:5 3:5 4:5 6:5 3:5 8:5 3:5 6:5 5:5
2:0 7:5 3:5 4:5 6:5 3:5 8:5 3:5 6:5 5:5 7:10
7:0 3:5 4:5 6:5 3:5 8:5 3:5 6:5 5:5 7:10 3:5
3:0 4:5 6:5 3:5 8:5 3:5 6:5 5:5 7:10 3:5 8:5
4:0 6:5 3:5 8:5 3:5 6:5 5:5 7:10 3:5 8:5 4:5
6:0 3:5 8:5 3:5 6:5 5:5 7:10 3:5 8:5 4:5 6:5
3:0 8:5 3:5 6:5 5:5 7:10 3:5 8:5 4:5 6:5 2:10
8:0 3:5 6:5 5:5 7:10 3:5 8:5 4:5 6:5 2:10 8:5
3:0 6:5 5:5 7:10 3:5 8:5 4:5 6:5 2:10 8:5 2:5
6:0 5:5 7:10 3:5 8:5 4:5 6:5 2:10 8:5 2:5 7:5
5:0 7:10 3:5 8:5 4:5 6:5 2:10 8:5 2:5 7:5 5:5
7:0 3:5 8:5 4:5 6:5 2:10 8:5 2:5 7:5 5:5 2:5
3:0 8:5 4:5 6:5 2:10 8:5 2:5 7:5 5:5 2:5 8:5
8:0 4:5 6:5 2:10 8:5 2:5 7:5 5:5 2:5 8:5 2:5
4:0 6:5 2:10 8:5 2:5 7:5 5:5 2:5 8:5 2:5 8:5
6:0 2:10 8:5 2:5 7:5 5:5 2:5 8:5 2:5 8:5 4:5
2:0 8:5 2:5 7:5 5:5 2:5 8:5 2:5 8:5 4:5 3:5
8:0 2:5 7:5 5:5 2:5 8:5 2:5 8:5 4:5 3:5 8:5
2:0 7:5 5:5 2:5 8:5 2:5 8:5 4:5 3:5 8:5 3:5
7:0 5:5 2:5 8:5 2:5 8:5 4:5 3:5 8:5 3:5 8:5
5:0 2:5 8:5 2:5 8:5 4:5 3:5 8:5 3:5 8:5 3:5
2:0 8:5 2:5 8:5 4:5 3:5 8:5 3:5 8:5 3:5 6:5
8:0 2:5 8:5 4:5 3:5 8:5 3:5 8:5 3:5 6:5 3:10
2:0 8:5 4:5 3:5 8:5 3:5 8:5 3:5 6:5 3:10 8:5
8:0 4:5 3:5 8:5 3:5 8:5 3:5 6:5 3:10 8:5 2:5
4:0 3:5 8:5 3:5 8:5 3:5 6:5 3:10 8:5 2:5 7:5
3:0 8:5 3:5 8:5 3:5 6:5 3:10 8:5 2:5 7:5 3:5
8:0 3:5 8:5 3:5 6:5 3:10 8:5 2:5 7:5 3:5 6:5
3:0 8:5 3:5 6:5 3:10 8:5 2:5 7:5 3:5 6:5 3:10
8:0 3:5 6:5 3:10 8:5 2:5 7:5 3:5 6:5 3:10 8:5
3:0 6:5 3:10 8:5 2:5 7:5 3:5 6:5 3:10 8:5 2:5
6:0 3:10 8:5 2:5 7:5 3:5 6:5 3:10 8:5 2:5 7:5
3:0 8:5 2:5 7:5 3:5 6:5 3:10 8:5 2:5 7:5 5:5
8:0 2:5 7:5 3:5 6:5 3:10 8:5 2:5 7:5 5:5 3:5
2:0 7:5 3:5 6:5 3:10 8:5 2:5 7:5 5:5 3:5 7:5
7:0 3:5 6:5 3:10 8:5 2:5 7:5 5:5 3:5 7:5 2:5
3:0 6:5 3:10 8:5 2:5 7:5 5:5 3:5 7:5 2:5 8:5
6:0 3:10 8:5 2:5 7:5 5:5 3:5 7:5 2:5 8:5 3:5
3:0 8:5 2:5 7:5 5:5 3:5 7:5 2:5 8:5 3:5 4:5
8:0 2:5 7:5 5:5 3:5 7:5 2:5 8:5 3:5 4:5 7:5
2:0 7:5 5:5 3:5 7:5 2:5 8:5 3:5 4:5 7:5 2:5
7:0 5:5 3:5 7:5 2:5 8:5 3:5 4:5 7:5 2:5 8:5
5:0 3:5 7:5 2:5 8:5 3:5 4:5 7:5 2:5 8:5 3:5
3:0 7:5 2:5 8:5 3:5 4:5 7:5 2:5 8:5 3:5 4:5
7:0 2:5 8:5 3:5 4:5 7:5 2:5 8:5 3:5 4:5 6:5
2:0 8:5 3:5 4:5 7:5 2:5 8:5 3:5 4:5 6:5 4:5
8:0 3:5 4:5 7:5 2:5 8:5 3:5 4:5 6:5 4:5 7:5
3:0 4:5 7:5 2:5 8:5 3:5 4:5 6:5 4:5 7:5 2:5
4:0 7:5 2:5 8:5 3:5 4:5 6:5 4:5 7:5 2:5 8:5
7:0 2:5 8:5 3:5 4:5 6:5 4:5 7:5 2:5 8:5 4:5
2:0 8:5 3:5 4:5 6:5 4:5 7:5 2:5 8:5 4:5 5:5
8:0 3:5 4:5 6:5 4:5 7:5 2:5 8:5 4:5 5:5 6:5
3:0 4:5 6:5 4:5 7:5 2:5 8:5 4:5 5:5 6:5 2:5
4:0 6:5 4:5 7:5 2:5 8:5 4:5 5:5 6:5 2:5 8:5
6:0 4:5 7:5 2:5 8:5 4:5 5:5 6:5 2:5 8:5 3:5
4:0 7:5 2:5 8:5 4:5 5:5 6:5 2:5 8:5 3:5 6:5
7:0 2:5 8:5 4:5 5:5 6:5 2:5 8:5 3:5 6:5 5:5
2:0 8:5 4:5 5:5 6:5 2:5 8:5 3:5 6:5 5:5 3:5
8:0 4:5 5:5 6:5 2:5 8:5 3:5 6:5 5:5 3:5 8:5
4:0 5:5 6:5 2:5 8:5 3:5 6:5 5:5 3:5 8:5 2:5
5:0 6:5 2:5 8:5 3:5 6:5 5:5 3:5 8:5 2:5 8:5
6:0 2:5 8:5 3:5 6:5 5:5 3:5 8:5 2:5 8:5 3:5
2:0 8:5 3:5 6:5 5:5 3:5 8:5 2:5 8:5 3:5 4:5
8:0 3:5 6:5 5:5 3:5 8:5 2:5 8:5 3:5 4:5 8:5
3:0 6:5 5:5 3:5 8:5 2:5 8:5 3:5 4:5 8:5 2:5
6:0 5:5 3:5 8:5 2:5 8:5 3:5 4:5 8:5 2:5 8:5
5:0 3:5 8:5 2:5 8:5 3:5 4:5 8:5 2:5 8:5 3:5
3:0 8:5 2:5 8:5 3:5 4:5 8:5 2:5 8:5 3:5 7:5
8:0 2:5 8:5 3:5 4:5 8:5 2:5 8:5 3:5 7:5 5:5
2:0 8:5 3:5 4:5 8:5 2:5 8:5 3:5 7:5 5:5 6:10
8:0 3:5 4:5 8:5 2:5 8:5 3:5 7:5 5:5 6:10 2:5
3:0 4:5 8:5 2:5 8:5 3:5 7:5 5:5 6:10 2:5 8:5
4:0 8:5 2:5 8:5 3:5 7:5 5:5 6:10 2:5 8:5 4:5
8:0 2:5 8:5 3:5 7:5 5:5 6:10 2:5 8:5 4:5 5:5
2:0 8:5 3:5 7:5 5:5 6:10 2:5 8:5 4:5 5:5 6:5
8:0 3:5 7:5 5:5 6:10 2:5 8:5 4:5 5:5 6:5 3:5
3:0 7:5 5:5 6:10 2:5 8:5 4:5 5:5 6:5 3:5 6:5
7:0 5:5 6:10 2:5 8:5 4:5 5:5 6:5 3:5 6:5 4:5
5:0 6:10 2:5 8:5 4:5 5:5 6:5 3:5 6:5 4:5 6:5
6:0 2:5 8:5 4:5 5:5 6:5 3:5 6:5 4:5 6:5 3:10
2:0 8:5 4:5 5:5 6:5 3:5 6:5 4:5 6:5 3:10 7:5
8:0 4:5 5:5 6:5 3:5 6:5 4:5 6:5 3:10 7:5 2:5
4:0 5:5 6:5 3:5 6:5 4:5 6:5 3:10 7:5 2:5 8:5
5:0 6:5 3:5 6:5 4:5 6:5 3:10 7:5 2:5 8:5 3:5
6:0 3:5 6:5 4:5 6:5 3:10 7:5 2:5 8:5 3:5 4:5
3:0 6:5 4:5 6:5 3:10 7:5 2:5 8:5 3:5 4:5 6:5
6:0 4:5 6:5 3:10 7:5 2:5 8:5 3:5 4:5 6:5 2:5
4:0 6:5 3:10 7:5 2:5 8:5 3:5 4:5 6:5 2:5 8:5
6:0 3:10 7:5 2:5 8:5 3:5 4:5 6:5 2:5 8:5 3:5
3:0 7:5 2:5 8:5 3:5 4:5 6:5 2:5 8:5 3:5 5:5
7:0 2:5 8:5 3:5 4:5 6:5 2:5 8:5 3:5 5:5 6:5
2:0 8:5 3:5 4:5 6:5 2:5 8:5 3:5 5:5 6:5 4:5
8:0 3:5 4:5 6:5 2:5 8:5 3:5 5:5 6:5 4:5 7:5
3:0 4:5 6:5 2:5 8:5 3:5 5:5 6:5 4:5 7:5 3:5
4:0 6:5 2:5 8:5 3:5 5:5 6:5 4:5 7:5 3:5 7:5
6:0 2:5 8:5 3:5 5:5 6:5 4:5 7:5 3:5 7:5 5:5
2:0 8:5 3:5 5:5 6:5 4:5 7:5 3:5 7:5 5:5 6:10
8:0 3:5 5:5 6:5 4:5 7:5 3:5 7:5 5:5 6:10 2:5
3:0 5:5 6:5 4:5 7:5 3:5 7:5 5:5 6:10 2:5 9:5
5:0 6:5 4:5 7:5 3:5 7:5 5:5 6:10 2:5 9:5 2:5
6:0 4:5 7:5 3:5 7:5 5:5 6:10 2:5 9:5 2:5 7:5
4:0 7:5 3:5 7:5 5:5 6:10 2:5 9:5 2:5 7:5 5:5
7:0 3:5 7:5 5:5 6:10 2:5 9:5 2:5 7:5 5:5 4:5
3:0 7:5 5:5 6:10 2:5 9:5 2:5 7:5 5:5 4:5 7:5
7:0 5:5 6:10 2:5 9:5 2:5 7:5 5:5 4:5 7:5 2:5
5:0 6:10 2:5 9:5 2:5 7:5 5:5 4:5 7:5 2:5 9:5
6:0 2:5 9:5 2:5 7:5 5:5 4:5 7:5 2:5 9:5 4:5
2:0 9:5 2:5 7:5 5:5 4:5 7:5 2:5 9:5 4:5 3:5
9:0 2:5 7:5 5:5 4:5 7:5 2:5 9:5 4:5 3:5 8:5
2:0 7:5 5:5 4:5 7:5 2:5 9:5 4:5 3:5 8:5 2:5
7:0 5:5 4:5 7:5 2:5 9:5 4:5 3:5 8:5 2:5 9:5
5:0 4:5 7:5 2:5 9:5 4:5 3:5 8:5 2:5 9:5 3:5
4:0 7:5 2:5 9:5 4:5 3:5 8:5 2:5 9:5 3:5 4:5
7:0 2:5 9:5 4:5 3:5 8:5 2:5 9:5 3:5 4:5 5:5
2:0 9:5 4:5 3:5 8:5 2:5 9:5 3:5 4:5 5:5 4:5
9:0 4:5 3:5 8:5 2:5 9:5 3:5 4:5 5:5 4:5 7:5
4:0 3:5 8:5 2:5 9:5 3:5 4:5 5:5 4:5 7:5 3:5
3:0 8:5 2:5 9:5 3:5 4:5 5:5 4:5 7:5 3:5 7:5
8:0 2:5 9:5 3:5 4:5 5:5 4:5 7:5 3:5 7:5 4:5
2:0 9:5 3:5 4:5 5:5 4:5 7:5 3:5 7:5 4:5 5:5
9:0 3:5 4:5 5:5 4:5 7:5 3:5 7:5 4:5 5:5 7:5
3:0 4:5 5:5 4:5 7:5 3:5 7:5 4:5 5:5 7:5 2:5
4:0 5:5 4:5 7:5 3:5 7:5 4:5 5:5 7:5 2:5 7:5
5:0 4:5 7:5 3:5 7:5 4:5 5:5 7:5 2:5 7:5 3:5
4:0 7:5 3:5 7:5 4:5 5:5 7:5 2:5 7:5 3:5 7:5
7:0 3:5 7:5 4:5 5:5 7:5 2:5 7:5 3:5 7:5 5:5
3:0 7:5 4:5 5:5 7:5 2:5 7:5 3:5 7:5 5:5 3:5
7:0 4:5 5:5 7:5 2:5 7:5 3:5 7:5 5:5 3:5 7:5
4:0 5:5 7:5 2:5 7:5 3:5 7:5 5:5 3:5 7:5 2:5
5:0 7:5 2:5 7:5 3:5 7:5 5:5 3:5 7:5 2:5 8:5
7:0 2:5 7:5 3:5 7:5 5:5 3:5 7:5 2:5 8:5 3:5
2:0 7:5 3:5 7:5 5:5 3:5 7:5 2:5 8:5 3:5 4:5
7:0 3:5 7:5 5:5 3:5 7:5 2:5 8:5 3:5 4:5 7:5
3:0 7:5 5:5 3:5 7:5 2:5 8:5 3:5 4:5 7:5 3:5
7:0 5:5 3:5 7:5 2:5 8:5 3:5 4:5 7:5 3:5 7:5
5:0 3:5 7:5 2:5 8:5 3:5 4:5 7:5 3:5 7:5 3:5
3:0 7:5 2:5 8:5 3:5 4:5 7:5 3:5 7:5 3:5 6:5
7:0 2:5 8:5 3:5 4:5 7:5 3:5 7:5 3:5 6:5 5:5
2:0 8:5 3:5 4:5 7:5 3:5 7:5 3:5 6:5 5:5 4:5
8:0 3:5 4:5 7:5 3:5 7:5 3:5 6:5 5:5 4:5 7:5
3:0 4:5 7:5 3:5 7:5 3:5 6:5 5:5 4:5 7:5 3:5
4:0 7:5 3:5 7:5 3:5 6:5 5:5 4:5 7:5 3:5 6:5
7:0 3:5 7:5 3:5 6:5 5:5 4:5 7:5 3:5 6:5 4:5
3:0 7:5 3:5 6:5 5:5 4:5 7:5 3:5 6:5 4:5 6:10
7:0 3:5 6:5 5:5 4:5 7:5 3:5 6:5 4:5 6:10 2:5
3:0 6:5 5:5 4:5 7:5 3:5 6:5 4:5 6:10 2:5 8:5
6:0 5:5 4:5 7:5 3:5 6:5 4:5 6:10 2:5 8:5 2:5
5:0 4:5 7:5 3:5 6:5 4:5 6:10 2:5 8:5 2:5 6:5
4:0 7:5 3:5 6:5 4:5 6:10 2:5 8:5 2:5 6:5
7:0 3:5 6:5 4:5 6:10 2:5 8:5 2:5 6:5
3:0 6:5 4:5 6:10 2:5 8:5 2:5 6:5
6:0 4:5 6:10 2:5 8:5 2:5 6:5
4:0 6:10 2:5 8:5 2:5 6:5
6:0 2:5 8:5 2:5 6:5
2:0 8:5 2:5 6:5
8:0 2:5 6:5
2:0 6:5
6:0