6:0 3:5 4:5 3:5 4:5 5:5 4:5 5:5 2:5 4:5 3:10
3:0 4:5 3:5 4:5 5:5 4:5 5:5 2:5 4:5 3:10 5:5
4:0 3:5 4:5 5:5 4:5 5:5 2:5 4:5 3:10 5:5 3:5
3:0 4:5 5:5 4:5 5:5 2:5 4:5 3:10 5:5 3:5 5:5
4:0 5:5 4:5 5:5 2:5 4:5 3:10 5:5 3:5 5:5 4:5
5:0 4:5 5:5 2:5 4:5 3:10 5:5 3:5 5:5 4:5 3:10
4:0 5:5 2:5 4:5 3:10 5:5 3:5 5:5 4:5 3:10 5:5
5:0 2:5 4:5 3:10 5:5 3:5 5:5 4:5 3:10 5:5 3:15
2:0 4:5 3:10 5:5 3:5 5:5 4:5 3:10 5:5 3:15 4:5
4:0 3:10 5:5 3:5 5:5 4:5 3:10 5:5 3:15 4:5 5:10
3:0 5:5 3:5 5:5 4:5 3:10 5:5 3:15 4:5 5:10 2:5
5:0 3:5 5:5 4:5 3:10 5:5 3:15 4:5 5:10 2:5 4:5
3:0 5:5 4:5 3:10 5:5 3:15 4:5 5:10 2:5 4:5 3:5
5:0 4:5 3:10 5:5 3:15 4:5 5:10 2:5 4:5 3:5 4:5
4:0 3:10 5:5 3:15 4:5 5:10 2:5 4:5 3:5 4:5 5:5
3:0 5:5 3:15 4:5 5:10 2:5 4:5 3:5 4:5 5:5 4:5
5:0 3:15 4:5 5:10 2:5 4:5 3:5 4:5 5:5 4:5 2:5
3:0 4:5 5:10 2:5 4:5 3:5 4:5 5:5 4:5 2:5 4:5
4:0 5:10 2:5 4:5 3:5 4:5 5:5 4:5 2:5 4:5 3:10
5:0 2:5 4:5 3:5 4:5 5:5 4:5 2:5 4:5 3:10 4:5
2:0 4:5 3:5 4:5 5:5 4:5 2:5 4:5 3:10 4:5 5:5
4:0 3:5 4:5 5:5 4:5 2:5 4:5 3:10 4:5 5:5 4:5
3:0 4:5 5:5 4:5 2:5 4:5 3:10 4:5 5:5 4:5 3:20
4:0 5:5 4:5 2:5 4:5 3:10 4:5 5:5 4:5 3:20 4:5
5:0 4:5 2:5 4:5 3:10 4:5 5:5 4:5 3:20 4:5 6:5
4:0 2:5 4:5 3:10 4:5 5:5 4:5 3:20 4:5 6:5 4:5
2:0 4:5 3:10 4:5 5:5 4:5 3:20 4:5 6:5 4:5 3:5
4:0 3:10 4:5 5:5 4:5 3:20 4:5 6:5 4:5 3:5 6:5
3:0 4:5 5:5 4:5 3:20 4:5 6:5 4:5 3:5 6:5 2:5
4:0 5:5 4:5 3:20 4:5 6:5 4:5 3:5 6:5 2:5 5:5
5:0 4:5 3:20 4:5 6:5 4:5 3:5 6:5 2:5 5:5 3:5
4:0 3:20 4:5 6:5 4:5 3:5 6:5 2:5 5:5 3:5 4:5
3:0 4:5 6:5 4:5 3:5 6:5 2:5 5:5 3:5 4:5 3:10
4:0 6:5 4:5 3:5 6:5 2:5 5:5 3:5 4:5 3:10 5:5
6:0 4:5 3:5 6:5 2:5 5:5 3:5 4:5 3:10 5:5 4:10
4:0 3:5 6:5 2:5 5:5 3:5 4:5 3:10 5:5 4:10 5:5
3:0 6:5 2:5 5:5 3:5 4:5 3:10 5:5 4:10 5:5 4:10
6:0 2:5 5:5 3:5 4:5 3:10 5:5 4:10 5:5 4:10 3:5
2:0 5:5 3:5 4:5 3:10 5:5 4:10 5:5 4:10 3:5 6:5
5:0 3:5 4:5 3:10 5:5 4:10 5:5 4:10 3:5 6:5 2:5
3:0 4:5 3:10 5:5 4:10 5:5 4:10 3:5 6:5 2:5 6:5
4:0 3:10 5:5 4:10 5:5 4:10 3:5 6:5 2:5 6:5 4:5
3:0 5:5 4:10 5:5 4:10 3:5 6:5 2:5 6:5 4:5 3:5
5:0 4:10 5:5 4:10 3:5 6:5 2:5 6:5 4:5 3:5 4:5
4:0 5:5 4:10 3:5 6:5 2:5 6:5 4:5 3:5 4:5 6:10
5:0 4:10 3:5 6:5 2:5 6:5 4:5 3:5 4:5 6:10 3:5
4:0 3:5 6:5 2:5 6:5 4:5 3:5 4:5 6:10 3:5 6:10
3:0 6:5 2:5 6:5 4:5 3:5 4:5 6:10 3:5 6:10 2:5
6:0 2:5 6:5 4:5 3:5 4:5 6:10 3:5 6:10 2:5 6:5
2:0 6:5 4:5 3:5 4:5 6:10 3:5 6:10 2:5 6:5 3:5
6:0 4:5 3:5 4:5 6:10 3:5 6:10 2:5 6:5 3:5 4:10
4:0 3:5 4:5 6:10 3:5 6:10 2:5 6:5 3:5 4:10 5:5
3:0 4:5 6:10 3:5 6:10 2:5 6:5 3:5 4:10 5:5 4:5
4:0 6:10 3:5 6:10 2:5 6:5 3:5 4:10 5:5 4:5 5:5
6:0 3:5 6:10 2:5 6:5 3:5 4:10 5:5 4:5 5:5 3:5
3:0 6:10 2:5 6:5 3:5 4:10 5:5 4:5 5:5 3:5 5:5
6:0 2:5 6:5 3:5 4:10 5:5 4:5 5:5 3:5 5:5 4:5
2:0 6:5 3:5 4:10 5:5 4:5 5:5 3:5 5:5 4:5 3:5
6:0 3:5 4:10 5:5 4:5 5:5 3:5 5:5 4:5 3:5 4:5
3:0 4:10 5:5 4:5 5:5 3:5 5:5 4:5 3:5 4:5 6:5
4:0 5:5 4:5 5:5 3:5 5:5 4:5 3:5 4:5 6:5 2:5
5:0 4:5 5:5 3:5 5:5 4:5 3:5 4:5 6:5 2:5 5:5
4:0 5:5 3:5 5:5 4:5 3:5 4:5 6:5 2:5 5:5 4:5
5:0 3:5 5:5 4:5 3:5 4:5 6:5 2:5 5:5 4:5 2:10
3:0 5:5 4:5 3:5 4:5 6:5 2:5 5:5 4:5 2:10 4:5
5:0 4:5 3:5 4:5 6:5 2:5 5:5 4:5 2:10 4:5 6:5
4:0 3:5 4:5 6:5 2:5 5:5 4:5 2:10 4:5 6:5 3:5
3:0 4:5 6:5 2:5 5:5 4:5 2:10 4:5 6:5 3:5 4:15
4:0 6:5 2:5 5:5 4:5 2:10 4:5 6:5 3:5 4:15 2:10
6:0 2:5 5:5 4:5 2:10 4:5 6:5 3:5 4:15 2:10 3:5
2:0 5:5 4:5 2:10 4:5 6:5 3:5 4:15 2:10 3:5 4:5
5:0 4:5 2:10 4:5 6:5 3:5 4:15 2:10 3:5 4:5 5:10
4:0 2:10 4:5 6:5 3:5 4:15 2:10 3:5 4:5 5:10 4:10
2:0 4:5 6:5 3:5 4:15 2:10 3:5 4:5 5:10 4:10 5:5
4:0 6:5 3:5 4:15 2:10 3:5 4:5 5:10 4:10 5:5 4:5
6:0 3:5 4:15 2:10 3:5 4:5 5:10 4:10 5:5 4:5 3:10
3:0 4:15 2:10 3:5 4:5 5:10 4:10 5:5 4:5 3:10 5:5
4:0 2:10 3:5 4:5 5:10 4:10 5:5 4:5 3:10 5:5 3:5
2:0 3:5 4:5 5:10 4:10 5:5 4:5 3:10 5:5 3:5 4:5
3:0 4:5 5:10 4:10 5:5 4:5 3:10 5:5 3:5 4:5 5:5
4:0 5:10 4:10 5:5 4:5 3:10 5:5 3:5 4:5 5:5 4:10
5:0 4:10 5:5 4:5 3:10 5:5 3:5 4:5 5:5 4:10 6:10
4:0 5:5 4:5 3:10 5:5 3:5 4:5 5:5 4:10 6:10 2:5
5:0 4:5 3:10 5:5 3:5 4:5 5:5 4:10 6:10 2:5 5:5
4:0 3:10 5:5 3:5 4:5 5:5 4:10 6:10 2:5 5:5 3:5
3:0 5:5 3:5 4:5 5:5 4:10 6:10 2:5 5:5 3:5 4:5
5:0 3:5 4:5 5:5 4:10 6:10 2:5 5:5 3:5 4:5 6:5
3:0 4:5 5:5 4:10 6:10 2:5 5:5 3:5 4:5 6:5 2:5
4:0 5:5 4:10 6:10 2:5 5:5 3:5 4:5 6:5 2:5 5:5
5:0 4:10 6:10 2:5 5:5 3:5 4:5 6:5 2:5 5:5 4:5
4:0 6:10 2:5 5:5 3:5 4:5 6:5 2:5 5:5 4:5 5:5
6:0 2:5 5:5 3:5 4:5 6:5 2:5 5:5 4:5 5:5 4:5
2:0 5:5 3:5 4:5 6:5 2:5 5:5 4:5 5:5 4:5 2:5
5:0 3:5 4:5 6:5 2:5 5:5 4:5 5:5 4:5 2:5 6:5
3:0 4:5 6:5 2:5 5:5 4:5 5:5 4:5 2:5 6:5 3:5
4:0 6:5 2:5 5:5 4:5 5:5 4:5 2:5 6:5 3:5 5:5
6:0 2:5 5:5 4:5 5:5 4:5 2:5 6:5 3:5 5:5 3:5
2:0 5:5 4:5 5:5 4:5 2:5 6:5 3:5 5:5 3:5 2:5
5:0 4:5 5:5 4:5 2:5 6:5 3:5 5:5 3:5 2:5 4:5
4:0 5:5 4:5 2:5 6:5 3:5 5:5 3:5 2:5 4:5 5:5
5:0 4:5 2:5 6:5 3:5 5:5 3:5 2:5 4:5 5:5 6:5
4:0 2:5 6:5 3:5 5:5 3:5 2:5 4:5 5:5 6:5 3:5
2:0 6:5 3:5 5:5 3:5 2:5 4:5 5:5 6:5 3:5 6:10
6:0 3:5 5:5 3:5 2:5 4:5 5:5 6:5 3:5 6:10 2:5
3:0 5:5 3:5 2:5 4:5 5:5 6:5 3:5 6:10 2:5 6:5
5:0 3:5 2:5 4:5 5:5 6:5 3:5 6:10 2:5 6:5 3:5
3:0 2:5 4:5 5:5 6:5 3:5 6:10 2:5 6:5 3:5 2:5
2:0 4:5 5:5 6:5 3:5 6:10 2:5 6:5 3:5 2:5 4:5
4:0 5:5 6:5 3:5 6:10 2:5 6:5 3:5 2:5 4:5 3:15
5:0 6:5 3:5 6:10 2:5 6:5 3:5 2:5 4:5 3:15 5:5
6:0 3:5 6:10 2:5 6:5 3:5 2:5 4:5 3:15 5:5 3:5
3:0 6:10 2:5 6:5 3:5 2:5 4:5 3:15 5:5 3:5 4:5
6:0 2:5 6:5 3:5 2:5 4:5 3:15 5:5 3:5 4:5 5:10
2:0 6:5 3:5 2:5 4:5 3:15 5:5 3:5 4:5 5:10 3:5
6:0 3:5 2:5 4:5 3:15 5:5 3:5 4:5 5:10 3:5 5:5
3:0 2:5 4:5 3:15 5:5 3:5 4:5 5:10 3:5 5:5 6:5
2:0 4:5 3:15 5:5 3:5 4:5 5:10 3:5 5:5 6:5 2:5
4:0 3:15 5:5 3:5 4:5 5:10 3:5 5:5 6:5 2:5 4:5
3:0 5:5 3:5 4:5 5:10 3:5 5:5 6:5 2:5 4:5 5:10
5:0 3:5 4:5 5:10 3:5 5:5 6:5 2:5 4:5 5:10 2:10
3:0 4:5 5:10 3:5 5:5 6:5 2:5 4:5 5:10 2:10 5:5
4:0 5:10 3:5 5:5 6:5 2:5 4:5 5:10 2:10 5:5 4:5
5:0 3:5 5:5 6:5 2:5 4:5 5:10 2:10 5:5 4:5 5:5
3:0 5:5 6:5 2:5 4:5 5:10 2:10 5:5 4:5 5:5 2:10
5:0 6:5 2:5 4:5 5:10 2:10 5:5 4:5 5:5 2:10 4:5
6:0 2:5 4:5 5:10 2:10 5:5 4:5 5:5 2:10 4:5 5:5
2:0 4:5 5:10 2:10 5:5 4:5 5:5 2:10 4:5 5:5 4:5
4:0 5:10 2:10 5:5 4:5 5:5 2:10 4:5 5:5 4:5 5:20
5:0 2:10 5:5 4:5 5:5 2:10 4:5 5:5 4:5 5:20 6:5
2:0 5:5 4:5 5:5 2:10 4:5 5:5 4:5 5:20 6:5 4:5
5:0 4:5 5:5 2:10 4:5 5:5 4:5 5:20 6:5 4:5 3:10
4:0 5:5 2:10 4:5 5:5 4:5 5:20 6:5 4:5 3:10 5:5
5:0 2:10 4:5 5:5 4:5 5:20 6:5 4:5 3:10 5:5 4:5
2:0 4:5 5:5 4:5 5:20 6:5 4:5 3:10 5:5 4:5 5:10
4:0 5:5 4:5 5:20 6:5 4:5 3:10 5:5 4:5 5:10 4:5
5:0 4:5 5:20 6:5 4:5 3:10 5:5 4:5 5:10 4:5 5:5
4:0 5:20 6:5 4:5 3:10 5:5 4:5 5:10 4:5 5:5 4:10
5:0 6:5 4:5 3:10 5:5 4:5 5:10 4:5 5:5 4:10 2:5
6:0 4:5 3:10 5:5 4:5 5:10 4:5 5:5 4:10 2:5 4:5
4:0 3:10 5:5 4:5 5:10 4:5 5:5 4:10 2:5 4:5 3:5
3:0 5:5 4:5 5:10 4:5 5:5 4:10 2:5 4:5 3:5 5:5
5:0 4:5 5:10 4:5 5:5 4:10 2:5 4:5 3:5 5:5 3:5
4:0 5:10 4:5 5:5 4:10 2:5 4:5 3:5 5:5 3:5 4:5
5:0 4:5 5:5 4:10 2:5 4:5 3:5 5:5 3:5 4:5 5:5
4:0 5:5 4:10 2:5 4:5 3:5 5:5 3:5 4:5 5:5 4:10
5:0 4:10 2:5 4:5 3:5 5:5 3:5 4:5 5:5 4:10 5:10
4:0 2:5 4:5 3:5 5:5 3:5 4:5 5:5 4:10 5:10 2:5
2:0 4:5 3:5 5:5 3:5 4:5 5:5 4:10 5:10 2:5 4:5
4:0 3:5 5:5 3:5 4:5 5:5 4:10 5:10 2:5 4:5 3:5
3:0 5:5 3:5 4:5 5:5 4:10 5:10 2:5 4:5 3:5 4:10
5:0 3:5 4:5 5:5 4:10 5:10 2:5 4:5 3:5 4:10 5:10
3:0 4:5 5:5 4:10 5:10 2:5 4:5 3:5 4:10 5:10 4:10
4:0 5:5 4:10 5:10 2:5 4:5 3:5 4:10 5:10 4:10 3:25
5:0 4:10 5:10 2:5 4:5 3:5 4:10 5:10 4:10 3:25 5:5
4:0 5:10 2:5 4:5 3:5 4:10 5:10 4:10 3:25 5:5 1:5
5:0 2:5 4:5 3:5 4:10 5:10 4:10 3:25 5:5 1:5 6:5
2:0 4:5 3:5 4:10 5:10 4:10 3:25 5:5 1:5 6:5 4:5
4:0 3:5 4:10 5:10 4:10 3:25 5:5 1:5 6:5 4:5 5:5
3:0 4:10 5:10 4:10 3:25 5:5 1:5 6:5 4:5 5:5 4:5
4:0 5:10 4:10 3:25 5:5 1:5 6:5 4:5 5:5 4:5 3:15
5:0 4:10 3:25 5:5 1:5 6:5 4:5 5:5 4:5 3:15 5:5
4:0 3:25 5:5 1:5 6:5 4:5 5:5 4:5 3:15 5:5 3:5
3:0 5:5 1:5 6:5 4:5 5:5 4:5 3:15 5:5 3:5 5:5
5:0 1:5 6:5 4:5 5:5 4:5 3:15 5:5 3:5 5:5 4:5
1:0 6:5 4:5 5:5 4:5 3:15 5:5 3:5 5:5 4:5 5:10
6:0 4:5 5:5 4:5 3:15 5:5 3:5 5:5 4:5 5:10 4:5
4:0 5:5 4:5 3:15 5:5 3:5 5:5 4:5 5:10 4:5 5:15
5:0 4:5 3:15 5:5 3:5 5:5 4:5 5:10 4:5 5:15 3:5
4:0 3:15 5:5 3:5 5:5 4:5 5:10 4:5 5:15 3:5 4:5
3:0 5:5 3:5 5:5 4:5 5:10 4:5 5:15 3:5 4:5 6:5
5:0 3:5 5:5 4:5 5:10 4:5 5:15 3:5 4:5 6:5 3:5
3:0 5:5 4:5 5:10 4:5 5:15 3:5 4:5 6:5 3:5 5:10
5:0 4:5 5:10 4:5 5:15 3:5 4:5 6:5 3:5 5:10 4:5
4:0 5:10 4:5 5:15 3:5 4:5 6:5 3:5 5:10 4:5 5:5
5:0 4:5 5:15 3:5 4:5 6:5 3:5 5:10 4:5 5:5 3:5
4:0 5:15 3:5 4:5 6:5 3:5 5:10 4:5 5:5 3:5 4:10
5:0 3:5 4:5 6:5 3:5 5:10 4:5 5:5 3:5 4:10 2:5
3:0 4:5 6:5 3:5 5:10 4:5 5:5 3:5 4:10 2:5 6:5
4:0 6:5 3:5 5:10 4:5 5:5 3:5 4:10 2:5 6:5 3:5
6:0 3:5 5:10 4:5 5:5 3:5 4:10 2:5 6:5 3:5 4:5
3:0 5:10 4:5 5:5 3:5 4:10 2:5 6:5 3:5 4:5 5:5
5:0 4:5 5:5 3:5 4:10 2:5 6:5 3:5 4:5 5:5 4:5
4:0 5:5 3:5 4:10 2:5 6:5 3:5 4:5 5:5 4:5 3:5
5:0 3:5 4:10 2:5 6:5 3:5 4:5 5:5 4:5 3:5 5:5
3:0 4:10 2:5 6:5 3:5 4:5 5:5 4:5 3:5 5:5 2:5
4:0 2:5 6:5 3:5 4:5 5:5 4:5 3:5 5:5 2:5 5:5
2:0 6:5 3:5 4:5 5:5 4:5 3:5 5:5 2:5 5:5 4:10
6:0 3:5 4:5 5:5 4:5 3:5 5:5 2:5 5:5 4:10 2:5
3:0 4:5 5:5 4:5 3:5 5:5 2:5 5:5 4:10 2:5 5:5
4:0 5:5 4:5 3:5 5:5 2:5 5:5 4:10 2:5 5:5 4:10
5:0 4:5 3:5 5:5 2:5 5:5 4:10 2:5 5:5 4:10 2:5
4:0 3:5 5:5 2:5 5:5 4:10 2:5 5:5 4:10 2:5 6:5
3:0 5:5 2:5 5:5 4:10 2:5 5:5 4:10 2:5 6:5 2:5
5:0 2:5 5:5 4:10 2:5 5:5 4:10 2:5 6:5 2:5 5:5
2:0 5:5 4:10 2:5 5:5 4:10 2:5 6:5 2:5 5:5 3:5
5:0 4:10 2:5 5:5 4:10 2:5 6:5 2:5 5:5 3:5 4:10
4:0 2:5 5:5 4:10 2:5 6:5 2:5 5:5 3:5 4:10 3:5
2:0 5:5 4:10 2:5 6:5 2:5 5:5 3:5 4:10 3:5 4:5
5:0 4:10 2:5 6:5 2:5 5:5 3:5 4:10 3:5 4:5 5:5
4:0 2:5 6:5 2:5 5:5 3:5 4:10 3:5 4:5 5:5 4:10
2:0 6:5 2:5 5:5 3:5 4:10 3:5 4:5 5:5 4:10 5:20
6:0 2:5 5:5 3:5 4:10 3:5 4:5 5:5 4:10 5:20 3:5
2:0 5:5 3:5 4:10 3:5 4:5 5:5 4:10 5:20 3:5 5:5
5:0 3:5 4:10 3:5 4:5 5:5 4:10 5:20 3:5 5:5 3:10
3:0 4:10 3:5 4:5 5:5 4:10 5:20 3:5 5:5 3:10 2:5
4:0 3:5 4:5 5:5 4:10 5:20 3:5 5:5 3:10 2:5 6:5
3:0 4:5 5:5 4:10 5:20 3:5 5:5 3:10 2:5 6:5 3:5
4:0 5:5 4:10 5:20 3:5 5:5 3:10 2:5 6:5 3:5 4:5
5:0 4:10 5:20 3:5 5:5 3:10 2:5 6:5 3:5 4:5 3:5
4:0 5:20 3:5 5:5 3:10 2:5 6:5 3:5 4:5 3:5 4:5
5:0 3:5 5:5 3:10 2:5 6:5 3:5 4:5 3:5 4:5 5:5
3:0 5:5 3:10 2:5 6:5 3:5 4:5 3:5 4:5 5:5 2:5
5:0 3:10 2:5 6:5 3:5 4:5 3:5 4:5 5:5 2:5 5:5
3:0 2:5 6:5 3:5 4:5 3:5 4:5 5:5 2:5 5:5 3:5
2:0 6:5 3:5 4:5 3:5 4:5 5:5 2:5 5:5 3:5 5:5
6:0 3:5 4:5 3:5 4:5 5:5 2:5 5:5 3:5 5:5 4:5
3:0 4:5 3:5 4:5 5:5 2:5 5:5 3:5 5:5 4:5 3:20
4:0 3:5 4:5 5:5 2:5 5:5 3:5 5:5 4:5 3:20 5:5
3:0 4:5 5:5 2:5 5:5 3:5 5:5 4:5 3:20 5:5 4:5
4:0 5:5 2:5 5:5 3:5 5:5 4:5 3:20 5:5 4:5 5:15
5:0 2:5 5:5 3:5 5:5 4:5 3:20 5:5 4:5 5:15 3:5
2:0 5:5 3:5 5:5 4:5 3:20 5:5 4:5 5:15 3:5 4:5
5:0 3:5 5:5 4:5 3:20 5:5 4:5 5:15 3:5 4:5 3:5
3:0 5:5 4:5 3:20 5:5 4:5 5:15 3:5 4:5 3:5 2:5
5:0 4:5 3:20 5:5 4:5 5:15 3:5 4:5 3:5 2:5 5:5
4:0 3:20 5:5 4:5 5:15 3:5 4:5 3:5 2:5 5:5 4:5
3:0 5:5 4:5 5:15 3:5 4:5 3:5 2:5 5:5 4:5 6:5
5:0 4:5 5:15 3:5 4:5 3:5 2:5 5:5 4:5 6:5 2:5
4:0 5:15 3:5 4:5 3:5 2:5 5:5 4:5 6:5 2:5 4:5
5:0 3:5 4:5 3:5 2:5 5:5 4:5 6:5 2:5 4:5 3:5
3:0 4:5 3:5 2:5 5:5 4:5 6:5 2:5 4:5 3:5 5:5
4:0 3:5 2:5 5:5 4:5 6:5 2:5 4:5 3:5 5:5 2:10
3:0 2:5 5:5 4:5 6:5 2:5 4:5 3:5 5:5 2:10 5:5
2:0 5:5 4:5 6:5 2:5 4:5 3:5 5:5 2:10 5:5 4:5
5:0 4:5 6:5 2:5 4:5 3:5 5:5 2:10 5:5 4:5 5:5
4:0 6:5 2:5 4:5 3:5 5:5 2:10 5:5 4:5 5:5 4:5
6:0 2:5 4:5 3:5 5:5 2:10 5:5 4:5 5:5 4:5 3:5
2:0 4:5 3:5 5:5 2:10 5:5 4:5 5:5 4:5 3:5 5:5
4:0 3:5 5:5 2:10 5:5 4:5 5:5 4:5 3:5 5:5 3:5
3:0 5:5 2:10 5:5 4:5 5:5 4:5 3:5 5:5 3:5 4:5
5:0 2:10 5:5 4:5 5:5 4:5 3:5 5:5 3:5 4:5 3:10
2:0 5:5 4:5 5:5 4:5 3:5 5:5 3:5 4:5 3:10 4:5
5:0 4:5 5:5 4:5 3:5 5:5 3:5 4:5 3:10 4:5 3:5
4:0 5:5 4:5 3:5 5:5 3:5 4:5 3:10 4:5 3:5 4:5
5:0 4:5 3:5 5:5 3:5 4:5 3:10 4:5 3:5 4:5 6:10
4:0 3:5 5:5 3:5 4:5 3:10 4:5 3:5 4:5 6:10 3:5
3:0 5:5 3:5 4:5 3:10 4:5 3:5 4:5 6:10 3:5 4:5
5:0 3:5 4:5 3:10 4:5 3:5 4:5 6:10 3:5 4:5 3:10
3:0 4:5 3:10 4:5 3:5 4:5 6:10 3:5 4:5 3:10 5:5
4:0 3:10 4:5 3:5 4:5 6:10 3:5 4:5 3:10 5:5 3:5
3:0 4:5 3:5 4:5 6:10 3:5 4:5 3:10 5:5 3:5 5:5
4:0 3:5 4:5 6:10 3:5 4:5 3:10 5:5 3:5 5:5 4:5
3:0 4:5 6:10 3:5 4:5 3:10 5:5 3:5 5:5 4:5 3:5
4:0 6:10 3:5 4:5 3:10 5:5 3:5 5:5 4:5 3:5 4:5
6:0 3:5 4:5 3:10 5:5 3:5 5:5 4:5 3:5 4:5 3:15
3:0 4:5 3:10 5:5 3:5 5:5 4:5 3:5 4:5 3:15 4:5
4:0 3:10 5:5 3:5 5:5 4:5 3:5 4:5 3:15 4:5 5:5
3:0 5:5 3:5 5:5 4:5 3:5 4:5 3:15 4:5 5:5 4:5
5:0 3:5 5:5 4:5 3:5 4:5 3:15 4:5 5:5 4:5 3:25
3:0 5:5 4:5 3:5 4:5 3:15 4:5 5:5 4:5 3:25 4:5
5:0 4:5 3:5 4:5 3:15 4:5 5:5 4:5 3:25 4:5 3:5
4:0 3:5 4:5 3:15 4:5 5:5 4:5 3:25 4:5 3:5 5:5
3:0 4:5 3:15 4:5 5:5 4:5 3:25 4:5 3:5 5:5 4:5
4:0 3:15 4:5 5:5 4:5 3:25 4:5 3:5 5:5 4:5 3:5
3:0 4:5 5:5 4:5 3:25 4:5 3:5 5:5 4:5 3:5 6:5
4:0 5:5 4:5 3:25 4:5 3:5 5:5 4:5 3:5 6:5 2:5
5:0 4:5 3:25 4:5 3:5 5:5 4:5 3:5 6:5 2:5 4:5
4:0 3:25 4:5 3:5 5:5 4:5 3:5 6:5 2:5 4:5 5:10
3:0 4:5 3:5 5:5 4:5 3:5 6:5 2:5 4:5 5:10 2:10
4:0 3:5 5:5 4:5 3:5 6:5 2:5 4:5 5:10 2:10 5:10
3:0 5:5 4:5 3:5 6:5 2:5 4:5 5:10 2:10 5:10 3:10
5:0 4:5 3:5 6:5 2:5 4:5 5:10 2:10 5:10 3:10 6:10
4:0 3:5 6:5 2:5 4:5 5:10 2:10 5:10 3:10 6:10 2:5
3:0 6:5 2:5 4:5 5:10 2:10 5:10 3:10 6:10 2:5 4:5
6:0 2:5 4:5 5:10 2:10 5:10 3:10 6:10 2:5 4:5 3:5
2:0 4:5 5:10 2:10 5:10 3:10 6:10 2:5 4:5 3:5 4:5
4:0 5:10 2:10 5:10 3:10 6:10 2:5 4:5 3:5 4:5 5:15
5:0 2:10 5:10 3:10 6:10 2:5 4:5 3:5 4:5 5:15 4:5
2:0 5:10 3:10 6:10 2:5 4:5 3:5 4:5 5:15 4:5 5:5
5:0 3:10 6:10 2:5 4:5 3:5 4:5 5:15 4:5 5:5 3:5
3:0 6:10 2:5 4:5 3:5 4:5 5:15 4:5 5:5 3:5 5:5
6:0 2:5 4:5 3:5 4:5 5:15 4:5 5:5 3:5 5:5 6:5
2:0 4:5 3:5 4:5 5:15 4:5 5:5 3:5 5:5 6:5 2:5
4:0 3:5 4:5 5:15 4:5 5:5 3:5 5:5 6:5 2:5 3:5
3:0 4:5 5:15 4:5 5:5 3:5 5:5 6:5 2:5 3:5 6:15
4:0 5:15 4:5 5:5 3:5 5:5 6:5 2:5 3:5 6:15 2:5
5:0 4:5 5:5 3:5 5:5 6:5 2:5 3:5 6:15 2:5 5:5
4:0 5:5 3:5 5:5 6:5 2:5 3:5 6:15 2:5 5:5 4:5
5:0 3:5 5:5 6:5 2:5 3:5 6:15 2:5 5:5 4:5 3:15
3:0 5:5 6:5 2:5 3:5 6:15 2:5 5:5 4:5 3:15 5:5
5:0 6:5 2:5 3:5 6:15 2:5 5:5 4:5 3:15 5:5 4:5
6:0 2:5 3:5 6:15 2:5 5:5 4:5 3:15 5:5 4:5 3:5
2:0 3:5 6:15 2:5 5:5 4:5 3:15 5:5 4:5 3:5 4:5
3:0 6:15 2:5 5:5 4:5 3:15 5:5 4:5 3:5 4:5 5:15
6:0 2:5 5:5 4:5 3:15 5:5 4:5 3:5 4:5 5:15 6:5
2:0 5:5 4:5 3:15 5:5 4:5 3:5 4:5 5:15 6:5 2:5
5:0 4:5 3:15 5:5 4:5 3:5 4:5 5:15 6:5 2:5 3:5
4:0 3:15 5:5 4:5 3:5 4:5 5:15 6:5 2:5 3:5 4:5
3:0 5:5 4:5 3:5 4:5 5:15 6:5 2:5 3:5 4:5 3:5
5:0 4:5 3:5 4:5 5:15 6:5 2:5 3:5 4:5 3:5 5:5
4:0 3:5 4:5 5:15 6:5 2:5 3:5 4:5 3:5 5:5 3:5
3:0 4:5 5:15 6:5 2:5 3:5 4:5 3:5 5:5 3:5 2:5
4:0 5:15 6:5 2:5 3:5 4:5 3:5 5:5 3:5 2:5 4:5
5:0 6:5 2:5 3:5 4:5 3:5 5:5 3:5 2:5 4:5 5:10
6:0 2:5 3:5 4:5 3:5 5:5 3:5 2:5 4:5 5:10 4:5
2:0 3:5 4:5 3:5 5:5 3:5 2:5 4:5 5:10 4:5 6:5
3:0 4:5 3:5 5:5 3:5 2:5 4:5 5:10 4:5 6:5 3:5
4:0 3:5 5:5 3:5 2:5 4:5 5:10 4:5 6:5 3:5 4:5
3:0 5:5 3:5 2:5 4:5 5:10 4:5 6:5 3:5 4:5 1:10
5:0 3:5 2:5 4:5 5:10 4:5 6:5 3:5 4:5 1:10 4:5
3:0 2:5 4:5 5:10 4:5 6:5 3:5 4:5 1:10 4:5 5:5
2:0 4:5 5:10 4:5 6:5 3:5 4:5 1:10 4:5 5:5 4:10
4:0 5:10 4:5 6:5 3:5 4:5 1:10 4:5 5:5 4:10 2:5
5:0 4:5 6:5 3:5 4:5 1:10 4:5 5:5 4:10 2:5 5:5
4:0 6:5 3:5 4:5 1:10 4:5 5:5 4:10 2:5 5:5 2:5
6:0 3:5 4:5 1:10 4:5 5:5 4:10 2:5 5:5 2:5 5:5
3:0 4:5 1:10 4:5 5:5 4:10 2:5 5:5 2:5 5:5 3:5
4:0 1:10 4:5 5:5 4:10 2:5 5:5 2:5 5:5 3:5 4:10
1:0 4:5 5:5 4:10 2:5 5:5 2:5 5:5 3:5 4:10 5:5
4:0 5:5 4:10 2:5 5:5 2:5 5:5 3:5 4:10 5:5 6:5
5:0 4:10 2:5 5:5 2:5 5:5 3:5 4:10 5:5 6:5 3:5
4:0 2:5 5:5 2:5 5:5 3:5 4:10 5:5 6:5 3:5 4:5
2:0 5:5 2:5 5:5 3:5 4:10 5:5 6:5 3:5 4:5 5:15
5:0 2:5 5:5 3:5 4:10 5:5 6:5 3:5 4:5 5:15 2:5
2:0 5:5 3:5 4:10 5:5 6:5 3:5 4:5 5:15 2:5 3:5
5:0 3:5 4:10 5:5 6:5 3:5 4:5 5:15 2:5 3:5 5:5
3:0 4:10 5:5 6:5 3:5 4:5 5:15 2:5 3:5 5:5 3:5
4:0 5:5 6:5 3:5 4:5 5:15 2:5 3:5 5:5 3:5 6:5
5:0 6:5 3:5 4:5 5:15 2:5 3:5 5:5 3:5 6:5 5:5
6:0 3:5 4:5 5:15 2:5 3:5 5:5 3:5 6:5 5:5 2:5
3:0 4:5 5:15 2:5 3:5 5:5 3:5 6:5 5:5 2:5 4:5
4:0 5:15 2:5 3:5 5:5 3:5 6:5 5:5 2:5 4:5 3:5
5:0 2:5 3:5 5:5 3:5 6:5 5:5 2:5 4:5 3:5 5:5
2:0 3:5 5:5 3:5 6:5 5:5 2:5 4:5 3:5 5:5 3:5
3:0 5:5 3:5 6:5 5:5 2:5 4:5 3:5 5:5 3:5 4:5
5:0 3:5 6:5 5:5 2:5 4:5 3:5 5:5 3:5 4:5 3:10
3:0 6:5 5:5 2:5 4:5 3:5 5:5 3:5 4:5 3:10 5:5
6:0 5:5 2:5 4:5 3:5 5:5 3:5 4:5 3:10 5:5 6:5
5:0 2:5 4:5 3:5 5:5 3:5 4:5 3:10 5:5 6:5 3:5
2:0 4:5 3:5 5:5 3:5 4:5 3:10 5:5 6:5 3:5 5:5
4:0 3:5 5:5 3:5 4:5 3:10 5:5 6:5 3:5 5:5 4:10
3:0 5:5 3:5 4:5 3:10 5:5 6:5 3:5 5:5 4:10 3:5
5:0 3:5 4:5 3:10 5:5 6:5 3:5 5:5 4:10 3:5 4:5
3:0 4:5 3:10 5:5 6:5 3:5 5:5 4:10 3:5 4:5 3:5
4:0 3:10 5:5 6:5 3:5 5:5 4:10 3:5 4:5 3:5 6:5
3:0 5:5 6:5 3:5 5:5 4:10 3:5 4:5 3:5 6:5 3:5
5:0 6:5 3:5 5:5 4:10 3:5 4:5 3:5 6:5 3:5 6:10
6:0 3:5 5:5 4:10 3:5 4:5 3:5 6:5 3:5 6:10 2:5
3:0 5:5 4:10 3:5 4:5 3:5 6:5 3:5 6:10 2:5 6:5
5:0 4:10 3:5 4:5 3:5 6:5 3:5 6:10 2:5 6:5 2:5
4:0 3:5 4:5 3:5 6:5 3:5 6:10 2:5 6:5 2:5 6:5
3:0 4:5 3:5 6:5 3:5 6:10 2:5 6:5 2:5 6:5 4:5
4:0 3:5 6:5 3:5 6:10 2:5 6:5 2:5 6:5 4:5 3:5
3:0 6:5 3:5 6:10 2:5 6:5 2:5 6:5 4:5 3:5 6:5
6:0 3:5 6:10 2:5 6:5 2:5 6:5 4:5 3:5 6:5 2:5
3:0 6:10 2:5 6:5 2:5 6:5 4:5 3:5 6:5 2:5 5:5
6:0 2:5 6:5 2:5 6:5 4:5 3:5 6:5 2:5 5:5 2:5
2:0 6:5 2:5 6:5 4:5 3:5 6:5 2:5 5:5 2:5 4:5
6:0 2:5 6:5 4:5 3:5 6:5 2:5 5:5 2:5 4:5 5:5
2:0 6:5 4:5 3:5 6:5 2:5 5:5 2:5 4:5 5:5 3:5
6:0 4:5 3:5 6:5 2:5 5:5 2:5 4:5 5:5 3:5 5:5
4:0 3:5 6:5 2:5 5:5 2:5 4:5 5:5 3:5 5:5 4:10
3:0 6:5 2:5 5:5 2:5 4:5 5:5 3:5 5:5 4:10 2:5
6:0 2:5 5:5 2:5 4:5 5:5 3:5 5:5 4:10 2:5 5:5
2:0 5:5 2:5 4:5 5:5 3:5 5:5 4:10 2:5 5:5 3:5
5:0 2:5 4:5 5:5 3:5 5:5 4:10 2:5 5:5 3:5 5:5
2:0 4:5 5:5 3:5 5:5 4:10 2:5 5:5 3:5 5:5 3:10
4:0 5:5 3:5 5:5 4:10 2:5 5:5 3:5 5:5 3:10 2:5
5:0 3:5 5:5 4:10 2:5 5:5 3:5 5:5 3:10 2:5 6:5
3:0 5:5 4:10 2:5 5:5 3:5 5:5 3:10 2:5 6:5 2:5
5:0 4:10 2:5 5:5 3:5 5:5 3:10 2:5 6:5 2:5 6:5
4:0 2:5 5:5 3:5 5:5 3:10 2:5 6:5 2:5 6:5 4:5
2:0 5:5 3:5 5:5 3:10 2:5 6:5 2:5 6:5 4:5 2:5
5:0 3:5 5:5 3:10 2:5 6:5 2:5 6:5 4:5 2:5 5:5
3:0 5:5 3:10 2:5 6:5 2:5 6:5 4:5 2:5 5:5 3:5
5:0 3:10 2:5 6:5 2:5 6:5 4:5 2:5 5:5 3:5 5:5
3:0 2:5 6:5 2:5 6:5 4:5 2:5 5:5 3:5 5:5 2:5
2:0 6:5 2:5 6:5 4:5 2:5 5:5 3:5 5:5 2:5 5:5
6:0 2:5 6:5 4:5 2:5 5:5 3:5 5:5 2:5 5:5 2:5
2:0 6:5 4:5 2:5 5:5 3:5 5:5 2:5 5:5 2:5 5:5
6:0 4:5 2:5 5:5 3:5 5:5 2:5 5:5 2:5 5:5 4:5
4:0 2:5 5:5 3:5 5:5 2:5 5:5 2:5 5:5 4:5 2:5
2:0 5:5 3:5 5:5 2:5 5:5 2:5 5:5 4:5 2:5 5:5
5:0 3:5 5:5 2:5 5:5 2:5 5:5 4:5 2:5 5:5 3:5
3:0 5:5 2:5 5:5 2:5 5:5 4:5 2:5 5:5 3:5 5:5
5:0 2:5 5:5 2:5 5:5 4:5 2:5 5:5 3:5 5:5 4:5
2:0 5:5 2:5 5:5 4:5 2:5 5:5 3:5 5:5 4:5 2:5
5:0 2:5 5:5 4:5 2:5 5:5 3:5 5:5 4:5 2:5 5:5
2:0 5:5 4:5 2:5 5:5 3:5 5:5 4:5 2:5 5:5 3:5
5:0 4:5 2:5 5:5 3:5 5:5 4:5 2:5 5:5 3:5 5:5
4:0 2:5 5:5 3:5 5:5 4:5 2:5 5:5 3:5 5:5 3:5
2:0 5:5 3:5 5:5 4:5 2:5 5:5 3:5 5:5 3:5 2:5
5:0 3:5 5:5 4:5 2:5 5:5 3:5 5:5 3:5 2:5 5:5
3:0 5:5 4:5 2:5 5:5 3:5 5:5 3:5 2:5 5:5 4:5
5:0 4:5 2:5 5:5 3:5 5:5 3:5 2:5 5:5 4:5 6:5
4:0 2:5 5:5 3:5 5:5 3:5 2:5 5:5 4:5 6:5 2:5
2:0 5:5 3:5 5:5 3:5 2:5 5:5 4:5 6:5 2:5 5:5
5:0 3:5 5:5 3:5 2:5 5:5 4:5 6:5 2:5 5:5 2:5
3:0 5:5 3:5 2:5 5:5 4:5 6:5 2:5 5:5 2:5 5:5
5:0 3:5 2:5 5:5 4:5 6:5 2:5 5:5 2:5 5:5 2:10
3:0 2:5 5:5 4:5 6:5 2:5 5:5 2:5 5:5 2:10 5:5
2:0 5:5 4:5 6:5 2:5 5:5 2:5 5:5 2:10 5:5 4:5
5:0 4:5 6:5 2:5 5:5 2:5 5:5 2:10 5:5 4:5 5:5
4:0 6:5 2:5 5:5 2:5 5:5 2:10 5:5 4:5 5:5 4:5
6:0 2:5 5:5 2:5 5:5 2:10 5:5 4:5 5:5 4:5 3:5
2:0 5:5 2:5 5:5 2:10 5:5 4:5 5:5 4:5 3:5 4:5
5:0 2:5 5:5 2:10 5:5 4:5 5:5 4:5 3:5 4:5 6:5
2:0 5:5 2:10 5:5 4:5 5:5 4:5 3:5 4:5 6:5 5:5
5:0 2:10 5:5 4:5 5:5 4:5 3:5 4:5 6:5 5:5 4:5
2:0 5:5 4:5 5:5 4:5 3:5 4:5 6:5 5:5 4:5 3:5
5:0 4:5 5:5 4:5 3:5 4:5 6:5 5:5 4:5 3:5 4:5
4:0 5:5 4:5 3:5 4:5 6:5 5:5 4:5 3:5 4:5 5:5
5:0 4:5 3:5 4:5 6:5 5:5 4:5 3:5 4:5 5:5 6:5
4:0 3:5 4:5 6:5 5:5 4:5 3:5 4:5 5:5 6:5 3:5
3:0 4:5 6:5 5:5 4:5 3:5 4:5 5:5 6:5 3:5 6:10
4:0 6:5 5:5 4:5 3:5 4:5 5:5 6:5 3:5 6:10 2:5
6:0 5:5 4:5 3:5 4:5 5:5 6:5 3:5 6:10 2:5 6:5
5:0 4:5 3:5 4:5 5:5 6:5 3:5 6:10 2:5 6:5 4:5
4:0 3:5 4:5 5:5 6:5 3:5 6:10 2:5 6:5 4:5 3:5
3:0 4:5 5:5 6:5 3:5 6:10 2:5 6:5 4:5 3:5 5:5
4:0 5:5 6:5 3:5 6:10 2:5 6:5 4:5 3:5 5:5 3:5
5:0 6:5 3:5 6:10 2:5 6:5 4:5 3:5 5:5 3:5 6:5
6:0 3:5 6:10 2:5 6:5 4:5 3:5 5:5 3:5 6:5 4:5
3:0 6:10 2:5 6:5 4:5 3:5 5:5 3:5 6:5 4:5 3:30
6:0 2:5 6:5 4:5 3:5 5:5 3:5 6:5 4:5 3:30 4:5
2:0 6:5 4:5 3:5 5:5 3:5 6:5 4:5 3:30 4:5 5:5
6:0 4:5 3:5 5:5 3:5 6:5 4:5 3:30 4:5 5:5 6:10
4:0 3:5 5:5 3:5 6:5 4:5 3:30 4:5 5:5 6:10 3:5
3:0 5:5 3:5 6:5 4:5 3:30 4:5 5:5 6:10 3:5 4:5
5:0 3:5 6:5 4:5 3:30 4:5 5:5 6:10 3:5 4:5 5:15
3:0 6:5 4:5 3:30 4:5 5:5 6:10 3:5 4:5 5:15 4:5
6:0 4:5 3:30 4:5 5:5 6:10 3:5 4:5 5:15 4:5 5:5
4:0 3:30 4:5 5:5 6:10 3:5 4:5 5:15 4:5 5:5 6:5
3:0 4:5 5:5 6:10 3:5 4:5 5:15 4:5 5:5 6:5 3:5
4:0 5:5 6:10 3:5 4:5 5:15 4:5 5:5 6:5 3:5 5:5
5:0 6:10 3:5 4:5 5:15 4:5 5:5 6:5 3:5 5:5 2:5
6:0 3:5 4:5 5:15 4:5 5:5 6:5 3:5 5:5 2:5 4:5
3:0 4:5 5:15 4:5 5:5 6:5 3:5 5:5 2:5 4:5 6:15
4:0 5:15 4:5 5:5 6:5 3:5 5:5 2:5 4:5 6:15 3:5
5:0 4:5 5:5 6:5 3:5 5:5 2:5 4:5 6:15 3:5 4:5
4:0 5:5 6:5 3:5 5:5 2:5 4:5 6:15 3:5 4:5 3:10
5:0 6:5 3:5 5:5 2:5 4:5 6:15 3:5 4:5 3:10 4:5
6:0 3:5 5:5 2:5 4:5 6:15 3:5 4:5 3:10 4:5 5:20
3:0 5:5 2:5 4:5 6:15 3:5 4:5 3:10 4:5 5:20 3:5
5:0 2:5 4:5 6:15 3:5 4:5 3:10 4:5 5:20 3:5 5:10
2:0 4:5 6:15 3:5 4:5 3:10 4:5 5:20 3:5 5:10 3:5
4:0 6:15 3:5 4:5 3:10 4:5 5:20 3:5 5:10 3:5 5:5
6:0 3:5 4:5 3:10 4:5 5:20 3:5 5:10 3:5 5:5 3:5
3:0 4:5 3:10 4:5 5:20 3:5 5:10 3:5 5:5 3:5 4:5
4:0 3:10 4:5 5:20 3:5 5:10 3:5 5:5 3:5 4:5 5:5
3:0 4:5 5:20 3:5 5:10 3:5 5:5 3:5 4:5 5:5 4:5
4:0 5:20 3:5 5:10 3:5 5:5 3:5 4:5 5:5 4:5 5:10
5:0 3:5 5:10 3:5 5:5 3:5 4:5 5:5 4:5 5:10 2:5
3:0 5:10 3:5 5:5 3:5 4:5 5:5 4:5 5:10 2:5 6:5
5:0 3:5 5:5 3:5 4:5 5:5 4:5 5:10 2:5 6:5 3:5
3:0 5:5 3:5 4:5 5:5 4:5 5:10 2:5 6:5 3:5 4:5
5:0 3:5 4:5 5:5 4:5 5:10 2:5 6:5 3:5 4:5 5:5
3:0 4:5 5:5 4:5 5:10 2:5 6:5 3:5 4:5 5:5 2:5
4:0 5:5 4:5 5:10 2:5 6:5 3:5 4:5 5:5 2:5 6:5
5:0 4:5 5:10 2:5 6:5 3:5 4:5 5:5 2:5 6:5 4:5
4:0 5:10 2:5 6:5 3:5 4:5 5:5 2:5 6:5 4:5 5:10
5:0 2:5 6:5 3:5 4:5 5:5 2:5 6:5 4:5 5:10 4:10
2:0 6:5 3:5 4:5 5:5 2:5 6:5 4:5 5:10 4:10 3:5
6:0 3:5 4:5 5:5 2:5 6:5 4:5 5:10 4:10 3:5 5:5
3:0 4:5 5:5 2:5 6:5 4:5 5:10 4:10 3:5 5:5 2:5
4:0 5:5 2:5 6:5 4:5 5:10 4:10 3:5 5:5 2:5 6:5
5:0 2:5 6:5 4:5 5:10 4:10 3:5 5:5 2:5 6:5 3:5
2:0 6:5 4:5 5:10 4:10 3:5 5:5 2:5 6:5 3:5 5:10
6:0 4:5 5:10 4:10 3:5 5:5 2:5 6:5 3:5 5:10 3:5
4:0 5:10 4:10 3:5 5:5 2:5 6:5 3:5 5:10 3:5 7:5
5:0 4:10 3:5 5:5 2:5 6:5 3:5 5:10 3:5 7:5 3:5
4:0 3:5 5:5 2:5 6:5 3:5 5:10 3:5 7:5 3:5 5:10
3:0 5:5 2:5 6:5 3:5 5:10 3:5 7:5 3:5 5:10 4:5
5:0 2:5 6:5 3:5 5:10 3:5 7:5 3:5 5:10 4:5 6:10
2:0 6:5 3:5 5:10 3:5 7:5 3:5 5:10 4:5 6:10 3:5
6:0 3:5 5:10 3:5 7:5 3:5 5:10 4:5 6:10 3:5 5:5
3:0 5:10 3:5 7:5 3:5 5:10 4:5 6:10 3:5 5:5 4:10
5:0 3:5 7:5 3:5 5:10 4:5 6:10 3:5 5:5 4:10 6:10
3:0 7:5 3:5 5:10 4:5 6:10 3:5 5:5 4:10 6:10 3:5
7:0 3:5 5:10 4:5 6:10 3:5 5:5 4:10 6:10 3:5 5:5
3:0 5:10 4:5 6:10 3:5 5:5 4:10 6:10 3:5 5:5 4:5
5:0 4:5 6:10 3:5 5:5 4:10 6:10 3:5 5:5 4:5 2:5
4:0 6:10 3:5 5:5 4:10 6:10 3:5 5:5 4:5 2:5 5:5
6:0 3:5 5:5 4:10 6:10 3:5 5:5 4:5 2:5 5:5 2:5
3:0 5:5 4:10 6:10 3:5 5:5 4:5 2:5 5:5 2:5 6:5
5:0 4:10 6:10 3:5 5:5 4:5 2:5 5:5 2:5 6:5 4:5
4:0 6:10 3:5 5:5 4:5 2:5 5:5 2:5 6:5 4:5 5:10
6:0 3:5 5:5 4:5 2:5 5:5 2:5 6:5 4:5 5:10 3:5
3:0 5:5 4:5 2:5 5:5 2:5 6:5 4:5 5:10 3:5 5:5
5:0 4:5 2:5 5:5 2:5 6:5 4:5 5:10 3:5 5:5 3:5
4:0 2:5 5:5 2:5 6:5 4:5 5:10 3:5 5:5 3:5 5:5
2:0 5:5 2:5 6:5 4:5 5:10 3:5 5:5 3:5 5:5 4:5
5:0 2:5 6:5 4:5 5:10 3:5 5:5 3:5 5:5 4:5 5:35
2:0 6:5 4:5 5:10 3:5 5:5 3:5 5:5 4:5 5:35 4:5
6:0 4:5 5:10 3:5 5:5 3:5 5:5 4:5 5:35 4:5 2:5
4:0 5:10 3:5 5:5 3:5 5:5 4:5 5:35 4:5 2:5 3:5
5:0 3:5 5:5 3:5 5:5 4:5 5:35 4:5 2:5 3:5 4:5
3:0 5:5 3:5 5:5 4:5 5:35 4:5 2:5 3:5 4:5 5:15
5:0 3:5 5:5 4:5 5:35 4:5 2:5 3:5 4:5 5:15 3:5
3:0 5:5 4:5 5:35 4:5 2:5 3:5 4:5 5:15 3:5 5:5
5:0 4:5 5:35 4:5 2:5 3:5 4:5 5:15 3:5 5:5 3:5
4:0 5:35 4:5 2:5 3:5 4:5 5:15 3:5 5:5 3:5 5:5
5:0 4:5 2:5 3:5 4:5 5:15 3:5 5:5 3:5 5:5 2:5
4:0 2:5 3:5 4:5 5:15 3:5 5:5 3:5 5:5 2:5 4:5
2:0 3:5 4:5 5:15 3:5 5:5 3:5 5:5 2:5 4:5 6:5
3:0 4:5 5:15 3:5 5:5 3:5 5:5 2:5 4:5 6:5 3:5
4:0 5:15 3:5 5:5 3:5 5:5 2:5 4:5 6:5 3:5 4:5
5:0 3:5 5:5 3:5 5:5 2:5 4:5 6:5 3:5 4:5 5:5
3:0 5:5 3:5 5:5 2:5 4:5 6:5 3:5 4:5 5:5 2:5
5:0 3:5 5:5 2:5 4:5 6:5 3:5 4:5 5:5 2:5 6:5
3:0 5:5 2:5 4:5 6:5 3:5 4:5 5:5 2:5 6:5 3:5
5:0 2:5 4:5 6:5 3:5 4:5 5:5 2:5 6:5 3:5 6:5
2:0 4:5 6:5 3:5 4:5 5:5 2:5 6:5 3:5 6:5 4:5
4:0 6:5 3:5 4:5 5:5 2:5 6:5 3:5 6:5 4:5 5:5
6:0 3:5 4:5 5:5 2:5 6:5 3:5 6:5 4:5 5:5 4:5
3:0 4:5 5:5 2:5 6:5 3:5 6:5 4:5 5:5 4:5 5:10
4:0 5:5 2:5 6:5 3:5 6:5 4:5 5:5 4:5 5:10 2:5
5:0 2:5 6:5 3:5 6:5 4:5 5:5 4:5 5:10 2:5 4:5
2:0 6:5 3:5 6:5 4:5 5:5 4:5 5:10 2:5 4:5 6:10
6:0 3:5 6:5 4:5 5:5 4:5 5:10 2:5 4:5 6:10 3:5
3:0 6:5 4:5 5:5 4:5 5:10 2:5 4:5 6:10 3:5 2:5
6:0 4:5 5:5 4:5 5:10 2:5 4:5 6:10 3:5 2:5 7:5
4:0 5:5 4:5 5:10 2:5 4:5 6:10 3:5 2:5 7:5 2:5
5:0 4:5 5:10 2:5 4:5 6:10 3:5 2:5 7:5 2:5 3:5
4:0 5:10 2:5 4:5 6:10 3:5 2:5 7:5 2:5 3:5 4:5
5:0 2:5 4:5 6:10 3:5 2:5 7:5 2:5 3:5 4:5 5:10
2:0 4:5 6:10 3:5 2:5 7:5 2:5 3:5 4:5 5:10 4:5
4:0 6:10 3:5 2:5 7:5 2:5 3:5 4:5 5:10 4:5 3:5
6:0 3:5 2:5 7:5 2:5 3:5 4:5 5:10 4:5 3:5 6:5
3:0 2:5 7:5 2:5 3:5 4:5 5:10 4:5 3:5 6:5 2:5
2:0 7:5 2:5 3:5 4:5 5:10 4:5 3:5 6:5 2:5 5:5
7:0 2:5 3:5 4:5 5:10 4:5 3:5 6:5 2:5 5:5 2:5
2:0 3:5 4:5 5:10 4:5 3:5 6:5 2:5 5:5 2:5 4:5
3:0 4:5 5:10 4:5 3:5 6:5 2:5 5:5 2:5 4:5 3:10
4:0 5:10 4:5 3:5 6:5 2:5 5:5 2:5 4:5 3:10 4:5
5:0 4:5 3:5 6:5 2:5 5:5 2:5 4:5 3:10 4:5 3:10
4:0 3:5 6:5 2:5 5:5 2:5 4:5 3:10 4:5 3:10 5:5
3:0 6:5 2:5 5:5 2:5 4:5 3:10 4:5 3:10 5:5 4:10
6:0 2:5 5:5 2:5 4:5 3:10 4:5 3:10 5:5 4:10 2:5
2:0 5:5 2:5 4:5 3:10 4:5 3:10 5:5 4:10 2:5 6:5
5:0 2:5 4:5 3:10 4:5 3:10 5:5 4:10 2:5 6:5 3:5
2:0 4:5 3:10 4:5 3:10 5:5 4:10 2:5 6:5 3:5 5:5
4:0 3:10 4:5 3:10 5:5 4:10 2:5 6:5 3:5 5:5 4:5
3:0 4:5 3:10 5:5 4:10 2:5 6:5 3:5 5:5 4:5 5:10
4:0 3:10 5:5 4:10 2:5 6:5 3:5 5:5 4:5 5:10 3:5
3:0 5:5 4:10 2:5 6:5 3:5 5:5 4:5 5:10 3:5 6:5
5:0 4:10 2:5 6:5 3:5 5:5 4:5 5:10 3:5 6:5 3:5
4:0 2:5 6:5 3:5 5:5 4:5 5:10 3:5 6:5 3:5 4:5
2:0 6:5 3:5 5:5 4:5 5:10 3:5 6:5 3:5 4:5 2:10
6:0 3:5 5:5 4:5 5:10 3:5 6:5 3:5 4:5 2:10 6:5
3:0 5:5 4:5 5:10 3:5 6:5 3:5 4:5 2:10 6:5 4:5
5:0 4:5 5:10 3:5 6:5 3:5 4:5 2:10 6:5 4:5 3:5
4:0 5:10 3:5 6:5 3:5 4:5 2:10 6:5 4:5 3:5 4:5
5:0 3:5 6:5 3:5 4:5 2:10 6:5 4:5 3:5 4:5 5:20
3:0 6:5 3:5 4:5 2:10 6:5 4:5 3:5 4:5 5:20 4:5
6:0 3:5 4:5 2:10 6:5 4:5 3:5 4:5 5:20 4:5 5:15
3:0 4:5 2:10 6:5 4:5 3:5 4:5 5:20 4:5 5:15 2:5
4:0 2:10 6:5 4:5 3:5 4:5 5:20 4:5 5:15 2:5 5:5
2:0 6:5 4:5 3:5 4:5 5:20 4:5 5:15 2:5 5:5 4:5
6:0 4:5 3:5 4:5 5:20 4:5 5:15 2:5 5:5 4:5 3:5
4:0 3:5 4:5 5:20 4:5 5:15 2:5 5:5 4:5 3:5 4:5
3:0 4:5 5:20 4:5 5:15 2:5 5:5 4:5 3:5 4:5 5:5
4:0 5:20 4:5 5:15 2:5 5:5 4:5 3:5 4:5 5:5 2:5
5:0 4:5 5:15 2:5 5:5 4:5 3:5 4:5 5:5 2:5 6:5
4:0 5:15 2:5 5:5 4:5 3:5 4:5 5:5 2:5 6:5 3:5
5:0 2:5 5:5 4:5 3:5 4:5 5:5 2:5 6:5 3:5 5:5
2:0 5:5 4:5 3:5 4:5 5:5 2:5 6:5 3:5 5:5 4:5
5:0 4:5 3:5 4:5 5:5 2:5 6:5 3:5 5:5 4:5 5:5
4:0 3:5 4:5 5:5 2:5 6:5 3:5 5:5 4:5 5:5 2:10
3:0 4:5 5:5 2:5 6:5 3:5 5:5 4:5 5:5 2:10 3:5
4:0 5:5 2:5 6:5 3:5 5:5 4:5 5:5 2:10 3:5 5:5
5:0 2:5 6:5 3:5 5:5 4:5 5:5 2:10 3:5 5:5 4:10
2:0 6:5 3:5 5:5 4:5 5:5 2:10 3:5 5:5 4:10 3:5
6:0 3:5 5:5 4:5 5:5 2:10 3:5 5:5 4:10 3:5 5:5
3:0 5:5 4:5 5:5 2:10 3:5 5:5 4:10 3:5 5:5 2:5
5:0 4:5 5:5 2:10 3:5 5:5 4:10 3:5 5:5 2:5 4:5
4:0 5:5 2:10 3:5 5:5 4:10 3:5 5:5 2:5 4:5 5:5
5:0 2:10 3:5 5:5 4:10 3:5 5:5 2:5 4:5 5:5 2:5
2:0 3:5 5:5 4:10 3:5 5:5 2:5 4:5 5:5 2:5 4:5
3:0 5:5 4:10 3:5 5:5 2:5 4:5 5:5 2:5 4:5 6:10
5:0 4:10 3:5 5:5 2:5 4:5 5:5 2:5 4:5 6:10 3:5
4:0 3:5 5:5 2:5 4:5 5:5 2:5 4:5 6:10 3:5 4:5
3:0 5:5 2:5 4:5 5:5 2:5 4:5 6:10 3:5 4:5 2:20
5:0 2:5 4:5 5:5 2:5 4:5 6:10 3:5 4:5 2:20 4:5
2:0 4:5 5:5 2:5 4:5 6:10 3:5 4:5 2:20 4:5 5:5
4:0 5:5 2:5 4:5 6:10 3:5 4:5 2:20 4:5 5:5 2:5
5:0 2:5 4:5 6:10 3:5 4:5 2:20 4:5 5:5 2:5 5:5
2:0 4:5 6:10 3:5 4:5 2:20 4:5 5:5 2:5 5:5 4:5
4:0 6:10 3:5 4:5 2:20 4:5 5:5 2:5 5:5 4:5 3:5
6:0 3:5 4:5 2:20 4:5 5:5 2:5 5:5 4:5 3:5 4:5
3:0 4:5 2:20 4:5 5:5 2:5 5:5 4:5 3:5 4:5 3:5
4:0 2:20 4:5 5:5 2:5 5:5 4:5 3:5 4:5 3:5 4:5
2:0 4:5 5:5 2:5 5:5 4:5 3:5 4:5 3:5 4:5 3:5
4:0 5:5 2:5 5:5 4:5 3:5 4:5 3:5 4:5 3:5 5:5
5:0 2:5 5:5 4:5 3:5 4:5 3:5 4:5 3:5 5:5 3:5
2:0 5:5 4:5 3:5 4:5 3:5 4:5 3:5 5:5 3:5 5:5
5:0 4:5 3:5 4:5 3:5 4:5 3:5 5:5 3:5 5:5 2:5
4:0 3:5 4:5 3:5 4:5 3:5 5:5 3:5 5:5 2:5 4:5
3:0 4:5 3:5 4:5 3:5 5:5 3:5 5:5 2:5 4:5 5:10
4:0 3:5 4:5 3:5 5:5 3:5 5:5 2:5 4:5 5:10 3:10
3:0 4:5 3:5 5:5 3:5 5:5 2:5 4:5 5:10 3:10 5:10
4:0 3:5 5:5 3:5 5:5 2:5 4:5 5:10 3:10 5:10 4:5
3:0 5:5 3:5 5:5 2:5 4:5 5:10 3:10 5:10 4:5 5:5
5:0 3:5 5:5 2:5 4:5 5:10 3:10 5:10 4:5 5:5 2:5
3:0 5:5 2:5 4:5 5:10 3:10 5:10 4:5 5:5 2:5 5:5
5:0 2:5 4:5 5:10 3:10 5:10 4:5 5:5 2:5 5:5 4:5
2:0 4:5 5:10 3:10 5:10 4:5 5:5 2:5 5:5 4:5 5:5
4:0 5:10 3:10 5:10 4:5 5:5 2:5 5:5 4:5 5:5 4:5
5:0 3:10 5:10 4:5 5:5 2:5 5:5 4:5 5:5 4:5 5:10
3:0 5:10 4:5 5:5 2:5 5:5 4:5 5:5 4:5 5:10 4:5
5:0 4:5 5:5 2:5 5:5 4:5 5:5 4:5 5:10 4:5 5:5
4:0 5:5 2:5 5:5 4:5 5:5 4:5 5:10 4:5 5:5 3:5
5:0 2:5 5:5 4:5 5:5 4:5 5:10 4:5 5:5 3:5 4:10
2:0 5:5 4:5 5:5 4:5 5:10 4:5 5:5 3:5 4:10 5:5
5:0 4:5 5:5 4:5 5:10 4:5 5:5 3:5 4:10 5:5 3:10
4:0 5:5 4:5 5:10 4:5 5:5 3:5 4:10 5:5 3:10 5:10
5:0 4:5 5:10 4:5 5:5 3:5 4:10 5:5 3:10 5:10 3:5
4:0 5:10 4:5 5:5 3:5 4:10 5:5 3:10 5:10 3:5 5:5
5:0 4:5 5:5 3:5 4:10 5:5 3:10 5:10 3:5 5:5 2:5
4:0 5:5 3:5 4:10 5:5 3:10 5:10 3:5 5:5 2:5 4:5
5:0 3:5 4:10 5:5 3:10 5:10 3:5 5:5 2:5 4:5 5:5
3:0 4:10 5:5 3:10 5:10 3:5 5:5 2:5 4:5 5:5 3:5
4:0 5:5 3:10 5:10 3:5 5:5 2:5 4:5 5:5 3:5 5:5
5:0 3:10 5:10 3:5 5:5 2:5 4:5 5:5 3:5 5:5 2:5
3:0 5:10 3:5 5:5 2:5 4:5 5:5 3:5 5:5 2:5 4:5
5:0 3:5 5:5 2:5 4:5 5:5 3:5 5:5 2:5 4:5 3:5
3:0 5:5 2:5 4:5 5:5 3:5 5:5 2:5 4:5 3:5 5:5
5:0 2:5 4:5 5:5 3:5 5:5 2:5 4:5 3:5 5:5 4:5
2:0 4:5 5:5 3:5 5:5 2:5 4:5 3:5 5:5 4:5 3:5
4:0 5:5 3:5 5:5 2:5 4:5 3:5 5:5 4:5 3:5 4:5
5:0 3:5 5:5 2:5 4:5 3:5 5:5 4:5 3:5 4:5 2:10
3:0 5:5 2:5 4:5 3:5 5:5 4:5 3:5 4:5 2:10 5:5
5:0 2:5 4:5 3:5 5:5 4:5 3:5 4:5 2:10 5:5 3:5
2:0 4:5 3:5 5:5 4:5 3:5 4:5 2:10 5:5 3:5 4:5
4:0 3:5 5:5 4:5 3:5 4:5 2:10 5:5 3:5 4:5 3:15
3:0 5:5 4:5 3:5 4:5 2:10 5:5 3:5 4:5 3:15 5:5
5:0 4:5 3:5 4:5 2:10 5:5 3:5 4:5 3:15 5:5 6:5
4:0 3:5 4:5 2:10 5:5 3:5 4:5 3:15 5:5 6:5 3:5
3:0 4:5 2:10 5:5 3:5 4:5 3:15 5:5 6:5 3:5 5:5
4:0 2:10 5:5 3:5 4:5 3:15 5:5 6:5 3:5 5:5 4:5
2:0 5:5 3:5 4:5 3:15 5:5 6:5 3:5 5:5 4:5 2:5
5:0 3:5 4:5 3:15 5:5 6:5 3:5 5:5 4:5 2:5 6:5
3:0 4:5 3:15 5:5 6:5 3:5 5:5 4:5 2:5 6:5 2:5
4:0 3:15 5:5 6:5 3:5 5:5 4:5 2:5 6:5 2:5 6:5
3:0 5:5 6:5 3:5 5:5 4:5 2:5 6:5 2:5 6:5 4:5
5:0 6:5 3:5 5:5 4:5 2:5 6:5 2:5 6:5 4:5 6:10
6:0 3:5 5:5 4:5 2:5 6:5 2:5 6:5 4:5 6:10 3:5
3:0 5:5 4:5 2:5 6:5 2:5 6:5 4:5 6:10 3:5 5:5
5:0 4:5 2:5 6:5 2:5 6:5 4:5 6:10 3:5 5:5 2:5
4:0 2:5 6:5 2:5 6:5 4:5 6:10 3:5 5:5 2:5 4:5
2:0 6:5 2:5 6:5 4:5 6:10 3:5 5:5 2:5 4:5 5:5
6:0 2:5 6:5 4:5 6:10 3:5 5:5 2:5 4:5 5:5 4:10
2:0 6:5 4:5 6:10 3:5 5:5 2:5 4:5 5:5 4:10 3:5
6:0 4:5 6:10 3:5 5:5 2:5 4:5 5:5 4:10 3:5 5:5
4:0 6:10 3:5 5:5 2:5 4:5 5:5 4:10 3:5 5:5 4:5
6:0 3:5 5:5 2:5 4:5 5:5 4:10 3:5 5:5 4:5 5:15
3:0 5:5 2:5 4:5 5:5 4:10 3:5 5:5 4:5 5:15 4:5
5:0 2:5 4:5 5:5 4:10 3:5 5:5 4:5 5:15 4:5 5:10
2:0 4:5 5:5 4:10 3:5 5:5 4:5 5:15 4:5 5:10 4:5
4:0 5:5 4:10 3:5 5:5 4:5 5:15 4:5 5:10 4:5 2:5
5:0 4:10 3:5 5:5 4:5 5:15 4:5 5:10 4:5 2:5 4:5
4:0 3:5 5:5 4:5 5:15 4:5 5:10 4:5 2:5 4:5 6:10
3:0 5:5 4:5 5:15 4:5 5:10 4:5 2:5 4:5 6:10 3:5
5:0 4:5 5:15 4:5 5:10 4:5 2:5 4:5 6:10 3:5 4:10
4:0 5:15 4:5 5:10 4:5 2:5 4:5 6:10 3:5 4:10 3:5
5:0 4:5 5:10 4:5 2:5 4:5 6:10 3:5 4:10 3:5 5:5
4:0 5:10 4:5 2:5 4:5 6:10 3:5 4:10 3:5 5:5 3:5
5:0 4:5 2:5 4:5 6:10 3:5 4:10 3:5 5:5 3:5 4:5
4:0 2:5 4:5 6:10 3:5 4:10 3:5 5:5 3:5 4:5 3:5
2:0 4:5 6:10 3:5 4:10 3:5 5:5 3:5 4:5 3:5 5:10
4:0 6:10 3:5 4:10 3:5 5:5 3:5 4:5 3:5 5:10 3:5
6:0 3:5 4:10 3:5 5:5 3:5 4:5 3:5 5:10 3:5 4:5
3:0 4:10 3:5 5:5 3:5 4:5 3:5 5:10 3:5 4:5 3:5
4:0 3:5 5:5 3:5 4:5 3:5 5:10 3:5 4:5 3:5 5:5
3:0 5:5 3:5 4:5 3:5 5:10 3:5 4:5 3:5 5:5 4:5
5:0 3:5 4:5 3:5 5:10 3:5 4:5 3:5 5:5 4:5 2:5
3:0 4:5 3:5 5:10 3:5 4:5 3:5 5:5 4:5 2:5 6:5
4:0 3:5 5:10 3:5 4:5 3:5 5:5 4:5 2:5 6:5 2:5
3:0 5:10 3:5 4:5 3:5 5:5 4:5 2:5 6:5 2:5 5:5
5:0 3:5 4:5 3:5 5:5 4:5 2:5 6:5 2:5 5:5 3:5
3:0 4:5 3:5 5:5 4:5 2:5 6:5 2:5 5:5 3:5 6:5
4:0 3:5 5:5 4:5 2:5 6:5 2:5 5:5 3:5 6:5 3:5
3:0 5:5 4:5 2:5 6:5 2:5 5:5 3:5 6:5 3:5 4:5
5:0 4:5 2:5 6:5 2:5 5:5 3:5 6:5 3:5 4:5 5:5
4:0 2:5 6:5 2:5 5:5 3:5 6:5 3:5 4:5 5:5 4:5
2:0 6:5 2:5 5:5 3:5 6:5 3:5 4:5 5:5 4:5 5:5
6:0 2:5 5:5 3:5 6:5 3:5 4:5 5:5 4:5 5:5 2:5
2:0 5:5 3:5 6:5 3:5 4:5 5:5 4:5 5:5 2:5 3:5
5:0 3:5 6:5 3:5 4:5 5:5 4:5 5:5 2:5 3:5 6:5
3:0 6:5 3:5 4:5 5:5 4:5 5:5 2:5 3:5 6:5 3:5
6:0 3:5 4:5 5:5 4:5 5:5 2:5 3:5 6:5 3:5 4:5
3:0 4:5 5:5 4:5 5:5 2:5 3:5 6:5 3:5 4:5 5:5
4:0 5:5 4:5 5:5 2:5 3:5 6:5 3:5 4:5 5:5 4:10
5:0 4:5 5:5 2:5 3:5 6:5 3:5 4:5 5:5 4:10 2:5
4:0 5:5 2:5 3:5 6:5 3:5 4:5 5:5 4:10 2:5 5:5
5:0 2:5 3:5 6:5 3:5 4:5 5:5 4:10 2:5 5:5 3:5
2:0 3:5 6:5 3:5 4:5 5:5 4:10 2:5 5:5 3:5 5:5
3:0 6:5 3:5 4:5 5:5 4:10 2:5 5:5 3:5 5:5 4:5
6:0 3:5 4:5 5:5 4:10 2:5 5:5 3:5 5:5 4:5 3:5
3:0 4:5 5:5 4:10 2:5 5:5 3:5 5:5 4:5 3:5 4:5
4:0 5:5 4:10 2:5 5:5 3:5 5:5 4:5 3:5 4:5 3:5
5:0 4:10 2:5 5:5 3:5 5:5 4:5 3:5 4:5 3:5 4:5
4:0 2:5 5:5 3:5 5:5 4:5 3:5 4:5 3:5 4:5 2:5
2:0 5:5 3:5 5:5 4:5 3:5 4:5 3:5 4:5 2:5 5:5
5:0 3:5 5:5 4:5 3:5 4:5 3:5 4:5 2:5 5:5 2:5
3:0 5:5 4:5 3:5 4:5 3:5 4:5 2:5 5:5 2:5 4:5
5:0 4:5 3:5 4:5 3:5 4:5 2:5 5:5 2:5 4:5 6:30
4:0 3:5 4:5 3:5 4:5 2:5 5:5 2:5 4:5 6:30 2:5
3:0 4:5 3:5 4:5 2:5 5:5 2:5 4:5 6:30 2:5 5:5
4:0 3:5 4:5 2:5 5:5 2:5 4:5 6:30 2:5 5:5 3:5
3:0 4:5 2:5 5:5 2:5 4:5 6:30 2:5 5:5 3:5 4:5
4:0 2:5 5:5 2:5 4:5 6:30 2:5 5:5 3:5 4:5 5:10
2:0 5:5 2:5 4:5 6:30 2:5 5:5 3:5 4:5 5:10 4:5
5:0 2:5 4:5 6:30 2:5 5:5 3:5 4:5 5:10 4:5 5:15
2:0 4:5 6:30 2:5 5:5 3:5 4:5 5:10 4:5 5:15 4:5
4:0 6:30 2:5 5:5 3:5 4:5 5:10 4:5 5:15 4:5 5:15
6:0 2:5 5:5 3:5 4:5 5:10 4:5 5:15 4:5 5:15 4:5
2:0 5:5 3:5 4:5 5:10 4:5 5:15 4:5 5:15 4:5 2:5
5:0 3:5 4:5 5:10 4:5 5:15 4:5 5:15 4:5 2:5 5:5
3:0 4:5 5:10 4:5 5:15 4:5 5:15 4:5 2:5 5:5 3:5
4:0 5:10 4:5 5:15 4:5 5:15 4:5 2:5 5:5 3:5 5:5
5:0 4:5 5:15 4:5 5:15 4:5 2:5 5:5 3:5 5:5 3:15
4:0 5:15 4:5 5:15 4:5 2:5 5:5 3:5 5:5 3:15 5:5
5:0 4:5 5:15 4:5 2:5 5:5 3:5 5:5 3:15 5:5 3:5
4:0 5:15 4:5 2:5 5:5 3:5 5:5 3:15 5:5 3:5 4:5
5:0 4:5 2:5 5:5 3:5 5:5 3:15 5:5 3:5 4:5 5:5
4:0 2:5 5:5 3:5 5:5 3:15 5:5 3:5 4:5 5:5 3:5
2:0 5:5 3:5 5:5 3:15 5:5 3:5 4:5 5:5 3:5 4:5
5:0 3:5 5:5 3:15 5:5 3:5 4:5 5:5 3:5 4:5 5:5
3:0 5:5 3:15 5:5 3:5 4:5 5:5 3:5 4:5 5:5 2:5
5:0 3:15 5:5 3:5 4:5 5:5 3:5 4:5 5:5 2:5 6:5
3:0 5:5 3:5 4:5 5:5 3:5 4:5 5:5 2:5 6:5 2:5
5:0 3:5 4:5 5:5 3:5 4:5 5:5 2:5 6:5 2:5 5:5
3:0 4:5 5:5 3:5 4:5 5:5 2:5 6:5 2:5 5:5 4:5
4:0 5:5 3:5 4:5 5:5 2:5 6:5 2:5 5:5 4:5 3:5
5:0 3:5 4:5 5:5 2:5 6:5 2:5 5:5 4:5 3:5 6:5
3:0 4:5 5:5 2:5 6:5 2:5 5:5 4:5 3:5 6:5 2:5
4:0 5:5 2:5 6:5 2:5 5:5 4:5 3:5 6:5 2:5 5:5
5:0 2:5 6:5 2:5 5:5 4:5 3:5 6:5 2:5 5:5 4:5
2:0 6:5 2:5 5:5 4:5 3:5 6:5 2:5 5:5 4:5 2:5
6:0 2:5 5:5 4:5 3:5 6:5 2:5 5:5 4:5 2:5 6:5
2:0 5:5 4:5 3:5 6:5 2:5 5:5 4:5 2:5 6:5 3:5
5:0 4:5 3:5 6:5 2:5 5:5 4:5 2:5 6:5 3:5 6:5
4:0 3:5 6:5 2:5 5:5 4:5 2:5 6:5 3:5 6:5 3:5
3:0 6:5 2:5 5:5 4:5 2:5 6:5 3:5 6:5 3:5 5:10
6:0 2:5 5:5 4:5 2:5 6:5 3:5 6:5 3:5 5:10 4:5
2:0 5:5 4:5 2:5 6:5 3:5 6:5 3:5 5:10 4:5 5:5
5:0 4:5 2:5 6:5 3:5 6:5 3:5 5:10 4:5 5:5 3:5
4:0 2:5 6:5 3:5 6:5 3:5 5:10 4:5 5:5 3:5 4:5
2:0 6:5 3:5 6:5 3:5 5:10 4:5 5:5 3:5 4:5 3:5
6:0 3:5 6:5 3:5 5:10 4:5 5:5 3:5 4:5 3:5 4:5
3:0 6:5 3:5 5:10 4:5 5:5 3:5 4:5 3:5 4:5 5:5
6:0 3:5 5:10 4:5 5:5 3:5 4:5 3:5 4:5 5:5 3:5
3:0 5:10 4:5 5:5 3:5 4:5 3:5 4:5 5:5 3:5 4:5
5:0 4:5 5:5 3:5 4:5 3:5 4:5 5:5 3:5 4:5 2:10
4:0 5:5 3:5 4:5 3:5 4:5 5:5 3:5 4:5 2:10 4:5
5:0 3:5 4:5 3:5 4:5 5:5 3:5 4:5 2:10 4:5 5:10
3:0 4:5 3:5 4:5 5:5 3:5 4:5 2:10 4:5 5:10 2:5
4:0 3:5 4:5 5:5 3:5 4:5 2:10 4:5 5:10 2:5 5:5
3:0 4:5 5:5 3:5 4:5 2:10 4:5 5:10 2:5 5:5 4:5
4:0 5:5 3:5 4:5 2:10 4:5 5:10 2:5 5:5 4:5 5:10
5:0 3:5 4:5 2:10 4:5 5:10 2:5 5:5 4:5 5:10 3:5
3:0 4:5 2:10 4:5 5:10 2:5 5:5 4:5 5:10 3:5 5:5
4:0 2:10 4:5 5:10 2:5 5:5 4:5 5:10 3:5 5:5 3:5
2:0 4:5 5:10 2:5 5:5 4:5 5:10 3:5 5:5 3:5 4:5
4:0 5:10 2:5 5:5 4:5 5:10 3:5 5:5 3:5 4:5 3:5
5:0 2:5 5:5 4:5 5:10 3:5 5:5 3:5 4:5 3:5 4:5
2:0 5:5 4:5 5:10 3:5 5:5 3:5 4:5 3:5 4:5 6:5
5:0 4:5 5:10 3:5 5:5 3:5 4:5 3:5 4:5 6:5 3:5
4:0 5:10 3:5 5:5 3:5 4:5 3:5 4:5 6:5 3:5 5:10
5:0 3:5 5:5 3:5 4:5 3:5 4:5 6:5 3:5 5:10 4:5
3:0 5:5 3:5 4:5 3:5 4:5 6:5 3:5 5:10 4:5 6:15
5:0 3:5 4:5 3:5 4:5 6:5 3:5 5:10 4:5 6:15 2:5
3:0 4:5 3:5 4:5 6:5 3:5 5:10 4:5 6:15 2:5 4:5
4:0 3:5 4:5 6:5 3:5 5:10 4:5 6:15 2:5 4:5 6:5
3:0 4:5 6:5 3:5 5:10 4:5 6:15 2:5 4:5 6:5 4:5
4:0 6:5 3:5 5:10 4:5 6:15 2:5 4:5 6:5 4:5 5:10
6:0 3:5 5:10 4:5 6:15 2:5 4:5 6:5 4:5 5:10 3:10
3:0 5:10 4:5 6:15 2:5 4:5 6:5 4:5 5:10 3:10 2:5
5:0 4:5 6:15 2:5 4:5 6:5 4:5 5:10 3:10 2:5 5:5
4:0 6:15 2:5 4:5 6:5 4:5 5:10 3:10 2:5 5:5 4:10
6:0 2:5 4:5 6:5 4:5 5:10 3:10 2:5 5:5 4:10 3:5
2:0 4:5 6:5 4:5 5:10 3:10 2:5 5:5 4:10 3:5 4:5
4:0 6:5 4:5 5:10 3:10 2:5 5:5 4:10 3:5 4:5 5:5
6:0 4:5 5:10 3:10 2:5 5:5 4:10 3:5 4:5 5:5 3:5
4:0 5:10 3:10 2:5 5:5 4:10 3:5 4:5 5:5 3:5 6:5
5:0 3:10 2:5 5:5 4:10 3:5 4:5 5:5 3:5 6:5 5:5
3:0 2:5 5:5 4:10 3:5 4:5 5:5 3:5 6:5 5:5 4:10
2:0 5:5 4:10 3:5 4:5 5:5 3:5 6:5 5:5 4:10 5:5
5:0 4:10 3:5 4:5 5:5 3:5 6:5 5:5 4:10 5:5 3:5
4:0 3:5 4:5 5:5 3:5 6:5 5:5 4:10 5:5 3:5 5:10
3:0 4:5 5:5 3:5 6:5 5:5 4:10 5:5 3:5 5:10 3:5
4:0 5:5 3:5 6:5 5:5 4:10 5:5 3:5 5:10 3:5 5:5
5:0 3:5 6:5 5:5 4:10 5:5 3:5 5:10 3:5 5:5 4:5
3:0 6:5 5:5 4:10 5:5 3:5 5:10 3:5 5:5 4:5 6:10
6:0 5:5 4:10 5:5 3:5 5:10 3:5 5:5 4:5 6:10 3:5
5:0 4:10 5:5 3:5 5:10 3:5 5:5 4:5 6:10 3:5 5:5
4:0 5:5 3:5 5:10 3:5 5:5 4:5 6:10 3:5 5:5 3:5
5:0 3:5 5:10 3:5 5:5 4:5 6:10 3:5 5:5 3:5 5:10
3:0 5:10 3:5 5:5 4:5 6:10 3:5 5:5 3:5 5:10 4:5
5:0 3:5 5:5 4:5 6:10 3:5 5:5 3:5 5:10 4:5 6:5
3:0 5:5 4:5 6:10 3:5 5:5 3:5 5:10 4:5 6:5 3:5
5:0 4:5 6:10 3:5 5:5 3:5 5:10 4:5 6:5 3:5 2:10
4:0 6:10 3:5 5:5 3:5 5:10 4:5 6:5 3:5 2:10 4:5
6:0 3:5 5:5 3:5 5:10 4:5 6:5 3:5 2:10 4:5 5:5
3:0 5:5 3:5 5:10 4:5 6:5 3:5 2:10 4:5 5:5 3:5
5:0 3:5 5:10 4:5 6:5 3:5 2:10 4:5 5:5 3:5 4:5
3:0 5:10 4:5 6:5 3:5 2:10 4:5 5:5 3:5 4:5 5:5
5:0 4:5 6:5 3:5 2:10 4:5 5:5 3:5 4:5 5:5 4:10
4:0 6:5 3:5 2:10 4:5 5:5 3:5 4:5 5:5 4:10 2:25
6:0 3:5 2:10 4:5 5:5 3:5 4:5 5:5 4:10 2:25 3:5
3:0 2:10 4:5 5:5 3:5 4:5 5:5 4:10 2:25 3:5 5:5
2:0 4:5 5:5 3:5 4:5 5:5 4:10 2:25 3:5 5:5 3:5
4:0 5:5 3:5 4:5 5:5 4:10 2:25 3:5 5:5 3:5 5:5
5:0 3:5 4:5 5:5 4:10 2:25 3:5 5:5 3:5 5:5 3:10
3:0 4:5 5:5 4:10 2:25 3:5 5:5 3:5 5:5 3:10 6:5
4:0 5:5 4:10 2:25 3:5 5:5 3:5 5:5 3:10 6:5 3:5
5:0 4:10 2:25 3:5 5:5 3:5 5:5 3:10 6:5 3:5 5:5
4:0 2:25 3:5 5:5 3:5 5:5 3:10 6:5 3:5 5:5 3:5
2:0 3:5 5:5 3:5 5:5 3:10 6:5 3:5 5:5 3:5 5:5
3:0 5:5 3:5 5:5 3:10 6:5 3:5 5:5 3:5 5:5 4:5
5:0 3:5 5:5 3:10 6:5 3:5 5:5 3:5 5:5 4:5 3:5
3:0 5:5 3:10 6:5 3:5 5:5 3:5 5:5 4:5 3:5 6:5
5:0 3:10 6:5 3:5 5:5 3:5 5:5 4:5 3:5 6:5 2:5
3:0 6:5 3:5 5:5 3:5 5:5 4:5 3:5 6:5 2:5 4:5
6:0 3:5 5:5 3:5 5:5 4:5 3:5 6:5 2:5 4:5 3:10
3:0 5:5 3:5 5:5 4:5 3:5 6:5 2:5 4:5 3:10 5:5
5:0 3:5 5:5 4:5 3:5 6:5 2:5 4:5 3:10 5:5 4:5
3:0 5:5 4:5 3:5 6:5 2:5 4:5 3:10 5:5 4:5 3:5
5:0 4:5 3:5 6:5 2:5 4:5 3:10 5:5 4:5 3:5 5:5
4:0 3:5 6:5 2:5 4:5 3:10 5:5 4:5 3:5 5:5 3:5
3:0 6:5 2:5 4:5 3:10 5:5 4:5 3:5 5:5 3:5 5:5
6:0 2:5 4:5 3:10 5:5 4:5 3:5 5:5 3:5 5:5 4:5
2:0 4:5 3:10 5:5 4:5 3:5 5:5 3:5 5:5 4:5 3:5
4:0 3:10 5:5 4:5 3:5 5:5 3:5 5:5 4:5 3:5 4:5
3:0 5:5 4:5 3:5 5:5 3:5 5:5 4:5 3:5 4:5 5:5
5:0 4:5 3:5 5:5 3:5 5:5 4:5 3:5 4:5 5:5 2:5
4:0 3:5 5:5 3:5 5:5 4:5 3:5 4:5 5:5 2:5 5:5
3:0 5:5 3:5 5:5 4:5 3:5 4:5 5:5 2:5 5:5 4:5
5:0 3:5 5:5 4:5 3:5 4:5 5:5 2:5 5:5 4:5 6:10
3:0 5:5 4:5 3:5 4:5 5:5 2:5 5:5 4:5 6:10 2:5
5:0 4:5 3:5 4:5 5:5 2:5 5:5 4:5 6:10 2:5 3:5
4:0 3:5 4:5 5:5 2:5 5:5 4:5 6:10 2:5 3:5 5:5
3:0 4:5 5:5 2:5 5:5 4:5 6:10 2:5 3:5 5:5 3:5
4:0 5:5 2:5 5:5 4:5 6:10 2:5 3:5 5:5 3:5 6:5
5:0 2:5 5:5 4:5 6:10 2:5 3:5 5:5 3:5 6:5 2:5
2:0 5:5 4:5 6:10 2:5 3:5 5:5 3:5 6:5 2:5 3:5
5:0 4:5 6:10 2:5 3:5 5:5 3:5 6:5 2:5 3:5 5:5
4:0 6:10 2:5 3:5 5:5 3:5 6:5 2:5 3:5 5:5 3:5
6:0 2:5 3:5 5:5 3:5 6:5 2:5 3:5 5:5 3:5 5:5
2:0 3:5 5:5 3:5 6:5 2:5 3:5 5:5 3:5 5:5 4:5
3:0 5:5 3:5 6:5 2:5 3:5 5:5 3:5 5:5 4:5 2:10
5:0 3:5 6:5 2:5 3:5 5:5 3:5 5:5 4:5 2:10 4:5
3:0 6:5 2:5 3:5 5:5 3:5 5:5 4:5 2:10 4:5 5:5
6:0 2:5 3:5 5:5 3:5 5:5 4:5 2:10 4:5 5:5 3:5
2:0 3:5 5:5 3:5 5:5 4:5 2:10 4:5 5:5 3:5 4:5
3:0 5:5 3:5 5:5 4:5 2:10 4:5 5:5 3:5 4:5 5:10
5:0 3:5 5:5 4:5 2:10 4:5 5:5 3:5 4:5 5:10 3:5
3:0 5:5 4:5 2:10 4:5 5:5 3:5 4:5 5:10 3:5 2:5
5:0 4:5 2:10 4:5 5:5 3:5 4:5 5:10 3:5 2:5 6:5
4:0 2:10 4:5 5:5 3:5 4:5 5:10 3:5 2:5 6:5 3:5
2:0 4:5 5:5 3:5 4:5 5:10 3:5 2:5 6:5 3:5 4:5
4:0 5:5 3:5 4:5 5:10 3:5 2:5 6:5 3:5 4:5 6:10
5:0 3:5 4:5 5:10 3:5 2:5 6:5 3:5 4:5 6:10 3:5
3:0 4:5 5:10 3:5 2:5 6:5 3:5 4:5 6:10 3:5 5:5
4:0 5:10 3:5 2:5 6:5 3:5 4:5 6:10 3:5 5:5 3:5
5:0 3:5 2:5 6:5 3:5 4:5 6:10 3:5 5:5 3:5 5:5
3:0 2:5 6:5 3:5 4:5 6:10 3:5 5:5 3:5 5:5 4:10
2:0 6:5 3:5 4:5 6:10 3:5 5:5 3:5 5:5 4:10 5:5
6:0 3:5 4:5 6:10 3:5 5:5 3:5 5:5 4:10 5:5 3:5
3:0 4:5 6:10 3:5 5:5 3:5 5:5 4:10 5:5 3:5 5:10
4:0 6:10 3:5 5:5 3:5 5:5 4:10 5:5 3:5 5:10 3:5
6:0 3:5 5:5 3:5 5:5 4:10 5:5 3:5 5:10 3:5 4:5
3:0 5:5 3:5 5:5 4:10 5:5 3:5 5:10 3:5 4:5 3:10
5:0 3:5 5:5 4:10 5:5 3:5 5:10 3:5 4:5 3:10 5:5
3:0 5:5 4:10 5:5 3:5 5:10 3:5 4:5 3:10 5:5 2:5
5:0 4:10 5:5 3:5 5:10 3:5 4:5 3:10 5:5 2:5 4:5
4:0 5:5 3:5 5:10 3:5 4:5 3:10 5:5 2:5 4:5 3:5
5:0 3:5 5:10 3:5 4:5 3:10 5:5 2:5 4:5 3:5 5:5
3:0 5:10 3:5 4:5 3:10 5:5 2:5 4:5 3:5 5:5 4:5
5:0 3:5 4:5 3:10 5:5 2:5 4:5 3:5 5:5 4:5 3:5
3:0 4:5 3:10 5:5 2:5 4:5 3:5 5:5 4:5 3:5 5:5
4:0 3:10 5:5 2:5 4:5 3:5 5:5 4:5 3:5 5:5 3:5
3:0 5:5 2:5 4:5 3:5 5:5 4:5 3:5 5:5 3:5 4:10
5:0 2:5 4:5 3:5 5:5 4:5 3:5 5:5 3:5 4:10 6:10
2:0 4:5 3:5 5:5 4:5 3:5 5:5 3:5 4:10 6:10 3:5
4:0 3:5 5:5 4:5 3:5 5:5 3:5 4:10 6:10 3:5 5:10
3:0 5:5 4:5 3:5 5:5 3:5 4:10 6:10 3:5 5:10 2:5
5:0 4:5 3:5 5:5 3:5 4:10 6:10 3:5 5:10 2:5 6:5
4:0 3:5 5:5 3:5 4:10 6:10 3:5 5:10 2:5 6:5 2:5
3:0 5:5 3:5 4:10 6:10 3:5 5:10 2:5 6:5 2:5 5:5
5:0 3:5 4:10 6:10 3:5 5:10 2:5 6:5 2:5 5:5 2:5
3:0 4:10 6:10 3:5 5:10 2:5 6:5 2:5 5:5 2:5 4:5
4:0 6:10 3:5 5:10 2:5 6:5 2:5 5:5 2:5 4:5 3:5
6:0 3:5 5:10 2:5 6:5 2:5 5:5 2:5 4:5 3:5 5:10
3:0 5:10 2:5 6:5 2:5 5:5 2:5 4:5 3:5 5:10 4:5
5:0 2:5 6:5 2:5 5:5 2:5 4:5 3:5 5:10 4:5 5:15
2:0 6:5 2:5 5:5 2:5 4:5 3:5 5:10 4:5 5:15 2:5
6:0 2:5 5:5 2:5 4:5 3:5 5:10 4:5 5:15 2:5 4:5
2:0 5:5 2:5 4:5 3:5 5:10 4:5 5:15 2:5 4:5 5:5
5:0 2:5 4:5 3:5 5:10 4:5 5:15 2:5 4:5 5:5 2:5
2:0 4:5 3:5 5:10 4:5 5:15 2:5 4:5 5:5 2:5 5:5
4:0 3:5 5:10 4:5 5:15 2:5 4:5 5:5 2:5 5:5 2:10
3:0 5:10 4:5 5:15 2:5 4:5 5:5 2:5 5:5 2:10 6:5
5:0 4:5 5:15 2:5 4:5 5:5 2:5 5:5 2:10 6:5 3:5
4:0 5:15 2:5 4:5 5:5 2:5 5:5 2:10 6:5 3:5 5:5
5:0 2:5 4:5 5:5 2:5 5:5 2:10 6:5 3:5 5:5 4:5
2:0 4:5 5:5 2:5 5:5 2:10 6:5 3:5 5:5 4:5 3:5
4:0 5:5 2:5 5:5 2:10 6:5 3:5 5:5 4:5 3:5 5:5
5:0 2:5 5:5 2:10 6:5 3:5 5:5 4:5 3:5 5:5 4:5
2:0 5:5 2:10 6:5 3:5 5:5 4:5 3:5 5:5 4:5 3:5
5:0 2:10 6:5 3:5 5:5 4:5 3:5 5:5 4:5 3:5 4:5
2:0 6:5 3:5 5:5 4:5 3:5 5:5 4:5 3:5 4:5 5:5
6:0 3:5 5:5 4:5 3:5 5:5 4:5 3:5 4:5 5:5 4:5
3:0 5:5 4:5 3:5 5:5 4:5 3:5 4:5 5:5 4:5 2:5
5:0 4:5 3:5 5:5 4:5 3:5 4:5 5:5 4:5 2:5 5:5
4:0 3:5 5:5 4:5 3:5 4:5 5:5 4:5 2:5 5:5 4:5
3:0 5:5 4:5 3:5 4:5 5:5 4:5 2:5 5:5 4:5 5:5
5:0 4:5 3:5 4:5 5:5 4:5 2:5 5:5 4:5 5:5 4:5
4:0 3:5 4:5 5:5 4:5 2:5 5:5 4:5 5:5 4:5 2:15
3:0 4:5 5:5 4:5 2:5 5:5 4:5 5:5 4:5 2:15 5:5
4:0 5:5 4:5 2:5 5:5 4:5 5:5 4:5 2:15 5:5 3:5
5:0 4:5 2:5 5:5 4:5 5:5 4:5 2:15 5:5 3:5 5:5
4:0 2:5 5:5 4:5 5:5 4:5 2:15 5:5 3:5 5:5 2:5
2:0 5:5 4:5 5:5 4:5 2:15 5:5 3:5 5:5 2:5 5:5
5:0 4:5 5:5 4:5 2:15 5:5 3:5 5:5 2:5 5:5 3:5
4:0 5:5 4:5 2:15 5:5 3:5 5:5 2:5 5:5 3:5 4:5
5:0 4:5 2:15 5:5 3:5 5:5 2:5 5:5 3:5 4:5 5:5
4:0 2:15 5:5 3:5 5:5 2:5 5:5 3:5 4:5 5:5 3:5
2:0 5:5 3:5 5:5 2:5 5:5 3:5 4:5 5:5 3:5 6:10
5:0 3:5 5:5 2:5 5:5 3:5 4:5 5:5 3:5 6:10 3:5
3:0 5:5 2:5 5:5 3:5 4:5 5:5 3:5 6:10 3:5 4:5
5:0 2:5 5:5 3:5 4:5 5:5 3:5 6:10 3:5 4:5 5:5
2:0 5:5 3:5 4:5 5:5 3:5 6:10 3:5 4:5 5:5 4:15
5:0 3:5 4:5 5:5 3:5 6:10 3:5 4:5 5:5 4:15 6:5
3:0 4:5 5:5 3:5 6:10 3:5 4:5 5:5 4:15 6:5 3:5
4:0 5:5 3:5 6:10 3:5 4:5 5:5 4:15 6:5 3:5 4:5
5:0 3:5 6:10 3:5 4:5 5:5 4:15 6:5 3:5 4:5 3:5
3:0 6:10 3:5 4:5 5:5 4:15 6:5 3:5 4:5 3:5 4:10
6:0 3:5 4:5 5:5 4:15 6:5 3:5 4:5 3:5 4:10 6:10
3:0 4:5 5:5 4:15 6:5 3:5 4:5 3:5 4:10 6:10 3:5
4:0 5:5 4:15 6:5 3:5 4:5 3:5 4:10 6:10 3:5 2:5
5:0 4:15 6:5 3:5 4:5 3:5 4:10 6:10 3:5 2:5 6:5
4:0 6:5 3:5 4:5 3:5 4:10 6:10 3:5 2:5 6:5 2:5
6:0 3:5 4:5 3:5 4:10 6:10 3:5 2:5 6:5 2:5 5:5
3:0 4:5 3:5 4:10 6:10 3:5 2:5 6:5 2:5 5:5 4:5
4:0 3:5 4:10 6:10 3:5 2:5 6:5 2:5 5:5 4:5 5:5
3:0 4:10 6:10 3:5 2:5 6:5 2:5 5:5 4:5 5:5 4:5
4:0 6:10 3:5 2:5 6:5 2:5 5:5 4:5 5:5 4:5 2:15
6:0 3:5 2:5 6:5 2:5 5:5 4:5 5:5 4:5 2:15 5:5
3:0 2:5 6:5 2:5 5:5 4:5 5:5 4:5 2:15 5:5 3:5
2:0 6:5 2:5 5:5 4:5 5:5 4:5 2:15 5:5 3:5 4:5
6:0 2:5 5:5 4:5 5:5 4:5 2:15 5:5 3:5 4:5 5:20
2:0 5:5 4:5 5:5 4:5 2:15 5:5 3:5 4:5 5:20 2:10
5:0 4:5 5:5 4:5 2:15 5:5 3:5 4:5 5:20 2:10 3:5
4:0 5:5 4:5 2:15 5:5 3:5 4:5 5:20 2:10 3:5 6:5
5:0 4:5 2:15 5:5 3:5 4:5 5:20 2:10 3:5 6:5 3:5
4:0 2:15 5:5 3:5 4:5 5:20 2:10 3:5 6:5 3:5 6:5
2:0 5:5 3:5 4:5 5:20 2:10 3:5 6:5 3:5 6:5 2:5
5:0 3:5 4:5 5:20 2:10 3:5 6:5 3:5 6:5 2:5 3:5
3:0 4:5 5:20 2:10 3:5 6:5 3:5 6:5 2:5 3:5 6:5
4:0 5:20 2:10 3:5 6:5 3:5 6:5 2:5 3:5 6:5 3:5
5:0 2:10 3:5 6:5 3:5 6:5 2:5 3:5 6:5 3:5 6:5
2:0 3:5 6:5 3:5 6:5 2:5 3:5 6:5 3:5 6:5 4:5
3:0 6:5 3:5 6:5 2:5 3:5 6:5 3:5 6:5 4:5 3:5
6:0 3:5 6:5 2:5 3:5 6:5 3:5 6:5 4:5 3:5 4:5
3:0 6:5 2:5 3:5 6:5 3:5 6:5 4:5 3:5 4:5 5:10
6:0 2:5 3:5 6:5 3:5 6:5 4:5 3:5 4:5 5:10 4:5
2:0 3:5 6:5 3:5 6:5 4:5 3:5 4:5 5:10 4:5 5:10
3:0 6:5 3:5 6:5 4:5 3:5 4:5 5:10 4:5 5:10 6:10
6:0 3:5 6:5 4:5 3:5 4:5 5:10 4:5 5:10 6:10 3:5
3:0 6:5 4:5 3:5 4:5 5:10 4:5 5:10 6:10 3:5 5:10
6:0 4:5 3:5 4:5 5:10 4:5 5:10 6:10 3:5 5:10 4:10
4:0 3:5 4:5 5:10 4:5 5:10 6:10 3:5 5:10 4:10 5:5
3:0 4:5 5:10 4:5 5:10 6:10 3:5 5:10 4:10 5:5 3:5
4:0 5:10 4:5 5:10 6:10 3:5 5:10 4:10 5:5 3:5 4:5
5:0 4:5 5:10 6:10 3:5 5:10 4:10 5:5 3:5 4:5 5:20
4:0 5:10 6:10 3:5 5:10 4:10 5:5 3:5 4:5 5:20 2:5
5:0 6:10 3:5 5:10 4:10 5:5 3:5 4:5 5:20 2:5 6:5
6:0 3:5 5:10 4:10 5:5 3:5 4:5 5:20 2:5 6:5 2:5
3:0 5:10 4:10 5:5 3:5 4:5 5:20 2:5 6:5 2:5 4:5
5:0 4:10 5:5 3:5 4:5 5:20 2:5 6:5 2:5 4:5 5:5
4:0 5:5 3:5 4:5 5:20 2:5 6:5 2:5 4:5 5:5 3:15
5:0 3:5 4:5 5:20 2:5 6:5 2:5 4:5 5:5 3:15 5:5
3:0 4:5 5:20 2:5 6:5 2:5 4:5 5:5 3:15 5:5 4:5
4:0 5:20 2:5 6:5 2:5 4:5 5:5 3:15 5:5 4:5 5:5
5:0 2:5 6:5 2:5 4:5 5:5 3:15 5:5 4:5 5:5 4:5
2:0 6:5 2:5 4:5 5:5 3:15 5:5 4:5 5:5 4:5 3:5
6:0 2:5 4:5 5:5 3:15 5:5 4:5 5:5 4:5 3:5 5:5
2:0 4:5 5:5 3:15 5:5 4:5 5:5 4:5 3:5 5:5 4:5
4:0 5:5 3:15 5:5 4:5 5:5 4:5 3:5 5:5 4:5 5:5
5:0 3:15 5:5 4:5 5:5 4:5 3:5 5:5 4:5 5:5 4:5
3:0 5:5 4:5 5:5 4:5 3:5 5:5 4:5 5:5 4:5 5:5
5:0 4:5 5:5 4:5 3:5 5:5 4:5 5:5 4:5 5:5 2:5
4:0 5:5 4:5 3:5 5:5 4:5 5:5 4:5 5:5 2:5 4:5
5:0 4:5 3:5 5:5 4:5 5:5 4:5 5:5 2:5 4:5 5:5
4:0 3:5 5:5 4:5 5:5 4:5 5:5 2:5 4:5 5:5 2:5
3:0 5:5 4:5 5:5 4:5 5:5 2:5 4:5 5:5 2:5 4:5
5:0 4:5 5:5 4:5 5:5 2:5 4:5 5:5 2:5 4:5 3:10
4:0 5:5 4:5 5:5 2:5 4:5 5:5 2:5 4:5 3:10 6:5
5:0 4:5 5:5 2:5 4:5 5:5 2:5 4:5 3:10 6:5 4:5
4:0 5:5 2:5 4:5 5:5 2:5 4:5 3:10 6:5 4:5 3:5
5:0 2:5 4:5 5:5 2:5 4:5 3:10 6:5 4:5 3:5 4:5
2:0 4:5 5:5 2:5 4:5 3:10 6:5 4:5 3:5 4:5 5:10
4:0 5:5 2:5 4:5 3:10 6:5 4:5 3:5 4:5 5:10 4:5
5:0 2:5 4:5 3:10 6:5 4:5 3:5 4:5 5:10 4:5 5:5
2:0 4:5 3:10 6:5 4:5 3:5 4:5 5:10 4:5 5:5 4:5
4:0 3:10 6:5 4:5 3:5 4:5 5:10 4:5 5:5 4:5 3:15
3:0 6:5 4:5 3:5 4:5 5:10 4:5 5:5 4:5 3:15 6:5
6:0 4:5 3:5 4:5 5:10 4:5 5:5 4:5 3:15 6:5 3:5
4:0 3:5 4:5 5:10 4:5 5:5 4:5 3:15 6:5 3:5 5:5
3:0 4:5 5:10 4:5 5:5 4:5 3:15 6:5 3:5 5:5 4:5
4:0 5:10 4:5 5:5 4:5 3:15 6:5 3:5 5:5 4:5 3:5
5:0 4:5 5:5 4:5 3:15 6:5 3:5 5:5 4:5 3:5 5:5
4:0 5:5 4:5 3:15 6:5 3:5 5:5 4:5 3:5 5:5 3:5
5:0 4:5 3:15 6:5 3:5 5:5 4:5 3:5 5:5 3:5 4:5
4:0 3:15 6:5 3:5 5:5 4:5 3:5 5:5 3:5 4:5 3:5
3:0 6:5 3:5 5:5 4:5 3:5 5:5 3:5 4:5 3:5 4:10
6:0 3:5 5:5 4:5 3:5 5:5 3:5 4:5 3:5 4:10 5:15
3:0 5:5 4:5 3:5 5:5 3:5 4:5 3:5 4:10 5:15 4:5
5:0 4:5 3:5 5:5 3:5 4:5 3:5 4:10 5:15 4:5 3:5
4:0 3:5 5:5 3:5 4:5 3:5 4:10 5:15 4:5 3:5 4:5
3:0 5:5 3:5 4:5 3:5 4:10 5:15 4:5 3:5 4:5 5:15
5:0 3:5 4:5 3:5 4:10 5:15 4:5 3:5 4:5 5:15 3:5
3:0 4:5 3:5 4:10 5:15 4:5 3:5 4:5 5:15 3:5 4:5
4:0 3:5 4:10 5:15 4:5 3:5 4:5 5:15 3:5 4:5 3:5
3:0 4:10 5:15 4:5 3:5 4:5 5:15 3:5 4:5 3:5 5:10
4:0 5:15 4:5 3:5 4:5 5:15 3:5 4:5 3:5 5:10 3:5
5:0 4:5 3:5 4:5 5:15 3:5 4:5 3:5 5:10 3:5 4:10
4:0 3:5 4:5 5:15 3:5 4:5 3:5 5:10 3:5 4:10 5:15
3:0 4:5 5:15 3:5 4:5 3:5 5:10 3:5 4:10 5:15 4:5
4:0 5:15 3:5 4:5 3:5 5:10 3:5 4:10 5:15 4:5 3:5
5:0 3:5 4:5 3:5 5:10 3:5 4:10 5:15 4:5 3:5 5:5
3:0 4:5 3:5 5:10 3:5 4:10 5:15 4:5 3:5 5:5 4:5
4:0 3:5 5:10 3:5 4:10 5:15 4:5 3:5 5:5 4:5 5:10
3:0 5:10 3:5 4:10 5:15 4:5 3:5 5:5 4:5 5:10 3:5
5:0 3:5 4:10 5:15 4:5 3:5 5:5 4:5 5:10 3:5 5:5
3:0 4:10 5:15 4:5 3:5 5:5 4:5 5:10 3:5 5:5 4:5
4:0 5:15 4:5 3:5 5:5 4:5 5:10 3:5 5:5 4:5 5:20
5:0 4:5 3:5 5:5 4:5 5:10 3:5 5:5 4:5 5:20 4:5
4:0 3:5 5:5 4:5 5:10 3:5 5:5 4:5 5:20 4:5 5:5
3:0 5:5 4:5 5:10 3:5 5:5 4:5 5:20 4:5 5:5 4:5
5:0 4:5 5:10 3:5 5:5 4:5 5:20 4:5 5:5 4:5 2:5
4:0 5:10 3:5 5:5 4:5 5:20 4:5 5:5 4:5 2:5 6:5
5:0 3:5 5:5 4:5 5:20 4:5 5:5 4:5 2:5 6:5 3:5
3:0 5:5 4:5 5:20 4:5 5:5 4:5 2:5 6:5 3:5 4:5
5:0 4:5 5:20 4:5 5:5 4:5 2:5 6:5 3:5 4:5 5:10
4:0 5:20 4:5 5:5 4:5 2:5 6:5 3:5 4:5 5:10 3:5
5:0 4:5 5:5 4:5 2:5 6:5 3:5 4:5 5:10 3:5 5:5
4:0 5:5 4:5 2:5 6:5 3:5 4:5 5:10 3:5 5:5 2:10
5:0 4:5 2:5 6:5 3:5 4:5 5:10 3:5 5:5 2:10 3:5
4:0 2:5 6:5 3:5 4:5 5:10 3:5 5:5 2:10 3:5 4:5
2:0 6:5 3:5 4:5 5:10 3:5 5:5 2:10 3:5 4:5 5:5
6:0 3:5 4:5 5:10 3:5 5:5 2:10 3:5 4:5 5:5 6:5
3:0 4:5 5:10 3:5 5:5 2:10 3:5 4:5 5:5 6:5 4:5
4:0 5:10 3:5 5:5 2:10 3:5 4:5 5:5 6:5 4:5 3:5
5:0 3:5 5:5 2:10 3:5 4:5 5:5 6:5 4:5 3:5 4:5
3:0 5:5 2:10 3:5 4:5 5:5 6:5 4:5 3:5 4:5 5:10
5:0 2:10 3:5 4:5 5:5 6:5 4:5 3:5 4:5 5:10 4:5
2:0 3:5 4:5 5:5 6:5 4:5 3:5 4:5 5:10 4:5 5:5
3:0 4:5 5:5 6:5 4:5 3:5 4:5 5:10 4:5 5:5 2:5
4:0 5:5 6:5 4:5 3:5 4:5 5:10 4:5 5:5 2:5 4:5
5:0 6:5 4:5 3:5 4:5 5:10 4:5 5:5 2:5 4:5 5:5
6:0 4:5 3:5 4:5 5:10 4:5 5:5 2:5 4:5 5:5 4:5
4:0 3:5 4:5 5:10 4:5 5:5 2:5 4:5 5:5 4:5 5:5
3:0 4:5 5:10 4:5 5:5 2:5 4:5 5:5 4:5 5:5 3:5
4:0 5:10 4:5 5:5 2:5 4:5 5:5 4:5 5:5 3:5 4:5
5:0 4:5 5:5 2:5 4:5 5:5 4:5 5:5 3:5 4:5 5:5
4:0 5:5 2:5 4:5 5:5 4:5 5:5 3:5 4:5 5:5 3:5
5:0 2:5 4:5 5:5 4:5 5:5 3:5 4:5 5:5 3:5 4:5
2:0 4:5 5:5 4:5 5:5 3:5 4:5 5:5 3:5 4:5 5:5
4:0 5:5 4:5 5:5 3:5 4:5 5:5 3:5 4:5 5:5 4:10
5:0 4:5 5:5 3:5 4:5 5:5 3:5 4:5 5:5 4:10 3:5
4:0 5:5 3:5 4:5 5:5 3:5 4:5 5:5 4:10 3:5 4:5
5:0 3:5 4:5 5:5 3:5 4:5 5:5 4:10 3:5 4:5 2:5
3:0 4:5 5:5 3:5 4:5 5:5 4:10 3:5 4:5 2:5 5:5
4:0 5:5 3:5 4:5 5:5 4:10 3:5 4:5 2:5 5:5 3:5
5:0 3:5 4:5 5:5 4:10 3:5 4:5 2:5 5:5 3:5 4:5
3:0 4:5 5:5 4:10 3:5 4:5 2:5 5:5 3:5 4:5 5:5
4:0 5:5 4:10 3:5 4:5 2:5 5:5 3:5 4:5 5:5 3:5
5:0 4:10 3:5 4:5 2:5 5:5 3:5 4:5 5:5 3:5 6:5
4:0 3:5 4:5 2:5 5:5 3:5 4:5 5:5 3:5 6:5 2:5
3:0 4:5 2:5 5:5 3:5 4:5 5:5 3:5 6:5 2:5 5:5
4:0 2:5 5:5 3:5 4:5 5:5 3:5 6:5 2:5 5:5 3:5
2:0 5:5 3:5 4:5 5:5 3:5 6:5 2:5 5:5 3:5 5:5
5:0 3:5 4:5 5:5 3:5 6:5 2:5 5:5 3:5 5:5 3:5
3:0 4:5 5:5 3:5 6:5 2:5 5:5 3:5 5:5 3:5 4:5
4:0 5:5 3:5 6:5 2:5 5:5 3:5 5:5 3:5 4:5 3:10
5:0 3:5 6:5 2:5 5:5 3:5 5:5 3:5 4:5 3:10 4:5
3:0 6:5 2:5 5:5 3:5 5:5 3:5 4:5 3:10 4:5 3:5
6:0 2:5 5:5 3:5 5:5 3:5 4:5 3:10 4:5 3:5 5:10
2:0 5:5 3:5 5:5 3:5 4:5 3:10 4:5 3:5 5:10 4:5
5:0 3:5 5:5 3:5 4:5 3:10 4:5 3:5 5:10 4:5 5:15
3:0 5:5 3:5 4:5 3:10 4:5 3:5 5:10 4:5 5:15 4:5
5:0 3:5 4:5 3:10 4:5 3:5 5:10 4:5 5:15 4:5 6:10
3:0 4:5 3:10 4:5 3:5 5:10 4:5 5:15 4:5 6:10 4:5
4:0 3:10 4:5 3:5 5:10 4:5 5:15 4:5 6:10 4:5 2:5
3:0 4:5 3:5 5:10 4:5 5:15 4:5 6:10 4:5 2:5 4:5
4:0 3:5 5:10 4:5 5:15 4:5 6:10 4:5 2:5 4:5 5:10
3:0 5:10 4:5 5:15 4:5 6:10 4:5 2:5 4:5 5:10 3:5
5:0 4:5 5:15 4:5 6:10 4:5 2:5 4:5 5:10 3:5 4:10
4:0 5:15 4:5 6:10 4:5 2:5 4:5 5:10 3:5 4:10 2:5
5:0 4:5 6:10 4:5 2:5 4:5 5:10 3:5 4:10 2:5 6:5
4:0 6:10 4:5 2:5 4:5 5:10 3:5 4:10 2:5 6:5 4:5
6:0 4:5 2:5 4:5 5:10 3:5 4:10 2:5 6:5 4:5 5:10
4:0 2:5 4:5 5:10 3:5 4:10 2:5 6:5 4:5 5:10 4:5
2:0 4:5 5:10 3:5 4:10 2:5 6:5 4:5 5:10 4:5 5:5
4:0 5:10 3:5 4:10 2:5 6:5 4:5 5:10 4:5 5:5 4:10
5:0 3:5 4:10 2:5 6:5 4:5 5:10 4:5 5:5 4:10 5:5
3:0 4:10 2:5 6:5 4:5 5:10 4:5 5:5 4:10 5:5 4:10
4:0 2:5 6:5 4:5 5:10 4:5 5:5 4:10 5:5 4:10 2:5
2:0 6:5 4:5 5:10 4:5 5:5 4:10 5:5 4:10 2:5 4:5
6:0 4:5 5:10 4:5 5:5 4:10 5:5 4:10 2:5 4:5 5:10
4:0 5:10 4:5 5:5 4:10 5:5 4:10 2:5 4:5 5:10 4:5
5:0 4:5 5:5 4:10 5:5 4:10 2:5 4:5 5:10 4:5 5:5
4:0 5:5 4:10 5:5 4:10 2:5 4:5 5:10 4:5 5:5 3:5
5:0 4:10 5:5 4:10 2:5 4:5 5:10 4:5 5:5 3:5 4:5
4:0 5:5 4:10 2:5 4:5 5:10 4:5 5:5 3:5 4:5 5:5
5:0 4:10 2:5 4:5 5:10 4:5 5:5 3:5 4:5 5:5 3:5
4:0 2:5 4:5 5:10 4:5 5:5 3:5 4:5 5:5 3:5 4:10
2:0 4:5 5:10 4:5 5:5 3:5 4:5 5:5 3:5 4:10 3:15
4:0 5:10 4:5 5:5 3:5 4:5 5:5 3:5 4:10 3:15 4:5
5:0 4:5 5:5 3:5 4:5 5:5 3:5 4:10 3:15 4:5 6:25
4:0 5:5 3:5 4:5 5:5 3:5 4:10 3:15 4:5 6:25 2:5
5:0 3:5 4:5 5:5 3:5 4:10 3:15 4:5 6:25 2:5 5:5
3:0 4:5 5:5 3:5 4:10 3:15 4:5 6:25 2:5 5:5 4:5
4:0 5:5 3:5 4:10 3:15 4:5 6:25 2:5 5:5 4:5 2:5
5:0 3:5 4:10 3:15 4:5 6:25 2:5 5:5 4:5 2:5 5:5
3:0 4:10 3:15 4:5 6:25 2:5 5:5 4:5 2:5 5:5 3:10
4:0 3:15 4:5 6:25 2:5 5:5 4:5 2:5 5:5 3:10 5:10
3:0 4:5 6:25 2:5 5:5 4:5 2:5 5:5 3:10 5:10 3:5
4:0 6:25 2:5 5:5 4:5 2:5 5:5 3:10 5:10 3:5 5:5
6:0 2:5 5:5 4:5 2:5 5:5 3:10 5:10 3:5 5:5 2:10
2:0 5:5 4:5 2:5 5:5 3:10 5:10 3:5 5:5 2:10 4:5
5:0 4:5 2:5 5:5 3:10 5:10 3:5 5:5 2:10 4:5 6:5
4:0 2:5 5:5 3:10 5:10 3:5 5:5 2:10 4:5 6:5 2:5
2:0 5:5 3:10 5:10 3:5 5:5 2:10 4:5 6:5 2:5 6:5
5:0 3:10 5:10 3:5 5:5 2:10 4:5 6:5 2:5 6:5 3:5
3:0 5:10 3:5 5:5 2:10 4:5 6:5 2:5 6:5 3:5 4:10
5:0 3:5 5:5 2:10 4:5 6:5 2:5 6:5 3:5 4:10 5:5
3:0 5:5 2:10 4:5 6:5 2:5 6:5 3:5 4:10 5:5 4:10
5:0 2:10 4:5 6:5 2:5 6:5 3:5 4:10 5:5 4:10 6:5
2:0 4:5 6:5 2:5 6:5 3:5 4:10 5:5 4:10 6:5 3:5
4:0 6:5 2:5 6:5 3:5 4:10 5:5 4:10 6:5 3:5 4:5
6:0 2:5 6:5 3:5 4:10 5:5 4:10 6:5 3:5 4:5 5:5
2:0 6:5 3:5 4:10 5:5 4:10 6:5 3:5 4:5 5:5 3:5
6:0 3:5 4:10 5:5 4:10 6:5 3:5 4:5 5:5 3:5 4:5
3:0 4:10 5:5 4:10 6:5 3:5 4:5 5:5 3:5 4:5 5:10
4:0 5:5 4:10 6:5 3:5 4:5 5:5 3:5 4:5 5:10 4:5
5:0 4:10 6:5 3:5 4:5 5:5 3:5 4:5 5:10 4:5 5:5
4:0 6:5 3:5 4:5 5:5 3:5 4:5 5:10 4:5 5:5 3:5
6:0 3:5 4:5 5:5 3:5 4:5 5:10 4:5 5:5 3:5 4:5
3:0 4:5 5:5 3:5 4:5 5:10 4:5 5:5 3:5 4:5 3:10
4:0 5:5 3:5 4:5 5:10 4:5 5:5 3:5 4:5 3:10 4:5
5:0 3:5 4:5 5:10 4:5 5:5 3:5 4:5 3:10 4:5 5:10
3:0 4:5 5:10 4:5 5:5 3:5 4:5 3:10 4:5 5:10 3:10
4:0 5:10 4:5 5:5 3:5 4:5 3:10 4:5 5:10 3:10 5:5
5:0 4:5 5:5 3:5 4:5 3:10 4:5 5:10 3:10 5:5 3:5
4:0 5:5 3:5 4:5 3:10 4:5 5:10 3:10 5:5 3:5 4:5
5:0 3:5 4:5 3:10 4:5 5:10 3:10 5:5 3:5 4:5 3:5
3:0 4:5 3:10 4:5 5:10 3:10 5:5 3:5 4:5 3:5 5:5
4:0 3:10 4:5 5:10 3:10 5:5 3:5 4:5 3:5 5:5 3:10
3:0 4:5 5:10 3:10 5:5 3:5 4:5 3:5 5:5 3:10 4:5
4:0 5:10 3:10 5:5 3:5 4:5 3:5 5:5 3:10 4:5 3:5
5:0 3:10 5:5 3:5 4:5 3:5 5:5 3:10 4:5 3:5 4:5
3:0 5:5 3:5 4:5 3:5 5:5 3:10 4:5 3:5 4:5 3:5
5:0 3:5 4:5 3:5 5:5 3:10 4:5 3:5 4:5 3:5 5:5
3:0 4:5 3:5 5:5 3:10 4:5 3:5 4:5 3:5 5:5 4:5
4:0 3:5 5:5 3:10 4:5 3:5 4:5 3:5 5:5 4:5 2:5
3:0 5:5 3:10 4:5 3:5 4:5 3:5 5:5 4:5 2:5 5:5
5:0 3:10 4:5 3:5 4:5 3:5 5:5 4:5 2:5 5:5 3:5
3:0 4:5 3:5 4:5 3:5 5:5 4:5 2:5 5:5 3:5 4:5
4:0 3:5 4:5 3:5 5:5 4:5 2:5 5:5 3:5 4:5 5:5
3:0 4:5 3:5 5:5 4:5 2:5 5:5 3:5 4:5 5:5 3:5
4:0 3:5 5:5 4:5 2:5 5:5 3:5 4:5 5:5 3:5 5:10
3:0 5:5 4:5 2:5 5:5 3:5 4:5 5:5 3:5 5:10 3:10
5:0 4:5 2:5 5:5 3:5 4:5 5:5 3:5 5:10 3:10 4:5
4:0 2:5 5:5 3:5 4:5 5:5 3:5 5:10 3:10 4:5 5:5
2:0 5:5 3:5 4:5 5:5 3:5 5:10 3:10 4:5 5:5 3:5
5:0 3:5 4:5 5:5 3:5 5:10 3:10 4:5 5:5 3:5 4:5
3:0 4:5 5:5 3:5 5:10 3:10 4:5 5:5 3:5 4:5 2:35
4:0 5:5 3:5 5:10 3:10 4:5 5:5 3:5 4:5 2:35 6:5
5:0 3:5 5:10 3:10 4:5 5:5 3:5 4:5 2:35 6:5 3:5
3:0 5:10 3:10 4:5 5:5 3:5 4:5 2:35 6:5 3:5 5:5
5:0 3:10 4:5 5:5 3:5 4:5 2:35 6:5 3:5 5:5 4:5
3:0 4:5 5:5 3:5 4:5 2:35 6:5 3:5 5:5 4:5 5:5
4:0 5:5 3:5 4:5 2:35 6:5 3:5 5:5 4:5 5:5 4:5
5:0 3:5 4:5 2:35 6:5 3:5 5:5 4:5 5:5 4:5 5:5
3:0 4:5 2:35 6:5 3:5 5:5 4:5 5:5 4:5 5:5 3:5
4:0 2:35 6:5 3:5 5:5 4:5 5:5 4:5 5:5 3:5 5:10
2:0 6:5 3:5 5:5 4:5 5:5 4:5 5:5 3:5 5:10 2:5
6:0 3:5 5:5 4:5 5:5 4:5 5:5 3:5 5:10 2:5 4:5
3:0 5:5 4:5 5:5 4:5 5:5 3:5 5:10 2:5 4:5 5:25
5:0 4:5 5:5 4:5 5:5 3:5 5:10 2:5 4:5 5:25 3:5
4:0 5:5 4:5 5:5 3:5 5:10 2:5 4:5 5:25 3:5 4:10
5:0 4:5 5:5 3:5 5:10 2:5 4:5 5:25 3:5 4:10 3:15
4:0 5:5 3:5 5:10 2:5 4:5 5:25 3:5 4:10 3:15 5:5
5:0 3:5 5:10 2:5 4:5 5:25 3:5 4:10 3:15 5:5 3:5
3:0 5:10 2:5 4:5 5:25 3:5 4:10 3:15 5:5 3:5 5:5
5:0 2:5 4:5 5:25 3:5 4:10 3:15 5:5 3:5 5:5 4:5
2:0 4:5 5:25 3:5 4:10 3:15 5:5 3:5 5:5 4:5 5:10
4:0 5:25 3:5 4:10 3:15 5:5 3:5 5:5 4:5 5:10 3:5
5:0 3:5 4:10 3:15 5:5 3:5 5:5 4:5 5:10 3:5 5:5
3:0 4:10 3:15 5:5 3:5 5:5 4:5 5:10 3:5 5:5 6:5
4:0 3:15 5:5 3:5 5:5 4:5 5:10 3:5 5:5 6:5 3:5
3:0 5:5 3:5 5:5 4:5 5:10 3:5 5:5 6:5 3:5 4:5
5:0 3:5 5:5 4:5 5:10 3:5 5:5 6:5 3:5 4:5 5:5
3:0 5:5 4:5 5:10 3:5 5:5 6:5 3:5 4:5 5:5 4:5
5:0 4:5 5:10 3:5 5:5 6:5 3:5 4:5 5:5 4:5 2:10
4:0 5:10 3:5 5:5 6:5 3:5 4:5 5:5 4:5 2:10 5:5
5:0 3:5 5:5 6:5 3:5 4:5 5:5 4:5 2:10 5:5 2:5
3:0 5:5 6:5 3:5 4:5 5:5 4:5 2:10 5:5 2:5 4:5
5:0 6:5 3:5 4:5 5:5 4:5 2:10 5:5 2:5 4:5 3:10
6:0 3:5 4:5 5:5 4:5 2:10 5:5 2:5 4:5 3:10 5:5
3:0 4:5 5:5 4:5 2:10 5:5 2:5 4:5 3:10 5:5 2:5
4:0 5:5 4:5 2:10 5:5 2:5 4:5 3:10 5:5 2:5 5:5
5:0 4:5 2:10 5:5 2:5 4:5 3:10 5:5 2:5 5:5 4:5
4:0 2:10 5:5 2:5 4:5 3:10 5:5 2:5 5:5 4:5 3:5
2:0 5:5 2:5 4:5 3:10 5:5 2:5 5:5 4:5 3:5 6:5
5:0 2:5 4:5 3:10 5:5 2:5 5:5 4:5 3:5 6:5 2:5
2:0 4:5 3:10 5:5 2:5 5:5 4:5 3:5 6:5 2:5 5:5
4:0 3:10 5:5 2:5 5:5 4:5 3:5 6:5 2:5 5:5 4:5
3:0 5:5 2:5 5:5 4:5 3:5 6:5 2:5 5:5 4:5 6:20
5:0 2:5 5:5 4:5 3:5 6:5 2:5 5:5 4:5 6:20 2:5
2:0 5:5 4:5 3:5 6:5 2:5 5:5 4:5 6:20 2:5 6:5
5:0 4:5 3:5 6:5 2:5 5:5 4:5 6:20 2:5 6:5 2:5
4:0 3:5 6:5 2:5 5:5 4:5 6:20 2:5 6:5 2:5 5:5
3:0 6:5 2:5 5:5 4:5 6:20 2:5 6:5 2:5 5:5 4:5
6:0 2:5 5:5 4:5 6:20 2:5 6:5 2:5 5:5 4:5 2:5
2:0 5:5 4:5 6:20 2:5 6:5 2:5 5:5 4:5 2:5 4:5
5:0 4:5 6:20 2:5 6:5 2:5 5:5 4:5 2:5 4:5 6:5
4:0 6:20 2:5 6:5 2:5 5:5 4:5 2:5 4:5 6:5 5:5
6:0 2:5 6:5 2:5 5:5 4:5 2:5 4:5 6:5 5:5 4:5
2:0 6:5 2:5 5:5 4:5 2:5 4:5 6:5 5:5 4:5 2:5
6:0 2:5 5:5 4:5 2:5 4:5 6:5 5:5 4:5 2:5 6:5
2:0 5:5 4:5 2:5 4:5 6:5 5:5 4:5 2:5 6:5 2:5
5:0 4:5 2:5 4:5 6:5 5:5 4:5 2:5 6:5 2:5 5:5
4:0 2:5 4:5 6:5 5:5 4:5 2:5 6:5 2:5 5:5 2:5
2:0 4:5 6:5 5:5 4:5 2:5 6:5 2:5 5:5 2:5 5:10
4:0 6:5 5:5 4:5 2:5 6:5 2:5 5:5 2:5 5:10 2:10
6:0 5:5 4:5 2:5 6:5 2:5 5:5 2:5 5:10 2:10 3:5
5:0 4:5 2:5 6:5 2:5 5:5 2:5 5:10 2:10 3:5 4:5
4:0 2:5 6:5 2:5 5:5 2:5 5:10 2:10 3:5 4:5 3:5
2:0 6:5 2:5 5:5 2:5 5:10 2:10 3:5 4:5 3:5 4:5
6:0 2:5 5:5 2:5 5:10 2:10 3:5 4:5 3:5 4:5 3:10
2:0 5:5 2:5 5:10 2:10 3:5 4:5 3:5 4:5 3:10 4:5
5:0 2:5 5:10 2:10 3:5 4:5 3:5 4:5 3:10 4:5 3:10
2:0 5:10 2:10 3:5 4:5 3:5 4:5 3:10 4:5 3:10 5:5
5:0 2:10 3:5 4:5 3:5 4:5 3:10 4:5 3:10 5:5 4:5
2:0 3:5 4:5 3:5 4:5 3:10 4:5 3:10 5:5 4:5 3:5
3:0 4:5 3:5 4:5 3:10 4:5 3:10 5:5 4:5 3:5 4:5
4:0 3:5 4:5 3:10 4:5 3:10 5:5 4:5 3:5 4:5 5:10
3:0 4:5 3:10 4:5 3:10 5:5 4:5 3:5 4:5 5:10 2:10
4:0 3:10 4:5 3:10 5:5 4:5 3:5 4:5 5:10 2:10 5:5
3:0 4:5 3:10 5:5 4:5 3:5 4:5 5:10 2:10 5:5 4:10
4:0 3:10 5:5 4:5 3:5 4:5 5:10 2:10 5:5 4:10 5:10
3:0 5:5 4:5 3:5 4:5 5:10 2:10 5:5 4:10 5:10 3:5
5:0 4:5 3:5 4:5 5:10 2:10 5:5 4:10 5:10 3:5 6:5
4:0 3:5 4:5 5:10 2:10 5:5 4:10 5:10 3:5 6:5 4:5
3:0 4:5 5:10 2:10 5:5 4:10 5:10 3:5 6:5 4:5 3:5
4:0 5:10 2:10 5:5 4:10 5:10 3:5 6:5 4:5 3:5 5:5
5:0 2:10 5:5 4:10 5:10 3:5 6:5 4:5 3:5 5:5 4:10
2:0 5:5 4:10 5:10 3:5 6:5 4:5 3:5 5:5 4:10 2:5
5:0 4:10 5:10 3:5 6:5 4:5 3:5 5:5 4:10 2:5 3:5
4:0 5:10 3:5 6:5 4:5 3:5 5:5 4:10 2:5 3:5 5:5
5:0 3:5 6:5 4:5 3:5 5:5 4:10 2:5 3:5 5:5 3:10
3:0 6:5 4:5 3:5 5:5 4:10 2:5 3:5 5:5 3:10 2:5
6:0 4:5 3:5 5:5 4:10 2:5 3:5 5:5 3:10 2:5 5:5
4:0 3:5 5:5 4:10 2:5 3:5 5:5 3:10 2:5 5:5 4:5
3:0 5:5 4:10 2:5 3:5 5:5 3:10 2:5 5:5 4:5 3:10
5:0 4:10 2:5 3:5 5:5 3:10 2:5 5:5 4:5 3:10 4:5
4:0 2:5 3:5 5:5 3:10 2:5 5:5 4:5 3:10 4:5 6:10
2:0 3:5 5:5 3:10 2:5 5:5 4:5 3:10 4:5 6:10 5:5
3:0 5:5 3:10 2:5 5:5 4:5 3:10 4:5 6:10 5:5 3:5
5:0 3:10 2:5 5:5 4:5 3:10 4:5 6:10 5:5 3:5 2:5
3:0 2:5 5:5 4:5 3:10 4:5 6:10 5:5 3:5 2:5 5:5
2:0 5:5 4:5 3:10 4:5 6:10 5:5 3:5 2:5 5:5 4:5
5:0 4:5 3:10 4:5 6:10 5:5 3:5 2:5 5:5 4:5 3:5
4:0 3:10 4:5 6:10 5:5 3:5 2:5 5:5 4:5 3:5 4:10
3:0 4:5 6:10 5:5 3:5 2:5 5:5 4:5 3:5 4:10 6:5
4:0 6:10 5:5 3:5 2:5 5:5 4:5 3:5 4:10 6:5 2:5
6:0 5:5 3:5 2:5 5:5 4:5 3:5 4:10 6:5 2:5 6:5
5:0 3:5 2:5 5:5 4:5 3:5 4:10 6:5 2:5 6:5 3:5
3:0 2:5 5:5 4:5 3:5 4:10 6:5 2:5 6:5 3:5 4:5
2:0 5:5 4:5 3:5 4:10 6:5 2:5 6:5 3:5 4:5 5:15
5:0 4:5 3:5 4:10 6:5 2:5 6:5 3:5 4:5 5:15 4:5
4:0 3:5 4:10 6:5 2:5 6:5 3:5 4:5 5:15 4:5 3:5
3:0 4:10 6:5 2:5 6:5 3:5 4:5 5:15 4:5 3:5 4:5
4:0 6:5 2:5 6:5 3:5 4:5 5:15 4:5 3:5 4:5 3:5
6:0 2:5 6:5 3:5 4:5 5:15 4:5 3:5 4:5 3:5 6:5
2:0 6:5 3:5 4:5 5:15 4:5 3:5 4:5 3:5 6:5 3:5
6:0 3:5 4:5 5:15 4:5 3:5 4:5 3:5 6:5 3:5 5:5
3:0 4:5 5:15 4:5 3:5 4:5 3:5 6:5 3:5 5:5 4:15
4:0 5:15 4:5 3:5 4:5 3:5 6:5 3:5 5:5 4:15 3:5
5:0 4:5 3:5 4:5 3:5 6:5 3:5 5:5 4:15 3:5 5:5
4:0 3:5 4:5 3:5 6:5 3:5 5:5 4:15 3:5 5:5 3:5
3:0 4:5 3:5 6:5 3:5 5:5 4:15 3:5 5:5 3:5 4:5
4:0 3:5 6:5 3:5 5:5 4:15 3:5 5:5 3:5 4:5 5:10
3:0 6:5 3:5 5:5 4:15 3:5 5:5 3:5 4:5 5:10 3:5
6:0 3:5 5:5 4:15 3:5 5:5 3:5 4:5 5:10 3:5 5:5
3:0 5:5 4:15 3:5 5:5 3:5 4:5 5:10 3:5 5:5 4:5
5:0 4:15 3:5 5:5 3:5 4:5 5:10 3:5 5:5 4:5 3:5
4:0 3:5 5:5 3:5 4:5 5:10 3:5 5:5 4:5 3:5 4:5
3:0 5:5 3:5 4:5 5:10 3:5 5:5 4:5 3:5 4:5 5:5
5:0 3:5 4:5 5:10 3:5 5:5 4:5 3:5 4:5 5:5 4:5
3:0 4:5 5:10 3:5 5:5 4:5 3:5 4:5 5:5 4:5 3:10
4:0 5:10 3:5 5:5 4:5 3:5 4:5 5:5 4:5 3:10 4:5
5:0 3:5 5:5 4:5 3:5 4:5 5:5 4:5 3:10 4:5 3:5
3:0 5:5 4:5 3:5 4:5 5:5 4:5 3:10 4:5 3:5 5:5
5:0 4:5 3:5 4:5 5:5 4:5 3:10 4:5 3:5 5:5 4:5
4:0 3:5 4:5 5:5 4:5 3:10 4:5 3:5 5:5 4:5 3:5
3:0 4:5 5:5 4:5 3:10 4:5 3:5 5:5 4:5 3:5 5:5
4:0 5:5 4:5 3:10 4:5 3:5 5:5 4:5 3:5 5:5 3:5
5:0 4:5 3:10 4:5 3:5 5:5 4:5 3:5 5:5 3:5 4:5
4:0 3:10 4:5 3:5 5:5 4:5 3:5 5:5 3:5 4:5 3:5
3:0 4:5 3:5 5:5 4:5 3:5 5:5 3:5 4:5 3:5 4:5
4:0 3:5 5:5 4:5 3:5 5:5 3:5 4:5 3:5 4:5 3:5
3:0 5:5 4:5 3:5 5:5 3:5 4:5 3:5 4:5 3:5 4:5
5:0 4:5 3:5 5:5 3:5 4:5 3:5 4:5 3:5 4:5 6:5
4:0 3:5 5:5 3:5 4:5 3:5 4:5 3:5 4:5 6:5 2:5
3:0 5:5 3:5 4:5 3:5 4:5 3:5 4:5 6:5 2:5 4:5
5:0 3:5 4:5 3:5 4:5 3:5 4:5 6:5 2:5 4:5 5:10
3:0 4:5 3:5 4:5 3:5 4:5 6:5 2:5 4:5 5:10 2:10
4:0 3:5 4:5 3:5 4:5 6:5 2:5 4:5 5:10 2:10 4:5
3:0 4:5 3:5 4:5 6:5 2:5 4:5 5:10 2:10 4:5 6:5
4:0 3:5 4:5 6:5 2:5 4:5 5:10 2:10 4:5 6:5 2:5
3:0 4:5 6:5 2:5 4:5 5:10 2:10 4:5 6:5 2:5 5:5
4:0 6:5 2:5 4:5 5:10 2:10 4:5 6:5 2:5 5:5 4:5
6:0 2:5 4:5 5:10 2:10 4:5 6:5 2:5 5:5 4:5 2:15
2:0 4:5 5:10 2:10 4:5 6:5 2:5 5:5 4:5 2:15 5:5
4:0 5:10 2:10 4:5 6:5 2:5 5:5 4:5 2:15 5:5 4:5
5:0 2:10 4:5 6:5 2:5 5:5 4:5 2:15 5:5 4:5 3:5
2:0 4:5 6:5 2:5 5:5 4:5 2:15 5:5 4:5 3:5 4:5
4:0 6:5 2:5 5:5 4:5 2:15 5:5 4:5 3:5 4:5 5:5
6:0 2:5 5:5 4:5 2:15 5:5 4:5 3:5 4:5 5:5 4:5
2:0 5:5 4:5 2:15 5:5 4:5 3:5 4:5 5:5 4:5 2:5
5:0 4:5 2:15 5:5 4:5 3:5 4:5 5:5 4:5 2:5 5:5
4:0 2:15 5:5 4:5 3:5 4:5 5:5 4:5 2:5 5:5 4:15
2:0 5:5 4:5 3:5 4:5 5:5 4:5 2:5 5:5 4:15 2:5
5:0 4:5 3:5 4:5 5:5 4:5 2:5 5:5 4:15 2:5 5:5
4:0 3:5 4:5 5:5 4:5 2:5 5:5 4:15 2:5 5:5 2:5
3:0 4:5 5:5 4:5 2:5 5:5 4:15 2:5 5:5 2:5 6:5
4:0 5:5 4:5 2:5 5:5 4:15 2:5 5:5 2:5 6:5 2:5
5:0 4:5 2:5 5:5 4:15 2:5 5:5 2:5 6:5 2:5 5:5
4:0 2:5 5:5 4:15 2:5 5:5 2:5 6:5 2:5 5:5 3:5
2:0 5:5 4:15 2:5 5:5 2:5 6:5 2:5 5:5 3:5 4:5
5:0 4:15 2:5 5:5 2:5 6:5 2:5 5:5 3:5 4:5 5:30
4:0 2:5 5:5 2:5 6:5 2:5 5:5 3:5 4:5 5:30 3:10
2:0 5:5 2:5 6:5 2:5 5:5 3:5 4:5 5:30 3:10 5:5
5:0 2:5 6:5 2:5 5:5 3:5 4:5 5:30 3:10 5:5 2:10
2:0 6:5 2:5 5:5 3:5 4:5 5:30 3:10 5:5 2:10 3:5
6:0 2:5 5:5 3:5 4:5 5:30 3:10 5:5 2:10 3:5 5:5
2:0 5:5 3:5 4:5 5:30 3:10 5:5 2:10 3:5 5:5 3:5
5:0 3:5 4:5 5:30 3:10 5:5 2:10 3:5 5:5 3:5 5:5
3:0 4:5 5:30 3:10 5:5 2:10 3:5 5:5 3:5 5:5 4:5
4:0 5:30 3:10 5:5 2:10 3:5 5:5 3:5 5:5 4:5 2:5
5:0 3:10 5:5 2:10 3:5 5:5 3:5 5:5 4:5 2:5 5:5
3:0 5:5 2:10 3:5 5:5 3:5 5:5 4:5 2:5 5:5 4:5
5:0 2:10 3:5 5:5 3:5 5:5 4:5 2:5 5:5 4:5 5:5
2:0 3:5 5:5 3:5 5:5 4:5 2:5 5:5 4:5 5:5 3:5
3:0 5:5 3:5 5:5 4:5 2:5 5:5 4:5 5:5 3:5 4:5
5:0 3:5 5:5 4:5 2:5 5:5 4:5 5:5 3:5 4:5 6:5
3:0 5:5 4:5 2:5 5:5 4:5 5:5 3:5 4:5 6:5 3:5
5:0 4:5 2:5 5:5 4:5 5:5 3:5 4:5 6:5 3:5 4:5
4:0 2:5 5:5 4:5 5:5 3:5 4:5 6:5 3:5 4:5 5:5
2:0 5:5 4:5 5:5 3:5 4:5 6:5 3:5 4:5 5:5 4:10
5:0 4:5 5:5 3:5 4:5 6:5 3:5 4:5 5:5 4:10 5:15
4:0 5:5 3:5 4:5 6:5 3:5 4:5 5:5 4:10 5:15 4:5
5:0 3:5 4:5 6:5 3:5 4:5 5:5 4:10 5:15 4:5 5:5
3:0 4:5 6:5 3:5 4:5 5:5 4:10 5:15 4:5 5:5 3:15
4:0 6:5 3:5 4:5 5:5 4:10 5:15 4:5 5:5 3:15 5:5
6:0 3:5 4:5 5:5 4:10 5:15 4:5 5:5 3:15 5:5 4:5
3:0 4:5 5:5 4:10 5:15 4:5 5:5 3:15 5:5 4:5 5:5
4:0 5:5 4:10 5:15 4:5 5:5 3:15 5:5 4:5 5:5 4:5
5:0 4:10 5:15 4:5 5:5 3:15 5:5 4:5 5:5 4:5 3:5
4:0 5:15 4:5 5:5 3:15 5:5 4:5 5:5 4:5 3:5 5:5
5:0 4:5 5:5 3:15 5:5 4:5 5:5 4:5 3:5 5:5 4:5
4:0 5:5 3:15 5:5 4:5 5:5 4:5 3:5 5:5 4:5 6:5
5:0 3:15 5:5 4:5 5:5 4:5 3:5 5:5 4:5 6:5 3:5
3:0 5:5 4:5 5:5 4:5 3:5 5:5 4:5 6:5 3:5 2:5
5:0 4:5 5:5 4:5 3:5 5:5 4:5 6:5 3:5 2:5 5:5
4:0 5:5 4:5 3:5 5:5 4:5 6:5 3:5 2:5 5:5 4:10
5:0 4:5 3:5 5:5 4:5 6:5 3:5 2:5 5:5 4:10 2:5
4:0 3:5 5:5 4:5 6:5 3:5 2:5 5:5 4:10 2:5 4:5
3:0 5:5 4:5 6:5 3:5 2:5 5:5 4:10 2:5 4:5 5:10
5:0 4:5 6:5 3:5 2:5 5:5 4:10 2:5 4:5 5:10 4:5
4:0 6:5 3:5 2:5 5:5 4:10 2:5 4:5 5:10 4:5 5:5
6:0 3:5 2:5 5:5 4:10 2:5 4:5 5:10 4:5 5:5 4:5
3:0 2:5 5:5 4:10 2:5 4:5 5:10 4:5 5:5 4:5 6:5
2:0 5:5 4:10 2:5 4:5 5:10 4:5 5:5 4:5 6:5 3:5
5:0 4:10 2:5 4:5 5:10 4:5 5:5 4:5 6:5 3:5
4:0 2:5 4:5 5:10 4:5 5:5 4:5 6:5 3:5
2:0 4:5 5:10 4:5 5:5 4:5 6:5 3:5
4:0 5:10 4:5 5:5 4:5 6:5 3:5
5:0 4:5 5:5 4:5 6:5 3:5
4:0 5:5 4:5 6:5 3:5
5:0 4:5 6:5 3:5
4:0 6:5 3:5
6:0 3:5
3:0