1:0 2:5 3:15 2:5 3:15 1:10 2:15 1:5 3:5 1:10 2:15
2:0 3:15 2:5 3:15 1:10 2:15 1:5 3:5 1:10 2:15 3:15
3:0 2:5 3:15 1:10 2:15 1:5 3:5 1:10 2:15 3:15 2:5
2:0 3:15 1:10 2:15 1:5 3:5 1:10 2:15 3:15 2:5 3:15
3:0 1:10 2:15 1:5 3:5 1:10 2:15 3:15 2:5 3:15 1:10
1:0 2:15 1:5 3:5 1:10 2:15 3:15 2:5 3:15 1:10 2:25
2:0 1:5 3:5 1:10 2:15 3:15 2:5 3:15 1:10 2:25 3:5
1:0 3:5 1:10 2:15 3:15 2:5 3:15 1:10 2:25 3:5 1:10
3:0 1:10 2:15 3:15 2:5 3:15 1:10 2:25 3:5 1:10 2:10
1:0 2:15 3:15 2:5 3:15 1:10 2:25 3:5 1:10 2:10 3:5
2:0 3:15 2:5 3:15 1:10 2:25 3:5 1:10 2:10 3:5 2:5
3:0 2:5 3:15 1:10 2:25 3:5 1:10 2:10 3:5 2:5 1:5
2:0 3:15 1:10 2:25 3:5 1:10 2:10 3:5 2:5 1:5 2:10
3:0 1:10 2:25 3:5 1:10 2:10 3:5 2:5 1:5 2:10 3:10
1:0 2:25 3:5 1:10 2:10 3:5 2:5 1:5 2:10 3:10 2:5
2:0 3:5 1:10 2:10 3:5 2:5 1:5 2:10 3:10 2:5 1:5
3:0 1:10 2:10 3:5 2:5 1:5 2:10 3:10 2:5 1:5 2:15
1:0 2:10 3:5 2:5 1:5 2:10 3:10 2:5 1:5 2:15 1:5
2:0 3:5 2:5 1:5 2:10 3:10 2:5 1:5 2:15 1:5 2:5
3:0 2:5 1:5 2:10 3:10 2:5 1:5 2:15 1:5 2:5 3:5
2:0 1:5 2:10 3:10 2:5 1:5 2:15 1:5 2:5 3:5 1:10
1:0 2:10 3:10 2:5 1:5 2:15 1:5 2:5 3:5 1:10 2:10
2:0 3:10 2:5 1:5 2:15 1:5 2:5 3:5 1:10 2:10 3:15
3:0 2:5 1:5 2:15 1:5 2:5 3:5 1:10 2:10 3:15 2:5
2:0 1:5 2:15 1:5 2:5 3:5 1:10 2:10 3:15 2:5 1:20
1:0 2:15 1:5 2:5 3:5 1:10 2:10 3:15 2:5 1:20 2:10
2:0 1:5 2:5 3:5 1:10 2:10 3:15 2:5 1:20 2:10 3:15
1:0 2:5 3:5 1:10 2:10 3:15 2:5 1:20 2:10 3:15 2:5
2:0 3:5 1:10 2:10 3:15 2:5 1:20 2:10 3:15 2:5 3:15
3:0 1:10 2:10 3:15 2:5 1:20 2:10 3:15 2:5 3:15 1:10
1:0 2:10 3:15 2:5 1:20 2:10 3:15 2:5 3:15 1:10 2:25
2:0 3:15 2:5 1:20 2:10 3:15 2:5 3:15 1:10 2:25 3:5
3:0 2:5 1:20 2:10 3:15 2:5 3:15 1:10 2:25 3:5 2:5
2:0 1:20 2:10 3:15 2:5 3:15 1:10 2:25 3:5 2:5 1:10
1:0 2:10 3:15 2:5 3:15 1:10 2:25 3:5 2:5 1:10 3:5
2:0 3:15 2:5 3:15 1:10 2:25 3:5 2:5 1:10 3:5 1:10
3:0 2:5 3:15 1:10 2:25 3:5 2:5 1:10 3:5 1:10 2:15
2:0 3:15 1:10 2:25 3:5 2:5 1:10 3:5 1:10 2:15 3:10
3:0 1:10 2:25 3:5 2:5 1:10 3:5 1:10 2:15 3:10 1:10
1:0 2:25 3:5 2:5 1:10 3:5 1:10 2:15 3:10 1:10 2:5
2:0 3:5 2:5 1:10 3:5 1:10 2:15 3:10 1:10 2:5 1:10
3:0 2:5 1:10 3:5 1:10 2:15 3:10 1:10 2:5 1:10 2:10
2:0 1:10 3:5 1:10 2:15 3:10 1:10 2:5 1:10 2:10 3:5
1:0 3:5 1:10 2:15 3:10 1:10 2:5 1:10 2:10 3:5 1:10
3:0 1:10 2:15 3:10 1:10 2:5 1:10 2:10 3:5 1:10 2:15
1:0 2:15 3:10 1:10 2:5 1:10 2:10 3:5 1:10 2:15 3:10
2:0 3:10 1:10 2:5 1:10 2:10 3:5 1:10 2:15 3:10 2:10
3:0 1:10 2:5 1:10 2:10 3:5 1:10 2:15 3:10 2:10 3:15
1:0 2:5 1:10 2:10 3:5 1:10 2:15 3:10 2:10 3:15 2:5
2:0 1:10 2:10 3:5 1:10 2:15 3:10 2:10 3:15 2:5 1:5
1:0 2:10 3:5 1:10 2:15 3:10 2:10 3:15 2:5 1:5 2:15
2:0 3:5 1:10 2:15 3:10 2:10 3:15 2:5 1:5 2:15 3:10
3:0 1:10 2:15 3:10 2:10 3:15 2:5 1:5 2:15 3:10 1:10
1:0 2:15 3:10 2:10 3:15 2:5 1:5 2:15 3:10 1:10 2:5
2:0 3:10 2:10 3:15 2:5 1:5 2:15 3:10 1:10 2:5 3:10
3:0 2:10 3:15 2:5 1:5 2:15 3:10 1:10 2:5 3:10 2:5
2:0 3:15 2:5 1:5 2:15 3:10 1:10 2:5 3:10 2:5 1:5
3:0 2:5 1:5 2:15 3:10 1:10 2:5 3:10 2:5 1:5 2:10
2:0 1:5 2:15 3:10 1:10 2:5 3:10 2:5 1:5 2:10 3:5
1:0 2:15 3:10 1:10 2:5 3:10 2:5 1:5 2:10 3:5 1:10
2:0 3:10 1:10 2:5 3:10 2:5 1:5 2:10 3:5 1:10 2:10
3:0 1:10 2:5 3:10 2:5 1:5 2:10 3:5 1:10 2:10 3:5
1:0 2:5 3:10 2:5 1:5 2:10 3:5 1:10 2:10 3:5 2:5
2:0 3:10 2:5 1:5 2:10 3:5 1:10 2:10 3:5 2:5 1:5
3:0 2:5 1:5 2:10 3:5 1:10 2:10 3:5 2:5 1:5 2:10
2:0 1:5 2:10 3:5 1:10 2:10 3:5 2:5 1:5 2:10 3:10
1:0 2:10 3:5 1:10 2:10 3:5 2:5 1:5 2:10 3:10 2:5
2:0 3:5 1:10 2:10 3:5 2:5 1:5 2:10 3:10 2:5 1:5
3:0 1:10 2:10 3:5 2:5 1:5 2:10 3:10 2:5 1:5 2:5
1:0 2:10 3:5 2:5 1:5 2:10 3:10 2:5 1:5 2:5 3:5
2:0 3:5 2:5 1:5 2:10 3:10 2:5 1:5 2:5 3:5 2:5
3:0 2:5 1:5 2:10 3:10 2:5 1:5 2:5 3:5 2:5 1:5
2:0 1:5 2:10 3:10 2:5 1:5 2:5 3:5 2:5 1:5 2:10
1:0 2:10 3:10 2:5 1:5 2:5 3:5 2:5 1:5 2:10 3:15
2:0 3:10 2:5 1:5 2:5 3:5 2:5 1:5 2:10 3:15 2:5
3:0 2:5 1:5 2:5 3:5 2:5 1:5 2:10 3:15 2:5 3:15
2:0 1:5 2:5 3:5 2:5 1:5 2:10 3:15 2:5 3:15 2:5
1:0 2:5 3:5 2:5 1:5 2:10 3:15 2:5 3:15 2:5 1:5
2:0 3:5 2:5 1:5 2:10 3:15 2:5 3:15 2:5 1:5 2:15
3:0 2:5 1:5 2:10 3:15 2:5 3:15 2:5 1:5 2:15 3:10
2:0 1:5 2:10 3:15 2:5 3:15 2:5 1:5 2:15 3:10 1:10
1:0 2:10 3:15 2:5 3:15 2:5 1:5 2:15 3:10 1:10 2:15
2:0 3:15 2:5 3:15 2:5 1:5 2:15 3:10 1:10 2:15 3:15
3:0 2:5 3:15 2:5 1:5 2:15 3:10 1:10 2:15 3:15 2:10
2:0 3:15 2:5 1:5 2:15 3:10 1:10 2:15 3:15 2:10 3:10
3:0 2:5 1:5 2:15 3:10 1:10 2:15 3:15 2:10 3:10 1:10
2:0 1:5 2:15 3:10 1:10 2:15 3:15 2:10 3:10 1:10 2:15
1:0 2:15 3:10 1:10 2:15 3:15 2:10 3:10 1:10 2:15 1:5
2:0 3:10 1:10 2:15 3:15 2:10 3:10 1:10 2:15 1:5 3:5
3:0 1:10 2:15 3:15 2:10 3:10 1:10 2:15 1:5 3:5 1:10
1:0 2:15 3:15 2:10 3:10 1:10 2:15 1:5 3:5 1:10 2:15
2:0 3:15 2:10 3:10 1:10 2:15 1:5 3:5 1:10 2:15 3:10
3:0 2:10 3:10 1:10 2:15 1:5 3:5 1:10 2:15 3:10 1:5
2:0 3:10 1:10 2:15 1:5 3:5 1:10 2:15 3:10 1:5 2:10
3:0 1:10 2:15 1:5 3:5 1:10 2:15 3:10 1:5 2:10 3:5
1:0 2:15 1:5 3:5 1:10 2:15 3:10 1:5 2:10 3:5 1:10
2:0 1:5 3:5 1:10 2:15 3:10 1:5 2:10 3:5 1:10 2:10
1:0 3:5 1:10 2:15 3:10 1:5 2:10 3:5 1:10 2:10 3:5
3:0 1:10 2:15 3:10 1:5 2:10 3:5 1:10 2:10 3:5 2:5
1:0 2:15 3:10 1:5 2:10 3:5 1:10 2:10 3:5 2:5 1:5
2:0 3:10 1:5 2:10 3:5 1:10 2:10 3:5 2:5 1:5 2:5
3:0 1:5 2:10 3:5 1:10 2:10 3:5 2:5 1:5 2:5 3:5
1:0 2:10 3:5 1:10 2:10 3:5 2:5 1:5 2:5 3:5 1:10
2:0 3:5 1:10 2:10 3:5 2:5 1:5 2:5 3:5 1:10 2:10
3:0 1:10 2:10 3:5 2:5 1:5 2:5 3:5 1:10 2:10 3:15
1:0 2:10 3:5 2:5 1:5 2:5 3:5 1:10 2:10 3:15 2:10
2:0 3:5 2:5 1:5 2:5 3:5 1:10 2:10 3:15 2:10 3:10
3:0 2:5 1:5 2:5 3:5 1:10 2:10 3:15 2:10 3:10 1:10
2:0 1:5 2:5 3:5 1:10 2:10 3:15 2:10 3:10 1:10 2:25
1:0 2:5 3:5 1:10 2:10 3:15 2:10 3:10 1:10 2:25 3:5
2:0 3:5 1:10 2:10 3:15 2:10 3:10 1:10 2:25 3:5 2:5
3:0 1:10 2:10 3:15 2:10 3:10 1:10 2:25 3:5 2:5 1:5
1:0 2:10 3:15 2:10 3:10 1:10 2:25 3:5 2:5 1:5 2:10
2:0 3:15 2:10 3:10 1:10 2:25 3:5 2:5 1:5 2:10 3:10
3:0 2:10 3:10 1:10 2:25 3:5 2:5 1:5 2:10 3:10 1:5
2:0 3:10 1:10 2:25 3:5 2:5 1:5 2:10 3:10 1:5 3:10
3:0 1:10 2:25 3:5 2:5 1:5 2:10 3:10 1:5 3:10 2:10
1:0 2:25 3:5 2:5 1:5 2:10 3:10 1:5 3:10 2:10 1:5
2:0 3:5 2:5 1:5 2:10 3:10 1:5 3:10 2:10 1:5 2:10
3:0 2:5 1:5 2:10 3:10 1:5 3:10 2:10 1:5 2:10 3:15
2:0 1:5 2:10 3:10 1:5 3:10 2:10 1:5 2:10 3:15 2:5
1:0 2:10 3:10 1:5 3:10 2:10 1:5 2:10 3:15 2:5 3:15
2:0 3:10 1:5 3:10 2:10 1:5 2:10 3:15 2:5 3:15 1:10
3:0 1:5 3:10 2:10 1:5 2:10 3:15 2:5 3:15 1:10 2:25
1:0 3:10 2:10 1:5 2:10 3:15 2:5 3:15 1:10 2:25 3:5
3:0 2:10 1:5 2:10 3:15 2:5 3:15 1:10 2:25 3:5 1:10
2:0 1:5 2:10 3:15 2:5 3:15 1:10 2:25 3:5 1:10 2:10
1:0 2:10 3:15 2:5 3:15 1:10 2:25 3:5 1:10 2:10 3:10
2:0 3:15 2:5 3:15 1:10 2:25 3:5 1:10 2:10 3:10 2:5
3:0 2:5 3:15 1:10 2:25 3:5 1:10 2:10 3:10 2:5 1:5
2:0 3:15 1:10 2:25 3:5 1:10 2:10 3:10 2:5 1:5 2:10
3:0 1:10 2:25 3:5 1:10 2:10 3:10 2:5 1:5 2:10 3:20
1:0 2:25 3:5 1:10 2:10 3:10 2:5 1:5 2:10 3:20 1:10
2:0 3:5 1:10 2:10 3:10 2:5 1:5 2:10 3:20 1:10 2:15
3:0 1:10 2:10 3:10 2:5 1:5 2:10 3:20 1:10 2:15 1:5
1:0 2:10 3:10 2:5 1:5 2:10 3:20 1:10 2:15 1:5 2:5
2:0 3:10 2:5 1:5 2:10 3:20 1:10 2:15 1:5 2:5 3:5
3:0 2:5 1:5 2:10 3:20 1:10 2:15 1:5 2:5 3:5 1:5
2:0 1:5 2:10 3:20 1:10 2:15 1:5 2:5 3:5 1:5 2:5
1:0 2:10 3:20 1:10 2:15 1:5 2:5 3:5 1:5 2:5 3:10
2:0 3:20 1:10 2:15 1:5 2:5 3:5 1:5 2:5 3:10 2:5
3:0 1:10 2:15 1:5 2:5 3:5 1:5 2:5 3:10 2:5 1:5
1:0 2:15 1:5 2:5 3:5 1:5 2:5 3:10 2:5 1:5 2:15
2:0 1:5 2:5 3:5 1:5 2:5 3:10 2:5 1:5 2:15 1:5
1:0 2:5 3:5 1:5 2:5 3:10 2:5 1:5 2:15 1:5 3:5
2:0 3:5 1:5 2:5 3:10 2:5 1:5 2:15 1:5 3:5 1:10
3:0 1:5 2:5 3:10 2:5 1:5 2:15 1:5 3:5 1:10 2:10
1:0 2:5 3:10 2:5 1:5 2:15 1:5 3:5 1:10 2:10 3:5
2:0 3:10 2:5 1:5 2:15 1:5 3:5 1:10 2:10 3:5 1:10
3:0 2:5 1:5 2:15 1:5 3:5 1:10 2:10 3:5 1:10 2:15
2:0 1:5 2:15 1:5 3:5 1:10 2:10 3:5 1:10 2:15 3:5
1:0 2:15 1:5 3:5 1:10 2:10 3:5 1:10 2:15 3:5 1:5
2:0 1:5 3:5 1:10 2:10 3:5 1:10 2:15 3:5 1:5 3:10
1:0 3:5 1:10 2:10 3:5 1:10 2:15 3:5 1:5 3:10 2:10
3:0 1:10 2:10 3:5 1:10 2:15 3:5 1:5 3:10 2:10 1:5
1:0 2:10 3:5 1:10 2:15 3:5 1:5 3:10 2:10 1:5 2:10
2:0 3:5 1:10 2:15 3:5 1:5 3:10 2:10 1:5 2:10 3:15
3:0 1:10 2:15 3:5 1:5 3:10 2:10 1:5 2:10 3:15 2:5
1:0 2:15 3:5 1:5 3:10 2:10 1:5 2:10 3:15 2:5 3:15
2:0 3:5 1:5 3:10 2:10 1:5 2:10 3:15 2:5 3:15 1:10
3:0 1:5 3:10 2:10 1:5 2:10 3:15 2:5 3:15 1:10 2:25
1:0 3:10 2:10 1:5 2:10 3:15 2:5 3:15 1:10 2:25 3:5
3:0 2:10 1:5 2:10 3:15 2:5 3:15 1:10 2:25 3:5 1:10
2:0 1:5 2:10 3:15 2:5 3:15 1:10 2:25 3:5 1:10 2:10
1:0 2:10 3:15 2:5 3:15 1:10 2:25 3:5 1:10 2:10 3:5
2:0 3:15 2:5 3:15 1:10 2:25 3:5 1:10 2:10 3:5 2:5
3:0 2:5 3:15 1:10 2:25 3:5 1:10 2:10 3:5 2:5 1:5
2:0 3:15 1:10 2:25 3:5 1:10 2:10 3:5 2:5 1:5 2:10
3:0 1:10 2:25 3:5 1:10 2:10 3:5 2:5 1:5 2:10 3:15
1:0 2:25 3:5 1:10 2:10 3:5 2:5 1:5 2:10 3:15 2:10
2:0 3:5 1:10 2:10 3:5 2:5 1:5 2:10 3:15 2:10 1:10
3:0 1:10 2:10 3:5 2:5 1:5 2:10 3:15 2:10 1:10 3:15
1:0 2:10 3:5 2:5 1:5 2:10 3:15 2:10 1:10 3:15 2:10
2:0 3:5 2:5 1:5 2:10 3:15 2:10 1:10 3:15 2:10 1:5
3:0 2:5 1:5 2:10 3:15 2:10 1:10 3:15 2:10 1:5 2:5
2:0 1:5 2:10 3:15 2:10 1:10 3:15 2:10 1:5 2:5 3:5
1:0 2:10 3:15 2:10 1:10 3:15 2:10 1:5 2:5 3:5 1:10
2:0 3:15 2:10 1:10 3:15 2:10 1:5 2:5 3:5 1:10 2:15
3:0 2:10 1:10 3:15 2:10 1:5 2:5 3:5 1:10 2:15 3:10
2:0 1:10 3:15 2:10 1:5 2:5 3:5 1:10 2:15 3:10 2:10
1:0 3:15 2:10 1:5 2:5 3:5 1:10 2:15 3:10 2:10 3:15
3:0 2:10 1:5 2:5 3:5 1:10 2:15 3:10 2:10 3:15 2:5
2:0 1:5 2:5 3:5 1:10 2:15 3:10 2:10 3:15 2:5 1:5
1:0 2:5 3:5 1:10 2:15 3:10 2:10 3:15 2:5 1:5 2:20
2:0 3:5 1:10 2:15 3:10 2:10 3:15 2:5 1:5 2:20 3:5
3:0 1:10 2:15 3:10 2:10 3:15 2:5 1:5 2:20 3:5 1:10
1:0 2:15 3:10 2:10 3:15 2:5 1:5 2:20 3:5 1:10 3:15
2:0 3:10 2:10 3:15 2:5 1:5 2:20 3:5 1:10 3:15 1:10
3:0 2:10 3:15 2:5 1:5 2:20 3:5 1:10 3:15 1:10 2:10
2:0 3:15 2:5 1:5 2:20 3:5 1:10 3:15 1:10 2:10 3:5
3:0 2:5 1:5 2:20 3:5 1:10 3:15 1:10 2:10 3:5 2:5
2:0 1:5 2:20 3:5 1:10 3:15 1:10 2:10 3:5 2:5 1:5
1:0 2:20 3:5 1:10 3:15 1:10 2:10 3:5 2:5 1:5 2:10
2:0 3:5 1:10 3:15 1:10 2:10 3:5 2:5 1:5 2:10 3:15
3:0 1:10 3:15 1:10 2:10 3:5 2:5 1:5 2:10 3:15 2:10
1:0 3:15 1:10 2:10 3:5 2:5 1:5 2:10 3:15 2:10 3:10
3:0 1:10 2:10 3:5 2:5 1:5 2:10 3:15 2:10 3:10 1:10
1:0 2:10 3:5 2:5 1:5 2:10 3:15 2:10 3:10 1:10 2:25
2:0 3:5 2:5 1:5 2:10 3:15 2:10 3:10 1:10 2:25 3:5
3:0 2:5 1:5 2:10 3:15 2:10 3:10 1:10 2:25 3:5 1:10
2:0 1:5 2:10 3:15 2:10 3:10 1:10 2:25 3:5 1:10 2:10
1:0 2:10 3:15 2:10 3:10 1:10 2:25 3:5 1:10 2:10 3:5
2:0 3:15 2:10 3:10 1:10 2:25 3:5 1:10 2:10 3:5 2:5
3:0 2:10 3:10 1:10 2:25 3:5 1:10 2:10 3:5 2:5 1:5
2:0 3:10 1:10 2:25 3:5 1:10 2:10 3:5 2:5 1:5 2:10
3:0 1:10 2:25 3:5 1:10 2:10 3:5 2:5 1:5 2:10 3:5
1:0 2:25 3:5 1:10 2:10 3:5 2:5 1:5 2:10 3:5 1:10
2:0 3:5 1:10 2:10 3:5 2:5 1:5 2:10 3:5 1:10 2:10
3:0 1:10 2:10 3:5 2:5 1:5 2:10 3:5 1:10 2:10 3:5
1:0 2:10 3:5 2:5 1:5 2:10 3:5 1:10 2:10 3:5 2:5
2:0 3:5 2:5 1:5 2:10 3:5 1:10 2:10 3:5 2:5 1:5
3:0 2:5 1:5 2:10 3:5 1:10 2:10 3:5 2:5 1:5 2:10
2:0 1:5 2:10 3:5 1:10 2:10 3:5 2:5 1:5 2:10 3:15
1:0 2:10 3:5 1:10 2:10 3:5 2:5 1:5 2:10 3:15 2:5
2:0 3:5 1:10 2:10 3:5 2:5 1:5 2:10 3:15 2:5 3:15
3:0 1:10 2:10 3:5 2:5 1:5 2:10 3:15 2:5 3:15 1:10
1:0 2:10 3:5 2:5 1:5 2:10 3:15 2:5 3:15 1:10 2:15
2:0 3:5 2:5 1:5 2:10 3:15 2:5 3:15 1:10 2:15 1:5
3:0 2:5 1:5 2:10 3:15 2:5 3:15 1:10 2:15 1:5 3:5
2:0 1:5 2:10 3:15 2:5 3:15 1:10 2:15 1:5 3:5 1:10
1:0 2:10 3:15 2:5 3:15 1:10 2:15 1:5 3:5 1:10 2:15
2:0 3:15 2:5 3:15 1:10 2:15 1:5 3:5 1:10 2:15 3:15
3:0 2:5 3:15 1:10 2:15 1:5 3:5 1:10 2:15 3:15 2:5
2:0 3:15 1:10 2:15 1:5 3:5 1:10 2:15 3:15 2:5 1:10
3:0 1:10 2:15 1:5 3:5 1:10 2:15 3:15 2:5 1:10 2:15
1:0 2:15 1:5 3:5 1:10 2:15 3:15 2:5 1:10 2:15 3:5
2:0 1:5 3:5 1:10 2:15 3:15 2:5 1:10 2:15 3:5 1:10
1:0 3:5 1:10 2:15 3:15 2:5 1:10 2:15 3:5 1:10 2:10
3:0 1:10 2:15 3:15 2:5 1:10 2:15 3:5 1:10 2:10 3:5
1:0 2:15 3:15 2:5 1:10 2:15 3:5 1:10 2:10 3:5 1:10
2:0 3:15 2:5 1:10 2:15 3:5 1:10 2:10 3:5 1:10 3:15
3:0 2:5 1:10 2:15 3:5 1:10 2:10 3:5 1:10 3:15 1:10
2:0 1:10 2:15 3:5 1:10 2:10 3:5 1:10 3:15 1:10 3:10
1:0 2:15 3:5 1:10 2:10 3:5 1:10 3:15 1:10 3:10 1:10
2:0 3:5 1:10 2:10 3:5 1:10 3:15 1:10 3:10 1:10 2:15
3:0 1:10 2:10 3:5 1:10 3:15 1:10 3:10 1:10 2:15 3:5
1:0 2:10 3:5 1:10 3:15 1:10 3:10 1:10 2:15 3:5 2:5
2:0 3:5 1:10 3:15 1:10 3:10 1:10 2:15 3:5 2:5 1:5
3:0 1:10 3:15 1:10 3:10 1:10 2:15 3:5 2:5 1:5 2:5
1:0 3:15 1:10 3:10 1:10 2:15 3:5 2:5 1:5 2:5 3:5
3:0 1:10 3:10 1:10 2:15 3:5 2:5 1:5 2:5 3:5 1:10
1:0 3:10 1:10 2:15 3:5 2:5 1:5 2:5 3:5 1:10 2:15
3:0 1:10 2:15 3:5 2:5 1:5 2:5 3:5 1:10 2:15 3:5
1:0 2:15 3:5 2:5 1:5 2:5 3:5 1:10 2:15 3:5 1:5
2:0 3:5 2:5 1:5 2:5 3:5 1:10 2:15 3:5 1:5 2:10
3:0 2:5 1:5 2:5 3:5 1:10 2:15 3:5 1:5 2:10 3:5
2:0 1:5 2:5 3:5 1:10 2:15 3:5 1:5 2:10 3:5 2:5
1:0 2:5 3:5 1:10 2:15 3:5 1:5 2:10 3:5 2:5 1:5
2:0 3:5 1:10 2:15 3:5 1:5 2:10 3:5 2:5 1:5 2:10
3:0 1:10 2:15 3:5 1:5 2:10 3:5 2:5 1:5 2:10 3:15
1:0 2:15 3:5 1:5 2:10 3:5 2:5 1:5 2:10 3:15 2:5
2:0 3:5 1:5 2:10 3:5 2:5 1:5 2:10 3:15 2:5 3:15
3:0 1:5 2:10 3:5 2:5 1:5 2:10 3:15 2:5 3:15 1:10
1:0 2:10 3:5 2:5 1:5 2:10 3:15 2:5 3:15 1:10 2:20
2:0 3:5 2:5 1:5 2:10 3:15 2:5 3:15 1:10 2:20 3:10
3:0 2:5 1:5 2:10 3:15 2:5 3:15 1:10 2:20 3:10 1:10
2:0 1:5 2:10 3:15 2:5 3:15 1:10 2:20 3:10 1:10 2:10
1:0 2:10 3:15 2:5 3:15 1:10 2:20 3:10 1:10 2:10 3:10
2:0 3:15 2:5 3:15 1:10 2:20 3:10 1:10 2:10 3:10 1:5
3:0 2:5 3:15 1:10 2:20 3:10 1:10 2:10 3:10 1:5 3:10
2:0 3:15 1:10 2:20 3:10 1:10 2:10 3:10 1:5 3:10 2:10
3:0 1:10 2:20 3:10 1:10 2:10 3:10 1:5 3:10 2:10 1:5
1:0 2:20 3:10 1:10 2:10 3:10 1:5 3:10 2:10 1:5 2:10
2:0 3:10 1:10 2:10 3:10 1:5 3:10 2:10 1:5 2:10 3:15
3:0 1:10 2:10 3:10 1:5 3:10 2:10 1:5 2:10 3:15 2:5
1:0 2:10 3:10 1:5 3:10 2:10 1:5 2:10 3:15 2:5 3:15
2:0 3:10 1:5 3:10 2:10 1:5 2:10 3:15 2:5 3:15 1:10
3:0 1:5 3:10 2:10 1:5 2:10 3:15 2:5 3:15 1:10 2:25
1:0 3:10 2:10 1:5 2:10 3:15 2:5 3:15 1:10 2:25 3:5
3:0 2:10 1:5 2:10 3:15 2:5 3:15 1:10 2:25 3:5 1:10
2:0 1:5 2:10 3:15 2:5 3:15 1:10 2:25 3:5 1:10 3:10
1:0 2:10 3:15 2:5 3:15 1:10 2:25 3:5 1:10 3:10 2:10
2:0 3:15 2:5 3:15 1:10 2:25 3:5 1:10 3:10 2:10 1:5
3:0 2:5 3:15 1:10 2:25 3:5 1:10 3:10 2:10 1:5 2:10
2:0 3:15 1:10 2:25 3:5 1:10 3:10 2:10 1:5 2:10 3:5
3:0 1:10 2:25 3:5 1:10 3:10 2:10 1:5 2:10 3:5 2:5
1:0 2:25 3:5 1:10 3:10 2:10 1:5 2:10 3:5 2:5 1:5
2:0 3:5 1:10 3:10 2:10 1:5 2:10 3:5 2:5 1:5 2:5
3:0 1:10 3:10 2:10 1:5 2:10 3:5 2:5 1:5 2:5 3:5
1:0 3:10 2:10 1:5 2:10 3:5 2:5 1:5 2:5 3:5 1:10
3:0 2:10 1:5 2:10 3:5 2:5 1:5 2:5 3:5 1:10 2:20
2:0 1:5 2:10 3:5 2:5 1:5 2:5 3:5 1:10 2:20 3:10
1:0 2:10 3:5 2:5 1:5 2:5 3:5 1:10 2:20 3:10 2:5
2:0 3:5 2:5 1:5 2:5 3:5 1:10 2:20 3:10 2:5 3:15
3:0 2:5 1:5 2:5 3:5 1:10 2:20 3:10 2:5 3:15 1:10
2:0 1:5 2:5 3:5 1:10 2:20 3:10 2:5 3:15 1:10 3:25
1:0 2:5 3:5 1:10 2:20 3:10 2:5 3:15 1:10 3:25 2:10
2:0 3:5 1:10 2:20 3:10 2:5 3:15 1:10 3:25 2:10 1:5
3:0 1:10 2:20 3:10 2:5 3:15 1:10 3:25 2:10 1:5 3:10
1:0 2:20 3:10 2:5 3:15 1:10 3:25 2:10 1:5 3:10 1:10
2:0 3:10 2:5 3:15 1:10 3:25 2:10 1:5 3:10 1:10 2:15
3:0 2:5 3:15 1:10 3:25 2:10 1:5 3:10 1:10 2:15 3:5
2:0 3:15 1:10 3:25 2:10 1:5 3:10 1:10 2:15 3:5 1:5
3:0 1:10 3:25 2:10 1:5 3:10 1:10 2:15 3:5 1:5 3:10
1:0 3:25 2:10 1:5 3:10 1:10 2:15 3:5 1:5 3:10 2:10
3:0 2:10 1:5 3:10 1:10 2:15 3:5 1:5 3:10 2:10 1:5
2:0 1:5 3:10 1:10 2:15 3:5 1:5 3:10 2:10 1:5 2:10
1:0 3:10 1:10 2:15 3:5 1:5 3:10 2:10 1:5 2:10 3:15
3:0 1:10 2:15 3:5 1:5 3:10 2:10 1:5 2:10 3:15 2:10
1:0 2:15 3:5 1:5 3:10 2:10 1:5 2:10 3:15 2:10 3:5
2:0 3:5 1:5 3:10 2:10 1:5 2:10 3:15 2:10 3:5 1:10
3:0 1:5 3:10 2:10 1:5 2:10 3:15 2:10 3:5 1:10 2:10
1:0 3:10 2:10 1:5 2:10 3:15 2:10 3:5 1:10 2:10 3:15
3:0 2:10 1:5 2:10 3:15 2:10 3:5 1:10 2:10 3:15 2:5
2:0 1:5 2:10 3:15 2:10 3:5 1:10 2:10 3:15 2:5 3:15
1:0 2:10 3:15 2:10 3:5 1:10 2:10 3:15 2:5 3:15 1:10
2:0 3:15 2:10 3:5 1:10 2:10 3:15 2:5 3:15 1:10 3:25
3:0 2:10 3:5 1:10 2:10 3:15 2:5 3:15 1:10 3:25 2:10
2:0 3:5 1:10 2:10 3:15 2:5 3:15 1:10 3:25 2:10 1:5
3:0 1:10 2:10 3:15 2:5 3:15 1:10 3:25 2:10 1:5 2:10
1:0 2:10 3:15 2:5 3:15 1:10 3:25 2:10 1:5 2:10 3:5
2:0 3:15 2:5 3:15 1:10 3:25 2:10 1:5 2:10 3:5 2:5
3:0 2:5 3:15 1:10 3:25 2:10 1:5 2:10 3:5 2:5 1:5
2:0 3:15 1:10 3:25 2:10 1:5 2:10 3:5 2:5 1:5 3:10
3:0 1:10 3:25 2:10 1:5 2:10 3:5 2:5 1:5 3:10 1:10
1:0 3:25 2:10 1:5 2:10 3:5 2:5 1:5 3:10 1:10 2:15
3:0 2:10 1:5 2:10 3:5 2:5 1:5 3:10 1:10 2:15 3:5
2:0 1:5 2:10 3:5 2:5 1:5 3:10 1:10 2:15 3:5 2:5
1:0 2:10 3:5 2:5 1:5 3:10 1:10 2:15 3:5 2:5 1:5
2:0 3:5 2:5 1:5 3:10 1:10 2:15 3:5 2:5 1:5 2:5
3:0 2:5 1:5 3:10 1:10 2:15 3:5 2:5 1:5 2:5 3:5
2:0 1:5 3:10 1:10 2:15 3:5 2:5 1:5 2:5 3:5 1:10
1:0 3:10 1:10 2:15 3:5 2:5 1:5 2:5 3:5 1:10 2:15
3:0 1:10 2:15 3:5 2:5 1:5 2:5 3:5 1:10 2:15 3:5
1:0 2:15 3:5 2:5 1:5 2:5 3:5 1:10 2:15 3:5 1:5
2:0 3:5 2:5 1:5 2:5 3:5 1:10 2:15 3:5 1:5 2:10
3:0 2:5 1:5 2:5 3:5 1:10 2:15 3:5 1:5 2:10 3:5
2:0 1:5 2:5 3:5 1:10 2:15 3:5 1:5 2:10 3:5 1:5
1:0 2:5 3:5 1:10 2:15 3:5 1:5 2:10 3:5 1:5 2:15
2:0 3:5 1:10 2:15 3:5 1:5 2:10 3:5 1:5 2:15 3:10
3:0 1:10 2:15 3:5 1:5 2:10 3:5 1:5 2:15 3:10 1:10
1:0 2:15 3:5 1:5 2:10 3:5 1:5 2:15 3:10 1:10 2:5
2:0 3:5 1:5 2:10 3:5 1:5 2:15 3:10 1:10 2:5 1:5
3:0 1:5 2:10 3:5 1:5 2:15 3:10 1:10 2:5 1:5 2:15
1:0 2:10 3:5 1:5 2:15 3:10 1:10 2:5 1:5 2:15 3:5
2:0 3:5 1:5 2:15 3:10 1:10 2:5 1:5 2:15 3:5 1:10
3:0 1:5 2:15 3:10 1:10 2:5 1:5 2:15 3:5 1:10 3:10
1:0 2:15 3:10 1:10 2:5 1:5 2:15 3:5 1:10 3:10 2:10
2:0 3:10 1:10 2:5 1:5 2:15 3:5 1:10 3:10 2:10 1:5
3:0 1:10 2:5 1:5 2:15 3:5 1:10 3:10 2:10 1:5 2:10
1:0 2:5 1:5 2:15 3:5 1:10 3:10 2:10 1:5 2:10 3:15
2:0 1:5 2:15 3:5 1:10 3:10 2:10 1:5 2:10 3:15 2:5
1:0 2:15 3:5 1:10 3:10 2:10 1:5 2:10 3:15 2:5 3:15
2:0 3:5 1:10 3:10 2:10 1:5 2:10 3:15 2:5 3:15 2:10
3:0 1:10 3:10 2:10 1:5 2:10 3:15 2:5 3:15 2:10 1:5
1:0 3:10 2:10 1:5 2:10 3:15 2:5 3:15 2:10 1:5 2:10
3:0 2:10 1:5 2:10 3:15 2:5 3:15 2:10 1:5 2:10 1:5
2:0 1:5 2:10 3:15 2:5 3:15 2:10 1:5 2:10 1:5 2:5
1:0 2:10 3:15 2:5 3:15 2:10 1:5 2:10 1:5 2:5 3:5
2:0 3:15 2:5 3:15 2:10 1:5 2:10 1:5 2:5 3:5 2:5
3:0 2:5 3:15 2:10 1:5 2:10 1:5 2:5 3:5 2:5 1:5
2:0 3:15 2:10 1:5 2:10 1:5 2:5 3:5 2:5 1:5 2:10
3:0 2:10 1:5 2:10 1:5 2:5 3:5 2:5 1:5 2:10 3:5
2:0 1:5 2:10 1:5 2:5 3:5 2:5 1:5 2:10 3:5 1:10
1:0 2:10 1:5 2:5 3:5 2:5 1:5 2:10 3:5 1:10 2:10
2:0 1:5 2:5 3:5 2:5 1:5 2:10 3:5 1:10 2:10 3:5
1:0 2:5 3:5 2:5 1:5 2:10 3:5 1:10 2:10 3:5 1:5
2:0 3:5 2:5 1:5 2:10 3:5 1:10 2:10 3:5 1:5 2:15
3:0 2:5 1:5 2:10 3:5 1:10 2:10 3:5 1:5 2:15 3:15
2:0 1:5 2:10 3:5 1:10 2:10 3:5 1:5 2:15 3:15 2:10
1:0 2:10 3:5 1:10 2:10 3:5 1:5 2:15 3:15 2:10 3:10
2:0 3:5 1:10 2:10 3:5 1:5 2:15 3:15 2:10 3:10 1:10
3:0 1:10 2:10 3:5 1:5 2:15 3:15 2:10 3:10 1:10 2:15
1:0 2:10 3:5 1:5 2:15 3:15 2:10 3:10 1:10 2:15 1:5
2:0 3:5 1:5 2:15 3:15 2:10 3:10 1:10 2:15 1:5 3:5
3:0 1:5 2:15 3:15 2:10 3:10 1:10 2:15 1:5 3:5 1:10
1:0 2:15 3:15 2:10 3:10 1:10 2:15 1:5 3:5 1:10 2:15
2:0 3:15 2:10 3:10 1:10 2:15 1:5 3:5 1:10 2:15 3:15
3:0 2:10 3:10 1:10 2:15 1:5 3:5 1:10 2:15 3:15 2:5
2:0 3:10 1:10 2:15 1:5 3:5 1:10 2:15 3:15 2:5 1:10
3:0 1:10 2:15 1:5 3:5 1:10 2:15 3:15 2:5 1:10 2:15
1:0 2:15 1:5 3:5 1:10 2:15 3:15 2:5 1:10 2:15 3:5
2:0 1:5 3:5 1:10 2:15 3:15 2:5 1:10 2:15 3:5 1:10
1:0 3:5 1:10 2:15 3:15 2:5 1:10 2:15 3:5 1:10 2:10
3:0 1:10 2:15 3:15 2:5 1:10 2:15 3:5 1:10 2:10 3:5
1:0 2:15 3:15 2:5 1:10 2:15 3:5 1:10 2:10 3:5 2:5
2:0 3:15 2:5 1:10 2:15 3:5 1:10 2:10 3:5 2:5 1:5
3:0 2:5 1:10 2:15 3:5 1:10 2:10 3:5 2:5 1:5 2:10
2:0 1:10 2:15 3:5 1:10 2:10 3:5 2:5 1:5 2:10 3:15
1:0 2:15 3:5 1:10 2:10 3:5 2:5 1:5 2:10 3:15 2:10
2:0 3:5 1:10 2:10 3:5 2:5 1:5 2:10 3:15 2:10 1:5
3:0 1:10 2:10 3:5 2:5 1:5 2:10 3:15 2:10 1:5 2:15
1:0 2:10 3:5 2:5 1:5 2:10 3:15 2:10 1:5 2:15 3:5
2:0 3:5 2:5 1:5 2:10 3:15 2:10 1:5 2:15 3:5 1:10
3:0 2:5 1:5 2:10 3:15 2:10 1:5 2:15 3:5 1:10 2:10
2:0 1:5 2:10 3:15 2:10 1:5 2:15 3:5 1:10 2:10 3:5
1:0 2:10 3:15 2:10 1:5 2:15 3:5 1:10 2:10 3:5 2:5
2:0 3:15 2:10 1:5 2:15 3:5 1:10 2:10 3:5 2:5 1:5
3:0 2:10 1:5 2:15 3:5 1:10 2:10 3:5 2:5 1:5 2:10
2:0 1:5 2:15 3:5 1:10 2:10 3:5 2:5 1:5 2:10 3:5
1:0 2:15 3:5 1:10 2:10 3:5 2:5 1:5 2:10 3:5 1:10
2:0 3:5 1:10 2:10 3:5 2:5 1:5 2:10 3:5 1:10 2:10
3:0 1:10 2:10 3:5 2:5 1:5 2:10 3:5 1:10 2:10 3:5
1:0 2:10 3:5 2:5 1:5 2:10 3:5 1:10 2:10 3:5 2:5
2:0 3:5 2:5 1:5 2:10 3:5 1:10 2:10 3:5 2:5 1:5
3:0 2:5 1:5 2:10 3:5 1:10 2:10 3:5 2:5 1:5 2:10
2:0 1:5 2:10 3:5 1:10 2:10 3:5 2:5 1:5 2:10 3:5
1:0 2:10 3:5 1:10 2:10 3:5 2:5 1:5 2:10 3:5 1:10
2:0 3:5 1:10 2:10 3:5 2:5 1:5 2:10 3:5 1:10 3:10
3:0 1:10 2:10 3:5 2:5 1:5 2:10 3:5 1:10 3:10 1:10
1:0 2:10 3:5 2:5 1:5 2:10 3:5 1:10 3:10 1:10 2:15
2:0 3:5 2:5 1:5 2:10 3:5 1:10 3:10 1:10 2:15 3:10
3:0 2:5 1:5 2:10 3:5 1:10 3:10 1:10 2:15 3:10 2:10
2:0 1:5 2:10 3:5 1:10 3:10 1:10 2:15 3:10 2:10 1:10
1:0 2:10 3:5 1:10 3:10 1:10 2:15 3:10 2:10 1:10 2:5
2:0 3:5 1:10 3:10 1:10 2:15 3:10 2:10 1:10 2:5 1:5
3:0 1:10 3:10 1:10 2:15 3:10 2:10 1:10 2:5 1:5 3:5
1:0 3:10 1:10 2:15 3:10 2:10 1:10 2:5 1:5 3:5 2:10
3:0 1:10 2:15 3:10 2:10 1:10 2:5 1:5 3:5 2:10 1:5
1:0 2:15 3:10 2:10 1:10 2:5 1:5 3:5 2:10 1:5 3:10
2:0 3:10 2:10 1:10 2:5 1:5 3:5 2:10 1:5 3:10 1:10
3:0 2:10 1:10 2:5 1:5 3:5 2:10 1:5 3:10 1:10 2:15
2:0 1:10 2:5 1:5 3:5 2:10 1:5 3:10 1:10 2:15 3:15
1:0 2:5 1:5 3:5 2:10 1:5 3:10 1:10 2:15 3:15 2:5
2:0 1:5 3:5 2:10 1:5 3:10 1:10 2:15 3:15 2:5 1:10
1:0 3:5 2:10 1:5 3:10 1:10 2:15 3:15 2:5 1:10 2:15
3:0 2:10 1:5 3:10 1:10 2:15 3:15 2:5 1:10 2:15 3:5
2:0 1:5 3:10 1:10 2:15 3:15 2:5 1:10 2:15 3:5 2:5
1:0 3:10 1:10 2:15 3:15 2:5 1:10 2:15 3:5 2:5 1:5
3:0 1:10 2:15 3:15 2:5 1:10 2:15 3:5 2:5 1:5 3:10
1:0 2:15 3:15 2:5 1:10 2:15 3:5 2:5 1:5 3:10 2:10
2:0 3:15 2:5 1:10 2:15 3:5 2:5 1:5 3:10 2:10 1:5
3:0 2:5 1:10 2:15 3:5 2:5 1:5 3:10 2:10 1:5 2:10
2:0 1:10 2:15 3:5 2:5 1:5 3:10 2:10 1:5 2:10 3:10
1:0 2:15 3:5 2:5 1:5 3:10 2:10 1:5 2:10 3:10 1:10
2:0 3:5 2:5 1:5 3:10 2:10 1:5 2:10 3:10 1:10 2:5
3:0 2:5 1:5 3:10 2:10 1:5 2:10 3:10 1:10 2:5 3:10
2:0 1:5 3:10 2:10 1:5 2:10 3:10 1:10 2:5 3:10 1:10
1:0 3:10 2:10 1:5 2:10 3:10 1:10 2:5 3:10 1:10 2:25
3:0 2:10 1:5 2:10 3:10 1:10 2:5 3:10 1:10 2:25 3:5
2:0 1:5 2:10 3:10 1:10 2:5 3:10 1:10 2:25 3:5 1:10
1:0 2:10 3:10 1:10 2:5 3:10 1:10 2:25 3:5 1:10 3:10
2:0 3:10 1:10 2:5 3:10 1:10 2:25 3:5 1:10 3:10 2:10
3:0 1:10 2:5 3:10 1:10 2:25 3:5 1:10 3:10 2:10 1:5
1:0 2:5 3:10 1:10 2:25 3:5 1:10 3:10 2:10 1:5 2:10
2:0 3:10 1:10 2:25 3:5 1:10 3:10 2:10 1:5 2:10 3:5
3:0 1:10 2:25 3:5 1:10 3:10 2:10 1:5 2:10 3:5 2:5
1:0 2:25 3:5 1:10 3:10 2:10 1:5 2:10 3:5 2:5 1:5
2:0 3:5 1:10 3:10 2:10 1:5 2:10 3:5 2:5 1:5 2:5
3:0 1:10 3:10 2:10 1:5 2:10 3:5 2:5 1:5 2:5 3:5
1:0 3:10 2:10 1:5 2:10 3:5 2:5 1:5 2:5 3:5 1:10
3:0 2:10 1:5 2:10 3:5 2:5 1:5 2:5 3:5 1:10 2:15
2:0 1:5 2:10 3:5 2:5 1:5 2:5 3:5 1:10 2:15 3:10
1:0 2:10 3:5 2:5 1:5 2:5 3:5 1:10 2:15 3:10 2:10
2:0 3:5 2:5 1:5 2:5 3:5 1:10 2:15 3:10 2:10 1:10
3:0 2:5 1:5 2:5 3:5 1:10 2:15 3:10 2:10 1:10 2:5
2:0 1:5 2:5 3:5 1:10 2:15 3:10 2:10 1:10 2:5 1:5
1:0 2:5 3:5 1:10 2:15 3:10 2:10 1:10 2:5 1:5 3:5
2:0 3:5 1:10 2:15 3:10 2:10 1:10 2:5 1:5 3:5 2:10
3:0 1:10 2:15 3:10 2:10 1:10 2:5 1:5 3:5 2:10 1:5
1:0 2:15 3:10 2:10 1:10 2:5 1:5 3:5 2:10 1:5 2:10
2:0 3:10 2:10 1:10 2:5 1:5 3:5 2:10 1:5 2:10 3:15
3:0 2:10 1:10 2:5 1:5 3:5 2:10 1:5 2:10 3:15 2:5
2:0 1:10 2:5 1:5 3:5 2:10 1:5 2:10 3:15 2:5 3:10
1:0 2:5 1:5 3:5 2:10 1:5 2:10 3:15 2:5 3:10 1:10
2:0 1:5 3:5 2:10 1:5 2:10 3:15 2:5 3:10 1:10 3:30
1:0 3:5 2:10 1:5 2:10 3:15 2:5 3:10 1:10 3:30 2:10
3:0 2:10 1:5 2:10 3:15 2:5 3:10 1:10 3:30 2:10 1:5
2:0 1:5 2:10 3:15 2:5 3:10 1:10 3:30 2:10 1:5 2:10
1:0 2:10 3:15 2:5 3:10 1:10 3:30 2:10 1:5 2:10 3:5
2:0 3:15 2:5 3:10 1:10 3:30 2:10 1:5 2:10 3:5 1:10
3:0 2:5 3:10 1:10 3:30 2:10 1:5 2:10 3:5 1:10 3:10
2:0 3:10 1:10 3:30 2:10 1:5 2:10 3:5 1:10 3:10 1:10
3:0 1:10 3:30 2:10 1:5 2:10 3:5 1:10 3:10 1:10 2:15
1:0 3:30 2:10 1:5 2:10 3:5 1:10 3:10 1:10 2:15 3:5
3:0 2:10 1:5 2:10 3:5 1:10 3:10 1:10 2:15 3:5 1:5
2:0 1:5 2:10 3:5 1:10 3:10 1:10 2:15 3:5 1:5 2:10
1:0 2:10 3:5 1:10 3:10 1:10 2:15 3:5 1:5 2:10 3:5
2:0 3:5 1:10 3:10 1:10 2:15 3:5 1:5 2:10 3:5 1:10
3:0 1:10 3:10 1:10 2:15 3:5 1:5 2:10 3:5 1:10 2:15
1:0 3:10 1:10 2:15 3:5 1:5 2:10 3:5 1:10 2:15 3:5
3:0 1:10 2:15 3:5 1:5 2:10 3:5 1:10 2:15 3:5 2:5
1:0 2:15 3:5 1:5 2:10 3:5 1:10 2:15 3:5 2:5 1:5
2:0 3:5 1:5 2:10 3:5 1:10 2:15 3:5 2:5 1:5 2:5
3:0 1:5 2:10 3:5 1:10 2:15 3:5 2:5 1:5 2:5 3:5
1:0 2:10 3:5 1:10 2:15 3:5 2:5 1:5 2:5 3:5 2:5
2:0 3:5 1:10 2:15 3:5 2:5 1:5 2:5 3:5 2:5 1:5
3:0 1:10 2:15 3:5 2:5 1:5 2:5 3:5 2:5 1:5 2:10
1:0 2:15 3:5 2:5 1:5 2:5 3:5 2:5 1:5 2:10 3:15
2:0 3:5 2:5 1:5 2:5 3:5 2:5 1:5 2:10 3:15 2:10
3:0 2:5 1:5 2:5 3:5 2:5 1:5 2:10 3:15 2:10 3:10
2:0 1:5 2:5 3:5 2:5 1:5 2:10 3:15 2:10 3:10 1:10
1:0 2:5 3:5 2:5 1:5 2:10 3:15 2:10 3:10 1:10 2:25
2:0 3:5 2:5 1:5 2:10 3:15 2:10 3:10 1:10 2:25 3:5
3:0 2:5 1:5 2:10 3:15 2:10 3:10 1:10 2:25 3:5 1:10
2:0 1:5 2:10 3:15 2:10 3:10 1:10 2:25 3:5 1:10 2:10
1:0 2:10 3:15 2:10 3:10 1:10 2:25 3:5 1:10 2:10 3:15
2:0 3:15 2:10 3:10 1:10 2:25 3:5 1:10 2:10 3:15 2:10
3:0 2:10 3:10 1:10 2:25 3:5 1:10 2:10 3:15 2:10 3:10
2:0 3:10 1:10 2:25 3:5 1:10 2:10 3:15 2:10 3:10 1:10
3:0 1:10 2:25 3:5 1:10 2:10 3:15 2:10 3:10 1:10 2:25
1:0 2:25 3:5 1:10 2:10 3:15 2:10 3:10 1:10 2:25 3:5
2:0 3:5 1:10 2:10 3:15 2:10 3:10 1:10 2:25 3:5 1:10
3:0 1:10 2:10 3:15 2:10 3:10 1:10 2:25 3:5 1:10 2:10
1:0 2:10 3:15 2:10 3:10 1:10 2:25 3:5 1:10 2:10 3:5
2:0 3:15 2:10 3:10 1:10 2:25 3:5 1:10 2:10 3:5 1:10
3:0 2:10 3:10 1:10 2:25 3:5 1:10 2:10 3:5 1:10 3:15
2:0 3:10 1:10 2:25 3:5 1:10 2:10 3:5 1:10 3:15 1:10
3:0 1:10 2:25 3:5 1:10 2:10 3:5 1:10 3:15 1:10 3:10
1:0 2:25 3:5 1:10 2:10 3:5 1:10 3:15 1:10 3:10 2:10
2:0 3:5 1:10 2:10 3:5 1:10 3:15 1:10 3:10 2:10 1:5
3:0 1:10 2:10 3:5 1:10 3:15 1:10 3:10 2:10 1:5 2:10
1:0 2:10 3:5 1:10 3:15 1:10 3:10 2:10 1:5 2:10 3:15
2:0 3:5 1:10 3:15 1:10 3:10 2:10 1:5 2:10 3:15 2:10
3:0 1:10 3:15 1:10 3:10 2:10 1:5 2:10 3:15 2:10 3:10
1:0 3:15 1:10 3:10 2:10 1:5 2:10 3:15 2:10 3:10 1:10
3:0 1:10 3:10 2:10 1:5 2:10 3:15 2:10 3:10 1:10 2:15
1:0 3:10 2:10 1:5 2:10 3:15 2:10 3:10 1:10 2:15 1:5
3:0 2:10 1:5 2:10 3:15 2:10 3:10 1:10 2:15 1:5 3:5
2:0 1:5 2:10 3:15 2:10 3:10 1:10 2:15 1:5 3:5 2:10
1:0 2:10 3:15 2:10 3:10 1:10 2:15 1:5 3:5 2:10 1:5
2:0 3:15 2:10 3:10 1:10 2:15 1:5 3:5 2:10 1:5 2:10
3:0 2:10 3:10 1:10 2:15 1:5 3:5 2:10 1:5 2:10 3:5
2:0 3:10 1:10 2:15 1:5 3:5 2:10 1:5 2:10 3:5 1:10
3:0 1:10 2:15 1:5 3:5 2:10 1:5 2:10 3:5 1:10 3:10
1:0 2:15 1:5 3:5 2:10 1:5 2:10 3:5 1:10 3:10 1:10
2:0 1:5 3:5 2:10 1:5 2:10 3:5 1:10 3:10 1:10 2:15
1:0 3:5 2:10 1:5 2:10 3:5 1:10 3:10 1:10 2:15 3:5
3:0 2:10 1:5 2:10 3:5 1:10 3:10 1:10 2:15 3:5 2:5
2:0 1:5 2:10 3:5 1:10 3:10 1:10 2:15 3:5 2:5 1:5
1:0 2:10 3:5 1:10 3:10 1:10 2:15 3:5 2:5 1:5 2:5
2:0 3:5 1:10 3:10 1:10 2:15 3:5 2:5 1:5 2:5 3:5
3:0 1:10 3:10 1:10 2:15 3:5 2:5 1:5 2:5 3:5 1:10
1:0 3:10 1:10 2:15 3:5 2:5 1:5 2:5 3:5 1:10 2:10
3:0 1:10 2:15 3:5 2:5 1:5 2:5 3:5 1:10 2:10 3:15
1:0 2:15 3:5 2:5 1:5 2:5 3:5 1:10 2:10 3:15 2:10
2:0 3:5 2:5 1:5 2:5 3:5 1:10 2:10 3:15 2:10 3:10
3:0 2:5 1:5 2:5 3:5 1:10 2:10 3:15 2:10 3:10 1:10
2:0 1:5 2:5 3:5 1:10 2:10 3:15 2:10 3:10 1:10 2:20
1:0 2:5 3:5 1:10 2:10 3:15 2:10 3:10 1:10 2:20 3:10
2:0 3:5 1:10 2:10 3:15 2:10 3:10 1:10 2:20 3:10 1:10
3:0 1:10 2:10 3:15 2:10 3:10 1:10 2:20 3:10 1:10 2:15
1:0 2:10 3:15 2:10 3:10 1:10 2:20 3:10 1:10 2:15 3:5
2:0 3:15 2:10 3:10 1:10 2:20 3:10 1:10 2:15 3:5 2:5
3:0 2:10 3:10 1:10 2:20 3:10 1:10 2:15 3:5 2:5 1:5
2:0 3:10 1:10 2:20 3:10 1:10 2:15 3:5 2:5 1:5 2:5
3:0 1:10 2:20 3:10 1:10 2:15 3:5 2:5 1:5 2:5 3:5
1:0 2:20 3:10 1:10 2:15 3:5 2:5 1:5 2:5 3:5 2:5
2:0 3:10 1:10 2:15 3:5 2:5 1:5 2:5 3:5 2:5 1:5
3:0 1:10 2:15 3:5 2:5 1:5 2:5 3:5 2:5 1:5 2:10
1:0 2:15 3:5 2:5 1:5 2:5 3:5 2:5 1:5 2:10 3:15
2:0 3:5 2:5 1:5 2:5 3:5 2:5 1:5 2:10 3:15 2:10
3:0 2:5 1:5 2:5 3:5 2:5 1:5 2:10 3:15 2:10 3:10
2:0 1:5 2:5 3:5 2:5 1:5 2:10 3:15 2:10 3:10 1:10
1:0 2:5 3:5 2:5 1:5 2:10 3:15 2:10 3:10 1:10 2:25
2:0 3:5 2:5 1:5 2:10 3:15 2:10 3:10 1:10 2:25 3:5
3:0 2:5 1:5 2:10 3:15 2:10 3:10 1:10 2:25 3:5 1:10
2:0 1:5 2:10 3:15 2:10 3:10 1:10 2:25 3:5 1:10 2:10
1:0 2:10 3:15 2:10 3:10 1:10 2:25 3:5 1:10 2:10 3:5
2:0 3:15 2:10 3:10 1:10 2:25 3:5 1:10 2:10 3:5 2:5
3:0 2:10 3:10 1:10 2:25 3:5 1:10 2:10 3:5 2:5 1:5
2:0 3:10 1:10 2:25 3:5 1:10 2:10 3:5 2:5 1:5 2:10
3:0 1:10 2:25 3:5 1:10 2:10 3:5 2:5 1:5 2:10 3:15
1:0 2:25 3:5 1:10 2:10 3:5 2:5 1:5 2:10 3:15 2:10
2:0 3:5 1:10 2:10 3:5 2:5 1:5 2:10 3:15 2:10 1:10
3:0 1:10 2:10 3:5 2:5 1:5 2:10 3:15 2:10 1:10 3:15
1:0 2:10 3:5 2:5 1:5 2:10 3:15 2:10 1:10 3:15 1:10
2:0 3:5 2:5 1:5 2:10 3:15 2:10 1:10 3:15 1:10 2:10
3:0 2:5 1:5 2:10 3:15 2:10 1:10 3:15 1:10 2:10 3:5
2:0 1:5 2:10 3:15 2:10 1:10 3:15 1:10 2:10 3:5 1:10
1:0 2:10 3:15 2:10 1:10 3:15 1:10 2:10 3:5 1:10 2:10
2:0 3:15 2:10 1:10 3:15 1:10 2:10 3:5 1:10 2:10 3:15
3:0 2:10 1:10 3:15 1:10 2:10 3:5 1:10 2:10 3:15 2:10
2:0 1:10 3:15 1:10 2:10 3:5 1:10 2:10 3:15 2:10 1:10
1:0 3:15 1:10 2:10 3:5 1:10 2:10 3:15 2:10 1:10 3:15
3:0 1:10 2:10 3:5 1:10 2:10 3:15 2:10 1:10 3:15 2:10
1:0 2:10 3:5 1:10 2:10 3:15 2:10 1:10 3:15 2:10 1:5
2:0 3:5 1:10 2:10 3:15 2:10 1:10 3:15 2:10 1:5 2:5
3:0 1:10 2:10 3:15 2:10 1:10 3:15 2:10 1:5 2:5 3:5
1:0 2:10 3:15 2:10 1:10 3:15 2:10 1:5 2:5 3:5 1:10
2:0 3:15 2:10 1:10 3:15 2:10 1:5 2:5 3:5 1:10 3:15
3:0 2:10 1:10 3:15 2:10 1:5 2:5 3:5 1:10 3:15 1:10
2:0 1:10 3:15 2:10 1:5 2:5 3:5 1:10 3:15 1:10 2:10
1:0 3:15 2:10 1:5 2:5 3:5 1:10 3:15 1:10 2:10 3:5
3:0 2:10 1:5 2:5 3:5 1:10 3:15 1:10 2:10 3:5 2:5
2:0 1:5 2:5 3:5 1:10 3:15 1:10 2:10 3:5 2:5 1:5
1:0 2:5 3:5 1:10 3:15 1:10 2:10 3:5 2:5 1:5 2:10
2:0 3:5 1:10 3:15 1:10 2:10 3:5 2:5 1:5 2:10 3:5
3:0 1:10 3:15 1:10 2:10 3:5 2:5 1:5 2:10 3:5 1:10
1:0 3:15 1:10 2:10 3:5 2:5 1:5 2:10 3:5 1:10 3:10
3:0 1:10 2:10 3:5 2:5 1:5 2:10 3:5 1:10 3:10 1:10
1:0 2:10 3:5 2:5 1:5 2:10 3:5 1:10 3:10 1:10 2:15
2:0 3:5 2:5 1:5 2:10 3:5 1:10 3:10 1:10 2:15 3:10
3:0 2:5 1:5 2:10 3:5 1:10 3:10 1:10 2:15 3:10 1:10
2:0 1:5 2:10 3:5 1:10 3:10 1:10 2:15 3:10 1:10 2:5
1:0 2:10 3:5 1:10 3:10 1:10 2:15 3:10 1:10 2:5 3:5
2:0 3:5 1:10 3:10 1:10 2:15 3:10 1:10 2:5 3:5 1:10
3:0 1:10 3:10 1:10 2:15 3:10 1:10 2:5 3:5 1:10 2:20
1:0 3:10 1:10 2:15 3:10 1:10 2:5 3:5 1:10 2:20 1:5
3:0 1:10 2:15 3:10 1:10 2:5 3:5 1:10 2:20 1:5 3:5
1:0 2:15 3:10 1:10 2:5 3:5 1:10 2:20 1:5 3:5 1:10
2:0 3:10 1:10 2:5 3:5 1:10 2:20 1:5 3:5 1:10 2:15
3:0 1:10 2:5 3:5 1:10 2:20 1:5 3:5 1:10 2:15 3:20
1:0 2:5 3:5 1:10 2:20 1:5 3:5 1:10 2:15 3:20 2:5
2:0 3:5 1:10 2:20 1:5 3:5 1:10 2:15 3:20 2:5 1:5
3:0 1:10 2:20 1:5 3:5 1:10 2:15 3:20 2:5 1:5 2:15
1:0 2:20 1:5 3:5 1:10 2:15 3:20 2:5 1:5 2:15 3:10
2:0 1:5 3:5 1:10 2:15 3:20 2:5 1:5 2:15 3:10 1:5
1:0 3:5 1:10 2:15 3:20 2:5 1:5 2:15 3:10 1:5 2:10
3:0 1:10 2:15 3:20 2:5 1:5 2:15 3:10 1:5 2:10 3:5
1:0 2:15 3:20 2:5 1:5 2:15 3:10 1:5 2:10 3:5 2:5
2:0 3:20 2:5 1:5 2:15 3:10 1:5 2:10 3:5 2:5 1:5
3:0 2:5 1:5 2:15 3:10 1:5 2:10 3:5 2:5 1:5 2:10
2:0 1:5 2:15 3:10 1:5 2:10 3:5 2:5 1:5 2:10 3:15
1:0 2:15 3:10 1:5 2:10 3:5 2:5 1:5 2:10 3:15 2:10
2:0 3:10 1:5 2:10 3:5 2:5 1:5 2:10 3:15 2:10 3:10
3:0 1:5 2:10 3:5 2:5 1:5 2:10 3:15 2:10 3:10 1:10
1:0 2:10 3:5 2:5 1:5 2:10 3:15 2:10 3:10 1:10 2:25
2:0 3:5 2:5 1:5 2:10 3:15 2:10 3:10 1:10 2:25 3:5
3:0 2:5 1:5 2:10 3:15 2:10 3:10 1:10 2:25 3:5 1:10
2:0 1:5 2:10 3:15 2:10 3:10 1:10 2:25 3:5 1:10 2:10
1:0 2:10 3:15 2:10 3:10 1:10 2:25 3:5 1:10 2:10 3:5
2:0 3:15 2:10 3:10 1:10 2:25 3:5 1:10 2:10 3:5 2:5
3:0 2:10 3:10 1:10 2:25 3:5 1:10 2:10 3:5 2:5 1:5
2:0 3:10 1:10 2:25 3:5 1:10 2:10 3:5 2:5 1:5 2:10
3:0 1:10 2:25 3:5 1:10 2:10 3:5 2:5 1:5 2:10 3:5
1:0 2:25 3:5 1:10 2:10 3:5 2:5 1:5 2:10 3:5 1:10
2:0 3:5 1:10 2:10 3:5 2:5 1:5 2:10 3:5 1:10 3:10
3:0 1:10 2:10 3:5 2:5 1:5 2:10 3:5 1:10 3:10 1:10
1:0 2:10 3:5 2:5 1:5 2:10 3:5 1:10 3:10 1:10 2:15
2:0 3:5 2:5 1:5 2:10 3:5 1:10 3:10 1:10 2:15 3:5
3:0 2:5 1:5 2:10 3:5 1:10 3:10 1:10 2:15 3:5 2:5
2:0 1:5 2:10 3:5 1:10 3:10 1:10 2:15 3:5 2:5 1:5
1:0 2:10 3:5 1:10 3:10 1:10 2:15 3:5 2:5 1:5 2:5
2:0 3:5 1:10 3:10 1:10 2:15 3:5 2:5 1:5 2:5 3:5
3:0 1:10 3:10 1:10 2:15 3:5 2:5 1:5 2:5 3:5 1:10
1:0 3:10 1:10 2:15 3:5 2:5 1:5 2:5 3:5 1:10 2:10
3:0 1:10 2:15 3:5 2:5 1:5 2:5 3:5 1:10 2:10 3:5
1:0 2:15 3:5 2:5 1:5 2:5 3:5 1:10 2:10 3:5 1:10
2:0 3:5 2:5 1:5 2:5 3:5 1:10 2:10 3:5 1:10 2:10
3:0 2:5 1:5 2:5 3:5 1:10 2:10 3:5 1:10 2:10 3:5
2:0 1:5 2:5 3:5 1:10 2:10 3:5 1:10 2:10 3:5 2:5
1:0 2:5 3:5 1:10 2:10 3:5 1:10 2:10 3:5 2:5 1:5
2:0 3:5 1:10 2:10 3:5 1:10 2:10 3:5 2:5 1:5 2:10
3:0 1:10 2:10 3:5 1:10 2:10 3:5 2:5 1:5 2:10 3:15
1:0 2:10 3:5 1:10 2:10 3:5 2:5 1:5 2:10 3:15 1:10
2:0 3:5 1:10 2:10 3:5 2:5 1:5 2:10 3:15 1:10 2:20
3:0 1:10 2:10 3:5 2:5 1:5 2:10 3:15 1:10 2:20 3:5
1:0 2:10 3:5 2:5 1:5 2:10 3:15 1:10 2:20 3:5 1:10
2:0 3:5 2:5 1:5 2:10 3:15 1:10 2:20 3:5 1:10 2:15
3:0 2:5 1:5 2:10 3:15 1:10 2:20 3:5 1:10 2:15 3:10
2:0 1:5 2:10 3:15 1:10 2:20 3:5 1:10 2:15 3:10 2:10
1:0 2:10 3:15 1:10 2:20 3:5 1:10 2:15 3:10 2:10 3:15
2:0 3:15 1:10 2:20 3:5 1:10 2:15 3:10 2:10 3:15 2:5
3:0 1:10 2:20 3:5 1:10 2:15 3:10 2:10 3:15 2:5 1:10
1:0 2:20 3:5 1:10 2:15 3:10 2:10 3:15 2:5 1:10 3:20
2:0 3:5 1:10 2:15 3:10 2:10 3:15 2:5 1:10 3:20 1:10
3:0 1:10 2:15 3:10 2:10 3:15 2:5 1:10 3:20 1:10 2:10
1:0 2:15 3:10 2:10 3:15 2:5 1:10 3:20 1:10 2:10 3:5
2:0 3:10 2:10 3:15 2:5 1:10 3:20 1:10 2:10 3:5 1:10
3:0 2:10 3:15 2:5 1:10 3:20 1:10 2:10 3:5 1:10 2:15
2:0 3:15 2:5 1:10 3:20 1:10 2:10 3:5 1:10 2:15 3:10
3:0 2:5 1:10 3:20 1:10 2:10 3:5 1:10 2:15 3:10 2:10
2:0 1:10 3:20 1:10 2:10 3:5 1:10 2:15 3:10 2:10 1:5
1:0 3:20 1:10 2:10 3:5 1:10 2:15 3:10 2:10 1:5 3:20
3:0 1:10 2:10 3:5 1:10 2:15 3:10 2:10 1:5 3:20 1:10
1:0 2:10 3:5 1:10 2:15 3:10 2:10 1:5 3:20 1:10 2:10
2:0 3:5 1:10 2:15 3:10 2:10 1:5 3:20 1:10 2:10 3:5
3:0 1:10 2:15 3:10 2:10 1:5 3:20 1:10 2:10 3:5 1:10
1:0 2:15 3:10 2:10 1:5 3:20 1:10 2:10 3:5 1:10 3:15
2:0 3:10 2:10 1:5 3:20 1:10 2:10 3:5 1:10 3:15 1:10
3:0 2:10 1:5 3:20 1:10 2:10 3:5 1:10 3:15 1:10 2:10
2:0 1:5 3:20 1:10 2:10 3:5 1:10 3:15 1:10 2:10 3:5
1:0 3:20 1:10 2:10 3:5 1:10 3:15 1:10 2:10 3:5 2:5
3:0 1:10 2:10 3:5 1:10 3:15 1:10 2:10 3:5 2:5 1:5
1:0 2:10 3:5 1:10 3:15 1:10 2:10 3:5 2:5 1:5 2:10
2:0 3:5 1:10 3:15 1:10 2:10 3:5 2:5 1:5 2:10 3:15
3:0 1:10 3:15 1:10 2:10 3:5 2:5 1:5 2:10 3:15 2:10
1:0 3:15 1:10 2:10 3:5 2:5 1:5 2:10 3:15 2:10 3:10
3:0 1:10 2:10 3:5 2:5 1:5 2:10 3:15 2:10 3:10 1:10
1:0 2:10 3:5 2:5 1:5 2:10 3:15 2:10 3:10 1:10 2:25
2:0 3:5 2:5 1:5 2:10 3:15 2:10 3:10 1:10 2:25 3:5
3:0 2:5 1:5 2:10 3:15 2:10 3:10 1:10 2:25 3:5 1:10
2:0 1:5 2:10 3:15 2:10 3:10 1:10 2:25 3:5 1:10 2:10
1:0 2:10 3:15 2:10 3:10 1:10 2:25 3:5 1:10 2:10 3:5
2:0 3:15 2:10 3:10 1:10 2:25 3:5 1:10 2:10 3:5 2:5
3:0 2:10 3:10 1:10 2:25 3:5 1:10 2:10 3:5 2:5 1:5
2:0 3:10 1:10 2:25 3:5 1:10 2:10 3:5 2:5 1:5 2:10
3:0 1:10 2:25 3:5 1:10 2:10 3:5 2:5 1:5 2:10 3:5
1:0 2:25 3:5 1:10 2:10 3:5 2:5 1:5 2:10 3:5 1:10
2:0 3:5 1:10 2:10 3:5 2:5 1:5 2:10 3:5 1:10 2:10
3:0 1:10 2:10 3:5 2:5 1:5 2:10 3:5 1:10 2:10 3:5
1:0 2:10 3:5 2:5 1:5 2:10 3:5 1:10 2:10 3:5 2:5
2:0 3:5 2:5 1:5 2:10 3:5 1:10 2:10 3:5 2:5 1:5
3:0 2:5 1:5 2:10 3:5 1:10 2:10 3:5 2:5 1:5 2:10
2:0 1:5 2:10 3:5 1:10 2:10 3:5 2:5 1:5 2:10 3:15
1:0 2:10 3:5 1:10 2:10 3:5 2:5 1:5 2:10 3:15 2:5
2:0 3:5 1:10 2:10 3:5 2:5 1:5 2:10 3:15 2:5 1:10
3:0 1:10 2:10 3:5 2:5 1:5 2:10 3:15 2:5 1:10 2:15
1:0 2:10 3:5 2:5 1:5 2:10 3:15 2:5 1:10 2:15 3:5
2:0 3:5 2:5 1:5 2:10 3:15 2:5 1:10 2:15 3:5 1:10
3:0 2:5 1:5 2:10 3:15 2:5 1:10 2:15 3:5 1:10 3:10
2:0 1:5 2:10 3:15 2:5 1:10 2:15 3:5 1:10 3:10 2:10
1:0 2:10 3:15 2:5 1:10 2:15 3:5 1:10 3:10 2:10 1:5
2:0 3:15 2:5 1:10 2:15 3:5 1:10 3:10 2:10 1:5 2:10
3:0 2:5 1:10 2:15 3:5 1:10 3:10 2:10 1:5 2:10 3:15
2:0 1:10 2:15 3:5 1:10 3:10 2:10 1:5 2:10 3:15 2:5
1:0 2:15 3:5 1:10 3:10 2:10 1:5 2:10 3:15 2:5 1:10
2:0 3:5 1:10 3:10 2:10 1:5 2:10 3:15 2:5 1:10 2:15
3:0 1:10 3:10 2:10 1:5 2:10 3:15 2:5 1:10 2:15 3:5
1:0 3:10 2:10 1:5 2:10 3:15 2:5 1:10 2:15 3:5 1:10
3:0 2:10 1:5 2:10 3:15 2:5 1:10 2:15 3:5 1:10 2:10
2:0 1:5 2:10 3:15 2:5 1:10 2:15 3:5 1:10 2:10 3:5
1:0 2:10 3:15 2:5 1:10 2:15 3:5 1:10 2:10 3:5 1:10
2:0 3:15 2:5 1:10 2:15 3:5 1:10 2:10 3:5 1:10 2:10
3:0 2:5 1:10 2:15 3:5 1:10 2:10 3:5 1:10 2:10 3:10
2:0 1:10 2:15 3:5 1:10 2:10 3:5 1:10 2:10 3:10 1:5
1:0 2:15 3:5 1:10 2:10 3:5 1:10 2:10 3:10 1:5 2:10
2:0 3:5 1:10 2:10 3:5 1:10 2:10 3:10 1:5 2:10 3:5
3:0 1:10 2:10 3:5 1:10 2:10 3:10 1:5 2:10 3:5 2:5
1:0 2:10 3:5 1:10 2:10 3:10 1:5 2:10 3:5 2:5 1:5
2:0 3:5 1:10 2:10 3:10 1:5 2:10 3:5 2:5 1:5 2:10
3:0 1:10 2:10 3:10 1:5 2:10 3:5 2:5 1:5 2:10 3:15
1:0 2:10 3:10 1:5 2:10 3:5 2:5 1:5 2:10 3:15 2:5
2:0 3:10 1:5 2:10 3:5 2:5 1:5 2:10 3:15 2:5 3:10
3:0 1:5 2:10 3:5 2:5 1:5 2:10 3:15 2:5 3:10 2:5
1:0 2:10 3:5 2:5 1:5 2:10 3:15 2:5 3:10 2:5 1:5
2:0 3:5 2:5 1:5 2:10 3:15 2:5 3:10 2:5 1:5 3:10
3:0 2:5 1:5 2:10 3:15 2:5 3:10 2:5 1:5 3:10 1:10
2:0 1:5 2:10 3:15 2:5 3:10 2:5 1:5 3:10 1:10 2:10
1:0 2:10 3:15 2:5 3:10 2:5 1:5 3:10 1:10 2:10 3:5
2:0 3:15 2:5 3:10 2:5 1:5 3:10 1:10 2:10 3:5 2:5
3:0 2:5 3:10 2:5 1:5 3:10 1:10 2:10 3:5 2:5 1:5
2:0 3:10 2:5 1:5 3:10 1:10 2:10 3:5 2:5 1:5 2:10
3:0 2:5 1:5 3:10 1:10 2:10 3:5 2:5 1:5 2:10 3:15
2:0 1:5 3:10 1:10 2:10 3:5 2:5 1:5 2:10 3:15 2:10
1:0 3:10 1:10 2:10 3:5 2:5 1:5 2:10 3:15 2:10 3:15
3:0 1:10 2:10 3:5 2:5 1:5 2:10 3:15 2:10 3:15 2:5
1:0 2:10 3:5 2:5 1:5 2:10 3:15 2:10 3:15 2:5 1:5
2:0 3:5 2:5 1:5 2:10 3:15 2:10 3:15 2:5 1:5 2:20
3:0 2:5 1:5 2:10 3:15 2:10 3:15 2:5 1:5 2:20 3:5
2:0 1:5 2:10 3:15 2:10 3:15 2:5 1:5 2:20 3:5 1:10
1:0 2:10 3:15 2:10 3:15 2:5 1:5 2:20 3:5 1:10 2:15
2:0 3:15 2:10 3:15 2:5 1:5 2:20 3:5 1:10 2:15 3:10
3:0 2:10 3:15 2:5 1:5 2:20 3:5 1:10 2:15 3:10 2:10
2:0 3:15 2:5 1:5 2:20 3:5 1:10 2:15 3:10 2:10 3:5
3:0 2:5 1:5 2:20 3:5 1:10 2:15 3:10 2:10 3:5 2:5
2:0 1:5 2:20 3:5 1:10 2:15 3:10 2:10 3:5 2:5 1:5
1:0 2:20 3:5 1:10 2:15 3:10 2:10 3:5 2:5 1:5 2:10
2:0 3:5 1:10 2:15 3:10 2:10 3:5 2:5 1:5 2:10 3:15
3:0 1:10 2:15 3:10 2:10 3:5 2:5 1:5 2:10 3:15 2:5
1:0 2:15 3:10 2:10 3:5 2:5 1:5 2:10 3:15 2:5 3:15
2:0 3:10 2:10 3:5 2:5 1:5 2:10 3:15 2:5 3:15 1:10
3:0 2:10 3:5 2:5 1:5 2:10 3:15 2:5 3:15 1:10 2:25
2:0 3:5 2:5 1:5 2:10 3:15 2:5 3:15 1:10 2:25 3:5
3:0 2:5 1:5 2:10 3:15 2:5 3:15 1:10 2:25 3:5 1:10
2:0 1:5 2:10 3:15 2:5 3:15 1:10 2:25 3:5 1:10 3:10
1:0 2:10 3:15 2:5 3:15 1:10 2:25 3:5 1:10 3:10 1:10
2:0 3:15 2:5 3:15 1:10 2:25 3:5 1:10 3:10 1:10 2:15
3:0 2:5 3:15 1:10 2:25 3:5 1:10 3:10 1:10 2:15 3:15
2:0 3:15 1:10 2:25 3:5 1:10 3:10 1:10 2:15 3:15 2:5
3:0 1:10 2:25 3:5 1:10 3:10 1:10 2:15 3:15 2:5 1:15
1:0 2:25 3:5 1:10 3:10 1:10 2:15 3:15 2:5 1:15 2:10
2:0 3:5 1:10 3:10 1:10 2:15 3:15 2:5 1:15 2:10 3:5
3:0 1:10 3:10 1:10 2:15 3:15 2:5 1:15 2:10 3:5 1:10
1:0 3:10 1:10 2:15 3:15 2:5 1:15 2:10 3:5 1:10 3:10
3:0 1:10 2:15 3:15 2:5 1:15 2:10 3:5 1:10 3:10 2:10
1:0 2:15 3:15 2:5 1:15 2:10 3:5 1:10 3:10 2:10 1:5
2:0 3:15 2:5 1:15 2:10 3:5 1:10 3:10 2:10 1:5 2:10
3:0 2:5 1:15 2:10 3:5 1:10 3:10 2:10 1:5 2:10 3:15
2:0 1:15 2:10 3:5 1:10 3:10 2:10 1:5 2:10 3:15 2:5
1:0 2:10 3:5 1:10 3:10 2:10 1:5 2:10 3:15 2:5 3:15
2:0 3:5 1:10 3:10 2:10 1:5 2:10 3:15 2:5 3:15 1:10
3:0 1:10 3:10 2:10 1:5 2:10 3:15 2:5 3:15 1:10 2:25
1:0 3:10 2:10 1:5 2:10 3:15 2:5 3:15 1:10 2:25 3:5
3:0 2:10 1:5 2:10 3:15 2:5 3:15 1:10 2:25 3:5 1:10
2:0 1:5 2:10 3:15 2:5 3:15 1:10 2:25 3:5 1:10 2:10
1:0 2:10 3:15 2:5 3:15 1:10 2:25 3:5 1:10 2:10 3:5
2:0 3:15 2:5 3:15 1:10 2:25 3:5 1:10 2:10 3:5 1:10
3:0 2:5 3:15 1:10 2:25 3:5 1:10 2:10 3:5 1:10 2:10
2:0 3:15 1:10 2:25 3:5 1:10 2:10 3:5 1:10 2:10 3:5
3:0 1:10 2:25 3:5 1:10 2:10 3:5 1:10 2:10 3:5 2:5
1:0 2:25 3:5 1:10 2:10 3:5 1:10 2:10 3:5 2:5 1:5
2:0 3:5 1:10 2:10 3:5 1:10 2:10 3:5 2:5 1:5 2:10
3:0 1:10 2:10 3:5 1:10 2:10 3:5 2:5 1:5 2:10 3:15
1:0 2:10 3:5 1:10 2:10 3:5 2:5 1:5 2:10 3:15 2:5
2:0 3:5 1:10 2:10 3:5 2:5 1:5 2:10 3:15 2:5 3:15
3:0 1:10 2:10 3:5 2:5 1:5 2:10 3:15 2:5 3:15 2:10
1:0 2:10 3:5 2:5 1:5 2:10 3:15 2:5 3:15 2:10 1:5
2:0 3:5 2:5 1:5 2:10 3:15 2:5 3:15 2:10 1:5 2:10
3:0 2:5 1:5 2:10 3:15 2:5 3:15 2:10 1:5 2:10 1:5
2:0 1:5 2:10 3:15 2:5 3:15 2:10 1:5 2:10 1:5 3:5
1:0 2:10 3:15 2:5 3:15 2:10 1:5 2:10 1:5 3:5 2:10
2:0 3:15 2:5 3:15 2:10 1:5 2:10 1:5 3:5 2:10 1:5
3:0 2:5 3:15 2:10 1:5 2:10 1:5 3:5 2:10 1:5 3:10
2:0 3:15 2:10 1:5 2:10 1:5 3:5 2:10 1:5 3:10 1:10
3:0 2:10 1:5 2:10 1:5 3:5 2:10 1:5 3:10 1:10 2:15
2:0 1:5 2:10 1:5 3:5 2:10 1:5 3:10 1:10 2:15 3:5
1:0 2:10 1:5 3:5 2:10 1:5 3:10 1:10 2:15 3:5 2:5
2:0 1:5 3:5 2:10 1:5 3:10 1:10 2:15 3:5 2:5 1:5
1:0 3:5 2:10 1:5 3:10 1:10 2:15 3:5 2:5 1:5 2:5
3:0 2:10 1:5 3:10 1:10 2:15 3:5 2:5 1:5 2:5 3:5
2:0 1:5 3:10 1:10 2:15 3:5 2:5 1:5 2:5 3:5 1:10
1:0 3:10 1:10 2:15 3:5 2:5 1:5 2:5 3:5 1:10 2:15
3:0 1:10 2:15 3:5 2:5 1:5 2:5 3:5 1:10 2:15 3:5
1:0 2:15 3:5 2:5 1:5 2:5 3:5 1:10 2:15 3:5 2:5
2:0 3:5 2:5 1:5 2:5 3:5 1:10 2:15 3:5 2:5 1:5
3:0 2:5 1:5 2:5 3:5 1:10 2:15 3:5 2:5 1:5 2:5
2:0 1:5 2:5 3:5 1:10 2:15 3:5 2:5 1:5 2:5 3:5
1:0 2:5 3:5 1:10 2:15 3:5 2:5 1:5 2:5 3:5 2:5
2:0 3:5 1:10 2:15 3:5 2:5 1:5 2:5 3:5 2:5 1:5
3:0 1:10 2:15 3:5 2:5 1:5 2:5 3:5 2:5 1:5 2:10
1:0 2:15 3:5 2:5 1:5 2:5 3:5 2:5 1:5 2:10 3:5
2:0 3:5 2:5 1:5 2:5 3:5 2:5 1:5 2:10 3:5 1:10
3:0 2:5 1:5 2:5 3:5 2:5 1:5 2:10 3:5 1:10 3:10
2:0 1:5 2:5 3:5 2:5 1:5 2:10 3:5 1:10 3:10 1:10
1:0 2:5 3:5 2:5 1:5 2:10 3:5 1:10 3:10 1:10 2:15
2:0 3:5 2:5 1:5 2:10 3:5 1:10 3:10 1:10 2:15 3:10
3:0 2:5 1:5 2:10 3:5 1:10 3:10 1:10 2:15 3:10 1:10
2:0 1:5 2:10 3:5 1:10 3:10 1:10 2:15 3:10 1:10 2:5
1:0 2:10 3:5 1:10 3:10 1:10 2:15 3:10 1:10 2:5 1:5
2:0 3:5 1:10 3:10 1:10 2:15 3:10 1:10 2:5 1:5 2:15
3:0 1:10 3:10 1:10 2:15 3:10 1:10 2:5 1:5 2:15 3:5
1:0 3:10 1:10 2:15 3:10 1:10 2:5 1:5 2:15 3:5 1:10
3:0 1:10 2:15 3:10 1:10 2:5 1:5 2:15 3:5 1:10 3:10
1:0 2:15 3:10 1:10 2:5 1:5 2:15 3:5 1:10 3:10 1:10
2:0 3:10 1:10 2:5 1:5 2:15 3:5 1:10 3:10 1:10 2:15
3:0 1:10 2:5 1:5 2:15 3:5 1:10 3:10 1:10 2:15 3:5
1:0 2:5 1:5 2:15 3:5 1:10 3:10 1:10 2:15 3:5 2:5
2:0 1:5 2:15 3:5 1:10 3:10 1:10 2:15 3:5 2:5 1:5
1:0 2:15 3:5 1:10 3:10 1:10 2:15 3:5 2:5 1:5 3:10
2:0 3:5 1:10 3:10 1:10 2:15 3:5 2:5 1:5 3:10 1:10
3:0 1:10 3:10 1:10 2:15 3:5 2:5 1:5 3:10 1:10 2:15
1:0 3:10 1:10 2:15 3:5 2:5 1:5 3:10 1:10 2:15 3:5
3:0 1:10 2:15 3:5 2:5 1:5 3:10 1:10 2:15 3:5 2:5
1:0 2:15 3:5 2:5 1:5 3:10 1:10 2:15 3:5 2:5 1:5
2:0 3:5 2:5 1:5 3:10 1:10 2:15 3:5 2:5 1:5 2:5
3:0 2:5 1:5 3:10 1:10 2:15 3:5 2:5 1:5 2:5 3:5
2:0 1:5 3:10 1:10 2:15 3:5 2:5 1:5 2:5 3:5 2:5
1:0 3:10 1:10 2:15 3:5 2:5 1:5 2:5 3:5 2:5 1:5
3:0 1:10 2:15 3:5 2:5 1:5 2:5 3:5 2:5 1:5 2:10
1:0 2:15 3:5 2:5 1:5 2:5 3:5 2:5 1:5 2:10 3:5
2:0 3:5 2:5 1:5 2:5 3:5 2:5 1:5 2:10 3:5 1:10
3:0 2:5 1:5 2:5 3:5 2:5 1:5 2:10 3:5 1:10 3:10
2:0 1:5 2:5 3:5 2:5 1:5 2:10 3:5 1:10 3:10 1:10
1:0 2:5 3:5 2:5 1:5 2:10 3:5 1:10 3:10 1:10 2:15
2:0 3:5 2:5 1:5 2:10 3:5 1:10 3:10 1:10 2:15 3:15
3:0 2:5 1:5 2:10 3:5 1:10 3:10 1:10 2:15 3:15 2:5
2:0 1:5 2:10 3:5 1:10 3:10 1:10 2:15 3:15 2:5 3:10
1:0 2:10 3:5 1:10 3:10 1:10 2:15 3:15 2:5 3:10 2:10
2:0 3:5 1:10 3:10 1:10 2:15 3:15 2:5 3:10 2:10 1:5
3:0 1:10 3:10 1:10 2:15 3:15 2:5 3:10 2:10 1:5 3:25
1:0 3:10 1:10 2:15 3:15 2:5 3:10 2:10 1:5 3:25 2:10
3:0 1:10 2:15 3:15 2:5 3:10 2:10 1:5 3:25 2:10 1:5
1:0 2:15 3:15 2:5 3:10 2:10 1:5 3:25 2:10 1:5 3:10
2:0 3:15 2:5 3:10 2:10 1:5 3:25 2:10 1:5 3:10 1:10
3:0 2:5 3:10 2:10 1:5 3:25 2:10 1:5 3:10 1:10 3:15
2:0 3:10 2:10 1:5 3:25 2:10 1:5 3:10 1:10 3:15 2:10
3:0 2:10 1:5 3:25 2:10 1:5 3:10 1:10 3:15 2:10 1:5
2:0 1:5 3:25 2:10 1:5 3:10 1:10 3:15 2:10 1:5 2:5
1:0 3:25 2:10 1:5 3:10 1:10 3:15 2:10 1:5 2:5 3:5
3:0 2:10 1:5 3:10 1:10 3:15 2:10 1:5 2:5 3:5 1:10
2:0 1:5 3:10 1:10 3:15 2:10 1:5 2:5 3:5 1:10 2:10
1:0 3:10 1:10 3:15 2:10 1:5 2:5 3:5 1:10 2:10 3:10
3:0 1:10 3:15 2:10 1:5 2:5 3:5 1:10 2:10 3:10 2:5
1:0 3:15 2:10 1:5 2:5 3:5 1:10 2:10 3:10 2:5 1:5
3:0 2:10 1:5 2:5 3:5 1:10 2:10 3:10 2:5 1:5 2:5
2:0 1:5 2:5 3:5 1:10 2:10 3:10 2:5 1:5 2:5 3:5
1:0 2:5 3:5 1:10 2:10 3:10 2:5 1:5 2:5 3:5 2:5
2:0 3:5 1:10 2:10 3:10 2:5 1:5 2:5 3:5 2:5 1:5
3:0 1:10 2:10 3:10 2:5 1:5 2:5 3:5 2:5 1:5 2:10
1:0 2:10 3:10 2:5 1:5 2:5 3:5 2:5 1:5 2:10 3:15
2:0 3:10 2:5 1:5 2:5 3:5 2:5 1:5 2:10 3:15 2:10
3:0 2:5 1:5 2:5 3:5 2:5 1:5 2:10 3:15 2:10 3:10
2:0 1:5 2:5 3:5 2:5 1:5 2:10 3:15 2:10 3:10 1:10
1:0 2:5 3:5 2:5 1:5 2:10 3:15 2:10 3:10 1:10 2:15
2:0 3:5 2:5 1:5 2:10 3:15 2:10 3:10 1:10 2:15 1:5
3:0 2:5 1:5 2:10 3:15 2:10 3:10 1:10 2:15 1:5 3:5
2:0 1:5 2:10 3:15 2:10 3:10 1:10 2:15 1:5 3:5 2:10
1:0 2:10 3:15 2:10 3:10 1:10 2:15 1:5 3:5 2:10 1:5
2:0 3:15 2:10 3:10 1:10 2:15 1:5 3:5 2:10 1:5 2:10
3:0 2:10 3:10 1:10 2:15 1:5 3:5 2:10 1:5 2:10 3:20
2:0 3:10 1:10 2:15 1:5 3:5 2:10 1:5 2:10 3:20 2:5
3:0 1:10 2:15 1:5 3:5 2:10 1:5 2:10 3:20 2:5 3:15
1:0 2:15 1:5 3:5 2:10 1:5 2:10 3:20 2:5 3:15 2:5
2:0 1:5 3:5 2:10 1:5 2:10 3:20 2:5 3:15 2:5 1:5
1:0 3:5 2:10 1:5 2:10 3:20 2:5 3:15 2:5 1:5 2:20
3:0 2:10 1:5 2:10 3:20 2:5 3:15 2:5 1:5 2:20 3:5
2:0 1:5 2:10 3:20 2:5 3:15 2:5 1:5 2:20 3:5 1:10
1:0 2:10 3:20 2:5 3:15 2:5 1:5 2:20 3:5 1:10 2:10
2:0 3:20 2:5 3:15 2:5 1:5 2:20 3:5 1:10 2:10 3:5
3:0 2:5 3:15 2:5 1:5 2:20 3:5 1:10 2:10 3:5 2:5
2:0 3:15 2:5 1:5 2:20 3:5 1:10 2:10 3:5 2:5 1:5
3:0 2:5 1:5 2:20 3:5 1:10 2:10 3:5 2:5 1:5 2:10
2:0 1:5 2:20 3:5 1:10 2:10 3:5 2:5 1:5 2:10 3:15
1:0 2:20 3:5 1:10 2:10 3:5 2:5 1:5 2:10 3:15 2:5
2:0 3:5 1:10 2:10 3:5 2:5 1:5 2:10 3:15 2:5 1:15
3:0 1:10 2:10 3:5 2:5 1:5 2:10 3:15 2:5 1:15 2:10
1:0 2:10 3:5 2:5 1:5 2:10 3:15 2:5 1:15 2:10 3:5
2:0 3:5 2:5 1:5 2:10 3:15 2:5 1:15 2:10 3:5 1:10
3:0 2:5 1:5 2:10 3:15 2:5 1:15 2:10 3:5 1:10 2:10
2:0 1:5 2:10 3:15 2:5 1:15 2:10 3:5 1:10 2:10 3:5
1:0 2:10 3:15 2:5 1:15 2:10 3:5 1:10 2:10 3:5 1:10
2:0 3:15 2:5 1:15 2:10 3:5 1:10 2:10 3:5 1:10 2:10
3:0 2:5 1:15 2:10 3:5 1:10 2:10 3:5 1:10 2:10 3:15
2:0 1:15 2:10 3:5 1:10 2:10 3:5 1:10 2:10 3:15 2:10
1:0 2:10 3:5 1:10 2:10 3:5 1:10 2:10 3:15 2:10 1:5
2:0 3:5 1:10 2:10 3:5 1:10 2:10 3:15 2:10 1:5 3:20
3:0 1:10 2:10 3:5 1:10 2:10 3:15 2:10 1:5 3:20 2:10
1:0 2:10 3:5 1:10 2:10 3:15 2:10 1:5 3:20 2:10 1:5
2:0 3:5 1:10 2:10 3:15 2:10 1:5 3:20 2:10 1:5 2:5
3:0 1:10 2:10 3:15 2:10 1:5 3:20 2:10 1:5 2:5 3:5
1:0 2:10 3:15 2:10 1:5 3:20 2:10 1:5 2:5 3:5 1:10
2:0 3:15 2:10 1:5 3:20 2:10 1:5 2:5 3:5 1:10 3:15
3:0 2:10 1:5 3:20 2:10 1:5 2:5 3:5 1:10 3:15 1:10
2:0 1:5 3:20 2:10 1:5 2:5 3:5 1:10 3:15 1:10 2:10
1:0 3:20 2:10 1:5 2:5 3:5 1:10 3:15 1:10 2:10 3:5
3:0 2:10 1:5 2:5 3:5 1:10 3:15 1:10 2:10 3:5 1:10
2:0 1:5 2:5 3:5 1:10 3:15 1:10 2:10 3:5 1:10 2:10
1:0 2:5 3:5 1:10 3:15 1:10 2:10 3:5 1:10 2:10 3:10
2:0 3:5 1:10 3:15 1:10 2:10 3:5 1:10 2:10 3:10 1:5
3:0 1:10 3:15 1:10 2:10 3:5 1:10 2:10 3:10 1:5 3:10
1:0 3:15 1:10 2:10 3:5 1:10 2:10 3:10 1:5 3:10 1:10
3:0 1:10 2:10 3:5 1:10 2:10 3:10 1:5 3:10 1:10 2:15
1:0 2:10 3:5 1:10 2:10 3:10 1:5 3:10 1:10 2:15 3:10
2:0 3:5 1:10 2:10 3:10 1:5 3:10 1:10 2:15 3:10 2:5
3:0 1:10 2:10 3:10 1:5 3:10 1:10 2:15 3:10 2:5 1:5
1:0 2:10 3:10 1:5 3:10 1:10 2:15 3:10 2:5 1:5 2:5
2:0 3:10 1:5 3:10 1:10 2:15 3:10 2:5 1:5 2:5 3:5
3:0 1:5 3:10 1:10 2:15 3:10 2:5 1:5 2:5 3:5 1:10
1:0 3:10 1:10 2:15 3:10 2:5 1:5 2:5 3:5 1:10 2:20
3:0 1:10 2:15 3:10 2:5 1:5 2:5 3:5 1:10 2:20 1:5
1:0 2:15 3:10 2:5 1:5 2:5 3:5 1:10 2:20 1:5 3:5
2:0 3:10 2:5 1:5 2:5 3:5 1:10 2:20 1:5 3:5 2:10
3:0 2:5 1:5 2:5 3:5 1:10 2:20 1:5 3:5 2:10 1:5
2:0 1:5 2:5 3:5 1:10 2:20 1:5 3:5 2:10 1:5 2:10
1:0 2:5 3:5 1:10 2:20 1:5 3:5 2:10 1:5 2:10 3:15
2:0 3:5 1:10 2:20 1:5 3:5 2:10 1:5 2:10 3:15 2:5
3:0 1:10 2:20 1:5 3:5 2:10 1:5 2:10 3:15 2:5 3:15
1:0 2:20 1:5 3:5 2:10 1:5 2:10 3:15 2:5 3:15 1:10
2:0 1:5 3:5 2:10 1:5 2:10 3:15 2:5 3:15 1:10 2:25
1:0 3:5 2:10 1:5 2:10 3:15 2:5 3:15 1:10 2:25 3:5
3:0 2:10 1:5 2:10 3:15 2:5 3:15 1:10 2:25 3:5 2:5
2:0 1:5 2:10 3:15 2:5 3:15 1:10 2:25 3:5 2:5 1:5
1:0 2:10 3:15 2:5 3:15 1:10 2:25 3:5 2:5 1:5 2:10
2:0 3:15 2:5 3:15 1:10 2:25 3:5 2:5 1:5 2:10 3:15
3:0 2:5 3:15 1:10 2:25 3:5 2:5 1:5 2:10 3:15 2:10
2:0 3:15 1:10 2:25 3:5 2:5 1:5 2:10 3:15 2:10 3:10
3:0 1:10 2:25 3:5 2:5 1:5 2:10 3:15 2:10 3:10 2:10
1:0 2:25 3:5 2:5 1:5 2:10 3:15 2:10 3:10 2:10 1:10
2:0 3:5 2:5 1:5 2:10 3:15 2:10 3:10 2:10 1:10 2:15
3:0 2:5 1:5 2:10 3:15 2:10 3:10 2:10 1:10 2:15 3:5
2:0 1:5 2:10 3:15 2:10 3:10 2:10 1:10 2:15 3:5 1:10
1:0 2:10 3:15 2:10 3:10 2:10 1:10 2:15 3:5 1:10
2:0 3:15 2:10 3:10 2:10 1:10 2:15 3:5 1:10
3:0 2:10 3:10 2:10 1:10 2:15 3:5 1:10
2:0 3:10 2:10 1:10 2:15 3:5 1:10
3:0 2:10 1:10 2:15 3:5 1:10
2:0 1:10 2:15 3:5 1:10
1:0 2:15 3:5 1:10
2:0 3:5 1:10
3:0 1:10
1:0