8:0 16:2345 8:10 16:500 8:5 16:160 8:10 16:325 8:5 16:500 8:5
16:0 8:10 16:500 8:5 16:160 8:10 16:325 8:5 16:500 8:5 16:500
8:0 16:500 8:5 16:160 8:10 16:325 8:5 16:500 8:5 16:500 8:5
16:0 8:5 16:160 8:10 16:325 8:5 16:500 8:5 16:500 8:5 16:2855
8:0 16:160 8:10 16:325 8:5 16:500 8:5 16:500 8:5 16:2855 8:5
16:0 8:10 16:325 8:5 16:500 8:5 16:500 8:5 16:2855 8:5
8:0 16:325 8:5 16:500 8:5 16:500 8:5 16:2855 8:5
16:0 8:5 16:500 8:5 16:500 8:5 16:2855 8:5
8:0 16:500 8:5 16:500 8:5 16:2855 8:5
16:0 8:5 16:500 8:5 16:2855 8:5
8:0 16:500 8:5 16:2855 8:5
16:0 8:5 16:2855 8:5
8:0 16:2855 8:5
16:0 8:5
8:0