7:0 6:5 5:35 1:5 7:15 6:5 1:20 7:10 6:5 3:35 1:5
6:0 5:35 1:5 7:15 6:5 1:20 7:10 6:5 3:35 1:5 4:15
5:0 1:5 7:15 6:5 1:20 7:10 6:5 3:35 1:5 4:15 7:5
1:0 7:15 6:5 1:20 7:10 6:5 3:35 1:5 4:15 7:5 6:10
7:0 6:5 1:20 7:10 6:5 3:35 1:5 4:15 7:5 6:10 3:30
6:0 1:20 7:10 6:5 3:35 1:5 4:15 7:5 6:10 3:30 1:5
1:0 7:10 6:5 3:35 1:5 4:15 7:5 6:10 3:30 1:5 5:10
7:0 6:5 3:35 1:5 4:15 7:5 6:10 3:30 1:5 5:10 6:5
6:0 3:35 1:5 4:15 7:5 6:10 3:30 1:5 5:10 6:5 1:15
3:0 1:5 4:15 7:5 6:10 3:30 1:5 5:10 6:5 1:15 7:15
1:0 4:15 7:5 6:10 3:30 1:5 5:10 6:5 1:15 7:15 6:5
4:0 7:5 6:10 3:30 1:5 5:10 6:5 1:15 7:15 6:5 7:5
7:0 6:10 3:30 1:5 5:10 6:5 1:15 7:15 6:5 7:5 6:5
6:0 3:30 1:5 5:10 6:5 1:15 7:15 6:5 7:5 6:5 3:10
3:0 1:5 5:10 6:5 1:15 7:15 6:5 7:5 6:5 3:10 1:5
1:0 5:10 6:5 1:15 7:15 6:5 7:5 6:5 3:10 1:5 4:5
5:0 6:5 1:15 7:15 6:5 7:5 6:5 3:10 1:5 4:5 6:5
6:0 1:15 7:15 6:5 7:5 6:5 3:10 1:5 4:5 6:5 5:25
1:0 7:15 6:5 7:5 6:5 3:10 1:5 4:5 6:5 5:25 1:5
7:0 6:5 7:5 6:5 3:10 1:5 4:5 6:5 5:25 1:5 7:15
6:0 7:5 6:5 3:10 1:5 4:5 6:5 5:25 1:5 7:15 6:5
7:0 6:5 3:10 1:5 4:5 6:5 5:25 1:5 7:15 6:5 3:35
6:0 3:10 1:5 4:5 6:5 5:25 1:5 7:15 6:5 3:35 1:5
3:0 1:5 4:5 6:5 5:25 1:5 7:15 6:5 3:35 1:5 5:15
1:0 4:5 6:5 5:25 1:5 7:15 6:5 3:35 1:5 5:15 6:5
4:0 6:5 5:25 1:5 7:15 6:5 3:35 1:5 5:15 6:5 7:5
6:0 5:25 1:5 7:15 6:5 3:35 1:5 5:15 6:5 7:5 6:5
5:0 1:5 7:15 6:5 3:35 1:5 5:15 6:5 7:5 6:5 5:25
1:0 7:15 6:5 3:35 1:5 5:15 6:5 7:5 6:5 5:25 1:5
7:0 6:5 3:35 1:5 5:15 6:5 7:5 6:5 5:25 1:5 6:15
6:0 3:35 1:5 5:15 6:5 7:5 6:5 5:25 1:5 6:15 1:30
3:0 1:5 5:15 6:5 7:5 6:5 5:25 1:5 6:15 1:30 2:10
1:0 5:15 6:5 7:5 6:5 5:25 1:5 6:15 1:30 2:10 7:5
5:0 6:5 7:5 6:5 5:25 1:5 6:15 1:30 2:10 7:5 6:5
6:0 7:5 6:5 5:25 1:5 6:15 1:30 2:10 7:5 6:5 3:10
7:0 6:5 5:25 1:5 6:15 1:30 2:10 7:5 6:5 3:10 1:5
6:0 5:25 1:5 6:15 1:30 2:10 7:5 6:5 3:10 1:5 4:5
5:0 1:5 6:15 1:30 2:10 7:5 6:5 3:10 1:5 4:5 6:5
1:0 6:15 1:30 2:10 7:5 6:5 3:10 1:5 4:5 6:5 3:40
6:0 1:30 2:10 7:5 6:5 3:10 1:5 4:5 6:5 3:40 1:5
1:0 2:10 7:5 6:5 3:10 1:5 4:5 6:5 3:40 1:5 6:15
2:0 7:5 6:5 3:10 1:5 4:5 6:5 3:40 1:5 6:15 7:5
7:0 6:5 3:10 1:5 4:5 6:5 3:40 1:5 6:15 7:5 6:5
6:0 3:10 1:5 4:5 6:5 3:40 1:5 6:15 7:5 6:5 1:30
3:0 1:5 4:5 6:5 3:40 1:5 6:15 7:5 6:5 1:30 4:15
1:0 4:5 6:5 3:40 1:5 6:15 7:5 6:5 1:30 4:15 6:5
4:0 6:5 3:40 1:5 6:15 7:5 6:5 1:30 4:15 6:5 1:35
6:0 3:40 1:5 6:15 7:5 6:5 1:30 4:15 6:5 1:35 5:10
3:0 1:5 6:15 7:5 6:5 1:30 4:15 6:5 1:35 5:10 6:5
1:0 6:15 7:5 6:5 1:30 4:15 6:5 1:35 5:10 6:5 1:30
6:0 7:5 6:5 1:30 4:15 6:5 1:35 5:10 6:5 1:30 6:15
7:0 6:5 1:30 4:15 6:5 1:35 5:10 6:5 1:30 6:15 3:40
6:0 1:30 4:15 6:5 1:35 5:10 6:5 1:30 6:15 3:40 1:5
1:0 4:15 6:5 1:35 5:10 6:5 1:30 6:15 3:40 1:5 6:15
4:0 6:5 1:35 5:10 6:5 1:30 6:15 3:40 1:5 6:15 7:5
6:0 1:35 5:10 6:5 1:30 6:15 3:40 1:5 6:15 7:5 6:5
1:0 5:10 6:5 1:30 6:15 3:40 1:5 6:15 7:5 6:5 2:10
5:0 6:5 1:30 6:15 3:40 1:5 6:15 7:5 6:5 2:10 1:5
6:0 1:30 6:15 3:40 1:5 6:15 7:5 6:5 2:10 1:5 2:5
1:0 6:15 3:40 1:5 6:15 7:5 6:5 2:10 1:5 2:5 6:5
6:0 3:40 1:5 6:15 7:5 6:5 2:10 1:5 2:5 6:5 1:45
3:0 1:5 6:15 7:5 6:5 2:10 1:5 2:5 6:5 1:45 5:15
1:0 6:15 7:5 6:5 2:10 1:5 2:5 6:5 1:45 5:15 6:5
6:0 7:5 6:5 2:10 1:5 2:5 6:5 1:45 5:15 6:5 7:5
7:0 6:5 2:10 1:5 2:5 6:5 1:45 5:15 6:5 7:5 6:5
6:0 2:10 1:5 2:5 6:5 1:45 5:15 6:5 7:5 6:5 1:10
2:0 1:5 2:5 6:5 1:45 5:15 6:5 7:5 6:5 1:10 6:10
1:0 2:5 6:5 1:45 5:15 6:5 7:5 6:5 1:10 6:10 1:40
2:0 6:5 1:45 5:15 6:5 7:5 6:5 1:10 6:10 1:40 4:10
6:0 1:45 5:15 6:5 7:5 6:5 1:10 6:10 1:40 4:10 6:5
1:0 5:15 6:5 7:5 6:5 1:10 6:10 1:40 4:10 6:5 1:30
5:0 6:5 7:5 6:5 1:10 6:10 1:40 4:10 6:5 1:30 2:10
6:0 7:5 6:5 1:10 6:10 1:40 4:10 6:5 1:30 2:10 6:5
7:0 6:5 1:10 6:10 1:40 4:10 6:5 1:30 2:10 6:5 2:40
6:0 1:10 6:10 1:40 4:10 6:5 1:30 2:10 6:5 2:40 1:5
1:0 6:10 1:40 4:10 6:5 1:30 2:10 6:5 2:40 1:5 4:10
6:0 1:40 4:10 6:5 1:30 2:10 6:5 2:40 1:5 4:10 6:5
1:0 4:10 6:5 1:30 2:10 6:5 2:40 1:5 4:10 6:5 7:5
4:0 6:5 1:30 2:10 6:5 2:40 1:5 4:10 6:5 7:5 6:5
6:0 1:30 2:10 6:5 2:40 1:5 4:10 6:5 7:5 6:5 2:10
1:0 2:10 6:5 2:40 1:5 4:10 6:5 7:5 6:5 2:10 1:5
2:0 6:5 2:40 1:5 4:10 6:5 7:5 6:5 2:10 1:5 4:5
6:0 2:40 1:5 4:10 6:5 7:5 6:5 2:10 1:5 4:5 6:5
2:0 1:5 4:10 6:5 7:5 6:5 2:10 1:5 4:5 6:5 1:30
1:0 4:10 6:5 7:5 6:5 2:10 1:5 4:5 6:5 1:30 6:15
4:0 6:5 7:5 6:5 2:10 1:5 4:5 6:5 1:30 6:15 3:40
6:0 7:5 6:5 2:10 1:5 4:5 6:5 1:30 6:15 3:40 1:5
7:0 6:5 2:10 1:5 4:5 6:5 1:30 6:15 3:40 1:5 7:15
6:0 2:10 1:5 4:5 6:5 1:30 6:15 3:40 1:5 7:15 6:15
2:0 1:5 4:5 6:5 1:30 6:15 3:40 1:5 7:15 6:15 3:10
1:0 4:5 6:5 1:30 6:15 3:40 1:5 7:15 6:15 3:10 1:5
4:0 6:5 1:30 6:15 3:40 1:5 7:15 6:15 3:10 1:5 4:5
6:0 1:30 6:15 3:40 1:5 7:15 6:15 3:10 1:5 4:5 6:5
1:0 6:15 3:40 1:5 7:15 6:15 3:10 1:5 4:5 6:5 2:15
6:0 3:40 1:5 7:15 6:15 3:10 1:5 4:5 6:5 2:15 1:5
3:0 1:5 7:15 6:15 3:10 1:5 4:5 6:5 2:15 1:5 7:10
1:0 7:15 6:15 3:10 1:5 4:5 6:5 2:15 1:5 7:10 6:5
7:0 6:15 3:10 1:5 4:5 6:5 2:15 1:5 7:10 6:5 7:5
6:0 3:10 1:5 4:5 6:5 2:15 1:5 7:10 6:5 7:5 6:5
3:0 1:5 4:5 6:5 2:15 1:5 7:10 6:5 7:5 6:5 2:10
1:0 4:5 6:5 2:15 1:5 7:10 6:5 7:5 6:5 2:10 1:5
4:0 6:5 2:15 1:5 7:10 6:5 7:5 6:5 2:10 1:5 4:5
6:0 2:15 1:5 7:10 6:5 7:5 6:5 2:10 1:5 4:5 6:5
2:0 1:5 7:10 6:5 7:5 6:5 2:10 1:5 4:5 6:5 3:40
1:0 7:10 6:5 7:5 6:5 2:10 1:5 4:5 6:5 3:40 1:5
7:0 6:5 7:5 6:5 2:10 1:5 4:5 6:5 3:40 1:5 7:15
6:0 7:5 6:5 2:10 1:5 4:5 6:5 3:40 1:5 7:15 6:10
7:0 6:5 2:10 1:5 4:5 6:5 3:40 1:5 7:15 6:10 3:30
6:0 2:10 1:5 4:5 6:5 3:40 1:5 7:15 6:10 3:30 1:5
2:0 1:5 4:5 6:5 3:40 1:5 7:15 6:10 3:30 1:5 2:10
1:0 4:5 6:5 3:40 1:5 7:15 6:10 3:30 1:5 2:10 6:5
4:0 6:5 3:40 1:5 7:15 6:10 3:30 1:5 2:10 6:5 1:30
6:0 3:40 1:5 7:15 6:10 3:30 1:5 2:10 6:5 1:30 7:15
3:0 1:5 7:15 6:10 3:30 1:5 2:10 6:5 1:30 7:15 6:5
1:0 7:15 6:10 3:30 1:5 2:10 6:5 1:30 7:15 6:5 3:35
7:0 6:10 3:30 1:5 2:10 6:5 1:30 7:15 6:5 3:35 1:5
6:0 3:30 1:5 2:10 6:5 1:30 7:15 6:5 3:35 1:5 7:15
3:0 1:5 2:10 6:5 1:30 7:15 6:5 3:35 1:5 7:15 6:5
1:0 2:10 6:5 1:30 7:15 6:5 3:35 1:5 7:15 6:5 7:5
2:0 6:5 1:30 7:15 6:5 3:35 1:5 7:15 6:5 7:5 6:5
6:0 1:30 7:15 6:5 3:35 1:5 7:15 6:5 7:5 6:5 1:30
1:0 7:15 6:5 3:35 1:5 7:15 6:5 7:5 6:5 1:30 4:15
7:0 6:5 3:35 1:5 7:15 6:5 7:5 6:5 1:30 4:15 6:5
6:0 3:35 1:5 7:15 6:5 7:5 6:5 1:30 4:15 6:5 2:25
3:0 1:5 7:15 6:5 7:5 6:5 1:30 4:15 6:5 2:25 1:5
1:0 7:15 6:5 7:5 6:5 1:30 4:15 6:5 2:25 1:5 7:10
7:0 6:5 7:5 6:5 1:30 4:15 6:5 2:25 1:5 7:10 6:5
6:0 7:5 6:5 1:30 4:15 6:5 2:25 1:5 7:10 6:5 1:35
7:0 6:5 1:30 4:15 6:5 2:25 1:5 7:10 6:5 1:35 4:10
6:0 1:30 4:15 6:5 2:25 1:5 7:10 6:5 1:35 4:10 6:5
1:0 4:15 6:5 2:25 1:5 7:10 6:5 1:35 4:10 6:5 2:40
4:0 6:5 2:25 1:5 7:10 6:5 1:35 4:10 6:5 2:40 1:5
6:0 2:25 1:5 7:10 6:5 1:35 4:10 6:5 2:40 1:5 7:15
2:0 1:5 7:10 6:5 1:35 4:10 6:5 2:40 1:5 7:15 6:10
1:0 7:10 6:5 1:35 4:10 6:5 2:40 1:5 7:15 6:10 1:15
7:0 6:5 1:35 4:10 6:5 2:40 1:5 7:15 6:10 1:15 6:10
6:0 1:35 4:10 6:5 2:40 1:5 7:15 6:10 1:15 6:10 5:30
1:0 4:10 6:5 2:40 1:5 7:15 6:10 1:15 6:10 5:30 1:5
4:0 6:5 2:40 1:5 7:15 6:10 1:15 6:10 5:30 1:5 5:10
6:0 2:40 1:5 7:15 6:10 1:15 6:10 5:30 1:5 5:10 6:5
2:0 1:5 7:15 6:10 1:15 6:10 5:30 1:5 5:10 6:5 1:40
1:0 7:15 6:10 1:15 6:10 5:30 1:5 5:10 6:5 1:40 4:15
7:0 6:10 1:15 6:10 5:30 1:5 5:10 6:5 1:40 4:15 6:5
6:0 1:15 6:10 5:30 1:5 5:10 6:5 1:40 4:15 6:5 7:5
1:0 6:10 5:30 1:5 5:10 6:5 1:40 4:15 6:5 7:5 6:5
6:0 5:30 1:5 5:10 6:5 1:40 4:15 6:5 7:5 6:5 1:30
5:0 1:5 5:10 6:5 1:40 4:15 6:5 7:5 6:5 1:30 5:15
1:0 5:10 6:5 1:40 4:15 6:5 7:5 6:5 1:30 5:15 6:5
5:0 6:5 1:40 4:15 6:5 7:5 6:5 1:30 5:15 6:5 3:30
6:0 1:40 4:15 6:5 7:5 6:5 1:30 5:15 6:5 3:30 1:5
1:0 4:15 6:5 7:5 6:5 1:30 5:15 6:5 3:30 1:5 6:10
4:0 6:5 7:5 6:5 1:30 5:15 6:5 3:30 1:5 6:10 3:40
6:0 7:5 6:5 1:30 5:15 6:5 3:30 1:5 6:10 3:40 1:5
7:0 6:5 1:30 5:15 6:5 3:30 1:5 6:10 3:40 1:5 5:15
6:0 1:30 5:15 6:5 3:30 1:5 6:10 3:40 1:5 5:15 7:5
1:0 5:15 6:5 3:30 1:5 6:10 3:40 1:5 5:15 7:5 6:5
5:0 6:5 3:30 1:5 6:10 3:40 1:5 5:15 7:5 6:5 1:15
6:0 3:30 1:5 6:10 3:40 1:5 5:15 7:5 6:5 1:15 6:10
3:0 1:5 6:10 3:40 1:5 5:15 7:5 6:5 1:15 6:10 2:30
1:0 6:10 3:40 1:5 5:15 7:5 6:5 1:15 6:10 2:30 1:5
6:0 3:40 1:5 5:15 7:5 6:5 1:15 6:10 2:30 1:5 2:5
3:0 1:5 5:15 7:5 6:5 1:15 6:10 2:30 1:5 2:5 7:5
1:0 5:15 7:5 6:5 1:15 6:10 2:30 1:5 2:5 7:5 6:5
5:0 7:5 6:5 1:15 6:10 2:30 1:5 2:5 7:5 6:5 2:30
7:0 6:5 1:15 6:10 2:30 1:5 2:5 7:5 6:5 2:30 1:5
6:0 1:15 6:10 2:30 1:5 2:5 7:5 6:5 2:30 1:5 4:10
1:0 6:10 2:30 1:5 2:5 7:5 6:5 2:30 1:5 4:10 6:5
6:0 2:30 1:5 2:5 7:5 6:5 2:30 1:5 4:10 6:5 1:30
2:0 1:5 2:5 7:5 6:5 2:30 1:5 4:10 6:5 1:30 6:15
1:0 2:5 7:5 6:5 2:30 1:5 4:10 6:5 1:30 6:15 1:35
2:0 7:5 6:5 2:30 1:5 4:10 6:5 1:30 6:15 1:35 6:15
7:0 6:5 2:30 1:5 4:10 6:5 1:30 6:15 1:35 6:15 5:30
6:0 2:30 1:5 4:10 6:5 1:30 6:15 1:35 6:15 5:30 1:5
2:0 1:5 4:10 6:5 1:30 6:15 1:35 6:15 5:30 1:5 4:10
1:0 4:10 6:5 1:30 6:15 1:35 6:15 5:30 1:5 4:10 6:5
4:0 6:5 1:30 6:15 1:35 6:15 5:30 1:5 4:10 6:5 5:35
6:0 1:30 6:15 1:35 6:15 5:30 1:5 4:10 6:5 5:35 1:5
1:0 6:15 1:35 6:15 5:30 1:5 4:10 6:5 5:35 1:5 6:15
6:0 1:35 6:15 5:30 1:5 4:10 6:5 5:35 1:5 6:15 7:10
1:0 6:15 5:30 1:5 4:10 6:5 5:35 1:5 6:15 7:10 6:5
6:0 5:30 1:5 4:10 6:5 5:35 1:5 6:15 7:10 6:5 2:10
5:0 1:5 4:10 6:5 5:35 1:5 6:15 7:10 6:5 2:10 1:5
1:0 4:10 6:5 5:35 1:5 6:15 7:10 6:5 2:10 1:5 4:5
4:0 6:5 5:35 1:5 6:15 7:10 6:5 2:10 1:5 4:5 6:5
6:0 5:35 1:5 6:15 7:10 6:5 2:10 1:5 4:5 6:5 1:30
5:0 1:5 6:15 7:10 6:5 2:10 1:5 4:5 6:5 1:30 6:15
1:0 6:15 7:10 6:5 2:10 1:5 4:5 6:5 1:30 6:15 1:45
6:0 7:10 6:5 2:10 1:5 4:5 6:5 1:30 6:15 1:45 5:15
7:0 6:5 2:10 1:5 4:5 6:5 1:30 6:15 1:45 5:15 6:5
6:0 2:10 1:5 4:5 6:5 1:30 6:15 1:45 5:15 6:5 7:5
2:0 1:5 4:5 6:5 1:30 6:15 1:45 5:15 6:5 7:5 6:5
1:0 4:5 6:5 1:30 6:15 1:45 5:15 6:5 7:5 6:5 1:30
4:0 6:5 1:30 6:15 1:45 5:15 6:5 7:5 6:5 1:30 5:15
6:0 1:30 6:15 1:45 5:15 6:5 7:5 6:5 1:30 5:15 6:5
1:0 6:15 1:45 5:15 6:5 7:5 6:5 1:30 5:15 6:5 3:25
6:0 1:45 5:15 6:5 7:5 6:5 1:30 5:15 6:5 3:25 1:5
1:0 5:15 6:5 7:5 6:5 1:30 5:15 6:5 3:25 1:5 4:10
5:0 6:5 7:5 6:5 1:30 5:15 6:5 3:25 1:5 4:10 6:5
6:0 7:5 6:5 1:30 5:15 6:5 3:25 1:5 4:10 6:5 5:40
7:0 6:5 1:30 5:15 6:5 3:25 1:5 4:10 6:5 5:40 1:5
6:0 1:30 5:15 6:5 3:25 1:5 4:10 6:5 5:40 1:5 7:15
1:0 5:15 6:5 3:25 1:5 4:10 6:5 5:40 1:5 7:15 6:10
5:0 6:5 3:25 1:5 4:10 6:5 5:40 1:5 7:15 6:10 5:30
6:0 3:25 1:5 4:10 6:5 5:40 1:5 7:15 6:10 5:30 1:5
3:0 1:5 4:10 6:5 5:40 1:5 7:15 6:10 5:30 1:5 6:15
1:0 4:10 6:5 5:40 1:5 7:15 6:10 5:30 1:5 6:15 1:30
4:0 6:5 5:40 1:5 7:15 6:10 5:30 1:5 6:15 1:30 7:15
6:0 5:40 1:5 7:15 6:10 5:30 1:5 6:15 1:30 7:15 6:5
5:0 1:5 7:15 6:10 5:30 1:5 6:15 1:30 7:15 6:5 1:35
1:0 7:15 6:10 5:30 1:5 6:15 1:30 7:15 6:5 1:35 2:10
7:0 6:10 5:30 1:5 6:15 1:30 7:15 6:5 1:35 2:10 6:5
6:0 5:30 1:5 6:15 1:30 7:15 6:5 1:35 2:10 6:5 1:40
5:0 1:5 6:15 1:30 7:15 6:5 1:35 2:10 6:5 1:40 5:15
1:0 6:15 1:30 7:15 6:5 1:35 2:10 6:5 1:40 5:15 6:5
6:0 1:30 7:15 6:5 1:35 2:10 6:5 1:40 5:15 6:5 2:20
1:0 7:15 6:5 1:35 2:10 6:5 1:40 5:15 6:5 2:20 1:5
7:0 6:5 1:35 2:10 6:5 1:40 5:15 6:5 2:20 1:5 5:5
6:0 1:35 2:10 6:5 1:40 5:15 6:5 2:20 1:5 5:5 6:5
1:0 2:10 6:5 1:40 5:15 6:5 2:20 1:5 5:5 6:5 2:30
2:0 6:5 1:40 5:15 6:5 2:20 1:5 5:5 6:5 2:30 1:5
6:0 1:40 5:15 6:5 2:20 1:5 5:5 6:5 2:30 1:5 2:5
1:0 5:15 6:5 2:20 1:5 5:5 6:5 2:30 1:5 2:5 6:5
5:0 6:5 2:20 1:5 5:5 6:5 2:30 1:5 2:5 6:5 1:35
6:0 2:20 1:5 5:5 6:5 2:30 1:5 2:5 6:5 1:35 2:10
2:0 1:5 5:5 6:5 2:30 1:5 2:5 6:5 1:35 2:10 6:5
1:0 5:5 6:5 2:30 1:5 2:5 6:5 1:35 2:10 6:5 3:30
5:0 6:5 2:30 1:5 2:5 6:5 1:35 2:10 6:5 3:30 1:5
6:0 2:30 1:5 2:5 6:5 1:35 2:10 6:5 3:30 1:5 6:10
2:0 1:5 2:5 6:5 1:35 2:10 6:5 3:30 1:5 6:10 5:25
1:0 2:5 6:5 1:35 2:10 6:5 3:30 1:5 6:10 5:25 1:5
2:0 6:5 1:35 2:10 6:5 3:30 1:5 6:10 5:25 1:5 4:10
6:0 1:35 2:10 6:5 3:30 1:5 6:10 5:25 1:5 4:10 7:5
1:0 2:10 6:5 3:30 1:5 6:10 5:25 1:5 4:10 7:5 6:5
2:0 6:5 3:30 1:5 6:10 5:25 1:5 4:10 7:5 6:5 1:30
6:0 3:30 1:5 6:10 5:25 1:5 4:10 7:5 6:5 1:30 7:15
3:0 1:5 6:10 5:25 1:5 4:10 7:5 6:5 1:30 7:15 6:5
1:0 6:10 5:25 1:5 4:10 7:5 6:5 1:30 7:15 6:5 2:40
6:0 5:25 1:5 4:10 7:5 6:5 1:30 7:15 6:5 2:40 1:5
5:0 1:5 4:10 7:5 6:5 1:30 7:15 6:5 2:40 1:5 6:15
1:0 4:10 7:5 6:5 1:30 7:15 6:5 2:40 1:5 6:15 7:5
4:0 7:5 6:5 1:30 7:15 6:5 2:40 1:5 6:15 7:5 6:5
7:0 6:5 1:30 7:15 6:5 2:40 1:5 6:15 7:5 6:5 2:10
6:0 1:30 7:15 6:5 2:40 1:5 6:15 7:5 6:5 2:10 1:5
1:0 7:15 6:5 2:40 1:5 6:15 7:5 6:5 2:10 1:5 4:5
7:0 6:5 2:40 1:5 6:15 7:5 6:5 2:10 1:5 4:5 6:5
6:0 2:40 1:5 6:15 7:5 6:5 2:10 1:5 4:5 6:5 3:30
2:0 1:5 6:15 7:5 6:5 2:10 1:5 4:5 6:5 3:30 1:5
1:0 6:15 7:5 6:5 2:10 1:5 4:5 6:5 3:30 1:5 6:10
6:0 7:5 6:5 2:10 1:5 4:5 6:5 3:30 1:5 6:10 1:45
7:0 6:5 2:10 1:5 4:5 6:5 3:30 1:5 6:10 1:45 6:15
6:0 2:10 1:5 4:5 6:5 3:30 1:5 6:10 1:45 6:15 1:25
2:0 1:5 4:5 6:5 3:30 1:5 6:10 1:45 6:15 1:25 6:10
1:0 4:5 6:5 3:30 1:5 6:10 1:45 6:15 1:25 6:10 1:30
4:0 6:5 3:30 1:5 6:10 1:45 6:15 1:25 6:10 1:30 2:10
6:0 3:30 1:5 6:10 1:45 6:15 1:25 6:10 1:30 2:10 7:5
3:0 1:5 6:10 1:45 6:15 1:25 6:10 1:30 2:10 7:5 6:5
1:0 6:10 1:45 6:15 1:25 6:10 1:30 2:10 7:5 6:5 2:30
6:0 1:45 6:15 1:25 6:10 1:30 2:10 7:5 6:5 2:30 1:5
1:0 6:15 1:25 6:10 1:30 2:10 7:5 6:5 2:30 1:5 4:10
6:0 1:25 6:10 1:30 2:10 7:5 6:5 2:30 1:5 4:10 6:5
1:0 6:10 1:30 2:10 7:5 6:5 2:30 1:5 4:10 6:5 2:25
6:0 1:30 2:10 7:5 6:5 2:30 1:5 4:10 6:5 2:25 1:5
1:0 2:10 7:5 6:5 2:30 1:5 4:10 6:5 2:25 1:5 2:5
2:0 7:5 6:5 2:30 1:5 4:10 6:5 2:25 1:5 2:5 7:5
7:0 6:5 2:30 1:5 4:10 6:5 2:25 1:5 2:5 7:5 6:5
6:0 2:30 1:5 4:10 6:5 2:25 1:5 2:5 7:5 6:5 2:30
2:0 1:5 4:10 6:5 2:25 1:5 2:5 7:5 6:5 2:30 1:5
1:0 4:10 6:5 2:25 1:5 2:5 7:5 6:5 2:30 1:5 5:10
4:0 6:5 2:25 1:5 2:5 7:5 6:5 2:30 1:5 5:10 6:5
6:0 2:25 1:5 2:5 7:5 6:5 2:30 1:5 5:10 6:5 5:30
2:0 1:5 2:5 7:5 6:5 2:30 1:5 5:10 6:5 5:30 1:5
1:0 2:5 7:5 6:5 2:30 1:5 5:10 6:5 5:30 1:5 5:10
2:0 7:5 6:5 2:30 1:5 5:10 6:5 5:30 1:5 5:10 6:5
7:0 6:5 2:30 1:5 5:10 6:5 5:30 1:5 5:10 6:5 1:30
6:0 2:30 1:5 5:10 6:5 5:30 1:5 5:10 6:5 1:30 2:10
2:0 1:5 5:10 6:5 5:30 1:5 5:10 6:5 1:30 2:10 6:5
1:0 5:10 6:5 5:30 1:5 5:10 6:5 1:30 2:10 6:5 2:30
5:0 6:5 5:30 1:5 5:10 6:5 1:30 2:10 6:5 2:30 1:5
6:0 5:30 1:5 5:10 6:5 1:30 2:10 6:5 2:30 1:5 2:5
5:0 1:5 5:10 6:5 1:30 2:10 6:5 2:30 1:5 2:5 7:5
1:0 5:10 6:5 1:30 2:10 6:5 2:30 1:5 2:5 7:5 6:5
5:0 6:5 1:30 2:10 6:5 2:30 1:5 2:5 7:5 6:5 3:25
6:0 1:30 2:10 6:5 2:30 1:5 2:5 7:5 6:5 3:25 1:5
1:0 2:10 6:5 2:30 1:5 2:5 7:5 6:5 3:25 1:5 2:10
2:0 6:5 2:30 1:5 2:5 7:5 6:5 3:25 1:5 2:10 6:5
6:0 2:30 1:5 2:5 7:5 6:5 3:25 1:5 2:10 6:5 2:30
2:0 1:5 2:5 7:5 6:5 3:25 1:5 2:10 6:5 2:30 1:5
1:0 2:5 7:5 6:5 3:25 1:5 2:10 6:5 2:30 1:5 2:5
2:0 7:5 6:5 3:25 1:5 2:10 6:5 2:30 1:5 2:5 7:5
7:0 6:5 3:25 1:5 2:10 6:5 2:30 1:5 2:5 7:5 6:5
6:0 3:25 1:5 2:10 6:5 2:30 1:5 2:5 7:5 6:5 1:30
3:0 1:5 2:10 6:5 2:30 1:5 2:5 7:5 6:5 1:30 7:15
1:0 2:10 6:5 2:30 1:5 2:5 7:5 6:5 1:30 7:15 6:5
2:0 6:5 2:30 1:5 2:5 7:5 6:5 1:30 7:15 6:5 3:35
6:0 2:30 1:5 2:5 7:5 6:5 1:30 7:15 6:5 3:35 1:5
2:0 1:5 2:5 7:5 6:5 1:30 7:15 6:5 3:35 1:5 4:15
1:0 2:5 7:5 6:5 1:30 7:15 6:5 3:35 1:5 4:15 7:5
2:0 7:5 6:5 1:30 7:15 6:5 3:35 1:5 4:15 7:5 6:10
7:0 6:5 1:30 7:15 6:5 3:35 1:5 4:15 7:5 6:10 2:30
6:0 1:30 7:15 6:5 3:35 1:5 4:15 7:5 6:10 2:30 1:5
1:0 7:15 6:5 3:35 1:5 4:15 7:5 6:10 2:30 1:5 6:10
7:0 6:5 3:35 1:5 4:15 7:5 6:10 2:30 1:5 6:10 1:35
6:0 3:35 1:5 4:15 7:5 6:10 2:30 1:5 6:10 1:35 2:10
3:0 1:5 4:15 7:5 6:10 2:30 1:5 6:10 1:35 2:10 6:5
1:0 4:15 7:5 6:10 2:30 1:5 6:10 1:35 2:10 6:5 5:25
4:0 7:5 6:10 2:30 1:5 6:10 1:35 2:10 6:5 5:25 1:5
7:0 6:10 2:30 1:5 6:10 1:35 2:10 6:5 5:25 1:5 4:10
6:0 2:30 1:5 6:10 1:35 2:10 6:5 5:25 1:5 4:10 7:5
2:0 1:5 6:10 1:35 2:10 6:5 5:25 1:5 4:10 7:5 6:5
1:0 6:10 1:35 2:10 6:5 5:25 1:5 4:10 7:5 6:5 1:10
6:0 1:35 2:10 6:5 5:25 1:5 4:10 7:5 6:5 1:10 7:10
1:0 2:10 6:5 5:25 1:5 4:10 7:5 6:5 1:10 7:10 6:5
2:0 6:5 5:25 1:5 4:10 7:5 6:5 1:10 7:10 6:5 1:35
6:0 5:25 1:5 4:10 7:5 6:5 1:10 7:10 6:5 1:35 4:15
5:0 1:5 4:10 7:5 6:5 1:10 7:10 6:5 1:35 4:15 7:5
1:0 4:10 7:5 6:5 1:10 7:10 6:5 1:35 4:15 7:5 6:5
4:0 7:5 6:5 1:10 7:10 6:5 1:35 4:15 7:5 6:5 7:5
7:0 6:5 1:10 7:10 6:5 1:35 4:15 7:5 6:5 7:5 6:5
6:0 1:10 7:10 6:5 1:35 4:15 7:5 6:5 7:5 6:5 2:10
1:0 7:10 6:5 1:35 4:15 7:5 6:5 7:5 6:5 2:10 1:5
7:0 6:5 1:35 4:15 7:5 6:5 7:5 6:5 2:10 1:5 5:5
6:0 1:35 4:15 7:5 6:5 7:5 6:5 2:10 1:5 5:5 6:5
1:0 4:15 7:5 6:5 7:5 6:5 2:10 1:5 5:5 6:5 1:30
4:0 7:5 6:5 7:5 6:5 2:10 1:5 5:5 6:5 1:30 6:15
7:0 6:5 7:5 6:5 2:10 1:5 5:5 6:5 1:30 6:15 3:35
6:0 7:5 6:5 2:10 1:5 5:5 6:5 1:30 6:15 3:35 1:5
7:0 6:5 2:10 1:5 5:5 6:5 1:30 6:15 3:35 1:5 6:10
6:0 2:10 1:5 5:5 6:5 1:30 6:15 3:35 1:5 6:10 2:30
2:0 1:5 5:5 6:5 1:30 6:15 3:35 1:5 6:10 2:30 1:5
1:0 5:5 6:5 1:30 6:15 3:35 1:5 6:10 2:30 1:5 5:10
5:0 6:5 1:30 6:15 3:35 1:5 6:10 2:30 1:5 5:10 6:5
6:0 1:30 6:15 3:35 1:5 6:10 2:30 1:5 5:10 6:5 1:40
1:0 6:15 3:35 1:5 6:10 2:30 1:5 5:10 6:5 1:40 4:15
6:0 3:35 1:5 6:10 2:30 1:5 5:10 6:5 1:40 4:15 6:5
3:0 1:5 6:10 2:30 1:5 5:10 6:5 1:40 4:15 6:5 7:5
1:0 6:10 2:30 1:5 5:10 6:5 1:40 4:15 6:5 7:5 6:5
6:0 2:30 1:5 5:10 6:5 1:40 4:15 6:5 7:5 6:5 1:10
2:0 1:5 5:10 6:5 1:40 4:15 6:5 7:5 6:5 1:10 7:10
1:0 5:10 6:5 1:40 4:15 6:5 7:5 6:5 1:10 7:10 6:5
5:0 6:5 1:40 4:15 6:5 7:5 6:5 1:10 7:10 6:5 1:40
6:0 1:40 4:15 6:5 7:5 6:5 1:10 7:10 6:5 1:40 4:15
1:0 4:15 6:5 7:5 6:5 1:10 7:10 6:5 1:40 4:15 6:5
4:0 6:5 7:5 6:5 1:10 7:10 6:5 1:40 4:15 6:5 7:5
6:0 7:5 6:5 1:10 7:10 6:5 1:40 4:15 6:5 7:5 6:5
7:0 6:5 1:10 7:10 6:5 1:40 4:15 6:5 7:5 6:5 3:30
6:0 1:10 7:10 6:5 1:40 4:15 6:5 7:5 6:5 3:30 1:5
1:0 7:10 6:5 1:40 4:15 6:5 7:5 6:5 3:30 1:5 2:10
7:0 6:5 1:40 4:15 6:5 7:5 6:5 3:30 1:5 2:10 6:5
6:0 1:40 4:15 6:5 7:5 6:5 3:30 1:5 2:10 6:5 1:30
1:0 4:15 6:5 7:5 6:5 3:30 1:5 2:10 6:5 1:30 7:15
4:0 6:5 7:5 6:5 3:30 1:5 2:10 6:5 1:30 7:15 6:5
6:0 7:5 6:5 3:30 1:5 2:10 6:5 1:30 7:15 6:5 3:35
7:0 6:5 3:30 1:5 2:10 6:5 1:30 7:15 6:5 3:35 1:5
6:0 3:30 1:5 2:10 6:5 1:30 7:15 6:5 3:35 1:5 5:15
3:0 1:5 2:10 6:5 1:30 7:15 6:5 3:35 1:5 5:15 6:5
1:0 2:10 6:5 1:30 7:15 6:5 3:35 1:5 5:15 6:5 7:5
2:0 6:5 1:30 7:15 6:5 3:35 1:5 5:15 6:5 7:5 6:5
6:0 1:30 7:15 6:5 3:35 1:5 5:15 6:5 7:5 6:5 1:10
1:0 7:15 6:5 3:35 1:5 5:15 6:5 7:5 6:5 1:10 4:10
7:0 6:5 3:35 1:5 5:15 6:5 7:5 6:5 1:10 4:10 6:5
6:0 3:35 1:5 5:15 6:5 7:5 6:5 1:10 4:10 6:5 3:30
3:0 1:5 5:15 6:5 7:5 6:5 1:10 4:10 6:5 3:30 1:5
1:0 5:15 6:5 7:5 6:5 1:10 4:10 6:5 3:30 1:5 6:10
5:0 6:5 7:5 6:5 1:10 4:10 6:5 3:30 1:5 6:10 5:30
6:0 7:5 6:5 1:10 4:10 6:5 3:30 1:5 6:10 5:30 1:5
7:0 6:5 1:10 4:10 6:5 3:30 1:5 6:10 5:30 1:5 4:10
6:0 1:10 4:10 6:5 3:30 1:5 6:10 5:30 1:5 4:10 6:5
1:0 4:10 6:5 3:30 1:5 6:10 5:30 1:5 4:10 6:5 1:40
4:0 6:5 3:30 1:5 6:10 5:30 1:5 4:10 6:5 1:40 5:15
6:0 3:30 1:5 6:10 5:30 1:5 4:10 6:5 1:40 5:15 6:5
3:0 1:5 6:10 5:30 1:5 4:10 6:5 1:40 5:15 6:5 7:5
1:0 6:10 5:30 1:5 4:10 6:5 1:40 5:15 6:5 7:5 6:5
6:0 5:30 1:5 4:10 6:5 1:40 5:15 6:5 7:5 6:5 5:10
5:0 1:5 4:10 6:5 1:40 5:15 6:5 7:5 6:5 5:10 1:5
1:0 4:10 6:5 1:40 5:15 6:5 7:5 6:5 5:10 1:5 6:10
4:0 6:5 1:40 5:15 6:5 7:5 6:5 5:10 1:5 6:10 1:30
6:0 1:40 5:15 6:5 7:5 6:5 5:10 1:5 6:10 1:30 7:15
1:0 5:15 6:5 7:5 6:5 5:10 1:5 6:10 1:30 7:15 6:5
5:0 6:5 7:5 6:5 5:10 1:5 6:10 1:30 7:15 6:5 1:40
6:0 7:5 6:5 5:10 1:5 6:10 1:30 7:15 6:5 1:40 4:15
7:0 6:5 5:10 1:5 6:10 1:30 7:15 6:5 1:40 4:15 6:5
6:0 5:10 1:5 6:10 1:30 7:15 6:5 1:40 4:15 6:5 7:5
5:0 1:5 6:10 1:30 7:15 6:5 1:40 4:15 6:5 7:5 6:5
1:0 6:10 1:30 7:15 6:5 1:40 4:15 6:5 7:5 6:5 1:30
6:0 1:30 7:15 6:5 1:40 4:15 6:5 7:5 6:5 1:30 4:15
1:0 7:15 6:5 1:40 4:15 6:5 7:5 6:5 1:30 4:15 6:5
7:0 6:5 1:40 4:15 6:5 7:5 6:5 1:30 4:15 6:5 2:25
6:0 1:40 4:15 6:5 7:5 6:5 1:30 4:15 6:5 2:25 1:5
1:0 4:15 6:5 7:5 6:5 1:30 4:15 6:5 2:25 1:5 7:10
4:0 6:5 7:5 6:5 1:30 4:15 6:5 2:25 1:5 7:10 6:5
6:0 7:5 6:5 1:30 4:15 6:5 2:25 1:5 7:10 6:5 3:30
7:0 6:5 1:30 4:15 6:5 2:25 1:5 7:10 6:5 3:30 1:5
6:0 1:30 4:15 6:5 2:25 1:5 7:10 6:5 3:30 1:5 4:10
1:0 4:15 6:5 2:25 1:5 7:10 6:5 3:30 1:5 4:10 6:5
4:0 6:5 2:25 1:5 7:10 6:5 3:30 1:5 4:10 6:5 1:30
6:0 2:25 1:5 7:10 6:5 3:30 1:5 4:10 6:5 1:30 2:10
2:0 1:5 7:10 6:5 3:30 1:5 4:10 6:5 1:30 2:10 6:5
1:0 7:10 6:5 3:30 1:5 4:10 6:5 1:30 2:10 6:5 3:30
7:0 6:5 3:30 1:5 4:10 6:5 1:30 2:10 6:5 3:30 1:5
6:0 3:30 1:5 4:10 6:5 1:30 2:10 6:5 3:30 1:5 2:10
3:0 1:5 4:10 6:5 1:30 2:10 6:5 3:30 1:5 2:10 6:5
1:0 4:10 6:5 1:30 2:10 6:5 3:30 1:5 2:10 6:5 1:35
4:0 6:5 1:30 2:10 6:5 3:30 1:5 2:10 6:5 1:35 4:10
6:0 1:30 2:10 6:5 3:30 1:5 2:10 6:5 1:35 4:10 6:5
1:0 2:10 6:5 3:30 1:5 2:10 6:5 1:35 4:10 6:5 1:30
2:0 6:5 3:30 1:5 2:10 6:5 1:35 4:10 6:5 1:30 6:15
6:0 3:30 1:5 2:10 6:5 1:35 4:10 6:5 1:30 6:15 1:40
3:0 1:5 2:10 6:5 1:35 4:10 6:5 1:30 6:15 1:40 4:15
1:0 2:10 6:5 1:35 4:10 6:5 1:30 6:15 1:40 4:15 6:5
2:0 6:5 1:35 4:10 6:5 1:30 6:15 1:40 4:15 6:5 2:20
6:0 1:35 4:10 6:5 1:30 6:15 1:40 4:15 6:5 2:20 1:5
1:0 4:10 6:5 1:30 6:15 1:40 4:15 6:5 2:20 1:5 2:5
4:0 6:5 1:30 6:15 1:40 4:15 6:5 2:20 1:5 2:5 7:5
6:0 1:30 6:15 1:40 4:15 6:5 2:20 1:5 2:5 7:5 6:5
1:0 6:15 1:40 4:15 6:5 2:20 1:5 2:5 7:5 6:5 1:25
6:0 1:40 4:15 6:5 2:20 1:5 2:5 7:5 6:5 1:25 4:10
1:0 4:15 6:5 2:20 1:5 2:5 7:5 6:5 1:25 4:10 7:5
4:0 6:5 2:20 1:5 2:5 7:5 6:5 1:25 4:10 7:5 6:5
6:0 2:20 1:5 2:5 7:5 6:5 1:25 4:10 7:5 6:5 3:30
2:0 1:5 2:5 7:5 6:5 1:25 4:10 7:5 6:5 3:30 1:5
1:0 2:5 7:5 6:5 1:25 4:10 7:5 6:5 3:30 1:5 5:10
2:0 7:5 6:5 1:25 4:10 7:5 6:5 3:30 1:5 5:10 6:5
7:0 6:5 1:25 4:10 7:5 6:5 3:30 1:5 5:10 6:5 1:40
6:0 1:25 4:10 7:5 6:5 3:30 1:5 5:10 6:5 1:40 7:20
1:0 4:10 7:5 6:5 3:30 1:5 5:10 6:5 1:40 7:20 6:10
4:0 7:5 6:5 3:30 1:5 5:10 6:5 1:40 7:20 6:10 2:30
7:0 6:5 3:30 1:5 5:10 6:5 1:40 7:20 6:10 2:30 1:5
6:0 3:30 1:5 5:10 6:5 1:40 7:20 6:10 2:30 1:5 5:10
3:0 1:5 5:10 6:5 1:40 7:20 6:10 2:30 1:5 5:10 6:5
1:0 5:10 6:5 1:40 7:20 6:10 2:30 1:5 5:10 6:5 1:30
5:0 6:5 1:40 7:20 6:10 2:30 1:5 5:10 6:5 1:30 6:15
6:0 1:40 7:20 6:10 2:30 1:5 5:10 6:5 1:30 6:15 1:35
1:0 7:20 6:10 2:30 1:5 5:10 6:5 1:30 6:15 1:35 2:10
7:0 6:10 2:30 1:5 5:10 6:5 1:30 6:15 1:35 2:10 6:5
6:0 2:30 1:5 5:10 6:5 1:30 6:15 1:35 2:10 6:5 5:30
2:0 1:5 5:10 6:5 1:30 6:15 1:35 2:10 6:5 5:30 1:5
1:0 5:10 6:5 1:30 6:15 1:35 2:10 6:5 5:30 1:5 5:10
5:0 6:5 1:30 6:15 1:35 2:10 6:5 5:30 1:5 5:10 6:5
6:0 1:30 6:15 1:35 2:10 6:5 5:30 1:5 5:10 6:5 2:25
1:0 6:15 1:35 2:10 6:5 5:30 1:5 5:10 6:5 2:25 1:5
6:0 1:35 2:10 6:5 5:30 1:5 5:10 6:5 2:25 1:5 2:5
1:0 2:10 6:5 5:30 1:5 5:10 6:5 2:25 1:5 2:5 6:5
2:0 6:5 5:30 1:5 5:10 6:5 2:25 1:5 2:5 6:5 2:15
6:0 5:30 1:5 5:10 6:5 2:25 1:5 2:5 6:5 2:15 1:5
5:0 1:5 5:10 6:5 2:25 1:5 2:5 6:5 2:15 1:5 4:5
1:0 5:10 6:5 2:25 1:5 2:5 6:5 2:15 1:5 4:5 6:5
5:0 6:5 2:25 1:5 2:5 6:5 2:15 1:5 4:5 6:5 1:40
6:0 2:25 1:5 2:5 6:5 2:15 1:5 4:5 6:5 1:40 7:20
2:0 1:5 2:5 6:5 2:15 1:5 4:5 6:5 1:40 7:20 6:10
1:0 2:5 6:5 2:15 1:5 4:5 6:5 1:40 7:20 6:10 5:30
2:0 6:5 2:15 1:5 4:5 6:5 1:40 7:20 6:10 5:30 1:5
6:0 2:15 1:5 4:5 6:5 1:40 7:20 6:10 5:30 1:5 2:10
2:0 1:5 4:5 6:5 1:40 7:20 6:10 5:30 1:5 2:10 6:5
1:0 4:5 6:5 1:40 7:20 6:10 5:30 1:5 2:10 6:5 5:25
4:0 6:5 1:40 7:20 6:10 5:30 1:5 2:10 6:5 5:25 1:5
6:0 1:40 7:20 6:10 5:30 1:5 2:10 6:5 5:25 1:5 7:10
1:0 7:20 6:10 5:30 1:5 2:10 6:5 5:25 1:5 7:10 6:5
7:0 6:10 5:30 1:5 2:10 6:5 5:25 1:5 7:10 6:5 3:30
6:0 5:30 1:5 2:10 6:5 5:25 1:5 7:10 6:5 3:30 1:5
5:0 1:5 2:10 6:5 5:25 1:5 7:10 6:5 3:30 1:5 2:10
1:0 2:10 6:5 5:25 1:5 7:10 6:5 3:30 1:5 2:10 6:5
2:0 6:5 5:25 1:5 7:10 6:5 3:30 1:5 2:10 6:5 1:35
6:0 5:25 1:5 7:10 6:5 3:30 1:5 2:10 6:5 1:35 4:10
5:0 1:5 7:10 6:5 3:30 1:5 2:10 6:5 1:35 4:10 6:5
1:0 7:10 6:5 3:30 1:5 2:10 6:5 1:35 4:10 6:5 5:35
7:0 6:5 3:30 1:5 2:10 6:5 1:35 4:10 6:5 5:35 1:5
6:0 3:30 1:5 2:10 6:5 1:35 4:10 6:5 5:35 1:5 5:15
3:0 1:5 2:10 6:5 1:35 4:10 6:5 5:35 1:5 5:15 7:5
1:0 2:10 6:5 1:35 4:10 6:5 5:35 1:5 5:15 7:5 6:10
2:0 6:5 1:35 4:10 6:5 5:35 1:5 5:15 7:5 6:10 1:30
6:0 1:35 4:10 6:5 5:35 1:5 5:15 7:5 6:10 1:30 5:15
1:0 4:10 6:5 5:35 1:5 5:15 7:5 6:10 1:30 5:15 6:5
4:0 6:5 5:35 1:5 5:15 7:5 6:10 1:30 5:15 6:5 3:30
6:0 5:35 1:5 5:15 7:5 6:10 1:30 5:15 6:5 3:30 1:5
5:0 1:5 5:15 7:5 6:10 1:30 5:15 6:5 3:30 1:5 5:10
1:0 5:15 7:5 6:10 1:30 5:15 6:5 3:30 1:5 5:10 6:5
5:0 7:5 6:10 1:30 5:15 6:5 3:30 1:5 5:10 6:5 1:25
7:0 6:10 1:30 5:15 6:5 3:30 1:5 5:10 6:5 1:25 4:10
6:0 1:30 5:15 6:5 3:30 1:5 5:10 6:5 1:25 4:10 7:5
1:0 5:15 6:5 3:30 1:5 5:10 6:5 1:25 4:10 7:5 6:5
5:0 6:5 3:30 1:5 5:10 6:5 1:25 4:10 7:5 6:5 1:30
6:0 3:30 1:5 5:10 6:5 1:25 4:10 7:5 6:5 1:30 7:15
3:0 1:5 5:10 6:5 1:25 4:10 7:5 6:5 1:30 7:15 6:5
1:0 5:10 6:5 1:25 4:10 7:5 6:5 1:30 7:15 6:5 2:25
5:0 6:5 1:25 4:10 7:5 6:5 1:30 7:15 6:5 2:25 1:5
6:0 1:25 4:10 7:5 6:5 1:30 7:15 6:5 2:25 1:5 2:5
1:0 4:10 7:5 6:5 1:30 7:15 6:5 2:25 1:5 2:5 7:5
4:0 7:5 6:5 1:30 7:15 6:5 2:25 1:5 2:5 7:5 6:5
7:0 6:5 1:30 7:15 6:5 2:25 1:5 2:5 7:5 6:5 1:30
6:0 1:30 7:15 6:5 2:25 1:5 2:5 7:5 6:5 1:30 4:15
1:0 7:15 6:5 2:25 1:5 2:5 7:5 6:5 1:30 4:15 6:5
7:0 6:5 2:25 1:5 2:5 7:5 6:5 1:30 4:15 6:5 2:30
6:0 2:25 1:5 2:5 7:5 6:5 1:30 4:15 6:5 2:30 1:5
2:0 1:5 2:5 7:5 6:5 1:30 4:15 6:5 2:30 1:5 7:10
1:0 2:5 7:5 6:5 1:30 4:15 6:5 2:30 1:5 7:10 6:5
2:0 7:5 6:5 1:30 4:15 6:5 2:30 1:5 7:10 6:5 2:30
7:0 6:5 1:30 4:15 6:5 2:30 1:5 7:10 6:5 2:30 1:5
6:0 1:30 4:15 6:5 2:30 1:5 7:10 6:5 2:30 1:5 5:10
1:0 4:15 6:5 2:30 1:5 7:10 6:5 2:30 1:5 5:10 6:5
4:0 6:5 2:30 1:5 7:10 6:5 2:30 1:5 5:10 6:5 3:25
6:0 2:30 1:5 7:10 6:5 2:30 1:5 5:10 6:5 3:25 1:5
2:0 1:5 7:10 6:5 2:30 1:5 5:10 6:5 3:25 1:5 4:10
1:0 7:10 6:5 2:30 1:5 5:10 6:5 3:25 1:5 4:10 6:5
7:0 6:5 2:30 1:5 5:10 6:5 3:25 1:5 4:10 6:5 2:40
6:0 2:30 1:5 5:10 6:5 3:25 1:5 4:10 6:5 2:40 1:5
2:0 1:5 5:10 6:5 3:25 1:5 4:10 6:5 2:40 1:5 6:15
1:0 5:10 6:5 3:25 1:5 4:10 6:5 2:40 1:5 6:15 7:5
5:0 6:5 3:25 1:5 4:10 6:5 2:40 1:5 6:15 7:5 6:5
6:0 3:25 1:5 4:10 6:5 2:40 1:5 6:15 7:5 6:5 3:10
3:0 1:5 4:10 6:5 2:40 1:5 6:15 7:5 6:5 3:10 1:5
1:0 4:10 6:5 2:40 1:5 6:15 7:5 6:5 3:10 1:5 2:5
4:0 6:5 2:40 1:5 6:15 7:5 6:5 3:10 1:5 2:5 6:5
6:0 2:40 1:5 6:15 7:5 6:5 3:10 1:5 2:5 6:5 1:30
2:0 1:5 6:15 7:5 6:5 3:10 1:5 2:5 6:5 1:30 6:15
1:0 6:15 7:5 6:5 3:10 1:5 2:5 6:5 1:30 6:15 5:40
6:0 7:5 6:5 3:10 1:5 2:5 6:5 1:30 6:15 5:40 1:5
7:0 6:5 3:10 1:5 2:5 6:5 1:30 6:15 5:40 1:5 5:15
6:0 3:10 1:5 2:5 6:5 1:30 6:15 5:40 1:5 5:15 7:5
3:0 1:5 2:5 6:5 1:30 6:15 5:40 1:5 5:15 7:5 6:10
1:0 2:5 6:5 1:30 6:15 5:40 1:5 5:15 7:5 6:10 5:25
2:0 6:5 1:30 6:15 5:40 1:5 5:15 7:5 6:10 5:25 1:5
6:0 1:30 6:15 5:40 1:5 5:15 7:5 6:10 5:25 1:5 6:15
1:0 6:15 5:40 1:5 5:15 7:5 6:10 5:25 1:5 6:15 3:30
6:0 5:40 1:5 5:15 7:5 6:10 5:25 1:5 6:15 3:30 1:5
5:0 1:5 5:15 7:5 6:10 5:25 1:5 6:15 3:30 1:5 7:10
1:0 5:15 7:5 6:10 5:25 1:5 6:15 3:30 1:5 7:10 6:5
5:0 7:5 6:10 5:25 1:5 6:15 3:30 1:5 7:10 6:5 1:30
7:0 6:10 5:25 1:5 6:15 3:30 1:5 7:10 6:5 1:30 7:15
6:0 5:25 1:5 6:15 3:30 1:5 7:10 6:5 1:30 7:15 6:5
5:0 1:5 6:15 3:30 1:5 7:10 6:5 1:30 7:15 6:5 1:40
1:0 6:15 3:30 1:5 7:10 6:5 1:30 7:15 6:5 1:40 4:15
6:0 3:30 1:5 7:10 6:5 1:30 7:15 6:5 1:40 4:15 6:5
3:0 1:5 7:10 6:5 1:30 7:15 6:5 1:40 4:15 6:5 3:20
1:0 7:10 6:5 1:30 7:15 6:5 1:40 4:15 6:5 3:20 1:5
7:0 6:5 1:30 7:15 6:5 1:40 4:15 6:5 3:20 1:5 2:5
6:0 1:30 7:15 6:5 1:40 4:15 6:5 3:20 1:5 2:5 6:5
1:0 7:15 6:5 1:40 4:15 6:5 3:20 1:5 2:5 6:5 1:35
7:0 6:5 1:40 4:15 6:5 3:20 1:5 2:5 6:5 1:35 4:10
6:0 1:40 4:15 6:5 3:20 1:5 2:5 6:5 1:35 4:10 6:5
1:0 4:15 6:5 3:20 1:5 2:5 6:5 1:35 4:10 6:5 2:40
4:0 6:5 3:20 1:5 2:5 6:5 1:35 4:10 6:5 2:40 1:5
6:0 3:20 1:5 2:5 6:5 1:35 4:10 6:5 2:40 1:5 5:10
3:0 1:5 2:5 6:5 1:35 4:10 6:5 2:40 1:5 5:10 6:5
1:0 2:5 6:5 1:35 4:10 6:5 2:40 1:5 5:10 6:5 7:5
2:0 6:5 1:35 4:10 6:5 2:40 1:5 5:10 6:5 7:5 6:5
6:0 1:35 4:10 6:5 2:40 1:5 5:10 6:5 7:5 6:5 1:30
1:0 4:10 6:5 2:40 1:5 5:10 6:5 7:5 6:5 1:30 5:15
4:0 6:5 2:40 1:5 5:10 6:5 7:5 6:5 1:30 5:15 6:5
6:0 2:40 1:5 5:10 6:5 7:5 6:5 1:30 5:15 6:5 1:30
2:0 1:5 5:10 6:5 7:5 6:5 1:30 5:15 6:5 1:30 6:15
1:0 5:10 6:5 7:5 6:5 1:30 5:15 6:5 1:30 6:15 2:30
5:0 6:5 7:5 6:5 1:30 5:15 6:5 1:30 6:15 2:30 1:5
6:0 7:5 6:5 1:30 5:15 6:5 1:30 6:15 2:30 1:5 5:10
7:0 6:5 1:30 5:15 6:5 1:30 6:15 2:30 1:5 5:10 6:5
6:0 1:30 5:15 6:5 1:30 6:15 2:30 1:5 5:10 6:5 2:30
1:0 5:15 6:5 1:30 6:15 2:30 1:5 5:10 6:5 2:30 1:5
5:0 6:5 1:30 6:15 2:30 1:5 5:10 6:5 2:30 1:5 6:10
6:0 1:30 6:15 2:30 1:5 5:10 6:5 2:30 1:5 6:10 1:30
1:0 6:15 2:30 1:5 5:10 6:5 2:30 1:5 6:10 1:30 4:10
6:0 2:30 1:5 5:10 6:5 2:30 1:5 6:10 1:30 4:10 7:5
2:0 1:5 5:10 6:5 2:30 1:5 6:10 1:30 4:10 7:5 6:5
1:0 5:10 6:5 2:30 1:5 6:10 1:30 4:10 7:5 6:5 1:30
5:0 6:5 2:30 1:5 6:10 1:30 4:10 7:5 6:5 1:30 7:15
6:0 2:30 1:5 6:10 1:30 4:10 7:5 6:5 1:30 7:15 6:5
2:0 1:5 6:10 1:30 4:10 7:5 6:5 1:30 7:15 6:5 1:30
1:0 6:10 1:30 4:10 7:5 6:5 1:30 7:15 6:5 1:30 6:15
6:0 1:30 4:10 7:5 6:5 1:30 7:15 6:5 1:30 6:15 1:35
1:0 4:10 7:5 6:5 1:30 7:15 6:5 1:30 6:15 1:35 4:10
4:0 7:5 6:5 1:30 7:15 6:5 1:30 6:15 1:35 4:10 6:5
7:0 6:5 1:30 7:15 6:5 1:30 6:15 1:35 4:10 6:5 2:30
6:0 1:30 7:15 6:5 1:30 6:15 1:35 4:10 6:5 2:30 1:5
1:0 7:15 6:5 1:30 6:15 1:35 4:10 6:5 2:30 1:5 6:10
7:0 6:5 1:30 6:15 1:35 4:10 6:5 2:30 1:5 6:10 1:40
6:0 1:30 6:15 1:35 4:10 6:5 2:30 1:5 6:10 1:40 7:20
1:0 6:15 1:35 4:10 6:5 2:30 1:5 6:10 1:40 7:20 6:15
6:0 1:35 4:10 6:5 2:30 1:5 6:10 1:40 7:20 6:15 1:30
1:0 4:10 6:5 2:30 1:5 6:10 1:40 7:20 6:15 1:30 6:15
4:0 6:5 2:30 1:5 6:10 1:40 7:20 6:15 1:30 6:15 1:35
6:0 2:30 1:5 6:10 1:40 7:20 6:15 1:30 6:15 1:35 2:10
2:0 1:5 6:10 1:40 7:20 6:15 1:30 6:15 1:35 2:10 6:5
1:0 6:10 1:40 7:20 6:15 1:30 6:15 1:35 2:10 6:5 1:30
6:0 1:40 7:20 6:15 1:30 6:15 1:35 2:10 6:5 1:30 6:15
1:0 7:20 6:15 1:30 6:15 1:35 2:10 6:5 1:30 6:15 2:45
7:0 6:15 1:30 6:15 1:35 2:10 6:5 1:30 6:15 2:45 1:5
6:0 1:30 6:15 1:35 2:10 6:5 1:30 6:15 2:45 1:5 4:10
1:0 6:15 1:35 2:10 6:5 1:30 6:15 2:45 1:5 4:10 6:5
6:0 1:35 2:10 6:5 1:30 6:15 2:45 1:5 4:10 6:5 5:15
1:0 2:10 6:5 1:30 6:15 2:45 1:5 4:10 6:5 5:15 1:5
2:0 6:5 1:30 6:15 2:45 1:5 4:10 6:5 5:15 1:5 7:10
6:0 1:30 6:15 2:45 1:5 4:10 6:5 5:15 1:5 7:10 6:5
1:0 6:15 2:45 1:5 4:10 6:5 5:15 1:5 7:10 6:5 1:45
6:0 2:45 1:5 4:10 6:5 5:15 1:5 7:10 6:5 1:45 6:15
2:0 1:5 4:10 6:5 5:15 1:5 7:10 6:5 1:45 6:15 7:5
1:0 4:10 6:5 5:15 1:5 7:10 6:5 1:45 6:15 7:5 6:5
4:0 6:5 5:15 1:5 7:10 6:5 1:45 6:15 7:5 6:5 1:30
6:0 5:15 1:5 7:10 6:5 1:45 6:15 7:5 6:5 1:30 5:15
5:0 1:5 7:10 6:5 1:45 6:15 7:5 6:5 1:30 5:15 6:5
1:0 7:10 6:5 1:45 6:15 7:5 6:5 1:30 5:15 6:5 3:25
7:0 6:5 1:45 6:15 7:5 6:5 1:30 5:15 6:5 3:25 1:5
6:0 1:45 6:15 7:5 6:5 1:30 5:15 6:5 3:25 1:5 7:10
1:0 6:15 7:5 6:5 1:30 5:15 6:5 3:25 1:5 7:10 6:5
6:0 7:5 6:5 1:30 5:15 6:5 3:25 1:5 7:10 6:5 2:30
7:0 6:5 1:30 5:15 6:5 3:25 1:5 7:10 6:5 2:30 1:5
6:0 1:30 5:15 6:5 3:25 1:5 7:10 6:5 2:30 1:5 4:10
1:0 5:15 6:5 3:25 1:5 7:10 6:5 2:30 1:5 4:10 6:5
5:0 6:5 3:25 1:5 7:10 6:5 2:30 1:5 4:10 6:5 3:25
6:0 3:25 1:5 7:10 6:5 2:30 1:5 4:10 6:5 3:25 1:5
3:0 1:5 7:10 6:5 2:30 1:5 4:10 6:5 3:25 1:5 2:5
1:0 7:10 6:5 2:30 1:5 4:10 6:5 3:25 1:5 2:5 7:5
7:0 6:5 2:30 1:5 4:10 6:5 3:25 1:5 2:5 7:5 6:5
6:0 2:30 1:5 4:10 6:5 3:25 1:5 2:5 7:5 6:5 3:30
2:0 1:5 4:10 6:5 3:25 1:5 2:5 7:5 6:5 3:30 1:5
1:0 4:10 6:5 3:25 1:5 2:5 7:5 6:5 3:30 1:5 2:10
4:0 6:5 3:25 1:5 2:5 7:5 6:5 3:30 1:5 2:10 6:5
6:0 3:25 1:5 2:5 7:5 6:5 3:30 1:5 2:10 6:5 1:35
3:0 1:5 2:5 7:5 6:5 3:30 1:5 2:10 6:5 1:35 4:10
1:0 2:5 7:5 6:5 3:30 1:5 2:10 6:5 1:35 4:10 6:5
2:0 7:5 6:5 3:30 1:5 2:10 6:5 1:35 4:10 6:5 1:30
7:0 6:5 3:30 1:5 2:10 6:5 1:35 4:10 6:5 1:30 6:15
6:0 3:30 1:5 2:10 6:5 1:35 4:10 6:5 1:30 6:15 1:40
3:0 1:5 2:10 6:5 1:35 4:10 6:5 1:30 6:15 1:40 4:15
1:0 2:10 6:5 1:35 4:10 6:5 1:30 6:15 1:40 4:15 7:5
2:0 6:5 1:35 4:10 6:5 1:30 6:15 1:40 4:15 7:5 6:5
6:0 1:35 4:10 6:5 1:30 6:15 1:40 4:15 7:5 6:5 5:15
1:0 4:10 6:5 1:30 6:15 1:40 4:15 7:5 6:5 5:15 1:5
4:0 6:5 1:30 6:15 1:40 4:15 7:5 6:5 5:15 1:5 7:10
6:0 1:30 6:15 1:40 4:15 7:5 6:5 5:15 1:5 7:10 6:5
1:0 6:15 1:40 4:15 7:5 6:5 5:15 1:5 7:10 6:5 1:40
6:0 1:40 4:15 7:5 6:5 5:15 1:5 7:10 6:5 1:40 5:15
1:0 4:15 7:5 6:5 5:15 1:5 7:10 6:5 1:40 5:15 6:5
4:0 7:5 6:5 5:15 1:5 7:10 6:5 1:40 5:15 6:5 1:20
7:0 6:5 5:15 1:5 7:10 6:5 1:40 5:15 6:5 1:20 5:10
6:0 5:15 1:5 7:10 6:5 1:40 5:15 6:5 1:20 5:10 6:5
5:0 1:5 7:10 6:5 1:40 5:15 6:5 1:20 5:10 6:5 1:40
1:0 7:10 6:5 1:40 5:15 6:5 1:20 5:10 6:5 1:40 7:20
7:0 6:5 1:40 5:15 6:5 1:20 5:10 6:5 1:40 7:20 6:10
6:0 1:40 5:15 6:5 1:20 5:10 6:5 1:40 7:20 6:10
1:0 5:15 6:5 1:20 5:10 6:5 1:40 7:20 6:10
5:0 6:5 1:20 5:10 6:5 1:40 7:20 6:10
6:0 1:20 5:10 6:5 1:40 7:20 6:10
1:0 5:10 6:5 1:40 7:20 6:10
5:0 6:5 1:40 7:20 6:10
6:0 1:40 7:20 6:10
1:0 7:20 6:10
7:0 6:10
6:0