3:0 2:5 4:5 2:5 4:5 2:5 4:5 2:5 5:5 2:5 3:5
2:0 4:5 2:5 4:5 2:5 4:5 2:5 5:5 2:5 3:5 4:10
4:0 2:5 4:5 2:5 4:5 2:5 5:5 2:5 3:5 4:10 2:5
2:0 4:5 2:5 4:5 2:5 5:5 2:5 3:5 4:10 2:5 4:5
4:0 2:5 4:5 2:5 5:5 2:5 3:5 4:10 2:5 4:5 1:5
2:0 4:5 2:5 5:5 2:5 3:5 4:10 2:5 4:5 1:5 5:5
4:0 2:5 5:5 2:5 3:5 4:10 2:5 4:5 1:5 5:5 2:5
2:0 5:5 2:5 3:5 4:10 2:5 4:5 1:5 5:5 2:5 4:5
5:0 2:5 3:5 4:10 2:5 4:5 1:5 5:5 2:5 4:5 2:5
2:0 3:5 4:10 2:5 4:5 1:5 5:5 2:5 4:5 2:5 3:10
3:0 4:10 2:5 4:5 1:5 5:5 2:5 4:5 2:5 3:10 4:15
4:0 2:5 4:5 1:5 5:5 2:5 4:5 2:5 3:10 4:15 1:5
2:0 4:5 1:5 5:5 2:5 4:5 2:5 3:10 4:15 1:5 4:5
4:0 1:5 5:5 2:5 4:5 2:5 3:10 4:15 1:5 4:5 2:5
1:0 5:5 2:5 4:5 2:5 3:10 4:15 1:5 4:5 2:5 5:5
5:0 2:5 4:5 2:5 3:10 4:15 1:5 4:5 2:5 5:5 2:5
2:0 4:5 2:5 3:10 4:15 1:5 4:5 2:5 5:5 2:5 3:5
4:0 2:5 3:10 4:15 1:5 4:5 2:5 5:5 2:5 3:5 4:5
2:0 3:10 4:15 1:5 4:5 2:5 5:5 2:5 3:5 4:5 3:5
3:0 4:15 1:5 4:5 2:5 5:5 2:5 3:5 4:5 3:5 4:5
4:0 1:5 4:5 2:5 5:5 2:5 3:5 4:5 3:5 4:5 1:5
1:0 4:5 2:5 5:5 2:5 3:5 4:5 3:5 4:5 1:5 4:5
4:0 2:5 5:5 2:5 3:5 4:5 3:5 4:5 1:5 4:5 2:5
2:0 5:5 2:5 3:5 4:5 3:5 4:5 1:5 4:5 2:5 5:5
5:0 2:5 3:5 4:5 3:5 4:5 1:5 4:5 2:5 5:5 3:5
2:0 3:5 4:5 3:5 4:5 1:5 4:5 2:5 5:5 3:5 2:5
3:0 4:5 3:5 4:5 1:5 4:5 2:5 5:5 3:5 2:5 4:5
4:0 3:5 4:5 1:5 4:5 2:5 5:5 3:5 2:5 4:5 2:5
3:0 4:5 1:5 4:5 2:5 5:5 3:5 2:5 4:5 2:5 4:5
4:0 1:5 4:5 2:5 5:5 3:5 2:5 4:5 2:5 4:5 2:5
1:0 4:5 2:5 5:5 3:5 2:5 4:5 2:5 4:5 2:5 4:5
4:0 2:5 5:5 3:5 2:5 4:5 2:5 4:5 2:5 4:5 3:5
2:0 5:5 3:5 2:5 4:5 2:5 4:5 2:5 4:5 3:5 4:5
5:0 3:5 2:5 4:5 2:5 4:5 2:5 4:5 3:5 4:5 3:5
3:0 2:5 4:5 2:5 4:5 2:5 4:5 3:5 4:5 3:5 4:5
2:0 4:5 2:5 4:5 2:5 4:5 3:5 4:5 3:5 4:5 2:5
4:0 2:5 4:5 2:5 4:5 3:5 4:5 3:5 4:5 2:5 4:5
2:0 4:5 2:5 4:5 3:5 4:5 3:5 4:5 2:5 4:5 2:5
4:0 2:5 4:5 3:5 4:5 3:5 4:5 2:5 4:5 2:5 4:5
2:0 4:5 3:5 4:5 3:5 4:5 2:5 4:5 2:5 4:5 2:5
4:0 3:5 4:5 3:5 4:5 2:5 4:5 2:5 4:5 2:5 3:5
3:0 4:5 3:5 4:5 2:5 4:5 2:5 4:5 2:5 3:5 4:10
4:0 3:5 4:5 2:5 4:5 2:5 4:5 2:5 3:5 4:10 1:10
3:0 4:5 2:5 4:5 2:5 4:5 2:5 3:5 4:10 1:10 4:5
4:0 2:5 4:5 2:5 4:5 2:5 3:5 4:10 1:10 4:5 2:5
2:0 4:5 2:5 4:5 2:5 3:5 4:10 1:10 4:5 2:5 5:5
4:0 2:5 4:5 2:5 3:5 4:10 1:10 4:5 2:5 5:5 2:5
2:0 4:5 2:5 3:5 4:10 1:10 4:5 2:5 5:5 2:5 3:10
4:0 2:5 3:5 4:10 1:10 4:5 2:5 5:5 2:5 3:10 4:5
2:0 3:5 4:10 1:10 4:5 2:5 5:5 2:5 3:10 4:5 2:5
3:0 4:10 1:10 4:5 2:5 5:5 2:5 3:10 4:5 2:5 4:5
4:0 1:10 4:5 2:5 5:5 2:5 3:10 4:5 2:5 4:5 2:5
1:0 4:5 2:5 5:5 2:5 3:10 4:5 2:5 4:5 2:5 4:5
4:0 2:5 5:5 2:5 3:10 4:5 2:5 4:5 2:5 4:5 2:5
2:0 5:5 2:5 3:10 4:5 2:5 4:5 2:5 4:5 2:5 5:5
5:0 2:5 3:10 4:5 2:5 4:5 2:5 4:5 2:5 5:5 2:5
2:0 3:10 4:5 2:5 4:5 2:5 4:5 2:5 5:5 2:5 4:5
3:0 4:5 2:5 4:5 2:5 4:5 2:5 5:5 2:5 4:5 2:5
4:0 2:5 4:5 2:5 4:5 2:5 5:5 2:5 4:5 2:5 4:5
2:0 4:5 2:5 4:5 2:5 5:5 2:5 4:5 2:5 4:5 2:5
4:0 2:5 4:5 2:5 5:5 2:5 4:5 2:5 4:5 2:5 4:5
2:0 4:5 2:5 5:5 2:5 4:5 2:5 4:5 2:5 4:5 2:5
4:0 2:5 5:5 2:5 4:5 2:5 4:5 2:5 4:5 2:5 4:5
2:0 5:5 2:5 4:5 2:5 4:5 2:5 4:5 2:5 4:5 2:5
5:0 2:5 4:5 2:5 4:5 2:5 4:5 2:5 4:5 2:5 4:5
2:0 4:5 2:5 4:5 2:5 4:5 2:5 4:5 2:5 4:5 1:5
4:0 2:5 4:5 2:5 4:5 2:5 4:5 2:5 4:5 1:5 4:5
2:0 4:5 2:5 4:5 2:5 4:5 2:5 4:5 1:5 4:5 2:5
4:0 2:5 4:5 2:5 4:5 2:5 4:5 1:5 4:5 2:5 4:5
2:0 4:5 2:5 4:5 2:5 4:5 1:5 4:5 2:5 4:5 3:5
4:0 2:5 4:5 2:5 4:5 1:5 4:5 2:5 4:5 3:5 2:5
2:0 4:5 2:5 4:5 1:5 4:5 2:5 4:5 3:5 2:5 4:10
4:0 2:5 4:5 1:5 4:5 2:5 4:5 3:5 2:5 4:10 3:10
2:0 4:5 1:5 4:5 2:5 4:5 3:5 2:5 4:10 3:10 2:5
4:0 1:5 4:5 2:5 4:5 3:5 2:5 4:10 3:10 2:5 4:5
1:0 4:5 2:5 4:5 3:5 2:5 4:10 3:10 2:5 4:5 2:5
4:0 2:5 4:5 3:5 2:5 4:10 3:10 2:5 4:5 2:5 5:5
2:0 4:5 3:5 2:5 4:10 3:10 2:5 4:5 2:5 5:5 2:5
4:0 3:5 2:5 4:10 3:10 2:5 4:5 2:5 5:5 2:5 3:10
3:0 2:5 4:10 3:10 2:5 4:5 2:5 5:5 2:5 3:10 4:5
2:0 4:10 3:10 2:5 4:5 2:5 5:5 2:5 3:10 4:5 1:10
4:0 3:10 2:5 4:5 2:5 5:5 2:5 3:10 4:5 1:10 4:5
3:0 2:5 4:5 2:5 5:5 2:5 3:10 4:5 1:10 4:5 3:5
2:0 4:5 2:5 5:5 2:5 3:10 4:5 1:10 4:5 3:5 4:10
4:0 2:5 5:5 2:5 3:10 4:5 1:10 4:5 3:5 4:10 2:5
2:0 5:5 2:5 3:10 4:5 1:10 4:5 3:5 4:10 2:5 3:5
5:0 2:5 3:10 4:5 1:10 4:5 3:5 4:10 2:5 3:5 4:5
2:0 3:10 4:5 1:10 4:5 3:5 4:10 2:5 3:5 4:5 2:5
3:0 4:5 1:10 4:5 3:5 4:10 2:5 3:5 4:5 2:5 4:5
4:0 1:10 4:5 3:5 4:10 2:5 3:5 4:5 2:5 4:5 1:5
1:0 4:5 3:5 4:10 2:5 3:5 4:5 2:5 4:5 1:5 4:5
4:0 3:5 4:10 2:5 3:5 4:5 2:5 4:5 1:5 4:5 2:5
3:0 4:10 2:5 3:5 4:5 2:5 4:5 1:5 4:5 2:5 5:5
4:0 2:5 3:5 4:5 2:5 4:5 1:5 4:5 2:5 5:5 2:5
2:0 3:5 4:5 2:5 4:5 1:5 4:5 2:5 5:5 2:5 4:5
3:0 4:5 2:5 4:5 1:5 4:5 2:5 5:5 2:5 4:5 2:5
4:0 2:5 4:5 1:5 4:5 2:5 5:5 2:5 4:5 2:5 4:5
2:0 4:5 1:5 4:5 2:5 5:5 2:5 4:5 2:5 4:5 2:5
4:0 1:5 4:5 2:5 5:5 2:5 4:5 2:5 4:5 2:5 3:5
1:0 4:5 2:5 5:5 2:5 4:5 2:5 4:5 2:5 3:5 2:5
4:0 2:5 5:5 2:5 4:5 2:5 4:5 2:5 3:5 2:5 5:5
2:0 5:5 2:5 4:5 2:5 4:5 2:5 3:5 2:5 5:5 2:5
5:0 2:5 4:5 2:5 4:5 2:5 3:5 2:5 5:5 2:5 4:5
2:0 4:5 2:5 4:5 2:5 3:5 2:5 5:5 2:5 4:5 1:5
4:0 2:5 4:5 2:5 3:5 2:5 5:5 2:5 4:5 1:5 5:5
2:0 4:5 2:5 3:5 2:5 5:5 2:5 4:5 1:5 5:5 2:5
4:0 2:5 3:5 2:5 5:5 2:5 4:5 1:5 5:5 2:5 4:5
2:0 3:5 2:5 5:5 2:5 4:5 1:5 5:5 2:5 4:5 3:5
3:0 2:5 5:5 2:5 4:5 1:5 5:5 2:5 4:5 3:5 2:5
2:0 5:5 2:5 4:5 1:5 5:5 2:5 4:5 3:5 2:5 4:10
5:0 2:5 4:5 1:5 5:5 2:5 4:5 3:5 2:5 4:10 2:5
2:0 4:5 1:5 5:5 2:5 4:5 3:5 2:5 4:10 2:5 4:5
4:0 1:5 5:5 2:5 4:5 3:5 2:5 4:10 2:5 4:5 1:5
1:0 5:5 2:5 4:5 3:5 2:5 4:10 2:5 4:5 1:5 5:5
5:0 2:5 4:5 3:5 2:5 4:10 2:5 4:5 1:5 5:5 2:5
2:0 4:5 3:5 2:5 4:10 2:5 4:5 1:5 5:5 2:5 4:5
4:0 3:5 2:5 4:10 2:5 4:5 1:5 5:5 2:5 4:5 3:5
3:0 2:5 4:10 2:5 4:5 1:5 5:5 2:5 4:5 3:5 2:5
2:0 4:10 2:5 4:5 1:5 5:5 2:5 4:5 3:5 2:5 4:5
4:0 2:5 4:5 1:5 5:5 2:5 4:5 3:5 2:5 4:5 3:5
2:0 4:5 1:5 5:5 2:5 4:5 3:5 2:5 4:5 3:5 4:5
4:0 1:5 5:5 2:5 4:5 3:5 2:5 4:5 3:5 4:5 3:5
1:0 5:5 2:5 4:5 3:5 2:5 4:5 3:5 4:5 3:5 2:5
5:0 2:5 4:5 3:5 2:5 4:5 3:5 4:5 3:5 2:5 5:5
2:0 4:5 3:5 2:5 4:5 3:5 4:5 3:5 2:5 5:5 2:5
4:0 3:5 2:5 4:5 3:5 4:5 3:5 2:5 5:5 2:5 4:5
3:0 2:5 4:5 3:5 4:5 3:5 2:5 5:5 2:5 4:5 2:5
2:0 4:5 3:5 4:5 3:5 2:5 5:5 2:5 4:5 2:5 3:5
4:0 3:5 4:5 3:5 2:5 5:5 2:5 4:5 2:5 3:5 4:10
3:0 4:5 3:5 2:5 5:5 2:5 4:5 2:5 3:5 4:10 3:5
4:0 3:5 2:5 5:5 2:5 4:5 2:5 3:5 4:10 3:5 2:5
3:0 2:5 5:5 2:5 4:5 2:5 3:5 4:10 3:5 2:5 4:10
2:0 5:5 2:5 4:5 2:5 3:5 4:10 3:5 2:5 4:10 2:5
5:0 2:5 4:5 2:5 3:5 4:10 3:5 2:5 4:10 2:5 4:5
2:0 4:5 2:5 3:5 4:10 3:5 2:5 4:10 2:5 4:5 2:5
4:0 2:5 3:5 4:10 3:5 2:5 4:10 2:5 4:5 2:5 4:5
2:0 3:5 4:10 3:5 2:5 4:10 2:5 4:5 2:5 4:5 3:5
3:0 4:10 3:5 2:5 4:10 2:5 4:5 2:5 4:5 3:5 1:15
4:0 3:5 2:5 4:10 2:5 4:5 2:5 4:5 3:5 1:15 5:5
3:0 2:5 4:10 2:5 4:5 2:5 4:5 3:5 1:15 5:5 2:5
2:0 4:10 2:5 4:5 2:5 4:5 3:5 1:15 5:5 2:5 4:5
4:0 2:5 4:5 2:5 4:5 3:5 1:15 5:5 2:5 4:5 2:5
2:0 4:5 2:5 4:5 3:5 1:15 5:5 2:5 4:5 2:5 3:5
4:0 2:5 4:5 3:5 1:15 5:5 2:5 4:5 2:5 3:5 4:10
2:0 4:5 3:5 1:15 5:5 2:5 4:5 2:5 3:5 4:10 2:10
4:0 3:5 1:15 5:5 2:5 4:5 2:5 3:5 4:10 2:10 5:10
3:0 1:15 5:5 2:5 4:5 2:5 3:5 4:10 2:10 5:10 2:5
1:0 5:5 2:5 4:5 2:5 3:5 4:10 2:10 5:10 2:5 4:5
5:0 2:5 4:5 2:5 3:5 4:10 2:10 5:10 2:5 4:5 2:5
2:0 4:5 2:5 3:5 4:10 2:10 5:10 2:5 4:5 2:5 3:5
4:0 2:5 3:5 4:10 2:10 5:10 2:5 4:5 2:5 3:5 4:5
2:0 3:5 4:10 2:10 5:10 2:5 4:5 2:5 3:5 4:5 2:5
3:0 4:10 2:10 5:10 2:5 4:5 2:5 3:5 4:5 2:5 4:5
4:0 2:10 5:10 2:5 4:5 2:5 3:5 4:5 2:5 4:5 1:5
2:0 5:10 2:5 4:5 2:5 3:5 4:5 2:5 4:5 1:5 5:5
5:0 2:5 4:5 2:5 3:5 4:5 2:5 4:5 1:5 5:5 2:5
2:0 4:5 2:5 3:5 4:5 2:5 4:5 1:5 5:5 2:5 4:5
4:0 2:5 3:5 4:5 2:5 4:5 1:5 5:5 2:5 4:5 2:5
2:0 3:5 4:5 2:5 4:5 1:5 5:5 2:5 4:5 2:5 3:5
3:0 4:5 2:5 4:5 1:5 5:5 2:5 4:5 2:5 3:5 2:25
4:0 2:5 4:5 1:5 5:5 2:5 4:5 2:5 3:5 2:25 4:5
2:0 4:5 1:5 5:5 2:5 4:5 2:5 3:5 2:25 4:5 2:5
4:0 1:5 5:5 2:5 4:5 2:5 3:5 2:25 4:5 2:5 4:5
1:0 5:5 2:5 4:5 2:5 3:5 2:25 4:5 2:5 4:5 2:5
5:0 2:5 4:5 2:5 3:5 2:25 4:5 2:5 4:5 2:5 3:5
2:0 4:5 2:5 3:5 2:25 4:5 2:5 4:5 2:5 3:5 4:15
4:0 2:5 3:5 2:25 4:5 2:5 4:5 2:5 3:5 4:15 2:5
2:0 3:5 2:25 4:5 2:5 4:5 2:5 3:5 4:15 2:5 3:5
3:0 2:25 4:5 2:5 4:5 2:5 3:5 4:15 2:5 3:5 4:5
2:0 4:5 2:5 4:5 2:5 3:5 4:15 2:5 3:5 4:5 2:5
4:0 2:5 4:5 2:5 3:5 4:15 2:5 3:5 4:5 2:5 4:5
2:0 4:5 2:5 3:5 4:15 2:5 3:5 4:5 2:5 4:5 2:5
4:0 2:5 3:5 4:15 2:5 3:5 4:5 2:5 4:5 2:5 4:5
2:0 3:5 4:15 2:5 3:5 4:5 2:5 4:5 2:5 4:5 2:5
3:0 4:15 2:5 3:5 4:5 2:5 4:5 2:5 4:5 2:5 4:5
4:0 2:5 3:5 4:5 2:5 4:5 2:5 4:5 2:5 4:5 3:5
2:0 3:5 4:5 2:5 4:5 2:5 4:5 2:5 4:5 3:5 2:5
3:0 4:5 2:5 4:5 2:5 4:5 2:5 4:5 3:5 2:5 4:5
4:0 2:5 4:5 2:5 4:5 2:5 4:5 3:5 2:5 4:5 2:5
2:0 4:5 2:5 4:5 2:5 4:5 3:5 2:5 4:5 2:5 5:5
4:0 2:5 4:5 2:5 4:5 3:5 2:5 4:5 2:5 5:5 2:5
2:0 4:5 2:5 4:5 3:5 2:5 4:5 2:5 5:5 2:5 4:5
4:0 2:5 4:5 3:5 2:5 4:5 2:5 5:5 2:5 4:5 2:5
2:0 4:5 3:5 2:5 4:5 2:5 5:5 2:5 4:5 2:5 4:5
4:0 3:5 2:5 4:5 2:5 5:5 2:5 4:5 2:5 4:5 2:5
3:0 2:5 4:5 2:5 5:5 2:5 4:5 2:5 4:5 2:5 4:5
2:0 4:5 2:5 5:5 2:5 4:5 2:5 4:5 2:5 4:5 2:5
4:0 2:5 5:5 2:5 4:5 2:5 4:5 2:5 4:5 2:5 4:5
2:0 5:5 2:5 4:5 2:5 4:5 2:5 4:5 2:5 4:5 2:5
5:0 2:5 4:5 2:5 4:5 2:5 4:5 2:5 4:5 2:5 4:5
2:0 4:5 2:5 4:5 2:5 4:5 2:5 4:5 2:5 4:5 1:5
4:0 2:5 4:5 2:5 4:5 2:5 4:5 2:5 4:5 1:5 4:5
2:0 4:5 2:5 4:5 2:5 4:5 2:5 4:5 1:5 4:5 2:5
4:0 2:5 4:5 2:5 4:5 2:5 4:5 1:5 4:5 2:5 5:5
2:0 4:5 2:5 4:5 2:5 4:5 1:5 4:5 2:5 5:5 3:5
4:0 2:5 4:5 2:5 4:5 1:5 4:5 2:5 5:5 3:5 2:5
2:0 4:5 2:5 4:5 1:5 4:5 2:5 5:5 3:5 2:5 4:5
4:0 2:5 4:5 1:5 4:5 2:5 5:5 3:5 2:5 4:5 3:5
2:0 4:5 1:5 4:5 2:5 5:5 3:5 2:5 4:5 3:5 4:5
4:0 1:5 4:5 2:5 5:5 3:5 2:5 4:5 3:5 4:5 2:5
1:0 4:5 2:5 5:5 3:5 2:5 4:5 3:5 4:5 2:5 4:5
4:0 2:5 5:5 3:5 2:5 4:5 3:5 4:5 2:5 4:5 2:5
2:0 5:5 3:5 2:5 4:5 3:5 4:5 2:5 4:5 2:5 4:5
5:0 3:5 2:5 4:5 3:5 4:5 2:5 4:5 2:5 4:5 2:5
3:0 2:5 4:5 3:5 4:5 2:5 4:5 2:5 4:5 2:5 4:5
2:0 4:5 3:5 4:5 2:5 4:5 2:5 4:5 2:5 4:5 2:5
4:0 3:5 4:5 2:5 4:5 2:5 4:5 2:5 4:5 2:5 5:5
3:0 4:5 2:5 4:5 2:5 4:5 2:5 4:5 2:5 5:5 2:5
4:0 2:5 4:5 2:5 4:5 2:5 4:5 2:5 5:5 2:5 4:5
2:0 4:5 2:5 4:5 2:5 4:5 2:5 5:5 2:5 4:5 2:5
4:0 2:5 4:5 2:5 4:5 2:5 5:5 2:5 4:5 2:5 4:5
2:0 4:5 2:5 4:5 2:5 5:5 2:5 4:5 2:5 4:5 3:5
4:0 2:5 4:5 2:5 5:5 2:5 4:5 2:5 4:5 3:5 4:10
2:0 4:5 2:5 5:5 2:5 4:5 2:5 4:5 3:5 4:10 1:5
4:0 2:5 5:5 2:5 4:5 2:5 4:5 3:5 4:10 1:5 5:5
2:0 5:5 2:5 4:5 2:5 4:5 3:5 4:10 1:5 5:5 2:5
5:0 2:5 4:5 2:5 4:5 3:5 4:10 1:5 5:5 2:5 4:5
2:0 4:5 2:5 4:5 3:5 4:10 1:5 5:5 2:5 4:5 2:5
4:0 2:5 4:5 3:5 4:10 1:5 5:5 2:5 4:5 2:5 3:10
2:0 4:5 3:5 4:10 1:5 5:5 2:5 4:5 2:5 3:10 2:20
4:0 3:5 4:10 1:5 5:5 2:5 4:5 2:5 3:10 2:20 4:5
3:0 4:10 1:5 5:5 2:5 4:5 2:5 3:10 2:20 4:5 2:5
4:0 1:5 5:5 2:5 4:5 2:5 3:10 2:20 4:5 2:5 4:5
1:0 5:5 2:5 4:5 2:5 3:10 2:20 4:5 2:5 4:5 2:5
5:0 2:5 4:5 2:5 3:10 2:20 4:5 2:5 4:5 2:5 3:5
2:0 4:5 2:5 3:10 2:20 4:5 2:5 4:5 2:5 3:5 2:5
4:0 2:5 3:10 2:20 4:5 2:5 4:5 2:5 3:5 2:5 4:5
2:0 3:10 2:20 4:5 2:5 4:5 2:5 3:5 2:5 4:5 3:10
3:0 2:20 4:5 2:5 4:5 2:5 3:5 2:5 4:5 3:10 2:5
2:0 4:5 2:5 4:5 2:5 3:5 2:5 4:5 3:10 2:5 4:5
4:0 2:5 4:5 2:5 3:5 2:5 4:5 3:10 2:5 4:5 2:5
2:0 4:5 2:5 3:5 2:5 4:5 3:10 2:5 4:5 2:5 4:5
4:0 2:5 3:5 2:5 4:5 3:10 2:5 4:5 2:5 4:5 1:5
2:0 3:5 2:5 4:5 3:10 2:5 4:5 2:5 4:5 1:5 5:5
3:0 2:5 4:5 3:10 2:5 4:5 2:5 4:5 1:5 5:5 2:5
2:0 4:5 3:10 2:5 4:5 2:5 4:5 1:5 5:5 2:5 4:5
4:0 3:10 2:5 4:5 2:5 4:5 1:5 5:5 2:5 4:5 3:5
3:0 2:5 4:5 2:5 4:5 1:5 5:5 2:5 4:5 3:5 2:5
2:0 4:5 2:5 4:5 1:5 5:5 2:5 4:5 3:5 2:5 4:5
4:0 2:5 4:5 1:5 5:5 2:5 4:5 3:5 2:5 4:5 3:5
2:0 4:5 1:5 5:5 2:5 4:5 3:5 2:5 4:5 3:5 4:5
4:0 1:5 5:5 2:5 4:5 3:5 2:5 4:5 3:5 4:5 3:5
1:0 5:5 2:5 4:5 3:5 2:5 4:5 3:5 4:5 3:5 2:5
5:0 2:5 4:5 3:5 2:5 4:5 3:5 4:5 3:5 2:5 4:5
2:0 4:5 3:5 2:5 4:5 3:5 4:5 3:5 2:5 4:5 2:5
4:0 3:5 2:5 4:5 3:5 4:5 3:5 2:5 4:5 2:5 4:5
3:0 2:5 4:5 3:5 4:5 3:5 2:5 4:5 2:5 4:5 2:5
2:0 4:5 3:5 4:5 3:5 2:5 4:5 2:5 4:5 2:5 5:10
4:0 3:5 4:5 3:5 2:5 4:5 2:5 4:5 2:5 5:10 2:5
3:0 4:5 3:5 2:5 4:5 2:5 4:5 2:5 5:10 2:5 4:5
4:0 3:5 2:5 4:5 2:5 4:5 2:5 5:10 2:5 4:5 2:5
3:0 2:5 4:5 2:5 4:5 2:5 5:10 2:5 4:5 2:5 4:5
2:0 4:5 2:5 4:5 2:5 5:10 2:5 4:5 2:5 4:5 3:5
4:0 2:5 4:5 2:5 5:10 2:5 4:5 2:5 4:5 3:5 4:10
2:0 4:5 2:5 5:10 2:5 4:5 2:5 4:5 3:5 4:10 1:5
4:0 2:5 5:10 2:5 4:5 2:5 4:5 3:5 4:10 1:5 5:5
2:0 5:10 2:5 4:5 2:5 4:5 3:5 4:10 1:5 5:5 2:5
5:0 2:5 4:5 2:5 4:5 3:5 4:10 1:5 5:5 2:5 4:5
2:0 4:5 2:5 4:5 3:5 4:10 1:5 5:5 2:5 4:5 2:5
4:0 2:5 4:5 3:5 4:10 1:5 5:5 2:5 4:5 2:5 4:5
2:0 4:5 3:5 4:10 1:5 5:5 2:5 4:5 2:5 4:5 2:5
4:0 3:5 4:10 1:5 5:5 2:5 4:5 2:5 4:5 2:5 4:5
3:0 4:10 1:5 5:5 2:5 4:5 2:5 4:5 2:5 4:5 2:5
4:0 1:5 5:5 2:5 4:5 2:5 4:5 2:5 4:5 2:5 4:5
1:0 5:5 2:5 4:5 2:5 4:5 2:5 4:5 2:5 4:5 2:5
5:0 2:5 4:5 2:5 4:5 2:5 4:5 2:5 4:5 2:5 5:5
2:0 4:5 2:5 4:5 2:5 4:5 2:5 4:5 2:5 5:5 2:5
4:0 2:5 4:5 2:5 4:5 2:5 4:5 2:5 5:5 2:5 5:5
2:0 4:5 2:5 4:5 2:5 4:5 2:5 5:5 2:5 5:5 2:5
4:0 2:5 4:5 2:5 4:5 2:5 5:5 2:5 5:5 2:5 3:5
2:0 4:5 2:5 4:5 2:5 5:5 2:5 5:5 2:5 3:5 4:5
4:0 2:5 4:5 2:5 5:5 2:5 5:5 2:5 3:5 4:5 2:5
2:0 4:5 2:5 5:5 2:5 5:5 2:5 3:5 4:5 2:5 4:5
4:0 2:5 5:5 2:5 5:5 2:5 3:5 4:5 2:5 4:5 2:5
2:0 5:5 2:5 5:5 2:5 3:5 4:5 2:5 4:5 2:5 3:5
5:0 2:5 5:5 2:5 3:5 4:5 2:5 4:5 2:5 3:5 2:20
2:0 5:5 2:5 3:5 4:5 2:5 4:5 2:5 3:5 2:20 5:10
5:0 2:5 3:5 4:5 2:5 4:5 2:5 3:5 2:20 5:10 2:5
2:0 3:5 4:5 2:5 4:5 2:5 3:5 2:20 5:10 2:5 4:5
3:0 4:5 2:5 4:5 2:5 3:5 2:20 5:10 2:5 4:5 2:5
4:0 2:5 4:5 2:5 3:5 2:20 5:10 2:5 4:5 2:5 4:5
2:0 4:5 2:5 3:5 2:20 5:10 2:5 4:5 2:5 4:5 2:5
4:0 2:5 3:5 2:20 5:10 2:5 4:5 2:5 4:5 2:5 4:5
2:0 3:5 2:20 5:10 2:5 4:5 2:5 4:5 2:5 4:5 3:5
3:0 2:20 5:10 2:5 4:5 2:5 4:5 2:5 4:5 3:5 2:5
2:0 5:10 2:5 4:5 2:5 4:5 2:5 4:5 3:5 2:5 4:5
5:0 2:5 4:5 2:5 4:5 2:5 4:5 3:5 2:5 4:5 2:5
2:0 4:5 2:5 4:5 2:5 4:5 3:5 2:5 4:5 2:5 4:5
4:0 2:5 4:5 2:5 4:5 3:5 2:5 4:5 2:5 4:5 2:5
2:0 4:5 2:5 4:5 3:5 2:5 4:5 2:5 4:5 2:5 3:5
4:0 2:5 4:5 3:5 2:5 4:5 2:5 4:5 2:5 3:5 4:10
2:0 4:5 3:5 2:5 4:5 2:5 4:5 2:5 3:5 4:10 3:5
4:0 3:5 2:5 4:5 2:5 4:5 2:5 3:5 4:10 3:5 4:5
3:0 2:5 4:5 2:5 4:5 2:5 3:5 4:10 3:5 4:5 2:5
2:0 4:5 2:5 4:5 2:5 3:5 4:10 3:5 4:5 2:5 5:5
4:0 2:5 4:5 2:5 3:5 4:10 3:5 4:5 2:5 5:5 2:5
2:0 4:5 2:5 3:5 4:10 3:5 4:5 2:5 5:5 2:5 4:5
4:0 2:5 3:5 4:10 3:5 4:5 2:5 5:5 2:5 4:5 2:5
2:0 3:5 4:10 3:5 4:5 2:5 5:5 2:5 4:5 2:5 3:5
3:0 4:10 3:5 4:5 2:5 5:5 2:5 4:5 2:5 3:5 4:10
4:0 3:5 4:5 2:5 5:5 2:5 4:5 2:5 3:5 4:10 3:5
3:0 4:5 2:5 5:5 2:5 4:5 2:5 3:5 4:10 3:5 2:5
4:0 2:5 5:5 2:5 4:5 2:5 3:5 4:10 3:5 2:5 5:10
2:0 5:5 2:5 4:5 2:5 3:5 4:10 3:5 2:5 5:10 2:5
5:0 2:5 4:5 2:5 3:5 4:10 3:5 2:5 5:10 2:5 4:5
2:0 4:5 2:5 3:5 4:10 3:5 2:5 5:10 2:5 4:5 1:5
4:0 2:5 3:5 4:10 3:5 2:5 5:10 2:5 4:5 1:5 4:5
2:0 3:5 4:10 3:5 2:5 5:10 2:5 4:5 1:5 4:5 2:5
3:0 4:10 3:5 2:5 5:10 2:5 4:5 1:5 4:5 2:5 4:5
4:0 3:5 2:5 5:10 2:5 4:5 1:5 4:5 2:5 4:5 2:5
3:0 2:5 5:10 2:5 4:5 1:5 4:5 2:5 4:5 2:5 3:5
2:0 5:10 2:5 4:5 1:5 4:5 2:5 4:5 2:5 3:5 4:10
5:0 2:5 4:5 1:5 4:5 2:5 4:5 2:5 3:5 4:10 3:5
2:0 4:5 1:5 4:5 2:5 4:5 2:5 3:5 4:10 3:5 1:10
4:0 1:5 4:5 2:5 4:5 2:5 3:5 4:10 3:5 1:10 5:5
1:0 4:5 2:5 4:5 2:5 3:5 4:10 3:5 1:10 5:5 2:5
4:0 2:5 4:5 2:5 3:5 4:10 3:5 1:10 5:5 2:5 4:5
2:0 4:5 2:5 3:5 4:10 3:5 1:10 5:5 2:5 4:5 2:5
4:0 2:5 3:5 4:10 3:5 1:10 5:5 2:5 4:5 2:5 4:5
2:0 3:5 4:10 3:5 1:10 5:5 2:5 4:5 2:5 4:5 2:5
3:0 4:10 3:5 1:10 5:5 2:5 4:5 2:5 4:5 2:5 4:5
4:0 3:5 1:10 5:5 2:5 4:5 2:5 4:5 2:5 4:5 1:10
3:0 1:10 5:5 2:5 4:5 2:5 4:5 2:5 4:5 1:10 4:5
1:0 5:5 2:5 4:5 2:5 4:5 2:5 4:5 1:10 4:5 2:5
5:0 2:5 4:5 2:5 4:5 2:5 4:5 1:10 4:5 2:5 4:5
2:0 4:5 2:5 4:5 2:5 4:5 1:10 4:5 2:5 4:5 2:5
4:0 2:5 4:5 2:5 4:5 1:10 4:5 2:5 4:5 2:5 4:5
2:0 4:5 2:5 4:5 1:10 4:5 2:5 4:5 2:5 4:5 3:5
4:0 2:5 4:5 1:10 4:5 2:5 4:5 2:5 4:5 3:5 4:10
2:0 4:5 1:10 4:5 2:5 4:5 2:5 4:5 3:5 4:10 3:5
4:0 1:10 4:5 2:5 4:5 2:5 4:5 3:5 4:10 3:5 2:5
1:0 4:5 2:5 4:5 2:5 4:5 3:5 4:10 3:5 2:5 4:5
4:0 2:5 4:5 2:5 4:5 3:5 4:10 3:5 2:5 4:5 2:5
2:0 4:5 2:5 4:5 3:5 4:10 3:5 2:5 4:5 2:5 4:5
4:0 2:5 4:5 3:5 4:10 3:5 2:5 4:5 2:5 4:5 2:5
2:0 4:5 3:5 4:10 3:5 2:5 4:5 2:5 4:5 2:5 3:5
4:0 3:5 4:10 3:5 2:5 4:5 2:5 4:5 2:5 3:5 2:5
3:0 4:10 3:5 2:5 4:5 2:5 4:5 2:5 3:5 2:5 4:5
4:0 3:5 2:5 4:5 2:5 4:5 2:5 3:5 2:5 4:5 3:5
3:0 2:5 4:5 2:5 4:5 2:5 3:5 2:5 4:5 3:5 2:5
2:0 4:5 2:5 4:5 2:5 3:5 2:5 4:5 3:5 2:5 5:10
4:0 2:5 4:5 2:5 3:5 2:5 4:5 3:5 2:5 5:10 2:5
2:0 4:5 2:5 3:5 2:5 4:5 3:5 2:5 5:10 2:5 4:5
4:0 2:5 3:5 2:5 4:5 3:5 2:5 5:10 2:5 4:5 2:5
2:0 3:5 2:5 4:5 3:5 2:5 5:10 2:5 4:5 2:5 4:5
3:0 2:5 4:5 3:5 2:5 5:10 2:5 4:5 2:5 4:5 3:5
2:0 4:5 3:5 2:5 5:10 2:5 4:5 2:5 4:5 3:5 4:5
4:0 3:5 2:5 5:10 2:5 4:5 2:5 4:5 3:5 4:5 3:5
3:0 2:5 5:10 2:5 4:5 2:5 4:5 3:5 4:5 3:5 2:5
2:0 5:10 2:5 4:5 2:5 4:5 3:5 4:5 3:5 2:5 4:5
5:0 2:5 4:5 2:5 4:5 3:5 4:5 3:5 2:5 4:5 2:5
2:0 4:5 2:5 4:5 3:5 4:5 3:5 2:5 4:5 2:5 4:5
4:0 2:5 4:5 3:5 4:5 3:5 2:5 4:5 2:5 4:5 2:5
2:0 4:5 3:5 4:5 3:5 2:5 4:5 2:5 4:5 2:5 4:5
4:0 3:5 4:5 3:5 2:5 4:5 2:5 4:5 2:5 4:5 2:5
3:0 4:5 3:5 2:5 4:5 2:5 4:5 2:5 4:5 2:5 4:5
4:0 3:5 2:5 4:5 2:5 4:5 2:5 4:5 2:5 4:5 3:5
3:0 2:5 4:5 2:5 4:5 2:5 4:5 2:5 4:5 3:5 2:10
2:0 4:5 2:5 4:5 2:5 4:5 2:5 4:5 3:5 2:10 4:5
4:0 2:5 4:5 2:5 4:5 2:5 4:5 3:5 2:10 4:5 2:5
2:0 4:5 2:5 4:5 2:5 4:5 3:5 2:10 4:5 2:5 4:5
4:0 2:5 4:5 2:5 4:5 3:5 2:10 4:5 2:5 4:5 1:5
2:0 4:5 2:5 4:5 3:5 2:10 4:5 2:5 4:5 1:5 4:5
4:0 2:5 4:5 3:5 2:10 4:5 2:5 4:5 1:5 4:5 2:5
2:0 4:5 3:5 2:10 4:5 2:5 4:5 1:5 4:5 2:5 4:5
4:0 3:5 2:10 4:5 2:5 4:5 1:5 4:5 2:5 4:5 3:5
3:0 2:10 4:5 2:5 4:5 1:5 4:5 2:5 4:5 3:5 2:5
2:0 4:5 2:5 4:5 1:5 4:5 2:5 4:5 3:5 2:5 4:10
4:0 2:5 4:5 1:5 4:5 2:5 4:5 3:5 2:5 4:10 2:5
2:0 4:5 1:5 4:5 2:5 4:5 3:5 2:5 4:10 2:5 4:5
4:0 1:5 4:5 2:5 4:5 3:5 2:5 4:10 2:5 4:5 1:5
1:0 4:5 2:5 4:5 3:5 2:5 4:10 2:5 4:5 1:5 4:5
4:0 2:5 4:5 3:5 2:5 4:10 2:5 4:5 1:5 4:5 2:5
2:0 4:5 3:5 2:5 4:10 2:5 4:5 1:5 4:5 2:5 5:5
4:0 3:5 2:5 4:10 2:5 4:5 1:5 4:5 2:5 5:5 2:5
3:0 2:5 4:10 2:5 4:5 1:5 4:5 2:5 5:5 2:5 4:10
2:0 4:10 2:5 4:5 1:5 4:5 2:5 5:5 2:5 4:10 2:5
4:0 2:5 4:5 1:5 4:5 2:5 5:5 2:5 4:10 2:5 4:5
2:0 4:5 1:5 4:5 2:5 5:5 2:5 4:10 2:5 4:5 2:5
4:0 1:5 4:5 2:5 5:5 2:5 4:10 2:5 4:5 2:5 4:10
1:0 4:5 2:5 5:5 2:5 4:10 2:5 4:5 2:5 4:10 3:5
4:0 2:5 5:5 2:5 4:10 2:5 4:5 2:5 4:10 3:5 4:5
2:0 5:5 2:5 4:10 2:5 4:5 2:5 4:10 3:5 4:5 1:5
5:0 2:5 4:10 2:5 4:5 2:5 4:10 3:5 4:5 1:5 5:5
2:0 4:10 2:5 4:5 2:5 4:10 3:5 4:5 1:5 5:5 2:5
4:0 2:5 4:5 2:5 4:10 3:5 4:5 1:5 5:5 2:5 4:5
2:0 4:5 2:5 4:10 3:5 4:5 1:5 5:5 2:5 4:5 2:5
4:0 2:5 4:10 3:5 4:5 1:5 5:5 2:5 4:5 2:5 3:5
2:0 4:10 3:5 4:5 1:5 5:5 2:5 4:5 2:5 3:5 2:5
4:0 3:5 4:5 1:5 5:5 2:5 4:5 2:5 3:5 2:5 3:5
3:0 4:5 1:5 5:5 2:5 4:5 2:5 3:5 2:5 3:5 4:10
4:0 1:5 5:5 2:5 4:5 2:5 3:5 2:5 3:5 4:10 2:5
1:0 5:5 2:5 4:5 2:5 3:5 2:5 3:5 4:10 2:5 5:5
5:0 2:5 4:5 2:5 3:5 2:5 3:5 4:10 2:5 5:5 2:5
2:0 4:5 2:5 3:5 2:5 3:5 4:10 2:5 5:5 2:5 4:5
4:0 2:5 3:5 2:5 3:5 4:10 2:5 5:5 2:5 4:5 2:5
2:0 3:5 2:5 3:5 4:10 2:5 5:5 2:5 4:5 2:5 4:10
3:0 2:5 3:5 4:10 2:5 5:5 2:5 4:5 2:5 4:10 2:5
2:0 3:5 4:10 2:5 5:5 2:5 4:5 2:5 4:10 2:5 4:5
3:0 4:10 2:5 5:5 2:5 4:5 2:5 4:10 2:5 4:5 2:5
4:0 2:5 5:5 2:5 4:5 2:5 4:10 2:5 4:5 2:5 4:10
2:0 5:5 2:5 4:5 2:5 4:10 2:5 4:5 2:5 4:10 2:5
5:0 2:5 4:5 2:5 4:10 2:5 4:5 2:5 4:10 2:5 4:5
2:0 4:5 2:5 4:10 2:5 4:5 2:5 4:10 2:5 4:5 1:5
4:0 2:5 4:10 2:5 4:5 2:5 4:10 2:5 4:5 1:5 4:5
2:0 4:10 2:5 4:5 2:5 4:10 2:5 4:5 1:5 4:5 2:5
4:0 2:5 4:5 2:5 4:10 2:5 4:5 1:5 4:5 2:5 5:5
2:0 4:5 2:5 4:10 2:5 4:5 1:5 4:5 2:5 5:5 4:5
4:0 2:5 4:10 2:5 4:5 1:5 4:5 2:5 5:5 4:5 2:5
2:0 4:10 2:5 4:5 1:5 4:5 2:5 5:5 4:5 2:5 3:5
4:0 2:5 4:5 1:5 4:5 2:5 5:5 4:5 2:5 3:5 2:10
2:0 4:5 1:5 4:5 2:5 5:5 4:5 2:5 3:5 2:10 4:5
4:0 1:5 4:5 2:5 5:5 4:5 2:5 3:5 2:10 4:5 2:5
1:0 4:5 2:5 5:5 4:5 2:5 3:5 2:10 4:5 2:5 4:5
4:0 2:5 5:5 4:5 2:5 3:5 2:10 4:5 2:5 4:5 3:5
2:0 5:5 4:5 2:5 3:5 2:10 4:5 2:5 4:5 3:5 4:10
5:0 4:5 2:5 3:5 2:10 4:5 2:5 4:5 3:5 4:10 2:5
4:0 2:5 3:5 2:10 4:5 2:5 4:5 3:5 4:10 2:5 5:5
2:0 3:5 2:10 4:5 2:5 4:5 3:5 4:10 2:5 5:5 2:5
3:0 2:10 4:5 2:5 4:5 3:5 4:10 2:5 5:5 2:5 5:5
2:0 4:5 2:5 4:5 3:5 4:10 2:5 5:5 2:5 5:5 2:5
4:0 2:5 4:5 3:5 4:10 2:5 5:5 2:5 5:5 2:5 4:5
2:0 4:5 3:5 4:10 2:5 5:5 2:5 5:5 2:5 4:5 2:5
4:0 3:5 4:10 2:5 5:5 2:5 5:5 2:5 4:5 2:5 4:5
3:0 4:10 2:5 5:5 2:5 5:5 2:5 4:5 2:5 4:5 2:5
4:0 2:5 5:5 2:5 5:5 2:5 4:5 2:5 4:5 2:5 4:5
2:0 5:5 2:5 5:5 2:5 4:5 2:5 4:5 2:5 4:5 2:5
5:0 2:5 5:5 2:5 4:5 2:5 4:5 2:5 4:5 2:5 4:5
2:0 5:5 2:5 4:5 2:5 4:5 2:5 4:5 2:5 4:5 2:5
5:0 2:5 4:5 2:5 4:5 2:5 4:5 2:5 4:5 2:5 4:5
2:0 4:5 2:5 4:5 2:5 4:5 2:5 4:5 2:5 4:5 2:5
4:0 2:5 4:5 2:5 4:5 2:5 4:5 2:5 4:5 2:5 4:5
2:0 4:5 2:5 4:5 2:5 4:5 2:5 4:5 2:5 4:5 3:5
4:0 2:5 4:5 2:5 4:5 2:5 4:5 2:5 4:5 3:5 4:10
2:0 4:5 2:5 4:5 2:5 4:5 2:5 4:5 3:5 4:10 1:5
4:0 2:5 4:5 2:5 4:5 2:5 4:5 3:5 4:10 1:5 5:5
2:0 4:5 2:5 4:5 2:5 4:5 3:5 4:10 1:5 5:5 2:5
4:0 2:5 4:5 2:5 4:5 3:5 4:10 1:5 5:5 2:5 4:5
2:0 4:5 2:5 4:5 3:5 4:10 1:5 5:5 2:5 4:5 3:5
4:0 2:5 4:5 3:5 4:10 1:5 5:5 2:5 4:5 3:5 2:5
2:0 4:5 3:5 4:10 1:5 5:5 2:5 4:5 3:5 2:5 4:5
4:0 3:5 4:10 1:5 5:5 2:5 4:5 3:5 2:5 4:5 2:5
3:0 4:10 1:5 5:5 2:5 4:5 3:5 2:5 4:5 2:5 4:5
4:0 1:5 5:5 2:5 4:5 3:5 2:5 4:5 2:5 4:5 1:5
1:0 5:5 2:5 4:5 3:5 2:5 4:5 2:5 4:5 1:5 5:5
5:0 2:5 4:5 3:5 2:5 4:5 2:5 4:5 1:5 5:5 2:5
2:0 4:5 3:5 2:5 4:5 2:5 4:5 1:5 5:5 2:5 4:5
4:0 3:5 2:5 4:5 2:5 4:5 1:5 5:5 2:5 4:5 3:5
3:0 2:5 4:5 2:5 4:5 1:5 5:5 2:5 4:5 3:5 2:10
2:0 4:5 2:5 4:5 1:5 5:5 2:5 4:5 3:5 2:10 4:5
4:0 2:5 4:5 1:5 5:5 2:5 4:5 3:5 2:10 4:5 2:5
2:0 4:5 1:5 5:5 2:5 4:5 3:5 2:10 4:5 2:5 4:5
4:0 1:5 5:5 2:5 4:5 3:5 2:10 4:5 2:5 4:5 2:5
1:0 5:5 2:5 4:5 3:5 2:10 4:5 2:5 4:5 2:5 3:5
5:0 2:5 4:5 3:5 2:10 4:5 2:5 4:5 2:5 3:5 4:10
2:0 4:5 3:5 2:10 4:5 2:5 4:5 2:5 3:5 4:10 3:5
4:0 3:5 2:10 4:5 2:5 4:5 2:5 3:5 4:10 3:5 2:5
3:0 2:10 4:5 2:5 4:5 2:5 3:5 4:10 3:5 2:5 3:5
2:0 4:5 2:5 4:5 2:5 3:5 4:10 3:5 2:5 3:5 4:15
4:0 2:5 4:5 2:5 3:5 4:10 3:5 2:5 3:5 4:15 2:5
2:0 4:5 2:5 3:5 4:10 3:5 2:5 3:5 4:15 2:5 5:5
4:0 2:5 3:5 4:10 3:5 2:5 3:5 4:15 2:5 5:5 2:5
2:0 3:5 4:10 3:5 2:5 3:5 4:15 2:5 5:5 2:5 4:5
3:0 4:10 3:5 2:5 3:5 4:15 2:5 5:5 2:5 4:5 2:5
4:0 3:5 2:5 3:5 4:15 2:5 5:5 2:5 4:5 2:5 4:10
3:0 2:5 3:5 4:15 2:5 5:5 2:5 4:5 2:5 4:10 3:5
2:0 3:5 4:15 2:5 5:5 2:5 4:5 2:5 4:10 3:5 4:5
3:0 4:15 2:5 5:5 2:5 4:5 2:5 4:10 3:5 4:5 2:5
4:0 2:5 5:5 2:5 4:5 2:5 4:10 3:5 4:5 2:5 4:5
2:0 5:5 2:5 4:5 2:5 4:10 3:5 4:5 2:5 4:5 3:5
5:0 2:5 4:5 2:5 4:10 3:5 4:5 2:5 4:5 3:5 4:5
2:0 4:5 2:5 4:10 3:5 4:5 2:5 4:5 3:5 4:5 2:10
4:0 2:5 4:10 3:5 4:5 2:5 4:5 3:5 4:5 2:10 5:10
2:0 4:10 3:5 4:5 2:5 4:5 3:5 4:5 2:10 5:10 2:5
4:0 3:5 4:5 2:5 4:5 3:5 4:5 2:10 5:10 2:5 4:5
3:0 4:5 2:5 4:5 3:5 4:5 2:10 5:10 2:5 4:5 2:5
4:0 2:5 4:5 3:5 4:5 2:10 5:10 2:5 4:5 2:5 4:5
2:0 4:5 3:5 4:5 2:10 5:10 2:5 4:5 2:5 4:5 3:5
4:0 3:5 4:5 2:10 5:10 2:5 4:5 2:5 4:5 3:5 4:5
3:0 4:5 2:10 5:10 2:5 4:5 2:5 4:5 3:5 4:5 1:10
4:0 2:10 5:10 2:5 4:5 2:5 4:5 3:5 4:5 1:10 5:5
2:0 5:10 2:5 4:5 2:5 4:5 3:5 4:5 1:10 5:5 2:5
5:0 2:5 4:5 2:5 4:5 3:5 4:5 1:10 5:5 2:5 4:5
2:0 4:5 2:5 4:5 3:5 4:5 1:10 5:5 2:5 4:5 2:5
4:0 2:5 4:5 3:5 4:5 1:10 5:5 2:5 4:5 2:5 4:5
2:0 4:5 3:5 4:5 1:10 5:5 2:5 4:5 2:5 4:5 3:5
4:0 3:5 4:5 1:10 5:5 2:5 4:5 2:5 4:5 3:5 2:15
3:0 4:5 1:10 5:5 2:5 4:5 2:5 4:5 3:5 2:15 4:10
4:0 1:10 5:5 2:5 4:5 2:5 4:5 3:5 2:15 4:10 2:5
1:0 5:5 2:5 4:5 2:5 4:5 3:5 2:15 4:10 2:5 4:5
5:0 2:5 4:5 2:5 4:5 3:5 2:15 4:10 2:5 4:5 1:5
2:0 4:5 2:5 4:5 3:5 2:15 4:10 2:5 4:5 1:5 4:5
4:0 2:5 4:5 3:5 2:15 4:10 2:5 4:5 1:5 4:5 2:5
2:0 4:5 3:5 2:15 4:10 2:5 4:5 1:5 4:5 2:5 4:5
4:0 3:5 2:15 4:10 2:5 4:5 1:5 4:5 2:5 4:5 3:5
3:0 2:15 4:10 2:5 4:5 1:5 4:5 2:5 4:5 3:5 2:5
2:0 4:10 2:5 4:5 1:5 4:5 2:5 4:5 3:5 2:5 4:5
4:0 2:5 4:5 1:5 4:5 2:5 4:5 3:5 2:5 4:5 2:5
2:0 4:5 1:5 4:5 2:5 4:5 3:5 2:5 4:5 2:5 4:5
4:0 1:5 4:5 2:5 4:5 3:5 2:5 4:5 2:5 4:5 2:5
1:0 4:5 2:5 4:5 3:5 2:5 4:5 2:5 4:5 2:5 3:5
4:0 2:5 4:5 3:5 2:5 4:5 2:5 4:5 2:5 3:5 2:5
2:0 4:5 3:5 2:5 4:5 2:5 4:5 2:5 3:5 2:5 5:5
4:0 3:5 2:5 4:5 2:5 4:5 2:5 3:5 2:5 5:5 2:5
3:0 2:5 4:5 2:5 4:5 2:5 3:5 2:5 5:5 2:5 4:5
2:0 4:5 2:5 4:5 2:5 3:5 2:5 5:5 2:5 4:5 2:5
4:0 2:5 4:5 2:5 3:5 2:5 5:5 2:5 4:5 2:5 4:5
2:0 4:5 2:5 3:5 2:5 5:5 2:5 4:5 2:5 4:5 2:5
4:0 2:5 3:5 2:5 5:5 2:5 4:5 2:5 4:5 2:5 5:5
2:0 3:5 2:5 5:5 2:5 4:5 2:5 4:5 2:5 5:5 1:5
3:0 2:5 5:5 2:5 4:5 2:5 4:5 2:5 5:5 1:5 4:5
2:0 5:5 2:5 4:5 2:5 4:5 2:5 5:5 1:5 4:5 2:5
5:0 2:5 4:5 2:5 4:5 2:5 5:5 1:5 4:5 2:5 4:5
2:0 4:5 2:5 4:5 2:5 5:5 1:5 4:5 2:5 4:5 2:5
4:0 2:5 4:5 2:5 5:5 1:5 4:5 2:5 4:5 2:5 3:5
2:0 4:5 2:5 5:5 1:5 4:5 2:5 4:5 2:5 3:5 4:10
4:0 2:5 5:5 1:5 4:5 2:5 4:5 2:5 3:5 4:10 3:5
2:0 5:5 1:5 4:5 2:5 4:5 2:5 3:5 4:10 3:5 4:5
5:0 1:5 4:5 2:5 4:5 2:5 3:5 4:10 3:5 4:5 1:5
1:0 4:5 2:5 4:5 2:5 3:5 4:10 3:5 4:5 1:5 5:5
4:0 2:5 4:5 2:5 3:5 4:10 3:5 4:5 1:5 5:5 2:5
2:0 4:5 2:5 3:5 4:10 3:5 4:5 1:5 5:5 2:5 4:5
4:0 2:5 3:5 4:10 3:5 4:5 1:5 5:5 2:5 4:5 2:5
2:0 3:5 4:10 3:5 4:5 1:5 5:5 2:5 4:5 2:5 4:10
3:0 4:10 3:5 4:5 1:5 5:5 2:5 4:5 2:5 4:10 2:5
4:0 3:5 4:5 1:5 5:5 2:5 4:5 2:5 4:10 2:5 4:5
3:0 4:5 1:5 5:5 2:5 4:5 2:5 4:10 2:5 4:5 1:5
4:0 1:5 5:5 2:5 4:5 2:5 4:10 2:5 4:5 1:5 4:5
1:0 5:5 2:5 4:5 2:5 4:10 2:5 4:5 1:5 4:5 2:5
5:0 2:5 4:5 2:5 4:10 2:5 4:5 1:5 4:5 2:5 4:5
2:0 4:5 2:5 4:10 2:5 4:5 1:5 4:5 2:5 4:5 3:5
4:0 2:5 4:10 2:5 4:5 1:5 4:5 2:5 4:5 3:5 2:10
2:0 4:10 2:5 4:5 1:5 4:5 2:5 4:5 3:5 2:10 4:5
4:0 2:5 4:5 1:5 4:5 2:5 4:5 3:5 2:10 4:5 2:5
2:0 4:5 1:5 4:5 2:5 4:5 3:5 2:10 4:5 2:5 4:5
4:0 1:5 4:5 2:5 4:5 3:5 2:10 4:5 2:5 4:5 1:5
1:0 4:5 2:5 4:5 3:5 2:10 4:5 2:5 4:5 1:5 5:5
4:0 2:5 4:5 3:5 2:10 4:5 2:5 4:5 1:5 5:5 2:5
2:0 4:5 3:5 2:10 4:5 2:5 4:5 1:5 5:5 2:5 4:5
4:0 3:5 2:10 4:5 2:5 4:5 1:5 5:5 2:5 4:5 3:5
3:0 2:10 4:5 2:5 4:5 1:5 5:5 2:5 4:5 3:5 2:5
2:0 4:5 2:5 4:5 1:5 5:5 2:5 4:5 3:5 2:5 3:5
4:0 2:5 4:5 1:5 5:5 2:5 4:5 3:5 2:5 3:5 4:10
2:0 4:5 1:5 5:5 2:5 4:5 3:5 2:5 3:5 4:10 3:5
4:0 1:5 5:5 2:5 4:5 3:5 2:5 3:5 4:10 3:5 2:5
1:0 5:5 2:5 4:5 3:5 2:5 3:5 4:10 3:5 2:5 4:5
5:0 2:5 4:5 3:5 2:5 3:5 4:10 3:5 2:5 4:5 2:5
2:0 4:5 3:5 2:5 3:5 4:10 3:5 2:5 4:5 2:5 4:5
4:0 3:5 2:5 3:5 4:10 3:5 2:5 4:5 2:5 4:5 1:5
3:0 2:5 3:5 4:10 3:5 2:5 4:5 2:5 4:5 1:5 4:5
2:0 3:5 4:10 3:5 2:5 4:5 2:5 4:5 1:5 4:5 2:5
3:0 4:10 3:5 2:5 4:5 2:5 4:5 1:5 4:5 2:5 4:5
4:0 3:5 2:5 4:5 2:5 4:5 1:5 4:5 2:5 4:5 3:5
3:0 2:5 4:5 2:5 4:5 1:5 4:5 2:5 4:5 3:5 2:10
2:0 4:5 2:5 4:5 1:5 4:5 2:5 4:5 3:5 2:10 4:5
4:0 2:5 4:5 1:5 4:5 2:5 4:5 3:5 2:10 4:5 2:5
2:0 4:5 1:5 4:5 2:5 4:5 3:5 2:10 4:5 2:5 4:5
4:0 1:5 4:5 2:5 4:5 3:5 2:10 4:5 2:5 4:5 2:5
1:0 4:5 2:5 4:5 3:5 2:10 4:5 2:5 4:5 2:5 4:5
4:0 2:5 4:5 3:5 2:10 4:5 2:5 4:5 2:5 4:5 3:5
2:0 4:5 3:5 2:10 4:5 2:5 4:5 2:5 4:5 3:5 4:5
4:0 3:5 2:10 4:5 2:5 4:5 2:5 4:5 3:5 4:5 2:5
3:0 2:10 4:5 2:5 4:5 2:5 4:5 3:5 4:5 2:5 3:5
2:0 4:5 2:5 4:5 2:5 4:5 3:5 4:5 2:5 3:5 2:5
4:0 2:5 4:5 2:5 4:5 3:5 4:5 2:5 3:5 2:5 4:5
2:0 4:5 2:5 4:5 3:5 4:5 2:5 3:5 2:5 4:5 3:5
4:0 2:5 4:5 3:5 4:5 2:5 3:5 2:5 4:5 3:5 4:5
2:0 4:5 3:5 4:5 2:5 3:5 2:5 4:5 3:5 4:5 1:5
4:0 3:5 4:5 2:5 3:5 2:5 4:5 3:5 4:5 1:5 4:5
3:0 4:5 2:5 3:5 2:5 4:5 3:5 4:5 1:5 4:5 2:5
4:0 2:5 3:5 2:5 4:5 3:5 4:5 1:5 4:5 2:5 5:5
2:0 3:5 2:5 4:5 3:5 4:5 1:5 4:5 2:5 5:5 2:5
3:0 2:5 4:5 3:5 4:5 1:5 4:5 2:5 5:5 2:5 4:10
2:0 4:5 3:5 4:5 1:5 4:5 2:5 5:5 2:5 4:10 3:5
4:0 3:5 4:5 1:5 4:5 2:5 5:5 2:5 4:10 3:5 5:5
3:0 4:5 1:5 4:5 2:5 5:5 2:5 4:10 3:5 5:5 1:5
4:0 1:5 4:5 2:5 5:5 2:5 4:10 3:5 5:5 1:5 4:5
1:0 4:5 2:5 5:5 2:5 4:10 3:5 5:5 1:5 4:5 2:5
4:0 2:5 5:5 2:5 4:10 3:5 5:5 1:5 4:5 2:5 4:5
2:0 5:5 2:5 4:10 3:5 5:5 1:5 4:5 2:5 4:5 2:5
5:0 2:5 4:10 3:5 5:5 1:5 4:5 2:5 4:5 2:5 3:5
2:0 4:10 3:5 5:5 1:5 4:5 2:5 4:5 2:5 3:5 2:5
4:0 3:5 5:5 1:5 4:5 2:5 4:5 2:5 3:5 2:5 4:5
3:0 5:5 1:5 4:5 2:5 4:5 2:5 3:5 2:5 4:5 2:5
5:0 1:5 4:5 2:5 4:5 2:5 3:5 2:5 4:5 2:5 4:5
1:0 4:5 2:5 4:5 2:5 3:5 2:5 4:5 2:5 4:5 1:5
4:0 2:5 4:5 2:5 3:5 2:5 4:5 2:5 4:5 1:5 4:5
2:0 4:5 2:5 3:5 2:5 4:5 2:5 4:5 1:5 4:5 2:5
4:0 2:5 3:5 2:5 4:5 2:5 4:5 1:5 4:5 2:5 4:5
2:0 3:5 2:5 4:5 2:5 4:5 1:5 4:5 2:5 4:5 3:5
3:0 2:5 4:5 2:5 4:5 1:5 4:5 2:5 4:5 3:5 2:5
2:0 4:5 2:5 4:5 1:5 4:5 2:5 4:5 3:5 2:5 3:5
4:0 2:5 4:5 1:5 4:5 2:5 4:5 3:5 2:5 3:5 4:10
2:0 4:5 1:5 4:5 2:5 4:5 3:5 2:5 3:5 4:10 3:5
4:0 1:5 4:5 2:5 4:5 3:5 2:5 3:5 4:10 3:5 2:5
1:0 4:5 2:5 4:5 3:5 2:5 3:5 4:10 3:5 2:5 4:5
4:0 2:5 4:5 3:5 2:5 3:5 4:10 3:5 2:5 4:5 2:5
2:0 4:5 3:5 2:5 3:5 4:10 3:5 2:5 4:5 2:5 5:5
4:0 3:5 2:5 3:5 4:10 3:5 2:5 4:5 2:5 5:5 2:5
3:0 2:5 3:5 4:10 3:5 2:5 4:5 2:5 5:5 2:5 3:10
2:0 3:5 4:10 3:5 2:5 4:5 2:5 5:5 2:5 3:10 4:10
3:0 4:10 3:5 2:5 4:5 2:5 5:5 2:5 3:10 4:10 2:5
4:0 3:5 2:5 4:5 2:5 5:5 2:5 3:10 4:10 2:5 4:5
3:0 2:5 4:5 2:5 5:5 2:5 3:10 4:10 2:5 4:5 2:5
2:0 4:5 2:5 5:5 2:5 3:10 4:10 2:5 4:5 2:5 4:5
4:0 2:5 5:5 2:5 3:10 4:10 2:5 4:5 2:5 4:5 2:5
2:0 5:5 2:5 3:10 4:10 2:5 4:5 2:5 4:5 2:5 3:5
5:0 2:5 3:10 4:10 2:5 4:5 2:5 4:5 2:5 3:5 4:10
2:0 3:10 4:10 2:5 4:5 2:5 4:5 2:5 3:5 4:10 3:5
3:0 4:10 2:5 4:5 2:5 4:5 2:5 3:5 4:10 3:5 4:5
4:0 2:5 4:5 2:5 4:5 2:5 3:5 4:10 3:5 4:5 2:5
2:0 4:5 2:5 4:5 2:5 3:5 4:10 3:5 4:5 2:5 4:5
4:0 2:5 4:5 2:5 3:5 4:10 3:5 4:5 2:5 4:5 2:5
2:0 4:5 2:5 3:5 4:10 3:5 4:5 2:5 4:5 2:5 5:5
4:0 2:5 3:5 4:10 3:5 4:5 2:5 4:5 2:5 5:5 2:5
2:0 3:5 4:10 3:5 4:5 2:5 4:5 2:5 5:5 2:5 3:5
3:0 4:10 3:5 4:5 2:5 4:5 2:5 5:5 2:5 3:5 4:15
4:0 3:5 4:5 2:5 4:5 2:5 5:5 2:5 3:5 4:15 2:5
3:0 4:5 2:5 4:5 2:5 5:5 2:5 3:5 4:15 2:5 4:5
4:0 2:5 4:5 2:5 5:5 2:5 3:5 4:15 2:5 4:5 2:5
2:0 4:5 2:5 5:5 2:5 3:5 4:15 2:5 4:5 2:5 4:5
4:0 2:5 5:5 2:5 3:5 4:15 2:5 4:5 2:5 4:5 2:5
2:0 5:5 2:5 3:5 4:15 2:5 4:5 2:5 4:5 2:5 4:5
5:0 2:5 3:5 4:15 2:5 4:5 2:5 4:5 2:5 4:5 2:5
2:0 3:5 4:15 2:5 4:5 2:5 4:5 2:5 4:5 2:5 4:5
3:0 4:15 2:5 4:5 2:5 4:5 2:5 4:5 2:5 4:5 2:5
4:0 2:5 4:5 2:5 4:5 2:5 4:5 2:5 4:5 2:5 4:5
2:0 4:5 2:5 4:5 2:5 4:5 2:5 4:5 2:5 4:5 1:5
4:0 2:5 4:5 2:5 4:5 2:5 4:5 2:5 4:5 1:5 4:5
2:0 4:5 2:5 4:5 2:5 4:5 2:5 4:5 1:5 4:5 2:5
4:0 2:5 4:5 2:5 4:5 2:5 4:5 1:5 4:5 2:5 5:5
2:0 4:5 2:5 4:5 2:5 4:5 1:5 4:5 2:5 5:5 2:5
4:0 2:5 4:5 2:5 4:5 1:5 4:5 2:5 5:5 2:5 4:5
2:0 4:5 2:5 4:5 1:5 4:5 2:5 5:5 2:5 4:5 2:5
4:0 2:5 4:5 1:5 4:5 2:5 5:5 2:5 4:5 2:5 4:5
2:0 4:5 1:5 4:5 2:5 5:5 2:5 4:5 2:5 4:5 2:5
4:0 1:5 4:5 2:5 5:5 2:5 4:5 2:5 4:5 2:5 4:5
1:0 4:5 2:5 5:5 2:5 4:5 2:5 4:5 2:5 4:5 2:5
4:0 2:5 5:5 2:5 4:5 2:5 4:5 2:5 4:5 2:5 4:5
2:0 5:5 2:5 4:5 2:5 4:5 2:5 4:5 2:5 4:5 2:5
5:0 2:5 4:5 2:5 4:5 2:5 4:5 2:5 4:5 2:5 5:5
2:0 4:5 2:5 4:5 2:5 4:5 2:5 4:5 2:5 5:5 2:5
4:0 2:5 4:5 2:5 4:5 2:5 4:5 2:5 5:5 2:5 3:5
2:0 4:5 2:5 4:5 2:5 4:5 2:5 5:5 2:5 3:5 4:15
4:0 2:5 4:5 2:5 4:5 2:5 5:5 2:5 3:5 4:15 1:5
2:0 4:5 2:5 4:5 2:5 5:5 2:5 3:5 4:15 1:5 4:5
4:0 2:5 4:5 2:5 5:5 2:5 3:5 4:15 1:5 4:5 2:5
2:0 4:5 2:5 5:5 2:5 3:5 4:15 1:5 4:5 2:5 5:5
4:0 2:5 5:5 2:5 3:5 4:15 1:5 4:5 2:5 5:5 3:5
2:0 5:5 2:5 3:5 4:15 1:5 4:5 2:5 5:5 3:5 2:10
5:0 2:5 3:5 4:15 1:5 4:5 2:5 5:5 3:5 2:10 4:5
2:0 3:5 4:15 1:5 4:5 2:5 5:5 3:5 2:10 4:5 2:5
3:0 4:15 1:5 4:5 2:5 5:5 3:5 2:10 4:5 2:5 4:5
4:0 1:5 4:5 2:5 5:5 3:5 2:10 4:5 2:5 4:5 1:5
1:0 4:5 2:5 5:5 3:5 2:10 4:5 2:5 4:5 1:5 5:5
4:0 2:5 5:5 3:5 2:10 4:5 2:5 4:5 1:5 5:5 2:5
2:0 5:5 3:5 2:10 4:5 2:5 4:5 1:5 5:5 2:5 4:5
5:0 3:5 2:10 4:5 2:5 4:5 1:5 5:5 2:5 4:5 3:5
3:0 2:10 4:5 2:5 4:5 1:5 5:5 2:5 4:5 3:5 2:5
2:0 4:5 2:5 4:5 1:5 5:5 2:5 4:5 3:5 2:5 4:5
4:0 2:5 4:5 1:5 5:5 2:5 4:5 3:5 2:5 4:5 3:5
2:0 4:5 1:5 5:5 2:5 4:5 3:5 2:5 4:5 3:5 4:5
4:0 1:5 5:5 2:5 4:5 3:5 2:5 4:5 3:5 4:5 2:5
1:0 5:5 2:5 4:5 3:5 2:5 4:5 3:5 4:5 2:5 4:5
5:0 2:5 4:5 3:5 2:5 4:5 3:5 4:5 2:5 4:5 2:5
2:0 4:5 3:5 2:5 4:5 3:5 4:5 2:5 4:5 2:5 4:5
4:0 3:5 2:5 4:5 3:5 4:5 2:5 4:5 2:5 4:5 3:5
3:0 2:5 4:5 3:5 4:5 2:5 4:5 2:5 4:5 3:5 2:5
2:0 4:5 3:5 4:5 2:5 4:5 2:5 4:5 3:5 2:5 3:5
4:0 3:5 4:5 2:5 4:5 2:5 4:5 3:5 2:5 3:5 4:5
3:0 4:5 2:5 4:5 2:5 4:5 3:5 2:5 3:5 4:5 3:5
4:0 2:5 4:5 2:5 4:5 3:5 2:5 3:5 4:5 3:5 4:5
2:0 4:5 2:5 4:5 3:5 2:5 3:5 4:5 3:5 4:5 1:5
4:0 2:5 4:5 3:5 2:5 3:5 4:5 3:5 4:5 1:5 5:5
2:0 4:5 3:5 2:5 3:5 4:5 3:5 4:5 1:5 5:5 2:5
4:0 3:5 2:5 3:5 4:5 3:5 4:5 1:5 5:5 2:5 4:5
3:0 2:5 3:5 4:5 3:5 4:5 1:5 5:5 2:5 4:5 2:5
2:0 3:5 4:5 3:5 4:5 1:5 5:5 2:5 4:5 2:5 3:5
3:0 4:5 3:5 4:5 1:5 5:5 2:5 4:5 2:5 3:5 2:5
4:0 3:5 4:5 1:5 5:5 2:5 4:5 2:5 3:5 2:5 4:5
3:0 4:5 1:5 5:5 2:5 4:5 2:5 3:5 2:5 4:5 3:5
4:0 1:5 5:5 2:5 4:5 2:5 3:5 2:5 4:5 3:5 4:5
1:0 5:5 2:5 4:5 2:5 3:5 2:5 4:5 3:5 4:5 2:5
5:0 2:5 4:5 2:5 3:5 2:5 4:5 3:5 4:5 2:5 4:5
2:0 4:5 2:5 3:5 2:5 4:5 3:5 4:5 2:5 4:5 2:5
4:0 2:5 3:5 2:5 4:5 3:5 4:5 2:5 4:5 2:5 5:5
2:0 3:5 2:5 4:5 3:5 4:5 2:5 4:5 2:5 5:5 2:5
3:0 2:5 4:5 3:5 4:5 2:5 4:5 2:5 5:5 2:5 3:5
2:0 4:5 3:5 4:5 2:5 4:5 2:5 5:5 2:5 3:5 4:15
4:0 3:5 4:5 2:5 4:5 2:5 5:5 2:5 3:5 4:15 2:5
3:0 4:5 2:5 4:5 2:5 5:5 2:5 3:5 4:15 2:5 4:5
4:0 2:5 4:5 2:5 5:5 2:5 3:5 4:15 2:5 4:5 3:5
2:0 4:5 2:5 5:5 2:5 3:5 4:15 2:5 4:5 3:5 4:10
4:0 2:5 5:5 2:5 3:5 4:15 2:5 4:5 3:5 4:10 2:5
2:0 5:5 2:5 3:5 4:15 2:5 4:5 3:5 4:10 2:5 4:5
5:0 2:5 3:5 4:15 2:5 4:5 3:5 4:10 2:5 4:5 2:5
2:0 3:5 4:15 2:5 4:5 3:5 4:10 2:5 4:5 2:5 4:5
3:0 4:15 2:5 4:5 3:5 4:10 2:5 4:5 2:5 4:5 3:5
4:0 2:5 4:5 3:5 4:10 2:5 4:5 2:5 4:5 3:5 2:5
2:0 4:5 3:5 4:10 2:5 4:5 2:5 4:5 3:5 2:5 4:5
4:0 3:5 4:10 2:5 4:5 2:5 4:5 3:5 2:5 4:5 2:5
3:0 4:10 2:5 4:5 2:5 4:5 3:5 2:5 4:5 2:5 5:5
4:0 2:5 4:5 2:5 4:5 3:5 2:5 4:5 2:5 5:5 2:5
2:0 4:5 2:5 4:5 3:5 2:5 4:5 2:5 5:5 2:5 4:10
4:0 2:5 4:5 3:5 2:5 4:5 2:5 5:5 2:5 4:10 2:5
2:0 4:5 3:5 2:5 4:5 2:5 5:5 2:5 4:10 2:5 5:5
4:0 3:5 2:5 4:5 2:5 5:5 2:5 4:10 2:5 5:5 2:5
3:0 2:5 4:5 2:5 5:5 2:5 4:10 2:5 5:5 2:5 4:10
2:0 4:5 2:5 5:5 2:5 4:10 2:5 5:5 2:5 4:10 2:5
4:0 2:5 5:5 2:5 4:10 2:5 5:5 2:5 4:10 2:5 4:5
2:0 5:5 2:5 4:10 2:5 5:5 2:5 4:10 2:5 4:5 1:5
5:0 2:5 4:10 2:5 5:5 2:5 4:10 2:5 4:5 1:5 4:5
2:0 4:10 2:5 5:5 2:5 4:10 2:5 4:5 1:5 4:5 2:5
4:0 2:5 5:5 2:5 4:10 2:5 4:5 1:5 4:5 2:5 4:5
2:0 5:5 2:5 4:10 2:5 4:5 1:5 4:5 2:5 4:5 2:10
5:0 2:5 4:10 2:5 4:5 1:5 4:5 2:5 4:5 2:10 5:5
2:0 4:10 2:5 4:5 1:5 4:5 2:5 4:5 2:10 5:5 2:5
4:0 2:5 4:5 1:5 4:5 2:5 4:5 2:10 5:5 2:5 4:5
2:0 4:5 1:5 4:5 2:5 4:5 2:10 5:5 2:5 4:5 2:5
4:0 1:5 4:5 2:5 4:5 2:10 5:5 2:5 4:5 2:5 4:10
1:0 4:5 2:5 4:5 2:10 5:5 2:5 4:5 2:5 4:10 2:5
4:0 2:5 4:5 2:10 5:5 2:5 4:5 2:5 4:10 2:5 5:5
2:0 4:5 2:10 5:5 2:5 4:5 2:5 4:10 2:5 5:5 2:5
4:0 2:10 5:5 2:5 4:5 2:5 4:10 2:5 5:5 2:5 3:5
2:0 5:5 2:5 4:5 2:5 4:10 2:5 5:5 2:5 3:5 4:15
5:0 2:5 4:5 2:5 4:10 2:5 5:5 2:5 3:5 4:15 2:5
2:0 4:5 2:5 4:10 2:5 5:5 2:5 3:5 4:15 2:5 4:5
4:0 2:5 4:10 2:5 5:5 2:5 3:5 4:15 2:5 4:5 3:5
2:0 4:10 2:5 5:5 2:5 3:5 4:15 2:5 4:5 3:5 4:10
4:0 2:5 5:5 2:5 3:5 4:15 2:5 4:5 3:5 4:10 2:5
2:0 5:5 2:5 3:5 4:15 2:5 4:5 3:5 4:10 2:5 4:5
5:0 2:5 3:5 4:15 2:5 4:5 3:5 4:10 2:5 4:5 3:5
2:0 3:5 4:15 2:5 4:5 3:5 4:10 2:5 4:5 3:5 4:10
3:0 4:15 2:5 4:5 3:5 4:10 2:5 4:5 3:5 4:10 1:5
4:0 2:5 4:5 3:5 4:10 2:5 4:5 3:5 4:10 1:5 5:5
2:0 4:5 3:5 4:10 2:5 4:5 3:5 4:10 1:5 5:5 2:5
4:0 3:5 4:10 2:5 4:5 3:5 4:10 1:5 5:5 2:5 4:5
3:0 4:10 2:5 4:5 3:5 4:10 1:5 5:5 2:5 4:5 2:5
4:0 2:5 4:5 3:5 4:10 1:5 5:5 2:5 4:5 2:5 4:10
2:0 4:5 3:5 4:10 1:5 5:5 2:5 4:5 2:5 4:10 3:5
4:0 3:5 4:10 1:5 5:5 2:5 4:5 2:5 4:10 3:5 2:15
3:0 4:10 1:5 5:5 2:5 4:5 2:5 4:10 3:5 2:15 5:5
4:0 1:5 5:5 2:5 4:5 2:5 4:10 3:5 2:15 5:5 2:5
1:0 5:5 2:5 4:5 2:5 4:10 3:5 2:15 5:5 2:5 4:5
5:0 2:5 4:5 2:5 4:10 3:5 2:15 5:5 2:5 4:5 2:5
2:0 4:5 2:5 4:10 3:5 2:15 5:5 2:5 4:5 2:5 4:5
4:0 2:5 4:10 3:5 2:15 5:5 2:5 4:5 2:5 4:5 3:5
2:0 4:10 3:5 2:15 5:5 2:5 4:5 2:5 4:5 3:5 4:10
4:0 3:5 2:15 5:5 2:5 4:5 2:5 4:5 3:5 4:10 1:5
3:0 2:15 5:5 2:5 4:5 2:5 4:5 3:5 4:10 1:5 5:5
2:0 5:5 2:5 4:5 2:5 4:5 3:5 4:10 1:5 5:5 2:5
5:0 2:5 4:5 2:5 4:5 3:5 4:10 1:5 5:5 2:5 4:5
2:0 4:5 2:5 4:5 3:5 4:10 1:5 5:5 2:5 4:5 2:5
4:0 2:5 4:5 3:5 4:10 1:5 5:5 2:5 4:5 2:5 3:10
2:0 4:5 3:5 4:10 1:5 5:5 2:5 4:5 2:5 3:10 4:15
4:0 3:5 4:10 1:5 5:5 2:5 4:5 2:5 3:10 4:15 2:5
3:0 4:10 1:5 5:5 2:5 4:5 2:5 3:10 4:15 2:5 5:5
4:0 1:5 5:5 2:5 4:5 2:5 3:10 4:15 2:5 5:5 2:5
1:0 5:5 2:5 4:5 2:5 3:10 4:15 2:5 5:5 2:5 4:5
5:0 2:5 4:5 2:5 3:10 4:15 2:5 5:5 2:5 4:5 2:5
2:0 4:5 2:5 3:10 4:15 2:5 5:5 2:5 4:5 2:5 4:10
4:0 2:5 3:10 4:15 2:5 5:5 2:5 4:5 2:5 4:10 3:5
2:0 3:10 4:15 2:5 5:5 2:5 4:5 2:5 4:10 3:5 4:5
3:0 4:15 2:5 5:5 2:5 4:5 2:5 4:10 3:5 4:5 2:5
4:0 2:5 5:5 2:5 4:5 2:5 4:10 3:5 4:5 2:5 4:5
2:0 5:5 2:5 4:5 2:5 4:10 3:5 4:5 2:5 4:5 2:5
5:0 2:5 4:5 2:5 4:10 3:5 4:5 2:5 4:5 2:5 4:5
2:0 4:5 2:5 4:10 3:5 4:5 2:5 4:5 2:5 4:5 2:5
4:0 2:5 4:10 3:5 4:5 2:5 4:5 2:5 4:5 2:5 3:5
2:0 4:10 3:5 4:5 2:5 4:5 2:5 4:5 2:5 3:5 2:5
4:0 3:5 4:5 2:5 4:5 2:5 4:5 2:5 3:5 2:5 3:5
3:0 4:5 2:5 4:5 2:5 4:5 2:5 3:5 2:5 3:5 4:5
4:0 2:5 4:5 2:5 4:5 2:5 3:5 2:5 3:5 4:5 3:5
2:0 4:5 2:5 4:5 2:5 3:5 2:5 3:5 4:5 3:5 2:10
4:0 2:5 4:5 2:5 3:5 2:5 3:5 4:5 3:5 2:10 5:5
2:0 4:5 2:5 3:5 2:5 3:5 4:5 3:5 2:10 5:5 2:5
4:0 2:5 3:5 2:5 3:5 4:5 3:5 2:10 5:5 2:5 4:5
2:0 3:5 2:5 3:5 4:5 3:5 2:10 5:5 2:5 4:5 1:5
3:0 2:5 3:5 4:5 3:5 2:10 5:5 2:5 4:5 1:5 4:5
2:0 3:5 4:5 3:5 2:10 5:5 2:5 4:5 1:5 4:5 3:5
3:0 4:5 3:5 2:10 5:5 2:5 4:5 1:5 4:5 3:5 4:5
4:0 3:5 2:10 5:5 2:5 4:5 1:5 4:5 3:5 4:5 3:5
3:0 2:10 5:5 2:5 4:5 1:5 4:5 3:5 4:5 3:5 2:5
2:0 5:5 2:5 4:5 1:5 4:5 3:5 4:5 3:5 2:5 3:5
5:0 2:5 4:5 1:5 4:5 3:5 4:5 3:5 2:5 3:5 2:10
2:0 4:5 1:5 4:5 3:5 4:5 3:5 2:5 3:5 2:10 4:5
4:0 1:5 4:5 3:5 4:5 3:5 2:5 3:5 2:10 4:5 2:5
1:0 4:5 3:5 4:5 3:5 2:5 3:5 2:10 4:5 2:5 4:5
4:0 3:5 4:5 3:5 2:5 3:5 2:10 4:5 2:5 4:5 2:5
3:0 4:5 3:5 2:5 3:5 2:10 4:5 2:5 4:5 2:5 4:5
4:0 3:5 2:5 3:5 2:10 4:5 2:5 4:5 2:5 4:5 2:5
3:0 2:5 3:5 2:10 4:5 2:5 4:5 2:5 4:5 2:5 3:5
2:0 3:5 2:10 4:5 2:5 4:5 2:5 4:5 2:5 3:5 4:5
3:0 2:10 4:5 2:5 4:5 2:5 4:5 2:5 3:5 4:5 3:5
2:0 4:5 2:5 4:5 2:5 4:5 2:5 3:5 4:5 3:5 4:5
4:0 2:5 4:5 2:5 4:5 2:5 3:5 4:5 3:5 4:5 1:5
2:0 4:5 2:5 4:5 2:5 3:5 4:5 3:5 4:5 1:5 5:5
4:0 2:5 4:5 2:5 3:5 4:5 3:5 4:5 1:5 5:5 2:5
2:0 4:5 2:5 3:5 4:5 3:5 4:5 1:5 5:5 2:5 5:5
4:0 2:5 3:5 4:5 3:5 4:5 1:5 5:5 2:5 5:5 2:5
2:0 3:5 4:5 3:5 4:5 1:5 5:5 2:5 5:5 2:5 3:5
3:0 4:5 3:5 4:5 1:5 5:5 2:5 5:5 2:5 3:5 2:5
4:0 3:5 4:5 1:5 5:5 2:5 5:5 2:5 3:5 2:5 4:5
3:0 4:5 1:5 5:5 2:5 5:5 2:5 3:5 2:5 4:5 3:5
4:0 1:5 5:5 2:5 5:5 2:5 3:5 2:5 4:5 3:5 4:5
1:0 5:5 2:5 5:5 2:5 3:5 2:5 4:5 3:5 4:5 1:5
5:0 2:5 5:5 2:5 3:5 2:5 4:5 3:5 4:5 1:5 4:5
2:0 5:5 2:5 3:5 2:5 4:5 3:5 4:5 1:5 4:5 2:5
5:0 2:5 3:5 2:5 4:5 3:5 4:5 1:5 4:5 2:5 4:5
2:0 3:5 2:5 4:5 3:5 4:5 1:5 4:5 2:5 4:5 3:5
3:0 2:5 4:5 3:5 4:5 1:5 4:5 2:5 4:5 3:5 2:5
2:0 4:5 3:5 4:5 1:5 4:5 2:5 4:5 3:5 2:5 4:5
4:0 3:5 4:5 1:5 4:5 2:5 4:5 3:5 2:5 4:5 2:5
3:0 4:5 1:5 4:5 2:5 4:5 3:5 2:5 4:5 2:5 4:5
4:0 1:5 4:5 2:5 4:5 3:5 2:5 4:5 2:5 4:5 1:5
1:0 4:5 2:5 4:5 3:5 2:5 4:5 2:5 4:5 1:5 5:5
4:0 2:5 4:5 3:5 2:5 4:5 2:5 4:5 1:5 5:5 2:5
2:0 4:5 3:5 2:5 4:5 2:5 4:5 1:5 5:5 2:5 4:5
4:0 3:5 2:5 4:5 2:5 4:5 1:5 5:5 2:5 4:5 2:5
3:0 2:5 4:5 2:5 4:5 1:5 5:5 2:5 4:5 2:5 3:10
2:0 4:5 2:5 4:5 1:5 5:5 2:5 4:5 2:5 3:10 4:15
4:0 2:5 4:5 1:5 5:5 2:5 4:5 2:5 3:10 4:15 1:5
2:0 4:5 1:5 5:5 2:5 4:5 2:5 3:10 4:15 1:5 4:5
4:0 1:5 5:5 2:5 4:5 2:5 3:10 4:15 1:5 4:5 2:5
1:0 5:5 2:5 4:5 2:5 3:10 4:15 1:5 4:5 2:5 4:5
5:0 2:5 4:5 2:5 3:10 4:15 1:5 4:5 2:5 4:5 3:5
2:0 4:5 2:5 3:10 4:15 1:5 4:5 2:5 4:5 3:5 2:5
4:0 2:5 3:10 4:15 1:5 4:5 2:5 4:5 3:5 2:5 4:5
2:0 3:10 4:15 1:5 4:5 2:5 4:5 3:5 2:5 4:5 3:5
3:0 4:15 1:5 4:5 2:5 4:5 3:5 2:5 4:5 3:5 4:10
4:0 1:5 4:5 2:5 4:5 3:5 2:5 4:5 3:5 4:10 1:5
1:0 4:5 2:5 4:5 3:5 2:5 4:5 3:5 4:10 1:5 5:5
4:0 2:5 4:5 3:5 2:5 4:5 3:5 4:10 1:5 5:5 2:5
2:0 4:5 3:5 2:5 4:5 3:5 4:10 1:5 5:5 2:5 5:5
4:0 3:5 2:5 4:5 3:5 4:10 1:5 5:5 2:5 5:5 2:5
3:0 2:5 4:5 3:5 4:10 1:5 5:5 2:5 5:5 2:5 3:5
2:0 4:5 3:5 4:10 1:5 5:5 2:5 5:5 2:5 3:5 4:15
4:0 3:5 4:10 1:5 5:5 2:5 5:5 2:5 3:5 4:15 1:5
3:0 4:10 1:5 5:5 2:5 5:5 2:5 3:5 4:15 1:5 5:5
4:0 1:5 5:5 2:5 5:5 2:5 3:5 4:15 1:5 5:5 2:5
1:0 5:5 2:5 5:5 2:5 3:5 4:15 1:5 5:5 2:5 4:5
5:0 2:5 5:5 2:5 3:5 4:15 1:5 5:5 2:5 4:5 3:5
2:0 5:5 2:5 3:5 4:15 1:5 5:5 2:5 4:5 3:5 2:5
5:0 2:5 3:5 4:15 1:5 5:5 2:5 4:5 3:5 2:5 4:5
2:0 3:5 4:15 1:5 5:5 2:5 4:5 3:5 2:5 4:5 2:5
3:0 4:15 1:5 5:5 2:5 4:5 3:5 2:5 4:5 2:5 4:5
4:0 1:5 5:5 2:5 4:5 3:5 2:5 4:5 2:5 4:5 3:5
1:0 5:5 2:5 4:5 3:5 2:5 4:5 2:5 4:5 3:5 2:5
5:0 2:5 4:5 3:5 2:5 4:5 2:5 4:5 3:5 2:5 4:5
2:0 4:5 3:5 2:5 4:5 2:5 4:5 3:5 2:5 4:5 2:5
4:0 3:5 2:5 4:5 2:5 4:5 3:5 2:5 4:5 2:5 4:5
3:0 2:5 4:5 2:5 4:5 3:5 2:5 4:5 2:5 4:5 2:5
2:0 4:5 2:5 4:5 3:5 2:5 4:5 2:5 4:5 2:5 3:5
4:0 2:5 4:5 3:5 2:5 4:5 2:5 4:5 2:5 3:5 2:5
2:0 4:5 3:5 2:5 4:5 2:5 4:5 2:5 3:5 2:5 5:5
4:0 3:5 2:5 4:5 2:5 4:5 2:5 3:5 2:5 5:5 3:5
3:0 2:5 4:5 2:5 4:5 2:5 3:5 2:5 5:5 3:5 2:10
2:0 4:5 2:5 4:5 2:5 3:5 2:5 5:5 3:5 2:10 5:5
4:0 2:5 4:5 2:5 3:5 2:5 5:5 3:5 2:10 5:5 2:5
2:0 4:5 2:5 3:5 2:5 5:5 3:5 2:10 5:5 2:5 4:5
4:0 2:5 3:5 2:5 5:5 3:5 2:10 5:5 2:5 4:5 2:5
2:0 3:5 2:5 5:5 3:5 2:10 5:5 2:5 4:5 2:5 4:5
3:0 2:5 5:5 3:5 2:10 5:5 2:5 4:5 2:5 4:5 2:5
2:0 5:5 3:5 2:10 5:5 2:5 4:5 2:5 4:5 2:5 4:5
5:0 3:5 2:10 5:5 2:5 4:5 2:5 4:5 2:5 4:5 3:5
3:0 2:10 5:5 2:5 4:5 2:5 4:5 2:5 4:5 3:5 2:5
2:0 5:5 2:5 4:5 2:5 4:5 2:5 4:5 3:5 2:5 4:5
5:0 2:5 4:5 2:5 4:5 2:5 4:5 3:5 2:5 4:5 2:5
2:0 4:5 2:5 4:5 2:5 4:5 3:5 2:5 4:5 2:5 4:5
4:0 2:5 4:5 2:5 4:5 3:5 2:5 4:5 2:5 4:5 3:5
2:0 4:5 2:5 4:5 3:5 2:5 4:5 2:5 4:5 3:5 2:5
4:0 2:5 4:5 3:5 2:5 4:5 2:5 4:5 3:5 2:5 4:5
2:0 4:5 3:5 2:5 4:5 2:5 4:5 3:5 2:5 4:5 2:5
4:0 3:5 2:5 4:5 2:5 4:5 3:5 2:5 4:5 2:5 4:5
3:0 2:5 4:5 2:5 4:5 3:5 2:5 4:5 2:5 4:5 2:5
2:0 4:5 2:5 4:5 3:5 2:5 4:5 2:5 4:5 2:5 4:10
4:0 2:5 4:5 3:5 2:5 4:5 2:5 4:5 2:5 4:10 3:5
2:0 4:5 3:5 2:5 4:5 2:5 4:5 2:5 4:10 3:5 4:5
4:0 3:5 2:5 4:5 2:5 4:5 2:5 4:10 3:5 4:5 2:5
3:0 2:5 4:5 2:5 4:5 2:5 4:10 3:5 4:5 2:5 4:5
2:0 4:5 2:5 4:5 2:5 4:10 3:5 4:5 2:5 4:5 2:5
4:0 2:5 4:5 2:5 4:10 3:5 4:5 2:5 4:5 2:5 5:5
2:0 4:5 2:5 4:10 3:5 4:5 2:5 4:5 2:5 5:5 2:5
4:0 2:5 4:10 3:5 4:5 2:5 4:5 2:5 5:5 2:5 4:15
2:0 4:10 3:5 4:5 2:5 4:5 2:5 5:5 2:5 4:15 2:5
4:0 3:5 4:5 2:5 4:5 2:5 5:5 2:5 4:15 2:5 4:5
3:0 4:5 2:5 4:5 2:5 5:5 2:5 4:15 2:5 4:5 1:5
4:0 2:5 4:5 2:5 5:5 2:5 4:15 2:5 4:5 1:5 4:5
2:0 4:5 2:5 5:5 2:5 4:15 2:5 4:5 1:5 4:5 2:5
4:0 2:5 5:5 2:5 4:15 2:5 4:5 1:5 4:5 2:5 4:5
2:0 5:5 2:5 4:15 2:5 4:5 1:5 4:5 2:5 4:5 2:5
5:0 2:5 4:15 2:5 4:5 1:5 4:5 2:5 4:5 2:5 3:5
2:0 4:15 2:5 4:5 1:5 4:5 2:5 4:5 2:5 3:5 2:5
4:0 2:5 4:5 1:5 4:5 2:5 4:5 2:5 3:5 2:5 5:5
2:0 4:5 1:5 4:5 2:5 4:5 2:5 3:5 2:5 5:5 2:5
4:0 1:5 4:5 2:5 4:5 2:5 3:5 2:5 5:5 2:5 4:5
1:0 4:5 2:5 4:5 2:5 3:5 2:5 5:5 2:5 4:5 1:5
4:0 2:5 4:5 2:5 3:5 2:5 5:5 2:5 4:5 1:5 4:5
2:0 4:5 2:5 3:5 2:5 5:5 2:5 4:5 1:5 4:5 2:5
4:0 2:5 3:5 2:5 5:5 2:5 4:5 1:5 4:5 2:5 4:5
2:0 3:5 2:5 5:5 2:5 4:5 1:5 4:5 2:5 4:5 2:5
3:0 2:5 5:5 2:5 4:5 1:5 4:5 2:5 4:5 2:5 3:5
2:0 5:5 2:5 4:5 1:5 4:5 2:5 4:5 2:5 3:5 4:15
5:0 2:5 4:5 1:5 4:5 2:5 4:5 2:5 3:5 4:15 2:5
2:0 4:5 1:5 4:5 2:5 4:5 2:5 3:5 4:15 2:5 5:5
4:0 1:5 4:5 2:5 4:5 2:5 3:5 4:15 2:5 5:5 2:5
1:0 4:5 2:5 4:5 2:5 3:5 4:15 2:5 5:5 2:5 4:5
4:0 2:5 4:5 2:5 3:5 4:15 2:5 5:5 2:5 4:5 2:10
2:0 4:5 2:5 3:5 4:15 2:5 5:5 2:5 4:5 2:10 4:5
4:0 2:5 3:5 4:15 2:5 5:5 2:5 4:5 2:10 4:5 2:5
2:0 3:5 4:15 2:5 5:5 2:5 4:5 2:10 4:5 2:5 4:5
3:0 4:15 2:5 5:5 2:5 4:5 2:10 4:5 2:5 4:5 3:5
4:0 2:5 5:5 2:5 4:5 2:10 4:5 2:5 4:5 3:5 2:5
2:0 5:5 2:5 4:5 2:10 4:5 2:5 4:5 3:5 2:5 4:5
5:0 2:5 4:5 2:10 4:5 2:5 4:5 3:5 2:5 4:5 2:5
2:0 4:5 2:10 4:5 2:5 4:5 3:5 2:5 4:5 2:5 4:5
4:0 2:10 4:5 2:5 4:5 3:5 2:5 4:5 2:5 4:5 2:5
2:0 4:5 2:5 4:5 3:5 2:5 4:5 2:5 4:5 2:5 3:5
4:0 2:5 4:5 3:5 2:5 4:5 2:5 4:5 2:5 3:5 2:5
2:0 4:5 3:5 2:5 4:5 2:5 4:5 2:5 3:5 2:5 4:5
4:0 3:5 2:5 4:5 2:5 4:5 2:5 3:5 2:5 4:5 2:5
3:0 2:5 4:5 2:5 4:5 2:5 3:5 2:5 4:5 2:5 4:5
2:0 4:5 2:5 4:5 2:5 3:5 2:5 4:5 2:5 4:5 2:5
4:0 2:5 4:5 2:5 3:5 2:5 4:5 2:5 4:5 2:5 5:5
2:0 4:5 2:5 3:5 2:5 4:5 2:5 4:5 2:5 5:5 2:5
4:0 2:5 3:5 2:5 4:5 2:5 4:5 2:5 5:5 2:5 4:5
2:0 3:5 2:5 4:5 2:5 4:5 2:5 5:5 2:5 4:5 2:5
3:0 2:5 4:5 2:5 4:5 2:5 5:5 2:5 4:5 2:5 4:5
2:0 4:5 2:5 4:5 2:5 5:5 2:5 4:5 2:5 4:5 2:5
4:0 2:5 4:5 2:5 5:5 2:5 4:5 2:5 4:5 2:5 4:5
2:0 4:5 2:5 5:5 2:5 4:5 2:5 4:5 2:5 4:5 2:5
4:0 2:5 5:5 2:5 4:5 2:5 4:5 2:5 4:5 2:5 4:5
2:0 5:5 2:5 4:5 2:5 4:5 2:5 4:5 2:5 4:5 2:5
5:0 2:5 4:5 2:5 4:5 2:5 4:5 2:5 4:5 2:5 4:5
2:0 4:5 2:5 4:5 2:5 4:5 2:5 4:5 2:5 4:5 3:5
4:0 2:5 4:5 2:5 4:5 2:5 4:5 2:5 4:5 3:5 4:5
2:0 4:5 2:5 4:5 2:5 4:5 2:5 4:5 3:5 4:5 1:5
4:0 2:5 4:5 2:5 4:5 2:5 4:5 3:5 4:5 1:5 5:5
2:0 4:5 2:5 4:5 2:5 4:5 3:5 4:5 1:5 5:5 2:5
4:0 2:5 4:5 2:5 4:5 3:5 4:5 1:5 5:5 2:5 5:5
2:0 4:5 2:5 4:5 3:5 4:5 1:5 5:5 2:5 5:5 2:5
4:0 2:5 4:5 3:5 4:5 1:5 5:5 2:5 5:5 2:5 3:5
2:0 4:5 3:5 4:5 1:5 5:5 2:5 5:5 2:5 3:5 2:5
4:0 3:5 4:5 1:5 5:5 2:5 5:5 2:5 3:5 2:5 4:5
3:0 4:5 1:5 5:5 2:5 5:5 2:5 3:5 2:5 4:5 2:5
4:0 1:5 5:5 2:5 5:5 2:5 3:5 2:5 4:5 2:5 4:5
1:0 5:5 2:5 5:5 2:5 3:5 2:5 4:5 2:5 4:5 2:5
5:0 2:5 5:5 2:5 3:5 2:5 4:5 2:5 4:5 2:5 5:5
2:0 5:5 2:5 3:5 2:5 4:5 2:5 4:5 2:5 5:5 2:5
5:0 2:5 3:5 2:5 4:5 2:5 4:5 2:5 5:5 2:5 4:5
2:0 3:5 2:5 4:5 2:5 4:5 2:5 5:5 2:5 4:5 1:5
3:0 2:5 4:5 2:5 4:5 2:5 5:5 2:5 4:5 1:5 4:5
2:0 4:5 2:5 4:5 2:5 5:5 2:5 4:5 1:5 4:5 2:5
4:0 2:5 4:5 2:5 5:5 2:5 4:5 1:5 4:5 2:5 4:5
2:0 4:5 2:5 5:5 2:5 4:5 1:5 4:5 2:5 4:5 2:5
4:0 2:5 5:5 2:5 4:5 1:5 4:5 2:5 4:5 2:5 4:5
2:0 5:5 2:5 4:5 1:5 4:5 2:5 4:5 2:5 4:5 2:5
5:0 2:5 4:5 1:5 4:5 2:5 4:5 2:5 4:5 2:5 4:5
2:0 4:5 1:5 4:5 2:5 4:5 2:5 4:5 2:5 4:5 3:5
4:0 1:5 4:5 2:5 4:5 2:5 4:5 2:5 4:5 3:5 4:5
1:0 4:5 2:5 4:5 2:5 4:5 2:5 4:5 3:5 4:5 1:5
4:0 2:5 4:5 2:5 4:5 2:5 4:5 3:5 4:5 1:5 4:5
2:0 4:5 2:5 4:5 2:5 4:5 3:5 4:5 1:5 4:5 2:5
4:0 2:5 4:5 2:5 4:5 3:5 4:5 1:5 4:5 2:5 4:5
2:0 4:5 2:5 4:5 3:5 4:5 1:5 4:5 2:5 4:5 2:5
4:0 2:5 4:5 3:5 4:5 1:5 4:5 2:5 4:5 2:5 4:5
2:0 4:5 3:5 4:5 1:5 4:5 2:5 4:5 2:5 4:5 2:5
4:0 3:5 4:5 1:5 4:5 2:5 4:5 2:5 4:5 2:5 4:5
3:0 4:5 1:5 4:5 2:5 4:5 2:5 4:5 2:5 4:5 2:5
4:0 1:5 4:5 2:5 4:5 2:5 4:5 2:5 4:5 2:5 4:5
1:0 4:5 2:5 4:5 2:5 4:5 2:5 4:5 2:5 4:5 2:5
4:0 2:5 4:5 2:5 4:5 2:5 4:5 2:5 4:5 2:5 4:5
2:0 4:5 2:5 4:5 2:5 4:5 2:5 4:5 2:5 4:5 2:5
4:0 2:5 4:5 2:5 4:5 2:5 4:5 2:5 4:5 2:5 4:5
2:0 4:5 2:5 4:5 2:5 4:5 2:5 4:5 2:5 4:5 1:5
4:0 2:5 4:5 2:5 4:5 2:5 4:5 2:5 4:5 1:5 4:5
2:0 4:5 2:5 4:5 2:5 4:5 2:5 4:5 1:5 4:5 2:5
4:0 2:5 4:5 2:5 4:5 2:5 4:5 1:5 4:5 2:5 4:5
2:0 4:5 2:5 4:5 2:5 4:5 1:5 4:5 2:5 4:5 2:5
4:0 2:5 4:5 2:5 4:5 1:5 4:5 2:5 4:5 2:5 4:15
2:0 4:5 2:5 4:5 1:5 4:5 2:5 4:5 2:5 4:15 2:5
4:0 2:5 4:5 1:5 4:5 2:5 4:5 2:5 4:15 2:5 4:5
2:0 4:5 1:5 4:5 2:5 4:5 2:5 4:15 2:5 4:5 1:5
4:0 1:5 4:5 2:5 4:5 2:5 4:15 2:5 4:5 1:5 4:5
1:0 4:5 2:5 4:5 2:5 4:15 2:5 4:5 1:5 4:5 2:5
4:0 2:5 4:5 2:5 4:15 2:5 4:5 1:5 4:5 2:5 5:5
2:0 4:5 2:5 4:15 2:5 4:5 1:5 4:5 2:5 5:5 2:5
4:0 2:5 4:15 2:5 4:5 1:5 4:5 2:5 5:5 2:5 3:5
2:0 4:15 2:5 4:5 1:5 4:5 2:5 5:5 2:5 3:5 2:25
4:0 2:5 4:5 1:5 4:5 2:5 5:5 2:5 3:5 2:25 5:5
2:0 4:5 1:5 4:5 2:5 5:5 2:5 3:5 2:25 5:5 2:5
4:0 1:5 4:5 2:5 5:5 2:5 3:5 2:25 5:5 2:5 4:5
1:0 4:5 2:5 5:5 2:5 3:5 2:25 5:5 2:5 4:5 2:5
4:0 2:5 5:5 2:5 3:5 2:25 5:5 2:5 4:5 2:5 4:5
2:0 5:5 2:5 3:5 2:25 5:5 2:5 4:5 2:5 4:5 2:5
5:0 2:5 3:5 2:25 5:5 2:5 4:5 2:5 4:5 2:5 4:5
2:0 3:5 2:25 5:5 2:5 4:5 2:5 4:5 2:5 4:5 2:5
3:0 2:25 5:5 2:5 4:5 2:5 4:5 2:5 4:5 2:5 3:5
2:0 5:5 2:5 4:5 2:5 4:5 2:5 4:5 2:5 3:5 2:5
5:0 2:5 4:5 2:5 4:5 2:5 4:5 2:5 3:5 2:5 4:5
2:0 4:5 2:5 4:5 2:5 4:5 2:5 3:5 2:5 4:5 2:5
4:0 2:5 4:5 2:5 4:5 2:5 3:5 2:5 4:5 2:5 4:5
2:0 4:5 2:5 4:5 2:5 3:5 2:5 4:5 2:5 4:5 1:5
4:0 2:5 4:5 2:5 3:5 2:5 4:5 2:5 4:5 1:5 4:5
2:0 4:5 2:5 3:5 2:5 4:5 2:5 4:5 1:5 4:5 2:5
4:0 2:5 3:5 2:5 4:5 2:5 4:5 1:5 4:5 2:5 5:5
2:0 3:5 2:5 4:5 2:5 4:5 1:5 4:5 2:5 5:5 2:5
3:0 2:5 4:5 2:5 4:5 1:5 4:5 2:5 5:5 2:5 3:5
2:0 4:5 2:5 4:5 1:5 4:5 2:5 5:5 2:5 3:5 4:10
4:0 2:5 4:5 1:5 4:5 2:5 5:5 2:5 3:5 4:10 1:10
2:0 4:5 1:5 4:5 2:5 5:5 2:5 3:5 4:10 1:10 4:5
4:0 1:5 4:5 2:5 5:5 2:5 3:5 4:10 1:10 4:5 2:5
1:0 4:5 2:5 5:5 2:5 3:5 4:10 1:10 4:5 2:5 4:5
4:0 2:5 5:5 2:5 3:5 4:10 1:10 4:5 2:5 4:5 2:5
2:0 5:5 2:5 3:5 4:10 1:10 4:5 2:5 4:5 2:5 3:5
5:0 2:5 3:5 4:10 1:10 4:5 2:5 4:5 2:5 3:5 2:5
2:0 3:5 4:10 1:10 4:5 2:5 4:5 2:5 3:5 2:5 3:5
3:0 4:10 1:10 4:5 2:5 4:5 2:5 3:5 2:5 3:5 4:5
4:0 1:10 4:5 2:5 4:5 2:5 3:5 2:5 3:5 4:5 2:10
1:0 4:5 2:5 4:5 2:5 3:5 2:5 3:5 4:5 2:10 4:5
4:0 2:5 4:5 2:5 3:5 2:5 3:5 4:5 2:10 4:5 2:5
2:0 4:5 2:5 3:5 2:5 3:5 4:5 2:10 4:5 2:5 4:5
4:0 2:5 3:5 2:5 3:5 4:5 2:10 4:5 2:5 4:5 2:5
2:0 3:5 2:5 3:5 4:5 2:10 4:5 2:5 4:5 2:5 4:5
3:0 2:5 3:5 4:5 2:10 4:5 2:5 4:5 2:5 4:5 2:5
2:0 3:5 4:5 2:10 4:5 2:5 4:5 2:5 4:5 2:5 4:5
3:0 4:5 2:10 4:5 2:5 4:5 2:5 4:5 2:5 4:5 3:5
4:0 2:10 4:5 2:5 4:5 2:5 4:5 2:5 4:5 3:5 4:5
2:0 4:5 2:5 4:5 2:5 4:5 2:5 4:5 3:5 4:5 2:5
4:0 2:5 4:5 2:5 4:5 2:5 4:5 3:5 4:5 2:5 5:5
2:0 4:5 2:5 4:5 2:5 4:5 3:5 4:5 2:5 5:5 2:5
4:0 2:5 4:5 2:5 4:5 3:5 4:5 2:5 5:5 2:5 4:5
2:0 4:5 2:5 4:5 3:5 4:5 2:5 5:5 2:5 4:5 2:5
4:0 2:5 4:5 3:5 4:5 2:5 5:5 2:5 4:5 2:5 4:5
2:0 4:5 3:5 4:5 2:5 5:5 2:5 4:5 2:5 4:5 2:5
4:0 3:5 4:5 2:5 5:5 2:5 4:5 2:5 4:5 2:5 4:5
3:0 4:5 2:5 5:5 2:5 4:5 2:5 4:5 2:5 4:5 2:5
4:0 2:5 5:5 2:5 4:5 2:5 4:5 2:5 4:5 2:5 3:5
2:0 5:5 2:5 4:5 2:5 4:5 2:5 4:5 2:5 3:5 2:5
5:0 2:5 4:5 2:5 4:5 2:5 4:5 2:5 3:5 2:5 5:5
2:0 4:5 2:5 4:5 2:5 4:5 2:5 3:5 2:5 5:5 2:5
4:0 2:5 4:5 2:5 4:5 2:5 3:5 2:5 5:5 2:5 4:5
2:0 4:5 2:5 4:5 2:5 3:5 2:5 5:5 2:5 4:5 1:5
4:0 2:5 4:5 2:5 3:5 2:5 5:5 2:5 4:5 1:5 4:5
2:0 4:5 2:5 3:5 2:5 5:5 2:5 4:5 1:5 4:5 2:5
4:0 2:5 3:5 2:5 5:5 2:5 4:5 1:5 4:5 2:5 4:5
2:0 3:5 2:5 5:5 2:5 4:5 1:5 4:5 2:5 4:5 3:5
3:0 2:5 5:5 2:5 4:5 1:5 4:5 2:5 4:5 3:5 2:5
2:0 5:5 2:5 4:5 1:5 4:5 2:5 4:5 3:5 2:5 4:5
5:0 2:5 4:5 1:5 4:5 2:5 4:5 3:5 2:5 4:5 2:5
2:0 4:5 1:5 4:5 2:5 4:5 3:5 2:5 4:5 2:5 4:5
4:0 1:5 4:5 2:5 4:5 3:5 2:5 4:5 2:5 4:5 2:5
1:0 4:5 2:5 4:5 3:5 2:5 4:5 2:5 4:5 2:5 4:5
4:0 2:5 4:5 3:5 2:5 4:5 2:5 4:5 2:5 4:5 2:5
2:0 4:5 3:5 2:5 4:5 2:5 4:5 2:5 4:5 2:5 4:5
4:0 3:5 2:5 4:5 2:5 4:5 2:5 4:5 2:5 4:5 3:5
3:0 2:5 4:5 2:5 4:5 2:5 4:5 2:5 4:5 3:5 2:10
2:0 4:5 2:5 4:5 2:5 4:5 2:5 4:5 3:5 2:10 5:5
4:0 2:5 4:5 2:5 4:5 2:5 4:5 3:5 2:10 5:5 2:5
2:0 4:5 2:5 4:5 2:5 4:5 3:5 2:10 5:5 2:5 4:5
4:0 2:5 4:5 2:5 4:5 3:5 2:10 5:5 2:5 4:5 2:5
2:0 4:5 2:5 4:5 3:5 2:10 5:5 2:5 4:5 2:5 4:5
4:0 2:5 4:5 3:5 2:10 5:5 2:5 4:5 2:5 4:5 2:5
2:0 4:5 3:5 2:10 5:5 2:5 4:5 2:5 4:5 2:5 5:5
4:0 3:5 2:10 5:5 2:5 4:5 2:5 4:5 2:5 5:5 2:5
3:0 2:10 5:5 2:5 4:5 2:5 4:5 2:5 5:5 2:5 4:5
2:0 5:5 2:5 4:5 2:5 4:5 2:5 5:5 2:5 4:5 2:5
5:0 2:5 4:5 2:5 4:5 2:5 5:5 2:5 4:5 2:5 4:5
2:0 4:5 2:5 4:5 2:5 5:5 2:5 4:5 2:5 4:5 2:5
4:0 2:5 4:5 2:5 5:5 2:5 4:5 2:5 4:5 2:5 4:5
2:0 4:5 2:5 5:5 2:5 4:5 2:5 4:5 2:5 4:5 1:5
4:0 2:5 5:5 2:5 4:5 2:5 4:5 2:5 4:5 1:5 4:5
2:0 5:5 2:5 4:5 2:5 4:5 2:5 4:5 1:5 4:5 2:5
5:0 2:5 4:5 2:5 4:5 2:5 4:5 1:5 4:5 2:5 4:5
2:0 4:5 2:5 4:5 2:5 4:5 1:5 4:5 2:5 4:5 3:5
4:0 2:5 4:5 2:5 4:5 1:5 4:5 2:5 4:5 3:5 2:5
2:0 4:5 2:5 4:5 1:5 4:5 2:5 4:5 3:5 2:5 3:5
4:0 2:5 4:5 1:5 4:5 2:5 4:5 3:5 2:5 3:5 4:10
2:0 4:5 1:5 4:5 2:5 4:5 3:5 2:5 3:5 4:10 1:5
4:0 1:5 4:5 2:5 4:5 3:5 2:5 3:5 4:10 1:5 3:5
1:0 4:5 2:5 4:5 3:5 2:5 3:5 4:10 1:5 3:5 2:10
4:0 2:5 4:5 3:5 2:5 3:5 4:10 1:5 3:5 2:10 4:5
2:0 4:5 3:5 2:5 3:5 4:10 1:5 3:5 2:10 4:5 2:5
4:0 3:5 2:5 3:5 4:10 1:5 3:5 2:10 4:5 2:5 3:5
3:0 2:5 3:5 4:10 1:5 3:5 2:10 4:5 2:5 3:5 5:5
2:0 3:5 4:10 1:5 3:5 2:10 4:5 2:5 3:5 5:5 2:5
3:0 4:10 1:5 3:5 2:10 4:5 2:5 3:5 5:5 2:5 4:5
4:0 1:5 3:5 2:10 4:5 2:5 3:5 5:5 2:5 4:5 1:5
1:0 3:5 2:10 4:5 2:5 3:5 5:5 2:5 4:5 1:5 4:5
3:0 2:10 4:5 2:5 3:5 5:5 2:5 4:5 1:5 4:5 2:5
2:0 4:5 2:5 3:5 5:5 2:5 4:5 1:5 4:5 2:5 4:5
4:0 2:5 3:5 5:5 2:5 4:5 1:5 4:5 2:5 4:5 3:5
2:0 3:5 5:5 2:5 4:5 1:5 4:5 2:5 4:5 3:5 2:5
3:0 5:5 2:5 4:5 1:5 4:5 2:5 4:5 3:5 2:5 3:5
5:0 2:5 4:5 1:5 4:5 2:5 4:5 3:5 2:5 3:5 4:10
2:0 4:5 1:5 4:5 2:5 4:5 3:5 2:5 3:5 4:10 3:5
4:0 1:5 4:5 2:5 4:5 3:5 2:5 3:5 4:10 3:5 2:5
1:0 4:5 2:5 4:5 3:5 2:5 3:5 4:10 3:5 2:5 5:5
4:0 2:5 4:5 3:5 2:5 3:5 4:10 3:5 2:5 5:5 2:5
2:0 4:5 3:5 2:5 3:5 4:10 3:5 2:5 5:5 2:5 4:5
4:0 3:5 2:5 3:5 4:10 3:5 2:5 5:5 2:5 4:5 2:5
3:0 2:5 3:5 4:10 3:5 2:5 5:5 2:5 4:5 2:5 4:10
2:0 3:5 4:10 3:5 2:5 5:5 2:5 4:5 2:5 4:10 3:5
3:0 4:10 3:5 2:5 5:5 2:5 4:5 2:5 4:10 3:5 4:5
4:0 3:5 2:5 5:5 2:5 4:5 2:5 4:10 3:5 4:5 1:5
3:0 2:5 5:5 2:5 4:5 2:5 4:10 3:5 4:5 1:5 4:5
2:0 5:5 2:5 4:5 2:5 4:10 3:5 4:5 1:5 4:5 2:5
5:0 2:5 4:5 2:5 4:10 3:5 4:5 1:5 4:5 2:5 4:5
2:0 4:5 2:5 4:10 3:5 4:5 1:5 4:5 2:5 4:5 3:5
4:0 2:5 4:10 3:5 4:5 1:5 4:5 2:5 4:5 3:5 2:5
2:0 4:10 3:5 4:5 1:5 4:5 2:5 4:5 3:5 2:5 4:5
4:0 3:5 4:5 1:5 4:5 2:5 4:5 3:5 2:5 4:5 2:5
3:0 4:5 1:5 4:5 2:5 4:5 3:5 2:5 4:5 2:5 4:5
4:0 1:5 4:5 2:5 4:5 3:5 2:5 4:5 2:5 4:5 3:5
1:0 4:5 2:5 4:5 3:5 2:5 4:5 2:5 4:5 3:5 2:5
4:0 2:5 4:5 3:5 2:5 4:5 2:5 4:5 3:5 2:5 5:5
2:0 4:5 3:5 2:5 4:5 2:5 4:5 3:5 2:5 5:5 2:5
4:0 3:5 2:5 4:5 2:5 4:5 3:5 2:5 5:5 2:5 4:5
3:0 2:5 4:5 2:5 4:5 3:5 2:5 5:5 2:5 4:5 3:5
2:0 4:5 2:5 4:5 3:5 2:5 5:5 2:5 4:5 3:5 2:5
4:0 2:5 4:5 3:5 2:5 5:5 2:5 4:5 3:5 2:5 4:5
2:0 4:5 3:5 2:5 5:5 2:5 4:5 3:5 2:5 4:5 2:5
4:0 3:5 2:5 5:5 2:5 4:5 3:5 2:5 4:5 2:5 4:5
3:0 2:5 5:5 2:5 4:5 3:5 2:5 4:5 2:5 4:5 2:5
2:0 5:5 2:5 4:5 3:5 2:5 4:5 2:5 4:5 2:5 4:5
5:0 2:5 4:5 3:5 2:5 4:5 2:5 4:5 2:5 4:5 2:5
2:0 4:5 3:5 2:5 4:5 2:5 4:5 2:5 4:5 2:5 5:5
4:0 3:5 2:5 4:5 2:5 4:5 2:5 4:5 2:5 5:5 2:5
3:0 2:5 4:5 2:5 4:5 2:5 4:5 2:5 5:5 2:5 3:5
2:0 4:5 2:5 4:5 2:5 4:5 2:5 5:5 2:5 3:5 2:5
4:0 2:5 4:5 2:5 4:5 2:5 5:5 2:5 3:5 2:5 4:5
2:0 4:5 2:5 4:5 2:5 5:5 2:5 3:5 2:5 4:5 2:5
4:0 2:5 4:5 2:5 5:5 2:5 3:5 2:5 4:5 2:5 4:5
2:0 4:5 2:5 5:5 2:5 3:5 2:5 4:5 2:5 4:5 1:5
4:0 2:5 5:5 2:5 3:5 2:5 4:5 2:5 4:5 1:5 4:5
2:0 5:5 2:5 3:5 2:5 4:5 2:5 4:5 1:5 4:5 2:5
5:0 2:5 3:5 2:5 4:5 2:5 4:5 1:5 4:5 2:5 5:5
2:0 3:5 2:5 4:5 2:5 4:5 1:5 4:5 2:5 5:5 3:5
3:0 2:5 4:5 2:5 4:5 1:5 4:5 2:5 5:5 3:5 2:5
2:0 4:5 2:5 4:5 1:5 4:5 2:5 5:5 3:5 2:5 3:5
4:0 2:5 4:5 1:5 4:5 2:5 5:5 3:5 2:5 3:5 4:10
2:0 4:5 1:5 4:5 2:5 5:5 3:5 2:5 3:5 4:10 2:5
4:0 1:5 4:5 2:5 5:5 3:5 2:5 3:5 4:10 2:5 4:10
1:0 4:5 2:5 5:5 3:5 2:5 3:5 4:10 2:5 4:10 2:5
4:0 2:5 5:5 3:5 2:5 3:5 4:10 2:5 4:10 2:5 4:5
2:0 5:5 3:5 2:5 3:5 4:10 2:5 4:10 2:5 4:5 2:5
5:0 3:5 2:5 3:5 4:10 2:5 4:10 2:5 4:5 2:5 3:5
3:0 2:5 3:5 4:10 2:5 4:10 2:5 4:5 2:5 3:5 4:5
2:0 3:5 4:10 2:5 4:10 2:5 4:5 2:5 3:5 4:5 3:5
3:0 4:10 2:5 4:10 2:5 4:5 2:5 3:5 4:5 3:5 4:5
4:0 2:5 4:10 2:5 4:5 2:5 3:5 4:5 3:5 4:5 1:5
2:0 4:10 2:5 4:5 2:5 3:5 4:5 3:5 4:5 1:5 5:5
4:0 2:5 4:5 2:5 3:5 4:5 3:5 4:5 1:5 5:5 2:5
2:0 4:5 2:5 3:5 4:5 3:5 4:5 1:5 5:5 2:5 4:5
4:0 2:5 3:5 4:5 3:5 4:5 1:5 5:5 2:5 4:5 2:5
2:0 3:5 4:5 3:5 4:5 1:5 5:5 2:5 4:5 2:5 3:5
3:0 4:5 3:5 4:5 1:5 5:5 2:5 4:5 2:5 3:5 4:10
4:0 3:5 4:5 1:5 5:5 2:5 4:5 2:5 3:5 4:10 3:5
3:0 4:5 1:5 5:5 2:5 4:5 2:5 3:5 4:10 3:5 4:5
4:0 1:5 5:5 2:5 4:5 2:5 3:5 4:10 3:5 4:5 2:5
1:0 5:5 2:5 4:5 2:5 3:5 4:10 3:5 4:5 2:5 4:5
5:0 2:5 4:5 2:5 3:5 4:10 3:5 4:5 2:5 4:5 2:5
2:0 4:5 2:5 3:5 4:10 3:5 4:5 2:5 4:5 2:5 4:5
4:0 2:5 3:5 4:10 3:5 4:5 2:5 4:5 2:5 4:5 2:5
2:0 3:5 4:10 3:5 4:5 2:5 4:5 2:5 4:5 2:5 3:5
3:0 4:10 3:5 4:5 2:5 4:5 2:5 4:5 2:5 3:5 4:10
4:0 3:5 4:5 2:5 4:5 2:5 4:5 2:5 3:5 4:10 2:10
3:0 4:5 2:5 4:5 2:5 4:5 2:5 3:5 4:10 2:10 4:5
4:0 2:5 4:5 2:5 4:5 2:5 3:5 4:10 2:10 4:5 3:5
2:0 4:5 2:5 4:5 2:5 3:5 4:10 2:10 4:5 3:5 4:10
4:0 2:5 4:5 2:5 3:5 4:10 2:10 4:5 3:5 4:10 2:5
2:0 4:5 2:5 3:5 4:10 2:10 4:5 3:5 4:10 2:5 3:5
4:0 2:5 3:5 4:10 2:10 4:5 3:5 4:10 2:5 3:5 4:10
2:0 3:5 4:10 2:10 4:5 3:5 4:10 2:5 3:5 4:10 2:10
3:0 4:10 2:10 4:5 3:5 4:10 2:5 3:5 4:10 2:10 4:5
4:0 2:10 4:5 3:5 4:10 2:5 3:5 4:10 2:10 4:5 2:5
2:0 4:5 3:5 4:10 2:5 3:5 4:10 2:10 4:5 2:5 4:5
4:0 3:5 4:10 2:5 3:5 4:10 2:10 4:5 2:5 4:5 3:5
3:0 4:10 2:5 3:5 4:10 2:10 4:5 2:5 4:5 3:5 2:5
4:0 2:5 3:5 4:10 2:10 4:5 2:5 4:5 3:5 2:5 3:5
2:0 3:5 4:10 2:10 4:5 2:5 4:5 3:5 2:5 3:5 4:15
3:0 4:10 2:10 4:5 2:5 4:5 3:5 2:5 3:5 4:15 2:5
4:0 2:10 4:5 2:5 4:5 3:5 2:5 3:5 4:15 2:5 4:5
2:0 4:5 2:5 4:5 3:5 2:5 3:5 4:15 2:5 4:5 2:5
4:0 2:5 4:5 3:5 2:5 3:5 4:15 2:5 4:5 2:5 4:5
2:0 4:5 3:5 2:5 3:5 4:15 2:5 4:5 2:5 4:5 2:5
4:0 3:5 2:5 3:5 4:15 2:5 4:5 2:5 4:5 2:5 4:5
3:0 2:5 3:5 4:15 2:5 4:5 2:5 4:5 2:5 4:5 2:5
2:0 3:5 4:15 2:5 4:5 2:5 4:5 2:5 4:5 2:5 4:5
3:0 4:15 2:5 4:5 2:5 4:5 2:5 4:5 2:5 4:5 2:5
4:0 2:5 4:5 2:5 4:5 2:5 4:5 2:5 4:5 2:5 3:5
2:0 4:5 2:5 4:5 2:5 4:5 2:5 4:5 2:5 3:5 2:5
4:0 2:5 4:5 2:5 4:5 2:5 4:5 2:5 3:5 2:5 5:5
2:0 4:5 2:5 4:5 2:5 4:5 2:5 3:5 2:5 5:5 2:5
4:0 2:5 4:5 2:5 4:5 2:5 3:5 2:5 5:5 2:5 4:5
2:0 4:5 2:5 4:5 2:5 3:5 2:5 5:5 2:5 4:5 2:5
4:0 2:5 4:5 2:5 3:5 2:5 5:5 2:5 4:5 2:5 4:5
2:0 4:5 2:5 3:5 2:5 5:5 2:5 4:5 2:5 4:5 3:5
4:0 2:5 3:5 2:5 5:5 2:5 4:5 2:5 4:5 3:5 4:10
2:0 3:5 2:5 5:5 2:5 4:5 2:5 4:5 3:5 4:10 1:5
3:0 2:5 5:5 2:5 4:5 2:5 4:5 3:5 4:10 1:5 4:5
2:0 5:5 2:5 4:5 2:5 4:5 3:5 4:10 1:5 4:5 2:5
5:0 2:5 4:5 2:5 4:5 3:5 4:10 1:5 4:5 2:5 4:5
2:0 4:5 2:5 4:5 3:5 4:10 1:5 4:5 2:5 4:5 2:5
4:0 2:5 4:5 3:5 4:10 1:5 4:5 2:5 4:5 2:5 3:5
2:0 4:5 3:5 4:10 1:5 4:5 2:5 4:5 2:5 3:5 2:5
4:0 3:5 4:10 1:5 4:5 2:5 4:5 2:5 3:5 2:5 4:5
3:0 4:10 1:5 4:5 2:5 4:5 2:5 3:5 2:5 4:5 2:5
4:0 1:5 4:5 2:5 4:5 2:5 3:5 2:5 4:5 2:5 5:5
1:0 4:5 2:5 4:5 2:5 3:5 2:5 4:5 2:5 5:5 2:5
4:0 2:5 4:5 2:5 3:5 2:5 4:5 2:5 5:5 2:5 4:5
2:0 4:5 2:5 3:5 2:5 4:5 2:5 5:5 2:5 4:5 2:5
4:0 2:5 3:5 2:5 4:5 2:5 5:5 2:5 4:5 2:5 4:5
2:0 3:5 2:5 4:5 2:5 5:5 2:5 4:5 2:5 4:5 2:5
3:0 2:5 4:5 2:5 5:5 2:5 4:5 2:5 4:5 2:5 3:5
2:0 4:5 2:5 5:5 2:5 4:5 2:5 4:5 2:5 3:5 4:15
4:0 2:5 5:5 2:5 4:5 2:5 4:5 2:5 3:5 4:15 1:5
2:0 5:5 2:5 4:5 2:5 4:5 2:5 3:5 4:15 1:5 4:5
5:0 2:5 4:5 2:5 4:5 2:5 3:5 4:15 1:5 4:5 2:5
2:0 4:5 2:5 4:5 2:5 3:5 4:15 1:5 4:5 2:5 5:5
4:0 2:5 4:5 2:5 3:5 4:15 1:5 4:5 2:5 5:5 3:5
2:0 4:5 2:5 3:5 4:15 1:5 4:5 2:5 5:5 3:5 2:5
4:0 2:5 3:5 4:15 1:5 4:5 2:5 5:5 3:5 2:5 4:10
2:0 3:5 4:15 1:5 4:5 2:5 5:5 3:5 2:5 4:10 2:10
3:0 4:15 1:5 4:5 2:5 5:5 3:5 2:5 4:10 2:10 4:10
4:0 1:5 4:5 2:5 5:5 3:5 2:5 4:10 2:10 4:10 2:5
1:0 4:5 2:5 5:5 3:5 2:5 4:10 2:10 4:10 2:5 4:5
4:0 2:5 5:5 3:5 2:5 4:10 2:10 4:10 2:5 4:5 3:5
2:0 5:5 3:5 2:5 4:10 2:10 4:10 2:5 4:5 3:5 2:5
5:0 3:5 2:5 4:10 2:10 4:10 2:5 4:5 3:5 2:5 4:5
3:0 2:5 4:10 2:10 4:10 2:5 4:5 3:5 2:5 4:5 2:5
2:0 4:10 2:10 4:10 2:5 4:5 3:5 2:5 4:5 2:5 4:5
4:0 2:10 4:10 2:5 4:5 3:5 2:5 4:5 2:5 4:5 2:5
2:0 4:10 2:5 4:5 3:5 2:5 4:5 2:5 4:5 2:5 4:10
4:0 2:5 4:5 3:5 2:5 4:5 2:5 4:5 2:5 4:10 2:5
2:0 4:5 3:5 2:5 4:5 2:5 4:5 2:5 4:10 2:5 4:5
4:0 3:5 2:5 4:5 2:5 4:5 2:5 4:10 2:5 4:5 2:5
3:0 2:5 4:5 2:5 4:5 2:5 4:10 2:5 4:5 2:5 3:5
2:0 4:5 2:5 4:5 2:5 4:10 2:5 4:5 2:5 3:5 4:5
4:0 2:5 4:5 2:5 4:10 2:5 4:5 2:5 3:5 4:5 3:5
2:0 4:5 2:5 4:10 2:5 4:5 2:5 3:5 4:5 3:5 4:5
4:0 2:5 4:10 2:5 4:5 2:5 3:5 4:5 3:5 4:5 2:5
2:0 4:10 2:5 4:5 2:5 3:5 4:5 3:5 4:5 2:5 5:5
4:0 2:5 4:5 2:5 3:5 4:5 3:5 4:5 2:5 5:5 2:5
2:0 4:5 2:5 3:5 4:5 3:5 4:5 2:5 5:5 2:5 4:5
4:0 2:5 3:5 4:5 3:5 4:5 2:5 5:5 2:5 4:5 2:5
2:0 3:5 4:5 3:5 4:5 2:5 5:5 2:5 4:5 2:5 3:5
3:0 4:5 3:5 4:5 2:5 5:5 2:5 4:5 2:5 3:5 2:5
4:0 3:5 4:5 2:5 5:5 2:5 4:5 2:5 3:5 2:5 4:5
3:0 4:5 2:5 5:5 2:5 4:5 2:5 3:5 2:5 4:5 2:5
4:0 2:5 5:5 2:5 4:5 2:5 3:5 2:5 4:5 2:5 4:5
2:0 5:5 2:5 4:5 2:5 3:5 2:5 4:5 2:5 4:5 1:5
5:0 2:5 4:5 2:5 3:5 2:5 4:5 2:5 4:5 1:5 4:5
2:0 4:5 2:5 3:5 2:5 4:5 2:5 4:5 1:5 4:5 2:5
4:0 2:5 3:5 2:5 4:5 2:5 4:5 1:5 4:5 2:5 4:5
2:0 3:5 2:5 4:5 2:5 4:5 1:5 4:5 2:5 4:5 2:5
3:0 2:5 4:5 2:5 4:5 1:5 4:5 2:5 4:5 2:5 3:5
2:0 4:5 2:5 4:5 1:5 4:5 2:5 4:5 2:5 3:5 4:15
4:0 2:5 4:5 1:5 4:5 2:5 4:5 2:5 3:5 4:15 1:5
2:0 4:5 1:5 4:5 2:5 4:5 2:5 3:5 4:15 1:5 5:5
4:0 1:5 4:5 2:5 4:5 2:5 3:5 4:15 1:5 5:5 2:5
1:0 4:5 2:5 4:5 2:5 3:5 4:15 1:5 5:5 2:5 4:5
4:0 2:5 4:5 2:5 3:5 4:15 1:5 5:5 2:5 4:5 3:5
2:0 4:5 2:5 3:5 4:15 1:5 5:5 2:5 4:5 3:5 2:5
4:0 2:5 3:5 4:15 1:5 5:5 2:5 4:5 3:5 2:5 3:5
2:0 3:5 4:15 1:5 5:5 2:5 4:5 3:5 2:5 3:5 4:10
3:0 4:15 1:5 5:5 2:5 4:5 3:5 2:5 3:5 4:10 3:5
4:0 1:5 5:5 2:5 4:5 3:5 2:5 3:5 4:10 3:5 2:5
1:0 5:5 2:5 4:5 3:5 2:5 3:5 4:10 3:5 2:5 4:5
5:0 2:5 4:5 3:5 2:5 3:5 4:10 3:5 2:5 4:5 2:5
2:0 4:5 3:5 2:5 3:5 4:10 3:5 2:5 4:5 2:5 5:5
4:0 3:5 2:5 3:5 4:10 3:5 2:5 4:5 2:5 5:5 2:5
3:0 2:5 3:5 4:10 3:5 2:5 4:5 2:5 5:5 2:5 4:5
2:0 3:5 4:10 3:5 2:5 4:5 2:5 5:5 2:5 4:5 2:5
3:0 4:10 3:5 2:5 4:5 2:5 5:5 2:5 4:5 2:5 4:5
4:0 3:5 2:5 4:5 2:5 5:5 2:5 4:5 2:5 4:5 2:5
3:0 2:5 4:5 2:5 5:5 2:5 4:5 2:5 4:5 2:5 4:5
2:0 4:5 2:5 5:5 2:5 4:5 2:5 4:5 2:5 4:5 2:5
4:0 2:5 5:5 2:5 4:5 2:5 4:5 2:5 4:5 2:5 4:5
2:0 5:5 2:5 4:5 2:5 4:5 2:5 4:5 2:5 4:5 2:5
5:0 2:5 4:5 2:5 4:5 2:5 4:5 2:5 4:5 2:5 4:5
2:0 4:5 2:5 4:5 2:5 4:5 2:5 4:5 2:5 4:5 2:5
4:0 2:5 4:5 2:5 4:5 2:5 4:5 2:5 4:5 2:5 3:5
2:0 4:5 2:5 4:5 2:5 4:5 2:5 4:5 2:5 3:5 4:5
4:0 2:5 4:5 2:5 4:5 2:5 4:5 2:5 3:5 4:5 3:5
2:0 4:5 2:5 4:5 2:5 4:5 2:5 3:5 4:5 3:5 4:5
4:0 2:5 4:5 2:5 4:5 2:5 3:5 4:5 3:5 4:5 2:5
2:0 4:5 2:5 4:5 2:5 3:5 4:5 3:5 4:5 2:5 5:5
4:0 2:5 4:5 2:5 3:5 4:5 3:5 4:5 2:5 5:5 2:5
2:0 4:5 2:5 3:5 4:5 3:5 4:5 2:5 5:5 2:5 4:5
4:0 2:5 3:5 4:5 3:5 4:5 2:5 5:5 2:5 4:5 2:5
2:0 3:5 4:5 3:5 4:5 2:5 5:5 2:5 4:5 2:5 4:10
3:0 4:5 3:5 4:5 2:5 5:5 2:5 4:5 2:5 4:10 3:5
4:0 3:5 4:5 2:5 5:5 2:5 4:5 2:5 4:10 3:5 2:15
3:0 4:5 2:5 5:5 2:5 4:5 2:5 4:10 3:5 2:15 4:5
4:0 2:5 5:5 2:5 4:5 2:5 4:10 3:5 2:15 4:5 2:5
2:0 5:5 2:5 4:5 2:5 4:10 3:5 2:15 4:5 2:5 5:5
5:0 2:5 4:5 2:5 4:10 3:5 2:15 4:5 2:5 5:5 2:5
2:0 4:5 2:5 4:10 3:5 2:15 4:5 2:5 5:5 2:5 4:5
4:0 2:5 4:10 3:5 2:15 4:5 2:5 5:5 2:5 4:5 3:5
2:0 4:10 3:5 2:15 4:5 2:5 5:5 2:5 4:5 3:5 4:10
4:0 3:5 2:15 4:5 2:5 5:5 2:5 4:5 3:5 4:10 1:5
3:0 2:15 4:5 2:5 5:5 2:5 4:5 3:5 4:10 1:5 4:5
2:0 4:5 2:5 5:5 2:5 4:5 3:5 4:10 1:5 4:5 2:5
4:0 2:5 5:5 2:5 4:5 3:5 4:10 1:5 4:5 2:5 5:5
2:0 5:5 2:5 4:5 3:5 4:10 1:5 4:5 2:5 5:5 2:5
5:0 2:5 4:5 3:5 4:10 1:5 4:5 2:5 5:5 2:5 3:5
2:0 4:5 3:5 4:10 1:5 4:5 2:5 5:5 2:5 3:5 2:5
4:0 3:5 4:10 1:5 4:5 2:5 5:5 2:5 3:5 2:5 5:5
3:0 4:10 1:5 4:5 2:5 5:5 2:5 3:5 2:5 5:5 2:5
4:0 1:5 4:5 2:5 5:5 2:5 3:5 2:5 5:5 2:5 4:5
1:0 4:5 2:5 5:5 2:5 3:5 2:5 5:5 2:5 4:5 1:5
4:0 2:5 5:5 2:5 3:5 2:5 5:5 2:5 4:5 1:5 5:5
2:0 5:5 2:5 3:5 2:5 5:5 2:5 4:5 1:5 5:5 2:5
5:0 2:5 3:5 2:5 5:5 2:5 4:5 1:5 5:5 2:5 4:5
2:0 3:5 2:5 5:5 2:5 4:5 1:5 5:5 2:5 4:5 2:5
3:0 2:5 5:5 2:5 4:5 1:5 5:5 2:5 4:5 2:5 4:5
2:0 5:5 2:5 4:5 1:5 5:5 2:5 4:5 2:5 4:5 2:5
5:0 2:5 4:5 1:5 5:5 2:5 4:5 2:5 4:5 2:5 4:5
2:0 4:5 1:5 5:5 2:5 4:5 2:5 4:5 2:5 4:5 2:5
4:0 1:5 5:5 2:5 4:5 2:5 4:5 2:5 4:5 2:5 4:5
1:0 5:5 2:5 4:5 2:5 4:5 2:5 4:5 2:5 4:5 2:5
5:0 2:5 4:5 2:5 4:5 2:5 4:5 2:5 4:5 2:5 4:5
2:0 4:5 2:5 4:5 2:5 4:5 2:5 4:5 2:5 4:5 2:5
4:0 2:5 4:5 2:5 4:5 2:5 4:5 2:5 4:5 2:5 4:5
2:0 4:5 2:5 4:5 2:5 4:5 2:5 4:5 2:5 4:5 1:5
4:0 2:5 4:5 2:5 4:5 2:5 4:5 2:5 4:5 1:5 5:5
2:0 4:5 2:5 4:5 2:5 4:5 2:5 4:5 1:5 5:5 2:5
4:0 2:5 4:5 2:5 4:5 2:5 4:5 1:5 5:5 2:5 4:5
2:0 4:5 2:5 4:5 2:5 4:5 1:5 5:5 2:5 4:5 2:5
4:0 2:5 4:5 2:5 4:5 1:5 5:5 2:5 4:5 2:5 3:5
2:0 4:5 2:5 4:5 1:5 5:5 2:5 4:5 2:5 3:5 4:20
4:0 2:5 4:5 1:5 5:5 2:5 4:5 2:5 3:5 4:20 2:5
2:0 4:5 1:5 5:5 2:5 4:5 2:5 3:5 4:20 2:5 4:5
4:0 1:5 5:5 2:5 4:5 2:5 3:5 4:20 2:5 4:5 2:5
1:0 5:5 2:5 4:5 2:5 3:5 4:20 2:5 4:5 2:5 4:5
5:0 2:5 4:5 2:5 3:5 4:20 2:5 4:5 2:5 4:5 2:5
2:0 4:5 2:5 3:5 4:20 2:5 4:5 2:5 4:5 2:5 3:5
4:0 2:5 3:5 4:20 2:5 4:5 2:5 4:5 2:5 3:5 2:5
2:0 3:5 4:20 2:5 4:5 2:5 4:5 2:5 3:5 2:5 4:5
3:0 4:20 2:5 4:5 2:5 4:5 2:5 3:5 2:5 4:5 2:5
4:0 2:5 4:5 2:5 4:5 2:5 3:5 2:5 4:5 2:5 3:5
2:0 4:5 2:5 4:5 2:5 3:5 2:5 4:5 2:5 3:5 2:5
4:0 2:5 4:5 2:5 3:5 2:5 4:5 2:5 3:5 2:5 4:5
2:0 4:5 2:5 3:5 2:5 4:5 2:5 3:5 2:5 4:5 2:5
4:0 2:5 3:5 2:5 4:5 2:5 3:5 2:5 4:5 2:5 4:5
2:0 3:5 2:5 4:5 2:5 3:5 2:5 4:5 2:5 4:5 1:5
3:0 2:5 4:5 2:5 3:5 2:5 4:5 2:5 4:5 1:5 4:5
2:0 4:5 2:5 3:5 2:5 4:5 2:5 4:5 1:5 4:5 2:5
4:0 2:5 3:5 2:5 4:5 2:5 4:5 1:5 4:5 2:5 4:5
2:0 3:5 2:5 4:5 2:5 4:5 1:5 4:5 2:5 4:5 2:5
3:0 2:5 4:5 2:5 4:5 1:5 4:5 2:5 4:5 2:5 3:5
2:0 4:5 2:5 4:5 1:5 4:5 2:5 4:5 2:5 3:5 4:15
4:0 2:5 4:5 1:5 4:5 2:5 4:5 2:5 3:5 4:15 2:10
2:0 4:5 1:5 4:5 2:5 4:5 2:5 3:5 4:15 2:10 5:5
4:0 1:5 4:5 2:5 4:5 2:5 3:5 4:15 2:10 5:5 2:5
1:0 4:5 2:5 4:5 2:5 3:5 4:15 2:10 5:5 2:5 4:5
4:0 2:5 4:5 2:5 3:5 4:15 2:10 5:5 2:5 4:5 2:5
2:0 4:5 2:5 3:5 4:15 2:10 5:5 2:5 4:5 2:5 4:5
4:0 2:5 3:5 4:15 2:10 5:5 2:5 4:5 2:5 4:5 2:5
2:0 3:5 4:15 2:10 5:5 2:5 4:5 2:5 4:5 2:5 4:5
3:0 4:15 2:10 5:5 2:5 4:5 2:5 4:5 2:5 4:5 2:5
4:0 2:10 5:5 2:5 4:5 2:5 4:5 2:5 4:5 2:5 3:5
2:0 5:5 2:5 4:5 2:5 4:5 2:5 4:5 2:5 3:5 2:5
5:0 2:5 4:5 2:5 4:5 2:5 4:5 2:5 3:5 2:5 4:5
2:0 4:5 2:5 4:5 2:5 4:5 2:5 3:5 2:5 4:5 2:5
4:0 2:5 4:5 2:5 4:5 2:5 3:5 2:5 4:5 2:5 4:5
2:0 4:5 2:5 4:5 2:5 3:5 2:5 4:5 2:5 4:5 2:5
4:0 2:5 4:5 2:5 3:5 2:5 4:5 2:5 4:5 2:5 4:5
2:0 4:5 2:5 3:5 2:5 4:5 2:5 4:5 2:5 4:5 2:5
4:0 2:5 3:5 2:5 4:5 2:5 4:5 2:5 4:5 2:5 4:5
2:0 3:5 2:5 4:5 2:5 4:5 2:5 4:5 2:5 4:5 3:5
3:0 2:5 4:5 2:5 4:5 2:5 4:5 2:5 4:5 3:5 2:5
2:0 4:5 2:5 4:5 2:5 4:5 2:5 4:5 3:5 2:5 3:5
4:0 2:5 4:5 2:5 4:5 2:5 4:5 3:5 2:5 3:5 4:5
2:0 4:5 2:5 4:5 2:5 4:5 3:5 2:5 3:5 4:5 2:10
4:0 2:5 4:5 2:5 4:5 3:5 2:5 3:5 4:5 2:10 4:10
2:0 4:5 2:5 4:5 3:5 2:5 3:5 4:5 2:10 4:10 2:5
4:0 2:5 4:5 3:5 2:5 3:5 4:5 2:10 4:10 2:5 4:5
2:0 4:5 3:5 2:5 3:5 4:5 2:10 4:10 2:5 4:5 3:5
4:0 3:5 2:5 3:5 4:5 2:10 4:10 2:5 4:5 3:5 2:5
3:0 2:5 3:5 4:5 2:10 4:10 2:5 4:5 3:5 2:5 4:5
2:0 3:5 4:5 2:10 4:10 2:5 4:5 3:5 2:5 4:5 2:5
3:0 4:5 2:10 4:10 2:5 4:5 3:5 2:5 4:5 2:5 4:5
4:0 2:10 4:10 2:5 4:5 3:5 2:5 4:5 2:5 4:5 1:5
2:0 4:10 2:5 4:5 3:5 2:5 4:5 2:5 4:5 1:5 4:5
4:0 2:5 4:5 3:5 2:5 4:5 2:5 4:5 1:5 4:5 2:5
2:0 4:5 3:5 2:5 4:5 2:5 4:5 1:5 4:5 2:5 3:5
4:0 3:5 2:5 4:5 2:5 4:5 1:5 4:5 2:5 3:5 4:5
3:0 2:5 4:5 2:5 4:5 1:5 4:5 2:5 3:5 4:5 2:5
2:0 4:5 2:5 4:5 1:5 4:5 2:5 3:5 4:5 2:5 3:5
4:0 2:5 4:5 1:5 4:5 2:5 3:5 4:5 2:5 3:5 4:15
2:0 4:5 1:5 4:5 2:5 3:5 4:5 2:5 3:5 4:15 1:5
4:0 1:5 4:5 2:5 3:5 4:5 2:5 3:5 4:15 1:5 4:5
1:0 4:5 2:5 3:5 4:5 2:5 3:5 4:15 1:5 4:5 2:5
4:0 2:5 3:5 4:5 2:5 3:5 4:15 1:5 4:5 2:5 4:5
2:0 3:5 4:5 2:5 3:5 4:15 1:5 4:5 2:5 4:5 2:5
3:0 4:5 2:5 3:5 4:15 1:5 4:5 2:5 4:5 2:5 3:5
4:0 2:5 3:5 4:15 1:5 4:5 2:5 4:5 2:5 3:5 4:15
2:0 3:5 4:15 1:5 4:5 2:5 4:5 2:5 3:5 4:15 3:5
3:0 4:15 1:5 4:5 2:5 4:5 2:5 3:5 4:15 3:5 2:5
4:0 1:5 4:5 2:5 4:5 2:5 3:5 4:15 3:5 2:5 5:5
1:0 4:5 2:5 4:5 2:5 3:5 4:15 3:5 2:5 5:5 2:5
4:0 2:5 4:5 2:5 3:5 4:15 3:5 2:5 5:5 2:5 4:5
2:0 4:5 2:5 3:5 4:15 3:5 2:5 5:5 2:5 4:5 2:5
4:0 2:5 3:5 4:15 3:5 2:5 5:5 2:5 4:5 2:5 3:5
2:0 3:5 4:15 3:5 2:5 5:5 2:5 4:5 2:5 3:5 4:10
3:0 4:15 3:5 2:5 5:5 2:5 4:5 2:5 3:5 4:10 1:10
4:0 3:5 2:5 5:5 2:5 4:5 2:5 3:5 4:10 1:10 4:5
3:0 2:5 5:5 2:5 4:5 2:5 3:5 4:10 1:10 4:5 2:5
2:0 5:5 2:5 4:5 2:5 3:5 4:10 1:10 4:5 2:5 4:5
5:0 2:5 4:5 2:5 3:5 4:10 1:10 4:5 2:5 4:5 3:5
2:0 4:5 2:5 3:5 4:10 1:10 4:5 2:5 4:5 3:5 2:5
4:0 2:5 3:5 4:10 1:10 4:5 2:5 4:5 3:5 2:5 3:5
2:0 3:5 4:10 1:10 4:5 2:5 4:5 3:5 2:5 3:5 4:10
3:0 4:10 1:10 4:5 2:5 4:5 3:5 2:5 3:5 4:10 2:10
4:0 1:10 4:5 2:5 4:5 3:5 2:5 3:5 4:10 2:10 4:5
1:0 4:5 2:5 4:5 3:5 2:5 3:5 4:10 2:10 4:5 2:5
4:0 2:5 4:5 3:5 2:5 3:5 4:10 2:10 4:5 2:5 4:5
2:0 4:5 3:5 2:5 3:5 4:10 2:10 4:5 2:5 4:5 2:5
4:0 3:5 2:5 3:5 4:10 2:10 4:5 2:5 4:5 2:5 3:5
3:0 2:5 3:5 4:10 2:10 4:5 2:5 4:5 2:5 3:5 2:5
2:0 3:5 4:10 2:10 4:5 2:5 4:5 2:5 3:5 2:5 4:5
3:0 4:10 2:10 4:5 2:5 4:5 2:5 3:5 2:5 4:5 2:5
4:0 2:10 4:5 2:5 4:5 2:5 3:5 2:5 4:5 2:5 4:5
2:0 4:5 2:5 4:5 2:5 3:5 2:5 4:5 2:5 4:5 2:5
4:0 2:5 4:5 2:5 3:5 2:5 4:5 2:5 4:5 2:5 4:5
2:0 4:5 2:5 3:5 2:5 4:5 2:5 4:5 2:5 4:5 2:5
4:0 2:5 3:5 2:5 4:5 2:5 4:5 2:5 4:5 2:5 4:5
2:0 3:5 2:5 4:5 2:5 4:5 2:5 4:5 2:5 4:5 2:5
3:0 2:5 4:5 2:5 4:5 2:5 4:5 2:5 4:5 2:5 3:5
2:0 4:5 2:5 4:5 2:5 4:5 2:5 4:5 2:5 3:5 4:10
4:0 2:5 4:5 2:5 4:5 2:5 4:5 2:5 3:5 4:10 1:10
2:0 4:5 2:5 4:5 2:5 4:5 2:5 3:5 4:10 1:10 4:5
4:0 2:5 4:5 2:5 4:5 2:5 3:5 4:10 1:10 4:5 2:5
2:0 4:5 2:5 4:5 2:5 3:5 4:10 1:10 4:5 2:5 4:5
4:0 2:5 4:5 2:5 3:5 4:10 1:10 4:5 2:5 4:5 2:5
2:0 4:5 2:5 3:5 4:10 1:10 4:5 2:5 4:5 2:5 4:10
4:0 2:5 3:5 4:10 1:10 4:5 2:5 4:5 2:5 4:10 2:5
2:0 3:5 4:10 1:10 4:5 2:5 4:5 2:5 4:10 2:5 5:5
3:0 4:10 1:10 4:5 2:5 4:5 2:5 4:10 2:5 5:5 3:5
4:0 1:10 4:5 2:5 4:5 2:5 4:10 2:5 5:5 3:5 2:5
1:0 4:5 2:5 4:5 2:5 4:10 2:5 5:5 3:5 2:5 4:5
4:0 2:5 4:5 2:5 4:10 2:5 5:5 3:5 2:5 4:5 2:5
2:0 4:5 2:5 4:10 2:5 5:5 3:5 2:5 4:5 2:5 4:5
4:0 2:5 4:10 2:5 5:5 3:5 2:5 4:5 2:5 4:5 2:5
2:0 4:10 2:5 5:5 3:5 2:5 4:5 2:5 4:5 2:5 4:5
4:0 2:5 5:5 3:5 2:5 4:5 2:5 4:5 2:5 4:5 3:5
2:0 5:5 3:5 2:5 4:5 2:5 4:5 2:5 4:5 3:5 4:10
5:0 3:5 2:5 4:5 2:5 4:5 2:5 4:5 3:5 4:10 2:5
3:0 2:5 4:5 2:5 4:5 2:5 4:5 3:5 4:10 2:5 3:5
2:0 4:5 2:5 4:5 2:5 4:5 3:5 4:10 2:5 3:5 4:5
4:0 2:5 4:5 2:5 4:5 3:5 4:10 2:5 3:5 4:5 2:5
2:0 4:5 2:5 4:5 3:5 4:10 2:5 3:5 4:5 2:5 4:5
4:0 2:5 4:5 3:5 4:10 2:5 3:5 4:5 2:5 4:5 2:5
2:0 4:5 3:5 4:10 2:5 3:5 4:5 2:5 4:5 2:5 4:5
4:0 3:5 4:10 2:5 3:5 4:5 2:5 4:5 2:5 4:5 2:5
3:0 4:10 2:5 3:5 4:5 2:5 4:5 2:5 4:5 2:5 3:5
4:0 2:5 3:5 4:5 2:5 4:5 2:5 4:5 2:5 3:5 2:10
2:0 3:5 4:5 2:5 4:5 2:5 4:5 2:5 3:5 2:10 4:5
3:0 4:5 2:5 4:5 2:5 4:5 2:5 3:5 2:10 4:5 2:5
4:0 2:5 4:5 2:5 4:5 2:5 3:5 2:10 4:5 2:5 4:5
2:0 4:5 2:5 4:5 2:5 3:5 2:10 4:5 2:5 4:5 2:5
4:0 2:5 4:5 2:5 3:5 2:10 4:5 2:5 4:5 2:5 3:5
2:0 4:5 2:5 3:5 2:10 4:5 2:5 4:5 2:5 3:5 2:5
4:0 2:5 3:5 2:10 4:5 2:5 4:5 2:5 3:5 2:5 4:5
2:0 3:5 2:10 4:5 2:5 4:5 2:5 3:5 2:5 4:5 2:5
3:0 2:10 4:5 2:5 4:5 2:5 3:5 2:5 4:5 2:5 4:5
2:0 4:5 2:5 4:5 2:5 3:5 2:5 4:5 2:5 4:5 2:5
4:0 2:5 4:5 2:5 3:5 2:5 4:5 2:5 4:5 2:5 4:5
2:0 4:5 2:5 3:5 2:5 4:5 2:5 4:5 2:5 4:5 2:5
4:0 2:5 3:5 2:5 4:5 2:5 4:5 2:5 4:5 2:5 4:5
2:0 3:5 2:5 4:5 2:5 4:5 2:5 4:5 2:5 4:5 2:5
3:0 2:5 4:5 2:5 4:5 2:5 4:5 2:5 4:5 2:5 4:5
2:0 4:5 2:5 4:5 2:5 4:5 2:5 4:5 2:5 4:5 2:5
4:0 2:5 4:5 2:5 4:5 2:5 4:5 2:5 4:5 2:5 4:5
2:0 4:5 2:5 4:5 2:5 4:5 2:5 4:5 2:5 4:5 3:5
4:0 2:5 4:5 2:5 4:5 2:5 4:5 2:5 4:5 3:5 2:5
2:0 4:5 2:5 4:5 2:5 4:5 2:5 4:5 3:5 2:5 4:10
4:0 2:5 4:5 2:5 4:5 2:5 4:5 3:5 2:5 4:10 2:5
2:0 4:5 2:5 4:5 2:5 4:5 3:5 2:5 4:10 2:5 4:5
4:0 2:5 4:5 2:5 4:5 3:5 2:5 4:10 2:5 4:5 2:5
2:0 4:5 2:5 4:5 3:5 2:5 4:10 2:5 4:5 2:5 4:5
4:0 2:5 4:5 3:5 2:5 4:10 2:5 4:5 2:5 4:5 3:5
2:0 4:5 3:5 2:5 4:10 2:5 4:5 2:5 4:5 3:5 4:5
4:0 3:5 2:5 4:10 2:5 4:5 2:5 4:5 3:5 4:5 3:5
3:0 2:5 4:10 2:5 4:5 2:5 4:5 3:5 4:5 3:5 2:5
2:0 4:10 2:5 4:5 2:5 4:5 3:5 4:5 3:5 2:5 4:5
4:0 2:5 4:5 2:5 4:5 3:5 4:5 3:5 2:5 4:5 2:5
2:0 4:5 2:5 4:5 3:5 4:5 3:5 2:5 4:5 2:5 4:5
4:0 2:5 4:5 3:5 4:5 3:5 2:5 4:5 2:5 4:5 1:5
2:0 4:5 3:5 4:5 3:5 2:5 4:5 2:5 4:5 1:5 4:5
4:0 3:5 4:5 3:5 2:5 4:5 2:5 4:5 1:5 4:5 2:5
3:0 4:5 3:5 2:5 4:5 2:5 4:5 1:5 4:5 2:5 5:5
4:0 3:5 2:5 4:5 2:5 4:5 1:5 4:5 2:5 5:5 3:5
3:0 2:5 4:5 2:5 4:5 1:5 4:5 2:5 5:5 3:5 2:10
2:0 4:5 2:5 4:5 1:5 4:5 2:5 5:5 3:5 2:10 5:5
4:0 2:5 4:5 1:5 4:5 2:5 5:5 3:5 2:10 5:5 2:5
2:0 4:5 1:5 4:5 2:5 5:5 3:5 2:10 5:5 2:5 4:5
4:0 1:5 4:5 2:5 5:5 3:5 2:10 5:5 2:5 4:5 2:5
1:0 4:5 2:5 5:5 3:5 2:10 5:5 2:5 4:5 2:5 4:5
4:0 2:5 5:5 3:5 2:10 5:5 2:5 4:5 2:5 4:5 2:5
2:0 5:5 3:5 2:10 5:5 2:5 4:5 2:5 4:5 2:5 5:5
5:0 3:5 2:10 5:5 2:5 4:5 2:5 4:5 2:5 5:5 2:5
3:0 2:10 5:5 2:5 4:5 2:5 4:5 2:5 5:5 2:5 3:5
2:0 5:5 2:5 4:5 2:5 4:5 2:5 5:5 2:5 3:5 2:5
5:0 2:5 4:5 2:5 4:5 2:5 5:5 2:5 3:5 2:5 4:5
2:0 4:5 2:5 4:5 2:5 5:5 2:5 3:5 2:5 4:5 2:5
4:0 2:5 4:5 2:5 5:5 2:5 3:5 2:5 4:5 2:5 4:5
2:0 4:5 2:5 5:5 2:5 3:5 2:5 4:5 2:5 4:5 2:5
4:0 2:5 5:5 2:5 3:5 2:5 4:5 2:5 4:5 2:5 4:5
2:0 5:5 2:5 3:5 2:5 4:5 2:5 4:5 2:5 4:5 2:5
5:0 2:5 3:5 2:5 4:5 2:5 4:5 2:5 4:5 2:5 5:5
2:0 3:5 2:5 4:5 2:5 4:5 2:5 4:5 2:5 5:5 2:5
3:0 2:5 4:5 2:5 4:5 2:5 4:5 2:5 5:5 2:5 4:5
2:0 4:5 2:5 4:5 2:5 4:5 2:5 5:5 2:5 4:5 2:5
4:0 2:5 4:5 2:5 4:5 2:5 5:5 2:5 4:5 2:5 4:5
2:0 4:5 2:5 4:5 2:5 5:5 2:5 4:5 2:5 4:5 3:5
4:0 2:5 4:5 2:5 5:5 2:5 4:5 2:5 4:5 3:5 2:10
2:0 4:5 2:5 5:5 2:5 4:5 2:5 4:5 3:5 2:10 4:5
4:0 2:5 5:5 2:5 4:5 2:5 4:5 3:5 2:10 4:5 2:5
2:0 5:5 2:5 4:5 2:5 4:5 3:5 2:10 4:5 2:5 4:5
5:0 2:5 4:5 2:5 4:5 3:5 2:10 4:5 2:5 4:5 1:5
2:0 4:5 2:5 4:5 3:5 2:10 4:5 2:5 4:5 1:5 4:5
4:0 2:5 4:5 3:5 2:10 4:5 2:5 4:5 1:5 4:5 3:5
2:0 4:5 3:5 2:10 4:5 2:5 4:5 1:5 4:5 3:5 4:5
4:0 3:5 2:10 4:5 2:5 4:5 1:5 4:5 3:5 4:5 3:5
3:0 2:10 4:5 2:5 4:5 1:5 4:5 3:5 4:5 3:5 2:5
2:0 4:5 2:5 4:5 1:5 4:5 3:5 4:5 3:5 2:5 3:5
4:0 2:5 4:5 1:5 4:5 3:5 4:5 3:5 2:5 3:5 4:15
2:0 4:5 1:5 4:5 3:5 4:5 3:5 2:5 3:5 4:15 2:5
4:0 1:5 4:5 3:5 4:5 3:5 2:5 3:5 4:15 2:5 4:5
1:0 4:5 3:5 4:5 3:5 2:5 3:5 4:15 2:5 4:5 2:5
4:0 3:5 4:5 3:5 2:5 3:5 4:15 2:5 4:5 2:5 5:5
3:0 4:5 3:5 2:5 3:5 4:15 2:5 4:5 2:5 5:5 2:5
4:0 3:5 2:5 3:5 4:15 2:5 4:5 2:5 5:5 2:5 3:5
3:0 2:5 3:5 4:15 2:5 4:5 2:5 5:5 2:5 3:5 4:5
2:0 3:5 4:15 2:5 4:5 2:5 5:5 2:5 3:5 4:5 2:5
3:0 4:15 2:5 4:5 2:5 5:5 2:5 3:5 4:5 2:5 4:5
4:0 2:5 4:5 2:5 5:5 2:5 3:5 4:5 2:5 4:5 1:5
2:0 4:5 2:5 5:5 2:5 3:5 4:5 2:5 4:5 1:5 5:5
4:0 2:5 5:5 2:5 3:5 4:5 2:5 4:5 1:5 5:5 2:5
2:0 5:5 2:5 3:5 4:5 2:5 4:5 1:5 5:5 2:5 4:5
5:0 2:5 3:5 4:5 2:5 4:5 1:5 5:5 2:5 4:5 2:5
2:0 3:5 4:5 2:5 4:5 1:5 5:5 2:5 4:5 2:5 4:5
3:0 4:5 2:5 4:5 1:5 5:5 2:5 4:5 2:5 4:5 2:5
4:0 2:5 4:5 1:5 5:5 2:5 4:5 2:5 4:5 2:5 4:5
2:0 4:5 1:5 5:5 2:5 4:5 2:5 4:5 2:5 4:5 3:5
4:0 1:5 5:5 2:5 4:5 2:5 4:5 2:5 4:5 3:5 4:5
1:0 5:5 2:5 4:5 2:5 4:5 2:5 4:5 3:5 4:5 2:5
5:0 2:5 4:5 2:5 4:5 2:5 4:5 3:5 4:5 2:5 4:5
2:0 4:5 2:5 4:5 2:5 4:5 3:5 4:5 2:5 4:5 2:5
4:0 2:5 4:5 2:5 4:5 3:5 4:5 2:5 4:5 2:5 4:5
2:0 4:5 2:5 4:5 3:5 4:5 2:5 4:5 2:5 4:5 2:5
4:0 2:5 4:5 3:5 4:5 2:5 4:5 2:5 4:5 2:5 4:10
2:0 4:5 3:5 4:5 2:5 4:5 2:5 4:5 2:5 4:10 2:10
4:0 3:5 4:5 2:5 4:5 2:5 4:5 2:5 4:10 2:10 3:5
3:0 4:5 2:5 4:5 2:5 4:5 2:5 4:10 2:10 3:5 2:5
4:0 2:5 4:5 2:5 4:5 2:5 4:10 2:10 3:5 2:5 4:5
2:0 4:5 2:5 4:5 2:5 4:10 2:10 3:5 2:5 4:5 2:5
4:0 2:5 4:5 2:5 4:10 2:10 3:5 2:5 4:5 2:5 5:5
2:0 4:5 2:5 4:10 2:10 3:5 2:5 4:5 2:5 5:5
4:0 2:5 4:10 2:10 3:5 2:5 4:5 2:5 5:5
2:0 4:10 2:10 3:5 2:5 4:5 2:5 5:5
4:0 2:10 3:5 2:5 4:5 2:5 5:5
2:0 3:5 2:5 4:5 2:5 5:5
3:0 2:5 4:5 2:5 5:5
2:0 4:5 2:5 5:5
4:0 2:5 5:5
2:0 5:5
5:0