8:0 6:40 1:5 8:15 7:15 8:5 2:5 1:5 8:5 4:40 1:5
6:0 1:5 8:15 7:15 8:5 2:5 1:5 8:5 4:40 1:5 5:15
1:0 8:15 7:15 8:5 2:5 1:5 8:5 4:40 1:5 5:15 8:5
8:0 7:15 8:5 2:5 1:5 8:5 4:40 1:5 5:15 8:5 4:40
7:0 8:5 2:5 1:5 8:5 4:40 1:5 5:15 8:5 4:40 1:5
8:0 2:5 1:5 8:5 4:40 1:5 5:15 8:5 4:40 1:5 6:10
2:0 1:5 8:5 4:40 1:5 5:15 8:5 4:40 1:5 6:10 8:5
1:0 8:5 4:40 1:5 5:15 8:5 4:40 1:5 6:10 8:5 2:15
8:0 4:40 1:5 5:15 8:5 4:40 1:5 6:10 8:5 2:15 1:5
4:0 1:5 5:15 8:5 4:40 1:5 6:10 8:5 2:15 1:5 2:5
1:0 5:15 8:5 4:40 1:5 6:10 8:5 2:15 1:5 2:5 8:5
5:0 8:5 4:40 1:5 6:10 8:5 2:15 1:5 2:5 8:5 7:20
8:0 4:40 1:5 6:10 8:5 2:15 1:5 2:5 8:5 7:20 4:5
4:0 1:5 6:10 8:5 2:15 1:5 2:5 8:5 7:20 4:5 1:5
1:0 6:10 8:5 2:15 1:5 2:5 8:5 7:20 4:5 1:5 5:5
6:0 8:5 2:15 1:5 2:5 8:5 7:20 4:5 1:5 5:5 8:5
8:0 2:15 1:5 2:5 8:5 7:20 4:5 1:5 5:5 8:5 6:25
2:0 1:5 2:5 8:5 7:20 4:5 1:5 5:5 8:5 6:25 1:5
1:0 2:5 8:5 7:20 4:5 1:5 5:5 8:5 6:25 1:5 2:10
2:0 8:5 7:20 4:5 1:5 5:5 8:5 6:25 1:5 2:10 8:5
8:0 7:20 4:5 1:5 5:5 8:5 6:25 1:5 2:10 8:5 4:40
7:0 4:5 1:5 5:5 8:5 6:25 1:5 2:10 8:5 4:40 1:5
4:0 1:5 5:5 8:5 6:25 1:5 2:10 8:5 4:40 1:5 6:15
1:0 5:5 8:5 6:25 1:5 2:10 8:5 4:40 1:5 6:15 8:5
5:0 8:5 6:25 1:5 2:10 8:5 4:40 1:5 6:15 8:5 6:35
8:0 6:25 1:5 2:10 8:5 4:40 1:5 6:15 8:5 6:35 1:5
6:0 1:5 2:10 8:5 4:40 1:5 6:15 8:5 6:35 1:5 8:15
1:0 2:10 8:5 4:40 1:5 6:15 8:5 6:35 1:5 8:15 2:30
2:0 8:5 4:40 1:5 6:15 8:5 6:35 1:5 8:15 2:30 1:5
8:0 4:40 1:5 6:15 8:5 6:35 1:5 8:15 2:30 1:5 3:5
4:0 1:5 6:15 8:5 6:35 1:5 8:15 2:30 1:5 3:5 8:5
1:0 6:15 8:5 6:35 1:5 8:15 2:30 1:5 3:5 8:5 4:15
6:0 8:5 6:35 1:5 8:15 2:30 1:5 3:5 8:5 4:15 1:5
8:0 6:35 1:5 8:15 2:30 1:5 3:5 8:5 4:15 1:5 5:5
6:0 1:5 8:15 2:30 1:5 3:5 8:5 4:15 1:5 5:5 8:5
1:0 8:15 2:30 1:5 3:5 8:5 4:15 1:5 5:5 8:5 4:40
8:0 2:30 1:5 3:5 8:5 4:15 1:5 5:5 8:5 4:40 1:5
2:0 1:5 3:5 8:5 4:15 1:5 5:5 8:5 4:40 1:5 2:10
1:0 3:5 8:5 4:15 1:5 5:5 8:5 4:40 1:5 2:10 8:5
3:0 8:5 4:15 1:5 5:5 8:5 4:40 1:5 2:10 8:5 7:15
8:0 4:15 1:5 5:5 8:5 4:40 1:5 2:10 8:5 7:15 8:5
4:0 1:5 5:5 8:5 4:40 1:5 2:10 8:5 7:15 8:5 2:20
1:0 5:5 8:5 4:40 1:5 2:10 8:5 7:15 8:5 2:20 1:5
5:0 8:5 4:40 1:5 2:10 8:5 7:15 8:5 2:20 1:5 5:10
8:0 4:40 1:5 2:10 8:5 7:15 8:5 2:20 1:5 5:10 8:5
4:0 1:5 2:10 8:5 7:15 8:5 2:20 1:5 5:10 8:5 1:35
1:0 2:10 8:5 7:15 8:5 2:20 1:5 5:10 8:5 1:35 6:10
2:0 8:5 7:15 8:5 2:20 1:5 5:10 8:5 1:35 6:10 8:5
8:0 7:15 8:5 2:20 1:5 5:10 8:5 1:35 6:10 8:5 7:10
7:0 8:5 2:20 1:5 5:10 8:5 1:35 6:10 8:5 7:10 8:5
8:0 2:20 1:5 5:10 8:5 1:35 6:10 8:5 7:10 8:5 2:15
2:0 1:5 5:10 8:5 1:35 6:10 8:5 7:10 8:5 2:15 1:5
1:0 5:10 8:5 1:35 6:10 8:5 7:10 8:5 2:15 1:5 2:5
5:0 8:5 1:35 6:10 8:5 7:10 8:5 2:15 1:5 2:5 8:5
8:0 1:35 6:10 8:5 7:10 8:5 2:15 1:5 2:5 8:5 4:40
1:0 6:10 8:5 7:10 8:5 2:15 1:5 2:5 8:5 4:40 1:5
6:0 8:5 7:10 8:5 2:15 1:5 2:5 8:5 4:40 1:5 2:10
8:0 7:10 8:5 2:15 1:5 2:5 8:5 4:40 1:5 2:10 8:5
7:0 8:5 2:15 1:5 2:5 8:5 4:40 1:5 2:10 8:5 7:15
8:0 2:15 1:5 2:5 8:5 4:40 1:5 2:10 8:5 7:15 3:5
2:0 1:5 2:5 8:5 4:40 1:5 2:10 8:5 7:15 3:5 1:5
1:0 2:5 8:5 4:40 1:5 2:10 8:5 7:15 3:5 1:5 3:5
2:0 8:5 4:40 1:5 2:10 8:5 7:15 3:5 1:5 3:5 8:5
8:0 4:40 1:5 2:10 8:5 7:15 3:5 1:5 3:5 8:5 7:25
4:0 1:5 2:10 8:5 7:15 3:5 1:5 3:5 8:5 7:25 8:5
1:0 2:10 8:5 7:15 3:5 1:5 3:5 8:5 7:25 8:5 2:15
2:0 8:5 7:15 3:5 1:5 3:5 8:5 7:25 8:5 2:15 1:5
8:0 7:15 3:5 1:5 3:5 8:5 7:25 8:5 2:15 1:5 6:10
7:0 3:5 1:5 3:5 8:5 7:25 8:5 2:15 1:5 6:10 8:5
3:0 1:5 3:5 8:5 7:25 8:5 2:15 1:5 6:10 8:5 7:15
1:0 3:5 8:5 7:25 8:5 2:15 1:5 6:10 8:5 7:15 2:5
3:0 8:5 7:25 8:5 2:15 1:5 6:10 8:5 7:15 2:5 1:5
8:0 7:25 8:5 2:15 1:5 6:10 8:5 7:15 2:5 1:5 8:5
7:0 8:5 2:15 1:5 6:10 8:5 7:15 2:5 1:5 8:5 1:40
8:0 2:15 1:5 6:10 8:5 7:15 2:5 1:5 8:5 1:40 4:10
2:0 1:5 6:10 8:5 7:15 2:5 1:5 8:5 1:40 4:10 8:5
1:0 6:10 8:5 7:15 2:5 1:5 8:5 1:40 4:10 8:5 1:30
6:0 8:5 7:15 2:5 1:5 8:5 1:40 4:10 8:5 1:30 3:10
8:0 7:15 2:5 1:5 8:5 1:40 4:10 8:5 1:30 3:10 8:5
7:0 2:5 1:5 8:5 1:40 4:10 8:5 1:30 3:10 8:5 3:40
2:0 1:5 8:5 1:40 4:10 8:5 1:30 3:10 8:5 3:40 1:5
1:0 8:5 1:40 4:10 8:5 1:30 3:10 8:5 3:40 1:5 4:10
8:0 1:40 4:10 8:5 1:30 3:10 8:5 3:40 1:5 4:10 8:5
1:0 4:10 8:5 1:30 3:10 8:5 3:40 1:5 4:10 8:5 7:15
4:0 8:5 1:30 3:10 8:5 3:40 1:5 4:10 8:5 7:15 3:5
8:0 1:30 3:10 8:5 3:40 1:5 4:10 8:5 7:15 3:5 1:5
1:0 3:10 8:5 3:40 1:5 4:10 8:5 7:15 3:5 1:5 5:5
3:0 8:5 3:40 1:5 4:10 8:5 7:15 3:5 1:5 5:5 8:5
8:0 3:40 1:5 4:10 8:5 7:15 3:5 1:5 5:5 8:5 7:25
3:0 1:5 4:10 8:5 7:15 3:5 1:5 5:5 8:5 7:25 2:5
1:0 4:10 8:5 7:15 3:5 1:5 5:5 8:5 7:25 2:5 1:5
4:0 8:5 7:15 3:5 1:5 5:5 8:5 7:25 2:5 1:5 2:5
8:0 7:15 3:5 1:5 5:5 8:5 7:25 2:5 1:5 2:5 8:5
7:0 3:5 1:5 5:5 8:5 7:25 2:5 1:5 2:5 8:5 4:40
3:0 1:5 5:5 8:5 7:25 2:5 1:5 2:5 8:5 4:40 1:5
1:0 5:5 8:5 7:25 2:5 1:5 2:5 8:5 4:40 1:5 8:15
5:0 8:5 7:25 2:5 1:5 2:5 8:5 4:40 1:5 8:15 4:25
8:0 7:25 2:5 1:5 2:5 8:5 4:40 1:5 8:15 4:25 1:5
7:0 2:5 1:5 2:5 8:5 4:40 1:5 8:15 4:25 1:5 4:5
2:0 1:5 2:5 8:5 4:40 1:5 8:15 4:25 1:5 4:5 8:5
1:0 2:5 8:5 4:40 1:5 8:15 4:25 1:5 4:5 8:5 7:10
2:0 8:5 4:40 1:5 8:15 4:25 1:5 4:5 8:5 7:10 3:5
8:0 4:40 1:5 8:15 4:25 1:5 4:5 8:5 7:10 3:5 1:5
4:0 1:5 8:15 4:25 1:5 4:5 8:5 7:10 3:5 1:5 2:5
1:0 8:15 4:25 1:5 4:5 8:5 7:10 3:5 1:5 2:5 8:5
8:0 4:25 1:5 4:5 8:5 7:10 3:5 1:5 2:5 8:5 7:20
4:0 1:5 4:5 8:5 7:10 3:5 1:5 2:5 8:5 7:20 3:5
1:0 4:5 8:5 7:10 3:5 1:5 2:5 8:5 7:20 3:5 1:5
4:0 8:5 7:10 3:5 1:5 2:5 8:5 7:20 3:5 1:5 5:5
8:0 7:10 3:5 1:5 2:5 8:5 7:20 3:5 1:5 5:5 8:5
7:0 3:5 1:5 2:5 8:5 7:20 3:5 1:5 5:5 8:5 4:40
3:0 1:5 2:5 8:5 7:20 3:5 1:5 5:5 8:5 4:40 1:5
1:0 2:5 8:5 7:20 3:5 1:5 5:5 8:5 4:40 1:5 2:10
2:0 8:5 7:20 3:5 1:5 5:5 8:5 4:40 1:5 2:10 8:5
8:0 7:20 3:5 1:5 5:5 8:5 4:40 1:5 2:10 8:5 4:40
7:0 3:5 1:5 5:5 8:5 4:40 1:5 2:10 8:5 4:40 1:5
3:0 1:5 5:5 8:5 4:40 1:5 2:10 8:5 4:40 1:5 3:10
1:0 5:5 8:5 4:40 1:5 2:10 8:5 4:40 1:5 3:10 8:5
5:0 8:5 4:40 1:5 2:10 8:5 4:40 1:5 3:10 8:5 2:30
8:0 4:40 1:5 2:10 8:5 4:40 1:5 3:10 8:5 2:30 1:5
4:0 1:5 2:10 8:5 4:40 1:5 3:10 8:5 2:30 1:5 8:10
1:0 2:10 8:5 4:40 1:5 3:10 8:5 2:30 1:5 8:10 4:40
2:0 8:5 4:40 1:5 3:10 8:5 2:30 1:5 8:10 4:40 1:5
8:0 4:40 1:5 3:10 8:5 2:30 1:5 8:10 4:40 1:5 8:15
4:0 1:5 3:10 8:5 2:30 1:5 8:10 4:40 1:5 8:15 7:20
1:0 3:10 8:5 2:30 1:5 8:10 4:40 1:5 8:15 7:20 8:5
3:0 8:5 2:30 1:5 8:10 4:40 1:5 8:15 7:20 8:5 2:20
8:0 2:30 1:5 8:10 4:40 1:5 8:15 7:20 8:5 2:20 1:5
2:0 1:5 8:10 4:40 1:5 8:15 7:20 8:5 2:20 1:5 5:10
1:0 8:10 4:40 1:5 8:15 7:20 8:5 2:20 1:5 5:10 8:5
8:0 4:40 1:5 8:15 7:20 8:5 2:20 1:5 5:10 8:5 3:25
4:0 1:5 8:15 7:20 8:5 2:20 1:5 5:10 8:5 3:25 1:5
1:0 8:15 7:20 8:5 2:20 1:5 5:10 8:5 3:25 1:5 2:5
8:0 7:20 8:5 2:20 1:5 5:10 8:5 3:25 1:5 2:5 8:5
7:0 8:5 2:20 1:5 5:10 8:5 3:25 1:5 2:5 8:5 7:35
8:0 2:20 1:5 5:10 8:5 3:25 1:5 2:5 8:5 7:35 2:5
2:0 1:5 5:10 8:5 3:25 1:5 2:5 8:5 7:35 2:5 1:5
1:0 5:10 8:5 3:25 1:5 2:5 8:5 7:35 2:5 1:5 5:5
5:0 8:5 3:25 1:5 2:5 8:5 7:35 2:5 1:5 5:5 8:5
8:0 3:25 1:5 2:5 8:5 7:35 2:5 1:5 5:5 8:5 3:40
3:0 1:5 2:5 8:5 7:35 2:5 1:5 5:5 8:5 3:40 1:5
1:0 2:5 8:5 7:35 2:5 1:5 5:5 8:5 3:40 1:5 2:10
2:0 8:5 7:35 2:5 1:5 5:5 8:5 3:40 1:5 2:10 8:5
8:0 7:35 2:5 1:5 5:5 8:5 3:40 1:5 2:10 8:5 7:20
7:0 2:5 1:5 5:5 8:5 3:40 1:5 2:10 8:5 7:20 1:5
2:0 1:5 5:5 8:5 3:40 1:5 2:10 8:5 7:20 1:5 2:5
1:0 5:5 8:5 3:40 1:5 2:10 8:5 7:20 1:5 2:5 8:5
5:0 8:5 3:40 1:5 2:10 8:5 7:20 1:5 2:5 8:5 6:30
8:0 3:40 1:5 2:10 8:5 7:20 1:5 2:5 8:5 6:30 1:5
3:0 1:5 2:10 8:5 7:20 1:5 2:5 8:5 6:30 1:5 6:10
1:0 2:10 8:5 7:20 1:5 2:5 8:5 6:30 1:5 6:10 8:5
2:0 8:5 7:20 1:5 2:5 8:5 6:30 1:5 6:10 8:5 7:20
8:0 7:20 1:5 2:5 8:5 6:30 1:5 6:10 8:5 7:20 8:5
7:0 1:5 2:5 8:5 6:30 1:5 6:10 8:5 7:20 8:5 1:15
1:0 2:5 8:5 6:30 1:5 6:10 8:5 7:20 8:5 1:15 5:15
2:0 8:5 6:30 1:5 6:10 8:5 7:20 8:5 1:15 5:15 8:5
8:0 6:30 1:5 6:10 8:5 7:20 8:5 1:15 5:15 8:5 7:15
6:0 1:5 6:10 8:5 7:20 8:5 1:15 5:15 8:5 7:15 8:5
1:0 6:10 8:5 7:20 8:5 1:15 5:15 8:5 7:15 8:5 2:20
6:0 8:5 7:20 8:5 1:15 5:15 8:5 7:15 8:5 2:20 1:5
8:0 7:20 8:5 1:15 5:15 8:5 7:15 8:5 2:20 1:5 6:10
7:0 8:5 1:15 5:15 8:5 7:15 8:5 2:20 1:5 6:10 8:5
8:0 1:15 5:15 8:5 7:15 8:5 2:20 1:5 6:10 8:5 4:30
1:0 5:15 8:5 7:15 8:5 2:20 1:5 6:10 8:5 4:30 1:5
5:0 8:5 7:15 8:5 2:20 1:5 6:10 8:5 4:30 1:5 8:10
8:0 7:15 8:5 2:20 1:5 6:10 8:5 4:30 1:5 8:10 4:40
7:0 8:5 2:20 1:5 6:10 8:5 4:30 1:5 8:10 4:40 1:5
8:0 2:20 1:5 6:10 8:5 4:30 1:5 8:10 4:40 1:5 6:15
2:0 1:5 6:10 8:5 4:30 1:5 8:10 4:40 1:5 6:15 8:5
1:0 6:10 8:5 4:30 1:5 8:10 4:40 1:5 6:15 8:5 7:15
6:0 8:5 4:30 1:5 8:10 4:40 1:5 6:15 8:5 7:15 2:5
8:0 4:30 1:5 8:10 4:40 1:5 6:15 8:5 7:15 2:5 1:5
4:0 1:5 8:10 4:40 1:5 6:15 8:5 7:15 2:5 1:5 8:5
1:0 8:10 4:40 1:5 6:15 8:5 7:15 2:5 1:5 8:5 3:30
8:0 4:40 1:5 6:15 8:5 7:15 2:5 1:5 8:5 3:30 1:5
4:0 1:5 6:15 8:5 7:15 2:5 1:5 8:5 3:30 1:5 3:5
1:0 6:15 8:5 7:15 2:5 1:5 8:5 3:30 1:5 3:5 8:5
6:0 8:5 7:15 2:5 1:5 8:5 3:30 1:5 3:5 8:5 3:35
8:0 7:15 2:5 1:5 8:5 3:30 1:5 3:5 8:5 3:35 1:5
7:0 2:5 1:5 8:5 3:30 1:5 3:5 8:5 3:35 1:5 5:10
2:0 1:5 8:5 3:30 1:5 3:5 8:5 3:35 1:5 5:10 8:5
1:0 8:5 3:30 1:5 3:5 8:5 3:35 1:5 5:10 8:5 7:25
8:0 3:30 1:5 3:5 8:5 3:35 1:5 5:10 8:5 7:25 2:5
3:0 1:5 3:5 8:5 3:35 1:5 5:10 8:5 7:25 2:5 1:5
1:0 3:5 8:5 3:35 1:5 5:10 8:5 7:25 2:5 1:5 2:5
3:0 8:5 3:35 1:5 5:10 8:5 7:25 2:5 1:5 2:5 8:5
8:0 3:35 1:5 5:10 8:5 7:25 2:5 1:5 2:5 8:5 1:35
3:0 1:5 5:10 8:5 7:25 2:5 1:5 2:5 8:5 1:35 2:10
1:0 5:10 8:5 7:25 2:5 1:5 2:5 8:5 1:35 2:10 8:5
5:0 8:5 7:25 2:5 1:5 2:5 8:5 1:35 2:10 8:5 6:30
8:0 7:25 2:5 1:5 2:5 8:5 1:35 2:10 8:5 6:30 1:5
7:0 2:5 1:5 2:5 8:5 1:35 2:10 8:5 6:30 1:5 4:10
2:0 1:5 2:5 8:5 1:35 2:10 8:5 6:30 1:5 4:10 8:5
1:0 2:5 8:5 1:35 2:10 8:5 6:30 1:5 4:10 8:5 6:35
2:0 8:5 1:35 2:10 8:5 6:30 1:5 4:10 8:5 6:35 1:5
8:0 1:35 2:10 8:5 6:30 1:5 4:10 8:5 6:35 1:5 8:15
1:0 2:10 8:5 6:30 1:5 4:10 8:5 6:35 1:5 8:15 7:20
2:0 8:5 6:30 1:5 4:10 8:5 6:35 1:5 8:15 7:20 3:5
8:0 6:30 1:5 4:10 8:5 6:35 1:5 8:15 7:20 3:5 1:5
6:0 1:5 4:10 8:5 6:35 1:5 8:15 7:20 3:5 1:5 5:5
1:0 4:10 8:5 6:35 1:5 8:15 7:20 3:5 1:5 5:5 8:5
4:0 8:5 6:35 1:5 8:15 7:20 3:5 1:5 5:5 8:5 7:10
8:0 6:35 1:5 8:15 7:20 3:5 1:5 5:5 8:5 7:10 8:5
6:0 1:5 8:15 7:20 3:5 1:5 5:5 8:5 7:10 8:5 1:15
1:0 8:15 7:20 3:5 1:5 5:5 8:5 7:10 8:5 1:15 2:10
8:0 7:20 3:5 1:5 5:5 8:5 7:10 8:5 1:15 2:10 8:5
7:0 3:5 1:5 5:5 8:5 7:10 8:5 1:15 2:10 8:5 1:45
3:0 1:5 5:5 8:5 7:10 8:5 1:15 2:10 8:5 1:45 6:15
1:0 5:5 8:5 7:10 8:5 1:15 2:10 8:5 1:45 6:15 8:5
5:0 8:5 7:10 8:5 1:15 2:10 8:5 1:45 6:15 8:5 7:15
8:0 7:10 8:5 1:15 2:10 8:5 1:45 6:15 8:5 7:15 8:5
7:0 8:5 1:15 2:10 8:5 1:45 6:15 8:5 7:15 8:5 7:15
8:0 1:15 2:10 8:5 1:45 6:15 8:5 7:15 8:5 7:15 1:5
1:0 2:10 8:5 1:45 6:15 8:5 7:15 8:5 7:15 1:5 6:15
2:0 8:5 1:45 6:15 8:5 7:15 8:5 7:15 1:5 6:15 8:5
8:0 1:45 6:15 8:5 7:15 8:5 7:15 1:5 6:15 8:5 4:25
1:0 6:15 8:5 7:15 8:5 7:15 1:5 6:15 8:5 4:25 1:5
6:0 8:5 7:15 8:5 7:15 1:5 6:15 8:5 4:25 1:5 5:10
8:0 7:15 8:5 7:15 1:5 6:15 8:5 4:25 1:5 5:10 8:5
7:0 8:5 7:15 1:5 6:15 8:5 4:25 1:5 5:10 8:5 6:40
8:0 7:15 1:5 6:15 8:5 4:25 1:5 5:10 8:5 6:40 1:5
7:0 1:5 6:15 8:5 4:25 1:5 5:10 8:5 6:40 1:5 8:15
1:0 6:15 8:5 4:25 1:5 5:10 8:5 6:40 1:5 8:15 6:40
6:0 8:5 4:25 1:5 5:10 8:5 6:40 1:5 8:15 6:40 1:5
8:0 4:25 1:5 5:10 8:5 6:40 1:5 8:15 6:40 1:5 2:10
4:0 1:5 5:10 8:5 6:40 1:5 8:15 6:40 1:5 2:10 8:5
1:0 5:10 8:5 6:40 1:5 8:15 6:40 1:5 2:10 8:5 2:30
5:0 8:5 6:40 1:5 8:15 6:40 1:5 2:10 8:5 2:30 1:5
8:0 6:40 1:5 8:15 6:40 1:5 2:10 8:5 2:30 1:5 8:10
6:0 1:5 8:15 6:40 1:5 2:10 8:5 2:30 1:5 8:10 1:40
1:0 8:15 6:40 1:5 2:10 8:5 2:30 1:5 8:10 1:40 3:10
8:0 6:40 1:5 2:10 8:5 2:30 1:5 8:10 1:40 3:10 8:5
6:0 1:5 2:10 8:5 2:30 1:5 8:10 1:40 3:10 8:5 1:40
1:0 2:10 8:5 2:30 1:5 8:10 1:40 3:10 8:5 1:40 6:15
2:0 8:5 2:30 1:5 8:10 1:40 3:10 8:5 1:40 6:15 8:5
8:0 2:30 1:5 8:10 1:40 3:10 8:5 1:40 6:15 8:5 3:20
2:0 1:5 8:10 1:40 3:10 8:5 1:40 6:15 8:5 3:20 1:5
1:0 8:10 1:40 3:10 8:5 1:40 6:15 8:5 3:20 1:5 6:5
8:0 1:40 3:10 8:5 1:40 6:15 8:5 3:20 1:5 6:5 8:5
1:0 3:10 8:5 1:40 6:15 8:5 3:20 1:5 6:5 8:5 3:30
3:0 8:5 1:40 6:15 8:5 3:20 1:5 6:5 8:5 3:30 1:5
8:0 1:40 6:15 8:5 3:20 1:5 6:5 8:5 3:30 1:5 3:5
1:0 6:15 8:5 3:20 1:5 6:5 8:5 3:30 1:5 3:5 8:5
6:0 8:5 3:20 1:5 6:5 8:5 3:30 1:5 3:5 8:5 1:35
8:0 3:20 1:5 6:5 8:5 3:30 1:5 3:5 8:5 1:35 3:10
3:0 1:5 6:5 8:5 3:30 1:5 3:5 8:5 1:35 3:10 8:5
1:0 6:5 8:5 3:30 1:5 3:5 8:5 1:35 3:10 8:5 4:30
6:0 8:5 3:30 1:5 3:5 8:5 1:35 3:10 8:5 4:30 1:5
8:0 3:30 1:5 3:5 8:5 1:35 3:10 8:5 4:30 1:5 8:10
3:0 1:5 3:5 8:5 1:35 3:10 8:5 4:30 1:5 8:10 6:25
1:0 3:5 8:5 1:35 3:10 8:5 4:30 1:5 8:10 6:25 1:5
3:0 8:5 1:35 3:10 8:5 4:30 1:5 8:10 6:25 1:5 5:10
8:0 1:35 3:10 8:5 4:30 1:5 8:10 6:25 1:5 5:10 8:5
1:0 3:10 8:5 4:30 1:5 8:10 6:25 1:5 5:10 8:5 2:35
3:0 8:5 4:30 1:5 8:10 6:25 1:5 5:10 8:5 2:35 1:5
8:0 4:30 1:5 8:10 6:25 1:5 5:10 8:5 2:35 1:5 8:10
4:0 1:5 8:10 6:25 1:5 5:10 8:5 2:35 1:5 8:10 3:45
1:0 8:10 6:25 1:5 5:10 8:5 2:35 1:5 8:10 3:45 1:5
8:0 6:25 1:5 5:10 8:5 2:35 1:5 8:10 3:45 1:5 2:10
6:0 1:5 5:10 8:5 2:35 1:5 8:10 3:45 1:5 2:10 8:5
1:0 5:10 8:5 2:35 1:5 8:10 3:45 1:5 2:10 8:5 7:15
5:0 8:5 2:35 1:5 8:10 3:45 1:5 2:10 8:5 7:15 3:5
8:0 2:35 1:5 8:10 3:45 1:5 2:10 8:5 7:15 3:5 1:5
2:0 1:5 8:10 3:45 1:5 2:10 8:5 7:15 3:5 1:5 5:5
1:0 8:10 3:45 1:5 2:10 8:5 7:15 3:5 1:5 5:5 8:5
8:0 3:45 1:5 2:10 8:5 7:15 3:5 1:5 5:5 8:5 4:30
3:0 1:5 2:10 8:5 7:15 3:5 1:5 5:5 8:5 4:30 1:5
1:0 2:10 8:5 7:15 3:5 1:5 5:5 8:5 4:30 1:5 8:10
2:0 8:5 7:15 3:5 1:5 5:5 8:5 4:30 1:5 8:10 1:45
8:0 7:15 3:5 1:5 5:5 8:5 4:30 1:5 8:10 1:45 8:15
7:0 3:5 1:5 5:5 8:5 4:30 1:5 8:10 1:45 8:15 7:20
3:0 1:5 5:5 8:5 4:30 1:5 8:10 1:45 8:15 7:20 1:5
1:0 5:5 8:5 4:30 1:5 8:10 1:45 8:15 7:20 1:5 8:10
5:0 8:5 4:30 1:5 8:10 1:45 8:15 7:20 1:5 8:10 2:30
8:0 4:30 1:5 8:10 1:45 8:15 7:20 1:5 8:10 2:30 1:5
4:0 1:5 8:10 1:45 8:15 7:20 1:5 8:10 2:30 1:5 3:5
1:0 8:10 1:45 8:15 7:20 1:5 8:10 2:30 1:5 3:5 8:5
8:0 1:45 8:15 7:20 1:5 8:10 2:30 1:5 3:5 8:5 3:35
1:0 8:15 7:20 1:5 8:10 2:30 1:5 3:5 8:5 3:35 1:5
8:0 7:20 1:5 8:10 2:30 1:5 3:5 8:5 3:35 1:5 4:10
7:0 1:5 8:10 2:30 1:5 3:5 8:5 3:35 1:5 4:10 8:5
1:0 8:10 2:30 1:5 3:5 8:5 3:35 1:5 4:10 8:5 3:25
8:0 2:30 1:5 3:5 8:5 3:35 1:5 4:10 8:5 3:25 1:5
2:0 1:5 3:5 8:5 3:35 1:5 4:10 8:5 3:25 1:5 3:5
1:0 3:5 8:5 3:35 1:5 4:10 8:5 3:25 1:5 3:5 8:5
3:0 8:5 3:35 1:5 4:10 8:5 3:25 1:5 3:5 8:5 7:10
8:0 3:35 1:5 4:10 8:5 3:25 1:5 3:5 8:5 7:10 8:5
3:0 1:5 4:10 8:5 3:25 1:5 3:5 8:5 7:10 8:5 3:20
1:0 4:10 8:5 3:25 1:5 3:5 8:5 7:10 8:5 3:20 1:5
4:0 8:5 3:25 1:5 3:5 8:5 7:10 8:5 3:20 1:5 6:10
8:0 3:25 1:5 3:5 8:5 7:10 8:5 3:20 1:5 6:10 8:5
3:0 1:5 3:5 8:5 7:10 8:5 3:20 1:5 6:10 8:5 6:30
1:0 3:5 8:5 7:10 8:5 3:20 1:5 6:10 8:5 6:30 1:5
3:0 8:5 7:10 8:5 3:20 1:5 6:10 8:5 6:30 1:5 6:10
8:0 7:10 8:5 3:20 1:5 6:10 8:5 6:30 1:5 6:10 8:5
7:0 8:5 3:20 1:5 6:10 8:5 6:30 1:5 6:10 8:5 1:30
8:0 3:20 1:5 6:10 8:5 6:30 1:5 6:10 8:5 1:30 3:10
3:0 1:5 6:10 8:5 6:30 1:5 6:10 8:5 1:30 3:10 8:5
1:0 6:10 8:5 6:30 1:5 6:10 8:5 1:30 3:10 8:5 3:30
6:0 8:5 6:30 1:5 6:10 8:5 1:30 3:10 8:5 3:30 1:5
8:0 6:30 1:5 6:10 8:5 1:30 3:10 8:5 3:30 1:5 3:5
6:0 1:5 6:10 8:5 1:30 3:10 8:5 3:30 1:5 3:5 8:5
1:0 6:10 8:5 1:30 3:10 8:5 3:30 1:5 3:5 8:5 4:30
6:0 8:5 1:30 3:10 8:5 3:30 1:5 3:5 8:5 4:30 1:5
8:0 1:30 3:10 8:5 3:30 1:5 3:5 8:5 4:30 1:5 3:10
1:0 3:10 8:5 3:30 1:5 3:5 8:5 4:30 1:5 3:10 8:5
3:0 8:5 3:30 1:5 3:5 8:5 4:30 1:5 3:10 8:5 3:30
8:0 3:30 1:5 3:5 8:5 4:30 1:5 3:10 8:5 3:30 1:5
3:0 1:5 3:5 8:5 4:30 1:5 3:10 8:5 3:30 1:5 3:5
1:0 3:5 8:5 4:30 1:5 3:10 8:5 3:30 1:5 3:5 8:5
3:0 8:5 4:30 1:5 3:10 8:5 3:30 1:5 3:5 8:5 2:35
8:0 4:30 1:5 3:10 8:5 3:30 1:5 3:5 8:5 2:35 1:5
4:0 1:5 3:10 8:5 3:30 1:5 3:5 8:5 2:35 1:5 8:10
1:0 3:10 8:5 3:30 1:5 3:5 8:5 2:35 1:5 8:10 4:40
3:0 8:5 3:30 1:5 3:5 8:5 2:35 1:5 8:10 4:40 1:5
8:0 3:30 1:5 3:5 8:5 2:35 1:5 8:10 4:40 1:5 5:15
3:0 1:5 3:5 8:5 2:35 1:5 8:10 4:40 1:5 5:15 8:5
1:0 3:5 8:5 2:35 1:5 8:10 4:40 1:5 5:15 8:5 3:40
3:0 8:5 2:35 1:5 8:10 4:40 1:5 5:15 8:5 3:40 1:5
8:0 2:35 1:5 8:10 4:40 1:5 5:15 8:5 3:40 1:5 8:10
2:0 1:5 8:10 4:40 1:5 5:15 8:5 3:40 1:5 8:10 7:30
1:0 8:10 4:40 1:5 5:15 8:5 3:40 1:5 8:10 7:30 2:5
8:0 4:40 1:5 5:15 8:5 3:40 1:5 8:10 7:30 2:5 1:5
4:0 1:5 5:15 8:5 3:40 1:5 8:10 7:30 2:5 1:5 3:5
1:0 5:15 8:5 3:40 1:5 8:10 7:30 2:5 1:5 3:5 8:5
5:0 8:5 3:40 1:5 8:10 7:30 2:5 1:5 3:5 8:5 6:25
8:0 3:40 1:5 8:10 7:30 2:5 1:5 3:5 8:5 6:25 1:5
3:0 1:5 8:10 7:30 2:5 1:5 3:5 8:5 6:25 1:5 5:10
1:0 8:10 7:30 2:5 1:5 3:5 8:5 6:25 1:5 5:10 8:5
8:0 7:30 2:5 1:5 3:5 8:5 6:25 1:5 5:10 8:5 7:5
7:0 2:5 1:5 3:5 8:5 6:25 1:5 5:10 8:5 7:5 8:5
2:0 1:5 3:5 8:5 6:25 1:5 5:10 8:5 7:5 8:5 2:5
1:0 3:5 8:5 6:25 1:5 5:10 8:5 7:5 8:5 2:5 8:10
3:0 8:5 6:25 1:5 5:10 8:5 7:5 8:5 2:5 8:10 1:40
8:0 6:25 1:5 5:10 8:5 7:5 8:5 2:5 8:10 1:40 5:15
6:0 1:5 5:10 8:5 7:5 8:5 2:5 8:10 1:40 5:15 8:5
1:0 5:10 8:5 7:5 8:5 2:5 8:10 1:40 5:15 8:5 3:25
5:0 8:5 7:5 8:5 2:5 8:10 1:40 5:15 8:5 3:25 1:5
8:0 7:5 8:5 2:5 8:10 1:40 5:15 8:5 3:25 1:5 6:5
7:0 8:5 2:5 8:10 1:40 5:15 8:5 3:25 1:5 6:5 8:5
8:0 2:5 8:10 1:40 5:15 8:5 3:25 1:5 6:5 8:5 2:30
2:0 8:10 1:40 5:15 8:5 3:25 1:5 6:5 8:5 2:30 1:5
8:0 1:40 5:15 8:5 3:25 1:5 6:5 8:5 2:30 1:5 2:5
1:0 5:15 8:5 3:25 1:5 6:5 8:5 2:30 1:5 2:5 8:5
5:0 8:5 3:25 1:5 6:5 8:5 2:30 1:5 2:5 8:5 4:35
8:0 3:25 1:5 6:5 8:5 2:30 1:5 2:5 8:5 4:35 1:5
3:0 1:5 6:5 8:5 2:30 1:5 2:5 8:5 4:35 1:5 8:10
1:0 6:5 8:5 2:30 1:5 2:5 8:5 4:35 1:5 8:10 7:10
6:0 8:5 2:30 1:5 2:5 8:5 4:35 1:5 8:10 7:10 8:5
8:0 2:30 1:5 2:5 8:5 4:35 1:5 8:10 7:10 8:5 3:15
2:0 1:5 2:5 8:5 4:35 1:5 8:10 7:10 8:5 3:15 1:5
1:0 2:5 8:5 4:35 1:5 8:10 7:10 8:5 3:15 1:5 6:10
2:0 8:5 4:35 1:5 8:10 7:10 8:5 3:15 1:5 6:10 8:5
8:0 4:35 1:5 8:10 7:10 8:5 3:15 1:5 6:10 8:5 1:40
4:0 1:5 8:10 7:10 8:5 3:15 1:5 6:10 8:5 1:40 5:15
1:0 8:10 7:10 8:5 3:15 1:5 6:10 8:5 1:40 5:15 8:5
8:0 7:10 8:5 3:15 1:5 6:10 8:5 1:40 5:15 8:5 7:15
7:0 8:5 3:15 1:5 6:10 8:5 1:40 5:15 8:5 7:15 2:5
8:0 3:15 1:5 6:10 8:5 1:40 5:15 8:5 7:15 2:5 1:5
3:0 1:5 6:10 8:5 1:40 5:15 8:5 7:15 2:5 1:5 8:5
1:0 6:10 8:5 1:40 5:15 8:5 7:15 2:5 1:5 8:5 2:45
6:0 8:5 1:40 5:15 8:5 7:15 2:5 1:5 8:5 2:45 1:5
8:0 1:40 5:15 8:5 7:15 2:5 1:5 8:5 2:45 1:5 4:10
1:0 5:15 8:5 7:15 2:5 1:5 8:5 2:45 1:5 4:10 8:5
5:0 8:5 7:15 2:5 1:5 8:5 2:45 1:5 4:10 8:5 4:40
8:0 7:15 2:5 1:5 8:5 2:45 1:5 4:10 8:5 4:40 1:5
7:0 2:5 1:5 8:5 2:45 1:5 4:10 8:5 4:40 1:5 3:10
2:0 1:5 8:5 2:45 1:5 4:10 8:5 4:40 1:5 3:10 8:5
1:0 8:5 2:45 1:5 4:10 8:5 4:40 1:5 3:10 8:5 7:25
8:0 2:45 1:5 4:10 8:5 4:40 1:5 3:10 8:5 7:25 1:5
2:0 1:5 4:10 8:5 4:40 1:5 3:10 8:5 7:25 1:5 2:10
1:0 4:10 8:5 4:40 1:5 3:10 8:5 7:25 1:5 2:10 8:5
4:0 8:5 4:40 1:5 3:10 8:5 7:25 1:5 2:10 8:5 4:40
8:0 4:40 1:5 3:10 8:5 7:25 1:5 2:10 8:5 4:40 1:5
4:0 1:5 3:10 8:5 7:25 1:5 2:10 8:5 4:40 1:5 6:15
1:0 3:10 8:5 7:25 1:5 2:10 8:5 4:40 1:5 6:15 8:5
3:0 8:5 7:25 1:5 2:10 8:5 4:40 1:5 6:15 8:5 2:20
8:0 7:25 1:5 2:10 8:5 4:40 1:5 6:15 8:5 2:20 1:5
7:0 1:5 2:10 8:5 4:40 1:5 6:15 8:5 2:20 1:5 4:5
1:0 2:10 8:5 4:40 1:5 6:15 8:5 2:20 1:5 4:5 8:5
2:0 8:5 4:40 1:5 6:15 8:5 2:20 1:5 4:5 8:5 4:30
8:0 4:40 1:5 6:15 8:5 2:20 1:5 4:5 8:5 4:30 1:5
4:0 1:5 6:15 8:5 2:20 1:5 4:5 8:5 4:30 1:5 8:10
1:0 6:15 8:5 2:20 1:5 4:5 8:5 4:30 1:5 8:10 6:30
6:0 8:5 2:20 1:5 4:5 8:5 4:30 1:5 8:10 6:30 1:5
8:0 2:20 1:5 4:5 8:5 4:30 1:5 8:10 6:30 1:5 5:10
2:0 1:5 4:5 8:5 4:30 1:5 8:10 6:30 1:5 5:10 8:5
1:0 4:5 8:5 4:30 1:5 8:10 6:30 1:5 5:10 8:5 1:40
4:0 8:5 4:30 1:5 8:10 6:30 1:5 5:10 8:5 1:40 6:15
8:0 4:30 1:5 8:10 6:30 1:5 5:10 8:5 1:40 6:15 8:5
4:0 1:5 8:10 6:30 1:5 5:10 8:5 1:40 6:15 8:5 7:15
1:0 8:10 6:30 1:5 5:10 8:5 1:40 6:15 8:5 7:15 6:5
8:0 6:30 1:5 5:10 8:5 1:40 6:15 8:5 7:15 6:5 1:5
6:0 1:5 5:10 8:5 1:40 6:15 8:5 7:15 6:5 1:5 2:5
1:0 5:10 8:5 1:40 6:15 8:5 7:15 6:5 1:5 2:5 8:5
5:0 8:5 1:40 6:15 8:5 7:15 6:5 1:5 2:5 8:5 2:30
8:0 1:40 6:15 8:5 7:15 6:5 1:5 2:5 8:5 2:30 1:5
1:0 6:15 8:5 7:15 6:5 1:5 2:5 8:5 2:30 1:5 8:10
6:0 8:5 7:15 6:5 1:5 2:5 8:5 2:30 1:5 8:10 1:45
8:0 7:15 6:5 1:5 2:5 8:5 2:30 1:5 8:10 1:45 5:15
7:0 6:5 1:5 2:5 8:5 2:30 1:5 8:10 1:45 5:15 8:5
6:0 1:5 2:5 8:5 2:30 1:5 8:10 1:45 5:15 8:5 7:15
1:0 2:5 8:5 2:30 1:5 8:10 1:45 5:15 8:5 7:15 8:5
2:0 8:5 2:30 1:5 8:10 1:45 5:15 8:5 7:15 8:5 2:20
8:0 2:30 1:5 8:10 1:45 5:15 8:5 7:15 8:5 2:20 1:5
2:0 1:5 8:10 1:45 5:15 8:5 7:15 8:5 2:20 1:5 4:10
1:0 8:10 1:45 5:15 8:5 7:15 8:5 2:20 1:5 4:10 8:5
8:0 1:45 5:15 8:5 7:15 8:5 2:20 1:5 4:10 8:5 7:20
1:0 5:15 8:5 7:15 8:5 2:20 1:5 4:10 8:5 7:20 3:5
5:0 8:5 7:15 8:5 2:20 1:5 4:10 8:5 7:20 3:5 1:5
8:0 7:15 8:5 2:20 1:5 4:10 8:5 7:20 3:5 1:5 2:5
7:0 8:5 2:20 1:5 4:10 8:5 7:20 3:5 1:5 2:5 8:5
8:0 2:20 1:5 4:10 8:5 7:20 3:5 1:5 2:5 8:5 7:15
2:0 1:5 4:10 8:5 7:20 3:5 1:5 2:5 8:5 7:15 8:5
1:0 4:10 8:5 7:20 3:5 1:5 2:5 8:5 7:15 8:5 4:15
4:0 8:5 7:20 3:5 1:5 2:5 8:5 7:15 8:5 4:15 1:5
8:0 7:20 3:5 1:5 2:5 8:5 7:15 8:5 4:15 1:5 5:10
7:0 3:5 1:5 2:5 8:5 7:15 8:5 4:15 1:5 5:10 8:5
3:0 1:5 2:5 8:5 7:15 8:5 4:15 1:5 5:10 8:5 1:30
1:0 2:5 8:5 7:15 8:5 4:15 1:5 5:10 8:5 1:30 3:10
2:0 8:5 7:15 8:5 4:15 1:5 5:10 8:5 1:30 3:10 8:5
8:0 7:15 8:5 4:15 1:5 5:10 8:5 1:30 3:10 8:5 4:30
7:0 8:5 4:15 1:5 5:10 8:5 1:30 3:10 8:5 4:30 1:5
8:0 4:15 1:5 5:10 8:5 1:30 3:10 8:5 4:30 1:5 3:10
4:0 1:5 5:10 8:5 1:30 3:10 8:5 4:30 1:5 3:10 8:5
1:0 5:10 8:5 1:30 3:10 8:5 4:30 1:5 3:10 8:5 1:35
5:0 8:5 1:30 3:10 8:5 4:30 1:5 3:10 8:5 1:35 4:10
8:0 1:30 3:10 8:5 4:30 1:5 3:10 8:5 1:35 4:10 8:5
1:0 3:10 8:5 4:30 1:5 3:10 8:5 1:35 4:10 8:5 7:25
3:0 8:5 4:30 1:5 3:10 8:5 1:35 4:10 8:5 7:25 1:5
8:0 4:30 1:5 3:10 8:5 1:35 4:10 8:5 7:25 1:5 2:10
4:0 1:5 3:10 8:5 1:35 4:10 8:5 7:25 1:5 2:10 8:5
1:0 3:10 8:5 1:35 4:10 8:5 7:25 1:5 2:10 8:5 1:40
3:0 8:5 1:35 4:10 8:5 7:25 1:5 2:10 8:5 1:40 5:15
8:0 1:35 4:10 8:5 7:25 1:5 2:10 8:5 1:40 5:15 8:5
1:0 4:10 8:5 7:25 1:5 2:10 8:5 1:40 5:15 8:5 7:15
4:0 8:5 7:25 1:5 2:10 8:5 1:40 5:15 8:5 7:15 3:5
8:0 7:25 1:5 2:10 8:5 1:40 5:15 8:5 7:15 3:5 1:5
7:0 1:5 2:10 8:5 1:40 5:15 8:5 7:15 3:5 1:5 3:5
1:0 2:10 8:5 1:40 5:15 8:5 7:15 3:5 1:5 3:5 8:5
2:0 8:5 1:40 5:15 8:5 7:15 3:5 1:5 3:5 8:5 7:25
8:0 1:40 5:15 8:5 7:15 3:5 1:5 3:5 8:5 7:25 2:5
1:0 5:15 8:5 7:15 3:5 1:5 3:5 8:5 7:25 2:5 1:5
5:0 8:5 7:15 3:5 1:5 3:5 8:5 7:25 2:5 1:5 5:5
8:0 7:15 3:5 1:5 3:5 8:5 7:25 2:5 1:5 5:5 8:5
7:0 3:5 1:5 3:5 8:5 7:25 2:5 1:5 5:5 8:5 4:35
3:0 1:5 3:5 8:5 7:25 2:5 1:5 5:5 8:5 4:35 1:5
1:0 3:5 8:5 7:25 2:5 1:5 5:5 8:5 4:35 1:5 6:10
3:0 8:5 7:25 2:5 1:5 5:5 8:5 4:35 1:5 6:10 8:5
8:0 7:25 2:5 1:5 5:5 8:5 4:35 1:5 6:10 8:5 1:40
7:0 2:5 1:5 5:5 8:5 4:35 1:5 6:10 8:5 1:40 2:15
2:0 1:5 5:5 8:5 4:35 1:5 6:10 8:5 1:40 2:15 8:5
1:0 5:5 8:5 4:35 1:5 6:10 8:5 1:40 2:15 8:5 7:20
5:0 8:5 4:35 1:5 6:10 8:5 1:40 2:15 8:5 7:20 8:5
8:0 4:35 1:5 6:10 8:5 1:40 2:15 8:5 7:20 8:5 3:15
4:0 1:5 6:10 8:5 1:40 2:15 8:5 7:20 8:5 3:15 1:5
1:0 6:10 8:5 1:40 2:15 8:5 7:20 8:5 3:15 1:5 6:10
6:0 8:5 1:40 2:15 8:5 7:20 8:5 3:15 1:5 6:10 8:5
8:0 1:40 2:15 8:5 7:20 8:5 3:15 1:5 6:10 8:5 2:30
1:0 2:15 8:5 7:20 8:5 3:15 1:5 6:10 8:5 2:30 1:5
2:0 8:5 7:20 8:5 3:15 1:5 6:10 8:5 2:30 1:5 2:5
8:0 7:20 8:5 3:15 1:5 6:10 8:5 2:30 1:5 2:5 8:5
7:0 8:5 3:15 1:5 6:10 8:5 2:30 1:5 2:5 8:5 1:35
8:0 3:15 1:5 6:10 8:5 2:30 1:5 2:5 8:5 1:35 3:10
3:0 1:5 6:10 8:5 2:30 1:5 2:5 8:5 1:35 3:10 8:5
1:0 6:10 8:5 2:30 1:5 2:5 8:5 1:35 3:10 8:5 6:30
6:0 8:5 2:30 1:5 2:5 8:5 1:35 3:10 8:5 6:30 1:5
8:0 2:30 1:5 2:5 8:5 1:35 3:10 8:5 6:30 1:5 6:10
2:0 1:5 2:5 8:5 1:35 3:10 8:5 6:30 1:5 6:10 8:5
1:0 2:5 8:5 1:35 3:10 8:5 6:30 1:5 6:10 8:5 7:20
2:0 8:5 1:35 3:10 8:5 6:30 1:5 6:10 8:5 7:20 3:5
8:0 1:35 3:10 8:5 6:30 1:5 6:10 8:5 7:20 3:5 1:5
1:0 3:10 8:5 6:30 1:5 6:10 8:5 7:20 3:5 1:5 3:5
3:0 8:5 6:30 1:5 6:10 8:5 7:20 3:5 1:5 3:5 8:5
8:0 6:30 1:5 6:10 8:5 7:20 3:5 1:5 3:5 8:5 7:10
6:0 1:5 6:10 8:5 7:20 3:5 1:5 3:5 8:5 7:10 3:5
1:0 6:10 8:5 7:20 3:5 1:5 3:5 8:5 7:10 3:5 1:5
6:0 8:5 7:20 3:5 1:5 3:5 8:5 7:10 3:5 1:5 5:5
8:0 7:20 3:5 1:5 3:5 8:5 7:10 3:5 1:5 5:5 8:5
7:0 3:5 1:5 3:5 8:5 7:10 3:5 1:5 5:5 8:5 2:40
3:0 1:5 3:5 8:5 7:10 3:5 1:5 5:5 8:5 2:40 1:5
1:0 3:5 8:5 7:10 3:5 1:5 5:5 8:5 2:40 1:5 8:15
3:0 8:5 7:10 3:5 1:5 5:5 8:5 2:40 1:5 8:15 7:20
8:0 7:10 3:5 1:5 5:5 8:5 2:40 1:5 8:15 7:20 8:5
7:0 3:5 1:5 5:5 8:5 2:40 1:5 8:15 7:20 8:5 6:15
3:0 1:5 5:5 8:5 2:40 1:5 8:15 7:20 8:5 6:15 1:5
1:0 5:5 8:5 2:40 1:5 8:15 7:20 8:5 6:15 1:5 3:10
5:0 8:5 2:40 1:5 8:15 7:20 8:5 6:15 1:5 3:10 8:5
8:0 2:40 1:5 8:15 7:20 8:5 6:15 1:5 3:10 8:5 6:25
2:0 1:5 8:15 7:20 8:5 6:15 1:5 3:10 8:5 6:25 1:5
1:0 8:15 7:20 8:5 6:15 1:5 3:10 8:5 6:25 1:5 2:5
8:0 7:20 8:5 6:15 1:5 3:10 8:5 6:25 1:5 2:5 8:5
7:0 8:5 6:15 1:5 3:10 8:5 6:25 1:5 2:5 8:5 7:15
8:0 6:15 1:5 3:10 8:5 6:25 1:5 2:5 8:5 7:15 8:5
6:0 1:5 3:10 8:5 6:25 1:5 2:5 8:5 7:15 8:5 4:15
1:0 3:10 8:5 6:25 1:5 2:5 8:5 7:15 8:5 4:15 1:5
3:0 8:5 6:25 1:5 2:5 8:5 7:15 8:5 4:15 1:5 3:10
8:0 6:25 1:5 2:5 8:5 7:15 8:5 4:15 1:5 3:10 8:5
6:0 1:5 2:5 8:5 7:15 8:5 4:15 1:5 3:10 8:5 7:30
1:0 2:5 8:5 7:15 8:5 4:15 1:5 3:10 8:5 7:30 1:5
2:0 8:5 7:15 8:5 4:15 1:5 3:10 8:5 7:30 1:5 4:10
8:0 7:15 8:5 4:15 1:5 3:10 8:5 7:30 1:5 4:10 8:5
7:0 8:5 4:15 1:5 3:10 8:5 7:30 1:5 4:10 8:5 6:35
8:0 4:15 1:5 3:10 8:5 7:30 1:5 4:10 8:5 6:35 1:5
4:0 1:5 3:10 8:5 7:30 1:5 4:10 8:5 6:35 1:5 6:15
1:0 3:10 8:5 7:30 1:5 4:10 8:5 6:35 1:5 6:15 8:5
3:0 8:5 7:30 1:5 4:10 8:5 6:35 1:5 6:15 8:5 7:15
8:0 7:30 1:5 4:10 8:5 6:35 1:5 6:15 8:5 7:15 8:5
7:0 1:5 4:10 8:5 6:35 1:5 6:15 8:5 7:15 8:5 2:20
1:0 4:10 8:5 6:35 1:5 6:15 8:5 7:15 8:5 2:20 1:5
4:0 8:5 6:35 1:5 6:15 8:5 7:15 8:5 2:20 1:5 6:10
8:0 6:35 1:5 6:15 8:5 7:15 8:5 2:20 1:5 6:10 8:5
6:0 1:5 6:15 8:5 7:15 8:5 2:20 1:5 6:10 8:5 4:30
1:0 6:15 8:5 7:15 8:5 2:20 1:5 6:10 8:5 4:30 1:5
6:0 8:5 7:15 8:5 2:20 1:5 6:10 8:5 4:30 1:5 6:10
8:0 7:15 8:5 2:20 1:5 6:10 8:5 4:30 1:5 6:10 8:5
7:0 8:5 2:20 1:5 6:10 8:5 4:30 1:5 6:10 8:5 1:25
8:0 2:20 1:5 6:10 8:5 4:30 1:5 6:10 8:5 1:25 4:10
2:0 1:5 6:10 8:5 4:30 1:5 6:10 8:5 1:25 4:10 8:5
1:0 6:10 8:5 4:30 1:5 6:10 8:5 1:25 4:10 8:5 2:35
6:0 8:5 4:30 1:5 6:10 8:5 1:25 4:10 8:5 2:35 1:5
8:0 4:30 1:5 6:10 8:5 1:25 4:10 8:5 2:35 1:5 8:10
4:0 1:5 6:10 8:5 1:25 4:10 8:5 2:35 1:5 8:10 3:30
1:0 6:10 8:5 1:25 4:10 8:5 2:35 1:5 8:10 3:30 1:5
6:0 8:5 1:25 4:10 8:5 2:35 1:5 8:10 3:30 1:5 3:5
8:0 1:25 4:10 8:5 2:35 1:5 8:10 3:30 1:5 3:5 8:5
1:0 4:10 8:5 2:35 1:5 8:10 3:30 1:5 3:5 8:5 2:35
4:0 8:5 2:35 1:5 8:10 3:30 1:5 3:5 8:5 2:35 1:5
8:0 2:35 1:5 8:10 3:30 1:5 3:5 8:5 2:35 1:5 5:10
2:0 1:5 8:10 3:30 1:5 3:5 8:5 2:35 1:5 5:10 8:5
1:0 8:10 3:30 1:5 3:5 8:5 2:35 1:5 5:10 8:5 7:10
8:0 3:30 1:5 3:5 8:5 2:35 1:5 5:10 8:5 7:10 8:5
3:0 1:5 3:5 8:5 2:35 1:5 5:10 8:5 7:10 8:5 3:15
1:0 3:5 8:5 2:35 1:5 5:10 8:5 7:10 8:5 3:15 1:5
3:0 8:5 2:35 1:5 5:10 8:5 7:10 8:5 3:15 1:5 8:10
8:0 2:35 1:5 5:10 8:5 7:10 8:5 3:15 1:5 8:10 3:35
2:0 1:5 5:10 8:5 7:10 8:5 3:15 1:5 8:10 3:35 1:5
1:0 5:10 8:5 7:10 8:5 3:15 1:5 8:10 3:35 1:5 6:10
5:0 8:5 7:10 8:5 3:15 1:5 8:10 3:35 1:5 6:10 8:5
8:0 7:10 8:5 3:15 1:5 8:10 3:35 1:5 6:10 8:5 4:25
7:0 8:5 3:15 1:5 8:10 3:35 1:5 6:10 8:5 4:25 1:5
8:0 3:15 1:5 8:10 3:35 1:5 6:10 8:5 4:25 1:5 5:10
3:0 1:5 8:10 3:35 1:5 6:10 8:5 4:25 1:5 5:10 8:5
1:0 8:10 3:35 1:5 6:10 8:5 4:25 1:5 5:10 8:5 3:40
8:0 3:35 1:5 6:10 8:5 4:25 1:5 5:10 8:5 3:40 1:5
3:0 1:5 6:10 8:5 4:25 1:5 5:10 8:5 3:40 1:5 2:10
1:0 6:10 8:5 4:25 1:5 5:10 8:5 3:40 1:5 2:10 8:5
6:0 8:5 4:25 1:5 5:10 8:5 3:40 1:5 2:10 8:5 7:15
8:0 4:25 1:5 5:10 8:5 3:40 1:5 2:10 8:5 7:15 4:5
4:0 1:5 5:10 8:5 3:40 1:5 2:10 8:5 7:15 4:5 1:5
1:0 5:10 8:5 3:40 1:5 2:10 8:5 7:15 4:5 1:5 3:5
5:0 8:5 3:40 1:5 2:10 8:5 7:15 4:5 1:5 3:5 8:5
8:0 3:40 1:5 2:10 8:5 7:15 4:5 1:5 3:5 8:5 2:30
3:0 1:5 2:10 8:5 7:15 4:5 1:5 3:5 8:5 2:30 1:5
1:0 2:10 8:5 7:15 4:5 1:5 3:5 8:5 2:30 1:5 2:5
2:0 8:5 7:15 4:5 1:5 3:5 8:5 2:30 1:5 2:5 8:5
8:0 7:15 4:5 1:5 3:5 8:5 2:30 1:5 2:5 8:5 6:40
7:0 4:5 1:5 3:5 8:5 2:30 1:5 2:5 8:5 6:40 1:5
4:0 1:5 3:5 8:5 2:30 1:5 2:5 8:5 6:40 1:5 6:15
1:0 3:5 8:5 2:30 1:5 2:5 8:5 6:40 1:5 6:15 8:5
3:0 8:5 2:30 1:5 2:5 8:5 6:40 1:5 6:15 8:5 7:15
8:0 2:30 1:5 2:5 8:5 6:40 1:5 6:15 8:5 7:15 8:5
2:0 1:5 2:5 8:5 6:40 1:5 6:15 8:5 7:15 8:5 6:15
1:0 2:5 8:5 6:40 1:5 6:15 8:5 7:15 8:5 6:15 1:5
2:0 8:5 6:40 1:5 6:15 8:5 7:15 8:5 6:15 1:5 2:10
8:0 6:40 1:5 6:15 8:5 7:15 8:5 6:15 1:5 2:10 8:5
6:0 1:5 6:15 8:5 7:15 8:5 6:15 1:5 2:10 8:5 4:30
1:0 6:15 8:5 7:15 8:5 6:15 1:5 2:10 8:5 4:30 1:5
6:0 8:5 7:15 8:5 6:15 1:5 2:10 8:5 4:30 1:5 2:5
8:0 7:15 8:5 6:15 1:5 2:10 8:5 4:30 1:5 2:5 8:5
7:0 8:5 6:15 1:5 2:10 8:5 4:30 1:5 2:5 8:5 7:30
8:0 6:15 1:5 2:10 8:5 4:30 1:5 2:5 8:5 7:30 1:5
6:0 1:5 2:10 8:5 4:30 1:5 2:5 8:5 7:30 1:5 8:15
1:0 2:10 8:5 4:30 1:5 2:5 8:5 7:30 1:5 8:15 2:45
2:0 8:5 4:30 1:5 2:5 8:5 7:30 1:5 8:15 2:45 1:5
8:0 4:30 1:5 2:5 8:5 7:30 1:5 8:15 2:45 1:5 4:10
4:0 1:5 2:5 8:5 7:30 1:5 8:15 2:45 1:5 4:10 8:5
1:0 2:5 8:5 7:30 1:5 8:15 2:45 1:5 4:10 8:5 7:15
2:0 8:5 7:30 1:5 8:15 2:45 1:5 4:10 8:5 7:15 4:5
8:0 7:30 1:5 8:15 2:45 1:5 4:10 8:5 7:15 4:5 1:5
7:0 1:5 8:15 2:45 1:5 4:10 8:5 7:15 4:5 1:5 3:5
1:0 8:15 2:45 1:5 4:10 8:5 7:15 4:5 1:5 3:5 8:5
8:0 2:45 1:5 4:10 8:5 7:15 4:5 1:5 3:5 8:5 1:35
2:0 1:5 4:10 8:5 7:15 4:5 1:5 3:5 8:5 1:35 4:10
1:0 4:10 8:5 7:15 4:5 1:5 3:5 8:5 1:35 4:10 8:5
4:0 8:5 7:15 4:5 1:5 3:5 8:5 1:35 4:10 8:5 3:40
8:0 7:15 4:5 1:5 3:5 8:5 1:35 4:10 8:5 3:40 1:5
7:0 4:5 1:5 3:5 8:5 1:35 4:10 8:5 3:40 1:5 6:10
4:0 1:5 3:5 8:5 1:35 4:10 8:5 3:40 1:5 6:10 8:5
1:0 3:5 8:5 1:35 4:10 8:5 3:40 1:5 6:10 8:5 2:40
3:0 8:5 1:35 4:10 8:5 3:40 1:5 6:10 8:5 2:40 1:5
8:0 1:35 4:10 8:5 3:40 1:5 6:10 8:5 2:40 1:5 6:10
1:0 4:10 8:5 3:40 1:5 6:10 8:5 2:40 1:5 6:10 8:5
4:0 8:5 3:40 1:5 6:10 8:5 2:40 1:5 6:10 8:5 2:30
8:0 3:40 1:5 6:10 8:5 2:40 1:5 6:10 8:5 2:30 1:5
3:0 1:5 6:10 8:5 2:40 1:5 6:10 8:5 2:30 1:5 2:5
1:0 6:10 8:5 2:40 1:5 6:10 8:5 2:30 1:5 2:5 8:5
6:0 8:5 2:40 1:5 6:10 8:5 2:30 1:5 2:5 8:5 3:30
8:0 2:40 1:5 6:10 8:5 2:30 1:5 2:5 8:5 3:30 1:5
2:0 1:5 6:10 8:5 2:30 1:5 2:5 8:5 3:30 1:5 6:10
1:0 6:10 8:5 2:30 1:5 2:5 8:5 3:30 1:5 6:10 8:5
6:0 8:5 2:30 1:5 2:5 8:5 3:30 1:5 6:10 8:5 3:30
8:0 2:30 1:5 2:5 8:5 3:30 1:5 6:10 8:5 3:30 1:5
2:0 1:5 2:5 8:5 3:30 1:5 6:10 8:5 3:30 1:5 2:5
1:0 2:5 8:5 3:30 1:5 6:10 8:5 3:30 1:5 2:5 8:5
2:0 8:5 3:30 1:5 6:10 8:5 3:30 1:5 2:5 8:5 1:30
8:0 3:30 1:5 6:10 8:5 3:30 1:5 2:5 8:5 1:30 5:10
3:0 1:5 6:10 8:5 3:30 1:5 2:5 8:5 1:30 5:10 8:5
1:0 6:10 8:5 3:30 1:5 2:5 8:5 1:30 5:10 8:5 7:15
6:0 8:5 3:30 1:5 2:5 8:5 1:30 5:10 8:5 7:15 8:5
8:0 3:30 1:5 2:5 8:5 1:30 5:10 8:5 7:15 8:5 7:10
3:0 1:5 2:5 8:5 1:30 5:10 8:5 7:15 8:5 7:10 1:5
1:0 2:5 8:5 1:30 5:10 8:5 7:15 8:5 7:10 1:5 8:15
2:0 8:5 1:30 5:10 8:5 7:15 8:5 7:10 1:5 8:15 2:35
8:0 1:30 5:10 8:5 7:15 8:5 7:10 1:5 8:15 2:35 1:5
1:0 5:10 8:5 7:15 8:5 7:10 1:5 8:15 2:35 1:5 2:5
5:0 8:5 7:15 8:5 7:10 1:5 8:15 2:35 1:5 2:5 8:5
8:0 7:15 8:5 7:10 1:5 8:15 2:35 1:5 2:5 8:5 1:35
7:0 8:5 7:10 1:5 8:15 2:35 1:5 2:5 8:5 1:35 4:10
8:0 7:10 1:5 8:15 2:35 1:5 2:5 8:5 1:35 4:10 8:5
7:0 1:5 8:15 2:35 1:5 2:5 8:5 1:35 4:10 8:5 3:30
1:0 8:15 2:35 1:5 2:5 8:5 1:35 4:10 8:5 3:30 1:5
8:0 2:35 1:5 2:5 8:5 1:35 4:10 8:5 3:30 1:5 2:5
2:0 1:5 2:5 8:5 1:35 4:10 8:5 3:30 1:5 2:5 8:5
1:0 2:5 8:5 1:35 4:10 8:5 3:30 1:5 2:5 8:5 2:40
2:0 8:5 1:35 4:10 8:5 3:30 1:5 2:5 8:5 2:40 1:5
8:0 1:35 4:10 8:5 3:30 1:5 2:5 8:5 2:40 1:5 2:10
1:0 4:10 8:5 3:30 1:5 2:5 8:5 2:40 1:5 2:10 8:5
4:0 8:5 3:30 1:5 2:5 8:5 2:40 1:5 2:10 8:5 7:40
8:0 3:30 1:5 2:5 8:5 2:40 1:5 2:10 8:5 7:40 1:5
3:0 1:5 2:5 8:5 2:40 1:5 2:10 8:5 7:40 1:5 8:15
1:0 2:5 8:5 2:40 1:5 2:10 8:5 7:40 1:5 8:15 2:35
2:0 8:5 2:40 1:5 2:10 8:5 7:40 1:5 8:15 2:35 1:5
8:0 2:40 1:5 2:10 8:5 7:40 1:5 8:15 2:35 1:5 3:5
2:0 1:5 2:10 8:5 7:40 1:5 8:15 2:35 1:5 3:5 8:5
1:0 2:10 8:5 7:40 1:5 8:15 2:35 1:5 3:5 8:5 2:30
2:0 8:5 7:40 1:5 8:15 2:35 1:5 3:5 8:5 2:30 1:5
8:0 7:40 1:5 8:15 2:35 1:5 3:5 8:5 2:30 1:5 8:10
7:0 1:5 8:15 2:35 1:5 3:5 8:5 2:30 1:5 8:10 3:45
1:0 8:15 2:35 1:5 3:5 8:5 2:30 1:5 8:10 3:45 1:5
8:0 2:35 1:5 3:5 8:5 2:30 1:5 8:10 3:45 1:5 5:10
2:0 1:5 3:5 8:5 2:30 1:5 8:10 3:45 1:5 5:10 8:5
1:0 3:5 8:5 2:30 1:5 8:10 3:45 1:5 5:10 8:5 6:15
3:0 8:5 2:30 1:5 8:10 3:45 1:5 5:10 8:5 6:15 1:5
8:0 2:30 1:5 8:10 3:45 1:5 5:10 8:5 6:15 1:5 8:10
2:0 1:5 8:10 3:45 1:5 5:10 8:5 6:15 1:5 8:10 7:25
1:0 8:10 3:45 1:5 5:10 8:5 6:15 1:5 8:10 7:25 8:5
8:0 3:45 1:5 5:10 8:5 6:15 1:5 8:10 7:25 8:5 1:20
3:0 1:5 5:10 8:5 6:15 1:5 8:10 7:25 8:5 1:20 8:15
1:0 5:10 8:5 6:15 1:5 8:10 7:25 8:5 1:20 8:15 2:40
5:0 8:5 6:15 1:5 8:10 7:25 8:5 1:20 8:15 2:40 1:5
8:0 6:15 1:5 8:10 7:25 8:5 1:20 8:15 2:40 1:5 6:10
6:0 1:5 8:10 7:25 8:5 1:20 8:15 2:40 1:5 6:10 8:5
1:0 8:10 7:25 8:5 1:20 8:15 2:40 1:5 6:10 8:5 4:25
8:0 7:25 8:5 1:20 8:15 2:40 1:5 6:10 8:5 4:25 1:5
7:0 8:5 1:20 8:15 2:40 1:5 6:10 8:5 4:25 1:5 8:10
8:0 1:20 8:15 2:40 1:5 6:10 8:5 4:25 1:5 8:10 3:35
1:0 8:15 2:40 1:5 6:10 8:5 4:25 1:5 8:10 3:35 1:5
8:0 2:40 1:5 6:10 8:5 4:25 1:5 8:10 3:35 1:5 5:10
2:0 1:5 6:10 8:5 4:25 1:5 8:10 3:35 1:5 5:10 8:5
1:0 6:10 8:5 4:25 1:5 8:10 3:35 1:5 5:10 8:5 4:25
6:0 8:5 4:25 1:5 8:10 3:35 1:5 5:10 8:5 4:25 1:5
8:0 4:25 1:5 8:10 3:35 1:5 5:10 8:5 4:25 1:5 3:5
4:0 1:5 8:10 3:35 1:5 5:10 8:5 4:25 1:5 3:5 8:5
1:0 8:10 3:35 1:5 5:10 8:5 4:25 1:5 3:5 8:5 4:35
8:0 3:35 1:5 5:10 8:5 4:25 1:5 3:5 8:5 4:35 1:5
3:0 1:5 5:10 8:5 4:25 1:5 3:5 8:5 4:35 1:5 3:10
1:0 5:10 8:5 4:25 1:5 3:5 8:5 4:35 1:5 3:10 8:5
5:0 8:5 4:25 1:5 3:5 8:5 4:35 1:5 3:10 8:5 2:35
8:0 4:25 1:5 3:5 8:5 4:35 1:5 3:10 8:5 2:35 1:5
4:0 1:5 3:5 8:5 4:35 1:5 3:10 8:5 2:35 1:5 5:5
1:0 3:5 8:5 4:35 1:5 3:10 8:5 2:35 1:5 5:5 8:5
3:0 8:5 4:35 1:5 3:10 8:5 2:35 1:5 5:5 8:5 2:30
8:0 4:35 1:5 3:10 8:5 2:35 1:5 5:5 8:5 2:30 1:5
4:0 1:5 3:10 8:5 2:35 1:5 5:5 8:5 2:30 1:5 8:10
1:0 3:10 8:5 2:35 1:5 5:5 8:5 2:30 1:5 8:10 7:15
3:0 8:5 2:35 1:5 5:5 8:5 2:30 1:5 8:10 7:15 8:5
8:0 2:35 1:5 5:5 8:5 2:30 1:5 8:10 7:15 8:5 1:20
2:0 1:5 5:5 8:5 2:30 1:5 8:10 7:15 8:5 1:20 5:15
1:0 5:5 8:5 2:30 1:5 8:10 7:15 8:5 1:20 5:15 8:5
5:0 8:5 2:30 1:5 8:10 7:15 8:5 1:20 5:15 8:5 7:15
8:0 2:30 1:5 8:10 7:15 8:5 1:20 5:15 8:5 7:15 6:5
2:0 1:5 8:10 7:15 8:5 1:20 5:15 8:5 7:15 6:5 1:5
1:0 8:10 7:15 8:5 1:20 5:15 8:5 7:15 6:5 1:5 2:5
8:0 7:15 8:5 1:20 5:15 8:5 7:15 6:5 1:5 2:5 8:5
7:0 8:5 1:20 5:15 8:5 7:15 6:5 1:5 2:5 8:5 1:45
8:0 1:20 5:15 8:5 7:15 6:5 1:5 2:5 8:5 1:45 6:15
1:0 5:15 8:5 7:15 6:5 1:5 2:5 8:5 1:45 6:15 8:5
5:0 8:5 7:15 6:5 1:5 2:5 8:5 1:45 6:15 8:5 7:15
8:0 7:15 6:5 1:5 2:5 8:5 1:45 6:15 8:5 7:15 2:5
7:0 6:5 1:5 2:5 8:5 1:45 6:15 8:5 7:15 2:5 1:5
6:0 1:5 2:5 8:5 1:45 6:15 8:5 7:15 2:5 1:5 6:5
1:0 2:5 8:5 1:45 6:15 8:5 7:15 2:5 1:5 6:5 8:5
2:0 8:5 1:45 6:15 8:5 7:15 2:5 1:5 6:5 8:5 2:40
8:0 1:45 6:15 8:5 7:15 2:5 1:5 6:5 8:5 2:40 1:5
1:0 6:15 8:5 7:15 2:5 1:5 6:5 8:5 2:40 1:5 8:15
6:0 8:5 7:15 2:5 1:5 6:5 8:5 2:40 1:5 8:15
8:0 7:15 2:5 1:5 6:5 8:5 2:40 1:5 8:15
7:0 2:5 1:5 6:5 8:5 2:40 1:5 8:15
2:0 1:5 6:5 8:5 2:40 1:5 8:15
1:0 6:5 8:5 2:40 1:5 8:15
6:0 8:5 2:40 1:5 8:15
8:0 2:40 1:5 8:15
2:0 1:5 8:15
1:0 8:15
8:0