7:0 3:5 5:5 3:5 4:5 5:5 4:5 6:5 2:5 4:5 5:5
3:0 5:5 3:5 4:5 5:5 4:5 6:5 2:5 4:5 5:5 3:5
5:0 3:5 4:5 5:5 4:5 6:5 2:5 4:5 5:5 3:5 6:5
3:0 4:5 5:5 4:5 6:5 2:5 4:5 5:5 3:5 6:5 3:5
4:0 5:5 4:5 6:5 2:5 4:5 5:5 3:5 6:5 3:5 6:5
5:0 4:5 6:5 2:5 4:5 5:5 3:5 6:5 3:5 6:5 4:5
4:0 6:5 2:5 4:5 5:5 3:5 6:5 3:5 6:5 4:5 5:5
6:0 2:5 4:5 5:5 3:5 6:5 3:5 6:5 4:5 5:5 3:5
2:0 4:5 5:5 3:5 6:5 3:5 6:5 4:5 5:5 3:5 5:5
4:0 5:5 3:5 6:5 3:5 6:5 4:5 5:5 3:5 5:5 3:15
5:0 3:5 6:5 3:5 6:5 4:5 5:5 3:5 5:5 3:15 5:5
3:0 6:5 3:5 6:5 4:5 5:5 3:5 5:5 3:15 5:5 4:5
6:0 3:5 6:5 4:5 5:5 3:5 5:5 3:15 5:5 4:5 6:5
3:0 6:5 4:5 5:5 3:5 5:5 3:15 5:5 4:5 6:5 2:5
6:0 4:5 5:5 3:5 5:5 3:15 5:5 4:5 6:5 2:5 5:5
4:0 5:5 3:5 5:5 3:15 5:5 4:5 6:5 2:5 5:5 3:5
5:0 3:5 5:5 3:15 5:5 4:5 6:5 2:5 5:5 3:5 4:5
3:0 5:5 3:15 5:5 4:5 6:5 2:5 5:5 3:5 4:5 6:5
5:0 3:15 5:5 4:5 6:5 2:5 5:5 3:5 4:5 6:5 5:5
3:0 5:5 4:5 6:5 2:5 5:5 3:5 4:5 6:5 5:5 2:5
5:0 4:5 6:5 2:5 5:5 3:5 4:5 6:5 5:5 2:5 4:5
4:0 6:5 2:5 5:5 3:5 4:5 6:5 5:5 2:5 4:5 5:5
6:0 2:5 5:5 3:5 4:5 6:5 5:5 2:5 4:5 5:5 3:5
2:0 5:5 3:5 4:5 6:5 5:5 2:5 4:5 5:5 3:5 4:5
5:0 3:5 4:5 6:5 5:5 2:5 4:5 5:5 3:5 4:5 5:5
3:0 4:5 6:5 5:5 2:5 4:5 5:5 3:5 4:5 5:5 4:5
4:0 6:5 5:5 2:5 4:5 5:5 3:5 4:5 5:5 4:5 5:10
6:0 5:5 2:5 4:5 5:5 3:5 4:5 5:5 4:5 5:10 3:10
5:0 2:5 4:5 5:5 3:5 4:5 5:5 4:5 5:10 3:10 5:5
2:0 4:5 5:5 3:5 4:5 5:5 4:5 5:10 3:10 5:5 7:5
4:0 5:5 3:5 4:5 5:5 4:5 5:10 3:10 5:5 7:5 4:5
5:0 3:5 4:5 5:5 4:5 5:10 3:10 5:5 7:5 4:5 3:5
3:0 4:5 5:5 4:5 5:10 3:10 5:5 7:5 4:5 3:5 6:5
4:0 5:5 4:5 5:10 3:10 5:5 7:5 4:5 3:5 6:5 3:5
5:0 4:5 5:10 3:10 5:5 7:5 4:5 3:5 6:5 3:5 6:5
4:0 5:10 3:10 5:5 7:5 4:5 3:5 6:5 3:5 6:5 3:5
5:0 3:10 5:5 7:5 4:5 3:5 6:5 3:5 6:5 3:5 4:5
3:0 5:5 7:5 4:5 3:5 6:5 3:5 6:5 3:5 4:5 5:5
5:0 7:5 4:5 3:5 6:5 3:5 6:5 3:5 4:5 5:5 4:5
7:0 4:5 3:5 6:5 3:5 6:5 3:5 4:5 5:5 4:5 5:5
4:0 3:5 6:5 3:5 6:5 3:5 4:5 5:5 4:5 5:5 6:5
3:0 6:5 3:5 6:5 3:5 4:5 5:5 4:5 5:5 6:5 4:5
6:0 3:5 6:5 3:5 4:5 5:5 4:5 5:5 6:5 4:5 5:5
3:0 6:5 3:5 4:5 5:5 4:5 5:5 6:5 4:5 5:5 4:10
6:0 3:5 4:5 5:5 4:5 5:5 6:5 4:5 5:5 4:10 6:10
3:0 4:5 5:5 4:5 5:5 6:5 4:5 5:5 4:10 6:10 3:5
4:0 5:5 4:5 5:5 6:5 4:5 5:5 4:10 6:10 3:5 6:5
5:0 4:5 5:5 6:5 4:5 5:5 4:10 6:10 3:5 6:5 5:5
4:0 5:5 6:5 4:5 5:5 4:10 6:10 3:5 6:5 5:5 4:5
5:0 6:5 4:5 5:5 4:10 6:10 3:5 6:5 5:5 4:5 7:15
6:0 4:5 5:5 4:10 6:10 3:5 6:5 5:5 4:5 7:15 4:5
4:0 5:5 4:10 6:10 3:5 6:5 5:5 4:5 7:15 4:5 6:10
5:0 4:10 6:10 3:5 6:5 5:5 4:5 7:15 4:5 6:10 2:5
4:0 6:10 3:5 6:5 5:5 4:5 7:15 4:5 6:10 2:5 6:5
6:0 3:5 6:5 5:5 4:5 7:15 4:5 6:10 2:5 6:5 4:5
3:0 6:5 5:5 4:5 7:15 4:5 6:10 2:5 6:5 4:5 3:5
6:0 5:5 4:5 7:15 4:5 6:10 2:5 6:5 4:5 3:5 5:5
5:0 4:5 7:15 4:5 6:10 2:5 6:5 4:5 3:5 5:5 6:5
4:0 7:15 4:5 6:10 2:5 6:5 4:5 3:5 5:5 6:5 4:5
7:0 4:5 6:10 2:5 6:5 4:5 3:5 5:5 6:5 4:5 5:5
4:0 6:10 2:5 6:5 4:5 3:5 5:5 6:5 4:5 5:5 3:5
6:0 2:5 6:5 4:5 3:5 5:5 6:5 4:5 5:5 3:5 6:5
2:0 6:5 4:5 3:5 5:5 6:5 4:5 5:5 3:5 6:5 5:5
6:0 4:5 3:5 5:5 6:5 4:5 5:5 3:5 6:5 5:5 3:5
4:0 3:5 5:5 6:5 4:5 5:5 3:5 6:5 5:5 3:5 4:5
3:0 5:5 6:5 4:5 5:5 3:5 6:5 5:5 3:5 4:5 6:5
5:0 6:5 4:5 5:5 3:5 6:5 5:5 3:5 4:5 6:5 2:5
6:0 4:5 5:5 3:5 6:5 5:5 3:5 4:5 6:5 2:5 6:5
4:0 5:5 3:5 6:5 5:5 3:5 4:5 6:5 2:5 6:5 4:5
5:0 3:5 6:5 5:5 3:5 4:5 6:5 2:5 6:5 4:5 5:5
3:0 6:5 5:5 3:5 4:5 6:5 2:5 6:5 4:5 5:5 3:5
6:0 5:5 3:5 4:5 6:5 2:5 6:5 4:5 5:5 3:5 5:5
5:0 3:5 4:5 6:5 2:5 6:5 4:5 5:5 3:5 5:5 7:5
3:0 4:5 6:5 2:5 6:5 4:5 5:5 3:5 5:5 7:5 4:5
4:0 6:5 2:5 6:5 4:5 5:5 3:5 5:5 7:5 4:5 3:5
6:0 2:5 6:5 4:5 5:5 3:5 5:5 7:5 4:5 3:5 4:5
2:0 6:5 4:5 5:5 3:5 5:5 7:5 4:5 3:5 4:5 5:10
6:0 4:5 5:5 3:5 5:5 7:5 4:5 3:5 4:5 5:10 2:5
4:0 5:5 3:5 5:5 7:5 4:5 3:5 4:5 5:10 2:5 4:5
5:0 3:5 5:5 7:5 4:5 3:5 4:5 5:10 2:5 4:5 5:15
3:0 5:5 7:5 4:5 3:5 4:5 5:10 2:5 4:5 5:15 6:5
5:0 7:5 4:5 3:5 4:5 5:10 2:5 4:5 5:15 6:5 4:5
7:0 4:5 3:5 4:5 5:10 2:5 4:5 5:15 6:5 4:5 6:5
4:0 3:5 4:5 5:10 2:5 4:5 5:15 6:5 4:5 6:5 5:5
3:0 4:5 5:10 2:5 4:5 5:15 6:5 4:5 6:5 5:5 4:5
4:0 5:10 2:5 4:5 5:15 6:5 4:5 6:5 5:5 4:5 3:5
5:0 2:5 4:5 5:15 6:5 4:5 6:5 5:5 4:5 3:5 6:5
2:0 4:5 5:15 6:5 4:5 6:5 5:5 4:5 3:5 6:5 4:5
4:0 5:15 6:5 4:5 6:5 5:5 4:5 3:5 6:5 4:5 5:10
5:0 6:5 4:5 6:5 5:5 4:5 3:5 6:5 4:5 5:10 4:15
6:0 4:5 6:5 5:5 4:5 3:5 6:5 4:5 5:10 4:15 7:5
4:0 6:5 5:5 4:5 3:5 6:5 4:5 5:10 4:15 7:5 2:5
6:0 5:5 4:5 3:5 6:5 4:5 5:10 4:15 7:5 2:5 6:5
5:0 4:5 3:5 6:5 4:5 5:10 4:15 7:5 2:5 6:5 3:5
4:0 3:5 6:5 4:5 5:10 4:15 7:5 2:5 6:5 3:5 4:5
3:0 6:5 4:5 5:10 4:15 7:5 2:5 6:5 3:5 4:5 7:5
6:0 4:5 5:10 4:15 7:5 2:5 6:5 3:5 4:5 7:5 3:5
4:0 5:10 4:15 7:5 2:5 6:5 3:5 4:5 7:5 3:5 5:5
5:0 4:15 7:5 2:5 6:5 3:5 4:5 7:5 3:5 5:5 4:5
4:0 7:5 2:5 6:5 3:5 4:5 7:5 3:5 5:5 4:5 5:5
7:0 2:5 6:5 3:5 4:5 7:5 3:5 5:5 4:5 5:5 4:5
2:0 6:5 3:5 4:5 7:5 3:5 5:5 4:5 5:5 4:5 2:5
6:0 3:5 4:5 7:5 3:5 5:5 4:5 5:5 4:5 2:5 6:5
3:0 4:5 7:5 3:5 5:5 4:5 5:5 4:5 2:5 6:5 4:5
4:0 7:5 3:5 5:5 4:5 5:5 4:5 2:5 6:5 4:5 5:5
7:0 3:5 5:5 4:5 5:5 4:5 2:5 6:5 4:5 5:5 3:5
3:0 5:5 4:5 5:5 4:5 2:5 6:5 4:5 5:5 3:5 5:10
5:0 4:5 5:5 4:5 2:5 6:5 4:5 5:5 3:5 5:10 6:10
4:0 5:5 4:5 2:5 6:5 4:5 5:5 3:5 5:10 6:10 4:5
5:0 4:5 2:5 6:5 4:5 5:5 3:5 5:10 6:10 4:5 3:5
4:0 2:5 6:5 4:5 5:5 3:5 5:10 6:10 4:5 3:5 7:5
2:0 6:5 4:5 5:5 3:5 5:10 6:10 4:5 3:5 7:5 3:5
6:0 4:5 5:5 3:5 5:10 6:10 4:5 3:5 7:5 3:5 7:5
4:0 5:5 3:5 5:10 6:10 4:5 3:5 7:5 3:5 7:5 4:5
5:0 3:5 5:10 6:10 4:5 3:5 7:5 3:5 7:5 4:5 3:5
3:0 5:10 6:10 4:5 3:5 7:5 3:5 7:5 4:5 3:5 5:5
5:0 6:10 4:5 3:5 7:5 3:5 7:5 4:5 3:5 5:5 3:15
6:0 4:5 3:5 7:5 3:5 7:5 4:5 3:5 5:5 3:15 6:5
4:0 3:5 7:5 3:5 7:5 4:5 3:5 5:5 3:15 6:5 4:5
3:0 7:5 3:5 7:5 4:5 3:5 5:5 3:15 6:5 4:5 5:10
7:0 3:5 7:5 4:5 3:5 5:5 3:15 6:5 4:5 5:10 6:5
3:0 7:5 4:5 3:5 5:5 3:15 6:5 4:5 5:10 6:5 4:5
7:0 4:5 3:5 5:5 3:15 6:5 4:5 5:10 6:5 4:5 6:5
4:0 3:5 5:5 3:15 6:5 4:5 5:10 6:5 4:5 6:5 7:5
3:0 5:5 3:15 6:5 4:5 5:10 6:5 4:5 6:5 7:5 3:5
5:0 3:15 6:5 4:5 5:10 6:5 4:5 6:5 7:5 3:5 4:5
3:0 6:5 4:5 5:10 6:5 4:5 6:5 7:5 3:5 4:5 5:5
6:0 4:5 5:10 6:5 4:5 6:5 7:5 3:5 4:5 5:5 6:10
4:0 5:10 6:5 4:5 6:5 7:5 3:5 4:5 5:5 6:10 2:5
5:0 6:5 4:5 6:5 7:5 3:5 4:5 5:5 6:10 2:5 6:5
6:0 4:5 6:5 7:5 3:5 4:5 5:5 6:10 2:5 6:5 4:5
4:0 6:5 7:5 3:5 4:5 5:5 6:10 2:5 6:5 4:5 6:5
6:0 7:5 3:5 4:5 5:5 6:10 2:5 6:5 4:5 6:5 3:10
7:0 3:5 4:5 5:5 6:10 2:5 6:5 4:5 6:5 3:10 4:5
3:0 4:5 5:5 6:10 2:5 6:5 4:5 6:5 3:10 4:5 5:5
4:0 5:5 6:10 2:5 6:5 4:5 6:5 3:10 4:5 5:5 4:10
5:0 6:10 2:5 6:5 4:5 6:5 3:10 4:5 5:5 4:10 5:10
6:0 2:5 6:5 4:5 6:5 3:10 4:5 5:5 4:10 5:10 6:5
2:0 6:5 4:5 6:5 3:10 4:5 5:5 4:10 5:10 6:5 4:10
6:0 4:5 6:5 3:10 4:5 5:5 4:10 5:10 6:5 4:10 5:5
4:0 6:5 3:10 4:5 5:5 4:10 5:10 6:5 4:10 5:5 3:5
6:0 3:10 4:5 5:5 4:10 5:10 6:5 4:10 5:5 3:5 5:5
3:0 4:5 5:5 4:10 5:10 6:5 4:10 5:5 3:5 5:5 4:10
4:0 5:5 4:10 5:10 6:5 4:10 5:5 3:5 5:5 4:10 6:5
5:0 4:10 5:10 6:5 4:10 5:5 3:5 5:5 4:10 6:5 4:5
4:0 5:10 6:5 4:10 5:5 3:5 5:5 4:10 6:5 4:5 5:5
5:0 6:5 4:10 5:5 3:5 5:5 4:10 6:5 4:5 5:5 6:5
6:0 4:10 5:5 3:5 5:5 4:10 6:5 4:5 5:5 6:5 4:5
4:0 5:5 3:5 5:5 4:10 6:5 4:5 5:5 6:5 4:5 2:5
5:0 3:5 5:5 4:10 6:5 4:5 5:5 6:5 4:5 2:5 5:5
3:0 5:5 4:10 6:5 4:5 5:5 6:5 4:5 2:5 5:5 4:5
5:0 4:10 6:5 4:5 5:5 6:5 4:5 2:5 5:5 4:5 6:5
4:0 6:5 4:5 5:5 6:5 4:5 2:5 5:5 4:5 6:5 4:5
6:0 4:5 5:5 6:5 4:5 2:5 5:5 4:5 6:5 4:5 5:5
4:0 5:5 6:5 4:5 2:5 5:5 4:5 6:5 4:5 5:5 6:5
5:0 6:5 4:5 2:5 5:5 4:5 6:5 4:5 5:5 6:5 5:5
6:0 4:5 2:5 5:5 4:5 6:5 4:5 5:5 6:5 5:5 4:5
4:0 2:5 5:5 4:5 6:5 4:5 5:5 6:5 5:5 4:5 5:5
2:0 5:5 4:5 6:5 4:5 5:5 6:5 5:5 4:5 5:5 6:5
5:0 4:5 6:5 4:5 5:5 6:5 5:5 4:5 5:5 6:5 3:5
4:0 6:5 4:5 5:5 6:5 5:5 4:5 5:5 6:5 3:5 5:5
6:0 4:5 5:5 6:5 5:5 4:5 5:5 6:5 3:5 5:5 3:5
4:0 5:5 6:5 5:5 4:5 5:5 6:5 3:5 5:5 3:5 5:10
5:0 6:5 5:5 4:5 5:5 6:5 3:5 5:5 3:5 5:10 6:10
6:0 5:5 4:5 5:5 6:5 3:5 5:5 3:5 5:10 6:10 4:10
5:0 4:5 5:5 6:5 3:5 5:5 3:5 5:10 6:10 4:10 5:5
4:0 5:5 6:5 3:5 5:5 3:5 5:10 6:10 4:10 5:5 4:5
5:0 6:5 3:5 5:5 3:5 5:10 6:10 4:10 5:5 4:5 5:5
6:0 3:5 5:5 3:5 5:10 6:10 4:10 5:5 4:5 5:5 4:5
3:0 5:5 3:5 5:10 6:10 4:10 5:5 4:5 5:5 4:5 3:5
5:0 3:5 5:10 6:10 4:10 5:5 4:5 5:5 4:5 3:5 6:5
3:0 5:10 6:10 4:10 5:5 4:5 5:5 4:5 3:5 6:5 2:5
5:0 6:10 4:10 5:5 4:5 5:5 4:5 3:5 6:5 2:5 6:5
6:0 4:10 5:5 4:5 5:5 4:5 3:5 6:5 2:5 6:5 4:5
4:0 5:5 4:5 5:5 4:5 3:5 6:5 2:5 6:5 4:5 5:5
5:0 4:5 5:5 4:5 3:5 6:5 2:5 6:5 4:5 5:5 3:20
4:0 5:5 4:5 3:5 6:5 2:5 6:5 4:5 5:5 3:20 6:5
5:0 4:5 3:5 6:5 2:5 6:5 4:5 5:5 3:20 6:5 4:5
4:0 3:5 6:5 2:5 6:5 4:5 5:5 3:20 6:5 4:5 5:5
3:0 6:5 2:5 6:5 4:5 5:5 3:20 6:5 4:5 5:5 4:5
6:0 2:5 6:5 4:5 5:5 3:20 6:5 4:5 5:5 4:5 5:10
2:0 6:5 4:5 5:5 3:20 6:5 4:5 5:5 4:5 5:10 4:5
6:0 4:5 5:5 3:20 6:5 4:5 5:5 4:5 5:10 4:5 5:5
4:0 5:5 3:20 6:5 4:5 5:5 4:5 5:10 4:5 5:5 3:15
5:0 3:20 6:5 4:5 5:5 4:5 5:10 4:5 5:5 3:15 5:5
3:0 6:5 4:5 5:5 4:5 5:10 4:5 5:5 3:15 5:5 6:5
6:0 4:5 5:5 4:5 5:10 4:5 5:5 3:15 5:5 6:5 3:5
4:0 5:5 4:5 5:10 4:5 5:5 3:15 5:5 6:5 3:5 5:10
5:0 4:5 5:10 4:5 5:5 3:15 5:5 6:5 3:5 5:10 4:5
4:0 5:10 4:5 5:5 3:15 5:5 6:5 3:5 5:10 4:5 6:5
5:0 4:5 5:5 3:15 5:5 6:5 3:5 5:10 4:5 6:5 4:5
4:0 5:5 3:15 5:5 6:5 3:5 5:10 4:5 6:5 4:5 5:10
5:0 3:15 5:5 6:5 3:5 5:10 4:5 6:5 4:5 5:10 3:5
3:0 5:5 6:5 3:5 5:10 4:5 6:5 4:5 5:10 3:5 7:5
5:0 6:5 3:5 5:10 4:5 6:5 4:5 5:10 3:5 7:5 3:5
6:0 3:5 5:10 4:5 6:5 4:5 5:10 3:5 7:5 3:5 4:5
3:0 5:10 4:5 6:5 4:5 5:10 3:5 7:5 3:5 4:5 6:5
5:0 4:5 6:5 4:5 5:10 3:5 7:5 3:5 4:5 6:5 5:5
4:0 6:5 4:5 5:10 3:5 7:5 3:5 4:5 6:5 5:5 3:5
6:0 4:5 5:10 3:5 7:5 3:5 4:5 6:5 5:5 3:5 5:5
4:0 5:10 3:5 7:5 3:5 4:5 6:5 5:5 3:5 5:5 3:5
5:0 3:5 7:5 3:5 4:5 6:5 5:5 3:5 5:5 3:5 6:5
3:0 7:5 3:5 4:5 6:5 5:5 3:5 5:5 3:5 6:5 5:5
7:0 3:5 4:5 6:5 5:5 3:5 5:5 3:5 6:5 5:5 2:10
3:0 4:5 6:5 5:5 3:5 5:5 3:5 6:5 5:5 2:10 6:5
4:0 6:5 5:5 3:5 5:5 3:5 6:5 5:5 2:10 6:5 5:5
6:0 5:5 3:5 5:5 3:5 6:5 5:5 2:10 6:5 5:5 2:10
5:0 3:5 5:5 3:5 6:5 5:5 2:10 6:5 5:5 2:10 6:5
3:0 5:5 3:5 6:5 5:5 2:10 6:5 5:5 2:10 6:5 2:5
5:0 3:5 6:5 5:5 2:10 6:5 5:5 2:10 6:5 2:5 6:5
3:0 6:5 5:5 2:10 6:5 5:5 2:10 6:5 2:5 6:5 4:5
6:0 5:5 2:10 6:5 5:5 2:10 6:5 2:5 6:5 4:5 5:10
5:0 2:10 6:5 5:5 2:10 6:5 2:5 6:5 4:5 5:10 3:5
2:0 6:5 5:5 2:10 6:5 2:5 6:5 4:5 5:10 3:5 4:5
6:0 5:5 2:10 6:5 2:5 6:5 4:5 5:10 3:5 4:5 5:5
5:0 2:10 6:5 2:5 6:5 4:5 5:10 3:5 4:5 5:5 4:15
2:0 6:5 2:5 6:5 4:5 5:10 3:5 4:5 5:5 4:15 5:5
6:0 2:5 6:5 4:5 5:10 3:5 4:5 5:5 4:15 5:5 4:5
2:0 6:5 4:5 5:10 3:5 4:5 5:5 4:15 5:5 4:5 6:5
6:0 4:5 5:10 3:5 4:5 5:5 4:15 5:5 4:5 6:5 3:5
4:0 5:10 3:5 4:5 5:5 4:15 5:5 4:5 6:5 3:5 6:5
5:0 3:5 4:5 5:5 4:15 5:5 4:5 6:5 3:5 6:5 5:5
3:0 4:5 5:5 4:15 5:5 4:5 6:5 3:5 6:5 5:5 3:5
4:0 5:5 4:15 5:5 4:5 6:5 3:5 6:5 5:5 3:5 2:5
5:0 4:15 5:5 4:5 6:5 3:5 6:5 5:5 3:5 2:5 6:5
4:0 5:5 4:5 6:5 3:5 6:5 5:5 3:5 2:5 6:5 3:5
5:0 4:5 6:5 3:5 6:5 5:5 3:5 2:5 6:5 3:5 5:5
4:0 6:5 3:5 6:5 5:5 3:5 2:5 6:5 3:5 5:5 3:5
6:0 3:5 6:5 5:5 3:5 2:5 6:5 3:5 5:5 3:5 4:5
3:0 6:5 5:5 3:5 2:5 6:5 3:5 5:5 3:5 4:5 6:5
6:0 5:5 3:5 2:5 6:5 3:5 5:5 3:5 4:5 6:5 3:5
5:0 3:5 2:5 6:5 3:5 5:5 3:5 4:5 6:5 3:5 6:5
3:0 2:5 6:5 3:5 5:5 3:5 4:5 6:5 3:5 6:5 3:5
2:0 6:5 3:5 5:5 3:5 4:5 6:5 3:5 6:5 3:5 5:5
6:0 3:5 5:5 3:5 4:5 6:5 3:5 6:5 3:5 5:5 4:15
3:0 5:5 3:5 4:5 6:5 3:5 6:5 3:5 5:5 4:15 3:10
5:0 3:5 4:5 6:5 3:5 6:5 3:5 5:5 4:15 3:10 6:5
3:0 4:5 6:5 3:5 6:5 3:5 5:5 4:15 3:10 6:5 5:5
4:0 6:5 3:5 6:5 3:5 5:5 4:15 3:10 6:5 5:5 4:5
6:0 3:5 6:5 3:5 5:5 4:15 3:10 6:5 5:5 4:5 5:5
3:0 6:5 3:5 5:5 4:15 3:10 6:5 5:5 4:5 5:5 6:5
6:0 3:5 5:5 4:15 3:10 6:5 5:5 4:5 5:5 6:5 4:5
3:0 5:5 4:15 3:10 6:5 5:5 4:5 5:5 6:5 4:5 5:5
5:0 4:15 3:10 6:5 5:5 4:5 5:5 6:5 4:5 5:5 4:5
4:0 3:10 6:5 5:5 4:5 5:5 6:5 4:5 5:5 4:5 3:5
3:0 6:5 5:5 4:5 5:5 6:5 4:5 5:5 4:5 3:5 5:5
6:0 5:5 4:5 5:5 6:5 4:5 5:5 4:5 3:5 5:5 4:5
5:0 4:5 5:5 6:5 4:5 5:5 4:5 3:5 5:5 4:5 6:5
4:0 5:5 6:5 4:5 5:5 4:5 3:5 5:5 4:5 6:5 2:5
5:0 6:5 4:5 5:5 4:5 3:5 5:5 4:5 6:5 2:5 4:5
6:0 4:5 5:5 4:5 3:5 5:5 4:5 6:5 2:5 4:5 3:5
4:0 5:5 4:5 3:5 5:5 4:5 6:5 2:5 4:5 3:5 6:5
5:0 4:5 3:5 5:5 4:5 6:5 2:5 4:5 3:5 6:5 5:5
4:0 3:5 5:5 4:5 6:5 2:5 4:5 3:5 6:5 5:5 2:5
3:0 5:5 4:5 6:5 2:5 4:5 3:5 6:5 5:5 2:5 6:5
5:0 4:5 6:5 2:5 4:5 3:5 6:5 5:5 2:5 6:5 5:5
4:0 6:5 2:5 4:5 3:5 6:5 5:5 2:5 6:5 5:5 4:10
6:0 2:5 4:5 3:5 6:5 5:5 2:5 6:5 5:5 4:10 3:5
2:0 4:5 3:5 6:5 5:5 2:5 6:5 5:5 4:10 3:5 6:5
4:0 3:5 6:5 5:5 2:5 6:5 5:5 4:10 3:5 6:5 3:5
3:0 6:5 5:5 2:5 6:5 5:5 4:10 3:5 6:5 3:5 4:5
6:0 5:5 2:5 6:5 5:5 4:10 3:5 6:5 3:5 4:5 5:5
5:0 2:5 6:5 5:5 4:10 3:5 6:5 3:5 4:5 5:5 3:5
2:0 6:5 5:5 4:10 3:5 6:5 3:5 4:5 5:5 3:5 5:5
6:0 5:5 4:10 3:5 6:5 3:5 4:5 5:5 3:5 5:5 3:5
5:0 4:10 3:5 6:5 3:5 4:5 5:5 3:5 5:5 3:5 5:5
4:0 3:5 6:5 3:5 4:5 5:5 3:5 5:5 3:5 5:5 7:10
3:0 6:5 3:5 4:5 5:5 3:5 5:5 3:5 5:5 7:10 3:5
6:0 3:5 4:5 5:5 3:5 5:5 3:5 5:5 7:10 3:5 5:5
3:0 4:5 5:5 3:5 5:5 3:5 5:5 7:10 3:5 5:5 4:10
4:0 5:5 3:5 5:5 3:5 5:5 7:10 3:5 5:5 4:10 6:5
5:0 3:5 5:5 3:5 5:5 7:10 3:5 5:5 4:10 6:5 3:5
3:0 5:5 3:5 5:5 7:10 3:5 5:5 4:10 6:5 3:5 6:5
5:0 3:5 5:5 7:10 3:5 5:5 4:10 6:5 3:5 6:5 4:5
3:0 5:5 7:10 3:5 5:5 4:10 6:5 3:5 6:5 4:5 5:15
5:0 7:10 3:5 5:5 4:10 6:5 3:5 6:5 4:5 5:15 4:10
7:0 3:5 5:5 4:10 6:5 3:5 6:5 4:5 5:15 4:10 5:5
3:0 5:5 4:10 6:5 3:5 6:5 4:5 5:15 4:10 5:5 4:10
5:0 4:10 6:5 3:5 6:5 4:5 5:15 4:10 5:5 4:10 5:10
4:0 6:5 3:5 6:5 4:5 5:15 4:10 5:5 4:10 5:10 4:5
6:0 3:5 6:5 4:5 5:15 4:10 5:5 4:10 5:10 4:5 5:5
3:0 6:5 4:5 5:15 4:10 5:5 4:10 5:10 4:5 5:5 3:5
6:0 4:5 5:15 4:10 5:5 4:10 5:10 4:5 5:5 3:5 5:5
4:0 5:15 4:10 5:5 4:10 5:10 4:5 5:5 3:5 5:5 3:5
5:0 4:10 5:5 4:10 5:10 4:5 5:5 3:5 5:5 3:5 5:5
4:0 5:5 4:10 5:10 4:5 5:5 3:5 5:5 3:5 5:5 4:5
5:0 4:10 5:10 4:5 5:5 3:5 5:5 3:5 5:5 4:5 3:5
4:0 5:10 4:5 5:5 3:5 5:5 3:5 5:5 4:5 3:5 7:5
5:0 4:5 5:5 3:5 5:5 3:5 5:5 4:5 3:5 7:5 2:5
4:0 5:5 3:5 5:5 3:5 5:5 4:5 3:5 7:5 2:5 4:5
5:0 3:5 5:5 3:5 5:5 4:5 3:5 7:5 2:5 4:5 5:5
3:0 5:5 3:5 5:5 4:5 3:5 7:5 2:5 4:5 5:5 3:15
5:0 3:5 5:5 4:5 3:5 7:5 2:5 4:5 5:5 3:15 2:5
3:0 5:5 4:5 3:5 7:5 2:5 4:5 5:5 3:15 2:5 6:5
5:0 4:5 3:5 7:5 2:5 4:5 5:5 3:15 2:5 6:5 5:5
4:0 3:5 7:5 2:5 4:5 5:5 3:15 2:5 6:5 5:5 4:5
3:0 7:5 2:5 4:5 5:5 3:15 2:5 6:5 5:5 4:5 3:5
7:0 2:5 4:5 5:5 3:15 2:5 6:5 5:5 4:5 3:5 6:5
2:0 4:5 5:5 3:15 2:5 6:5 5:5 4:5 3:5 6:5 2:5
4:0 5:5 3:15 2:5 6:5 5:5 4:5 3:5 6:5 2:5 5:5
5:0 3:15 2:5 6:5 5:5 4:5 3:5 6:5 2:5 5:5 4:5
3:0 2:5 6:5 5:5 4:5 3:5 6:5 2:5 5:5 4:5 5:5
2:0 6:5 5:5 4:5 3:5 6:5 2:5 5:5 4:5 5:5 4:5
6:0 5:5 4:5 3:5 6:5 2:5 5:5 4:5 5:5 4:5 5:10
5:0 4:5 3:5 6:5 2:5 5:5 4:5 5:5 4:5 5:10 6:10
4:0 3:5 6:5 2:5 5:5 4:5 5:5 4:5 5:10 6:10 3:5
3:0 6:5 2:5 5:5 4:5 5:5 4:5 5:10 6:10 3:5 5:5
6:0 2:5 5:5 4:5 5:5 4:5 5:10 6:10 3:5 5:5 6:5
2:0 5:5 4:5 5:5 4:5 5:10 6:10 3:5 5:5 6:5 2:5
5:0 4:5 5:5 4:5 5:10 6:10 3:5 5:5 6:5 2:5 3:5
4:0 5:5 4:5 5:10 6:10 3:5 5:5 6:5 2:5 3:5 4:10
5:0 4:5 5:10 6:10 3:5 5:5 6:5 2:5 3:5 4:10 7:5
4:0 5:10 6:10 3:5 5:5 6:5 2:5 3:5 4:10 7:5 2:5
5:0 6:10 3:5 5:5 6:5 2:5 3:5 4:10 7:5 2:5 6:5
6:0 3:5 5:5 6:5 2:5 3:5 4:10 7:5 2:5 6:5 4:5
3:0 5:5 6:5 2:5 3:5 4:10 7:5 2:5 6:5 4:5 5:5
5:0 6:5 2:5 3:5 4:10 7:5 2:5 6:5 4:5 5:5 4:5
6:0 2:5 3:5 4:10 7:5 2:5 6:5 4:5 5:5 4:5 5:10
2:0 3:5 4:10 7:5 2:5 6:5 4:5 5:5 4:5 5:10 4:5
3:0 4:10 7:5 2:5 6:5 4:5 5:5 4:5 5:10 4:5 5:10
4:0 7:5 2:5 6:5 4:5 5:5 4:5 5:10 4:5 5:10 4:5
7:0 2:5 6:5 4:5 5:5 4:5 5:10 4:5 5:10 4:5 5:5
2:0 6:5 4:5 5:5 4:5 5:10 4:5 5:10 4:5 5:5 6:10
6:0 4:5 5:5 4:5 5:10 4:5 5:10 4:5 5:5 6:10 3:5
4:0 5:5 4:5 5:10 4:5 5:10 4:5 5:5 6:10 3:5 4:5
5:0 4:5 5:10 4:5 5:10 4:5 5:5 6:10 3:5 4:5 5:5
4:0 5:10 4:5 5:10 4:5 5:5 6:10 3:5 4:5 5:5 4:5
5:0 4:5 5:10 4:5 5:5 6:10 3:5 4:5 5:5 4:5 6:5
4:0 5:10 4:5 5:5 6:10 3:5 4:5 5:5 4:5 6:5 3:5
5:0 4:5 5:5 6:10 3:5 4:5 5:5 4:5 6:5 3:5 2:5
4:0 5:5 6:10 3:5 4:5 5:5 4:5 6:5 3:5 2:5 5:5
5:0 6:10 3:5 4:5 5:5 4:5 6:5 3:5 2:5 5:5 6:10
6:0 3:5 4:5 5:5 4:5 6:5 3:5 2:5 5:5 6:10 4:5
3:0 4:5 5:5 4:5 6:5 3:5 2:5 5:5 6:10 4:5 6:5
4:0 5:5 4:5 6:5 3:5 2:5 5:5 6:10 4:5 6:5 3:5
5:0 4:5 6:5 3:5 2:5 5:5 6:10 4:5 6:5 3:5 4:5
4:0 6:5 3:5 2:5 5:5 6:10 4:5 6:5 3:5 4:5 5:5
6:0 3:5 2:5 5:5 6:10 4:5 6:5 3:5 4:5 5:5 2:5
3:0 2:5 5:5 6:10 4:5 6:5 3:5 4:5 5:5 2:5 4:5
2:0 5:5 6:10 4:5 6:5 3:5 4:5 5:5 2:5 4:5 6:5
5:0 6:10 4:5 6:5 3:5 4:5 5:5 2:5 4:5 6:5 5:5
6:0 4:5 6:5 3:5 4:5 5:5 2:5 4:5 6:5 5:5 4:5
4:0 6:5 3:5 4:5 5:5 2:5 4:5 6:5 5:5 4:5 3:5
6:0 3:5 4:5 5:5 2:5 4:5 6:5 5:5 4:5 3:5 6:5
3:0 4:5 5:5 2:5 4:5 6:5 5:5 4:5 3:5 6:5 2:5
4:0 5:5 2:5 4:5 6:5 5:5 4:5 3:5 6:5 2:5 6:5
5:0 2:5 4:5 6:5 5:5 4:5 3:5 6:5 2:5 6:5 3:5
2:0 4:5 6:5 5:5 4:5 3:5 6:5 2:5 6:5 3:5 4:5
4:0 6:5 5:5 4:5 3:5 6:5 2:5 6:5 3:5 4:5 5:10
6:0 5:5 4:5 3:5 6:5 2:5 6:5 3:5 4:5 5:10 6:5
5:0 4:5 3:5 6:5 2:5 6:5 3:5 4:5 5:10 6:5 3:5
4:0 3:5 6:5 2:5 6:5 3:5 4:5 5:10 6:5 3:5 5:5
3:0 6:5 2:5 6:5 3:5 4:5 5:10 6:5 3:5 5:5 4:5
6:0 2:5 6:5 3:5 4:5 5:10 6:5 3:5 5:5 4:5 5:5
2:0 6:5 3:5 4:5 5:10 6:5 3:5 5:5 4:5 5:5 2:10
6:0 3:5 4:5 5:10 6:5 3:5 5:5 4:5 5:5 2:10 3:5
3:0 4:5 5:10 6:5 3:5 5:5 4:5 5:5 2:10 3:5 5:5
4:0 5:10 6:5 3:5 5:5 4:5 5:5 2:10 3:5 5:5 4:5
5:0 6:5 3:5 5:5 4:5 5:5 2:10 3:5 5:5 4:5 7:5
6:0 3:5 5:5 4:5 5:5 2:10 3:5 5:5 4:5 7:5 5:5
3:0 5:5 4:5 5:5 2:10 3:5 5:5 4:5 7:5 5:5 3:5
5:0 4:5 5:5 2:10 3:5 5:5 4:5 7:5 5:5 3:5 5:5
4:0 5:5 2:10 3:5 5:5 4:5 7:5 5:5 3:5 5:5 4:5
5:0 2:10 3:5 5:5 4:5 7:5 5:5 3:5 5:5 4:5 5:5
2:0 3:5 5:5 4:5 7:5 5:5 3:5 5:5 4:5 5:5 3:5
3:0 5:5 4:5 7:5 5:5 3:5 5:5 4:5 5:5 3:5 5:5
5:0 4:5 7:5 5:5 3:5 5:5 4:5 5:5 3:5 5:5 4:10
4:0 7:5 5:5 3:5 5:5 4:5 5:5 3:5 5:5 4:10 5:5
7:0 5:5 3:5 5:5 4:5 5:5 3:5 5:5 4:10 5:5 6:5
5:0 3:5 5:5 4:5 5:5 3:5 5:5 4:10 5:5 6:5 3:5
3:0 5:5 4:5 5:5 3:5 5:5 4:10 5:5 6:5 3:5 5:5
5:0 4:5 5:5 3:5 5:5 4:10 5:5 6:5 3:5 5:5 6:5
4:0 5:5 3:5 5:5 4:10 5:5 6:5 3:5 5:5 6:5 4:5
5:0 3:5 5:5 4:10 5:5 6:5 3:5 5:5 6:5 4:5 5:10
3:0 5:5 4:10 5:5 6:5 3:5 5:5 6:5 4:5 5:10 4:5
5:0 4:10 5:5 6:5 3:5 5:5 6:5 4:5 5:10 4:5 6:5
4:0 5:5 6:5 3:5 5:5 6:5 4:5 5:10 4:5 6:5 3:5
5:0 6:5 3:5 5:5 6:5 4:5 5:10 4:5 6:5 3:5 7:10
6:0 3:5 5:5 6:5 4:5 5:10 4:5 6:5 3:5 7:10 2:5
3:0 5:5 6:5 4:5 5:10 4:5 6:5 3:5 7:10 2:5 7:5
5:0 6:5 4:5 5:10 4:5 6:5 3:5 7:10 2:5 7:5 3:5
6:0 4:5 5:10 4:5 6:5 3:5 7:10 2:5 7:5 3:5 6:5
4:0 5:10 4:5 6:5 3:5 7:10 2:5 7:5 3:5 6:5 5:5
5:0 4:5 6:5 3:5 7:10 2:5 7:5 3:5 6:5 5:5 3:5
4:0 6:5 3:5 7:10 2:5 7:5 3:5 6:5 5:5 3:5 7:5
6:0 3:5 7:10 2:5 7:5 3:5 6:5 5:5 3:5 7:5 3:5
3:0 7:10 2:5 7:5 3:5 6:5 5:5 3:5 7:5 3:5 6:5
7:0 2:5 7:5 3:5 6:5 5:5 3:5 7:5 3:5 6:5 2:5
2:0 7:5 3:5 6:5 5:5 3:5 7:5 3:5 6:5 2:5 5:5
7:0 3:5 6:5 5:5 3:5 7:5 3:5 6:5 2:5 5:5 3:10
3:0 6:5 5:5 3:5 7:5 3:5 6:5 2:5 5:5 3:10 6:5
6:0 5:5 3:5 7:5 3:5 6:5 2:5 5:5 3:10 6:5 5:5
5:0 3:5 7:5 3:5 6:5 2:5 5:5 3:10 6:5 5:5 3:10
3:0 7:5 3:5 6:5 2:5 5:5 3:10 6:5 5:5 3:10 6:5
7:0 3:5 6:5 2:5 5:5 3:10 6:5 5:5 3:10 6:5 3:5
3:0 6:5 2:5 5:5 3:10 6:5 5:5 3:10 6:5 3:5 6:5
6:0 2:5 5:5 3:10 6:5 5:5 3:10 6:5 3:5 6:5 3:10
2:0 5:5 3:10 6:5 5:5 3:10 6:5 3:5 6:5 3:10 7:10
5:0 3:10 6:5 5:5 3:10 6:5 3:5 6:5 3:10 7:10 3:5
3:0 6:5 5:5 3:10 6:5 3:5 6:5 3:10 7:10 3:5 7:5
6:0 5:5 3:10 6:5 3:5 6:5 3:10 7:10 3:5 7:5 4:5
5:0 3:10 6:5 3:5 6:5 3:10 7:10 3:5 7:5 4:5 3:5
3:0 6:5 3:5 6:5 3:10 7:10 3:5 7:5 4:5 3:5 6:5
6:0 3:5 6:5 3:10 7:10 3:5 7:5 4:5 3:5 6:5 4:5
3:0 6:5 3:10 7:10 3:5 7:5 4:5 3:5 6:5 4:5 6:5
6:0 3:10 7:10 3:5 7:5 4:5 3:5 6:5 4:5 6:5 2:5
3:0 7:10 3:5 7:5 4:5 3:5 6:5 4:5 6:5 2:5 6:5
7:0 3:5 7:5 4:5 3:5 6:5 4:5 6:5 2:5 6:5 3:5
3:0 7:5 4:5 3:5 6:5 4:5 6:5 2:5 6:5 3:5 5:5
7:0 4:5 3:5 6:5 4:5 6:5 2:5 6:5 3:5 5:5 3:10
4:0 3:5 6:5 4:5 6:5 2:5 6:5 3:5 5:5 3:10 6:5
3:0 6:5 4:5 6:5 2:5 6:5 3:5 5:5 3:10 6:5 4:5
6:0 4:5 6:5 2:5 6:5 3:5 5:5 3:10 6:5 4:5 6:5
4:0 6:5 2:5 6:5 3:5 5:5 3:10 6:5 4:5 6:5 5:5
6:0 2:5 6:5 3:5 5:5 3:10 6:5 4:5 6:5 5:5 2:5
2:0 6:5 3:5 5:5 3:10 6:5 4:5 6:5 5:5 2:5 5:5
6:0 3:5 5:5 3:10 6:5 4:5 6:5 5:5 2:5 5:5 3:5
3:0 5:5 3:10 6:5 4:5 6:5 5:5 2:5 5:5 3:5 6:5
5:0 3:10 6:5 4:5 6:5 5:5 2:5 5:5 3:5 6:5 3:5
3:0 6:5 4:5 6:5 5:5 2:5 5:5 3:5 6:5 3:5 2:5
6:0 4:5 6:5 5:5 2:5 5:5 3:5 6:5 3:5 2:5 5:5
4:0 6:5 5:5 2:5 5:5 3:5 6:5 3:5 2:5 5:5 4:5
6:0 5:5 2:5 5:5 3:5 6:5 3:5 2:5 5:5 4:5 7:5
5:0 2:5 5:5 3:5 6:5 3:5 2:5 5:5 4:5 7:5 2:5
2:0 5:5 3:5 6:5 3:5 2:5 5:5 4:5 7:5 2:5 6:5
5:0 3:5 6:5 3:5 2:5 5:5 4:5 7:5 2:5 6:5 2:5
3:0 6:5 3:5 2:5 5:5 4:5 7:5 2:5 6:5 2:5 5:5
6:0 3:5 2:5 5:5 4:5 7:5 2:5 6:5 2:5 5:5 6:5
3:0 2:5 5:5 4:5 7:5 2:5 6:5 2:5 5:5 6:5 3:5
2:0 5:5 4:5 7:5 2:5 6:5 2:5 5:5 6:5 3:5 6:5
5:0 4:5 7:5 2:5 6:5 2:5 5:5 6:5 3:5 6:5 5:5
4:0 7:5 2:5 6:5 2:5 5:5 6:5 3:5 6:5 5:5 6:5
7:0 2:5 6:5 2:5 5:5 6:5 3:5 6:5 5:5 6:5 4:5
2:0 6:5 2:5 5:5 6:5 3:5 6:5 5:5 6:5 4:5 6:15
6:0 2:5 5:5 6:5 3:5 6:5 5:5 6:5 4:5 6:15 5:5
2:0 5:5 6:5 3:5 6:5 5:5 6:5 4:5 6:15 5:5 4:5
5:0 6:5 3:5 6:5 5:5 6:5 4:5 6:15 5:5 4:5 3:5
6:0 3:5 6:5 5:5 6:5 4:5 6:15 5:5 4:5 3:5 4:5
3:0 6:5 5:5 6:5 4:5 6:15 5:5 4:5 3:5 4:5 6:5
6:0 5:5 6:5 4:5 6:15 5:5 4:5 3:5 4:5 6:5 3:10
5:0 6:5 4:5 6:15 5:5 4:5 3:5 4:5 6:5 3:10 7:10
6:0 4:5 6:15 5:5 4:5 3:5 4:5 6:5 3:10 7:10 2:5
4:0 6:15 5:5 4:5 3:5 4:5 6:5 3:10 7:10 2:5 7:5
6:0 5:5 4:5 3:5 4:5 6:5 3:10 7:10 2:5 7:5 4:5
5:0 4:5 3:5 4:5 6:5 3:10 7:10 2:5 7:5 4:5 3:5
4:0 3:5 4:5 6:5 3:10 7:10 2:5 7:5 4:5 3:5 5:5
3:0 4:5 6:5 3:10 7:10 2:5 7:5 4:5 3:5 5:5 4:5
4:0 6:5 3:10 7:10 2:5 7:5 4:5 3:5 5:5 4:5 6:5
6:0 3:10 7:10 2:5 7:5 4:5 3:5 5:5 4:5 6:5 4:5
3:0 7:10 2:5 7:5 4:5 3:5 5:5 4:5 6:5 4:5 5:5
7:0 2:5 7:5 4:5 3:5 5:5 4:5 6:5 4:5 5:5 4:10
2:0 7:5 4:5 3:5 5:5 4:5 6:5 4:5 5:5 4:10 5:5
7:0 4:5 3:5 5:5 4:5 6:5 4:5 5:5 4:10 5:5 3:10
4:0 3:5 5:5 4:5 6:5 4:5 5:5 4:10 5:5 3:10 5:5
3:0 5:5 4:5 6:5 4:5 5:5 4:10 5:5 3:10 5:5 6:15
5:0 4:5 6:5 4:5 5:5 4:10 5:5 3:10 5:5 6:15 4:5
4:0 6:5 4:5 5:5 4:10 5:5 3:10 5:5 6:15 4:5 5:5
6:0 4:5 5:5 4:10 5:5 3:10 5:5 6:15 4:5 5:5 4:10
4:0 5:5 4:10 5:5 3:10 5:5 6:15 4:5 5:5 4:10 6:5
5:0 4:10 5:5 3:10 5:5 6:15 4:5 5:5 4:10 6:5 4:5
4:0 5:5 3:10 5:5 6:15 4:5 5:5 4:10 6:5 4:5 5:5
5:0 3:10 5:5 6:15 4:5 5:5 4:10 6:5 4:5 5:5 7:5
3:0 5:5 6:15 4:5 5:5 4:10 6:5 4:5 5:5 7:5 3:5
5:0 6:15 4:5 5:5 4:10 6:5 4:5 5:5 7:5 3:5 6:5
6:0 4:5 5:5 4:10 6:5 4:5 5:5 7:5 3:5 6:5 2:5
4:0 5:5 4:10 6:5 4:5 5:5 7:5 3:5 6:5 2:5 5:5
5:0 4:10 6:5 4:5 5:5 7:5 3:5 6:5 2:5 5:5 4:5
4:0 6:5 4:5 5:5 7:5 3:5 6:5 2:5 5:5 4:5 6:10
6:0 4:5 5:5 7:5 3:5 6:5 2:5 5:5 4:5 6:10 3:5
4:0 5:5 7:5 3:5 6:5 2:5 5:5 4:5 6:10 3:5 5:5
5:0 7:5 3:5 6:5 2:5 5:5 4:5 6:10 3:5 5:5 4:5
7:0 3:5 6:5 2:5 5:5 4:5 6:10 3:5 5:5 4:5 3:5
3:0 6:5 2:5 5:5 4:5 6:10 3:5 5:5 4:5 3:5 5:5
6:0 2:5 5:5 4:5 6:10 3:5 5:5 4:5 3:5 5:5 4:10
2:0 5:5 4:5 6:10 3:5 5:5 4:5 3:5 5:5 4:10 6:10
5:0 4:5 6:10 3:5 5:5 4:5 3:5 5:5 4:10 6:10 3:5
4:0 6:10 3:5 5:5 4:5 3:5 5:5 4:10 6:10 3:5 6:10
6:0 3:5 5:5 4:5 3:5 5:5 4:10 6:10 3:5 6:10 3:5
3:0 5:5 4:5 3:5 5:5 4:10 6:10 3:5 6:10 3:5 5:5
5:0 4:5 3:5 5:5 4:10 6:10 3:5 6:10 3:5 5:5 3:5
4:0 3:5 5:5 4:10 6:10 3:5 6:10 3:5 5:5 3:5 4:5
3:0 5:5 4:10 6:10 3:5 6:10 3:5 5:5 3:5 4:5 6:5
5:0 4:10 6:10 3:5 6:10 3:5 5:5 3:5 4:5 6:5 5:5
4:0 6:10 3:5 6:10 3:5 5:5 3:5 4:5 6:5 5:5 4:5
6:0 3:5 6:10 3:5 5:5 3:5 4:5 6:5 5:5 4:5 5:5
3:0 6:10 3:5 5:5 3:5 4:5 6:5 5:5 4:5 5:5 3:5
6:0 3:5 5:5 3:5 4:5 6:5 5:5 4:5 5:5 3:5 7:5
3:0 5:5 3:5 4:5 6:5 5:5 4:5 5:5 3:5 7:5 3:5
5:0 3:5 4:5 6:5 5:5 4:5 5:5 3:5 7:5 3:5 5:5
3:0 4:5 6:5 5:5 4:5 5:5 3:5 7:5 3:5 5:5 6:5
4:0 6:5 5:5 4:5 5:5 3:5 7:5 3:5 5:5 6:5 3:5
6:0 5:5 4:5 5:5 3:5 7:5 3:5 5:5 6:5 3:5 7:5
5:0 4:5 5:5 3:5 7:5 3:5 5:5 6:5 3:5 7:5 4:5
4:0 5:5 3:5 7:5 3:5 5:5 6:5 3:5 7:5 4:5 5:10
5:0 3:5 7:5 3:5 5:5 6:5 3:5 7:5 4:5 5:10 6:5
3:0 7:5 3:5 5:5 6:5 3:5 7:5 4:5 5:10 6:5 4:5
7:0 3:5 5:5 6:5 3:5 7:5 4:5 5:10 6:5 4:5 6:10
3:0 5:5 6:5 3:5 7:5 4:5 5:10 6:5 4:5 6:10 2:5
5:0 6:5 3:5 7:5 4:5 5:10 6:5 4:5 6:10 2:5 6:5
6:0 3:5 7:5 4:5 5:10 6:5 4:5 6:10 2:5 6:5 3:5
3:0 7:5 4:5 5:10 6:5 4:5 6:10 2:5 6:5 3:5 5:10
7:0 4:5 5:10 6:5 4:5 6:10 2:5 6:5 3:5 5:10 4:5
4:0 5:10 6:5 4:5 6:10 2:5 6:5 3:5 5:10 4:5 8:5
5:0 6:5 4:5 6:10 2:5 6:5 3:5 5:10 4:5 8:5 3:5
6:0 4:5 6:10 2:5 6:5 3:5 5:10 4:5 8:5 3:5 5:10
4:0 6:10 2:5 6:5 3:5 5:10 4:5 8:5 3:5 5:10 6:15
6:0 2:5 6:5 3:5 5:10 4:5 8:5 3:5 5:10 6:15 4:5
2:0 6:5 3:5 5:10 4:5 8:5 3:5 5:10 6:15 4:5 6:5
6:0 3:5 5:10 4:5 8:5 3:5 5:10 6:15 4:5 6:5 5:5
3:0 5:10 4:5 8:5 3:5 5:10 6:15 4:5 6:5 5:5 4:5
5:0 4:5 8:5 3:5 5:10 6:15 4:5 6:5 5:5 4:5 6:10
4:0 8:5 3:5 5:10 6:15 4:5 6:5 5:5 4:5 6:10 4:5
8:0 3:5 5:10 6:15 4:5 6:5 5:5 4:5 6:10 4:5 6:5
3:0 5:10 6:15 4:5 6:5 5:5 4:5 6:10 4:5 6:5 5:5
5:0 6:15 4:5 6:5 5:5 4:5 6:10 4:5 6:5 5:5 2:5
6:0 4:5 6:5 5:5 4:5 6:10 4:5 6:5 5:5 2:5 5:5
4:0 6:5 5:5 4:5 6:10 4:5 6:5 5:5 2:5 5:5 3:5
6:0 5:5 4:5 6:10 4:5 6:5 5:5 2:5 5:5 3:5 6:5
5:0 4:5 6:10 4:5 6:5 5:5 2:5 5:5 3:5 6:5 4:5
4:0 6:10 4:5 6:5 5:5 2:5 5:5 3:5 6:5 4:5 6:10
6:0 4:5 6:5 5:5 2:5 5:5 3:5 6:5 4:5 6:10 3:5
4:0 6:5 5:5 2:5 5:5 3:5 6:5 4:5 6:10 3:5 6:5
6:0 5:5 2:5 5:5 3:5 6:5 4:5 6:10 3:5 6:5 3:5
5:0 2:5 5:5 3:5 6:5 4:5 6:10 3:5 6:5 3:5 6:5
2:0 5:5 3:5 6:5 4:5 6:10 3:5 6:5 3:5 6:5 4:5
5:0 3:5 6:5 4:5 6:10 3:5 6:5 3:5 6:5 4:5 5:10
3:0 6:5 4:5 6:10 3:5 6:5 3:5 6:5 4:5 5:10 4:20
6:0 4:5 6:10 3:5 6:5 3:5 6:5 4:5 5:10 4:20 5:5
4:0 6:10 3:5 6:5 3:5 6:5 4:5 5:10 4:20 5:5 2:10
6:0 3:5 6:5 3:5 6:5 4:5 5:10 4:20 5:5 2:10 4:5
3:0 6:5 3:5 6:5 4:5 5:10 4:20 5:5 2:10 4:5 5:10
6:0 3:5 6:5 4:5 5:10 4:20 5:5 2:10 4:5 5:10 6:10
3:0 6:5 4:5 5:10 4:20 5:5 2:10 4:5 5:10 6:10 4:5
6:0 4:5 5:10 4:20 5:5 2:10 4:5 5:10 6:10 4:5 6:5
4:0 5:10 4:20 5:5 2:10 4:5 5:10 6:10 4:5 6:5 3:5
5:0 4:20 5:5 2:10 4:5 5:10 6:10 4:5 6:5 3:5 6:5
4:0 5:5 2:10 4:5 5:10 6:10 4:5 6:5 3:5 6:5 3:5
5:0 2:10 4:5 5:10 6:10 4:5 6:5 3:5 6:5 3:5 5:5
2:0 4:5 5:10 6:10 4:5 6:5 3:5 6:5 3:5 5:5 7:5
4:0 5:10 6:10 4:5 6:5 3:5 6:5 3:5 5:5 7:5 4:5
5:0 6:10 4:5 6:5 3:5 6:5 3:5 5:5 7:5 4:5 6:10
6:0 4:5 6:5 3:5 6:5 3:5 5:5 7:5 4:5 6:10 3:5
4:0 6:5 3:5 6:5 3:5 5:5 7:5 4:5 6:10 3:5 7:5
6:0 3:5 6:5 3:5 5:5 7:5 4:5 6:10 3:5 7:5 3:5
3:0 6:5 3:5 5:5 7:5 4:5 6:10 3:5 7:5 3:5 6:5
6:0 3:5 5:5 7:5 4:5 6:10 3:5 7:5 3:5 6:5 4:5
3:0 5:5 7:5 4:5 6:10 3:5 7:5 3:5 6:5 4:5 5:5
5:0 7:5 4:5 6:10 3:5 7:5 3:5 6:5 4:5 5:5 4:10
7:0 4:5 6:10 3:5 7:5 3:5 6:5 4:5 5:5 4:10 6:5
4:0 6:10 3:5 7:5 3:5 6:5 4:5 5:5 4:10 6:5 2:5
6:0 3:5 7:5 3:5 6:5 4:5 5:5 4:10 6:5 2:5 5:5
3:0 7:5 3:5 6:5 4:5 5:5 4:10 6:5 2:5 5:5 7:10
7:0 3:5 6:5 4:5 5:5 4:10 6:5 2:5 5:5 7:10 4:5
3:0 6:5 4:5 5:5 4:10 6:5 2:5 5:5 7:10 4:5 3:5
6:0 4:5 5:5 4:10 6:5 2:5 5:5 7:10 4:5 3:5 8:5
4:0 5:5 4:10 6:5 2:5 5:5 7:10 4:5 3:5 8:5 3:5
5:0 4:10 6:5 2:5 5:5 7:10 4:5 3:5 8:5 3:5 4:5
4:0 6:5 2:5 5:5 7:10 4:5 3:5 8:5 3:5 4:5 5:5
6:0 2:5 5:5 7:10 4:5 3:5 8:5 3:5 4:5 5:5 4:5
2:0 5:5 7:10 4:5 3:5 8:5 3:5 4:5 5:5 4:5 6:5
5:0 7:10 4:5 3:5 8:5 3:5 4:5 5:5 4:5 6:5 5:5
7:0 4:5 3:5 8:5 3:5 4:5 5:5 4:5 6:5 5:5 3:5
4:0 3:5 8:5 3:5 4:5 5:5 4:5 6:5 5:5 3:5 6:5
3:0 8:5 3:5 4:5 5:5 4:5 6:5 5:5 3:5 6:5 2:5
8:0 3:5 4:5 5:5 4:5 6:5 5:5 3:5 6:5 2:5 6:5
3:0 4:5 5:5 4:5 6:5 5:5 3:5 6:5 2:5 6:5 3:5
4:0 5:5 4:5 6:5 5:5 3:5 6:5 2:5 6:5 3:5 5:5
5:0 4:5 6:5 5:5 3:5 6:5 2:5 6:5 3:5 5:5 4:10
4:0 6:5 5:5 3:5 6:5 2:5 6:5 3:5 5:5 4:10 5:5
6:0 5:5 3:5 6:5 2:5 6:5 3:5 5:5 4:10 5:5 4:10
5:0 3:5 6:5 2:5 6:5 3:5 5:5 4:10 5:5 4:10 6:5
3:0 6:5 2:5 6:5 3:5 5:5 4:10 5:5 4:10 6:5 5:10
6:0 2:5 6:5 3:5 5:5 4:10 5:5 4:10 6:5 5:10 3:5
2:0 6:5 3:5 5:5 4:10 5:5 4:10 6:5 5:10 3:5 7:5
6:0 3:5 5:5 4:10 5:5 4:10 6:5 5:10 3:5 7:5 3:5
3:0 5:5 4:10 5:5 4:10 6:5 5:10 3:5 7:5 3:5 6:5
5:0 4:10 5:5 4:10 6:5 5:10 3:5 7:5 3:5 6:5 4:5
4:0 5:5 4:10 6:5 5:10 3:5 7:5 3:5 6:5 4:5 5:10
5:0 4:10 6:5 5:10 3:5 7:5 3:5 6:5 4:5 5:10 3:5
4:0 6:5 5:10 3:5 7:5 3:5 6:5 4:5 5:10 3:5 6:5
6:0 5:10 3:5 7:5 3:5 6:5 4:5 5:10 3:5 6:5 4:5
5:0 3:5 7:5 3:5 6:5 4:5 5:10 3:5 6:5 4:5 5:10
3:0 7:5 3:5 6:5 4:5 5:10 3:5 6:5 4:5 5:10 3:5
7:0 3:5 6:5 4:5 5:10 3:5 6:5 4:5 5:10 3:5 7:5
3:0 6:5 4:5 5:10 3:5 6:5 4:5 5:10 3:5 7:5 5:5
6:0 4:5 5:10 3:5 6:5 4:5 5:10 3:5 7:5 5:5 4:5
4:0 5:10 3:5 6:5 4:5 5:10 3:5 7:5 5:5 4:5 5:10
5:0 3:5 6:5 4:5 5:10 3:5 7:5 5:5 4:5 5:10 4:10
3:0 6:5 4:5 5:10 3:5 7:5 5:5 4:5 5:10 4:10 6:5
6:0 4:5 5:10 3:5 7:5 5:5 4:5 5:10 4:10 6:5 4:5
4:0 5:10 3:5 7:5 5:5 4:5 5:10 4:10 6:5 4:5 5:5
5:0 3:5 7:5 5:5 4:5 5:10 4:10 6:5 4:5 5:5 3:15
3:0 7:5 5:5 4:5 5:10 4:10 6:5 4:5 5:5 3:15 6:5
7:0 5:5 4:5 5:10 4:10 6:5 4:5 5:5 3:15 6:5 5:5
5:0 4:5 5:10 4:10 6:5 4:5 5:5 3:15 6:5 5:5 3:5
4:0 5:10 4:10 6:5 4:5 5:5 3:15 6:5 5:5 3:5 4:5
5:0 4:10 6:5 4:5 5:5 3:15 6:5 5:5 3:5 4:5 6:5
4:0 6:5 4:5 5:5 3:15 6:5 5:5 3:5 4:5 6:5 2:5
6:0 4:5 5:5 3:15 6:5 5:5 3:5 4:5 6:5 2:5 6:5
4:0 5:5 3:15 6:5 5:5 3:5 4:5 6:5 2:5 6:5 3:5
5:0 3:15 6:5 5:5 3:5 4:5 6:5 2:5 6:5 3:5 5:5
3:0 6:5 5:5 3:5 4:5 6:5 2:5 6:5 3:5 5:5 6:10
6:0 5:5 3:5 4:5 6:5 2:5 6:5 3:5 5:5 6:10 5:5
5:0 3:5 4:5 6:5 2:5 6:5 3:5 5:5 6:10 5:5 2:5
3:0 4:5 6:5 2:5 6:5 3:5 5:5 6:10 5:5 2:5 3:5
4:0 6:5 2:5 6:5 3:5 5:5 6:10 5:5 2:5 3:5 6:5
6:0 2:5 6:5 3:5 5:5 6:10 5:5 2:5 3:5 6:5 4:10
2:0 6:5 3:5 5:5 6:10 5:5 2:5 3:5 6:5 4:10 3:5
6:0 3:5 5:5 6:10 5:5 2:5 3:5 6:5 4:10 3:5 6:5
3:0 5:5 6:10 5:5 2:5 3:5 6:5 4:10 3:5 6:5 3:5
5:0 6:10 5:5 2:5 3:5 6:5 4:10 3:5 6:5 3:5 5:5
6:0 5:5 2:5 3:5 6:5 4:10 3:5 6:5 3:5 5:5 3:10
5:0 2:5 3:5 6:5 4:10 3:5 6:5 3:5 5:5 3:10 5:5
2:0 3:5 6:5 4:10 3:5 6:5 3:5 5:5 3:10 5:5 6:10
3:0 6:5 4:10 3:5 6:5 3:5 5:5 3:10 5:5 6:10 3:5
6:0 4:10 3:5 6:5 3:5 5:5 3:10 5:5 6:10 3:5 5:5
4:0 3:5 6:5 3:5 5:5 3:10 5:5 6:10 3:5 5:5 4:5
3:0 6:5 3:5 5:5 3:10 5:5 6:10 3:5 5:5 4:5 5:5
6:0 3:5 5:5 3:10 5:5 6:10 3:5 5:5 4:5 5:5 3:10
3:0 5:5 3:10 5:5 6:10 3:5 5:5 4:5 5:5 3:10 5:5
5:0 3:10 5:5 6:10 3:5 5:5 4:5 5:5 3:10 5:5 3:10
3:0 5:5 6:10 3:5 5:5 4:5 5:5 3:10 5:5 3:10 6:5
5:0 6:10 3:5 5:5 4:5 5:5 3:10 5:5 3:10 6:5 5:5
6:0 3:5 5:5 4:5 5:5 3:10 5:5 3:10 6:5 5:5 4:5
3:0 5:5 4:5 5:5 3:10 5:5 3:10 6:5 5:5 4:5 5:5
5:0 4:5 5:5 3:10 5:5 3:10 6:5 5:5 4:5 5:5 4:5
4:0 5:5 3:10 5:5 3:10 6:5 5:5 4:5 5:5 4:5 5:5
5:0 3:10 5:5 3:10 6:5 5:5 4:5 5:5 4:5 5:5 3:5
3:0 5:5 3:10 6:5 5:5 4:5 5:5 4:5 5:5 3:5 6:5
5:0 3:10 6:5 5:5 4:5 5:5 4:5 5:5 3:5 6:5 4:5
3:0 6:5 5:5 4:5 5:5 4:5 5:5 3:5 6:5 4:5 6:5
6:0 5:5 4:5 5:5 4:5 5:5 3:5 6:5 4:5 6:5 3:5
5:0 4:5 5:5 4:5 5:5 3:5 6:5 4:5 6:5 3:5 4:5
4:0 5:5 4:5 5:5 3:5 6:5 4:5 6:5 3:5 4:5 5:5
5:0 4:5 5:5 3:5 6:5 4:5 6:5 3:5 4:5 5:5 6:5
4:0 5:5 3:5 6:5 4:5 6:5 3:5 4:5 5:5 6:5 3:10
5:0 3:5 6:5 4:5 6:5 3:5 4:5 5:5 6:5 3:10 6:10
3:0 6:5 4:5 6:5 3:5 4:5 5:5 6:5 3:10 6:10 5:5
6:0 4:5 6:5 3:5 4:5 5:5 6:5 3:10 6:10 5:5 6:5
4:0 6:5 3:5 4:5 5:5 6:5 3:10 6:10 5:5 6:5 3:5
6:0 3:5 4:5 5:5 6:5 3:10 6:10 5:5 6:5 3:5 5:5
3:0 4:5 5:5 6:5 3:10 6:10 5:5 6:5 3:5 5:5 4:15
4:0 5:5 6:5 3:10 6:10 5:5 6:5 3:5 5:5 4:15 6:10
5:0 6:5 3:10 6:10 5:5 6:5 3:5 5:5 4:15 6:10 4:5
6:0 3:10 6:10 5:5 6:5 3:5 5:5 4:15 6:10 4:5 5:5
3:0 6:10 5:5 6:5 3:5 5:5 4:15 6:10 4:5 5:5 3:5
6:0 5:5 6:5 3:5 5:5 4:15 6:10 4:5 5:5 3:5 4:5
5:0 6:5 3:5 5:5 4:15 6:10 4:5 5:5 3:5 4:5 5:5
6:0 3:5 5:5 4:15 6:10 4:5 5:5 3:5 4:5 5:5 6:5
3:0 5:5 4:15 6:10 4:5 5:5 3:5 4:5 5:5 6:5 3:10
5:0 4:15 6:10 4:5 5:5 3:5 4:5 5:5 6:5 3:10 6:10
4:0 6:10 4:5 5:5 3:5 4:5 5:5 6:5 3:10 6:10 4:5
6:0 4:5 5:5 3:5 4:5 5:5 6:5 3:10 6:10 4:5 6:5
4:0 5:5 3:5 4:5 5:5 6:5 3:10 6:10 4:5 6:5 3:5
5:0 3:5 4:5 5:5 6:5 3:10 6:10 4:5 6:5 3:5 5:5
3:0 4:5 5:5 6:5 3:10 6:10 4:5 6:5 3:5 5:5 6:5
4:0 5:5 6:5 3:10 6:10 4:5 6:5 3:5 5:5 6:5 4:5
5:0 6:5 3:10 6:10 4:5 6:5 3:5 5:5 6:5 4:5 6:5
6:0 3:10 6:10 4:5 6:5 3:5 5:5 6:5 4:5 6:5 2:5
3:0 6:10 4:5 6:5 3:5 5:5 6:5 4:5 6:5 2:5 5:5
6:0 4:5 6:5 3:5 5:5 6:5 4:5 6:5 2:5 5:5 4:5
4:0 6:5 3:5 5:5 6:5 4:5 6:5 2:5 5:5 4:5 6:5
6:0 3:5 5:5 6:5 4:5 6:5 2:5 5:5 4:5 6:5 4:5
3:0 5:5 6:5 4:5 6:5 2:5 5:5 4:5 6:5 4:5 3:5
5:0 6:5 4:5 6:5 2:5 5:5 4:5 6:5 4:5 3:5 5:5
6:0 4:5 6:5 2:5 5:5 4:5 6:5 4:5 3:5 5:5 3:10
4:0 6:5 2:5 5:5 4:5 6:5 4:5 3:5 5:5 3:10 5:5
6:0 2:5 5:5 4:5 6:5 4:5 3:5 5:5 3:10 5:5 3:5
2:0 5:5 4:5 6:5 4:5 3:5 5:5 3:10 5:5 3:5 4:5
5:0 4:5 6:5 4:5 3:5 5:5 3:10 5:5 3:5 4:5 5:5
4:0 6:5 4:5 3:5 5:5 3:10 5:5 3:5 4:5 5:5 3:10
6:0 4:5 3:5 5:5 3:10 5:5 3:5 4:5 5:5 3:10 5:5
4:0 3:5 5:5 3:10 5:5 3:5 4:5 5:5 3:10 5:5 6:5
3:0 5:5 3:10 5:5 3:5 4:5 5:5 3:10 5:5 6:5 3:5
5:0 3:10 5:5 3:5 4:5 5:5 3:10 5:5 6:5 3:5 6:5
3:0 5:5 3:5 4:5 5:5 3:10 5:5 6:5 3:5 6:5 4:5
5:0 3:5 4:5 5:5 3:10 5:5 6:5 3:5 6:5 4:5 2:5
3:0 4:5 5:5 3:10 5:5 6:5 3:5 6:5 4:5 2:5 7:5
4:0 5:5 3:10 5:5 6:5 3:5 6:5 4:5 2:5 7:5 3:5
5:0 3:10 5:5 6:5 3:5 6:5 4:5 2:5 7:5 3:5 6:5
3:0 5:5 6:5 3:5 6:5 4:5 2:5 7:5 3:5 6:5 4:5
5:0 6:5 3:5 6:5 4:5 2:5 7:5 3:5 6:5 4:5 5:5
6:0 3:5 6:5 4:5 2:5 7:5 3:5 6:5 4:5 5:5 6:5
3:0 6:5 4:5 2:5 7:5 3:5 6:5 4:5 5:5 6:5 3:5
6:0 4:5 2:5 7:5 3:5 6:5 4:5 5:5 6:5 3:5 6:5
4:0 2:5 7:5 3:5 6:5 4:5 5:5 6:5 3:5 6:5 2:5
2:0 7:5 3:5 6:5 4:5 5:5 6:5 3:5 6:5 2:5 5:5
7:0 3:5 6:5 4:5 5:5 6:5 3:5 6:5 2:5 5:5 4:15
3:0 6:5 4:5 5:5 6:5 3:5 6:5 2:5 5:5 4:15 6:10
6:0 4:5 5:5 6:5 3:5 6:5 2:5 5:5 4:15 6:10 4:5
4:0 5:5 6:5 3:5 6:5 2:5 5:5 4:15 6:10 4:5 5:5
5:0 6:5 3:5 6:5 2:5 5:5 4:15 6:10 4:5 5:5 6:10
6:0 3:5 6:5 2:5 5:5 4:15 6:10 4:5 5:5 6:10 4:5
3:0 6:5 2:5 5:5 4:15 6:10 4:5 5:5 6:10 4:5 5:10
6:0 2:5 5:5 4:15 6:10 4:5 5:5 6:10 4:5 5:10 2:10
2:0 5:5 4:15 6:10 4:5 5:5 6:10 4:5 5:10 2:10 5:5
5:0 4:15 6:10 4:5 5:5 6:10 4:5 5:10 2:10 5:5 4:5
4:0 6:10 4:5 5:5 6:10 4:5 5:10 2:10 5:5 4:5 7:5
6:0 4:5 5:5 6:10 4:5 5:10 2:10 5:5 4:5 7:5 4:5
4:0 5:5 6:10 4:5 5:10 2:10 5:5 4:5 7:5 4:5 5:10
5:0 6:10 4:5 5:10 2:10 5:5 4:5 7:5 4:5 5:10 3:5
6:0 4:5 5:10 2:10 5:5 4:5 7:5 4:5 5:10 3:5 6:5
4:0 5:10 2:10 5:5 4:5 7:5 4:5 5:10 3:5 6:5 3:5
5:0 2:10 5:5 4:5 7:5 4:5 5:10 3:5 6:5 3:5 4:5
2:0 5:5 4:5 7:5 4:5 5:10 3:5 6:5 3:5 4:5 3:10
5:0 4:5 7:5 4:5 5:10 3:5 6:5 3:5 4:5 3:10 6:5
4:0 7:5 4:5 5:10 3:5 6:5 3:5 4:5 3:10 6:5 3:5
7:0 4:5 5:10 3:5 6:5 3:5 4:5 3:10 6:5 3:5 5:5
4:0 5:10 3:5 6:5 3:5 4:5 3:10 6:5 3:5 5:5 4:5
5:0 3:5 6:5 3:5 4:5 3:10 6:5 3:5 5:5 4:5 6:5
3:0 6:5 3:5 4:5 3:10 6:5 3:5 5:5 4:5 6:5 5:5
6:0 3:5 4:5 3:10 6:5 3:5 5:5 4:5 6:5 5:5 2:5
3:0 4:5 3:10 6:5 3:5 5:5 4:5 6:5 5:5 2:5 7:5
4:0 3:10 6:5 3:5 5:5 4:5 6:5 5:5 2:5 7:5 2:5
3:0 6:5 3:5 5:5 4:5 6:5 5:5 2:5 7:5 2:5 6:5
6:0 3:5 5:5 4:5 6:5 5:5 2:5 7:5 2:5 6:5 4:5
3:0 5:5 4:5 6:5 5:5 2:5 7:5 2:5 6:5 4:5 6:5
5:0 4:5 6:5 5:5 2:5 7:5 2:5 6:5 4:5 6:5 3:5
4:0 6:5 5:5 2:5 7:5 2:5 6:5 4:5 6:5 3:5 5:5
6:0 5:5 2:5 7:5 2:5 6:5 4:5 6:5 3:5 5:5 4:10
5:0 2:5 7:5 2:5 6:5 4:5 6:5 3:5 5:5 4:10 5:5
2:0 7:5 2:5 6:5 4:5 6:5 3:5 5:5 4:10 5:5 3:5
7:0 2:5 6:5 4:5 6:5 3:5 5:5 4:10 5:5 3:5 4:5
2:0 6:5 4:5 6:5 3:5 5:5 4:10 5:5 3:5 4:5 7:5
6:0 4:5 6:5 3:5 5:5 4:10 5:5 3:5 4:5 7:5 4:5
4:0 6:5 3:5 5:5 4:10 5:5 3:5 4:5 7:5 4:5 6:10
6:0 3:5 5:5 4:10 5:5 3:5 4:5 7:5 4:5 6:10 4:10
3:0 5:5 4:10 5:5 3:5 4:5 7:5 4:5 6:10 4:10 2:5
5:0 4:10 5:5 3:5 4:5 7:5 4:5 6:10 4:10 2:5 5:5
4:0 5:5 3:5 4:5 7:5 4:5 6:10 4:10 2:5 5:5 3:5
5:0 3:5 4:5 7:5 4:5 6:10 4:10 2:5 5:5 3:5 5:5
3:0 4:5 7:5 4:5 6:10 4:10 2:5 5:5 3:5 5:5 4:5
4:0 7:5 4:5 6:10 4:10 2:5 5:5 3:5 5:5 4:5 3:5
7:0 4:5 6:10 4:10 2:5 5:5 3:5 5:5 4:5 3:5 5:5
4:0 6:10 4:10 2:5 5:5 3:5 5:5 4:5 3:5 5:5 4:5
6:0 4:10 2:5 5:5 3:5 5:5 4:5 3:5 5:5 4:5 5:5
4:0 2:5 5:5 3:5 5:5 4:5 3:5 5:5 4:5 5:5 3:5
2:0 5:5 3:5 5:5 4:5 3:5 5:5 4:5 5:5 3:5 5:5
5:0 3:5 5:5 4:5 3:5 5:5 4:5 5:5 3:5 5:5 2:5
3:0 5:5 4:5 3:5 5:5 4:5 5:5 3:5 5:5 2:5 4:5
5:0 4:5 3:5 5:5 4:5 5:5 3:5 5:5 2:5 4:5 5:10
4:0 3:5 5:5 4:5 5:5 3:5 5:5 2:5 4:5 5:10 4:15
3:0 5:5 4:5 5:5 3:5 5:5 2:5 4:5 5:10 4:15 7:5
5:0 4:5 5:5 3:5 5:5 2:5 4:5 5:10 4:15 7:5 2:5
4:0 5:5 3:5 5:5 2:5 4:5 5:10 4:15 7:5 2:5 5:5
5:0 3:5 5:5 2:5 4:5 5:10 4:15 7:5 2:5 5:5 3:5
3:0 5:5 2:5 4:5 5:10 4:15 7:5 2:5 5:5 3:5 5:5
5:0 2:5 4:5 5:10 4:15 7:5 2:5 5:5 3:5 5:5 4:5
2:0 4:5 5:10 4:15 7:5 2:5 5:5 3:5 5:5 4:5 5:5
4:0 5:10 4:15 7:5 2:5 5:5 3:5 5:5 4:5 5:5 4:5
5:0 4:15 7:5 2:5 5:5 3:5 5:5 4:5 5:5 4:5 5:5
4:0 7:5 2:5 5:5 3:5 5:5 4:5 5:5 4:5 5:5 4:5
7:0 2:5 5:5 3:5 5:5 4:5 5:5 4:5 5:5 4:5 6:5
2:0 5:5 3:5 5:5 4:5 5:5 4:5 5:5 4:5 6:5 5:5
5:0 3:5 5:5 4:5 5:5 4:5 5:5 4:5 6:5 5:5 4:10
3:0 5:5 4:5 5:5 4:5 5:5 4:5 6:5 5:5 4:10 6:5
5:0 4:5 5:5 4:5 5:5 4:5 6:5 5:5 4:10 6:5 5:5
4:0 5:5 4:5 5:5 4:5 6:5 5:5 4:10 6:5 5:5 2:5
5:0 4:5 5:5 4:5 6:5 5:5 4:10 6:5 5:5 2:5 6:5
4:0 5:5 4:5 6:5 5:5 4:10 6:5 5:5 2:5 6:5 3:5
5:0 4:5 6:5 5:5 4:10 6:5 5:5 2:5 6:5 3:5 6:5
4:0 6:5 5:5 4:10 6:5 5:5 2:5 6:5 3:5 6:5 5:5
6:0 5:5 4:10 6:5 5:5 2:5 6:5 3:5 6:5 5:5 6:5
5:0 4:10 6:5 5:5 2:5 6:5 3:5 6:5 5:5 6:5 3:5
4:0 6:5 5:5 2:5 6:5 3:5 6:5 5:5 6:5 3:5 6:5
6:0 5:5 2:5 6:5 3:5 6:5 5:5 6:5 3:5 6:5 4:5
5:0 2:5 6:5 3:5 6:5 5:5 6:5 3:5 6:5 4:5 5:10
2:0 6:5 3:5 6:5 5:5 6:5 3:5 6:5 4:5 5:10 3:5
6:0 3:5 6:5 5:5 6:5 3:5 6:5 4:5 5:10 3:5 4:5
3:0 6:5 5:5 6:5 3:5 6:5 4:5 5:10 3:5 4:5 6:5
6:0 5:5 6:5 3:5 6:5 4:5 5:10 3:5 4:5 6:5 3:5
5:0 6:5 3:5 6:5 4:5 5:10 3:5 4:5 6:5 3:5 6:5
6:0 3:5 6:5 4:5 5:10 3:5 4:5 6:5 3:5 6:5 3:5
3:0 6:5 4:5 5:10 3:5 4:5 6:5 3:5 6:5 3:5 6:5
6:0 4:5 5:10 3:5 4:5 6:5 3:5 6:5 3:5 6:5 4:5
4:0 5:10 3:5 4:5 6:5 3:5 6:5 3:5 6:5 4:5 7:10
5:0 3:5 4:5 6:5 3:5 6:5 3:5 6:5 4:5 7:10 2:5
3:0 4:5 6:5 3:5 6:5 3:5 6:5 4:5 7:10 2:5 6:5
4:0 6:5 3:5 6:5 3:5 6:5 4:5 7:10 2:5 6:5 4:5
6:0 3:5 6:5 3:5 6:5 4:5 7:10 2:5 6:5 4:5 2:5
3:0 6:5 3:5 6:5 4:5 7:10 2:5 6:5 4:5 2:5 7:5
6:0 3:5 6:5 4:5 7:10 2:5 6:5 4:5 2:5 7:5 3:5
3:0 6:5 4:5 7:10 2:5 6:5 4:5 2:5 7:5 3:5 6:5
6:0 4:5 7:10 2:5 6:5 4:5 2:5 7:5 3:5 6:5 3:5
4:0 7:10 2:5 6:5 4:5 2:5 7:5 3:5 6:5 3:5 5:10
7:0 2:5 6:5 4:5 2:5 7:5 3:5 6:5 3:5 5:10 3:15
2:0 6:5 4:5 2:5 7:5 3:5 6:5 3:5 5:10 3:15 5:5
6:0 4:5 2:5 7:5 3:5 6:5 3:5 5:10 3:15 5:5 3:5
4:0 2:5 7:5 3:5 6:5 3:5 5:10 3:15 5:5 3:5 4:5
2:0 7:5 3:5 6:5 3:5 5:10 3:15 5:5 3:5 4:5 6:5
7:0 3:5 6:5 3:5 5:10 3:15 5:5 3:5 4:5 6:5 3:5
3:0 6:5 3:5 5:10 3:15 5:5 3:5 4:5 6:5 3:5 4:5
6:0 3:5 5:10 3:15 5:5 3:5 4:5 6:5 3:5 4:5 5:5
3:0 5:10 3:15 5:5 3:5 4:5 6:5 3:5 4:5 5:5 3:5
5:0 3:15 5:5 3:5 4:5 6:5 3:5 4:5 5:5 3:5 5:5
3:0 5:5 3:5 4:5 6:5 3:5 4:5 5:5 3:5 5:5 6:10
5:0 3:5 4:5 6:5 3:5 4:5 5:5 3:5 5:5 6:10 2:5
3:0 4:5 6:5 3:5 4:5 5:5 3:5 5:5 6:10 2:5 5:5
4:0 6:5 3:5 4:5 5:5 3:5 5:5 6:10 2:5 5:5 4:5
6:0 3:5 4:5 5:5 3:5 5:5 6:10 2:5 5:5 4:5 5:5
3:0 4:5 5:5 3:5 5:5 6:10 2:5 5:5 4:5 5:5 6:5
4:0 5:5 3:5 5:5 6:10 2:5 5:5 4:5 5:5 6:5 4:5
5:0 3:5 5:5 6:10 2:5 5:5 4:5 5:5 6:5 4:5 6:5
3:0 5:5 6:10 2:5 5:5 4:5 5:5 6:5 4:5 6:5 4:5
5:0 6:10 2:5 5:5 4:5 5:5 6:5 4:5 6:5 4:5 5:5
6:0 2:5 5:5 4:5 5:5 6:5 4:5 6:5 4:5 5:5 3:5
2:0 5:5 4:5 5:5 6:5 4:5 6:5 4:5 5:5 3:5 4:5
5:0 4:5 5:5 6:5 4:5 6:5 4:5 5:5 3:5 4:5 7:5
4:0 5:5 6:5 4:5 6:5 4:5 5:5 3:5 4:5 7:5 4:5
5:0 6:5 4:5 6:5 4:5 5:5 3:5 4:5 7:5 4:5 3:5
6:0 4:5 6:5 4:5 5:5 3:5 4:5 7:5 4:5 3:5 6:5
4:0 6:5 4:5 5:5 3:5 4:5 7:5 4:5 3:5 6:5 5:5
6:0 4:5 5:5 3:5 4:5 7:5 4:5 3:5 6:5 5:5 4:10
4:0 5:5 3:5 4:5 7:5 4:5 3:5 6:5 5:5 4:10 6:5
5:0 3:5 4:5 7:5 4:5 3:5 6:5 5:5 4:10 6:5 2:5
3:0 4:5 7:5 4:5 3:5 6:5 5:5 4:10 6:5 2:5 4:5
4:0 7:5 4:5 3:5 6:5 5:5 4:10 6:5 2:5 4:5 7:5
7:0 4:5 3:5 6:5 5:5 4:10 6:5 2:5 4:5 7:5 4:5
4:0 3:5 6:5 5:5 4:10 6:5 2:5 4:5 7:5 4:5 6:10
3:0 6:5 5:5 4:10 6:5 2:5 4:5 7:5 4:5 6:10 5:5
6:0 5:5 4:10 6:5 2:5 4:5 7:5 4:5 6:10 5:5 4:5
5:0 4:10 6:5 2:5 4:5 7:5 4:5 6:10 5:5 4:5 2:5
4:0 6:5 2:5 4:5 7:5 4:5 6:10 5:5 4:5 2:5 6:5
6:0 2:5 4:5 7:5 4:5 6:10 5:5 4:5 2:5 6:5 5:10
2:0 4:5 7:5 4:5 6:10 5:5 4:5 2:5 6:5 5:10 3:5
4:0 7:5 4:5 6:10 5:5 4:5 2:5 6:5 5:10 3:5 4:5
7:0 4:5 6:10 5:5 4:5 2:5 6:5 5:10 3:5 4:5 5:5
4:0 6:10 5:5 4:5 2:5 6:5 5:10 3:5 4:5 5:5 4:5
6:0 5:5 4:5 2:5 6:5 5:10 3:5 4:5 5:5 4:5 6:5
5:0 4:5 2:5 6:5 5:10 3:5 4:5 5:5 4:5 6:5 5:5
4:0 2:5 6:5 5:10 3:5 4:5 5:5 4:5 6:5 5:5 6:5
2:0 6:5 5:10 3:5 4:5 5:5 4:5 6:5 5:5 6:5 4:5
6:0 5:10 3:5 4:5 5:5 4:5 6:5 5:5 6:5 4:5 5:5
5:0 3:5 4:5 5:5 4:5 6:5 5:5 6:5 4:5 5:5 4:5
3:0 4:5 5:5 4:5 6:5 5:5 6:5 4:5 5:5 4:5 6:10
4:0 5:5 4:5 6:5 5:5 6:5 4:5 5:5 4:5 6:10 3:5
5:0 4:5 6:5 5:5 6:5 4:5 5:5 4:5 6:10 3:5 5:5
4:0 6:5 5:5 6:5 4:5 5:5 4:5 6:10 3:5 5:5 4:5
6:0 5:5 6:5 4:5 5:5 4:5 6:10 3:5 5:5 4:5 7:10
5:0 6:5 4:5 5:5 4:5 6:10 3:5 5:5 4:5 7:10 3:5
6:0 4:5 5:5 4:5 6:10 3:5 5:5 4:5 7:10 3:5 6:5
4:0 5:5 4:5 6:10 3:5 5:5 4:5 7:10 3:5 6:5 3:5
5:0 4:5 6:10 3:5 5:5 4:5 7:10 3:5 6:5 3:5 5:10
4:0 6:10 3:5 5:5 4:5 7:10 3:5 6:5 3:5 5:10 6:10
6:0 3:5 5:5 4:5 7:10 3:5 6:5 3:5 5:10 6:10 3:5
3:0 5:5 4:5 7:10 3:5 6:5 3:5 5:10 6:10 3:5 4:5
5:0 4:5 7:10 3:5 6:5 3:5 5:10 6:10 3:5 4:5 2:5
4:0 7:10 3:5 6:5 3:5 5:10 6:10 3:5 4:5 2:5 5:5
7:0 3:5 6:5 3:5 5:10 6:10 3:5 4:5 2:5 5:5 6:5
3:0 6:5 3:5 5:10 6:10 3:5 4:5 2:5 5:5 6:5 3:5
6:0 3:5 5:10 6:10 3:5 4:5 2:5 5:5 6:5 3:5 4:5
3:0 5:10 6:10 3:5 4:5 2:5 5:5 6:5 3:5 4:5 5:5
5:0 6:10 3:5 4:5 2:5 5:5 6:5 3:5 4:5 5:5 4:10
6:0 3:5 4:5 2:5 5:5 6:5 3:5 4:5 5:5 4:10 5:20
3:0 4:5 2:5 5:5 6:5 3:5 4:5 5:5 4:10 5:20 3:5
4:0 2:5 5:5 6:5 3:5 4:5 5:5 4:10 5:20 3:5 6:10
2:0 5:5 6:5 3:5 4:5 5:5 4:10 5:20 3:5 6:10 4:5
5:0 6:5 3:5 4:5 5:5 4:10 5:20 3:5 6:10 4:5 5:5
6:0 3:5 4:5 5:5 4:10 5:20 3:5 6:10 4:5 5:5 6:5
3:0 4:5 5:5 4:10 5:20 3:5 6:10 4:5 5:5 6:5 4:5
4:0 5:5 4:10 5:20 3:5 6:10 4:5 5:5 6:5 4:5 6:5
5:0 4:10 5:20 3:5 6:10 4:5 5:5 6:5 4:5 6:5 3:5
4:0 5:20 3:5 6:10 4:5 5:5 6:5 4:5 6:5 3:5 6:5
5:0 3:5 6:10 4:5 5:5 6:5 4:5 6:5 3:5 6:5 4:5
3:0 6:10 4:5 5:5 6:5 4:5 6:5 3:5 6:5 4:5 6:5
6:0 4:5 5:5 6:5 4:5 6:5 3:5 6:5 4:5 6:5 4:5
4:0 5:5 6:5 4:5 6:5 3:5 6:5 4:5 6:5 4:5 3:5
5:0 6:5 4:5 6:5 3:5 6:5 4:5 6:5 4:5 3:5 7:5
6:0 4:5 6:5 3:5 6:5 4:5 6:5 4:5 3:5 7:5 2:5
4:0 6:5 3:5 6:5 4:5 6:5 4:5 3:5 7:5 2:5 4:5
6:0 3:5 6:5 4:5 6:5 4:5 3:5 7:5 2:5 4:5 6:15
3:0 6:5 4:5 6:5 4:5 3:5 7:5 2:5 4:5 6:15 4:5
6:0 4:5 6:5 4:5 3:5 7:5 2:5 4:5 6:15 4:5 3:5
4:0 6:5 4:5 3:5 7:5 2:5 4:5 6:15 4:5 3:5 6:5
6:0 4:5 3:5 7:5 2:5 4:5 6:15 4:5 3:5 6:5 3:5
4:0 3:5 7:5 2:5 4:5 6:15 4:5 3:5 6:5 3:5 6:5
3:0 7:5 2:5 4:5 6:15 4:5 3:5 6:5 3:5 6:5 4:5
7:0 2:5 4:5 6:15 4:5 3:5 6:5 3:5 6:5 4:5 3:5
2:0 4:5 6:15 4:5 3:5 6:5 3:5 6:5 4:5 3:5 5:5
4:0 6:15 4:5 3:5 6:5 3:5 6:5 4:5 3:5 5:5 3:10
6:0 4:5 3:5 6:5 3:5 6:5 4:5 3:5 5:5 3:10 5:5
4:0 3:5 6:5 3:5 6:5 4:5 3:5 5:5 3:10 5:5 7:15
3:0 6:5 3:5 6:5 4:5 3:5 5:5 3:10 5:5 7:15 3:5
6:0 3:5 6:5 4:5 3:5 5:5 3:10 5:5 7:15 3:5 6:10
3:0 6:5 4:5 3:5 5:5 3:10 5:5 7:15 3:5 6:10 4:5
6:0 4:5 3:5 5:5 3:10 5:5 7:15 3:5 6:10 4:5 6:5
4:0 3:5 5:5 3:10 5:5 7:15 3:5 6:10 4:5 6:5 2:5
3:0 5:5 3:10 5:5 7:15 3:5 6:10 4:5 6:5 2:5 3:5
5:0 3:10 5:5 7:15 3:5 6:10 4:5 6:5 2:5 3:5 6:5
3:0 5:5 7:15 3:5 6:10 4:5 6:5 2:5 3:5 6:5 3:5
5:0 7:15 3:5 6:10 4:5 6:5 2:5 3:5 6:5 3:5 6:5
7:0 3:5 6:10 4:5 6:5 2:5 3:5 6:5 3:5 6:5 5:5
3:0 6:10 4:5 6:5 2:5 3:5 6:5 3:5 6:5 5:5 4:5
6:0 4:5 6:5 2:5 3:5 6:5 3:5 6:5 5:5 4:5 3:5
4:0 6:5 2:5 3:5 6:5 3:5 6:5 5:5 4:5 3:5 4:5
6:0 2:5 3:5 6:5 3:5 6:5 5:5 4:5 3:5 4:5 5:5
2:0 3:5 6:5 3:5 6:5 5:5 4:5 3:5 4:5 5:5 3:5
3:0 6:5 3:5 6:5 5:5 4:5 3:5 4:5 5:5 3:5 4:5
6:0 3:5 6:5 5:5 4:5 3:5 4:5 5:5 3:5 4:5 5:10
3:0 6:5 5:5 4:5 3:5 4:5 5:5 3:5 4:5 5:10 3:5
6:0 5:5 4:5 3:5 4:5 5:5 3:5 4:5 5:10 3:5 6:10
5:0 4:5 3:5 4:5 5:5 3:5 4:5 5:10 3:5 6:10 3:5
4:0 3:5 4:5 5:5 3:5 4:5 5:10 3:5 6:10 3:5 5:5
3:0 4:5 5:5 3:5 4:5 5:10 3:5 6:10 3:5 5:5 4:5
4:0 5:5 3:5 4:5 5:10 3:5 6:10 3:5 5:5 4:5 7:5
5:0 3:5 4:5 5:10 3:5 6:10 3:5 5:5 4:5 7:5 4:5
3:0 4:5 5:10 3:5 6:10 3:5 5:5 4:5 7:5 4:5 6:5
4:0 5:10 3:5 6:10 3:5 5:5 4:5 7:5 4:5 6:5 4:5
5:0 3:5 6:10 3:5 5:5 4:5 7:5 4:5 6:5 4:5 5:5
3:0 6:10 3:5 5:5 4:5 7:5 4:5 6:5 4:5 5:5 6:5
6:0 3:5 5:5 4:5 7:5 4:5 6:5 4:5 5:5 6:5 5:5
3:0 5:5 4:5 7:5 4:5 6:5 4:5 5:5 6:5 5:5 4:10
5:0 4:5 7:5 4:5 6:5 4:5 5:5 6:5 5:5 4:10 3:5
4:0 7:5 4:5 6:5 4:5 5:5 6:5 5:5 4:10 3:5 5:5
7:0 4:5 6:5 4:5 5:5 6:5 5:5 4:10 3:5 5:5 3:5
4:0 6:5 4:5 5:5 6:5 5:5 4:10 3:5 5:5 3:5 5:5
6:0 4:5 5:5 6:5 5:5 4:10 3:5 5:5 3:5 5:5 3:10
4:0 5:5 6:5 5:5 4:10 3:5 5:5 3:5 5:5 3:10 6:5
5:0 6:5 5:5 4:10 3:5 5:5 3:5 5:5 3:10 6:5 2:5
6:0 5:5 4:10 3:5 5:5 3:5 5:5 3:10 6:5 2:5 5:5
5:0 4:10 3:5 5:5 3:5 5:5 3:10 6:5 2:5 5:5 3:5
4:0 3:5 5:5 3:5 5:5 3:10 6:5 2:5 5:5 3:5 6:5
3:0 5:5 3:5 5:5 3:10 6:5 2:5 5:5 3:5 6:5 4:5
5:0 3:5 5:5 3:10 6:5 2:5 5:5 3:5 6:5 4:5 6:10
3:0 5:5 3:10 6:5 2:5 5:5 3:5 6:5 4:5 6:10 3:5
5:0 3:10 6:5 2:5 5:5 3:5 6:5 4:5 6:10 3:5 4:5
3:0 6:5 2:5 5:5 3:5 6:5 4:5 6:10 3:5 4:5 7:15
6:0 2:5 5:5 3:5 6:5 4:5 6:10 3:5 4:5 7:15 4:5
2:0 5:5 3:5 6:5 4:5 6:10 3:5 4:5 7:15 4:5 6:10
5:0 3:5 6:5 4:5 6:10 3:5 4:5 7:15 4:5 6:10 2:5
3:0 6:5 4:5 6:10 3:5 4:5 7:15 4:5 6:10 2:5 7:5
6:0 4:5 6:10 3:5 4:5 7:15 4:5 6:10 2:5 7:5 3:5
4:0 6:10 3:5 4:5 7:15 4:5 6:10 2:5 7:5 3:5 6:5
6:0 3:5 4:5 7:15 4:5 6:10 2:5 7:5 3:5 6:5 2:5
3:0 4:5 7:15 4:5 6:10 2:5 7:5 3:5 6:5 2:5 5:5
4:0 7:15 4:5 6:10 2:5 7:5 3:5 6:5 2:5 5:5 3:5
7:0 4:5 6:10 2:5 7:5 3:5 6:5 2:5 5:5 3:5 4:5
4:0 6:10 2:5 7:5 3:5 6:5 2:5 5:5 3:5 4:5 5:5
6:0 2:5 7:5 3:5 6:5 2:5 5:5 3:5 4:5 5:5 3:25
2:0 7:5 3:5 6:5 2:5 5:5 3:5 4:5 5:5 3:25 5:5
7:0 3:5 6:5 2:5 5:5 3:5 4:5 5:5 3:25 5:5 2:10
3:0 6:5 2:5 5:5 3:5 4:5 5:5 3:25 5:5 2:10 5:5
6:0 2:5 5:5 3:5 4:5 5:5 3:25 5:5 2:10 5:5 6:5
2:0 5:5 3:5 4:5 5:5 3:25 5:5 2:10 5:5 6:5 2:5
5:0 3:5 4:5 5:5 3:25 5:5 2:10 5:5 6:5 2:5 7:5
3:0 4:5 5:5 3:25 5:5 2:10 5:5 6:5 2:5 7:5 4:5
4:0 5:5 3:25 5:5 2:10 5:5 6:5 2:5 7:5 4:5 6:5
5:0 3:25 5:5 2:10 5:5 6:5 2:5 7:5 4:5 6:5 4:5
3:0 5:5 2:10 5:5 6:5 2:5 7:5 4:5 6:5 4:5 6:10
5:0 2:10 5:5 6:5 2:5 7:5 4:5 6:5 4:5 6:10 5:5
2:0 5:5 6:5 2:5 7:5 4:5 6:5 4:5 6:10 5:5 3:5
5:0 6:5 2:5 7:5 4:5 6:5 4:5 6:10 5:5 3:5 5:5
6:0 2:5 7:5 4:5 6:5 4:5 6:10 5:5 3:5 5:5 4:10
2:0 7:5 4:5 6:5 4:5 6:10 5:5 3:5 5:5 4:10 2:5
7:0 4:5 6:5 4:5 6:10 5:5 3:5 5:5 4:10 2:5 5:5
4:0 6:5 4:5 6:10 5:5 3:5 5:5 4:10 2:5 5:5 6:10
6:0 4:5 6:10 5:5 3:5 5:5 4:10 2:5 5:5 6:10 4:5
4:0 6:10 5:5 3:5 5:5 4:10 2:5 5:5 6:10 4:5 5:5
6:0 5:5 3:5 5:5 4:10 2:5 5:5 6:10 4:5 5:5 3:10
5:0 3:5 5:5 4:10 2:5 5:5 6:10 4:5 5:5 3:10 6:5
3:0 5:5 4:10 2:5 5:5 6:10 4:5 5:5 3:10 6:5 3:5
5:0 4:10 2:5 5:5 6:10 4:5 5:5 3:10 6:5 3:5 6:5
4:0 2:5 5:5 6:10 4:5 5:5 3:10 6:5 3:5 6:5 2:5
2:0 5:5 6:10 4:5 5:5 3:10 6:5 3:5 6:5 2:5 6:5
5:0 6:10 4:5 5:5 3:10 6:5 3:5 6:5 2:5 6:5 4:5
6:0 4:5 5:5 3:10 6:5 3:5 6:5 2:5 6:5 4:5 5:5
4:0 5:5 3:10 6:5 3:5 6:5 2:5 6:5 4:5 5:5 6:5
5:0 3:10 6:5 3:5 6:5 2:5 6:5 4:5 5:5 6:5 3:5
3:0 6:5 3:5 6:5 2:5 6:5 4:5 5:5 6:5 3:5 4:5
6:0 3:5 6:5 2:5 6:5 4:5 5:5 6:5 3:5 4:5 7:5
3:0 6:5 2:5 6:5 4:5 5:5 6:5 3:5 4:5 7:5 3:5
6:0 2:5 6:5 4:5 5:5 6:5 3:5 4:5 7:5 3:5 4:5
2:0 6:5 4:5 5:5 6:5 3:5 4:5 7:5 3:5 4:5 6:5
6:0 4:5 5:5 6:5 3:5 4:5 7:5 3:5 4:5 6:5 5:5
4:0 5:5 6:5 3:5 4:5 7:5 3:5 4:5 6:5 5:5 6:5
5:0 6:5 3:5 4:5 7:5 3:5 4:5 6:5 5:5 6:5 4:5
6:0 3:5 4:5 7:5 3:5 4:5 6:5 5:5 6:5 4:5 6:5
3:0 4:5 7:5 3:5 4:5 6:5 5:5 6:5 4:5 6:5 4:5
4:0 7:5 3:5 4:5 6:5 5:5 6:5 4:5 6:5 4:5 5:5
7:0 3:5 4:5 6:5 5:5 6:5 4:5 6:5 4:5 5:5 4:5
3:0 4:5 6:5 5:5 6:5 4:5 6:5 4:5 5:5 4:5 3:5
4:0 6:5 5:5 6:5 4:5 6:5 4:5 5:5 4:5 3:5 5:5
6:0 5:5 6:5 4:5 6:5 4:5 5:5 4:5 3:5 5:5 6:10
5:0 6:5 4:5 6:5 4:5 5:5 4:5 3:5 5:5 6:10 3:5
6:0 4:5 6:5 4:5 5:5 4:5 3:5 5:5 6:10 3:5 2:5
4:0 6:5 4:5 5:5 4:5 3:5 5:5 6:10 3:5 2:5 6:5
6:0 4:5 5:5 4:5 3:5 5:5 6:10 3:5 2:5 6:5 2:5
4:0 5:5 4:5 3:5 5:5 6:10 3:5 2:5 6:5 2:5 6:5
5:0 4:5 3:5 5:5 6:10 3:5 2:5 6:5 2:5 6:5 4:5
4:0 3:5 5:5 6:10 3:5 2:5 6:5 2:5 6:5 4:5 5:5
3:0 5:5 6:10 3:5 2:5 6:5 2:5 6:5 4:5 5:5 4:5
5:0 6:10 3:5 2:5 6:5 2:5 6:5 4:5 5:5 4:5 5:5
6:0 3:5 2:5 6:5 2:5 6:5 4:5 5:5 4:5 5:5 3:10
3:0 2:5 6:5 2:5 6:5 4:5 5:5 4:5 5:5 3:10 6:5
2:0 6:5 2:5 6:5 4:5 5:5 4:5 5:5 3:10 6:5 3:5
6:0 2:5 6:5 4:5 5:5 4:5 5:5 3:10 6:5 3:5 4:5
2:0 6:5 4:5 5:5 4:5 5:5 3:10 6:5 3:5 4:5 6:20
6:0 4:5 5:5 4:5 5:5 3:10 6:5 3:5 4:5 6:20 5:5
4:0 5:5 4:5 5:5 3:10 6:5 3:5 4:5 6:20 5:5 3:5
5:0 4:5 5:5 3:10 6:5 3:5 4:5 6:20 5:5 3:5 4:5
4:0 5:5 3:10 6:5 3:5 4:5 6:20 5:5 3:5 4:5 6:5
5:0 3:10 6:5 3:5 4:5 6:20 5:5 3:5 4:5 6:5 3:5
3:0 6:5 3:5 4:5 6:20 5:5 3:5 4:5 6:5 3:5 7:5
6:0 3:5 4:5 6:20 5:5 3:5 4:5 6:5 3:5 7:5 3:5
3:0 4:5 6:20 5:5 3:5 4:5 6:5 3:5 7:5 3:5 4:5
4:0 6:20 5:5 3:5 4:5 6:5 3:5 7:5 3:5 4:5 7:5
6:0 5:5 3:5 4:5 6:5 3:5 7:5 3:5 4:5 7:5 3:5
5:0 3:5 4:5 6:5 3:5 7:5 3:5 4:5 7:5 3:5 7:5
3:0 4:5 6:5 3:5 7:5 3:5 4:5 7:5 3:5 7:5 4:5
4:0 6:5 3:5 7:5 3:5 4:5 7:5 3:5 7:5 4:5 3:5
6:0 3:5 7:5 3:5 4:5 7:5 3:5 7:5 4:5 3:5 5:5
3:0 7:5 3:5 4:5 7:5 3:5 7:5 4:5 3:5 5:5 4:5
7:0 3:5 4:5 7:5 3:5 7:5 4:5 3:5 5:5 4:5 5:5
3:0 4:5 7:5 3:5 7:5 4:5 3:5 5:5 4:5 5:5 4:5
4:0 7:5 3:5 7:5 4:5 3:5 5:5 4:5 5:5 4:5 5:5
7:0 3:5 7:5 4:5 3:5 5:5 4:5 5:5 4:5 5:5 6:5
3:0 7:5 4:5 3:5 5:5 4:5 5:5 4:5 5:5 6:5 3:15
7:0 4:5 3:5 5:5 4:5 5:5 4:5 5:5 6:5 3:15 5:10
4:0 3:5 5:5 4:5 5:5 4:5 5:5 6:5 3:15 5:10 4:10
3:0 5:5 4:5 5:5 4:5 5:5 6:5 3:15 5:10 4:10 6:5
5:0 4:5 5:5 4:5 5:5 6:5 3:15 5:10 4:10 6:5 3:5
4:0 5:5 4:5 5:5 6:5 3:15 5:10 4:10 6:5 3:5 5:5
5:0 4:5 5:5 6:5 3:15 5:10 4:10 6:5 3:5 5:5 4:5
4:0 5:5 6:5 3:15 5:10 4:10 6:5 3:5 5:5 4:5 5:5
5:0 6:5 3:15 5:10 4:10 6:5 3:5 5:5 4:5 5:5 6:10
6:0 3:15 5:10 4:10 6:5 3:5 5:5 4:5 5:5 6:10 2:5
3:0 5:10 4:10 6:5 3:5 5:5 4:5 5:5 6:10 2:5 6:5
5:0 4:10 6:5 3:5 5:5 4:5 5:5 6:10 2:5 6:5 2:5
4:0 6:5 3:5 5:5 4:5 5:5 6:10 2:5 6:5 2:5 4:5
6:0 3:5 5:5 4:5 5:5 6:10 2:5 6:5 2:5 4:5 6:5
3:0 5:5 4:5 5:5 6:10 2:5 6:5 2:5 4:5 6:5 3:15
5:0 4:5 5:5 6:10 2:5 6:5 2:5 4:5 6:5 3:15 6:5
4:0 5:5 6:10 2:5 6:5 2:5 4:5 6:5 3:15 6:5 4:5
5:0 6:10 2:5 6:5 2:5 4:5 6:5 3:15 6:5 4:5 5:5
6:0 2:5 6:5 2:5 4:5 6:5 3:15 6:5 4:5 5:5 3:10
2:0 6:5 2:5 4:5 6:5 3:15 6:5 4:5 5:5 3:10 5:5
6:0 2:5 4:5 6:5 3:15 6:5 4:5 5:5 3:10 5:5 6:20
2:0 4:5 6:5 3:15 6:5 4:5 5:5 3:10 5:5 6:20 3:5
4:0 6:5 3:15 6:5 4:5 5:5 3:10 5:5 6:20 3:5 5:5
6:0 3:15 6:5 4:5 5:5 3:10 5:5 6:20 3:5 5:5 6:5
3:0 6:5 4:5 5:5 3:10 5:5 6:20 3:5 5:5 6:5 2:5
6:0 4:5 5:5 3:10 5:5 6:20 3:5 5:5 6:5 2:5 5:5
4:0 5:5 3:10 5:5 6:20 3:5 5:5 6:5 2:5 5:5 4:5
5:0 3:10 5:5 6:20 3:5 5:5 6:5 2:5 5:5 4:5 3:5
3:0 5:5 6:20 3:5 5:5 6:5 2:5 5:5 4:5 3:5 6:5
5:0 6:20 3:5 5:5 6:5 2:5 5:5 4:5 3:5 6:5 4:5
6:0 3:5 5:5 6:5 2:5 5:5 4:5 3:5 6:5 4:5 5:10
3:0 5:5 6:5 2:5 5:5 4:5 3:5 6:5 4:5 5:10 6:10
5:0 6:5 2:5 5:5 4:5 3:5 6:5 4:5 5:10 6:10 5:5
6:0 2:5 5:5 4:5 3:5 6:5 4:5 5:10 6:10 5:5 4:10
2:0 5:5 4:5 3:5 6:5 4:5 5:10 6:10 5:5 4:10 5:10
5:0 4:5 3:5 6:5 4:5 5:10 6:10 5:5 4:10 5:10 4:5
4:0 3:5 6:5 4:5 5:10 6:10 5:5 4:10 5:10 4:5 6:5
3:0 6:5 4:5 5:10 6:10 5:5 4:10 5:10 4:5 6:5 3:5
6:0 4:5 5:10 6:10 5:5 4:10 5:10 4:5 6:5 3:5 5:5
4:0 5:10 6:10 5:5 4:10 5:10 4:5 6:5 3:5 5:5 4:10
5:0 6:10 5:5 4:10 5:10 4:5 6:5 3:5 5:5 4:10 6:5
6:0 5:5 4:10 5:10 4:5 6:5 3:5 5:5 4:10 6:5 4:5
5:0 4:10 5:10 4:5 6:5 3:5 5:5 4:10 6:5 4:5 5:5
4:0 5:10 4:5 6:5 3:5 5:5 4:10 6:5 4:5 5:5 3:5
5:0 4:5 6:5 3:5 5:5 4:10 6:5 4:5 5:5 3:5 5:10
4:0 6:5 3:5 5:5 4:10 6:5 4:5 5:5 3:5 5:10 4:10
6:0 3:5 5:5 4:10 6:5 4:5 5:5 3:5 5:10 4:10 5:5
3:0 5:5 4:10 6:5 4:5 5:5 3:5 5:10 4:10 5:5 4:10
5:0 4:10 6:5 4:5 5:5 3:5 5:10 4:10 5:5 4:10 5:10
4:0 6:5 4:5 5:5 3:5 5:10 4:10 5:5 4:10 5:10 6:10
6:0 4:5 5:5 3:5 5:10 4:10 5:5 4:10 5:10 6:10 3:5
4:0 5:5 3:5 5:10 4:10 5:5 4:10 5:10 6:10 3:5 5:5
5:0 3:5 5:10 4:10 5:5 4:10 5:10 6:10 3:5 5:5 3:5
3:0 5:10 4:10 5:5 4:10 5:10 6:10 3:5 5:5 3:5 5:10
5:0 4:10 5:5 4:10 5:10 6:10 3:5 5:5 3:5 5:10 3:5
4:0 5:5 4:10 5:10 6:10 3:5 5:5 3:5 5:10 3:5 4:5
5:0 4:10 5:10 6:10 3:5 5:5 3:5 5:10 3:5 4:5 5:5
4:0 5:10 6:10 3:5 5:5 3:5 5:10 3:5 4:5 5:5 4:10
5:0 6:10 3:5 5:5 3:5 5:10 3:5 4:5 5:5 4:10 6:5
6:0 3:5 5:5 3:5 5:10 3:5 4:5 5:5 4:10 6:5 5:5
3:0 5:5 3:5 5:10 3:5 4:5 5:5 4:10 6:5 5:5 3:5
5:0 3:5 5:10 3:5 4:5 5:5 4:10 6:5 5:5 3:5 6:5
3:0 5:10 3:5 4:5 5:5 4:10 6:5 5:5 3:5 6:5 4:5
5:0 3:5 4:5 5:5 4:10 6:5 5:5 3:5 6:5 4:5 6:10
3:0 4:5 5:5 4:10 6:5 5:5 3:5 6:5 4:5 6:10 4:5
4:0 5:5 4:10 6:5 5:5 3:5 6:5 4:5 6:10 4:5 6:5
5:0 4:10 6:5 5:5 3:5 6:5 4:5 6:10 4:5 6:5 5:5
4:0 6:5 5:5 3:5 6:5 4:5 6:10 4:5 6:5 5:5 4:15
6:0 5:5 3:5 6:5 4:5 6:10 4:5 6:5 5:5 4:15 6:5
5:0 3:5 6:5 4:5 6:10 4:5 6:5 5:5 4:15 6:5 5:5
3:0 6:5 4:5 6:10 4:5 6:5 5:5 4:15 6:5 5:5 4:10
6:0 4:5 6:10 4:5 6:5 5:5 4:15 6:5 5:5 4:10 3:5
4:0 6:10 4:5 6:5 5:5 4:15 6:5 5:5 4:10 3:5 6:5
6:0 4:5 6:5 5:5 4:15 6:5 5:5 4:10 3:5 6:5 3:5
4:0 6:5 5:5 4:15 6:5 5:5 4:10 3:5 6:5 3:5 4:5
6:0 5:5 4:15 6:5 5:5 4:10 3:5 6:5 3:5 4:5 5:5
5:0 4:15 6:5 5:5 4:10 3:5 6:5 3:5 4:5 5:5 6:5
4:0 6:5 5:5 4:10 3:5 6:5 3:5 4:5 5:5 6:5 4:5
6:0 5:5 4:10 3:5 6:5 3:5 4:5 5:5 6:5 4:5 6:5
5:0 4:10 3:5 6:5 3:5 4:5 5:5 6:5 4:5 6:5 2:10
4:0 3:5 6:5 3:5 4:5 5:5 6:5 4:5 6:5 2:10 3:5
3:0 6:5 3:5 4:5 5:5 6:5 4:5 6:5 2:10 3:5 5:5
6:0 3:5 4:5 5:5 6:5 4:5 6:5 2:10 3:5 5:5 6:10
3:0 4:5 5:5 6:5 4:5 6:5 2:10 3:5 5:5 6:10 4:5
4:0 5:5 6:5 4:5 6:5 2:10 3:5 5:5 6:10 4:5 5:10
5:0 6:5 4:5 6:5 2:10 3:5 5:5 6:10 4:5 5:10 4:5
6:0 4:5 6:5 2:10 3:5 5:5 6:10 4:5 5:10 4:5 6:5
4:0 6:5 2:10 3:5 5:5 6:10 4:5 5:10 4:5 6:5 4:5
6:0 2:10 3:5 5:5 6:10 4:5 5:10 4:5 6:5 4:5 6:5
2:0 3:5 5:5 6:10 4:5 5:10 4:5 6:5 4:5 6:5 2:5
3:0 5:5 6:10 4:5 5:10 4:5 6:5 4:5 6:5 2:5 5:5
5:0 6:10 4:5 5:10 4:5 6:5 4:5 6:5 2:5 5:5 3:20
6:0 4:5 5:10 4:5 6:5 4:5 6:5 2:5 5:5 3:20 4:5
4:0 5:10 4:5 6:5 4:5 6:5 2:5 5:5 3:20 4:5 5:5
5:0 4:5 6:5 4:5 6:5 2:5 5:5 3:20 4:5 5:5 4:5
4:0 6:5 4:5 6:5 2:5 5:5 3:20 4:5 5:5 4:5 5:5
6:0 4:5 6:5 2:5 5:5 3:20 4:5 5:5 4:5 5:5 6:10
4:0 6:5 2:5 5:5 3:20 4:5 5:5 4:5 5:5 6:10 4:5
6:0 2:5 5:5 3:20 4:5 5:5 4:5 5:5 6:10 4:5 5:10
2:0 5:5 3:20 4:5 5:5 4:5 5:5 6:10 4:5 5:10 3:5
5:0 3:20 4:5 5:5 4:5 5:5 6:10 4:5 5:10 3:5 6:5
3:0 4:5 5:5 4:5 5:5 6:10 4:5 5:10 3:5 6:5 3:5
4:0 5:5 4:5 5:5 6:10 4:5 5:10 3:5 6:5 3:5 5:5
5:0 4:5 5:5 6:10 4:5 5:10 3:5 6:5 3:5 5:5 4:10
4:0 5:5 6:10 4:5 5:10 3:5 6:5 3:5 5:5 4:10 7:5
5:0 6:10 4:5 5:10 3:5 6:5 3:5 5:5 4:10 7:5 2:5
6:0 4:5 5:10 3:5 6:5 3:5 5:5 4:10 7:5 2:5 6:5
4:0 5:10 3:5 6:5 3:5 5:5 4:10 7:5 2:5 6:5 3:5
5:0 3:5 6:5 3:5 5:5 4:10 7:5 2:5 6:5 3:5 6:5
3:0 6:5 3:5 5:5 4:10 7:5 2:5 6:5 3:5 6:5 4:5
6:0 3:5 5:5 4:10 7:5 2:5 6:5 3:5 6:5 4:5 5:10
3:0 5:5 4:10 7:5 2:5 6:5 3:5 6:5 4:5 5:10 3:5
5:0 4:10 7:5 2:5 6:5 3:5 6:5 4:5 5:10 3:5 4:5
4:0 7:5 2:5 6:5 3:5 6:5 4:5 5:10 3:5 4:5 3:5
7:0 2:5 6:5 3:5 6:5 4:5 5:10 3:5 4:5 3:5 6:10
2:0 6:5 3:5 6:5 4:5 5:10 3:5 4:5 3:5 6:10 4:5
6:0 3:5 6:5 4:5 5:10 3:5 4:5 3:5 6:10 4:5 5:10
3:0 6:5 4:5 5:10 3:5 4:5 3:5 6:10 4:5 5:10 6:5
6:0 4:5 5:10 3:5 4:5 3:5 6:10 4:5 5:10 6:5 5:5
4:0 5:10 3:5 4:5 3:5 6:10 4:5 5:10 6:5 5:5 7:10
5:0 3:5 4:5 3:5 6:10 4:5 5:10 6:5 5:5 7:10 5:5
3:0 4:5 3:5 6:10 4:5 5:10 6:5 5:5 7:10 5:5 2:5
4:0 3:5 6:10 4:5 5:10 6:5 5:5 7:10 5:5 2:5 4:5
3:0 6:10 4:5 5:10 6:5 5:5 7:10 5:5 2:5 4:5 5:5
6:0 4:5 5:10 6:5 5:5 7:10 5:5 2:5 4:5 5:5 6:5
4:0 5:10 6:5 5:5 7:10 5:5 2:5 4:5 5:5 6:5 4:5
5:0 6:5 5:5 7:10 5:5 2:5 4:5 5:5 6:5 4:5 3:5
6:0 5:5 7:10 5:5 2:5 4:5 5:5 6:5 4:5 3:5 5:5
5:0 7:10 5:5 2:5 4:5 5:5 6:5 4:5 3:5 5:5 3:5
7:0 5:5 2:5 4:5 5:5 6:5 4:5 3:5 5:5 3:5 6:5
5:0 2:5 4:5 5:5 6:5 4:5 3:5 5:5 3:5 6:5 5:5
2:0 4:5 5:5 6:5 4:5 3:5 5:5 3:5 6:5 5:5 4:5
4:0 5:5 6:5 4:5 3:5 5:5 3:5 6:5 5:5 4:5 5:5
5:0 6:5 4:5 3:5 5:5 3:5 6:5 5:5 4:5 5:5 4:5
6:0 4:5 3:5 5:5 3:5 6:5 5:5 4:5 5:5 4:5 5:5
4:0 3:5 5:5 3:5 6:5 5:5 4:5 5:5 4:5 5:5 6:5
3:0 5:5 3:5 6:5 5:5 4:5 5:5 4:5 5:5 6:5 4:5
5:0 3:5 6:5 5:5 4:5 5:5 4:5 5:5 6:5 4:5 5:5
3:0 6:5 5:5 4:5 5:5 4:5 5:5 6:5 4:5 5:5 4:10
6:0 5:5 4:5 5:5 4:5 5:5 6:5 4:5 5:5 4:10 2:5
5:0 4:5 5:5 4:5 5:5 6:5 4:5 5:5 4:10 2:5 5:5
4:0 5:5 4:5 5:5 6:5 4:5 5:5 4:10 2:5 5:5 6:10
5:0 4:5 5:5 6:5 4:5 5:5 4:10 2:5 5:5 6:10 4:5
4:0 5:5 6:5 4:5 5:5 4:10 2:5 5:5 6:10 4:5 6:5
5:0 6:5 4:5 5:5 4:10 2:5 5:5 6:10 4:5 6:5 3:5
6:0 4:5 5:5 4:10 2:5 5:5 6:10 4:5 6:5 3:5 5:5
4:0 5:5 4:10 2:5 5:5 6:10 4:5 6:5 3:5 5:5 4:10
5:0 4:10 2:5 5:5 6:10 4:5 6:5 3:5 5:5 4:10 3:5
4:0 2:5 5:5 6:10 4:5 6:5 3:5 5:5 4:10 3:5 5:5
2:0 5:5 6:10 4:5 6:5 3:5 5:5 4:10 3:5 5:5 4:5
5:0 6:10 4:5 6:5 3:5 5:5 4:10 3:5 5:5 4:5 5:5
6:0 4:5 6:5 3:5 5:5 4:10 3:5 5:5 4:5 5:5 4:5
4:0 6:5 3:5 5:5 4:10 3:5 5:5 4:5 5:5 4:5 5:10
6:0 3:5 5:5 4:10 3:5 5:5 4:5 5:5 4:5 5:10 4:5
3:0 5:5 4:10 3:5 5:5 4:5 5:5 4:5 5:10 4:5 5:5
5:0 4:10 3:5 5:5 4:5 5:5 4:5 5:10 4:5 5:5 4:5
4:0 3:5 5:5 4:5 5:5 4:5 5:10 4:5 5:5 4:5 6:5
3:0 5:5 4:5 5:5 4:5 5:10 4:5 5:5 4:5 6:5 2:5
5:0 4:5 5:5 4:5 5:10 4:5 5:5 4:5 6:5 2:5 6:5
4:0 5:5 4:5 5:10 4:5 5:5 4:5 6:5 2:5 6:5 4:5
5:0 4:5 5:10 4:5 5:5 4:5 6:5 2:5 6:5 4:5 3:5
4:0 5:10 4:5 5:5 4:5 6:5 2:5 6:5 4:5 3:5 6:5
5:0 4:5 5:5 4:5 6:5 2:5 6:5 4:5 3:5 6:5 5:5
4:0 5:5 4:5 6:5 2:5 6:5 4:5 3:5 6:5 5:5 3:5
5:0 4:5 6:5 2:5 6:5 4:5 3:5 6:5 5:5 3:5 6:10
4:0 6:5 2:5 6:5 4:5 3:5 6:5 5:5 3:5 6:10 4:5
6:0 2:5 6:5 4:5 3:5 6:5 5:5 3:5 6:10 4:5 6:5
2:0 6:5 4:5 3:5 6:5 5:5 3:5 6:10 4:5 6:5 3:10
6:0 4:5 3:5 6:5 5:5 3:5 6:10 4:5 6:5 3:10 4:5
4:0 3:5 6:5 5:5 3:5 6:10 4:5 6:5 3:10 4:5 7:5
3:0 6:5 5:5 3:5 6:10 4:5 6:5 3:10 4:5 7:5 3:5
6:0 5:5 3:5 6:10 4:5 6:5 3:10 4:5 7:5 3:5 7:5
5:0 3:5 6:10 4:5 6:5 3:10 4:5 7:5 3:5 7:5 3:5
3:0 6:10 4:5 6:5 3:10 4:5 7:5 3:5 7:5 3:5 4:5
6:0 4:5 6:5 3:10 4:5 7:5 3:5 7:5 3:5 4:5 5:5
4:0 6:5 3:10 4:5 7:5 3:5 7:5 3:5 4:5 5:5 6:20
6:0 3:10 4:5 7:5 3:5 7:5 3:5 4:5 5:5 6:20 4:5
3:0 4:5 7:5 3:5 7:5 3:5 4:5 5:5 6:20 4:5 5:5
4:0 7:5 3:5 7:5 3:5 4:5 5:5 6:20 4:5 5:5 3:10
7:0 3:5 7:5 3:5 4:5 5:5 6:20 4:5 5:5 3:10 4:5
3:0 7:5 3:5 4:5 5:5 6:20 4:5 5:5 3:10 4:5 6:10
7:0 3:5 4:5 5:5 6:20 4:5 5:5 3:10 4:5 6:10 4:5
3:0 4:5 5:5 6:20 4:5 5:5 3:10 4:5 6:10 4:5 6:5
4:0 5:5 6:20 4:5 5:5 3:10 4:5 6:10 4:5 6:5 3:5
5:0 6:20 4:5 5:5 3:10 4:5 6:10 4:5 6:5 3:5 4:5
6:0 4:5 5:5 3:10 4:5 6:10 4:5 6:5 3:5 4:5 5:5
4:0 5:5 3:10 4:5 6:10 4:5 6:5 3:5 4:5 5:5 3:5
5:0 3:10 4:5 6:10 4:5 6:5 3:5 4:5 5:5 3:5 4:5
3:0 4:5 6:10 4:5 6:5 3:5 4:5 5:5 3:5 4:5 5:5
4:0 6:10 4:5 6:5 3:5 4:5 5:5 3:5 4:5 5:5 6:5
6:0 4:5 6:5 3:5 4:5 5:5 3:5 4:5 5:5 6:5 4:10
4:0 6:5 3:5 4:5 5:5 3:5 4:5 5:5 6:5 4:10 6:5
6:0 3:5 4:5 5:5 3:5 4:5 5:5 6:5 4:10 6:5 3:5
3:0 4:5 5:5 3:5 4:5 5:5 6:5 4:10 6:5 3:5 5:5
4:0 5:5 3:5 4:5 5:5 6:5 4:10 6:5 3:5 5:5 3:5
5:0 3:5 4:5 5:5 6:5 4:10 6:5 3:5 5:5 3:5 6:5
3:0 4:5 5:5 6:5 4:10 6:5 3:5 5:5 3:5 6:5 3:10
4:0 5:5 6:5 4:10 6:5 3:5 5:5 3:5 6:5 3:10 4:5
5:0 6:5 4:10 6:5 3:5 5:5 3:5 6:5 3:10 4:5 6:20
6:0 4:10 6:5 3:5 5:5 3:5 6:5 3:10 4:5 6:20 5:5
4:0 6:5 3:5 5:5 3:5 6:5 3:10 4:5 6:20 5:5 2:5
6:0 3:5 5:5 3:5 6:5 3:10 4:5 6:20 5:5 2:5 5:5
3:0 5:5 3:5 6:5 3:10 4:5 6:20 5:5 2:5 5:5 3:5
5:0 3:5 6:5 3:10 4:5 6:20 5:5 2:5 5:5 3:5 5:5
3:0 6:5 3:10 4:5 6:20 5:5 2:5 5:5 3:5 5:5 6:5
6:0 3:10 4:5 6:20 5:5 2:5 5:5 3:5 5:5 6:5 3:5
3:0 4:5 6:20 5:5 2:5 5:5 3:5 5:5 6:5 3:5 6:10
4:0 6:20 5:5 2:5 5:5 3:5 5:5 6:5 3:5 6:10 5:5
6:0 5:5 2:5 5:5 3:5 5:5 6:5 3:5 6:10 5:5 4:5
5:0 2:5 5:5 3:5 5:5 6:5 3:5 6:10 5:5 4:5 5:5
2:0 5:5 3:5 5:5 6:5 3:5 6:10 5:5 4:5 5:5 6:5
5:0 3:5 5:5 6:5 3:5 6:10 5:5 4:5 5:5 6:5 4:5
3:0 5:5 6:5 3:5 6:10 5:5 4:5 5:5 6:5 4:5 5:10
5:0 6:5 3:5 6:10 5:5 4:5 5:5 6:5 4:5 5:10 4:10
6:0 3:5 6:10 5:5 4:5 5:5 6:5 4:5 5:10 4:10 5:5
3:0 6:10 5:5 4:5 5:5 6:5 4:5 5:10 4:10 5:5 3:15
6:0 5:5 4:5 5:5 6:5 4:5 5:10 4:10 5:5 3:15 6:5
5:0 4:5 5:5 6:5 4:5 5:10 4:10 5:5 3:15 6:5 4:5
4:0 5:5 6:5 4:5 5:10 4:10 5:5 3:15 6:5 4:5 5:5
5:0 6:5 4:5 5:10 4:10 5:5 3:15 6:5 4:5 5:5 4:5
6:0 4:5 5:10 4:10 5:5 3:15 6:5 4:5 5:5 4:5 6:5
4:0 5:10 4:10 5:5 3:15 6:5 4:5 5:5 4:5 6:5 5:5
5:0 4:10 5:5 3:15 6:5 4:5 5:5 4:5 6:5 5:5 6:5
4:0 5:5 3:15 6:5 4:5 5:5 4:5 6:5 5:5 6:5 3:5
5:0 3:15 6:5 4:5 5:5 4:5 6:5 5:5 6:5 3:5 4:5
3:0 6:5 4:5 5:5 4:5 6:5 5:5 6:5 3:5 4:5 6:5
6:0 4:5 5:5 4:5 6:5 5:5 6:5 3:5 4:5 6:5 3:5
4:0 5:5 4:5 6:5 5:5 6:5 3:5 4:5 6:5 3:5 4:5
5:0 4:5 6:5 5:5 6:5 3:5 4:5 6:5 3:5 4:5 5:10
4:0 6:5 5:5 6:5 3:5 4:5 6:5 3:5 4:5 5:10 4:5
6:0 5:5 6:5 3:5 4:5 6:5 3:5 4:5 5:10 4:5 5:5
5:0 6:5 3:5 4:5 6:5 3:5 4:5 5:10 4:5 5:5 4:10
6:0 3:5 4:5 6:5 3:5 4:5 5:10 4:5 5:5 4:10 3:5
3:0 4:5 6:5 3:5 4:5 5:10 4:5 5:5 4:10 3:5 4:5
4:0 6:5 3:5 4:5 5:10 4:5 5:5 4:10 3:5 4:5 5:10
6:0 3:5 4:5 5:10 4:5 5:5 4:10 3:5 4:5 5:10 4:5
3:0 4:5 5:10 4:5 5:5 4:10 3:5 4:5 5:10 4:5 6:5
4:0 5:10 4:5 5:5 4:10 3:5 4:5 5:10 4:5 6:5 4:5
5:0 4:5 5:5 4:10 3:5 4:5 5:10 4:5 6:5 4:5 6:5
4:0 5:5 4:10 3:5 4:5 5:10 4:5 6:5 4:5 6:5 5:5
5:0 4:10 3:5 4:5 5:10 4:5 6:5 4:5 6:5 5:5 4:5
4:0 3:5 4:5 5:10 4:5 6:5 4:5 6:5 5:5 4:5 6:5
3:0 4:5 5:10 4:5 6:5 4:5 6:5 5:5 4:5 6:5 4:5
4:0 5:10 4:5 6:5 4:5 6:5 5:5 4:5 6:5 4:5 5:5
5:0 4:5 6:5 4:5 6:5 5:5 4:5 6:5 4:5 5:5 7:5
4:0 6:5 4:5 6:5 5:5 4:5 6:5 4:5 5:5 7:5 3:5
6:0 4:5 6:5 5:5 4:5 6:5 4:5 5:5 7:5 3:5 5:5
4:0 6:5 5:5 4:5 6:5 4:5 5:5 7:5 3:5 5:5 6:5
6:0 5:5 4:5 6:5 4:5 5:5 7:5 3:5 5:5 6:5 5:5
5:0 4:5 6:5 4:5 5:5 7:5 3:5 5:5 6:5 5:5 4:5
4:0 6:5 4:5 5:5 7:5 3:5 5:5 6:5 5:5 4:5 2:5
6:0 4:5 5:5 7:5 3:5 5:5 6:5 5:5 4:5 2:5 6:5
4:0 5:5 7:5 3:5 5:5 6:5 5:5 4:5 2:5 6:5 3:5
5:0 7:5 3:5 5:5 6:5 5:5 4:5 2:5 6:5 3:5 4:5
7:0 3:5 5:5 6:5 5:5 4:5 2:5 6:5 3:5 4:5 5:5
3:0 5:5 6:5 5:5 4:5 2:5 6:5 3:5 4:5 5:5 4:5
5:0 6:5 5:5 4:5 2:5 6:5 3:5 4:5 5:5 4:5 6:5
6:0 5:5 4:5 2:5 6:5 3:5 4:5 5:5 4:5 6:5 3:5
5:0 4:5 2:5 6:5 3:5 4:5 5:5 4:5 6:5 3:5 5:5
4:0 2:5 6:5 3:5 4:5 5:5 4:5 6:5 3:5 5:5 4:5
2:0 6:5 3:5 4:5 5:5 4:5 6:5 3:5 5:5 4:5 3:5
6:0 3:5 4:5 5:5 4:5 6:5 3:5 5:5 4:5 3:5 7:5
3:0 4:5 5:5 4:5 6:5 3:5 5:5 4:5 3:5 7:5 3:5
4:0 5:5 4:5 6:5 3:5 5:5 4:5 3:5 7:5 3:5 6:5
5:0 4:5 6:5 3:5 5:5 4:5 3:5 7:5 3:5 6:5 5:5
4:0 6:5 3:5 5:5 4:5 3:5 7:5 3:5 6:5 5:5 4:5
6:0 3:5 5:5 4:5 3:5 7:5 3:5 6:5 5:5 4:5 7:15
3:0 5:5 4:5 3:5 7:5 3:5 6:5 5:5 4:5 7:15 2:5
5:0 4:5 3:5 7:5 3:5 6:5 5:5 4:5 7:15 2:5 6:5
4:0 3:5 7:5 3:5 6:5 5:5 4:5 7:15 2:5 6:5 3:5
3:0 7:5 3:5 6:5 5:5 4:5 7:15 2:5 6:5 3:5 5:5
7:0 3:5 6:5 5:5 4:5 7:15 2:5 6:5 3:5 5:5 4:5
3:0 6:5 5:5 4:5 7:15 2:5 6:5 3:5 5:5 4:5 3:5
6:0 5:5 4:5 7:15 2:5 6:5 3:5 5:5 4:5 3:5 4:5
5:0 4:5 7:15 2:5 6:5 3:5 5:5 4:5 3:5 4:5 6:5
4:0 7:15 2:5 6:5 3:5 5:5 4:5 3:5 4:5 6:5 5:5
7:0 2:5 6:5 3:5 5:5 4:5 3:5 4:5 6:5 5:5 3:10
2:0 6:5 3:5 5:5 4:5 3:5 4:5 6:5 5:5 3:10 7:5
6:0 3:5 5:5 4:5 3:5 4:5 6:5 5:5 3:10 7:5 2:5
3:0 5:5 4:5 3:5 4:5 6:5 5:5 3:10 7:5 2:5 6:5
5:0 4:5 3:5 4:5 6:5 5:5 3:10 7:5 2:5 6:5 3:5
4:0 3:5 4:5 6:5 5:5 3:10 7:5 2:5 6:5 3:5 2:5
3:0 4:5 6:5 5:5 3:10 7:5 2:5 6:5 3:5 2:5 5:5
4:0 6:5 5:5 3:10 7:5 2:5 6:5 3:5 2:5 5:5 6:5
6:0 5:5 3:10 7:5 2:5 6:5 3:5 2:5 5:5 6:5 2:5
5:0 3:10 7:5 2:5 6:5 3:5 2:5 5:5 6:5 2:5 3:5
3:0 7:5 2:5 6:5 3:5 2:5 5:5 6:5 2:5 3:5 5:5
7:0 2:5 6:5 3:5 2:5 5:5 6:5 2:5 3:5 5:5 3:5
2:0 6:5 3:5 2:5 5:5 6:5 2:5 3:5 5:5 3:5 5:5
6:0 3:5 2:5 5:5 6:5 2:5 3:5 5:5 3:5 5:5 4:5
3:0 2:5 5:5 6:5 2:5 3:5 5:5 3:5 5:5 4:5 3:5
2:0 5:5 6:5 2:5 3:5 5:5 3:5 5:5 4:5 3:5 5:5
5:0 6:5 2:5 3:5 5:5 3:5 5:5 4:5 3:5 5:5 4:10
6:0 2:5 3:5 5:5 3:5 5:5 4:5 3:5 5:5 4:10 6:5
2:0 3:5 5:5 3:5 5:5 4:5 3:5 5:5 4:10 6:5 4:5
3:0 5:5 3:5 5:5 4:5 3:5 5:5 4:10 6:5 4:5 3:5
5:0 3:5 5:5 4:5 3:5 5:5 4:10 6:5 4:5 3:5 5:5
3:0 5:5 4:5 3:5 5:5 4:10 6:5 4:5 3:5 5:5 6:15
5:0 4:5 3:5 5:5 4:10 6:5 4:5 3:5 5:5 6:15 3:5
4:0 3:5 5:5 4:10 6:5 4:5 3:5 5:5 6:15 3:5 6:5
3:0 5:5 4:10 6:5 4:5 3:5 5:5 6:15 3:5 6:5 4:10
5:0 4:10 6:5 4:5 3:5 5:5 6:15 3:5 6:5 4:10 6:10
4:0 6:5 4:5 3:5 5:5 6:15 3:5 6:5 4:10 6:10 4:5
6:0 4:5 3:5 5:5 6:15 3:5 6:5 4:10 6:10 4:5 7:5
4:0 3:5 5:5 6:15 3:5 6:5 4:10 6:10 4:5 7:5 4:5
3:0 5:5 6:15 3:5 6:5 4:10 6:10 4:5 7:5 4:5 3:5
5:0 6:15 3:5 6:5 4:10 6:10 4:5 7:5 4:5 3:5 6:5
6:0 3:5 6:5 4:10 6:10 4:5 7:5 4:5 3:5 6:5 5:5
3:0 6:5 4:10 6:10 4:5 7:5 4:5 3:5 6:5 5:5 2:10
6:0 4:10 6:10 4:5 7:5 4:5 3:5 6:5 5:5 2:10 4:5
4:0 6:10 4:5 7:5 4:5 3:5 6:5 5:5 2:10 4:5 6:5
6:0 4:5 7:5 4:5 3:5 6:5 5:5 2:10 4:5 6:5 3:10
4:0 7:5 4:5 3:5 6:5 5:5 2:10 4:5 6:5 3:10 6:10
7:0 4:5 3:5 6:5 5:5 2:10 4:5 6:5 3:10 6:10 5:5
4:0 3:5 6:5 5:5 2:10 4:5 6:5 3:10 6:10 5:5 3:10
3:0 6:5 5:5 2:10 4:5 6:5 3:10 6:10 5:5 3:10 4:5
6:0 5:5 2:10 4:5 6:5 3:10 6:10 5:5 3:10 4:5 5:5
5:0 2:10 4:5 6:5 3:10 6:10 5:5 3:10 4:5 5:5 6:5
2:0 4:5 6:5 3:10 6:10 5:5 3:10 4:5 5:5 6:5 5:5
4:0 6:5 3:10 6:10 5:5 3:10 4:5 5:5 6:5 5:5 4:5
6:0 3:10 6:10 5:5 3:10 4:5 5:5 6:5 5:5 4:5 2:5
3:0 6:10 5:5 3:10 4:5 5:5 6:5 5:5 4:5 2:5 6:5
6:0 5:5 3:10 4:5 5:5 6:5 5:5 4:5 2:5 6:5 5:5
5:0 3:10 4:5 5:5 6:5 5:5 4:5 2:5 6:5 5:5 4:5
3:0 4:5 5:5 6:5 5:5 4:5 2:5 6:5 5:5 4:5 7:15
4:0 5:5 6:5 5:5 4:5 2:5 6:5 5:5 4:5 7:15 3:5
5:0 6:5 5:5 4:5 2:5 6:5 5:5 4:5 7:15 3:5 7:5
6:0 5:5 4:5 2:5 6:5 5:5 4:5 7:15 3:5 7:5 3:5
5:0 4:5 2:5 6:5 5:5 4:5 7:15 3:5 7:5 3:5 5:5
4:0 2:5 6:5 5:5 4:5 7:15 3:5 7:5 3:5 5:5 6:15
2:0 6:5 5:5 4:5 7:15 3:5 7:5 3:5 5:5 6:15 5:5
6:0 5:5 4:5 7:15 3:5 7:5 3:5 5:5 6:15 5:5 3:5
5:0 4:5 7:15 3:5 7:5 3:5 5:5 6:15 5:5 3:5 5:5
4:0 7:15 3:5 7:5 3:5 5:5 6:15 5:5 3:5 5:5 4:5
7:0 3:5 7:5 3:5 5:5 6:15 5:5 3:5 5:5 4:5 7:5
3:0 7:5 3:5 5:5 6:15 5:5 3:5 5:5 4:5 7:5 4:5
7:0 3:5 5:5 6:15 5:5 3:5 5:5 4:5 7:5 4:5 5:5
3:0 5:5 6:15 5:5 3:5 5:5 4:5 7:5 4:5 5:5 6:5
5:0 6:15 5:5 3:5 5:5 4:5 7:5 4:5 5:5 6:5 4:10
6:0 5:5 3:5 5:5 4:5 7:5 4:5 5:5 6:5 4:10 6:10
5:0 3:5 5:5 4:5 7:5 4:5 5:5 6:5 4:10 6:10 3:5
3:0 5:5 4:5 7:5 4:5 5:5 6:5 4:10 6:10 3:5 4:5
5:0 4:5 7:5 4:5 5:5 6:5 4:10 6:10 3:5 4:5 5:5
4:0 7:5 4:5 5:5 6:5 4:10 6:10 3:5 4:5 5:5 6:5
7:0 4:5 5:5 6:5 4:10 6:10 3:5 4:5 5:5 6:5 3:5
4:0 5:5 6:5 4:10 6:10 3:5 4:5 5:5 6:5 3:5 6:5
5:0 6:5 4:10 6:10 3:5 4:5 5:5 6:5 3:5 6:5 4:5
6:0 4:10 6:10 3:5 4:5 5:5 6:5 3:5 6:5 4:5 3:5
4:0 6:10 3:5 4:5 5:5 6:5 3:5 6:5 4:5 3:5 5:5
6:0 3:5 4:5 5:5 6:5 3:5 6:5 4:5 3:5 5:5 4:15
3:0 4:5 5:5 6:5 3:5 6:5 4:5 3:5 5:5 4:15 3:5
4:0 5:5 6:5 3:5 6:5 4:5 3:5 5:5 4:15 3:5 5:5
5:0 6:5 3:5 6:5 4:5 3:5 5:5 4:15 3:5 5:5 4:5
6:0 3:5 6:5 4:5 3:5 5:5 4:15 3:5 5:5 4:5 6:5
3:0 6:5 4:5 3:5 5:5 4:15 3:5 5:5 4:5 6:5 5:5
6:0 4:5 3:5 5:5 4:15 3:5 5:5 4:5 6:5 5:5 3:5
4:0 3:5 5:5 4:15 3:5 5:5 4:5 6:5 5:5 3:5 6:5
3:0 5:5 4:15 3:5 5:5 4:5 6:5 5:5 3:5 6:5 4:5
5:0 4:15 3:5 5:5 4:5 6:5 5:5 3:5 6:5 4:5 5:5
4:0 3:5 5:5 4:5 6:5 5:5 3:5 6:5 4:5 5:5 3:5
3:0 5:5 4:5 6:5 5:5 3:5 6:5 4:5 5:5 3:5 5:5
5:0 4:5 6:5 5:5 3:5 6:5 4:5 5:5 3:5 5:5 3:5
4:0 6:5 5:5 3:5 6:5 4:5 5:5 3:5 5:5 3:5 5:5
6:0 5:5 3:5 6:5 4:5 5:5 3:5 5:5 3:5 5:5 6:5
5:0 3:5 6:5 4:5 5:5 3:5 5:5 3:5 5:5 6:5 2:5
3:0 6:5 4:5 5:5 3:5 5:5 3:5 5:5 6:5 2:5 5:5
6:0 4:5 5:5 3:5 5:5 3:5 5:5 6:5 2:5 5:5 4:5
4:0 5:5 3:5 5:5 3:5 5:5 6:5 2:5 5:5 4:5 5:5
5:0 3:5 5:5 3:5 5:5 6:5 2:5 5:5 4:5 5:5 2:10
3:0 5:5 3:5 5:5 6:5 2:5 5:5 4:5 5:5 2:10 4:5
5:0 3:5 5:5 6:5 2:5 5:5 4:5 5:5 2:10 4:5 7:5
3:0 5:5 6:5 2:5 5:5 4:5 5:5 2:10 4:5 7:5 2:5
5:0 6:5 2:5 5:5 4:5 5:5 2:10 4:5 7:5 2:5 6:5
6:0 2:5 5:5 4:5 5:5 2:10 4:5 7:5 2:5 6:5 5:5
2:0 5:5 4:5 5:5 2:10 4:5 7:5 2:5 6:5 5:5 4:5
5:0 4:5 5:5 2:10 4:5 7:5 2:5 6:5 5:5 4:5 5:5
4:0 5:5 2:10 4:5 7:5 2:5 6:5 5:5 4:5 5:5 2:5
5:0 2:10 4:5 7:5 2:5 6:5 5:5 4:5 5:5 2:5 5:5
2:0 4:5 7:5 2:5 6:5 5:5 4:5 5:5 2:5 5:5 4:10
4:0 7:5 2:5 6:5 5:5 4:5 5:5 2:5 5:5 4:10 5:5
7:0 2:5 6:5 5:5 4:5 5:5 2:5 5:5 4:10 5:5 6:5
2:0 6:5 5:5 4:5 5:5 2:5 5:5 4:10 5:5 6:5 4:5
6:0 5:5 4:5 5:5 2:5 5:5 4:10 5:5 6:5 4:5 2:5
5:0 4:5 5:5 2:5 5:5 4:10 5:5 6:5 4:5 2:5 5:5
4:0 5:5 2:5 5:5 4:10 5:5 6:5 4:5 2:5 5:5 6:5
5:0 2:5 5:5 4:10 5:5 6:5 4:5 2:5 5:5 6:5 4:10
2:0 5:5 4:10 5:5 6:5 4:5 2:5 5:5 6:5 4:10 3:5
5:0 4:10 5:5 6:5 4:5 2:5 5:5 6:5 4:10 3:5 5:5
4:0 5:5 6:5 4:5 2:5 5:5 6:5 4:10 3:5 5:5 3:5
5:0 6:5 4:5 2:5 5:5 6:5 4:10 3:5 5:5 3:5 7:5
6:0 4:5 2:5 5:5 6:5 4:10 3:5 5:5 3:5 7:5 2:5
4:0 2:5 5:5 6:5 4:10 3:5 5:5 3:5 7:5 2:5 5:5
2:0 5:5 6:5 4:10 3:5 5:5 3:5 7:5 2:5 5:5 3:5
5:0 6:5 4:10 3:5 5:5 3:5 7:5 2:5 5:5 3:5 5:5
6:0 4:10 3:5 5:5 3:5 7:5 2:5 5:5 3:5 5:5 4:5
4:0 3:5 5:5 3:5 7:5 2:5 5:5 3:5 5:5 4:5 5:5
3:0 5:5 3:5 7:5 2:5 5:5 3:5 5:5 4:5 5:5 4:15
5:0 3:5 7:5 2:5 5:5 3:5 5:5 4:5 5:5 4:15 5:5
3:0 7:5 2:5 5:5 3:5 5:5 4:5 5:5 4:15 5:5 6:5
7:0 2:5 5:5 3:5 5:5 4:5 5:5 4:15 5:5 6:5 3:5
2:0 5:5 3:5 5:5 4:5 5:5 4:15 5:5 6:5 3:5 6:5
5:0 3:5 5:5 4:5 5:5 4:15 5:5 6:5 3:5 6:5 2:10
3:0 5:5 4:5 5:5 4:15 5:5 6:5 3:5 6:5 2:10 4:5
5:0 4:5 5:5 4:15 5:5 6:5 3:5 6:5 2:10 4:5 6:5
4:0 5:5 4:15 5:5 6:5 3:5 6:5 2:10 4:5 6:5 4:5
5:0 4:15 5:5 6:5 3:5 6:5 2:10 4:5 6:5 4:5 6:5
4:0 5:5 6:5 3:5 6:5 2:10 4:5 6:5 4:5 6:5 5:5
5:0 6:5 3:5 6:5 2:10 4:5 6:5 4:5 6:5 5:5 2:5
6:0 3:5 6:5 2:10 4:5 6:5 4:5 6:5 5:5 2:5 5:5
3:0 6:5 2:10 4:5 6:5 4:5 6:5 5:5 2:5 5:5 3:15
6:0 2:10 4:5 6:5 4:5 6:5 5:5 2:5 5:5 3:15 5:5
2:0 4:5 6:5 4:5 6:5 5:5 2:5 5:5 3:15 5:5 6:5
4:0 6:5 4:5 6:5 5:5 2:5 5:5 3:15 5:5 6:5 3:5
6:0 4:5 6:5 5:5 2:5 5:5 3:15 5:5 6:5 3:5 5:5
4:0 6:5 5:5 2:5 5:5 3:15 5:5 6:5 3:5 5:5 4:20
6:0 5:5 2:5 5:5 3:15 5:5 6:5 3:5 5:5 4:20 5:5
5:0 2:5 5:5 3:15 5:5 6:5 3:5 5:5 4:20 5:5 6:5
2:0 5:5 3:15 5:5 6:5 3:5 5:5 4:20 5:5 6:5 5:5
5:0 3:15 5:5 6:5 3:5 5:5 4:20 5:5 6:5 5:5 6:5
3:0 5:5 6:5 3:5 5:5 4:20 5:5 6:5 5:5 6:5 5:10
5:0 6:5 3:5 5:5 4:20 5:5 6:5 5:5 6:5 5:10 4:5
6:0 3:5 5:5 4:20 5:5 6:5 5:5 6:5 5:10 4:5 5:5
3:0 5:5 4:20 5:5 6:5 5:5 6:5 5:10 4:5 5:5 4:5
5:0 4:20 5:5 6:5 5:5 6:5 5:10 4:5 5:5 4:5 6:5
4:0 5:5 6:5 5:5 6:5 5:10 4:5 5:5 4:5 6:5 4:5
5:0 6:5 5:5 6:5 5:10 4:5 5:5 4:5 6:5 4:5 3:5
6:0 5:5 6:5 5:10 4:5 5:5 4:5 6:5 4:5 3:5 5:5
5:0 6:5 5:10 4:5 5:5 4:5 6:5 4:5 3:5 5:5 4:5
6:0 5:10 4:5 5:5 4:5 6:5 4:5 3:5 5:5 4:5 7:5
5:0 4:5 5:5 4:5 6:5 4:5 3:5 5:5 4:5 7:5 4:5
4:0 5:5 4:5 6:5 4:5 3:5 5:5 4:5 7:5 4:5 2:5
5:0 4:5 6:5 4:5 3:5 5:5 4:5 7:5 4:5 2:5 6:5
4:0 6:5 4:5 3:5 5:5 4:5 7:5 4:5 2:5 6:5 5:5
6:0 4:5 3:5 5:5 4:5 7:5 4:5 2:5 6:5 5:5 2:10
4:0 3:5 5:5 4:5 7:5 4:5 2:5 6:5 5:5 2:10 5:5
3:0 5:5 4:5 7:5 4:5 2:5 6:5 5:5 2:10 5:5 4:5
5:0 4:5 7:5 4:5 2:5 6:5 5:5 2:10 5:5 4:5 5:5
4:0 7:5 4:5 2:5 6:5 5:5 2:10 5:5 4:5 5:5 4:5
7:0 4:5 2:5 6:5 5:5 2:10 5:5 4:5 5:5 4:5 6:5
4:0 2:5 6:5 5:5 2:10 5:5 4:5 5:5 4:5 6:5 4:5
2:0 6:5 5:5 2:10 5:5 4:5 5:5 4:5 6:5 4:5 7:5
6:0 5:5 2:10 5:5 4:5 5:5 4:5 6:5 4:5 7:5 3:5
5:0 2:10 5:5 4:5 5:5 4:5 6:5 4:5 7:5 3:5
2:0 5:5 4:5 5:5 4:5 6:5 4:5 7:5 3:5
5:0 4:5 5:5 4:5 6:5 4:5 7:5 3:5
4:0 5:5 4:5 6:5 4:5 7:5 3:5
5:0 4:5 6:5 4:5 7:5 3:5
4:0 6:5 4:5 7:5 3:5
6:0 4:5 7:5 3:5
4:0 7:5 3:5
7:0 3:5
3:0