3:0 1:5 2:5 1:30 2:5 3:15 1:5 2:5 1:35 2:5 3:10
1:0 2:5 1:30 2:5 3:15 1:5 2:5 1:35 2:5 3:10 1:5
2:0 1:30 2:5 3:15 1:5 2:5 1:35 2:5 3:10 1:5 2:5
1:0 2:5 3:15 1:5 2:5 1:35 2:5 3:10 1:5 2:5 1:5
2:0 3:15 1:5 2:5 1:35 2:5 3:10 1:5 2:5 1:5 2:5
3:0 1:5 2:5 1:35 2:5 3:10 1:5 2:5 1:5 2:5 1:15
1:0 2:5 1:35 2:5 3:10 1:5 2:5 1:5 2:5 1:15 2:5
2:0 1:35 2:5 3:10 1:5 2:5 1:5 2:5 1:15 2:5 1:45
1:0 2:5 3:10 1:5 2:5 1:5 2:5 1:15 2:5 1:45 2:5
2:0 3:10 1:5 2:5 1:5 2:5 1:15 2:5 1:45 2:5 3:5
3:0 1:5 2:5 1:5 2:5 1:15 2:5 1:45 2:5 3:5 2:5
1:0 2:5 1:5 2:5 1:15 2:5 1:45 2:5 3:5 2:5 1:5
2:0 1:5 2:5 1:15 2:5 1:45 2:5 3:5 2:5 1:5 3:5
1:0 2:5 1:15 2:5 1:45 2:5 3:5 2:5 1:5 3:5 1:5
2:0 1:15 2:5 1:45 2:5 3:5 2:5 1:5 3:5 1:5 2:5
1:0 2:5 1:45 2:5 3:5 2:5 1:5 3:5 1:5 2:5 3:60
2:0 1:45 2:5 3:5 2:5 1:5 3:5 1:5 2:5 3:60 1:5
1:0 2:5 3:5 2:5 1:5 3:5 1:5 2:5 3:60 1:5 3:5
2:0 3:5 2:5 1:5 3:5 1:5 2:5 3:60 1:5 3:5 2:5
3:0 2:5 1:5 3:5 1:5 2:5 3:60 1:5 3:5 2:5 3:20
2:0 1:5 3:5 1:5 2:5 3:60 1:5 3:5 2:5 3:20 2:5
1:0 3:5 1:5 2:5 3:60 1:5 3:5 2:5 3:20 2:5 3:10
3:0 1:5 2:5 3:60 1:5 3:5 2:5 3:20 2:5 3:10 1:5
1:0 2:5 3:60 1:5 3:5 2:5 3:20 2:5 3:10 1:5 3:5
2:0 3:60 1:5 3:5 2:5 3:20 2:5 3:10 1:5 3:5 2:5
3:0 1:5 3:5 2:5 3:20 2:5 3:10 1:5 3:5 2:5 1:30
1:0 3:5 2:5 3:20 2:5 3:10 1:5 3:5 2:5 1:30 2:5
3:0 2:5 3:20 2:5 3:10 1:5 3:5 2:5 1:30 2:5 1:10
2:0 3:20 2:5 3:10 1:5 3:5 2:5 1:30 2:5 1:10 2:5
3:0 2:5 3:10 1:5 3:5 2:5 1:30 2:5 1:10 2:5 3:5
2:0 3:10 1:5 3:5 2:5 1:30 2:5 1:10 2:5 3:5 1:5
3:0 1:5 3:5 2:5 1:30 2:5 1:10 2:5 3:5 1:5 3:5
1:0 3:5 2:5 1:30 2:5 1:10 2:5 3:5 1:5 3:5 2:5
3:0 2:5 1:30 2:5 1:10 2:5 3:5 1:5 3:5 2:5 1:10
2:0 1:30 2:5 1:10 2:5 3:5 1:5 3:5 2:5 1:10 2:5
1:0 2:5 1:10 2:5 3:5 1:5 3:5 2:5 1:10 2:5 3:5
2:0 1:10 2:5 3:5 1:5 3:5 2:5 1:10 2:5 3:5 2:5
1:0 2:5 3:5 1:5 3:5 2:5 1:10 2:5 3:5 2:5 1:5
2:0 3:5 1:5 3:5 2:5 1:10 2:5 3:5 2:5 1:5 2:5
3:0 1:5 3:5 2:5 1:10 2:5 3:5 2:5 1:5 2:5 1:15
1:0 3:5 2:5 1:10 2:5 3:5 2:5 1:5 2:5 1:15 2:5
3:0 2:5 1:10 2:5 3:5 2:5 1:5 2:5 1:15 2:5 3:20
2:0 1:10 2:5 3:5 2:5 1:5 2:5 1:15 2:5 3:20 2:5
1:0 2:5 3:5 2:5 1:5 2:5 1:15 2:5 3:20 2:5 3:5
2:0 3:5 2:5 1:5 2:5 1:15 2:5 3:20 2:5 3:5 2:5
3:0 2:5 1:5 2:5 1:15 2:5 3:20 2:5 3:5 2:5 1:10
2:0 1:5 2:5 1:15 2:5 3:20 2:5 3:5 2:5 1:10 3:5
1:0 2:5 1:15 2:5 3:20 2:5 3:5 2:5 1:10 3:5 2:5
2:0 1:15 2:5 3:20 2:5 3:5 2:5 1:10 3:5 2:5 3:30
1:0 2:5 3:20 2:5 3:5 2:5 1:10 3:5 2:5 3:30 1:5
2:0 3:20 2:5 3:5 2:5 1:10 3:5 2:5 3:30 1:5 3:5
3:0 2:5 3:5 2:5 1:10 3:5 2:5 3:30 1:5 3:5 2:5
2:0 3:5 2:5 1:10 3:5 2:5 3:30 1:5 3:5 2:5 3:10
3:0 2:5 1:10 3:5 2:5 3:30 1:5 3:5 2:5 3:10 1:5
2:0 1:10 3:5 2:5 3:30 1:5 3:5 2:5 3:10 1:5 2:5
1:0 3:5 2:5 3:30 1:5 3:5 2:5 3:10 1:5 2:5 1:20
3:0 2:5 3:30 1:5 3:5 2:5 3:10 1:5 2:5 1:20 3:5
2:0 3:30 1:5 3:5 2:5 3:10 1:5 2:5 1:20 3:5 2:5
3:0 1:5 3:5 2:5 3:10 1:5 2:5 1:20 3:5 2:5 1:10
1:0 3:5 2:5 3:10 1:5 2:5 1:20 3:5 2:5 1:10 2:10
3:0 2:5 3:10 1:5 2:5 1:20 3:5 2:5 1:10 2:10 3:10
2:0 3:10 1:5 2:5 1:20 3:5 2:5 1:10 2:10 3:10 2:5
3:0 1:5 2:5 1:20 3:5 2:5 1:10 2:10 3:10 2:5 1:5
1:0 2:5 1:20 3:5 2:5 1:10 2:10 3:10 2:5 1:5 3:5
2:0 1:20 3:5 2:5 1:10 2:10 3:10 2:5 1:5 3:5 1:5
1:0 3:5 2:5 1:10 2:10 3:10 2:5 1:5 3:5 1:5 3:5
3:0 2:5 1:10 2:10 3:10 2:5 1:5 3:5 1:5 3:5 2:5
2:0 1:10 2:10 3:10 2:5 1:5 3:5 1:5 3:5 2:5 1:5
1:0 2:10 3:10 2:5 1:5 3:5 1:5 3:5 2:5 1:5 2:5
2:0 3:10 2:5 1:5 3:5 1:5 3:5 2:5 1:5 2:5 1:15
3:0 2:5 1:5 3:5 1:5 3:5 2:5 1:5 2:5 1:15 3:5
2:0 1:5 3:5 1:5 3:5 2:5 1:5 2:5 1:15 3:5 2:5
1:0 3:5 1:5 3:5 2:5 1:5 2:5 1:15 3:5 2:5 3:15
3:0 1:5 3:5 2:5 1:5 2:5 1:15 3:5 2:5 3:15 2:5
1:0 3:5 2:5 1:5 2:5 1:15 3:5 2:5 3:15 2:5 3:10
3:0 2:5 1:5 2:5 1:15 3:5 2:5 3:15 2:5 3:10 1:5
2:0 1:5 2:5 1:15 3:5 2:5 3:15 2:5 3:10 1:5 2:5
1:0 2:5 1:15 3:5 2:5 3:15 2:5 3:10 1:5 2:5 3:15
2:0 1:15 3:5 2:5 3:15 2:5 3:10 1:5 2:5 3:15 1:5
1:0 3:5 2:5 3:15 2:5 3:10 1:5 2:5 3:15 1:5 2:5
3:0 2:5 3:15 2:5 3:10 1:5 2:5 3:15 1:5 2:5 1:20
2:0 3:15 2:5 3:10 1:5 2:5 3:15 1:5 2:5 1:20 2:5
3:0 2:5 3:10 1:5 2:5 3:15 1:5 2:5 1:20 2:5 3:35
2:0 3:10 1:5 2:5 3:15 1:5 2:5 1:20 2:5 3:35 2:5
3:0 1:5 2:5 3:15 1:5 2:5 1:20 2:5 3:35 2:5 1:10
1:0 2:5 3:15 1:5 2:5 1:20 2:5 3:35 2:5 1:10 2:5
2:0 3:15 1:5 2:5 1:20 2:5 3:35 2:5 1:10 2:5 3:15
3:0 1:5 2:5 1:20 2:5 3:35 2:5 1:10 2:5 3:15 2:5
1:0 2:5 1:20 2:5 3:35 2:5 1:10 2:5 3:15 2:5 3:10
2:0 1:20 2:5 3:35 2:5 1:10 2:5 3:15 2:5 3:10 2:5
1:0 2:5 3:35 2:5 1:10 2:5 3:15 2:5 3:10 2:5 1:5
2:0 3:35 2:5 1:10 2:5 3:15 2:5 3:10 2:5 1:5 2:5
3:0 2:5 1:10 2:5 3:15 2:5 3:10 2:5 1:5 2:5 3:10
2:0 1:10 2:5 3:15 2:5 3:10 2:5 1:5 2:5 3:10 2:5
1:0 2:5 3:15 2:5 3:10 2:5 1:5 2:5 3:10 2:5 1:35
2:0 3:15 2:5 3:10 2:5 1:5 2:5 3:10 2:5 1:35 2:5
3:0 2:5 3:10 2:5 1:5 2:5 3:10 2:5 1:35 2:5 3:25
2:0 3:10 2:5 1:5 2:5 3:10 2:5 1:35 2:5 3:25 2:10
3:0 2:5 1:5 2:5 3:10 2:5 1:35 2:5 3:25 2:10 3:30
2:0 1:5 2:5 3:10 2:5 1:35 2:5 3:25 2:10 3:30 1:5
1:0 2:5 3:10 2:5 1:35 2:5 3:25 2:10 3:30 1:5 3:5
2:0 3:10 2:5 1:35 2:5 3:25 2:10 3:30 1:5 3:5 2:5
3:0 2:5 1:35 2:5 3:25 2:10 3:30 1:5 3:5 2:5 3:30
2:0 1:35 2:5 3:25 2:10 3:30 1:5 3:5 2:5 3:30 2:5
1:0 2:5 3:25 2:10 3:30 1:5 3:5 2:5 3:30 2:5 3:55
2:0 3:25 2:10 3:30 1:5 3:5 2:5 3:30 2:5 3:55 2:5
3:0 2:10 3:30 1:5 3:5 2:5 3:30 2:5 3:55 2:5 1:40
2:0 3:30 1:5 3:5 2:5 3:30 2:5 3:55 2:5 1:40 3:5
3:0 1:5 3:5 2:5 3:30 2:5 3:55 2:5 1:40 3:5 1:5
1:0 3:5 2:5 3:30 2:5 3:55 2:5 1:40 3:5 1:5 2:5
3:0 2:5 3:30 2:5 3:55 2:5 1:40 3:5 1:5 2:5 3:5
2:0 3:30 2:5 3:55 2:5 1:40 3:5 1:5 2:5 3:5 2:5
3:0 2:5 3:55 2:5 1:40 3:5 1:5 2:5 3:5 2:5 1:5
2:0 3:55 2:5 1:40 3:5 1:5 2:5 3:5 2:5 1:5 2:5
3:0 2:5 1:40 3:5 1:5 2:5 3:5 2:5 1:5 2:5 1:5
2:0 1:40 3:5 1:5 2:5 3:5 2:5 1:5 2:5 1:5 2:5
1:0 3:5 1:5 2:5 3:5 2:5 1:5 2:5 1:5 2:5 1:15
3:0 1:5 2:5 3:5 2:5 1:5 2:5 1:5 2:5 1:15 3:5
1:0 2:5 3:5 2:5 1:5 2:5 1:5 2:5 1:15 3:5 2:5
2:0 3:5 2:5 1:5 2:5 1:5 2:5 1:15 3:5 2:5 1:10
3:0 2:5 1:5 2:5 1:5 2:5 1:15 3:5 2:5 1:10 3:5
2:0 1:5 2:5 1:5 2:5 1:15 3:5 2:5 1:10 3:5 1:5
1:0 2:5 1:5 2:5 1:15 3:5 2:5 1:10 3:5 1:5 3:5
2:0 1:5 2:5 1:15 3:5 2:5 1:10 3:5 1:5 3:5 2:5
1:0 2:5 1:15 3:5 2:5 1:10 3:5 1:5 3:5 2:5 1:15
2:0 1:15 3:5 2:5 1:10 3:5 1:5 3:5 2:5 1:15 2:5
1:0 3:5 2:5 1:10 3:5 1:5 3:5 2:5 1:15 2:5 3:35
3:0 2:5 1:10 3:5 1:5 3:5 2:5 1:15 2:5 3:35 2:5
2:0 1:10 3:5 1:5 3:5 2:5 1:15 2:5 3:35 2:5 3:5
1:0 3:5 1:5 3:5 2:5 1:15 2:5 3:35 2:5 3:5 2:5
3:0 1:5 3:5 2:5 1:15 2:5 3:35 2:5 3:5 2:5 1:5
1:0 3:5 2:5 1:15 2:5 3:35 2:5 3:5 2:5 1:5 3:10
3:0 2:5 1:15 2:5 3:35 2:5 3:5 2:5 1:5 3:10 1:5
2:0 1:15 2:5 3:35 2:5 3:5 2:5 1:5 3:10 1:5 2:5
1:0 2:5 3:35 2:5 3:5 2:5 1:5 3:10 1:5 2:5 1:5
2:0 3:35 2:5 3:5 2:5 1:5 3:10 1:5 2:5 1:5 2:5
3:0 2:5 3:5 2:5 1:5 3:10 1:5 2:5 1:5 2:5 3:5
2:0 3:5 2:5 1:5 3:10 1:5 2:5 1:5 2:5 3:5 1:5
3:0 2:5 1:5 3:10 1:5 2:5 1:5 2:5 3:5 1:5 2:5
2:0 1:5 3:10 1:5 2:5 1:5 2:5 3:5 1:5 2:5 1:5
1:0 3:10 1:5 2:5 1:5 2:5 3:5 1:5 2:5 1:5 2:5
3:0 1:5 2:5 1:5 2:5 3:5 1:5 2:5 1:5 2:5 1:25
1:0 2:5 1:5 2:5 3:5 1:5 2:5 1:5 2:5 1:25 2:5
2:0 1:5 2:5 3:5 1:5 2:5 1:5 2:5 1:25 2:5 3:20
1:0 2:5 3:5 1:5 2:5 1:5 2:5 1:25 2:5 3:20 2:5
2:0 3:5 1:5 2:5 1:5 2:5 1:25 2:5 3:20 2:5 1:15
3:0 1:5 2:5 1:5 2:5 1:25 2:5 3:20 2:5 1:15 2:5
1:0 2:5 1:5 2:5 1:25 2:5 3:20 2:5 1:15 2:5 3:10
2:0 1:5 2:5 1:25 2:5 3:20 2:5 1:15 2:5 3:10 1:5
1:0 2:5 1:25 2:5 3:20 2:5 1:15 2:5 3:10 1:5 2:5
2:0 1:25 2:5 3:20 2:5 1:15 2:5 3:10 1:5 2:5 1:5
1:0 2:5 3:20 2:5 1:15 2:5 3:10 1:5 2:5 1:5 2:5
2:0 3:20 2:5 1:15 2:5 3:10 1:5 2:5 1:5 2:5 1:10
3:0 2:5 1:15 2:5 3:10 1:5 2:5 1:5 2:5 1:10 2:5
2:0 1:15 2:5 3:10 1:5 2:5 1:5 2:5 1:10 2:5 3:25
1:0 2:5 3:10 1:5 2:5 1:5 2:5 1:10 2:5 3:25 1:5
2:0 3:10 1:5 2:5 1:5 2:5 1:10 2:5 3:25 1:5 2:5
3:0 1:5 2:5 1:5 2:5 1:10 2:5 3:25 1:5 2:5 3:35
1:0 2:5 1:5 2:5 1:10 2:5 3:25 1:5 2:5 3:35 2:5
2:0 1:5 2:5 1:10 2:5 3:25 1:5 2:5 3:35 2:5 3:20
1:0 2:5 1:10 2:5 3:25 1:5 2:5 3:35 2:5 3:20 1:5
2:0 1:10 2:5 3:25 1:5 2:5 3:35 2:5 3:20 1:5 2:5
1:0 2:5 3:25 1:5 2:5 3:35 2:5 3:20 1:5 2:5 1:70
2:0 3:25 1:5 2:5 3:35 2:5 3:20 1:5 2:5 1:70 2:5
3:0 1:5 2:5 3:35 2:5 3:20 1:5 2:5 1:70 2:5 1:5
1:0 2:5 3:35 2:5 3:20 1:5 2:5 1:70 2:5 1:5 2:5
2:0 3:35 2:5 3:20 1:5 2:5 1:70 2:5 1:5 2:5 3:15
3:0 2:5 3:20 1:5 2:5 1:70 2:5 1:5 2:5 3:15 1:5
2:0 3:20 1:5 2:5 1:70 2:5 1:5 2:5 3:15 1:5 2:5
3:0 1:5 2:5 1:70 2:5 1:5 2:5 3:15 1:5 2:5 1:20
1:0 2:5 1:70 2:5 1:5 2:5 3:15 1:5 2:5 1:20 2:10
2:0 1:70 2:5 1:5 2:5 3:15 1:5 2:5 1:20 2:10 3:20
1:0 2:5 1:5 2:5 3:15 1:5 2:5 1:20 2:10 3:20 1:5
2:0 1:5 2:5 3:15 1:5 2:5 1:20 2:10 3:20 1:5 2:5
1:0 2:5 3:15 1:5 2:5 1:20 2:10 3:20 1:5 2:5 3:35
2:0 3:15 1:5 2:5 1:20 2:10 3:20 1:5 2:5 3:35 2:5
3:0 1:5 2:5 1:20 2:10 3:20 1:5 2:5 3:35 2:5 3:10
1:0 2:5 1:20 2:10 3:20 1:5 2:5 3:35 2:5 3:10 1:5
2:0 1:20 2:10 3:20 1:5 2:5 3:35 2:5 3:10 1:5 2:5
1:0 2:10 3:20 1:5 2:5 3:35 2:5 3:10 1:5 2:5 3:15
2:0 3:20 1:5 2:5 3:35 2:5 3:10 1:5 2:5 3:15 1:5
3:0 1:5 2:5 3:35 2:5 3:10 1:5 2:5 3:15 1:5 2:5
1:0 2:5 3:35 2:5 3:10 1:5 2:5 3:15 1:5 2:5 3:60
2:0 3:35 2:5 3:10 1:5 2:5 3:15 1:5 2:5 3:60 1:5
3:0 2:5 3:10 1:5 2:5 3:15 1:5 2:5 3:60 1:5 2:5
2:0 3:10 1:5 2:5 3:15 1:5 2:5 3:60 1:5 2:5 1:25
3:0 1:5 2:5 3:15 1:5 2:5 3:60 1:5 2:5 1:25 2:5
1:0 2:5 3:15 1:5 2:5 3:60 1:5 2:5 1:25 2:5 3:10
2:0 3:15 1:5 2:5 3:60 1:5 2:5 1:25 2:5 3:10 2:5
3:0 1:5 2:5 3:60 1:5 2:5 1:25 2:5 3:10 2:5 3:5
1:0 2:5 3:60 1:5 2:5 1:25 2:5 3:10 2:5 3:5 2:5
2:0 3:60 1:5 2:5 1:25 2:5 3:10 2:5 3:5 2:5 1:15
3:0 1:5 2:5 1:25 2:5 3:10 2:5 3:5 2:5 1:15 2:5
1:0 2:5 1:25 2:5 3:10 2:5 3:5 2:5 1:15 2:5 1:20
2:0 1:25 2:5 3:10 2:5 3:5 2:5 1:15 2:5 1:20 3:5
1:0 2:5 3:10 2:5 3:5 2:5 1:15 2:5 1:20 3:5 1:5
2:0 3:10 2:5 3:5 2:5 1:15 2:5 1:20 3:5 1:5 2:5
3:0 2:5 3:5 2:5 1:15 2:5 1:20 3:5 1:5 2:5 1:5
2:0 3:5 2:5 1:15 2:5 1:20 3:5 1:5 2:5 1:5 2:5
3:0 2:5 1:15 2:5 1:20 3:5 1:5 2:5 1:5 2:5 3:15
2:0 1:15 2:5 1:20 3:5 1:5 2:5 1:5 2:5 3:15 1:5
1:0 2:5 1:20 3:5 1:5 2:5 1:5 2:5 3:15 1:5 2:5
2:0 1:20 3:5 1:5 2:5 1:5 2:5 3:15 1:5 2:5 1:20
1:0 3:5 1:5 2:5 1:5 2:5 3:15 1:5 2:5 1:20 2:10
3:0 1:5 2:5 1:5 2:5 3:15 1:5 2:5 1:20 2:10 3:10
1:0 2:5 1:5 2:5 3:15 1:5 2:5 1:20 2:10 3:10 2:5
2:0 1:5 2:5 3:15 1:5 2:5 1:20 2:10 3:10 2:5 1:5
1:0 2:5 3:15 1:5 2:5 1:20 2:10 3:10 2:5 1:5 2:5
2:0 3:15 1:5 2:5 1:20 2:10 3:10 2:5 1:5 2:5 1:15
3:0 1:5 2:5 1:20 2:10 3:10 2:5 1:5 2:5 1:15 2:5
1:0 2:5 1:20 2:10 3:10 2:5 1:5 2:5 1:15 2:5 3:20
2:0 1:20 2:10 3:10 2:5 1:5 2:5 1:15 2:5 3:20 2:5
1:0 2:10 3:10 2:5 1:5 2:5 1:15 2:5 3:20 2:5 3:35
2:0 3:10 2:5 1:5 2:5 1:15 2:5 3:20 2:5 3:35 2:5
3:0 2:5 1:5 2:5 1:15 2:5 3:20 2:5 3:35 2:5 1:5
2:0 1:5 2:5 1:15 2:5 3:20 2:5 3:35 2:5 1:5 3:5
1:0 2:5 1:15 2:5 3:20 2:5 3:35 2:5 1:5 3:5 1:5
2:0 1:15 2:5 3:20 2:5 3:35 2:5 1:5 3:5 1:5 3:5
1:0 2:5 3:20 2:5 3:35 2:5 1:5 3:5 1:5 3:5 1:5
2:0 3:20 2:5 3:35 2:5 1:5 3:5 1:5 3:5 1:5 3:5
3:0 2:5 3:35 2:5 1:5 3:5 1:5 3:5 1:5 3:5 2:5
2:0 3:35 2:5 1:5 3:5 1:5 3:5 1:5 3:5 2:5 1:5
3:0 2:5 1:5 3:5 1:5 3:5 1:5 3:5 2:5 1:5 3:5
2:0 1:5 3:5 1:5 3:5 1:5 3:5 2:5 1:5 3:5 1:5
1:0 3:5 1:5 3:5 1:5 3:5 2:5 1:5 3:5 1:5 3:5
3:0 1:5 3:5 1:5 3:5 2:5 1:5 3:5 1:5 3:5 1:5
1:0 3:5 1:5 3:5 2:5 1:5 3:5 1:5 3:5 1:5 2:5
3:0 1:5 3:5 2:5 1:5 3:5 1:5 3:5 1:5 2:5 1:10
1:0 3:5 2:5 1:5 3:5 1:5 3:5 1:5 2:5 1:10 3:5
3:0 2:5 1:5 3:5 1:5 3:5 1:5 2:5 1:10 3:5 2:5
2:0 1:5 3:5 1:5 3:5 1:5 2:5 1:10 3:5 2:5 1:10
1:0 3:5 1:5 3:5 1:5 2:5 1:10 3:5 2:5 1:10 3:5
3:0 1:5 3:5 1:5 2:5 1:10 3:5 2:5 1:10 3:5 1:5
1:0 3:5 1:5 2:5 1:10 3:5 2:5 1:10 3:5 1:5 2:5
3:0 1:5 2:5 1:10 3:5 2:5 1:10 3:5 1:5 2:5 3:5
1:0 2:5 1:10 3:5 2:5 1:10 3:5 1:5 2:5 3:5 1:5
2:0 1:10 3:5 2:5 1:10 3:5 1:5 2:5 3:5 1:5 3:10
1:0 3:5 2:5 1:10 3:5 1:5 2:5 3:5 1:5 3:10 1:5
3:0 2:5 1:10 3:5 1:5 2:5 3:5 1:5 3:10 1:5 3:5
2:0 1:10 3:5 1:5 2:5 3:5 1:5 3:10 1:5 3:5 2:5
1:0 3:5 1:5 2:5 3:5 1:5 3:10 1:5 3:5 2:5 1:5
3:0 1:5 2:5 3:5 1:5 3:10 1:5 3:5 2:5 1:5 3:5
1:0 2:5 3:5 1:5 3:10 1:5 3:5 2:5 1:5 3:5 2:5
2:0 3:5 1:5 3:10 1:5 3:5 2:5 1:5 3:5 2:5 3:5
3:0 1:5 3:10 1:5 3:5 2:5 1:5 3:5 2:5 3:5 1:5
1:0 3:10 1:5 3:5 2:5 1:5 3:5 2:5 3:5 1:5 2:5
3:0 1:5 3:5 2:5 1:5 3:5 2:5 3:5 1:5 2:5 1:5
1:0 3:5 2:5 1:5 3:5 2:5 3:5 1:5 2:5 1:5 2:5
3:0 2:5 1:5 3:5 2:5 3:5 1:5 2:5 1:5 2:5 1:10
2:0 1:5 3:5 2:5 3:5 1:5 2:5 1:5 2:5 1:10 3:5
1:0 3:5 2:5 3:5 1:5 2:5 1:5 2:5 1:10 3:5 2:5
3:0 2:5 3:5 1:5 2:5 1:5 2:5 1:10 3:5 2:5 1:15
2:0 3:5 1:5 2:5 1:5 2:5 1:10 3:5 2:5 1:15 2:5
3:0 1:5 2:5 1:5 2:5 1:10 3:5 2:5 1:15 2:5 3:10
1:0 2:5 1:5 2:5 1:10 3:5 2:5 1:15 2:5 3:10 1:5
2:0 1:5 2:5 1:10 3:5 2:5 1:15 2:5 3:10 1:5 2:10
1:0 2:5 1:10 3:5 2:5 1:15 2:5 3:10 1:5 2:10 3:10
2:0 1:10 3:5 2:5 1:15 2:5 3:10 1:5 2:10 3:10 1:5
1:0 3:5 2:5 1:15 2:5 3:10 1:5 2:10 3:10 1:5 3:5
3:0 2:5 1:15 2:5 3:10 1:5 2:10 3:10 1:5 3:5 1:5
2:0 1:15 2:5 3:10 1:5 2:10 3:10 1:5 3:5 1:5 2:5
1:0 2:5 3:10 1:5 2:10 3:10 1:5 3:5 1:5 2:5 3:5
2:0 3:10 1:5 2:10 3:10 1:5 3:5 1:5 2:5 3:5 1:5
3:0 1:5 2:10 3:10 1:5 3:5 1:5 2:5 3:5 1:5 3:5
1:0 2:10 3:10 1:5 3:5 1:5 2:5 3:5 1:5 3:5 2:5
2:0 3:10 1:5 3:5 1:5 2:5 3:5 1:5 3:5 2:5 3:25
3:0 1:5 3:5 1:5 2:5 3:5 1:5 3:5 2:5 3:25 2:5
1:0 3:5 1:5 2:5 3:5 1:5 3:5 2:5 3:25 2:5 1:10
3:0 1:5 2:5 3:5 1:5 3:5 2:5 3:25 2:5 1:10 2:5
1:0 2:5 3:5 1:5 3:5 2:5 3:25 2:5 1:10 2:5 3:10
2:0 3:5 1:5 3:5 2:5 3:25 2:5 1:10 2:5 3:10 1:5
3:0 1:5 3:5 2:5 3:25 2:5 1:10 2:5 3:10 1:5 2:5
1:0 3:5 2:5 3:25 2:5 1:10 2:5 3:10 1:5 2:5 3:5
3:0 2:5 3:25 2:5 1:10 2:5 3:10 1:5 2:5 3:5 1:5
2:0 3:25 2:5 1:10 2:5 3:10 1:5 2:5 3:5 1:5 3:5
3:0 2:5 1:10 2:5 3:10 1:5 2:5 3:5 1:5 3:5 2:5
2:0 1:10 2:5 3:10 1:5 2:5 3:5 1:5 3:5 2:5 1:5
1:0 2:5 3:10 1:5 2:5 3:5 1:5 3:5 2:5 1:5 2:5
2:0 3:10 1:5 2:5 3:5 1:5 3:5 2:5 1:5 2:5 3:10
3:0 1:5 2:5 3:5 1:5 3:5 2:5 1:5 2:5 3:10 2:5
1:0 2:5 3:5 1:5 3:5 2:5 1:5 2:5 3:10 2:5 1:30
2:0 3:5 1:5 3:5 2:5 1:5 2:5 3:10 2:5 1:30 2:5
3:0 1:5 3:5 2:5 1:5 2:5 3:10 2:5 1:30 2:5 3:15
1:0 3:5 2:5 1:5 2:5 3:10 2:5 1:30 2:5 3:15 2:5
3:0 2:5 1:5 2:5 3:10 2:5 1:30 2:5 3:15 2:5 3:35
2:0 1:5 2:5 3:10 2:5 1:30 2:5 3:15 2:5 3:35 2:5
1:0 2:5 3:10 2:5 1:30 2:5 3:15 2:5 3:35 2:5 1:10
2:0 3:10 2:5 1:30 2:5 3:15 2:5 3:35 2:5 1:10 2:5
3:0 2:5 1:30 2:5 3:15 2:5 3:35 2:5 1:10 2:5 3:15
2:0 1:30 2:5 3:15 2:5 3:35 2:5 1:10 2:5 3:15 2:5
1:0 2:5 3:15 2:5 3:35 2:5 1:10 2:5 3:15 2:5 1:15
2:0 3:15 2:5 3:35 2:5 1:10 2:5 3:15 2:5 1:15 2:5
3:0 2:5 3:35 2:5 1:10 2:5 3:15 2:5 1:15 2:5 3:20
2:0 3:35 2:5 1:10 2:5 3:15 2:5 1:15 2:5 3:20 2:5
3:0 2:5 1:10 2:5 3:15 2:5 1:15 2:5 3:20 2:5 3:10
2:0 1:10 2:5 3:15 2:5 1:15 2:5 3:20 2:5 3:10 1:5
1:0 2:5 3:15 2:5 1:15 2:5 3:20 2:5 3:10 1:5 2:5
2:0 3:15 2:5 1:15 2:5 3:20 2:5 3:10 1:5 2:5 1:5
3:0 2:5 1:15 2:5 3:20 2:5 3:10 1:5 2:5 1:5 2:5
2:0 1:15 2:5 3:20 2:5 3:10 1:5 2:5 1:5 2:5 3:5
1:0 2:5 3:20 2:5 3:10 1:5 2:5 1:5 2:5 3:5 2:5
2:0 3:20 2:5 3:10 1:5 2:5 1:5 2:5 3:5 2:5 1:15
3:0 2:5 3:10 1:5 2:5 1:5 2:5 3:5 2:5 1:15 3:5
2:0 3:10 1:5 2:5 1:5 2:5 3:5 2:5 1:15 3:5 1:5
3:0 1:5 2:5 1:5 2:5 3:5 2:5 1:15 3:5 1:5 2:5
1:0 2:5 1:5 2:5 3:5 2:5 1:15 3:5 1:5 2:5 3:5
2:0 1:5 2:5 3:5 2:5 1:15 3:5 1:5 2:5 3:5 1:5
1:0 2:5 3:5 2:5 1:15 3:5 1:5 2:5 3:5 1:5 3:5
2:0 3:5 2:5 1:15 3:5 1:5 2:5 3:5 1:5 3:5 2:5
3:0 2:5 1:15 3:5 1:5 2:5 3:5 1:5 3:5 2:5 3:30
2:0 1:15 3:5 1:5 2:5 3:5 1:5 3:5 2:5 3:30 1:5
1:0 3:5 1:5 2:5 3:5 1:5 3:5 2:5 3:30 1:5 3:5
3:0 1:5 2:5 3:5 1:5 3:5 2:5 3:30 1:5 3:5 1:5
1:0 2:5 3:5 1:5 3:5 2:5 3:30 1:5 3:5 1:5 2:5
2:0 3:5 1:5 3:5 2:5 3:30 1:5 3:5 1:5 2:5 3:15
3:0 1:5 3:5 2:5 3:30 1:5 3:5 1:5 2:5 3:15 1:5
1:0 3:5 2:5 3:30 1:5 3:5 1:5 2:5 3:15 1:5 2:10
3:0 2:5 3:30 1:5 3:5 1:5 2:5 3:15 1:5 2:10 3:15
2:0 3:30 1:5 3:5 1:5 2:5 3:15 1:5 2:10 3:15 2:5
3:0 1:5 3:5 1:5 2:5 3:15 1:5 2:10 3:15 2:5 3:25
1:0 3:5 1:5 2:5 3:15 1:5 2:10 3:15 2:5 3:25 2:5
3:0 1:5 2:5 3:15 1:5 2:10 3:15 2:5 3:25 2:5 1:15
1:0 2:5 3:15 1:5 2:10 3:15 2:5 3:25 2:5 1:15 2:5
2:0 3:15 1:5 2:10 3:15 2:5 3:25 2:5 1:15 2:5 1:5
3:0 1:5 2:10 3:15 2:5 3:25 2:5 1:15 2:5 1:5 3:5
1:0 2:10 3:15 2:5 3:25 2:5 1:15 2:5 1:5 3:5 2:5
2:0 3:15 2:5 3:25 2:5 1:15 2:5 1:5 3:5 2:5 3:10
3:0 2:5 3:25 2:5 1:15 2:5 1:5 3:5 2:5 3:10 2:5
2:0 3:25 2:5 1:15 2:5 1:5 3:5 2:5 3:10 2:5 3:5
3:0 2:5 1:15 2:5 1:5 3:5 2:5 3:10 2:5 3:5 2:5
2:0 1:15 2:5 1:5 3:5 2:5 3:10 2:5 3:5 2:5 3:5
1:0 2:5 1:5 3:5 2:5 3:10 2:5 3:5 2:5 3:5 2:5
2:0 1:5 3:5 2:5 3:10 2:5 3:5 2:5 3:5 2:5 1:45
1:0 3:5 2:5 3:10 2:5 3:5 2:5 3:5 2:5 1:45 2:5
3:0 2:5 3:10 2:5 3:5 2:5 3:5 2:5 1:45 2:5 1:35
2:0 3:10 2:5 3:5 2:5 3:5 2:5 1:45 2:5 1:35 3:5
3:0 2:5 3:5 2:5 3:5 2:5 1:45 2:5 1:35 3:5 1:5
2:0 3:5 2:5 3:5 2:5 1:45 2:5 1:35 3:5 1:5 2:5
3:0 2:5 3:5 2:5 1:45 2:5 1:35 3:5 1:5 2:5 3:5
2:0 3:5 2:5 1:45 2:5 1:35 3:5 1:5 2:5 3:5 2:5
3:0 2:5 1:45 2:5 1:35 3:5 1:5 2:5 3:5 2:5 3:10
2:0 1:45 2:5 1:35 3:5 1:5 2:5 3:5 2:5 3:10 1:5
1:0 2:5 1:35 3:5 1:5 2:5 3:5 2:5 3:10 1:5 3:5
2:0 1:35 3:5 1:5 2:5 3:5 2:5 3:10 1:5 3:5 1:5
1:0 3:5 1:5 2:5 3:5 2:5 3:10 1:5 3:5 1:5 3:5
3:0 1:5 2:5 3:5 2:5 3:10 1:5 3:5 1:5 3:5 2:5
1:0 2:5 3:5 2:5 3:10 1:5 3:5 1:5 3:5 2:5 3:20
2:0 3:5 2:5 3:10 1:5 3:5 1:5 3:5 2:5 3:20 1:5
3:0 2:5 3:10 1:5 3:5 1:5 3:5 2:5 3:20 1:5 2:5
2:0 3:10 1:5 3:5 1:5 3:5 2:5 3:20 1:5 2:5 3:10
3:0 1:5 3:5 1:5 3:5 2:5 3:20 1:5 2:5 3:10 2:5
1:0 3:5 1:5 3:5 2:5 3:20 1:5 2:5 3:10 2:5 1:5
3:0 1:5 3:5 2:5 3:20 1:5 2:5 3:10 2:5 1:5 3:5
1:0 3:5 2:5 3:20 1:5 2:5 3:10 2:5 1:5 3:5 1:5
3:0 2:5 3:20 1:5 2:5 3:10 2:5 1:5 3:5 1:5 2:5
2:0 3:20 1:5 2:5 3:10 2:5 1:5 3:5 1:5 2:5 3:30
3:0 1:5 2:5 3:10 2:5 1:5 3:5 1:5 2:5 3:30 1:5
1:0 2:5 3:10 2:5 1:5 3:5 1:5 2:5 3:30 1:5 3:5
2:0 3:10 2:5 1:5 3:5 1:5 2:5 3:30 1:5 3:5 1:5
3:0 2:5 1:5 3:5 1:5 2:5 3:30 1:5 3:5 1:5 2:5
2:0 1:5 3:5 1:5 2:5 3:30 1:5 3:5 1:5 2:5 3:30
1:0 3:5 1:5 2:5 3:30 1:5 3:5 1:5 2:5 3:30 2:5
3:0 1:5 2:5 3:30 1:5 3:5 1:5 2:5 3:30 2:5 1:10
1:0 2:5 3:30 1:5 3:5 1:5 2:5 3:30 2:5 1:10 3:5
2:0 3:30 1:5 3:5 1:5 2:5 3:30 2:5 1:10 3:5 2:5
3:0 1:5 3:5 1:5 2:5 3:30 2:5 1:10 3:5 2:5 3:5
1:0 3:5 1:5 2:5 3:30 2:5 1:10 3:5 2:5 3:5 2:5
3:0 1:5 2:5 3:30 2:5 1:10 3:5 2:5 3:5 2:5 3:20
1:0 2:5 3:30 2:5 1:10 3:5 2:5 3:5 2:5 3:20 2:5
2:0 3:30 2:5 1:10 3:5 2:5 3:5 2:5 3:20 2:5 1:15
3:0 2:5 1:10 3:5 2:5 3:5 2:5 3:20 2:5 1:15 3:5
2:0 1:10 3:5 2:5 3:5 2:5 3:20 2:5 1:15 3:5 2:5
1:0 3:5 2:5 3:5 2:5 3:20 2:5 1:15 3:5 2:5 1:55
3:0 2:5 3:5 2:5 3:20 2:5 1:15 3:5 2:5 1:55 3:5
2:0 3:5 2:5 3:20 2:5 1:15 3:5 2:5 1:55 3:5 2:5
3:0 2:5 3:20 2:5 1:15 3:5 2:5 1:55 3:5 2:5 1:5
2:0 3:20 2:5 1:15 3:5 2:5 1:55 3:5 2:5 1:5 2:5
3:0 2:5 1:15 3:5 2:5 1:55 3:5 2:5 1:5 2:5 3:5
2:0 1:15 3:5 2:5 1:55 3:5 2:5 1:5 2:5 3:5 1:5
1:0 3:5 2:5 1:55 3:5 2:5 1:5 2:5 3:5 1:5 3:5
3:0 2:5 1:55 3:5 2:5 1:5 2:5 3:5 1:5 3:5 2:5
2:0 1:55 3:5 2:5 1:5 2:5 3:5 1:5 3:5 2:5 3:15
1:0 3:5 2:5 1:5 2:5 3:5 1:5 3:5 2:5 3:15 2:5
3:0 2:5 1:5 2:5 3:5 1:5 3:5 2:5 3:15 2:5 1:5
2:0 1:5 2:5 3:5 1:5 3:5 2:5 3:15 2:5 1:5 2:5
1:0 2:5 3:5 1:5 3:5 2:5 3:15 2:5 1:5 2:5 3:5
2:0 3:5 1:5 3:5 2:5 3:15 2:5 1:5 2:5 3:5 2:5
3:0 1:5 3:5 2:5 3:15 2:5 1:5 2:5 3:5 2:5 1:10
1:0 3:5 2:5 3:15 2:5 1:5 2:5 3:5 2:5 1:10 2:5
3:0 2:5 3:15 2:5 1:5 2:5 3:5 2:5 1:10 2:5 1:5
2:0 3:15 2:5 1:5 2:5 3:5 2:5 1:10 2:5 1:5 2:5
3:0 2:5 1:5 2:5 3:5 2:5 1:10 2:5 1:5 2:5 1:10
2:0 1:5 2:5 3:5 2:5 1:10 2:5 1:5 2:5 1:10 2:5
1:0 2:5 3:5 2:5 1:10 2:5 1:5 2:5 1:10 2:5 3:10
2:0 3:5 2:5 1:10 2:5 1:5 2:5 1:10 2:5 3:10 1:5
3:0 2:5 1:10 2:5 1:5 2:5 1:10 2:5 3:10 1:5 2:5
2:0 1:10 2:5 1:5 2:5 1:10 2:5 3:10 1:5 2:5 1:20
1:0 2:5 1:5 2:5 1:10 2:5 3:10 1:5 2:5 1:20 2:5
2:0 1:5 2:5 1:10 2:5 3:10 1:5 2:5 1:20 2:5 1:10
1:0 2:5 1:10 2:5 3:10 1:5 2:5 1:20 2:5 1:10 2:5
2:0 1:10 2:5 3:10 1:5 2:5 1:20 2:5 1:10 2:5 3:35
1:0 2:5 3:10 1:5 2:5 1:20 2:5 1:10 2:5 3:35 2:5
2:0 3:10 1:5 2:5 1:20 2:5 1:10 2:5 3:35 2:5 1:10
3:0 1:5 2:5 1:20 2:5 1:10 2:5 3:35 2:5 1:10 2:5
1:0 2:5 1:20 2:5 1:10 2:5 3:35 2:5 1:10 2:5 3:15
2:0 1:20 2:5 1:10 2:5 3:35 2:5 1:10 2:5 3:15 1:5
1:0 2:5 1:10 2:5 3:35 2:5 1:10 2:5 3:15 1:5 2:10
2:0 1:10 2:5 3:35 2:5 1:10 2:5 3:15 1:5 2:10 3:10
1:0 2:5 3:35 2:5 1:10 2:5 3:15 1:5 2:10 3:10 1:5
2:0 3:35 2:5 1:10 2:5 3:15 1:5 2:10 3:10 1:5 2:5
3:0 2:5 1:10 2:5 3:15 1:5 2:10 3:10 1:5 2:5 3:55
2:0 1:10 2:5 3:15 1:5 2:10 3:10 1:5 2:5 3:55 1:10
1:0 2:5 3:15 1:5 2:10 3:10 1:5 2:5 3:55 1:10 2:5
2:0 3:15 1:5 2:10 3:10 1:5 2:5 3:55 1:10 2:5 3:5
3:0 1:5 2:10 3:10 1:5 2:5 3:55 1:10 2:5 3:5 2:5
1:0 2:10 3:10 1:5 2:5 3:55 1:10 2:5 3:5 2:5 3:5
2:0 3:10 1:5 2:5 3:55 1:10 2:5 3:5 2:5 3:5 1:5
3:0 1:5 2:5 3:55 1:10 2:5 3:5 2:5 3:5 1:5 2:5
1:0 2:5 3:55 1:10 2:5 3:5 2:5 3:5 1:5 2:5 3:15
2:0 3:55 1:10 2:5 3:5 2:5 3:5 1:5 2:5 3:15 1:5
3:0 1:10 2:5 3:5 2:5 3:5 1:5 2:5 3:15 1:5 2:5
1:0 2:5 3:5 2:5 3:5 1:5 2:5 3:15 1:5 2:5 1:35
2:0 3:5 2:5 3:5 1:5 2:5 3:15 1:5 2:5 1:35 2:5
3:0 2:5 3:5 1:5 2:5 3:15 1:5 2:5 1:35 2:5 1:5
2:0 3:5 1:5 2:5 3:15 1:5 2:5 1:35 2:5 1:5 2:5
3:0 1:5 2:5 3:15 1:5 2:5 1:35 2:5 1:5 2:5 3:25
1:0 2:5 3:15 1:5 2:5 1:35 2:5 1:5 2:5 3:25 1:5
2:0 3:15 1:5 2:5 1:35 2:5 1:5 2:5 3:25 1:5 2:5
3:0 1:5 2:5 1:35 2:5 1:5 2:5 3:25 1:5 2:5 1:10
1:0 2:5 1:35 2:5 1:5 2:5 3:25 1:5 2:5 1:10 3:5
2:0 1:35 2:5 1:5 2:5 3:25 1:5 2:5 1:10 3:5 1:5
1:0 2:5 1:5 2:5 3:25 1:5 2:5 1:10 3:5 1:5 3:5
2:0 1:5 2:5 3:25 1:5 2:5 1:10 3:5 1:5 3:5 2:5
1:0 2:5 3:25 1:5 2:5 1:10 3:5 1:5 3:5 2:5 3:10
2:0 3:25 1:5 2:5 1:10 3:5 1:5 3:5 2:5 3:10 1:5
3:0 1:5 2:5 1:10 3:5 1:5 3:5 2:5 3:10 1:5 3:5
1:0 2:5 1:10 3:5 1:5 3:5 2:5 3:10 1:5 3:5 1:5
2:0 1:10 3:5 1:5 3:5 2:5 3:10 1:5 3:5 1:5 2:5
1:0 3:5 1:5 3:5 2:5 3:10 1:5 3:5 1:5 2:5 3:45
3:0 1:5 3:5 2:5 3:10 1:5 3:5 1:5 2:5 3:45 2:5
1:0 3:5 2:5 3:10 1:5 3:5 1:5 2:5 3:45 2:5 1:20
3:0 2:5 3:10 1:5 3:5 1:5 2:5 3:45 2:5 1:20 2:5
2:0 3:10 1:5 3:5 1:5 2:5 3:45 2:5 1:20 2:5 3:10
3:0 1:5 3:5 1:5 2:5 3:45 2:5 1:20 2:5 3:10 2:5
1:0 3:5 1:5 2:5 3:45 2:5 1:20 2:5 3:10 2:5 1:15
3:0 1:5 2:5 3:45 2:5 1:20 2:5 3:10 2:5 1:15 3:5
1:0 2:5 3:45 2:5 1:20 2:5 3:10 2:5 1:15 3:5 2:5
2:0 3:45 2:5 1:20 2:5 3:10 2:5 1:15 3:5 2:5 1:50
3:0 2:5 1:20 2:5 3:10 2:5 1:15 3:5 2:5 1:50 3:5
2:0 1:20 2:5 3:10 2:5 1:15 3:5 2:5 1:50 3:5 1:5
1:0 2:5 3:10 2:5 1:15 3:5 2:5 1:50 3:5 1:5 3:5
2:0 3:10 2:5 1:15 3:5 2:5 1:50 3:5 1:5 3:5 2:5
3:0 2:5 1:15 3:5 2:5 1:50 3:5 1:5 3:5 2:5 3:5
2:0 1:15 3:5 2:5 1:50 3:5 1:5 3:5 2:5 3:5 1:5
1:0 3:5 2:5 1:50 3:5 1:5 3:5 2:5 3:5 1:5 2:5
3:0 2:5 1:50 3:5 1:5 3:5 2:5 3:5 1:5 2:5 1:20
2:0 1:50 3:5 1:5 3:5 2:5 3:5 1:5 2:5 1:20 2:5
1:0 3:5 1:5 3:5 2:5 3:5 1:5 2:5 1:20 2:5 3:5
3:0 1:5 3:5 2:5 3:5 1:5 2:5 1:20 2:5 3:5 2:5
1:0 3:5 2:5 3:5 1:5 2:5 1:20 2:5 3:5 2:5 3:10
3:0 2:5 3:5 1:5 2:5 1:20 2:5 3:5 2:5 3:10 2:5
2:0 3:5 1:5 2:5 1:20 2:5 3:5 2:5 3:10 2:5 1:10
3:0 1:5 2:5 1:20 2:5 3:5 2:5 3:10 2:5 1:10 2:5
1:0 2:5 1:20 2:5 3:5 2:5 3:10 2:5 1:10 2:5 1:20
2:0 1:20 2:5 3:5 2:5 3:10 2:5 1:10 2:5 1:20 2:5
1:0 2:5 3:5 2:5 3:10 2:5 1:10 2:5 1:20 2:5 1:15
2:0 3:5 2:5 3:10 2:5 1:10 2:5 1:20 2:5 1:15 2:5
3:0 2:5 3:10 2:5 1:10 2:5 1:20 2:5 1:15 2:5 1:5
2:0 3:10 2:5 1:10 2:5 1:20 2:5 1:15 2:5 1:5 2:5
3:0 2:5 1:10 2:5 1:20 2:5 1:15 2:5 1:5 2:5 3:30
2:0 1:10 2:5 1:20 2:5 1:15 2:5 1:5 2:5 3:30 1:5
1:0 2:5 1:20 2:5 1:15 2:5 1:5 2:5 3:30 1:5 2:5
2:0 1:20 2:5 1:15 2:5 1:5 2:5 3:30 1:5 2:5 3:60
1:0 2:5 1:15 2:5 1:5 2:5 3:30 1:5 2:5 3:60 2:5
2:0 1:15 2:5 1:5 2:5 3:30 1:5 2:5 3:60 2:5 1:5
1:0 2:5 1:5 2:5 3:30 1:5 2:5 3:60 2:5 1:5 2:5
2:0 1:5 2:5 3:30 1:5 2:5 3:60 2:5 1:5 2:5 1:25
1:0 2:5 3:30 1:5 2:5 3:60 2:5 1:5 2:5 1:25 2:5
2:0 3:30 1:5 2:5 3:60 2:5 1:5 2:5 1:25 2:5 1:20
3:0 1:5 2:5 3:60 2:5 1:5 2:5 1:25 2:5 1:20 2:5
1:0 2:5 3:60 2:5 1:5 2:5 1:25 2:5 1:20 2:5 3:5
2:0 3:60 2:5 1:5 2:5 1:25 2:5 1:20 2:5 3:5 1:5
3:0 2:5 1:5 2:5 1:25 2:5 1:20 2:5 3:5 1:5 3:5
2:0 1:5 2:5 1:25 2:5 1:20 2:5 3:5 1:5 3:5 1:5
1:0 2:5 1:25 2:5 1:20 2:5 3:5 1:5 3:5 1:5 2:5
2:0 1:25 2:5 1:20 2:5 3:5 1:5 3:5 1:5 2:5 3:15
1:0 2:5 1:20 2:5 3:5 1:5 3:5 1:5 2:5 3:15 1:5
2:0 1:20 2:5 3:5 1:5 3:5 1:5 2:5 3:15 1:5 3:5
1:0 2:5 3:5 1:5 3:5 1:5 2:5 3:15 1:5 3:5 2:5
2:0 3:5 1:5 3:5 1:5 2:5 3:15 1:5 3:5 2:5 1:5
3:0 1:5 3:5 1:5 2:5 3:15 1:5 3:5 2:5 1:5 3:5
1:0 3:5 1:5 2:5 3:15 1:5 3:5 2:5 1:5 3:5 2:5
3:0 1:5 2:5 3:15 1:5 3:5 2:5 1:5 3:5 2:5 3:5
1:0 2:5 3:15 1:5 3:5 2:5 1:5 3:5 2:5 3:5 1:5
2:0 3:15 1:5 3:5 2:5 1:5 3:5 2:5 3:5 1:5 2:5
3:0 1:5 3:5 2:5 1:5 3:5 2:5 3:5 1:5 2:5 1:20
1:0 3:5 2:5 1:5 3:5 2:5 3:5 1:5 2:5 1:20 2:5
3:0 2:5 1:5 3:5 2:5 3:5 1:5 2:5 1:20 2:5 3:15
2:0 1:5 3:5 2:5 3:5 1:5 2:5 1:20 2:5 3:15 2:5
1:0 3:5 2:5 3:5 1:5 2:5 1:20 2:5 3:15 2:5 1:15
3:0 2:5 3:5 1:5 2:5 1:20 2:5 3:15 2:5 1:15 2:5
2:0 3:5 1:5 2:5 1:20 2:5 3:15 2:5 1:15 2:5 3:10
3:0 1:5 2:5 1:20 2:5 3:15 2:5 1:15 2:5 3:10 1:5
1:0 2:5 1:20 2:5 3:15 2:5 1:15 2:5 3:10 1:5 2:5
2:0 1:20 2:5 3:15 2:5 1:15 2:5 3:10 1:5 2:5 3:15
1:0 2:5 3:15 2:5 1:15 2:5 3:10 1:5 2:5 3:15 2:5
2:0 3:15 2:5 1:15 2:5 3:10 1:5 2:5 3:15 2:5 3:5
3:0 2:5 1:15 2:5 3:10 1:5 2:5 3:15 2:5 3:5 2:5
2:0 1:15 2:5 3:10 1:5 2:5 3:15 2:5 3:5 2:5 3:20
1:0 2:5 3:10 1:5 2:5 3:15 2:5 3:5 2:5 3:20 2:5
2:0 3:10 1:5 2:5 3:15 2:5 3:5 2:5 3:20 2:5 1:5
3:0 1:5 2:5 3:15 2:5 3:5 2:5 3:20 2:5 1:5 3:5
1:0 2:5 3:15 2:5 3:5 2:5 3:20 2:5 1:5 3:5 2:5
2:0 3:15 2:5 3:5 2:5 3:20 2:5 1:5 3:5 2:5 3:15
3:0 2:5 3:5 2:5 3:20 2:5 1:5 3:5 2:5 3:15 1:5
2:0 3:5 2:5 3:20 2:5 1:5 3:5 2:5 3:15 1:5 2:5
3:0 2:5 3:20 2:5 1:5 3:5 2:5 3:15 1:5 2:5 3:5
2:0 3:20 2:5 1:5 3:5 2:5 3:15 1:5 2:5 3:5 2:5
3:0 2:5 1:5 3:5 2:5 3:15 1:5 2:5 3:5 2:5 1:25
2:0 1:5 3:5 2:5 3:15 1:5 2:5 3:5 2:5 1:25 2:5
1:0 3:5 2:5 3:15 1:5 2:5 3:5 2:5 1:25 2:5 1:15
3:0 2:5 3:15 1:5 2:5 3:5 2:5 1:25 2:5 1:15 2:5
2:0 3:15 1:5 2:5 3:5 2:5 1:25 2:5 1:15 2:5 3:15
3:0 1:5 2:5 3:5 2:5 1:25 2:5 1:15 2:5 3:15 2:5
1:0 2:5 3:5 2:5 1:25 2:5 1:15 2:5 3:15 2:5 3:30
2:0 3:5 2:5 1:25 2:5 1:15 2:5 3:15 2:5 3:30 2:5
3:0 2:5 1:25 2:5 1:15 2:5 3:15 2:5 3:30 2:5 3:20
2:0 1:25 2:5 1:15 2:5 3:15 2:5 3:30 2:5 3:20 2:5
1:0 2:5 1:15 2:5 3:15 2:5 3:30 2:5 3:20 2:5 3:5
2:0 1:15 2:5 3:15 2:5 3:30 2:5 3:20 2:5 3:5 2:5
1:0 2:5 3:15 2:5 3:30 2:5 3:20 2:5 3:5 2:5 1:5
2:0 3:15 2:5 3:30 2:5 3:20 2:5 3:5 2:5 1:5 2:5
3:0 2:5 3:30 2:5 3:20 2:5 3:5 2:5 1:5 2:5 3:10
2:0 3:30 2:5 3:20 2:5 3:5 2:5 1:5 2:5 3:10 1:5
3:0 2:5 3:20 2:5 3:5 2:5 1:5 2:5 3:10 1:5 2:5
2:0 3:20 2:5 3:5 2:5 1:5 2:5 3:10 1:5 2:5 1:5
3:0 2:5 3:5 2:5 1:5 2:5 3:10 1:5 2:5 1:5 2:5
2:0 3:5 2:5 1:5 2:5 3:10 1:5 2:5 1:5 2:5 1:10
3:0 2:5 1:5 2:5 3:10 1:5 2:5 1:5 2:5 1:10 2:5
2:0 1:5 2:5 3:10 1:5 2:5 1:5 2:5 1:10 2:5 1:40
1:0 2:5 3:10 1:5 2:5 1:5 2:5 1:10 2:5 1:40 2:5
2:0 3:10 1:5 2:5 1:5 2:5 1:10 2:5 1:40 2:5 3:5
3:0 1:5 2:5 1:5 2:5 1:10 2:5 1:40 2:5 3:5 2:5
1:0 2:5 1:5 2:5 1:10 2:5 1:40 2:5 3:5 2:5 3:10
2:0 1:5 2:5 1:10 2:5 1:40 2:5 3:5 2:5 3:10 2:5
1:0 2:5 1:10 2:5 1:40 2:5 3:5 2:5 3:10 2:5 3:5
2:0 1:10 2:5 1:40 2:5 3:5 2:5 3:10 2:5 3:5 1:5
1:0 2:5 1:40 2:5 3:5 2:5 3:10 2:5 3:5 1:5 2:5
2:0 1:40 2:5 3:5 2:5 3:10 2:5 3:5 1:5 2:5 3:10
1:0 2:5 3:5 2:5 3:10 2:5 3:5 1:5 2:5 3:10 2:5
2:0 3:5 2:5 3:10 2:5 3:5 1:5 2:5 3:10 2:5 3:10
3:0 2:5 3:10 2:5 3:5 1:5 2:5 3:10 2:5 3:10 1:5
2:0 3:10 2:5 3:5 1:5 2:5 3:10 2:5 3:10 1:5 2:5
3:0 2:5 3:5 1:5 2:5 3:10 2:5 3:10 1:5 2:5 3:15
2:0 3:5 1:5 2:5 3:10 2:5 3:10 1:5 2:5 3:15 2:5
3:0 1:5 2:5 3:10 2:5 3:10 1:5 2:5 3:15 2:5 3:10
1:0 2:5 3:10 2:5 3:10 1:5 2:5 3:15 2:5 3:10 1:5
2:0 3:10 2:5 3:10 1:5 2:5 3:15 2:5 3:10 1:5 2:5
3:0 2:5 3:10 1:5 2:5 3:15 2:5 3:10 1:5 2:5 1:10
2:0 3:10 1:5 2:5 3:15 2:5 3:10 1:5 2:5 1:10 2:5
3:0 1:5 2:5 3:15 2:5 3:10 1:5 2:5 1:10 2:5 1:10
1:0 2:5 3:15 2:5 3:10 1:5 2:5 1:10 2:5 1:10 2:5
2:0 3:15 2:5 3:10 1:5 2:5 1:10 2:5 1:10 2:5 3:15
3:0 2:5 3:10 1:5 2:5 1:10 2:5 1:10 2:5 3:15 1:5
2:0 3:10 1:5 2:5 1:10 2:5 1:10 2:5 3:15 1:5 2:10
3:0 1:5 2:5 1:10 2:5 1:10 2:5 3:15 1:5 2:10 3:10
1:0 2:5 1:10 2:5 1:10 2:5 3:15 1:5 2:10 3:10 1:5
2:0 1:10 2:5 1:10 2:5 3:15 1:5 2:10 3:10 1:5 2:5
1:0 2:5 1:10 2:5 3:15 1:5 2:10 3:10 1:5 2:5 3:5
2:0 1:10 2:5 3:15 1:5 2:10 3:10 1:5 2:5 3:5 1:5
1:0 2:5 3:15 1:5 2:10 3:10 1:5 2:5 3:5 1:5 2:5
2:0 3:15 1:5 2:10 3:10 1:5 2:5 3:5 1:5 2:5 1:15
3:0 1:5 2:10 3:10 1:5 2:5 3:5 1:5 2:5 1:15 2:5
1:0 2:10 3:10 1:5 2:5 3:5 1:5 2:5 1:15 2:5 1:30
2:0 3:10 1:5 2:5 3:5 1:5 2:5 1:15 2:5 1:30 3:10
3:0 1:5 2:5 3:5 1:5 2:5 1:15 2:5 1:30 3:10 2:5
1:0 2:5 3:5 1:5 2:5 1:15 2:5 1:30 3:10 2:5 3:15
2:0 3:5 1:5 2:5 1:15 2:5 1:30 3:10 2:5 3:15 2:5
3:0 1:5 2:5 1:15 2:5 1:30 3:10 2:5 3:15 2:5 3:20
1:0 2:5 1:15 2:5 1:30 3:10 2:5 3:15 2:5 3:20 2:5
2:0 1:15 2:5 1:30 3:10 2:5 3:15 2:5 3:20 2:5 1:15
1:0 2:5 1:30 3:10 2:5 3:15 2:5 3:20 2:5 1:15 2:5
2:0 1:30 3:10 2:5 3:15 2:5 3:20 2:5 1:15 2:5 1:20
1:0 3:10 2:5 3:15 2:5 3:20 2:5 1:15 2:5 1:20 3:5
3:0 2:5 3:15 2:5 3:20 2:5 1:15 2:5 1:20 3:5 1:5
2:0 3:15 2:5 3:20 2:5 1:15 2:5 1:20 3:5 1:5 2:5
3:0 2:5 3:20 2:5 1:15 2:5 1:20 3:5 1:5 2:5 1:5
2:0 3:20 2:5 1:15 2:5 1:20 3:5 1:5 2:5 1:5 2:5
3:0 2:5 1:15 2:5 1:20 3:5 1:5 2:5 1:5 2:5 3:15
2:0 1:15 2:5 1:20 3:5 1:5 2:5 1:5 2:5 3:15 1:5
1:0 2:5 1:20 3:5 1:5 2:5 1:5 2:5 3:15 1:5 2:5
2:0 1:20 3:5 1:5 2:5 1:5 2:5 3:15 1:5 2:5 3:15
1:0 3:5 1:5 2:5 1:5 2:5 3:15 1:5 2:5 3:15 2:5
3:0 1:5 2:5 1:5 2:5 3:15 1:5 2:5 3:15 2:5 3:10
1:0 2:5 1:5 2:5 3:15 1:5 2:5 3:15 2:5 3:10 1:5
2:0 1:5 2:5 3:15 1:5 2:5 3:15 2:5 3:10 1:5 3:5
1:0 2:5 3:15 1:5 2:5 3:15 2:5 3:10 1:5 3:5 1:5
2:0 3:15 1:5 2:5 3:15 2:5 3:10 1:5 3:5 1:5 3:5
3:0 1:5 2:5 3:15 2:5 3:10 1:5 3:5 1:5 3:5 1:5
1:0 2:5 3:15 2:5 3:10 1:5 3:5 1:5 3:5 1:5 2:5
2:0 3:15 2:5 3:10 1:5 3:5 1:5 3:5 1:5 2:5 1:40
3:0 2:5 3:10 1:5 3:5 1:5 3:5 1:5 2:5 1:40 2:5
2:0 3:10 1:5 3:5 1:5 3:5 1:5 2:5 1:40 2:5 1:10
3:0 1:5 3:5 1:5 3:5 1:5 2:5 1:40 2:5 1:10 2:5
1:0 3:5 1:5 3:5 1:5 2:5 1:40 2:5 1:10 2:5 3:5
3:0 1:5 3:5 1:5 2:5 1:40 2:5 1:10 2:5 3:5 1:5
1:0 3:5 1:5 2:5 1:40 2:5 1:10 2:5 3:5 1:5 3:5
3:0 1:5 2:5 1:40 2:5 1:10 2:5 3:5 1:5 3:5 2:5
1:0 2:5 1:40 2:5 1:10 2:5 3:5 1:5 3:5 2:5 3:5
2:0 1:40 2:5 1:10 2:5 3:5 1:5 3:5 2:5 3:5 2:5
1:0 2:5 1:10 2:5 3:5 1:5 3:5 2:5 3:5 2:5 3:10
2:0 1:10 2:5 3:5 1:5 3:5 2:5 3:5 2:5 3:10 2:5
1:0 2:5 3:5 1:5 3:5 2:5 3:5 2:5 3:10 2:5 1:5
2:0 3:5 1:5 3:5 2:5 3:5 2:5 3:10 2:5 1:5 2:5
3:0 1:5 3:5 2:5 3:5 2:5 3:10 2:5 1:5 2:5 1:15
1:0 3:5 2:5 3:5 2:5 3:10 2:5 1:5 2:5 1:15 2:5
3:0 2:5 3:5 2:5 3:10 2:5 1:5 2:5 1:15 2:5 1:30
2:0 3:5 2:5 3:10 2:5 1:5 2:5 1:15 2:5 1:30 2:5
3:0 2:5 3:10 2:5 1:5 2:5 1:15 2:5 1:30 2:5 1:5
2:0 3:10 2:5 1:5 2:5 1:15 2:5 1:30 2:5 1:5 2:5
3:0 2:5 1:5 2:5 1:15 2:5 1:30 2:5 1:5 2:5 1:5
2:0 1:5 2:5 1:15 2:5 1:30 2:5 1:5 2:5 1:5 2:5
1:0 2:5 1:15 2:5 1:30 2:5 1:5 2:5 1:5 2:5 1:20
2:0 1:15 2:5 1:30 2:5 1:5 2:5 1:5 2:5 1:20 2:5
1:0 2:5 1:30 2:5 1:5 2:5 1:5 2:5 1:20 2:5 3:5
2:0 1:30 2:5 1:5 2:5 1:5 2:5 1:20 2:5 3:5 2:5
1:0 2:5 1:5 2:5 1:5 2:5 1:20 2:5 3:5 2:5 3:10
2:0 1:5 2:5 1:5 2:5 1:20 2:5 3:5 2:5 3:10 2:5
1:0 2:5 1:5 2:5 1:20 2:5 3:5 2:5 3:10 2:5 3:5
2:0 1:5 2:5 1:20 2:5 3:5 2:5 3:10 2:5 3:5 2:5
1:0 2:5 1:20 2:5 3:5 2:5 3:10 2:5 3:5 2:5 3:5
2:0 1:20 2:5 3:5 2:5 3:10 2:5 3:5 2:5 3:5 2:5
1:0 2:5 3:5 2:5 3:10 2:5 3:5 2:5 3:5 2:5 1:15
2:0 3:5 2:5 3:10 2:5 3:5 2:5 3:5 2:5 1:15 2:5
3:0 2:5 3:10 2:5 3:5 2:5 3:5 2:5 1:15 2:5 3:10
2:0 3:10 2:5 3:5 2:5 3:5 2:5 1:15 2:5 3:10 1:5
3:0 2:5 3:5 2:5 3:5 2:5 1:15 2:5 3:10 1:5 3:10
2:0 3:5 2:5 3:5 2:5 1:15 2:5 3:10 1:5 3:10 1:5
3:0 2:5 3:5 2:5 1:15 2:5 3:10 1:5 3:10 1:5 3:5
2:0 3:5 2:5 1:15 2:5 3:10 1:5 3:10 1:5 3:5 2:5
3:0 2:5 1:15 2:5 3:10 1:5 3:10 1:5 3:5 2:5 1:25
2:0 1:15 2:5 3:10 1:5 3:10 1:5 3:5 2:5 1:25 2:5
1:0 2:5 3:10 1:5 3:10 1:5 3:5 2:5 1:25 2:5 1:5
2:0 3:10 1:5 3:10 1:5 3:5 2:5 1:25 2:5 1:5 2:5
3:0 1:5 3:10 1:5 3:5 2:5 1:25 2:5 1:5 2:5 1:30
1:0 3:10 1:5 3:5 2:5 1:25 2:5 1:5 2:5 1:30 2:5
3:0 1:5 3:5 2:5 1:25 2:5 1:5 2:5 1:30 2:5 3:5
1:0 3:5 2:5 1:25 2:5 1:5 2:5 1:30 2:5 3:5 2:5
3:0 2:5 1:25 2:5 1:5 2:5 1:30 2:5 3:5 2:5 3:5
2:0 1:25 2:5 1:5 2:5 1:30 2:5 3:5 2:5 3:5 1:5
1:0 2:5 1:5 2:5 1:30 2:5 3:5 2:5 3:5 1:5 2:5
2:0 1:5 2:5 1:30 2:5 3:5 2:5 3:5 1:5 2:5 3:5
1:0 2:5 1:30 2:5 3:5 2:5 3:5 1:5 2:5 3:5 1:5
2:0 1:30 2:5 3:5 2:5 3:5 1:5 2:5 3:5 1:5 3:5
1:0 2:5 3:5 2:5 3:5 1:5 2:5 3:5 1:5 3:5 2:5
2:0 3:5 2:5 3:5 1:5 2:5 3:5 1:5 3:5 2:5 1:5
3:0 2:5 3:5 1:5 2:5 3:5 1:5 3:5 2:5 1:5 2:5
2:0 3:5 1:5 2:5 3:5 1:5 3:5 2:5 1:5 2:5 3:35
3:0 1:5 2:5 3:5 1:5 3:5 2:5 1:5 2:5 3:35 1:5
1:0 2:5 3:5 1:5 3:5 2:5 1:5 2:5 3:35 1:5 2:5
2:0 3:5 1:5 3:5 2:5 1:5 2:5 3:35 1:5 2:5 1:25
3:0 1:5 3:5 2:5 1:5 2:5 3:35 1:5 2:5 1:25 2:5
1:0 3:5 2:5 1:5 2:5 3:35 1:5 2:5 1:25 2:5 3:20
3:0 2:5 1:5 2:5 3:35 1:5 2:5 1:25 2:5 3:20 1:5
2:0 1:5 2:5 3:35 1:5 2:5 1:25 2:5 3:20 1:5 3:5
1:0 2:5 3:35 1:5 2:5 1:25 2:5 3:20 1:5 3:5 1:5
2:0 3:35 1:5 2:5 1:25 2:5 3:20 1:5 3:5 1:5 2:5
3:0 1:5 2:5 1:25 2:5 3:20 1:5 3:5 1:5 2:5 3:25
1:0 2:5 1:25 2:5 3:20 1:5 3:5 1:5 2:5 3:25 2:5
2:0 1:25 2:5 3:20 1:5 3:5 1:5 2:5 3:25 2:5 1:45
1:0 2:5 3:20 1:5 3:5 1:5 2:5 3:25 2:5 1:45 2:5
2:0 3:20 1:5 3:5 1:5 2:5 3:25 2:5 1:45 2:5 3:5
3:0 1:5 3:5 1:5 2:5 3:25 2:5 1:45 2:5 3:5 1:5
1:0 3:5 1:5 2:5 3:25 2:5 1:45 2:5 3:5 1:5 2:5
3:0 1:5 2:5 3:25 2:5 1:45 2:5 3:5 1:5 2:5 3:15
1:0 2:5 3:25 2:5 1:45 2:5 3:5 1:5 2:5 3:15 2:5
2:0 3:25 2:5 1:45 2:5 3:5 1:5 2:5 3:15 2:5 3:20
3:0 2:5 1:45 2:5 3:5 1:5 2:5 3:15 2:5 3:20 2:5
2:0 1:45 2:5 3:5 1:5 2:5 3:15 2:5 3:20 2:5 3:30
1:0 2:5 3:5 1:5 2:5 3:15 2:5 3:20 2:5 3:30 2:5
2:0 3:5 1:5 2:5 3:15 2:5 3:20 2:5 3:30 2:5 1:40
3:0 1:5 2:5 3:15 2:5 3:20 2:5 3:30 2:5 1:40 2:5
1:0 2:5 3:15 2:5 3:20 2:5 3:30 2:5 1:40 2:5 1:50
2:0 3:15 2:5 3:20 2:5 3:30 2:5 1:40 2:5 1:50 2:5
3:0 2:5 3:20 2:5 3:30 2:5 1:40 2:5 1:50 2:5 1:5
2:0 3:20 2:5 3:30 2:5 1:40 2:5 1:50 2:5 1:5 2:5
3:0 2:5 3:30 2:5 1:40 2:5 1:50 2:5 1:5 2:5 1:10
2:0 3:30 2:5 1:40 2:5 1:50 2:5 1:5 2:5 1:10 2:5
3:0 2:5 1:40 2:5 1:50 2:5 1:5 2:5 1:10 2:5 1:30
2:0 1:40 2:5 1:50 2:5 1:5 2:5 1:10 2:5 1:30 3:5
1:0 2:5 1:50 2:5 1:5 2:5 1:10 2:5 1:30 3:5 2:5
2:0 1:50 2:5 1:5 2:5 1:10 2:5 1:30 3:5 2:5 3:10
1:0 2:5 1:5 2:5 1:10 2:5 1:30 3:5 2:5 3:10 2:5
2:0 1:5 2:5 1:10 2:5 1:30 3:5 2:5 3:10 2:5 1:50
1:0 2:5 1:10 2:5 1:30 3:5 2:5 3:10 2:5 1:50 3:5
2:0 1:10 2:5 1:30 3:5 2:5 3:10 2:5 1:50 3:5 1:5
1:0 2:5 1:30 3:5 2:5 3:10 2:5 1:50 3:5 1:5 2:5
2:0 1:30 3:5 2:5 3:10 2:5 1:50 3:5 1:5 2:5 3:10
1:0 3:5 2:5 3:10 2:5 1:50 3:5 1:5 2:5 3:10 2:5
3:0 2:5 3:10 2:5 1:50 3:5 1:5 2:5 3:10 2:5 3:10
2:0 3:10 2:5 1:50 3:5 1:5 2:5 3:10 2:5 3:10 1:5
3:0 2:5 1:50 3:5 1:5 2:5 3:10 2:5 3:10 1:5 2:5
2:0 1:50 3:5 1:5 2:5 3:10 2:5 3:10 1:5 2:5 3:15
1:0 3:5 1:5 2:5 3:10 2:5 3:10 1:5 2:5 3:15 2:5
3:0 1:5 2:5 3:10 2:5 3:10 1:5 2:5 3:15 2:5 3:20
1:0 2:5 3:10 2:5 3:10 1:5 2:5 3:15 2:5 3:20 2:5
2:0 3:10 2:5 3:10 1:5 2:5 3:15 2:5 3:20 2:5 1:10
3:0 2:5 3:10 1:5 2:5 3:15 2:5 3:20 2:5 1:10 2:5
2:0 3:10 1:5 2:5 3:15 2:5 3:20 2:5 1:10 2:5 3:50
3:0 1:5 2:5 3:15 2:5 3:20 2:5 1:10 2:5 3:50 2:5
1:0 2:5 3:15 2:5 3:20 2:5 1:10 2:5 3:50 2:5 1:15
2:0 3:15 2:5 3:20 2:5 1:10 2:5 3:50 2:5 1:15 2:5
3:0 2:5 3:20 2:5 1:10 2:5 3:50 2:5 1:15 2:5 1:5
2:0 3:20 2:5 1:10 2:5 3:50 2:5 1:15 2:5 1:5 2:5
3:0 2:5 1:10 2:5 3:50 2:5 1:15 2:5 1:5 2:5 3:15
2:0 1:10 2:5 3:50 2:5 1:15 2:5 1:5 2:5 3:15 1:5
1:0 2:5 3:50 2:5 1:15 2:5 1:5 2:5 3:15 1:5 3:5
2:0 3:50 2:5 1:15 2:5 1:5 2:5 3:15 1:5 3:5 2:5
3:0 2:5 1:15 2:5 1:5 2:5 3:15 1:5 3:5 2:5 3:80
2:0 1:15 2:5 1:5 2:5 3:15 1:5 3:5 2:5 3:80 2:5
1:0 2:5 1:5 2:5 3:15 1:5 3:5 2:5 3:80 2:5 1:5
2:0 1:5 2:5 3:15 1:5 3:5 2:5 3:80 2:5 1:5 2:5
1:0 2:5 3:15 1:5 3:5 2:5 3:80 2:5 1:5 2:5 3:10
2:0 3:15 1:5 3:5 2:5 3:80 2:5 1:5 2:5 3:10 2:5
3:0 1:5 3:5 2:5 3:80 2:5 1:5 2:5 3:10 2:5 1:15
1:0 3:5 2:5 3:80 2:5 1:5 2:5 3:10 2:5 1:15 3:5
3:0 2:5 3:80 2:5 1:5 2:5 3:10 2:5 1:15 3:5 2:5
2:0 3:80 2:5 1:5 2:5 3:10 2:5 1:15 3:5 2:5 3:25
3:0 2:5 1:5 2:5 3:10 2:5 1:15 3:5 2:5 3:25 2:5
2:0 1:5 2:5 3:10 2:5 1:15 3:5 2:5 3:25 2:5 1:20
1:0 2:5 3:10 2:5 1:15 3:5 2:5 3:25 2:5 1:20 2:5
2:0 3:10 2:5 1:15 3:5 2:5 3:25 2:5 1:20 2:5 3:10
3:0 2:5 1:15 3:5 2:5 3:25 2:5 1:20 2:5 3:10 2:5
2:0 1:15 3:5 2:5 3:25 2:5 1:20 2:5 3:10 2:5 1:10
1:0 3:5 2:5 3:25 2:5 1:20 2:5 3:10 2:5 1:10 2:5
3:0 2:5 3:25 2:5 1:20 2:5 3:10 2:5 1:10 2:5 3:65
2:0 3:25 2:5 1:20 2:5 3:10 2:5 1:10 2:5 3:65 1:5
3:0 2:5 1:20 2:5 3:10 2:5 1:10 2:5 3:65 1:5 2:5
2:0 1:20 2:5 3:10 2:5 1:10 2:5 3:65 1:5 2:5 1:10
1:0 2:5 3:10 2:5 1:10 2:5 3:65 1:5 2:5 1:10 2:5
2:0 3:10 2:5 1:10 2:5 3:65 1:5 2:5 1:10 2:5 1:10
3:0 2:5 1:10 2:5 3:65 1:5 2:5 1:10 2:5 1:10 2:5
2:0 1:10 2:5 3:65 1:5 2:5 1:10 2:5 1:10 2:5 3:5
1:0 2:5 3:65 1:5 2:5 1:10 2:5 1:10 2:5 3:5 2:5
2:0 3:65 1:5 2:5 1:10 2:5 1:10 2:5 3:5 2:5 1:15
3:0 1:5 2:5 1:10 2:5 1:10 2:5 3:5 2:5 1:15 2:5
1:0 2:5 1:10 2:5 1:10 2:5 3:5 2:5 1:15 2:5 3:5
2:0 1:10 2:5 1:10 2:5 3:5 2:5 1:15 2:5 3:5 1:5
1:0 2:5 1:10 2:5 3:5 2:5 1:15 2:5 3:5 1:5 3:5
2:0 1:10 2:5 3:5 2:5 1:15 2:5 3:5 1:5 3:5 2:5
1:0 2:5 3:5 2:5 1:15 2:5 3:5 1:5 3:5 2:5 3:30
2:0 3:5 2:5 1:15 2:5 3:5 1:5 3:5 2:5 3:30 2:5
3:0 2:5 1:15 2:5 3:5 1:5 3:5 2:5 3:30 2:5 1:15
2:0 1:15 2:5 3:5 1:5 3:5 2:5 3:30 2:5 1:15 2:5
1:0 2:5 3:5 1:5 3:5 2:5 3:30 2:5 1:15 2:5 3:10
2:0 3:5 1:5 3:5 2:5 3:30 2:5 1:15 2:5 3:10 2:5
3:0 1:5 3:5 2:5 3:30 2:5 1:15 2:5 3:10 2:5 3:5
1:0 3:5 2:5 3:30 2:5 1:15 2:5 3:10 2:5 3:5 1:5
3:0 2:5 3:30 2:5 1:15 2:5 3:10 2:5 3:5 1:5 2:5
2:0 3:30 2:5 1:15 2:5 3:10 2:5 3:5 1:5 2:5 3:25
3:0 2:5 1:15 2:5 3:10 2:5 3:5 1:5 2:5 3:25 2:5
2:0 1:15 2:5 3:10 2:5 3:5 1:5 2:5 3:25 2:5 1:15
1:0 2:5 3:10 2:5 3:5 1:5 2:5 3:25 2:5 1:15 2:5
2:0 3:10 2:5 3:5 1:5 2:5 3:25 2:5 1:15 2:5 1:5
3:0 2:5 3:5 1:5 2:5 3:25 2:5 1:15 2:5 1:5 2:5
2:0 3:5 1:5 2:5 3:25 2:5 1:15 2:5 1:5 2:5 1:45
3:0 1:5 2:5 3:25 2:5 1:15 2:5 1:5 2:5 1:45 2:5
1:0 2:5 3:25 2:5 1:15 2:5 1:5 2:5 1:45 2:5 1:5
2:0 3:25 2:5 1:15 2:5 1:5 2:5 1:45 2:5 1:5 2:5
3:0 2:5 1:15 2:5 1:5 2:5 1:45 2:5 1:5 2:5 1:10
2:0 1:15 2:5 1:5 2:5 1:45 2:5 1:5 2:5 1:10 2:10
1:0 2:5 1:5 2:5 1:45 2:5 1:5 2:5 1:10 2:10 3:20
2:0 1:5 2:5 1:45 2:5 1:5 2:5 1:10 2:10 3:20 2:5
1:0 2:5 1:45 2:5 1:5 2:5 1:10 2:10 3:20 2:5 1:40
2:0 1:45 2:5 1:5 2:5 1:10 2:10 3:20 2:5 1:40 3:5
1:0 2:5 1:5 2:5 1:10 2:10 3:20 2:5 1:40 3:5 2:5
2:0 1:5 2:5 1:10 2:10 3:20 2:5 1:40 3:5 2:5 3:25
1:0 2:5 1:10 2:10 3:20 2:5 1:40 3:5 2:5 3:25 2:5
2:0 1:10 2:10 3:20 2:5 1:40 3:5 2:5 3:25 2:5 1:15
1:0 2:10 3:20 2:5 1:40 3:5 2:5 3:25 2:5 1:15 2:5
2:0 3:20 2:5 1:40 3:5 2:5 3:25 2:5 1:15 2:5 1:35
3:0 2:5 1:40 3:5 2:5 3:25 2:5 1:15 2:5 1:35 2:5
2:0 1:40 3:5 2:5 3:25 2:5 1:15 2:5 1:35 2:5 3:45
1:0 3:5 2:5 3:25 2:5 1:15 2:5 1:35 2:5 3:45 2:5
3:0 2:5 3:25 2:5 1:15 2:5 1:35 2:5 3:45 2:5 3:10
2:0 3:25 2:5 1:15 2:5 1:35 2:5 3:45 2:5 3:10 2:5
3:0 2:5 1:15 2:5 1:35 2:5 3:45 2:5 3:10 2:5 1:25
2:0 1:15 2:5 1:35 2:5 3:45 2:5 3:10 2:5 1:25 3:5
1:0 2:5 1:35 2:5 3:45 2:5 3:10 2:5 1:25 3:5 1:5
2:0 1:35 2:5 3:45 2:5 3:10 2:5 1:25 3:5 1:5 2:5
1:0 2:5 3:45 2:5 3:10 2:5 1:25 3:5 1:5 2:5 1:20
2:0 3:45 2:5 3:10 2:5 1:25 3:5 1:5 2:5 1:20 2:5
3:0 2:5 3:10 2:5 1:25 3:5 1:5 2:5 1:20 2:5 1:10
2:0 3:10 2:5 1:25 3:5 1:5 2:5 1:20 2:5 1:10 3:5
3:0 2:5 1:25 3:5 1:5 2:5 1:20 2:5 1:10 3:5 1:5
2:0 1:25 3:5 1:5 2:5 1:20 2:5 1:10 3:5 1:5 2:5
1:0 3:5 1:5 2:5 1:20 2:5 1:10 3:5 1:5 2:5 3:25
3:0 1:5 2:5 1:20 2:5 1:10 3:5 1:5 2:5 3:25 1:5
1:0 2:5 1:20 2:5 1:10 3:5 1:5 2:5 3:25 1:5 3:5
2:0 1:20 2:5 1:10 3:5 1:5 2:5 3:25 1:5 3:5 1:5
1:0 2:5 1:10 3:5 1:5 2:5 3:25 1:5 3:5 1:5 2:5
2:0 1:10 3:5 1:5 2:5 3:25 1:5 3:5 1:5 2:5 1:10
1:0 3:5 1:5 2:5 3:25 1:5 3:5 1:5 2:5 1:10 2:5
3:0 1:5 2:5 3:25 1:5 3:5 1:5 2:5 1:10 2:5 3:5
1:0 2:5 3:25 1:5 3:5 1:5 2:5 1:10 2:5 3:5 2:5
2:0 3:25 1:5 3:5 1:5 2:5 1:10 2:5 3:5 2:5 1:10
3:0 1:5 3:5 1:5 2:5 1:10 2:5 3:5 2:5 1:10 3:5
1:0 3:5 1:5 2:5 1:10 2:5 3:5 2:5 1:10 3:5 1:5
3:0 1:5 2:5 1:10 2:5 3:5 2:5 1:10 3:5 1:5 2:5
1:0 2:5 1:10 2:5 3:5 2:5 1:10 3:5 1:5 2:5 1:5
2:0 1:10 2:5 3:5 2:5 1:10 3:5 1:5 2:5 1:5 2:10
1:0 2:5 3:5 2:5 1:10 3:5 1:5 2:5 1:5 2:10 3:5
2:0 3:5 2:5 1:10 3:5 1:5 2:5 1:5 2:10 3:5 1:5
3:0 2:5 1:10 3:5 1:5 2:5 1:5 2:10 3:5 1:5 2:10
2:0 1:10 3:5 1:5 2:5 1:5 2:10 3:5 1:5 2:10 1:5
1:0 3:5 1:5 2:5 1:5 2:10 3:5 1:5 2:10 1:5 2:5
3:0 1:5 2:5 1:5 2:10 3:5 1:5 2:10 1:5 2:5 3:30
1:0 2:5 1:5 2:10 3:5 1:5 2:10 1:5 2:5 3:30 2:5
2:0 1:5 2:10 3:5 1:5 2:10 1:5 2:5 3:30 2:5 1:5
1:0 2:10 3:5 1:5 2:10 1:5 2:5 3:30 2:5 1:5 2:5
2:0 3:5 1:5 2:10 1:5 2:5 3:30 2:5 1:5 2:5 3:15
3:0 1:5 2:10 1:5 2:5 3:30 2:5 1:5 2:5 3:15 1:5
1:0 2:10 1:5 2:5 3:30 2:5 1:5 2:5 3:15 1:5 3:5
2:0 1:5 2:5 3:30 2:5 1:5 2:5 3:15 1:5 3:5 2:10
1:0 2:5 3:30 2:5 1:5 2:5 3:15 1:5 3:5 2:10 3:20
2:0 3:30 2:5 1:5 2:5 3:15 1:5 3:5 2:10 3:20 2:5
3:0 2:5 1:5 2:5 3:15 1:5 3:5 2:10 3:20 2:5 1:5
2:0 1:5 2:5 3:15 1:5 3:5 2:10 3:20 2:5 1:5 3:5
1:0 2:5 3:15 1:5 3:5 2:10 3:20 2:5 1:5 3:5 2:5
2:0 3:15 1:5 3:5 2:10 3:20 2:5 1:5 3:5 2:5 1:10
3:0 1:5 3:5 2:10 3:20 2:5 1:5 3:5 2:5 1:10 2:5
1:0 3:5 2:10 3:20 2:5 1:5 3:5 2:5 1:10 2:5 3:5
3:0 2:10 3:20 2:5 1:5 3:5 2:5 1:10 2:5 3:5 2:5
2:0 3:20 2:5 1:5 3:5 2:5 1:10 2:5 3:5 2:5 1:10
3:0 2:5 1:5 3:5 2:5 1:10 2:5 3:5 2:5 1:10 2:5
2:0 1:5 3:5 2:5 1:10 2:5 3:5 2:5 1:10 2:5 1:15
1:0 3:5 2:5 1:10 2:5 3:5 2:5 1:10 2:5 1:15 2:5
3:0 2:5 1:10 2:5 3:5 2:5 1:10 2:5 1:15 2:5 3:10
2:0 1:10 2:5 3:5 2:5 1:10 2:5 1:15 2:5 3:10 2:5
1:0 2:5 3:5 2:5 1:10 2:5 1:15 2:5 3:10 2:5 1:10
2:0 3:5 2:5 1:10 2:5 1:15 2:5 3:10 2:5 1:10 2:5
3:0 2:5 1:10 2:5 1:15 2:5 3:10 2:5 1:10 2:5 3:25
2:0 1:10 2:5 1:15 2:5 3:10 2:5 1:10 2:5 3:25 1:5
1:0 2:5 1:15 2:5 3:10 2:5 1:10 2:5 3:25 1:5 3:5
2:0 1:15 2:5 3:10 2:5 1:10 2:5 3:25 1:5 3:5 2:5
1:0 2:5 3:10 2:5 1:10 2:5 3:25 1:5 3:5 2:5 3:20
2:0 3:10 2:5 1:10 2:5 3:25 1:5 3:5 2:5 3:20 2:5
3:0 2:5 1:10 2:5 3:25 1:5 3:5 2:5 3:20 2:5 3:20
2:0 1:10 2:5 3:25 1:5 3:5 2:5 3:20 2:5 3:20 2:5
1:0 2:5 3:25 1:5 3:5 2:5 3:20 2:5 3:20 2:5 3:30
2:0 3:25 1:5 3:5 2:5 3:20 2:5 3:20 2:5 3:30 2:5
3:0 1:5 3:5 2:5 3:20 2:5 3:20 2:5 3:30 2:5 1:20
1:0 3:5 2:5 3:20 2:5 3:20 2:5 3:30 2:5 1:20 3:5
3:0 2:5 3:20 2:5 3:20 2:5 3:30 2:5 1:20 3:5 2:5
2:0 3:20 2:5 3:20 2:5 3:30 2:5 1:20 3:5 2:5 1:5
3:0 2:5 3:20 2:5 3:30 2:5 1:20 3:5 2:5 1:5 2:5
2:0 3:20 2:5 3:30 2:5 1:20 3:5 2:5 1:5 2:5 1:45
3:0 2:5 3:30 2:5 1:20 3:5 2:5 1:5 2:5 1:45 2:5
2:0 3:30 2:5 1:20 3:5 2:5 1:5 2:5 1:45 2:5 3:35
3:0 2:5 1:20 3:5 2:5 1:5 2:5 1:45 2:5 3:35 1:5
2:0 1:20 3:5 2:5 1:5 2:5 1:45 2:5 3:35 1:5 2:5
1:0 3:5 2:5 1:5 2:5 1:45 2:5 3:35 1:5 2:5 1:20
3:0 2:5 1:5 2:5 1:45 2:5 3:35 1:5 2:5 1:20 2:5
2:0 1:5 2:5 1:45 2:5 3:35 1:5 2:5 1:20 2:5 3:5
1:0 2:5 1:45 2:5 3:35 1:5 2:5 1:20 2:5 3:5 1:5
2:0 1:45 2:5 3:35 1:5 2:5 1:20 2:5 3:5 1:5 3:5
1:0 2:5 3:35 1:5 2:5 1:20 2:5 3:5 1:5 3:5 2:5
2:0 3:35 1:5 2:5 1:20 2:5 3:5 1:5 3:5 2:5 1:15
3:0 1:5 2:5 1:20 2:5 3:5 1:5 3:5 2:5 1:15 2:5
1:0 2:5 1:20 2:5 3:5 1:5 3:5 2:5 1:15 2:5 1:30
2:0 1:20 2:5 3:5 1:5 3:5 2:5 1:15 2:5 1:30 2:5
1:0 2:5 3:5 1:5 3:5 2:5 1:15 2:5 1:30 2:5 1:20
2:0 3:5 1:5 3:5 2:5 1:15 2:5 1:30 2:5 1:20 2:5
3:0 1:5 3:5 2:5 1:15 2:5 1:30 2:5 1:20 2:5 1:5
1:0 3:5 2:5 1:15 2:5 1:30 2:5 1:20 2:5 1:5 3:5
3:0 2:5 1:15 2:5 1:30 2:5 1:20 2:5 1:5 3:5 1:5
2:0 1:15 2:5 1:30 2:5 1:20 2:5 1:5 3:5 1:5 2:5
1:0 2:5 1:30 2:5 1:20 2:5 1:5 3:5 1:5 2:5 1:50
2:0 1:30 2:5 1:20 2:5 1:5 3:5 1:5 2:5 1:50 2:5
1:0 2:5 1:20 2:5 1:5 3:5 1:5 2:5 1:50 2:5 3:5
2:0 1:20 2:5 1:5 3:5 1:5 2:5 1:50 2:5 3:5 1:5
1:0 2:5 1:5 3:5 1:5 2:5 1:50 2:5 3:5 1:5 2:5
2:0 1:5 3:5 1:5 2:5 1:50 2:5 3:5 1:5 2:5 3:5
1:0 3:5 1:5 2:5 1:50 2:5 3:5 1:5 2:5 3:5 2:5
3:0 1:5 2:5 1:50 2:5 3:5 1:5 2:5 3:5 2:5 1:15
1:0 2:5 1:50 2:5 3:5 1:5 2:5 3:5 2:5 1:15 2:5
2:0 1:50 2:5 3:5 1:5 2:5 3:5 2:5 1:15 2:5 3:25
1:0 2:5 3:5 1:5 2:5 3:5 2:5 1:15 2:5 3:25 1:5
2:0 3:5 1:5 2:5 3:5 2:5 1:15 2:5 3:25 1:5 2:5
3:0 1:5 2:5 3:5 2:5 1:15 2:5 3:25 1:5 2:5 3:95
1:0 2:5 3:5 2:5 1:15 2:5 3:25 1:5 2:5 3:95 2:5
2:0 3:5 2:5 1:15 2:5 3:25 1:5 2:5 3:95 2:5 1:5
3:0 2:5 1:15 2:5 3:25 1:5 2:5 3:95 2:5 1:5 3:5
2:0 1:15 2:5 3:25 1:5 2:5 3:95 2:5 1:5 3:5 2:5
1:0 2:5 3:25 1:5 2:5 3:95 2:5 1:5 3:5 2:5 1:10
2:0 3:25 1:5 2:5 3:95 2:5 1:5 3:5 2:5 1:10 2:5
3:0 1:5 2:5 3:95 2:5 1:5 3:5 2:5 1:10 2:5 3:20
1:0 2:5 3:95 2:5 1:5 3:5 2:5 1:10 2:5 3:20 2:5
2:0 3:95 2:5 1:5 3:5 2:5 1:10 2:5 3:20 2:5 3:5
3:0 2:5 1:5 3:5 2:5 1:10 2:5 3:20 2:5 3:5 1:5
2:0 1:5 3:5 2:5 1:10 2:5 3:20 2:5 3:5 1:5
1:0 3:5 2:5 1:10 2:5 3:20 2:5 3:5 1:5
3:0 2:5 1:10 2:5 3:20 2:5 3:5 1:5
2:0 1:10 2:5 3:20 2:5 3:5 1:5
1:0 2:5 3:20 2:5 3:5 1:5
2:0 3:20 2:5 3:5 1:5
3:0 2:5 3:5 1:5
2:0 3:5 1:5
3:0 1:5
1:0