6:0 5:5 6:5 4:10 3:5 5:5 14:15 15:5 6:10 3:15 13:10
5:0 6:5 4:10 3:5 5:5 14:15 15:5 6:10 3:15 13:10 15:5
6:0 4:10 3:5 5:5 14:15 15:5 6:10 3:15 13:10 15:5 6:5
4:0 3:5 5:5 14:15 15:5 6:10 3:15 13:10 15:5 6:5 5:5
3:0 5:5 14:15 15:5 6:10 3:15 13:10 15:5 6:5 5:5 6:5
5:0 14:15 15:5 6:10 3:15 13:10 15:5 6:5 5:5 6:5 5:5
14:0 15:5 6:10 3:15 13:10 15:5 6:5 5:5 6:5 5:5 4:5
15:0 6:10 3:15 13:10 15:5 6:5 5:5 6:5 5:5 4:5 5:15
6:0 3:15 13:10 15:5 6:5 5:5 6:5 5:5 4:5 5:15 7:5
3:0 13:10 15:5 6:5 5:5 6:5 5:5 4:5 5:15 7:5 14:5
13:0 15:5 6:5 5:5 6:5 5:5 4:5 5:15 7:5 14:5 15:10
15:0 6:5 5:5 6:5 5:5 4:5 5:15 7:5 14:5 15:10 11:5
6:0 5:5 6:5 5:5 4:5 5:15 7:5 14:5 15:10 11:5 7:5
5:0 6:5 5:5 4:5 5:15 7:5 14:5 15:10 11:5 7:5 5:10
6:0 5:5 4:5 5:15 7:5 14:5 15:10 11:5 7:5 5:10 4:5
5:0 4:5 5:15 7:5 14:5 15:10 11:5 7:5 5:10 4:5 5:10
4:0 5:15 7:5 14:5 15:10 11:5 7:5 5:10 4:5 5:10 4:10
5:0 7:5 14:5 15:10 11:5 7:5 5:10 4:5 5:10 4:10 7:5
7:0 14:5 15:10 11:5 7:5 5:10 4:5 5:10 4:10 7:5 14:5
14:0 15:10 11:5 7:5 5:10 4:5 5:10 4:10 7:5 14:5 15:5
15:0 11:5 7:5 5:10 4:5 5:10 4:10 7:5 14:5 15:5 9:5
11:0 7:5 5:10 4:5 5:10 4:10 7:5 14:5 15:5 9:5 5:5
7:0 5:10 4:5 5:10 4:10 7:5 14:5 15:5 9:5 5:5 3:10
5:0 4:5 5:10 4:10 7:5 14:5 15:5 9:5 5:5 3:10 13:5
4:0 5:10 4:10 7:5 14:5 15:5 9:5 5:5 3:10 13:5 15:5
5:0 4:10 7:5 14:5 15:5 9:5 5:5 3:10 13:5 15:5 14:5
4:0 7:5 14:5 15:5 9:5 5:5 3:10 13:5 15:5 14:5 7:5
7:0 14:5 15:5 9:5 5:5 3:10 13:5 15:5 14:5 7:5 6:5
14:0 15:5 9:5 5:5 3:10 13:5 15:5 14:5 7:5 6:5 5:10
15:0 9:5 5:5 3:10 13:5 15:5 14:5 7:5 6:5 5:10 3:5
9:0 5:5 3:10 13:5 15:5 14:5 7:5 6:5 5:10 3:5 8:5
5:0 3:10 13:5 15:5 14:5 7:5 6:5 5:10 3:5 8:5 15:5
3:0 13:5 15:5 14:5 7:5 6:5 5:10 3:5 8:5 15:5 12:5
13:0 15:5 14:5 7:5 6:5 5:10 3:5 8:5 15:5 12:5 5:5
15:0 14:5 7:5 6:5 5:10 3:5 8:5 15:5 12:5 5:5 6:5
14:0 7:5 6:5 5:10 3:5 8:5 15:5 12:5 5:5 6:5 5:5
7:0 6:5 5:10 3:5 8:5 15:5 12:5 5:5 6:5 5:5 4:5
6:0 5:10 3:5 8:5 15:5 12:5 5:5 6:5 5:5 4:5 6:10
5:0 3:5 8:5 15:5 12:5 5:5 6:5 5:5 4:5 6:10 14:5
3:0 8:5 15:5 12:5 5:5 6:5 5:5 4:5 6:10 14:5 15:5
8:0 15:5 12:5 5:5 6:5 5:5 4:5 6:10 14:5 15:5 6:10
15:0 12:5 5:5 6:5 5:5 4:5 6:10 14:5 15:5 6:10 5:5
12:0 5:5 6:5 5:5 4:5 6:10 14:5 15:5 6:10 5:5 6:5
5:0 6:5 5:5 4:5 6:10 14:5 15:5 6:10 5:5 6:5 5:5
6:0 5:5 4:5 6:10 14:5 15:5 6:10 5:5 6:5 5:5 4:5
5:0 4:5 6:10 14:5 15:5 6:10 5:5 6:5 5:5 4:5 5:15
4:0 6:10 14:5 15:5 6:10 5:5 6:5 5:5 4:5 5:15 8:5
6:0 14:5 15:5 6:10 5:5 6:5 5:5 4:5 5:15 8:5 14:5
14:0 15:5 6:10 5:5 6:5 5:5 4:5 5:15 8:5 14:5 15:5
15:0 6:10 5:5 6:5 5:5 4:5 5:15 8:5 14:5 15:5 9:10
6:0 5:5 6:5 5:5 4:5 5:15 8:5 14:5 15:5 9:10 6:5
5:0 6:5 5:5 4:5 5:15 8:5 14:5 15:5 9:10 6:5 4:10
6:0 5:5 4:5 5:15 8:5 14:5 15:5 9:10 6:5 4:10 3:5
5:0 4:5 5:15 8:5 14:5 15:5 9:10 6:5 4:10 3:5 4:5
4:0 5:15 8:5 14:5 15:5 9:10 6:5 4:10 3:5 4:5 5:5
5:0 8:5 14:5 15:5 9:10 6:5 4:10 3:5 4:5 5:5 4:10
8:0 14:5 15:5 9:10 6:5 4:10 3:5 4:5 5:5 4:10 14:5
14:0 15:5 9:10 6:5 4:10 3:5 4:5 5:5 4:10 14:5 15:5
15:0 9:10 6:5 4:10 3:5 4:5 5:5 4:10 14:5 15:5 6:10
9:0 6:5 4:10 3:5 4:5 5:5 4:10 14:5 15:5 6:10 5:5
6:0 4:10 3:5 4:5 5:5 4:10 14:5 15:5 6:10 5:5 6:5
4:0 3:5 4:5 5:5 4:10 14:5 15:5 6:10 5:5 6:5 4:5
3:0 4:5 5:5 4:10 14:5 15:5 6:10 5:5 6:5 4:5 13:15
4:0 5:5 4:10 14:5 15:5 6:10 5:5 6:5 4:5 13:15 15:5
5:0 4:10 14:5 15:5 6:10 5:5 6:5 4:5 13:15 15:5 13:5
4:0 14:5 15:5 6:10 5:5 6:5 4:5 13:15 15:5 13:5 7:5
14:0 15:5 6:10 5:5 6:5 4:5 13:15 15:5 13:5 7:5 5:5
15:0 6:10 5:5 6:5 4:5 13:15 15:5 13:5 7:5 5:5 3:5
6:0 5:5 6:5 4:5 13:15 15:5 13:5 7:5 5:5 3:5 7:5
5:0 6:5 4:5 13:15 15:5 13:5 7:5 5:5 3:5 7:5 15:5
6:0 4:5 13:15 15:5 13:5 7:5 5:5 3:5 7:5 15:5 12:5
4:0 13:15 15:5 13:5 7:5 5:5 3:5 7:5 15:5 12:5 5:5
13:0 15:5 13:5 7:5 5:5 3:5 7:5 15:5 12:5 5:5 6:5
15:0 13:5 7:5 5:5 3:5 7:5 15:5 12:5 5:5 6:5 4:10
13:0 7:5 5:5 3:5 7:5 15:5 12:5 5:5 6:5 4:10 5:15
7:0 5:5 3:5 7:5 15:5 12:5 5:5 6:5 4:10 5:15 4:5
5:0 3:5 7:5 15:5 12:5 5:5 6:5 4:10 5:15 4:5 8:5
3:0 7:5 15:5 12:5 5:5 6:5 4:10 5:15 4:5 8:5 14:5
7:0 15:5 12:5 5:5 6:5 4:10 5:15 4:5 8:5 14:5 15:5
15:0 12:5 5:5 6:5 4:10 5:15 4:5 8:5 14:5 15:5 14:5
12:0 5:5 6:5 4:10 5:15 4:5 8:5 14:5 15:5 14:5 6:5
5:0 6:5 4:10 5:15 4:5 8:5 14:5 15:5 14:5 6:5 5:10
6:0 4:10 5:15 4:5 8:5 14:5 15:5 14:5 6:5 5:10 3:5
4:0 5:15 4:5 8:5 14:5 15:5 14:5 6:5 5:10 3:5 4:5
5:0 4:5 8:5 14:5 15:5 14:5 6:5 5:10 3:5 4:5 5:5
4:0 8:5 14:5 15:5 14:5 6:5 5:10 3:5 4:5 5:5 4:10
8:0 14:5 15:5 14:5 6:5 5:10 3:5 4:5 5:5 4:10 12:5
14:0 15:5 14:5 6:5 5:10 3:5 4:5 5:5 4:10 12:5 14:5
15:0 14:5 6:5 5:10 3:5 4:5 5:5 4:10 12:5 14:5 15:5
14:0 6:5 5:10 3:5 4:5 5:5 4:10 12:5 14:5 15:5 11:5
6:0 5:10 3:5 4:5 5:5 4:10 12:5 14:5 15:5 11:5 5:5
5:0 3:5 4:5 5:5 4:10 12:5 14:5 15:5 11:5 5:5 4:5
3:0 4:5 5:5 4:10 12:5 14:5 15:5 11:5 5:5 4:5 6:10
4:0 5:5 4:10 12:5 14:5 15:5 11:5 5:5 4:5 6:10 5:5
5:0 4:10 12:5 14:5 15:5 11:5 5:5 4:5 6:10 5:5 4:5
4:0 12:5 14:5 15:5 11:5 5:5 4:5 6:10 5:5 4:5 3:5
12:0 14:5 15:5 11:5 5:5 4:5 6:10 5:5 4:5 3:5 14:5
14:0 15:5 11:5 5:5 4:5 6:10 5:5 4:5 3:5 14:5 15:5
15:0 11:5 5:5 4:5 6:10 5:5 4:5 3:5 14:5 15:5 9:5
11:0 5:5 4:5 6:10 5:5 4:5 3:5 14:5 15:5 9:5 5:5
5:0 4:5 6:10 5:5 4:5 3:5 14:5 15:5 9:5 5:5 3:10
4:0 6:10 5:5 4:5 3:5 14:5 15:5 9:5 5:5 3:10 4:5
6:0 5:5 4:5 3:5 14:5 15:5 9:5 5:5 3:10 4:5 5:5
5:0 4:5 3:5 14:5 15:5 9:5 5:5 3:10 4:5 5:5 4:5
4:0 3:5 14:5 15:5 9:5 5:5 3:10 4:5 5:5 4:5 12:5
3:0 14:5 15:5 9:5 5:5 3:10 4:5 5:5 4:5 12:5 15:5
14:0 15:5 9:5 5:5 3:10 4:5 5:5 4:5 12:5 15:5 5:10
15:0 9:5 5:5 3:10 4:5 5:5 4:5 12:5 15:5 5:10 6:5
9:0 5:5 3:10 4:5 5:5 4:5 12:5 15:5 5:10 6:5 5:10
5:0 3:10 4:5 5:5 4:5 12:5 15:5 5:10 6:5 5:10 4:5
3:0 4:5 5:5 4:5 12:5 15:5 5:10 6:5 5:10 4:5 3:5
4:0 5:5 4:5 12:5 15:5 5:10 6:5 5:10 4:5 3:5 5:5
5:0 4:5 12:5 15:5 5:10 6:5 5:10 4:5 3:5 5:5 7:10
4:0 12:5 15:5 5:10 6:5 5:10 4:5 3:5 5:5 7:10 14:5
12:0 15:5 5:10 6:5 5:10 4:5 3:5 5:5 7:10 14:5 15:5
15:0 5:10 6:5 5:10 4:5 3:5 5:5 7:10 14:5 15:5 14:5
5:0 6:5 5:10 4:5 3:5 5:5 7:10 14:5 15:5 14:5 6:5
6:0 5:10 4:5 3:5 5:5 7:10 14:5 15:5 14:5 6:5 2:15
5:0 4:5 3:5 5:5 7:10 14:5 15:5 14:5 6:5 2:15 10:5
4:0 3:5 5:5 7:10 14:5 15:5 14:5 6:5 2:15 10:5 15:5
3:0 5:5 7:10 14:5 15:5 14:5 6:5 2:15 10:5 15:5 14:5
5:0 7:10 14:5 15:5 14:5 6:5 2:15 10:5 15:5 14:5 6:5
7:0 14:5 15:5 14:5 6:5 2:15 10:5 15:5 14:5 6:5 4:20
14:0 15:5 14:5 6:5 2:15 10:5 15:5 14:5 6:5 4:20 3:5
15:0 14:5 6:5 2:15 10:5 15:5 14:5 6:5 4:20 3:5 5:5
14:0 6:5 2:15 10:5 15:5 14:5 6:5 4:20 3:5 5:5 4:10
6:0 2:15 10:5 15:5 14:5 6:5 4:20 3:5 5:5 4:10 12:5
2:0 10:5 15:5 14:5 6:5 4:20 3:5 5:5 4:10 12:5 15:5
10:0 15:5 14:5 6:5 4:20 3:5 5:5 4:10 12:5 15:5 9:10
15:0 14:5 6:5 4:20 3:5 5:5 4:10 12:5 15:5 9:10 6:5
14:0 6:5 4:20 3:5 5:5 4:10 12:5 15:5 9:10 6:5 4:10
6:0 4:20 3:5 5:5 4:10 12:5 15:5 9:10 6:5 4:10 3:5
4:0 3:5 5:5 4:10 12:5 15:5 9:10 6:5 4:10 3:5 13:5
3:0 5:5 4:10 12:5 15:5 9:10 6:5 4:10 3:5 13:5 15:5
5:0 4:10 12:5 15:5 9:10 6:5 4:10 3:5 13:5 15:5 6:5
4:0 12:5 15:5 9:10 6:5 4:10 3:5 13:5 15:5 6:5 5:5
12:0 15:5 9:10 6:5 4:10 3:5 13:5 15:5 6:5 5:5 3:10
15:0 9:10 6:5 4:10 3:5 13:5 15:5 6:5 5:5 3:10 5:5
9:0 6:5 4:10 3:5 13:5 15:5 6:5 5:5 3:10 5:5 4:10
6:0 4:10 3:5 13:5 15:5 6:5 5:5 3:10 5:5 4:10 3:5
4:0 3:5 13:5 15:5 6:5 5:5 3:10 5:5 4:10 3:5 14:5
3:0 13:5 15:5 6:5 5:5 3:10 5:5 4:10 3:5 14:5 15:5
13:0 15:5 6:5 5:5 3:10 5:5 4:10 3:5 14:5 15:5 10:5
15:0 6:5 5:5 3:10 5:5 4:10 3:5 14:5 15:5 10:5 5:5
6:0 5:5 3:10 5:5 4:10 3:5 14:5 15:5 10:5 5:5 3:5
5:0 3:10 5:5 4:10 3:5 14:5 15:5 10:5 5:5 3:5 5:5
3:0 5:5 4:10 3:5 14:5 15:5 10:5 5:5 3:5 5:5 6:5
5:0 4:10 3:5 14:5 15:5 10:5 5:5 3:5 5:5 6:5 5:5
4:0 3:5 14:5 15:5 10:5 5:5 3:5 5:5 6:5 5:5 3:5
3:0 14:5 15:5 10:5 5:5 3:5 5:5 6:5 5:5 3:5 14:5
14:0 15:5 10:5 5:5 3:5 5:5 6:5 5:5 3:5 14:5 15:5
15:0 10:5 5:5 3:5 5:5 6:5 5:5 3:5 14:5 15:5 13:5
10:0 5:5 3:5 5:5 6:5 5:5 3:5 14:5 15:5 13:5 5:5
5:0 3:5 5:5 6:5 5:5 3:5 14:5 15:5 13:5 5:5 6:5
3:0 5:5 6:5 5:5 3:5 14:5 15:5 13:5 5:5 6:5 5:10
5:0 6:5 5:5 3:5 14:5 15:5 13:5 5:5 6:5 5:10 4:5
6:0 5:5 3:5 14:5 15:5 13:5 5:5 6:5 5:10 4:5 5:10
5:0 3:5 14:5 15:5 13:5 5:5 6:5 5:10 4:5 5:10 4:5
3:0 14:5 15:5 13:5 5:5 6:5 5:10 4:5 5:10 4:5 11:5
14:0 15:5 13:5 5:5 6:5 5:10 4:5 5:10 4:5 11:5 14:5
15:0 13:5 5:5 6:5 5:10 4:5 5:10 4:5 11:5 14:5 15:5
13:0 5:5 6:5 5:10 4:5 5:10 4:5 11:5 14:5 15:5 11:5
5:0 6:5 5:10 4:5 5:10 4:5 11:5 14:5 15:5 11:5 6:5
6:0 5:10 4:5 5:10 4:5 11:5 14:5 15:5 11:5 6:5 4:10
5:0 4:5 5:10 4:5 11:5 14:5 15:5 11:5 6:5 4:10 3:5
4:0 5:10 4:5 11:5 14:5 15:5 11:5 6:5 4:10 3:5 11:5
5:0 4:5 11:5 14:5 15:5 11:5 6:5 4:10 3:5 11:5 15:5
4:0 11:5 14:5 15:5 11:5 6:5 4:10 3:5 11:5 15:5 12:5
11:0 14:5 15:5 11:5 6:5 4:10 3:5 11:5 15:5 12:5 5:5
14:0 15:5 11:5 6:5 4:10 3:5 11:5 15:5 12:5 5:5 3:10
15:0 11:5 6:5 4:10 3:5 11:5 15:5 12:5 5:5 3:10 5:5
11:0 6:5 4:10 3:5 11:5 15:5 12:5 5:5 3:10 5:5 3:10
6:0 4:10 3:5 11:5 15:5 12:5 5:5 3:10 5:5 3:10 12:5
4:0 3:5 11:5 15:5 12:5 5:5 3:10 5:5 3:10 12:5 15:5
3:0 11:5 15:5 12:5 5:5 3:10 5:5 3:10 12:5 15:5 6:10
11:0 15:5 12:5 5:5 3:10 5:5 3:10 12:5 15:5 6:10 5:5
15:0 12:5 5:5 3:10 5:5 3:10 12:5 15:5 6:10 5:5 6:5
12:0 5:5 3:10 5:5 3:10 12:5 15:5 6:10 5:5 6:5 3:10
5:0 3:10 5:5 3:10 12:5 15:5 6:10 5:5 6:5 3:10 4:5
3:0 5:5 3:10 12:5 15:5 6:10 5:5 6:5 3:10 4:5 5:10
5:0 3:10 12:5 15:5 6:10 5:5 6:5 3:10 4:5 5:10 7:5
3:0 12:5 15:5 6:10 5:5 6:5 3:10 4:5 5:10 7:5 14:5
12:0 15:5 6:10 5:5 6:5 3:10 4:5 5:10 7:5 14:5 15:5
15:0 6:10 5:5 6:5 3:10 4:5 5:10 7:5 14:5 15:5 6:10
6:0 5:5 6:5 3:10 4:5 5:10 7:5 14:5 15:5 6:10 7:10
5:0 6:5 3:10 4:5 5:10 7:5 14:5 15:5 6:10 7:10 4:5
6:0 3:10 4:5 5:10 7:5 14:5 15:5 6:10 7:10 4:5 8:10
3:0 4:5 5:10 7:5 14:5 15:5 6:10 7:10 4:5 8:10 15:5
4:0 5:10 7:5 14:5 15:5 6:10 7:10 4:5 8:10 15:5 11:5
5:0 7:5 14:5 15:5 6:10 7:10 4:5 8:10 15:5 11:5 5:5
7:0 14:5 15:5 6:10 7:10 4:5 8:10 15:5 11:5 5:5 6:5
14:0 15:5 6:10 7:10 4:5 8:10 15:5 11:5 5:5 6:5 3:5
15:0 6:10 7:10 4:5 8:10 15:5 11:5 5:5 6:5 3:5 12:5
6:0 7:10 4:5 8:10 15:5 11:5 5:5 6:5 3:5 12:5 15:5
7:0 4:5 8:10 15:5 11:5 5:5 6:5 3:5 12:5 15:5 14:5
4:0 8:10 15:5 11:5 5:5 6:5 3:5 12:5 15:5 14:5 6:5
8:0 15:5 11:5 5:5 6:5 3:5 12:5 15:5 14:5 6:5 7:10
15:0 11:5 5:5 6:5 3:5 12:5 15:5 14:5 6:5 7:10 5:5
11:0 5:5 6:5 3:5 12:5 15:5 14:5 6:5 7:10 5:5 3:5
5:0 6:5 3:5 12:5 15:5 14:5 6:5 7:10 5:5 3:5 10:5
6:0 3:5 12:5 15:5 14:5 6:5 7:10 5:5 3:5 10:5 15:5
3:0 12:5 15:5 14:5 6:5 7:10 5:5 3:5 10:5 15:5 12:5
12:0 15:5 14:5 6:5 7:10 5:5 3:5 10:5 15:5 12:5 6:5
15:0 14:5 6:5 7:10 5:5 3:5 10:5 15:5 12:5 6:5 5:15
14:0 6:5 7:10 5:5 3:5 10:5 15:5 12:5 6:5 5:15 4:5
6:0 7:10 5:5 3:5 10:5 15:5 12:5 6:5 5:15 4:5 5:10
7:0 5:5 3:5 10:5 15:5 12:5 6:5 5:15 4:5 5:10 7:10
5:0 3:5 10:5 15:5 12:5 6:5 5:15 4:5 5:10 7:10 14:5
3:0 10:5 15:5 12:5 6:5 5:15 4:5 5:10 7:10 14:5 15:5
10:0 15:5 12:5 6:5 5:15 4:5 5:10 7:10 14:5 15:5 14:5
15:0 12:5 6:5 5:15 4:5 5:10 7:10 14:5 15:5 14:5 6:5
12:0 6:5 5:15 4:5 5:10 7:10 14:5 15:5 14:5 6:5 3:15
6:0 5:15 4:5 5:10 7:10 14:5 15:5 14:5 6:5 3:15 5:10
5:0 4:5 5:10 7:10 14:5 15:5 14:5 6:5 3:15 5:10 6:15
4:0 5:10 7:10 14:5 15:5 14:5 6:5 3:15 5:10 6:15 14:5
5:0 7:10 14:5 15:5 14:5 6:5 3:15 5:10 6:15 14:5 15:5
7:0 14:5 15:5 14:5 6:5 3:15 5:10 6:15 14:5 15:5 14:5
14:0 15:5 14:5 6:5 3:15 5:10 6:15 14:5 15:5 14:5 5:5
15:0 14:5 6:5 3:15 5:10 6:15 14:5 15:5 14:5 5:5 3:10
14:0 6:5 3:15 5:10 6:15 14:5 15:5 14:5 5:5 3:10 5:5
6:0 3:15 5:10 6:15 14:5 15:5 14:5 5:5 3:10 5:5 6:5
3:0 5:10 6:15 14:5 15:5 14:5 5:5 3:10 5:5 6:5 3:5
5:0 6:15 14:5 15:5 14:5 5:5 3:10 5:5 6:5 3:5 12:5
6:0 14:5 15:5 14:5 5:5 3:10 5:5 6:5 3:5 12:5 14:5
14:0 15:5 14:5 5:5 3:10 5:5 6:5 3:5 12:5 14:5 15:5
15:0 14:5 5:5 3:10 5:5 6:5 3:5 12:5 14:5 15:5 6:5
14:0 5:5 3:10 5:5 6:5 3:5 12:5 14:5 15:5 6:5 5:5
5:0 3:10 5:5 6:5 3:5 12:5 14:5 15:5 6:5 5:5 6:5
3:0 5:5 6:5 3:5 12:5 14:5 15:5 6:5 5:5 6:5 5:5
5:0 6:5 3:5 12:5 14:5 15:5 6:5 5:5 6:5 5:5 4:5
6:0 3:5 12:5 14:5 15:5 6:5 5:5 6:5 5:5 4:5 5:15
3:0 12:5 14:5 15:5 6:5 5:5 6:5 5:5 4:5 5:15 7:5
12:0 14:5 15:5 6:5 5:5 6:5 5:5 4:5 5:15 7:5 14:5
14:0 15:5 6:5 5:5 6:5 5:5 4:5 5:15 7:5 14:5 15:5
15:0 6:5 5:5 6:5 5:5 4:5 5:15 7:5 14:5 15:5 6:10
6:0 5:5 6:5 5:5 4:5 5:15 7:5 14:5 15:5 6:10 7:10
5:0 6:5 5:5 4:5 5:15 7:5 14:5 15:5 6:10 7:10 5:5
6:0 5:5 4:5 5:15 7:5 14:5 15:5 6:10 7:10 5:5 3:5
5:0 4:5 5:15 7:5 14:5 15:5 6:10 7:10 5:5 3:5 4:5
4:0 5:15 7:5 14:5 15:5 6:10 7:10 5:5 3:5 4:5 5:5
5:0 7:5 14:5 15:5 6:10 7:10 5:5 3:5 4:5 5:5 4:10
7:0 14:5 15:5 6:10 7:10 5:5 3:5 4:5 5:5 4:10 12:5
14:0 15:5 6:10 7:10 5:5 3:5 4:5 5:5 4:10 12:5 14:5
15:0 6:10 7:10 5:5 3:5 4:5 5:5 4:10 12:5 14:5 15:5
6:0 7:10 5:5 3:5 4:5 5:5 4:10 12:5 14:5 15:5 12:5
7:0 5:5 3:5 4:5 5:5 4:10 12:5 14:5 15:5 12:5 5:5
5:0 3:5 4:5 5:5 4:10 12:5 14:5 15:5 12:5 5:5 6:5
3:0 4:5 5:5 4:10 12:5 14:5 15:5 12:5 5:5 6:5 5:5
4:0 5:5 4:10 12:5 14:5 15:5 12:5 5:5 6:5 5:5 4:5
5:0 4:10 12:5 14:5 15:5 12:5 5:5 6:5 5:5 4:5 3:5
4:0 12:5 14:5 15:5 12:5 5:5 6:5 5:5 4:5 3:5 10:5
12:0 14:5 15:5 12:5 5:5 6:5 5:5 4:5 3:5 10:5 15:5
14:0 15:5 12:5 5:5 6:5 5:5 4:5 3:5 10:5 15:5 14:5
15:0 12:5 5:5 6:5 5:5 4:5 3:5 10:5 15:5 14:5 7:5
12:0 5:5 6:5 5:5 4:5 3:5 10:5 15:5 14:5 7:5 6:5
5:0 6:5 5:5 4:5 3:5 10:5 15:5 14:5 7:5 6:5 5:5
6:0 5:5 4:5 3:5 10:5 15:5 14:5 7:5 6:5 5:5 3:5
5:0 4:5 3:5 10:5 15:5 14:5 7:5 6:5 5:5 3:5 5:5
4:0 3:5 10:5 15:5 14:5 7:5 6:5 5:5 3:5 5:5 6:5
3:0 10:5 15:5 14:5 7:5 6:5 5:5 3:5 5:5 6:5 5:5
10:0 15:5 14:5 7:5 6:5 5:5 3:5 5:5 6:5 5:5 3:5
15:0 14:5 7:5 6:5 5:5 3:5 5:5 6:5 5:5 3:5 13:5
14:0 7:5 6:5 5:5 3:5 5:5 6:5 5:5 3:5 13:5 15:5
7:0 6:5 5:5 3:5 5:5 6:5 5:5 3:5 13:5 15:5 12:5
6:0 5:5 3:5 5:5 6:5 5:5 3:5 13:5 15:5 12:5 5:5
5:0 3:5 5:5 6:5 5:5 3:5 13:5 15:5 12:5 5:5 6:5
3:0 5:5 6:5 5:5 3:5 13:5 15:5 12:5 5:5 6:5 4:10
5:0 6:5 5:5 3:5 13:5 15:5 12:5 5:5 6:5 4:10 5:15
6:0 5:5 3:5 13:5 15:5 12:5 5:5 6:5 4:10 5:15 4:5
5:0 3:5 13:5 15:5 12:5 5:5 6:5 4:10 5:15 4:5 10:5
3:0 13:5 15:5 12:5 5:5 6:5 4:10 5:15 4:5 10:5 14:5
13:0 15:5 12:5 5:5 6:5 4:10 5:15 4:5 10:5 14:5 6:15
15:0 12:5 5:5 6:5 4:10 5:15 4:5 10:5 14:5 6:15 5:10
12:0 5:5 6:5 4:10 5:15 4:5 10:5 14:5 6:15 5:10 3:5
5:0 6:5 4:10 5:15 4:5 10:5 14:5 6:15 5:10 3:5 15:10
6:0 4:10 5:15 4:5 10:5 14:5 6:15 5:10 3:5 15:10 14:5
4:0 5:15 4:5 10:5 14:5 6:15 5:10 3:5 15:10 14:5 5:5
5:0 4:5 10:5 14:5 6:15 5:10 3:5 15:10 14:5 5:5 4:5
4:0 10:5 14:5 6:15 5:10 3:5 15:10 14:5 5:5 4:5 3:5
10:0 14:5 6:15 5:10 3:5 15:10 14:5 5:5 4:5 3:5 5:5
14:0 6:15 5:10 3:5 15:10 14:5 5:5 4:5 3:5 5:5 4:10
6:0 5:10 3:5 15:10 14:5 5:5 4:5 3:5 5:5 4:10 5:5
5:0 3:5 15:10 14:5 5:5 4:5 3:5 5:5 4:10 5:5 14:5
3:0 15:10 14:5 5:5 4:5 3:5 5:5 4:10 5:5 14:5 15:5
15:0 14:5 5:5 4:5 3:5 5:5 4:10 5:5 14:5 15:5 9:5
14:0 5:5 4:5 3:5 5:5 4:10 5:5 14:5 15:5 9:5 5:5
5:0 4:5 3:5 5:5 4:10 5:5 14:5 15:5 9:5 5:5 6:5
4:0 3:5 5:5 4:10 5:5 14:5 15:5 9:5 5:5 6:5 5:5
3:0 5:5 4:10 5:5 14:5 15:5 9:5 5:5 6:5 5:5 3:10
5:0 4:10 5:5 14:5 15:5 9:5 5:5 6:5 5:5 3:10 4:5
4:0 5:5 14:5 15:5 9:5 5:5 6:5 5:5 3:10 4:5 5:5
5:0 14:5 15:5 9:5 5:5 6:5 5:5 3:10 4:5 5:5 4:5
14:0 15:5 9:5 5:5 6:5 5:5 3:10 4:5 5:5 4:5 14:5
15:0 9:5 5:5 6:5 5:5 3:10 4:5 5:5 4:5 14:5 15:5
9:0 5:5 6:5 5:5 3:10 4:5 5:5 4:5 14:5 15:5 11:10
5:0 6:5 5:5 3:10 4:5 5:5 4:5 14:5 15:5 11:10 6:5
6:0 5:5 3:10 4:5 5:5 4:5 14:5 15:5 11:10 6:5 7:5
5:0 3:10 4:5 5:5 4:5 14:5 15:5 11:10 6:5 7:5 5:5
3:0 4:5 5:5 4:5 14:5 15:5 11:10 6:5 7:5 5:5 3:5
4:0 5:5 4:5 14:5 15:5 11:10 6:5 7:5 5:5 3:5 4:5
5:0 4:5 14:5 15:5 11:10 6:5 7:5 5:5 3:5 4:5 5:5
4:0 14:5 15:5 11:10 6:5 7:5 5:5 3:5 4:5 5:5 4:10
14:0 15:5 11:10 6:5 7:5 5:5 3:5 4:5 5:5 4:10 12:5
15:0 11:10 6:5 7:5 5:5 3:5 4:5 5:5 4:10 12:5 14:5
11:0 6:5 7:5 5:5 3:5 4:5 5:5 4:10 12:5 14:5 15:5
6:0 7:5 5:5 3:5 4:5 5:5 4:10 12:5 14:5 15:5 9:5
7:0 5:5 3:5 4:5 5:5 4:10 12:5 14:5 15:5 9:5 5:5
5:0 3:5 4:5 5:5 4:10 12:5 14:5 15:5 9:5 5:5 4:5
3:0 4:5 5:5 4:10 12:5 14:5 15:5 9:5 5:5 4:5 5:10
4:0 5:5 4:10 12:5 14:5 15:5 9:5 5:5 4:5 5:10 4:10
5:0 4:10 12:5 14:5 15:5 9:5 5:5 4:5 5:10 4:10 7:5
4:0 12:5 14:5 15:5 9:5 5:5 4:5 5:10 4:10 7:5 14:5
12:0 14:5 15:5 9:5 5:5 4:5 5:10 4:10 7:5 14:5 15:5
14:0 15:5 9:5 5:5 4:5 5:10 4:10 7:5 14:5 15:5 6:5
15:0 9:5 5:5 4:5 5:10 4:10 7:5 14:5 15:5 6:5 5:5
9:0 5:5 4:5 5:10 4:10 7:5 14:5 15:5 6:5 5:5 6:5
5:0 4:5 5:10 4:10 7:5 14:5 15:5 6:5 5:5 6:5 4:10
4:0 5:10 4:10 7:5 14:5 15:5 6:5 5:5 6:5 4:10 5:15
5:0 4:10 7:5 14:5 15:5 6:5 5:5 6:5 4:10 5:15 7:5
4:0 7:5 14:5 15:5 6:5 5:5 6:5 4:10 5:15 7:5 14:5
7:0 14:5 15:5 6:5 5:5 6:5 4:10 5:15 7:5 14:5 15:10
14:0 15:5 6:5 5:5 6:5 4:10 5:15 7:5 14:5 15:10 9:5
15:0 6:5 5:5 6:5 4:10 5:15 7:5 14:5 15:10 9:5 6:5
6:0 5:5 6:5 4:10 5:15 7:5 14:5 15:10 9:5 6:5 4:10
5:0 6:5 4:10 5:15 7:5 14:5 15:10 9:5 6:5 4:10 3:5
6:0 4:10 5:15 7:5 14:5 15:10 9:5 6:5 4:10 3:5 14:5
4:0 5:15 7:5 14:5 15:10 9:5 6:5 4:10 3:5 14:5 15:5
5:0 7:5 14:5 15:10 9:5 6:5 4:10 3:5 14:5 15:5 6:5
7:0 14:5 15:10 9:5 6:5 4:10 3:5 14:5 15:5 6:5 5:5
14:0 15:10 9:5 6:5 4:10 3:5 14:5 15:5 6:5 5:5 6:5
15:0 9:5 6:5 4:10 3:5 14:5 15:5 6:5 5:5 6:5 5:5
9:0 6:5 4:10 3:5 14:5 15:5 6:5 5:5 6:5 5:5 4:5
6:0 4:10 3:5 14:5 15:5 6:5 5:5 6:5 5:5 4:5 11:10
4:0 3:5 14:5 15:5 6:5 5:5 6:5 5:5 4:5 11:10 15:5
3:0 14:5 15:5 6:5 5:5 6:5 5:5 4:5 11:10 15:5 13:5
14:0 15:5 6:5 5:5 6:5 5:5 4:5 11:10 15:5 13:5 7:5
15:0 6:5 5:5 6:5 5:5 4:5 11:10 15:5 13:5 7:5 5:5
6:0 5:5 6:5 5:5 4:5 11:10 15:5 13:5 7:5 5:5 4:5
5:0 6:5 5:5 4:5 11:10 15:5 13:5 7:5 5:5 4:5 3:5
6:0 5:5 4:5 11:10 15:5 13:5 7:5 5:5 4:5 3:5 5:5
5:0 4:5 11:10 15:5 13:5 7:5 5:5 4:5 3:5 5:5 4:10
4:0 11:10 15:5 13:5 7:5 5:5 4:5 3:5 5:5 4:10 10:5
11:0 15:5 13:5 7:5 5:5 4:5 3:5 5:5 4:10 10:5 14:5
15:0 13:5 7:5 5:5 4:5 3:5 5:5 4:10 10:5 14:5 15:5
13:0 7:5 5:5 4:5 3:5 5:5 4:10 10:5 14:5 15:5 11:5
7:0 5:5 4:5 3:5 5:5 4:10 10:5 14:5 15:5 11:5 5:5
5:0 4:5 3:5 5:5 4:10 10:5 14:5 15:5 11:5 5:5 3:10
4:0 3:5 5:5 4:10 10:5 14:5 15:5 11:5 5:5 3:10 5:5
3:0 5:5 4:10 10:5 14:5 15:5 11:5 5:5 3:10 5:5 3:10
5:0 4:10 10:5 14:5 15:5 11:5 5:5 3:10 5:5 3:10 12:5
4:0 10:5 14:5 15:5 11:5 5:5 3:10 5:5 3:10 12:5 15:5
10:0 14:5 15:5 11:5 5:5 3:10 5:5 3:10 12:5 15:5 14:5
14:0 15:5 11:5 5:5 3:10 5:5 3:10 12:5 15:5 14:5 6:5
15:0 11:5 5:5 3:10 5:5 3:10 12:5 15:5 14:5 6:5 5:5
11:0 5:5 3:10 5:5 3:10 12:5 15:5 14:5 6:5 5:5 4:5
5:0 3:10 5:5 3:10 12:5 15:5 14:5 6:5 5:5 4:5 5:10
3:0 5:5 3:10 12:5 15:5 14:5 6:5 5:5 4:5 5:10 3:10
5:0 3:10 12:5 15:5 14:5 6:5 5:5 4:5 5:10 3:10 14:5
3:0 12:5 15:5 14:5 6:5 5:5 4:5 5:10 3:10 14:5 15:5
12:0 15:5 14:5 6:5 5:5 4:5 5:10 3:10 14:5 15:5 5:10
15:0 14:5 6:5 5:5 4:5 5:10 3:10 14:5 15:5 5:10 4:5
14:0 6:5 5:5 4:5 5:10 3:10 14:5 15:5 5:10 4:5 3:5
6:0 5:5 4:5 5:10 3:10 14:5 15:5 5:10 4:5 3:5 6:5
5:0 4:5 5:10 3:10 14:5 15:5 5:10 4:5 3:5 6:5 5:10
4:0 5:10 3:10 14:5 15:5 5:10 4:5 3:5 6:5 5:10 14:10
5:0 3:10 14:5 15:5 5:10 4:5 3:5 6:5 5:10 14:10 15:5
3:0 14:5 15:5 5:10 4:5 3:5 6:5 5:10 14:10 15:5 11:5
14:0 15:5 5:10 4:5 3:5 6:5 5:10 14:10 15:5 11:5 5:5
15:0 5:10 4:5 3:5 6:5 5:10 14:10 15:5 11:5 5:5 6:5
5:0 4:5 3:5 6:5 5:10 14:10 15:5 11:5 5:5 6:5 4:10
4:0 3:5 6:5 5:10 14:10 15:5 11:5 5:5 6:5 4:10 5:15
3:0 6:5 5:10 14:10 15:5 11:5 5:5 6:5 4:10 5:15 14:10
6:0 5:10 14:10 15:5 11:5 5:5 6:5 4:10 5:15 14:10 15:5
5:0 14:10 15:5 11:5 5:5 6:5 4:10 5:15 14:10 15:5 6:10
14:0 15:5 11:5 5:5 6:5 4:10 5:15 14:10 15:5 6:10 5:15
15:0 11:5 5:5 6:5 4:10 5:15 14:10 15:5 6:10 5:15 3:5
11:0 5:5 6:5 4:10 5:15 14:10 15:5 6:10 5:15 3:5 11:5
5:0 6:5 4:10 5:15 14:10 15:5 6:10 5:15 3:5 11:5 15:5
6:0 4:10 5:15 14:10 15:5 6:10 5:15 3:5 11:5 15:5 12:5
4:0 5:15 14:10 15:5 6:10 5:15 3:5 11:5 15:5 12:5 5:5
5:0 14:10 15:5 6:10 5:15 3:5 11:5 15:5 12:5 5:5 3:10
14:0 15:5 6:10 5:15 3:5 11:5 15:5 12:5 5:5 3:10 5:5
15:0 6:10 5:15 3:5 11:5 15:5 12:5 5:5 3:10 5:5 3:10
6:0 5:15 3:5 11:5 15:5 12:5 5:5 3:10 5:5 3:10 14:5
5:0 3:5 11:5 15:5 12:5 5:5 3:10 5:5 3:10 14:5 15:5
3:0 11:5 15:5 12:5 5:5 3:10 5:5 3:10 14:5 15:5 6:10
11:0 15:5 12:5 5:5 3:10 5:5 3:10 14:5 15:5 6:10 5:5
15:0 12:5 5:5 3:10 5:5 3:10 14:5 15:5 6:10 5:5 6:5
12:0 5:5 3:10 5:5 3:10 14:5 15:5 6:10 5:5 6:5 5:5
5:0 3:10 5:5 3:10 14:5 15:5 6:10 5:5 6:5 5:5 4:5
3:0 5:5 3:10 14:5 15:5 6:10 5:5 6:5 5:5 4:5 3:5
5:0 3:10 14:5 15:5 6:10 5:5 6:5 5:5 4:5 3:5 4:5
3:0 14:5 15:5 6:10 5:5 6:5 5:5 4:5 3:5 4:5 5:5
14:0 15:5 6:10 5:5 6:5 5:5 4:5 3:5 4:5 5:5 4:5
15:0 6:10 5:5 6:5 5:5 4:5 3:5 4:5 5:5 4:5 14:5
6:0 5:5 6:5 5:5 4:5 3:5 4:5 5:5 4:5 14:5 15:5
5:0 6:5 5:5 4:5 3:5 4:5 5:5 4:5 14:5 15:5 9:10
6:0 5:5 4:5 3:5 4:5 5:5 4:5 14:5 15:5 9:10 6:5
5:0 4:5 3:5 4:5 5:5 4:5 14:5 15:5 9:10 6:5 5:10
4:0 3:5 4:5 5:5 4:5 14:5 15:5 9:10 6:5 5:10 3:5
3:0 4:5 5:5 4:5 14:5 15:5 9:10 6:5 5:10 3:5 4:5
4:0 5:5 4:5 14:5 15:5 9:10 6:5 5:10 3:5 4:5 5:5
5:0 4:5 14:5 15:5 9:10 6:5 5:10 3:5 4:5 5:5 3:10
4:0 14:5 15:5 9:10 6:5 5:10 3:5 4:5 5:5 3:10 14:5
14:0 15:5 9:10 6:5 5:10 3:5 4:5 5:5 3:10 14:5 15:10
15:0 9:10 6:5 5:10 3:5 4:5 5:5 3:10 14:5 15:10 9:5
9:0 6:5 5:10 3:5 4:5 5:5 3:10 14:5 15:10 9:5 5:5
6:0 5:10 3:5 4:5 5:5 3:10 14:5 15:10 9:5 5:5 4:5
5:0 3:5 4:5 5:5 3:10 14:5 15:10 9:5 5:5 4:5 6:10
3:0 4:5 5:5 3:10 14:5 15:10 9:5 5:5 4:5 6:10 5:5
4:0 5:5 3:10 14:5 15:10 9:5 5:5 4:5 6:10 5:5 7:5
5:0 3:10 14:5 15:10 9:5 5:5 4:5 6:10 5:5 7:5 14:5
3:0 14:5 15:10 9:5 5:5 4:5 6:10 5:5 7:5 14:5 15:5
14:0 15:10 9:5 5:5 4:5 6:10 5:5 7:5 14:5 15:5 12:5
15:0 9:5 5:5 4:5 6:10 5:5 7:5 14:5 15:5 12:5 6:5
9:0 5:5 4:5 6:10 5:5 7:5 14:5 15:5 12:5 6:5 5:15
5:0 4:5 6:10 5:5 7:5 14:5 15:5 12:5 6:5 5:15 4:5
4:0 6:10 5:5 7:5 14:5 15:5 12:5 6:5 5:15 4:5 3:5
6:0 5:5 7:5 14:5 15:5 12:5 6:5 5:15 4:5 3:5 5:5
5:0 7:5 14:5 15:5 12:5 6:5 5:15 4:5 3:5 5:5 14:15
7:0 14:5 15:5 12:5 6:5 5:15 4:5 3:5 5:5 14:15 15:5
14:0 15:5 12:5 6:5 5:15 4:5 3:5 5:5 14:15 15:5 7:10
15:0 12:5 6:5 5:15 4:5 3:5 5:5 14:15 15:5 7:10 6:5
12:0 6:5 5:15 4:5 3:5 5:5 14:15 15:5 7:10 6:5 3:10
6:0 5:15 4:5 3:5 5:5 14:15 15:5 7:10 6:5 3:10 4:10
5:0 4:5 3:5 5:5 14:15 15:5 7:10 6:5 3:10 4:10 5:5
4:0 3:5 5:5 14:15 15:5 7:10 6:5 3:10 4:10 5:5 14:15
3:0 5:5 14:15 15:5 7:10 6:5 3:10 4:10 5:5 14:15 15:5
5:0 14:15 15:5 7:10 6:5 3:10 4:10 5:5 14:15 15:5 14:5
14:0 15:5 7:10 6:5 3:10 4:10 5:5 14:15 15:5 14:5 5:5
15:0 7:10 6:5 3:10 4:10 5:5 14:15 15:5 14:5 5:5 3:10
7:0 6:5 3:10 4:10 5:5 14:15 15:5 14:5 5:5 3:10 5:5
6:0 3:10 4:10 5:5 14:15 15:5 14:5 5:5 3:10 5:5 3:10
3:0 4:10 5:5 14:15 15:5 14:5 5:5 3:10 5:5 3:10 12:5
4:0 5:5 14:15 15:5 14:5 5:5 3:10 5:5 3:10 12:5 14:5
5:0 14:15 15:5 14:5 5:5 3:10 5:5 3:10 12:5 14:5 15:5
14:0 15:5 14:5 5:5 3:10 5:5 3:10 12:5 14:5 15:5 6:5
15:0 14:5 5:5 3:10 5:5 3:10 12:5 14:5 15:5 6:5 5:5
14:0 5:5 3:10 5:5 3:10 12:5 14:5 15:5 6:5 5:5 6:5
5:0 3:10 5:5 3:10 12:5 14:5 15:5 6:5 5:5 6:5 4:10
3:0 5:5 3:10 12:5 14:5 15:5 6:5 5:5 6:5 4:10 14:20
5:0 3:10 12:5 14:5 15:5 6:5 5:5 6:5 4:10 14:20 15:5
3:0 12:5 14:5 15:5 6:5 5:5 6:5 4:10 14:20 15:5 13:5
12:0 14:5 15:5 6:5 5:5 6:5 4:10 14:20 15:5 13:5 5:5
14:0 15:5 6:5 5:5 6:5 4:10 14:20 15:5 13:5 5:5 6:5
15:0 6:5 5:5 6:5 4:10 14:20 15:5 13:5 5:5 6:5 5:5
6:0 5:5 6:5 4:10 14:20 15:5 13:5 5:5 6:5 5:5 4:5
5:0 6:5 4:10 14:20 15:5 13:5 5:5 6:5 5:5 4:5 3:5
6:0 4:10 14:20 15:5 13:5 5:5 6:5 5:5 4:5 3:5 5:5
4:0 14:20 15:5 13:5 5:5 6:5 5:5 4:5 3:5 5:5 4:10
14:0 15:5 13:5 5:5 6:5 5:5 4:5 3:5 5:5 4:10 14:5
15:0 13:5 5:5 6:5 5:5 4:5 3:5 5:5 4:10 14:5 15:10
13:0 5:5 6:5 5:5 4:5 3:5 5:5 4:10 14:5 15:10 9:5
5:0 6:5 5:5 4:5 3:5 5:5 4:10 14:5 15:10 9:5 6:5
6:0 5:5 4:5 3:5 5:5 4:10 14:5 15:10 9:5 6:5 4:10
5:0 4:5 3:5 5:5 4:10 14:5 15:10 9:5 6:5 4:10 3:5
4:0 3:5 5:5 4:10 14:5 15:10 9:5 6:5 4:10 3:5 11:5
3:0 5:5 4:10 14:5 15:10 9:5 6:5 4:10 3:5 11:5 15:5
5:0 4:10 14:5 15:10 9:5 6:5 4:10 3:5 11:5 15:5 9:5
4:0 14:5 15:10 9:5 6:5 4:10 3:5 11:5 15:5 9:5 5:5
14:0 15:10 9:5 6:5 4:10 3:5 11:5 15:5 9:5 5:5 4:5
15:0 9:5 6:5 4:10 3:5 11:5 15:5 9:5 5:5 4:5 6:10
9:0 6:5 4:10 3:5 11:5 15:5 9:5 5:5 4:5 6:10 5:5
6:0 4:10 3:5 11:5 15:5 9:5 5:5 4:5 6:10 5:5 4:5
4:0 3:5 11:5 15:5 9:5 5:5 4:5 6:10 5:5 4:5 10:5
3:0 11:5 15:5 9:5 5:5 4:5 6:10 5:5 4:5 10:5 15:5
11:0 15:5 9:5 5:5 4:5 6:10 5:5 4:5 10:5 15:5 13:5
15:0 9:5 5:5 4:5 6:10 5:5 4:5 10:5 15:5 13:5 5:5
9:0 5:5 4:5 6:10 5:5 4:5 10:5 15:5 13:5 5:5 6:5
5:0 4:5 6:10 5:5 4:5 10:5 15:5 13:5 5:5 6:5 4:5
4:0 6:10 5:5 4:5 10:5 15:5 13:5 5:5 6:5 4:5 5:5
6:0 5:5 4:5 10:5 15:5 13:5 5:5 6:5 4:5 5:5 6:5
5:0 4:5 10:5 15:5 13:5 5:5 6:5 4:5 5:5 6:5 4:5
4:0 10:5 15:5 13:5 5:5 6:5 4:5 5:5 6:5 4:5 3:5
10:0 15:5 13:5 5:5 6:5 4:5 5:5 6:5 4:5 3:5 14:5
15:0 13:5 5:5 6:5 4:5 5:5 6:5 4:5 3:5 14:5 15:5
13:0 5:5 6:5 4:5 5:5 6:5 4:5 3:5 14:5 15:5 13:5
5:0 6:5 4:5 5:5 6:5 4:5 3:5 14:5 15:5 13:5 5:5
6:0 4:5 5:5 6:5 4:5 3:5 14:5 15:5 13:5 5:5 3:10
4:0 5:5 6:5 4:5 3:5 14:5 15:5 13:5 5:5 3:10 5:5
5:0 6:5 4:5 3:5 14:5 15:5 13:5 5:5 3:10 5:5 4:10
6:0 4:5 3:5 14:5 15:5 13:5 5:5 3:10 5:5 4:10 8:5
4:0 3:5 14:5 15:5 13:5 5:5 3:10 5:5 4:10 8:5 15:5
3:0 14:5 15:5 13:5 5:5 3:10 5:5 4:10 8:5 15:5 5:10
14:0 15:5 13:5 5:5 3:10 5:5 4:10 8:5 15:5 5:10 4:15
15:0 13:5 5:5 3:10 5:5 4:10 8:5 15:5 5:10 4:15 3:5
13:0 5:5 3:10 5:5 4:10 8:5 15:5 5:10 4:15 3:5 6:5
5:0 3:10 5:5 4:10 8:5 15:5 5:10 4:15 3:5 6:5 14:5
3:0 5:5 4:10 8:5 15:5 5:10 4:15 3:5 6:5 14:5 15:5
5:0 4:10 8:5 15:5 5:10 4:15 3:5 6:5 14:5 15:5 11:5
4:0 8:5 15:5 5:10 4:15 3:5 6:5 14:5 15:5 11:5 7:5
8:0 15:5 5:10 4:15 3:5 6:5 14:5 15:5 11:5 7:5 5:5
15:0 5:10 4:15 3:5 6:5 14:5 15:5 11:5 7:5 5:5 4:5
5:0 4:15 3:5 6:5 14:5 15:5 11:5 7:5 5:5 4:5 5:10
4:0 3:5 6:5 14:5 15:5 11:5 7:5 5:5 4:5 5:10 4:10
3:0 6:5 14:5 15:5 11:5 7:5 5:5 4:5 5:10 4:10 12:5
6:0 14:5 15:5 11:5 7:5 5:5 4:5 5:10 4:10 12:5 15:5
14:0 15:5 11:5 7:5 5:5 4:5 5:10 4:10 12:5 15:5 6:10
15:0 11:5 7:5 5:5 4:5 5:10 4:10 12:5 15:5 6:10 5:5
11:0 7:5 5:5 4:5 5:10 4:10 12:5 15:5 6:10 5:5 6:5
7:0 5:5 4:5 5:10 4:10 12:5 15:5 6:10 5:5 6:5 4:10
5:0 4:5 5:10 4:10 12:5 15:5 6:10 5:5 6:5 4:10 5:15
4:0 5:10 4:10 12:5 15:5 6:10 5:5 6:5 4:10 5:15 4:5
5:0 4:10 12:5 15:5 6:10 5:5 6:5 4:10 5:15 4:5 10:5
4:0 12:5 15:5 6:10 5:5 6:5 4:10 5:15 4:5 10:5 14:5
12:0 15:5 6:10 5:5 6:5 4:10 5:15 4:5 10:5 14:5 15:5
15:0 6:10 5:5 6:5 4:10 5:15 4:5 10:5 14:5 15:5 14:5
6:0 5:5 6:5 4:10 5:15 4:5 10:5 14:5 15:5 14:5 6:5
5:0 6:5 4:10 5:15 4:5 10:5 14:5 15:5 14:5 6:5 5:10
6:0 4:10 5:15 4:5 10:5 14:5 15:5 14:5 6:5 5:10 3:5
4:0 5:15 4:5 10:5 14:5 15:5 14:5 6:5 5:10 3:5 11:5
5:0 4:5 10:5 14:5 15:5 14:5 6:5 5:10 3:5 11:5 15:5
4:0 10:5 14:5 15:5 14:5 6:5 5:10 3:5 11:5 15:5 12:5
10:0 14:5 15:5 14:5 6:5 5:10 3:5 11:5 15:5 12:5 5:5
14:0 15:5 14:5 6:5 5:10 3:5 11:5 15:5 12:5 5:5 4:5
15:0 14:5 6:5 5:10 3:5 11:5 15:5 12:5 5:5 4:5 6:10
14:0 6:5 5:10 3:5 11:5 15:5 12:5 5:5 4:5 6:10 5:5
6:0 5:10 3:5 11:5 15:5 12:5 5:5 4:5 6:10 5:5 4:5
5:0 3:5 11:5 15:5 12:5 5:5 4:5 6:10 5:5 4:5 7:5
3:0 11:5 15:5 12:5 5:5 4:5 6:10 5:5 4:5 7:5 15:5
11:0 15:5 12:5 5:5 4:5 6:10 5:5 4:5 7:5 15:5 6:10
15:0 12:5 5:5 4:5 6:10 5:5 4:5 7:5 15:5 6:10 5:5
12:0 5:5 4:5 6:10 5:5 4:5 7:5 15:5 6:10 5:5 6:5
5:0 4:5 6:10 5:5 4:5 7:5 15:5 6:10 5:5 6:5 5:5
4:0 6:10 5:5 4:5 7:5 15:5 6:10 5:5 6:5 5:5 4:5
6:0 5:5 4:5 7:5 15:5 6:10 5:5 6:5 5:5 4:5 5:15
5:0 4:5 7:5 15:5 6:10 5:5 6:5 5:5 4:5 5:15 3:5
4:0 7:5 15:5 6:10 5:5 6:5 5:5 4:5 5:15 3:5 14:5
7:0 15:5 6:10 5:5 6:5 5:5 4:5 5:15 3:5 14:5 15:10
15:0 6:10 5:5 6:5 5:5 4:5 5:15 3:5 14:5 15:10 6:5
6:0 5:5 6:5 5:5 4:5 5:15 3:5 14:5 15:10 6:5 4:15
5:0 6:5 5:5 4:5 5:15 3:5 14:5 15:10 6:5 4:15 3:5
6:0 5:5 4:5 5:15 3:5 14:5 15:10 6:5 4:15 3:5 15:5
5:0 4:5 5:15 3:5 14:5 15:10 6:5 4:15 3:5 15:5 6:10
4:0 5:15 3:5 14:5 15:10 6:5 4:15 3:5 15:5 6:10 5:5
5:0 3:5 14:5 15:10 6:5 4:15 3:5 15:5 6:10 5:5 6:5
3:0 14:5 15:10 6:5 4:15 3:5 15:5 6:10 5:5 6:5 5:5
14:0 15:10 6:5 4:15 3:5 15:5 6:10 5:5 6:5 5:5 4:5
15:0 6:5 4:15 3:5 15:5 6:10 5:5 6:5 5:5 4:5 13:10
6:0 4:15 3:5 15:5 6:10 5:5 6:5 5:5 4:5 13:10 15:5
4:0 3:5 15:5 6:10 5:5 6:5 5:5 4:5 13:10 15:5 13:5
3:0 15:5 6:10 5:5 6:5 5:5 4:5 13:10 15:5 13:5 7:5
15:0 6:10 5:5 6:5 5:5 4:5 13:10 15:5 13:5 7:5 5:5
6:0 5:5 6:5 5:5 4:5 13:10 15:5 13:5 7:5 5:5 4:5
5:0 6:5 5:5 4:5 13:10 15:5 13:5 7:5 5:5 4:5 3:5
6:0 5:5 4:5 13:10 15:5 13:5 7:5 5:5 4:5 3:5 5:5
5:0 4:5 13:10 15:5 13:5 7:5 5:5 4:5 3:5 5:5 4:10
4:0 13:10 15:5 13:5 7:5 5:5 4:5 3:5 5:5 4:10 9:5
13:0 15:5 13:5 7:5 5:5 4:5 3:5 5:5 4:10 9:5 14:5
15:0 13:5 7:5 5:5 4:5 3:5 5:5 4:10 9:5 14:5 15:5
13:0 7:5 5:5 4:5 3:5 5:5 4:10 9:5 14:5 15:5 11:5
7:0 5:5 4:5 3:5 5:5 4:10 9:5 14:5 15:5 11:5 5:5
5:0 4:5 3:5 5:5 4:10 9:5 14:5 15:5 11:5 5:5 6:5
4:0 3:5 5:5 4:10 9:5 14:5 15:5 11:5 5:5 6:5 4:10
3:0 5:5 4:10 9:5 14:5 15:5 11:5 5:5 6:5 4:10 11:10
5:0 4:10 9:5 14:5 15:5 11:5 5:5 6:5 4:10 11:10 15:5
4:0 9:5 14:5 15:5 11:5 5:5 6:5 4:10 11:10 15:5 13:5
9:0 14:5 15:5 11:5 5:5 6:5 4:10 11:10 15:5 13:5 6:5
14:0 15:5 11:5 5:5 6:5 4:10 11:10 15:5 13:5 6:5 2:10
15:0 11:5 5:5 6:5 4:10 11:10 15:5 13:5 6:5 2:10 4:5
11:0 5:5 6:5 4:10 11:10 15:5 13:5 6:5 2:10 4:5 5:5
5:0 6:5 4:10 11:10 15:5 13:5 6:5 2:10 4:5 5:5 4:10
6:0 4:10 11:10 15:5 13:5 6:5 2:10 4:5 5:5 4:10 9:5
4:0 11:10 15:5 13:5 6:5 2:10 4:5 5:5 4:10 9:5 14:5
11:0 15:5 13:5 6:5 2:10 4:5 5:5 4:10 9:5 14:5 15:5
15:0 13:5 6:5 2:10 4:5 5:5 4:10 9:5 14:5 15:5 9:5
13:0 6:5 2:10 4:5 5:5 4:10 9:5 14:5 15:5 9:5 5:5
6:0 2:10 4:5 5:5 4:10 9:5 14:5 15:5 9:5 5:5 4:5
2:0 4:5 5:5 4:10 9:5 14:5 15:5 9:5 5:5 4:5 6:10
4:0 5:5 4:10 9:5 14:5 15:5 9:5 5:5 4:5 6:10 4:10
5:0 4:10 9:5 14:5 15:5 9:5 5:5 4:5 6:10 4:10 5:5
4:0 9:5 14:5 15:5 9:5 5:5 4:5 6:10 4:10 5:5 15:5
9:0 14:5 15:5 9:5 5:5 4:5 6:10 4:10 5:5 15:5 9:10
14:0 15:5 9:5 5:5 4:5 6:10 4:10 5:5 15:5 9:10 5:5
15:0 9:5 5:5 4:5 6:10 4:10 5:5 15:5 9:10 5:5 4:10
9:0 5:5 4:5 6:10 4:10 5:5 15:5 9:10 5:5 4:10 5:5
5:0 4:5 6:10 4:10 5:5 15:5 9:10 5:5 4:10 5:5 3:10
4:0 6:10 4:10 5:5 15:5 9:10 5:5 4:10 5:5 3:10 14:5
6:0 4:10 5:5 15:5 9:10 5:5 4:10 5:5 3:10 14:5 15:5
4:0 5:5 15:5 9:10 5:5 4:10 5:5 3:10 14:5 15:5 14:5
5:0 15:5 9:10 5:5 4:10 5:5 3:10 14:5 15:5 14:5 5:5
15:0 9:10 5:5 4:10 5:5 3:10 14:5 15:5 14:5 5:5 3:15
9:0 5:5 4:10 5:5 3:10 14:5 15:5 14:5 5:5 3:15 4:5
5:0 4:10 5:5 3:10 14:5 15:5 14:5 5:5 3:15 4:5 12:10
4:0 5:5 3:10 14:5 15:5 14:5 5:5 3:15 4:5 12:10 15:5
5:0 3:10 14:5 15:5 14:5 5:5 3:15 4:5 12:10 15:5 13:5
3:0 14:5 15:5 14:5 5:5 3:15 4:5 12:10 15:5 13:5 7:5
14:0 15:5 14:5 5:5 3:15 4:5 12:10 15:5 13:5 7:5 4:5
15:0 14:5 5:5 3:15 4:5 12:10 15:5 13:5 7:5 4:5 5:15
14:0 5:5 3:15 4:5 12:10 15:5 13:5 7:5 4:5 5:15 6:10
5:0 3:15 4:5 12:10 15:5 13:5 7:5 4:5 5:15 6:10 14:5
3:0 4:5 12:10 15:5 13:5 7:5 4:5 5:15 6:10 14:5 15:5
4:0 12:10 15:5 13:5 7:5 4:5 5:15 6:10 14:5 15:5 14:5
12:0 15:5 13:5 7:5 4:5 5:15 6:10 14:5 15:5 14:5 6:5
15:0 13:5 7:5 4:5 5:15 6:10 14:5 15:5 14:5 6:5 5:5
13:0 7:5 4:5 5:15 6:10 14:5 15:5 14:5 6:5 5:5 6:5
7:0 4:5 5:15 6:10 14:5 15:5 14:5 6:5 5:5 6:5 5:5
4:0 5:15 6:10 14:5 15:5 14:5 6:5 5:5 6:5 5:5 4:5
5:0 6:10 14:5 15:5 14:5 6:5 5:5 6:5 5:5 4:5 12:10
6:0 14:5 15:5 14:5 6:5 5:5 6:5 5:5 4:5 12:10 15:5
14:0 15:5 14:5 6:5 5:5 6:5 5:5 4:5 12:10 15:5 13:5
15:0 14:5 6:5 5:5 6:5 5:5 4:5 12:10 15:5 13:5 7:5
14:0 6:5 5:5 6:5 5:5 4:5 12:10 15:5 13:5 7:5 4:5
6:0 5:5 6:5 5:5 4:5 12:10 15:5 13:5 7:5 4:5 5:15
5:0 6:5 5:5 4:5 12:10 15:5 13:5 7:5 4:5 5:15 3:10
6:0 5:5 4:5 12:10 15:5 13:5 7:5 4:5 5:15 3:10 12:5
5:0 4:5 12:10 15:5 13:5 7:5 4:5 5:15 3:10 12:5 14:5
4:0 12:10 15:5 13:5 7:5 4:5 5:15 3:10 12:5 14:5 15:5
12:0 15:5 13:5 7:5 4:5 5:15 3:10 12:5 14:5 15:5 6:5
15:0 13:5 7:5 4:5 5:15 3:10 12:5 14:5 15:5 6:5 5:5
13:0 7:5 4:5 5:15 3:10 12:5 14:5 15:5 6:5 5:5 6:5
7:0 4:5 5:15 3:10 12:5 14:5 15:5 6:5 5:5 6:5 5:5
4:0 5:15 3:10 12:5 14:5 15:5 6:5 5:5 6:5 5:5 4:5
5:0 3:10 12:5 14:5 15:5 6:5 5:5 6:5 5:5 4:5 5:15
3:0 12:5 14:5 15:5 6:5 5:5 6:5 5:5 4:5 5:15 7:5
12:0 14:5 15:5 6:5 5:5 6:5 5:5 4:5 5:15 7:5 14:5
14:0 15:5 6:5 5:5 6:5 5:5 4:5 5:15 7:5 14:5 15:5
15:0 6:5 5:5 6:5 5:5 4:5 5:15 7:5 14:5 15:5 12:10
6:0 5:5 6:5 5:5 4:5 5:15 7:5 14:5 15:5 12:10 7:5
5:0 6:5 5:5 4:5 5:15 7:5 14:5 15:5 12:10 7:5 5:10
6:0 5:5 4:5 5:15 7:5 14:5 15:5 12:10 7:5 5:10 4:5
5:0 4:5 5:15 7:5 14:5 15:5 12:10 7:5 5:10 4:5 5:10
4:0 5:15 7:5 14:5 15:5 12:10 7:5 5:10 4:5 5:10 6:5
5:0 7:5 14:5 15:5 12:10 7:5 5:10 4:5 5:10 6:5 3:5
7:0 14:5 15:5 12:10 7:5 5:10 4:5 5:10 6:5 3:5 10:5
14:0 15:5 12:10 7:5 5:10 4:5 5:10 6:5 3:5 10:5 15:5
15:0 12:10 7:5 5:10 4:5 5:10 6:5 3:5 10:5 15:5 6:10
12:0 7:5 5:10 4:5 5:10 6:5 3:5 10:5 15:5 6:10 5:5
7:0 5:10 4:5 5:10 6:5 3:5 10:5 15:5 6:10 5:5 4:5
5:0 4:5 5:10 6:5 3:5 10:5 15:5 6:10 5:5 4:5 6:10
4:0 5:10 6:5 3:5 10:5 15:5 6:10 5:5 4:5 6:10 5:5
5:0 6:5 3:5 10:5 15:5 6:10 5:5 4:5 6:10 5:5 3:5
6:0 3:5 10:5 15:5 6:10 5:5 4:5 6:10 5:5 3:5 12:5
3:0 10:5 15:5 6:10 5:5 4:5 6:10 5:5 3:5 12:5 15:5
10:0 15:5 6:10 5:5 4:5 6:10 5:5 3:5 12:5 15:5 14:5
15:0 6:10 5:5 4:5 6:10 5:5 3:5 12:5 15:5 14:5 5:5
6:0 5:5 4:5 6:10 5:5 3:5 12:5 15:5 14:5 5:5 6:10
5:0 4:5 6:10 5:5 3:5 12:5 15:5 14:5 5:5 6:10 3:5
4:0 6:10 5:5 3:5 12:5 15:5 14:5 5:5 6:10 3:5 6:10
6:0 5:5 3:5 12:5 15:5 14:5 5:5 6:10 3:5 6:10 15:5
5:0 3:5 12:5 15:5 14:5 5:5 6:10 3:5 6:10 15:5 11:10
3:0 12:5 15:5 14:5 5:5 6:10 3:5 6:10 15:5 11:10 6:5
12:0 15:5 14:5 5:5 6:10 3:5 6:10 15:5 11:10 6:5 3:5
15:0 14:5 5:5 6:10 3:5 6:10 15:5 11:10 6:5 3:5 13:10
14:0 5:5 6:10 3:5 6:10 15:5 11:10 6:5 3:5 13:10 15:5
5:0 6:10 3:5 6:10 15:5 11:10 6:5 3:5 13:10 15:5 6:5
6:0 3:5 6:10 15:5 11:10 6:5 3:5 13:10 15:5 6:5 5:5
3:0 6:10 15:5 11:10 6:5 3:5 13:10 15:5 6:5 5:5 6:5
6:0 15:5 11:10 6:5 3:5 13:10 15:5 6:5 5:5 6:5 5:5
15:0 11:10 6:5 3:5 13:10 15:5 6:5 5:5 6:5 5:5 4:5
11:0 6:5 3:5 13:10 15:5 6:5 5:5 6:5 5:5 4:5 13:20
6:0 3:5 13:10 15:5 6:5 5:5 6:5 5:5 4:5 13:20 15:5
3:0 13:10 15:5 6:5 5:5 6:5 5:5 4:5 13:20 15:5 11:10
13:0 15:5 6:5 5:5 6:5 5:5 4:5 13:20 15:5 11:10 6:5
15:0 6:5 5:5 6:5 5:5 4:5 13:20 15:5 11:10 6:5 4:15
6:0 5:5 6:5 5:5 4:5 13:20 15:5 11:10 6:5 4:15 3:5
5:0 6:5 5:5 4:5 13:20 15:5 11:10 6:5 4:15 3:5 11:5
6:0 5:5 4:5 13:20 15:5 11:10 6:5 4:15 3:5 11:5 15:5
5:0 4:5 13:20 15:5 11:10 6:5 4:15 3:5 11:5 15:5 9:5
4:0 13:20 15:5 11:10 6:5 4:15 3:5 11:5 15:5 9:5 5:5
13:0 15:5 11:10 6:5 4:15 3:5 11:5 15:5 9:5 5:5 4:5
15:0 11:10 6:5 4:15 3:5 11:5 15:5 9:5 5:5 4:5 6:10
11:0 6:5 4:15 3:5 11:5 15:5 9:5 5:5 4:5 6:10 5:5
6:0 4:15 3:5 11:5 15:5 9:5 5:5 4:5 6:10 5:5 3:5
4:0 3:5 11:5 15:5 9:5 5:5 4:5 6:10 5:5 3:5 12:5
3:0 11:5 15:5 9:5 5:5 4:5 6:10 5:5 3:5 12:5 14:5
11:0 15:5 9:5 5:5 4:5 6:10 5:5 3:5 12:5 14:5 15:5
15:0 9:5 5:5 4:5 6:10 5:5 3:5 12:5 14:5 15:5 5:5
9:0 5:5 4:5 6:10 5:5 3:5 12:5 14:5 15:5 5:5 4:5
5:0 4:5 6:10 5:5 3:5 12:5 14:5 15:5 5:5 4:5 5:10
4:0 6:10 5:5 3:5 12:5 14:5 15:5 5:5 4:5 5:10 6:5
6:0 5:5 3:5 12:5 14:5 15:5 5:5 4:5 5:10 6:5 5:5
5:0 3:5 12:5 14:5 15:5 5:5 4:5 5:10 6:5 5:5 4:5
3:0 12:5 14:5 15:5 5:5 4:5 5:10 6:5 5:5 4:5 7:5
12:0 14:5 15:5 5:5 4:5 5:10 6:5 5:5 4:5 7:5 15:5
14:0 15:5 5:5 4:5 5:10 6:5 5:5 4:5 7:5 15:5 5:10
15:0 5:5 4:5 5:10 6:5 5:5 4:5 7:5 15:5 5:10 3:10
5:0 4:5 5:10 6:5 5:5 4:5 7:5 15:5 5:10 3:10 4:5
4:0 5:10 6:5 5:5 4:5 7:5 15:5 5:10 3:10 4:5 5:5
5:0 6:5 5:5 4:5 7:5 15:5 5:10 3:10 4:5 5:5 4:5
6:0 5:5 4:5 7:5 15:5 5:10 3:10 4:5 5:5 4:5 9:5
5:0 4:5 7:5 15:5 5:10 3:10 4:5 5:5 4:5 9:5 14:5
4:0 7:5 15:5 5:10 3:10 4:5 5:5 4:5 9:5 14:5 15:5
7:0 15:5 5:10 3:10 4:5 5:5 4:5 9:5 14:5 15:5 9:5
15:0 5:10 3:10 4:5 5:5 4:5 9:5 14:5 15:5 9:5 5:5
5:0 3:10 4:5 5:5 4:5 9:5 14:5 15:5 9:5 5:5 6:5
3:0 4:5 5:5 4:5 9:5 14:5 15:5 9:5 5:5 6:5 4:10
4:0 5:5 4:5 9:5 14:5 15:5 9:5 5:5 6:5 4:10 5:15
5:0 4:5 9:5 14:5 15:5 9:5 5:5 6:5 4:10 5:15 3:5
4:0 9:5 14:5 15:5 9:5 5:5 6:5 4:10 5:15 3:5 14:5
9:0 14:5 15:5 9:5 5:5 6:5 4:10 5:15 3:5 14:5 15:5
14:0 15:5 9:5 5:5 6:5 4:10 5:15 3:5 14:5 15:5 11:10
15:0 9:5 5:5 6:5 4:10 5:15 3:5 14:5 15:5 11:10 6:5
9:0 5:5 6:5 4:10 5:15 3:5 14:5 15:5 11:10 6:5 4:10
5:0 6:5 4:10 5:15 3:5 14:5 15:5 11:10 6:5 4:10 3:5
6:0 4:10 5:15 3:5 14:5 15:5 11:10 6:5 4:10 3:5 13:5
4:0 5:15 3:5 14:5 15:5 11:10 6:5 4:10 3:5 13:5 15:5
5:0 3:5 14:5 15:5 11:10 6:5 4:10 3:5 13:5 15:5 7:5
3:0 14:5 15:5 11:10 6:5 4:10 3:5 13:5 15:5 7:5 5:5
14:0 15:5 11:10 6:5 4:10 3:5 13:5 15:5 7:5 5:5 6:5
15:0 11:10 6:5 4:10 3:5 13:5 15:5 7:5 5:5 6:5 4:10
11:0 6:5 4:10 3:5 13:5 15:5 7:5 5:5 6:5 4:10 3:5
6:0 4:10 3:5 13:5 15:5 7:5 5:5 6:5 4:10 3:5 4:5
4:0 3:5 13:5 15:5 7:5 5:5 6:5 4:10 3:5 4:5 5:5
3:0 13:5 15:5 7:5 5:5 6:5 4:10 3:5 4:5 5:5 4:5
13:0 15:5 7:5 5:5 6:5 4:10 3:5 4:5 5:5 4:5 12:5
15:0 7:5 5:5 6:5 4:10 3:5 4:5 5:5 4:5 12:5 15:5
7:0 5:5 6:5 4:10 3:5 4:5 5:5 4:5 12:5 15:5 11:10
5:0 6:5 4:10 3:5 4:5 5:5 4:5 12:5 15:5 11:10 6:5
6:0 4:10 3:5 4:5 5:5 4:5 12:5 15:5 11:10 6:5 5:10
4:0 3:5 4:5 5:5 4:5 12:5 15:5 11:10 6:5 5:10 3:5
3:0 4:5 5:5 4:5 12:5 15:5 11:10 6:5 5:10 3:5 5:10
4:0 5:5 4:5 12:5 15:5 11:10 6:5 5:10 3:5 5:10 6:5
5:0 4:5 12:5 15:5 11:10 6:5 5:10 3:5 5:10 6:5 4:5
4:0 12:5 15:5 11:10 6:5 5:10 3:5 5:10 6:5 4:5 7:5
12:0 15:5 11:10 6:5 5:10 3:5 5:10 6:5 4:5 7:5 14:5
15:0 11:10 6:5 5:10 3:5 5:10 6:5 4:5 7:5 14:5 15:5
11:0 6:5 5:10 3:5 5:10 6:5 4:5 7:5 14:5 15:5 13:5
6:0 5:10 3:5 5:10 6:5 4:5 7:5 14:5 15:5 13:5 5:5
5:0 3:5 5:10 6:5 4:5 7:5 14:5 15:5 13:5 5:5 4:5
3:0 5:10 6:5 4:5 7:5 14:5 15:5 13:5 5:5 4:5 5:10
5:0 6:5 4:5 7:5 14:5 15:5 13:5 5:5 4:5 5:10 3:10
6:0 4:5 7:5 14:5 15:5 13:5 5:5 4:5 5:10 3:10 14:5
4:0 7:5 14:5 15:5 13:5 5:5 4:5 5:10 3:10 14:5 15:5
7:0 14:5 15:5 13:5 5:5 4:5 5:10 3:10 14:5 15:5 6:10
14:0 15:5 13:5 5:5 4:5 5:10 3:10 14:5 15:5 6:10 5:5
15:0 13:5 5:5 4:5 5:10 3:10 14:5 15:5 6:10 5:5 6:5
13:0 5:5 4:5 5:10 3:10 14:5 15:5 6:10 5:5 6:5 4:10
5:0 4:5 5:10 3:10 14:5 15:5 6:10 5:5 6:5 4:10 3:5
4:0 5:10 3:10 14:5 15:5 6:10 5:5 6:5 4:10 3:5 4:5
5:0 3:10 14:5 15:5 6:10 5:5 6:5 4:10 3:5 4:5 5:5
3:0 14:5 15:5 6:10 5:5 6:5 4:10 3:5 4:5 5:5 7:5
14:0 15:5 6:10 5:5 6:5 4:10 3:5 4:5 5:5 7:5 14:5
15:0 6:10 5:5 6:5 4:10 3:5 4:5 5:5 7:5 14:5 15:5
6:0 5:5 6:5 4:10 3:5 4:5 5:5 7:5 14:5 15:5 9:10
5:0 6:5 4:10 3:5 4:5 5:5 7:5 14:5 15:5 9:10 6:5
6:0 4:10 3:5 4:5 5:5 7:5 14:5 15:5 9:10 6:5 4:10
4:0 3:5 4:5 5:5 7:5 14:5 15:5 9:10 6:5 4:10 3:5
3:0 4:5 5:5 7:5 14:5 15:5 9:10 6:5 4:10 3:5 13:5
4:0 5:5 7:5 14:5 15:5 9:10 6:5 4:10 3:5 13:5 15:5
5:0 7:5 14:5 15:5 9:10 6:5 4:10 3:5 13:5 15:5 11:5
7:0 14:5 15:5 9:10 6:5 4:10 3:5 13:5 15:5 11:5 5:5
14:0 15:5 9:10 6:5 4:10 3:5 13:5 15:5 11:5 5:5 4:10
15:0 9:10 6:5 4:10 3:5 13:5 15:5 11:5 5:5 4:10 5:5
9:0 6:5 4:10 3:5 13:5 15:5 11:5 5:5 4:10 5:5 4:10
6:0 4:10 3:5 13:5 15:5 11:5 5:5 4:10 5:5 4:10 7:5
4:0 3:5 13:5 15:5 11:5 5:5 4:10 5:5 4:10 7:5 15:5
3:0 13:5 15:5 11:5 5:5 4:10 5:5 4:10 7:5 15:5 5:10
13:0 15:5 11:5 5:5 4:10 5:5 4:10 7:5 15:5 5:10 4:5
15:0 11:5 5:5 4:10 5:5 4:10 7:5 15:5 5:10 4:5 3:5
11:0 5:5 4:10 5:5 4:10 7:5 15:5 5:10 4:5 3:5 5:5
5:0 4:10 5:5 4:10 7:5 15:5 5:10 4:5 3:5 5:5 14:20
4:0 5:5 4:10 7:5 15:5 5:10 4:5 3:5 5:5 14:20 15:5
5:0 4:10 7:5 15:5 5:10 4:5 3:5 5:5 14:20 15:5 12:5
4:0 7:5 15:5 5:10 4:5 3:5 5:5 14:20 15:5 12:5 5:5
7:0 15:5 5:10 4:5 3:5 5:5 14:20 15:5 12:5 5:5 6:5
15:0 5:10 4:5 3:5 5:5 14:20 15:5 12:5 5:5 6:5 4:10
5:0 4:5 3:5 5:5 14:20 15:5 12:5 5:5 6:5 4:10 5:15
4:0 3:5 5:5 14:20 15:5 12:5 5:5 6:5 4:10 5:15 4:5
3:0 5:5 14:20 15:5 12:5 5:5 6:5 4:10 5:15 4:5 14:5
5:0 14:20 15:5 12:5 5:5 6:5 4:10 5:15 4:5 14:5 15:5
14:0 15:5 12:5 5:5 6:5 4:10 5:15 4:5 14:5 15:5 9:10
15:0 12:5 5:5 6:5 4:10 5:15 4:5 14:5 15:5 9:10 6:5
12:0 5:5 6:5 4:10 5:15 4:5 14:5 15:5 9:10 6:5 5:10
5:0 6:5 4:10 5:15 4:5 14:5 15:5 9:10 6:5 5:10 3:5
6:0 4:10 5:15 4:5 14:5 15:5 9:10 6:5 5:10 3:5 6:5
4:0 5:15 4:5 14:5 15:5 9:10 6:5 5:10 3:5 6:5 15:5
5:0 4:5 14:5 15:5 9:10 6:5 5:10 3:5 6:5 15:5 5:10
4:0 14:5 15:5 9:10 6:5 5:10 3:5 6:5 15:5 5:10 3:10
14:0 15:5 9:10 6:5 5:10 3:5 6:5 15:5 5:10 3:10 5:5
15:0 9:10 6:5 5:10 3:5 6:5 15:5 5:10 3:10 5:5 3:10
9:0 6:5 5:10 3:5 6:5 15:5 5:10 3:10 5:5 3:10 11:5
6:0 5:10 3:5 6:5 15:5 5:10 3:10 5:5 3:10 11:5 14:5
5:0 3:5 6:5 15:5 5:10 3:10 5:5 3:10 11:5 14:5 15:5
3:0 6:5 15:5 5:10 3:10 5:5 3:10 11:5 14:5 15:5 7:5
6:0 15:5 5:10 3:10 5:5 3:10 11:5 14:5 15:5 7:5 5:5
15:0 5:10 3:10 5:5 3:10 11:5 14:5 15:5 7:5 5:5 6:5
5:0 3:10 5:5 3:10 11:5 14:5 15:5 7:5 5:5 6:5 4:10
3:0 5:5 3:10 11:5 14:5 15:5 7:5 5:5 6:5 4:10 14:25
5:0 3:10 11:5 14:5 15:5 7:5 5:5 6:5 4:10 14:25 15:5
3:0 11:5 14:5 15:5 7:5 5:5 6:5 4:10 14:25 15:5 11:10
11:0 14:5 15:5 7:5 5:5 6:5 4:10 14:25 15:5 11:10 6:5
14:0 15:5 7:5 5:5 6:5 4:10 14:25 15:5 11:10 6:5 7:5
15:0 7:5 5:5 6:5 4:10 14:25 15:5 11:10 6:5 7:5 5:5
7:0 5:5 6:5 4:10 14:25 15:5 11:10 6:5 7:5 5:5 3:5
5:0 6:5 4:10 14:25 15:5 11:10 6:5 7:5 5:5 3:5 4:5
6:0 4:10 14:25 15:5 11:10 6:5 7:5 5:5 3:5 4:5 5:5
4:0 14:25 15:5 11:10 6:5 7:5 5:5 3:5 4:5 5:5 4:10
14:0 15:5 11:10 6:5 7:5 5:5 3:5 4:5 5:5 4:10 12:5
15:0 11:10 6:5 7:5 5:5 3:5 4:5 5:5 4:10 12:5 14:5
11:0 6:5 7:5 5:5 3:5 4:5 5:5 4:10 12:5 14:5 15:5
6:0 7:5 5:5 3:5 4:5 5:5 4:10 12:5 14:5 15:5 11:5
7:0 5:5 3:5 4:5 5:5 4:10 12:5 14:5 15:5 11:5 5:5
5:0 3:5 4:5 5:5 4:10 12:5 14:5 15:5 11:5 5:5 6:5
3:0 4:5 5:5 4:10 12:5 14:5 15:5 11:5 5:5 6:5 4:10
4:0 5:5 4:10 12:5 14:5 15:5 11:5 5:5 6:5 4:10 3:5
5:0 4:10 12:5 14:5 15:5 11:5 5:5 6:5 4:10 3:5 11:5
4:0 12:5 14:5 15:5 11:5 5:5 6:5 4:10 3:5 11:5 15:5
12:0 14:5 15:5 11:5 5:5 6:5 4:10 3:5 11:5 15:5 14:5
14:0 15:5 11:5 5:5 6:5 4:10 3:5 11:5 15:5 14:5 7:5
15:0 11:5 5:5 6:5 4:10 3:5 11:5 15:5 14:5 7:5 6:5
11:0 5:5 6:5 4:10 3:5 11:5 15:5 14:5 7:5 6:5 5:5
5:0 6:5 4:10 3:5 11:5 15:5 14:5 7:5 6:5 5:5 3:5
6:0 4:10 3:5 11:5 15:5 14:5 7:5 6:5 5:5 3:5 5:5
4:0 3:5 11:5 15:5 14:5 7:5 6:5 5:5 3:5 5:5 4:10
3:0 11:5 15:5 14:5 7:5 6:5 5:5 3:5 5:5 4:10 6:5
11:0 15:5 14:5 7:5 6:5 5:5 3:5 5:5 4:10 6:5 14:5
15:0 14:5 7:5 6:5 5:5 3:5 5:5 4:10 6:5 14:5 15:5
14:0 7:5 6:5 5:5 3:5 5:5 4:10 6:5 14:5 15:5 12:5
7:0 6:5 5:5 3:5 5:5 4:10 6:5 14:5 15:5 12:5 5:5
6:0 5:5 3:5 5:5 4:10 6:5 14:5 15:5 12:5 5:5 6:5
5:0 3:5 5:5 4:10 6:5 14:5 15:5 12:5 5:5 6:5 4:10
3:0 5:5 4:10 6:5 14:5 15:5 12:5 5:5 6:5 4:10 3:5
5:0 4:10 6:5 14:5 15:5 12:5 5:5 6:5 4:10 3:5 4:5
4:0 6:5 14:5 15:5 12:5 5:5 6:5 4:10 3:5 4:5 15:5
6:0 14:5 15:5 12:5 5:5 6:5 4:10 3:5 4:5 15:5 13:10
14:0 15:5 12:5 5:5 6:5 4:10 3:5 4:5 15:5 13:10 6:5
15:0 12:5 5:5 6:5 4:10 3:5 4:5 15:5 13:10 6:5 4:5
12:0 5:5 6:5 4:10 3:5 4:5 15:5 13:10 6:5 4:5 5:15
5:0 6:5 4:10 3:5 4:5 15:5 13:10 6:5 4:5 5:15 7:10
6:0 4:10 3:5 4:5 15:5 13:10 6:5 4:5 5:15 7:10 14:5
4:0 3:5 4:5 15:5 13:10 6:5 4:5 5:15 7:10 14:5 15:5
3:0 4:5 15:5 13:10 6:5 4:5 5:15 7:10 14:5 15:5 13:5
4:0 15:5 13:10 6:5 4:5 5:15 7:10 14:5 15:5 13:5 5:5
15:0 13:10 6:5 4:5 5:15 7:10 14:5 15:5 13:5 5:5 4:5
13:0 6:5 4:5 5:15 7:10 14:5 15:5 13:5 5:5 4:5 6:10
6:0 4:5 5:15 7:10 14:5 15:5 13:5 5:5 4:5 6:10 4:10
4:0 5:15 7:10 14:5 15:5 13:5 5:5 4:5 6:10 4:10 3:5
5:0 7:10 14:5 15:5 13:5 5:5 4:5 6:10 4:10 3:5 14:5
7:0 14:5 15:5 13:5 5:5 4:5 6:10 4:10 3:5 14:5 15:5
14:0 15:5 13:5 5:5 4:5 6:10 4:10 3:5 14:5 15:5 11:5
15:0 13:5 5:5 4:5 6:10 4:10 3:5 14:5 15:5 11:5 5:5
13:0 5:5 4:5 6:10 4:10 3:5 14:5 15:5 11:5 5:5 4:10
5:0 4:5 6:10 4:10 3:5 14:5 15:5 11:5 5:5 4:10 5:5
4:0 6:10 4:10 3:5 14:5 15:5 11:5 5:5 4:10 5:5 3:10
6:0 4:10 3:5 14:5 15:5 11:5 5:5 4:10 5:5 3:10 14:5
4:0 3:5 14:5 15:5 11:5 5:5 4:10 5:5 3:10 14:5 15:5
3:0 14:5 15:5 11:5 5:5 4:10 5:5 3:10 14:5 15:5 6:10
14:0 15:5 11:5 5:5 4:10 5:5 3:10 14:5 15:5 6:10 5:5
15:0 11:5 5:5 4:10 5:5 3:10 14:5 15:5 6:10 5:5 6:5
11:0 5:5 4:10 5:5 3:10 14:5 15:5 6:10 5:5 6:5 5:5
5:0 4:10 5:5 3:10 14:5 15:5 6:10 5:5 6:5 5:5 4:5
4:0 5:5 3:10 14:5 15:5 6:10 5:5 6:5 5:5 4:5 5:10
5:0 3:10 14:5 15:5 6:10 5:5 6:5 5:5 4:5 5:10 3:5
3:0 14:5 15:5 6:10 5:5 6:5 5:5 4:5 5:10 3:5 13:5
14:0 15:5 6:10 5:5 6:5 5:5 4:5 5:10 3:5 13:5 15:5
15:0 6:10 5:5 6:5 5:5 4:5 5:10 3:5 13:5 15:5 11:10
6:0 5:5 6:5 5:5 4:5 5:10 3:5 13:5 15:5 11:10 6:5
5:0 6:5 5:5 4:5 5:10 3:5 13:5 15:5 11:10 6:5 3:15
6:0 5:5 4:5 5:10 3:5 13:5 15:5 11:10 6:5 3:15 10:5
5:0 4:5 5:10 3:5 13:5 15:5 11:10 6:5 3:15 10:5 15:5
4:0 5:10 3:5 13:5 15:5 11:10 6:5 3:15 10:5 15:5 14:5
5:0 3:5 13:5 15:5 11:10 6:5 3:15 10:5 15:5 14:5 7:5
3:0 13:5 15:5 11:10 6:5 3:15 10:5 15:5 14:5 7:5 5:5
13:0 15:5 11:10 6:5 3:15 10:5 15:5 14:5 7:5 5:5 6:5
15:0 11:10 6:5 3:15 10:5 15:5 14:5 7:5 5:5 6:5 5:10
11:0 6:5 3:15 10:5 15:5 14:5 7:5 5:5 6:5 5:10 2:5
6:0 3:15 10:5 15:5 14:5 7:5 5:5 6:5 5:10 2:5 13:5
3:0 10:5 15:5 14:5 7:5 5:5 6:5 5:10 2:5 13:5 15:5
10:0 15:5 14:5 7:5 5:5 6:5 5:10 2:5 13:5 15:5 11:5
15:0 14:5 7:5 5:5 6:5 5:10 2:5 13:5 15:5 11:5 7:5
14:0 7:5 5:5 6:5 5:10 2:5 13:5 15:5 11:5 7:5 5:5
7:0 5:5 6:5 5:10 2:5 13:5 15:5 11:5 7:5 5:5 3:10
5:0 6:5 5:10 2:5 13:5 15:5 11:5 7:5 5:5 3:10 5:5
6:0 5:10 2:5 13:5 15:5 11:5 7:5 5:5 3:10 5:5 6:5
5:0 2:5 13:5 15:5 11:5 7:5 5:5 3:10 5:5 6:5 4:5
2:0 13:5 15:5 11:5 7:5 5:5 3:10 5:5 6:5 4:5 7:5
13:0 15:5 11:5 7:5 5:5 3:10 5:5 6:5 4:5 7:5 14:5
15:0 11:5 7:5 5:5 3:10 5:5 6:5 4:5 7:5 14:5 15:5
11:0 7:5 5:5 3:10 5:5 6:5 4:5 7:5 14:5 15:5 9:5
7:0 5:5 3:10 5:5 6:5 4:5 7:5 14:5 15:5 9:5 5:5
5:0 3:10 5:5 6:5 4:5 7:5 14:5 15:5 9:5 5:5 6:5
3:0 5:5 6:5 4:5 7:5 14:5 15:5 9:5 5:5 6:5 3:10
5:0 6:5 4:5 7:5 14:5 15:5 9:5 5:5 6:5 3:10 4:5
6:0 4:5 7:5 14:5 15:5 9:5 5:5 6:5 3:10 4:5 5:10
4:0 7:5 14:5 15:5 9:5 5:5 6:5 3:10 4:5 5:10 4:5
7:0 14:5 15:5 9:5 5:5 6:5 3:10 4:5 5:10 4:5 14:5
14:0 15:5 9:5 5:5 6:5 3:10 4:5 5:10 4:5 14:5 15:10
15:0 9:5 5:5 6:5 3:10 4:5 5:10 4:5 14:5 15:10 14:5
9:0 5:5 6:5 3:10 4:5 5:10 4:5 14:5 15:10 14:5 7:5
5:0 6:5 3:10 4:5 5:10 4:5 14:5 15:10 14:5 7:5 5:10
6:0 3:10 4:5 5:10 4:5 14:5 15:10 14:5 7:5 5:10 4:5
3:0 4:5 5:10 4:5 14:5 15:10 14:5 7:5 5:10 4:5 3:5
4:0 5:10 4:5 14:5 15:10 14:5 7:5 5:10 4:5 3:5 5:5
5:0 4:5 14:5 15:10 14:5 7:5 5:10 4:5 3:5 5:5 4:10
4:0 14:5 15:10 14:5 7:5 5:10 4:5 3:5 5:5 4:10 9:5
14:0 15:10 14:5 7:5 5:10 4:5 3:5 5:5 4:10 9:5 14:5
15:0 14:5 7:5 5:10 4:5 3:5 5:5 4:10 9:5 14:5 15:5
14:0 7:5 5:10 4:5 3:5 5:5 4:10 9:5 14:5 15:5 9:5
7:0 5:10 4:5 3:5 5:5 4:10 9:5 14:5 15:5 9:5 5:5
5:0 4:5 3:5 5:5 4:10 9:5 14:5 15:5 9:5 5:5 4:10
4:0 3:5 5:5 4:10 9:5 14:5 15:5 9:5 5:5 4:10 5:5
3:0 5:5 4:10 9:5 14:5 15:5 9:5 5:5 4:10 5:5 4:10
5:0 4:10 9:5 14:5 15:5 9:5 5:5 4:10 5:5 4:10 12:5
4:0 9:5 14:5 15:5 9:5 5:5 4:10 5:5 4:10 12:5 15:5
9:0 14:5 15:5 9:5 5:5 4:10 5:5 4:10 12:5 15:5 14:5
14:0 15:5 9:5 5:5 4:10 5:5 4:10 12:5 15:5 14:5 6:5
15:0 9:5 5:5 4:10 5:5 4:10 12:5 15:5 14:5 6:5 5:5
9:0 5:5 4:10 5:5 4:10 12:5 15:5 14:5 6:5 5:5 4:5
5:0 4:10 5:5 4:10 12:5 15:5 14:5 6:5 5:5 4:5 6:10
4:0 5:5 4:10 12:5 15:5 14:5 6:5 5:5 4:5 6:10 5:5
5:0 4:10 12:5 15:5 14:5 6:5 5:5 4:5 6:10 5:5 3:5
4:0 12:5 15:5 14:5 6:5 5:5 4:5 6:10 5:5 3:5 14:5
12:0 15:5 14:5 6:5 5:5 4:5 6:10 5:5 3:5 14:5 15:5
15:0 14:5 6:5 5:5 4:5 6:10 5:5 3:5 14:5 15:5 13:5
14:0 6:5 5:5 4:5 6:10 5:5 3:5 14:5 15:5 13:5 5:5
6:0 5:5 4:5 6:10 5:5 3:5 14:5 15:5 13:5 5:5 4:5
5:0 4:5 6:10 5:5 3:5 14:5 15:5 13:5 5:5 4:5 5:10
4:0 6:10 5:5 3:5 14:5 15:5 13:5 5:5 4:5 5:10 4:10
6:0 5:5 3:5 14:5 15:5 13:5 5:5 4:5 5:10 4:10 5:5
5:0 3:5 14:5 15:5 13:5 5:5 4:5 5:10 4:10 5:5 14:5
3:0 14:5 15:5 13:5 5:5 4:5 5:10 4:10 5:5 14:5 15:5
14:0 15:5 13:5 5:5 4:5 5:10 4:10 5:5 14:5 15:5 9:5
15:0 13:5 5:5 4:5 5:10 4:10 5:5 14:5 15:5 9:5 5:5
13:0 5:5 4:5 5:10 4:10 5:5 14:5 15:5 9:5 5:5 6:5
5:0 4:5 5:10 4:10 5:5 14:5 15:5 9:5 5:5 6:5 5:5
4:0 5:10 4:10 5:5 14:5 15:5 9:5 5:5 6:5 5:5 4:5
5:0 4:10 5:5 14:5 15:5 9:5 5:5 6:5 5:5 4:5 3:5
4:0 5:5 14:5 15:5 9:5 5:5 6:5 5:5 4:5 3:5 12:5
5:0 14:5 15:5 9:5 5:5 6:5 5:5 4:5 3:5 12:5 15:5
14:0 15:5 9:5 5:5 6:5 5:5 4:5 3:5 12:5 15:5 13:5
15:0 9:5 5:5 6:5 5:5 4:5 3:5 12:5 15:5 13:5 6:5
9:0 5:5 6:5 5:5 4:5 3:5 12:5 15:5 13:5 6:5 5:5
5:0 6:5 5:5 4:5 3:5 12:5 15:5 13:5 6:5 5:5 3:5
6:0 5:5 4:5 3:5 12:5 15:5 13:5 6:5 5:5 3:5 10:5
5:0 4:5 3:5 12:5 15:5 13:5 6:5 5:5 3:5 10:5 15:5
4:0 3:5 12:5 15:5 13:5 6:5 5:5 3:5 10:5 15:5 12:5
3:0 12:5 15:5 13:5 6:5 5:5 3:5 10:5 15:5 12:5 5:5
12:0 15:5 13:5 6:5 5:5 3:5 10:5 15:5 12:5 5:5 6:5
15:0 13:5 6:5 5:5 3:5 10:5 15:5 12:5 5:5 6:5 4:10
13:0 6:5 5:5 3:5 10:5 15:5 12:5 5:5 6:5 4:10 5:15
6:0 5:5 3:5 10:5 15:5 12:5 5:5 6:5 4:10 5:15 4:5
5:0 3:5 10:5 15:5 12:5 5:5 6:5 4:10 5:15 4:5 12:5
3:0 10:5 15:5 12:5 5:5 6:5 4:10 5:15 4:5 12:5 14:5
10:0 15:5 12:5 5:5 6:5 4:10 5:15 4:5 12:5 14:5 15:10
15:0 12:5 5:5 6:5 4:10 5:15 4:5 12:5 14:5 15:10 7:5
12:0 5:5 6:5 4:10 5:15 4:5 12:5 14:5 15:10 7:5 6:10
5:0 6:5 4:10 5:15 4:5 12:5 14:5 15:10 7:5 6:10 4:5
6:0 4:10 5:15 4:5 12:5 14:5 15:10 7:5 6:10 4:5 3:5
4:0 5:15 4:5 12:5 14:5 15:10 7:5 6:10 4:5 3:5 5:5
5:0 4:5 12:5 14:5 15:10 7:5 6:10 4:5 3:5 5:5 6:5
4:0 12:5 14:5 15:10 7:5 6:10 4:5 3:5 5:5 6:5 4:5
12:0 14:5 15:10 7:5 6:10 4:5 3:5 5:5 6:5 4:5 5:5
14:0 15:10 7:5 6:10 4:5 3:5 5:5 6:5 4:5 5:5 14:5
15:0 7:5 6:10 4:5 3:5 5:5 6:5 4:5 5:5 14:5 15:5
7:0 6:10 4:5 3:5 5:5 6:5 4:5 5:5 14:5 15:5 13:5
6:0 4:5 3:5 5:5 6:5 4:5 5:5 14:5 15:5 13:5 5:5
4:0 3:5 5:5 6:5 4:5 5:5 14:5 15:5 13:5 5:5 6:5
3:0 5:5 6:5 4:5 5:5 14:5 15:5 13:5 5:5 6:5 4:10
5:0 6:5 4:5 5:5 14:5 15:5 13:5 5:5 6:5 4:10 6:10
6:0 4:5 5:5 14:5 15:5 13:5 5:5 6:5 4:10 6:10 15:5
4:0 5:5 14:5 15:5 13:5 5:5 6:5 4:10 6:10 15:5 14:5
5:0 14:5 15:5 13:5 5:5 6:5 4:10 6:10 15:5 14:5 6:5
14:0 15:5 13:5 5:5 6:5 4:10 6:10 15:5 14:5 6:5 3:10
15:0 13:5 5:5 6:5 4:10 6:10 15:5 14:5 6:5 3:10 5:10
13:0 5:5 6:5 4:10 6:10 15:5 14:5 6:5 3:10 5:10 6:5
5:0 6:5 4:10 6:10 15:5 14:5 6:5 3:10 5:10 6:5 5:5
6:0 4:10 6:10 15:5 14:5 6:5 3:10 5:10 6:5 5:5 7:5
4:0 6:10 15:5 14:5 6:5 3:10 5:10 6:5 5:5 7:5 14:5
6:0 15:5 14:5 6:5 3:10 5:10 6:5 5:5 7:5 14:5 15:5
15:0 14:5 6:5 3:10 5:10 6:5 5:5 7:5 14:5 15:5 13:5
14:0 6:5 3:10 5:10 6:5 5:5 7:5 14:5 15:5 13:5 5:5
6:0 3:10 5:10 6:5 5:5 7:5 14:5 15:5 13:5 5:5 4:5
3:0 5:10 6:5 5:5 7:5 14:5 15:5 13:5 5:5 4:5 3:5
5:0 6:5 5:5 7:5 14:5 15:5 13:5 5:5 4:5 3:5 6:5
6:0 5:5 7:5 14:5 15:5 13:5 5:5 4:5 3:5 6:5 4:10
5:0 7:5 14:5 15:5 13:5 5:5 4:5 3:5 6:5 4:10 3:5
7:0 14:5 15:5 13:5 5:5 4:5 3:5 6:5 4:10 3:5 14:5
14:0 15:5 13:5 5:5 4:5 3:5 6:5 4:10 3:5 14:5 15:5
15:0 13:5 5:5 4:5 3:5 6:5 4:10 3:5 14:5 15:5 12:5
13:0 5:5 4:5 3:5 6:5 4:10 3:5 14:5 15:5 12:5 5:5
5:0 4:5 3:5 6:5 4:10 3:5 14:5 15:5 12:5 5:5 6:5
4:0 3:5 6:5 4:10 3:5 14:5 15:5 12:5 5:5 6:5 5:5
3:0 6:5 4:10 3:5 14:5 15:5 12:5 5:5 6:5 5:5 4:5
6:0 4:10 3:5 14:5 15:5 12:5 5:5 6:5 5:5 4:5 3:5
4:0 3:5 14:5 15:5 12:5 5:5 6:5 5:5 4:5 3:5 4:5
3:0 14:5 15:5 12:5 5:5 6:5 5:5 4:5 3:5 4:5 5:5
14:0 15:5 12:5 5:5 6:5 5:5 4:5 3:5 4:5 5:5 6:5
15:0 12:5 5:5 6:5 5:5 4:5 3:5 4:5 5:5 6:5 14:5
12:0 5:5 6:5 5:5 4:5 3:5 4:5 5:5 6:5 14:5 15:5
5:0 6:5 5:5 4:5 3:5 4:5 5:5 6:5 14:5 15:5 9:10
6:0 5:5 4:5 3:5 4:5 5:5 6:5 14:5 15:5 9:10 6:5
5:0 4:5 3:5 4:5 5:5 6:5 14:5 15:5 9:10 6:5 7:5
4:0 3:5 4:5 5:5 6:5 14:5 15:5 9:10 6:5 7:5 5:5
3:0 4:5 5:5 6:5 14:5 15:5 9:10 6:5 7:5 5:5 3:5
4:0 5:5 6:5 14:5 15:5 9:10 6:5 7:5 5:5 3:5 4:5
5:0 6:5 14:5 15:5 9:10 6:5 7:5 5:5 3:5 4:5 5:5
6:0 14:5 15:5 9:10 6:5 7:5 5:5 3:5 4:5 5:5 4:10
14:0 15:5 9:10 6:5 7:5 5:5 3:5 4:5 5:5 4:10 12:5
15:0 9:10 6:5 7:5 5:5 3:5 4:5 5:5 4:10 12:5 15:5
9:0 6:5 7:5 5:5 3:5 4:5 5:5 4:10 12:5 15:5 9:10
6:0 7:5 5:5 3:5 4:5 5:5 4:10 12:5 15:5 9:10 5:5
7:0 5:5 3:5 4:5 5:5 4:10 12:5 15:5 9:10 5:5 4:5
5:0 3:5 4:5 5:5 4:10 12:5 15:5 9:10 5:5 4:5 6:10
3:0 4:5 5:5 4:10 12:5 15:5 9:10 5:5 4:5 6:10 5:5
4:0 5:5 4:10 12:5 15:5 9:10 5:5 4:5 6:10 5:5 4:5
5:0 4:10 12:5 15:5 9:10 5:5 4:5 6:10 5:5 4:5 7:5
4:0 12:5 15:5 9:10 5:5 4:5 6:10 5:5 4:5 7:5 14:5
12:0 15:5 9:10 5:5 4:5 6:10 5:5 4:5 7:5 14:5 15:5
15:0 9:10 5:5 4:5 6:10 5:5 4:5 7:5 14:5 15:5 8:5
9:0 5:5 4:5 6:10 5:5 4:5 7:5 14:5 15:5 8:5 6:5
5:0 4:5 6:10 5:5 4:5 7:5 14:5 15:5 8:5 6:5 5:10
4:0 6:10 5:5 4:5 7:5 14:5 15:5 8:5 6:5 5:10 3:5
6:0 5:5 4:5 7:5 14:5 15:5 8:5 6:5 5:10 3:5 4:5
5:0 4:5 7:5 14:5 15:5 8:5 6:5 5:10 3:5 4:5 14:5
4:0 7:5 14:5 15:5 8:5 6:5 5:10 3:5 4:5 14:5 15:5
7:0 14:5 15:5 8:5 6:5 5:10 3:5 4:5 14:5 15:5 11:5
14:0 15:5 8:5 6:5 5:10 3:5 4:5 14:5 15:5 11:5 7:5
15:0 8:5 6:5 5:10 3:5 4:5 14:5 15:5 11:5 7:5 4:5
8:0 6:5 5:10 3:5 4:5 14:5 15:5 11:5 7:5 4:5 3:10
6:0 5:10 3:5 4:5 14:5 15:5 11:5 7:5 4:5 3:10 6:5
5:0 3:5 4:5 14:5 15:5 11:5 7:5 4:5 3:10 6:5 5:5
3:0 4:5 14:5 15:5 11:5 7:5 4:5 3:10 6:5 5:5 4:5
4:0 14:5 15:5 11:5 7:5 4:5 3:10 6:5 5:5 4:5 12:5
14:0 15:5 11:5 7:5 4:5 3:10 6:5 5:5 4:5 12:5 15:5
15:0 11:5 7:5 4:5 3:10 6:5 5:5 4:5 12:5 15:5 6:10
11:0 7:5 4:5 3:10 6:5 5:5 4:5 12:5 15:5 6:10 5:5
7:0 4:5 3:10 6:5 5:5 4:5 12:5 15:5 6:10 5:5 6:5
4:0 3:10 6:5 5:5 4:5 12:5 15:5 6:10 5:5 6:5 5:5
3:0 6:5 5:5 4:5 12:5 15:5 6:10 5:5 6:5 5:5 4:5
6:0 5:5 4:5 12:5 15:5 6:10 5:5 6:5 5:5 4:5 3:5
5:0 4:5 12:5 15:5 6:10 5:5 6:5 5:5 4:5 3:5 11:5
4:0 12:5 15:5 6:10 5:5 6:5 5:5 4:5 3:5 11:5 15:5
12:0 15:5 6:10 5:5 6:5 5:5 4:5 3:5 11:5 15:5 13:5
15:0 6:10 5:5 6:5 5:5 4:5 3:5 11:5 15:5 13:5 7:5
6:0 5:5 6:5 5:5 4:5 3:5 11:5 15:5 13:5 7:5 5:5
5:0 6:5 5:5 4:5 3:5 11:5 15:5 13:5 7:5 5:5 4:5
6:0 5:5 4:5 3:5 11:5 15:5 13:5 7:5 5:5 4:5 3:5
5:0 4:5 3:5 11:5 15:5 13:5 7:5 5:5 4:5 3:5 5:5
4:0 3:5 11:5 15:5 13:5 7:5 5:5 4:5 3:5 5:5 4:10
3:0 11:5 15:5 13:5 7:5 5:5 4:5 3:5 5:5 4:10 12:5
11:0 15:5 13:5 7:5 5:5 4:5 3:5 5:5 4:10 12:5 14:5
15:0 13:5 7:5 5:5 4:5 3:5 5:5 4:10 12:5 14:5 15:5
13:0 7:5 5:5 4:5 3:5 5:5 4:10 12:5 14:5 15:5 12:5
7:0 5:5 4:5 3:5 5:5 4:10 12:5 14:5 15:5 12:5 5:5
5:0 4:5 3:5 5:5 4:10 12:5 14:5 15:5 12:5 5:5 3:10
4:0 3:5 5:5 4:10 12:5 14:5 15:5 12:5 5:5 3:10 5:5
3:0 5:5 4:10 12:5 14:5 15:5 12:5 5:5 3:10 5:5 4:10
5:0 4:10 12:5 14:5 15:5 12:5 5:5 3:10 5:5 4:10 10:5
4:0 12:5 14:5 15:5 12:5 5:5 3:10 5:5 4:10 10:5 14:5
12:0 14:5 15:5 12:5 5:5 3:10 5:5 4:10 10:5 14:5 15:5
14:0 15:5 12:5 5:5 3:10 5:5 4:10 10:5 14:5 15:5 6:5
15:0 12:5 5:5 3:10 5:5 4:10 10:5 14:5 15:5 6:5 5:5
12:0 5:5 3:10 5:5 4:10 10:5 14:5 15:5 6:5 5:5 6:5
5:0 3:10 5:5 4:10 10:5 14:5 15:5 6:5 5:5 6:5 5:5
3:0 5:5 4:10 10:5 14:5 15:5 6:5 5:5 6:5 5:5 4:5
5:0 4:10 10:5 14:5 15:5 6:5 5:5 6:5 5:5 4:5 10:15
4:0 10:5 14:5 15:5 6:5 5:5 6:5 5:5 4:5 10:15 14:5
10:0 14:5 15:5 6:5 5:5 6:5 5:5 4:5 10:15 14:5 15:5
14:0 15:5 6:5 5:5 6:5 5:5 4:5 10:15 14:5 15:5 8:5
15:0 6:5 5:5 6:5 5:5 4:5 10:15 14:5 15:5 8:5 4:5
6:0 5:5 6:5 5:5 4:5 10:15 14:5 15:5 8:5 4:5 5:10
5:0 6:5 5:5 4:5 10:15 14:5 15:5 8:5 4:5 5:10 4:10
6:0 5:5 4:5 10:15 14:5 15:5 8:5 4:5 5:10 4:10 8:5
5:0 4:5 10:15 14:5 15:5 8:5 4:5 5:10 4:10 8:5 14:5
4:0 10:15 14:5 15:5 8:5 4:5 5:10 4:10 8:5 14:5 15:5
10:0 14:5 15:5 8:5 4:5 5:10 4:10 8:5 14:5 15:5 12:5
14:0 15:5 8:5 4:5 5:10 4:10 8:5 14:5 15:5 12:5 5:5
15:0 8:5 4:5 5:10 4:10 8:5 14:5 15:5 12:5 5:5 6:5
8:0 4:5 5:10 4:10 8:5 14:5 15:5 12:5 5:5 6:5 4:10
4:0 5:10 4:10 8:5 14:5 15:5 12:5 5:5 6:5 4:10 3:5
5:0 4:10 8:5 14:5 15:5 12:5 5:5 6:5 4:10 3:5 4:5
4:0 8:5 14:5 15:5 12:5 5:5 6:5 4:10 3:5 4:5 5:5
8:0 14:5 15:5 12:5 5:5 6:5 4:10 3:5 4:5 5:5 4:5
14:0 15:5 12:5 5:5 6:5 4:10 3:5 4:5 5:5 4:5 10:5
15:0 12:5 5:5 6:5 4:10 3:5 4:5 5:5 4:5 10:5 14:5
12:0 5:5 6:5 4:10 3:5 4:5 5:5 4:5 10:5 14:5 15:5
5:0 6:5 4:10 3:5 4:5 5:5 4:5 10:5 14:5 15:5 14:5
6:0 4:10 3:5 4:5 5:5 4:5 10:5 14:5 15:5 14:5 6:5
4:0 3:5 4:5 5:5 4:5 10:5 14:5 15:5 14:5 6:5 4:10
3:0 4:5 5:5 4:5 10:5 14:5 15:5 14:5 6:5 4:10 3:5
4:0 5:5 4:5 10:5 14:5 15:5 14:5 6:5 4:10 3:5 9:5
5:0 4:5 10:5 14:5 15:5 14:5 6:5 4:10 3:5 9:5 15:5
4:0 10:5 14:5 15:5 14:5 6:5 4:10 3:5 9:5 15:5 13:5
10:0 14:5 15:5 14:5 6:5 4:10 3:5 9:5 15:5 13:5 5:5
14:0 15:5 14:5 6:5 4:10 3:5 9:5 15:5 13:5 5:5 6:5
15:0 14:5 6:5 4:10 3:5 9:5 15:5 13:5 5:5 6:5 5:5
14:0 6:5 4:10 3:5 9:5 15:5 13:5 5:5 6:5 5:5 4:5
6:0 4:10 3:5 9:5 15:5 13:5 5:5 6:5 5:5 4:5 12:15
4:0 3:5 9:5 15:5 13:5 5:5 6:5 5:5 4:5 12:15 15:5
3:0 9:5 15:5 13:5 5:5 6:5 5:5 4:5 12:15 15:5 6:10
9:0 15:5 13:5 5:5 6:5 5:5 4:5 12:15 15:5 6:10 5:5
15:0 13:5 5:5 6:5 5:5 4:5 12:15 15:5 6:10 5:5 6:5
13:0 5:5 6:5 5:5 4:5 12:15 15:5 6:10 5:5 6:5 5:5
5:0 6:5 5:5 4:5 12:15 15:5 6:10 5:5 6:5 5:5 4:5
6:0 5:5 4:5 12:15 15:5 6:10 5:5 6:5 5:5 4:5 5:15
5:0 4:5 12:15 15:5 6:10 5:5 6:5 5:5 4:5 5:15 14:10
4:0 12:15 15:5 6:10 5:5 6:5 5:5 4:5 5:15 14:10 15:5
12:0 15:5 6:10 5:5 6:5 5:5 4:5 5:15 14:10 15:5 9:10
15:0 6:10 5:5 6:5 5:5 4:5 5:15 14:10 15:5 9:10 6:5
6:0 5:5 6:5 5:5 4:5 5:15 14:10 15:5 9:10 6:5 4:10
5:0 6:5 5:5 4:5 5:15 14:10 15:5 9:10 6:5 4:10 3:5
6:0 5:5 4:5 5:15 14:10 15:5 9:10 6:5 4:10 3:5 4:5
5:0 4:5 5:15 14:10 15:5 9:10 6:5 4:10 3:5 4:5 5:5
4:0 5:15 14:10 15:5 9:10 6:5 4:10 3:5 4:5 5:5 4:10
5:0 14:10 15:5 9:10 6:5 4:10 3:5 4:5 5:5 4:10 14:5
14:0 15:5 9:10 6:5 4:10 3:5 4:5 5:5 4:10 14:5 15:5
15:0 9:10 6:5 4:10 3:5 4:5 5:5 4:10 14:5 15:5 6:10
9:0 6:5 4:10 3:5 4:5 5:5 4:10 14:5 15:5 6:10 5:5
6:0 4:10 3:5 4:5 5:5 4:10 14:5 15:5 6:10 5:5 6:5
4:0 3:5 4:5 5:5 4:10 14:5 15:5 6:10 5:5 6:5 5:5
3:0 4:5 5:5 4:10 14:5 15:5 6:10 5:5 6:5 5:5 4:5
4:0 5:5 4:10 14:5 15:5 6:10 5:5 6:5 5:5 4:5 8:10
5:0 4:10 14:5 15:5 6:10 5:5 6:5 5:5 4:5 8:10 15:5
4:0 14:5 15:5 6:10 5:5 6:5 5:5 4:5 8:10 15:5 14:5
14:0 15:5 6:10 5:5 6:5 5:5 4:5 8:10 15:5 14:5 6:5
15:0 6:10 5:5 6:5 5:5 4:5 8:10 15:5 14:5 6:5 5:5
6:0 5:5 6:5 5:5 4:5 8:10 15:5 14:5 6:5 5:5 3:5
5:0 6:5 5:5 4:5 8:10 15:5 14:5 6:5 5:5 3:5 4:5
6:0 5:5 4:5 8:10 15:5 14:5 6:5 5:5 3:5 4:5 5:5
5:0 4:5 8:10 15:5 14:5 6:5 5:5 3:5 4:5 5:5 3:10
4:0 8:10 15:5 14:5 6:5 5:5 3:5 4:5 5:5 3:10 13:5
8:0 15:5 14:5 6:5 5:5 3:5 4:5 5:5 3:10 13:5 14:5
15:0 14:5 6:5 5:5 3:5 4:5 5:5 3:10 13:5 14:5 15:5
14:0 6:5 5:5 3:5 4:5 5:5 3:10 13:5 14:5 15:5 6:5
6:0 5:5 3:5 4:5 5:5 3:10 13:5 14:5 15:5 6:5 5:5
5:0 3:5 4:5 5:5 3:10 13:5 14:5 15:5 6:5 5:5 6:5
3:0 4:5 5:5 3:10 13:5 14:5 15:5 6:5 5:5 6:5 5:5
4:0 5:5 3:10 13:5 14:5 15:5 6:5 5:5 6:5 5:5 4:5
5:0 3:10 13:5 14:5 15:5 6:5 5:5 6:5 5:5 4:5 5:15
3:0 13:5 14:5 15:5 6:5 5:5 6:5 5:5 4:5 5:15 4:5
13:0 14:5 15:5 6:5 5:5 6:5 5:5 4:5 5:15 4:5 12:5
14:0 15:5 6:5 5:5 6:5 5:5 4:5 5:15 4:5 12:5 15:5
15:0 6:5 5:5 6:5 5:5 4:5 5:15 4:5 12:5 15:5 11:10
6:0 5:5 6:5 5:5 4:5 5:15 4:5 12:5 15:5 11:10 6:5
5:0 6:5 5:5 4:5 5:15 4:5 12:5 15:5 11:10 6:5 5:10
6:0 5:5 4:5 5:15 4:5 12:5 15:5 11:10 6:5 5:10 3:5
5:0 4:5 5:15 4:5 12:5 15:5 11:10 6:5 5:10 3:5 8:5
4:0 5:15 4:5 12:5 15:5 11:10 6:5 5:10 3:5 8:5 15:5
5:0 4:5 12:5 15:5 11:10 6:5 5:10 3:5 8:5 15:5 13:5
4:0 12:5 15:5 11:10 6:5 5:10 3:5 8:5 15:5 13:5 5:5
12:0 15:5 11:10 6:5 5:10 3:5 8:5 15:5 13:5 5:5 4:5
15:0 11:10 6:5 5:10 3:5 8:5 15:5 13:5 5:5 4:5 6:10
11:0 6:5 5:10 3:5 8:5 15:5 13:5 5:5 4:5 6:10 4:10
6:0 5:10 3:5 8:5 15:5 13:5 5:5 4:5 6:10 4:10 3:5
5:0 3:5 8:5 15:5 13:5 5:5 4:5 6:10 4:10 3:5 14:5
3:0 8:5 15:5 13:5 5:5 4:5 6:10 4:10 3:5 14:5 15:5
8:0 15:5 13:5 5:5 4:5 6:10 4:10 3:5 14:5 15:5 11:5
15:0 13:5 5:5 4:5 6:10 4:10 3:5 14:5 15:5 11:5 5:5
13:0 5:5 4:5 6:10 4:10 3:5 14:5 15:5 11:5 5:5 6:5
5:0 4:5 6:10 4:10 3:5 14:5 15:5 11:5 5:5 6:5 4:10
4:0 6:10 4:10 3:5 14:5 15:5 11:5 5:5 6:5 4:10 5:15
6:0 4:10 3:5 14:5 15:5 11:5 5:5 6:5 4:10 5:15 4:5
4:0 3:5 14:5 15:5 11:5 5:5 6:5 4:10 5:15 4:5 10:5
3:0 14:5 15:5 11:5 5:5 6:5 4:10 5:15 4:5 10:5 14:5
14:0 15:5 11:5 5:5 6:5 4:10 5:15 4:5 10:5 14:5 15:5
15:0 11:5 5:5 6:5 4:10 5:15 4:5 10:5 14:5 15:5 9:5
11:0 5:5 6:5 4:10 5:15 4:5 10:5 14:5 15:5 9:5 6:5
5:0 6:5 4:10 5:15 4:5 10:5 14:5 15:5 9:5 6:5 4:10
6:0 4:10 5:15 4:5 10:5 14:5 15:5 9:5 6:5 4:10 3:5
4:0 5:15 4:5 10:5 14:5 15:5 9:5 6:5 4:10 3:5 4:5
5:0 4:5 10:5 14:5 15:5 9:5 6:5 4:10 3:5 4:5 5:5
4:0 10:5 14:5 15:5 9:5 6:5 4:10 3:5 4:5 5:5 3:10
10:0 14:5 15:5 9:5 6:5 4:10 3:5 4:5 5:5 3:10 12:5
14:0 15:5 9:5 6:5 4:10 3:5 4:5 5:5 3:10 12:5 15:5
15:0 9:5 6:5 4:10 3:5 4:5 5:5 3:10 12:5 15:5 9:10
9:0 6:5 4:10 3:5 4:5 5:5 3:10 12:5 15:5 9:10 4:5
6:0 4:10 3:5 4:5 5:5 3:10 12:5 15:5 9:10 4:5 3:5
4:0 3:5 4:5 5:5 3:10 12:5 15:5 9:10 4:5 3:5 4:5
3:0 4:5 5:5 3:10 12:5 15:5 9:10 4:5 3:5 4:5 5:5
4:0 5:5 3:10 12:5 15:5 9:10 4:5 3:5 4:5 5:5 4:10
5:0 3:10 12:5 15:5 9:10 4:5 3:5 4:5 5:5 4:10 12:5
3:0 12:5 15:5 9:10 4:5 3:5 4:5 5:5 4:10 12:5 15:5
12:0 15:5 9:10 4:5 3:5 4:5 5:5 4:10 12:5 15:5 14:5
15:0 9:10 4:5 3:5 4:5 5:5 4:10 12:5 15:5 14:5 6:5
9:0 4:5 3:5 4:5 5:5 4:10 12:5 15:5 14:5 6:5 5:5
4:0 3:5 4:5 5:5 4:10 12:5 15:5 14:5 6:5 5:5 3:5
3:0 4:5 5:5 4:10 12:5 15:5 14:5 6:5 5:5 3:5 4:5
4:0 5:5 4:10 12:5 15:5 14:5 6:5 5:5 3:5 4:5 5:5
5:0 4:10 12:5 15:5 14:5 6:5 5:5 3:5 4:5 5:5 4:5
4:0 12:5 15:5 14:5 6:5 5:5 3:5 4:5 5:5 4:5 10:5
12:0 15:5 14:5 6:5 5:5 3:5 4:5 5:5 4:5 10:5 14:5
15:0 14:5 6:5 5:5 3:5 4:5 5:5 4:5 10:5 14:5 15:5
14:0 6:5 5:5 3:5 4:5 5:5 4:5 10:5 14:5 15:5 9:5
6:0 5:5 3:5 4:5 5:5 4:5 10:5 14:5 15:5 9:5 5:5
5:0 3:5 4:5 5:5 4:5 10:5 14:5 15:5 9:5 5:5 4:10
3:0 4:5 5:5 4:5 10:5 14:5 15:5 9:5 5:5 4:10 5:5
4:0 5:5 4:5 10:5 14:5 15:5 9:5 5:5 4:10 5:5 3:10
5:0 4:5 10:5 14:5 15:5 9:5 5:5 4:10 5:5 3:10 10:5
4:0 10:5 14:5 15:5 9:5 5:5 4:10 5:5 3:10 10:5 15:5
10:0 14:5 15:5 9:5 5:5 4:10 5:5 3:10 10:5 15:5 6:10
14:0 15:5 9:5 5:5 4:10 5:5 3:10 10:5 15:5 6:10 5:5
15:0 9:5 5:5 4:10 5:5 3:10 10:5 15:5 6:10 5:5 6:5
9:0 5:5 4:10 5:5 3:10 10:5 15:5 6:10 5:5 6:5 4:5
5:0 4:10 5:5 3:10 10:5 15:5 6:10 5:5 6:5 4:5 3:5
4:0 5:5 3:10 10:5 15:5 6:10 5:5 6:5 4:5 3:5 4:5
5:0 3:10 10:5 15:5 6:10 5:5 6:5 4:5 3:5 4:5 14:5
3:0 10:5 15:5 6:10 5:5 6:5 4:5 3:5 4:5 14:5 15:5
10:0 15:5 6:10 5:5 6:5 4:5 3:5 4:5 14:5 15:5 12:5
15:0 6:10 5:5 6:5 4:5 3:5 4:5 14:5 15:5 12:5 6:5
6:0 5:5 6:5 4:5 3:5 4:5 14:5 15:5 12:5 6:5 4:5
5:0 6:5 4:5 3:5 4:5 14:5 15:5 12:5 6:5 4:5 3:10
6:0 4:5 3:5 4:5 14:5 15:5 12:5 6:5 4:5 3:10 5:5
4:0 3:5 4:5 14:5 15:5 12:5 6:5 4:5 3:10 5:5 3:10
3:0 4:5 14:5 15:5 12:5 6:5 4:5 3:10 5:5 3:10 14:5
4:0 14:5 15:5 12:5 6:5 4:5 3:10 5:5 3:10 14:5 15:5
14:0 15:5 12:5 6:5 4:5 3:10 5:5 3:10 14:5 15:5 6:10
15:0 12:5 6:5 4:5 3:10 5:5 3:10 14:5 15:5 6:10 5:5
12:0 6:5 4:5 3:10 5:5 3:10 14:5 15:5 6:10 5:5 4:5
6:0 4:5 3:10 5:5 3:10 14:5 15:5 6:10 5:5 4:5 6:10
4:0 3:10 5:5 3:10 14:5 15:5 6:10 5:5 4:5 6:10 5:5
3:0 5:5 3:10 14:5 15:5 6:10 5:5 4:5 6:10 5:5 3:5
5:0 3:10 14:5 15:5 6:10 5:5 4:5 6:10 5:5 3:5 12:5
3:0 14:5 15:5 6:10 5:5 4:5 6:10 5:5 3:5 12:5 15:5
14:0 15:5 6:10 5:5 4:5 6:10 5:5 3:5 12:5 15:5 14:5
15:0 6:10 5:5 4:5 6:10 5:5 3:5 12:5 15:5 14:5 5:5
6:0 5:5 4:5 6:10 5:5 3:5 12:5 15:5 14:5 5:5 6:5
5:0 4:5 6:10 5:5 3:5 12:5 15:5 14:5 5:5 6:5 4:5
4:0 6:10 5:5 3:5 12:5 15:5 14:5 5:5 6:5 4:5 6:10
6:0 5:5 3:5 12:5 15:5 14:5 5:5 6:5 4:5 6:10 4:5
5:0 3:5 12:5 15:5 14:5 5:5 6:5 4:5 6:10 4:5 3:5
3:0 12:5 15:5 14:5 5:5 6:5 4:5 6:10 4:5 3:5 14:5
12:0 15:5 14:5 5:5 6:5 4:5 6:10 4:5 3:5 14:5 15:5
15:0 14:5 5:5 6:5 4:5 6:10 4:5 3:5 14:5 15:5 12:5
14:0 5:5 6:5 4:5 6:10 4:5 3:5 14:5 15:5 12:5 5:5
5:0 6:5 4:5 6:10 4:5 3:5 14:5 15:5 12:5 5:5 4:5
6:0 4:5 6:10 4:5 3:5 14:5 15:5 12:5 5:5 4:5 6:10
4:0 6:10 4:5 3:5 14:5 15:5 12:5 5:5 4:5 6:10 5:5
6:0 4:5 3:5 14:5 15:5 12:5 5:5 4:5 6:10 5:5 4:5
4:0 3:5 14:5 15:5 12:5 5:5 4:5 6:10 5:5 4:5 10:5
3:0 14:5 15:5 12:5 5:5 4:5 6:10 5:5 4:5 10:5 15:5
14:0 15:5 12:5 5:5 4:5 6:10 5:5 4:5 10:5 15:5 14:5
15:0 12:5 5:5 4:5 6:10 5:5 4:5 10:5 15:5 14:5 6:5
12:0 5:5 4:5 6:10 5:5 4:5 10:5 15:5 14:5 6:5 5:5
5:0 4:5 6:10 5:5 4:5 10:5 15:5 14:5 6:5 5:5 6:5
4:0 6:10 5:5 4:5 10:5 15:5 14:5 6:5 5:5 6:5 5:5
6:0 5:5 4:5 10:5 15:5 14:5 6:5 5:5 6:5 5:5 4:5
5:0 4:5 10:5 15:5 14:5 6:5 5:5 6:5 5:5 4:5 12:20
4:0 10:5 15:5 14:5 6:5 5:5 6:5 5:5 4:5 12:20 15:5
10:0 15:5 14:5 6:5 5:5 6:5 5:5 4:5 12:20 15:5 14:10
15:0 14:5 6:5 5:5 6:5 5:5 4:5 12:20 15:5 14:10 6:5
14:0 6:5 5:5 6:5 5:5 4:5 12:20 15:5 14:10 6:5 4:15
6:0 5:5 6:5 5:5 4:5 12:20 15:5 14:10 6:5 4:15 5:15
5:0 6:5 5:5 4:5 12:20 15:5 14:10 6:5 4:15 5:15 3:10
6:0 5:5 4:5 12:20 15:5 14:10 6:5 4:15 5:15 3:10 14:5
5:0 4:5 12:20 15:5 14:10 6:5 4:15 5:15 3:10 14:5 15:5
4:0 12:20 15:5 14:10 6:5 4:15 5:15 3:10 14:5 15:5 5:10
12:0 15:5 14:10 6:5 4:15 5:15 3:10 14:5 15:5 5:10 4:5
15:0 14:10 6:5 4:15 5:15 3:10 14:5 15:5 5:10 4:5 5:10
14:0 6:5 4:15 5:15 3:10 14:5 15:5 5:10 4:5 5:10 6:5
6:0 4:15 5:15 3:10 14:5 15:5 5:10 4:5 5:10 6:5 5:5
4:0 5:15 3:10 14:5 15:5 5:10 4:5 5:10 6:5 5:5 3:5
5:0 3:10 14:5 15:5 5:10 4:5 5:10 6:5 5:5 3:5 12:5
3:0 14:5 15:5 5:10 4:5 5:10 6:5 5:5 3:5 12:5 15:5
14:0 15:5 5:10 4:5 5:10 6:5 5:5 3:5 12:5 15:5 13:5
15:0 5:10 4:5 5:10 6:5 5:5 3:5 12:5 15:5 13:5 5:5
5:0 4:5 5:10 6:5 5:5 3:5 12:5 15:5 13:5 5:5 3:10
4:0 5:10 6:5 5:5 3:5 12:5 15:5 13:5 5:5 3:10 5:5
5:0 6:5 5:5 3:5 12:5 15:5 13:5 5:5 3:10 5:5 4:10
6:0 5:5 3:5 12:5 15:5 13:5 5:5 3:10 5:5 4:10 12:5
5:0 3:5 12:5 15:5 13:5 5:5 3:10 5:5 4:10 12:5 14:5
3:0 12:5 15:5 13:5 5:5 3:10 5:5 4:10 12:5 14:5 15:5
12:0 15:5 13:5 5:5 3:10 5:5 4:10 12:5 14:5 15:5 6:5
15:0 13:5 5:5 3:10 5:5 4:10 12:5 14:5 15:5 6:5 5:5
13:0 5:5 3:10 5:5 4:10 12:5 14:5 15:5 6:5 5:5 6:5
5:0 3:10 5:5 4:10 12:5 14:5 15:5 6:5 5:5 6:5 5:10
3:0 5:5 4:10 12:5 14:5 15:5 6:5 5:5 6:5 5:10 3:5
5:0 4:10 12:5 14:5 15:5 6:5 5:5 6:5 5:10 3:5 5:5
4:0 12:5 14:5 15:5 6:5 5:5 6:5 5:10 3:5 5:5 4:10
12:0 14:5 15:5 6:5 5:5 6:5 5:10 3:5 5:5 4:10 10:5
14:0 15:5 6:5 5:5 6:5 5:10 3:5 5:5 4:10 10:5 15:5
15:0 6:5 5:5 6:5 5:10 3:5 5:5 4:10 10:5 15:5 11:10
6:0 5:5 6:5 5:10 3:5 5:5 4:10 10:5 15:5 11:10 6:5
5:0 6:5 5:10 3:5 5:5 4:10 10:5 15:5 11:10 6:5 3:10
6:0 5:10 3:5 5:5 4:10 10:5 15:5 11:10 6:5 3:10 4:5
5:0 3:5 5:5 4:10 10:5 15:5 11:10 6:5 3:10 4:5 14:5
3:0 5:5 4:10 10:5 15:5 11:10 6:5 3:10 4:5 14:5 15:5
5:0 4:10 10:5 15:5 11:10 6:5 3:10 4:5 14:5 15:5 7:5
4:0 10:5 15:5 11:10 6:5 3:10 4:5 14:5 15:5 7:5 5:5
10:0 15:5 11:10 6:5 3:10 4:5 14:5 15:5 7:5 5:5 6:5
15:0 11:10 6:5 3:10 4:5 14:5 15:5 7:5 5:5 6:5 3:15
11:0 6:5 3:10 4:5 14:5 15:5 7:5 5:5 6:5 3:15 4:5
6:0 3:10 4:5 14:5 15:5 7:5 5:5 6:5 3:15 4:5 5:5
3:0 4:5 14:5 15:5 7:5 5:5 6:5 3:15 4:5 5:5 3:10
4:0 14:5 15:5 7:5 5:5 6:5 3:15 4:5 5:5 3:10 14:5
14:0 15:5 7:5 5:5 6:5 3:15 4:5 5:5 3:10 14:5 15:10
15:0 7:5 5:5 6:5 3:15 4:5 5:5 3:10 14:5 15:10 6:5
7:0 5:5 6:5 3:15 4:5 5:5 3:10 14:5 15:10 6:5 7:5
5:0 6:5 3:15 4:5 5:5 3:10 14:5 15:10 6:5 7:5 5:5
6:0 3:15 4:5 5:5 3:10 14:5 15:10 6:5 7:5 5:5 4:5
3:0 4:5 5:5 3:10 14:5 15:10 6:5 7:5 5:5 4:5 3:5
4:0 5:5 3:10 14:5 15:10 6:5 7:5 5:5 4:5 3:5 5:5
5:0 3:10 14:5 15:10 6:5 7:5 5:5 4:5 3:5 5:5 4:10
3:0 14:5 15:10 6:5 7:5 5:5 4:5 3:5 5:5 4:10 12:5
14:0 15:10 6:5 7:5 5:5 4:5 3:5 5:5 4:10 12:5 14:5
15:0 6:5 7:5 5:5 4:5 3:5 5:5 4:10 12:5 14:5 15:5
6:0 7:5 5:5 4:5 3:5 5:5 4:10 12:5 14:5 15:5 9:5
7:0 5:5 4:5 3:5 5:5 4:10 12:5 14:5 15:5 9:5 5:5
5:0 4:5 3:5 5:5 4:10 12:5 14:5 15:5 9:5 5:5 6:5
4:0 3:5 5:5 4:10 12:5 14:5 15:5 9:5 5:5 6:5 5:5
3:0 5:5 4:10 12:5 14:5 15:5 9:5 5:5 6:5 5:5 3:5
5:0 4:10 12:5 14:5 15:5 9:5 5:5 6:5 5:5 3:5 4:5
4:0 12:5 14:5 15:5 9:5 5:5 6:5 5:5 3:5 4:5 8:5
12:0 14:5 15:5 9:5 5:5 6:5 5:5 3:5 4:5 8:5 15:5
14:0 15:5 9:5 5:5 6:5 5:5 3:5 4:5 8:5 15:5 7:10
15:0 9:5 5:5 6:5 5:5 3:5 4:5 8:5 15:5 7:10 5:5
9:0 5:5 6:5 5:5 3:5 4:5 8:5 15:5 7:10 5:5 3:5
5:0 6:5 5:5 3:5 4:5 8:5 15:5 7:10 5:5 3:5 4:5
6:0 5:5 3:5 4:5 8:5 15:5 7:10 5:5 3:5 4:5 5:5
5:0 3:5 4:5 8:5 15:5 7:10 5:5 3:5 4:5 5:5 4:10
3:0 4:5 8:5 15:5 7:10 5:5 3:5 4:5 5:5 4:10 9:5
4:0 8:5 15:5 7:10 5:5 3:5 4:5 5:5 4:10 9:5 14:5
8:0 15:5 7:10 5:5 3:5 4:5 5:5 4:10 9:5 14:5 15:5
15:0 7:10 5:5 3:5 4:5 5:5 4:10 9:5 14:5 15:5 12:5
7:0 5:5 3:5 4:5 5:5 4:10 9:5 14:5 15:5 12:5 5:5
5:0 3:5 4:5 5:5 4:10 9:5 14:5 15:5 12:5 5:5 6:5
3:0 4:5 5:5 4:10 9:5 14:5 15:5 12:5 5:5 6:5 5:10
4:0 5:5 4:10 9:5 14:5 15:5 12:5 5:5 6:5 5:10 3:5
5:0 4:10 9:5 14:5 15:5 12:5 5:5 6:5 5:10 3:5 9:5
4:0 9:5 14:5 15:5 12:5 5:5 6:5 5:10 3:5 9:5 15:5
9:0 14:5 15:5 12:5 5:5 6:5 5:10 3:5 9:5 15:5 13:5
14:0 15:5 12:5 5:5 6:5 5:10 3:5 9:5 15:5 13:5 6:5
15:0 12:5 5:5 6:5 5:10 3:5 9:5 15:5 13:5 6:5 4:10
12:0 5:5 6:5 5:10 3:5 9:5 15:5 13:5 6:5 4:10 5:10
5:0 6:5 5:10 3:5 9:5 15:5 13:5 6:5 4:10 5:10 7:15
6:0 5:10 3:5 9:5 15:5 13:5 6:5 4:10 5:10 7:15 14:5
5:0 3:5 9:5 15:5 13:5 6:5 4:10 5:10 7:15 14:5 15:5
3:0 9:5 15:5 13:5 6:5 4:10 5:10 7:15 14:5 15:5 14:5
9:0 15:5 13:5 6:5 4:10 5:10 7:15 14:5 15:5 14:5 5:5
15:0 13:5 6:5 4:10 5:10 7:15 14:5 15:5 14:5 5:5 3:10
13:0 6:5 4:10 5:10 7:15 14:5 15:5 14:5 5:5 3:10 6:5
6:0 4:10 5:10 7:15 14:5 15:5 14:5 5:5 3:10 6:5 5:10
4:0 5:10 7:15 14:5 15:5 14:5 5:5 3:10 6:5 5:10 3:5
5:0 7:15 14:5 15:5 14:5 5:5 3:10 6:5 5:10 3:5 12:5
7:0 14:5 15:5 14:5 5:5 3:10 6:5 5:10 3:5 12:5 15:5
14:0 15:5 14:5 5:5 3:10 6:5 5:10 3:5 12:5 15:5 12:5
15:0 14:5 5:5 3:10 6:5 5:10 3:5 12:5 15:5 12:5 5:5
14:0 5:5 3:10 6:5 5:10 3:5 12:5 15:5 12:5 5:5 4:10
5:0 3:10 6:5 5:10 3:5 12:5 15:5 12:5 5:5 4:10 5:5
3:0 6:5 5:10 3:5 12:5 15:5 12:5 5:5 4:10 5:5 3:10
6:0 5:10 3:5 12:5 15:5 12:5 5:5 4:10 5:5 3:10 12:5
5:0 3:5 12:5 15:5 12:5 5:5 4:10 5:5 3:10 12:5 15:5
3:0 12:5 15:5 12:5 5:5 4:10 5:5 3:10 12:5 15:5 6:10
12:0 15:5 12:5 5:5 4:10 5:5 3:10 12:5 15:5 6:10 5:5
15:0 12:5 5:5 4:10 5:5 3:10 12:5 15:5 6:10 5:5 3:10
12:0 5:5 4:10 5:5 3:10 12:5 15:5 6:10 5:5 3:10 5:5
5:0 4:10 5:5 3:10 12:5 15:5 6:10 5:5 3:10 5:5 4:5
4:0 5:5 3:10 12:5 15:5 6:10 5:5 3:10 5:5 4:5 5:5
5:0 3:10 12:5 15:5 6:10 5:5 3:10 5:5 4:5 5:5 3:5
3:0 12:5 15:5 6:10 5:5 3:10 5:5 4:5 5:5 3:5 14:5
12:0 15:5 6:10 5:5 3:10 5:5 4:5 5:5 3:5 14:5 15:5
15:0 6:10 5:5 3:10 5:5 4:5 5:5 3:5 14:5 15:5 11:10
6:0 5:5 3:10 5:5 4:5 5:5 3:5 14:5 15:5 11:10 6:5
5:0 3:10 5:5 4:5 5:5 3:5 14:5 15:5 11:10 6:5 3:15
3:0 5:5 4:5 5:5 3:5 14:5 15:5 11:10 6:5 3:15 5:5
5:0 4:5 5:5 3:5 14:5 15:5 11:10 6:5 3:15 5:5 15:5
4:0 5:5 3:5 14:5 15:5 11:10 6:5 3:15 5:5 15:5 6:10
5:0 3:5 14:5 15:5 11:10 6:5 3:15 5:5 15:5 6:10 5:5
3:0 14:5 15:5 11:10 6:5 3:15 5:5 15:5 6:10 5:5 6:5
14:0 15:5 11:10 6:5 3:15 5:5 15:5 6:10 5:5 6:5 5:5
15:0 11:10 6:5 3:15 5:5 15:5 6:10 5:5 6:5 5:5 4:5
11:0 6:5 3:15 5:5 15:5 6:10 5:5 6:5 5:5 4:5 5:15
6:0 3:15 5:5 15:5 6:10 5:5 6:5 5:5 4:5 5:15 4:5
3:0 5:5 15:5 6:10 5:5 6:5 5:5 4:5 5:15 4:5 14:5
5:0 15:5 6:10 5:5 6:5 5:5 4:5 5:15 4:5 14:5 15:10
15:0 6:10 5:5 6:5 5:5 4:5 5:15 4:5 14:5 15:10 9:5
6:0 5:5 6:5 5:5 4:5 5:15 4:5 14:5 15:10 9:5 6:5
5:0 6:5 5:5 4:5 5:15 4:5 14:5 15:10 9:5 6:5 4:10
6:0 5:5 4:5 5:15 4:5 14:5 15:10 9:5 6:5 4:10 3:5
5:0 4:5 5:15 4:5 14:5 15:10 9:5 6:5 4:10 3:5 13:5
4:0 5:15 4:5 14:5 15:10 9:5 6:5 4:10 3:5 13:5 15:5
5:0 4:5 14:5 15:10 9:5 6:5 4:10 3:5 13:5 15:5 9:5
4:0 14:5 15:10 9:5 6:5 4:10 3:5 13:5 15:5 9:5 5:5
14:0 15:10 9:5 6:5 4:10 3:5 13:5 15:5 9:5 5:5 6:5
15:0 9:5 6:5 4:10 3:5 13:5 15:5 9:5 5:5 6:5 4:10
9:0 6:5 4:10 3:5 13:5 15:5 9:5 5:5 6:5 4:10 5:15
6:0 4:10 3:5 13:5 15:5 9:5 5:5 6:5 4:10 5:15 4:5
4:0 3:5 13:5 15:5 9:5 5:5 6:5 4:10 5:15 4:5 12:5
3:0 13:5 15:5 9:5 5:5 6:5 4:10 5:15 4:5 12:5 14:5
13:0 15:5 9:5 5:5 6:5 4:10 5:15 4:5 12:5 14:5 15:10
15:0 9:5 5:5 6:5 4:10 5:15 4:5 12:5 14:5 15:10 7:5
9:0 5:5 6:5 4:10 5:15 4:5 12:5 14:5 15:10 7:5 6:10
5:0 6:5 4:10 5:15 4:5 12:5 14:5 15:10 7:5 6:10 4:5
6:0 4:10 5:15 4:5 12:5 14:5 15:10 7:5 6:10 4:5 5:10
4:0 5:15 4:5 12:5 14:5 15:10 7:5 6:10 4:5 5:10 6:5
5:0 4:5 12:5 14:5 15:10 7:5 6:10 4:5 5:10 6:5
4:0 12:5 14:5 15:10 7:5 6:10 4:5 5:10 6:5
12:0 14:5 15:10 7:5 6:10 4:5 5:10 6:5
14:0 15:10 7:5 6:10 4:5 5:10 6:5
15:0 7:5 6:10 4:5 5:10 6:5
7:0 6:10 4:5 5:10 6:5
6:0 4:5 5:10 6:5
4:0 5:10 6:5
5:0 6:5
6:0