4:0 10:5 3:5 11:5 4:5 13:5 8:5 9:5 8:15 5:5 3:5
10:0 3:5 11:5 4:5 13:5 8:5 9:5 8:15 5:5 3:5 7:5
3:0 11:5 4:5 13:5 8:5 9:5 8:15 5:5 3:5 7:5 2:5
11:0 4:5 13:5 8:5 9:5 8:15 5:5 3:5 7:5 2:5 13:5
4:0 13:5 8:5 9:5 8:15 5:5 3:5 7:5 2:5 13:5 7:5
13:0 8:5 9:5 8:15 5:5 3:5 7:5 2:5 13:5 7:5 10:5
8:0 9:5 8:15 5:5 3:5 7:5 2:5 13:5 7:5 10:5 2:5
9:0 8:15 5:5 3:5 7:5 2:5 13:5 7:5 10:5 2:5 7:5
8:0 5:5 3:5 7:5 2:5 13:5 7:5 10:5 2:5 7:5 8:5
5:0 3:5 7:5 2:5 13:5 7:5 10:5 2:5 7:5 8:5 7:5
3:0 7:5 2:5 13:5 7:5 10:5 2:5 7:5 8:5 7:5 8:5
7:0 2:5 13:5 7:5 10:5 2:5 7:5 8:5 7:5 8:5 13:15
2:0 13:5 7:5 10:5 2:5 7:5 8:5 7:5 8:5 13:15 4:5
13:0 7:5 10:5 2:5 7:5 8:5 7:5 8:5 13:15 4:5 12:5
7:0 10:5 2:5 7:5 8:5 7:5 8:5 13:15 4:5 12:5 4:5
10:0 2:5 7:5 8:5 7:5 8:5 13:15 4:5 12:5 4:5 11:5
2:0 7:5 8:5 7:5 8:5 13:15 4:5 12:5 4:5 11:5 7:5
7:0 8:5 7:5 8:5 13:15 4:5 12:5 4:5 11:5 7:5 4:5
8:0 7:5 8:5 13:15 4:5 12:5 4:5 11:5 7:5 4:5 2:10
7:0 8:5 13:15 4:5 12:5 4:5 11:5 7:5 4:5 2:10 12:5
8:0 13:15 4:5 12:5 4:5 11:5 7:5 4:5 2:10 12:5 8:5
13:0 4:5 12:5 4:5 11:5 7:5 4:5 2:10 12:5 8:5 10:5
4:0 12:5 4:5 11:5 7:5 4:5 2:10 12:5 8:5 10:5 5:5
12:0 4:5 11:5 7:5 4:5 2:10 12:5 8:5 10:5 5:5 6:5
4:0 11:5 7:5 4:5 2:10 12:5 8:5 10:5 5:5 6:5 12:5
11:0 7:5 4:5 2:10 12:5 8:5 10:5 5:5 6:5 12:5 7:5
7:0 4:5 2:10 12:5 8:5 10:5 5:5 6:5 12:5 7:5 10:5
4:0 2:10 12:5 8:5 10:5 5:5 6:5 12:5 7:5 10:5 2:5
2:0 12:5 8:5 10:5 5:5 6:5 12:5 7:5 10:5 2:5 8:5
12:0 8:5 10:5 5:5 6:5 12:5 7:5 10:5 2:5 8:5 7:5
8:0 10:5 5:5 6:5 12:5 7:5 10:5 2:5 8:5 7:5 4:20
10:0 5:5 6:5 12:5 7:5 10:5 2:5 8:5 7:5 4:20 10:5
5:0 6:5 12:5 7:5 10:5 2:5 8:5 7:5 4:20 10:5 2:5
6:0 12:5 7:5 10:5 2:5 8:5 7:5 4:20 10:5 2:5 10:5
12:0 7:5 10:5 2:5 8:5 7:5 4:20 10:5 2:5 10:5 2:5
7:0 10:5 2:5 8:5 7:5 4:20 10:5 2:5 10:5 2:5 11:5
10:0 2:5 8:5 7:5 4:20 10:5 2:5 10:5 2:5 11:5 9:5
2:0 8:5 7:5 4:20 10:5 2:5 10:5 2:5 11:5 9:5 3:10
8:0 7:5 4:20 10:5 2:5 10:5 2:5 11:5 9:5 3:10 2:5
7:0 4:20 10:5 2:5 10:5 2:5 11:5 9:5 3:10 2:5 12:5
4:0 10:5 2:5 10:5 2:5 11:5 9:5 3:10 2:5 12:5 4:5
10:0 2:5 10:5 2:5 11:5 9:5 3:10 2:5 12:5 4:5 8:5
2:0 10:5 2:5 11:5 9:5 3:10 2:5 12:5 4:5 8:5 6:5
10:0 2:5 11:5 9:5 3:10 2:5 12:5 4:5 8:5 6:5 10:5
2:0 11:5 9:5 3:10 2:5 12:5 4:5 8:5 6:5 10:5 12:5
11:0 9:5 3:10 2:5 12:5 4:5 8:5 6:5 10:5 12:5 8:5
9:0 3:10 2:5 12:5 4:5 8:5 6:5 10:5 12:5 8:5 3:5
3:0 2:5 12:5 4:5 8:5 6:5 10:5 12:5 8:5 3:5 5:5
2:0 12:5 4:5 8:5 6:5 10:5 12:5 8:5 3:5 5:5 3:5
12:0 4:5 8:5 6:5 10:5 12:5 8:5 3:5 5:5 3:5 10:5
4:0 8:5 6:5 10:5 12:5 8:5 3:5 5:5 3:5 10:5 4:5
8:0 6:5 10:5 12:5 8:5 3:5 5:5 3:5 10:5 4:5 9:5
6:0 10:5 12:5 8:5 3:5 5:5 3:5 10:5 4:5 9:5 8:5
10:0 12:5 8:5 3:5 5:5 3:5 10:5 4:5 9:5 8:5 12:5
12:0 8:5 3:5 5:5 3:5 10:5 4:5 9:5 8:5 12:5 8:5
8:0 3:5 5:5 3:5 10:5 4:5 9:5 8:5 12:5 8:5 11:5
3:0 5:5 3:5 10:5 4:5 9:5 8:5 12:5 8:5 11:5 7:5
5:0 3:5 10:5 4:5 9:5 8:5 12:5 8:5 11:5 7:5 9:5
3:0 10:5 4:5 9:5 8:5 12:5 8:5 11:5 7:5 9:5 6:5
10:0 4:5 9:5 8:5 12:5 8:5 11:5 7:5 9:5 6:5 4:10
4:0 9:5 8:5 12:5 8:5 11:5 7:5 9:5 6:5 4:10 6:5
9:0 8:5 12:5 8:5 11:5 7:5 9:5 6:5 4:10 6:5 2:5
8:0 12:5 8:5 11:5 7:5 9:5 6:5 4:10 6:5 2:5 13:5
12:0 8:5 11:5 7:5 9:5 6:5 4:10 6:5 2:5 13:5 8:5
8:0 11:5 7:5 9:5 6:5 4:10 6:5 2:5 13:5 8:5 10:5
11:0 7:5 9:5 6:5 4:10 6:5 2:5 13:5 8:5 10:5 8:5
7:0 9:5 6:5 4:10 6:5 2:5 13:5 8:5 10:5 8:5 7:5
9:0 6:5 4:10 6:5 2:5 13:5 8:5 10:5 8:5 7:5 12:5
6:0 4:10 6:5 2:5 13:5 8:5 10:5 8:5 7:5 12:5 11:5
4:0 6:5 2:5 13:5 8:5 10:5 8:5 7:5 12:5 11:5 5:5
6:0 2:5 13:5 8:5 10:5 8:5 7:5 12:5 11:5 5:5 2:5
2:0 13:5 8:5 10:5 8:5 7:5 12:5 11:5 5:5 2:5 5:5
13:0 8:5 10:5 8:5 7:5 12:5 11:5 5:5 2:5 5:5 11:5
8:0 10:5 8:5 7:5 12:5 11:5 5:5 2:5 5:5 11:5 4:5
10:0 8:5 7:5 12:5 11:5 5:5 2:5 5:5 11:5 4:5 12:5
8:0 7:5 12:5 11:5 5:5 2:5 5:5 11:5 4:5 12:5 5:5
7:0 12:5 11:5 5:5 2:5 5:5 11:5 4:5 12:5 5:5 11:5
12:0 11:5 5:5 2:5 5:5 11:5 4:5 12:5 5:5 11:5 12:5
11:0 5:5 2:5 5:5 11:5 4:5 12:5 5:5 11:5 12:5 5:5
5:0 2:5 5:5 11:5 4:5 12:5 5:5 11:5 12:5 5:5 3:5
2:0 5:5 11:5 4:5 12:5 5:5 11:5 12:5 5:5 3:5 2:5
5:0 11:5 4:5 12:5 5:5 11:5 12:5 5:5 3:5 2:5 12:5
11:0 4:5 12:5 5:5 11:5 12:5 5:5 3:5 2:5 12:5 7:5
4:0 12:5 5:5 11:5 12:5 5:5 3:5 2:5 12:5 7:5 10:5
12:0 5:5 11:5 12:5 5:5 3:5 2:5 12:5 7:5 10:5 4:5
5:0 11:5 12:5 5:5 3:5 2:5 12:5 7:5 10:5 4:5 9:10
11:0 12:5 5:5 3:5 2:5 12:5 7:5 10:5 4:5 9:10 6:5
12:0 5:5 3:5 2:5 12:5 7:5 10:5 4:5 9:10 6:5 4:5
5:0 3:5 2:5 12:5 7:5 10:5 4:5 9:10 6:5 4:5 9:5
3:0 2:5 12:5 7:5 10:5 4:5 9:10 6:5 4:5 9:5 5:5
2:0 12:5 7:5 10:5 4:5 9:10 6:5 4:5 9:5 5:5 13:5
12:0 7:5 10:5 4:5 9:10 6:5 4:5 9:5 5:5 13:5 4:5
7:0 10:5 4:5 9:10 6:5 4:5 9:5 5:5 13:5 4:5 11:5
10:0 4:5 9:10 6:5 4:5 9:5 5:5 13:5 4:5 11:5 5:5
4:0 9:10 6:5 4:5 9:5 5:5 13:5 4:5 11:5 5:5 10:5
9:0 6:5 4:5 9:5 5:5 13:5 4:5 11:5 5:5 10:5 8:5
6:0 4:5 9:5 5:5 13:5 4:5 11:5 5:5 10:5 8:5 6:5
4:0 9:5 5:5 13:5 4:5 11:5 5:5 10:5 8:5 6:5 3:5
9:0 5:5 13:5 4:5 11:5 5:5 10:5 8:5 6:5 3:5 6:5
5:0 13:5 4:5 11:5 5:5 10:5 8:5 6:5 3:5 6:5 13:10
13:0 4:5 11:5 5:5 10:5 8:5 6:5 3:5 6:5 13:10 7:5
4:0 11:5 5:5 10:5 8:5 6:5 3:5 6:5 13:10 7:5 10:5
11:0 5:5 10:5 8:5 6:5 3:5 6:5 13:10 7:5 10:5 4:5
5:0 10:5 8:5 6:5 3:5 6:5 13:10 7:5 10:5 4:5 13:5
10:0 8:5 6:5 3:5 6:5 13:10 7:5 10:5 4:5 13:5 9:5
8:0 6:5 3:5 6:5 13:10 7:5 10:5 4:5 13:5 9:5 11:5
6:0 3:5 6:5 13:10 7:5 10:5 4:5 13:5 9:5 11:5 4:5
3:0 6:5 13:10 7:5 10:5 4:5 13:5 9:5 11:5 4:5 10:10
6:0 13:10 7:5 10:5 4:5 13:5 9:5 11:5 4:5 10:10 11:5
13:0 7:5 10:5 4:5 13:5 9:5 11:5 4:5 10:10 11:5 4:5
7:0 10:5 4:5 13:5 9:5 11:5 4:5 10:10 11:5 4:5 8:5
10:0 4:5 13:5 9:5 11:5 4:5 10:10 11:5 4:5 8:5 3:5
4:0 13:5 9:5 11:5 4:5 10:10 11:5 4:5 8:5 3:5 13:5
13:0 9:5 11:5 4:5 10:10 11:5 4:5 8:5 3:5 13:5 7:5
9:0 11:5 4:5 10:10 11:5 4:5 8:5 3:5 13:5 7:5 9:5
11:0 4:5 10:10 11:5 4:5 8:5 3:5 13:5 7:5 9:5 3:5
4:0 10:10 11:5 4:5 8:5 3:5 13:5 7:5 9:5 3:5 5:5
10:0 11:5 4:5 8:5 3:5 13:5 7:5 9:5 3:5 5:5 9:5
11:0 4:5 8:5 3:5 13:5 7:5 9:5 3:5 5:5 9:5 8:5
4:0 8:5 3:5 13:5 7:5 9:5 3:5 5:5 9:5 8:5 10:5
8:0 3:5 13:5 7:5 9:5 3:5 5:5 9:5 8:5 10:5 6:5
3:0 13:5 7:5 9:5 3:5 5:5 9:5 8:5 10:5 6:5 11:5
13:0 7:5 9:5 3:5 5:5 9:5 8:5 10:5 6:5 11:5 13:5
7:0 9:5 3:5 5:5 9:5 8:5 10:5 6:5 11:5 13:5 5:5
9:0 3:5 5:5 9:5 8:5 10:5 6:5 11:5 13:5 5:5 11:5
3:0 5:5 9:5 8:5 10:5 6:5 11:5 13:5 5:5 11:5 2:5
5:0 9:5 8:5 10:5 6:5 11:5 13:5 5:5 11:5 2:5 9:5
9:0 8:5 10:5 6:5 11:5 13:5 5:5 11:5 2:5 9:5 6:5
8:0 10:5 6:5 11:5 13:5 5:5 11:5 2:5 9:5 6:5 7:5
10:0 6:5 11:5 13:5 5:5 11:5 2:5 9:5 6:5 7:5 5:5
6:0 11:5 13:5 5:5 11:5 2:5 9:5 6:5 7:5 5:5 8:5
11:0 13:5 5:5 11:5 2:5 9:5 6:5 7:5 5:5 8:5 13:5
13:0 5:5 11:5 2:5 9:5 6:5 7:5 5:5 8:5 13:5 11:5
5:0 11:5 2:5 9:5 6:5 7:5 5:5 8:5 13:5 11:5 8:5
11:0 2:5 9:5 6:5 7:5 5:5 8:5 13:5 11:5 8:5 10:5
2:0 9:5 6:5 7:5 5:5 8:5 13:5 11:5 8:5 10:5 3:5
9:0 6:5 7:5 5:5 8:5 13:5 11:5 8:5 10:5 3:5 12:5
6:0 7:5 5:5 8:5 13:5 11:5 8:5 10:5 3:5 12:5 3:5
7:0 5:5 8:5 13:5 11:5 8:5 10:5 3:5 12:5 3:5 6:5
5:0 8:5 13:5 11:5 8:5 10:5 3:5 12:5 3:5 6:5 5:5
8:0 13:5 11:5 8:5 10:5 3:5 12:5 3:5 6:5 5:5 6:5
13:0 11:5 8:5 10:5 3:5 12:5 3:5 6:5 5:5 6:5 14:5
11:0 8:5 10:5 3:5 12:5 3:5 6:5 5:5 6:5 14:5 5:5
8:0 10:5 3:5 12:5 3:5 6:5 5:5 6:5 14:5 5:5 6:5
10:0 3:5 12:5 3:5 6:5 5:5 6:5 14:5 5:5 6:5 2:5
3:0 12:5 3:5 6:5 5:5 6:5 14:5 5:5 6:5 2:5 8:5
12:0 3:5 6:5 5:5 6:5 14:5 5:5 6:5 2:5 8:5 7:5
3:0 6:5 5:5 6:5 14:5 5:5 6:5 2:5 8:5 7:5 5:5
6:0 5:5 6:5 14:5 5:5 6:5 2:5 8:5 7:5 5:5 4:5
5:0 6:5 14:5 5:5 6:5 2:5 8:5 7:5 5:5 4:5 5:5
6:0 14:5 5:5 6:5 2:5 8:5 7:5 5:5 4:5 5:5 13:5
14:0 5:5 6:5 2:5 8:5 7:5 5:5 4:5 5:5 13:5 11:5
5:0 6:5 2:5 8:5 7:5 5:5 4:5 5:5 13:5 11:5 5:5
6:0 2:5 8:5 7:5 5:5 4:5 5:5 13:5 11:5 5:5 11:5
2:0 8:5 7:5 5:5 4:5 5:5 13:5 11:5 5:5 11:5 6:5
8:0 7:5 5:5 4:5 5:5 13:5 11:5 5:5 11:5 6:5 9:5
7:0 5:5 4:5 5:5 13:5 11:5 5:5 11:5 6:5 9:5 4:5
5:0 4:5 5:5 13:5 11:5 5:5 11:5 6:5 9:5 4:5 6:10
4:0 5:5 13:5 11:5 5:5 11:5 6:5 9:5 4:5 6:10 4:5
5:0 13:5 11:5 5:5 11:5 6:5 9:5 4:5 6:10 4:5 13:5
13:0 11:5 5:5 11:5 6:5 9:5 4:5 6:10 4:5 13:5 9:5
11:0 5:5 11:5 6:5 9:5 4:5 6:10 4:5 13:5 9:5 11:5
5:0 11:5 6:5 9:5 4:5 6:10 4:5 13:5 9:5 11:5 2:5
11:0 6:5 9:5 4:5 6:10 4:5 13:5 9:5 11:5 2:5 6:5
6:0 9:5 4:5 6:10 4:5 13:5 9:5 11:5 2:5 6:5 9:5
9:0 4:5 6:10 4:5 13:5 9:5 11:5 2:5 6:5 9:5 8:5
4:0 6:10 4:5 13:5 9:5 11:5 2:5 6:5 9:5 8:5 7:10
6:0 4:5 13:5 9:5 11:5 2:5 6:5 9:5 8:5 7:10 9:5
4:0 13:5 9:5 11:5 2:5 6:5 9:5 8:5 7:10 9:5 10:5
13:0 9:5 11:5 2:5 6:5 9:5 8:5 7:10 9:5 10:5 7:5
9:0 11:5 2:5 6:5 9:5 8:5 7:10 9:5 10:5 7:5 10:5
11:0 2:5 6:5 9:5 8:5 7:10 9:5 10:5 7:5 10:5 2:5
2:0 6:5 9:5 8:5 7:10 9:5 10:5 7:5 10:5 2:5 11:5
6:0 9:5 8:5 7:10 9:5 10:5 7:5 10:5 2:5 11:5 10:5
9:0 8:5 7:10 9:5 10:5 7:5 10:5 2:5 11:5 10:5 8:5
8:0 7:10 9:5 10:5 7:5 10:5 2:5 11:5 10:5 8:5 7:5
7:0 9:5 10:5 7:5 10:5 2:5 11:5 10:5 8:5 7:5 5:5
9:0 10:5 7:5 10:5 2:5 11:5 10:5 8:5 7:5 5:5 11:5
10:0 7:5 10:5 2:5 11:5 10:5 8:5 7:5 5:5 11:5 10:5
7:0 10:5 2:5 11:5 10:5 8:5 7:5 5:5 11:5 10:5 8:5
10:0 2:5 11:5 10:5 8:5 7:5 5:5 11:5 10:5 8:5 6:5
2:0 11:5 10:5 8:5 7:5 5:5 11:5 10:5 8:5 6:5 3:5
11:0 10:5 8:5 7:5 5:5 11:5 10:5 8:5 6:5 3:5 11:5
10:0 8:5 7:5 5:5 11:5 10:5 8:5 6:5 3:5 11:5 7:5
8:0 7:5 5:5 11:5 10:5 8:5 6:5 3:5 11:5 7:5 6:10
7:0 5:5 11:5 10:5 8:5 6:5 3:5 11:5 7:5 6:10 8:5
5:0 11:5 10:5 8:5 6:5 3:5 11:5 7:5 6:10 8:5 12:5
11:0 10:5 8:5 6:5 3:5 11:5 7:5 6:10 8:5 12:5 4:5
10:0 8:5 6:5 3:5 11:5 7:5 6:10 8:5 12:5 4:5 11:5
8:0 6:5 3:5 11:5 7:5 6:10 8:5 12:5 4:5 11:5 5:5
6:0 3:5 11:5 7:5 6:10 8:5 12:5 4:5 11:5 5:5 11:5
3:0 11:5 7:5 6:10 8:5 12:5 4:5 11:5 5:5 11:5 6:5
11:0 7:5 6:10 8:5 12:5 4:5 11:5 5:5 11:5 6:5 3:10
7:0 6:10 8:5 12:5 4:5 11:5 5:5 11:5 6:5 3:10 6:5
6:0 8:5 12:5 4:5 11:5 5:5 11:5 6:5 3:10 6:5 8:5
8:0 12:5 4:5 11:5 5:5 11:5 6:5 3:10 6:5 8:5 11:5
12:0 4:5 11:5 5:5 11:5 6:5 3:10 6:5 8:5 11:5 6:5
4:0 11:5 5:5 11:5 6:5 3:10 6:5 8:5 11:5 6:5 8:5
11:0 5:5 11:5 6:5 3:10 6:5 8:5 11:5 6:5 8:5 2:5
5:0 11:5 6:5 3:10 6:5 8:5 11:5 6:5 8:5 2:5 12:5
11:0 6:5 3:10 6:5 8:5 11:5 6:5 8:5 2:5 12:5 3:5
6:0 3:10 6:5 8:5 11:5 6:5 8:5 2:5 12:5 3:5 13:5
3:0 6:5 8:5 11:5 6:5 8:5 2:5 12:5 3:5 13:5 4:5
6:0 8:5 11:5 6:5 8:5 2:5 12:5 3:5 13:5 4:5 6:5
8:0 11:5 6:5 8:5 2:5 12:5 3:5 13:5 4:5 6:5 13:5
11:0 6:5 8:5 2:5 12:5 3:5 13:5 4:5 6:5 13:5 8:5
6:0 8:5 2:5 12:5 3:5 13:5 4:5 6:5 13:5 8:5 5:5
8:0 2:5 12:5 3:5 13:5 4:5 6:5 13:5 8:5 5:5 1:5
2:0 12:5 3:5 13:5 4:5 6:5 13:5 8:5 5:5 1:5 7:5
12:0 3:5 13:5 4:5 6:5 13:5 8:5 5:5 1:5 7:5 9:10
3:0 13:5 4:5 6:5 13:5 8:5 5:5 1:5 7:5 9:10 4:5
13:0 4:5 6:5 13:5 8:5 5:5 1:5 7:5 9:10 4:5 12:5
4:0 6:5 13:5 8:5 5:5 1:5 7:5 9:10 4:5 12:5 7:5
6:0 13:5 8:5 5:5 1:5 7:5 9:10 4:5 12:5 7:5 12:5
13:0 8:5 5:5 1:5 7:5 9:10 4:5 12:5 7:5 12:5 6:5
8:0 5:5 1:5 7:5 9:10 4:5 12:5 7:5 12:5 6:5 12:5
5:0 1:5 7:5 9:10 4:5 12:5 7:5 12:5 6:5 12:5 4:5
1:0 7:5 9:10 4:5 12:5 7:5 12:5 6:5 12:5 4:5 11:5
7:0 9:10 4:5 12:5 7:5 12:5 6:5 12:5 4:5 11:5 3:5
9:0 4:5 12:5 7:5 12:5 6:5 12:5 4:5 11:5 3:5 7:5
4:0 12:5 7:5 12:5 6:5 12:5 4:5 11:5 3:5 7:5 5:5
12:0 7:5 12:5 6:5 12:5 4:5 11:5 3:5 7:5 5:5 2:5
7:0 12:5 6:5 12:5 4:5 11:5 3:5 7:5 5:5 2:5 12:5
12:0 6:5 12:5 4:5 11:5 3:5 7:5 5:5 2:5 12:5 8:5
6:0 12:5 4:5 11:5 3:5 7:5 5:5 2:5 12:5 8:5 11:5
12:0 4:5 11:5 3:5 7:5 5:5 2:5 12:5 8:5 11:5 2:5
4:0 11:5 3:5 7:5 5:5 2:5 12:5 8:5 11:5 2:5 9:5
11:0 3:5 7:5 5:5 2:5 12:5 8:5 11:5 2:5 9:5 10:5
3:0 7:5 5:5 2:5 12:5 8:5 11:5 2:5 9:5 10:5 6:5
7:0 5:5 2:5 12:5 8:5 11:5 2:5 9:5 10:5 6:5 12:5
5:0 2:5 12:5 8:5 11:5 2:5 9:5 10:5 6:5 12:5 7:5
2:0 12:5 8:5 11:5 2:5 9:5 10:5 6:5 12:5 7:5 6:5
12:0 8:5 11:5 2:5 9:5 10:5 6:5 12:5 7:5 6:5 8:5
8:0 11:5 2:5 9:5 10:5 6:5 12:5 7:5 6:5 8:5 3:5
11:0 2:5 9:5 10:5 6:5 12:5 7:5 6:5 8:5 3:5 9:5
2:0 9:5 10:5 6:5 12:5 7:5 6:5 8:5 3:5 9:5 2:5
9:0 10:5 6:5 12:5 7:5 6:5 8:5 3:5 9:5 2:5 11:5
10:0 6:5 12:5 7:5 6:5 8:5 3:5 9:5 2:5 11:5 10:10
6:0 12:5 7:5 6:5 8:5 3:5 9:5 2:5 11:5 10:10 2:5
12:0 7:5 6:5 8:5 3:5 9:5 2:5 11:5 10:10 2:5 3:5
7:0 6:5 8:5 3:5 9:5 2:5 11:5 10:10 2:5 3:5 8:5
6:0 8:5 3:5 9:5 2:5 11:5 10:10 2:5 3:5 8:5 9:5
8:0 3:5 9:5 2:5 11:5 10:10 2:5 3:5 8:5 9:5 4:5
3:0 9:5 2:5 11:5 10:10 2:5 3:5 8:5 9:5 4:5 9:5
9:0 2:5 11:5 10:10 2:5 3:5 8:5 9:5 4:5 9:5 4:5
2:0 11:5 10:10 2:5 3:5 8:5 9:5 4:5 9:5 4:5 13:5
11:0 10:10 2:5 3:5 8:5 9:5 4:5 9:5 4:5 13:5 7:5
10:0 2:5 3:5 8:5 9:5 4:5 9:5 4:5 13:5 7:5 11:5
2:0 3:5 8:5 9:5 4:5 9:5 4:5 13:5 7:5 11:5 9:5
3:0 8:5 9:5 4:5 9:5 4:5 13:5 7:5 11:5 9:5 6:5
8:0 9:5 4:5 9:5 4:5 13:5 7:5 11:5 9:5 6:5 10:5
9:0 4:5 9:5 4:5 13:5 7:5 11:5 9:5 6:5 10:5 3:5
4:0 9:5 4:5 13:5 7:5 11:5 9:5 6:5 10:5 3:5 5:5
9:0 4:5 13:5 7:5 11:5 9:5 6:5 10:5 3:5 5:5 4:5
4:0 13:5 7:5 11:5 9:5 6:5 10:5 3:5 5:5 4:5 5:5
13:0 7:5 11:5 9:5 6:5 10:5 3:5 5:5 4:5 5:5 12:5
7:0 11:5 9:5 6:5 10:5 3:5 5:5 4:5 5:5 12:5 7:5
11:0 9:5 6:5 10:5 3:5 5:5 4:5 5:5 12:5 7:5 11:5
9:0 6:5 10:5 3:5 5:5 4:5 5:5 12:5 7:5 11:5 5:5
6:0 10:5 3:5 5:5 4:5 5:5 12:5 7:5 11:5 5:5 12:5
10:0 3:5 5:5 4:5 5:5 12:5 7:5 11:5 5:5 12:5 7:10
3:0 5:5 4:5 5:5 12:5 7:5 11:5 5:5 12:5 7:10 8:5
5:0 4:5 5:5 12:5 7:5 11:5 5:5 12:5 7:10 8:5 2:5
4:0 5:5 12:5 7:5 11:5 5:5 12:5 7:10 8:5 2:5 10:5
5:0 12:5 7:5 11:5 5:5 12:5 7:10 8:5 2:5 10:5 6:5
12:0 7:5 11:5 5:5 12:5 7:10 8:5 2:5 10:5 6:5 8:5
7:0 11:5 5:5 12:5 7:10 8:5 2:5 10:5 6:5 8:5 4:10
11:0 5:5 12:5 7:10 8:5 2:5 10:5 6:5 8:5 4:10 14:5
5:0 12:5 7:10 8:5 2:5 10:5 6:5 8:5 4:10 14:5 8:5
12:0 7:10 8:5 2:5 10:5 6:5 8:5 4:10 14:5 8:5 1:10
7:0 8:5 2:5 10:5 6:5 8:5 4:10 14:5 8:5 1:10 6:5
8:0 2:5 10:5 6:5 8:5 4:10 14:5 8:5 1:10 6:5 8:5
2:0 10:5 6:5 8:5 4:10 14:5 8:5 1:10 6:5 8:5 10:15
10:0 6:5 8:5 4:10 14:5 8:5 1:10 6:5 8:5 10:15 8:5
6:0 8:5 4:10 14:5 8:5 1:10 6:5 8:5 10:15 8:5 13:5
8:0 4:10 14:5 8:5 1:10 6:5 8:5 10:15 8:5 13:5 4:5
4:0 14:5 8:5 1:10 6:5 8:5 10:15 8:5 13:5 4:5 13:5
14:0 8:5 1:10 6:5 8:5 10:15 8:5 13:5 4:5 13:5 4:5
8:0 1:10 6:5 8:5 10:15 8:5 13:5 4:5 13:5 4:5 8:5
1:0 6:5 8:5 10:15 8:5 13:5 4:5 13:5 4:5 8:5 7:5
6:0 8:5 10:15 8:5 13:5 4:5 13:5 4:5 8:5 7:5 3:5
8:0 10:15 8:5 13:5 4:5 13:5 4:5 8:5 7:5 3:5 7:5
10:0 8:5 13:5 4:5 13:5 4:5 8:5 7:5 3:5 7:5 2:5
8:0 13:5 4:5 13:5 4:5 8:5 7:5 3:5 7:5 2:5 11:5
13:0 4:5 13:5 4:5 8:5 7:5 3:5 7:5 2:5 11:5 12:5
4:0 13:5 4:5 8:5 7:5 3:5 7:5 2:5 11:5 12:5 9:5
13:0 4:5 8:5 7:5 3:5 7:5 2:5 11:5 12:5 9:5 11:5
4:0 8:5 7:5 3:5 7:5 2:5 11:5 12:5 9:5 11:5 7:5
8:0 7:5 3:5 7:5 2:5 11:5 12:5 9:5 11:5 7:5 12:5
7:0 3:5 7:5 2:5 11:5 12:5 9:5 11:5 7:5 12:5 5:10
3:0 7:5 2:5 11:5 12:5 9:5 11:5 7:5 12:5 5:10 7:5
7:0 2:5 11:5 12:5 9:5 11:5 7:5 12:5 5:10 7:5 2:5
2:0 11:5 12:5 9:5 11:5 7:5 12:5 5:10 7:5 2:5 10:5
11:0 12:5 9:5 11:5 7:5 12:5 5:10 7:5 2:5 10:5 4:5
12:0 9:5 11:5 7:5 12:5 5:10 7:5 2:5 10:5 4:5 10:5
9:0 11:5 7:5 12:5 5:10 7:5 2:5 10:5 4:5 10:5 6:5
11:0 7:5 12:5 5:10 7:5 2:5 10:5 4:5 10:5 6:5 10:5
7:0 12:5 5:10 7:5 2:5 10:5 4:5 10:5 6:5 10:5 12:5
12:0 5:10 7:5 2:5 10:5 4:5 10:5 6:5 10:5 12:5 3:5
5:0 7:5 2:5 10:5 4:5 10:5 6:5 10:5 12:5 3:5 5:5
7:0 2:5 10:5 4:5 10:5 6:5 10:5 12:5 3:5 5:5 2:5
2:0 10:5 4:5 10:5 6:5 10:5 12:5 3:5 5:5 2:5 8:5
10:0 4:5 10:5 6:5 10:5 12:5 3:5 5:5 2:5 8:5 7:15
4:0 10:5 6:5 10:5 12:5 3:5 5:5 2:5 8:5 7:15 6:5
10:0 6:5 10:5 12:5 3:5 5:5 2:5 8:5 7:15 6:5 9:5
6:0 10:5 12:5 3:5 5:5 2:5 8:5 7:15 6:5 9:5 13:5
10:0 12:5 3:5 5:5 2:5 8:5 7:15 6:5 9:5 13:5 6:5
12:0 3:5 5:5 2:5 8:5 7:15 6:5 9:5 13:5 6:5 9:5
3:0 5:5 2:5 8:5 7:15 6:5 9:5 13:5 6:5 9:5 2:5
5:0 2:5 8:5 7:15 6:5 9:5 13:5 6:5 9:5 2:5 9:5
2:0 8:5 7:15 6:5 9:5 13:5 6:5 9:5 2:5 9:5 5:5
8:0 7:15 6:5 9:5 13:5 6:5 9:5 2:5 9:5 5:5 6:5
7:0 6:5 9:5 13:5 6:5 9:5 2:5 9:5 5:5 6:5 8:10
6:0 9:5 13:5 6:5 9:5 2:5 9:5 5:5 6:5 8:10 12:5
9:0 13:5 6:5 9:5 2:5 9:5 5:5 6:5 8:10 12:5 11:5
13:0 6:5 9:5 2:5 9:5 5:5 6:5 8:10 12:5 11:5 6:5
6:0 9:5 2:5 9:5 5:5 6:5 8:10 12:5 11:5 6:5 10:5
9:0 2:5 9:5 5:5 6:5 8:10 12:5 11:5 6:5 10:5 6:5
2:0 9:5 5:5 6:5 8:10 12:5 11:5 6:5 10:5 6:5 12:5
9:0 5:5 6:5 8:10 12:5 11:5 6:5 10:5 6:5 12:5 3:5
5:0 6:5 8:10 12:5 11:5 6:5 10:5 6:5 12:5 3:5 6:5
6:0 8:10 12:5 11:5 6:5 10:5 6:5 12:5 3:5 6:5 3:5
8:0 12:5 11:5 6:5 10:5 6:5 12:5 3:5 6:5 3:5 9:5
12:0 11:5 6:5 10:5 6:5 12:5 3:5 6:5 3:5 9:5 10:5
11:0 6:5 10:5 6:5 12:5 3:5 6:5 3:5 9:5 10:5 9:5
6:0 10:5 6:5 12:5 3:5 6:5 3:5 9:5 10:5 9:5 6:5
10:0 6:5 12:5 3:5 6:5 3:5 9:5 10:5 9:5 6:5 4:5
6:0 12:5 3:5 6:5 3:5 9:5 10:5 9:5 6:5 4:5 10:5
12:0 3:5 6:5 3:5 9:5 10:5 9:5 6:5 4:5 10:5 13:5
3:0 6:5 3:5 9:5 10:5 9:5 6:5 4:5 10:5 13:5 5:5
6:0 3:5 9:5 10:5 9:5 6:5 4:5 10:5 13:5 5:5 9:5
3:0 9:5 10:5 9:5 6:5 4:5 10:5 13:5 5:5 9:5 3:5
9:0 10:5 9:5 6:5 4:5 10:5 13:5 5:5 9:5 3:5 12:5
10:0 9:5 6:5 4:5 10:5 13:5 5:5 9:5 3:5 12:5 7:5
9:0 6:5 4:5 10:5 13:5 5:5 9:5 3:5 12:5 7:5 10:5
6:0 4:5 10:5 13:5 5:5 9:5 3:5 12:5 7:5 10:5 3:5
4:0 10:5 13:5 5:5 9:5 3:5 12:5 7:5 10:5 3:5 12:10
10:0 13:5 5:5 9:5 3:5 12:5 7:5 10:5 3:5 12:10 4:5
13:0 5:5 9:5 3:5 12:5 7:5 10:5 3:5 12:10 4:5 10:5
5:0 9:5 3:5 12:5 7:5 10:5 3:5 12:10 4:5 10:5 3:5
9:0 3:5 12:5 7:5 10:5 3:5 12:10 4:5 10:5 3:5 12:5
3:0 12:5 7:5 10:5 3:5 12:10 4:5 10:5 3:5 12:5 11:5
12:0 7:5 10:5 3:5 12:10 4:5 10:5 3:5 12:5 11:5 8:5
7:0 10:5 3:5 12:10 4:5 10:5 3:5 12:5 11:5 8:5 10:5
10:0 3:5 12:10 4:5 10:5 3:5 12:5 11:5 8:5 10:5 6:5
3:0 12:10 4:5 10:5 3:5 12:5 11:5 8:5 10:5 6:5 7:5
12:0 4:5 10:5 3:5 12:5 11:5 8:5 10:5 6:5 7:5 2:10
4:0 10:5 3:5 12:5 11:5 8:5 10:5 6:5 7:5 2:10 9:5
10:0 3:5 12:5 11:5 8:5 10:5 6:5 7:5 2:10 9:5 2:5
3:0 12:5 11:5 8:5 10:5 6:5 7:5 2:10 9:5 2:5 10:5
12:0 11:5 8:5 10:5 6:5 7:5 2:10 9:5 2:5 10:5 11:10
11:0 8:5 10:5 6:5 7:5 2:10 9:5 2:5 10:5 11:10 6:5
8:0 10:5 6:5 7:5 2:10 9:5 2:5 10:5 11:10 6:5 7:5
10:0 6:5 7:5 2:10 9:5 2:5 10:5 11:10 6:5 7:5 12:5
6:0 7:5 2:10 9:5 2:5 10:5 11:10 6:5 7:5 12:5 5:10
7:0 2:10 9:5 2:5 10:5 11:10 6:5 7:5 12:5 5:10 7:5
2:0 9:5 2:5 10:5 11:10 6:5 7:5 12:5 5:10 7:5 2:5
9:0 2:5 10:5 11:10 6:5 7:5 12:5 5:10 7:5 2:5 12:5
2:0 10:5 11:10 6:5 7:5 12:5 5:10 7:5 2:5 12:5 8:5
10:0 11:10 6:5 7:5 12:5 5:10 7:5 2:5 12:5 8:5 5:10
11:0 6:5 7:5 12:5 5:10 7:5 2:5 12:5 8:5 5:10 8:5
6:0 7:5 12:5 5:10 7:5 2:5 12:5 8:5 5:10 8:5 12:5
7:0 12:5 5:10 7:5 2:5 12:5 8:5 5:10 8:5 12:5 7:5
12:0 5:10 7:5 2:5 12:5 8:5 5:10 8:5 12:5 7:5 9:5
5:0 7:5 2:5 12:5 8:5 5:10 8:5 12:5 7:5 9:5 2:5
7:0 2:5 12:5 8:5 5:10 8:5 12:5 7:5 9:5 2:5 10:5
2:0 12:5 8:5 5:10 8:5 12:5 7:5 9:5 2:5 10:5 8:5
12:0 8:5 5:10 8:5 12:5 7:5 9:5 2:5 10:5 8:5 7:5
8:0 5:10 8:5 12:5 7:5 9:5 2:5 10:5 8:5 7:5 4:5
5:0 8:5 12:5 7:5 9:5 2:5 10:5 8:5 7:5 4:5 7:5
8:0 12:5 7:5 9:5 2:5 10:5 8:5 7:5 4:5 7:5 11:5
12:0 7:5 9:5 2:5 10:5 8:5 7:5 4:5 7:5 11:5 12:5
7:0 9:5 2:5 10:5 8:5 7:5 4:5 7:5 11:5 12:5 4:5
9:0 2:5 10:5 8:5 7:5 4:5 7:5 11:5 12:5 4:5 12:5
2:0 10:5 8:5 7:5 4:5 7:5 11:5 12:5 4:5 12:5 4:5
10:0 8:5 7:5 4:5 7:5 11:5 12:5 4:5 12:5 4:5 12:5
8:0 7:5 4:5 7:5 11:5 12:5 4:5 12:5 4:5 12:5 3:5
7:0 4:5 7:5 11:5 12:5 4:5 12:5 4:5 12:5 3:5 7:5
4:0 7:5 11:5 12:5 4:5 12:5 4:5 12:5 3:5 7:5 2:5
7:0 11:5 12:5 4:5 12:5 4:5 12:5 3:5 7:5 2:5 5:5
11:0 12:5 4:5 12:5 4:5 12:5 3:5 7:5 2:5 5:5 12:5
12:0 4:5 12:5 4:5 12:5 3:5 7:5 2:5 5:5 12:5 4:10
4:0 12:5 4:5 12:5 3:5 7:5 2:5 5:5 12:5 4:10 5:5
12:0 4:5 12:5 3:5 7:5 2:5 5:5 12:5 4:10 5:5 3:5
4:0 12:5 3:5 7:5 2:5 5:5 12:5 4:10 5:5 3:5 12:5
12:0 3:5 7:5 2:5 5:5 12:5 4:10 5:5 3:5 12:5 4:5
3:0 7:5 2:5 5:5 12:5 4:10 5:5 3:5 12:5 4:5 11:5
7:0 2:5 5:5 12:5 4:10 5:5 3:5 12:5 4:5 11:5 4:5
2:0 5:5 12:5 4:10 5:5 3:5 12:5 4:5 11:5 4:5 11:5
5:0 12:5 4:10 5:5 3:5 12:5 4:5 11:5 4:5 11:5 10:5
12:0 4:10 5:5 3:5 12:5 4:5 11:5 4:5 11:5 10:5 3:5
4:0 5:5 3:5 12:5 4:5 11:5 4:5 11:5 10:5 3:5 5:5
5:0 3:5 12:5 4:5 11:5 4:5 11:5 10:5 3:5 5:5 2:5
3:0 12:5 4:5 11:5 4:5 11:5 10:5 3:5 5:5 2:5 10:5
12:0 4:5 11:5 4:5 11:5 10:5 3:5 5:5 2:5 10:5 11:5
4:0 11:5 4:5 11:5 10:5 3:5 5:5 2:5 10:5 11:5 9:5
11:0 4:5 11:5 10:5 3:5 5:5 2:5 10:5 11:5 9:5 4:10
4:0 11:5 10:5 3:5 5:5 2:5 10:5 11:5 9:5 4:10 13:5
11:0 10:5 3:5 5:5 2:5 10:5 11:5 9:5 4:10 13:5 6:5
10:0 3:5 5:5 2:5 10:5 11:5 9:5 4:10 13:5 6:5 11:5
3:0 5:5 2:5 10:5 11:5 9:5 4:10 13:5 6:5 11:5 2:5
5:0 2:5 10:5 11:5 9:5 4:10 13:5 6:5 11:5 2:5 7:5
2:0 10:5 11:5 9:5 4:10 13:5 6:5 11:5 2:5 7:5 8:5
10:0 11:5 9:5 4:10 13:5 6:5 11:5 2:5 7:5 8:5 9:5
11:0 9:5 4:10 13:5 6:5 11:5 2:5 7:5 8:5 9:5 8:10
9:0 4:10 13:5 6:5 11:5 2:5 7:5 8:5 9:5 8:10 5:5
4:0 13:5 6:5 11:5 2:5 7:5 8:5 9:5 8:10 5:5 14:5
13:0 6:5 11:5 2:5 7:5 8:5 9:5 8:10 5:5 14:5 7:5
6:0 11:5 2:5 7:5 8:5 9:5 8:10 5:5 14:5 7:5 9:5
11:0 2:5 7:5 8:5 9:5 8:10 5:5 14:5 7:5 9:5 4:5
2:0 7:5 8:5 9:5 8:10 5:5 14:5 7:5 9:5 4:5 6:5
7:0 8:5 9:5 8:10 5:5 14:5 7:5 9:5 4:5 6:5 11:5
8:0 9:5 8:10 5:5 14:5 7:5 9:5 4:5 6:5 11:5 5:5
9:0 8:10 5:5 14:5 7:5 9:5 4:5 6:5 11:5 5:5 11:5
8:0 5:5 14:5 7:5 9:5 4:5 6:5 11:5 5:5 11:5 6:5
5:0 14:5 7:5 9:5 4:5 6:5 11:5 5:5 11:5 6:5 9:5
14:0 7:5 9:5 4:5 6:5 11:5 5:5 11:5 6:5 9:5 12:5
7:0 9:5 4:5 6:5 11:5 5:5 11:5 6:5 9:5 12:5 7:5
9:0 4:5 6:5 11:5 5:5 11:5 6:5 9:5 12:5 7:5 9:5
4:0 6:5 11:5 5:5 11:5 6:5 9:5 12:5 7:5 9:5 2:5
6:0 11:5 5:5 11:5 6:5 9:5 12:5 7:5 9:5 2:5 12:5
11:0 5:5 11:5 6:5 9:5 12:5 7:5 9:5 2:5 12:5 8:5
5:0 11:5 6:5 9:5 12:5 7:5 9:5 2:5 12:5 8:5 10:5
11:0 6:5 9:5 12:5 7:5 9:5 2:5 12:5 8:5 10:5 3:5
6:0 9:5 12:5 7:5 9:5 2:5 12:5 8:5 10:5 3:5 5:5
9:0 12:5 7:5 9:5 2:5 12:5 8:5 10:5 3:5 5:5 12:5
12:0 7:5 9:5 2:5 12:5 8:5 10:5 3:5 5:5 12:5 9:5
7:0 9:5 2:5 12:5 8:5 10:5 3:5 5:5 12:5 9:5 8:5
9:0 2:5 12:5 8:5 10:5 3:5 5:5 12:5 9:5 8:5 6:5
2:0 12:5 8:5 10:5 3:5 5:5 12:5 9:5 8:5 6:5 3:5
12:0 8:5 10:5 3:5 5:5 12:5 9:5 8:5 6:5 3:5 12:5
8:0 10:5 3:5 5:5 12:5 9:5 8:5 6:5 3:5 12:5 5:5
10:0 3:5 5:5 12:5 9:5 8:5 6:5 3:5 12:5 5:5 6:5
3:0 5:5 12:5 9:5 8:5 6:5 3:5 12:5 5:5 6:5 9:5
5:0 12:5 9:5 8:5 6:5 3:5 12:5 5:5 6:5 9:5 7:5
12:0 9:5 8:5 6:5 3:5 12:5 5:5 6:5 9:5 7:5 13:5
9:0 8:5 6:5 3:5 12:5 5:5 6:5 9:5 7:5 13:5 6:5
8:0 6:5 3:5 12:5 5:5 6:5 9:5 7:5 13:5 6:5 13:5
6:0 3:5 12:5 5:5 6:5 9:5 7:5 13:5 6:5 13:5 4:5
3:0 12:5 5:5 6:5 9:5 7:5 13:5 6:5 13:5 4:5 9:5
12:0 5:5 6:5 9:5 7:5 13:5 6:5 13:5 4:5 9:5 5:5
5:0 6:5 9:5 7:5 13:5 6:5 13:5 4:5 9:5 5:5 8:5
6:0 9:5 7:5 13:5 6:5 13:5 4:5 9:5 5:5 8:5 5:5
9:0 7:5 13:5 6:5 13:5 4:5 9:5 5:5 8:5 5:5 6:5
7:0 13:5 6:5 13:5 4:5 9:5 5:5 8:5 5:5 6:5 7:5
13:0 6:5 13:5 4:5 9:5 5:5 8:5 5:5 6:5 7:5 13:5
6:0 13:5 4:5 9:5 5:5 8:5 5:5 6:5 7:5 13:5 4:5
13:0 4:5 9:5 5:5 8:5 5:5 6:5 7:5 13:5 4:5 9:5
4:0 9:5 5:5 8:5 5:5 6:5 7:5 13:5 4:5 9:5 2:5
9:0 5:5 8:5 5:5 6:5 7:5 13:5 4:5 9:5 2:5 11:5
5:0 8:5 5:5 6:5 7:5 13:5 4:5 9:5 2:5 11:5 7:5
8:0 5:5 6:5 7:5 13:5 4:5 9:5 2:5 11:5 7:5 10:5
5:0 6:5 7:5 13:5 4:5 9:5 2:5 11:5 7:5 10:5 8:5
6:0 7:5 13:5 4:5 9:5 2:5 11:5 7:5 10:5 8:5 5:5
7:0 13:5 4:5 9:5 2:5 11:5 7:5 10:5 8:5 5:5 14:5
13:0 4:5 9:5 2:5 11:5 7:5 10:5 8:5 5:5 14:5 8:5
4:0 9:5 2:5 11:5 7:5 10:5 8:5 5:5 14:5 8:5 7:5
9:0 2:5 11:5 7:5 10:5 8:5 5:5 14:5 8:5 7:5 2:5
2:0 11:5 7:5 10:5 8:5 5:5 14:5 8:5 7:5 2:5 5:5
11:0 7:5 10:5 8:5 5:5 14:5 8:5 7:5 2:5 5:5 10:5
7:0 10:5 8:5 5:5 14:5 8:5 7:5 2:5 5:5 10:5 3:5
10:0 8:5 5:5 14:5 8:5 7:5 2:5 5:5 10:5 3:5 9:5
8:0 5:5 14:5 8:5 7:5 2:5 5:5 10:5 3:5 9:5 4:5
5:0 14:5 8:5 7:5 2:5 5:5 10:5 3:5 9:5 4:5 13:5
14:0 8:5 7:5 2:5 5:5 10:5 3:5 9:5 4:5 13:5 8:5
8:0 7:5 2:5 5:5 10:5 3:5 9:5 4:5 13:5 8:5 11:5
7:0 2:5 5:5 10:5 3:5 9:5 4:5 13:5 8:5 11:5 9:5
2:0 5:5 10:5 3:5 9:5 4:5 13:5 8:5 11:5 9:5 8:5
5:0 10:5 3:5 9:5 4:5 13:5 8:5 11:5 9:5 8:5 9:5
10:0 3:5 9:5 4:5 13:5 8:5 11:5 9:5 8:5 9:5 7:5
3:0 9:5 4:5 13:5 8:5 11:5 9:5 8:5 9:5 7:5 2:5
9:0 4:5 13:5 8:5 11:5 9:5 8:5 9:5 7:5 2:5 8:5
4:0 13:5 8:5 11:5 9:5 8:5 9:5 7:5 2:5 8:5 2:5
13:0 8:5 11:5 9:5 8:5 9:5 7:5 2:5 8:5 2:5 11:5
8:0 11:5 9:5 8:5 9:5 7:5 2:5 8:5 2:5 11:5 10:10
11:0 9:5 8:5 9:5 7:5 2:5 8:5 2:5 11:5 10:10 6:5
9:0 8:5 9:5 7:5 2:5 8:5 2:5 11:5 10:10 6:5 7:5
8:0 9:5 7:5 2:5 8:5 2:5 11:5 10:10 6:5 7:5 14:5
9:0 7:5 2:5 8:5 2:5 11:5 10:10 6:5 7:5 14:5 9:5
7:0 2:5 8:5 2:5 11:5 10:10 6:5 7:5 14:5 9:5 6:5
2:0 8:5 2:5 11:5 10:10 6:5 7:5 14:5 9:5 6:5 7:5
8:0 2:5 11:5 10:10 6:5 7:5 14:5 9:5 6:5 7:5 3:5
2:0 11:5 10:10 6:5 7:5 14:5 9:5 6:5 7:5 3:5 11:5
11:0 10:10 6:5 7:5 14:5 9:5 6:5 7:5 3:5 11:5 5:5
10:0 6:5 7:5 14:5 9:5 6:5 7:5 3:5 11:5 5:5 12:5
6:0 7:5 14:5 9:5 6:5 7:5 3:5 11:5 5:5 12:5 3:5
7:0 14:5 9:5 6:5 7:5 3:5 11:5 5:5 12:5 3:5 10:5
14:0 9:5 6:5 7:5 3:5 11:5 5:5 12:5 3:5 10:5 13:5
9:0 6:5 7:5 3:5 11:5 5:5 12:5 3:5 10:5 13:5 6:5
6:0 7:5 3:5 11:5 5:5 12:5 3:5 10:5 13:5 6:5 4:5
7:0 3:5 11:5 5:5 12:5 3:5 10:5 13:5 6:5 4:5 2:5
3:0 11:5 5:5 12:5 3:5 10:5 13:5 6:5 4:5 2:5 10:5
11:0 5:5 12:5 3:5 10:5 13:5 6:5 4:5 2:5 10:5 4:5
5:0 12:5 3:5 10:5 13:5 6:5 4:5 2:5 10:5 4:5 7:5
12:0 3:5 10:5 13:5 6:5 4:5 2:5 10:5 4:5 7:5 4:5
3:0 10:5 13:5 6:5 4:5 2:5 10:5 4:5 7:5 4:5 6:5
10:0 13:5 6:5 4:5 2:5 10:5 4:5 7:5 4:5 6:5 13:5
13:0 6:5 4:5 2:5 10:5 4:5 7:5 4:5 6:5 13:5 9:5
6:0 4:5 2:5 10:5 4:5 7:5 4:5 6:5 13:5 9:5 6:5
4:0 2:5 10:5 4:5 7:5 4:5 6:5 13:5 9:5 6:5 11:5
2:0 10:5 4:5 7:5 4:5 6:5 13:5 9:5 6:5 11:5 4:5
10:0 4:5 7:5 4:5 6:5 13:5 9:5 6:5 11:5 4:5 11:5
4:0 7:5 4:5 6:5 13:5 9:5 6:5 11:5 4:5 11:5 3:5
7:0 4:5 6:5 13:5 9:5 6:5 11:5 4:5 11:5 3:5 6:5
4:0 6:5 13:5 9:5 6:5 11:5 4:5 11:5 3:5 6:5 3:5
6:0 13:5 9:5 6:5 11:5 4:5 11:5 3:5 6:5 3:5 4:5
13:0 9:5 6:5 11:5 4:5 11:5 3:5 6:5 3:5 4:5 13:5
9:0 6:5 11:5 4:5 11:5 3:5 6:5 3:5 4:5 13:5 5:5
6:0 11:5 4:5 11:5 3:5 6:5 3:5 4:5 13:5 5:5 12:5
11:0 4:5 11:5 3:5 6:5 3:5 4:5 13:5 5:5 12:5 4:5
4:0 11:5 3:5 6:5 3:5 4:5 13:5 5:5 12:5 4:5 12:5
11:0 3:5 6:5 3:5 4:5 13:5 5:5 12:5 4:5 12:5 9:5
3:0 6:5 3:5 4:5 13:5 5:5 12:5 4:5 12:5 9:5 8:5
6:0 3:5 4:5 13:5 5:5 12:5 4:5 12:5 9:5 8:5 6:5
3:0 4:5 13:5 5:5 12:5 4:5 12:5 9:5 8:5 6:5 4:5
4:0 13:5 5:5 12:5 4:5 12:5 9:5 8:5 6:5 4:5 9:5
13:0 5:5 12:5 4:5 12:5 9:5 8:5 6:5 4:5 9:5 11:5
5:0 12:5 4:5 12:5 9:5 8:5 6:5 4:5 9:5 11:5 6:5
12:0 4:5 12:5 9:5 8:5 6:5 4:5 9:5 11:5 6:5 10:5
4:0 12:5 9:5 8:5 6:5 4:5 9:5 11:5 6:5 10:5 3:5
12:0 9:5 8:5 6:5 4:5 9:5 11:5 6:5 10:5 3:5 14:5
9:0 8:5 6:5 4:5 9:5 11:5 6:5 10:5 3:5 14:5 7:5
8:0 6:5 4:5 9:5 11:5 6:5 10:5 3:5 14:5 7:5 10:5
6:0 4:5 9:5 11:5 6:5 10:5 3:5 14:5 7:5 10:5 1:5
4:0 9:5 11:5 6:5 10:5 3:5 14:5 7:5 10:5 1:5 5:5
9:0 11:5 6:5 10:5 3:5 14:5 7:5 10:5 1:5 5:5 10:5
11:0 6:5 10:5 3:5 14:5 7:5 10:5 1:5 5:5 10:5 3:5
6:0 10:5 3:5 14:5 7:5 10:5 1:5 5:5 10:5 3:5 10:5
10:0 3:5 14:5 7:5 10:5 1:5 5:5 10:5 3:5 10:5 3:5
3:0 14:5 7:5 10:5 1:5 5:5 10:5 3:5 10:5 3:5 10:5
14:0 7:5 10:5 1:5 5:5 10:5 3:5 10:5 3:5 10:5 9:5
7:0 10:5 1:5 5:5 10:5 3:5 10:5 3:5 10:5 9:5 12:5
10:0 1:5 5:5 10:5 3:5 10:5 3:5 10:5 9:5 12:5 6:5
1:0 5:5 10:5 3:5 10:5 3:5 10:5 9:5 12:5 6:5 7:5
5:0 10:5 3:5 10:5 3:5 10:5 9:5 12:5 6:5 7:5 3:5
10:0 3:5 10:5 3:5 10:5 9:5 12:5 6:5 7:5 3:5 11:5
3:0 10:5 3:5 10:5 9:5 12:5 6:5 7:5 3:5 11:5 5:5
10:0 3:5 10:5 9:5 12:5 6:5 7:5 3:5 11:5 5:5 8:5
3:0 10:5 9:5 12:5 6:5 7:5 3:5 11:5 5:5 8:5 5:5
10:0 9:5 12:5 6:5 7:5 3:5 11:5 5:5 8:5 5:5 13:5
9:0 12:5 6:5 7:5 3:5 11:5 5:5 8:5 5:5 13:5 7:5
12:0 6:5 7:5 3:5 11:5 5:5 8:5 5:5 13:5 7:5 10:5
6:0 7:5 3:5 11:5 5:5 8:5 5:5 13:5 7:5 10:5 5:5
7:0 3:5 11:5 5:5 8:5 5:5 13:5 7:5 10:5 5:5 12:5
3:0 11:5 5:5 8:5 5:5 13:5 7:5 10:5 5:5 12:5 9:5
11:0 5:5 8:5 5:5 13:5 7:5 10:5 5:5 12:5 9:5 5:5
5:0 8:5 5:5 13:5 7:5 10:5 5:5 12:5 9:5 5:5 3:5
8:0 5:5 13:5 7:5 10:5 5:5 12:5 9:5 5:5 3:5 6:5
5:0 13:5 7:5 10:5 5:5 12:5 9:5 5:5 3:5 6:5 4:5
13:0 7:5 10:5 5:5 12:5 9:5 5:5 3:5 6:5 4:5 13:5
7:0 10:5 5:5 12:5 9:5 5:5 3:5 6:5 4:5 13:5 7:5
10:0 5:5 12:5 9:5 5:5 3:5 6:5 4:5 13:5 7:5 11:5
5:0 12:5 9:5 5:5 3:5 6:5 4:5 13:5 7:5 11:5 2:5
12:0 9:5 5:5 3:5 6:5 4:5 13:5 7:5 11:5 2:5 5:5
9:0 5:5 3:5 6:5 4:5 13:5 7:5 11:5 2:5 5:5 12:5
5:0 3:5 6:5 4:5 13:5 7:5 11:5 2:5 5:5 12:5 8:5
3:0 6:5 4:5 13:5 7:5 11:5 2:5 5:5 12:5 8:5 9:5
6:0 4:5 13:5 7:5 11:5 2:5 5:5 12:5 8:5 9:5 3:5
4:0 13:5 7:5 11:5 2:5 5:5 12:5 8:5 9:5 3:5 12:5
13:0 7:5 11:5 2:5 5:5 12:5 8:5 9:5 3:5 12:5 6:5
7:0 11:5 2:5 5:5 12:5 8:5 9:5 3:5 12:5 6:5 11:5
11:0 2:5 5:5 12:5 8:5 9:5 3:5 12:5 6:5 11:5 4:5
2:0 5:5 12:5 8:5 9:5 3:5 12:5 6:5 11:5 4:5 8:10
5:0 12:5 8:5 9:5 3:5 12:5 6:5 11:5 4:5 8:10 6:10
12:0 8:5 9:5 3:5 12:5 6:5 11:5 4:5 8:10 6:10 10:5
8:0 9:5 3:5 12:5 6:5 11:5 4:5 8:10 6:10 10:5 3:5
9:0 3:5 12:5 6:5 11:5 4:5 8:10 6:10 10:5 3:5 13:5
3:0 12:5 6:5 11:5 4:5 8:10 6:10 10:5 3:5 13:5 8:5
12:0 6:5 11:5 4:5 8:10 6:10 10:5 3:5 13:5 8:5 11:5
6:0 11:5 4:5 8:10 6:10 10:5 3:5 13:5 8:5 11:5 4:5
11:0 4:5 8:10 6:10 10:5 3:5 13:5 8:5 11:5 4:5 10:10
4:0 8:10 6:10 10:5 3:5 13:5 8:5 11:5 4:5 10:10 7:5
8:0 6:10 10:5 3:5 13:5 8:5 11:5 4:5 10:10 7:5 8:5
6:0 10:5 3:5 13:5 8:5 11:5 4:5 10:10 7:5 8:5 7:5
10:0 3:5 13:5 8:5 11:5 4:5 10:10 7:5 8:5 7:5 11:10
3:0 13:5 8:5 11:5 4:5 10:10 7:5 8:5 7:5 11:10 7:5
13:0 8:5 11:5 4:5 10:10 7:5 8:5 7:5 11:10 7:5 9:5
8:0 11:5 4:5 10:10 7:5 8:5 7:5 11:10 7:5 9:5 1:5
11:0 4:5 10:10 7:5 8:5 7:5 11:10 7:5 9:5 1:5 11:5
4:0 10:10 7:5 8:5 7:5 11:10 7:5 9:5 1:5 11:5 4:5
10:0 7:5 8:5 7:5 11:10 7:5 9:5 1:5 11:5 4:5 8:5
7:0 8:5 7:5 11:10 7:5 9:5 1:5 11:5 4:5 8:5 7:5
8:0 7:5 11:10 7:5 9:5 1:5 11:5 4:5 8:5 7:5 9:5
7:0 11:10 7:5 9:5 1:5 11:5 4:5 8:5 7:5 9:5 10:5
11:0 7:5 9:5 1:5 11:5 4:5 8:5 7:5 9:5 10:5 9:5
7:0 9:5 1:5 11:5 4:5 8:5 7:5 9:5 10:5 9:5 3:5
9:0 1:5 11:5 4:5 8:5 7:5 9:5 10:5 9:5 3:5 5:5
1:0 11:5 4:5 8:5 7:5 9:5 10:5 9:5 3:5 5:5 2:5
11:0 4:5 8:5 7:5 9:5 10:5 9:5 3:5 5:5 2:5 11:5
4:0 8:5 7:5 9:5 10:5 9:5 3:5 5:5 2:5 11:5 8:5
8:0 7:5 9:5 10:5 9:5 3:5 5:5 2:5 11:5 8:5 7:10
7:0 9:5 10:5 9:5 3:5 5:5 2:5 11:5 8:5 7:10 8:5
9:0 10:5 9:5 3:5 5:5 2:5 11:5 8:5 7:10 8:5 12:5
10:0 9:5 3:5 5:5 2:5 11:5 8:5 7:10 8:5 12:5 10:5
9:0 3:5 5:5 2:5 11:5 8:5 7:10 8:5 12:5 10:5 7:5
3:0 5:5 2:5 11:5 8:5 7:10 8:5 12:5 10:5 7:5 4:5
5:0 2:5 11:5 8:5 7:10 8:5 12:5 10:5 7:5 4:5 3:5
2:0 11:5 8:5 7:10 8:5 12:5 10:5 7:5 4:5 3:5 12:5
11:0 8:5 7:10 8:5 12:5 10:5 7:5 4:5 3:5 12:5 4:5
8:0 7:10 8:5 12:5 10:5 7:5 4:5 3:5 12:5 4:5 7:5
7:0 8:5 12:5 10:5 7:5 4:5 3:5 12:5 4:5 7:5 5:5
8:0 12:5 10:5 7:5 4:5 3:5 12:5 4:5 7:5 5:5 10:5
12:0 10:5 7:5 4:5 3:5 12:5 4:5 7:5 5:5 10:5 11:5
10:0 7:5 4:5 3:5 12:5 4:5 7:5 5:5 10:5 11:5 6:5
7:0 4:5 3:5 12:5 4:5 7:5 5:5 10:5 11:5 6:5 9:5
4:0 3:5 12:5 4:5 7:5 5:5 10:5 11:5 6:5 9:5 5:5
3:0 12:5 4:5 7:5 5:5 10:5 11:5 6:5 9:5 5:5 13:5
12:0 4:5 7:5 5:5 10:5 11:5 6:5 9:5 5:5 13:5 4:5
4:0 7:5 5:5 10:5 11:5 6:5 9:5 5:5 13:5 4:5 6:5
7:0 5:5 10:5 11:5 6:5 9:5 5:5 13:5 4:5 6:5 5:5
5:0 10:5 11:5 6:5 9:5 5:5 13:5 4:5 6:5 5:5 6:5
10:0 11:5 6:5 9:5 5:5 13:5 4:5 6:5 5:5 6:5 8:5
11:0 6:5 9:5 5:5 13:5 4:5 6:5 5:5 6:5 8:5 11:5
6:0 9:5 5:5 13:5 4:5 6:5 5:5 6:5 8:5 11:5 7:5
9:0 5:5 13:5 4:5 6:5 5:5 6:5 8:5 11:5 7:5 8:5
5:0 13:5 4:5 6:5 5:5 6:5 8:5 11:5 7:5 8:5 1:5
13:0 4:5 6:5 5:5 6:5 8:5 11:5 7:5 8:5 1:5 13:5
4:0 6:5 5:5 6:5 8:5 11:5 7:5 8:5 1:5 13:5 7:5
6:0 5:5 6:5 8:5 11:5 7:5 8:5 1:5 13:5 7:5 10:5
5:0 6:5 8:5 11:5 7:5 8:5 1:5 13:5 7:5 10:5 3:5
6:0 8:5 11:5 7:5 8:5 1:5 13:5 7:5 10:5 3:5 7:5
8:0 11:5 7:5 8:5 1:5 13:5 7:5 10:5 3:5 7:5 10:5
11:0 7:5 8:5 1:5 13:5 7:5 10:5 3:5 7:5 10:5 6:10
7:0 8:5 1:5 13:5 7:5 10:5 3:5 7:5 10:5 6:10 3:5
8:0 1:5 13:5 7:5 10:5 3:5 7:5 10:5 6:10 3:5 5:5
1:0 13:5 7:5 10:5 3:5 7:5 10:5 6:10 3:5 5:5 11:5
13:0 7:5 10:5 3:5 7:5 10:5 6:10 3:5 5:5 11:5 3:5
7:0 10:5 3:5 7:5 10:5 6:10 3:5 5:5 11:5 3:5 9:5
10:0 3:5 7:5 10:5 6:10 3:5 5:5 11:5 3:5 9:5 4:5
3:0 7:5 10:5 6:10 3:5 5:5 11:5 3:5 9:5 4:5 11:5
7:0 10:5 6:10 3:5 5:5 11:5 3:5 9:5 4:5 11:5 10:5
10:0 6:10 3:5 5:5 11:5 3:5 9:5 4:5 11:5 10:5 9:5
6:0 3:5 5:5 11:5 3:5 9:5 4:5 11:5 10:5 9:5 6:10
3:0 5:5 11:5 3:5 9:5 4:5 11:5 10:5 9:5 6:10 12:5
5:0 11:5 3:5 9:5 4:5 11:5 10:5 9:5 6:10 12:5 3:5
11:0 3:5 9:5 4:5 11:5 10:5 9:5 6:10 12:5 3:5 8:5
3:0 9:5 4:5 11:5 10:5 9:5 6:10 12:5 3:5 8:5 3:5
9:0 4:5 11:5 10:5 9:5 6:10 12:5 3:5 8:5 3:5 7:5
4:0 11:5 10:5 9:5 6:10 12:5 3:5 8:5 3:5 7:5 11:5
11:0 10:5 9:5 6:10 12:5 3:5 8:5 3:5 7:5 11:5 4:10
10:0 9:5 6:10 12:5 3:5 8:5 3:5 7:5 11:5 4:10 5:5
9:0 6:10 12:5 3:5 8:5 3:5 7:5 11:5 4:10 5:5 3:5
6:0 12:5 3:5 8:5 3:5 7:5 11:5 4:10 5:5 3:5 10:5
12:0 3:5 8:5 3:5 7:5 11:5 4:10 5:5 3:5 10:5 4:5
3:0 8:5 3:5 7:5 11:5 4:10 5:5 3:5 10:5 4:5 11:5
8:0 3:5 7:5 11:5 4:10 5:5 3:5 10:5 4:5 11:5 6:5
3:0 7:5 11:5 4:10 5:5 3:5 10:5 4:5 11:5 6:5 12:5
7:0 11:5 4:10 5:5 3:5 10:5 4:5 11:5 6:5 12:5 8:5
11:0 4:10 5:5 3:5 10:5 4:5 11:5 6:5 12:5 8:5 6:5
4:0 5:5 3:5 10:5 4:5 11:5 6:5 12:5 8:5 6:5 4:5
5:0 3:5 10:5 4:5 11:5 6:5 12:5 8:5 6:5 4:5 2:5
3:0 10:5 4:5 11:5 6:5 12:5 8:5 6:5 4:5 2:5 10:5
10:0 4:5 11:5 6:5 12:5 8:5 6:5 4:5 2:5 10:5 7:5
4:0 11:5 6:5 12:5 8:5 6:5 4:5 2:5 10:5 7:5 10:5
11:0 6:5 12:5 8:5 6:5 4:5 2:5 10:5 7:5 10:5 7:5
6:0 12:5 8:5 6:5 4:5 2:5 10:5 7:5 10:5 7:5 8:5
12:0 8:5 6:5 4:5 2:5 10:5 7:5 10:5 7:5 8:5 9:5
8:0 6:5 4:5 2:5 10:5 7:5 10:5 7:5 8:5 9:5 13:5
6:0 4:5 2:5 10:5 7:5 10:5 7:5 8:5 9:5 13:5 5:5
4:0 2:5 10:5 7:5 10:5 7:5 8:5 9:5 13:5 5:5 6:5
2:0 10:5 7:5 10:5 7:5 8:5 9:5 13:5 5:5 6:5 3:5
10:0 7:5 10:5 7:5 8:5 9:5 13:5 5:5 6:5 3:5 12:5
7:0 10:5 7:5 8:5 9:5 13:5 5:5 6:5 3:5 12:5 3:5
10:0 7:5 8:5 9:5 13:5 5:5 6:5 3:5 12:5 3:5 9:5
7:0 8:5 9:5 13:5 5:5 6:5 3:5 12:5 3:5 9:5 7:5
8:0 9:5 13:5 5:5 6:5 3:5 12:5 3:5 9:5 7:5 10:5
9:0 13:5 5:5 6:5 3:5 12:5 3:5 9:5 7:5 10:5 8:5
13:0 5:5 6:5 3:5 12:5 3:5 9:5 7:5 10:5 8:5 10:5
5:0 6:5 3:5 12:5 3:5 9:5 7:5 10:5 8:5 10:5 2:5
6:0 3:5 12:5 3:5 9:5 7:5 10:5 8:5 10:5 2:5 6:5
3:0 12:5 3:5 9:5 7:5 10:5 8:5 10:5 2:5 6:5 5:5
12:0 3:5 9:5 7:5 10:5 8:5 10:5 2:5 6:5 5:5 14:5
3:0 9:5 7:5 10:5 8:5 10:5 2:5 6:5 5:5 14:5 9:5
9:0 7:5 10:5 8:5 10:5 2:5 6:5 5:5 14:5 9:5 4:10
7:0 10:5 8:5 10:5 2:5 6:5 5:5 14:5 9:5 4:10 12:5
10:0 8:5 10:5 2:5 6:5 5:5 14:5 9:5 4:10 12:5 11:5
8:0 10:5 2:5 6:5 5:5 14:5 9:5 4:10 12:5 11:5 7:5
10:0 2:5 6:5 5:5 14:5 9:5 4:10 12:5 11:5 7:5 3:10
2:0 6:5 5:5 14:5 9:5 4:10 12:5 11:5 7:5 3:10 12:5
6:0 5:5 14:5 9:5 4:10 12:5 11:5 7:5 3:10 12:5 9:5
5:0 14:5 9:5 4:10 12:5 11:5 7:5 3:10 12:5 9:5 11:5
14:0 9:5 4:10 12:5 11:5 7:5 3:10 12:5 9:5 11:5 3:5
9:0 4:10 12:5 11:5 7:5 3:10 12:5 9:5 11:5 3:5 6:5
4:0 12:5 11:5 7:5 3:10 12:5 9:5 11:5 3:5 6:5 10:5
12:0 11:5 7:5 3:10 12:5 9:5 11:5 3:5 6:5 10:5 13:5
11:0 7:5 3:10 12:5 9:5 11:5 3:5 6:5 10:5 13:5 4:5
7:0 3:10 12:5 9:5 11:5 3:5 6:5 10:5 13:5 4:5 5:5
3:0 12:5 9:5 11:5 3:5 6:5 10:5 13:5 4:5 5:5 3:5
12:0 9:5 11:5 3:5 6:5 10:5 13:5 4:5 5:5 3:5 12:5
9:0 11:5 3:5 6:5 10:5 13:5 4:5 5:5 3:5 12:5 3:5
11:0 3:5 6:5 10:5 13:5 4:5 5:5 3:5 12:5 3:5 10:5
3:0 6:5 10:5 13:5 4:5 5:5 3:5 12:5 3:5 10:5 6:5
6:0 10:5 13:5 4:5 5:5 3:5 12:5 3:5 10:5 6:5 8:5
10:0 13:5 4:5 5:5 3:5 12:5 3:5 10:5 6:5 8:5 11:5
13:0 4:5 5:5 3:5 12:5 3:5 10:5 6:5 8:5 11:5 8:5
4:0 5:5 3:5 12:5 3:5 10:5 6:5 8:5 11:5 8:5 6:5
5:0 3:5 12:5 3:5 10:5 6:5 8:5 11:5 8:5 6:5 2:5
3:0 12:5 3:5 10:5 6:5 8:5 11:5 8:5 6:5 2:5 10:5
12:0 3:5 10:5 6:5 8:5 11:5 8:5 6:5 2:5 10:5 5:5
3:0 10:5 6:5 8:5 11:5 8:5 6:5 2:5 10:5 5:5 8:5
10:0 6:5 8:5 11:5 8:5 6:5 2:5 10:5 5:5 8:5 9:10
6:0 8:5 11:5 8:5 6:5 2:5 10:5 5:5 8:5 9:10 12:5
8:0 11:5 8:5 6:5 2:5 10:5 5:5 8:5 9:10 12:5 8:5
11:0 8:5 6:5 2:5 10:5 5:5 8:5 9:10 12:5 8:5 3:5
8:0 6:5 2:5 10:5 5:5 8:5 9:10 12:5 8:5 3:5 4:5
6:0 2:5 10:5 5:5 8:5 9:10 12:5 8:5 3:5 4:5 2:5
2:0 10:5 5:5 8:5 9:10 12:5 8:5 3:5 4:5 2:5 13:5
10:0 5:5 8:5 9:10 12:5 8:5 3:5 4:5 2:5 13:5 6:5
5:0 8:5 9:10 12:5 8:5 3:5 4:5 2:5 13:5 6:5 12:5
8:0 9:10 12:5 8:5 3:5 4:5 2:5 13:5 6:5 12:5 4:5
9:0 12:5 8:5 3:5 4:5 2:5 13:5 6:5 12:5 4:5 11:5
12:0 8:5 3:5 4:5 2:5 13:5 6:5 12:5 4:5 11:5 13:5
8:0 3:5 4:5 2:5 13:5 6:5 12:5 4:5 11:5 13:5 10:5
3:0 4:5 2:5 13:5 6:5 12:5 4:5 11:5 13:5 10:5 2:5
4:0 2:5 13:5 6:5 12:5 4:5 11:5 13:5 10:5 2:5 3:5
2:0 13:5 6:5 12:5 4:5 11:5 13:5 10:5 2:5 3:5 6:5
13:0 6:5 12:5 4:5 11:5 13:5 10:5 2:5 3:5 6:5 10:5
6:0 12:5 4:5 11:5 13:5 10:5 2:5 3:5 6:5 10:5 3:5
12:0 4:5 11:5 13:5 10:5 2:5 3:5 6:5 10:5 3:5 10:5
4:0 11:5 13:5 10:5 2:5 3:5 6:5 10:5 3:5 10:5 4:5
11:0 13:5 10:5 2:5 3:5 6:5 10:5 3:5 10:5 4:5 13:5
13:0 10:5 2:5 3:5 6:5 10:5 3:5 10:5 4:5 13:5 7:5
10:0 2:5 3:5 6:5 10:5 3:5 10:5 4:5 13:5 7:5 5:5
2:0 3:5 6:5 10:5 3:5 10:5 4:5 13:5 7:5 5:5 4:5
3:0 6:5 10:5 3:5 10:5 4:5 13:5 7:5 5:5 4:5 3:5
6:0 10:5 3:5 10:5 4:5 13:5 7:5 5:5 4:5 3:5 12:5
10:0 3:5 10:5 4:5 13:5 7:5 5:5 4:5 3:5 12:5 8:5
3:0 10:5 4:5 13:5 7:5 5:5 4:5 3:5 12:5 8:5 5:15
10:0 4:5 13:5 7:5 5:5 4:5 3:5 12:5 8:5 5:15 13:5
4:0 13:5 7:5 5:5 4:5 3:5 12:5 8:5 5:15 13:5 8:5
13:0 7:5 5:5 4:5 3:5 12:5 8:5 5:15 13:5 8:5 3:10
7:0 5:5 4:5 3:5 12:5 8:5 5:15 13:5 8:5 3:10 5:5
5:0 4:5 3:5 12:5 8:5 5:15 13:5 8:5 3:10 5:5 11:5
4:0 3:5 12:5 8:5 5:15 13:5 8:5 3:10 5:5 11:5 5:5
3:0 12:5 8:5 5:15 13:5 8:5 3:10 5:5 11:5 5:5 9:5
12:0 8:5 5:15 13:5 8:5 3:10 5:5 11:5 5:5 9:5 5:5
8:0 5:15 13:5 8:5 3:10 5:5 11:5 5:5 9:5 5:5 12:5
5:0 13:5 8:5 3:10 5:5 11:5 5:5 9:5 5:5 12:5 8:10
13:0 8:5 3:10 5:5 11:5 5:5 9:5 5:5 12:5 8:10 11:5
8:0 3:10 5:5 11:5 5:5 9:5 5:5 12:5 8:10 11:5 5:5
3:0 5:5 11:5 5:5 9:5 5:5 12:5 8:10 11:5 5:5 9:5
5:0 11:5 5:5 9:5 5:5 12:5 8:10 11:5 5:5 9:5 10:5
11:0 5:5 9:5 5:5 12:5 8:10 11:5 5:5 9:5 10:5 2:5
5:0 9:5 5:5 12:5 8:10 11:5 5:5 9:5 10:5 2:5 5:5
9:0 5:5 12:5 8:10 11:5 5:5 9:5 10:5 2:5 5:5 2:5
5:0 12:5 8:10 11:5 5:5 9:5 10:5 2:5 5:5 2:5 12:5
12:0 8:10 11:5 5:5 9:5 10:5 2:5 5:5 2:5 12:5 6:5
8:0 11:5 5:5 9:5 10:5 2:5 5:5 2:5 12:5 6:5 10:5
11:0 5:5 9:5 10:5 2:5 5:5 2:5 12:5 6:5 10:5 6:5
5:0 9:5 10:5 2:5 5:5 2:5 12:5 6:5 10:5 6:5 5:5
9:0 10:5 2:5 5:5 2:5 12:5 6:5 10:5 6:5 5:5 13:5
10:0 2:5 5:5 2:5 12:5 6:5 10:5 6:5 5:5 13:5 8:5
2:0 5:5 2:5 12:5 6:5 10:5 6:5 5:5 13:5 8:5 3:10
5:0 2:5 12:5 6:5 10:5 6:5 5:5 13:5 8:5 3:10 7:5
2:0 12:5 6:5 10:5 6:5 5:5 13:5 8:5 3:10 7:5 10:5
12:0 6:5 10:5 6:5 5:5 13:5 8:5 3:10 7:5 10:5 8:5
6:0 10:5 6:5 5:5 13:5 8:5 3:10 7:5 10:5 8:5 11:5
10:0 6:5 5:5 13:5 8:5 3:10 7:5 10:5 8:5 11:5 5:5
6:0 5:5 13:5 8:5 3:10 7:5 10:5 8:5 11:5 5:5 9:5
5:0 13:5 8:5 3:10 7:5 10:5 8:5 11:5 5:5 9:5 10:5
13:0 8:5 3:10 7:5 10:5 8:5 11:5 5:5 9:5 10:5 9:5
8:0 3:10 7:5 10:5 8:5 11:5 5:5 9:5 10:5 9:5 5:5
3:0 7:5 10:5 8:5 11:5 5:5 9:5 10:5 9:5 5:5 2:5
7:0 10:5 8:5 11:5 5:5 9:5 10:5 9:5 5:5 2:5 10:5
10:0 8:5 11:5 5:5 9:5 10:5 9:5 5:5 2:5 10:5 6:5
8:0 11:5 5:5 9:5 10:5 9:5 5:5 2:5 10:5 6:5 10:10
11:0 5:5 9:5 10:5 9:5 5:5 2:5 10:5 6:5 10:10 7:5
5:0 9:5 10:5 9:5 5:5 2:5 10:5 6:5 10:10 7:5 12:5
9:0 10:5 9:5 5:5 2:5 10:5 6:5 10:10 7:5 12:5 4:5
10:0 9:5 5:5 2:5 10:5 6:5 10:10 7:5 12:5 4:5 6:5
9:0 5:5 2:5 10:5 6:5 10:10 7:5 12:5 4:5 6:5 3:10
5:0 2:5 10:5 6:5 10:10 7:5 12:5 4:5 6:5 3:10 13:5
2:0 10:5 6:5 10:10 7:5 12:5 4:5 6:5 3:10 13:5 9:5
10:0 6:5 10:10 7:5 12:5 4:5 6:5 3:10 13:5 9:5 8:5
6:0 10:10 7:5 12:5 4:5 6:5 3:10 13:5 9:5 8:5 2:5
10:0 7:5 12:5 4:5 6:5 3:10 13:5 9:5 8:5 2:5 6:5
7:0 12:5 4:5 6:5 3:10 13:5 9:5 8:5 2:5 6:5 9:5
12:0 4:5 6:5 3:10 13:5 9:5 8:5 2:5 6:5 9:5 5:5
4:0 6:5 3:10 13:5 9:5 8:5 2:5 6:5 9:5 5:5 8:5
6:0 3:10 13:5 9:5 8:5 2:5 6:5 9:5 5:5 8:5 9:5
3:0 13:5 9:5 8:5 2:5 6:5 9:5 5:5 8:5 9:5 11:5
13:0 9:5 8:5 2:5 6:5 9:5 5:5 8:5 9:5 11:5 13:5
9:0 8:5 2:5 6:5 9:5 5:5 8:5 9:5 11:5 13:5 5:5
8:0 2:5 6:5 9:5 5:5 8:5 9:5 11:5 13:5 5:5 12:5
2:0 6:5 9:5 5:5 8:5 9:5 11:5 13:5 5:5 12:5 2:5
6:0 9:5 5:5 8:5 9:5 11:5 13:5 5:5 12:5 2:5 8:5
9:0 5:5 8:5 9:5 11:5 13:5 5:5 12:5 2:5 8:5 3:5
5:0 8:5 9:5 11:5 13:5 5:5 12:5 2:5 8:5 3:5 5:5
8:0 9:5 11:5 13:5 5:5 12:5 2:5 8:5 3:5 5:5 6:5
9:0 11:5 13:5 5:5 12:5 2:5 8:5 3:5 5:5 6:5 3:5
11:0 13:5 5:5 12:5 2:5 8:5 3:5 5:5 6:5 3:5 13:5
13:0 5:5 12:5 2:5 8:5 3:5 5:5 6:5 3:5 13:5 8:5
5:0 12:5 2:5 8:5 3:5 5:5 6:5 3:5 13:5 8:5 11:5
12:0 2:5 8:5 3:5 5:5 6:5 3:5 13:5 8:5 11:5 4:5
2:0 8:5 3:5 5:5 6:5 3:5 13:5 8:5 11:5 4:5 8:5
8:0 3:5 5:5 6:5 3:5 13:5 8:5 11:5 4:5 8:5 10:5
3:0 5:5 6:5 3:5 13:5 8:5 11:5 4:5 8:5 10:5 7:5
5:0 6:5 3:5 13:5 8:5 11:5 4:5 8:5 10:5 7:5 10:5
6:0 3:5 13:5 8:5 11:5 4:5 8:5 10:5 7:5 10:5 6:5
3:0 13:5 8:5 11:5 4:5 8:5 10:5 7:5 10:5 6:5 13:10
13:0 8:5 11:5 4:5 8:5 10:5 7:5 10:5 6:5 13:10 5:5
8:0 11:5 4:5 8:5 10:5 7:5 10:5 6:5 13:10 5:5 11:5
11:0 4:5 8:5 10:5 7:5 10:5 6:5 13:10 5:5 11:5 2:5
4:0 8:5 10:5 7:5 10:5 6:5 13:10 5:5 11:5 2:5 8:5
8:0 10:5 7:5 10:5 6:5 13:10 5:5 11:5 2:5 8:5 11:5
10:0 7:5 10:5 6:5 13:10 5:5 11:5 2:5 8:5 11:5 6:5
7:0 10:5 6:5 13:10 5:5 11:5 2:5 8:5 11:5 6:5 7:5
10:0 6:5 13:10 5:5 11:5 2:5 8:5 11:5 6:5 7:5 3:5
6:0 13:10 5:5 11:5 2:5 8:5 11:5 6:5 7:5 3:5 12:5
13:0 5:5 11:5 2:5 8:5 11:5 6:5 7:5 3:5 12:5 9:5
5:0 11:5 2:5 8:5 11:5 6:5 7:5 3:5 12:5 9:5 13:5
11:0 2:5 8:5 11:5 6:5 7:5 3:5 12:5 9:5 13:5 4:5
2:0 8:5 11:5 6:5 7:5 3:5 12:5 9:5 13:5 4:5 5:5
8:0 11:5 6:5 7:5 3:5 12:5 9:5 13:5 4:5 5:5 8:5
11:0 6:5 7:5 3:5 12:5 9:5 13:5 4:5 5:5 8:5 9:5
6:0 7:5 3:5 12:5 9:5 13:5 4:5 5:5 8:5 9:5 10:5
7:0 3:5 12:5 9:5 13:5 4:5 5:5 8:5 9:5 10:5 7:5
3:0 12:5 9:5 13:5 4:5 5:5 8:5 9:5 10:5 7:5 11:10
12:0 9:5 13:5 4:5 5:5 8:5 9:5 10:5 7:5 11:10 13:5
9:0 13:5 4:5 5:5 8:5 9:5 10:5 7:5 11:10 13:5 6:5
13:0 4:5 5:5 8:5 9:5 10:5 7:5 11:10 13:5 6:5 8:5
4:0 5:5 8:5 9:5 10:5 7:5 11:10 13:5 6:5 8:5 2:5
5:0 8:5 9:5 10:5 7:5 11:10 13:5 6:5 8:5 2:5 12:5
8:0 9:5 10:5 7:5 11:10 13:5 6:5 8:5 2:5 12:5 4:5
9:0 10:5 7:5 11:10 13:5 6:5 8:5 2:5 12:5 4:5 6:5
10:0 7:5 11:10 13:5 6:5 8:5 2:5 12:5 4:5 6:5 5:5
7:0 11:10 13:5 6:5 8:5 2:5 12:5 4:5 6:5 5:5 8:5
11:0 13:5 6:5 8:5 2:5 12:5 4:5 6:5 5:5 8:5 12:5
13:0 6:5 8:5 2:5 12:5 4:5 6:5 5:5 8:5 12:5 8:5
6:0 8:5 2:5 12:5 4:5 6:5 5:5 8:5 12:5 8:5 12:5
8:0 2:5 12:5 4:5 6:5 5:5 8:5 12:5 8:5 12:5 9:5
2:0 12:5 4:5 6:5 5:5 8:5 12:5 8:5 12:5 9:5 5:5
12:0 4:5 6:5 5:5 8:5 12:5 8:5 12:5 9:5 5:5 10:5
4:0 6:5 5:5 8:5 12:5 8:5 12:5 9:5 5:5 10:5 2:5
6:0 5:5 8:5 12:5 8:5 12:5 9:5 5:5 10:5 2:5 8:5
5:0 8:5 12:5 8:5 12:5 9:5 5:5 10:5 2:5 8:5 2:5
8:0 12:5 8:5 12:5 9:5 5:5 10:5 2:5 8:5 2:5 12:5
12:0 8:5 12:5 9:5 5:5 10:5 2:5 8:5 2:5 12:5 11:5
8:0 12:5 9:5 5:5 10:5 2:5 8:5 2:5 12:5 11:5 6:5
12:0 9:5 5:5 10:5 2:5 8:5 2:5 12:5 11:5 6:5 3:5
9:0 5:5 10:5 2:5 8:5 2:5 12:5 11:5 6:5 3:5 2:5
5:0 10:5 2:5 8:5 2:5 12:5 11:5 6:5 3:5 2:5 12:5
10:0 2:5 8:5 2:5 12:5 11:5 6:5 3:5 2:5 12:5 5:5
2:0 8:5 2:5 12:5 11:5 6:5 3:5 2:5 12:5 5:5 9:5
8:0 2:5 12:5 11:5 6:5 3:5 2:5 12:5 5:5 9:5 5:5
2:0 12:5 11:5 6:5 3:5 2:5 12:5 5:5 9:5 5:5 10:5
12:0 11:5 6:5 3:5 2:5 12:5 5:5 9:5 5:5 10:5 11:5
11:0 6:5 3:5 2:5 12:5 5:5 9:5 5:5 10:5 11:5 9:5
6:0 3:5 2:5 12:5 5:5 9:5 5:5 10:5 11:5 9:5 10:5
3:0 2:5 12:5 5:5 9:5 5:5 10:5 11:5 9:5 10:5 8:5
2:0 12:5 5:5 9:5 5:5 10:5 11:5 9:5 10:5 8:5 6:5
12:0 5:5 9:5 5:5 10:5 11:5 9:5 10:5 8:5 6:5 11:5
5:0 9:5 5:5 10:5 11:5 9:5 10:5 8:5 6:5 11:5 2:5
9:0 5:5 10:5 11:5 9:5 10:5 8:5 6:5 11:5 2:5 8:5
5:0 10:5 11:5 9:5 10:5 8:5 6:5 11:5 2:5 8:5 2:5
10:0 11:5 9:5 10:5 8:5 6:5 11:5 2:5 8:5 2:5 6:5
11:0 9:5 10:5 8:5 6:5 11:5 2:5 8:5 2:5 6:5 11:5
9:0 10:5 8:5 6:5 11:5 2:5 8:5 2:5 6:5 11:5 7:5
10:0 8:5 6:5 11:5 2:5 8:5 2:5 6:5 11:5 7:5 11:5
8:0 6:5 11:5 2:5 8:5 2:5 6:5 11:5 7:5 11:5 3:5
6:0 11:5 2:5 8:5 2:5 6:5 11:5 7:5 11:5 3:5 13:5
11:0 2:5 8:5 2:5 6:5 11:5 7:5 11:5 3:5 13:5 7:5
2:0 8:5 2:5 6:5 11:5 7:5 11:5 3:5 13:5 7:5 11:5
8:0 2:5 6:5 11:5 7:5 11:5 3:5 13:5 7:5 11:5 4:5
2:0 6:5 11:5 7:5 11:5 3:5 13:5 7:5 11:5 4:5 6:5
6:0 11:5 7:5 11:5 3:5 13:5 7:5 11:5 4:5 6:5 10:5
11:0 7:5 11:5 3:5 13:5 7:5 11:5 4:5 6:5 10:5 8:5
7:0 11:5 3:5 13:5 7:5 11:5 4:5 6:5 10:5 8:5 9:5
11:0 3:5 13:5 7:5 11:5 4:5 6:5 10:5 8:5 9:5 8:5
3:0 13:5 7:5 11:5 4:5 6:5 10:5 8:5 9:5 8:5 4:5
13:0 7:5 11:5 4:5 6:5 10:5 8:5 9:5 8:5 4:5 14:5
7:0 11:5 4:5 6:5 10:5 8:5 9:5 8:5 4:5 14:5 7:5
11:0 4:5 6:5 10:5 8:5 9:5 8:5 4:5 14:5 7:5 8:5
4:0 6:5 10:5 8:5 9:5 8:5 4:5 14:5 7:5 8:5 2:5
6:0 10:5 8:5 9:5 8:5 4:5 14:5 7:5 8:5 2:5 5:5
10:0 8:5 9:5 8:5 4:5 14:5 7:5 8:5 2:5 5:5 12:5
8:0 9:5 8:5 4:5 14:5 7:5 8:5 2:5 5:5 12:5 4:5
9:0 8:5 4:5 14:5 7:5 8:5 2:5 5:5 12:5 4:5 9:5
8:0 4:5 14:5 7:5 8:5 2:5 5:5 12:5 4:5 9:5 7:5
4:0 14:5 7:5 8:5 2:5 5:5 12:5 4:5 9:5 7:5 9:5
14:0 7:5 8:5 2:5 5:5 12:5 4:5 9:5 7:5 9:5 13:5
7:0 8:5 2:5 5:5 12:5 4:5 9:5 7:5 9:5 13:5 6:5
8:0 2:5 5:5 12:5 4:5 9:5 7:5 9:5 13:5 6:5 12:5
2:0 5:5 12:5 4:5 9:5 7:5 9:5 13:5 6:5 12:5 5:5
5:0 12:5 4:5 9:5 7:5 9:5 13:5 6:5 12:5 5:5 9:5
12:0 4:5 9:5 7:5 9:5 13:5 6:5 12:5 5:5 9:5 4:5
4:0 9:5 7:5 9:5 13:5 6:5 12:5 5:5 9:5 4:5 5:5
9:0 7:5 9:5 13:5 6:5 12:5 5:5 9:5 4:5 5:5 6:5
7:0 9:5 13:5 6:5 12:5 5:5 9:5 4:5 5:5 6:5 3:5
9:0 13:5 6:5 12:5 5:5 9:5 4:5 5:5 6:5 3:5 13:5
13:0 6:5 12:5 5:5 9:5 4:5 5:5 6:5 3:5 13:5 7:5
6:0 12:5 5:5 9:5 4:5 5:5 6:5 3:5 13:5 7:5 10:5
12:0 5:5 9:5 4:5 5:5 6:5 3:5 13:5 7:5 10:5 4:5
5:0 9:5 4:5 5:5 6:5 3:5 13:5 7:5 10:5 4:5 10:10
9:0 4:5 5:5 6:5 3:5 13:5 7:5 10:5 4:5 10:10 5:5
4:0 5:5 6:5 3:5 13:5 7:5 10:5 4:5 10:10 5:5 11:5
5:0 6:5 3:5 13:5 7:5 10:5 4:5 10:10 5:5 11:5 5:5
6:0 3:5 13:5 7:5 10:5 4:5 10:10 5:5 11:5 5:5 6:5
3:0 13:5 7:5 10:5 4:5 10:10 5:5 11:5 5:5 6:5 11:5
13:0 7:5 10:5 4:5 10:10 5:5 11:5 5:5 6:5 11:5 9:5
7:0 10:5 4:5 10:10 5:5 11:5 5:5 6:5 11:5 9:5 8:5
10:0 4:5 10:10 5:5 11:5 5:5 6:5 11:5 9:5 8:5 2:5
4:0 10:10 5:5 11:5 5:5 6:5 11:5 9:5 8:5 2:5 10:5
10:0 5:5 11:5 5:5 6:5 11:5 9:5 8:5 2:5 10:5 11:10
5:0 11:5 5:5 6:5 11:5 9:5 8:5 2:5 10:5 11:10 5:5
11:0 5:5 6:5 11:5 9:5 8:5 2:5 10:5 11:10 5:5 6:5
5:0 6:5 11:5 9:5 8:5 2:5 10:5 11:10 5:5 6:5 9:5
6:0 11:5 9:5 8:5 2:5 10:5 11:10 5:5 6:5 9:5 13:5
11:0 9:5 8:5 2:5 10:5 11:10 5:5 6:5 9:5 13:5 6:5
9:0 8:5 2:5 10:5 11:10 5:5 6:5 9:5 13:5 6:5 2:10
8:0 2:5 10:5 11:10 5:5 6:5 9:5 13:5 6:5 2:10 10:5
2:0 10:5 11:10 5:5 6:5 9:5 13:5 6:5 2:10 10:5 7:5
10:0 11:10 5:5 6:5 9:5 13:5 6:5 2:10 10:5 7:5 4:10
11:0 5:5 6:5 9:5 13:5 6:5 2:10 10:5 7:5 4:10 9:5
5:0 6:5 9:5 13:5 6:5 2:10 10:5 7:5 4:10 9:5 13:5
6:0 9:5 13:5 6:5 2:10 10:5 7:5 4:10 9:5 13:5 6:5
9:0 13:5 6:5 2:10 10:5 7:5 4:10 9:5 13:5 6:5 11:5
13:0 6:5 2:10 10:5 7:5 4:10 9:5 13:5 6:5 11:5 6:5
6:0 2:10 10:5 7:5 4:10 9:5 13:5 6:5 11:5 6:5 9:10
2:0 10:5 7:5 4:10 9:5 13:5 6:5 11:5 6:5 9:10 2:5
10:0 7:5 4:10 9:5 13:5 6:5 11:5 6:5 9:10 2:5 8:5
7:0 4:10 9:5 13:5 6:5 11:5 6:5 9:10 2:5 8:5 2:5
4:0 9:5 13:5 6:5 11:5 6:5 9:10 2:5 8:5 2:5 9:5
9:0 13:5 6:5 11:5 6:5 9:10 2:5 8:5 2:5 9:5 12:5
13:0 6:5 11:5 6:5 9:10 2:5 8:5 2:5 9:5 12:5 7:5
6:0 11:5 6:5 9:10 2:5 8:5 2:5 9:5 12:5 7:5 6:5
11:0 6:5 9:10 2:5 8:5 2:5 9:5 12:5 7:5 6:5 2:5
6:0 9:10 2:5 8:5 2:5 9:5 12:5 7:5 6:5 2:5 10:5
9:0 2:5 8:5 2:5 9:5 12:5 7:5 6:5 2:5 10:5 6:5
2:0 8:5 2:5 9:5 12:5 7:5 6:5 2:5 10:5 6:5 10:5
8:0 2:5 9:5 12:5 7:5 6:5 2:5 10:5 6:5 10:5 6:5
2:0 9:5 12:5 7:5 6:5 2:5 10:5 6:5 10:5 6:5 9:5
9:0 12:5 7:5 6:5 2:5 10:5 6:5 10:5 6:5 9:5 13:5
12:0 7:5 6:5 2:5 10:5 6:5 10:5 6:5 9:5 13:5 12:5
7:0 6:5 2:5 10:5 6:5 10:5 6:5 9:5 13:5 12:5 3:5
6:0 2:5 10:5 6:5 10:5 6:5 9:5 13:5 12:5 3:5 5:5
2:0 10:5 6:5 10:5 6:5 9:5 13:5 12:5 3:5 5:5 2:5
10:0 6:5 10:5 6:5 9:5 13:5 12:5 3:5 5:5 2:5 12:5
6:0 10:5 6:5 9:5 13:5 12:5 3:5 5:5 2:5 12:5 4:5
10:0 6:5 9:5 13:5 12:5 3:5 5:5 2:5 12:5 4:5 9:5
6:0 9:5 13:5 12:5 3:5 5:5 2:5 12:5 4:5 9:5 4:5
9:0 13:5 12:5 3:5 5:5 2:5 12:5 4:5 9:5 4:5 11:5
13:0 12:5 3:5 5:5 2:5 12:5 4:5 9:5 4:5 11:5 10:5
12:0 3:5 5:5 2:5 12:5 4:5 9:5 4:5 11:5 10:5 5:10
3:0 5:5 2:5 12:5 4:5 9:5 4:5 11:5 10:5 5:10 10:5
5:0 2:5 12:5 4:5 9:5 4:5 11:5 10:5 5:10 10:5 7:5
2:0 12:5 4:5 9:5 4:5 11:5 10:5 5:10 10:5 7:5 11:5
12:0 4:5 9:5 4:5 11:5 10:5 5:10 10:5 7:5 11:5 3:5
4:0 9:5 4:5 11:5 10:5 5:10 10:5 7:5 11:5 3:5 9:5
9:0 4:5 11:5 10:5 5:10 10:5 7:5 11:5 3:5 9:5 2:5
4:0 11:5 10:5 5:10 10:5 7:5 11:5 3:5 9:5 2:5 9:5
11:0 10:5 5:10 10:5 7:5 11:5 3:5 9:5 2:5 9:5 11:5
10:0 5:10 10:5 7:5 11:5 3:5 9:5 2:5 9:5 11:5 9:5
5:0 10:5 7:5 11:5 3:5 9:5 2:5 9:5 11:5 9:5 8:5
10:0 7:5 11:5 3:5 9:5 2:5 9:5 11:5 9:5 8:5 5:5
7:0 11:5 3:5 9:5 2:5 9:5 11:5 9:5 8:5 5:5 12:5
11:0 3:5 9:5 2:5 9:5 11:5 9:5 8:5 5:5 12:5 7:5
3:0 9:5 2:5 9:5 11:5 9:5 8:5 5:5 12:5 7:5 9:5
9:0 2:5 9:5 11:5 9:5 8:5 5:5 12:5 7:5 9:5 4:5
2:0 9:5 11:5 9:5 8:5 5:5 12:5 7:5 9:5 4:5 3:5
9:0 11:5 9:5 8:5 5:5 12:5 7:5 9:5 4:5 3:5 10:5
11:0 9:5 8:5 5:5 12:5 7:5 9:5 4:5 3:5 10:5 4:5
9:0 8:5 5:5 12:5 7:5 9:5 4:5 3:5 10:5 4:5 9:5
8:0 5:5 12:5 7:5 9:5 4:5 3:5 10:5 4:5 9:5 7:5
5:0 12:5 7:5 9:5 4:5 3:5 10:5 4:5 9:5 7:5 9:5
12:0 7:5 9:5 4:5 3:5 10:5 4:5 9:5 7:5 9:5 13:5
7:0 9:5 4:5 3:5 10:5 4:5 9:5 7:5 9:5 13:5 3:5
9:0 4:5 3:5 10:5 4:5 9:5 7:5 9:5 13:5 3:5 5:5
4:0 3:5 10:5 4:5 9:5 7:5 9:5 13:5 3:5 5:5 2:5
3:0 10:5 4:5 9:5 7:5 9:5 13:5 3:5 5:5 2:5 7:5
10:0 4:5 9:5 7:5 9:5 13:5 3:5 5:5 2:5 7:5 12:10
4:0 9:5 7:5 9:5 13:5 3:5 5:5 2:5 7:5 12:10 4:5
9:0 7:5 9:5 13:5 3:5 5:5 2:5 7:5 12:10 4:5 9:5
7:0 9:5 13:5 3:5 5:5 2:5 7:5 12:10 4:5 9:5 7:5
9:0 13:5 3:5 5:5 2:5 7:5 12:10 4:5 9:5 7:5 13:5
13:0 3:5 5:5 2:5 7:5 12:10 4:5 9:5 7:5 13:5 7:5
3:0 5:5 2:5 7:5 12:10 4:5 9:5 7:5 13:5 7:5 6:5
5:0 2:5 7:5 12:10 4:5 9:5 7:5 13:5 7:5 6:5 2:5
2:0 7:5 12:10 4:5 9:5 7:5 13:5 7:5 6:5 2:5 11:5
7:0 12:10 4:5 9:5 7:5 13:5 7:5 6:5 2:5 11:5 4:5
12:0 4:5 9:5 7:5 13:5 7:5 6:5 2:5 11:5 4:5 8:5
4:0 9:5 7:5 13:5 7:5 6:5 2:5 11:5 4:5 8:5 4:5
9:0 7:5 13:5 7:5 6:5 2:5 11:5 4:5 8:5 4:5 10:5
7:0 13:5 7:5 6:5 2:5 11:5 4:5 8:5 4:5 10:5 11:5
13:0 7:5 6:5 2:5 11:5 4:5 8:5 4:5 10:5 11:5 8:5
7:0 6:5 2:5 11:5 4:5 8:5 4:5 10:5 11:5 8:5 3:5
6:0 2:5 11:5 4:5 8:5 4:5 10:5 11:5 8:5 3:5 5:5
2:0 11:5 4:5 8:5 4:5 10:5 11:5 8:5 3:5 5:5 4:5
11:0 4:5 8:5 4:5 10:5 11:5 8:5 3:5 5:5 4:5 13:5
4:0 8:5 4:5 10:5 11:5 8:5 3:5 5:5 4:5 13:5 8:5
8:0 4:5 10:5 11:5 8:5 3:5 5:5 4:5 13:5 8:5 10:5
4:0 10:5 11:5 8:5 3:5 5:5 4:5 13:5 8:5 10:5 5:5
10:0 11:5 8:5 3:5 5:5 4:5 13:5 8:5 10:5 5:5 11:5
11:0 8:5 3:5 5:5 4:5 13:5 8:5 10:5 5:5 11:5 10:5
8:0 3:5 5:5 4:5 13:5 8:5 10:5 5:5 11:5 10:5 11:5
3:0 5:5 4:5 13:5 8:5 10:5 5:5 11:5 10:5 11:5 4:5
5:0 4:5 13:5 8:5 10:5 5:5 11:5 10:5 11:5 4:5 5:5
4:0 13:5 8:5 10:5 5:5 11:5 10:5 11:5 4:5 5:5 7:5
13:0 8:5 10:5 5:5 11:5 10:5 11:5 4:5 5:5 7:5 12:5
8:0 10:5 5:5 11:5 10:5 11:5 4:5 5:5 7:5 12:5 5:5
10:0 5:5 11:5 10:5 11:5 4:5 5:5 7:5 12:5 5:5 8:5
5:0 11:5 10:5 11:5 4:5 5:5 7:5 12:5 5:5 8:5 3:5
11:0 10:5 11:5 4:5 5:5 7:5 12:5 5:5 8:5 3:5 13:5
10:0 11:5 4:5 5:5 7:5 12:5 5:5 8:5 3:5 13:5 10:5
11:0 4:5 5:5 7:5 12:5 5:5 8:5 3:5 13:5 10:5 11:5
4:0 5:5 7:5 12:5 5:5 8:5 3:5 13:5 10:5 11:5 3:5
5:0 7:5 12:5 5:5 8:5 3:5 13:5 10:5 11:5 3:5 5:5
7:0 12:5 5:5 8:5 3:5 13:5 10:5 11:5 3:5 5:5 7:5
12:0 5:5 8:5 3:5 13:5 10:5 11:5 3:5 5:5 7:5 8:5
5:0 8:5 3:5 13:5 10:5 11:5 3:5 5:5 7:5 8:5 7:10
8:0 3:5 13:5 10:5 11:5 3:5 5:5 7:5 8:5 7:10 13:10
3:0 13:5 10:5 11:5 3:5 5:5 7:5 8:5 7:10 13:10 5:5
13:0 10:5 11:5 3:5 5:5 7:5 8:5 7:10 13:10 5:5 10:5
10:0 11:5 3:5 5:5 7:5 8:5 7:10 13:10 5:5 10:5 2:5
11:0 3:5 5:5 7:5 8:5 7:10 13:10 5:5 10:5 2:5 10:5
3:0 5:5 7:5 8:5 7:10 13:10 5:5 10:5 2:5 10:5 7:5
5:0 7:5 8:5 7:10 13:10 5:5 10:5 2:5 10:5 7:5 8:10
7:0 8:5 7:10 13:10 5:5 10:5 2:5 10:5 7:5 8:10 10:5
8:0 7:10 13:10 5:5 10:5 2:5 10:5 7:5 8:10 10:5 9:5
7:0 13:10 5:5 10:5 2:5 10:5 7:5 8:10 10:5 9:5 13:5
13:0 5:5 10:5 2:5 10:5 7:5 8:10 10:5 9:5 13:5 7:5
5:0 10:5 2:5 10:5 7:5 8:10 10:5 9:5 13:5 7:5 11:5
10:0 2:5 10:5 7:5 8:10 10:5 9:5 13:5 7:5 11:5 2:5
2:0 10:5 7:5 8:10 10:5 9:5 13:5 7:5 11:5 2:5 12:5
10:0 7:5 8:10 10:5 9:5 13:5 7:5 11:5 2:5 12:5 2:5
7:0 8:10 10:5 9:5 13:5 7:5 11:5 2:5 12:5 2:5 9:5
8:0 10:5 9:5 13:5 7:5 11:5 2:5 12:5 2:5 9:5 3:5
10:0 9:5 13:5 7:5 11:5 2:5 12:5 2:5 9:5 3:5 8:5
9:0 13:5 7:5 11:5 2:5 12:5 2:5 9:5 3:5 8:5 13:5
13:0 7:5 11:5 2:5 12:5 2:5 9:5 3:5 8:5 13:5 11:5
7:0 11:5 2:5 12:5 2:5 9:5 3:5 8:5 13:5 11:5 2:5
11:0 2:5 12:5 2:5 9:5 3:5 8:5 13:5 11:5 2:5 5:5
2:0 12:5 2:5 9:5 3:5 8:5 13:5 11:5 2:5 5:5 2:5
12:0 2:5 9:5 3:5 8:5 13:5 11:5 2:5 5:5 2:5 12:5
2:0 9:5 3:5 8:5 13:5 11:5 2:5 5:5 2:5 12:5 4:5
9:0 3:5 8:5 13:5 11:5 2:5 5:5 2:5 12:5 4:5 7:5
3:0 8:5 13:5 11:5 2:5 5:5 2:5 12:5 4:5 7:5 4:5
8:0 13:5 11:5 2:5 5:5 2:5 12:5 4:5 7:5 4:5 11:5
13:0 11:5 2:5 5:5 2:5 12:5 4:5 7:5 4:5 11:5 9:5
11:0 2:5 5:5 2:5 12:5 4:5 7:5 4:5 11:5 9:5 4:5
2:0 5:5 2:5 12:5 4:5 7:5 4:5 11:5 9:5 4:5 6:5
5:0 2:5 12:5 4:5 7:5 4:5 11:5 9:5 4:5 6:5 4:5
2:0 12:5 4:5 7:5 4:5 11:5 9:5 4:5 6:5 4:5 10:5
12:0 4:5 7:5 4:5 11:5 9:5 4:5 6:5 4:5 10:5 9:5
4:0 7:5 4:5 11:5 9:5 4:5 6:5 4:5 10:5 9:5 5:5
7:0 4:5 11:5 9:5 4:5 6:5 4:5 10:5 9:5 5:5 10:5
4:0 11:5 9:5 4:5 6:5 4:5 10:5 9:5 5:5 10:5 3:5
11:0 9:5 4:5 6:5 4:5 10:5 9:5 5:5 10:5 3:5 12:5
9:0 4:5 6:5 4:5 10:5 9:5 5:5 10:5 3:5 12:5 7:5
4:0 6:5 4:5 10:5 9:5 5:5 10:5 3:5 12:5 7:5 10:5
6:0 4:5 10:5 9:5 5:5 10:5 3:5 12:5 7:5 10:5 2:5
4:0 10:5 9:5 5:5 10:5 3:5 12:5 7:5 10:5 2:5 7:5
10:0 9:5 5:5 10:5 3:5 12:5 7:5 10:5 2:5 7:5 9:5
9:0 5:5 10:5 3:5 12:5 7:5 10:5 2:5 7:5 9:5 7:5
5:0 10:5 3:5 12:5 7:5 10:5 2:5 7:5 9:5 7:5 3:5
10:0 3:5 12:5 7:5 10:5 2:5 7:5 9:5 7:5 3:5 11:5
3:0 12:5 7:5 10:5 2:5 7:5 9:5 7:5 3:5 11:5 7:5
12:0 7:5 10:5 2:5 7:5 9:5 7:5 3:5 11:5 7:5 13:5
7:0 10:5 2:5 7:5 9:5 7:5 3:5 11:5 7:5 13:5 4:5
10:0 2:5 7:5 9:5 7:5 3:5 11:5 7:5 13:5 4:5 12:5
2:0 7:5 9:5 7:5 3:5 11:5 7:5 13:5 4:5 12:5 6:5
7:0 9:5 7:5 3:5 11:5 7:5 13:5 4:5 12:5 6:5 9:5
9:0 7:5 3:5 11:5 7:5 13:5 4:5 12:5 6:5 9:5 6:5
7:0 3:5 11:5 7:5 13:5 4:5 12:5 6:5 9:5 6:5 5:5
3:0 11:5 7:5 13:5 4:5 12:5 6:5 9:5 6:5 5:5 3:5
11:0 7:5 13:5 4:5 12:5 6:5 9:5 6:5 5:5 3:5 2:5
7:0 13:5 4:5 12:5 6:5 9:5 6:5 5:5 3:5 2:5 12:5
13:0 4:5 12:5 6:5 9:5 6:5 5:5 3:5 2:5 12:5 10:5
4:0 12:5 6:5 9:5 6:5 5:5 3:5 2:5 12:5 10:5 13:5
12:0 6:5 9:5 6:5 5:5 3:5 2:5 12:5 10:5 13:5 4:5
6:0 9:5 6:5 5:5 3:5 2:5 12:5 10:5 13:5 4:5 8:5
9:0 6:5 5:5 3:5 2:5 12:5 10:5 13:5 4:5 8:5 11:5
6:0 5:5 3:5 2:5 12:5 10:5 13:5 4:5 8:5 11:5 12:5
5:0 3:5 2:5 12:5 10:5 13:5 4:5 8:5 11:5 12:5 7:5
3:0 2:5 12:5 10:5 13:5 4:5 8:5 11:5 12:5 7:5 3:5
2:0 12:5 10:5 13:5 4:5 8:5 11:5 12:5 7:5 3:5 11:10
12:0 10:5 13:5 4:5 8:5 11:5 12:5 7:5 3:5 11:10 4:5
10:0 13:5 4:5 8:5 11:5 12:5 7:5 3:5 11:10 4:5 12:5
13:0 4:5 8:5 11:5 12:5 7:5 3:5 11:10 4:5 12:5 4:5
4:0 8:5 11:5 12:5 7:5 3:5 11:10 4:5 12:5 4:5 11:5
8:0 11:5 12:5 7:5 3:5 11:10 4:5 12:5 4:5 11:5 8:5
11:0 12:5 7:5 3:5 11:10 4:5 12:5 4:5 11:5 8:5 10:5
12:0 7:5 3:5 11:10 4:5 12:5 4:5 11:5 8:5 10:5 6:5
7:0 3:5 11:10 4:5 12:5 4:5 11:5 8:5 10:5 6:5 4:5
3:0 11:10 4:5 12:5 4:5 11:5 8:5 10:5 6:5 4:5 10:10
11:0 4:5 12:5 4:5 11:5 8:5 10:5 6:5 4:5 10:10 5:5
4:0 12:5 4:5 11:5 8:5 10:5 6:5 4:5 10:10 5:5 11:5
12:0 4:5 11:5 8:5 10:5 6:5 4:5 10:10 5:5 11:5 3:5
4:0 11:5 8:5 10:5 6:5 4:5 10:10 5:5 11:5 3:5 11:5
11:0 8:5 10:5 6:5 4:5 10:10 5:5 11:5 3:5 11:5 9:5
8:0 10:5 6:5 4:5 10:10 5:5 11:5 3:5 11:5 9:5 11:5
10:0 6:5 4:5 10:10 5:5 11:5 3:5 11:5 9:5 11:5 3:5
6:0 4:5 10:10 5:5 11:5 3:5 11:5 9:5 11:5 3:5 5:5
4:0 10:10 5:5 11:5 3:5 11:5 9:5 11:5 3:5 5:5 9:5
10:0 5:5 11:5 3:5 11:5 9:5 11:5 3:5 5:5 9:5 13:5
5:0 11:5 3:5 11:5 9:5 11:5 3:5 5:5 9:5 13:5 4:5
11:0 3:5 11:5 9:5 11:5 3:5 5:5 9:5 13:5 4:5 8:5
3:0 11:5 9:5 11:5 3:5 5:5 9:5 13:5 4:5 8:5 4:5
11:0 9:5 11:5 3:5 5:5 9:5 13:5 4:5 8:5 4:5 13:5
9:0 11:5 3:5 5:5 9:5 13:5 4:5 8:5 4:5 13:5 10:5
11:0 3:5 5:5 9:5 13:5 4:5 8:5 4:5 13:5 10:5 8:5
3:0 5:5 9:5 13:5 4:5 8:5 4:5 13:5 10:5 8:5 3:5
5:0 9:5 13:5 4:5 8:5 4:5 13:5 10:5 8:5 3:5 4:5
9:0 13:5 4:5 8:5 4:5 13:5 10:5 8:5 3:5 4:5 11:5
13:0 4:5 8:5 4:5 13:5 10:5 8:5 3:5 4:5 11:5 3:5
4:0 8:5 4:5 13:5 10:5 8:5 3:5 4:5 11:5 3:5 10:5
8:0 4:5 13:5 10:5 8:5 3:5 4:5 11:5 3:5 10:5 4:5
4:0 13:5 10:5 8:5 3:5 4:5 11:5 3:5 10:5 4:5 13:5
13:0 10:5 8:5 3:5 4:5 11:5 3:5 10:5 4:5 13:5 8:5
10:0 8:5 3:5 4:5 11:5 3:5 10:5 4:5 13:5 8:5 5:10
8:0 3:5 4:5 11:5 3:5 10:5 4:5 13:5 8:5 5:10 8:10
3:0 4:5 11:5 3:5 10:5 4:5 13:5 8:5 5:10 8:10 11:5
4:0 11:5 3:5 10:5 4:5 13:5 8:5 5:10 8:10 11:5 6:5
11:0 3:5 10:5 4:5 13:5 8:5 5:10 8:10 11:5 6:5 2:10
3:0 10:5 4:5 13:5 8:5 5:10 8:10 11:5 6:5 2:10 11:5
10:0 4:5 13:5 8:5 5:10 8:10 11:5 6:5 2:10 11:5 5:5
4:0 13:5 8:5 5:10 8:10 11:5 6:5 2:10 11:5 5:5 7:5
13:0 8:5 5:10 8:10 11:5 6:5 2:10 11:5 5:5 7:5 6:5
8:0 5:10 8:10 11:5 6:5 2:10 11:5 5:5 7:5 6:5 10:5
5:0 8:10 11:5 6:5 2:10 11:5 5:5 7:5 6:5 10:5 12:10
8:0 11:5 6:5 2:10 11:5 5:5 7:5 6:5 10:5 12:10 7:5
11:0 6:5 2:10 11:5 5:5 7:5 6:5 10:5 12:10 7:5 11:5
6:0 2:10 11:5 5:5 7:5 6:5 10:5 12:10 7:5 11:5 5:5
2:0 11:5 5:5 7:5 6:5 10:5 12:10 7:5 11:5 5:5 12:5
11:0 5:5 7:5 6:5 10:5 12:10 7:5 11:5 5:5 12:5 3:5
5:0 7:5 6:5 10:5 12:10 7:5 11:5 5:5 12:5 3:5 6:5
7:0 6:5 10:5 12:10 7:5 11:5 5:5 12:5 3:5 6:5 2:5
6:0 10:5 12:10 7:5 11:5 5:5 12:5 3:5 6:5 2:5 5:5
10:0 12:10 7:5 11:5 5:5 12:5 3:5 6:5 2:5 5:5 9:5
12:0 7:5 11:5 5:5 12:5 3:5 6:5 2:5 5:5 9:5 10:5
7:0 11:5 5:5 12:5 3:5 6:5 2:5 5:5 9:5 10:5 7:5
11:0 5:5 12:5 3:5 6:5 2:5 5:5 9:5 10:5 7:5 3:5
5:0 12:5 3:5 6:5 2:5 5:5 9:5 10:5 7:5 3:5 12:5
12:0 3:5 6:5 2:5 5:5 9:5 10:5 7:5 3:5 12:5 11:10
3:0 6:5 2:5 5:5 9:5 10:5 7:5 3:5 12:5 11:10 6:5
6:0 2:5 5:5 9:5 10:5 7:5 3:5 12:5 11:10 6:5 2:5
2:0 5:5 9:5 10:5 7:5 3:5 12:5 11:10 6:5 2:5 9:5
5:0 9:5 10:5 7:5 3:5 12:5 11:10 6:5 2:5 9:5 6:5
9:0 10:5 7:5 3:5 12:5 11:10 6:5 2:5 9:5 6:5 5:5
10:0 7:5 3:5 12:5 11:10 6:5 2:5 9:5 6:5 5:5 12:5
7:0 3:5 12:5 11:10 6:5 2:5 9:5 6:5 5:5 12:5 5:5
3:0 12:5 11:10 6:5 2:5 9:5 6:5 5:5 12:5 5:5 13:5
12:0 11:10 6:5 2:5 9:5 6:5 5:5 12:5 5:5 13:5 2:5
11:0 6:5 2:5 9:5 6:5 5:5 12:5 5:5 13:5 2:5 6:5
6:0 2:5 9:5 6:5 5:5 12:5 5:5 13:5 2:5 6:5 5:5
2:0 9:5 6:5 5:5 12:5 5:5 13:5 2:5 6:5 5:5 12:10
9:0 6:5 5:5 12:5 5:5 13:5 2:5 6:5 5:5 12:10 11:5
6:0 5:5 12:5 5:5 13:5 2:5 6:5 5:5 12:10 11:5 8:5
5:0 12:5 5:5 13:5 2:5 6:5 5:5 12:10 11:5 8:5 5:5
12:0 5:5 13:5 2:5 6:5 5:5 12:10 11:5 8:5 5:5 9:5
5:0 13:5 2:5 6:5 5:5 12:10 11:5 8:5 5:5 9:5 13:5
13:0 2:5 6:5 5:5 12:10 11:5 8:5 5:5 9:5 13:5 5:5
2:0 6:5 5:5 12:10 11:5 8:5 5:5 9:5 13:5 5:5 9:5
6:0 5:5 12:10 11:5 8:5 5:5 9:5 13:5 5:5 9:5 2:5
5:0 12:10 11:5 8:5 5:5 9:5 13:5 5:5 9:5 2:5 9:5
12:0 11:5 8:5 5:5 9:5 13:5 5:5 9:5 2:5 9:5 11:5
11:0 8:5 5:5 9:5 13:5 5:5 9:5 2:5 9:5 11:5 7:5
8:0 5:5 9:5 13:5 5:5 9:5 2:5 9:5 11:5 7:5 3:10
5:0 9:5 13:5 5:5 9:5 2:5 9:5 11:5 7:5 3:10 13:5
9:0 13:5 5:5 9:5 2:5 9:5 11:5 7:5 3:10 13:5 7:5
13:0 5:5 9:5 2:5 9:5 11:5 7:5 3:10 13:5 7:5 11:5
5:0 9:5 2:5 9:5 11:5 7:5 3:10 13:5 7:5 11:5 3:5
9:0 2:5 9:5 11:5 7:5 3:10 13:5 7:5 11:5 3:5 4:5
2:0 9:5 11:5 7:5 3:10 13:5 7:5 11:5 3:5 4:5 11:5
9:0 11:5 7:5 3:10 13:5 7:5 11:5 3:5 4:5 11:5 5:5
11:0 7:5 3:10 13:5 7:5 11:5 3:5 4:5 11:5 5:5 8:5
7:0 3:10 13:5 7:5 11:5 3:5 4:5 11:5 5:5 8:5 7:5
3:0 13:5 7:5 11:5 3:5 4:5 11:5 5:5 8:5 7:5 9:5
13:0 7:5 11:5 3:5 4:5 11:5 5:5 8:5 7:5 9:5 13:5
7:0 11:5 3:5 4:5 11:5 5:5 8:5 7:5 9:5 13:5 6:5
11:0 3:5 4:5 11:5 5:5 8:5 7:5 9:5 13:5 6:5 11:5
3:0 4:5 11:5 5:5 8:5 7:5 9:5 13:5 6:5 11:5 6:5
4:0 11:5 5:5 8:5 7:5 9:5 13:5 6:5 11:5 6:5 7:5
11:0 5:5 8:5 7:5 9:5 13:5 6:5 11:5 6:5 7:5 2:10
5:0 8:5 7:5 9:5 13:5 6:5 11:5 6:5 7:5 2:10 7:5
8:0 7:5 9:5 13:5 6:5 11:5 6:5 7:5 2:10 7:5 2:5
7:0 9:5 13:5 6:5 11:5 6:5 7:5 2:10 7:5 2:5 11:5
9:0 13:5 6:5 11:5 6:5 7:5 2:10 7:5 2:5 11:5 8:5
13:0 6:5 11:5 6:5 7:5 2:10 7:5 2:5 11:5 8:5 10:5
6:0 11:5 6:5 7:5 2:10 7:5 2:5 11:5 8:5 10:5 5:5
11:0 6:5 7:5 2:10 7:5 2:5 11:5 8:5 10:5 5:5 8:5
6:0 7:5 2:10 7:5 2:5 11:5 8:5 10:5 5:5 8:5 11:5
7:0 2:10 7:5 2:5 11:5 8:5 10:5 5:5 8:5 11:5 5:10
2:0 7:5 2:5 11:5 8:5 10:5 5:5 8:5 11:5 5:10 7:5
7:0 2:5 11:5 8:5 10:5 5:5 8:5 11:5 5:10 7:5 2:5
2:0 11:5 8:5 10:5 5:5 8:5 11:5 5:10 7:5 2:5 13:5
11:0 8:5 10:5 5:5 8:5 11:5 5:10 7:5 2:5 13:5 9:5
8:0 10:5 5:5 8:5 11:5 5:10 7:5 2:5 13:5 9:5 10:5
10:0 5:5 8:5 11:5 5:10 7:5 2:5 13:5 9:5 10:5 3:5
5:0 8:5 11:5 5:10 7:5 2:5 13:5 9:5 10:5 3:5 8:5
8:0 11:5 5:10 7:5 2:5 13:5 9:5 10:5 3:5 8:5 11:5
11:0 5:10 7:5 2:5 13:5 9:5 10:5 3:5 8:5 11:5 9:5
5:0 7:5 2:5 13:5 9:5 10:5 3:5 8:5 11:5 9:5 10:5
7:0 2:5 13:5 9:5 10:5 3:5 8:5 11:5 9:5 10:5 2:5
2:0 13:5 9:5 10:5 3:5 8:5 11:5 9:5 10:5 2:5 10:5
13:0 9:5 10:5 3:5 8:5 11:5 9:5 10:5 2:5 10:5 8:5
9:0 10:5 3:5 8:5 11:5 9:5 10:5 2:5 10:5 8:5 4:5
10:0 3:5 8:5 11:5 9:5 10:5 2:5 10:5 8:5 4:5 10:5
3:0 8:5 11:5 9:5 10:5 2:5 10:5 8:5 4:5 10:5 6:5
8:0 11:5 9:5 10:5 2:5 10:5 8:5 4:5 10:5 6:5 12:5
11:0 9:5 10:5 2:5 10:5 8:5 4:5 10:5 6:5 12:5 9:5
9:0 10:5 2:5 10:5 8:5 4:5 10:5 6:5 12:5 9:5 3:5
10:0 2:5 10:5 8:5 4:5 10:5 6:5 12:5 9:5 3:5 7:5
2:0 10:5 8:5 4:5 10:5 6:5 12:5 9:5 3:5 7:5 2:5
10:0 8:5 4:5 10:5 6:5 12:5 9:5 3:5 7:5 2:5 12:5
8:0 4:5 10:5 6:5 12:5 9:5 3:5 7:5 2:5 12:5 6:5
4:0 10:5 6:5 12:5 9:5 3:5 7:5 2:5 12:5 6:5 12:5
10:0 6:5 12:5 9:5 3:5 7:5 2:5 12:5 6:5 12:5 4:5
6:0 12:5 9:5 3:5 7:5 2:5 12:5 6:5 12:5 4:5 11:5
12:0 9:5 3:5 7:5 2:5 12:5 6:5 12:5 4:5 11:5 8:10
9:0 3:5 7:5 2:5 12:5 6:5 12:5 4:5 11:5 8:10 6:5
3:0 7:5 2:5 12:5 6:5 12:5 4:5 11:5 8:10 6:5 3:5
7:0 2:5 12:5 6:5 12:5 4:5 11:5 8:10 6:5 3:5 10:10
2:0 12:5 6:5 12:5 4:5 11:5 8:10 6:5 3:5 10:10 3:5
12:0 6:5 12:5 4:5 11:5 8:10 6:5 3:5 10:10 3:5 10:5
6:0 12:5 4:5 11:5 8:10 6:5 3:5 10:10 3:5 10:5 4:5
12:0 4:5 11:5 8:10 6:5 3:5 10:10 3:5 10:5 4:5 13:5
4:0 11:5 8:10 6:5 3:5 10:10 3:5 10:5 4:5 13:5 10:5
11:0 8:10 6:5 3:5 10:10 3:5 10:5 4:5 13:5 10:5 5:5
8:0 6:5 3:5 10:10 3:5 10:5 4:5 13:5 10:5 5:5 3:5
6:0 3:5 10:10 3:5 10:5 4:5 13:5 10:5 5:5 3:5 2:5
3:0 10:10 3:5 10:5 4:5 13:5 10:5 5:5 3:5 2:5 10:5
10:0 3:5 10:5 4:5 13:5 10:5 5:5 3:5 2:5 10:5 9:5
3:0 10:5 4:5 13:5 10:5 5:5 3:5 2:5 10:5 9:5 10:10
10:0 4:5 13:5 10:5 5:5 3:5 2:5 10:5 9:5 10:10 5:5
4:0 13:5 10:5 5:5 3:5 2:5 10:5 9:5 10:10 5:5 11:5
13:0 10:5 5:5 3:5 2:5 10:5 9:5 10:10 5:5 11:5 9:5
10:0 5:5 3:5 2:5 10:5 9:5 10:10 5:5 11:5 9:5 3:10
5:0 3:5 2:5 10:5 9:5 10:10 5:5 11:5 9:5 3:10 12:10
3:0 2:5 10:5 9:5 10:10 5:5 11:5 9:5 3:10 12:10 4:5
2:0 10:5 9:5 10:10 5:5 11:5 9:5 3:10 12:10 4:5 12:5
10:0 9:5 10:10 5:5 11:5 9:5 3:10 12:10 4:5 12:5 5:5
9:0 10:10 5:5 11:5 9:5 3:10 12:10 4:5 12:5 5:5 7:5
10:0 5:5 11:5 9:5 3:10 12:10 4:5 12:5 5:5 7:5 12:5
5:0 11:5 9:5 3:10 12:10 4:5 12:5 5:5 7:5 12:5 10:5
11:0 9:5 3:10 12:10 4:5 12:5 5:5 7:5 12:5 10:5 7:5
9:0 3:10 12:10 4:5 12:5 5:5 7:5 12:5 10:5 7:5 4:5
3:0 12:10 4:5 12:5 5:5 7:5 12:5 10:5 7:5 4:5 3:5
12:0 4:5 12:5 5:5 7:5 12:5 10:5 7:5 4:5 3:5 11:5
4:0 12:5 5:5 7:5 12:5 10:5 7:5 4:5 3:5 11:5 3:5
12:0 5:5 7:5 12:5 10:5 7:5 4:5 3:5 11:5 3:5 11:5
5:0 7:5 12:5 10:5 7:5 4:5 3:5 11:5 3:5 11:5 4:5
7:0 12:5 10:5 7:5 4:5 3:5 11:5 3:5 11:5 4:5 12:5
12:0 10:5 7:5 4:5 3:5 11:5 3:5 11:5 4:5 12:5 8:5
10:0 7:5 4:5 3:5 11:5 3:5 11:5 4:5 12:5 8:5 12:5
7:0 4:5 3:5 11:5 3:5 11:5 4:5 12:5 8:5 12:5 7:5
4:0 3:5 11:5 3:5 11:5 4:5 12:5 8:5 12:5 7:5 5:5
3:0 11:5 3:5 11:5 4:5 12:5 8:5 12:5 7:5 5:5 7:5
11:0 3:5 11:5 4:5 12:5 8:5 12:5 7:5 5:5 7:5 12:5
3:0 11:5 4:5 12:5 8:5 12:5 7:5 5:5 7:5 12:5 5:5
11:0 4:5 12:5 8:5 12:5 7:5 5:5 7:5 12:5 5:5 8:5
4:0 12:5 8:5 12:5 7:5 5:5 7:5 12:5 5:5 8:5 4:5
12:0 8:5 12:5 7:5 5:5 7:5 12:5 5:5 8:5 4:5 12:5
8:0 12:5 7:5 5:5 7:5 12:5 5:5 8:5 4:5 12:5 7:5
12:0 7:5 5:5 7:5 12:5 5:5 8:5 4:5 12:5 7:5 8:5
7:0 5:5 7:5 12:5 5:5 8:5 4:5 12:5 7:5 8:5 5:5
5:0 7:5 12:5 5:5 8:5 4:5 12:5 7:5 8:5 5:5 2:5
7:0 12:5 5:5 8:5 4:5 12:5 7:5 8:5 5:5 2:5 12:5
12:0 5:5 8:5 4:5 12:5 7:5 8:5 5:5 2:5 12:5 3:5
5:0 8:5 4:5 12:5 7:5 8:5 5:5 2:5 12:5 3:5 10:5
8:0 4:5 12:5 7:5 8:5 5:5 2:5 12:5 3:5 10:5 3:5
4:0 12:5 7:5 8:5 5:5 2:5 12:5 3:5 10:5 3:5 11:5
12:0 7:5 8:5 5:5 2:5 12:5 3:5 10:5 3:5 11:5 9:10
7:0 8:5 5:5 2:5 12:5 3:5 10:5 3:5 11:5 9:10 12:10
8:0 5:5 2:5 12:5 3:5 10:5 3:5 11:5 9:10 12:10 7:5
5:0 2:5 12:5 3:5 10:5 3:5 11:5 9:10 12:10 7:5 9:5
2:0 12:5 3:5 10:5 3:5 11:5 9:10 12:10 7:5 9:5 2:5
12:0 3:5 10:5 3:5 11:5 9:10 12:10 7:5 9:5 2:5 10:5
3:0 10:5 3:5 11:5 9:10 12:10 7:5 9:5 2:5 10:5 2:5
10:0 3:5 11:5 9:10 12:10 7:5 9:5 2:5 10:5 2:5 12:5
3:0 11:5 9:10 12:10 7:5 9:5 2:5 10:5 2:5 12:5 8:10
11:0 9:10 12:10 7:5 9:5 2:5 10:5 2:5 12:5 8:10 6:5
9:0 12:10 7:5 9:5 2:5 10:5 2:5 12:5 8:10 6:5 2:5
12:0 7:5 9:5 2:5 10:5 2:5 12:5 8:10 6:5 2:5 12:5
7:0 9:5 2:5 10:5 2:5 12:5 8:10 6:5 2:5 12:5 3:5
9:0 2:5 10:5 2:5 12:5 8:10 6:5 2:5 12:5 3:5 10:5
2:0 10:5 2:5 12:5 8:10 6:5 2:5 12:5 3:5 10:5 4:5
10:0 2:5 12:5 8:10 6:5 2:5 12:5 3:5 10:5 4:5 8:5
2:0 12:5 8:10 6:5 2:5 12:5 3:5 10:5 4:5 8:5 12:5
12:0 8:10 6:5 2:5 12:5 3:5 10:5 4:5 8:5 12:5 3:10
8:0 6:5 2:5 12:5 3:5 10:5 4:5 8:5 12:5 3:10 2:5
6:0 2:5 12:5 3:5 10:5 4:5 8:5 12:5 3:10 2:5 8:5
2:0 12:5 3:5 10:5 4:5 8:5 12:5 3:10 2:5 8:5 11:5
12:0 3:5 10:5 4:5 8:5 12:5 3:10 2:5 8:5 11:5 5:5
3:0 10:5 4:5 8:5 12:5 3:10 2:5 8:5 11:5 5:5 8:5
10:0 4:5 8:5 12:5 3:10 2:5 8:5 11:5 5:5 8:5 7:5
4:0 8:5 12:5 3:10 2:5 8:5 11:5 5:5 8:5 7:5 9:5
8:0 12:5 3:10 2:5 8:5 11:5 5:5 8:5 7:5 9:5 11:5
12:0 3:10 2:5 8:5 11:5 5:5 8:5 7:5 9:5 11:5 7:5
3:0 2:5 8:5 11:5 5:5 8:5 7:5 9:5 11:5 7:5 12:5
2:0 8:5 11:5 5:5 8:5 7:5 9:5 11:5 7:5 12:5 5:5
8:0 11:5 5:5 8:5 7:5 9:5 11:5 7:5 12:5 5:5 11:5
11:0 5:5 8:5 7:5 9:5 11:5 7:5 12:5 5:5 11:5 6:5
5:0 8:5 7:5 9:5 11:5 7:5 12:5 5:5 11:5 6:5 3:5
8:0 7:5 9:5 11:5 7:5 12:5 5:5 11:5 6:5 3:5 6:5
7:0 9:5 11:5 7:5 12:5 5:5 11:5 6:5 3:5 6:5 2:5
9:0 11:5 7:5 12:5 5:5 11:5 6:5 3:5 6:5 2:5 11:5
11:0 7:5 12:5 5:5 11:5 6:5 3:5 6:5 2:5 11:5 10:5
7:0 12:5 5:5 11:5 6:5 3:5 6:5 2:5 11:5 10:5 8:5
12:0 5:5 11:5 6:5 3:5 6:5 2:5 11:5 10:5 8:5 7:5
5:0 11:5 6:5 3:5 6:5 2:5 11:5 10:5 8:5 7:5 5:5
11:0 6:5 3:5 6:5 2:5 11:5 10:5 8:5 7:5 5:5 13:5
6:0 3:5 6:5 2:5 11:5 10:5 8:5 7:5 5:5 13:5 5:5
3:0 6:5 2:5 11:5 10:5 8:5 7:5 5:5 13:5 5:5 11:5
6:0 2:5 11:5 10:5 8:5 7:5 5:5 13:5 5:5 11:5 2:5
2:0 11:5 10:5 8:5 7:5 5:5 13:5 5:5 11:5 2:5 7:5
11:0 10:5 8:5 7:5 5:5 13:5 5:5 11:5 2:5 7:5 8:5
10:0 8:5 7:5 5:5 13:5 5:5 11:5 2:5 7:5 8:5 10:5
8:0 7:5 5:5 13:5 5:5 11:5 2:5 7:5 8:5 10:5 5:5
7:0 5:5 13:5 5:5 11:5 2:5 7:5 8:5 10:5 5:5 9:5
5:0 13:5 5:5 11:5 2:5 7:5 8:5 10:5 5:5 9:5 13:10
13:0 5:5 11:5 2:5 7:5 8:5 10:5 5:5 9:5 13:10 2:5
5:0 11:5 2:5 7:5 8:5 10:5 5:5 9:5 13:10 2:5 5:5
11:0 2:5 7:5 8:5 10:5 5:5 9:5 13:10 2:5 5:5 2:5
2:0 7:5 8:5 10:5 5:5 9:5 13:10 2:5 5:5 2:5 9:5
7:0 8:5 10:5 5:5 9:5 13:10 2:5 5:5 2:5 9:5 10:5
8:0 10:5 5:5 9:5 13:10 2:5 5:5 2:5 9:5 10:5 8:5
10:0 5:5 9:5 13:10 2:5 5:5 2:5 9:5 10:5 8:5 9:5
5:0 9:5 13:10 2:5 5:5 2:5 9:5 10:5 8:5 9:5 5:5
9:0 13:10 2:5 5:5 2:5 9:5 10:5 8:5 9:5 5:5 14:5
13:0 2:5 5:5 2:5 9:5 10:5 8:5 9:5 5:5 14:5 8:5
2:0 5:5 2:5 9:5 10:5 8:5 9:5 5:5 14:5 8:5 10:5
5:0 2:5 9:5 10:5 8:5 9:5 5:5 14:5 8:5 10:5 2:5
2:0 9:5 10:5 8:5 9:5 5:5 14:5 8:5 10:5 2:5 6:5
9:0 10:5 8:5 9:5 5:5 14:5 8:5 10:5 2:5 6:5 10:5
10:0 8:5 9:5 5:5 14:5 8:5 10:5 2:5 6:5 10:5 6:5
8:0 9:5 5:5 14:5 8:5 10:5 2:5 6:5 10:5 6:5 7:5
9:0 5:5 14:5 8:5 10:5 2:5 6:5 10:5 6:5 7:5 6:5
5:0 14:5 8:5 10:5 2:5 6:5 10:5 6:5 7:5 6:5 10:5
14:0 8:5 10:5 2:5 6:5 10:5 6:5 7:5 6:5 10:5 13:5
8:0 10:5 2:5 6:5 10:5 6:5 7:5 6:5 10:5 13:5 4:5
10:0 2:5 6:5 10:5 6:5 7:5 6:5 10:5 13:5 4:5 10:5
2:0 6:5 10:5 6:5 7:5 6:5 10:5 13:5 4:5 10:5 6:5
6:0 10:5 6:5 7:5 6:5 10:5 13:5 4:5 10:5 6:5 9:5
10:0 6:5 7:5 6:5 10:5 13:5 4:5 10:5 6:5 9:5 4:5
6:0 7:5 6:5 10:5 13:5 4:5 10:5 6:5 9:5 4:5 9:5
7:0 6:5 10:5 13:5 4:5 10:5 6:5 9:5 4:5 9:5 2:5
6:0 10:5 13:5 4:5 10:5 6:5 9:5 4:5 9:5 2:5 6:5
10:0 13:5 4:5 10:5 6:5 9:5 4:5 9:5 2:5 6:5 13:10
13:0 4:5 10:5 6:5 9:5 4:5 9:5 2:5 6:5 13:10 7:5
4:0 10:5 6:5 9:5 4:5 9:5 2:5 6:5 13:10 7:5 8:5
10:0 6:5 9:5 4:5 9:5 2:5 6:5 13:10 7:5 8:5 2:5
6:0 9:5 4:5 9:5 2:5 6:5 13:10 7:5 8:5 2:5 11:5
9:0 4:5 9:5 2:5 6:5 13:10 7:5 8:5 2:5 11:5 10:5
4:0 9:5 2:5 6:5 13:10 7:5 8:5 2:5 11:5 10:5 6:5
9:0 2:5 6:5 13:10 7:5 8:5 2:5 11:5 10:5 6:5 5:10
2:0 6:5 13:10 7:5 8:5 2:5 11:5 10:5 6:5 5:10 12:5
6:0 13:10 7:5 8:5 2:5 11:5 10:5 6:5 5:10 12:5 6:5
13:0 7:5 8:5 2:5 11:5 10:5 6:5 5:10 12:5 6:5 12:5
7:0 8:5 2:5 11:5 10:5 6:5 5:10 12:5 6:5 12:5 3:5
8:0 2:5 11:5 10:5 6:5 5:10 12:5 6:5 12:5 3:5 7:5
2:0 11:5 10:5 6:5 5:10 12:5 6:5 12:5 3:5 7:5 10:5
11:0 10:5 6:5 5:10 12:5 6:5 12:5 3:5 7:5 10:5 5:5
10:0 6:5 5:10 12:5 6:5 12:5 3:5 7:5 10:5 5:5 6:5
6:0 5:10 12:5 6:5 12:5 3:5 7:5 10:5 5:5 6:5 8:5
5:0 12:5 6:5 12:5 3:5 7:5 10:5 5:5 6:5 8:5 9:5
12:0 6:5 12:5 3:5 7:5 10:5 5:5 6:5 8:5 9:5 12:5
6:0 12:5 3:5 7:5 10:5 5:5 6:5 8:5 9:5 12:5 4:5
12:0 3:5 7:5 10:5 5:5 6:5 8:5 9:5 12:5 4:5 12:5
3:0 7:5 10:5 5:5 6:5 8:5 9:5 12:5 4:5 12:5 5:5
7:0 10:5 5:5 6:5 8:5 9:5 12:5 4:5 12:5 5:5 12:5
10:0 5:5 6:5 8:5 9:5 12:5 4:5 12:5 5:5 12:5 3:5
5:0 6:5 8:5 9:5 12:5 4:5 12:5 5:5 12:5 3:5 4:5
6:0 8:5 9:5 12:5 4:5 12:5 5:5 12:5 3:5 4:5 6:5
8:0 9:5 12:5 4:5 12:5 5:5 12:5 3:5 4:5 6:5 2:5
9:0 12:5 4:5 12:5 5:5 12:5 3:5 4:5 6:5 2:5 13:5
12:0 4:5 12:5 5:5 12:5 3:5 4:5 6:5 2:5 13:5 9:5
4:0 12:5 5:5 12:5 3:5 4:5 6:5 2:5 13:5 9:5 11:5
12:0 5:5 12:5 3:5 4:5 6:5 2:5 13:5 9:5 11:5 4:5
5:0 12:5 3:5 4:5 6:5 2:5 13:5 9:5 11:5 4:5 9:5
12:0 3:5 4:5 6:5 2:5 13:5 9:5 11:5 4:5 9:5 12:5
3:0 4:5 6:5 2:5 13:5 9:5 11:5 4:5 9:5 12:5 10:5
4:0 6:5 2:5 13:5 9:5 11:5 4:5 9:5 12:5 10:5 6:5
6:0 2:5 13:5 9:5 11:5 4:5 9:5 12:5 10:5 6:5 7:5
2:0 13:5 9:5 11:5 4:5 9:5 12:5 10:5 6:5 7:5 3:5
13:0 9:5 11:5 4:5 9:5 12:5 10:5 6:5 7:5 3:5 13:5
9:0 11:5 4:5 9:5 12:5 10:5 6:5 7:5 3:5 13:5 6:5
11:0 4:5 9:5 12:5 10:5 6:5 7:5 3:5 13:5 6:5 9:5
4:0 9:5 12:5 10:5 6:5 7:5 3:5 13:5 6:5 9:5 4:5
9:0 12:5 10:5 6:5 7:5 3:5 13:5 6:5 9:5 4:5 11:5
12:0 10:5 6:5 7:5 3:5 13:5 6:5 9:5 4:5 11:5 9:5
10:0 6:5 7:5 3:5 13:5 6:5 9:5 4:5 11:5 9:5 10:5
6:0 7:5 3:5 13:5 6:5 9:5 4:5 11:5 9:5 10:5 3:5
7:0 3:5 13:5 6:5 9:5 4:5 11:5 9:5 10:5 3:5 5:5
3:0 13:5 6:5 9:5 4:5 11:5 9:5 10:5 3:5 5:5 6:5
13:0 6:5 9:5 4:5 11:5 9:5 10:5 3:5 5:5 6:5 10:5
6:0 9:5 4:5 11:5 9:5 10:5 3:5 5:5 6:5 10:5 8:5
9:0 4:5 11:5 9:5 10:5 3:5 5:5 6:5 10:5 8:5 11:5
4:0 11:5 9:5 10:5 3:5 5:5 6:5 10:5 8:5 11:5 4:5
11:0 9:5 10:5 3:5 5:5 6:5 10:5 8:5 11:5 4:5 13:5
9:0 10:5 3:5 5:5 6:5 10:5 8:5 11:5 4:5 13:5 9:5
10:0 3:5 5:5 6:5 10:5 8:5 11:5 4:5 13:5 9:5 10:5
3:0 5:5 6:5 10:5 8:5 11:5 4:5 13:5 9:5 10:5 3:5
5:0 6:5 10:5 8:5 11:5 4:5 13:5 9:5 10:5 3:5 6:5
6:0 10:5 8:5 11:5 4:5 13:5 9:5 10:5 3:5 6:5 9:5
10:0 8:5 11:5 4:5 13:5 9:5 10:5 3:5 6:5 9:5 6:5
8:0 11:5 4:5 13:5 9:5 10:5 3:5 6:5 9:5 6:5 10:5
11:0 4:5 13:5 9:5 10:5 3:5 6:5 9:5 6:5 10:5 7:5
4:0 13:5 9:5 10:5 3:5 6:5 9:5 6:5 10:5 7:5 8:5
13:0 9:5 10:5 3:5 6:5 9:5 6:5 10:5 7:5 8:5 13:5
9:0 10:5 3:5 6:5 9:5 6:5 10:5 7:5 8:5 13:5 5:5
10:0 3:5 6:5 9:5 6:5 10:5 7:5 8:5 13:5 5:5 10:5
3:0 6:5 9:5 6:5 10:5 7:5 8:5 13:5 5:5 10:5 2:5
6:0 9:5 6:5 10:5 7:5 8:5 13:5 5:5 10:5 2:5 8:5
9:0 6:5 10:5 7:5 8:5 13:5 5:5 10:5 2:5 8:5 7:5
6:0 10:5 7:5 8:5 13:5 5:5 10:5 2:5 8:5 7:5 9:5
10:0 7:5 8:5 13:5 5:5 10:5 2:5 8:5 7:5 9:5 7:5
7:0 8:5 13:5 5:5 10:5 2:5 8:5 7:5 9:5 7:5 10:5
8:0 13:5 5:5 10:5 2:5 8:5 7:5 9:5 7:5 10:5 11:5
13:0 5:5 10:5 2:5 8:5 7:5 9:5 7:5 10:5 11:5 12:5
5:0 10:5 2:5 8:5 7:5 9:5 7:5 10:5 11:5 12:5 2:5
10:0 2:5 8:5 7:5 9:5 7:5 10:5 11:5 12:5 2:5 5:5
2:0 8:5 7:5 9:5 7:5 10:5 11:5 12:5 2:5 5:5 2:5
8:0 7:5 9:5 7:5 10:5 11:5 12:5 2:5 5:5 2:5 13:5
7:0 9:5 7:5 10:5 11:5 12:5 2:5 5:5 2:5 13:5 6:5
9:0 7:5 10:5 11:5 12:5 2:5 5:5 2:5 13:5 6:5 13:5
7:0 10:5 11:5 12:5 2:5 5:5 2:5 13:5 6:5 13:5 4:5
10:0 11:5 12:5 2:5 5:5 2:5 13:5 6:5 13:5 4:5 11:5
11:0 12:5 2:5 5:5 2:5 13:5 6:5 13:5 4:5 11:5 12:5
12:0 2:5 5:5 2:5 13:5 6:5 13:5 4:5 11:5 12:5 8:5
2:0 5:5 2:5 13:5 6:5 13:5 4:5 11:5 12:5 8:5 7:5
5:0 2:5 13:5 6:5 13:5 4:5 11:5 12:5 8:5 7:5 2:5
2:0 13:5 6:5 13:5 4:5 11:5 12:5 8:5 7:5 2:5 3:5
13:0 6:5 13:5 4:5 11:5 12:5 8:5 7:5 2:5 3:5 11:5
6:0 13:5 4:5 11:5 12:5 8:5 7:5 2:5 3:5 11:5 5:5
13:0 4:5 11:5 12:5 8:5 7:5 2:5 3:5 11:5 5:5 10:5
4:0 11:5 12:5 8:5 7:5 2:5 3:5 11:5 5:5 10:5 3:5
11:0 12:5 8:5 7:5 2:5 3:5 11:5 5:5 10:5 3:5 11:5
12:0 8:5 7:5 2:5 3:5 11:5 5:5 10:5 3:5 11:5 10:10
8:0 7:5 2:5 3:5 11:5 5:5 10:5 3:5 11:5 10:10 5:5
7:0 2:5 3:5 11:5 5:5 10:5 3:5 11:5 10:10 5:5 7:10
2:0 3:5 11:5 5:5 10:5 3:5 11:5 10:10 5:5 7:10 8:5
3:0 11:5 5:5 10:5 3:5 11:5 10:10 5:5 7:10 8:5 4:5
11:0 5:5 10:5 3:5 11:5 10:10 5:5 7:10 8:5 4:5 11:5
5:0 10:5 3:5 11:5 10:10 5:5 7:10 8:5 4:5 11:5 3:5
10:0 3:5 11:5 10:10 5:5 7:10 8:5 4:5 11:5 3:5 12:5
3:0 11:5 10:10 5:5 7:10 8:5 4:5 11:5 3:5 12:5 10:5
11:0 10:10 5:5 7:10 8:5 4:5 11:5 3:5 12:5 10:5 11:5
10:0 5:5 7:10 8:5 4:5 11:5 3:5 12:5 10:5 11:5 3:5
5:0 7:10 8:5 4:5 11:5 3:5 12:5 10:5 11:5 3:5 4:5
7:0 8:5 4:5 11:5 3:5 12:5 10:5 11:5 3:5 4:5 11:5
8:0 4:5 11:5 3:5 12:5 10:5 11:5 3:5 4:5 11:5 9:5
4:0 11:5 3:5 12:5 10:5 11:5 3:5 4:5 11:5 9:5 6:5
11:0 3:5 12:5 10:5 11:5 3:5 4:5 11:5 9:5 6:5 3:5
3:0 12:5 10:5 11:5 3:5 4:5 11:5 9:5 6:5 3:5 10:5
12:0 10:5 11:5 3:5 4:5 11:5 9:5 6:5 3:5 10:5 13:5
10:0 11:5 3:5 4:5 11:5 9:5 6:5 3:5 10:5 13:5 7:5
11:0 3:5 4:5 11:5 9:5 6:5 3:5 10:5 13:5 7:5 9:5
3:0 4:5 11:5 9:5 6:5 3:5 10:5 13:5 7:5 9:5 3:5
4:0 11:5 9:5 6:5 3:5 10:5 13:5 7:5 9:5 3:5 7:5
11:0 9:5 6:5 3:5 10:5 13:5 7:5 9:5 3:5 7:5 11:5
9:0 6:5 3:5 10:5 13:5 7:5 9:5 3:5 7:5 11:5 3:5
6:0 3:5 10:5 13:5 7:5 9:5 3:5 7:5 11:5 3:5 10:5
3:0 10:5 13:5 7:5 9:5 3:5 7:5 11:5 3:5 10:5 4:5
10:0 13:5 7:5 9:5 3:5 7:5 11:5 3:5 10:5 4:5 13:5
13:0 7:5 9:5 3:5 7:5 11:5 3:5 10:5 4:5 13:5 9:5
7:0 9:5 3:5 7:5 11:5 3:5 10:5 4:5 13:5 9:5 10:5
9:0 3:5 7:5 11:5 3:5 10:5 4:5 13:5 9:5 10:5 11:5
3:0 7:5 11:5 3:5 10:5 4:5 13:5 9:5 10:5 11:5 4:5
7:0 11:5 3:5 10:5 4:5 13:5 9:5 10:5 11:5 4:5 10:5
11:0 3:5 10:5 4:5 13:5 9:5 10:5 11:5 4:5 10:5 6:5
3:0 10:5 4:5 13:5 9:5 10:5 11:5 4:5 10:5 6:5 4:5
10:0 4:5 13:5 9:5 10:5 11:5 4:5 10:5 6:5 4:5 13:15
4:0 13:5 9:5 10:5 11:5 4:5 10:5 6:5 4:5 13:15 4:5
13:0 9:5 10:5 11:5 4:5 10:5 6:5 4:5 13:15 4:5 11:5
9:0 10:5 11:5 4:5 10:5 6:5 4:5 13:15 4:5 11:5 4:5
10:0 11:5 4:5 10:5 6:5 4:5 13:15 4:5 11:5 4:5 12:5
11:0 4:5 10:5 6:5 4:5 13:15 4:5 11:5 4:5 12:5 11:5
4:0 10:5 6:5 4:5 13:15 4:5 11:5 4:5 12:5 11:5 8:5
10:0 6:5 4:5 13:15 4:5 11:5 4:5 12:5 11:5 8:5 7:5
6:0 4:5 13:15 4:5 11:5 4:5 12:5 11:5 8:5 7:5 2:5
4:0 13:15 4:5 11:5 4:5 12:5 11:5 8:5 7:5 2:5 6:5
13:0 4:5 11:5 4:5 12:5 11:5 8:5 7:5 2:5 6:5 12:5
4:0 11:5 4:5 12:5 11:5 8:5 7:5 2:5 6:5 12:5 6:5
11:0 4:5 12:5 11:5 8:5 7:5 2:5 6:5 12:5 6:5 9:5
4:0 12:5 11:5 8:5 7:5 2:5 6:5 12:5 6:5 9:5 3:5
12:0 11:5 8:5 7:5 2:5 6:5 12:5 6:5 9:5 3:5 11:5
11:0 8:5 7:5 2:5 6:5 12:5 6:5 9:5 3:5 11:5 9:5
8:0 7:5 2:5 6:5 12:5 6:5 9:5 3:5 11:5 9:5 11:5
7:0 2:5 6:5 12:5 6:5 9:5 3:5 11:5 9:5 11:5 4:5
2:0 6:5 12:5 6:5 9:5 3:5 11:5 9:5 11:5 4:5 3:5
6:0 12:5 6:5 9:5 3:5 11:5 9:5 11:5 4:5 3:5 12:5
12:0 6:5 9:5 3:5 11:5 9:5 11:5 4:5 3:5 12:5 3:5
6:0 9:5 3:5 11:5 9:5 11:5 4:5 3:5 12:5 3:5 12:5
9:0 3:5 11:5 9:5 11:5 4:5 3:5 12:5 3:5 12:5 8:5
3:0 11:5 9:5 11:5 4:5 3:5 12:5 3:5 12:5 8:5 7:5
11:0 9:5 11:5 4:5 3:5 12:5 3:5 12:5 8:5 7:5 12:5
9:0 11:5 4:5 3:5 12:5 3:5 12:5 8:5 7:5 12:5 10:5
11:0 4:5 3:5 12:5 3:5 12:5 8:5 7:5 12:5 10:5 7:5
4:0 3:5 12:5 3:5 12:5 8:5 7:5 12:5 10:5 7:5 3:5
3:0 12:5 3:5 12:5 8:5 7:5 12:5 10:5 7:5 3:5 4:5
12:0 3:5 12:5 8:5 7:5 12:5 10:5 7:5 3:5 4:5 12:5
3:0 12:5 8:5 7:5 12:5 10:5 7:5 3:5 4:5 12:5 3:5
12:0 8:5 7:5 12:5 10:5 7:5 3:5 4:5 12:5 3:5 9:5
8:0 7:5 12:5 10:5 7:5 3:5 4:5 12:5 3:5 9:5 3:5
7:0 12:5 10:5 7:5 3:5 4:5 12:5 3:5 9:5 3:5 12:5
12:0 10:5 7:5 3:5 4:5 12:5 3:5 9:5 3:5 12:5 10:5
10:0 7:5 3:5 4:5 12:5 3:5 9:5 3:5 12:5 10:5 9:5
7:0 3:5 4:5 12:5 3:5 9:5 3:5 12:5 10:5 9:5 8:5
3:0 4:5 12:5 3:5 9:5 3:5 12:5 10:5 9:5 8:5 10:5
4:0 12:5 3:5 9:5 3:5 12:5 10:5 9:5 8:5 10:5 8:5
12:0 3:5 9:5 3:5 12:5 10:5 9:5 8:5 10:5 8:5 2:10
3:0 9:5 3:5 12:5 10:5 9:5 8:5 10:5 8:5 2:10 8:5
9:0 3:5 12:5 10:5 9:5 8:5 10:5 8:5 2:10 8:5 2:5
3:0 12:5 10:5 9:5 8:5 10:5 8:5 2:10 8:5 2:5 13:5
12:0 10:5 9:5 8:5 10:5 8:5 2:10 8:5 2:5 13:5 11:5
10:0 9:5 8:5 10:5 8:5 2:10 8:5 2:5 13:5 11:5 6:5
9:0 8:5 10:5 8:5 2:10 8:5 2:5 13:5 11:5 6:5 2:5
8:0 10:5 8:5 2:10 8:5 2:5 13:5 11:5 6:5 2:5 4:5
10:0 8:5 2:10 8:5 2:5 13:5 11:5 6:5 2:5 4:5 12:5
8:0 2:10 8:5 2:5 13:5 11:5 6:5 2:5 4:5 12:5 3:5
2:0 8:5 2:5 13:5 11:5 6:5 2:5 4:5 12:5 3:5 7:5
8:0 2:5 13:5 11:5 6:5 2:5 4:5 12:5 3:5 7:5 4:5
2:0 13:5 11:5 6:5 2:5 4:5 12:5 3:5 7:5 4:5 11:5
13:0 11:5 6:5 2:5 4:5 12:5 3:5 7:5 4:5 11:5 12:5
11:0 6:5 2:5 4:5 12:5 3:5 7:5 4:5 11:5 12:5 7:5
6:0 2:5 4:5 12:5 3:5 7:5 4:5 11:5 12:5 7:5 10:5
2:0 4:5 12:5 3:5 7:5 4:5 11:5 12:5 7:5 10:5 5:5
4:0 12:5 3:5 7:5 4:5 11:5 12:5 7:5 10:5 5:5 9:5
12:0 3:5 7:5 4:5 11:5 12:5 7:5 10:5 5:5 9:5 10:5
3:0 7:5 4:5 11:5 12:5 7:5 10:5 5:5 9:5 10:5 3:5
7:0 4:5 11:5 12:5 7:5 10:5 5:5 9:5 10:5 3:5 9:5
4:0 11:5 12:5 7:5 10:5 5:5 9:5 10:5 3:5 9:5 2:5
11:0 12:5 7:5 10:5 5:5 9:5 10:5 3:5 9:5 2:5 10:5
12:0 7:5 10:5 5:5 9:5 10:5 3:5 9:5 2:5 10:5 7:5
7:0 10:5 5:5 9:5 10:5 3:5 9:5 2:5 10:5 7:5 10:5
10:0 5:5 9:5 10:5 3:5 9:5 2:5 10:5 7:5 10:5 8:5
5:0 9:5 10:5 3:5 9:5 2:5 10:5 7:5 10:5 8:5 5:5
9:0 10:5 3:5 9:5 2:5 10:5 7:5 10:5 8:5 5:5 11:5
10:0 3:5 9:5 2:5 10:5 7:5 10:5 8:5 5:5 11:5 10:5
3:0 9:5 2:5 10:5 7:5 10:5 8:5 5:5 11:5 10:5 5:5
9:0 2:5 10:5 7:5 10:5 8:5 5:5 11:5 10:5 5:5 7:5
2:0 10:5 7:5 10:5 8:5 5:5 11:5 10:5 5:5 7:5 2:5
10:0 7:5 10:5 8:5 5:5 11:5 10:5 5:5 7:5 2:5 11:5
7:0 10:5 8:5 5:5 11:5 10:5 5:5 7:5 2:5 11:5 4:5
10:0 8:5 5:5 11:5 10:5 5:5 7:5 2:5 11:5 4:5 10:5
8:0 5:5 11:5 10:5 5:5 7:5 2:5 11:5 4:5 10:5 8:5
5:0 11:5 10:5 5:5 7:5 2:5 11:5 4:5 10:5 8:5 10:5
11:0 10:5 5:5 7:5 2:5 11:5 4:5 10:5 8:5 10:5 13:5
10:0 5:5 7:5 2:5 11:5 4:5 10:5 8:5 10:5 13:5 3:5
5:0 7:5 2:5 11:5 4:5 10:5 8:5 10:5 13:5 3:5 5:5
7:0 2:5 11:5 4:5 10:5 8:5 10:5 13:5 3:5 5:5 2:5
2:0 11:5 4:5 10:5 8:5 10:5 13:5 3:5 5:5 2:5 8:5
11:0 4:5 10:5 8:5 10:5 13:5 3:5 5:5 2:5 8:5 11:5
4:0 10:5 8:5 10:5 13:5 3:5 5:5 2:5 8:5 11:5 6:10
10:0 8:5 10:5 13:5 3:5 5:5 2:5 8:5 11:5 6:10 8:5
8:0 10:5 13:5 3:5 5:5 2:5 8:5 11:5 6:10 8:5 9:5
10:0 13:5 3:5 5:5 2:5 8:5 11:5 6:10 8:5 9:5 13:5
13:0 3:5 5:5 2:5 8:5 11:5 6:10 8:5 9:5 13:5 4:5
3:0 5:5 2:5 8:5 11:5 6:10 8:5 9:5 13:5 4:5 9:5
5:0 2:5 8:5 11:5 6:10 8:5 9:5 13:5 4:5 9:5 2:5
2:0 8:5 11:5 6:10 8:5 9:5 13:5 4:5 9:5 2:5 11:5
8:0 11:5 6:10 8:5 9:5 13:5 4:5 9:5 2:5 11:5 4:5
11:0 6:10 8:5 9:5 13:5 4:5 9:5 2:5 11:5 4:5 9:5
6:0 8:5 9:5 13:5 4:5 9:5 2:5 11:5 4:5 9:5 5:5
8:0 9:5 13:5 4:5 9:5 2:5 11:5 4:5 9:5 5:5 9:5
9:0 13:5 4:5 9:5 2:5 11:5 4:5 9:5 5:5 9:5 11:5
13:0 4:5 9:5 2:5 11:5 4:5 9:5 5:5 9:5 11:5 7:5
4:0 9:5 2:5 11:5 4:5 9:5 5:5 9:5 11:5 7:5 3:5
9:0 2:5 11:5 4:5 9:5 5:5 9:5 11:5 7:5 3:5 6:5
2:0 11:5 4:5 9:5 5:5 9:5 11:5 7:5 3:5 6:5 5:5
11:0 4:5 9:5 5:5 9:5 11:5 7:5 3:5 6:5 5:5 13:5
4:0 9:5 5:5 9:5 11:5 7:5 3:5 6:5 5:5 13:5 6:5
9:0 5:5 9:5 11:5 7:5 3:5 6:5 5:5 13:5 6:5 8:5
5:0 9:5 11:5 7:5 3:5 6:5 5:5 13:5 6:5 8:5 7:5
9:0 11:5 7:5 3:5 6:5 5:5 13:5 6:5 8:5 7:5 8:5
11:0 7:5 3:5 6:5 5:5 13:5 6:5 8:5 7:5 8:5 11:5
7:0 3:5 6:5 5:5 13:5 6:5 8:5 7:5 8:5 11:5 7:5
3:0 6:5 5:5 13:5 6:5 8:5 7:5 8:5 11:5 7:5 8:5
6:0 5:5 13:5 6:5 8:5 7:5 8:5 11:5 7:5 8:5 2:5
5:0 13:5 6:5 8:5 7:5 8:5 11:5 7:5 8:5 2:5 12:5
13:0 6:5 8:5 7:5 8:5 11:5 7:5 8:5 2:5 12:5 6:5
6:0 8:5 7:5 8:5 11:5 7:5 8:5 2:5 12:5 6:5 13:5
8:0 7:5 8:5 11:5 7:5 8:5 2:5 12:5 6:5 13:5 3:5
7:0 8:5 11:5 7:5 8:5 2:5 12:5 6:5 13:5 3:5 6:5
8:0 11:5 7:5 8:5 2:5 12:5 6:5 13:5 3:5 6:5 9:5
11:0 7:5 8:5 2:5 12:5 6:5 13:5 3:5 6:5 9:5 13:5
7:0 8:5 2:5 12:5 6:5 13:5 3:5 6:5 9:5 13:5 5:5
8:0 2:5 12:5 6:5 13:5 3:5 6:5 9:5 13:5 5:5 6:5
2:0 12:5 6:5 13:5 3:5 6:5 9:5 13:5 5:5 6:5 2:5
12:0 6:5 13:5 3:5 6:5 9:5 13:5 5:5 6:5 2:5 11:5
6:0 13:5 3:5 6:5 9:5 13:5 5:5 6:5 2:5 11:5 8:5
13:0 3:5 6:5 9:5 13:5 5:5 6:5 2:5 11:5 8:5 11:5
3:0 6:5 9:5 13:5 5:5 6:5 2:5 11:5 8:5 11:5 5:5
6:0 9:5 13:5 5:5 6:5 2:5 11:5 8:5 11:5 5:5 8:5
9:0 13:5 5:5 6:5 2:5 11:5 8:5 11:5 5:5 8:5 11:5
13:0 5:5 6:5 2:5 11:5 8:5 11:5 5:5 8:5 11:5 4:10
5:0 6:5 2:5 11:5 8:5 11:5 5:5 8:5 11:5 4:10 5:5
6:0 2:5 11:5 8:5 11:5 5:5 8:5 11:5 4:10 5:5 6:5
2:0 11:5 8:5 11:5 5:5 8:5 11:5 4:10 5:5 6:5 10:5
11:0 8:5 11:5 5:5 8:5 11:5 4:10 5:5 6:5 10:5 3:5
8:0 11:5 5:5 8:5 11:5 4:10 5:5 6:5 10:5 3:5 11:5
11:0 5:5 8:5 11:5 4:10 5:5 6:5 10:5 3:5 11:5 4:5
5:0 8:5 11:5 4:10 5:5 6:5 10:5 3:5 11:5 4:5 12:5
8:0 11:5 4:10 5:5 6:5 10:5 3:5 11:5 4:5 12:5 6:5
11:0 4:10 5:5 6:5 10:5 3:5 11:5 4:5 12:5 6:5 12:5
4:0 5:5 6:5 10:5 3:5 11:5 4:5 12:5 6:5 12:5 6:5
5:0 6:5 10:5 3:5 11:5 4:5 12:5 6:5 12:5 6:5 5:5
6:0 10:5 3:5 11:5 4:5 12:5 6:5 12:5 6:5 5:5 8:5
10:0 3:5 11:5 4:5 12:5 6:5 12:5 6:5 5:5 8:5 9:5
3:0 11:5 4:5 12:5 6:5 12:5 6:5 5:5 8:5 9:5 2:5
11:0 4:5 12:5 6:5 12:5 6:5 5:5 8:5 9:5 2:5 8:5
4:0 12:5 6:5 12:5 6:5 5:5 8:5 9:5 2:5 8:5 2:5
12:0 6:5 12:5 6:5 5:5 8:5 9:5 2:5 8:5 2:5 13:5
6:0 12:5 6:5 5:5 8:5 9:5 2:5 8:5 2:5 13:5 10:5
12:0 6:5 5:5 8:5 9:5 2:5 8:5 2:5 13:5 10:5 5:5
6:0 5:5 8:5 9:5 2:5 8:5 2:5 13:5 10:5 5:5 2:5
5:0 8:5 9:5 2:5 8:5 2:5 13:5 10:5 5:5 2:5 5:5
8:0 9:5 2:5 8:5 2:5 13:5 10:5 5:5 2:5 5:5 10:5
9:0 2:5 8:5 2:5 13:5 10:5 5:5 2:5 5:5 10:5 5:5
2:0 8:5 2:5 13:5 10:5 5:5 2:5 5:5 10:5 5:5 6:5
8:0 2:5 13:5 10:5 5:5 2:5 5:5 10:5 5:5 6:5 9:5
2:0 13:5 10:5 5:5 2:5 5:5 10:5 5:5 6:5 9:5 10:5
13:0 10:5 5:5 2:5 5:5 10:5 5:5 6:5 9:5 10:5 12:5
10:0 5:5 2:5 5:5 10:5 5:5 6:5 9:5 10:5 12:5 4:5
5:0 2:5 5:5 10:5 5:5 6:5 9:5 10:5 12:5 4:5 12:5
2:0 5:5 10:5 5:5 6:5 9:5 10:5 12:5 4:5 12:5 4:5
5:0 10:5 5:5 6:5 9:5 10:5 12:5 4:5 12:5 4:5 11:5
10:0 5:5 6:5 9:5 10:5 12:5 4:5 12:5 4:5 11:5 4:5
5:0 6:5 9:5 10:5 12:5 4:5 12:5 4:5 11:5 4:5 6:10
6:0 9:5 10:5 12:5 4:5 12:5 4:5 11:5 4:5 6:10 2:5
9:0 10:5 12:5 4:5 12:5 4:5 11:5 4:5 6:10 2:5 13:5
10:0 12:5 4:5 12:5 4:5 11:5 4:5 6:10 2:5 13:5 7:5
12:0 4:5 12:5 4:5 11:5 4:5 6:10 2:5 13:5 7:5 10:5
4:0 12:5 4:5 11:5 4:5 6:10 2:5 13:5 7:5 10:5 2:5
12:0 4:5 11:5 4:5 6:10 2:5 13:5 7:5 10:5 2:5 6:5
4:0 11:5 4:5 6:10 2:5 13:5 7:5 10:5 2:5 6:5 7:5
11:0 4:5 6:10 2:5 13:5 7:5 10:5 2:5 6:5 7:5 8:5
4:0 6:10 2:5 13:5 7:5 10:5 2:5 6:5 7:5 8:5 4:5
6:0 2:5 13:5 7:5 10:5 2:5 6:5 7:5 8:5 4:5 9:5
2:0 13:5 7:5 10:5 2:5 6:5 7:5 8:5 4:5 9:5 7:5
13:0 7:5 10:5 2:5 6:5 7:5 8:5 4:5 9:5 7:5 12:5
7:0 10:5 2:5 6:5 7:5 8:5 4:5 9:5 7:5 12:5 8:5
10:0 2:5 6:5 7:5 8:5 4:5 9:5 7:5 12:5 8:5 10:5
2:0 6:5 7:5 8:5 4:5 9:5 7:5 12:5 8:5 10:5 6:5
6:0 7:5 8:5 4:5 9:5 7:5 12:5 8:5 10:5 6:5 12:5
7:0 8:5 4:5 9:5 7:5 12:5 8:5 10:5 6:5 12:5 11:5
8:0 4:5 9:5 7:5 12:5 8:5 10:5 6:5 12:5 11:5 3:5
4:0 9:5 7:5 12:5 8:5 10:5 6:5 12:5 11:5 3:5 2:5
9:0 7:5 12:5 8:5 10:5 6:5 12:5 11:5 3:5 2:5 6:5
7:0 12:5 8:5 10:5 6:5 12:5 11:5 3:5 2:5 6:5 7:5
12:0 8:5 10:5 6:5 12:5 11:5 3:5 2:5 6:5 7:5 9:5
8:0 10:5 6:5 12:5 11:5 3:5 2:5 6:5 7:5 9:5 8:5
10:0 6:5 12:5 11:5 3:5 2:5 6:5 7:5 9:5 8:5 9:5
6:0 12:5 11:5 3:5 2:5 6:5 7:5 9:5 8:5 9:5 5:5
12:0 11:5 3:5 2:5 6:5 7:5 9:5 8:5 9:5 5:5
11:0 3:5 2:5 6:5 7:5 9:5 8:5 9:5 5:5
3:0 2:5 6:5 7:5 9:5 8:5 9:5 5:5
2:0 6:5 7:5 9:5 8:5 9:5 5:5
6:0 7:5 9:5 8:5 9:5 5:5
7:0 9:5 8:5 9:5 5:5
9:0 8:5 9:5 5:5
8:0 9:5 5:5
9:0 5:5
5:0