6:0 12:2345 6:10 12:500 6:5 12:160 6:10 12:325 6:5 12:500 6:5
12:0 6:10 12:500 6:5 12:160 6:10 12:325 6:5 12:500 6:5 12:500
6:0 12:500 6:5 12:160 6:10 12:325 6:5 12:500 6:5 12:500 6:5
12:0 6:5 12:160 6:10 12:325 6:5 12:500 6:5 12:500 6:5 12:2855
6:0 12:160 6:10 12:325 6:5 12:500 6:5 12:500 6:5 12:2855 6:5
12:0 6:10 12:325 6:5 12:500 6:5 12:500 6:5 12:2855 6:5
6:0 12:325 6:5 12:500 6:5 12:500 6:5 12:2855 6:5
12:0 6:5 12:500 6:5 12:500 6:5 12:2855 6:5
6:0 12:500 6:5 12:500 6:5 12:2855 6:5
12:0 6:5 12:500 6:5 12:2855 6:5
6:0 12:500 6:5 12:2855 6:5
12:0 6:5 12:2855 6:5
6:0 12:2855 6:5
12:0 6:5
6:0