13:0 14:5 13:5 14:5 16:5 17:5 15:5 14:10 2:5 1:10 13:5
14:0 13:5 14:5 16:5 17:5 15:5 14:10 2:5 1:10 13:5 17:15
13:0 14:5 16:5 17:5 15:5 14:10 2:5 1:10 13:5 17:15 3:10
14:0 16:5 17:5 15:5 14:10 2:5 1:10 13:5 17:15 3:10 1:5
16:0 17:5 15:5 14:10 2:5 1:10 13:5 17:15 3:10 1:5 13:5
17:0 15:5 14:10 2:5 1:10 13:5 17:15 3:10 1:5 13:5 14:5
15:0 14:10 2:5 1:10 13:5 17:15 3:10 1:5 13:5 14:5 13:5
14:0 2:5 1:10 13:5 17:15 3:10 1:5 13:5 14:5 13:5 14:5
2:0 1:10 13:5 17:15 3:10 1:5 13:5 14:5 13:5 14:5 16:5
1:0 13:5 17:15 3:10 1:5 13:5 14:5 13:5 14:5 16:5 15:10
13:0 17:15 3:10 1:5 13:5 14:5 13:5 14:5 16:5 15:10 12:10
17:0 3:10 1:5 13:5 14:5 13:5 14:5 16:5 15:10 12:10 2:5
3:0 1:5 13:5 14:5 13:5 14:5 16:5 15:10 12:10 2:5 6:15
1:0 13:5 14:5 13:5 14:5 16:5 15:10 12:10 2:5 6:15 12:5
13:0 14:5 13:5 14:5 16:5 15:10 12:10 2:5 6:15 12:5 14:10
14:0 13:5 14:5 16:5 15:10 12:10 2:5 6:15 12:5 14:10 16:5
13:0 14:5 16:5 15:10 12:10 2:5 6:15 12:5 14:10 16:5 14:10
14:0 16:5 15:10 12:10 2:5 6:15 12:5 14:10 16:5 14:10 16:10
16:0 15:10 12:10 2:5 6:15 12:5 14:10 16:5 14:10 16:10 11:5
15:0 12:10 2:5 6:15 12:5 14:10 16:5 14:10 16:10 11:5 2:5
12:0 2:5 6:15 12:5 14:10 16:5 14:10 16:10 11:5 2:5 1:5
2:0 6:15 12:5 14:10 16:5 14:10 16:10 11:5 2:5 1:5 10:5
6:0 12:5 14:10 16:5 14:10 16:10 11:5 2:5 1:5 10:5 14:5
12:0 14:10 16:5 14:10 16:10 11:5 2:5 1:5 10:5 14:5 17:10
14:0 16:5 14:10 16:10 11:5 2:5 1:5 10:5 14:5 17:10 3:5
16:0 14:10 16:10 11:5 2:5 1:5 10:5 14:5 17:10 3:5 1:5
14:0 16:10 11:5 2:5 1:5 10:5 14:5 17:10 3:5 1:5 2:5
16:0 11:5 2:5 1:5 10:5 14:5 17:10 3:5 1:5 2:5 13:5
11:0 2:5 1:5 10:5 14:5 17:10 3:5 1:5 2:5 13:5 15:15
2:0 1:5 10:5 14:5 17:10 3:5 1:5 2:5 13:5 15:15 17:5
1:0 10:5 14:5 17:10 3:5 1:5 2:5 13:5 15:15 17:5 10:5
10:0 14:5 17:10 3:5 1:5 2:5 13:5 15:15 17:5 10:5 1:5
14:0 17:10 3:5 1:5 2:5 13:5 15:15 17:5 10:5 1:5 6:5
17:0 3:5 1:5 2:5 13:5 15:15 17:5 10:5 1:5 6:5 15:5
3:0 1:5 2:5 13:5 15:15 17:5 10:5 1:5 6:5 15:5 14:5
1:0 2:5 13:5 15:15 17:5 10:5 1:5 6:5 15:5 14:5 16:10
2:0 13:5 15:15 17:5 10:5 1:5 6:5 15:5 14:5 16:10 14:10
13:0 15:15 17:5 10:5 1:5 6:5 15:5 14:5 16:10 14:10 2:5
15:0 17:5 10:5 1:5 6:5 15:5 14:5 16:10 14:10 2:5 13:15
17:0 10:5 1:5 6:5 15:5 14:5 16:10 14:10 2:5 13:15 14:5
10:0 1:5 6:5 15:5 14:5 16:10 14:10 2:5 13:15 14:5 16:15
1:0 6:5 15:5 14:5 16:10 14:10 2:5 13:15 14:5 16:15 15:15
6:0 15:5 14:5 16:10 14:10 2:5 13:15 14:5 16:15 15:15 11:5
15:0 14:5 16:10 14:10 2:5 13:15 14:5 16:15 15:15 11:5 3:5
14:0 16:10 14:10 2:5 13:15 14:5 16:15 15:15 11:5 3:5 2:5
16:0 14:10 2:5 13:15 14:5 16:15 15:15 11:5 3:5 2:5 1:5
14:0 2:5 13:15 14:5 16:15 15:15 11:5 3:5 2:5 1:5 9:5
2:0 13:15 14:5 16:15 15:15 11:5 3:5 2:5 1:5 9:5 13:5
13:0 14:5 16:15 15:15 11:5 3:5 2:5 1:5 9:5 13:5 16:10
14:0 16:15 15:15 11:5 3:5 2:5 1:5 9:5 13:5 16:10 17:5
16:0 15:15 11:5 3:5 2:5 1:5 9:5 13:5 16:10 17:5 16:5
15:0 11:5 3:5 2:5 1:5 9:5 13:5 16:10 17:5 16:5 15:5
11:0 3:5 2:5 1:5 9:5 13:5 16:10 17:5 16:5 15:5 14:5
3:0 2:5 1:5 9:5 13:5 16:10 17:5 16:5 15:5 14:5 15:5
2:0 1:5 9:5 13:5 16:10 17:5 16:5 15:5 14:5 15:5 3:5
1:0 9:5 13:5 16:10 17:5 16:5 15:5 14:5 15:5 3:5 2:5
9:0 13:5 16:10 17:5 16:5 15:5 14:5 15:5 3:5 2:5 1:5
13:0 16:10 17:5 16:5 15:5 14:5 15:5 3:5 2:5 1:5 13:5
16:0 17:5 16:5 15:5 14:5 15:5 3:5 2:5 1:5 13:5 14:5
17:0 16:5 15:5 14:5 15:5 3:5 2:5 1:5 13:5 14:5 13:5
16:0 15:5 14:5 15:5 3:5 2:5 1:5 13:5 14:5 13:5 16:5
15:0 14:5 15:5 3:5 2:5 1:5 13:5 14:5 13:5 16:5 4:15
14:0 15:5 3:5 2:5 1:5 13:5 14:5 13:5 16:5 4:15 1:5
15:0 3:5 2:5 1:5 13:5 14:5 13:5 16:5 4:15 1:5 3:5
3:0 2:5 1:5 13:5 14:5 13:5 16:5 4:15 1:5 3:5 12:5
2:0 1:5 13:5 14:5 13:5 16:5 4:15 1:5 3:5 12:5 15:5
1:0 13:5 14:5 13:5 16:5 4:15 1:5 3:5 12:5 15:5 17:5
13:0 14:5 13:5 16:5 4:15 1:5 3:5 12:5 15:5 17:5 11:5
14:0 13:5 16:5 4:15 1:5 3:5 12:5 15:5 17:5 11:5 1:5
13:0 16:5 4:15 1:5 3:5 12:5 15:5 17:5 11:5 1:5 6:5
16:0 4:15 1:5 3:5 12:5 15:5 17:5 11:5 1:5 6:5 14:5
4:0 1:5 3:5 12:5 15:5 17:5 11:5 1:5 6:5 14:5 15:15
1:0 3:5 12:5 15:5 17:5 11:5 1:5 6:5 14:5 15:15 16:5
3:0 12:5 15:5 17:5 11:5 1:5 6:5 14:5 15:15 16:5 14:10
12:0 15:5 17:5 11:5 1:5 6:5 14:5 15:15 16:5 14:10 16:5
15:0 17:5 11:5 1:5 6:5 14:5 15:15 16:5 14:10 16:5 11:5
17:0 11:5 1:5 6:5 14:5 15:15 16:5 14:10 16:5 11:5 2:5
11:0 1:5 6:5 14:5 15:15 16:5 14:10 16:5 11:5 2:5 13:15
1:0 6:5 14:5 15:15 16:5 14:10 16:5 11:5 2:5 13:15 14:10
6:0 14:5 15:15 16:5 14:10 16:5 11:5 2:5 13:15 14:10 17:5
14:0 15:15 16:5 14:10 16:5 11:5 2:5 13:15 14:10 17:5 16:5
15:0 16:5 14:10 16:5 11:5 2:5 13:15 14:10 17:5 16:5 15:5
16:0 14:10 16:5 11:5 2:5 13:15 14:10 17:5 16:5 15:5 14:5
14:0 16:5 11:5 2:5 13:15 14:10 17:5 16:5 15:5 14:5 16:5
16:0 11:5 2:5 13:15 14:10 17:5 16:5 15:5 14:5 16:5 6:5
11:0 2:5 13:15 14:10 17:5 16:5 15:5 14:5 16:5 6:5 2:5
2:0 13:15 14:10 17:5 16:5 15:5 14:5 16:5 6:5 2:5 1:5
13:0 14:10 17:5 16:5 15:5 14:5 16:5 6:5 2:5 1:5 6:5
14:0 17:5 16:5 15:5 14:5 16:5 6:5 2:5 1:5 6:5 15:5
17:0 16:5 15:5 14:5 16:5 6:5 2:5 1:5 6:5 15:5 16:5
16:0 15:5 14:5 16:5 6:5 2:5 1:5 6:5 15:5 16:5 14:10
15:0 14:5 16:5 6:5 2:5 1:5 6:5 15:5 16:5 14:10 15:10
14:0 16:5 6:5 2:5 1:5 6:5 15:5 16:5 14:10 15:10 17:5
16:0 6:5 2:5 1:5 6:5 15:5 16:5 14:10 15:10 17:5 2:5
6:0 2:5 1:5 6:5 15:5 16:5 14:10 15:10 17:5 2:5 1:5
2:0 1:5 6:5 15:5 16:5 14:10 15:10 17:5 2:5 1:5 9:5
1:0 6:5 15:5 16:5 14:10 15:10 17:5 2:5 1:5 9:5 15:5
6:0 15:5 16:5 14:10 15:10 17:5 2:5 1:5 9:5 15:5 17:10
15:0 16:5 14:10 15:10 17:5 2:5 1:5 9:5 15:5 17:10 15:5
16:0 14:10 15:10 17:5 2:5 1:5 9:5 15:5 17:10 15:5 16:10
14:0 15:10 17:5 2:5 1:5 9:5 15:5 17:10 15:5 16:10 5:5
15:0 17:5 2:5 1:5 9:5 15:5 17:10 15:5 16:10 5:5 2:5
17:0 2:5 1:5 9:5 15:5 17:10 15:5 16:10 5:5 2:5 14:10
2:0 1:5 9:5 15:5 17:10 15:5 16:10 5:5 2:5 14:10 13:10
1:0 9:5 15:5 17:10 15:5 16:10 5:5 2:5 14:10 13:10 14:5
9:0 15:5 17:10 15:5 16:10 5:5 2:5 14:10 13:10 14:5 16:5
15:0 17:10 15:5 16:10 5:5 2:5 14:10 13:10 14:5 16:5 17:5
17:0 15:5 16:10 5:5 2:5 14:10 13:10 14:5 16:5 17:5 15:5
15:0 16:10 5:5 2:5 14:10 13:10 14:5 16:5 17:5 15:5 11:10
16:0 5:5 2:5 14:10 13:10 14:5 16:5 17:5 15:5 11:10 2:5
5:0 2:5 14:10 13:10 14:5 16:5 17:5 15:5 11:10 2:5 13:15
2:0 14:10 13:10 14:5 16:5 17:5 15:5 11:10 2:5 13:15 14:10
14:0 13:10 14:5 16:5 17:5 15:5 11:10 2:5 13:15 14:10 18:5
13:0 14:5 16:5 17:5 15:5 11:10 2:5 13:15 14:10 18:5 8:5
14:0 16:5 17:5 15:5 11:10 2:5 13:15 14:10 18:5 8:5 1:5
16:0 17:5 15:5 11:10 2:5 13:15 14:10 18:5 8:5 1:5 3:5
17:0 15:5 11:10 2:5 13:15 14:10 18:5 8:5 1:5 3:5 13:5
15:0 11:10 2:5 13:15 14:10 18:5 8:5 1:5 3:5 13:5 14:5
11:0 2:5 13:15 14:10 18:5 8:5 1:5 3:5 13:5 14:5 13:5
2:0 13:15 14:10 18:5 8:5 1:5 3:5 13:5 14:5 13:5 15:10
13:0 14:10 18:5 8:5 1:5 3:5 13:5 14:5 13:5 15:10 17:5
14:0 18:5 8:5 1:5 3:5 13:5 14:5 13:5 15:10 17:5 15:5
18:0 8:5 1:5 3:5 13:5 14:5 13:5 15:10 17:5 15:5 14:5
8:0 1:5 3:5 13:5 14:5 13:5 15:10 17:5 15:5 14:5 16:5
1:0 3:5 13:5 14:5 13:5 15:10 17:5 15:5 14:5 16:5 5:5
3:0 13:5 14:5 13:5 15:10 17:5 15:5 14:5 16:5 5:5 2:5
13:0 14:5 13:5 15:10 17:5 15:5 14:5 16:5 5:5 2:5 1:5
14:0 13:5 15:10 17:5 15:5 14:5 16:5 5:5 2:5 1:5 9:5
13:0 15:10 17:5 15:5 14:5 16:5 5:5 2:5 1:5 9:5 13:5
15:0 17:5 15:5 14:5 16:5 5:5 2:5 1:5 9:5 13:5 16:10
17:0 15:5 14:5 16:5 5:5 2:5 1:5 9:5 13:5 16:10 17:5
15:0 14:5 16:5 5:5 2:5 1:5 9:5 13:5 16:10 17:5 3:5
14:0 16:5 5:5 2:5 1:5 9:5 13:5 16:10 17:5 3:5 1:5
16:0 5:5 2:5 1:5 9:5 13:5 16:10 17:5 3:5 1:5 13:5
5:0 2:5 1:5 9:5 13:5 16:10 17:5 3:5 1:5 13:5 14:5
2:0 1:5 9:5 13:5 16:10 17:5 3:5 1:5 13:5 14:5 15:5
1:0 9:5 13:5 16:10 17:5 3:5 1:5 13:5 14:5 15:5 17:5
9:0 13:5 16:10 17:5 3:5 1:5 13:5 14:5 15:5 17:5 15:5
13:0 16:10 17:5 3:5 1:5 13:5 14:5 15:5 17:5 15:5 17:15
16:0 17:5 3:5 1:5 13:5 14:5 15:5 17:5 15:5 17:15 2:5
17:0 3:5 1:5 13:5 14:5 15:5 17:5 15:5 17:15 2:5 1:5
3:0 1:5 13:5 14:5 15:5 17:5 15:5 17:15 2:5 1:5 8:5
1:0 13:5 14:5 15:5 17:5 15:5 17:15 2:5 1:5 8:5 15:5
13:0 14:5 15:5 17:5 15:5 17:15 2:5 1:5 8:5 15:5 16:5
14:0 15:5 17:5 15:5 17:15 2:5 1:5 8:5 15:5 16:5 15:5
15:0 17:5 15:5 17:15 2:5 1:5 8:5 15:5 16:5 15:5 14:5
17:0 15:5 17:15 2:5 1:5 8:5 15:5 16:5 15:5 14:5 15:5
15:0 17:15 2:5 1:5 8:5 15:5 16:5 15:5 14:5 15:5 17:5
17:0 2:5 1:5 8:5 15:5 16:5 15:5 14:5 15:5 17:5 3:5
2:0 1:5 8:5 15:5 16:5 15:5 14:5 15:5 17:5 3:5 1:5
1:0 8:5 15:5 16:5 15:5 14:5 15:5 17:5 3:5 1:5 3:5
8:0 15:5 16:5 15:5 14:5 15:5 17:5 3:5 1:5 3:5 14:5
15:0 16:5 15:5 14:5 15:5 17:5 3:5 1:5 3:5 14:5 13:5
16:0 15:5 14:5 15:5 17:5 3:5 1:5 3:5 14:5 13:5 15:10
15:0 14:5 15:5 17:5 3:5 1:5 3:5 14:5 13:5 15:10 16:5
14:0 15:5 17:5 3:5 1:5 3:5 14:5 13:5 15:10 16:5 14:10
15:0 17:5 3:5 1:5 3:5 14:5 13:5 15:10 16:5 14:10 16:5
17:0 3:5 1:5 3:5 14:5 13:5 15:10 16:5 14:10 16:5 7:5
3:0 1:5 3:5 14:5 13:5 15:10 16:5 14:10 16:5 7:5 2:5
1:0 3:5 14:5 13:5 15:10 16:5 14:10 16:5 7:5 2:5 1:5
3:0 14:5 13:5 15:10 16:5 14:10 16:5 7:5 2:5 1:5 6:5
14:0 13:5 15:10 16:5 14:10 16:5 7:5 2:5 1:5 6:5 13:5
13:0 15:10 16:5 14:10 16:5 7:5 2:5 1:5 6:5 13:5 15:10
15:0 16:5 14:10 16:5 7:5 2:5 1:5 6:5 13:5 15:10 17:5
16:0 14:10 16:5 7:5 2:5 1:5 6:5 13:5 15:10 17:5 7:5
14:0 16:5 7:5 2:5 1:5 6:5 13:5 15:10 17:5 7:5 1:5
16:0 7:5 2:5 1:5 6:5 13:5 15:10 17:5 7:5 1:5 5:5
7:0 2:5 1:5 6:5 13:5 15:10 17:5 7:5 1:5 5:5 14:5
2:0 1:5 6:5 13:5 15:10 17:5 7:5 1:5 5:5 14:5 17:10
1:0 6:5 13:5 15:10 17:5 7:5 1:5 5:5 14:5 17:10 14:5
6:0 13:5 15:10 17:5 7:5 1:5 5:5 14:5 17:10 14:5 17:10
13:0 15:10 17:5 7:5 1:5 5:5 14:5 17:10 14:5 17:10 5:5
15:0 17:5 7:5 1:5 5:5 14:5 17:10 14:5 17:10 5:5 2:5
17:0 7:5 1:5 5:5 14:5 17:10 14:5 17:10 5:5 2:5 13:10
7:0 1:5 5:5 14:5 17:10 14:5 17:10 5:5 2:5 13:10 14:5
1:0 5:5 14:5 17:10 14:5 17:10 5:5 2:5 13:10 14:5 16:15
5:0 14:5 17:10 14:5 17:10 5:5 2:5 13:10 14:5 16:15 15:15
14:0 17:10 14:5 17:10 5:5 2:5 13:10 14:5 16:15 15:15 11:5
17:0 14:5 17:10 5:5 2:5 13:10 14:5 16:15 15:15 11:5 2:5
14:0 17:10 5:5 2:5 13:10 14:5 16:15 15:15 11:5 2:5 1:10
17:0 5:5 2:5 13:10 14:5 16:15 15:15 11:5 2:5 1:10 13:5
5:0 2:5 13:10 14:5 16:15 15:15 11:5 2:5 1:10 13:5 12:10
2:0 13:10 14:5 16:15 15:15 11:5 2:5 1:10 13:5 12:10 15:5
13:0 14:5 16:15 15:15 11:5 2:5 1:10 13:5 12:10 15:5 16:5
14:0 16:15 15:15 11:5 2:5 1:10 13:5 12:10 15:5 16:5 10:5
16:0 15:15 11:5 2:5 1:10 13:5 12:10 15:5 16:5 10:5 1:5
15:0 11:5 2:5 1:10 13:5 12:10 15:5 16:5 10:5 1:5 6:5
11:0 2:5 1:10 13:5 12:10 15:5 16:5 10:5 1:5 6:5 14:5
2:0 1:10 13:5 12:10 15:5 16:5 10:5 1:5 6:5 14:5 17:10
1:0 13:5 12:10 15:5 16:5 10:5 1:5 6:5 14:5 17:10 6:5
13:0 12:10 15:5 16:5 10:5 1:5 6:5 14:5 17:10 6:5 1:5
12:0 15:5 16:5 10:5 1:5 6:5 14:5 17:10 6:5 1:5 2:5
15:0 16:5 10:5 1:5 6:5 14:5 17:10 6:5 1:5 2:5 13:5
16:0 10:5 1:5 6:5 14:5 17:10 6:5 1:5 2:5 13:5 14:5
10:0 1:5 6:5 14:5 17:10 6:5 1:5 2:5 13:5 14:5 13:5
1:0 6:5 14:5 17:10 6:5 1:5 2:5 13:5 14:5 13:5 15:5
6:0 14:5 17:10 6:5 1:5 2:5 13:5 14:5 13:5 15:5 18:5
14:0 17:10 6:5 1:5 2:5 13:5 14:5 13:5 15:5 18:5 8:5
17:0 6:5 1:5 2:5 13:5 14:5 13:5 15:5 18:5 8:5 1:5
6:0 1:5 2:5 13:5 14:5 13:5 15:5 18:5 8:5 1:5 5:5
1:0 2:5 13:5 14:5 13:5 15:5 18:5 8:5 1:5 5:5 13:5
2:0 13:5 14:5 13:5 15:5 18:5 8:5 1:5 5:5 13:5 14:5
13:0 14:5 13:5 15:5 18:5 8:5 1:5 5:5 13:5 14:5 13:5
14:0 13:5 15:5 18:5 8:5 1:5 5:5 13:5 14:5 13:5 14:5
13:0 15:5 18:5 8:5 1:5 5:5 13:5 14:5 13:5 14:5 16:5
15:0 18:5 8:5 1:5 5:5 13:5 14:5 13:5 14:5 16:5 15:10
18:0 8:5 1:5 5:5 13:5 14:5 13:5 14:5 16:5 15:10 12:10
8:0 1:5 5:5 13:5 14:5 13:5 14:5 16:5 15:10 12:10 2:5
1:0 5:5 13:5 14:5 13:5 14:5 16:5 15:10 12:10 2:5 13:15
5:0 13:5 14:5 13:5 14:5 16:5 15:10 12:10 2:5 13:15 17:15
13:0 14:5 13:5 14:5 16:5 15:10 12:10 2:5 13:15 17:15 15:10
14:0 13:5 14:5 16:5 15:10 12:10 2:5 13:15 17:15 15:10 14:5
13:0 14:5 16:5 15:10 12:10 2:5 13:15 17:15 15:10 14:5 15:5
14:0 16:5 15:10 12:10 2:5 13:15 17:15 15:10 14:5 15:5 12:5
16:0 15:10 12:10 2:5 13:15 17:15 15:10 14:5 15:5 12:5 2:5
15:0 12:10 2:5 13:15 17:15 15:10 14:5 15:5 12:5 2:5 1:5
12:0 2:5 13:15 17:15 15:10 14:5 15:5 12:5 2:5 1:5 3:5
2:0 13:15 17:15 15:10 14:5 15:5 12:5 2:5 1:5 3:5 14:5
13:0 17:15 15:10 14:5 15:5 12:5 2:5 1:5 3:5 14:5 17:10
17:0 15:10 14:5 15:5 12:5 2:5 1:5 3:5 14:5 17:10 14:5
15:0 14:5 15:5 12:5 2:5 1:5 3:5 14:5 17:10 14:5 17:10
14:0 15:5 12:5 2:5 1:5 3:5 14:5 17:10 14:5 17:10 5:5
15:0 12:5 2:5 1:5 3:5 14:5 17:10 14:5 17:10 5:5 2:5
12:0 2:5 1:5 3:5 14:5 17:10 14:5 17:10 5:5 2:5 1:5
2:0 1:5 3:5 14:5 17:10 14:5 17:10 5:5 2:5 1:5 13:5
1:0 3:5 14:5 17:10 14:5 17:10 5:5 2:5 1:5 13:5 14:5
3:0 14:5 17:10 14:5 17:10 5:5 2:5 1:5 13:5 14:5 15:10
14:0 17:10 14:5 17:10 5:5 2:5 1:5 13:5 14:5 15:10 16:5
17:0 14:5 17:10 5:5 2:5 1:5 13:5 14:5 15:10 16:5 15:5
14:0 17:10 5:5 2:5 1:5 13:5 14:5 15:10 16:5 15:5 16:5
17:0 5:5 2:5 1:5 13:5 14:5 15:10 16:5 15:5 16:5 15:5
5:0 2:5 1:5 13:5 14:5 15:10 16:5 15:5 16:5 15:5 11:5
2:0 1:5 13:5 14:5 15:10 16:5 15:5 16:5 15:5 11:5 2:5
1:0 13:5 14:5 15:10 16:5 15:5 16:5 15:5 11:5 2:5 1:5
13:0 14:5 15:10 16:5 15:5 16:5 15:5 11:5 2:5 1:5 13:10
14:0 15:10 16:5 15:5 16:5 15:5 11:5 2:5 1:5 13:10 14:15
15:0 16:5 15:5 16:5 15:5 11:5 2:5 1:5 13:10 14:15 17:5
16:0 15:5 16:5 15:5 11:5 2:5 1:5 13:10 14:15 17:5 16:5
15:0 16:5 15:5 11:5 2:5 1:5 13:10 14:15 17:5 16:5 15:5
16:0 15:5 11:5 2:5 1:5 13:10 14:15 17:5 16:5 15:5 14:5
15:0 11:5 2:5 1:5 13:10 14:15 17:5 16:5 15:5 14:5 16:5
11:0 2:5 1:5 13:10 14:15 17:5 16:5 15:5 14:5 16:5 5:5
2:0 1:5 13:10 14:15 17:5 16:5 15:5 14:5 16:5 5:5 2:5
1:0 13:10 14:15 17:5 16:5 15:5 14:5 16:5 5:5 2:5 1:5
13:0 14:15 17:5 16:5 15:5 14:5 16:5 5:5 2:5 1:5 5:5
14:0 17:5 16:5 15:5 14:5 16:5 5:5 2:5 1:5 5:5 14:5
17:0 16:5 15:5 14:5 16:5 5:5 2:5 1:5 5:5 14:5 13:5
16:0 15:5 14:5 16:5 5:5 2:5 1:5 5:5 14:5 13:5 15:5
15:0 14:5 16:5 5:5 2:5 1:5 5:5 14:5 13:5 15:5 16:5
14:0 16:5 5:5 2:5 1:5 5:5 14:5 13:5 15:5 16:5 17:5
16:0 5:5 2:5 1:5 5:5 14:5 13:5 15:5 16:5 17:5 7:5
5:0 2:5 1:5 5:5 14:5 13:5 15:5 16:5 17:5 7:5 1:5
2:0 1:5 5:5 14:5 13:5 15:5 16:5 17:5 7:5 1:5 2:5
1:0 5:5 14:5 13:5 15:5 16:5 17:5 7:5 1:5 2:5 12:5
5:0 14:5 13:5 15:5 16:5 17:5 7:5 1:5 2:5 12:5 14:5
14:0 13:5 15:5 16:5 17:5 7:5 1:5 2:5 12:5 14:5 15:5
13:0 15:5 16:5 17:5 7:5 1:5 2:5 12:5 14:5 15:5 17:5
15:0 16:5 17:5 7:5 1:5 2:5 12:5 14:5 15:5 17:5 15:5
16:0 17:5 7:5 1:5 2:5 12:5 14:5 15:5 17:5 15:5 14:5
17:0 7:5 1:5 2:5 12:5 14:5 15:5 17:5 15:5 14:5 15:5
7:0 1:5 2:5 12:5 14:5 15:5 17:5 15:5 14:5 15:5 17:5
1:0 2:5 12:5 14:5 15:5 17:5 15:5 14:5 15:5 17:5 4:5
2:0 12:5 14:5 15:5 17:5 15:5 14:5 15:5 17:5 4:5 1:5
12:0 14:5 15:5 17:5 15:5 14:5 15:5 17:5 4:5 1:5 6:5
14:0 15:5 17:5 15:5 14:5 15:5 17:5 4:5 1:5 6:5 14:5
15:0 17:5 15:5 14:5 15:5 17:5 4:5 1:5 6:5 14:5 13:10
17:0 15:5 14:5 15:5 17:5 4:5 1:5 6:5 14:5 13:10 16:5
15:0 14:5 15:5 17:5 4:5 1:5 6:5 14:5 13:10 16:5 15:15
14:0 15:5 17:5 4:5 1:5 6:5 14:5 13:10 16:5 15:15 16:5
15:0 17:5 4:5 1:5 6:5 14:5 13:10 16:5 15:15 16:5 8:5
17:0 4:5 1:5 6:5 14:5 13:10 16:5 15:15 16:5 8:5 2:5
4:0 1:5 6:5 14:5 13:10 16:5 15:15 16:5 8:5 2:5 13:15
1:0 6:5 14:5 13:10 16:5 15:15 16:5 8:5 2:5 13:15 14:10
6:0 14:5 13:10 16:5 15:15 16:5 8:5 2:5 13:15 14:10 17:5
14:0 13:10 16:5 15:15 16:5 8:5 2:5 13:15 14:10 17:5 2:10
13:0 16:5 15:15 16:5 8:5 2:5 13:15 14:10 17:5 2:10 14:10
16:0 15:15 16:5 8:5 2:5 13:15 14:10 17:5 2:10 14:10 16:5
15:0 16:5 8:5 2:5 13:15 14:10 17:5 2:10 14:10 16:5 17:5
16:0 8:5 2:5 13:15 14:10 17:5 2:10 14:10 16:5 17:5 14:5
8:0 2:5 13:15 14:10 17:5 2:10 14:10 16:5 17:5 14:5 15:10
2:0 13:15 14:10 17:5 2:10 14:10 16:5 17:5 14:5 15:10 14:5
13:0 14:10 17:5 2:10 14:10 16:5 17:5 14:5 15:10 14:5 2:5
14:0 17:5 2:10 14:10 16:5 17:5 14:5 15:10 14:5 2:5 1:5
17:0 2:10 14:10 16:5 17:5 14:5 15:10 14:5 2:5 1:5 9:5
2:0 14:10 16:5 17:5 14:5 15:10 14:5 2:5 1:5 9:5 15:5
14:0 16:5 17:5 14:5 15:10 14:5 2:5 1:5 9:5 15:5 13:5
16:0 17:5 14:5 15:10 14:5 2:5 1:5 9:5 15:5 13:5 14:5
17:0 14:5 15:10 14:5 2:5 1:5 9:5 15:5 13:5 14:5 15:5
14:0 15:10 14:5 2:5 1:5 9:5 15:5 13:5 14:5 15:5 17:5
15:0 14:5 2:5 1:5 9:5 15:5 13:5 14:5 15:5 17:5 16:5
14:0 2:5 1:5 9:5 15:5 13:5 14:5 15:5 17:5 16:5 15:5
2:0 1:5 9:5 15:5 13:5 14:5 15:5 17:5 16:5 15:5 16:5
1:0 9:5 15:5 13:5 14:5 15:5 17:5 16:5 15:5 16:5 3:5
9:0 15:5 13:5 14:5 15:5 17:5 16:5 15:5 16:5 3:5 2:5
15:0 13:5 14:5 15:5 17:5 16:5 15:5 16:5 3:5 2:5 1:5
13:0 14:5 15:5 17:5 16:5 15:5 16:5 3:5 2:5 1:5 6:5
14:0 15:5 17:5 16:5 15:5 16:5 3:5 2:5 1:5 6:5 13:5
15:0 17:5 16:5 15:5 16:5 3:5 2:5 1:5 6:5 13:5 12:5
17:0 16:5 15:5 16:5 3:5 2:5 1:5 6:5 13:5 12:5 14:5
16:0 15:5 16:5 3:5 2:5 1:5 6:5 13:5 12:5 14:5 17:5
15:0 16:5 3:5 2:5 1:5 6:5 13:5 12:5 14:5 17:5 16:5
16:0 3:5 2:5 1:5 6:5 13:5 12:5 14:5 17:5 16:5 15:5
3:0 2:5 1:5 6:5 13:5 12:5 14:5 17:5 16:5 15:5 14:5
2:0 1:5 6:5 13:5 12:5 14:5 17:5 16:5 15:5 14:5 16:5
1:0 6:5 13:5 12:5 14:5 17:5 16:5 15:5 14:5 16:5 5:5
6:0 13:5 12:5 14:5 17:5 16:5 15:5 14:5 16:5 5:5 2:5
13:0 12:5 14:5 17:5 16:5 15:5 14:5 16:5 5:5 2:5 1:5
12:0 14:5 17:5 16:5 15:5 14:5 16:5 5:5 2:5 1:5 9:5
14:0 17:5 16:5 15:5 14:5 16:5 5:5 2:5 1:5 9:5 15:5
17:0 16:5 15:5 14:5 16:5 5:5 2:5 1:5 9:5 15:5 16:5
16:0 15:5 14:5 16:5 5:5 2:5 1:5 9:5 15:5 16:5 15:5
15:0 14:5 16:5 5:5 2:5 1:5 9:5 15:5 16:5 15:5 14:5
14:0 16:5 5:5 2:5 1:5 9:5 15:5 16:5 15:5 14:5 16:10
16:0 5:5 2:5 1:5 9:5 15:5 16:5 15:5 14:5 16:10 11:5
5:0 2:5 1:5 9:5 15:5 16:5 15:5 14:5 16:10 11:5 2:5
2:0 1:5 9:5 15:5 16:5 15:5 14:5 16:10 11:5 2:5 1:5
1:0 9:5 15:5 16:5 15:5 14:5 16:10 11:5 2:5 1:5 14:5
9:0 15:5 16:5 15:5 14:5 16:10 11:5 2:5 1:5 14:5 16:20
15:0 16:5 15:5 14:5 16:10 11:5 2:5 1:5 14:5 16:20 15:10
16:0 15:5 14:5 16:10 11:5 2:5 1:5 14:5 16:20 15:10 11:10
15:0 14:5 16:10 11:5 2:5 1:5 14:5 16:20 15:10 11:10 2:5
14:0 16:10 11:5 2:5 1:5 14:5 16:20 15:10 11:10 2:5 1:10
16:0 11:5 2:5 1:5 14:5 16:20 15:10 11:10 2:5 1:10 9:5
11:0 2:5 1:5 14:5 16:20 15:10 11:10 2:5 1:10 9:5 13:5
2:0 1:5 14:5 16:20 15:10 11:10 2:5 1:10 9:5 13:5 16:10
1:0 14:5 16:20 15:10 11:10 2:5 1:10 9:5 13:5 16:10 17:5
14:0 16:20 15:10 11:10 2:5 1:10 9:5 13:5 16:10 17:5 3:5
16:0 15:10 11:10 2:5 1:10 9:5 13:5 16:10 17:5 3:5 1:5
15:0 11:10 2:5 1:10 9:5 13:5 16:10 17:5 3:5 1:5 13:5
11:0 2:5 1:10 9:5 13:5 16:10 17:5 3:5 1:5 13:5 14:5
2:0 1:10 9:5 13:5 16:10 17:5 3:5 1:5 13:5 14:5 13:5
1:0 9:5 13:5 16:10 17:5 3:5 1:5 13:5 14:5 13:5 15:5
9:0 13:5 16:10 17:5 3:5 1:5 13:5 14:5 13:5 15:5 16:5
13:0 16:10 17:5 3:5 1:5 13:5 14:5 13:5 15:5 16:5 6:10
16:0 17:5 3:5 1:5 13:5 14:5 13:5 15:5 16:5 6:10 1:5
17:0 3:5 1:5 13:5 14:5 13:5 15:5 16:5 6:10 1:5 4:5
3:0 1:5 13:5 14:5 13:5 15:5 16:5 6:10 1:5 4:5 12:5
1:0 13:5 14:5 13:5 15:5 16:5 6:10 1:5 4:5 12:5 14:5
13:0 14:5 13:5 15:5 16:5 6:10 1:5 4:5 12:5 14:5 16:5
14:0 13:5 15:5 16:5 6:10 1:5 4:5 12:5 14:5 16:5 17:5
13:0 15:5 16:5 6:10 1:5 4:5 12:5 14:5 16:5 17:5 15:5
15:0 16:5 6:10 1:5 4:5 12:5 14:5 16:5 17:5 15:5 14:5
16:0 6:10 1:5 4:5 12:5 14:5 16:5 17:5 15:5 14:5 15:5
6:0 1:5 4:5 12:5 14:5 16:5 17:5 15:5 14:5 15:5 8:5
1:0 4:5 12:5 14:5 16:5 17:5 15:5 14:5 15:5 8:5 3:5
4:0 12:5 14:5 16:5 17:5 15:5 14:5 15:5 8:5 3:5 1:5
12:0 14:5 16:5 17:5 15:5 14:5 15:5 8:5 3:5 1:5 6:5
14:0 16:5 17:5 15:5 14:5 15:5 8:5 3:5 1:5 6:5 14:5
16:0 17:5 15:5 14:5 15:5 8:5 3:5 1:5 6:5 14:5 15:5
17:0 15:5 14:5 15:5 8:5 3:5 1:5 6:5 14:5 15:5 16:5
15:0 14:5 15:5 8:5 3:5 1:5 6:5 14:5 15:5 16:5 15:5
14:0 15:5 8:5 3:5 1:5 6:5 14:5 15:5 16:5 15:5 14:5
15:0 8:5 3:5 1:5 6:5 14:5 15:5 16:5 15:5 14:5 17:5
8:0 3:5 1:5 6:5 14:5 15:5 16:5 15:5 14:5 17:5 5:5
3:0 1:5 6:5 14:5 15:5 16:5 15:5 14:5 17:5 5:5 2:5
1:0 6:5 14:5 15:5 16:5 15:5 14:5 17:5 5:5 2:5 13:10
6:0 14:5 15:5 16:5 15:5 14:5 17:5 5:5 2:5 13:10 15:5
14:0 15:5 16:5 15:5 14:5 17:5 5:5 2:5 13:10 15:5 14:15
15:0 16:5 15:5 14:5 17:5 5:5 2:5 13:10 15:5 14:15 15:5
16:0 15:5 14:5 17:5 5:5 2:5 13:10 15:5 14:15 15:5 17:5
15:0 14:5 17:5 5:5 2:5 13:10 15:5 14:15 15:5 17:5 3:5
14:0 17:5 5:5 2:5 13:10 15:5 14:15 15:5 17:5 3:5 2:5
17:0 5:5 2:5 13:10 15:5 14:15 15:5 17:5 3:5 2:5 15:10
5:0 2:5 13:10 15:5 14:15 15:5 17:5 3:5 2:5 15:10 17:10
2:0 13:10 15:5 14:15 15:5 17:5 3:5 2:5 15:10 17:10 14:5
13:0 15:5 14:15 15:5 17:5 3:5 2:5 15:10 17:10 14:5 15:10
15:0 14:15 15:5 17:5 3:5 2:5 15:10 17:10 14:5 15:10 2:10
14:0 15:5 17:5 3:5 2:5 15:10 17:10 14:5 15:10 2:10 1:5
15:0 17:5 3:5 2:5 15:10 17:10 14:5 15:10 2:10 1:5 6:5
17:0 3:5 2:5 15:10 17:10 14:5 15:10 2:10 1:5 6:5 14:5
3:0 2:5 15:10 17:10 14:5 15:10 2:10 1:5 6:5 14:5 16:15
2:0 15:10 17:10 14:5 15:10 2:10 1:5 6:5 14:5 16:15 15:15
15:0 17:10 14:5 15:10 2:10 1:5 6:5 14:5 16:15 15:15 14:5
17:0 14:5 15:10 2:10 1:5 6:5 14:5 16:15 15:15 14:5 3:5
14:0 15:10 2:10 1:5 6:5 14:5 16:15 15:15 14:5 3:5 2:5
15:0 2:10 1:5 6:5 14:5 16:15 15:15 14:5 3:5 2:5 1:5
2:0 1:5 6:5 14:5 16:15 15:15 14:5 3:5 2:5 1:5 13:5
1:0 6:5 14:5 16:15 15:15 14:5 3:5 2:5 1:5 13:5 14:15
6:0 14:5 16:15 15:15 14:5 3:5 2:5 1:5 13:5 14:15 17:5
14:0 16:15 15:15 14:5 3:5 2:5 1:5 13:5 14:15 17:5 7:5
16:0 15:15 14:5 3:5 2:5 1:5 13:5 14:15 17:5 7:5 1:5
15:0 14:5 3:5 2:5 1:5 13:5 14:15 17:5 7:5 1:5 6:5
14:0 3:5 2:5 1:5 13:5 14:15 17:5 7:5 1:5 6:5 14:5
3:0 2:5 1:5 13:5 14:15 17:5 7:5 1:5 6:5 14:5 15:5
2:0 1:5 13:5 14:15 17:5 7:5 1:5 6:5 14:5 15:5 17:5
1:0 13:5 14:15 17:5 7:5 1:5 6:5 14:5 15:5 17:5 14:5
13:0 14:15 17:5 7:5 1:5 6:5 14:5 15:5 17:5 14:5 17:10
14:0 17:5 7:5 1:5 6:5 14:5 15:5 17:5 14:5 17:10 3:5
17:0 7:5 1:5 6:5 14:5 15:5 17:5 14:5 17:10 3:5 2:5
7:0 1:5 6:5 14:5 15:5 17:5 14:5 17:10 3:5 2:5 13:10
1:0 6:5 14:5 15:5 17:5 14:5 17:10 3:5 2:5 13:10 14:5
6:0 14:5 15:5 17:5 14:5 17:10 3:5 2:5 13:10 14:5 13:5
14:0 15:5 17:5 14:5 17:10 3:5 2:5 13:10 14:5 13:5 14:5
15:0 17:5 14:5 17:10 3:5 2:5 13:10 14:5 13:5 14:5 16:5
17:0 14:5 17:10 3:5 2:5 13:10 14:5 13:5 14:5 16:5 17:5
14:0 17:10 3:5 2:5 13:10 14:5 13:5 14:5 16:5 17:5 15:5
17:0 3:5 2:5 13:10 14:5 13:5 14:5 16:5 17:5 15:5 16:10
3:0 2:5 13:10 14:5 13:5 14:5 16:5 17:5 15:5 16:10 3:5
2:0 13:10 14:5 13:5 14:5 16:5 17:5 15:5 16:10 3:5 2:5
13:0 14:5 13:5 14:5 16:5 17:5 15:5 16:10 3:5 2:5 1:5
14:0 13:5 14:5 16:5 17:5 15:5 16:10 3:5 2:5 1:5 9:5
13:0 14:5 16:5 17:5 15:5 16:10 3:5 2:5 1:5 9:5 13:5
14:0 16:5 17:5 15:5 16:10 3:5 2:5 1:5 9:5 13:5 15:10
16:0 17:5 15:5 16:10 3:5 2:5 1:5 9:5 13:5 15:10 17:5
17:0 15:5 16:10 3:5 2:5 1:5 9:5 13:5 15:10 17:5 16:5
15:0 16:10 3:5 2:5 1:5 9:5 13:5 15:10 17:5 16:5 14:5
16:0 3:5 2:5 1:5 9:5 13:5 15:10 17:5 16:5 14:5 17:10
3:0 2:5 1:5 9:5 13:5 15:10 17:5 16:5 14:5 17:10 3:5
2:0 1:5 9:5 13:5 15:10 17:5 16:5 14:5 17:10 3:5 2:5
1:0 9:5 13:5 15:10 17:5 16:5 14:5 17:10 3:5 2:5 1:5
9:0 13:5 15:10 17:5 16:5 14:5 17:10 3:5 2:5 1:5 10:5
13:0 15:10 17:5 16:5 14:5 17:10 3:5 2:5 1:5 10:5 14:5
15:0 17:5 16:5 14:5 17:10 3:5 2:5 1:5 10:5 14:5 16:5
17:0 16:5 14:5 17:10 3:5 2:5 1:5 10:5 14:5 16:5 14:10
16:0 14:5 17:10 3:5 2:5 1:5 10:5 14:5 16:5 14:10 15:5
14:0 17:10 3:5 2:5 1:5 10:5 14:5 16:5 14:10 15:5 12:5
17:0 3:5 2:5 1:5 10:5 14:5 16:5 14:10 15:5 12:5 3:5
3:0 2:5 1:5 10:5 14:5 16:5 14:10 15:5 12:5 3:5 1:5
2:0 1:5 10:5 14:5 16:5 14:10 15:5 12:5 3:5 1:5 5:5
1:0 10:5 14:5 16:5 14:10 15:5 12:5 3:5 1:5 5:5 14:5
10:0 14:5 16:5 14:10 15:5 12:5 3:5 1:5 5:5 14:5 13:10
14:0 16:5 14:10 15:5 12:5 3:5 1:5 5:5 14:5 13:10 14:5
16:0 14:10 15:5 12:5 3:5 1:5 5:5 14:5 13:10 14:5 16:5
14:0 15:5 12:5 3:5 1:5 5:5 14:5 13:10 14:5 16:5 15:10
15:0 12:5 3:5 1:5 5:5 14:5 13:10 14:5 16:5 15:10 14:10
12:0 3:5 1:5 5:5 14:5 13:10 14:5 16:5 15:10 14:10 2:5
3:0 1:5 5:5 14:5 13:10 14:5 16:5 15:10 14:10 2:5 1:10
1:0 5:5 14:5 13:10 14:5 16:5 15:10 14:10 2:5 1:10 12:5
5:0 14:5 13:10 14:5 16:5 15:10 14:10 2:5 1:10 12:5 13:5
14:0 13:10 14:5 16:5 15:10 14:10 2:5 1:10 12:5 13:5 17:10
13:0 14:5 16:5 15:10 14:10 2:5 1:10 12:5 13:5 17:10 16:10
14:0 16:5 15:10 14:10 2:5 1:10 12:5 13:5 17:10 16:10 14:5
16:0 15:10 14:10 2:5 1:10 12:5 13:5 17:10 16:10 14:5 15:5
15:0 14:10 2:5 1:10 12:5 13:5 17:10 16:10 14:5 15:5 14:5
14:0 2:5 1:10 12:5 13:5 17:10 16:10 14:5 15:5 14:5 3:5
2:0 1:10 12:5 13:5 17:10 16:10 14:5 15:5 14:5 3:5 1:5
1:0 12:5 13:5 17:10 16:10 14:5 15:5 14:5 3:5 1:5 2:5
12:0 13:5 17:10 16:10 14:5 15:5 14:5 3:5 1:5 2:5 14:5
13:0 17:10 16:10 14:5 15:5 14:5 3:5 1:5 2:5 14:5 15:5
17:0 16:10 14:5 15:5 14:5 3:5 1:5 2:5 14:5 15:5 16:5
16:0 14:5 15:5 14:5 3:5 1:5 2:5 14:5 15:5 16:5 14:5
14:0 15:5 14:5 3:5 1:5 2:5 14:5 15:5 16:5 14:5 17:10
15:0 14:5 3:5 1:5 2:5 14:5 15:5 16:5 14:5 17:10 6:5
14:0 3:5 1:5 2:5 14:5 15:5 16:5 14:5 17:10 6:5 2:5
3:0 1:5 2:5 14:5 15:5 16:5 14:5 17:10 6:5 2:5 1:5
1:0 2:5 14:5 15:5 16:5 14:5 17:10 6:5 2:5 1:5 13:5
2:0 14:5 15:5 16:5 14:5 17:10 6:5 2:5 1:5 13:5 14:5
14:0 15:5 16:5 14:5 17:10 6:5 2:5 1:5 13:5 14:5 13:5
15:0 16:5 14:5 17:10 6:5 2:5 1:5 13:5 14:5 13:5 14:5
16:0 14:5 17:10 6:5 2:5 1:5 13:5 14:5 13:5 14:5 15:5
14:0 17:10 6:5 2:5 1:5 13:5 14:5 13:5 14:5 15:5 16:5
17:0 6:5 2:5 1:5 13:5 14:5 13:5 14:5 15:5 16:5 3:15
6:0 2:5 1:5 13:5 14:5 13:5 14:5 15:5 16:5 3:15 1:5
2:0 1:5 13:5 14:5 13:5 14:5 15:5 16:5 3:15 1:5 4:5
1:0 13:5 14:5 13:5 14:5 15:5 16:5 3:15 1:5 4:5 14:5
13:0 14:5 13:5 14:5 15:5 16:5 3:15 1:5 4:5 14:5 16:15
14:0 13:5 14:5 15:5 16:5 3:15 1:5 4:5 14:5 16:15 17:5
13:0 14:5 15:5 16:5 3:15 1:5 4:5 14:5 16:15 17:5 15:5
14:0 15:5 16:5 3:15 1:5 4:5 14:5 16:15 17:5 15:5 16:10
15:0 16:5 3:15 1:5 4:5 14:5 16:15 17:5 15:5 16:10 3:5
16:0 3:15 1:5 4:5 14:5 16:15 17:5 15:5 16:10 3:5 2:5
3:0 1:5 4:5 14:5 16:15 17:5 15:5 16:10 3:5 2:5 1:5
1:0 4:5 14:5 16:15 17:5 15:5 16:10 3:5 2:5 1:5 9:5
4:0 14:5 16:15 17:5 15:5 16:10 3:5 2:5 1:5 9:5 13:5
14:0 16:15 17:5 15:5 16:10 3:5 2:5 1:5 9:5 13:5 16:10
16:0 17:5 15:5 16:10 3:5 2:5 1:5 9:5 13:5 16:10 17:5
17:0 15:5 16:10 3:5 2:5 1:5 9:5 13:5 16:10 17:5 7:5
15:0 16:10 3:5 2:5 1:5 9:5 13:5 16:10 17:5 7:5 1:5
16:0 3:5 2:5 1:5 9:5 13:5 16:10 17:5 7:5 1:5 10:5
3:0 2:5 1:5 9:5 13:5 16:10 17:5 7:5 1:5 10:5 15:5
2:0 1:5 9:5 13:5 16:10 17:5 7:5 1:5 10:5 15:5 16:5
1:0 9:5 13:5 16:10 17:5 7:5 1:5 10:5 15:5 16:5 15:5
9:0 13:5 16:10 17:5 7:5 1:5 10:5 15:5 16:5 15:5 14:5
13:0 16:10 17:5 7:5 1:5 10:5 15:5 16:5 15:5 14:5 15:5
16:0 17:5 7:5 1:5 10:5 15:5 16:5 15:5 14:5 15:5 16:5
17:0 7:5 1:5 10:5 15:5 16:5 15:5 14:5 15:5 16:5 8:5
7:0 1:5 10:5 15:5 16:5 15:5 14:5 15:5 16:5 8:5 1:5
1:0 10:5 15:5 16:5 15:5 14:5 15:5 16:5 8:5 1:5 3:5
10:0 15:5 16:5 15:5 14:5 15:5 16:5 8:5 1:5 3:5 14:5
15:0 16:5 15:5 14:5 15:5 16:5 8:5 1:5 3:5 14:5 16:10
16:0 15:5 14:5 15:5 16:5 8:5 1:5 3:5 14:5 16:10 15:5
15:0 14:5 15:5 16:5 8:5 1:5 3:5 14:5 16:10 15:5 14:5
14:0 15:5 16:5 8:5 1:5 3:5 14:5 16:10 15:5 14:5 15:5
15:0 16:5 8:5 1:5 3:5 14:5 16:10 15:5 14:5 15:5 17:5
16:0 8:5 1:5 3:5 14:5 16:10 15:5 14:5 15:5 17:5 3:5
8:0 1:5 3:5 14:5 16:10 15:5 14:5 15:5 17:5 3:5 1:5
1:0 3:5 14:5 16:10 15:5 14:5 15:5 17:5 3:5 1:5 4:5
3:0 14:5 16:10 15:5 14:5 15:5 17:5 3:5 1:5 4:5 14:5
14:0 16:10 15:5 14:5 15:5 17:5 3:5 1:5 4:5 14:5 17:10
16:0 15:5 14:5 15:5 17:5 3:5 1:5 4:5 14:5 17:10 14:5
15:0 14:5 15:5 17:5 3:5 1:5 4:5 14:5 17:10 14:5 16:10
14:0 15:5 17:5 3:5 1:5 4:5 14:5 17:10 14:5 16:10 11:5
15:0 17:5 3:5 1:5 4:5 14:5 17:10 14:5 16:10 11:5 2:5
17:0 3:5 1:5 4:5 14:5 17:10 14:5 16:10 11:5 2:5 1:5
3:0 1:5 4:5 14:5 17:10 14:5 16:10 11:5 2:5 1:5 14:5
1:0 4:5 14:5 17:10 14:5 16:10 11:5 2:5 1:5 14:5 16:15
4:0 14:5 17:10 14:5 16:10 11:5 2:5 1:5 14:5 16:15 17:5
14:0 17:10 14:5 16:10 11:5 2:5 1:5 14:5 16:15 17:5 13:5
17:0 14:5 16:10 11:5 2:5 1:5 14:5 16:15 17:5 13:5 2:5
14:0 16:10 11:5 2:5 1:5 14:5 16:15 17:5 13:5 2:5 1:5
16:0 11:5 2:5 1:5 14:5 16:15 17:5 13:5 2:5 1:5 6:5
11:0 2:5 1:5 14:5 16:15 17:5 13:5 2:5 1:5 6:5 13:5
2:0 1:5 14:5 16:15 17:5 13:5 2:5 1:5 6:5 13:5 15:5
1:0 14:5 16:15 17:5 13:5 2:5 1:5 6:5 13:5 15:5 16:5
14:0 16:15 17:5 13:5 2:5 1:5 6:5 13:5 15:5 16:5 14:10
16:0 17:5 13:5 2:5 1:5 6:5 13:5 15:5 16:5 14:10 16:10
17:0 13:5 2:5 1:5 6:5 13:5 15:5 16:5 14:10 16:10 5:5
13:0 2:5 1:5 6:5 13:5 15:5 16:5 14:10 16:10 5:5 2:5
2:0 1:5 6:5 13:5 15:5 16:5 14:10 16:10 5:5 2:5 1:5
1:0 6:5 13:5 15:5 16:5 14:10 16:10 5:5 2:5 1:5 13:5
6:0 13:5 15:5 16:5 14:10 16:10 5:5 2:5 1:5 13:5 14:5
13:0 15:5 16:5 14:10 16:10 5:5 2:5 1:5 13:5 14:5 13:5
15:0 16:5 14:10 16:10 5:5 2:5 1:5 13:5 14:5 13:5 14:5
16:0 14:10 16:10 5:5 2:5 1:5 13:5 14:5 13:5 14:5 16:5
14:0 16:10 5:5 2:5 1:5 13:5 14:5 13:5 14:5 16:5 15:15
16:0 5:5 2:5 1:5 13:5 14:5 13:5 14:5 16:5 15:15 16:5
5:0 2:5 1:5 13:5 14:5 13:5 14:5 16:5 15:15 16:5 7:5
2:0 1:5 13:5 14:5 13:5 14:5 16:5 15:15 16:5 7:5 2:5
1:0 13:5 14:5 13:5 14:5 16:5 15:15 16:5 7:5 2:5 1:5
13:0 14:5 13:5 14:5 16:5 15:15 16:5 7:5 2:5 1:5 2:5
14:0 13:5 14:5 16:5 15:15 16:5 7:5 2:5 1:5 2:5 13:5
13:0 14:5 16:5 15:15 16:5 7:5 2:5 1:5 2:5 13:5 15:10
14:0 16:5 15:15 16:5 7:5 2:5 1:5 2:5 13:5 15:10 17:5
16:0 15:15 16:5 7:5 2:5 1:5 2:5 13:5 15:10 17:5 6:5
15:0 16:5 7:5 2:5 1:5 2:5 13:5 15:10 17:5 6:5 1:5
16:0 7:5 2:5 1:5 2:5 13:5 15:10 17:5 6:5 1:5 6:5
7:0 2:5 1:5 2:5 13:5 15:10 17:5 6:5 1:5 6:5 15:5
2:0 1:5 2:5 13:5 15:10 17:5 6:5 1:5 6:5 15:5 16:5
1:0 2:5 13:5 15:10 17:5 6:5 1:5 6:5 15:5 16:5 13:10
2:0 13:5 15:10 17:5 6:5 1:5 6:5 15:5 16:5 13:10 14:5
13:0 15:10 17:5 6:5 1:5 6:5 15:5 16:5 13:10 14:5 16:5
15:0 17:5 6:5 1:5 6:5 15:5 16:5 13:10 14:5 16:5 11:5
17:0 6:5 1:5 6:5 15:5 16:5 13:10 14:5 16:5 11:5 2:5
6:0 1:5 6:5 15:5 16:5 13:10 14:5 16:5 11:5 2:5 1:5
1:0 6:5 15:5 16:5 13:10 14:5 16:5 11:5 2:5 1:5 13:5
6:0 15:5 16:5 13:10 14:5 16:5 11:5 2:5 1:5 13:5 14:5
15:0 16:5 13:10 14:5 16:5 11:5 2:5 1:5 13:5 14:5 13:5
16:0 13:10 14:5 16:5 11:5 2:5 1:5 13:5 14:5 13:5 14:5
13:0 14:5 16:5 11:5 2:5 1:5 13:5 14:5 13:5 14:5 16:5
14:0 16:5 11:5 2:5 1:5 13:5 14:5 13:5 14:5 16:5 15:10
16:0 11:5 2:5 1:5 13:5 14:5 13:5 14:5 16:5 15:10 17:10
11:0 2:5 1:5 13:5 14:5 13:5 14:5 16:5 15:10 17:10 3:5
2:0 1:5 13:5 14:5 13:5 14:5 16:5 15:10 17:10 3:5 2:5
1:0 13:5 14:5 13:5 14:5 16:5 15:10 17:10 3:5 2:5 1:5
13:0 14:5 13:5 14:5 16:5 15:10 17:10 3:5 2:5 1:5 13:5
14:0 13:5 14:5 16:5 15:10 17:10 3:5 2:5 1:5 13:5 16:15
13:0 14:5 16:5 15:10 17:10 3:5 2:5 1:5 13:5 16:15 17:5
14:0 16:5 15:10 17:10 3:5 2:5 1:5 13:5 16:15 17:5 1:5
16:0 15:10 17:10 3:5 2:5 1:5 13:5 16:15 17:5 1:5 13:10
15:0 17:10 3:5 2:5 1:5 13:5 16:15 17:5 1:5 13:10 14:5
17:0 3:5 2:5 1:5 13:5 16:15 17:5 1:5 13:10 14:5 13:5
3:0 2:5 1:5 13:5 16:15 17:5 1:5 13:10 14:5 13:5 15:5
2:0 1:5 13:5 16:15 17:5 1:5 13:10 14:5 13:5 15:5 16:5
1:0 13:5 16:15 17:5 1:5 13:10 14:5 13:5 15:5 16:5 4:10
13:0 16:15 17:5 1:5 13:10 14:5 13:5 15:5 16:5 4:10 1:5
16:0 17:5 1:5 13:10 14:5 13:5 15:5 16:5 4:10 1:5 3:5
17:0 1:5 13:10 14:5 13:5 15:5 16:5 4:10 1:5 3:5 12:5
1:0 13:10 14:5 13:5 15:5 16:5 4:10 1:5 3:5 12:5 14:5
13:0 14:5 13:5 15:5 16:5 4:10 1:5 3:5 12:5 14:5 16:5
14:0 13:5 15:5 16:5 4:10 1:5 3:5 12:5 14:5 16:5 17:5
13:0 15:5 16:5 4:10 1:5 3:5 12:5 14:5 16:5 17:5 14:5
15:0 16:5 4:10 1:5 3:5 12:5 14:5 16:5 17:5 14:5 15:10
16:0 4:10 1:5 3:5 12:5 14:5 16:5 17:5 14:5 15:10 9:5
4:0 1:5 3:5 12:5 14:5 16:5 17:5 14:5 15:10 9:5 2:5
1:0 3:5 12:5 14:5 16:5 17:5 14:5 15:10 9:5 2:5 1:5
3:0 12:5 14:5 16:5 17:5 14:5 15:10 9:5 2:5 1:5 6:5
12:0 14:5 16:5 17:5 14:5 15:10 9:5 2:5 1:5 6:5 14:5
14:0 16:5 17:5 14:5 15:10 9:5 2:5 1:5 6:5 14:5 16:15
16:0 17:5 14:5 15:10 9:5 2:5 1:5 6:5 14:5 16:15 6:10
17:0 14:5 15:10 9:5 2:5 1:5 6:5 14:5 16:15 6:10 2:5
14:0 15:10 9:5 2:5 1:5 6:5 14:5 16:15 6:10 2:5 4:5
15:0 9:5 2:5 1:5 6:5 14:5 16:15 6:10 2:5 4:5 13:5
9:0 2:5 1:5 6:5 14:5 16:15 6:10 2:5 4:5 13:5 14:5
2:0 1:5 6:5 14:5 16:15 6:10 2:5 4:5 13:5 14:5 18:5
1:0 6:5 14:5 16:15 6:10 2:5 4:5 13:5 14:5 18:5 16:5
6:0 14:5 16:15 6:10 2:5 4:5 13:5 14:5 18:5 16:5 15:5
14:0 16:15 6:10 2:5 4:5 13:5 14:5 18:5 16:5 15:5 14:5
16:0 6:10 2:5 4:5 13:5 14:5 18:5 16:5 15:5 14:5 15:5
6:0 2:5 4:5 13:5 14:5 18:5 16:5 15:5 14:5 15:5 9:5
2:0 4:5 13:5 14:5 18:5 16:5 15:5 14:5 15:5 9:5 2:5
4:0 13:5 14:5 18:5 16:5 15:5 14:5 15:5 9:5 2:5 1:5
13:0 14:5 18:5 16:5 15:5 14:5 15:5 9:5 2:5 1:5 9:5
14:0 18:5 16:5 15:5 14:5 15:5 9:5 2:5 1:5 9:5 15:5
18:0 16:5 15:5 14:5 15:5 9:5 2:5 1:5 9:5 15:5 16:5
16:0 15:5 14:5 15:5 9:5 2:5 1:5 9:5 15:5 16:5 14:10
15:0 14:5 15:5 9:5 2:5 1:5 9:5 15:5 16:5 14:10 15:10
14:0 15:5 9:5 2:5 1:5 9:5 15:5 16:5 14:10 15:10 2:10
15:0 9:5 2:5 1:5 9:5 15:5 16:5 14:10 15:10 2:10 1:5
9:0 2:5 1:5 9:5 15:5 16:5 14:10 15:10 2:10 1:5 9:5
2:0 1:5 9:5 15:5 16:5 14:10 15:10 2:10 1:5 9:5 15:5
1:0 9:5 15:5 16:5 14:10 15:10 2:10 1:5 9:5 15:5 16:10
9:0 15:5 16:5 14:10 15:10 2:10 1:5 9:5 15:5 16:10 14:5
15:0 16:5 14:10 15:10 2:10 1:5 9:5 15:5 16:10 14:5 15:5
16:0 14:10 15:10 2:10 1:5 9:5 15:5 16:10 14:5 15:5 17:5
14:0 15:10 2:10 1:5 9:5 15:5 16:10 14:5 15:5 17:5 3:5
15:0 2:10 1:5 9:5 15:5 16:10 14:5 15:5 17:5 3:5 1:5
2:0 1:5 9:5 15:5 16:10 14:5 15:5 17:5 3:5 1:5 3:5
1:0 9:5 15:5 16:10 14:5 15:5 17:5 3:5 1:5 3:5 14:5
9:0 15:5 16:10 14:5 15:5 17:5 3:5 1:5 3:5 14:5 17:15
15:0 16:10 14:5 15:5 17:5 3:5 1:5 3:5 14:5 17:15 16:5
16:0 14:5 15:5 17:5 3:5 1:5 3:5 14:5 17:15 16:5 5:10
14:0 15:5 17:5 3:5 1:5 3:5 14:5 17:15 16:5 5:10 1:5
15:0 17:5 3:5 1:5 3:5 14:5 17:15 16:5 5:10 1:5 4:5
17:0 3:5 1:5 3:5 14:5 17:15 16:5 5:10 1:5 4:5 13:5
3:0 1:5 3:5 14:5 17:15 16:5 5:10 1:5 4:5 13:5 16:5
1:0 3:5 14:5 17:15 16:5 5:10 1:5 4:5 13:5 16:5 14:15
3:0 14:5 17:15 16:5 5:10 1:5 4:5 13:5 16:5 14:15 15:5
14:0 17:15 16:5 5:10 1:5 4:5 13:5 16:5 14:15 15:5 13:5
17:0 16:5 5:10 1:5 4:5 13:5 16:5 14:15 15:5 13:5 3:5
16:0 5:10 1:5 4:5 13:5 16:5 14:15 15:5 13:5 3:5 1:5
5:0 1:5 4:5 13:5 16:5 14:15 15:5 13:5 3:5 1:5 3:5
1:0 4:5 13:5 16:5 14:15 15:5 13:5 3:5 1:5 3:5 13:5
4:0 13:5 16:5 14:15 15:5 13:5 3:5 1:5 3:5 13:5 14:5
13:0 16:5 14:15 15:5 13:5 3:5 1:5 3:5 13:5 14:5 13:5
16:0 14:15 15:5 13:5 3:5 1:5 3:5 13:5 14:5 13:5 14:5
14:0 15:5 13:5 3:5 1:5 3:5 13:5 14:5 13:5 14:5 16:5
15:0 13:5 3:5 1:5 3:5 13:5 14:5 13:5 14:5 16:5 5:10
13:0 3:5 1:5 3:5 13:5 14:5 13:5 14:5 16:5 5:10 1:5
3:0 1:5 3:5 13:5 14:5 13:5 14:5 16:5 5:10 1:5 4:5
1:0 3:5 13:5 14:5 13:5 14:5 16:5 5:10 1:5 4:5 13:5
3:0 13:5 14:5 13:5 14:5 16:5 5:10 1:5 4:5 13:5 15:5
13:0 14:5 13:5 14:5 16:5 5:10 1:5 4:5 13:5 15:5 16:5
14:0 13:5 14:5 16:5 5:10 1:5 4:5 13:5 15:5 16:5 14:10
13:0 14:5 16:5 5:10 1:5 4:5 13:5 15:5 16:5 14:10 16:10
14:0 16:5 5:10 1:5 4:5 13:5 15:5 16:5 14:10 16:10 5:5
16:0 5:10 1:5 4:5 13:5 15:5 16:5 14:10 16:10 5:5 2:5
5:0 1:5 4:5 13:5 15:5 16:5 14:10 16:10 5:5 2:5 1:5
1:0 4:5 13:5 15:5 16:5 14:10 16:10 5:5 2:5 1:5 13:5
4:0 13:5 15:5 16:5 14:10 16:10 5:5 2:5 1:5 13:5 15:5
13:0 15:5 16:5 14:10 16:10 5:5 2:5 1:5 13:5 15:5 14:5
15:0 16:5 14:10 16:10 5:5 2:5 1:5 13:5 15:5 14:5 15:5
16:0 14:10 16:10 5:5 2:5 1:5 13:5 15:5 14:5 15:5 16:5
14:0 16:10 5:5 2:5 1:5 13:5 15:5 14:5 15:5 16:5 15:15
16:0 5:5 2:5 1:5 13:5 15:5 14:5 15:5 16:5 15:15 11:5
5:0 2:5 1:5 13:5 15:5 14:5 15:5 16:5 15:15 11:5 2:5
2:0 1:5 13:5 15:5 14:5 15:5 16:5 15:15 11:5 2:5 6:15
1:0 13:5 15:5 14:5 15:5 16:5 15:15 11:5 2:5 6:15 12:5
13:0 15:5 14:5 15:5 16:5 15:15 11:5 2:5 6:15 12:5 15:10
15:0 14:5 15:5 16:5 15:15 11:5 2:5 6:15 12:5 15:10 16:5
14:0 15:5 16:5 15:15 11:5 2:5 6:15 12:5 15:10 16:5 14:10
15:0 16:5 15:15 11:5 2:5 6:15 12:5 15:10 16:5 14:10 17:10
16:0 15:15 11:5 2:5 6:15 12:5 15:10 16:5 14:10 17:10 8:5
15:0 11:5 2:5 6:15 12:5 15:10 16:5 14:10 17:10 8:5 2:5
11:0 2:5 6:15 12:5 15:10 16:5 14:10 17:10 8:5 2:5 1:5
2:0 6:15 12:5 15:10 16:5 14:10 17:10 8:5 2:5 1:5 13:5
6:0 12:5 15:10 16:5 14:10 17:10 8:5 2:5 1:5 13:5 14:5
12:0 15:10 16:5 14:10 17:10 8:5 2:5 1:5 13:5 14:5 16:5
15:0 16:5 14:10 17:10 8:5 2:5 1:5 13:5 14:5 16:5 14:10
16:0 14:10 17:10 8:5 2:5 1:5 13:5 14:5 16:5 14:10 15:5
14:0 17:10 8:5 2:5 1:5 13:5 14:5 16:5 14:10 15:5 17:5
17:0 8:5 2:5 1:5 13:5 14:5 16:5 14:10 15:5 17:5 5:5
8:0 2:5 1:5 13:5 14:5 16:5 14:10 15:5 17:5 5:5 1:5
2:0 1:5 13:5 14:5 16:5 14:10 15:5 17:5 5:5 1:5 3:5
1:0 13:5 14:5 16:5 14:10 15:5 17:5 5:5 1:5 3:5 14:5
13:0 14:5 16:5 14:10 15:5 17:5 5:5 1:5 3:5 14:5 17:15
14:0 16:5 14:10 15:5 17:5 5:5 1:5 3:5 14:5 17:15 13:10
16:0 14:10 15:5 17:5 5:5 1:5 3:5 14:5 17:15 13:10 2:5
14:0 15:5 17:5 5:5 1:5 3:5 14:5 17:15 13:10 2:5 1:5
15:0 17:5 5:5 1:5 3:5 14:5 17:15 13:10 2:5 1:5 6:5
17:0 5:5 1:5 3:5 14:5 17:15 13:10 2:5 1:5 6:5 13:5
5:0 1:5 3:5 14:5 17:15 13:10 2:5 1:5 6:5 13:5 17:5
1:0 3:5 14:5 17:15 13:10 2:5 1:5 6:5 13:5 17:5 3:10
3:0 14:5 17:15 13:10 2:5 1:5 6:5 13:5 17:5 3:10 2:5
14:0 17:15 13:10 2:5 1:5 6:5 13:5 17:5 3:10 2:5 13:5
17:0 13:10 2:5 1:5 6:5 13:5 17:5 3:10 2:5 13:5 15:5
13:0 2:5 1:5 6:5 13:5 17:5 3:10 2:5 13:5 15:5 13:5
2:0 1:5 6:5 13:5 17:5 3:10 2:5 13:5 15:5 13:5 14:5
1:0 6:5 13:5 17:5 3:10 2:5 13:5 15:5 13:5 14:5 16:5
6:0 13:5 17:5 3:10 2:5 13:5 15:5 13:5 14:5 16:5 15:10
13:0 17:5 3:10 2:5 13:5 15:5 13:5 14:5 16:5 15:10 16:5
17:0 3:10 2:5 13:5 15:5 13:5 14:5 16:5 15:10 16:5 3:5
3:0 2:5 13:5 15:5 13:5 14:5 16:5 15:10 16:5 3:5 1:5
2:0 13:5 15:5 13:5 14:5 16:5 15:10 16:5 3:5 1:5 6:10
13:0 15:5 13:5 14:5 16:5 15:10 16:5 3:5 1:5 6:10 13:5
15:0 13:5 14:5 16:5 15:10 16:5 3:5 1:5 6:10 13:5 16:15
13:0 14:5 16:5 15:10 16:5 3:5 1:5 6:10 13:5 16:15 17:5
14:0 16:5 15:10 16:5 3:5 1:5 6:10 13:5 16:15 17:5 6:5
16:0 15:10 16:5 3:5 1:5 6:10 13:5 16:15 17:5 6:5 1:5
15:0 16:5 3:5 1:5 6:10 13:5 16:15 17:5 6:5 1:5 9:5
16:0 3:5 1:5 6:10 13:5 16:15 17:5 6:5 1:5 9:5 14:5
3:0 1:5 6:10 13:5 16:15 17:5 6:5 1:5 9:5 14:5 16:5
1:0 6:10 13:5 16:15 17:5 6:5 1:5 9:5 14:5 16:5 14:10
6:0 13:5 16:15 17:5 6:5 1:5 9:5 14:5 16:5 14:10 17:10
13:0 16:15 17:5 6:5 1:5 9:5 14:5 16:5 14:10 17:10 5:5
16:0 17:5 6:5 1:5 9:5 14:5 16:5 14:10 17:10 5:5 2:5
17:0 6:5 1:5 9:5 14:5 16:5 14:10 17:10 5:5 2:5 14:10
6:0 1:5 9:5 14:5 16:5 14:10 17:10 5:5 2:5 14:10 15:5
1:0 9:5 14:5 16:5 14:10 17:10 5:5 2:5 14:10 15:5 16:5
9:0 14:5 16:5 14:10 17:10 5:5 2:5 14:10 15:5 16:5 15:5
14:0 16:5 14:10 17:10 5:5 2:5 14:10 15:5 16:5 15:5 14:5
16:0 14:10 17:10 5:5 2:5 14:10 15:5 16:5 15:5 14:5 15:5
14:0 17:10 5:5 2:5 14:10 15:5 16:5 15:5 14:5 15:5 16:5
17:0 5:5 2:5 14:10 15:5 16:5 15:5 14:5 15:5 16:5 12:5
5:0 2:5 14:10 15:5 16:5 15:5 14:5 15:5 16:5 12:5 2:5
2:0 14:10 15:5 16:5 15:5 14:5 15:5 16:5 12:5 2:5 1:5
14:0 15:5 16:5 15:5 14:5 15:5 16:5 12:5 2:5 1:5 14:5
15:0 16:5 15:5 14:5 15:5 16:5 12:5 2:5 1:5 14:5 17:10
16:0 15:5 14:5 15:5 16:5 12:5 2:5 1:5 14:5 17:10 15:5
15:0 14:5 15:5 16:5 12:5 2:5 1:5 14:5 17:10 15:5 14:5
14:0 15:5 16:5 12:5 2:5 1:5 14:5 17:10 15:5 14:5 15:5
15:0 16:5 12:5 2:5 1:5 14:5 17:10 15:5 14:5 15:5 9:5
16:0 12:5 2:5 1:5 14:5 17:10 15:5 14:5 15:5 9:5 2:5
12:0 2:5 1:5 14:5 17:10 15:5 14:5 15:5 9:5 2:5 1:5
2:0 1:5 14:5 17:10 15:5 14:5 15:5 9:5 2:5 1:5 9:5
1:0 14:5 17:10 15:5 14:5 15:5 9:5 2:5 1:5 9:5 15:5
14:0 17:10 15:5 14:5 15:5 9:5 2:5 1:5 9:5 15:5 14:5
17:0 15:5 14:5 15:5 9:5 2:5 1:5 9:5 15:5 14:5 16:10
15:0 14:5 15:5 9:5 2:5 1:5 9:5 15:5 14:5 16:10 15:15
14:0 15:5 9:5 2:5 1:5 9:5 15:5 14:5 16:10 15:15 16:5
15:0 9:5 2:5 1:5 9:5 15:5 14:5 16:10 15:15 16:5 3:5
9:0 2:5 1:5 9:5 15:5 14:5 16:10 15:15 16:5 3:5 1:5
2:0 1:5 9:5 15:5 14:5 16:10 15:15 16:5 3:5 1:5 6:10
1:0 9:5 15:5 14:5 16:10 15:15 16:5 3:5 1:5 6:10 13:5
9:0 15:5 14:5 16:10 15:15 16:5 3:5 1:5 6:10 13:5 16:10
15:0 14:5 16:10 15:15 16:5 3:5 1:5 6:10 13:5 16:10 18:5
14:0 16:10 15:15 16:5 3:5 1:5 6:10 13:5 16:10 18:5 4:5
16:0 15:15 16:5 3:5 1:5 6:10 13:5 16:10 18:5 4:5 1:5
15:0 16:5 3:5 1:5 6:10 13:5 16:10 18:5 4:5 1:5 12:5
16:0 3:5 1:5 6:10 13:5 16:10 18:5 4:5 1:5 12:5 15:5
3:0 1:5 6:10 13:5 16:10 18:5 4:5 1:5 12:5 15:5 14:5
1:0 6:10 13:5 16:10 18:5 4:5 1:5 12:5 15:5 14:5 16:10
6:0 13:5 16:10 18:5 4:5 1:5 12:5 15:5 14:5 16:10 17:5
13:0 16:10 18:5 4:5 1:5 12:5 15:5 14:5 16:10 17:5 16:5
16:0 18:5 4:5 1:5 12:5 15:5 14:5 16:10 17:5 16:5 15:5
18:0 4:5 1:5 12:5 15:5 14:5 16:10 17:5 16:5 15:5 16:5
4:0 1:5 12:5 15:5 14:5 16:10 17:5 16:5 15:5 16:5 5:5
1:0 12:5 15:5 14:5 16:10 17:5 16:5 15:5 16:5 5:5 2:5
12:0 15:5 14:5 16:10 17:5 16:5 15:5 16:5 5:5 2:5 6:10
15:0 14:5 16:10 17:5 16:5 15:5 16:5 5:5 2:5 6:10 13:5
14:0 16:10 17:5 16:5 15:5 16:5 5:5 2:5 6:10 13:5 14:10
16:0 17:5 16:5 15:5 16:5 5:5 2:5 6:10 13:5 14:10 17:5
17:0 16:5 15:5 16:5 5:5 2:5 6:10 13:5 14:10 17:5 15:10
16:0 15:5 16:5 5:5 2:5 6:10 13:5 14:10 17:5 15:10 14:5
15:0 16:5 5:5 2:5 6:10 13:5 14:10 17:5 15:10 14:5 15:5
16:0 5:5 2:5 6:10 13:5 14:10 17:5 15:10 14:5 15:5 12:5
5:0 2:5 6:10 13:5 14:10 17:5 15:10 14:5 15:5 12:5 3:5
2:0 6:10 13:5 14:10 17:5 15:10 14:5 15:5 12:5 3:5 1:5
6:0 13:5 14:10 17:5 15:10 14:5 15:5 12:5 3:5 1:5 4:5
13:0 14:10 17:5 15:10 14:5 15:5 12:5 3:5 1:5 4:5 14:5
14:0 17:5 15:10 14:5 15:5 12:5 3:5 1:5 4:5 14:5 15:5
17:0 15:10 14:5 15:5 12:5 3:5 1:5 4:5 14:5 15:5 16:5
15:0 14:5 15:5 12:5 3:5 1:5 4:5 14:5 15:5 16:5 14:5
14:0 15:5 12:5 3:5 1:5 4:5 14:5 15:5 16:5 14:5 17:10
15:0 12:5 3:5 1:5 4:5 14:5 15:5 16:5 14:5 17:10 3:5
12:0 3:5 1:5 4:5 14:5 15:5 16:5 14:5 17:10 3:5 2:5
3:0 1:5 4:5 14:5 15:5 16:5 14:5 17:10 3:5 2:5 13:10
1:0 4:5 14:5 15:5 16:5 14:5 17:10 3:5 2:5 13:10 15:5
4:0 14:5 15:5 16:5 14:5 17:10 3:5 2:5 13:10 15:5 14:5
14:0 15:5 16:5 14:5 17:10 3:5 2:5 13:10 15:5 14:5 16:10
15:0 16:5 14:5 17:10 3:5 2:5 13:10 15:5 14:5 16:10 17:5
16:0 14:5 17:10 3:5 2:5 13:10 15:5 14:5 16:10 17:5 16:5
14:0 17:10 3:5 2:5 13:10 15:5 14:5 16:10 17:5 16:5 15:5
17:0 3:5 2:5 13:10 15:5 14:5 16:10 17:5 16:5 15:5 11:5
3:0 2:5 13:10 15:5 14:5 16:10 17:5 16:5 15:5 11:5 2:5
2:0 13:10 15:5 14:5 16:10 17:5 16:5 15:5 11:5 2:5 1:10
13:0 15:5 14:5 16:10 17:5 16:5 15:5 11:5 2:5 1:10 9:5
15:0 14:5 16:10 17:5 16:5 15:5 11:5 2:5 1:10 9:5 13:5
14:0 16:10 17:5 16:5 15:5 11:5 2:5 1:10 9:5 13:5 16:10
16:0 17:5 16:5 15:5 11:5 2:5 1:10 9:5 13:5 16:10 17:5
17:0 16:5 15:5 11:5 2:5 1:10 9:5 13:5 16:10 17:5 4:5
16:0 15:5 11:5 2:5 1:10 9:5 13:5 16:10 17:5 4:5 1:5
15:0 11:5 2:5 1:10 9:5 13:5 16:10 17:5 4:5 1:5 6:5
11:0 2:5 1:10 9:5 13:5 16:10 17:5 4:5 1:5 6:5 14:5
2:0 1:10 9:5 13:5 16:10 17:5 4:5 1:5 6:5 14:5 15:5
1:0 9:5 13:5 16:10 17:5 4:5 1:5 6:5 14:5 15:5 16:5
9:0 13:5 16:10 17:5 4:5 1:5 6:5 14:5 15:5 16:5 14:5
13:0 16:10 17:5 4:5 1:5 6:5 14:5 15:5 16:5 14:5 16:10
16:0 17:5 4:5 1:5 6:5 14:5 15:5 16:5 14:5 16:10 11:5
17:0 4:5 1:5 6:5 14:5 15:5 16:5 14:5 16:10 11:5 2:5
4:0 1:5 6:5 14:5 15:5 16:5 14:5 16:10 11:5 2:5 1:5
1:0 6:5 14:5 15:5 16:5 14:5 16:10 11:5 2:5 1:5 14:5
6:0 14:5 15:5 16:5 14:5 16:10 11:5 2:5 1:5 14:5 15:5
14:0 15:5 16:5 14:5 16:10 11:5 2:5 1:5 14:5 15:5 17:5
15:0 16:5 14:5 16:10 11:5 2:5 1:5 14:5 15:5 17:5 15:5
16:0 14:5 16:10 11:5 2:5 1:5 14:5 15:5 17:5 15:5 14:5
14:0 16:10 11:5 2:5 1:5 14:5 15:5 17:5 15:5 14:5 15:5
16:0 11:5 2:5 1:5 14:5 15:5 17:5 15:5 14:5 15:5 2:10
11:0 2:5 1:5 14:5 15:5 17:5 15:5 14:5 15:5 2:10 1:5
2:0 1:5 14:5 15:5 17:5 15:5 14:5 15:5 2:10 1:5 5:5
1:0 14:5 15:5 17:5 15:5 14:5 15:5 2:10 1:5 5:5 14:5
14:0 15:5 17:5 15:5 14:5 15:5 2:10 1:5 5:5 14:5 13:10
15:0 17:5 15:5 14:5 15:5 2:10 1:5 5:5 14:5 13:10 15:5
17:0 15:5 14:5 15:5 2:10 1:5 5:5 14:5 13:10 15:5 16:5
15:0 14:5 15:5 2:10 1:5 5:5 14:5 13:10 15:5 16:5 15:10
14:0 15:5 2:10 1:5 5:5 14:5 13:10 15:5 16:5 15:10 16:5
15:0 2:10 1:5 5:5 14:5 13:10 15:5 16:5 15:10 16:5 3:5
2:0 1:5 5:5 14:5 13:10 15:5 16:5 15:10 16:5 3:5 2:5
1:0 5:5 14:5 13:10 15:5 16:5 15:10 16:5 3:5 2:5 1:5
5:0 14:5 13:10 15:5 16:5 15:10 16:5 3:5 2:5 1:5 9:5
14:0 13:10 15:5 16:5 15:10 16:5 3:5 2:5 1:5 9:5 13:5
13:0 15:5 16:5 15:10 16:5 3:5 2:5 1:5 9:5 13:5 14:10
15:0 16:5 15:10 16:5 3:5 2:5 1:5 9:5 13:5 14:10 17:5
16:0 15:10 16:5 3:5 2:5 1:5 9:5 13:5 14:10 17:5 14:5
15:0 16:5 3:5 2:5 1:5 9:5 13:5 14:10 17:5 14:5 1:5
16:0 3:5 2:5 1:5 9:5 13:5 14:10 17:5 14:5 1:5 2:5
3:0 2:5 1:5 9:5 13:5 14:10 17:5 14:5 1:5 2:5 14:5
2:0 1:5 9:5 13:5 14:10 17:5 14:5 1:5 2:5 14:5 17:10
1:0 9:5 13:5 14:10 17:5 14:5 1:5 2:5 14:5 17:10 15:5
9:0 13:5 14:10 17:5 14:5 1:5 2:5 14:5 17:10 15:5 14:5
13:0 14:10 17:5 14:5 1:5 2:5 14:5 17:10 15:5 14:5 17:5
14:0 17:5 14:5 1:5 2:5 14:5 17:10 15:5 14:5 17:5 6:5
17:0 14:5 1:5 2:5 14:5 17:10 15:5 14:5 17:5 6:5 2:5
14:0 1:5 2:5 14:5 17:10 15:5 14:5 17:5 6:5 2:5 1:5
1:0 2:5 14:5 17:10 15:5 14:5 17:5 6:5 2:5 1:5 12:5
2:0 14:5 17:10 15:5 14:5 17:5 6:5 2:5 1:5 12:5 15:5
14:0 17:10 15:5 14:5 17:5 6:5 2:5 1:5 12:5 15:5 14:5
17:0 15:5 14:5 17:5 6:5 2:5 1:5 12:5 15:5 14:5 15:10
15:0 14:5 17:5 6:5 2:5 1:5 12:5 15:5 14:5 15:10 16:5
14:0 17:5 6:5 2:5 1:5 12:5 15:5 14:5 15:10 16:5 15:10
17:0 6:5 2:5 1:5 12:5 15:5 14:5 15:10 16:5 15:10 16:5
6:0 2:5 1:5 12:5 15:5 14:5 15:10 16:5 15:10 16:5 3:5
2:0 1:5 12:5 15:5 14:5 15:10 16:5 15:10 16:5 3:5 2:5
1:0 12:5 15:5 14:5 15:10 16:5 15:10 16:5 3:5 2:5 6:10
12:0 15:5 14:5 15:10 16:5 15:10 16:5 3:5 2:5 6:10 13:5
15:0 14:5 15:10 16:5 15:10 16:5 3:5 2:5 6:10 13:5 12:5
14:0 15:10 16:5 15:10 16:5 3:5 2:5 6:10 13:5 12:5 14:5
15:0 16:5 15:10 16:5 3:5 2:5 6:10 13:5 12:5 14:5 17:5
16:0 15:10 16:5 3:5 2:5 6:10 13:5 12:5 14:5 17:5 16:5
15:0 16:5 3:5 2:5 6:10 13:5 12:5 14:5 17:5 16:5 15:5
16:0 3:5 2:5 6:10 13:5 12:5 14:5 17:5 16:5 15:5 14:5
3:0 2:5 6:10 13:5 12:5 14:5 17:5 16:5 15:5 14:5 16:5
2:0 6:10 13:5 12:5 14:5 17:5 16:5 15:5 14:5 16:5 5:5
6:0 13:5 12:5 14:5 17:5 16:5 15:5 14:5 16:5 5:5 2:5
13:0 12:5 14:5 17:5 16:5 15:5 14:5 16:5 5:5 2:5 1:5
12:0 14:5 17:5 16:5 15:5 14:5 16:5 5:5 2:5 1:5 6:5
14:0 17:5 16:5 15:5 14:5 16:5 5:5 2:5 1:5 6:5 14:5
17:0 16:5 15:5 14:5 16:5 5:5 2:5 1:5 6:5 14:5 13:5
16:0 15:5 14:5 16:5 5:5 2:5 1:5 6:5 14:5 13:5 14:5
15:0 14:5 16:5 5:5 2:5 1:5 6:5 14:5 13:5 14:5 15:5
14:0 16:5 5:5 2:5 1:5 6:5 14:5 13:5 14:5 15:5 17:5
16:0 5:5 2:5 1:5 6:5 14:5 13:5 14:5 15:5 17:5 7:5
5:0 2:5 1:5 6:5 14:5 13:5 14:5 15:5 17:5 7:5 1:5
2:0 1:5 6:5 14:5 13:5 14:5 15:5 17:5 7:5 1:5 2:5
1:0 6:5 14:5 13:5 14:5 15:5 17:5 7:5 1:5 2:5 12:5
6:0 14:5 13:5 14:5 15:5 17:5 7:5 1:5 2:5 12:5 14:5
14:0 13:5 14:5 15:5 17:5 7:5 1:5 2:5 12:5 14:5 15:5
13:0 14:5 15:5 17:5 7:5 1:5 2:5 12:5 14:5 15:5 17:5
14:0 15:5 17:5 7:5 1:5 2:5 12:5 14:5 15:5 17:5 14:5
15:0 17:5 7:5 1:5 2:5 12:5 14:5 15:5 17:5 14:5 15:10
17:0 7:5 1:5 2:5 12:5 14:5 15:5 17:5 14:5 15:10 13:5
7:0 1:5 2:5 12:5 14:5 15:5 17:5 14:5 15:10 13:5 3:5
1:0 2:5 12:5 14:5 15:5 17:5 14:5 15:10 13:5 3:5 1:5
2:0 12:5 14:5 15:5 17:5 14:5 15:10 13:5 3:5 1:5 6:5
12:0 14:5 15:5 17:5 14:5 15:10 13:5 3:5 1:5 6:5 14:5
14:0 15:5 17:5 14:5 15:10 13:5 3:5 1:5 6:5 14:5 15:15
15:0 17:5 14:5 15:10 13:5 3:5 1:5 6:5 14:5 15:15 17:5
17:0 14:5 15:10 13:5 3:5 1:5 6:5 14:5 15:15 17:5 16:5
14:0 15:10 13:5 3:5 1:5 6:5 14:5 15:15 17:5 16:5 2:5
15:0 13:5 3:5 1:5 6:5 14:5 15:15 17:5 16:5 2:5 1:5
13:0 3:5 1:5 6:5 14:5 15:15 17:5 16:5 2:5 1:5 4:5
3:0 1:5 6:5 14:5 15:15 17:5 16:5 2:5 1:5 4:5 13:5
1:0 6:5 14:5 15:15 17:5 16:5 2:5 1:5 4:5 13:5 16:5
6:0 14:5 15:15 17:5 16:5 2:5 1:5 4:5 13:5 16:5 15:10
14:0 15:15 17:5 16:5 2:5 1:5 4:5 13:5 16:5 15:10 14:5
15:0 17:5 16:5 2:5 1:5 4:5 13:5 16:5 15:10 14:5 15:5
17:0 16:5 2:5 1:5 4:5 13:5 16:5 15:10 14:5 15:5 12:5
16:0 2:5 1:5 4:5 13:5 16:5 15:10 14:5 15:5 12:5 3:5
2:0 1:5 4:5 13:5 16:5 15:10 14:5 15:5 12:5 3:5 1:5
1:0 4:5 13:5 16:5 15:10 14:5 15:5 12:5 3:5 1:5 3:5
4:0 13:5 16:5 15:10 14:5 15:5 12:5 3:5 1:5 3:5 14:5
13:0 16:5 15:10 14:5 15:5 12:5 3:5 1:5 3:5 14:5 16:5
16:0 15:10 14:5 15:5 12:5 3:5 1:5 3:5 14:5 16:5 14:10
15:0 14:5 15:5 12:5 3:5 1:5 3:5 14:5 16:5 14:10 15:10
14:0 15:5 12:5 3:5 1:5 3:5 14:5 16:5 14:10 15:10 17:5
15:0 12:5 3:5 1:5 3:5 14:5 16:5 14:10 15:10 17:5 2:5
12:0 3:5 1:5 3:5 14:5 16:5 14:10 15:10 17:5 2:5 1:5
3:0 1:5 3:5 14:5 16:5 14:10 15:10 17:5 2:5 1:5 6:5
1:0 3:5 14:5 16:5 14:10 15:10 17:5 2:5 1:5 6:5 14:5
3:0 14:5 16:5 14:10 15:10 17:5 2:5 1:5 6:5 14:5 15:5
14:0 16:5 14:10 15:10 17:5 2:5 1:5 6:5 14:5 15:5 16:5
16:0 14:10 15:10 17:5 2:5 1:5 6:5 14:5 15:5 16:5 14:5
14:0 15:10 17:5 2:5 1:5 6:5 14:5 15:5 16:5 14:5 17:10
15:0 17:5 2:5 1:5 6:5 14:5 15:5 16:5 14:5 17:10 3:5
17:0 2:5 1:5 6:5 14:5 15:5 16:5 14:5 17:10 3:5 2:5
2:0 1:5 6:5 14:5 15:5 16:5 14:5 17:10 3:5 2:5 14:10
1:0 6:5 14:5 15:5 16:5 14:5 17:10 3:5 2:5 14:10 15:15
6:0 14:5 15:5 16:5 14:5 17:10 3:5 2:5 14:10 15:15 16:5
14:0 15:5 16:5 14:5 17:10 3:5 2:5 14:10 15:15 16:5 15:5
15:0 16:5 14:5 17:10 3:5 2:5 14:10 15:15 16:5 15:5 17:10
16:0 14:5 17:10 3:5 2:5 14:10 15:15 16:5 15:5 17:10 3:5
14:0 17:10 3:5 2:5 14:10 15:15 16:5 15:5 17:10 3:5 1:5
17:0 3:5 2:5 14:10 15:15 16:5 15:5 17:10 3:5 1:5 2:5
3:0 2:5 14:10 15:15 16:5 15:5 17:10 3:5 1:5 2:5 6:5
2:0 14:10 15:15 16:5 15:5 17:10 3:5 1:5 2:5 6:5 13:5
14:0 15:15 16:5 15:5 17:10 3:5 1:5 2:5 6:5 13:5 17:15
15:0 16:5 15:5 17:10 3:5 1:5 2:5 6:5 13:5 17:15 8:5
16:0 15:5 17:10 3:5 1:5 2:5 6:5 13:5 17:15 8:5 1:5
15:0 17:10 3:5 1:5 2:5 6:5 13:5 17:15 8:5 1:5 3:5
17:0 3:5 1:5 2:5 6:5 13:5 17:15 8:5 1:5 3:5 13:5
3:0 1:5 2:5 6:5 13:5 17:15 8:5 1:5 3:5 13:5 14:5
1:0 2:5 6:5 13:5 17:15 8:5 1:5 3:5 13:5 14:5 18:20
2:0 6:5 13:5 17:15 8:5 1:5 3:5 13:5 14:5 18:20 4:5
6:0 13:5 17:15 8:5 1:5 3:5 13:5 14:5 18:20 4:5 1:5
13:0 17:15 8:5 1:5 3:5 13:5 14:5 18:20 4:5 1:5 6:5
17:0 8:5 1:5 3:5 13:5 14:5 18:20 4:5 1:5 6:5 12:5
8:0 1:5 3:5 13:5 14:5 18:20 4:5 1:5 6:5 12:5 14:5
1:0 3:5 13:5 14:5 18:20 4:5 1:5 6:5 12:5 14:5 15:5
3:0 13:5 14:5 18:20 4:5 1:5 6:5 12:5 14:5 15:5 17:5
13:0 14:5 18:20 4:5 1:5 6:5 12:5 14:5 15:5 17:5 14:5
14:0 18:20 4:5 1:5 6:5 12:5 14:5 15:5 17:5 14:5 16:10
18:0 4:5 1:5 6:5 12:5 14:5 15:5 17:5 14:5 16:10 11:5
4:0 1:5 6:5 12:5 14:5 15:5 17:5 14:5 16:10 11:5 2:5
1:0 6:5 12:5 14:5 15:5 17:5 14:5 16:10 11:5 2:5 1:5
6:0 12:5 14:5 15:5 17:5 14:5 16:10 11:5 2:5 1:5 9:5
12:0 14:5 15:5 17:5 14:5 16:10 11:5 2:5 1:5 9:5 14:5
14:0 15:5 17:5 14:5 16:10 11:5 2:5 1:5 9:5 14:5 17:15
15:0 17:5 14:5 16:10 11:5 2:5 1:5 9:5 14:5 17:15 16:5
17:0 14:5 16:10 11:5 2:5 1:5 9:5 14:5 17:15 16:5 15:10
14:0 16:10 11:5 2:5 1:5 9:5 14:5 17:15 16:5 15:10 16:5
16:0 11:5 2:5 1:5 9:5 14:5 17:15 16:5 15:10 16:5 3:5
11:0 2:5 1:5 9:5 14:5 17:15 16:5 15:10 16:5 3:5 2:5
2:0 1:5 9:5 14:5 17:15 16:5 15:10 16:5 3:5 2:5 12:15
1:0 9:5 14:5 17:15 16:5 15:10 16:5 3:5 2:5 12:15 14:10
9:0 14:5 17:15 16:5 15:10 16:5 3:5 2:5 12:15 14:10 16:5
14:0 17:15 16:5 15:10 16:5 3:5 2:5 12:15 14:10 16:5 17:5
17:0 16:5 15:10 16:5 3:5 2:5 12:15 14:10 16:5 17:5 15:5
16:0 15:10 16:5 3:5 2:5 12:15 14:10 16:5 17:5 15:5 14:5
15:0 16:5 3:5 2:5 12:15 14:10 16:5 17:5 15:5 14:5 16:5
16:0 3:5 2:5 12:15 14:10 16:5 17:5 15:5 14:5 16:5 9:5
3:0 2:5 12:15 14:10 16:5 17:5 15:5 14:5 16:5 9:5 2:5
2:0 12:15 14:10 16:5 17:5 15:5 14:5 16:5 9:5 2:5 1:5
12:0 14:10 16:5 17:5 15:5 14:5 16:5 9:5 2:5 1:5 9:5
14:0 16:5 17:5 15:5 14:5 16:5 9:5 2:5 1:5 9:5 15:5
16:0 17:5 15:5 14:5 16:5 9:5 2:5 1:5 9:5 15:5 16:10
17:0 15:5 14:5 16:5 9:5 2:5 1:5 9:5 15:5 16:10 14:5
15:0 14:5 16:5 9:5 2:5 1:5 9:5 15:5 16:10 14:5 15:5
14:0 16:5 9:5 2:5 1:5 9:5 15:5 16:10 14:5 15:5 16:5
16:0 9:5 2:5 1:5 9:5 15:5 16:10 14:5 15:5 16:5 5:5
9:0 2:5 1:5 9:5 15:5 16:10 14:5 15:5 16:5 5:5 2:5
2:0 1:5 9:5 15:5 16:10 14:5 15:5 16:5 5:5 2:5 13:10
1:0 9:5 15:5 16:10 14:5 15:5 16:5 5:5 2:5 13:10 14:5
9:0 15:5 16:10 14:5 15:5 16:5 5:5 2:5 13:10 14:5 16:5
15:0 16:10 14:5 15:5 16:5 5:5 2:5 13:10 14:5 16:5 14:10
16:0 14:5 15:5 16:5 5:5 2:5 13:10 14:5 16:5 14:10 15:5
14:0 15:5 16:5 5:5 2:5 13:10 14:5 16:5 14:10 15:5 17:5
15:0 16:5 5:5 2:5 13:10 14:5 16:5 14:10 15:5 17:5 3:5
16:0 5:5 2:5 13:10 14:5 16:5 14:10 15:5 17:5 3:5 1:5
5:0 2:5 13:10 14:5 16:5 14:10 15:5 17:5 3:5 1:5 4:5
2:0 13:10 14:5 16:5 14:10 15:5 17:5 3:5 1:5 4:5 15:5
13:0 14:5 16:5 14:10 15:5 17:5 3:5 1:5 4:5 15:5 16:5
14:0 16:5 14:10 15:5 17:5 3:5 1:5 4:5 15:5 16:5 14:10
16:0 14:10 15:5 17:5 3:5 1:5 4:5 15:5 16:5 14:10 15:10
14:0 15:5 17:5 3:5 1:5 4:5 15:5 16:5 14:10 15:10 2:10
15:0 17:5 3:5 1:5 4:5 15:5 16:5 14:10 15:10 2:10 1:5
17:0 3:5 1:5 4:5 15:5 16:5 14:10 15:10 2:10 1:5 9:5
3:0 1:5 4:5 15:5 16:5 14:10 15:10 2:10 1:5 9:5 14:5
1:0 4:5 15:5 16:5 14:10 15:10 2:10 1:5 9:5 14:5 13:5
4:0 15:5 16:5 14:10 15:10 2:10 1:5 9:5 14:5 13:5 14:5
15:0 16:5 14:10 15:10 2:10 1:5 9:5 14:5 13:5 14:5 16:5
16:0 14:10 15:10 2:10 1:5 9:5 14:5 13:5 14:5 16:5 17:5
14:0 15:10 2:10 1:5 9:5 14:5 13:5 14:5 16:5 17:5 6:5
15:0 2:10 1:5 9:5 14:5 13:5 14:5 16:5 17:5 6:5 1:5
2:0 1:5 9:5 14:5 13:5 14:5 16:5 17:5 6:5 1:5 4:5
1:0 9:5 14:5 13:5 14:5 16:5 17:5 6:5 1:5 4:5 13:5
9:0 14:5 13:5 14:5 16:5 17:5 6:5 1:5 4:5 13:5 15:5
14:0 13:5 14:5 16:5 17:5 6:5 1:5 4:5 13:5 15:5 17:5
13:0 14:5 16:5 17:5 6:5 1:5 4:5 13:5 15:5 17:5 8:5
14:0 16:5 17:5 6:5 1:5 4:5 13:5 15:5 17:5 8:5 1:5
16:0 17:5 6:5 1:5 4:5 13:5 15:5 17:5 8:5 1:5 5:5
17:0 6:5 1:5 4:5 13:5 15:5 17:5 8:5 1:5 5:5 14:5
6:0 1:5 4:5 13:5 15:5 17:5 8:5 1:5 5:5 14:5 16:15
1:0 4:5 13:5 15:5 17:5 8:5 1:5 5:5 14:5 16:15 15:15
4:0 13:5 15:5 17:5 8:5 1:5 5:5 14:5 16:15 15:15 5:10
13:0 15:5 17:5 8:5 1:5 5:5 14:5 16:15 15:15 5:10 2:5
15:0 17:5 8:5 1:5 5:5 14:5 16:15 15:15 5:10 2:5 1:10
17:0 8:5 1:5 5:5 14:5 16:15 15:15 5:10 2:5 1:10 12:5
8:0 1:5 5:5 14:5 16:15 15:15 5:10 2:5 1:10 12:5 13:10
1:0 5:5 14:5 16:15 15:15 5:10 2:5 1:10 12:5 13:10 15:5
5:0 14:5 16:15 15:15 5:10 2:5 1:10 12:5 13:10 15:5 17:5
14:0 16:15 15:15 5:10 2:5 1:10 12:5 13:10 15:5 17:5 14:5
16:0 15:15 5:10 2:5 1:10 12:5 13:10 15:5 17:5 14:5 13:5
15:0 5:10 2:5 1:10 12:5 13:10 15:5 17:5 14:5 13:5 15:5
5:0 2:5 1:10 12:5 13:10 15:5 17:5 14:5 13:5 15:5 3:10
2:0 1:10 12:5 13:10 15:5 17:5 14:5 13:5 15:5 3:10 1:5
1:0 12:5 13:10 15:5 17:5 14:5 13:5 15:5 3:10 1:5 3:5
12:0 13:10 15:5 17:5 14:5 13:5 15:5 3:10 1:5 3:5 14:5
13:0 15:5 17:5 14:5 13:5 15:5 3:10 1:5 3:5 14:5 16:15
15:0 17:5 14:5 13:5 15:5 3:10 1:5 3:5 14:5 16:15 13:10
17:0 14:5 13:5 15:5 3:10 1:5 3:5 14:5 16:15 13:10 1:5
14:0 13:5 15:5 3:10 1:5 3:5 14:5 16:15 13:10 1:5 2:5
13:0 15:5 3:10 1:5 3:5 14:5 16:15 13:10 1:5 2:5 13:5
15:0 3:10 1:5 3:5 14:5 16:15 13:10 1:5 2:5 13:5 16:10
3:0 1:5 3:5 14:5 16:15 13:10 1:5 2:5 13:5 16:10 17:5
1:0 3:5 14:5 16:15 13:10 1:5 2:5 13:5 16:10 17:5 15:5
3:0 14:5 16:15 13:10 1:5 2:5 13:5 16:10 17:5 15:5 14:5
14:0 16:15 13:10 1:5 2:5 13:5 16:10 17:5 15:5 14:5 15:5
16:0 13:10 1:5 2:5 13:5 16:10 17:5 15:5 14:5 15:5 12:5
13:0 1:5 2:5 13:5 16:10 17:5 15:5 14:5 15:5 12:5 3:5
1:0 2:5 13:5 16:10 17:5 15:5 14:5 15:5 12:5 3:5 2:5
2:0 13:5 16:10 17:5 15:5 14:5 15:5 12:5 3:5 2:5 3:5
13:0 16:10 17:5 15:5 14:5 15:5 12:5 3:5 2:5 3:5 14:5
16:0 17:5 15:5 14:5 15:5 12:5 3:5 2:5 3:5 14:5 16:5
17:0 15:5 14:5 15:5 12:5 3:5 2:5 3:5 14:5 16:5 17:5
15:0 14:5 15:5 12:5 3:5 2:5 3:5 14:5 16:5 17:5 14:5
14:0 15:5 12:5 3:5 2:5 3:5 14:5 16:5 17:5 14:5 15:10
15:0 12:5 3:5 2:5 3:5 14:5 16:5 17:5 14:5 15:10 17:5
12:0 3:5 2:5 3:5 14:5 16:5 17:5 14:5 15:10 17:5 2:5
3:0 2:5 3:5 14:5 16:5 17:5 14:5 15:10 17:5 2:5 1:5
2:0 3:5 14:5 16:5 17:5 14:5 15:10 17:5 2:5 1:5 6:5
3:0 14:5 16:5 17:5 14:5 15:10 17:5 2:5 1:5 6:5 15:5
14:0 16:5 17:5 14:5 15:10 17:5 2:5 1:5 6:5 15:5 13:5
16:0 17:5 14:5 15:10 17:5 2:5 1:5 6:5 15:5 13:5 14:5
17:0 14:5 15:10 17:5 2:5 1:5 6:5 15:5 13:5 14:5 16:5
14:0 15:10 17:5 2:5 1:5 6:5 15:5 13:5 14:5 16:5 15:15
15:0 17:5 2:5 1:5 6:5 15:5 13:5 14:5 16:5 15:15 14:5
17:0 2:5 1:5 6:5 15:5 13:5 14:5 16:5 15:15 14:5 3:5
2:0 1:5 6:5 15:5 13:5 14:5 16:5 15:15 14:5 3:5 2:5
1:0 6:5 15:5 13:5 14:5 16:5 15:15 14:5 3:5 2:5 1:5
6:0 15:5 13:5 14:5 16:5 15:15 14:5 3:5 2:5 1:5 9:5
15:0 13:5 14:5 16:5 15:15 14:5 3:5 2:5 1:5 9:5 13:5
13:0 14:5 16:5 15:15 14:5 3:5 2:5 1:5 9:5 13:5 12:5
14:0 16:5 15:15 14:5 3:5 2:5 1:5 9:5 13:5 12:5 14:5
16:0 15:15 14:5 3:5 2:5 1:5 9:5 13:5 12:5 14:5 17:5
15:0 14:5 3:5 2:5 1:5 9:5 13:5 12:5 14:5 17:5 16:5
14:0 3:5 2:5 1:5 9:5 13:5 12:5 14:5 17:5 16:5 15:5
3:0 2:5 1:5 9:5 13:5 12:5 14:5 17:5 16:5 15:5 14:5
2:0 1:5 9:5 13:5 12:5 14:5 17:5 16:5 15:5 14:5 16:5
1:0 9:5 13:5 12:5 14:5 17:5 16:5 15:5 14:5 16:5 6:5
9:0 13:5 12:5 14:5 17:5 16:5 15:5 14:5 16:5 6:5 2:5
13:0 12:5 14:5 17:5 16:5 15:5 14:5 16:5 6:5 2:5 1:5
12:0 14:5 17:5 16:5 15:5 14:5 16:5 6:5 2:5 1:5 9:5
14:0 17:5 16:5 15:5 14:5 16:5 6:5 2:5 1:5 9:5 15:5
17:0 16:5 15:5 14:5 16:5 6:5 2:5 1:5 9:5 15:5 16:5
16:0 15:5 14:5 16:5 6:5 2:5 1:5 9:5 15:5 16:5 14:10
15:0 14:5 16:5 6:5 2:5 1:5 9:5 15:5 16:5 14:10 16:10
14:0 16:5 6:5 2:5 1:5 9:5 15:5 16:5 14:10 16:10 11:5
16:0 6:5 2:5 1:5 9:5 15:5 16:5 14:10 16:10 11:5 2:5
6:0 2:5 1:5 9:5 15:5 16:5 14:10 16:10 11:5 2:5 1:5
2:0 1:5 9:5 15:5 16:5 14:10 16:10 11:5 2:5 1:5 10:5
1:0 9:5 15:5 16:5 14:10 16:10 11:5 2:5 1:5 10:5 14:5
9:0 15:5 16:5 14:10 16:10 11:5 2:5 1:5 10:5 14:5 15:10
15:0 16:5 14:10 16:10 11:5 2:5 1:5 10:5 14:5 15:10 16:5
16:0 14:10 16:10 11:5 2:5 1:5 10:5 14:5 15:10 16:5 2:10
14:0 16:10 11:5 2:5 1:5 10:5 14:5 15:10 16:5 2:10 1:5
16:0 11:5 2:5 1:5 10:5 14:5 15:10 16:5 2:10 1:5 7:5
11:0 2:5 1:5 10:5 14:5 15:10 16:5 2:10 1:5 7:5 12:5
2:0 1:5 10:5 14:5 15:10 16:5 2:10 1:5 7:5 12:5 15:5
1:0 10:5 14:5 15:10 16:5 2:10 1:5 7:5 12:5 15:5 16:5
10:0 14:5 15:10 16:5 2:10 1:5 7:5 12:5 15:5 16:5 14:10
14:0 15:10 16:5 2:10 1:5 7:5 12:5 15:5 16:5 14:10 16:10
15:0 16:5 2:10 1:5 7:5 12:5 15:5 16:5 14:10 16:10 5:5
16:0 2:10 1:5 7:5 12:5 15:5 16:5 14:10 16:10 5:5 2:5
2:0 1:5 7:5 12:5 15:5 16:5 14:10 16:10 5:5 2:5 1:5
1:0 7:5 12:5 15:5 16:5 14:10 16:10 5:5 2:5 1:5 13:5
7:0 12:5 15:5 16:5 14:10 16:10 5:5 2:5 1:5 13:5 14:5
12:0 15:5 16:5 14:10 16:10 5:5 2:5 1:5 13:5 14:5 13:5
15:0 16:5 14:10 16:10 5:5 2:5 1:5 13:5 14:5 13:5 14:5
16:0 14:10 16:10 5:5 2:5 1:5 13:5 14:5 13:5 14:5 15:5
14:0 16:10 5:5 2:5 1:5 13:5 14:5 13:5 14:5 15:5 17:5
16:0 5:5 2:5 1:5 13:5 14:5 13:5 14:5 15:5 17:5 6:5
5:0 2:5 1:5 13:5 14:5 13:5 14:5 15:5 17:5 6:5 1:5
2:0 1:5 13:5 14:5 13:5 14:5 15:5 17:5 6:5 1:5 3:5
1:0 13:5 14:5 13:5 14:5 15:5 17:5 6:5 1:5 3:5 12:5
13:0 14:5 13:5 14:5 15:5 17:5 6:5 1:5 3:5 12:5 14:5
14:0 13:5 14:5 15:5 17:5 6:5 1:5 3:5 12:5 14:5 16:5
13:0 14:5 15:5 17:5 6:5 1:5 3:5 12:5 14:5 16:5 17:5
14:0 15:5 17:5 6:5 1:5 3:5 12:5 14:5 16:5 17:5 15:5
15:0 17:5 6:5 1:5 3:5 12:5 14:5 16:5 17:5 15:5 14:5
17:0 6:5 1:5 3:5 12:5 14:5 16:5 17:5 15:5 14:5 15:5
6:0 1:5 3:5 12:5 14:5 16:5 17:5 15:5 14:5 15:5 6:5
1:0 3:5 12:5 14:5 16:5 17:5 15:5 14:5 15:5 6:5 3:5
3:0 12:5 14:5 16:5 17:5 15:5 14:5 15:5 6:5 3:5 1:5
12:0 14:5 16:5 17:5 15:5 14:5 15:5 6:5 3:5 1:5 6:5
14:0 16:5 17:5 15:5 14:5 15:5 6:5 3:5 1:5 6:5 14:5
16:0 17:5 15:5 14:5 15:5 6:5 3:5 1:5 6:5 14:5 17:10
17:0 15:5 14:5 15:5 6:5 3:5 1:5 6:5 14:5 17:10 14:5
15:0 14:5 15:5 6:5 3:5 1:5 6:5 14:5 17:10 14:5 16:10
14:0 15:5 6:5 3:5 1:5 6:5 14:5 17:10 14:5 16:10 8:5
15:0 6:5 3:5 1:5 6:5 14:5 17:10 14:5 16:10 8:5 2:5
6:0 3:5 1:5 6:5 14:5 17:10 14:5 16:10 8:5 2:5 1:5
3:0 1:5 6:5 14:5 17:10 14:5 16:10 8:5 2:5 1:5 13:5
1:0 6:5 14:5 17:10 14:5 16:10 8:5 2:5 1:5 13:5 14:5
6:0 14:5 17:10 14:5 16:10 8:5 2:5 1:5 13:5 14:5 13:5
14:0 17:10 14:5 16:10 8:5 2:5 1:5 13:5 14:5 13:5 15:5
17:0 14:5 16:10 8:5 2:5 1:5 13:5 14:5 13:5 15:5 16:5
14:0 16:10 8:5 2:5 1:5 13:5 14:5 13:5 15:5 16:5 8:15
16:0 8:5 2:5 1:5 13:5 14:5 13:5 15:5 16:5 8:15 2:5
8:0 2:5 1:5 13:5 14:5 13:5 15:5 16:5 8:15 2:5 1:5
2:0 1:5 13:5 14:5 13:5 15:5 16:5 8:15 2:5 1:5 11:5
1:0 13:5 14:5 13:5 15:5 16:5 8:15 2:5 1:5 11:5 16:5
13:0 14:5 13:5 15:5 16:5 8:15 2:5 1:5 11:5 16:5 14:10
14:0 13:5 15:5 16:5 8:15 2:5 1:5 11:5 16:5 14:10 15:10
13:0 15:5 16:5 8:15 2:5 1:5 11:5 16:5 14:10 15:10 11:5
15:0 16:5 8:15 2:5 1:5 11:5 16:5 14:10 15:10 11:5 2:5
16:0 8:15 2:5 1:5 11:5 16:5 14:10 15:10 11:5 2:5 1:5
8:0 2:5 1:5 11:5 16:5 14:10 15:10 11:5 2:5 1:5 6:5
2:0 1:5 11:5 16:5 14:10 15:10 11:5 2:5 1:5 6:5 15:5
1:0 11:5 16:5 14:10 15:10 11:5 2:5 1:5 6:5 15:5 13:5
11:0 16:5 14:10 15:10 11:5 2:5 1:5 6:5 15:5 13:5 14:5
16:0 14:10 15:10 11:5 2:5 1:5 6:5 15:5 13:5 14:5 15:5
14:0 15:10 11:5 2:5 1:5 6:5 15:5 13:5 14:5 15:5 17:5
15:0 11:5 2:5 1:5 6:5 15:5 13:5 14:5 15:5 17:5 15:5
11:0 2:5 1:5 6:5 15:5 13:5 14:5 15:5 17:5 15:5 8:15
2:0 1:5 6:5 15:5 13:5 14:5 15:5 17:5 15:5 8:15 2:5
1:0 6:5 15:5 13:5 14:5 15:5 17:5 15:5 8:15 2:5 13:15
6:0 15:5 13:5 14:5 15:5 17:5 15:5 8:15 2:5 13:15 16:10
15:0 13:5 14:5 15:5 17:5 15:5 8:15 2:5 13:15 16:10 17:5
13:0 14:5 15:5 17:5 15:5 8:15 2:5 13:15 16:10 17:5 10:5
14:0 15:5 17:5 15:5 8:15 2:5 13:15 16:10 17:5 10:5 1:5
15:0 17:5 15:5 8:15 2:5 13:15 16:10 17:5 10:5 1:5 3:5
17:0 15:5 8:15 2:5 13:15 16:10 17:5 10:5 1:5 3:5 14:5
15:0 8:15 2:5 13:15 16:10 17:5 10:5 1:5 3:5 14:5 16:15
8:0 2:5 13:15 16:10 17:5 10:5 1:5 3:5 14:5 16:15 5:15
2:0 13:15 16:10 17:5 10:5 1:5 3:5 14:5 16:15 5:15 2:5
13:0 16:10 17:5 10:5 1:5 3:5 14:5 16:15 5:15 2:5 13:10
16:0 17:5 10:5 1:5 3:5 14:5 16:15 5:15 2:5 13:10 14:5
17:0 10:5 1:5 3:5 14:5 16:15 5:15 2:5 13:10 14:5 16:15
10:0 1:5 3:5 14:5 16:15 5:15 2:5 13:10 14:5 16:15 14:15
1:0 3:5 14:5 16:15 5:15 2:5 13:10 14:5 16:15 14:15 2:10
3:0 14:5 16:15 5:15 2:5 13:10 14:5 16:15 14:15 2:10 1:10
14:0 16:15 5:15 2:5 13:10 14:5 16:15 14:15 2:10 1:10 9:5
16:0 5:15 2:5 13:10 14:5 16:15 14:15 2:10 1:10 9:5 13:5
5:0 2:5 13:10 14:5 16:15 14:15 2:10 1:10 9:5 13:5 15:10
2:0 13:10 14:5 16:15 14:15 2:10 1:10 9:5 13:5 15:10 17:5
13:0 14:5 16:15 14:15 2:10 1:10 9:5 13:5 15:10 17:5 16:5
14:0 16:15 14:15 2:10 1:10 9:5 13:5 15:10 17:5 16:5 15:5
16:0 14:15 2:10 1:10 9:5 13:5 15:10 17:5 16:5 15:5 14:5
14:0 2:10 1:10 9:5 13:5 15:10 17:5 16:5 15:5 14:5 15:5
2:0 1:10 9:5 13:5 15:10 17:5 16:5 15:5 14:5 15:5 3:5
1:0 9:5 13:5 15:10 17:5 16:5 15:5 14:5 15:5 3:5 2:5
9:0 13:5 15:10 17:5 16:5 15:5 14:5 15:5 3:5 2:5 13:10
13:0 15:10 17:5 16:5 15:5 14:5 15:5 3:5 2:5 13:10 14:5
15:0 17:5 16:5 15:5 14:5 15:5 3:5 2:5 13:10 14:5 16:15
17:0 16:5 15:5 14:5 15:5 3:5 2:5 13:10 14:5 16:15 10:10
16:0 15:5 14:5 15:5 3:5 2:5 13:10 14:5 16:15 10:10 1:5
15:0 14:5 15:5 3:5 2:5 13:10 14:5 16:15 10:10 1:5 2:5
14:0 15:5 3:5 2:5 13:10 14:5 16:15 10:10 1:5 2:5 13:5
15:0 3:5 2:5 13:10 14:5 16:15 10:10 1:5 2:5 13:5 14:5
3:0 2:5 13:10 14:5 16:15 10:10 1:5 2:5 13:5 14:5 17:5
2:0 13:10 14:5 16:15 10:10 1:5 2:5 13:5 14:5 17:5 16:5
13:0 14:5 16:15 10:10 1:5 2:5 13:5 14:5 17:5 16:5 15:5
14:0 16:15 10:10 1:5 2:5 13:5 14:5 17:5 16:5 15:5 14:5
16:0 10:10 1:5 2:5 13:5 14:5 17:5 16:5 15:5 14:5 17:5
10:0 1:5 2:5 13:5 14:5 17:5 16:5 15:5 14:5 17:5 3:5
1:0 2:5 13:5 14:5 17:5 16:5 15:5 14:5 17:5 3:5 2:5
2:0 13:5 14:5 17:5 16:5 15:5 14:5 17:5 3:5 2:5 1:5
13:0 14:5 17:5 16:5 15:5 14:5 17:5 3:5 2:5 1:5 13:5
14:0 17:5 16:5 15:5 14:5 17:5 3:5 2:5 1:5 13:5 14:5
17:0 16:5 15:5 14:5 17:5 3:5 2:5 1:5 13:5 14:5 16:15
16:0 15:5 14:5 17:5 3:5 2:5 1:5 13:5 14:5 16:15 14:15
15:0 14:5 17:5 3:5 2:5 1:5 13:5 14:5 16:15 14:15 16:5
14:0 17:5 3:5 2:5 1:5 13:5 14:5 16:15 14:15 16:5 5:5
17:0 3:5 2:5 1:5 13:5 14:5 16:15 14:15 16:5 5:5 2:5
3:0 2:5 1:5 13:5 14:5 16:15 14:15 16:5 5:5 2:5 1:5
2:0 1:5 13:5 14:5 16:15 14:15 16:5 5:5 2:5 1:5 7:5
1:0 13:5 14:5 16:15 14:15 16:5 5:5 2:5 1:5 7:5 13:5
13:0 14:5 16:15 14:15 16:5 5:5 2:5 1:5 7:5 13:5 14:10
14:0 16:15 14:15 16:5 5:5 2:5 1:5 7:5 13:5 14:10 17:5
16:0 14:15 16:5 5:5 2:5 1:5 7:5 13:5 14:10 17:5 11:5
14:0 16:5 5:5 2:5 1:5 7:5 13:5 14:10 17:5 11:5 2:5
16:0 5:5 2:5 1:5 7:5 13:5 14:10 17:5 11:5 2:5 3:5
5:0 2:5 1:5 7:5 13:5 14:10 17:5 11:5 2:5 3:5 15:5
2:0 1:5 7:5 13:5 14:10 17:5 11:5 2:5 3:5 15:5 16:5
1:0 7:5 13:5 14:10 17:5 11:5 2:5 3:5 15:5 16:5 14:10
7:0 13:5 14:10 17:5 11:5 2:5 3:5 15:5 16:5 14:10 16:10
13:0 14:10 17:5 11:5 2:5 3:5 15:5 16:5 14:10 16:10 17:5
14:0 17:5 11:5 2:5 3:5 15:5 16:5 14:10 16:10 17:5 2:5
17:0 11:5 2:5 3:5 15:5 16:5 14:10 16:10 17:5 2:5 1:5
11:0 2:5 3:5 15:5 16:5 14:10 16:10 17:5 2:5 1:5 7:5
2:0 3:5 15:5 16:5 14:10 16:10 17:5 2:5 1:5 7:5 14:5
3:0 15:5 16:5 14:10 16:10 17:5 2:5 1:5 7:5 14:5 16:15
15:0 16:5 14:10 16:10 17:5 2:5 1:5 7:5 14:5 16:15 15:10
16:0 14:10 16:10 17:5 2:5 1:5 7:5 14:5 16:15 15:10 14:5
14:0 16:10 17:5 2:5 1:5 7:5 14:5 16:15 15:10 14:5 16:5
16:0 17:5 2:5 1:5 7:5 14:5 16:15 15:10 14:5 16:5 7:5
17:0 2:5 1:5 7:5 14:5 16:15 15:10 14:5 16:5 7:5 2:5
2:0 1:5 7:5 14:5 16:15 15:10 14:5 16:5 7:5 2:5 1:5
1:0 7:5 14:5 16:15 15:10 14:5 16:5 7:5 2:5 1:5 9:5
7:0 14:5 16:15 15:10 14:5 16:5 7:5 2:5 1:5 9:5 13:5
14:0 16:15 15:10 14:5 16:5 7:5 2:5 1:5 9:5 13:5 16:10
16:0 15:10 14:5 16:5 7:5 2:5 1:5 9:5 13:5 16:10 17:5
15:0 14:5 16:5 7:5 2:5 1:5 9:5 13:5 16:10 17:5 16:5
14:0 16:5 7:5 2:5 1:5 9:5 13:5 16:10 17:5 16:5 14:5
16:0 7:5 2:5 1:5 9:5 13:5 16:10 17:5 16:5 14:5 17:10
7:0 2:5 1:5 9:5 13:5 16:10 17:5 16:5 14:5 17:10 5:5
2:0 1:5 9:5 13:5 16:10 17:5 16:5 14:5 17:10 5:5 2:5
1:0 9:5 13:5 16:10 17:5 16:5 14:5 17:10 5:5 2:5 1:5
9:0 13:5 16:10 17:5 16:5 14:5 17:10 5:5 2:5 1:5 10:5
13:0 16:10 17:5 16:5 14:5 17:10 5:5 2:5 1:5 10:5 16:5
16:0 17:5 16:5 14:5 17:10 5:5 2:5 1:5 10:5 16:5 15:10
17:0 16:5 14:5 17:10 5:5 2:5 1:5 10:5 16:5 15:10 14:5
16:0 14:5 17:10 5:5 2:5 1:5 10:5 16:5 15:10 14:5 15:5
14:0 17:10 5:5 2:5 1:5 10:5 16:5 15:10 14:5 15:5 16:5
17:0 5:5 2:5 1:5 10:5 16:5 15:10 14:5 15:5 16:5 5:5
5:0 2:5 1:5 10:5 16:5 15:10 14:5 15:5 16:5 5:5 1:5
2:0 1:5 10:5 16:5 15:10 14:5 15:5 16:5 5:5 1:5 2:5
1:0 10:5 16:5 15:10 14:5 15:5 16:5 5:5 1:5 2:5 14:5
10:0 16:5 15:10 14:5 15:5 16:5 5:5 1:5 2:5 14:5 17:10
16:0 15:10 14:5 15:5 16:5 5:5 1:5 2:5 14:5 17:10 16:5
15:0 14:5 15:5 16:5 5:5 1:5 2:5 14:5 17:10 16:5 14:5
14:0 15:5 16:5 5:5 1:5 2:5 14:5 17:10 16:5 14:5 16:5
15:0 16:5 5:5 1:5 2:5 14:5 17:10 16:5 14:5 16:5 8:5
16:0 5:5 1:5 2:5 14:5 17:10 16:5 14:5 16:5 8:5 2:5
5:0 1:5 2:5 14:5 17:10 16:5 14:5 16:5 8:5 2:5 1:5
1:0 2:5 14:5 17:10 16:5 14:5 16:5 8:5 2:5 1:5 9:5
2:0 14:5 17:10 16:5 14:5 16:5 8:5 2:5 1:5 9:5 14:5
14:0 17:10 16:5 14:5 16:5 8:5 2:5 1:5 9:5 14:5 15:5
17:0 16:5 14:5 16:5 8:5 2:5 1:5 9:5 14:5 15:5 16:5
16:0 14:5 16:5 8:5 2:5 1:5 9:5 14:5 15:5 16:5 14:5
14:0 16:5 8:5 2:5 1:5 9:5 14:5 15:5 16:5 14:5 17:10
16:0 8:5 2:5 1:5 9:5 14:5 15:5 16:5 14:5 17:10 8:5
8:0 2:5 1:5 9:5 14:5 15:5 16:5 14:5 17:10 8:5 2:5
2:0 1:5 9:5 14:5 15:5 16:5 14:5 17:10 8:5 2:5 14:10
1:0 9:5 14:5 15:5 16:5 14:5 17:10 8:5 2:5 14:10 16:15
9:0 14:5 15:5 16:5 14:5 17:10 8:5 2:5 14:10 16:15 17:5
14:0 15:5 16:5 14:5 17:10 8:5 2:5 14:10 16:15 17:5 16:5
15:0 16:5 14:5 17:10 8:5 2:5 14:10 16:15 17:5 16:5 2:5
16:0 14:5 17:10 8:5 2:5 14:10 16:15 17:5 16:5 2:5 1:5
14:0 17:10 8:5 2:5 14:10 16:15 17:5 16:5 2:5 1:5 6:5
17:0 8:5 2:5 14:10 16:15 17:5 16:5 2:5 1:5 6:5 13:5
8:0 2:5 14:10 16:15 17:5 16:5 2:5 1:5 6:5 13:5 15:5
2:0 14:10 16:15 17:5 16:5 2:5 1:5 6:5 13:5 15:5 16:5
14:0 16:15 17:5 16:5 2:5 1:5 6:5 13:5 15:5 16:5 17:5
16:0 17:5 16:5 2:5 1:5 6:5 13:5 15:5 16:5 17:5 14:5
17:0 16:5 2:5 1:5 6:5 13:5 15:5 16:5 17:5 14:5 15:5
16:0 2:5 1:5 6:5 13:5 15:5 16:5 17:5 14:5 15:5 17:5
2:0 1:5 6:5 13:5 15:5 16:5 17:5 14:5 15:5 17:5 3:5
1:0 6:5 13:5 15:5 16:5 17:5 14:5 15:5 17:5 3:5 2:5
6:0 13:5 15:5 16:5 17:5 14:5 15:5 17:5 3:5 2:5 1:5
13:0 15:5 16:5 17:5 14:5 15:5 17:5 3:5 2:5 1:5 13:5
15:0 16:5 17:5 14:5 15:5 17:5 3:5 2:5 1:5 13:5 15:5
16:0 17:5 14:5 15:5 17:5 3:5 2:5 1:5 13:5 15:5 16:5
17:0 14:5 15:5 17:5 3:5 2:5 1:5 13:5 15:5 16:5 13:10
14:0 15:5 17:5 3:5 2:5 1:5 13:5 15:5 16:5 13:10 15:5
15:0 17:5 3:5 2:5 1:5 13:5 15:5 16:5 13:10 15:5 17:5
17:0 3:5 2:5 1:5 13:5 15:5 16:5 13:10 15:5 17:5 6:5
3:0 2:5 1:5 13:5 15:5 16:5 13:10 15:5 17:5 6:5 1:5
2:0 1:5 13:5 15:5 16:5 13:10 15:5 17:5 6:5 1:5 2:5
1:0 13:5 15:5 16:5 13:10 15:5 17:5 6:5 1:5 2:5 14:5
13:0 15:5 16:5 13:10 15:5 17:5 6:5 1:5 2:5 14:5 15:10
15:0 16:5 13:10 15:5 17:5 6:5 1:5 2:5 14:5 15:10 16:5
16:0 13:10 15:5 17:5 6:5 1:5 2:5 14:5 15:10 16:5 14:5
13:0 15:5 17:5 6:5 1:5 2:5 14:5 15:10 16:5 14:5 15:5
15:0 17:5 6:5 1:5 2:5 14:5 15:10 16:5 14:5 15:5 17:5
17:0 6:5 1:5 2:5 14:5 15:10 16:5 14:5 15:5 17:5 3:5
6:0 1:5 2:5 14:5 15:10 16:5 14:5 15:5 17:5 3:5 1:5
1:0 2:5 14:5 15:10 16:5 14:5 15:5 17:5 3:5 1:5 6:5
2:0 14:5 15:10 16:5 14:5 15:5 17:5 3:5 1:5 6:5 15:5
14:0 15:10 16:5 14:5 15:5 17:5 3:5 1:5 6:5 15:5 16:5
15:0 16:5 14:5 15:5 17:5 3:5 1:5 6:5 15:5 16:5 14:10
16:0 14:5 15:5 17:5 3:5 1:5 6:5 15:5 16:5 14:10 16:10
14:0 15:5 17:5 3:5 1:5 6:5 15:5 16:5 14:10 16:10 8:5
15:0 17:5 3:5 1:5 6:5 15:5 16:5 14:10 16:10 8:5 1:5
17:0 3:5 1:5 6:5 15:5 16:5 14:10 16:10 8:5 1:5 2:5
3:0 1:5 6:5 15:5 16:5 14:10 16:10 8:5 1:5 2:5 13:5
1:0 6:5 15:5 16:5 14:10 16:10 8:5 1:5 2:5 13:5 14:5
6:0 15:5 16:5 14:10 16:10 8:5 1:5 2:5 13:5 14:5 13:5
15:0 16:5 14:10 16:10 8:5 1:5 2:5 13:5 14:5 13:5 15:5
16:0 14:10 16:10 8:5 1:5 2:5 13:5 14:5 13:5 15:5 16:5
14:0 16:10 8:5 1:5 2:5 13:5 14:5 13:5 15:5 16:5 15:10
16:0 8:5 1:5 2:5 13:5 14:5 13:5 15:5 16:5 15:10 16:5
8:0 1:5 2:5 13:5 14:5 13:5 15:5 16:5 15:10 16:5 5:5
1:0 2:5 13:5 14:5 13:5 15:5 16:5 15:10 16:5 5:5 2:5
2:0 13:5 14:5 13:5 15:5 16:5 15:10 16:5 5:5 2:5 13:15
13:0 14:5 13:5 15:5 16:5 15:10 16:5 5:5 2:5 13:15 16:15
14:0 13:5 15:5 16:5 15:10 16:5 5:5 2:5 13:15 16:15 14:15
13:0 15:5 16:5 15:10 16:5 5:5 2:5 13:15 16:15 14:15 15:5
15:0 16:5 15:10 16:5 5:5 2:5 13:15 16:15 14:15 15:5 17:5
16:0 15:10 16:5 5:5 2:5 13:15 16:15 14:15 15:5 17:5 3:5
15:0 16:5 5:5 2:5 13:15 16:15 14:15 15:5 17:5 3:5 2:5
16:0 5:5 2:5 13:15 16:15 14:15 15:5 17:5 3:5 2:5 1:5
5:0 2:5 13:15 16:15 14:15 15:5 17:5 3:5 2:5 1:5 14:5
2:0 13:15 16:15 14:15 15:5 17:5 3:5 2:5 1:5 14:5 16:5
13:0 16:15 14:15 15:5 17:5 3:5 2:5 1:5 14:5 16:5 15:10
16:0 14:15 15:5 17:5 3:5 2:5 1:5 14:5 16:5 15:10 14:5
14:0 15:5 17:5 3:5 2:5 1:5 14:5 16:5 15:10 14:5 15:5
15:0 17:5 3:5 2:5 1:5 14:5 16:5 15:10 14:5 15:5 17:5
17:0 3:5 2:5 1:5 14:5 16:5 15:10 14:5 15:5 17:5 5:5
3:0 2:5 1:5 14:5 16:5 15:10 14:5 15:5 17:5 5:5 1:5
2:0 1:5 14:5 16:5 15:10 14:5 15:5 17:5 5:5 1:5 3:5
1:0 14:5 16:5 15:10 14:5 15:5 17:5 5:5 1:5 3:5 15:5
14:0 16:5 15:10 14:5 15:5 17:5 5:5 1:5 3:5 15:5 14:5
16:0 15:10 14:5 15:5 17:5 5:5 1:5 3:5 15:5 14:5 17:5
15:0 14:5 15:5 17:5 5:5 1:5 3:5 15:5 14:5 17:5 15:5
14:0 15:5 17:5 5:5 1:5 3:5 15:5 14:5 17:5 15:5 14:5
15:0 17:5 5:5 1:5 3:5 15:5 14:5 17:5 15:5 14:5 16:5
17:0 5:5 1:5 3:5 15:5 14:5 17:5 15:5 14:5 16:5 6:5
5:0 1:5 3:5 15:5 14:5 17:5 15:5 14:5 16:5 6:5 2:5
1:0 3:5 15:5 14:5 17:5 15:5 14:5 16:5 6:5 2:5 1:5
3:0 15:5 14:5 17:5 15:5 14:5 16:5 6:5 2:5 1:5 13:5
15:0 14:5 17:5 15:5 14:5 16:5 6:5 2:5 1:5 13:5 14:5
14:0 17:5 15:5 14:5 16:5 6:5 2:5 1:5 13:5 14:5 15:15
17:0 15:5 14:5 16:5 6:5 2:5 1:5 13:5 14:5 15:15 17:5
15:0 14:5 16:5 6:5 2:5 1:5 13:5 14:5 15:15 17:5 15:5
14:0 16:5 6:5 2:5 1:5 13:5 14:5 15:15 17:5 15:5 16:10
16:0 6:5 2:5 1:5 13:5 14:5 15:15 17:5 15:5 16:10 8:5
6:0 2:5 1:5 13:5 14:5 15:15 17:5 15:5 16:10 8:5 2:5
2:0 1:5 13:5 14:5 15:15 17:5 15:5 16:10 8:5 2:5 1:5
1:0 13:5 14:5 15:15 17:5 15:5 16:10 8:5 2:5 1:5 6:5
13:0 14:5 15:15 17:5 15:5 16:10 8:5 2:5 1:5 6:5 13:5
14:0 15:15 17:5 15:5 16:10 8:5 2:5 1:5 6:5 13:5 17:10
15:0 17:5 15:5 16:10 8:5 2:5 1:5 6:5 13:5 17:10 15:5
17:0 15:5 16:10 8:5 2:5 1:5 6:5 13:5 17:10 15:5 2:5
15:0 16:10 8:5 2:5 1:5 6:5 13:5 17:10 15:5 2:5 1:5
16:0 8:5 2:5 1:5 6:5 13:5 17:10 15:5 2:5 1:5 12:5
8:0 2:5 1:5 6:5 13:5 17:10 15:5 2:5 1:5 12:5 14:5
2:0 1:5 6:5 13:5 17:10 15:5 2:5 1:5 12:5 14:5 13:5
1:0 6:5 13:5 17:10 15:5 2:5 1:5 12:5 14:5 13:5 14:10
6:0 13:5 17:10 15:5 2:5 1:5 12:5 14:5 13:5 14:10 17:5
13:0 17:10 15:5 2:5 1:5 12:5 14:5 13:5 14:10 17:5 15:5
17:0 15:5 2:5 1:5 12:5 14:5 13:5 14:10 17:5 15:5 17:15
15:0 2:5 1:5 12:5 14:5 13:5 14:10 17:5 15:5 17:15 3:5
2:0 1:5 12:5 14:5 13:5 14:10 17:5 15:5 17:15 3:5 2:5
1:0 12:5 14:5 13:5 14:10 17:5 15:5 17:15 3:5 2:5 1:5
12:0 14:5 13:5 14:10 17:5 15:5 17:15 3:5 2:5 1:5 13:5
14:0 13:5 14:10 17:5 15:5 17:15 3:5 2:5 1:5 13:5 14:10
13:0 14:10 17:5 15:5 17:15 3:5 2:5 1:5 13:5 14:10 16:5
14:0 17:5 15:5 17:15 3:5 2:5 1:5 13:5 14:10 16:5 17:5
17:0 15:5 17:15 3:5 2:5 1:5 13:5 14:10 16:5 17:5 15:5
15:0 17:15 3:5 2:5 1:5 13:5 14:10 16:5 17:5 15:5 14:5
17:0 3:5 2:5 1:5 13:5 14:10 16:5 17:5 15:5 14:5 16:5
3:0 2:5 1:5 13:5 14:10 16:5 17:5 15:5 14:5 16:5 5:5
2:0 1:5 13:5 14:10 16:5 17:5 15:5 14:5 16:5 5:5 2:5
1:0 13:5 14:10 16:5 17:5 15:5 14:5 16:5 5:5 2:5 1:5
13:0 14:10 16:5 17:5 15:5 14:5 16:5 5:5 2:5 1:5 9:5
14:0 16:5 17:5 15:5 14:5 16:5 5:5 2:5 1:5 9:5 14:5
16:0 17:5 15:5 14:5 16:5 5:5 2:5 1:5 9:5 14:5 15:10
17:0 15:5 14:5 16:5 5:5 2:5 1:5 9:5 14:5 15:10 16:5
15:0 14:5 16:5 5:5 2:5 1:5 9:5 14:5 15:10 16:5 10:10
14:0 16:5 5:5 2:5 1:5 9:5 14:5 15:10 16:5 10:10 1:5
16:0 5:5 2:5 1:5 9:5 14:5 15:10 16:5 10:10 1:5 12:10
5:0 2:5 1:5 9:5 14:5 15:10 16:5 10:10 1:5 12:10 14:5
2:0 1:5 9:5 14:5 15:10 16:5 10:10 1:5 12:10 14:5 17:5
1:0 9:5 14:5 15:10 16:5 10:10 1:5 12:10 14:5 17:5 16:5
9:0 14:5 15:10 16:5 10:10 1:5 12:10 14:5 17:5 16:5 15:5
14:0 15:10 16:5 10:10 1:5 12:10 14:5 17:5 16:5 15:5 14:5
15:0 16:5 10:10 1:5 12:10 14:5 17:5 16:5 15:5 14:5 15:5
16:0 10:10 1:5 12:10 14:5 17:5 16:5 15:5 14:5 15:5 9:5
10:0 1:5 12:10 14:5 17:5 16:5 15:5 14:5 15:5 9:5 2:5
1:0 12:10 14:5 17:5 16:5 15:5 14:5 15:5 9:5 2:5 1:5
12:0 14:5 17:5 16:5 15:5 14:5 15:5 9:5 2:5 1:5 5:5
14:0 17:5 16:5 15:5 14:5 15:5 9:5 2:5 1:5 5:5 14:5
17:0 16:5 15:5 14:5 15:5 9:5 2:5 1:5 5:5 14:5 13:5
16:0 15:5 14:5 15:5 9:5 2:5 1:5 5:5 14:5 13:5 14:5
15:0 14:5 15:5 9:5 2:5 1:5 5:5 14:5 13:5 14:5 15:5
14:0 15:5 9:5 2:5 1:5 5:5 14:5 13:5 14:5 15:5 17:5
15:0 9:5 2:5 1:5 5:5 14:5 13:5 14:5 15:5 17:5 9:5
9:0 2:5 1:5 5:5 14:5 13:5 14:5 15:5 17:5 9:5 1:5
2:0 1:5 5:5 14:5 13:5 14:5 15:5 17:5 9:5 1:5 4:5
1:0 5:5 14:5 13:5 14:5 15:5 17:5 9:5 1:5 4:5 13:5
5:0 14:5 13:5 14:5 15:5 17:5 9:5 1:5 4:5 13:5 16:10
14:0 13:5 14:5 15:5 17:5 9:5 1:5 4:5 13:5 16:10 15:10
13:0 14:5 15:5 17:5 9:5 1:5 4:5 13:5 16:10 15:10 14:5
14:0 15:5 17:5 9:5 1:5 4:5 13:5 16:10 15:10 14:5 15:5
15:0 17:5 9:5 1:5 4:5 13:5 16:10 15:10 14:5 15:5 12:5
17:0 9:5 1:5 4:5 13:5 16:10 15:10 14:5 15:5 12:5 2:5
9:0 1:5 4:5 13:5 16:10 15:10 14:5 15:5 12:5 2:5 1:5
1:0 4:5 13:5 16:10 15:10 14:5 15:5 12:5 2:5 1:5 3:5
4:0 13:5 16:10 15:10 14:5 15:5 12:5 2:5 1:5 3:5 14:5
13:0 16:10 15:10 14:5 15:5 12:5 2:5 1:5 3:5 14:5 15:5
16:0 15:10 14:5 15:5 12:5 2:5 1:5 3:5 14:5 15:5 17:5
15:0 14:5 15:5 12:5 2:5 1:5 3:5 14:5 15:5 17:5 14:5
14:0 15:5 12:5 2:5 1:5 3:5 14:5 15:5 17:5 14:5 15:10
15:0 12:5 2:5 1:5 3:5 14:5 15:5 17:5 14:5 15:10 17:5
12:0 2:5 1:5 3:5 14:5 15:5 17:5 14:5 15:10 17:5 5:5
2:0 1:5 3:5 14:5 15:5 17:5 14:5 15:10 17:5 5:5 1:5
1:0 3:5 14:5 15:5 17:5 14:5 15:10 17:5 5:5 1:5 6:5
3:0 14:5 15:5 17:5 14:5 15:10 17:5 5:5 1:5 6:5 15:5
14:0 15:5 17:5 14:5 15:10 17:5 5:5 1:5 6:5 15:5 16:10
15:0 17:5 14:5 15:10 17:5 5:5 1:5 6:5 15:5 16:10 14:5
17:0 14:5 15:10 17:5 5:5 1:5 6:5 15:5 16:10 14:5 17:10
14:0 15:10 17:5 5:5 1:5 6:5 15:5 16:10 14:5 17:10 5:5
15:0 17:5 5:5 1:5 6:5 15:5 16:10 14:5 17:10 5:5 2:5
17:0 5:5 1:5 6:5 15:5 16:10 14:5 17:10 5:5 2:5 1:5
5:0 1:5 6:5 15:5 16:10 14:5 17:10 5:5 2:5 1:5 14:5
1:0 6:5 15:5 16:10 14:5 17:10 5:5 2:5 1:5 14:5 17:15
6:0 15:5 16:10 14:5 17:10 5:5 2:5 1:5 14:5 17:15 15:5
15:0 16:10 14:5 17:10 5:5 2:5 1:5 14:5 17:15 15:5 17:15
16:0 14:5 17:10 5:5 2:5 1:5 14:5 17:15 15:5 17:15 3:5
14:0 17:10 5:5 2:5 1:5 14:5 17:15 15:5 17:15 3:5 1:5
17:0 5:5 2:5 1:5 14:5 17:15 15:5 17:15 3:5 1:5 7:10
5:0 2:5 1:5 14:5 17:15 15:5 17:15 3:5 1:5 7:10 13:5
2:0 1:5 14:5 17:15 15:5 17:15 3:5 1:5 7:10 13:5 17:15
1:0 14:5 17:15 15:5 17:15 3:5 1:5 7:10 13:5 17:15 15:5
14:0 17:15 15:5 17:15 3:5 1:5 7:10 13:5 17:15 15:5 2:5
17:0 15:5 17:15 3:5 1:5 7:10 13:5 17:15 15:5 2:5 13:10
15:0 17:15 3:5 1:5 7:10 13:5 17:15 15:5 2:5 13:10 14:5
17:0 3:5 1:5 7:10 13:5 17:15 15:5 2:5 13:10 14:5 16:15
3:0 1:5 7:10 13:5 17:15 15:5 2:5 13:10 14:5 16:15 15:10
1:0 7:10 13:5 17:15 15:5 2:5 13:10 14:5 16:15 15:10 16:10
7:0 13:5 17:15 15:5 2:5 13:10 14:5 16:15 15:10 16:10 3:5
13:0 17:15 15:5 2:5 13:10 14:5 16:15 15:10 16:10 3:5 2:5
17:0 15:5 2:5 13:10 14:5 16:15 15:10 16:10 3:5 2:5 1:5
15:0 2:5 13:10 14:5 16:15 15:10 16:10 3:5 2:5 1:5 9:5
2:0 13:10 14:5 16:15 15:10 16:10 3:5 2:5 1:5 9:5 13:5
13:0 14:5 16:15 15:10 16:10 3:5 2:5 1:5 9:5 13:5 16:10
14:0 16:15 15:10 16:10 3:5 2:5 1:5 9:5 13:5 16:10 17:5
16:0 15:10 16:10 3:5 2:5 1:5 9:5 13:5 16:10 17:5 4:5
15:0 16:10 3:5 2:5 1:5 9:5 13:5 16:10 17:5 4:5 1:5
16:0 3:5 2:5 1:5 9:5 13:5 16:10 17:5 4:5 1:5 9:5
3:0 2:5 1:5 9:5 13:5 16:10 17:5 4:5 1:5 9:5 14:5
2:0 1:5 9:5 13:5 16:10 17:5 4:5 1:5 9:5 14:5 16:15
1:0 9:5 13:5 16:10 17:5 4:5 1:5 9:5 14:5 16:15 15:15
9:0 13:5 16:10 17:5 4:5 1:5 9:5 14:5 16:15 15:15 16:5
13:0 16:10 17:5 4:5 1:5 9:5 14:5 16:15 15:15 16:5 5:5
16:0 17:5 4:5 1:5 9:5 14:5 16:15 15:15 16:5 5:5 3:5
17:0 4:5 1:5 9:5 14:5 16:15 15:15 16:5 5:5 3:5 2:5
4:0 1:5 9:5 14:5 16:15 15:15 16:5 5:5 3:5 2:5 1:5
1:0 9:5 14:5 16:15 15:15 16:5 5:5 3:5 2:5 1:5 12:5
9:0 14:5 16:15 15:15 16:5 5:5 3:5 2:5 1:5 12:5 14:10
14:0 16:15 15:15 16:5 5:5 3:5 2:5 1:5 12:5 14:10 16:5
16:0 15:15 16:5 5:5 3:5 2:5 1:5 12:5 14:10 16:5 14:10
15:0 16:5 5:5 3:5 2:5 1:5 12:5 14:10 16:5 14:10
16:0 5:5 3:5 2:5 1:5 12:5 14:10 16:5 14:10
5:0 3:5 2:5 1:5 12:5 14:10 16:5 14:10
3:0 2:5 1:5 12:5 14:10 16:5 14:10
2:0 1:5 12:5 14:10 16:5 14:10
1:0 12:5 14:10 16:5 14:10
12:0 14:10 16:5 14:10
14:0 16:5 14:10
16:0 14:10
14:0