5:0 4:5 5:5 4:5 3:5 4:15 10:10 11:5 5:10 2:15 10:10
4:0 5:5 4:5 3:5 4:15 10:10 11:5 5:10 2:15 10:10 11:5
5:0 4:5 3:5 4:15 10:10 11:5 5:10 2:15 10:10 11:5 5:5
4:0 3:5 4:15 10:10 11:5 5:10 2:15 10:10 11:5 5:5 4:5
3:0 4:15 10:10 11:5 5:10 2:15 10:10 11:5 5:5 4:5 3:15
4:0 10:10 11:5 5:10 2:15 10:10 11:5 5:5 4:5 3:15 4:15
10:0 11:5 5:10 2:15 10:10 11:5 5:5 4:5 3:15 4:15 5:5
11:0 5:10 2:15 10:10 11:5 5:5 4:5 3:15 4:15 5:5 10:5
5:0 2:15 10:10 11:5 5:5 4:5 3:15 4:15 5:5 10:5 11:5
2:0 10:10 11:5 5:5 4:5 3:15 4:15 5:5 10:5 11:5 9:10
10:0 11:5 5:5 4:5 3:15 4:15 5:5 10:5 11:5 9:10 5:5
11:0 5:5 4:5 3:15 4:15 5:5 10:5 11:5 9:10 5:5 4:10
5:0 4:5 3:15 4:15 5:5 10:5 11:5 9:10 5:5 4:10 3:5
4:0 3:15 4:15 5:5 10:5 11:5 9:10 5:5 4:10 3:5 4:10
3:0 4:15 5:5 10:5 11:5 9:10 5:5 4:10 3:5 4:10 3:10
4:0 5:5 10:5 11:5 9:10 5:5 4:10 3:5 4:10 3:10 6:5
5:0 10:5 11:5 9:10 5:5 4:10 3:5 4:10 3:10 6:5 11:5
10:0 11:5 9:10 5:5 4:10 3:5 4:10 3:10 6:5 11:5 6:10
11:0 9:10 5:5 4:10 3:5 4:10 3:10 6:5 11:5 6:10 4:5
9:0 5:5 4:10 3:5 4:10 3:10 6:5 11:5 6:10 4:5 3:10
5:0 4:10 3:5 4:10 3:10 6:5 11:5 6:10 4:5 3:10 10:5
4:0 3:5 4:10 3:10 6:5 11:5 6:10 4:5 3:10 10:5 11:5
3:0 4:10 3:10 6:5 11:5 6:10 4:5 3:10 10:5 11:5 10:5
4:0 3:10 6:5 11:5 6:10 4:5 3:10 10:5 11:5 10:5 5:5
3:0 6:5 11:5 6:10 4:5 3:10 10:5 11:5 10:5 5:5 3:15
6:0 11:5 6:10 4:5 3:10 10:5 11:5 10:5 5:5 3:15 2:5
11:0 6:10 4:5 3:10 10:5 11:5 10:5 5:5 3:15 2:5 6:5
6:0 4:5 3:10 10:5 11:5 10:5 5:5 3:15 2:5 6:5 11:5
4:0 3:10 10:5 11:5 10:5 5:5 3:15 2:5 6:5 11:5 9:5
3:0 10:5 11:5 10:5 5:5 3:15 2:5 6:5 11:5 9:5 4:5
10:0 11:5 10:5 5:5 3:15 2:5 6:5 11:5 9:5 4:5 3:15
11:0 10:5 5:5 3:15 2:5 6:5 11:5 9:5 4:5 3:15 4:10
10:0 5:5 3:15 2:5 6:5 11:5 9:5 4:5 3:15 4:10 11:5
5:0 3:15 2:5 6:5 11:5 9:5 4:5 3:15 4:10 11:5 5:15
3:0 2:5 6:5 11:5 9:5 4:5 3:15 4:10 11:5 5:15 4:5
2:0 6:5 11:5 9:5 4:5 3:15 4:10 11:5 5:15 4:5 3:15
6:0 11:5 9:5 4:5 3:15 4:10 11:5 5:15 4:5 3:15 6:20
11:0 9:5 4:5 3:15 4:10 11:5 5:15 4:5 3:15 6:20 10:5
9:0 4:5 3:15 4:10 11:5 5:15 4:5 3:15 6:20 10:5 11:5
4:0 3:15 4:10 11:5 5:15 4:5 3:15 6:20 10:5 11:5 7:10
3:0 4:10 11:5 5:15 4:5 3:15 6:20 10:5 11:5 7:10 5:5
4:0 11:5 5:15 4:5 3:15 6:20 10:5 11:5 7:10 5:5 3:10
11:0 5:15 4:5 3:15 6:20 10:5 11:5 7:10 5:5 3:10 4:15
5:0 4:5 3:15 6:20 10:5 11:5 7:10 5:5 3:10 4:15 3:10
4:0 3:15 6:20 10:5 11:5 7:10 5:5 3:10 4:15 3:10 10:5
3:0 6:20 10:5 11:5 7:10 5:5 3:10 4:15 3:10 10:5 11:5
6:0 10:5 11:5 7:10 5:5 3:10 4:15 3:10 10:5 11:5 5:10
10:0 11:5 7:10 5:5 3:10 4:15 3:10 10:5 11:5 5:10 4:5
11:0 7:10 5:5 3:10 4:15 3:10 10:5 11:5 5:10 4:5 3:10
7:0 5:5 3:10 4:15 3:10 10:5 11:5 5:10 4:5 3:10 9:15
5:0 3:10 4:15 3:10 10:5 11:5 5:10 4:5 3:10 9:15 11:5
3:0 4:15 3:10 10:5 11:5 5:10 4:5 3:10 9:15 11:5 10:5
4:0 3:10 10:5 11:5 5:10 4:5 3:10 9:15 11:5 10:5 5:5
3:0 10:5 11:5 5:10 4:5 3:10 9:15 11:5 10:5 5:5 4:5
10:0 11:5 5:10 4:5 3:10 9:15 11:5 10:5 5:5 4:5 3:5
11:0 5:10 4:5 3:10 9:15 11:5 10:5 5:5 4:5 3:5 6:5
5:0 4:5 3:10 9:15 11:5 10:5 5:5 4:5 3:5 6:5 11:5
4:0 3:10 9:15 11:5 10:5 5:5 4:5 3:5 6:5 11:5 9:5
3:0 9:15 11:5 10:5 5:5 4:5 3:5 6:5 11:5 9:5 4:5
9:0 11:5 10:5 5:5 4:5 3:5 6:5 11:5 9:5 4:5 3:15
11:0 10:5 5:5 4:5 3:5 6:5 11:5 9:5 4:5 3:15 4:15
10:0 5:5 4:5 3:5 6:5 11:5 9:5 4:5 3:15 4:15 3:5
5:0 4:5 3:5 6:5 11:5 9:5 4:5 3:15 4:15 3:5 6:5
4:0 3:5 6:5 11:5 9:5 4:5 3:15 4:15 3:5 6:5 11:5
3:0 6:5 11:5 9:5 4:5 3:15 4:15 3:5 6:5 11:5 5:15
6:0 11:5 9:5 4:5 3:15 4:15 3:5 6:5 11:5 5:15 4:10
11:0 9:5 4:5 3:15 4:15 3:5 6:5 11:5 5:15 4:10 2:5
9:0 4:5 3:15 4:15 3:5 6:5 11:5 5:15 4:10 2:5 3:5
4:0 3:15 4:15 3:5 6:5 11:5 5:15 4:10 2:5 3:5 4:5
3:0 4:15 3:5 6:5 11:5 5:15 4:10 2:5 3:5 4:5 3:10
4:0 3:5 6:5 11:5 5:15 4:10 2:5 3:5 4:5 3:10 9:5
3:0 6:5 11:5 5:15 4:10 2:5 3:5 4:5 3:10 9:5 10:5
6:0 11:5 5:15 4:10 2:5 3:5 4:5 3:10 9:5 10:5 11:5
11:0 5:15 4:10 2:5 3:5 4:5 3:10 9:5 10:5 11:5 8:5
5:0 4:10 2:5 3:5 4:5 3:10 9:5 10:5 11:5 8:5 4:5
4:0 2:5 3:5 4:5 3:10 9:5 10:5 11:5 8:5 4:5 3:5
2:0 3:5 4:5 3:10 9:5 10:5 11:5 8:5 4:5 3:5 4:10
3:0 4:5 3:10 9:5 10:5 11:5 8:5 4:5 3:5 4:10 3:10
4:0 3:10 9:5 10:5 11:5 8:5 4:5 3:5 4:10 3:10 2:5
3:0 9:5 10:5 11:5 8:5 4:5 3:5 4:10 3:10 2:5 11:5
9:0 10:5 11:5 8:5 4:5 3:5 4:10 3:10 2:5 11:5 7:10
10:0 11:5 8:5 4:5 3:5 4:10 3:10 2:5 11:5 7:10 4:5
11:0 8:5 4:5 3:5 4:10 3:10 2:5 11:5 7:10 4:5 2:10
8:0 4:5 3:5 4:10 3:10 2:5 11:5 7:10 4:5 2:10 3:5
4:0 3:5 4:10 3:10 2:5 11:5 7:10 4:5 2:10 3:5 4:5
3:0 4:10 3:10 2:5 11:5 7:10 4:5 2:10 3:5 4:5 3:5
4:0 3:10 2:5 11:5 7:10 4:5 2:10 3:5 4:5 3:5 9:5
3:0 2:5 11:5 7:10 4:5 2:10 3:5 4:5 3:5 9:5 11:5
2:0 11:5 7:10 4:5 2:10 3:5 4:5 3:5 9:5 11:5 4:10
11:0 7:10 4:5 2:10 3:5 4:5 3:5 9:5 11:5 4:10 3:20
7:0 4:5 2:10 3:5 4:5 3:5 9:5 11:5 4:10 3:20 4:10
4:0 2:10 3:5 4:5 3:5 9:5 11:5 4:10 3:20 4:10 6:10
2:0 3:5 4:5 3:5 9:5 11:5 4:10 3:20 4:10 6:10 11:5
3:0 4:5 3:5 9:5 11:5 4:10 3:20 4:10 6:10 11:5 5:15
4:0 3:5 9:5 11:5 4:10 3:20 4:10 6:10 11:5 5:15 4:10
3:0 9:5 11:5 4:10 3:20 4:10 6:10 11:5 5:15 4:10 2:5
9:0 11:5 4:10 3:20 4:10 6:10 11:5 5:15 4:10 2:5 8:5
11:0 4:10 3:20 4:10 6:10 11:5 5:15 4:10 2:5 8:5 11:5
4:0 3:20 4:10 6:10 11:5 5:15 4:10 2:5 8:5 11:5 10:5
3:0 4:10 6:10 11:5 5:15 4:10 2:5 8:5 11:5 10:5 5:5
4:0 6:10 11:5 5:15 4:10 2:5 8:5 11:5 10:5 5:5 4:5
6:0 11:5 5:15 4:10 2:5 8:5 11:5 10:5 5:5 4:5 3:15
11:0 5:15 4:10 2:5 8:5 11:5 10:5 5:5 4:5 3:15 2:5
5:0 4:10 2:5 8:5 11:5 10:5 5:5 4:5 3:15 2:5 4:5
4:0 2:5 8:5 11:5 10:5 5:5 4:5 3:15 2:5 4:5 3:10
2:0 8:5 11:5 10:5 5:5 4:5 3:15 2:5 4:5 3:10 9:5
8:0 11:5 10:5 5:5 4:5 3:15 2:5 4:5 3:10 9:5 11:5
11:0 10:5 5:5 4:5 3:15 2:5 4:5 3:10 9:5 11:5 7:10
10:0 5:5 4:5 3:15 2:5 4:5 3:10 9:5 11:5 7:10 5:5
5:0 4:5 3:15 2:5 4:5 3:10 9:5 11:5 7:10 5:5 3:10
4:0 3:15 2:5 4:5 3:10 9:5 11:5 7:10 5:5 3:10 2:5
3:0 2:5 4:5 3:10 9:5 11:5 7:10 5:5 3:10 2:5 10:5
2:0 4:5 3:10 9:5 11:5 7:10 5:5 3:10 2:5 10:5 11:5
4:0 3:10 9:5 11:5 7:10 5:5 3:10 2:5 10:5 11:5 5:5
3:0 9:5 11:5 7:10 5:5 3:10 2:5 10:5 11:5 5:5 4:5
9:0 11:5 7:10 5:5 3:10 2:5 10:5 11:5 5:5 4:5 3:10
11:0 7:10 5:5 3:10 2:5 10:5 11:5 5:5 4:5 3:10 4:5
7:0 5:5 3:10 2:5 10:5 11:5 5:5 4:5 3:10 4:5 3:10
5:0 3:10 2:5 10:5 11:5 5:5 4:5 3:10 4:5 3:10 10:10
3:0 2:5 10:5 11:5 5:5 4:5 3:10 4:5 3:10 10:10 11:5
2:0 10:5 11:5 5:5 4:5 3:10 4:5 3:10 10:10 11:5 7:5
10:0 11:5 5:5 4:5 3:10 4:5 3:10 10:10 11:5 7:5 4:5
11:0 5:5 4:5 3:10 4:5 3:10 10:10 11:5 7:5 4:5 3:5
5:0 4:5 3:10 4:5 3:10 10:10 11:5 7:5 4:5 3:5 4:5
4:0 3:10 4:5 3:10 10:10 11:5 7:5 4:5 3:5 4:5 3:10
3:0 4:5 3:10 10:10 11:5 7:5 4:5 3:5 4:5 3:10 10:10
4:0 3:10 10:10 11:5 7:5 4:5 3:5 4:5 3:10 10:10 11:5
3:0 10:10 11:5 7:5 4:5 3:5 4:5 3:10 10:10 11:5 10:5
10:0 11:5 7:5 4:5 3:5 4:5 3:10 10:10 11:5 10:5 4:5
11:0 7:5 4:5 3:5 4:5 3:10 10:10 11:5 10:5 4:5 3:20
7:0 4:5 3:5 4:5 3:10 10:10 11:5 10:5 4:5 3:20 4:10
4:0 3:5 4:5 3:10 10:10 11:5 10:5 4:5 3:20 4:10 3:5
3:0 4:5 3:10 10:10 11:5 10:5 4:5 3:20 4:10 3:5 8:5
4:0 3:10 10:10 11:5 10:5 4:5 3:20 4:10 3:5 8:5 11:5
3:0 10:10 11:5 10:5 4:5 3:20 4:10 3:5 8:5 11:5 8:10
10:0 11:5 10:5 4:5 3:20 4:10 3:5 8:5 11:5 8:10 5:5
11:0 10:5 4:5 3:20 4:10 3:5 8:5 11:5 8:10 5:5 3:10
10:0 4:5 3:20 4:10 3:5 8:5 11:5 8:10 5:5 3:10 2:5
4:0 3:20 4:10 3:5 8:5 11:5 8:10 5:5 3:10 2:5 8:5
3:0 4:10 3:5 8:5 11:5 8:10 5:5 3:10 2:5 8:5 11:5
4:0 3:5 8:5 11:5 8:10 5:5 3:10 2:5 8:5 11:5 9:5
3:0 8:5 11:5 8:10 5:5 3:10 2:5 8:5 11:5 9:5 4:5
8:0 11:5 8:10 5:5 3:10 2:5 8:5 11:5 9:5 4:5 3:10
11:0 8:10 5:5 3:10 2:5 8:5 11:5 9:5 4:5 3:10 4:5
8:0 5:5 3:10 2:5 8:5 11:5 9:5 4:5 3:10 4:5 2:10
5:0 3:10 2:5 8:5 11:5 9:5 4:5 3:10 4:5 2:10 9:5
3:0 2:5 8:5 11:5 9:5 4:5 3:10 4:5 2:10 9:5 11:5
2:0 8:5 11:5 9:5 4:5 3:10 4:5 2:10 9:5 11:5 5:10
8:0 11:5 9:5 4:5 3:10 4:5 2:10 9:5 11:5 5:10 4:5
11:0 9:5 4:5 3:10 4:5 2:10 9:5 11:5 5:10 4:5 3:15
9:0 4:5 3:10 4:5 2:10 9:5 11:5 5:10 4:5 3:15 4:15
4:0 3:10 4:5 2:10 9:5 11:5 5:10 4:5 3:15 4:15 6:5
3:0 4:5 2:10 9:5 11:5 5:10 4:5 3:15 4:15 6:5 11:5
4:0 2:10 9:5 11:5 5:10 4:5 3:15 4:15 6:5 11:5 5:15
2:0 9:5 11:5 5:10 4:5 3:15 4:15 6:5 11:5 5:15 3:15
9:0 11:5 5:10 4:5 3:15 4:15 6:5 11:5 5:15 3:15 6:10
11:0 5:10 4:5 3:15 4:15 6:5 11:5 5:15 3:15 6:10 11:5
5:0 4:5 3:15 4:15 6:5 11:5 5:15 3:15 6:10 11:5 8:5
4:0 3:15 4:15 6:5 11:5 5:15 3:15 6:10 11:5 8:5 4:5
3:0 4:15 6:5 11:5 5:15 3:15 6:10 11:5 8:5 4:5 2:10
4:0 6:5 11:5 5:15 3:15 6:10 11:5 8:5 4:5 2:10 9:5
6:0 11:5 5:15 3:15 6:10 11:5 8:5 4:5 2:10 9:5 11:5
11:0 5:15 3:15 6:10 11:5 8:5 4:5 2:10 9:5 11:5 10:5
5:0 3:15 6:10 11:5 8:5 4:5 2:10 9:5 11:5 10:5 5:5
3:0 6:10 11:5 8:5 4:5 2:10 9:5 11:5 10:5 5:5 4:5
6:0 11:5 8:5 4:5 2:10 9:5 11:5 10:5 5:5 4:5 5:5
11:0 8:5 4:5 2:10 9:5 11:5 10:5 5:5 4:5 5:5 4:5
8:0 4:5 2:10 9:5 11:5 10:5 5:5 4:5 5:5 4:5 2:5
4:0 2:10 9:5 11:5 10:5 5:5 4:5 5:5 4:5 2:5 7:5
2:0 9:5 11:5 10:5 5:5 4:5 5:5 4:5 2:5 7:5 11:5
9:0 11:5 10:5 5:5 4:5 5:5 4:5 2:5 7:5 11:5 9:5
11:0 10:5 5:5 4:5 5:5 4:5 2:5 7:5 11:5 9:5 4:5
10:0 5:5 4:5 5:5 4:5 2:5 7:5 11:5 9:5 4:5 5:10
5:0 4:5 5:5 4:5 2:5 7:5 11:5 9:5 4:5 5:10 4:5
4:0 5:5 4:5 2:5 7:5 11:5 9:5 4:5 5:10 4:5 3:5
5:0 4:5 2:5 7:5 11:5 9:5 4:5 5:10 4:5 3:5 4:10
4:0 2:5 7:5 11:5 9:5 4:5 5:10 4:5 3:5 4:10 5:10
2:0 7:5 11:5 9:5 4:5 5:10 4:5 3:5 4:10 5:10 11:5
7:0 11:5 9:5 4:5 5:10 4:5 3:5 4:10 5:10 11:5 5:15
11:0 9:5 4:5 5:10 4:5 3:5 4:10 5:10 11:5 5:15 3:15
9:0 4:5 5:10 4:5 3:5 4:10 5:10 11:5 5:15 3:15 2:5
4:0 5:10 4:5 3:5 4:10 5:10 11:5 5:15 3:15 2:5 4:5
5:0 4:5 3:5 4:10 5:10 11:5 5:15 3:15 2:5 4:5 3:10
4:0 3:5 4:10 5:10 11:5 5:15 3:15 2:5 4:5 3:10 5:5
3:0 4:10 5:10 11:5 5:15 3:15 2:5 4:5 3:10 5:5 10:5
4:0 5:10 11:5 5:15 3:15 2:5 4:5 3:10 5:5 10:5 11:5
5:0 11:5 5:15 3:15 2:5 4:5 3:10 5:5 10:5 11:5 10:5
11:0 5:15 3:15 2:5 4:5 3:10 5:5 10:5 11:5 10:5 4:5
5:0 3:15 2:5 4:5 3:10 5:5 10:5 11:5 10:5 4:5 3:10
3:0 2:5 4:5 3:10 5:5 10:5 11:5 10:5 4:5 3:10 4:5
2:0 4:5 3:10 5:5 10:5 11:5 10:5 4:5 3:10 4:5 3:10
4:0 3:10 5:5 10:5 11:5 10:5 4:5 3:10 4:5 3:10 9:5
3:0 5:5 10:5 11:5 10:5 4:5 3:10 4:5 3:10 9:5 11:5
5:0 10:5 11:5 10:5 4:5 3:10 4:5 3:10 9:5 11:5 5:10
10:0 11:5 10:5 4:5 3:10 4:5 3:10 9:5 11:5 5:10 4:5
11:0 10:5 4:5 3:10 4:5 3:10 9:5 11:5 5:10 4:5 3:15
10:0 4:5 3:10 4:5 3:10 9:5 11:5 5:10 4:5 3:15 4:15
4:0 3:10 4:5 3:10 9:5 11:5 5:10 4:5 3:15 4:15 5:5
3:0 4:5 3:10 9:5 11:5 5:10 4:5 3:15 4:15 5:5 11:5
4:0 3:10 9:5 11:5 5:10 4:5 3:15 4:15 5:5 11:5 5:15
3:0 9:5 11:5 5:10 4:5 3:15 4:15 5:5 11:5 5:15 4:15
9:0 11:5 5:10 4:5 3:15 4:15 5:5 11:5 5:15 4:15 2:5
11:0 5:10 4:5 3:15 4:15 5:5 11:5 5:15 4:15 2:5 3:5
5:0 4:5 3:15 4:15 5:5 11:5 5:15 4:15 2:5 3:5 4:5
4:0 3:15 4:15 5:5 11:5 5:15 4:15 2:5 3:5 4:5 3:10
3:0 4:15 5:5 11:5 5:15 4:15 2:5 3:5 4:5 3:10 9:5
4:0 5:5 11:5 5:15 4:15 2:5 3:5 4:5 3:10 9:5 11:5
5:0 11:5 5:15 4:15 2:5 3:5 4:5 3:10 9:5 11:5 9:10
11:0 5:15 4:15 2:5 3:5 4:5 3:10 9:5 11:5 9:10 4:5
5:0 4:15 2:5 3:5 4:5 3:10 9:5 11:5 9:10 4:5 3:15
4:0 2:5 3:5 4:5 3:10 9:5 11:5 9:10 4:5 3:15 8:10
2:0 3:5 4:5 3:10 9:5 11:5 9:10 4:5 3:15 8:10 11:5
3:0 4:5 3:10 9:5 11:5 9:10 4:5 3:15 8:10 11:5 5:10
4:0 3:10 9:5 11:5 9:10 4:5 3:15 8:10 11:5 5:10 4:5
3:0 9:5 11:5 9:10 4:5 3:15 8:10 11:5 5:10 4:5 3:10
9:0 11:5 9:10 4:5 3:15 8:10 11:5 5:10 4:5 3:10 4:5
11:0 9:10 4:5 3:15 8:10 11:5 5:10 4:5 3:10 4:5 2:15
9:0 4:5 3:15 8:10 11:5 5:10 4:5 3:10 4:5 2:15 9:5
4:0 3:15 8:10 11:5 5:10 4:5 3:10 4:5 2:15 9:5 11:5
3:0 8:10 11:5 5:10 4:5 3:10 4:5 2:15 9:5 11:5 9:5
8:0 11:5 5:10 4:5 3:10 4:5 2:15 9:5 11:5 9:5 4:5
11:0 5:10 4:5 3:10 4:5 2:15 9:5 11:5 9:5 4:5 3:15
5:0 4:5 3:10 4:5 2:15 9:5 11:5 9:5 4:5 3:15 4:15
4:0 3:10 4:5 2:15 9:5 11:5 9:5 4:5 3:15 4:15 3:5
3:0 4:5 2:15 9:5 11:5 9:5 4:5 3:15 4:15 3:5 7:5
4:0 2:15 9:5 11:5 9:5 4:5 3:15 4:15 3:5 7:5 11:5
2:0 9:5 11:5 9:5 4:5 3:15 4:15 3:5 7:5 11:5 5:15
9:0 11:5 9:5 4:5 3:15 4:15 3:5 7:5 11:5 5:15 4:10
11:0 9:5 4:5 3:15 4:15 3:5 7:5 11:5 5:15 4:10 3:5
9:0 4:5 3:15 4:15 3:5 7:5 11:5 5:15 4:10 3:5 2:5
4:0 3:15 4:15 3:5 7:5 11:5 5:15 4:10 3:5 2:5 11:5
3:0 4:15 3:5 7:5 11:5 5:15 4:10 3:5 2:5 11:5 4:10
4:0 3:5 7:5 11:5 5:15 4:10 3:5 2:5 11:5 4:10 3:5
3:0 7:5 11:5 5:15 4:10 3:5 2:5 11:5 4:10 3:5 4:10
7:0 11:5 5:15 4:10 3:5 2:5 11:5 4:10 3:5 4:10 3:10
11:0 5:15 4:10 3:5 2:5 11:5 4:10 3:5 4:10 3:10 4:5
5:0 4:10 3:5 2:5 11:5 4:10 3:5 4:10 3:10 4:5 11:5
4:0 3:5 2:5 11:5 4:10 3:5 4:10 3:10 4:5 11:5 7:10
3:0 2:5 11:5 4:10 3:5 4:10 3:10 4:5 11:5 7:10 4:5
2:0 11:5 4:10 3:5 4:10 3:10 4:5 11:5 7:10 4:5 5:5
11:0 4:10 3:5 4:10 3:10 4:5 11:5 7:10 4:5 5:5 4:5
4:0 3:5 4:10 3:10 4:5 11:5 7:10 4:5 5:5 4:5 2:10
3:0 4:10 3:10 4:5 11:5 7:10 4:5 5:5 4:5 2:10 3:5
4:0 3:10 4:5 11:5 7:10 4:5 5:5 4:5 2:10 3:5 10:15
3:0 4:5 11:5 7:10 4:5 5:5 4:5 2:10 3:5 10:15 11:5
4:0 11:5 7:10 4:5 5:5 4:5 2:10 3:5 10:15 11:5 8:10
11:0 7:10 4:5 5:5 4:5 2:10 3:5 10:15 11:5 8:10 5:5
7:0 4:5 5:5 4:5 2:10 3:5 10:15 11:5 8:10 5:5 4:10
4:0 5:5 4:5 2:10 3:5 10:15 11:5 8:10 5:5 4:10 2:5
5:0 4:5 2:10 3:5 10:15 11:5 8:10 5:5 4:10 2:5 3:5
4:0 2:10 3:5 10:15 11:5 8:10 5:5 4:10 2:5 3:5 4:5
2:0 3:5 10:15 11:5 8:10 5:5 4:10 2:5 3:5 4:5 3:10
3:0 10:15 11:5 8:10 5:5 4:10 2:5 3:5 4:5 3:10 9:5
10:0 11:5 8:10 5:5 4:10 2:5 3:5 4:5 3:10 9:5 11:5
11:0 8:10 5:5 4:10 2:5 3:5 4:5 3:10 9:5 11:5 7:10
8:0 5:5 4:10 2:5 3:5 4:5 3:10 9:5 11:5 7:10 4:5
5:0 4:10 2:5 3:5 4:5 3:10 9:5 11:5 7:10 4:5 3:5
4:0 2:5 3:5 4:5 3:10 9:5 11:5 7:10 4:5 3:5 4:10
2:0 3:5 4:5 3:10 9:5 11:5 7:10 4:5 3:5 4:10 3:10
3:0 4:5 3:10 9:5 11:5 7:10 4:5 3:5 4:10 3:10 5:5
4:0 3:10 9:5 11:5 7:10 4:5 3:5 4:10 3:10 5:5 11:5
3:0 9:5 11:5 7:10 4:5 3:5 4:10 3:10 5:5 11:5 4:10
9:0 11:5 7:10 4:5 3:5 4:10 3:10 5:5 11:5 4:10 3:20
11:0 7:10 4:5 3:5 4:10 3:10 5:5 11:5 4:10 3:20 4:15
7:0 4:5 3:5 4:10 3:10 5:5 11:5 4:10 3:20 4:15 5:5
4:0 3:5 4:10 3:10 5:5 11:5 4:10 3:20 4:15 5:5 10:5
3:0 4:10 3:10 5:5 11:5 4:10 3:20 4:15 5:5 10:5 11:5
4:0 3:10 5:5 11:5 4:10 3:20 4:15 5:5 10:5 11:5 7:10
3:0 5:5 11:5 4:10 3:20 4:15 5:5 10:5 11:5 7:10 5:5
5:0 11:5 4:10 3:20 4:15 5:5 10:5 11:5 7:10 5:5 3:10
11:0 4:10 3:20 4:15 5:5 10:5 11:5 7:10 5:5 3:10 2:5
4:0 3:20 4:15 5:5 10:5 11:5 7:10 5:5 3:10 2:5 10:5
3:0 4:15 5:5 10:5 11:5 7:10 5:5 3:10 2:5 10:5 11:5
4:0 5:5 10:5 11:5 7:10 5:5 3:10 2:5 10:5 11:5 5:5
5:0 10:5 11:5 7:10 5:5 3:10 2:5 10:5 11:5 5:5 4:5
10:0 11:5 7:10 5:5 3:10 2:5 10:5 11:5 5:5 4:5 3:15
11:0 7:10 5:5 3:10 2:5 10:5 11:5 5:5 4:5 3:15 8:10
7:0 5:5 3:10 2:5 10:5 11:5 5:5 4:5 3:15 8:10 11:5
5:0 3:10 2:5 10:5 11:5 5:5 4:5 3:15 8:10 11:5 10:5
3:0 2:5 10:5 11:5 5:5 4:5 3:15 8:10 11:5 10:5 5:5
2:0 10:5 11:5 5:5 4:5 3:15 8:10 11:5 10:5 5:5 4:5
10:0 11:5 5:5 4:5 3:15 8:10 11:5 10:5 5:5 4:5 3:5
11:0 5:5 4:5 3:15 8:10 11:5 10:5 5:5 4:5 3:5 4:10
5:0 4:5 3:15 8:10 11:5 10:5 5:5 4:5 3:5 4:10 3:10
4:0 3:15 8:10 11:5 10:5 5:5 4:5 3:5 4:10 3:10 7:5
3:0 8:10 11:5 10:5 5:5 4:5 3:5 4:10 3:10 7:5 10:5
8:0 11:5 10:5 5:5 4:5 3:5 4:10 3:10 7:5 10:5 11:5
11:0 10:5 5:5 4:5 3:5 4:10 3:10 7:5 10:5 11:5 9:5
10:0 5:5 4:5 3:5 4:10 3:10 7:5 10:5 11:5 9:5 4:5
5:0 4:5 3:5 4:10 3:10 7:5 10:5 11:5 9:5 4:5 3:10
4:0 3:5 4:10 3:10 7:5 10:5 11:5 9:5 4:5 3:10 4:5
3:0 4:10 3:10 7:5 10:5 11:5 9:5 4:5 3:10 4:5 2:10
4:0 3:10 7:5 10:5 11:5 9:5 4:5 3:10 4:5 2:10 9:5
3:0 7:5 10:5 11:5 9:5 4:5 3:10 4:5 2:10 9:5 11:5
7:0 10:5 11:5 9:5 4:5 3:10 4:5 2:10 9:5 11:5 5:10
10:0 11:5 9:5 4:5 3:10 4:5 2:10 9:5 11:5 5:10 4:5
11:0 9:5 4:5 3:10 4:5 2:10 9:5 11:5 5:10 4:5 3:5
9:0 4:5 3:10 4:5 2:10 9:5 11:5 5:10 4:5 3:5 4:10
4:0 3:10 4:5 2:10 9:5 11:5 5:10 4:5 3:5 4:10 3:10
3:0 4:5 2:10 9:5 11:5 5:10 4:5 3:5 4:10 3:10 10:5
4:0 2:10 9:5 11:5 5:10 4:5 3:5 4:10 3:10 10:5 11:5
2:0 9:5 11:5 5:10 4:5 3:5 4:10 3:10 10:5 11:5 4:10
9:0 11:5 5:10 4:5 3:5 4:10 3:10 10:5 11:5 4:10 3:5
11:0 5:10 4:5 3:5 4:10 3:10 10:5 11:5 4:10 3:5 4:10
5:0 4:5 3:5 4:10 3:10 10:5 11:5 4:10 3:5 4:10 3:10
4:0 3:5 4:10 3:10 10:5 11:5 4:10 3:5 4:10 3:10 4:5
3:0 4:10 3:10 10:5 11:5 4:10 3:5 4:10 3:10 4:5 11:5
4:0 3:10 10:5 11:5 4:10 3:5 4:10 3:10 4:5 11:5 8:10
3:0 10:5 11:5 4:10 3:5 4:10 3:10 4:5 11:5 8:10 4:5
10:0 11:5 4:10 3:5 4:10 3:10 4:5 11:5 8:10 4:5 3:15
11:0 4:10 3:5 4:10 3:10 4:5 11:5 8:10 4:5 3:15 4:15
4:0 3:5 4:10 3:10 4:5 11:5 8:10 4:5 3:15 4:15 10:10
3:0 4:10 3:10 4:5 11:5 8:10 4:5 3:15 4:15 10:10 11:5
4:0 3:10 4:5 11:5 8:10 4:5 3:15 4:15 10:10 11:5 5:10
3:0 4:5 11:5 8:10 4:5 3:15 4:15 10:10 11:5 5:10 4:15
4:0 11:5 8:10 4:5 3:15 4:15 10:10 11:5 5:10 4:15 2:5
11:0 8:10 4:5 3:15 4:15 10:10 11:5 5:10 4:15 2:5 8:5
8:0 4:5 3:15 4:15 10:10 11:5 5:10 4:15 2:5 8:5 11:5
4:0 3:15 4:15 10:10 11:5 5:10 4:15 2:5 8:5 11:5 9:5
3:0 4:15 10:10 11:5 5:10 4:15 2:5 8:5 11:5 9:5 4:5
4:0 10:10 11:5 5:10 4:15 2:5 8:5 11:5 9:5 4:5 2:10
10:0 11:5 5:10 4:15 2:5 8:5 11:5 9:5 4:5 2:10 4:5
11:0 5:10 4:15 2:5 8:5 11:5 9:5 4:5 2:10 4:5 2:10
5:0 4:15 2:5 8:5 11:5 9:5 4:5 2:10 4:5 2:10 10:5
4:0 2:5 8:5 11:5 9:5 4:5 2:10 4:5 2:10 10:5 11:5
2:0 8:5 11:5 9:5 4:5 2:10 4:5 2:10 10:5 11:5 5:10
8:0 11:5 9:5 4:5 2:10 4:5 2:10 10:5 11:5 5:10 4:5
11:0 9:5 4:5 2:10 4:5 2:10 10:5 11:5 5:10 4:5 3:15
9:0 4:5 2:10 4:5 2:10 10:5 11:5 5:10 4:5 3:15 4:15
4:0 2:10 4:5 2:10 10:5 11:5 5:10 4:5 3:15 4:15 3:5
2:0 4:5 2:10 10:5 11:5 5:10 4:5 3:15 4:15 3:5 10:5
4:0 2:10 10:5 11:5 5:10 4:5 3:15 4:15 3:5 10:5 11:5
2:0 10:5 11:5 5:10 4:5 3:15 4:15 3:5 10:5 11:5 7:10
10:0 11:5 5:10 4:5 3:15 4:15 3:5 10:5 11:5 7:10 5:5
11:0 5:10 4:5 3:15 4:15 3:5 10:5 11:5 7:10 5:5 4:10
5:0 4:5 3:15 4:15 3:5 10:5 11:5 7:10 5:5 4:10 2:5
4:0 3:15 4:15 3:5 10:5 11:5 7:10 5:5 4:10 2:5 3:5
3:0 4:15 3:5 10:5 11:5 7:10 5:5 4:10 2:5 3:5 4:5
4:0 3:5 10:5 11:5 7:10 5:5 4:10 2:5 3:5 4:5 2:10
3:0 10:5 11:5 7:10 5:5 4:10 2:5 3:5 4:5 2:10 10:5
10:0 11:5 7:10 5:5 4:10 2:5 3:5 4:5 2:10 10:5 11:5
11:0 7:10 5:5 4:10 2:5 3:5 4:5 2:10 10:5 11:5 7:10
7:0 5:5 4:10 2:5 3:5 4:5 2:10 10:5 11:5 7:10 4:5
5:0 4:10 2:5 3:5 4:5 2:10 10:5 11:5 7:10 4:5 3:5
4:0 2:5 3:5 4:5 2:10 10:5 11:5 7:10 4:5 3:5 4:10
2:0 3:5 4:5 2:10 10:5 11:5 7:10 4:5 3:5 4:10 5:10
3:0 4:5 2:10 10:5 11:5 7:10 4:5 3:5 4:10 5:10 10:5
4:0 2:10 10:5 11:5 7:10 4:5 3:5 4:10 5:10 10:5 11:5
2:0 10:5 11:5 7:10 4:5 3:5 4:10 5:10 10:5 11:5 9:5
10:0 11:5 7:10 4:5 3:5 4:10 5:10 10:5 11:5 9:5 4:5
11:0 7:10 4:5 3:5 4:10 5:10 10:5 11:5 9:5 4:5 3:20
7:0 4:5 3:5 4:10 5:10 10:5 11:5 9:5 4:5 3:20 4:10
4:0 3:5 4:10 5:10 10:5 11:5 9:5 4:5 3:20 4:10 10:15
3:0 4:10 5:10 10:5 11:5 9:5 4:5 3:20 4:10 10:15 11:5
4:0 5:10 10:5 11:5 9:5 4:5 3:20 4:10 10:15 11:5 5:10
5:0 10:5 11:5 9:5 4:5 3:20 4:10 10:15 11:5 5:10 3:15
10:0 11:5 9:5 4:5 3:20 4:10 10:15 11:5 5:10 3:15 4:15
11:0 9:5 4:5 3:20 4:10 10:15 11:5 5:10 3:15 4:15 10:15
9:0 4:5 3:20 4:10 10:15 11:5 5:10 3:15 4:15 10:15 11:5
4:0 3:20 4:10 10:15 11:5 5:10 3:15 4:15 10:15 11:5 4:10
3:0 4:10 10:15 11:5 5:10 3:15 4:15 10:15 11:5 4:10 3:10
4:0 10:15 11:5 5:10 3:15 4:15 10:15 11:5 4:10 3:10 4:5
10:0 11:5 5:10 3:15 4:15 10:15 11:5 4:10 3:10 4:5 3:10
11:0 5:10 3:15 4:15 10:15 11:5 4:10 3:10 4:5 3:10 9:5
5:0 3:15 4:15 10:15 11:5 4:10 3:10 4:5 3:10 9:5 11:5
3:0 4:15 10:15 11:5 4:10 3:10 4:5 3:10 9:5 11:5 5:10
4:0 10:15 11:5 4:10 3:10 4:5 3:10 9:5 11:5 5:10 4:5
10:0 11:5 4:10 3:10 4:5 3:10 9:5 11:5 5:10 4:5 3:15
11:0 4:10 3:10 4:5 3:10 9:5 11:5 5:10 4:5 3:15 10:20
4:0 3:10 4:5 3:10 9:5 11:5 5:10 4:5 3:15 10:20 11:5
3:0 4:5 3:10 9:5 11:5 5:10 4:5 3:15 10:20 11:5 10:5
4:0 3:10 9:5 11:5 5:10 4:5 3:15 10:20 11:5 10:5 4:5
3:0 9:5 11:5 5:10 4:5 3:15 10:20 11:5 10:5 4:5 3:15
9:0 11:5 5:10 4:5 3:15 10:20 11:5 10:5 4:5 3:15 4:15
11:0 5:10 4:5 3:15 10:20 11:5 10:5 4:5 3:15 4:15 3:5
5:0 4:5 3:15 10:20 11:5 10:5 4:5 3:15 4:15 3:5 10:5
4:0 3:15 10:20 11:5 10:5 4:5 3:15 4:15 3:5 10:5 11:5
3:0 10:20 11:5 10:5 4:5 3:15 4:15 3:5 10:5 11:5 7:10
10:0 11:5 10:5 4:5 3:15 4:15 3:5 10:5 11:5 7:10 5:5
11:0 10:5 4:5 3:15 4:15 3:5 10:5 11:5 7:10 5:5 3:10
10:0 4:5 3:15 4:15 3:5 10:5 11:5 7:10 5:5 3:10 8:10
4:0 3:15 4:15 3:5 10:5 11:5 7:10 5:5 3:10 8:10 11:5
3:0 4:15 3:5 10:5 11:5 7:10 5:5 3:10 8:10 11:5 6:5
4:0 3:5 10:5 11:5 7:10 5:5 3:10 8:10 11:5 6:5 3:5
3:0 10:5 11:5 7:10 5:5 3:10 8:10 11:5 6:5 3:5 4:15
10:0 11:5 7:10 5:5 3:10 8:10 11:5 6:5 3:5 4:15 3:10
11:0 7:10 5:5 3:10 8:10 11:5 6:5 3:5 4:15 3:10 7:5
7:0 5:5 3:10 8:10 11:5 6:5 3:5 4:15 3:10 7:5 11:5
5:0 3:10 8:10 11:5 6:5 3:5 4:15 3:10 7:5 11:5 10:5
3:0 8:10 11:5 6:5 3:5 4:15 3:10 7:5 11:5 10:5 4:5
8:0 11:5 6:5 3:5 4:15 3:10 7:5 11:5 10:5 4:5 3:10
11:0 6:5 3:5 4:15 3:10 7:5 11:5 10:5 4:5 3:10 4:10
6:0 3:5 4:15 3:10 7:5 11:5 10:5 4:5 3:10 4:10 3:5
3:0 4:15 3:10 7:5 11:5 10:5 4:5 3:10 4:10 3:5 10:10
4:0 3:10 7:5 11:5 10:5 4:5 3:10 4:10 3:5 10:10 11:5
3:0 7:5 11:5 10:5 4:5 3:10 4:10 3:5 10:10 11:5 10:5
7:0 11:5 10:5 4:5 3:10 4:10 3:5 10:10 11:5 10:5 4:5
11:0 10:5 4:5 3:10 4:10 3:5 10:10 11:5 10:5 4:5 3:10
10:0 4:5 3:10 4:10 3:5 10:10 11:5 10:5 4:5 3:10 4:5
4:0 3:10 4:10 3:5 10:10 11:5 10:5 4:5 3:10 4:5 3:10
3:0 4:10 3:5 10:10 11:5 10:5 4:5 3:10 4:5 3:10 6:5
4:0 3:5 10:10 11:5 10:5 4:5 3:10 4:5 3:10 6:5 11:5
3:0 10:10 11:5 10:5 4:5 3:10 4:5 3:10 6:5 11:5 4:10
10:0 11:5 10:5 4:5 3:10 4:5 3:10 6:5 11:5 4:10 3:15
11:0 10:5 4:5 3:10 4:5 3:10 6:5 11:5 4:10 3:15 5:10
10:0 4:5 3:10 4:5 3:10 6:5 11:5 4:10 3:15 5:10 11:5
4:0 3:10 4:5 3:10 6:5 11:5 4:10 3:15 5:10 11:5 9:10
3:0 4:5 3:10 6:5 11:5 4:10 3:15 5:10 11:5 9:10 5:5
4:0 3:10 6:5 11:5 4:10 3:15 5:10 11:5 9:10 5:5 4:5
3:0 6:5 11:5 4:10 3:15 5:10 11:5 9:10 5:5 4:5 3:5
6:0 11:5 4:10 3:15 5:10 11:5 9:10 5:5 4:5 3:5 4:10
11:0 4:10 3:15 5:10 11:5 9:10 5:5 4:5 3:5 4:10 3:10
4:0 3:15 5:10 11:5 9:10 5:5 4:5 3:5 4:10 3:10 9:5
3:0 5:10 11:5 9:10 5:5 4:5 3:5 4:10 3:10 9:5 11:5
5:0 11:5 9:10 5:5 4:5 3:5 4:10 3:10 9:5 11:5 5:10
11:0 9:10 5:5 4:5 3:5 4:10 3:10 9:5 11:5 5:10 4:5
9:0 5:5 4:5 3:5 4:10 3:10 9:5 11:5 5:10 4:5 3:15
5:0 4:5 3:5 4:10 3:10 9:5 11:5 5:10 4:5 3:15 4:15
4:0 3:5 4:10 3:10 9:5 11:5 5:10 4:5 3:15 4:15 3:5
3:0 4:10 3:10 9:5 11:5 5:10 4:5 3:15 4:15 3:5 8:5
4:0 3:10 9:5 11:5 5:10 4:5 3:15 4:15 3:5 8:5 10:5
3:0 9:5 11:5 5:10 4:5 3:15 4:15 3:5 8:5 10:5 11:5
9:0 11:5 5:10 4:5 3:15 4:15 3:5 8:5 10:5 11:5 5:10
11:0 5:10 4:5 3:15 4:15 3:5 8:5 10:5 11:5 5:10 3:10
5:0 4:5 3:15 4:15 3:5 8:5 10:5 11:5 5:10 3:10 2:5
4:0 3:15 4:15 3:5 8:5 10:5 11:5 5:10 3:10 2:5 8:5
3:0 4:15 3:5 8:5 10:5 11:5 5:10 3:10 2:5 8:5 11:5
4:0 3:5 8:5 10:5 11:5 5:10 3:10 2:5 8:5 11:5 9:5
3:0 8:5 10:5 11:5 5:10 3:10 2:5 8:5 11:5 9:5 3:5
8:0 10:5 11:5 5:10 3:10 2:5 8:5 11:5 9:5 3:5 4:15
10:0 11:5 5:10 3:10 2:5 8:5 11:5 9:5 3:5 4:15 3:10
11:0 5:10 3:10 2:5 8:5 11:5 9:5 3:5 4:15 3:10 6:5
5:0 3:10 2:5 8:5 11:5 9:5 3:5 4:15 3:10 6:5 11:5
3:0 2:5 8:5 11:5 9:5 3:5 4:15 3:10 6:5 11:5 4:10
2:0 8:5 11:5 9:5 3:5 4:15 3:10 6:5 11:5 4:10 3:20
8:0 11:5 9:5 3:5 4:15 3:10 6:5 11:5 4:10 3:20 4:15
11:0 9:5 3:5 4:15 3:10 6:5 11:5 4:10 3:20 4:15 3:5
9:0 3:5 4:15 3:10 6:5 11:5 4:10 3:20 4:15 3:5 10:5
3:0 4:15 3:10 6:5 11:5 4:10 3:20 4:15 3:5 10:5 11:5
4:0 3:10 6:5 11:5 4:10 3:20 4:15 3:5 10:5 11:5 5:10
3:0 6:5 11:5 4:10 3:20 4:15 3:5 10:5 11:5 5:10 3:15
6:0 11:5 4:10 3:20 4:15 3:5 10:5 11:5 5:10 3:15 2:5
11:0 4:10 3:20 4:15 3:5 10:5 11:5 5:10 3:15 2:5 11:5
4:0 3:20 4:15 3:5 10:5 11:5 5:10 3:15 2:5 11:5 5:10
3:0 4:15 3:5 10:5 11:5 5:10 3:15 2:5 11:5 5:10 4:5
4:0 3:5 10:5 11:5 5:10 3:15 2:5 11:5 5:10 4:5 3:15
3:0 10:5 11:5 5:10 3:15 2:5 11:5 5:10 4:5 3:15 10:10
10:0 11:5 5:10 3:15 2:5 11:5 5:10 4:5 3:15 10:10 11:5
11:0 5:10 3:15 2:5 11:5 5:10 4:5 3:15 10:10 11:5 10:5
5:0 3:15 2:5 11:5 5:10 4:5 3:15 10:10 11:5 10:5 5:5
3:0 2:5 11:5 5:10 4:5 3:15 10:10 11:5 10:5 5:5 4:5
2:0 11:5 5:10 4:5 3:15 10:10 11:5 10:5 5:5 4:5 3:5
11:0 5:10 4:5 3:15 10:10 11:5 10:5 5:5 4:5 3:5 4:10
5:0 4:5 3:15 10:10 11:5 10:5 5:5 4:5 3:5 4:10 3:10
4:0 3:15 10:10 11:5 10:5 5:5 4:5 3:5 4:10 3:10 7:5
3:0 10:10 11:5 10:5 5:5 4:5 3:5 4:10 3:10 7:5 11:5
10:0 11:5 10:5 5:5 4:5 3:5 4:10 3:10 7:5 11:5 9:10
11:0 10:5 5:5 4:5 3:5 4:10 3:10 7:5 11:5 9:10 4:5
10:0 5:5 4:5 3:5 4:10 3:10 7:5 11:5 9:10 4:5 3:15
5:0 4:5 3:5 4:10 3:10 7:5 11:5 9:10 4:5 3:15 8:10
4:0 3:5 4:10 3:10 7:5 11:5 9:10 4:5 3:15 8:10 11:5
3:0 4:10 3:10 7:5 11:5 9:10 4:5 3:15 8:10 11:5 10:5
4:0 3:10 7:5 11:5 9:10 4:5 3:15 8:10 11:5 10:5 5:5
3:0 7:5 11:5 9:10 4:5 3:15 8:10 11:5 10:5 5:5 4:5
7:0 11:5 9:10 4:5 3:15 8:10 11:5 10:5 5:5 4:5 2:5
11:0 9:10 4:5 3:15 8:10 11:5 10:5 5:5 4:5 2:5 3:5
9:0 4:5 3:15 8:10 11:5 10:5 5:5 4:5 2:5 3:5 4:5
4:0 3:15 8:10 11:5 10:5 5:5 4:5 2:5 3:5 4:5 3:10
3:0 8:10 11:5 10:5 5:5 4:5 2:5 3:5 4:5 3:10 7:5
8:0 11:5 10:5 5:5 4:5 2:5 3:5 4:5 3:10 7:5 11:5
11:0 10:5 5:5 4:5 2:5 3:5 4:5 3:10 7:5 11:5 7:10
10:0 5:5 4:5 2:5 3:5 4:5 3:10 7:5 11:5 7:10 4:5
5:0 4:5 2:5 3:5 4:5 3:10 7:5 11:5 7:10 4:5 3:5
4:0 2:5 3:5 4:5 3:10 7:5 11:5 7:10 4:5 3:5 4:10
2:0 3:5 4:5 3:10 7:5 11:5 7:10 4:5 3:5 4:10 3:10
3:0 4:5 3:10 7:5 11:5 7:10 4:5 3:5 4:10 3:10 4:5
4:0 3:10 7:5 11:5 7:10 4:5 3:5 4:10 3:10 4:5 11:5
3:0 7:5 11:5 7:10 4:5 3:5 4:10 3:10 4:5 11:5 7:10
7:0 11:5 7:10 4:5 3:5 4:10 3:10 4:5 11:5 7:10 4:5
11:0 7:10 4:5 3:5 4:10 3:10 4:5 11:5 7:10 4:5 3:10
7:0 4:5 3:5 4:10 3:10 4:5 11:5 7:10 4:5 3:10 4:5
4:0 3:5 4:10 3:10 4:5 11:5 7:10 4:5 3:10 4:5 2:10
3:0 4:10 3:10 4:5 11:5 7:10 4:5 3:10 4:5 2:10 10:5
4:0 3:10 4:5 11:5 7:10 4:5 3:10 4:5 2:10 10:5 11:5
3:0 4:5 11:5 7:10 4:5 3:10 4:5 2:10 10:5 11:5 10:5
4:0 11:5 7:10 4:5 3:10 4:5 2:10 10:5 11:5 10:5 4:5
11:0 7:10 4:5 3:10 4:5 2:10 10:5 11:5 10:5 4:5 3:15
7:0 4:5 3:10 4:5 2:10 10:5 11:5 10:5 4:5 3:15 9:15
4:0 3:10 4:5 2:10 10:5 11:5 10:5 4:5 3:15 9:15 11:5
3:0 4:5 2:10 10:5 11:5 10:5 4:5 3:15 9:15 11:5 10:5
4:0 2:10 10:5 11:5 10:5 4:5 3:15 9:15 11:5 10:5 5:5
2:0 10:5 11:5 10:5 4:5 3:15 9:15 11:5 10:5 5:5 3:5
10:0 11:5 10:5 4:5 3:15 9:15 11:5 10:5 5:5 3:5 4:15
11:0 10:5 4:5 3:15 9:15 11:5 10:5 5:5 3:5 4:15 5:10
10:0 4:5 3:15 9:15 11:5 10:5 5:5 3:5 4:15 5:10 10:5
4:0 3:15 9:15 11:5 10:5 5:5 3:5 4:15 5:10 10:5 11:5
3:0 9:15 11:5 10:5 5:5 3:5 4:15 5:10 10:5 11:5 10:5
9:0 11:5 10:5 5:5 3:5 4:15 5:10 10:5 11:5 10:5 4:5
11:0 10:5 5:5 3:5 4:15 5:10 10:5 11:5 10:5 4:5 3:20
10:0 5:5 3:5 4:15 5:10 10:5 11:5 10:5 4:5 3:20 9:10
5:0 3:5 4:15 5:10 10:5 11:5 10:5 4:5 3:20 9:10 11:5
3:0 4:15 5:10 10:5 11:5 10:5 4:5 3:20 9:10 11:5 10:5
4:0 5:10 10:5 11:5 10:5 4:5 3:20 9:10 11:5 10:5 5:5
5:0 10:5 11:5 10:5 4:5 3:20 9:10 11:5 10:5 5:5 3:5
10:0 11:5 10:5 4:5 3:20 9:10 11:5 10:5 5:5 3:5 4:15
11:0 10:5 4:5 3:20 9:10 11:5 10:5 5:5 3:5 4:15 3:10
10:0 4:5 3:20 9:10 11:5 10:5 5:5 3:5 4:15 3:10 9:5
4:0 3:20 9:10 11:5 10:5 5:5 3:5 4:15 3:10 9:5 11:5
3:0 9:10 11:5 10:5 5:5 3:5 4:15 3:10 9:5 11:5 5:10
9:0 11:5 10:5 5:5 3:5 4:15 3:10 9:5 11:5 5:10 4:5
11:0 10:5 5:5 3:5 4:15 3:10 9:5 11:5 5:10 4:5 3:15
10:0 5:5 3:5 4:15 3:10 9:5 11:5 5:10 4:5 3:15 4:15
5:0 3:5 4:15 3:10 9:5 11:5 5:10 4:5 3:15 4:15 6:5
3:0 4:15 3:10 9:5 11:5 5:10 4:5 3:15 4:15 6:5 11:5
4:0 3:10 9:5 11:5 5:10 4:5 3:15 4:15 6:5 11:5 9:15
3:0 9:5 11:5 5:10 4:5 3:15 4:15 6:5 11:5 9:15 5:5
9:0 11:5 5:10 4:5 3:15 4:15 6:5 11:5 9:15 5:5 4:10
11:0 5:10 4:5 3:15 4:15 6:5 11:5 9:15 5:5 4:10 3:5
5:0 4:5 3:15 4:15 6:5 11:5 9:15 5:5 4:10 3:5 4:10
4:0 3:15 4:15 6:5 11:5 9:15 5:5 4:10 3:5 4:10 3:10
3:0 4:15 6:5 11:5 9:15 5:5 4:10 3:5 4:10 3:10 7:5
4:0 6:5 11:5 9:15 5:5 4:10 3:5 4:10 3:10 7:5 11:5
6:0 11:5 9:15 5:5 4:10 3:5 4:10 3:10 7:5 11:5 5:10
11:0 9:15 5:5 4:10 3:5 4:10 3:10 7:5 11:5 5:10 4:5
9:0 5:5 4:10 3:5 4:10 3:10 7:5 11:5 5:10 4:5 3:5
5:0 4:10 3:5 4:10 3:10 7:5 11:5 5:10 4:5 3:5 4:10
4:0 3:5 4:10 3:10 7:5 11:5 5:10 4:5 3:5 4:10 2:10
3:0 4:10 3:10 7:5 11:5 5:10 4:5 3:5 4:10 2:10 9:5
4:0 3:10 7:5 11:5 5:10 4:5 3:5 4:10 2:10 9:5 11:5
3:0 7:5 11:5 5:10 4:5 3:5 4:10 2:10 9:5 11:5 10:5
7:0 11:5 5:10 4:5 3:5 4:10 2:10 9:5 11:5 10:5 4:5
11:0 5:10 4:5 3:5 4:10 2:10 9:5 11:5 10:5 4:5 3:15
5:0 4:5 3:5 4:10 2:10 9:5 11:5 10:5 4:5 3:15 5:10
4:0 3:5 4:10 2:10 9:5 11:5 10:5 4:5 3:15 5:10 11:5
3:0 4:10 2:10 9:5 11:5 10:5 4:5 3:15 5:10 11:5 8:10
4:0 2:10 9:5 11:5 10:5 4:5 3:15 5:10 11:5 8:10 5:5
2:0 9:5 11:5 10:5 4:5 3:15 5:10 11:5 8:10 5:5 2:5
9:0 11:5 10:5 4:5 3:15 5:10 11:5 8:10 5:5 2:5 10:10
11:0 10:5 4:5 3:15 5:10 11:5 8:10 5:5 2:5 10:10 11:5
10:0 4:5 3:15 5:10 11:5 8:10 5:5 2:5 10:10 11:5 5:5
4:0 3:15 5:10 11:5 8:10 5:5 2:5 10:10 11:5 5:5 4:5
3:0 5:10 11:5 8:10 5:5 2:5 10:10 11:5 5:5 4:5 5:5
5:0 11:5 8:10 5:5 2:5 10:10 11:5 5:5 4:5 5:5 4:5
11:0 8:10 5:5 2:5 10:10 11:5 5:5 4:5 5:5 4:5 3:5
8:0 5:5 2:5 10:10 11:5 5:5 4:5 5:5 4:5 3:5 10:20
5:0 2:5 10:10 11:5 5:5 4:5 5:5 4:5 3:5 10:20 11:5
2:0 10:10 11:5 5:5 4:5 5:5 4:5 3:5 10:20 11:5 8:10
10:0 11:5 5:5 4:5 5:5 4:5 3:5 10:20 11:5 8:10 5:5
11:0 5:5 4:5 5:5 4:5 3:5 10:20 11:5 8:10 5:5 3:15
5:0 4:5 5:5 4:5 3:5 10:20 11:5 8:10 5:5 3:15 2:5
4:0 5:5 4:5 3:5 10:20 11:5 8:10 5:5 3:15 2:5 8:5
5:0 4:5 3:5 10:20 11:5 8:10 5:5 3:15 2:5 8:5 11:5
4:0 3:5 10:20 11:5 8:10 5:5 3:15 2:5 8:5 11:5 7:5
3:0 10:20 11:5 8:10 5:5 3:15 2:5 8:5 11:5 7:5 4:5
10:0 11:5 8:10 5:5 3:15 2:5 8:5 11:5 7:5 4:5 3:5
11:0 8:10 5:5 3:15 2:5 8:5 11:5 7:5 4:5 3:5 4:10
8:0 5:5 3:15 2:5 8:5 11:5 7:5 4:5 3:5 4:10 3:10
5:0 3:15 2:5 8:5 11:5 7:5 4:5 3:5 4:10 3:10 9:5
3:0 2:5 8:5 11:5 7:5 4:5 3:5 4:10 3:10 9:5 11:5
2:0 8:5 11:5 7:5 4:5 3:5 4:10 3:10 9:5 11:5 4:10
8:0 11:5 7:5 4:5 3:5 4:10 3:10 9:5 11:5 4:10 3:5
11:0 7:5 4:5 3:5 4:10 3:10 9:5 11:5 4:10 3:5 4:10
7:0 4:5 3:5 4:10 3:10 9:5 11:5 4:10 3:5 4:10 3:15
4:0 3:5 4:10 3:10 9:5 11:5 4:10 3:5 4:10 3:15 5:5
3:0 4:10 3:10 9:5 11:5 4:10 3:5 4:10 3:15 5:5 11:5
4:0 3:10 9:5 11:5 4:10 3:5 4:10 3:15 5:5 11:5 4:10
3:0 9:5 11:5 4:10 3:5 4:10 3:15 5:5 11:5 4:10 2:10
9:0 11:5 4:10 3:5 4:10 3:15 5:5 11:5 4:10 2:10 3:5
11:0 4:10 3:5 4:10 3:15 5:5 11:5 4:10 2:10 3:5 4:5
4:0 3:5 4:10 3:15 5:5 11:5 4:10 2:10 3:5 4:5 3:5
3:0 4:10 3:15 5:5 11:5 4:10 2:10 3:5 4:5 3:5 7:5
4:0 3:15 5:5 11:5 4:10 2:10 3:5 4:5 3:5 7:5 11:5
3:0 5:5 11:5 4:10 2:10 3:5 4:5 3:5 7:5 11:5 7:10
5:0 11:5 4:10 2:10 3:5 4:5 3:5 7:5 11:5 7:10 4:5
11:0 4:10 2:10 3:5 4:5 3:5 7:5 11:5 7:10 4:5 3:15
4:0 2:10 3:5 4:5 3:5 7:5 11:5 7:10 4:5 3:15 4:15
2:0 3:5 4:5 3:5 7:5 11:5 7:10 4:5 3:15 4:15 3:5
3:0 4:5 3:5 7:5 11:5 7:10 4:5 3:15 4:15 3:5 10:5
4:0 3:5 7:5 11:5 7:10 4:5 3:15 4:15 3:5 10:5 11:5
3:0 7:5 11:5 7:10 4:5 3:15 4:15 3:5 10:5 11:5 8:10
7:0 11:5 7:10 4:5 3:15 4:15 3:5 10:5 11:5 8:10 5:5
11:0 7:10 4:5 3:15 4:15 3:5 10:5 11:5 8:10 5:5 3:10
7:0 4:5 3:15 4:15 3:5 10:5 11:5 8:10 5:5 3:10 2:5
4:0 3:15 4:15 3:5 10:5 11:5 8:10 5:5 3:10 2:5 10:5
3:0 4:15 3:5 10:5 11:5 8:10 5:5 3:10 2:5 10:5 11:5
4:0 3:5 10:5 11:5 8:10 5:5 3:10 2:5 10:5 11:5 5:5
3:0 10:5 11:5 8:10 5:5 3:10 2:5 10:5 11:5 5:5 4:5
10:0 11:5 8:10 5:5 3:10 2:5 10:5 11:5 5:5 4:5 3:15
11:0 8:10 5:5 3:10 2:5 10:5 11:5 5:5 4:5 3:15 4:15
8:0 5:5 3:10 2:5 10:5 11:5 5:5 4:5 3:15 4:15 3:5
5:0 3:10 2:5 10:5 11:5 5:5 4:5 3:15 4:15 3:5 9:5
3:0 2:5 10:5 11:5 5:5 4:5 3:15 4:15 3:5 9:5 11:5
2:0 10:5 11:5 5:5 4:5 3:15 4:15 3:5 9:5 11:5 8:10
10:0 11:5 5:5 4:5 3:15 4:15 3:5 9:5 11:5 8:10 5:5
11:0 5:5 4:5 3:15 4:15 3:5 9:5 11:5 8:10 5:5 4:10
5:0 4:5 3:15 4:15 3:5 9:5 11:5 8:10 5:5 4:10 3:5
4:0 3:15 4:15 3:5 9:5 11:5 8:10 5:5 4:10 3:5 4:10
3:0 4:15 3:5 9:5 11:5 8:10 5:5 4:10 3:5 4:10 3:10
4:0 3:5 9:5 11:5 8:10 5:5 4:10 3:5 4:10 3:10 5:5
3:0 9:5 11:5 8:10 5:5 4:10 3:5 4:10 3:10 5:5 10:5
9:0 11:5 8:10 5:5 4:10 3:5 4:10 3:10 5:5 10:5 11:5
11:0 8:10 5:5 4:10 3:5 4:10 3:10 5:5 10:5 11:5 10:5
8:0 5:5 4:10 3:5 4:10 3:10 5:5 10:5 11:5 10:5 4:5
5:0 4:10 3:5 4:10 3:10 5:5 10:5 11:5 10:5 4:5 3:5
4:0 3:5 4:10 3:10 5:5 10:5 11:5 10:5 4:5 3:5 4:10
3:0 4:10 3:10 5:5 10:5 11:5 10:5 4:5 3:5 4:10 2:10
4:0 3:10 5:5 10:5 11:5 10:5 4:5 3:5 4:10 2:10 10:5
3:0 5:5 10:5 11:5 10:5 4:5 3:5 4:10 2:10 10:5 11:5
5:0 10:5 11:5 10:5 4:5 3:5 4:10 2:10 10:5 11:5 5:10
10:0 11:5 10:5 4:5 3:5 4:10 2:10 10:5 11:5 5:10 4:5
11:0 10:5 4:5 3:5 4:10 2:10 10:5 11:5 5:10 4:5 3:15
10:0 4:5 3:5 4:10 2:10 10:5 11:5 5:10 4:5 3:15 6:20
4:0 3:5 4:10 2:10 10:5 11:5 5:10 4:5 3:15 6:20 11:5
3:0 4:10 2:10 10:5 11:5 5:10 4:5 3:15 6:20 11:5 7:15
4:0 2:10 10:5 11:5 5:10 4:5 3:15 6:20 11:5 7:15 5:5
2:0 10:5 11:5 5:10 4:5 3:15 6:20 11:5 7:15 5:5 3:10
10:0 11:5 5:10 4:5 3:15 6:20 11:5 7:15 5:5 3:10 10:10
11:0 5:10 4:5 3:15 6:20 11:5 7:15 5:5 3:10 10:10 11:5
5:0 4:5 3:15 6:20 11:5 7:15 5:5 3:10 10:10 11:5 8:5
4:0 3:15 6:20 11:5 7:15 5:5 3:10 10:10 11:5 8:5 4:5
3:0 6:20 11:5 7:15 5:5 3:10 10:10 11:5 8:5 4:5 3:10
6:0 11:5 7:15 5:5 3:10 10:10 11:5 8:5 4:5 3:10 4:5
11:0 7:15 5:5 3:10 10:10 11:5 8:5 4:5 3:10 4:5 3:10
7:0 5:5 3:10 10:10 11:5 8:5 4:5 3:10 4:5 3:10 6:5
5:0 3:10 10:10 11:5 8:5 4:5 3:10 4:5 3:10 6:5 11:5
3:0 10:10 11:5 8:5 4:5 3:10 4:5 3:10 6:5 11:5 4:10
10:0 11:5 8:5 4:5 3:10 4:5 3:10 6:5 11:5 4:10 3:5
11:0 8:5 4:5 3:10 4:5 3:10 6:5 11:5 4:10 3:5 2:5
8:0 4:5 3:10 4:5 3:10 6:5 11:5 4:10 3:5 2:5 4:5
4:0 3:10 4:5 3:10 6:5 11:5 4:10 3:5 2:5 4:5 10:20
3:0 4:5 3:10 6:5 11:5 4:10 3:5 2:5 4:5 10:20 11:5
4:0 3:10 6:5 11:5 4:10 3:5 2:5 4:5 10:20 11:5 9:5
3:0 6:5 11:5 4:10 3:5 2:5 4:5 10:20 11:5 9:5 4:5
6:0 11:5 4:10 3:5 2:5 4:5 10:20 11:5 9:5 4:5 3:15
11:0 4:10 3:5 2:5 4:5 10:20 11:5 9:5 4:5 3:15 4:15
4:0 3:5 2:5 4:5 10:20 11:5 9:5 4:5 3:15 4:15 3:5
3:0 2:5 4:5 10:20 11:5 9:5 4:5 3:15 4:15 3:5 10:5
2:0 4:5 10:20 11:5 9:5 4:5 3:15 4:15 3:5 10:5 11:5
4:0 10:20 11:5 9:5 4:5 3:15 4:15 3:5 10:5 11:5 7:10
10:0 11:5 9:5 4:5 3:15 4:15 3:5 10:5 11:5 7:10 5:5
11:0 9:5 4:5 3:15 4:15 3:5 10:5 11:5 7:10 5:5 4:10
9:0 4:5 3:15 4:15 3:5 10:5 11:5 7:10 5:5 4:10 2:5
4:0 3:15 4:15 3:5 10:5 11:5 7:10 5:5 4:10 2:5 4:5
3:0 4:15 3:5 10:5 11:5 7:10 5:5 4:10 2:5 4:5 11:5
4:0 3:5 10:5 11:5 7:10 5:5 4:10 2:5 4:5 11:5 4:10
3:0 10:5 11:5 7:10 5:5 4:10 2:5 4:5 11:5 4:10 3:10
10:0 11:5 7:10 5:5 4:10 2:5 4:5 11:5 4:10 3:10 4:10
11:0 7:10 5:5 4:10 2:5 4:5 11:5 4:10 3:10 4:10 3:5
7:0 5:5 4:10 2:5 4:5 11:5 4:10 3:10 4:10 3:5 9:5
5:0 4:10 2:5 4:5 11:5 4:10 3:10 4:10 3:5 9:5 11:5
4:0 2:5 4:5 11:5 4:10 3:10 4:10 3:5 9:5 11:5 5:10
2:0 4:5 11:5 4:10 3:10 4:10 3:5 9:5 11:5 5:10 4:5
4:0 11:5 4:10 3:10 4:10 3:5 9:5 11:5 5:10 4:5 3:15
11:0 4:10 3:10 4:10 3:5 9:5 11:5 5:10 4:5 3:15 10:25
4:0 3:10 4:10 3:5 9:5 11:5 5:10 4:5 3:15 10:25 11:5
3:0 4:10 3:5 9:5 11:5 5:10 4:5 3:15 10:25 11:5 9:10
4:0 3:5 9:5 11:5 5:10 4:5 3:15 10:25 11:5 9:10 5:5
3:0 9:5 11:5 5:10 4:5 3:15 10:25 11:5 9:10 5:5 4:10
9:0 11:5 5:10 4:5 3:15 10:25 11:5 9:10 5:5 4:10 2:5
11:0 5:10 4:5 3:15 10:25 11:5 9:10 5:5 4:10 2:5 3:5
5:0 4:5 3:15 10:25 11:5 9:10 5:5 4:10 2:5 3:5 4:5
4:0 3:15 10:25 11:5 9:10 5:5 4:10 2:5 3:5 4:5 3:10
3:0 10:25 11:5 9:10 5:5 4:10 2:5 3:5 4:5 3:10 9:5
10:0 11:5 9:10 5:5 4:10 2:5 3:5 4:5 3:10 9:5 11:5
11:0 9:10 5:5 4:10 2:5 3:5 4:5 3:10 9:5 11:5 8:10
9:0 5:5 4:10 2:5 3:5 4:5 3:10 9:5 11:5 8:10 4:5
5:0 4:10 2:5 3:5 4:5 3:10 9:5 11:5 8:10 4:5 3:15
4:0 2:5 3:5 4:5 3:10 9:5 11:5 8:10 4:5 3:15 2:5
2:0 3:5 4:5 3:10 9:5 11:5 8:10 4:5 3:15 2:5 8:5
3:0 4:5 3:10 9:5 11:5 8:10 4:5 3:15 2:5 8:5 11:5
4:0 3:10 9:5 11:5 8:10 4:5 3:15 2:5 8:5 11:5 5:10
3:0 9:5 11:5 8:10 4:5 3:15 2:5 8:5 11:5 5:10 4:5
9:0 11:5 8:10 4:5 3:15 2:5 8:5 11:5 5:10 4:5 3:5
11:0 8:10 4:5 3:15 2:5 8:5 11:5 5:10 4:5 3:5 2:5
8:0 4:5 3:15 2:5 8:5 11:5 5:10 4:5 3:5 2:5 4:5
4:0 3:15 2:5 8:5 11:5 5:10 4:5 3:5 2:5 4:5 3:10
3:0 2:5 8:5 11:5 5:10 4:5 3:5 2:5 4:5 3:10 5:5
2:0 8:5 11:5 5:10 4:5 3:5 2:5 4:5 3:10 5:5 10:5
8:0 11:5 5:10 4:5 3:5 2:5 4:5 3:10 5:5 10:5 11:5
11:0 5:10 4:5 3:5 2:5 4:5 3:10 5:5 10:5 11:5 9:5
5:0 4:5 3:5 2:5 4:5 3:10 5:5 10:5 11:5 9:5 4:5
4:0 3:5 2:5 4:5 3:10 5:5 10:5 11:5 9:5 4:5 3:15
3:0 2:5 4:5 3:10 5:5 10:5 11:5 9:5 4:5 3:15 11:15
2:0 4:5 3:10 5:5 10:5 11:5 9:5 4:5 3:15 11:15 10:10
4:0 3:10 5:5 10:5 11:5 9:5 4:5 3:15 11:15 10:10 5:5
3:0 5:5 10:5 11:5 9:5 4:5 3:15 11:15 10:10 5:5 3:5
5:0 10:5 11:5 9:5 4:5 3:15 11:15 10:10 5:5 3:5 4:15
10:0 11:5 9:5 4:5 3:15 11:15 10:10 5:5 3:5 4:15 3:5
11:0 9:5 4:5 3:15 11:15 10:10 5:5 3:5 4:15 3:5 5:5
9:0 4:5 3:15 11:15 10:10 5:5 3:5 4:15 3:5 5:5 10:5
4:0 3:15 11:15 10:10 5:5 3:5 4:15 3:5 5:5 10:5 11:5
3:0 11:15 10:10 5:5 3:5 4:15 3:5 5:5 10:5 11:5 10:5
11:0 10:10 5:5 3:5 4:15 3:5 5:5 10:5 11:5 10:5 4:5
10:0 5:5 3:5 4:15 3:5 5:5 10:5 11:5 10:5 4:5 3:5
5:0 3:5 4:15 3:5 5:5 10:5 11:5 10:5 4:5 3:5 4:10
3:0 4:15 3:5 5:5 10:5 11:5 10:5 4:5 3:5 4:10 3:10
4:0 3:5 5:5 10:5 11:5 10:5 4:5 3:5 4:10 3:10 11:10
3:0 5:5 10:5 11:5 10:5 4:5 3:5 4:10 3:10 11:10 9:10
5:0 10:5 11:5 10:5 4:5 3:5 4:10 3:10 11:10 9:10 4:5
10:0 11:5 10:5 4:5 3:5 4:10 3:10 11:10 9:10 4:5 3:10
11:0 10:5 4:5 3:5 4:10 3:10 11:10 9:10 4:5 3:10 4:5
10:0 4:5 3:5 4:10 3:10 11:10 9:10 4:5 3:10 4:5 2:10
4:0 3:5 4:10 3:10 11:10 9:10 4:5 3:10 4:5 2:10 10:5
3:0 4:10 3:10 11:10 9:10 4:5 3:10 4:5 2:10 10:5 11:5
4:0 3:10 11:10 9:10 4:5 3:10 4:5 2:10 10:5 11:5 4:10
3:0 11:10 9:10 4:5 3:10 4:5 2:10 10:5 11:5 4:10 3:20
11:0 9:10 4:5 3:10 4:5 2:10 10:5 11:5 4:10 3:20 10:20
9:0 4:5 3:10 4:5 2:10 10:5 11:5 4:10 3:20 10:20 11:5
4:0 3:10 4:5 2:10 10:5 11:5 4:10 3:20 10:20 11:5 8:10
3:0 4:5 2:10 10:5 11:5 4:10 3:20 10:20 11:5 8:10 5:5
4:0 2:10 10:5 11:5 4:10 3:20 10:20 11:5 8:10 5:5 4:10
2:0 10:5 11:5 4:10 3:20 10:20 11:5 8:10 5:5 4:10 2:5
10:0 11:5 4:10 3:20 10:20 11:5 8:10 5:5 4:10 2:5 7:5
11:0 4:10 3:20 10:20 11:5 8:10 5:5 4:10 2:5 7:5 11:5
4:0 3:20 10:20 11:5 8:10 5:5 4:10 2:5 7:5 11:5 10:5
3:0 10:20 11:5 8:10 5:5 4:10 2:5 7:5 11:5 10:5 5:5
10:0 11:5 8:10 5:5 4:10 2:5 7:5 11:5 10:5 5:5 4:5
11:0 8:10 5:5 4:10 2:5 7:5 11:5 10:5 5:5 4:5 2:20
8:0 5:5 4:10 2:5 7:5 11:5 10:5 5:5 4:5 2:20 9:5
5:0 4:10 2:5 7:5 11:5 10:5 5:5 4:5 2:20 9:5 11:5
4:0 2:5 7:5 11:5 10:5 5:5 4:5 2:20 9:5 11:5 8:5
2:0 7:5 11:5 10:5 5:5 4:5 2:20 9:5 11:5 8:5 5:5
7:0 11:5 10:5 5:5 4:5 2:20 9:5 11:5 8:5 5:5 4:5
11:0 10:5 5:5 4:5 2:20 9:5 11:5 8:5 5:5 4:5 2:10
10:0 5:5 4:5 2:20 9:5 11:5 8:5 5:5 4:5 2:10 4:5
5:0 4:5 2:20 9:5 11:5 8:5 5:5 4:5 2:10 4:5 3:10
4:0 2:20 9:5 11:5 8:5 5:5 4:5 2:10 4:5 3:10 6:5
2:0 9:5 11:5 8:5 5:5 4:5 2:10 4:5 3:10 6:5 11:5
9:0 11:5 8:5 5:5 4:5 2:10 4:5 3:10 6:5 11:5 7:10
11:0 8:5 5:5 4:5 2:10 4:5 3:10 6:5 11:5 7:10 4:5
8:0 5:5 4:5 2:10 4:5 3:10 6:5 11:5 7:10 4:5 3:15
5:0 4:5 2:10 4:5 3:10 6:5 11:5 7:10 4:5 3:15 4:15
4:0 2:10 4:5 3:10 6:5 11:5 7:10 4:5 3:15 4:15 3:5
2:0 4:5 3:10 6:5 11:5 7:10 4:5 3:15 4:15 3:5 10:5
4:0 3:10 6:5 11:5 7:10 4:5 3:15 4:15 3:5 10:5 11:5
3:0 6:5 11:5 7:10 4:5 3:15 4:15 3:5 10:5 11:5 5:15
6:0 11:5 7:10 4:5 3:15 4:15 3:5 10:5 11:5 5:15 4:10
11:0 7:10 4:5 3:15 4:15 3:5 10:5 11:5 5:15 4:10 3:5
7:0 4:5 3:15 4:15 3:5 10:5 11:5 5:15 4:10 3:5 2:5
4:0 3:15 4:15 3:5 10:5 11:5 5:15 4:10 3:5 2:5 4:5
3:0 4:15 3:5 10:5 11:5 5:15 4:10 3:5 2:5 4:5 3:10
4:0 3:5 10:5 11:5 5:15 4:10 3:5 2:5 4:5 3:10 7:5
3:0 10:5 11:5 5:15 4:10 3:5 2:5 4:5 3:10 7:5 11:5
10:0 11:5 5:15 4:10 3:5 2:5 4:5 3:10 7:5 11:5 7:10
11:0 5:15 4:10 3:5 2:5 4:5 3:10 7:5 11:5 7:10 4:5
5:0 4:10 3:5 2:5 4:5 3:10 7:5 11:5 7:10 4:5 3:5
4:0 3:5 2:5 4:5 3:10 7:5 11:5 7:10 4:5 3:5 4:10
3:0 2:5 4:5 3:10 7:5 11:5 7:10 4:5 3:5 4:10 3:10
2:0 4:5 3:10 7:5 11:5 7:10 4:5 3:5 4:10 3:10 9:5
4:0 3:10 7:5 11:5 7:10 4:5 3:5 4:10 3:10 9:5 11:5
3:0 7:5 11:5 7:10 4:5 3:5 4:10 3:10 9:5 11:5 5:10
7:0 11:5 7:10 4:5 3:5 4:10 3:10 9:5 11:5 5:10 4:5
11:0 7:10 4:5 3:5 4:10 3:10 9:5 11:5 5:10 4:5 3:5
7:0 4:5 3:5 4:10 3:10 9:5 11:5 5:10 4:5 3:5 4:10
4:0 3:5 4:10 3:10 9:5 11:5 5:10 4:5 3:5 4:10 3:5
3:0 4:10 3:10 9:5 11:5 5:10 4:5 3:5 4:10 3:5 10:10
4:0 3:10 9:5 11:5 5:10 4:5 3:5 4:10 3:5 10:10 11:5
3:0 9:5 11:5 5:10 4:5 3:5 4:10 3:5 10:10 11:5 10:5
9:0 11:5 5:10 4:5 3:5 4:10 3:5 10:10 11:5 10:5 4:5
11:0 5:10 4:5 3:5 4:10 3:5 10:10 11:5 10:5 4:5 3:5
5:0 4:5 3:5 4:10 3:5 10:10 11:5 10:5 4:5 3:5 4:10
4:0 3:5 4:10 3:5 10:10 11:5 10:5 4:5 3:5 4:10 3:10
3:0 4:10 3:5 10:10 11:5 10:5 4:5 3:5 4:10 3:10 4:5
4:0 3:5 10:10 11:5 10:5 4:5 3:5 4:10 3:10 4:5 11:5
3:0 10:10 11:5 10:5 4:5 3:5 4:10 3:10 4:5 11:5 7:10
10:0 11:5 10:5 4:5 3:5 4:10 3:10 4:5 11:5 7:10 4:5
11:0 10:5 4:5 3:5 4:10 3:10 4:5 11:5 7:10 4:5 5:5
10:0 4:5 3:5 4:10 3:10 4:5 11:5 7:10 4:5 5:5 4:5
4:0 3:5 4:10 3:10 4:5 11:5 7:10 4:5 5:5 4:5 3:5
3:0 4:10 3:10 4:5 11:5 7:10 4:5 5:5 4:5 3:5 2:5
4:0 3:10 4:5 11:5 7:10 4:5 5:5 4:5 3:5 2:5 9:5
3:0 4:5 11:5 7:10 4:5 5:5 4:5 3:5 2:5 9:5 11:5
4:0 11:5 7:10 4:5 5:5 4:5 3:5 2:5 9:5 11:5 10:5
11:0 7:10 4:5 5:5 4:5 3:5 2:5 9:5 11:5 10:5 5:5
7:0 4:5 5:5 4:5 3:5 2:5 9:5 11:5 10:5 5:5 4:5
4:0 5:5 4:5 3:5 2:5 9:5 11:5 10:5 5:5 4:5 2:5
5:0 4:5 3:5 2:5 9:5 11:5 10:5 5:5 4:5 2:5 8:5
4:0 3:5 2:5 9:5 11:5 10:5 5:5 4:5 2:5 8:5 11:5
3:0 2:5 9:5 11:5 10:5 5:5 4:5 2:5 8:5 11:5 9:5
2:0 9:5 11:5 10:5 5:5 4:5 2:5 8:5 11:5 9:5 4:5
9:0 11:5 10:5 5:5 4:5 2:5 8:5 11:5 9:5 4:5 3:15
11:0 10:5 5:5 4:5 2:5 8:5 11:5 9:5 4:5 3:15 9:25
10:0 5:5 4:5 2:5 8:5 11:5 9:5 4:5 3:15 9:25 11:5
5:0 4:5 2:5 8:5 11:5 9:5 4:5 3:15 9:25 11:5 5:15
4:0 2:5 8:5 11:5 9:5 4:5 3:15 9:25 11:5 5:15 3:15
2:0 8:5 11:5 9:5 4:5 3:15 9:25 11:5 5:15 3:15 2:5
8:0 11:5 9:5 4:5 3:15 9:25 11:5 5:15 3:15 2:5 4:5
11:0 9:5 4:5 3:15 9:25 11:5 5:15 3:15 2:5 4:5 3:10
9:0 4:5 3:15 9:25 11:5 5:15 3:15 2:5 4:5 3:10 10:10
4:0 3:15 9:25 11:5 5:15 3:15 2:5 4:5 3:10 10:10 11:5
3:0 9:25 11:5 5:15 3:15 2:5 4:5 3:10 10:10 11:5 10:5
9:0 11:5 5:15 3:15 2:5 4:5 3:10 10:10 11:5 10:5 4:5
11:0 5:15 3:15 2:5 4:5 3:10 10:10 11:5 10:5 4:5 3:15
5:0 3:15 2:5 4:5 3:10 10:10 11:5 10:5 4:5 3:15 4:10
3:0 2:5 4:5 3:10 10:10 11:5 10:5 4:5 3:15 4:10 11:5
2:0 4:5 3:10 10:10 11:5 10:5 4:5 3:15 4:10 11:5 5:10
4:0 3:10 10:10 11:5 10:5 4:5 3:15 4:10 11:5 5:10 3:10
3:0 10:10 11:5 10:5 4:5 3:15 4:10 11:5 5:10 3:10 2:5
10:0 11:5 10:5 4:5 3:15 4:10 11:5 5:10 3:10 2:5 4:5
11:0 10:5 4:5 3:15 4:10 11:5 5:10 3:10 2:5 4:5 5:15
10:0 4:5 3:15 4:10 11:5 5:10 3:10 2:5 4:5 5:15 10:5
4:0 3:15 4:10 11:5 5:10 3:10 2:5 4:5 5:15 10:5 11:5
3:0 4:10 11:5 5:10 3:10 2:5 4:5 5:15 10:5 11:5 10:5
4:0 11:5 5:10 3:10 2:5 4:5 5:15 10:5 11:5 10:5 4:5
11:0 5:10 3:10 2:5 4:5 5:15 10:5 11:5 10:5 4:5 3:5
5:0 3:10 2:5 4:5 5:15 10:5 11:5 10:5 4:5 3:5 4:10
3:0 2:5 4:5 5:15 10:5 11:5 10:5 4:5 3:5 4:10 3:10
2:0 4:5 5:15 10:5 11:5 10:5 4:5 3:5 4:10 3:10 2:5
4:0 5:15 10:5 11:5 10:5 4:5 3:5 4:10 3:10 2:5 10:5
5:0 10:5 11:5 10:5 4:5 3:5 4:10 3:10 2:5 10:5 11:5
10:0 11:5 10:5 4:5 3:5 4:10 3:10 2:5 10:5 11:5 9:5
11:0 10:5 4:5 3:5 4:10 3:10 2:5 10:5 11:5 9:5 4:5
10:0 4:5 3:5 4:10 3:10 2:5 10:5 11:5 9:5 4:5 5:5
4:0 3:5 4:10 3:10 2:5 10:5 11:5 9:5 4:5 5:5 4:5
3:0 4:10 3:10 2:5 10:5 11:5 9:5 4:5 5:5 4:5 3:5
4:0 3:10 2:5 10:5 11:5 9:5 4:5 5:5 4:5 3:5 4:15
3:0 2:5 10:5 11:5 9:5 4:5 5:5 4:5 3:5 4:15 10:10
2:0 10:5 11:5 9:5 4:5 5:5 4:5 3:5 4:15 10:10 11:5
10:0 11:5 9:5 4:5 5:5 4:5 3:5 4:15 10:10 11:5 7:10
11:0 9:5 4:5 5:5 4:5 3:5 4:15 10:10 11:5 7:10 5:5
9:0 4:5 5:5 4:5 3:5 4:15 10:10 11:5 7:10 5:5 4:10
4:0 5:5 4:5 3:5 4:15 10:10 11:5 7:10 5:5 4:10 2:5
5:0 4:5 3:5 4:15 10:10 11:5 7:10 5:5 4:10 2:5 3:5
4:0 3:5 4:15 10:10 11:5 7:10 5:5 4:10 2:5 3:5 4:5
3:0 4:15 10:10 11:5 7:10 5:5 4:10 2:5 3:5 4:5 3:10
4:0 10:10 11:5 7:10 5:5 4:10 2:5 3:5 4:5 3:10 9:5
10:0 11:5 7:10 5:5 4:10 2:5 3:5 4:5 3:10 9:5 11:5
11:0 7:10 5:5 4:10 2:5 3:5 4:5 3:10 9:5 11:5 7:10
7:0 5:5 4:10 2:5 3:5 4:5 3:10 9:5 11:5 7:10 4:5
5:0 4:10 2:5 3:5 4:5 3:10 9:5 11:5 7:10 4:5 3:5
4:0 2:5 3:5 4:5 3:10 9:5 11:5 7:10 4:5 3:5 4:10
2:0 3:5 4:5 3:10 9:5 11:5 7:10 4:5 3:5 4:10 3:10
3:0 4:5 3:10 9:5 11:5 7:10 4:5 3:5 4:10 3:10 6:5
4:0 3:10 9:5 11:5 7:10 4:5 3:5 4:10 3:10 6:5 11:5
3:0 9:5 11:5 7:10 4:5 3:5 4:10 3:10 6:5 11:5 6:10
9:0 11:5 7:10 4:5 3:5 4:10 3:10 6:5 11:5 6:10 4:5
11:0 7:10 4:5 3:5 4:10 3:10 6:5 11:5 6:10 4:5 3:15
7:0 4:5 3:5 4:10 3:10 6:5 11:5 6:10 4:5 3:15 11:10
4:0 3:5 4:10 3:10 6:5 11:5 6:10 4:5 3:15 11:10 8:10
3:0 4:10 3:10 6:5 11:5 6:10 4:5 3:15 11:10 8:10 5:5
4:0 3:10 6:5 11:5 6:10 4:5 3:15 11:10 8:10 5:5 3:5
3:0 6:5 11:5 6:10 4:5 3:15 11:10 8:10 5:5 3:5 4:15
6:0 11:5 6:10 4:5 3:15 11:10 8:10 5:5 3:5 4:15 3:10
11:0 6:10 4:5 3:15 11:10 8:10 5:5 3:5 4:15 3:10 9:5
6:0 4:5 3:15 11:10 8:10 5:5 3:5 4:15 3:10 9:5 11:5
4:0 3:15 11:10 8:10 5:5 3:5 4:15 3:10 9:5 11:5 5:10
3:0 11:10 8:10 5:5 3:5 4:15 3:10 9:5 11:5 5:10 4:5
11:0 8:10 5:5 3:5 4:15 3:10 9:5 11:5 5:10 4:5 5:5
8:0 5:5 3:5 4:15 3:10 9:5 11:5 5:10 4:5 5:5 4:5
5:0 3:5 4:15 3:10 9:5 11:5 5:10 4:5 5:5 4:5 3:5
3:0 4:15 3:10 9:5 11:5 5:10 4:5 5:5 4:5 3:5 8:10
4:0 3:10 9:5 11:5 5:10 4:5 5:5 4:5 3:5 8:10 11:5
3:0 9:5 11:5 5:10 4:5 5:5 4:5 3:5 8:10 11:5 10:5
9:0 11:5 5:10 4:5 5:5 4:5 3:5 8:10 11:5 10:5 5:5
11:0 5:10 4:5 5:5 4:5 3:5 8:10 11:5 10:5 5:5 4:5
5:0 4:5 5:5 4:5 3:5 8:10 11:5 10:5 5:5 4:5 3:5
4:0 5:5 4:5 3:5 8:10 11:5 10:5 5:5 4:5 3:5 4:10
5:0 4:5 3:5 8:10 11:5 10:5 5:5 4:5 3:5 4:10 3:10
4:0 3:5 8:10 11:5 10:5 5:5 4:5 3:5 4:10 3:10 9:5
3:0 8:10 11:5 10:5 5:5 4:5 3:5 4:10 3:10 9:5 10:5
8:0 11:5 10:5 5:5 4:5 3:5 4:10 3:10 9:5 10:5 11:5
11:0 10:5 5:5 4:5 3:5 4:10 3:10 9:5 10:5 11:5 9:5
10:0 5:5 4:5 3:5 4:10 3:10 9:5 10:5 11:5 9:5 4:5
5:0 4:5 3:5 4:10 3:10 9:5 10:5 11:5 9:5 4:5 2:10
4:0 3:5 4:10 3:10 9:5 10:5 11:5 9:5 4:5 2:10 4:5
3:0 4:10 3:10 9:5 10:5 11:5 9:5 4:5 2:10 4:5 3:10
4:0 3:10 9:5 10:5 11:5 9:5 4:5 2:10 4:5 3:10 7:5
3:0 9:5 10:5 11:5 9:5 4:5 2:10 4:5 3:10 7:5 11:5
9:0 10:5 11:5 9:5 4:5 2:10 4:5 3:10 7:5 11:5 5:10
10:0 11:5 9:5 4:5 2:10 4:5 3:10 7:5 11:5 5:10 4:5
11:0 9:5 4:5 2:10 4:5 3:10 7:5 11:5 5:10 4:5 3:15
9:0 4:5 2:10 4:5 3:10 7:5 11:5 5:10 4:5 3:15 7:15
4:0 2:10 4:5 3:10 7:5 11:5 5:10 4:5 3:15 7:15 11:5
2:0 4:5 3:10 7:5 11:5 5:10 4:5 3:15 7:15 11:5 6:10
4:0 3:10 7:5 11:5 5:10 4:5 3:15 7:15 11:5 6:10 3:5
3:0 7:5 11:5 5:10 4:5 3:15 7:15 11:5 6:10 3:5 4:10
7:0 11:5 5:10 4:5 3:15 7:15 11:5 6:10 3:5 4:10 3:10
11:0 5:10 4:5 3:15 7:15 11:5 6:10 3:5 4:10 3:10 6:5
5:0 4:5 3:15 7:15 11:5 6:10 3:5 4:10 3:10 6:5 10:5
4:0 3:15 7:15 11:5 6:10 3:5 4:10 3:10 6:5 10:5 11:5
3:0 7:15 11:5 6:10 3:5 4:10 3:10 6:5 10:5 11:5 9:5
7:0 11:5 6:10 3:5 4:10 3:10 6:5 10:5 11:5 9:5 4:5
11:0 6:10 3:5 4:10 3:10 6:5 10:5 11:5 9:5 4:5 3:15
6:0 3:5 4:10 3:10 6:5 10:5 11:5 9:5 4:5 3:15 2:5
3:0 4:10 3:10 6:5 10:5 11:5 9:5 4:5 3:15 2:5 3:5
4:0 3:10 6:5 10:5 11:5 9:5 4:5 3:15 2:5 3:5 4:5
3:0 6:5 10:5 11:5 9:5 4:5 3:15 2:5 3:5 4:5 3:5
6:0 10:5 11:5 9:5 4:5 3:15 2:5 3:5 4:5 3:5 7:5
10:0 11:5 9:5 4:5 3:15 2:5 3:5 4:5 3:5 7:5 11:5
11:0 9:5 4:5 3:15 2:5 3:5 4:5 3:5 7:5 11:5 4:15
9:0 4:5 3:15 2:5 3:5 4:5 3:5 7:5 11:5 4:15 5:5
4:0 3:15 2:5 3:5 4:5 3:5 7:5 11:5 4:15 5:5 3:5
3:0 2:5 3:5 4:5 3:5 7:5 11:5 4:15 5:5 3:5 2:5
2:0 3:5 4:5 3:5 7:5 11:5 4:15 5:5 3:5 2:5 6:5
3:0 4:5 3:5 7:5 11:5 4:15 5:5 3:5 2:5 6:5 11:5
4:0 3:5 7:5 11:5 4:15 5:5 3:5 2:5 6:5 11:5 10:5
3:0 7:5 11:5 4:15 5:5 3:5 2:5 6:5 11:5 10:5 4:5
7:0 11:5 4:15 5:5 3:5 2:5 6:5 11:5 10:5 4:5 3:15
11:0 4:15 5:5 3:5 2:5 6:5 11:5 10:5 4:5 3:15 9:15
4:0 5:5 3:5 2:5 6:5 11:5 10:5 4:5 3:15 9:15 11:5
5:0 3:5 2:5 6:5 11:5 10:5 4:5 3:15 9:15 11:5 5:10
3:0 2:5 6:5 11:5 10:5 4:5 3:15 9:15 11:5 5:10 4:5
2:0 6:5 11:5 10:5 4:5 3:15 9:15 11:5 5:10 4:5 3:15
6:0 11:5 10:5 4:5 3:15 9:15 11:5 5:10 4:5 3:15 4:15
11:0 10:5 4:5 3:15 9:15 11:5 5:10 4:5 3:15 4:15 11:10
10:0 4:5 3:15 9:15 11:5 5:10 4:5 3:15 4:15 11:10 7:15
4:0 3:15 9:15 11:5 5:10 4:5 3:15 4:15 11:10 7:15 5:5
3:0 9:15 11:5 5:10 4:5 3:15 4:15 11:10 7:15 5:5 3:10
9:0 11:5 5:10 4:5 3:15 4:15 11:10 7:15 5:5 3:10 2:5
11:0 5:10 4:5 3:15 4:15 11:10 7:15 5:5 3:10 2:5 3:5
5:0 4:5 3:15 4:15 11:10 7:15 5:5 3:10 2:5 3:5 4:5
4:0 3:15 4:15 11:10 7:15 5:5 3:10 2:5 3:5 4:5 3:10
3:0 4:15 11:10 7:15 5:5 3:10 2:5 3:5 4:5 3:10 10:5
4:0 11:10 7:15 5:5 3:10 2:5 3:5 4:5 3:10 10:5 11:5
11:0 7:15 5:5 3:10 2:5 3:5 4:5 3:10 10:5 11:5 5:10
7:0 5:5 3:10 2:5 3:5 4:5 3:10 10:5 11:5 5:10 4:5
5:0 3:10 2:5 3:5 4:5 3:10 10:5 11:5 5:10 4:5 3:15
3:0 2:5 3:5 4:5 3:10 10:5 11:5 5:10 4:5 3:15 6:10
2:0 3:5 4:5 3:10 10:5 11:5 5:10 4:5 3:15 6:10 11:5
3:0 4:5 3:10 10:5 11:5 5:10 4:5 3:15 6:10 11:5 5:10
4:0 3:10 10:5 11:5 5:10 4:5 3:15 6:10 11:5 5:10 4:5
3:0 10:5 11:5 5:10 4:5 3:15 6:10 11:5 5:10 4:5 2:5
10:0 11:5 5:10 4:5 3:15 6:10 11:5 5:10 4:5 2:5 3:5
11:0 5:10 4:5 3:15 6:10 11:5 5:10 4:5 2:5 3:5 4:5
5:0 4:5 3:15 6:10 11:5 5:10 4:5 2:5 3:5 4:5 2:10
4:0 3:15 6:10 11:5 5:10 4:5 2:5 3:5 4:5 2:10 10:5
3:0 6:10 11:5 5:10 4:5 2:5 3:5 4:5 2:10 10:5 11:5
6:0 11:5 5:10 4:5 2:5 3:5 4:5 2:10 10:5 11:5 5:10
11:0 5:10 4:5 2:5 3:5 4:5 2:10 10:5 11:5 5:10 4:5
5:0 4:5 2:5 3:5 4:5 2:10 10:5 11:5 5:10 4:5 3:15
4:0 2:5 3:5 4:5 2:10 10:5 11:5 5:10 4:5 3:15 4:15
2:0 3:5 4:5 2:10 10:5 11:5 5:10 4:5 3:15 4:15 3:5
3:0 4:5 2:10 10:5 11:5 5:10 4:5 3:15 4:15 3:5 9:5
4:0 2:10 10:5 11:5 5:10 4:5 3:15 4:15 3:5 9:5 11:5
2:0 10:5 11:5 5:10 4:5 3:15 4:15 3:5 9:5 11:5 8:10
10:0 11:5 5:10 4:5 3:15 4:15 3:5 9:5 11:5 8:10 5:5
11:0 5:10 4:5 3:15 4:15 3:5 9:5 11:5 8:10 5:5 4:10
5:0 4:5 3:15 4:15 3:5 9:5 11:5 8:10 5:5 4:10 2:5
4:0 3:15 4:15 3:5 9:5 11:5 8:10 5:5 4:10 2:5 6:5
3:0 4:15 3:5 9:5 11:5 8:10 5:5 4:10 2:5 6:5 11:5
4:0 3:5 9:5 11:5 8:10 5:5 4:10 2:5 6:5 11:5 10:5
3:0 9:5 11:5 8:10 5:5 4:10 2:5 6:5 11:5 10:5 4:5
9:0 11:5 8:10 5:5 4:10 2:5 6:5 11:5 10:5 4:5 3:5
11:0 8:10 5:5 4:10 2:5 6:5 11:5 10:5 4:5 3:5 4:10
8:0 5:5 4:10 2:5 6:5 11:5 10:5 4:5 3:5 4:10 3:10
5:0 4:10 2:5 6:5 11:5 10:5 4:5 3:5 4:10 3:10 2:5
4:0 2:5 6:5 11:5 10:5 4:5 3:5 4:10 3:10 2:5 10:5
2:0 6:5 11:5 10:5 4:5 3:5 4:10 3:10 2:5 10:5 11:5
6:0 11:5 10:5 4:5 3:5 4:10 3:10 2:5 10:5 11:5 8:5
11:0 10:5 4:5 3:5 4:10 3:10 2:5 10:5 11:5 8:5 4:5
10:0 4:5 3:5 4:10 3:10 2:5 10:5 11:5 8:5 4:5 3:15
4:0 3:5 4:10 3:10 2:5 10:5 11:5 8:5 4:5 3:15 4:15
3:0 4:10 3:10 2:5 10:5 11:5 8:5 4:5 3:15 4:15 3:5
4:0 3:10 2:5 10:5 11:5 8:5 4:5 3:15 4:15 3:5 8:5
3:0 2:5 10:5 11:5 8:5 4:5 3:15 4:15 3:5 8:5 11:5
2:0 10:5 11:5 8:5 4:5 3:15 4:15 3:5 8:5 11:5 7:10
10:0 11:5 8:5 4:5 3:15 4:15 3:5 8:5 11:5 7:10 5:5
11:0 8:5 4:5 3:15 4:15 3:5 8:5 11:5 7:10 5:5 3:10
8:0 4:5 3:15 4:15 3:5 8:5 11:5 7:10 5:5 3:10 2:5
4:0 3:15 4:15 3:5 8:5 11:5 7:10 5:5 3:10 2:5 3:5
3:0 4:15 3:5 8:5 11:5 7:10 5:5 3:10 2:5 3:5 4:5
4:0 3:5 8:5 11:5 7:10 5:5 3:10 2:5 3:5 4:5 3:10
3:0 8:5 11:5 7:10 5:5 3:10 2:5 3:5 4:5 3:10 9:5
8:0 11:5 7:10 5:5 3:10 2:5 3:5 4:5 3:10 9:5 11:5
11:0 7:10 5:5 3:10 2:5 3:5 4:5 3:10 9:5 11:5 7:10
7:0 5:5 3:10 2:5 3:5 4:5 3:10 9:5 11:5 7:10 3:5
5:0 3:10 2:5 3:5 4:5 3:10 9:5 11:5 7:10 3:5 4:15
3:0 2:5 3:5 4:5 3:10 9:5 11:5 7:10 3:5 4:15 3:10
2:0 3:5 4:5 3:10 9:5 11:5 7:10 3:5 4:15 3:10 9:5
3:0 4:5 3:10 9:5 11:5 7:10 3:5 4:15 3:10 9:5 11:5
4:0 3:10 9:5 11:5 7:10 3:5 4:15 3:10 9:5 11:5 4:10
3:0 9:5 11:5 7:10 3:5 4:15 3:10 9:5 11:5 4:10 2:10
9:0 11:5 7:10 3:5 4:15 3:10 9:5 11:5 4:10 2:10 3:5
11:0 7:10 3:5 4:15 3:10 9:5 11:5 4:10 2:10 3:5 4:5
7:0 3:5 4:15 3:10 9:5 11:5 4:10 2:10 3:5 4:5 3:5
3:0 4:15 3:10 9:5 11:5 4:10 2:10 3:5 4:5 3:5 7:5
4:0 3:10 9:5 11:5 4:10 2:10 3:5 4:5 3:5 7:5 11:5
3:0 9:5 11:5 4:10 2:10 3:5 4:5 3:5 7:5 11:5 7:10
9:0 11:5 4:10 2:10 3:5 4:5 3:5 7:5 11:5 7:10 4:5
11:0 4:10 2:10 3:5 4:5 3:5 7:5 11:5 7:10 4:5 3:10
4:0 2:10 3:5 4:5 3:5 7:5 11:5 7:10 4:5 3:10 4:5
2:0 3:5 4:5 3:5 7:5 11:5 7:10 4:5 3:10 4:5 3:10
3:0 4:5 3:5 7:5 11:5 7:10 4:5 3:10 4:5 3:10 8:5
4:0 3:5 7:5 11:5 7:10 4:5 3:10 4:5 3:10 8:5 11:5
3:0 7:5 11:5 7:10 4:5 3:10 4:5 3:10 8:5 11:5 4:10
7:0 11:5 7:10 4:5 3:10 4:5 3:10 8:5 11:5 4:10 3:15
11:0 7:10 4:5 3:10 4:5 3:10 8:5 11:5 4:10 3:15 11:15
7:0 4:5 3:10 4:5 3:10 8:5 11:5 4:10 3:15 11:15 9:10
4:0 3:10 4:5 3:10 8:5 11:5 4:10 3:15 11:15 9:10 5:5
3:0 4:5 3:10 8:5 11:5 4:10 3:15 11:15 9:10 5:5 3:5
4:0 3:10 8:5 11:5 4:10 3:15 11:15 9:10 5:5 3:5 2:10
3:0 8:5 11:5 4:10 3:15 11:15 9:10 5:5 3:5 2:10 4:5
8:0 11:5 4:10 3:15 11:15 9:10 5:5 3:5 2:10 4:5 2:10
11:0 4:10 3:15 11:15 9:10 5:5 3:5 2:10 4:5 2:10 10:5
4:0 3:15 11:15 9:10 5:5 3:5 2:10 4:5 2:10 10:5 11:5
3:0 11:15 9:10 5:5 3:5 2:10 4:5 2:10 10:5 11:5 5:10
11:0 9:10 5:5 3:5 2:10 4:5 2:10 10:5 11:5 5:10 4:5
9:0 5:5 3:5 2:10 4:5 2:10 10:5 11:5 5:10 4:5 3:5
5:0 3:5 2:10 4:5 2:10 10:5 11:5 5:10 4:5 3:5 4:10
3:0 2:10 4:5 2:10 10:5 11:5 5:10 4:5 3:5 4:10 3:10
2:0 4:5 2:10 10:5 11:5 5:10 4:5 3:5 4:10 3:10 9:5
4:0 2:10 10:5 11:5 5:10 4:5 3:5 4:10 3:10 9:5 11:5
2:0 10:5 11:5 5:10 4:5 3:5 4:10 3:10 9:5 11:5 4:10
10:0 11:5 5:10 4:5 3:5 4:10 3:10 9:5 11:5 4:10 3:10
11:0 5:10 4:5 3:5 4:10 3:10 9:5 11:5 4:10 3:10 4:10
5:0 4:5 3:5 4:10 3:10 9:5 11:5 4:10 3:10 4:10 3:5
4:0 3:5 4:10 3:10 9:5 11:5 4:10 3:10 4:10 3:5 10:10
3:0 4:10 3:10 9:5 11:5 4:10 3:10 4:10 3:5 10:10 11:5
4:0 3:10 9:5 11:5 4:10 3:10 4:10 3:5 10:10 11:5 9:5
3:0 9:5 11:5 4:10 3:10 4:10 3:5 10:10 11:5 9:5 3:5
9:0 11:5 4:10 3:10 4:10 3:5 10:10 11:5 9:5 3:5 4:15
11:0 4:10 3:10 4:10 3:5 10:10 11:5 9:5 3:5 4:15 3:10
4:0 3:10 4:10 3:5 10:10 11:5 9:5 3:5 4:15 3:10 7:5
3:0 4:10 3:5 10:10 11:5 9:5 3:5 4:15 3:10 7:5 11:5
4:0 3:5 10:10 11:5 9:5 3:5 4:15 3:10 7:5 11:5 4:10
3:0 10:10 11:5 9:5 3:5 4:15 3:10 7:5 11:5 4:10 5:10
10:0 11:5 9:5 3:5 4:15 3:10 7:5 11:5 4:10 5:10 4:5
11:0 9:5 3:5 4:15 3:10 7:5 11:5 4:10 5:10 4:5 3:5
9:0 3:5 4:15 3:10 7:5 11:5 4:10 5:10 4:5 3:5 9:20
3:0 4:15 3:10 7:5 11:5 4:10 5:10 4:5 3:5 9:20 11:5
4:0 3:10 7:5 11:5 4:10 5:10 4:5 3:5 9:20 11:5 5:15
3:0 7:5 11:5 4:10 5:10 4:5 3:5 9:20 11:5 5:15 3:15
7:0 11:5 4:10 5:10 4:5 3:5 9:20 11:5 5:15 3:15 4:15
11:0 4:10 5:10 4:5 3:5 9:20 11:5 5:15 3:15 4:15 2:10
4:0 5:10 4:5 3:5 9:20 11:5 5:15 3:15 4:15 2:10 10:5
5:0 4:5 3:5 9:20 11:5 5:15 3:15 4:15 2:10 10:5 11:5
4:0 3:5 9:20 11:5 5:15 3:15 4:15 2:10 10:5 11:5 4:10
3:0 9:20 11:5 5:15 3:15 4:15 2:10 10:5 11:5 4:10 3:5
9:0 11:5 5:15 3:15 4:15 2:10 10:5 11:5 4:10 3:5 4:10
11:0 5:15 3:15 4:15 2:10 10:5 11:5 4:10 3:5 4:10 3:15
5:0 3:15 4:15 2:10 10:5 11:5 4:10 3:5 4:10 3:15 9:5
3:0 4:15 2:10 10:5 11:5 4:10 3:5 4:10 3:15 9:5 11:5
4:0 2:10 10:5 11:5 4:10 3:5 4:10 3:15 9:5 11:5 10:5
2:0 10:5 11:5 4:10 3:5 4:10 3:15 9:5 11:5 10:5 4:5
10:0 11:5 4:10 3:5 4:10 3:15 9:5 11:5 10:5 4:5 2:10
11:0 4:10 3:5 4:10 3:15 9:5 11:5 10:5 4:5 2:10 3:5
4:0 3:5 4:10 3:15 9:5 11:5 10:5 4:5 2:10 3:5 4:5
3:0 4:10 3:15 9:5 11:5 10:5 4:5 2:10 3:5 4:5 3:5
4:0 3:15 9:5 11:5 10:5 4:5 2:10 3:5 4:5 3:5 9:5
3:0 9:5 11:5 10:5 4:5 2:10 3:5 4:5 3:5 9:5 11:5
9:0 11:5 10:5 4:5 2:10 3:5 4:5 3:5 9:5 11:5 5:10
11:0 10:5 4:5 2:10 3:5 4:5 3:5 9:5 11:5 5:10 4:5
10:0 4:5 2:10 3:5 4:5 3:5 9:5 11:5 5:10 4:5 3:20
4:0 2:10 3:5 4:5 3:5 9:5 11:5 5:10 4:5 3:20 4:10
2:0 3:5 4:5 3:5 9:5 11:5 5:10 4:5 3:20 4:10 3:5
3:0 4:5 3:5 9:5 11:5 5:10 4:5 3:20 4:10 3:5 8:5
4:0 3:5 9:5 11:5 5:10 4:5 3:20 4:10 3:5 8:5 11:5
3:0 9:5 11:5 5:10 4:5 3:20 4:10 3:5 8:5 11:5 8:10
9:0 11:5 5:10 4:5 3:20 4:10 3:5 8:5 11:5 8:10 4:5
11:0 5:10 4:5 3:20 4:10 3:5 8:5 11:5 8:10 4:5 5:5
5:0 4:5 3:20 4:10 3:5 8:5 11:5 8:10 4:5 5:5 3:5
4:0 3:20 4:10 3:5 8:5 11:5 8:10 4:5 5:5 3:5 11:10
3:0 4:10 3:5 8:5 11:5 8:10 4:5 5:5 3:5 11:10 5:10
4:0 3:5 8:5 11:5 8:10 4:5 5:5 3:5 11:10 5:10 4:5
3:0 8:5 11:5 8:10 4:5 5:5 3:5 11:10 5:10 4:5 5:5
8:0 11:5 8:10 4:5 5:5 3:5 11:10 5:10 4:5 5:5 4:5
11:0 8:10 4:5 5:5 3:5 11:10 5:10 4:5 5:5 4:5 2:10
8:0 4:5 5:5 3:5 11:10 5:10 4:5 5:5 4:5 2:10 3:5
4:0 5:5 3:5 11:10 5:10 4:5 5:5 4:5 2:10 3:5 4:5
5:0 3:5 11:10 5:10 4:5 5:5 4:5 2:10 3:5 4:5 3:10
3:0 11:10 5:10 4:5 5:5 4:5 2:10 3:5 4:5 3:10 10:5
11:0 5:10 4:5 5:5 4:5 2:10 3:5 4:5 3:10 10:5 11:5
5:0 4:5 5:5 4:5 2:10 3:5 4:5 3:10 10:5 11:5 5:10
4:0 5:5 4:5 2:10 3:5 4:5 3:10 10:5 11:5 5:10 4:10
5:0 4:5 2:10 3:5 4:5 3:10 10:5 11:5 5:10 4:10 3:5
4:0 2:10 3:5 4:5 3:10 10:5 11:5 5:10 4:10 3:5 4:10
2:0 3:5 4:5 3:10 10:5 11:5 5:10 4:10 3:5 4:10 3:10
3:0 4:5 3:10 10:5 11:5 5:10 4:10 3:5 4:10 3:10 9:5
4:0 3:10 10:5 11:5 5:10 4:10 3:5 4:10 3:10 9:5 11:5
3:0 10:5 11:5 5:10 4:10 3:5 4:10 3:10 9:5 11:5 7:10
10:0 11:5 5:10 4:10 3:5 4:10 3:10 9:5 11:5 7:10 4:5
11:0 5:10 4:10 3:5 4:10 3:10 9:5 11:5 7:10 4:5 3:15
5:0 4:10 3:5 4:10 3:10 9:5 11:5 7:10 4:5 3:15 6:10
4:0 3:5 4:10 3:10 9:5 11:5 7:10 4:5 3:15 6:10 11:5
3:0 4:10 3:10 9:5 11:5 7:10 4:5 3:15 6:10 11:5 5:10
4:0 3:10 9:5 11:5 7:10 4:5 3:15 6:10 11:5 5:10 4:5
3:0 9:5 11:5 7:10 4:5 3:15 6:10 11:5 5:10 4:5 3:5
9:0 11:5 7:10 4:5 3:15 6:10 11:5 5:10 4:5 3:5 4:10
11:0 7:10 4:5 3:15 6:10 11:5 5:10 4:5 3:5 4:10 3:10
7:0 4:5 3:15 6:10 11:5 5:10 4:5 3:5 4:10 3:10 7:5
4:0 3:15 6:10 11:5 5:10 4:5 3:5 4:10 3:10 7:5 10:5
3:0 6:10 11:5 5:10 4:5 3:5 4:10 3:10 7:5 10:5 11:5
6:0 11:5 5:10 4:5 3:5 4:10 3:10 7:5 10:5 11:5 9:5
11:0 5:10 4:5 3:5 4:10 3:10 7:5 10:5 11:5 9:5 4:5
5:0 4:5 3:5 4:10 3:10 7:5 10:5 11:5 9:5 4:5 2:20
4:0 3:5 4:10 3:10 7:5 10:5 11:5 9:5 4:5 2:20 7:5
3:0 4:10 3:10 7:5 10:5 11:5 9:5 4:5 2:20 7:5 11:5
4:0 3:10 7:5 10:5 11:5 9:5 4:5 2:20 7:5 11:5 10:5
3:0 7:5 10:5 11:5 9:5 4:5 2:20 7:5 11:5 10:5 5:5
7:0 10:5 11:5 9:5 4:5 2:20 7:5 11:5 10:5 5:5 4:5
10:0 11:5 9:5 4:5 2:20 7:5 11:5 10:5 5:5 4:5 3:5
11:0 9:5 4:5 2:20 7:5 11:5 10:5 5:5 4:5 3:5 4:15
9:0 4:5 2:20 7:5 11:5 10:5 5:5 4:5 3:5 4:15 3:5
4:0 2:20 7:5 11:5 10:5 5:5 4:5 3:5 4:15 3:5 5:5
2:0 7:5 11:5 10:5 5:5 4:5 3:5 4:15 3:5 5:5 10:5
7:0 11:5 10:5 5:5 4:5 3:5 4:15 3:5 5:5 10:5 11:5
11:0 10:5 5:5 4:5 3:5 4:15 3:5 5:5 10:5 11:5 10:5
10:0 5:5 4:5 3:5 4:15 3:5 5:5 10:5 11:5 10:5 4:5
5:0 4:5 3:5 4:15 3:5 5:5 10:5 11:5 10:5 4:5 3:5
4:0 3:5 4:15 3:5 5:5 10:5 11:5 10:5 4:5 3:5 4:10
3:0 4:15 3:5 5:5 10:5 11:5 10:5 4:5 3:5 4:10 3:15
4:0 3:5 5:5 10:5 11:5 10:5 4:5 3:5 4:10 3:15 9:5
3:0 5:5 10:5 11:5 10:5 4:5 3:5 4:10 3:15 9:5 11:5
5:0 10:5 11:5 10:5 4:5 3:5 4:10 3:15 9:5 11:5 9:5
10:0 11:5 10:5 4:5 3:5 4:10 3:15 9:5 11:5 9:5 4:5
11:0 10:5 4:5 3:5 4:10 3:15 9:5 11:5 9:5 4:5 3:10
10:0 4:5 3:5 4:10 3:15 9:5 11:5 9:5 4:5 3:10 4:5
4:0 3:5 4:10 3:15 9:5 11:5 9:5 4:5 3:10 4:5 3:10
3:0 4:10 3:15 9:5 11:5 9:5 4:5 3:10 4:5 3:10 9:5
4:0 3:15 9:5 11:5 9:5 4:5 3:10 4:5 3:10 9:5 11:5
3:0 9:5 11:5 9:5 4:5 3:10 4:5 3:10 9:5 11:5 4:10
9:0 11:5 9:5 4:5 3:10 4:5 3:10 9:5 11:5 4:10 2:15
11:0 9:5 4:5 3:10 4:5 3:10 9:5 11:5 4:10 2:15 4:5
9:0 4:5 3:10 4:5 3:10 9:5 11:5 4:10 2:15 4:5 3:5
4:0 3:10 4:5 3:10 9:5 11:5 4:10 2:15 4:5 3:5 10:15
3:0 4:5 3:10 9:5 11:5 4:10 2:15 4:5 3:5 10:15 11:5
4:0 3:10 9:5 11:5 4:10 2:15 4:5 3:5 10:15 11:5 8:10
3:0 9:5 11:5 4:10 2:15 4:5 3:5 10:15 11:5 8:10 5:5
9:0 11:5 4:10 2:15 4:5 3:5 10:15 11:5 8:10 5:5 2:15
11:0 4:10 2:15 4:5 3:5 10:15 11:5 8:10 5:5 2:15 4:5
4:0 2:15 4:5 3:5 10:15 11:5 8:10 5:5 2:15 4:5 11:5
2:0 4:5 3:5 10:15 11:5 8:10 5:5 2:15 4:5 11:5 5:10
4:0 3:5 10:15 11:5 8:10 5:5 2:15 4:5 11:5 5:10 4:5
3:0 10:15 11:5 8:10 5:5 2:15 4:5 11:5 5:10 4:5 3:15
10:0 11:5 8:10 5:5 2:15 4:5 11:5 5:10 4:5 3:15 4:15
11:0 8:10 5:5 2:15 4:5 11:5 5:10 4:5 3:15 4:15 3:5
8:0 5:5 2:15 4:5 11:5 5:10 4:5 3:15 4:15 3:5 10:5
5:0 2:15 4:5 11:5 5:10 4:5 3:15 4:15 3:5 10:5 11:5
2:0 4:5 11:5 5:10 4:5 3:15 4:15 3:5 10:5 11:5 7:10
4:0 11:5 5:10 4:5 3:15 4:15 3:5 10:5 11:5 7:10 5:5
11:0 5:10 4:5 3:15 4:15 3:5 10:5 11:5 7:10 5:5 3:10
5:0 4:5 3:15 4:15 3:5 10:5 11:5 7:10 5:5 3:10 2:5
4:0 3:15 4:15 3:5 10:5 11:5 7:10 5:5 3:10 2:5 10:5
3:0 4:15 3:5 10:5 11:5 7:10 5:5 3:10 2:5 10:5 11:5
4:0 3:5 10:5 11:5 7:10 5:5 3:10 2:5 10:5 11:5 7:5
3:0 10:5 11:5 7:10 5:5 3:10 2:5 10:5 11:5 7:5 4:5
10:0 11:5 7:10 5:5 3:10 2:5 10:5 11:5 7:5 4:5 3:15
11:0 7:10 5:5 3:10 2:5 10:5 11:5 7:5 4:5 3:15 4:15
7:0 5:5 3:10 2:5 10:5 11:5 7:5 4:5 3:15 4:15 3:5
5:0 3:10 2:5 10:5 11:5 7:5 4:5 3:15 4:15 3:5 9:5
3:0 2:5 10:5 11:5 7:5 4:5 3:15 4:15 3:5 9:5 10:5
2:0 10:5 11:5 7:5 4:5 3:15 4:15 3:5 9:5 10:5 11:5
10:0 11:5 7:5 4:5 3:15 4:15 3:5 9:5 10:5 11:5 5:10
11:0 7:5 4:5 3:15 4:15 3:5 9:5 10:5 11:5 5:10 4:10
7:0 4:5 3:15 4:15 3:5 9:5 10:5 11:5 5:10 4:10 3:5
4:0 3:15 4:15 3:5 9:5 10:5 11:5 5:10 4:10 3:5 4:10
3:0 4:15 3:5 9:5 10:5 11:5 5:10 4:10 3:5 4:10
4:0 3:5 9:5 10:5 11:5 5:10 4:10 3:5 4:10
3:0 9:5 10:5 11:5 5:10 4:10 3:5 4:10
9:0 10:5 11:5 5:10 4:10 3:5 4:10
10:0 11:5 5:10 4:10 3:5 4:10
11:0 5:10 4:10 3:5 4:10
5:0 4:10 3:5 4:10
4:0 3:5 4:10
3:0 4:10
4:0