7:0 3:5 7:5 5:5 7:5 5:5 7:15 3:10 5:5 7:15 3:5
3:0 7:5 5:5 7:5 5:5 7:15 3:10 5:5 7:15 3:5 7:5
7:0 5:5 7:5 5:5 7:15 3:10 5:5 7:15 3:5 7:5 5:10
5:0 7:5 5:5 7:15 3:10 5:5 7:15 3:5 7:5 5:10 7:5
7:0 5:5 7:15 3:10 5:5 7:15 3:5 7:5 5:10 7:5 3:5
5:0 7:15 3:10 5:5 7:15 3:5 7:5 5:10 7:5 3:5 5:5
7:0 3:10 5:5 7:15 3:5 7:5 5:10 7:5 3:5 5:5 7:5
3:0 5:5 7:15 3:5 7:5 5:10 7:5 3:5 5:5 7:5 3:10
5:0 7:15 3:5 7:5 5:10 7:5 3:5 5:5 7:5 3:10 5:5
7:0 3:5 7:5 5:10 7:5 3:5 5:5 7:5 3:10 5:5 7:5
3:0 7:5 5:10 7:5 3:5 5:5 7:5 3:10 5:5 7:5 3:5
7:0 5:10 7:5 3:5 5:5 7:5 3:10 5:5 7:5 3:5 7:5
5:0 7:5 3:5 5:5 7:5 3:10 5:5 7:5 3:5 7:5 3:5
7:0 3:5 5:5 7:5 3:10 5:5 7:5 3:5 7:5 3:5 7:10
3:0 5:5 7:5 3:10 5:5 7:5 3:5 7:5 3:5 7:10 5:15
5:0 7:5 3:10 5:5 7:5 3:5 7:5 3:5 7:10 5:15 7:10
7:0 3:10 5:5 7:5 3:5 7:5 3:5 7:10 5:15 7:10 3:15
3:0 5:5 7:5 3:5 7:5 3:5 7:10 5:15 7:10 3:15 5:5
5:0 7:5 3:5 7:5 3:5 7:10 5:15 7:10 3:15 5:5 7:5
7:0 3:5 7:5 3:5 7:10 5:15 7:10 3:15 5:5 7:5 5:5
3:0 7:5 3:5 7:10 5:15 7:10 3:15 5:5 7:5 5:5 7:5
7:0 3:5 7:10 5:15 7:10 3:15 5:5 7:5 5:5 7:5 3:5
3:0 7:10 5:15 7:10 3:15 5:5 7:5 5:5 7:5 3:5 5:5
7:0 5:15 7:10 3:15 5:5 7:5 5:5 7:5 3:5 5:5 7:5
5:0 7:10 3:15 5:5 7:5 5:5 7:5 3:5 5:5 7:5 5:10
7:0 3:15 5:5 7:5 5:5 7:5 3:5 5:5 7:5 5:10 3:5
3:0 5:5 7:5 5:5 7:5 3:5 5:5 7:5 5:10 3:5 5:5
5:0 7:5 5:5 7:5 3:5 5:5 7:5 5:10 3:5 5:5 7:5
7:0 5:5 7:5 3:5 5:5 7:5 5:10 3:5 5:5 7:5 3:10
5:0 7:5 3:5 5:5 7:5 5:10 3:5 5:5 7:5 3:10 5:5
7:0 3:5 5:5 7:5 5:10 3:5 5:5 7:5 3:10 5:5 7:5
3:0 5:5 7:5 5:10 3:5 5:5 7:5 3:10 5:5 7:5 2:15
5:0 7:5 5:10 3:5 5:5 7:5 3:10 5:5 7:5 2:15 7:5
7:0 5:10 3:5 5:5 7:5 3:10 5:5 7:5 2:15 7:5 5:5
5:0 3:5 5:5 7:5 3:10 5:5 7:5 2:15 7:5 5:5 7:5
3:0 5:5 7:5 3:10 5:5 7:5 2:15 7:5 5:5 7:5 2:10
5:0 7:5 3:10 5:5 7:5 2:15 7:5 5:5 7:5 2:10 5:5
7:0 3:10 5:5 7:5 2:15 7:5 5:5 7:5 2:10 5:5 7:5
3:0 5:5 7:5 2:15 7:5 5:5 7:5 2:10 5:5 7:5 2:15
5:0 7:5 2:15 7:5 5:5 7:5 2:10 5:5 7:5 2:15 7:5
7:0 2:15 7:5 5:5 7:5 2:10 5:5 7:5 2:15 7:5 5:5
2:0 7:5 5:5 7:5 2:10 5:5 7:5 2:15 7:5 5:5 7:5
7:0 5:5 7:5 2:10 5:5 7:5 2:15 7:5 5:5 7:5 3:10
5:0 7:5 2:10 5:5 7:5 2:15 7:5 5:5 7:5 3:10 7:5
7:0 2:10 5:5 7:5 2:15 7:5 5:5 7:5 3:10 7:5 5:5
2:0 5:5 7:5 2:15 7:5 5:5 7:5 3:10 7:5 5:5 7:5
5:0 7:5 2:15 7:5 5:5 7:5 3:10 7:5 5:5 7:5 3:5
7:0 2:15 7:5 5:5 7:5 3:10 7:5 5:5 7:5 3:5 7:5
2:0 7:5 5:5 7:5 3:10 7:5 5:5 7:5 3:5 7:5 5:5
7:0 5:5 7:5 3:10 7:5 5:5 7:5 3:5 7:5 5:5 7:5
5:0 7:5 3:10 7:5 5:5 7:5 3:5 7:5 5:5 7:5 3:10
7:0 3:10 7:5 5:5 7:5 3:5 7:5 5:5 7:5 3:10 5:5
3:0 7:5 5:5 7:5 3:5 7:5 5:5 7:5 3:10 5:5 7:5
7:0 5:5 7:5 3:5 7:5 5:5 7:5 3:10 5:5 7:5 5:5
5:0 7:5 3:5 7:5 5:5 7:5 3:10 5:5 7:5 5:5 7:5
7:0 3:5 7:5 5:5 7:5 3:10 5:5 7:5 5:5 7:5 3:5
3:0 7:5 5:5 7:5 3:10 5:5 7:5 5:5 7:5 3:5 5:5
7:0 5:5 7:5 3:10 5:5 7:5 5:5 7:5 3:5 5:5 7:5
5:0 7:5 3:10 5:5 7:5 5:5 7:5 3:5 5:5 7:5 5:10
7:0 3:10 5:5 7:5 5:5 7:5 3:5 5:5 7:5 5:10 7:10
3:0 5:5 7:5 5:5 7:5 3:5 5:5 7:5 5:10 7:10 5:5
5:0 7:5 5:5 7:5 3:5 5:5 7:5 5:10 7:10 5:5 7:5
7:0 5:5 7:5 3:5 5:5 7:5 5:10 7:10 5:5 7:5 5:5
5:0 7:5 3:5 5:5 7:5 5:10 7:10 5:5 7:5 5:5 3:5
7:0 3:5 5:5 7:5 5:10 7:10 5:5 7:5 5:5 3:5 7:5
3:0 5:5 7:5 5:10 7:10 5:5 7:5 5:5 3:5 7:5 3:15
5:0 7:5 5:10 7:10 5:5 7:5 5:5 3:5 7:5 3:15 5:5
7:0 5:10 7:10 5:5 7:5 5:5 3:5 7:5 3:15 5:5 7:5
5:0 7:10 5:5 7:5 5:5 3:5 7:5 3:15 5:5 7:5 3:15
7:0 5:5 7:5 5:5 3:5 7:5 3:15 5:5 7:5 3:15 5:5
5:0 7:5 5:5 3:5 7:5 3:15 5:5 7:5 3:15 5:5 7:5
7:0 5:5 3:5 7:5 3:15 5:5 7:5 3:15 5:5 7:5 5:5
5:0 3:5 7:5 3:15 5:5 7:5 3:15 5:5 7:5 5:5 7:5
3:0 7:5 3:15 5:5 7:5 3:15 5:5 7:5 5:5 7:5 3:5
7:0 3:15 5:5 7:5 3:15 5:5 7:5 5:5 7:5 3:5 7:5
3:0 5:5 7:5 3:15 5:5 7:5 5:5 7:5 3:5 7:5 5:5
5:0 7:5 3:15 5:5 7:5 5:5 7:5 3:5 7:5 5:5 7:5
7:0 3:15 5:5 7:5 5:5 7:5 3:5 7:5 5:5 7:5 5:5
3:0 5:5 7:5 5:5 7:5 3:5 7:5 5:5 7:5 5:5 3:5
5:0 7:5 5:5 7:5 3:5 7:5 5:5 7:5 5:5 3:5 7:5
7:0 5:5 7:5 3:5 7:5 5:5 7:5 5:5 3:5 7:5 5:5
5:0 7:5 3:5 7:5 5:5 7:5 5:5 3:5 7:5 5:5 2:15
7:0 3:5 7:5 5:5 7:5 5:5 3:5 7:5 5:5 2:15 7:5
3:0 7:5 5:5 7:5 5:5 3:5 7:5 5:5 2:15 7:5 5:10
7:0 5:5 7:5 5:5 3:5 7:5 5:5 2:15 7:5 5:10 3:5
5:0 7:5 5:5 3:5 7:5 5:5 2:15 7:5 5:10 3:5 5:5
7:0 5:5 3:5 7:5 5:5 2:15 7:5 5:10 3:5 5:5 7:5
5:0 3:5 7:5 5:5 2:15 7:5 5:10 3:5 5:5 7:5 3:15
3:0 7:5 5:5 2:15 7:5 5:10 3:5 5:5 7:5 3:15 5:5
7:0 5:5 2:15 7:5 5:10 3:5 5:5 7:5 3:15 5:5 7:5
5:0 2:15 7:5 5:10 3:5 5:5 7:5 3:15 5:5 7:5 3:15
2:0 7:5 5:10 3:5 5:5 7:5 3:15 5:5 7:5 3:15 7:5
7:0 5:10 3:5 5:5 7:5 3:15 5:5 7:5 3:15 7:5 5:5
5:0 3:5 5:5 7:5 3:15 5:5 7:5 3:15 7:5 5:5 7:10
3:0 5:5 7:5 3:15 5:5 7:5 3:15 7:5 5:5 7:10 2:5
5:0 7:5 3:15 5:5 7:5 3:15 7:5 5:5 7:10 2:5 5:5
7:0 3:15 5:5 7:5 3:15 7:5 5:5 7:10 2:5 5:5 7:5
3:0 5:5 7:5 3:15 7:5 5:5 7:10 2:5 5:5 7:5 5:10
5:0 7:5 3:15 7:5 5:5 7:10 2:5 5:5 7:5 5:10 7:10
7:0 3:15 7:5 5:5 7:10 2:5 5:5 7:5 5:10 7:10 5:5
3:0 7:5 5:5 7:10 2:5 5:5 7:5 5:10 7:10 5:5 7:5
7:0 5:5 7:10 2:5 5:5 7:5 5:10 7:10 5:5 7:5 5:5
5:0 7:10 2:5 5:5 7:5 5:10 7:10 5:5 7:5 5:5 7:10
7:0 2:5 5:5 7:5 5:10 7:10 5:5 7:5 5:5 7:10 5:5
2:0 5:5 7:5 5:10 7:10 5:5 7:5 5:5 7:10 5:5 7:5
5:0 7:5 5:10 7:10 5:5 7:5 5:5 7:10 5:5 7:5 3:5
7:0 5:10 7:10 5:5 7:5 5:5 7:10 5:5 7:5 3:5 7:5
5:0 7:10 5:5 7:5 5:5 7:10 5:5 7:5 3:5 7:5 5:5
7:0 5:5 7:5 5:5 7:10 5:5 7:5 3:5 7:5 5:5 7:5
5:0 7:5 5:5 7:10 5:5 7:5 3:5 7:5 5:5 7:5 5:5
7:0 5:5 7:10 5:5 7:5 3:5 7:5 5:5 7:5 5:5 2:5
5:0 7:10 5:5 7:5 3:5 7:5 5:5 7:5 5:5 2:5 7:5
7:0 5:5 7:5 3:5 7:5 5:5 7:5 5:5 2:5 7:5 5:5
5:0 7:5 3:5 7:5 5:5 7:5 5:5 2:5 7:5 5:5 7:5
7:0 3:5 7:5 5:5 7:5 5:5 2:5 7:5 5:5 7:5 5:5
3:0 7:5 5:5 7:5 5:5 2:5 7:5 5:5 7:5 5:5 2:5
7:0 5:5 7:5 5:5 2:5 7:5 5:5 7:5 5:5 2:5 7:5
5:0 7:5 5:5 2:5 7:5 5:5 7:5 5:5 2:5 7:5 5:20
7:0 5:5 2:5 7:5 5:5 7:5 5:5 2:5 7:5 5:20 7:10
5:0 2:5 7:5 5:5 7:5 5:5 2:5 7:5 5:20 7:10 5:5
2:0 7:5 5:5 7:5 5:5 2:5 7:5 5:20 7:10 5:5 7:10
7:0 5:5 7:5 5:5 2:5 7:5 5:20 7:10 5:5 7:10 5:5
5:0 7:5 5:5 2:5 7:5 5:20 7:10 5:5 7:10 5:5 7:10
7:0 5:5 2:5 7:5 5:20 7:10 5:5 7:10 5:5 7:10 5:5
5:0 2:5 7:5 5:20 7:10 5:5 7:10 5:5 7:10 5:5 7:5
2:0 7:5 5:20 7:10 5:5 7:10 5:5 7:10 5:5 7:5 5:10
7:0 5:20 7:10 5:5 7:10 5:5 7:10 5:5 7:5 5:10 7:5
5:0 7:10 5:5 7:10 5:5 7:10 5:5 7:5 5:10 7:5 3:5
7:0 5:5 7:10 5:5 7:10 5:5 7:5 5:10 7:5 3:5 5:5
5:0 7:10 5:5 7:10 5:5 7:5 5:10 7:5 3:5 5:5 7:5
7:0 5:5 7:10 5:5 7:5 5:10 7:5 3:5 5:5 7:5 3:5
5:0 7:10 5:5 7:5 5:10 7:5 3:5 5:5 7:5 3:5 7:5
7:0 5:5 7:5 5:10 7:5 3:5 5:5 7:5 3:5 7:5 3:5
5:0 7:5 5:10 7:5 3:5 5:5 7:5 3:5 7:5 3:5 5:5
7:0 5:10 7:5 3:5 5:5 7:5 3:5 7:5 3:5 5:5 7:5
5:0 7:5 3:5 5:5 7:5 3:5 7:5 3:5 5:5 7:5 5:5
7:0 3:5 5:5 7:5 3:5 7:5 3:5 5:5 7:5 5:5 7:5
3:0 5:5 7:5 3:5 7:5 3:5 5:5 7:5 5:5 7:5 5:5
5:0 7:5 3:5 7:5 3:5 5:5 7:5 5:5 7:5 5:5 7:15
7:0 3:5 7:5 3:5 5:5 7:5 5:5 7:5 5:5 7:15 3:5
3:0 7:5 3:5 5:5 7:5 5:5 7:5 5:5 7:15 3:5 7:10
7:0 3:5 5:5 7:5 5:5 7:5 5:5 7:15 3:5 7:10 5:15
3:0 5:5 7:5 5:5 7:5 5:5 7:15 3:5 7:10 5:15 3:5
5:0 7:5 5:5 7:5 5:5 7:15 3:5 7:10 5:15 3:5 7:5
7:0 5:5 7:5 5:5 7:15 3:5 7:10 5:15 3:5 7:5 5:5
5:0 7:5 5:5 7:15 3:5 7:10 5:15 3:5 7:5 5:5 7:5
7:0 5:5 7:15 3:5 7:10 5:15 3:5 7:5 5:5 7:5 3:5
5:0 7:15 3:5 7:10 5:15 3:5 7:5 5:5 7:5 3:5 5:5
7:0 3:5 7:10 5:15 3:5 7:5 5:5 7:5 3:5 5:5 7:5
3:0 7:10 5:15 3:5 7:5 5:5 7:5 3:5 5:5 7:5 3:5
7:0 5:15 3:5 7:5 5:5 7:5 3:5 5:5 7:5 3:5 7:5
5:0 3:5 7:5 5:5 7:5 3:5 5:5 7:5 3:5 7:5 3:5
3:0 7:5 5:5 7:5 3:5 5:5 7:5 3:5 7:5 3:5 5:5
7:0 5:5 7:5 3:5 5:5 7:5 3:5 7:5 3:5 5:5 3:5
5:0 7:5 3:5 5:5 7:5 3:5 7:5 3:5 5:5 3:5 7:5
7:0 3:5 5:5 7:5 3:5 7:5 3:5 5:5 3:5 7:5 3:10
3:0 5:5 7:5 3:5 7:5 3:5 5:5 3:5 7:5 3:10 5:5
5:0 7:5 3:5 7:5 3:5 5:5 3:5 7:5 3:10 5:5 7:5
7:0 3:5 7:5 3:5 5:5 3:5 7:5 3:10 5:5 7:5 3:10
3:0 7:5 3:5 5:5 3:5 7:5 3:10 5:5 7:5 3:10 5:5
7:0 3:5 5:5 3:5 7:5 3:10 5:5 7:5 3:10 5:5 7:5
3:0 5:5 3:5 7:5 3:10 5:5 7:5 3:10 5:5 7:5 3:5
5:0 3:5 7:5 3:10 5:5 7:5 3:10 5:5 7:5 3:5 7:5
3:0 7:5 3:10 5:5 7:5 3:10 5:5 7:5 3:5 7:5 3:5
7:0 3:10 5:5 7:5 3:10 5:5 7:5 3:5 7:5 3:5 5:5
3:0 5:5 7:5 3:10 5:5 7:5 3:5 7:5 3:5 5:5 7:5
5:0 7:5 3:10 5:5 7:5 3:5 7:5 3:5 5:5 7:5 5:5
7:0 3:10 5:5 7:5 3:5 7:5 3:5 5:5 7:5 5:5 7:5
3:0 5:5 7:5 3:5 7:5 3:5 5:5 7:5 5:5 7:5 3:5
5:0 7:5 3:5 7:5 3:5 5:5 7:5 5:5 7:5 3:5 5:5
7:0 3:5 7:5 3:5 5:5 7:5 5:5 7:5 3:5 5:5 7:5
3:0 7:5 3:5 5:5 7:5 5:5 7:5 3:5 5:5 7:5 2:15
7:0 3:5 5:5 7:5 5:5 7:5 3:5 5:5 7:5 2:15 5:5
3:0 5:5 7:5 5:5 7:5 3:5 5:5 7:5 2:15 5:5 7:10
5:0 7:5 5:5 7:5 3:5 5:5 7:5 2:15 5:5 7:10 5:5
7:0 5:5 7:5 3:5 5:5 7:5 2:15 5:5 7:10 5:5 3:5
5:0 7:5 3:5 5:5 7:5 2:15 5:5 7:10 5:5 3:5 7:5
7:0 3:5 5:5 7:5 2:15 5:5 7:10 5:5 3:5 7:5 5:5
3:0 5:5 7:5 2:15 5:5 7:10 5:5 3:5 7:5 5:5 7:5
5:0 7:5 2:15 5:5 7:10 5:5 3:5 7:5 5:5 7:5 5:5
7:0 2:15 5:5 7:10 5:5 3:5 7:5 5:5 7:5 5:5 7:15
2:0 5:5 7:10 5:5 3:5 7:5 5:5 7:5 5:5 7:15 5:10
5:0 7:10 5:5 3:5 7:5 5:5 7:5 5:5 7:15 5:10 3:5
7:0 5:5 3:5 7:5 5:5 7:5 5:5 7:15 5:10 3:5 7:5
5:0 3:5 7:5 5:5 7:5 5:5 7:15 5:10 3:5 7:5 5:5
3:0 7:5 5:5 7:5 5:5 7:15 5:10 3:5 7:5 5:5 7:5
7:0 5:5 7:5 5:5 7:15 5:10 3:5 7:5 5:5 7:5 3:5
5:0 7:5 5:5 7:15 5:10 3:5 7:5 5:5 7:5 3:5 5:5
7:0 5:5 7:15 5:10 3:5 7:5 5:5 7:5 3:5 5:5 7:5
5:0 7:15 5:10 3:5 7:5 5:5 7:5 3:5 5:5 7:5 3:10
7:0 5:10 3:5 7:5 5:5 7:5 3:5 5:5 7:5 3:10 5:5
5:0 3:5 7:5 5:5 7:5 3:5 5:5 7:5 3:10 5:5 3:5
3:0 7:5 5:5 7:5 3:5 5:5 7:5 3:10 5:5 3:5 5:5
7:0 5:5 7:5 3:5 5:5 7:5 3:10 5:5 3:5 5:5 8:5
5:0 7:5 3:5 5:5 7:5 3:10 5:5 3:5 5:5 8:5 5:5
7:0 3:5 5:5 7:5 3:10 5:5 3:5 5:5 8:5 5:5 3:5
3:0 5:5 7:5 3:10 5:5 3:5 5:5 8:5 5:5 3:5 7:5
5:0 7:5 3:10 5:5 3:5 5:5 8:5 5:5 3:5 7:5 5:15
7:0 3:10 5:5 3:5 5:5 8:5 5:5 3:5 7:5 5:15 7:10
3:0 5:5 3:5 5:5 8:5 5:5 3:5 7:5 5:15 7:10 5:5
5:0 3:5 5:5 8:5 5:5 3:5 7:5 5:15 7:10 5:5 7:5
3:0 5:5 8:5 5:5 3:5 7:5 5:15 7:10 5:5 7:5 3:5
5:0 8:5 5:5 3:5 7:5 5:15 7:10 5:5 7:5 3:5 7:5
8:0 5:5 3:5 7:5 5:15 7:10 5:5 7:5 3:5 7:5 3:5
5:0 3:5 7:5 5:15 7:10 5:5 7:5 3:5 7:5 3:5 7:5
3:0 7:5 5:15 7:10 5:5 7:5 3:5 7:5 3:5 7:5 3:10
7:0 5:15 7:10 5:5 7:5 3:5 7:5 3:5 7:5 3:10 5:5
5:0 7:10 5:5 7:5 3:5 7:5 3:5 7:5 3:10 5:5 7:5
7:0 5:5 7:5 3:5 7:5 3:5 7:5 3:10 5:5 7:5 5:5
5:0 7:5 3:5 7:5 3:5 7:5 3:10 5:5 7:5 5:5 7:5
7:0 3:5 7:5 3:5 7:5 3:10 5:5 7:5 5:5 7:5 2:5
3:0 7:5 3:5 7:5 3:10 5:5 7:5 5:5 7:5 2:5 7:5
7:0 3:5 7:5 3:10 5:5 7:5 5:5 7:5 2:5 7:5 5:5
3:0 7:5 3:10 5:5 7:5 5:5 7:5 2:5 7:5 5:5 7:5
7:0 3:10 5:5 7:5 5:5 7:5 2:5 7:5 5:5 7:5 3:5
3:0 5:5 7:5 5:5 7:5 2:5 7:5 5:5 7:5 3:5 5:5
5:0 7:5 5:5 7:5 2:5 7:5 5:5 7:5 3:5 5:5 7:5
7:0 5:5 7:5 2:5 7:5 5:5 7:5 3:5 5:5 7:5 5:5
5:0 7:5 2:5 7:5 5:5 7:5 3:5 5:5 7:5 5:5 7:5
7:0 2:5 7:5 5:5 7:5 3:5 5:5 7:5 5:5 7:5 3:5
2:0 7:5 5:5 7:5 3:5 5:5 7:5 5:5 7:5 3:5 5:5
7:0 5:5 7:5 3:5 5:5 7:5 5:5 7:5 3:5 5:5 7:5
5:0 7:5 3:5 5:5 7:5 5:5 7:5 3:5 5:5 7:5 5:5
7:0 3:5 5:5 7:5 5:5 7:5 3:5 5:5 7:5 5:5 7:5
3:0 5:5 7:5 5:5 7:5 3:5 5:5 7:5 5:5 7:5 3:5
5:0 7:5 5:5 7:5 3:5 5:5 7:5 5:5 7:5 3:5 7:10
7:0 5:5 7:5 3:5 5:5 7:5 5:5 7:5 3:5 7:10 2:15
5:0 7:5 3:5 5:5 7:5 5:5 7:5 3:5 7:10 2:15 7:5
7:0 3:5 5:5 7:5 5:5 7:5 3:5 7:10 2:15 7:5 5:5
3:0 5:5 7:5 5:5 7:5 3:5 7:10 2:15 7:5 5:5 7:5
5:0 7:5 5:5 7:5 3:5 7:10 2:15 7:5 5:5 7:5 3:10
7:0 5:5 7:5 3:5 7:10 2:15 7:5 5:5 7:5 3:10 7:5
5:0 7:5 3:5 7:10 2:15 7:5 5:5 7:5 3:10 7:5 5:5
7:0 3:5 7:10 2:15 7:5 5:5 7:5 3:10 7:5 5:5 7:5
3:0 7:10 2:15 7:5 5:5 7:5 3:10 7:5 5:5 7:5 3:5
7:0 2:15 7:5 5:5 7:5 3:10 7:5 5:5 7:5 3:5 7:10
2:0 7:5 5:5 7:5 3:10 7:5 5:5 7:5 3:5 7:10 5:5
7:0 5:5 7:5 3:10 7:5 5:5 7:5 3:5 7:10 5:5 7:5
5:0 7:5 3:10 7:5 5:5 7:5 3:5 7:10 5:5 7:5 3:5
7:0 3:10 7:5 5:5 7:5 3:5 7:10 5:5 7:5 3:5 7:10
3:0 7:5 5:5 7:5 3:5 7:10 5:5 7:5 3:5 7:10 5:5
7:0 5:5 7:5 3:5 7:10 5:5 7:5 3:5 7:10 5:5 7:5
5:0 7:5 3:5 7:10 5:5 7:5 3:5 7:10 5:5 7:5 3:5
7:0 3:5 7:10 5:5 7:5 3:5 7:10 5:5 7:5 3:5 5:5
3:0 7:10 5:5 7:5 3:5 7:10 5:5 7:5 3:5 5:5 7:5
7:0 5:5 7:5 3:5 7:10 5:5 7:5 3:5 5:5 7:5 2:15
5:0 7:5 3:5 7:10 5:5 7:5 3:5 5:5 7:5 2:15 7:5
7:0 3:5 7:10 5:5 7:5 3:5 5:5 7:5 2:15 7:5 3:5
3:0 7:10 5:5 7:5 3:5 5:5 7:5 2:15 7:5 3:5 5:5
7:0 5:5 7:5 3:5 5:5 7:5 2:15 7:5 3:5 5:5 7:5
5:0 7:5 3:5 5:5 7:5 2:15 7:5 3:5 5:5 7:5 2:5
7:0 3:5 5:5 7:5 2:15 7:5 3:5 5:5 7:5 2:5 5:5
3:0 5:5 7:5 2:15 7:5 3:5 5:5 7:5 2:5 5:5 7:5
5:0 7:5 2:15 7:5 3:5 5:5 7:5 2:5 5:5 7:5 5:10
7:0 2:15 7:5 3:5 5:5 7:5 2:5 5:5 7:5 5:10 7:15
2:0 7:5 3:5 5:5 7:5 2:5 5:5 7:5 5:10 7:15 3:10
7:0 3:5 5:5 7:5 2:5 5:5 7:5 5:10 7:15 3:10 5:5
3:0 5:5 7:5 2:5 5:5 7:5 5:10 7:15 3:10 5:5 7:5
5:0 7:5 2:5 5:5 7:5 5:10 7:15 3:10 5:5 7:5 5:15
7:0 2:5 5:5 7:5 5:10 7:15 3:10 5:5 7:5 5:15 7:10
2:0 5:5 7:5 5:10 7:15 3:10 5:5 7:5 5:15 7:10 5:5
5:0 7:5 5:10 7:15 3:10 5:5 7:5 5:15 7:10 5:5 7:5
7:0 5:10 7:15 3:10 5:5 7:5 5:15 7:10 5:5 7:5 3:5
5:0 7:15 3:10 5:5 7:5 5:15 7:10 5:5 7:5 3:5 5:5
7:0 3:10 5:5 7:5 5:15 7:10 5:5 7:5 3:5 5:5 7:5
3:0 5:5 7:5 5:15 7:10 5:5 7:5 3:5 5:5 7:5 5:5
5:0 7:5 5:15 7:10 5:5 7:5 3:5 5:5 7:5 5:5 7:5
7:0 5:15 7:10 5:5 7:5 3:5 5:5 7:5 5:5 7:5 5:5
5:0 7:10 5:5 7:5 3:5 5:5 7:5 5:5 7:5 5:5 7:5
7:0 5:5 7:5 3:5 5:5 7:5 5:5 7:5 5:5 7:5 3:5
5:0 7:5 3:5 5:5 7:5 5:5 7:5 5:5 7:5 3:5 7:5
7:0 3:5 5:5 7:5 5:5 7:5 5:5 7:5 3:5 7:5 3:5
3:0 5:5 7:5 5:5 7:5 5:5 7:5 3:5 7:5 3:5 5:5
5:0 7:5 5:5 7:5 5:5 7:5 3:5 7:5 3:5 5:5 7:5
7:0 5:5 7:5 5:5 7:5 3:5 7:5 3:5 5:5 7:5 5:5
5:0 7:5 5:5 7:5 3:5 7:5 3:5 5:5 7:5 5:5 7:5
7:0 5:5 7:5 3:5 7:5 3:5 5:5 7:5 5:5 7:5 3:5
5:0 7:5 3:5 7:5 3:5 5:5 7:5 5:5 7:5 3:5 7:10
7:0 3:5 7:5 3:5 5:5 7:5 5:5 7:5 3:5 7:10 3:15
3:0 7:5 3:5 5:5 7:5 5:5 7:5 3:5 7:10 3:15 7:5
7:0 3:5 5:5 7:5 5:5 7:5 3:5 7:10 3:15 7:5 5:10
3:0 5:5 7:5 5:5 7:5 3:5 7:10 3:15 7:5 5:10 7:5
5:0 7:5 5:5 7:5 3:5 7:10 3:15 7:5 5:10 7:5 3:5
7:0 5:5 7:5 3:5 7:10 3:15 7:5 5:10 7:5 3:5 5:5
5:0 7:5 3:5 7:10 3:15 7:5 5:10 7:5 3:5 5:5 7:5
7:0 3:5 7:10 3:15 7:5 5:10 7:5 3:5 5:5 7:5 5:5
3:0 7:10 3:15 7:5 5:10 7:5 3:5 5:5 7:5 5:5 7:5
7:0 3:15 7:5 5:10 7:5 3:5 5:5 7:5 5:5 7:5 3:5
3:0 7:5 5:10 7:5 3:5 5:5 7:5 5:5 7:5 3:5 5:5
7:0 5:10 7:5 3:5 5:5 7:5 5:5 7:5 3:5 5:5 7:5
5:0 7:5 3:5 5:5 7:5 5:5 7:5 3:5 5:5 7:5 5:5
7:0 3:5 5:5 7:5 5:5 7:5 3:5 5:5 7:5 5:5 7:20
3:0 5:5 7:5 5:5 7:5 3:5 5:5 7:5 5:5 7:20 3:10
5:0 7:5 5:5 7:5 3:5 5:5 7:5 5:5 7:20 3:10 7:5
7:0 5:5 7:5 3:5 5:5 7:5 5:5 7:20 3:10 7:5 5:10
5:0 7:5 3:5 5:5 7:5 5:5 7:20 3:10 7:5 5:10 7:5
7:0 3:5 5:5 7:5 5:5 7:20 3:10 7:5 5:10 7:5 5:5
3:0 5:5 7:5 5:5 7:20 3:10 7:5 5:10 7:5 5:5 7:5
5:0 7:5 5:5 7:20 3:10 7:5 5:10 7:5 5:5 7:5 5:5
7:0 5:5 7:20 3:10 7:5 5:10 7:5 5:5 7:5 5:5 7:5
5:0 7:20 3:10 7:5 5:10 7:5 5:5 7:5 5:5 7:5 5:5
7:0 3:10 7:5 5:10 7:5 5:5 7:5 5:5 7:5 5:5 3:5
3:0 7:5 5:10 7:5 5:5 7:5 5:5 7:5 5:5 3:5 7:10
7:0 5:10 7:5 5:5 7:5 5:5 7:5 5:5 3:5 7:10 3:15
5:0 7:5 5:5 7:5 5:5 7:5 5:5 3:5 7:10 3:15 5:5
7:0 5:5 7:5 5:5 7:5 5:5 3:5 7:10 3:15 5:5 7:5
5:0 7:5 5:5 7:5 5:5 3:5 7:10 3:15 5:5 7:5 3:10
7:0 5:5 7:5 5:5 3:5 7:10 3:15 5:5 7:5 3:10 7:10
5:0 7:5 5:5 3:5 7:10 3:15 5:5 7:5 3:10 7:10 5:10
7:0 5:5 3:5 7:10 3:15 5:5 7:5 3:10 7:10 5:10 7:25
5:0 3:5 7:10 3:15 5:5 7:5 3:10 7:10 5:10 7:25 3:5
3:0 7:10 3:15 5:5 7:5 3:10 7:10 5:10 7:25 3:5 5:10
7:0 3:15 5:5 7:5 3:10 7:10 5:10 7:25 3:5 5:10 7:10
3:0 5:5 7:5 3:10 7:10 5:10 7:25 3:5 5:10 7:10 3:5
5:0 7:5 3:10 7:10 5:10 7:25 3:5 5:10 7:10 3:5 5:5
7:0 3:10 7:10 5:10 7:25 3:5 5:10 7:10 3:5 5:5 7:10
3:0 7:10 5:10 7:25 3:5 5:10 7:10 3:5 5:5 7:10 3:5
7:0 5:10 7:25 3:5 5:10 7:10 3:5 5:5 7:10 3:5 7:10
5:0 7:25 3:5 5:10 7:10 3:5 5:5 7:10 3:5 7:10 5:5
7:0 3:5 5:10 7:10 3:5 5:5 7:10 3:5 7:10 5:5 7:5
3:0 5:10 7:10 3:5 5:5 7:10 3:5 7:10 5:5 7:5 3:5
5:0 7:10 3:5 5:5 7:10 3:5 7:10 5:5 7:5 3:5 5:5
7:0 3:5 5:5 7:10 3:5 7:10 5:5 7:5 3:5 5:5 7:5
3:0 5:5 7:10 3:5 7:10 5:5 7:5 3:5 5:5 7:5 3:15
5:0 7:10 3:5 7:10 5:5 7:5 3:5 5:5 7:5 3:15 5:5
7:0 3:5 7:10 5:5 7:5 3:5 5:5 7:5 3:15 5:5 7:15
3:0 7:10 5:5 7:5 3:5 5:5 7:5 3:15 5:5 7:15 5:5
7:0 5:5 7:5 3:5 5:5 7:5 3:15 5:5 7:15 5:5 7:10
5:0 7:5 3:5 5:5 7:5 3:15 5:5 7:15 5:5 7:10 5:5
7:0 3:5 5:5 7:5 3:15 5:5 7:15 5:5 7:10 5:5 7:5
3:0 5:5 7:5 3:15 5:5 7:15 5:5 7:10 5:5 7:5 3:5
5:0 7:5 3:15 5:5 7:15 5:5 7:10 5:5 7:5 3:5 5:5
7:0 3:15 5:5 7:15 5:5 7:10 5:5 7:5 3:5 5:5 7:5
3:0 5:5 7:15 5:5 7:10 5:5 7:5 3:5 5:5 7:5 5:5
5:0 7:15 5:5 7:10 5:5 7:5 3:5 5:5 7:5 5:5 7:5
7:0 5:5 7:10 5:5 7:5 3:5 5:5 7:5 5:5 7:5 3:5
5:0 7:10 5:5 7:5 3:5 5:5 7:5 5:5 7:5 3:5 7:5
7:0 5:5 7:5 3:5 5:5 7:5 5:5 7:5 3:5 7:5 5:5
5:0 7:5 3:5 5:5 7:5 5:5 7:5 3:5 7:5 5:5 7:5
7:0 3:5 5:5 7:5 5:5 7:5 3:5 7:5 5:5 7:5 5:5
3:0 5:5 7:5 5:5 7:5 3:5 7:5 5:5 7:5 5:5 2:5
5:0 7:5 5:5 7:5 3:5 7:5 5:5 7:5 5:5 2:5 7:5
7:0 5:5 7:5 3:5 7:5 5:5 7:5 5:5 2:5 7:5 5:10
5:0 7:5 3:5 7:5 5:5 7:5 5:5 2:5 7:5 5:10 3:5
7:0 3:5 7:5 5:5 7:5 5:5 2:5 7:5 5:10 3:5 5:5
3:0 7:5 5:5 7:5 5:5 2:5 7:5 5:10 3:5 5:5 7:5
7:0 5:5 7:5 5:5 2:5 7:5 5:10 3:5 5:5 7:5 5:5
5:0 7:5 5:5 2:5 7:5 5:10 3:5 5:5 7:5 5:5 7:5
7:0 5:5 2:5 7:5 5:10 3:5 5:5 7:5 5:5 7:5 3:5
5:0 2:5 7:5 5:10 3:5 5:5 7:5 5:5 7:5 3:5 5:5
2:0 7:5 5:10 3:5 5:5 7:5 5:5 7:5 3:5 5:5 7:5
7:0 5:10 3:5 5:5 7:5 5:5 7:5 3:5 5:5 7:5 6:10
5:0 3:5 5:5 7:5 5:5 7:5 3:5 5:5 7:5 6:10 3:5
3:0 5:5 7:5 5:5 7:5 3:5 5:5 7:5 6:10 3:5 7:5
5:0 7:5 5:5 7:5 3:5 5:5 7:5 6:10 3:5 7:5 5:10
7:0 5:5 7:5 3:5 5:5 7:5 6:10 3:5 7:5 5:10 7:5
5:0 7:5 3:5 5:5 7:5 6:10 3:5 7:5 5:10 7:5 5:5
7:0 3:5 5:5 7:5 6:10 3:5 7:5 5:10 7:5 5:5 7:5
3:0 5:5 7:5 6:10 3:5 7:5 5:10 7:5 5:5 7:5 5:5
5:0 7:5 6:10 3:5 7:5 5:10 7:5 5:5 7:5 5:5 7:5
7:0 6:10 3:5 7:5 5:10 7:5 5:5 7:5 5:5 7:5 2:10
6:0 3:5 7:5 5:10 7:5 5:5 7:5 5:5 7:5 2:10 7:5
3:0 7:5 5:10 7:5 5:5 7:5 5:5 7:5 2:10 7:5 5:5
7:0 5:10 7:5 5:5 7:5 5:5 7:5 2:10 7:5 5:5 7:5
5:0 7:5 5:5 7:5 5:5 7:5 2:10 7:5 5:5 7:5 3:5
7:0 5:5 7:5 5:5 7:5 2:10 7:5 5:5 7:5 3:5 5:5
5:0 7:5 5:5 7:5 2:10 7:5 5:5 7:5 3:5 5:5 7:5
7:0 5:5 7:5 2:10 7:5 5:5 7:5 3:5 5:5 7:5 5:5
5:0 7:5 2:10 7:5 5:5 7:5 3:5 5:5 7:5 5:5 7:5
7:0 2:10 7:5 5:5 7:5 3:5 5:5 7:5 5:5 7:5 3:5
2:0 7:5 5:5 7:5 3:5 5:5 7:5 5:5 7:5 3:5 7:5
7:0 5:5 7:5 3:5 5:5 7:5 5:5 7:5 3:5 7:5 3:5
5:0 7:5 3:5 5:5 7:5 5:5 7:5 3:5 7:5 3:5 7:5
7:0 3:5 5:5 7:5 5:5 7:5 3:5 7:5 3:5 7:5 2:10
3:0 5:5 7:5 5:5 7:5 3:5 7:5 3:5 7:5 2:10 7:5
5:0 7:5 5:5 7:5 3:5 7:5 3:5 7:5 2:10 7:5 5:5
7:0 5:5 7:5 3:5 7:5 3:5 7:5 2:10 7:5 5:5 7:5
5:0 7:5 3:5 7:5 3:5 7:5 2:10 7:5 5:5 7:5 1:10
7:0 3:5 7:5 3:5 7:5 2:10 7:5 5:5 7:5 1:10 7:5
3:0 7:5 3:5 7:5 2:10 7:5 5:5 7:5 1:10 7:5 5:15
7:0 3:5 7:5 2:10 7:5 5:5 7:5 1:10 7:5 5:15 7:10
3:0 7:5 2:10 7:5 5:5 7:5 1:10 7:5 5:15 7:10 5:5
7:0 2:10 7:5 5:5 7:5 1:10 7:5 5:15 7:10 5:5 7:5
2:0 7:5 5:5 7:5 1:10 7:5 5:15 7:10 5:5 7:5 5:5
7:0 5:5 7:5 1:10 7:5 5:15 7:10 5:5 7:5 5:5 7:15
5:0 7:5 1:10 7:5 5:15 7:10 5:5 7:5 5:5 7:15 3:10
7:0 1:10 7:5 5:15 7:10 5:5 7:5 5:5 7:15 3:10 7:5
1:0 7:5 5:15 7:10 5:5 7:5 5:5 7:15 3:10 7:5 5:5
7:0 5:15 7:10 5:5 7:5 5:5 7:15 3:10 7:5 5:5 7:5
5:0 7:10 5:5 7:5 5:5 7:15 3:10 7:5 5:5 7:5 3:10
7:0 5:5 7:5 5:5 7:15 3:10 7:5 5:5 7:5 3:10 5:5
5:0 7:5 5:5 7:15 3:10 7:5 5:5 7:5 3:10 5:5 7:10
7:0 5:5 7:15 3:10 7:5 5:5 7:5 3:10 5:5 7:10 2:10
5:0 7:15 3:10 7:5 5:5 7:5 3:10 5:5 7:10 2:10 7:5
7:0 3:10 7:5 5:5 7:5 3:10 5:5 7:10 2:10 7:5 5:5
3:0 7:5 5:5 7:5 3:10 5:5 7:10 2:10 7:5 5:5 7:5
7:0 5:5 7:5 3:10 5:5 7:10 2:10 7:5 5:5 7:5 5:5
5:0 7:5 3:10 5:5 7:10 2:10 7:5 5:5 7:5 5:5 7:10
7:0 3:10 5:5 7:10 2:10 7:5 5:5 7:5 5:5 7:10 5:10
3:0 5:5 7:10 2:10 7:5 5:5 7:5 5:5 7:10 5:10 2:10
5:0 7:10 2:10 7:5 5:5 7:5 5:5 7:10 5:10 2:10 7:5
7:0 2:10 7:5 5:5 7:5 5:5 7:10 5:10 2:10 7:5 5:15
2:0 7:5 5:5 7:5 5:5 7:10 5:10 2:10 7:5 5:15 7:5
7:0 5:5 7:5 5:5 7:10 5:10 2:10 7:5 5:15 7:5 5:5
5:0 7:5 5:5 7:10 5:10 2:10 7:5 5:15 7:5 5:5 7:10
7:0 5:5 7:10 5:10 2:10 7:5 5:15 7:5 5:5 7:10 5:5
5:0 7:10 5:10 2:10 7:5 5:15 7:5 5:5 7:10 5:5 7:10
7:0 5:10 2:10 7:5 5:15 7:5 5:5 7:10 5:5 7:10 5:5
5:0 2:10 7:5 5:15 7:5 5:5 7:10 5:5 7:10 5:5 7:5
2:0 7:5 5:15 7:5 5:5 7:10 5:5 7:10 5:5 7:5 3:5
7:0 5:15 7:5 5:5 7:10 5:5 7:10 5:5 7:5 3:5 5:5
5:0 7:5 5:5 7:10 5:5 7:10 5:5 7:5 3:5 5:5 7:5
7:0 5:5 7:10 5:5 7:10 5:5 7:5 3:5 5:5 7:5 5:5
5:0 7:10 5:5 7:10 5:5 7:5 3:5 5:5 7:5 5:5 7:5
7:0 5:5 7:10 5:5 7:5 3:5 5:5 7:5 5:5 7:5 3:5
5:0 7:10 5:5 7:5 3:5 5:5 7:5 5:5 7:5 3:5 5:5
7:0 5:5 7:5 3:5 5:5 7:5 5:5 7:5 3:5 5:5 7:5
5:0 7:5 3:5 5:5 7:5 5:5 7:5 3:5 5:5 7:5 5:5
7:0 3:5 5:5 7:5 5:5 7:5 3:5 5:5 7:5 5:5 7:5
3:0 5:5 7:5 5:5 7:5 3:5 5:5 7:5 5:5 7:5 5:5
5:0 7:5 5:5 7:5 3:5 5:5 7:5 5:5 7:5 5:5 7:5
7:0 5:5 7:5 3:5 5:5 7:5 5:5 7:5 5:5 7:5 5:5
5:0 7:5 3:5 5:5 7:5 5:5 7:5 5:5 7:5 5:5 7:5
7:0 3:5 5:5 7:5 5:5 7:5 5:5 7:5 5:5 7:5 3:5
3:0 5:5 7:5 5:5 7:5 5:5 7:5 5:5 7:5 3:5 5:5
5:0 7:5 5:5 7:5 5:5 7:5 5:5 7:5 3:5 5:5 7:5
7:0 5:5 7:5 5:5 7:5 5:5 7:5 3:5 5:5 7:5 5:10
5:0 7:5 5:5 7:5 5:5 7:5 3:5 5:5 7:5 5:10 3:5
7:0 5:5 7:5 5:5 7:5 3:5 5:5 7:5 5:10 3:5 5:5
5:0 7:5 5:5 7:5 3:5 5:5 7:5 5:10 3:5 5:5 7:5
7:0 5:5 7:5 3:5 5:5 7:5 5:10 3:5 5:5 7:5 6:10
5:0 7:5 3:5 5:5 7:5 5:10 3:5 5:5 7:5 6:10 3:5
7:0 3:5 5:5 7:5 5:10 3:5 5:5 7:5 6:10 3:5 5:5
3:0 5:5 7:5 5:10 3:5 5:5 7:5 6:10 3:5 5:5 7:5
5:0 7:5 5:10 3:5 5:5 7:5 6:10 3:5 5:5 7:5 3:5
7:0 5:10 3:5 5:5 7:5 6:10 3:5 5:5 7:5 3:5 7:5
5:0 3:5 5:5 7:5 6:10 3:5 5:5 7:5 3:5 7:5 3:5
3:0 5:5 7:5 6:10 3:5 5:5 7:5 3:5 7:5 3:5 5:5
5:0 7:5 6:10 3:5 5:5 7:5 3:5 7:5 3:5 5:5 7:5
7:0 6:10 3:5 5:5 7:5 3:5 7:5 3:5 5:5 7:5 5:10
6:0 3:5 5:5 7:5 3:5 7:5 3:5 5:5 7:5 5:10 3:5
3:0 5:5 7:5 3:5 7:5 3:5 5:5 7:5 5:10 3:5 7:5
5:0 7:5 3:5 7:5 3:5 5:5 7:5 5:10 3:5 7:5 5:5
7:0 3:5 7:5 3:5 5:5 7:5 5:10 3:5 7:5 5:5 7:5
3:0 7:5 3:5 5:5 7:5 5:10 3:5 7:5 5:5 7:5 5:5
7:0 3:5 5:5 7:5 5:10 3:5 7:5 5:5 7:5 5:5 3:10
3:0 5:5 7:5 5:10 3:5 7:5 5:5 7:5 5:5 3:10 7:5
5:0 7:5 5:10 3:5 7:5 5:5 7:5 5:5 3:10 7:5 3:10
7:0 5:10 3:5 7:5 5:5 7:5 5:5 3:10 7:5 3:10 7:5
5:0 3:5 7:5 5:5 7:5 5:5 3:10 7:5 3:10 7:5 3:5
3:0 7:5 5:5 7:5 5:5 3:10 7:5 3:10 7:5 3:5 7:5
7:0 5:5 7:5 5:5 3:10 7:5 3:10 7:5 3:5 7:5 2:10
5:0 7:5 5:5 3:10 7:5 3:10 7:5 3:5 7:5 2:10 7:5
7:0 5:5 3:10 7:5 3:10 7:5 3:5 7:5 2:10 7:5 5:5
5:0 3:10 7:5 3:10 7:5 3:5 7:5 2:10 7:5 5:5 7:5
3:0 7:5 3:10 7:5 3:5 7:5 2:10 7:5 5:5 7:5 2:10
7:0 3:10 7:5 3:5 7:5 2:10 7:5 5:5 7:5 2:10 7:5
3:0 7:5 3:5 7:5 2:10 7:5 5:5 7:5 2:10 7:5 4:15
7:0 3:5 7:5 2:10 7:5 5:5 7:5 2:10 7:5 4:15 3:5
3:0 7:5 2:10 7:5 5:5 7:5 2:10 7:5 4:15 3:5 7:5
7:0 2:10 7:5 5:5 7:5 2:10 7:5 4:15 3:5 7:5 5:5
2:0 7:5 5:5 7:5 2:10 7:5 4:15 3:5 7:5 5:5 7:5
7:0 5:5 7:5 2:10 7:5 4:15 3:5 7:5 5:5 7:5 3:5
5:0 7:5 2:10 7:5 4:15 3:5 7:5 5:5 7:5 3:5 5:5
7:0 2:10 7:5 4:15 3:5 7:5 5:5 7:5 3:5 5:5 7:5
2:0 7:5 4:15 3:5 7:5 5:5 7:5 3:5 5:5 7:5 3:15
7:0 4:15 3:5 7:5 5:5 7:5 3:5 5:5 7:5 3:15 5:5
4:0 3:5 7:5 5:5 7:5 3:5 5:5 7:5 3:15 5:5 7:5
3:0 7:5 5:5 7:5 3:5 5:5 7:5 3:15 5:5 7:5 5:5
7:0 5:5 7:5 3:5 5:5 7:5 3:15 5:5 7:5 5:5 7:5
5:0 7:5 3:5 5:5 7:5 3:15 5:5 7:5 5:5 7:5 5:5
7:0 3:5 5:5 7:5 3:15 5:5 7:5 5:5 7:5 5:5 7:10
3:0 5:5 7:5 3:15 5:5 7:5 5:5 7:5 5:5 7:10 5:10
5:0 7:5 3:15 5:5 7:5 5:5 7:5 5:5 7:10 5:10 7:10
7:0 3:15 5:5 7:5 5:5 7:5 5:5 7:10 5:10 7:10 5:15
3:0 5:5 7:5 5:5 7:5 5:5 7:10 5:10 7:10 5:15 7:10
5:0 7:5 5:5 7:5 5:5 7:10 5:10 7:10 5:15 7:10 3:5
7:0 5:5 7:5 5:5 7:10 5:10 7:10 5:15 7:10 3:5 7:5
5:0 7:5 5:5 7:10 5:10 7:10 5:15 7:10 3:5 7:5 3:5
7:0 5:5 7:10 5:10 7:10 5:15 7:10 3:5 7:5 3:5 7:10
5:0 7:10 5:10 7:10 5:15 7:10 3:5 7:5 3:5 7:10 5:15
7:0 5:10 7:10 5:15 7:10 3:5 7:5 3:5 7:10 5:15 7:10
5:0 7:10 5:15 7:10 3:5 7:5 3:5 7:10 5:15 7:10 1:15
7:0 5:15 7:10 3:5 7:5 3:5 7:10 5:15 7:10 1:15 7:5
5:0 7:10 3:5 7:5 3:5 7:10 5:15 7:10 1:15 7:5 3:10
7:0 3:5 7:5 3:5 7:10 5:15 7:10 1:15 7:5 3:10 7:5
3:0 7:5 3:5 7:10 5:15 7:10 1:15 7:5 3:10 7:5 3:5
7:0 3:5 7:10 5:15 7:10 1:15 7:5 3:10 7:5 3:5 7:5
3:0 7:10 5:15 7:10 1:15 7:5 3:10 7:5 3:5 7:5 5:5
7:0 5:15 7:10 1:15 7:5 3:10 7:5 3:5 7:5 5:5 7:5
5:0 7:10 1:15 7:5 3:10 7:5 3:5 7:5 5:5 7:5 5:5
7:0 1:15 7:5 3:10 7:5 3:5 7:5 5:5 7:5 5:5 7:10
1:0 7:5 3:10 7:5 3:5 7:5 5:5 7:5 5:5 7:10 5:5
7:0 3:10 7:5 3:5 7:5 5:5 7:5 5:5 7:10 5:5 7:5
3:0 7:5 3:5 7:5 5:5 7:5 5:5 7:10 5:5 7:5 5:5
7:0 3:5 7:5 5:5 7:5 5:5 7:10 5:5 7:5 5:5 3:5
3:0 7:5 5:5 7:5 5:5 7:10 5:5 7:5 5:5 3:5 7:5
7:0 5:5 7:5 5:5 7:10 5:5 7:5 5:5 3:5 7:5 5:5
5:0 7:5 5:5 7:10 5:5 7:5 5:5 3:5 7:5 5:5 7:5
7:0 5:5 7:10 5:5 7:5 5:5 3:5 7:5 5:5 7:5 5:5
5:0 7:10 5:5 7:5 5:5 3:5 7:5 5:5 7:5 5:5 7:10
7:0 5:5 7:5 5:5 3:5 7:5 5:5 7:5 5:5 7:10 5:10
5:0 7:5 5:5 3:5 7:5 5:5 7:5 5:5 7:10 5:10 2:5
7:0 5:5 3:5 7:5 5:5 7:5 5:5 7:10 5:10 2:5 5:5
5:0 3:5 7:5 5:5 7:5 5:5 7:10 5:10 2:5 5:5 7:5
3:0 7:5 5:5 7:5 5:5 7:10 5:10 2:5 5:5 7:5 6:5
7:0 5:5 7:5 5:5 7:10 5:10 2:5 5:5 7:5 6:5 5:5
5:0 7:5 5:5 7:10 5:10 2:5 5:5 7:5 6:5 5:5 3:5
7:0 5:5 7:10 5:10 2:5 5:5 7:5 6:5 5:5 3:5 7:5
5:0 7:10 5:10 2:5 5:5 7:5 6:5 5:5 3:5 7:5 5:10
7:0 5:10 2:5 5:5 7:5 6:5 5:5 3:5 7:5 5:10 3:10
5:0 2:5 5:5 7:5 6:5 5:5 3:5 7:5 5:10 3:10 7:5
2:0 5:5 7:5 6:5 5:5 3:5 7:5 5:10 3:10 7:5 5:5
5:0 7:5 6:5 5:5 3:5 7:5 5:10 3:10 7:5 5:5 7:5
7:0 6:5 5:5 3:5 7:5 5:10 3:10 7:5 5:5 7:5 3:5
6:0 5:5 3:5 7:5 5:10 3:10 7:5 5:5 7:5 3:5 5:5
5:0 3:5 7:5 5:10 3:10 7:5 5:5 7:5 3:5 5:5 7:5
3:0 7:5 5:10 3:10 7:5 5:5 7:5 3:5 5:5 7:5 5:5
7:0 5:10 3:10 7:5 5:5 7:5 3:5 5:5 7:5 5:5 7:5
5:0 3:10 7:5 5:5 7:5 3:5 5:5 7:5 5:5 7:5 3:5
3:0 7:5 5:5 7:5 3:5 5:5 7:5 5:5 7:5 3:5 7:5
7:0 5:5 7:5 3:5 5:5 7:5 5:5 7:5 3:5 7:5 5:5
5:0 7:5 3:5 5:5 7:5 5:5 7:5 3:5 7:5 5:5 7:10
7:0 3:5 5:5 7:5 5:5 7:5 3:5 7:5 5:5 7:10 3:5
3:0 5:5 7:5 5:5 7:5 3:5 7:5 5:5 7:10 3:5 5:5
5:0 7:5 5:5 7:5 3:5 7:5 5:5 7:10 3:5 5:5 7:5
7:0 5:5 7:5 3:5 7:5 5:5 7:10 3:5 5:5 7:5 3:10
5:0 7:5 3:5 7:5 5:5 7:10 3:5 5:5 7:5 3:10 5:5
7:0 3:5 7:5 5:5 7:10 3:5 5:5 7:5 3:10 5:5 7:5
3:0 7:5 5:5 7:10 3:5 5:5 7:5 3:10 5:5 7:5 3:5
7:0 5:5 7:10 3:5 5:5 7:5 3:10 5:5 7:5 3:5 7:5
5:0 7:10 3:5 5:5 7:5 3:10 5:5 7:5 3:5 7:5 5:5
7:0 3:5 5:5 7:5 3:10 5:5 7:5 3:5 7:5 5:5 3:5
3:0 5:5 7:5 3:10 5:5 7:5 3:5 7:5 5:5 3:5 7:5
5:0 7:5 3:10 5:5 7:5 3:5 7:5 5:5 3:5 7:5 3:15
7:0 3:10 5:5 7:5 3:5 7:5 5:5 3:5 7:5 3:15 5:5
3:0 5:5 7:5 3:5 7:5 5:5 3:5 7:5 3:15 5:5 7:5
5:0 7:5 3:5 7:5 5:5 3:5 7:5 3:15 5:5 7:5 3:15
7:0 3:5 7:5 5:5 3:5 7:5 3:15 5:5 7:5 3:15 5:5
3:0 7:5 5:5 3:5 7:5 3:15 5:5 7:5 3:15 5:5 7:5
7:0 5:5 3:5 7:5 3:15 5:5 7:5 3:15 5:5 7:5 5:5
5:0 3:5 7:5 3:15 5:5 7:5 3:15 5:5 7:5 5:5 7:5
3:0 7:5 3:15 5:5 7:5 3:15 5:5 7:5 5:5 7:5 3:5
7:0 3:15 5:5 7:5 3:15 5:5 7:5 5:5 7:5 3:5 5:5
3:0 5:5 7:5 3:15 5:5 7:5 5:5 7:5 3:5 5:5 7:5
5:0 7:5 3:15 5:5 7:5 5:5 7:5 3:5 5:5 7:5 5:5
7:0 3:15 5:5 7:5 5:5 7:5 3:5 5:5 7:5 5:5 7:5
3:0 5:5 7:5 5:5 7:5 3:5 5:5 7:5 5:5 7:5 3:5
5:0 7:5 5:5 7:5 3:5 5:5 7:5 5:5 7:5 3:5 7:5
7:0 5:5 7:5 3:5 5:5 7:5 5:5 7:5 3:5 7:5 5:5
5:0 7:5 3:5 5:5 7:5 5:5 7:5 3:5 7:5 5:5 7:5
7:0 3:5 5:5 7:5 5:5 7:5 3:5 7:5 5:5 7:5 5:5
3:0 5:5 7:5 5:5 7:5 3:5 7:5 5:5 7:5 5:5 7:10
5:0 7:5 5:5 7:5 3:5 7:5 5:5 7:5 5:5 7:10 3:5
7:0 5:5 7:5 3:5 7:5 5:5 7:5 5:5 7:10 3:5 7:5
5:0 7:5 3:5 7:5 5:5 7:5 5:5 7:10 3:5 7:5 5:5
7:0 3:5 7:5 5:5 7:5 5:5 7:10 3:5 7:5 5:5 7:5
3:0 7:5 5:5 7:5 5:5 7:10 3:5 7:5 5:5 7:5 5:5
7:0 5:5 7:5 5:5 7:10 3:5 7:5 5:5 7:5 5:5 7:5
5:0 7:5 5:5 7:10 3:5 7:5 5:5 7:5 5:5 7:5 2:10
7:0 5:5 7:10 3:5 7:5 5:5 7:5 5:5 7:5 2:10 5:5
5:0 7:10 3:5 7:5 5:5 7:5 5:5 7:5 2:10 5:5 7:5
7:0 3:5 7:5 5:5 7:5 5:5 7:5 2:10 5:5 7:5 3:15
3:0 7:5 5:5 7:5 5:5 7:5 2:10 5:5 7:5 3:15 7:5
7:0 5:5 7:5 5:5 7:5 2:10 5:5 7:5 3:15 7:5 5:10
5:0 7:5 5:5 7:5 2:10 5:5 7:5 3:15 7:5 5:10 7:5
7:0 5:5 7:5 2:10 5:5 7:5 3:15 7:5 5:10 7:5 3:5
5:0 7:5 2:10 5:5 7:5 3:15 7:5 5:10 7:5 3:5 5:5
7:0 2:10 5:5 7:5 3:15 7:5 5:10 7:5 3:5 5:5 7:5
2:0 5:5 7:5 3:15 7:5 5:10 7:5 3:5 5:5 7:5 5:5
5:0 7:5 3:15 7:5 5:10 7:5 3:5 5:5 7:5 5:5 3:10
7:0 3:15 7:5 5:10 7:5 3:5 5:5 7:5 5:5 3:10 7:5
3:0 7:5 5:10 7:5 3:5 5:5 7:5 5:5 3:10 7:5 5:15
7:0 5:10 7:5 3:5 5:5 7:5 5:5 3:10 7:5 5:15 3:10
5:0 7:5 3:5 5:5 7:5 5:5 3:10 7:5 5:15 3:10 7:5
7:0 3:5 5:5 7:5 5:5 3:10 7:5 5:15 3:10 7:5 2:10
3:0 5:5 7:5 5:5 3:10 7:5 5:15 3:10 7:5 2:10 5:5
5:0 7:5 5:5 3:10 7:5 5:15 3:10 7:5 2:10 5:5 7:5
7:0 5:5 3:10 7:5 5:15 3:10 7:5 2:10 5:5 7:5 5:5
5:0 3:10 7:5 5:15 3:10 7:5 2:10 5:5 7:5 5:5 7:5
3:0 7:5 5:15 3:10 7:5 2:10 5:5 7:5 5:5 7:5 2:5
7:0 5:15 3:10 7:5 2:10 5:5 7:5 5:5 7:5 2:5 5:5
5:0 3:10 7:5 2:10 5:5 7:5 5:5 7:5 2:5 5:5 7:5
3:0 7:5 2:10 5:5 7:5 5:5 7:5 2:5 5:5 7:5 5:5
7:0 2:10 5:5 7:5 5:5 7:5 2:5 5:5 7:5 5:5 7:5
2:0 5:5 7:5 5:5 7:5 2:5 5:5 7:5 5:5 7:5 2:5
5:0 7:5 5:5 7:5 2:5 5:5 7:5 5:5 7:5 2:5 5:5
7:0 5:5 7:5 2:5 5:5 7:5 5:5 7:5 2:5 5:5 7:5
5:0 7:5 2:5 5:5 7:5 5:5 7:5 2:5 5:5 7:5 6:5
7:0 2:5 5:5 7:5 5:5 7:5 2:5 5:5 7:5 6:5 3:5
2:0 5:5 7:5 5:5 7:5 2:5 5:5 7:5 6:5 3:5 7:10
5:0 7:5 5:5 7:5 2:5 5:5 7:5 6:5 3:5 7:10 5:5
7:0 5:5 7:5 2:5 5:5 7:5 6:5 3:5 7:10 5:5 7:5
5:0 7:5 2:5 5:5 7:5 6:5 3:5 7:10 5:5 7:5 3:5
7:0 2:5 5:5 7:5 6:5 3:5 7:10 5:5 7:5 3:5 5:5
2:0 5:5 7:5 6:5 3:5 7:10 5:5 7:5 3:5 5:5 7:10
5:0 7:5 6:5 3:5 7:10 5:5 7:5 3:5 5:5 7:10 5:10
7:0 6:5 3:5 7:10 5:5 7:5 3:5 5:5 7:10 5:10 7:10
6:0 3:5 7:10 5:5 7:5 3:5 5:5 7:10 5:10 7:10 5:10
3:0 7:10 5:5 7:5 3:5 5:5 7:10 5:10 7:10 5:10 2:5
7:0 5:5 7:5 3:5 5:5 7:10 5:10 7:10 5:10 2:5 7:5
5:0 7:5 3:5 5:5 7:10 5:10 7:10 5:10 2:5 7:5 5:5
7:0 3:5 5:5 7:10 5:10 7:10 5:10 2:5 7:5 5:5 7:5
3:0 5:5 7:10 5:10 7:10 5:10 2:5 7:5 5:5 7:5 5:5
5:0 7:10 5:10 7:10 5:10 2:5 7:5 5:5 7:5 5:5 3:5
7:0 5:10 7:10 5:10 2:5 7:5 5:5 7:5 5:5 3:5 7:5
5:0 7:10 5:10 2:5 7:5 5:5 7:5 5:5 3:5 7:5 5:5
7:0 5:10 2:5 7:5 5:5 7:5 5:5 3:5 7:5 5:5 7:5
5:0 2:5 7:5 5:5 7:5 5:5 3:5 7:5 5:5 7:5 3:5
2:0 7:5 5:5 7:5 5:5 3:5 7:5 5:5 7:5 3:5 7:10
7:0 5:5 7:5 5:5 3:5 7:5 5:5 7:5 3:5 7:10 5:5
5:0 7:5 5:5 3:5 7:5 5:5 7:5 3:5 7:10 5:5 7:5
7:0 5:5 3:5 7:5 5:5 7:5 3:5 7:10 5:5 7:5 3:5
5:0 3:5 7:5 5:5 7:5 3:5 7:10 5:5 7:5 3:5 5:5
3:0 7:5 5:5 7:5 3:5 7:10 5:5 7:5 3:5 5:5 7:5
7:0 5:5 7:5 3:5 7:10 5:5 7:5 3:5 5:5 7:5 5:15
5:0 7:5 3:5 7:10 5:5 7:5 3:5 5:5 7:5 5:15 7:10
7:0 3:5 7:10 5:5 7:5 3:5 5:5 7:5 5:15 7:10 2:15
3:0 7:10 5:5 7:5 3:5 5:5 7:5 5:15 7:10 2:15 7:5
7:0 5:5 7:5 3:5 5:5 7:5 5:15 7:10 2:15 7:5 5:15
5:0 7:5 3:5 5:5 7:5 5:15 7:10 2:15 7:5 5:15 3:5
7:0 3:5 5:5 7:5 5:15 7:10 2:15 7:5 5:15 3:5 7:5
3:0 5:5 7:5 5:15 7:10 2:15 7:5 5:15 3:5 7:5 5:15
5:0 7:5 5:15 7:10 2:15 7:5 5:15 3:5 7:5 5:15 3:5
7:0 5:15 7:10 2:15 7:5 5:15 3:5 7:5 5:15 3:5 7:5
5:0 7:10 2:15 7:5 5:15 3:5 7:5 5:15 3:5 7:5 5:5
7:0 2:15 7:5 5:15 3:5 7:5 5:15 3:5 7:5 5:5 7:5
2:0 7:5 5:15 3:5 7:5 5:15 3:5 7:5 5:5 7:5 5:5
7:0 5:15 3:5 7:5 5:15 3:5 7:5 5:5 7:5 5:5 7:5
5:0 3:5 7:5 5:15 3:5 7:5 5:5 7:5 5:5 7:5 5:10
3:0 7:5 5:15 3:5 7:5 5:5 7:5 5:5 7:5 5:10 7:5
7:0 5:15 3:5 7:5 5:5 7:5 5:5 7:5 5:10 7:5 3:5
5:0 3:5 7:5 5:5 7:5 5:5 7:5 5:10 7:5 3:5 7:10
3:0 7:5 5:5 7:5 5:5 7:5 5:10 7:5 3:5 7:10 5:5
7:0 5:5 7:5 5:5 7:5 5:10 7:5 3:5 7:10 5:5 2:10
5:0 7:5 5:5 7:5 5:10 7:5 3:5 7:10 5:5 2:10 7:5
7:0 5:5 7:5 5:10 7:5 3:5 7:10 5:5 2:10 7:5 2:20
5:0 7:5 5:10 7:5 3:5 7:10 5:5 2:10 7:5 2:20 7:5
7:0 5:10 7:5 3:5 7:10 5:5 2:10 7:5 2:20 7:5 5:5
5:0 7:5 3:5 7:10 5:5 2:10 7:5 2:20 7:5 5:5 7:5
7:0 3:5 7:10 5:5 2:10 7:5 2:20 7:5 5:5 7:5 5:5
3:0 7:10 5:5 2:10 7:5 2:20 7:5 5:5 7:5 5:5 3:5
7:0 5:5 2:10 7:5 2:20 7:5 5:5 7:5 5:5 3:5 5:5
5:0 2:10 7:5 2:20 7:5 5:5 7:5 5:5 3:5 5:5 7:5
2:0 7:5 2:20 7:5 5:5 7:5 5:5 3:5 5:5 7:5 3:10
7:0 2:20 7:5 5:5 7:5 5:5 3:5 5:5 7:5 3:10 7:5
2:0 7:5 5:5 7:5 5:5 3:5 5:5 7:5 3:10 7:5 5:5
7:0 5:5 7:5 5:5 3:5 5:5 7:5 3:10 7:5 5:5 7:5
5:0 7:5 5:5 3:5 5:5 7:5 3:10 7:5 5:5 7:5 5:5
7:0 5:5 3:5 5:5 7:5 3:10 7:5 5:5 7:5 5:5 2:5
5:0 3:5 5:5 7:5 3:10 7:5 5:5 7:5 5:5 2:5 7:5
3:0 5:5 7:5 3:10 7:5 5:5 7:5 5:5 2:5 7:5 5:10
5:0 7:5 3:10 7:5 5:5 7:5 5:5 2:5 7:5 5:10 7:5
7:0 3:10 7:5 5:5 7:5 5:5 2:5 7:5 5:10 7:5 2:5
3:0 7:5 5:5 7:5 5:5 2:5 7:5 5:10 7:5 2:5 5:5
7:0 5:5 7:5 5:5 2:5 7:5 5:10 7:5 2:5 5:5 7:5
5:0 7:5 5:5 2:5 7:5 5:10 7:5 2:5 5:5 7:5 3:10
7:0 5:5 2:5 7:5 5:10 7:5 2:5 5:5 7:5 3:10 7:10
5:0 2:5 7:5 5:10 7:5 2:5 5:5 7:5 3:10 7:10 5:5
2:0 7:5 5:10 7:5 2:5 5:5 7:5 3:10 7:10 5:5 7:5
7:0 5:10 7:5 2:5 5:5 7:5 3:10 7:10 5:5 7:5 5:5
5:0 7:5 2:5 5:5 7:5 3:10 7:10 5:5 7:5 5:5 3:5
7:0 2:5 5:5 7:5 3:10 7:10 5:5 7:5 5:5 3:5 7:5
2:0 5:5 7:5 3:10 7:10 5:5 7:5 5:5 3:5 7:5 6:10
5:0 7:5 3:10 7:10 5:5 7:5 5:5 3:5 7:5 6:10 3:5
7:0 3:10 7:10 5:5 7:5 5:5 3:5 7:5 6:10 3:5 7:10
3:0 7:10 5:5 7:5 5:5 3:5 7:5 6:10 3:5 7:10 3:15
7:0 5:5 7:5 5:5 3:5 7:5 6:10 3:5 7:10 3:15 7:10
5:0 7:5 5:5 3:5 7:5 6:10 3:5 7:10 3:15 7:10 5:10
7:0 5:5 3:5 7:5 6:10 3:5 7:10 3:15 7:10 5:10 7:10
5:0 3:5 7:5 6:10 3:5 7:10 3:15 7:10 5:10 7:10 5:5
3:0 7:5 6:10 3:5 7:10 3:15 7:10 5:10 7:10 5:5 7:5
7:0 6:10 3:5 7:10 3:15 7:10 5:10 7:10 5:5 7:5 2:10
6:0 3:5 7:10 3:15 7:10 5:10 7:10 5:5 7:5 2:10 7:5
3:0 7:10 3:15 7:10 5:10 7:10 5:5 7:5 2:10 7:5 3:10
7:0 3:15 7:10 5:10 7:10 5:5 7:5 2:10 7:5 3:10 7:5
3:0 7:10 5:10 7:10 5:5 7:5 2:10 7:5 3:10 7:5 3:5
7:0 5:10 7:10 5:5 7:5 2:10 7:5 3:10 7:5 3:5 7:5
5:0 7:10 5:5 7:5 2:10 7:5 3:10 7:5 3:5 7:5 5:5
7:0 5:5 7:5 2:10 7:5 3:10 7:5 3:5 7:5 5:5 7:5
5:0 7:5 2:10 7:5 3:10 7:5 3:5 7:5 5:5 7:5 3:5
7:0 2:10 7:5 3:10 7:5 3:5 7:5 5:5 7:5 3:5 5:5
2:0 7:5 3:10 7:5 3:5 7:5 5:5 7:5 3:5 5:5 7:5
7:0 3:10 7:5 3:5 7:5 5:5 7:5 3:5 5:5 7:5 5:5
3:0 7:5 3:5 7:5 5:5 7:5 3:5 5:5 7:5 5:5 7:5
7:0 3:5 7:5 5:5 7:5 3:5 5:5 7:5 5:5 7:5 3:5
3:0 7:5 5:5 7:5 3:5 5:5 7:5 5:5 7:5 3:5 7:10
7:0 5:5 7:5 3:5 5:5 7:5 5:5 7:5 3:5 7:10 1:15
5:0 7:5 3:5 5:5 7:5 5:5 7:5 3:5 7:10 1:15 5:5
7:0 3:5 5:5 7:5 5:5 7:5 3:5 7:10 1:15 5:5 7:5
3:0 5:5 7:5 5:5 7:5 3:5 7:10 1:15 5:5 7:5 5:5
5:0 7:5 5:5 7:5 3:5 7:10 1:15 5:5 7:5 5:5 7:5
7:0 5:5 7:5 3:5 7:10 1:15 5:5 7:5 5:5 7:5 3:5
5:0 7:5 3:5 7:10 1:15 5:5 7:5 5:5 7:5 3:5 5:5
7:0 3:5 7:10 1:15 5:5 7:5 5:5 7:5 3:5 5:5 7:10
3:0 7:10 1:15 5:5 7:5 5:5 7:5 3:5 5:5 7:10 3:10
7:0 1:15 5:5 7:5 5:5 7:5 3:5 5:5 7:10 3:10 7:5
1:0 5:5 7:5 5:5 7:5 3:5 5:5 7:10 3:10 7:5 5:5
5:0 7:5 5:5 7:5 3:5 5:5 7:10 3:10 7:5 5:5 7:5
7:0 5:5 7:5 3:5 5:5 7:10 3:10 7:5 5:5 7:5 3:5
5:0 7:5 3:5 5:5 7:10 3:10 7:5 5:5 7:5 3:5 5:5
7:0 3:5 5:5 7:10 3:10 7:5 5:5 7:5 3:5 5:5 7:5
3:0 5:5 7:10 3:10 7:5 5:5 7:5 3:5 5:5 7:5 5:15
5:0 7:10 3:10 7:5 5:5 7:5 3:5 5:5 7:5 5:15 7:10
7:0 3:10 7:5 5:5 7:5 3:5 5:5 7:5 5:15 7:10 5:5
3:0 7:5 5:5 7:5 3:5 5:5 7:5 5:15 7:10 5:5 7:5
7:0 5:5 7:5 3:5 5:5 7:5 5:15 7:10 5:5 7:5 5:5
5:0 7:5 3:5 5:5 7:5 5:15 7:10 5:5 7:5 5:5 7:10
7:0 3:5 5:5 7:5 5:15 7:10 5:5 7:5 5:5 7:10 2:15
3:0 5:5 7:5 5:15 7:10 5:5 7:5 5:5 7:10 2:15 7:5
5:0 7:5 5:15 7:10 5:5 7:5 5:5 7:10 2:15 7:5 2:20
7:0 5:15 7:10 5:5 7:5 5:5 7:10 2:15 7:5 2:20 5:5
5:0 7:10 5:5 7:5 5:5 7:10 2:15 7:5 2:20 5:5 7:5
7:0 5:5 7:5 5:5 7:10 2:15 7:5 2:20 5:5 7:5 5:5
5:0 7:5 5:5 7:10 2:15 7:5 2:20 5:5 7:5 5:5 3:10
7:0 5:5 7:10 2:15 7:5 2:20 5:5 7:5 5:5 3:10 7:10
5:0 7:10 2:15 7:5 2:20 5:5 7:5 5:5 3:10 7:10 3:10
7:0 2:15 7:5 2:20 5:5 7:5 5:5 3:10 7:10 3:10 5:5
2:0 7:5 2:20 5:5 7:5 5:5 3:10 7:10 3:10 5:5 3:5
7:0 2:20 5:5 7:5 5:5 3:10 7:10 3:10 5:5 3:5 7:5
2:0 5:5 7:5 5:5 3:10 7:10 3:10 5:5 3:5 7:5 2:10
5:0 7:5 5:5 3:10 7:10 3:10 5:5 3:5 7:5 2:10 5:5
7:0 5:5 3:10 7:10 3:10 5:5 3:5 7:5 2:10 5:5 7:5
5:0 3:10 7:10 3:10 5:5 3:5 7:5 2:10 5:5 7:5 5:5
3:0 7:10 3:10 5:5 3:5 7:5 2:10 5:5 7:5 5:5 7:5
7:0 3:10 5:5 3:5 7:5 2:10 5:5 7:5 5:5 7:5 5:5
3:0 5:5 3:5 7:5 2:10 5:5 7:5 5:5 7:5 5:5 7:10
5:0 3:5 7:5 2:10 5:5 7:5 5:5 7:5 5:5 7:10 5:5
3:0 7:5 2:10 5:5 7:5 5:5 7:5 5:5 7:10 5:5 7:5
7:0 2:10 5:5 7:5 5:5 7:5 5:5 7:10 5:5 7:5 3:5
2:0 5:5 7:5 5:5 7:5 5:5 7:10 5:5 7:5 3:5 5:5
5:0 7:5 5:5 7:5 5:5 7:10 5:5 7:5 3:5 5:5 7:5
7:0 5:5 7:5 5:5 7:10 5:5 7:5 3:5 5:5 7:5 5:10
5:0 7:5 5:5 7:10 5:5 7:5 3:5 5:5 7:5 5:10 3:5
7:0 5:5 7:10 5:5 7:5 3:5 5:5 7:5 5:10 3:5 7:5
5:0 7:10 5:5 7:5 3:5 5:5 7:5 5:10 3:5 7:5 5:15
7:0 5:5 7:5 3:5 5:5 7:5 5:10 3:5 7:5 5:15 7:20
5:0 7:5 3:5 5:5 7:5 5:10 3:5 7:5 5:15 7:20 3:5
7:0 3:5 5:5 7:5 5:10 3:5 7:5 5:15 7:20 3:5 5:5
3:0 5:5 7:5 5:10 3:5 7:5 5:15 7:20 3:5 5:5 7:5
5:0 7:5 5:10 3:5 7:5 5:15 7:20 3:5 5:5 7:5 5:5
7:0 5:10 3:5 7:5 5:15 7:20 3:5 5:5 7:5 5:5 7:5
5:0 3:5 7:5 5:15 7:20 3:5 5:5 7:5 5:5 7:5 3:5
3:0 7:5 5:15 7:20 3:5 5:5 7:5 5:5 7:5 3:5 7:5
7:0 5:15 7:20 3:5 5:5 7:5 5:5 7:5 3:5 7:5 3:5
5:0 7:20 3:5 5:5 7:5 5:5 7:5 3:5 7:5 3:5 7:5
7:0 3:5 5:5 7:5 5:5 7:5 3:5 7:5 3:5 7:5 3:10
3:0 5:5 7:5 5:5 7:5 3:5 7:5 3:5 7:5 3:10 7:10
5:0 7:5 5:5 7:5 3:5 7:5 3:5 7:5 3:10 7:10 3:5
7:0 5:5 7:5 3:5 7:5 3:5 7:5 3:10 7:10 3:5 5:5
5:0 7:5 3:5 7:5 3:5 7:5 3:10 7:10 3:5 5:5 7:15
7:0 3:5 7:5 3:5 7:5 3:10 7:10 3:5 5:5 7:15 5:5
3:0 7:5 3:5 7:5 3:10 7:10 3:5 5:5 7:15 5:5 3:5
7:0 3:5 7:5 3:10 7:10 3:5 5:5 7:15 5:5 3:5 5:5
3:0 7:5 3:10 7:10 3:5 5:5 7:15 5:5 3:5 5:5 7:5
7:0 3:10 7:10 3:5 5:5 7:15 5:5 3:5 5:5 7:5 5:5
3:0 7:10 3:5 5:5 7:15 5:5 3:5 5:5 7:5 5:5 7:5
7:0 3:5 5:5 7:15 5:5 3:5 5:5 7:5 5:5 7:5 3:5
3:0 5:5 7:15 5:5 3:5 5:5 7:5 5:5 7:5 3:5 7:10
5:0 7:15 5:5 3:5 5:5 7:5 5:5 7:5 3:5 7:10 3:15
7:0 5:5 3:5 5:5 7:5 5:5 7:5 3:5 7:10 3:15 5:5
5:0 3:5 5:5 7:5 5:5 7:5 3:5 7:10 3:15 5:5 7:5
3:0 5:5 7:5 5:5 7:5 3:5 7:10 3:15 5:5 7:5 5:5
5:0 7:5 5:5 7:5 3:5 7:10 3:15 5:5 7:5 5:5 7:5
7:0 5:5 7:5 3:5 7:10 3:15 5:5 7:5 5:5 7:5 3:5
5:0 7:5 3:5 7:10 3:15 5:5 7:5 5:5 7:5 3:5 7:10
7:0 3:5 7:10 3:15 5:5 7:5 5:5 7:5 3:5 7:10 5:5
3:0 7:10 3:15 5:5 7:5 5:5 7:5 3:5 7:10 5:5 3:10
7:0 3:15 5:5 7:5 5:5 7:5 3:5 7:10 5:5 3:10 5:5
3:0 5:5 7:5 5:5 7:5 3:5 7:10 5:5 3:10 5:5 7:5
5:0 7:5 5:5 7:5 3:5 7:10 5:5 3:10 5:5 7:5 5:5
7:0 5:5 7:5 3:5 7:10 5:5 3:10 5:5 7:5 5:5 7:10
5:0 7:5 3:5 7:10 5:5 3:10 5:5 7:5 5:5 7:10 5:5
7:0 3:5 7:10 5:5 3:10 5:5 7:5 5:5 7:10 5:5 7:5
3:0 7:10 5:5 3:10 5:5 7:5 5:5 7:10 5:5 7:5 5:5
7:0 5:5 3:10 5:5 7:5 5:5 7:10 5:5 7:5 5:5 3:5
5:0 3:10 5:5 7:5 5:5 7:10 5:5 7:5 5:5 3:5 5:5
3:0 5:5 7:5 5:5 7:10 5:5 7:5 5:5 3:5 5:5 7:5
5:0 7:5 5:5 7:10 5:5 7:5 5:5 3:5 5:5 7:5 5:10
7:0 5:5 7:10 5:5 7:5 5:5 3:5 5:5 7:5 5:10 3:5
5:0 7:10 5:5 7:5 5:5 3:5 5:5 7:5 5:10 3:5 7:5
7:0 5:5 7:5 5:5 3:5 5:5 7:5 5:10 3:5 7:5 5:5
5:0 7:5 5:5 3:5 5:5 7:5 5:10 3:5 7:5 5:5 3:5
7:0 5:5 3:5 5:5 7:5 5:10 3:5 7:5 5:5 3:5 7:5
5:0 3:5 5:5 7:5 5:10 3:5 7:5 5:5 3:5 7:5 3:5
3:0 5:5 7:5 5:10 3:5 7:5 5:5 3:5 7:5 3:5 5:5
5:0 7:5 5:10 3:5 7:5 5:5 3:5 7:5 3:5 5:5 7:5
7:0 5:10 3:5 7:5 5:5 3:5 7:5 3:5 5:5 7:5 3:15
5:0 3:5 7:5 5:5 3:5 7:5 3:5 5:5 7:5 3:15 7:5
3:0 7:5 5:5 3:5 7:5 3:5 5:5 7:5 3:15 7:5 5:5
7:0 5:5 3:5 7:5 3:5 5:5 7:5 3:15 7:5 5:5 7:5
5:0 3:5 7:5 3:5 5:5 7:5 3:15 7:5 5:5 7:5 3:5
3:0 7:5 3:5 5:5 7:5 3:15 7:5 5:5 7:5 3:5 5:5
7:0 3:5 5:5 7:5 3:15 7:5 5:5 7:5 3:5 5:5 7:5
3:0 5:5 7:5 3:15 7:5 5:5 7:5 3:5 5:5 7:5 5:5
5:0 7:5 3:15 7:5 5:5 7:5 3:5 5:5 7:5 5:5 7:5
7:0 3:15 7:5 5:5 7:5 3:5 5:5 7:5 5:5 7:5 3:5
3:0 7:5 5:5 7:5 3:5 5:5 7:5 5:5 7:5 3:5 7:5
7:0 5:5 7:5 3:5 5:5 7:5 5:5 7:5 3:5 7:5 5:10
5:0 7:5 3:5 5:5 7:5 5:5 7:5 3:5 7:5 5:10 7:5
7:0 3:5 5:5 7:5 5:5 7:5 3:5 7:5 5:10 7:5 3:5
3:0 5:5 7:5 5:5 7:5 3:5 7:5 5:10 7:5 3:5 7:5
5:0 7:5 5:5 7:5 3:5 7:5 5:10 7:5 3:5 7:5 5:5
7:0 5:5 7:5 3:5 7:5 5:10 7:5 3:5 7:5 5:5 7:5
5:0 7:5 3:5 7:5 5:10 7:5 3:5 7:5 5:5 7:5 5:5
7:0 3:5 7:5 5:10 7:5 3:5 7:5 5:5 7:5 5:5 3:5
3:0 7:5 5:10 7:5 3:5 7:5 5:5 7:5 5:5 3:5 7:5
7:0 5:10 7:5 3:5 7:5 5:5 7:5 5:5 3:5 7:5 5:5
5:0 7:5 3:5 7:5 5:5 7:5 5:5 3:5 7:5 5:5 7:5
7:0 3:5 7:5 5:5 7:5 5:5 3:5 7:5 5:5 7:5 5:5
3:0 7:5 5:5 7:5 5:5 3:5 7:5 5:5 7:5 5:5 3:5
7:0 5:5 7:5 5:5 3:5 7:5 5:5 7:5 5:5 3:5 7:5
5:0 7:5 5:5 3:5 7:5 5:5 7:5 5:5 3:5 7:5 5:5
7:0 5:5 3:5 7:5 5:5 7:5 5:5 3:5 7:5 5:5 7:5
5:0 3:5 7:5 5:5 7:5 5:5 3:5 7:5 5:5 7:5 3:5
3:0 7:5 5:5 7:5 5:5 3:5 7:5 5:5 7:5 3:5 5:5
7:0 5:5 7:5 5:5 3:5 7:5 5:5 7:5 3:5 5:5 7:5
5:0 7:5 5:5 3:5 7:5 5:5 7:5 3:5 5:5 7:5 3:15
7:0 5:5 3:5 7:5 5:5 7:5 3:5 5:5 7:5 3:15 7:5
5:0 3:5 7:5 5:5 7:5 3:5 5:5 7:5 3:15 7:5 5:10
3:0 7:5 5:5 7:5 3:5 5:5 7:5 3:15 7:5 5:10 7:5
7:0 5:5 7:5 3:5 5:5 7:5 3:15 7:5 5:10 7:5 3:5
5:0 7:5 3:5 5:5 7:5 3:15 7:5 5:10 7:5 3:5 5:5
7:0 3:5 5:5 7:5 3:15 7:5 5:10 7:5 3:5 5:5 7:5
3:0 5:5 7:5 3:15 7:5 5:10 7:5 3:5 5:5 7:5 3:10
5:0 7:5 3:15 7:5 5:10 7:5 3:5 5:5 7:5 3:10 5:5
7:0 3:15 7:5 5:10 7:5 3:5 5:5 7:5 3:10 5:5 7:10
3:0 7:5 5:10 7:5 3:5 5:5 7:5 3:10 5:5 7:10 5:5
7:0 5:10 7:5 3:5 5:5 7:5 3:10 5:5 7:10 5:5 3:10
5:0 7:5 3:5 5:5 7:5 3:10 5:5 7:10 5:5 3:10 7:5
7:0 3:5 5:5 7:5 3:10 5:5 7:10 5:5 3:10 7:5 5:5
3:0 5:5 7:5 3:10 5:5 7:10 5:5 3:10 7:5 5:5 7:5
5:0 7:5 3:10 5:5 7:10 5:5 3:10 7:5 5:5 7:5 3:5
7:0 3:10 5:5 7:10 5:5 3:10 7:5 5:5 7:5 3:5 5:5
3:0 5:5 7:10 5:5 3:10 7:5 5:5 7:5 3:5 5:5 7:10
5:0 7:10 5:5 3:10 7:5 5:5 7:5 3:5 5:5 7:10 3:10
7:0 5:5 3:10 7:5 5:5 7:5 3:5 5:5 7:10 3:10 7:5
5:0 3:10 7:5 5:5 7:5 3:5 5:5 7:10 3:10 7:5 5:5
3:0 7:5 5:5 7:5 3:5 5:5 7:10 3:10 7:5 5:5 7:5
7:0 5:5 7:5 3:5 5:5 7:10 3:10 7:5 5:5 7:5 2:10
5:0 7:5 3:5 5:5 7:10 3:10 7:5 5:5 7:5 2:10 7:5
7:0 3:5 5:5 7:10 3:10 7:5 5:5 7:5 2:10 7:5 3:20
3:0 5:5 7:10 3:10 7:5 5:5 7:5 2:10 7:5 3:20 5:5
5:0 7:10 3:10 7:5 5:5 7:5 2:10 7:5 3:20 5:5 7:5
7:0 3:10 7:5 5:5 7:5 2:10 7:5 3:20 5:5 7:5 5:10
3:0 7:5 5:5 7:5 2:10 7:5 3:20 5:5 7:5 5:10 7:10
7:0 5:5 7:5 2:10 7:5 3:20 5:5 7:5 5:10 7:10 3:15
5:0 7:5 2:10 7:5 3:20 5:5 7:5 5:10 7:10 3:15 5:5
7:0 2:10 7:5 3:20 5:5 7:5 5:10 7:10 3:15 5:5 7:5
2:0 7:5 3:20 5:5 7:5 5:10 7:10 3:15 5:5 7:5 5:5
7:0 3:20 5:5 7:5 5:10 7:10 3:15 5:5 7:5 5:5 7:5
3:0 5:5 7:5 5:10 7:10 3:15 5:5 7:5 5:5 7:5 2:5
5:0 7:5 5:10 7:10 3:15 5:5 7:5 5:5 7:5 2:5 7:5
7:0 5:10 7:10 3:15 5:5 7:5 5:5 7:5 2:5 7:5 5:10
5:0 7:10 3:15 5:5 7:5 5:5 7:5 2:5 7:5 5:10 7:5
7:0 3:15 5:5 7:5 5:5 7:5 2:5 7:5 5:10 7:5 3:5
3:0 5:5 7:5 5:5 7:5 2:5 7:5 5:10 7:5 3:5 7:5
5:0 7:5 5:5 7:5 2:5 7:5 5:10 7:5 3:5 7:5 5:5
7:0 5:5 7:5 2:5 7:5 5:10 7:5 3:5 7:5 5:5 7:5
5:0 7:5 2:5 7:5 5:10 7:5 3:5 7:5 5:5 7:5 5:5
7:0 2:5 7:5 5:10 7:5 3:5 7:5 5:5 7:5 5:5 2:5
2:0 7:5 5:10 7:5 3:5 7:5 5:5 7:5 5:5 2:5 7:5
7:0 5:10 7:5 3:5 7:5 5:5 7:5 5:5 2:5 7:5 5:5
5:0 7:5 3:5 7:5 5:5 7:5 5:5 2:5 7:5 5:5 7:5
7:0 3:5 7:5 5:5 7:5 5:5 2:5 7:5 5:5 7:5 5:5
3:0 7:5 5:5 7:5 5:5 2:5 7:5 5:5 7:5 5:5 3:5
7:0 5:5 7:5 5:5 2:5 7:5 5:5 7:5 5:5 3:5 7:5
5:0 7:5 5:5 2:5 7:5 5:5 7:5 5:5 3:5 7:5 3:15
7:0 5:5 2:5 7:5 5:5 7:5 5:5 3:5 7:5 3:15 7:5
5:0 2:5 7:5 5:5 7:5 5:5 3:5 7:5 3:15 7:5 3:10
2:0 7:5 5:5 7:5 5:5 3:5 7:5 3:15 7:5 3:10 7:5
7:0 5:5 7:5 5:5 3:5 7:5 3:15 7:5 3:10 7:5 5:5
5:0 7:5 5:5 3:5 7:5 3:15 7:5 3:10 7:5 5:5 7:10
7:0 5:5 3:5 7:5 3:15 7:5 3:10 7:5 5:5 7:10 5:5
5:0 3:5 7:5 3:15 7:5 3:10 7:5 5:5 7:10 5:5 7:5
3:0 7:5 3:15 7:5 3:10 7:5 5:5 7:10 5:5 7:5 5:5
7:0 3:15 7:5 3:10 7:5 5:5 7:10 5:5 7:5 5:5 7:10
3:0 7:5 3:10 7:5 5:5 7:10 5:5 7:5 5:5 7:10 5:5
7:0 3:10 7:5 5:5 7:10 5:5 7:5 5:5 7:10 5:5 7:5
3:0 7:5 5:5 7:10 5:5 7:5 5:5 7:10 5:5 7:5 3:5
7:0 5:5 7:10 5:5 7:5 5:5 7:10 5:5 7:5 3:5 7:5
5:0 7:10 5:5 7:5 5:5 7:10 5:5 7:5 3:5 7:5 5:5
7:0 5:5 7:5 5:5 7:10 5:5 7:5 3:5 7:5 5:5 7:5
5:0 7:5 5:5 7:10 5:5 7:5 3:5 7:5 5:5 7:5 3:5
7:0 5:5 7:10 5:5 7:5 3:5 7:5 5:5 7:5 3:5 5:5
5:0 7:10 5:5 7:5 3:5 7:5 5:5 7:5 3:5 5:5 7:5
7:0 5:5 7:5 3:5 7:5 5:5 7:5 3:5 5:5 7:5 5:10
5:0 7:5 3:5 7:5 5:5 7:5 3:5 5:5 7:5 5:10 3:5
7:0 3:5 7:5 5:5 7:5 3:5 5:5 7:5 5:10 3:5 5:5
3:0 7:5 5:5 7:5 3:5 5:5 7:5 5:10 3:5 5:5 7:5
7:0 5:5 7:5 3:5 5:5 7:5 5:10 3:5 5:5 7:5 5:5
5:0 7:5 3:5 5:5 7:5 5:10 3:5 5:5 7:5 5:5 7:5
7:0 3:5 5:5 7:5 5:10 3:5 5:5 7:5 5:5 7:5 3:5
3:0 5:5 7:5 5:10 3:5 5:5 7:5 5:5 7:5 3:5 5:5
5:0 7:5 5:10 3:5 5:5 7:5 5:5 7:5 3:5 5:5 7:5
7:0 5:10 3:5 5:5 7:5 5:5 7:5 3:5 5:5 7:5 3:15
5:0 3:5 5:5 7:5 5:5 7:5 3:5 5:5 7:5 3:15 7:5
3:0 5:5 7:5 5:5 7:5 3:5 5:5 7:5 3:15 7:5 5:10
5:0 7:5 5:5 7:5 3:5 5:5 7:5 3:15 7:5 5:10 7:5
7:0 5:5 7:5 3:5 5:5 7:5 3:15 7:5 5:10 7:5 5:5
5:0 7:5 3:5 5:5 7:5 3:15 7:5 5:10 7:5 5:5 7:5
7:0 3:5 5:5 7:5 3:15 7:5 5:10 7:5 5:5 7:5 5:5
3:0 5:5 7:5 3:15 7:5 5:10 7:5 5:5 7:5 5:5 7:10
5:0 7:5 3:15 7:5 5:10 7:5 5:5 7:5 5:5 7:10 5:5
7:0 3:15 7:5 5:10 7:5 5:5 7:5 5:5 7:10 5:5 7:5
3:0 7:5 5:10 7:5 5:5 7:5 5:5 7:10 5:5 7:5 3:5
7:0 5:10 7:5 5:5 7:5 5:5 7:10 5:5 7:5 3:5 7:5
5:0 7:5 5:5 7:5 5:5 7:10 5:5 7:5 3:5 7:5 3:5
7:0 5:5 7:5 5:5 7:10 5:5 7:5 3:5 7:5 3:5 7:10
5:0 7:5 5:5 7:10 5:5 7:5 3:5 7:5 3:5 7:10 5:15
7:0 5:5 7:10 5:5 7:5 3:5 7:5 3:5 7:10 5:15 7:15
5:0 7:10 5:5 7:5 3:5 7:5 3:5 7:10 5:15 7:15 2:10
7:0 5:5 7:5 3:5 7:5 3:5 7:10 5:15 7:15 2:10 5:5
5:0 7:5 3:5 7:5 3:5 7:10 5:15 7:15 2:10 5:5 7:15
7:0 3:5 7:5 3:5 7:10 5:15 7:15 2:10 5:5 7:15 2:5
3:0 7:5 3:5 7:10 5:15 7:15 2:10 5:5 7:15 2:5 5:5
7:0 3:5 7:10 5:15 7:15 2:10 5:5 7:15 2:5 5:5 7:5
3:0 7:10 5:15 7:15 2:10 5:5 7:15 2:5 5:5 7:5 5:10
7:0 5:15 7:15 2:10 5:5 7:15 2:5 5:5 7:5 5:10 7:10
5:0 7:15 2:10 5:5 7:15 2:5 5:5 7:5 5:10 7:10 3:5
7:0 2:10 5:5 7:15 2:5 5:5 7:5 5:10 7:10 3:5 7:5
2:0 5:5 7:15 2:5 5:5 7:5 5:10 7:10 3:5 7:5 3:5
5:0 7:15 2:5 5:5 7:5 5:10 7:10 3:5 7:5 3:5 7:5
7:0 2:5 5:5 7:5 5:10 7:10 3:5 7:5 3:5 7:5 5:5
2:0 5:5 7:5 5:10 7:10 3:5 7:5 3:5 7:5 5:5 7:5
5:0 7:5 5:10 7:10 3:5 7:5 3:5 7:5 5:5 7:5 3:10
7:0 5:10 7:10 3:5 7:5 3:5 7:5 5:5 7:5 3:10 5:5
5:0 7:10 3:5 7:5 3:5 7:5 5:5 7:5 3:10 5:5 7:5
7:0 3:5 7:5 3:5 7:5 5:5 7:5 3:10 5:5 7:5 5:5
3:0 7:5 3:5 7:5 5:5 7:5 3:10 5:5 7:5 5:5 7:5
7:0 3:5 7:5 5:5 7:5 3:10 5:5 7:5 5:5 7:5 3:5
3:0 7:5 5:5 7:5 3:10 5:5 7:5 5:5 7:5 3:5 5:5
7:0 5:5 7:5 3:10 5:5 7:5 5:5 7:5 3:5 5:5 7:10
5:0 7:5 3:10 5:5 7:5 5:5 7:5 3:5 5:5 7:10 2:10
7:0 3:10 5:5 7:5 5:5 7:5 3:5 5:5 7:10 2:10 7:5
3:0 5:5 7:5 5:5 7:5 3:5 5:5 7:10 2:10 7:5 3:15
5:0 7:5 5:5 7:5 3:5 5:5 7:10 2:10 7:5 3:15 5:5
7:0 5:5 7:5 3:5 5:5 7:10 2:10 7:5 3:15 5:5 7:5
5:0 7:5 3:5 5:5 7:10 2:10 7:5 3:15 5:5 7:5 5:5
7:0 3:5 5:5 7:10 2:10 7:5 3:15 5:5 7:5 5:5 7:5
3:0 5:5 7:10 2:10 7:5 3:15 5:5 7:5 5:5 7:5 3:5
5:0 7:10 2:10 7:5 3:15 5:5 7:5 5:5 7:5 3:5 5:5
7:0 2:10 7:5 3:15 5:5 7:5 5:5 7:5 3:5 5:5 7:5
2:0 7:5 3:15 5:5 7:5 5:5 7:5 3:5 5:5 7:5 3:15
7:0 3:15 5:5 7:5 5:5 7:5 3:5 5:5 7:5 3:15 7:10
3:0 5:5 7:5 5:5 7:5 3:5 5:5 7:5 3:15 7:10 3:15
5:0 7:5 5:5 7:5 3:5 5:5 7:5 3:15 7:10 3:15 7:5
7:0 5:5 7:5 3:5 5:5 7:5 3:15 7:10 3:15 7:5 5:10
5:0 7:5 3:5 5:5 7:5 3:15 7:10 3:15 7:5 5:10 7:5
7:0 3:5 5:5 7:5 3:15 7:10 3:15 7:5 5:10 7:5 3:5
3:0 5:5 7:5 3:15 7:10 3:15 7:5 5:10 7:5 3:5 5:5
5:0 7:5 3:15 7:10 3:15 7:5 5:10 7:5 3:5 5:5 7:5
7:0 3:15 7:10 3:15 7:5 5:10 7:5 3:5 5:5 7:5 5:5
3:0 7:10 3:15 7:5 5:10 7:5 3:5 5:5 7:5 5:5 7:5
7:0 3:15 7:5 5:10 7:5 3:5 5:5 7:5 5:5 7:5 3:5
3:0 7:5 5:10 7:5 3:5 5:5 7:5 5:5 7:5 3:5 5:5
7:0 5:10 7:5 3:5 5:5 7:5 5:5 7:5 3:5 5:5 7:5
5:0 7:5 3:5 5:5 7:5 5:5 7:5 3:5 5:5 7:5 3:10
7:0 3:5 5:5 7:5 5:5 7:5 3:5 5:5 7:5 3:10 5:5
3:0 5:5 7:5 5:5 7:5 3:5 5:5 7:5 3:10 5:5 7:5
5:0 7:5 5:5 7:5 3:5 5:5 7:5 3:10 5:5 7:5 5:5
7:0 5:5 7:5 3:5 5:5 7:5 3:10 5:5 7:5 5:5 7:5
5:0 7:5 3:5 5:5 7:5 3:10 5:5 7:5 5:5 7:5 5:5
7:0 3:5 5:5 7:5 3:10 5:5 7:5 5:5 7:5 5:5 3:5
3:0 5:5 7:5 3:10 5:5 7:5 5:5 7:5 5:5 3:5 7:5
5:0 7:5 3:10 5:5 7:5 5:5 7:5 5:5 3:5 7:5 3:5
7:0 3:10 5:5 7:5 5:5 7:5 5:5 3:5 7:5 3:5 7:5
3:0 5:5 7:5 5:5 7:5 5:5 3:5 7:5 3:5 7:5 3:5
5:0 7:5 5:5 7:5 5:5 3:5 7:5 3:5 7:5 3:5 7:10
7:0 5:5 7:5 5:5 3:5 7:5 3:5 7:5 3:5 7:10 2:15
5:0 7:5 5:5 3:5 7:5 3:5 7:5 3:5 7:10 2:15 7:5
7:0 5:5 3:5 7:5 3:5 7:5 3:5 7:10 2:15 7:5 3:15
5:0 3:5 7:5 3:5 7:5 3:5 7:10 2:15 7:5 3:15 5:5
3:0 7:5 3:5 7:5 3:5 7:10 2:15 7:5 3:15 5:5 7:5
7:0 3:5 7:5 3:5 7:10 2:15 7:5 3:15 5:5 7:5 5:5
3:0 7:5 3:5 7:10 2:15 7:5 3:15 5:5 7:5 5:5 7:5
7:0 3:5 7:10 2:15 7:5 3:15 5:5 7:5 5:5 7:5 5:5
3:0 7:10 2:15 7:5 3:15 5:5 7:5 5:5 7:5 5:5 7:10
7:0 2:15 7:5 3:15 5:5 7:5 5:5 7:5 5:5 7:10 5:5
2:0 7:5 3:15 5:5 7:5 5:5 7:5 5:5 7:10 5:5 7:5
7:0 3:15 5:5 7:5 5:5 7:5 5:5 7:10 5:5 7:5 3:5
3:0 5:5 7:5 5:5 7:5 5:5 7:10 5:5 7:5 3:5 7:5
5:0 7:5 5:5 7:5 5:5 7:10 5:5 7:5 3:5 7:5 5:5
7:0 5:5 7:5 5:5 7:10 5:5 7:5 3:5 7:5 5:5 7:5
5:0 7:5 5:5 7:10 5:5 7:5 3:5 7:5 5:5 7:5 3:10
7:0 5:5 7:10 5:5 7:5 3:5 7:5 5:5 7:5 3:10 5:5
5:0 7:10 5:5 7:5 3:5 7:5 5:5 7:5 3:10 5:5 7:10
7:0 5:5 7:5 3:5 7:5 5:5 7:5 3:10 5:5 7:10 5:5
5:0 7:5 3:5 7:5 5:5 7:5 3:10 5:5 7:10 5:5 3:5
7:0 3:5 7:5 5:5 7:5 3:10 5:5 7:10 5:5 3:5 7:5
3:0 7:5 5:5 7:5 3:10 5:5 7:10 5:5 3:5 7:5 5:5
7:0 5:5 7:5 3:10 5:5 7:10 5:5 3:5 7:5 5:5 7:5
5:0 7:5 3:10 5:5 7:10 5:5 3:5 7:5 5:5 7:5 5:5
7:0 3:10 5:5 7:10 5:5 3:5 7:5 5:5 7:5 5:5 3:5
3:0 5:5 7:10 5:5 3:5 7:5 5:5 7:5 5:5 3:5 7:5
5:0 7:10 5:5 3:5 7:5 5:5 7:5 5:5 3:5 7:5 3:15
7:0 5:5 3:5 7:5 5:5 7:5 5:5 3:5 7:5 3:15 5:5
5:0 3:5 7:5 5:5 7:5 5:5 3:5 7:5 3:15 5:5 7:5
3:0 7:5 5:5 7:5 5:5 3:5 7:5 3:15 5:5 7:5 5:5
7:0 5:5 7:5 5:5 3:5 7:5 3:15 5:5 7:5 5:5 7:5
5:0 7:5 5:5 3:5 7:5 3:15 5:5 7:5 5:5 7:5 5:5
7:0 5:5 3:5 7:5 3:15 5:5 7:5 5:5 7:5 5:5 7:10
5:0 3:5 7:5 3:15 5:5 7:5 5:5 7:5 5:5 7:10 5:5
3:0 7:5 3:15 5:5 7:5 5:5 7:5 5:5 7:10 5:5 7:5
7:0 3:15 5:5 7:5 5:5 7:5 5:5 7:10 5:5 7:5 3:5
3:0 5:5 7:5 5:5 7:5 5:5 7:10 5:5 7:5 3:5 5:5
5:0 7:5 5:5 7:5 5:5 7:10 5:5 7:5 3:5 5:5 7:5
7:0 5:5 7:5 5:5 7:10 5:5 7:5 3:5 5:5 7:5 5:5
5:0 7:5 5:5 7:10 5:5 7:5 3:5 5:5 7:5 5:5 7:5
7:0 5:5 7:10 5:5 7:5 3:5 5:5 7:5 5:5 7:5 3:5
5:0 7:10 5:5 7:5 3:5 5:5 7:5 5:5 7:5 3:5 5:5
7:0 5:5 7:5 3:5 5:5 7:5 5:5 7:5 3:5 5:5 7:5
5:0 7:5 3:5 5:5 7:5 5:5 7:5 3:5 5:5 7:5 5:5
7:0 3:5 5:5 7:5 5:5 7:5 3:5 5:5 7:5 5:5 7:5
3:0 5:5 7:5 5:5 7:5 3:5 5:5 7:5 5:5 7:5 3:5
5:0 7:5 5:5 7:5 3:5 5:5 7:5 5:5 7:5 3:5 5:5
7:0 5:5 7:5 3:5 5:5 7:5 5:5 7:5 3:5 5:5 7:10
5:0 7:5 3:5 5:5 7:5 5:5 7:5 3:5 5:5 7:10 5:5
7:0 3:5 5:5 7:5 5:5 7:5 3:5 5:5 7:10 5:5 2:5
3:0 5:5 7:5 5:5 7:5 3:5 5:5 7:10 5:5 2:5 7:5
5:0 7:5 5:5 7:5 3:5 5:5 7:10 5:5 2:5 7:5 3:15
7:0 5:5 7:5 3:5 5:5 7:10 5:5 2:5 7:5 3:15 5:5
5:0 7:5 3:5 5:5 7:10 5:5 2:5 7:5 3:15 5:5 7:5
7:0 3:5 5:5 7:10 5:5 2:5 7:5 3:15 5:5 7:5 5:15
3:0 5:5 7:10 5:5 2:5 7:5 3:15 5:5 7:5 5:15 7:5
5:0 7:10 5:5 2:5 7:5 3:15 5:5 7:5 5:15 7:5 5:5
7:0 5:5 2:5 7:5 3:15 5:5 7:5 5:15 7:5 5:5 7:5
5:0 2:5 7:5 3:15 5:5 7:5 5:15 7:5 5:5 7:5 3:10
2:0 7:5 3:15 5:5 7:5 5:15 7:5 5:5 7:5 3:10 7:5
7:0 3:15 5:5 7:5 5:15 7:5 5:5 7:5 3:10 7:5 5:5
3:0 5:5 7:5 5:15 7:5 5:5 7:5 3:10 7:5 5:5 3:5
5:0 7:5 5:15 7:5 5:5 7:5 3:10 7:5 5:5 3:5 7:5
7:0 5:15 7:5 5:5 7:5 3:10 7:5 5:5 3:5 7:5 3:5
5:0 7:5 5:5 7:5 3:10 7:5 5:5 3:5 7:5 3:5 7:5
7:0 5:5 7:5 3:10 7:5 5:5 3:5 7:5 3:5 7:5 5:5
5:0 7:5 3:10 7:5 5:5 3:5 7:5 3:5 7:5 5:5 7:5
7:0 3:10 7:5 5:5 3:5 7:5 3:5 7:5 5:5 7:5 5:5
3:0 7:5 5:5 3:5 7:5 3:5 7:5 5:5 7:5 5:5 3:5
7:0 5:5 3:5 7:5 3:5 7:5 5:5 7:5 5:5 3:5 7:5
5:0 3:5 7:5 3:5 7:5 5:5 7:5 5:5 3:5 7:5 5:5
3:0 7:5 3:5 7:5 5:5 7:5 5:5 3:5 7:5 5:5 7:5
7:0 3:5 7:5 5:5 7:5 5:5 3:5 7:5 5:5 7:5 3:5
3:0 7:5 5:5 7:5 5:5 3:5 7:5 5:5 7:5 3:5 5:5
7:0 5:5 7:5 5:5 3:5 7:5 5:5 7:5 3:5 5:5 7:5
5:0 7:5 5:5 3:5 7:5 5:5 7:5 3:5 5:5 7:5 5:5
7:0 5:5 3:5 7:5 5:5 7:5 3:5 5:5 7:5 5:5 7:5
5:0 3:5 7:5 5:5 7:5 3:5 5:5 7:5 5:5 7:5 5:5
3:0 7:5 5:5 7:5 3:5 5:5 7:5 5:5 7:5 5:5 7:5
7:0 5:5 7:5 3:5 5:5 7:5 5:5 7:5 5:5 7:5 5:5
5:0 7:5 3:5 5:5 7:5 5:5 7:5 5:5 7:5 5:5 7:5
7:0 3:5 5:5 7:5 5:5 7:5 5:5 7:5 5:5 7:5 3:10
3:0 5:5 7:5 5:5 7:5 5:5 7:5 5:5 7:5 3:10 7:10
5:0 7:5 5:5 7:5 5:5 7:5 5:5 7:5 3:10 7:10 3:15
7:0 5:5 7:5 5:5 7:5 5:5 7:5 3:10 7:10 3:15 5:5
5:0 7:5 5:5 7:5 5:5 7:5 3:10 7:10 3:15 5:5 7:10
7:0 5:5 7:5 5:5 7:5 3:10 7:10 3:15 5:5 7:10 3:10
5:0 7:5 5:5 7:5 3:10 7:10 3:15 5:5 7:10 3:10 5:5
7:0 5:5 7:5 3:10 7:10 3:15 5:5 7:10 3:10 5:5 7:5
5:0 7:5 3:10 7:10 3:15 5:5 7:10 3:10 5:5 7:5 3:10
7:0 3:10 7:10 3:15 5:5 7:10 3:10 5:5 7:5 3:10 7:10
3:0 7:10 3:15 5:5 7:10 3:10 5:5 7:5 3:10 7:10 2:15
7:0 3:15 5:5 7:10 3:10 5:5 7:5 3:10 7:10 2:15 5:5
3:0 5:5 7:10 3:10 5:5 7:5 3:10 7:10 2:15 5:5 7:5
5:0 7:10 3:10 5:5 7:5 3:10 7:10 2:15 5:5 7:5 5:5
7:0 3:10 5:5 7:5 3:10 7:10 2:15 5:5 7:5 5:5 7:5
3:0 5:5 7:5 3:10 7:10 2:15 5:5 7:5 5:5 7:5 3:5
5:0 7:5 3:10 7:10 2:15 5:5 7:5 5:5 7:5 3:5 7:5
7:0 3:10 7:10 2:15 5:5 7:5 5:5 7:5 3:5 7:5 5:5
3:0 7:10 2:15 5:5 7:5 5:5 7:5 3:5 7:5 5:5 7:5
7:0 2:15 5:5 7:5 5:5 7:5 3:5 7:5 5:5 7:5 5:5
2:0 5:5 7:5 5:5 7:5 3:5 7:5 5:5 7:5 5:5 7:10
5:0 7:5 5:5 7:5 3:5 7:5 5:5 7:5 5:5 7:10 3:5
7:0 5:5 7:5 3:5 7:5 5:5 7:5 5:5 7:10 3:5 7:5
5:0 7:5 3:5 7:5 5:5 7:5 5:5 7:10 3:5 7:5 5:5
7:0 3:5 7:5 5:5 7:5 5:5 7:10 3:5 7:5 5:5 3:5
3:0 7:5 5:5 7:5 5:5 7:10 3:5 7:5 5:5 3:5 7:5
7:0 5:5 7:5 5:5 7:10 3:5 7:5 5:5 3:5 7:5 3:15
5:0 7:5 5:5 7:10 3:5 7:5 5:5 3:5 7:5 3:15 5:5
7:0 5:5 7:10 3:5 7:5 5:5 3:5 7:5 3:15 5:5 7:15
5:0 7:10 3:5 7:5 5:5 3:5 7:5 3:15 5:5 7:15 3:5
7:0 3:5 7:5 5:5 3:5 7:5 3:15 5:5 7:15 3:5 5:5
3:0 7:5 5:5 3:5 7:5 3:15 5:5 7:15 3:5 5:5 7:5
7:0 5:5 3:5 7:5 3:15 5:5 7:15 3:5 5:5 7:5 5:10
5:0 3:5 7:5 3:15 5:5 7:15 3:5 5:5 7:5 5:10 3:5
3:0 7:5 3:15 5:5 7:15 3:5 5:5 7:5 5:10 3:5 7:5
7:0 3:15 5:5 7:15 3:5 5:5 7:5 5:10 3:5 7:5 5:5
3:0 5:5 7:15 3:5 5:5 7:5 5:10 3:5 7:5 5:5 7:5
5:0 7:15 3:5 5:5 7:5 5:10 3:5 7:5 5:5 7:5 3:10
7:0 3:5 5:5 7:5 5:10 3:5 7:5 5:5 7:5 3:10 5:5
3:0 5:5 7:5 5:10 3:5 7:5 5:5 7:5 3:10 5:5 7:5
5:0 7:5 5:10 3:5 7:5 5:5 7:5 3:10 5:5 7:5 3:10
7:0 5:10 3:5 7:5 5:5 7:5 3:10 5:5 7:5 3:10 7:10
5:0 3:5 7:5 5:5 7:5 3:10 5:5 7:5 3:10 7:10 5:5
3:0 7:5 5:5 7:5 3:10 5:5 7:5 3:10 7:10 5:5 7:5
7:0 5:5 7:5 3:10 5:5 7:5 3:10 7:10 5:5 7:5 3:5
5:0 7:5 3:10 5:5 7:5 3:10 7:10 5:5 7:5 3:5 5:5
7:0 3:10 5:5 7:5 3:10 7:10 5:5 7:5 3:5 5:5 7:5
3:0 5:5 7:5 3:10 7:10 5:5 7:5 3:5 5:5 7:5 3:5
5:0 7:5 3:10 7:10 5:5 7:5 3:5 5:5 7:5 3:5 7:5
7:0 3:10 7:10 5:5 7:5 3:5 5:5 7:5 3:5 7:5 3:5
3:0 7:10 5:5 7:5 3:5 5:5 7:5 3:5 7:5 3:5 5:5
7:0 5:5 7:5 3:5 5:5 7:5 3:5 7:5 3:5 5:5 7:5
5:0 7:5 3:5 5:5 7:5 3:5 7:5 3:5 5:5 7:5 6:10
7:0 3:5 5:5 7:5 3:5 7:5 3:5 5:5 7:5 6:10 2:5
3:0 5:5 7:5 3:5 7:5 3:5 5:5 7:5 6:10 2:5 7:5
5:0 7:5 3:5 7:5 3:5 5:5 7:5 6:10 2:5 7:5 5:5
7:0 3:5 7:5 3:5 5:5 7:5 6:10 2:5 7:5 5:5 7:5
3:0 7:5 3:5 5:5 7:5 6:10 2:5 7:5 5:5 7:5 5:10
7:0 3:5 5:5 7:5 6:10 2:5 7:5 5:5 7:5 5:10 7:35
3:0 5:5 7:5 6:10 2:5 7:5 5:5 7:5 5:10 7:35 5:5
5:0 7:5 6:10 2:5 7:5 5:5 7:5 5:10 7:35 5:5 3:15
7:0 6:10 2:5 7:5 5:5 7:5 5:10 7:35 5:5 3:15 7:5
6:0 2:5 7:5 5:5 7:5 5:10 7:35 5:5 3:15 7:5 3:10
2:0 7:5 5:5 7:5 5:10 7:35 5:5 3:15 7:5 3:10 5:5
7:0 5:5 7:5 5:10 7:35 5:5 3:15 7:5 3:10 5:5 7:5
5:0 7:5 5:10 7:35 5:5 3:15 7:5 3:10 5:5 7:5 5:10
7:0 5:10 7:35 5:5 3:15 7:5 3:10 5:5 7:5 5:10 3:5
5:0 7:35 5:5 3:15 7:5 3:10 5:5 7:5 5:10 3:5 7:5
7:0 5:5 3:15 7:5 3:10 5:5 7:5 5:10 3:5 7:5 5:5
5:0 3:15 7:5 3:10 5:5 7:5 5:10 3:5 7:5 5:5 7:5
3:0 7:5 3:10 5:5 7:5 5:10 3:5 7:5 5:5 7:5 5:5
7:0 3:10 5:5 7:5 5:10 3:5 7:5 5:5 7:5 5:5 2:5
3:0 5:5 7:5 5:10 3:5 7:5 5:5 7:5 5:5 2:5 7:5
5:0 7:5 5:10 3:5 7:5 5:5 7:5 5:5 2:5 7:5 3:15
7:0 5:10 3:5 7:5 5:5 7:5 5:5 2:5 7:5 3:15 7:10
5:0 3:5 7:5 5:5 7:5 5:5 2:5 7:5 3:15 7:10 3:15
3:0 7:5 5:5 7:5 5:5 2:5 7:5 3:15 7:10 3:15 7:10
7:0 5:5 7:5 5:5 2:5 7:5 3:15 7:10 3:15 7:10 5:5
5:0 7:5 5:5 2:5 7:5 3:15 7:10 3:15 7:10 5:5 7:5
7:0 5:5 2:5 7:5 3:15 7:10 3:15 7:10 5:5 7:5 2:5
5:0 2:5 7:5 3:15 7:10 3:15 7:10 5:5 7:5 2:5 5:5
2:0 7:5 3:15 7:10 3:15 7:10 5:5 7:5 2:5 5:5 7:5
7:0 3:15 7:10 3:15 7:10 5:5 7:5 2:5 5:5 7:5 5:5
3:0 7:10 3:15 7:10 5:5 7:5 2:5 5:5 7:5 5:5 7:5
7:0 3:15 7:10 5:5 7:5 2:5 5:5 7:5 5:5 7:5 3:5
3:0 7:10 5:5 7:5 2:5 5:5 7:5 5:5 7:5 3:5 5:5
7:0 5:5 7:5 2:5 5:5 7:5 5:5 7:5 3:5 5:5 7:5
5:0 7:5 2:5 5:5 7:5 5:5 7:5 3:5 5:5 7:5 3:15
7:0 2:5 5:5 7:5 5:5 7:5 3:5 5:5 7:5 3:15 7:5
2:0 5:5 7:5 5:5 7:5 3:5 5:5 7:5 3:15 7:5 5:5
5:0 7:5 5:5 7:5 3:5 5:5 7:5 3:15 7:5 5:5 7:5
7:0 5:5 7:5 3:5 5:5 7:5 3:15 7:5 5:5 7:5 5:5
5:0 7:5 3:5 5:5 7:5 3:15 7:5 5:5 7:5 5:5 7:10
7:0 3:5 5:5 7:5 3:15 7:5 5:5 7:5 5:5 7:10 5:5
3:0 5:5 7:5 3:15 7:5 5:5 7:5 5:5 7:10 5:5 7:5
5:0 7:5 3:15 7:5 5:5 7:5 5:5 7:10 5:5 7:5 3:5
7:0 3:15 7:5 5:5 7:5 5:5 7:10 5:5 7:5 3:5 7:10
3:0 7:5 5:5 7:5 5:5 7:10 5:5 7:5 3:5 7:10 2:15
7:0 5:5 7:5 5:5 7:10 5:5 7:5 3:5 7:10 2:15 7:5
5:0 7:5 5:5 7:10 5:5 7:5 3:5 7:10 2:15 7:5 5:10
7:0 5:5 7:10 5:5 7:5 3:5 7:10 2:15 7:5 5:10 7:5
5:0 7:10 5:5 7:5 3:5 7:10 2:15 7:5 5:10 7:5 3:5
7:0 5:5 7:5 3:5 7:10 2:15 7:5 5:10 7:5 3:5 5:5
5:0 7:5 3:5 7:10 2:15 7:5 5:10 7:5 3:5 5:5 7:5
7:0 3:5 7:10 2:15 7:5 5:10 7:5 3:5 5:5 7:5 5:5
3:0 7:10 2:15 7:5 5:10 7:5 3:5 5:5 7:5 5:5 7:5
7:0 2:15 7:5 5:10 7:5 3:5 5:5 7:5 5:5 7:5 3:5
2:0 7:5 5:10 7:5 3:5 5:5 7:5 5:5 7:5 3:5 5:5
7:0 5:10 7:5 3:5 5:5 7:5 5:5 7:5 3:5 5:5 7:5
5:0 7:5 3:5 5:5 7:5 5:5 7:5 3:5 5:5 7:5 5:10
7:0 3:5 5:5 7:5 5:5 7:5 3:5 5:5 7:5 5:10 7:15
3:0 5:5 7:5 5:5 7:5 3:5 5:5 7:5 5:10 7:15 3:10
5:0 7:5 5:5 7:5 3:5 5:5 7:5 5:10 7:15 3:10 5:5
7:0 5:5 7:5 3:5 5:5 7:5 5:10 7:15 3:10 5:5 7:5
5:0 7:5 3:5 5:5 7:5 5:10 7:15 3:10 5:5 7:5 5:15
7:0 3:5 5:5 7:5 5:10 7:15 3:10 5:5 7:5 5:15 7:10
3:0 5:5 7:5 5:10 7:15 3:10 5:5 7:5 5:15 7:10 5:5
5:0 7:5 5:10 7:15 3:10 5:5 7:5 5:15 7:10 5:5 7:5
7:0 5:10 7:15 3:10 5:5 7:5 5:15 7:10 5:5 7:5 2:5
5:0 7:15 3:10 5:5 7:5 5:15 7:10 5:5 7:5 2:5 5:5
7:0 3:10 5:5 7:5 5:15 7:10 5:5 7:5 2:5 5:5 7:5
3:0 5:5 7:5 5:15 7:10 5:5 7:5 2:5 5:5 7:5 3:15
5:0 7:5 5:15 7:10 5:5 7:5 2:5 5:5 7:5 3:15 7:5
7:0 5:15 7:10 5:5 7:5 2:5 5:5 7:5 3:15 7:5 5:10
5:0 7:10 5:5 7:5 2:5 5:5 7:5 3:15 7:5 5:10 7:5
7:0 5:5 7:5 2:5 5:5 7:5 3:15 7:5 5:10 7:5 3:5
5:0 7:5 2:5 5:5 7:5 3:15 7:5 5:10 7:5 3:5 7:5
7:0 2:5 5:5 7:5 3:15 7:5 5:10 7:5 3:5 7:5 5:5
2:0 5:5 7:5 3:15 7:5 5:10 7:5 3:5 7:5 5:5 7:5
5:0 7:5 3:15 7:5 5:10 7:5 3:5 7:5 5:5 7:5 3:5
7:0 3:15 7:5 5:10 7:5 3:5 7:5 5:5 7:5 3:5 7:5
3:0 7:5 5:10 7:5 3:5 7:5 5:5 7:5 3:5 7:5 5:5
7:0 5:10 7:5 3:5 7:5 5:5 7:5 3:5 7:5 5:5 7:5
5:0 7:5 3:5 7:5 5:5 7:5 3:5 7:5 5:5 7:5 5:10
7:0 3:5 7:5 5:5 7:5 3:5 7:5 5:5 7:5 5:10 7:10
3:0 7:5 5:5 7:5 3:5 7:5 5:5 7:5 5:10 7:10 5:10
7:0 5:5 7:5 3:5 7:5 5:5 7:5 5:10 7:10 5:10 3:5
5:0 7:5 3:5 7:5 5:5 7:5 5:10 7:10 5:10 3:5 7:5
7:0 3:5 7:5 5:5 7:5 5:10 7:10 5:10 3:5 7:5 5:5
3:0 7:5 5:5 7:5 5:10 7:10 5:10 3:5 7:5 5:5 7:5
7:0 5:5 7:5 5:10 7:10 5:10 3:5 7:5 5:5 7:5 5:5
5:0 7:5 5:10 7:10 5:10 3:5 7:5 5:5 7:5 5:5 3:5
7:0 5:10 7:10 5:10 3:5 7:5 5:5 7:5 5:5 3:5 7:5
5:0 7:10 5:10 3:5 7:5 5:5 7:5 5:5 3:5 7:5 5:5
7:0 5:10 3:5 7:5 5:5 7:5 5:5 3:5 7:5 5:5 7:5
5:0 3:5 7:5 5:5 7:5 5:5 3:5 7:5 5:5 7:5 3:5
3:0 7:5 5:5 7:5 5:5 3:5 7:5 5:5 7:5 3:5 5:5
7:0 5:5 7:5 5:5 3:5 7:5 5:5 7:5 3:5 5:5 7:5
5:0 7:5 5:5 3:5 7:5 5:5 7:5 3:5 5:5 7:5 5:15
7:0 5:5 3:5 7:5 5:5 7:5 3:5 5:5 7:5 5:15 7:10
5:0 3:5 7:5 5:5 7:5 3:5 5:5 7:5 5:15 7:10 5:5
3:0 7:5 5:5 7:5 3:5 5:5 7:5 5:15 7:10 5:5 7:5
7:0 5:5 7:5 3:5 5:5 7:5 5:15 7:10 5:5 7:5 3:5
5:0 7:5 3:5 5:5 7:5 5:15 7:10 5:5 7:5 3:5 5:5
7:0 3:5 5:5 7:5 5:15 7:10 5:5 7:5 3:5 5:5 7:10
3:0 5:5 7:5 5:15 7:10 5:5 7:5 3:5 5:5 7:10 2:10
5:0 7:5 5:15 7:10 5:5 7:5 3:5 5:5 7:10 2:10 7:5
7:0 5:15 7:10 5:5 7:5 3:5 5:5 7:10 2:10 7:5 5:5
5:0 7:10 5:5 7:5 3:5 5:5 7:10 2:10 7:5 5:5 7:5
7:0 5:5 7:5 3:5 5:5 7:10 2:10 7:5 5:5 7:5 5:10
5:0 7:5 3:5 5:5 7:10 2:10 7:5 5:5 7:5 5:10 7:10
7:0 3:5 5:5 7:10 2:10 7:5 5:5 7:5 5:10 7:10 5:5
3:0 5:5 7:10 2:10 7:5 5:5 7:5 5:10 7:10 5:5 7:20
5:0 7:10 2:10 7:5 5:5 7:5 5:10 7:10 5:5 7:20 3:10
7:0 2:10 7:5 5:5 7:5 5:10 7:10 5:5 7:20 3:10 7:10
2:0 7:5 5:5 7:5 5:10 7:10 5:5 7:20 3:10 7:10 5:5
7:0 5:5 7:5 5:10 7:10 5:5 7:20 3:10 7:10 5:5 7:5
5:0 7:5 5:10 7:10 5:5 7:20 3:10 7:10 5:5 7:5 3:5
7:0 5:10 7:10 5:5 7:20 3:10 7:10 5:5 7:5 3:5 5:5
5:0 7:10 5:5 7:20 3:10 7:10 5:5 7:5 3:5 5:5 7:5
7:0 5:5 7:20 3:10 7:10 5:5 7:5 3:5 5:5 7:5 3:15
5:0 7:20 3:10 7:10 5:5 7:5 3:5 5:5 7:5 3:15 5:5
7:0 3:10 7:10 5:5 7:5 3:5 5:5 7:5 3:15 5:5 7:10
3:0 7:10 5:5 7:5 3:5 5:5 7:5 3:15 5:5 7:10 5:5
7:0 5:5 7:5 3:5 5:5 7:5 3:15 5:5 7:10 5:5 3:5
5:0 7:5 3:5 5:5 7:5 3:15 5:5 7:10 5:5 3:5 5:5
7:0 3:5 5:5 7:5 3:15 5:5 7:10 5:5 3:5 5:5 7:5
3:0 5:5 7:5 3:15 5:5 7:10 5:5 3:5 5:5 7:5 5:5
5:0 7:5 3:15 5:5 7:10 5:5 3:5 5:5 7:5 5:5 3:10
7:0 3:15 5:5 7:10 5:5 3:5 5:5 7:5 5:5 3:10 7:5
3:0 5:5 7:10 5:5 3:5 5:5 7:5 5:5 3:10 7:5 5:15
5:0 7:10 5:5 3:5 5:5 7:5 5:5 3:10 7:5 5:15 3:5
7:0 5:5 3:5 5:5 7:5 5:5 3:10 7:5 5:15 3:5 7:5
5:0 3:5 5:5 7:5 5:5 3:10 7:5 5:15 3:5 7:5 5:5
3:0 5:5 7:5 5:5 3:10 7:5 5:15 3:5 7:5 5:5 7:5
5:0 7:5 5:5 3:10 7:5 5:15 3:5 7:5 5:5 7:5 3:5
7:0 5:5 3:10 7:5 5:15 3:5 7:5 5:5 7:5 3:5 7:5
5:0 3:10 7:5 5:15 3:5 7:5 5:5 7:5 3:5 7:5 5:5
3:0 7:5 5:15 3:5 7:5 5:5 7:5 3:5 7:5 5:5 7:5
7:0 5:15 3:5 7:5 5:5 7:5 3:5 7:5 5:5 7:5 2:10
5:0 3:5 7:5 5:5 7:5 3:5 7:5 5:5 7:5 2:10 7:5
3:0 7:5 5:5 7:5 3:5 7:5 5:5 7:5 2:10 7:5 5:5
7:0 5:5 7:5 3:5 7:5 5:5 7:5 2:10 7:5 5:5 7:5
5:0 7:5 3:5 7:5 5:5 7:5 2:10 7:5 5:5 7:5 5:5
7:0 3:5 7:5 5:5 7:5 2:10 7:5 5:5 7:5 5:5 3:5
3:0 7:5 5:5 7:5 2:10 7:5 5:5 7:5 5:5 3:5 7:5
7:0 5:5 7:5 2:10 7:5 5:5 7:5 5:5 3:5 7:5 5:15
5:0 7:5 2:10 7:5 5:5 7:5 5:5 3:5 7:5 5:15 7:15
7:0 2:10 7:5 5:5 7:5 5:5 3:5 7:5 5:15 7:15 2:10
2:0 7:5 5:5 7:5 5:5 3:5 7:5 5:15 7:15 2:10 5:5
7:0 5:5 7:5 5:5 3:5 7:5 5:15 7:15 2:10 5:5 7:10
5:0 7:5 5:5 3:5 7:5 5:15 7:15 2:10 5:5 7:10 3:10
7:0 5:5 3:5 7:5 5:15 7:15 2:10 5:5 7:10 3:10 5:5
5:0 3:5 7:5 5:15 7:15 2:10 5:5 7:10 3:10 5:5 7:5
3:0 7:5 5:15 7:15 2:10 5:5 7:10 3:10 5:5 7:5 5:5
7:0 5:15 7:15 2:10 5:5 7:10 3:10 5:5 7:5 5:5 7:5
5:0 7:15 2:10 5:5 7:10 3:10 5:5 7:5 5:5 7:5 3:5
7:0 2:10 5:5 7:10 3:10 5:5 7:5 5:5 7:5 3:5 5:5
2:0 5:5 7:10 3:10 5:5 7:5 5:5 7:5 3:5 5:5 7:5
5:0 7:10 3:10 5:5 7:5 5:5 7:5 3:5 5:5 7:5 5:10
7:0 3:10 5:5 7:5 5:5 7:5 3:5 5:5 7:5 5:10 2:5
3:0 5:5 7:5 5:5 7:5 3:5 5:5 7:5 5:10 2:5 7:5
5:0 7:5 5:5 7:5 3:5 5:5 7:5 5:10 2:5 7:5 5:5
7:0 5:5 7:5 3:5 5:5 7:5 5:10 2:5 7:5 5:5 7:5
5:0 7:5 3:5 5:5 7:5 5:10 2:5 7:5 5:5 7:5 5:5
7:0 3:5 5:5 7:5 5:10 2:5 7:5 5:5 7:5 5:5 7:10
3:0 5:5 7:5 5:10 2:5 7:5 5:5 7:5 5:5 7:10 5:10
5:0 7:5 5:10 2:5 7:5 5:5 7:5 5:5 7:10 5:10 3:5
7:0 5:10 2:5 7:5 5:5 7:5 5:5 7:10 5:10 3:5 5:5
5:0 2:5 7:5 5:5 7:5 5:5 7:10 5:10 3:5 5:5 7:5
2:0 7:5 5:5 7:5 5:5 7:10 5:10 3:5 5:5 7:5 3:15
7:0 5:5 7:5 5:5 7:10 5:10 3:5 5:5 7:5 3:15 5:5
5:0 7:5 5:5 7:10 5:10 3:5 5:5 7:5 3:15 5:5 7:5
7:0 5:5 7:10 5:10 3:5 5:5 7:5 3:15 5:5 7:5 5:10
5:0 7:10 5:10 3:5 5:5 7:5 3:15 5:5 7:5 5:10 3:5
7:0 5:10 3:5 5:5 7:5 3:15 5:5 7:5 5:10 3:5 7:5
5:0 3:5 5:5 7:5 3:15 5:5 7:5 5:10 3:5 7:5 5:5
3:0 5:5 7:5 3:15 5:5 7:5 5:10 3:5 7:5 5:5 7:5
5:0 7:5 3:15 5:5 7:5 5:10 3:5 7:5 5:5 7:5 3:10
7:0 3:15 5:5 7:5 5:10 3:5 7:5 5:5 7:5 3:10 7:5
3:0 5:5 7:5 5:10 3:5 7:5 5:5 7:5 3:10 7:5 5:5
5:0 7:5 5:10 3:5 7:5 5:5 7:5 3:10 7:5 5:5 7:5
7:0 5:10 3:5 7:5 5:5 7:5 3:10 7:5 5:5 7:5 3:5
5:0 3:5 7:5 5:5 7:5 3:10 7:5 5:5 7:5 3:5 5:5
3:0 7:5 5:5 7:5 3:10 7:5 5:5 7:5 3:5 5:5 7:10
7:0 5:5 7:5 3:10 7:5 5:5 7:5 3:5 5:5 7:10 5:10
5:0 7:5 3:10 7:5 5:5 7:5 3:5 5:5 7:10 5:10 7:15
7:0 3:10 7:5 5:5 7:5 3:5 5:5 7:10 5:10 7:15 3:10
3:0 7:5 5:5 7:5 3:5 5:5 7:10 5:10 7:15 3:10 7:10
7:0 5:5 7:5 3:5 5:5 7:10 5:10 7:15 3:10 7:10 5:5
5:0 7:5 3:5 5:5 7:10 5:10 7:15 3:10 7:10 5:5 7:5
7:0 3:5 5:5 7:10 5:10 7:15 3:10 7:10 5:5 7:5 3:5
3:0 5:5 7:10 5:10 7:15 3:10 7:10 5:5 7:5 3:5 7:10
5:0 7:10 5:10 7:15 3:10 7:10 5:5 7:5 3:5 7:10 3:15
7:0 5:10 7:15 3:10 7:10 5:5 7:5 3:5 7:10 3:15 5:5
5:0 7:15 3:10 7:10 5:5 7:5 3:5 7:10 3:15 5:5 7:10
7:0 3:10 7:10 5:5 7:5 3:5 7:10 3:15 5:5 7:10 5:5
3:0 7:10 5:5 7:5 3:5 7:10 3:15 5:5 7:10 5:5 3:5
7:0 5:5 7:5 3:5 7:10 3:15 5:5 7:10 5:5 3:5 7:5
5:0 7:5 3:5 7:10 3:15 5:5 7:10 5:5 3:5 7:5 5:5
7:0 3:5 7:10 3:15 5:5 7:10 5:5 3:5 7:5 5:5 7:5
3:0 7:10 3:15 5:5 7:10 5:5 3:5 7:5 5:5 7:5 5:5
7:0 3:15 5:5 7:10 5:5 3:5 7:5 5:5 7:5 5:5 7:5
3:0 5:5 7:10 5:5 3:5 7:5 5:5 7:5 5:5 7:5 3:5
5:0 7:10 5:5 3:5 7:5 5:5 7:5 5:5 7:5 3:5 7:5
7:0 5:5 3:5 7:5 5:5 7:5 5:5 7:5 3:5 7:5 3:10
5:0 3:5 7:5 5:5 7:5 5:5 7:5 3:5 7:5 3:10 7:5
3:0 7:5 5:5 7:5 5:5 7:5 3:5 7:5 3:10 7:5 5:5
7:0 5:5 7:5 5:5 7:5 3:5 7:5 3:10 7:5 5:5 7:10
5:0 7:5 5:5 7:5 3:5 7:5 3:10 7:5 5:5 7:10 3:5
7:0 5:5 7:5 3:5 7:5 3:10 7:5 5:5 7:10 3:5 5:5
5:0 7:5 3:5 7:5 3:10 7:5 5:5 7:10 3:5 5:5 7:5
7:0 3:5 7:5 3:10 7:5 5:5 7:10 3:5 5:5 7:5 5:5
3:0 7:5 3:10 7:5 5:5 7:10 3:5 5:5 7:5 5:5 7:5
7:0 3:10 7:5 5:5 7:10 3:5 5:5 7:5 5:5 7:5 5:5
3:0 7:5 5:5 7:10 3:5 5:5 7:5 5:5 7:5 5:5 3:10
7:0 5:5 7:10 3:5 5:5 7:5 5:5 7:5 5:5 3:10 7:5
5:0 7:10 3:5 5:5 7:5 5:5 7:5 5:5 3:10 7:5 3:5
7:0 3:5 5:5 7:5 5:5 7:5 5:5 3:10 7:5 3:5 7:10
3:0 5:5 7:5 5:5 7:5 5:5 3:10 7:5 3:5 7:10 3:15
5:0 7:5 5:5 7:5 5:5 3:10 7:5 3:5 7:10 3:15 5:5
7:0 5:5 7:5 5:5 3:10 7:5 3:5 7:10 3:15 5:5 7:5
5:0 7:5 5:5 3:10 7:5 3:5 7:10 3:15 5:5 7:5 5:5
7:0 5:5 3:10 7:5 3:5 7:10 3:15 5:5 7:5 5:5 7:5
5:0 3:10 7:5 3:5 7:10 3:15 5:5 7:5 5:5 7:5
3:0 7:5 3:5 7:10 3:15 5:5 7:5 5:5 7:5
7:0 3:5 7:10 3:15 5:5 7:5 5:5 7:5
3:0 7:10 3:15 5:5 7:5 5:5 7:5
7:0 3:15 5:5 7:5 5:5 7:5
3:0 5:5 7:5 5:5 7:5
5:0 7:5 5:5 7:5
7:0 5:5 7:5
5:0 7:5
7:0