5:0 6:5 5:5 7:10 6:10 11:10 20:5 19:5 5:10 8:15 18:10
6:0 5:5 7:10 6:10 11:10 20:5 19:5 5:10 8:15 18:10 19:5
5:0 7:10 6:10 11:10 20:5 19:5 5:10 8:15 18:10 19:5 5:5
7:0 6:10 11:10 20:5 19:5 5:10 8:15 18:10 19:5 5:5 6:5
6:0 11:10 20:5 19:5 5:10 8:15 18:10 19:5 5:5 6:5 5:5
11:0 20:5 19:5 5:10 8:15 18:10 19:5 5:5 6:5 5:5 6:5
20:0 19:5 5:10 8:15 18:10 19:5 5:5 6:5 5:5 6:5 7:5
19:0 5:10 8:15 18:10 19:5 5:5 6:5 5:5 6:5 7:5 6:10
5:0 8:15 18:10 19:5 5:5 6:5 5:5 6:5 7:5 6:10 14:10
8:0 18:10 19:5 5:5 6:5 5:5 6:5 7:5 6:10 14:10 20:5
18:0 19:5 5:5 6:5 5:5 6:5 7:5 6:10 14:10 20:5 19:10
19:0 5:5 6:5 5:5 6:5 7:5 6:10 14:10 20:5 19:10 11:5
5:0 6:5 5:5 6:5 7:5 6:10 14:10 20:5 19:10 11:5 4:5
6:0 5:5 6:5 7:5 6:10 14:10 20:5 19:10 11:5 4:5 6:10
5:0 6:5 7:5 6:10 14:10 20:5 19:10 11:5 4:5 6:10 7:5
6:0 7:5 6:10 14:10 20:5 19:10 11:5 4:5 6:10 7:5 6:10
7:0 6:10 14:10 20:5 19:10 11:5 4:5 6:10 7:5 6:10 5:5
6:0 14:10 20:5 19:10 11:5 4:5 6:10 7:5 6:10 5:5 7:5
14:0 20:5 19:10 11:5 4:5 6:10 7:5 6:10 5:5 7:5 14:5
20:0 19:10 11:5 4:5 6:10 7:5 6:10 5:5 7:5 14:5 20:5
19:0 11:5 4:5 6:10 7:5 6:10 5:5 7:5 14:5 20:5 19:5
11:0 4:5 6:10 7:5 6:10 5:5 7:5 14:5 20:5 19:5 8:5
4:0 6:10 7:5 6:10 5:5 7:5 14:5 20:5 19:5 8:5 6:5
6:0 7:5 6:10 5:5 7:5 14:5 20:5 19:5 8:5 6:5 5:5
7:0 6:10 5:5 7:5 14:5 20:5 19:5 8:5 6:5 5:5 8:5
6:0 5:5 7:5 14:5 20:5 19:5 8:5 6:5 5:5 8:5 18:5
5:0 7:5 14:5 20:5 19:5 8:5 6:5 5:5 8:5 18:5 19:5
7:0 14:5 20:5 19:5 8:5 6:5 5:5 8:5 18:5 19:5 18:5
14:0 20:5 19:5 8:5 6:5 5:5 8:5 18:5 19:5 18:5 4:5
20:0 19:5 8:5 6:5 5:5 8:5 18:5 19:5 18:5 4:5 5:5
19:0 8:5 6:5 5:5 8:5 18:5 19:5 18:5 4:5 5:5 6:10
8:0 6:5 5:5 8:5 18:5 19:5 18:5 4:5 5:5 6:10 8:5
6:0 5:5 8:5 18:5 19:5 18:5 4:5 5:5 6:10 8:5 14:5
5:0 8:5 18:5 19:5 18:5 4:5 5:5 6:10 8:5 14:5 19:5
8:0 18:5 19:5 18:5 4:5 5:5 6:10 8:5 14:5 19:5 11:5
18:0 19:5 18:5 4:5 5:5 6:10 8:5 14:5 19:5 11:5 6:5
19:0 18:5 4:5 5:5 6:10 8:5 14:5 19:5 11:5 6:5 5:5
18:0 4:5 5:5 6:10 8:5 14:5 19:5 11:5 6:5 5:5 7:10
4:0 5:5 6:10 8:5 14:5 19:5 11:5 6:5 5:5 7:10 10:10
5:0 6:10 8:5 14:5 19:5 11:5 6:5 5:5 7:10 10:10 20:5
6:0 8:5 14:5 19:5 11:5 6:5 5:5 7:10 10:10 20:5 19:5
8:0 14:5 19:5 11:5 6:5 5:5 7:10 10:10 20:5 19:5 18:5
14:0 19:5 11:5 6:5 5:5 7:10 10:10 20:5 19:5 18:5 5:5
19:0 11:5 6:5 5:5 7:10 10:10 20:5 19:5 18:5 5:5 6:5
11:0 6:5 5:5 7:10 10:10 20:5 19:5 18:5 5:5 6:5 5:5
6:0 5:5 7:10 10:10 20:5 19:5 18:5 5:5 6:5 5:5 6:5
5:0 7:10 10:10 20:5 19:5 18:5 5:5 6:5 5:5 6:5 7:5
7:0 10:10 20:5 19:5 18:5 5:5 6:5 5:5 6:5 7:5 6:15
10:0 20:5 19:5 18:5 5:5 6:5 5:5 6:5 7:5 6:15 14:5
20:0 19:5 18:5 5:5 6:5 5:5 6:5 7:5 6:15 14:5 20:5
19:0 18:5 5:5 6:5 5:5 6:5 7:5 6:15 14:5 20:5 19:5
18:0 5:5 6:5 5:5 6:5 7:5 6:15 14:5 20:5 19:5 8:10
5:0 6:5 5:5 6:5 7:5 6:15 14:5 20:5 19:5 8:10 5:5
6:0 5:5 6:5 7:5 6:15 14:5 20:5 19:5 8:10 5:5 6:10
5:0 6:5 7:5 6:15 14:5 20:5 19:5 8:10 5:5 6:10 8:5
6:0 7:5 6:15 14:5 20:5 19:5 8:10 5:5 6:10 8:5 7:5
7:0 6:15 14:5 20:5 19:5 8:10 5:5 6:10 8:5 7:5 6:5
6:0 14:5 20:5 19:5 8:10 5:5 6:10 8:5 7:5 6:5 12:10
14:0 20:5 19:5 8:10 5:5 6:10 8:5 7:5 6:5 12:10 20:5
20:0 19:5 8:10 5:5 6:10 8:5 7:5 6:5 12:10 20:5 19:5
19:0 8:10 5:5 6:10 8:5 7:5 6:5 12:10 20:5 19:5 5:10
8:0 5:5 6:10 8:5 7:5 6:5 12:10 20:5 19:5 5:10 6:5
5:0 6:10 8:5 7:5 6:5 12:10 20:5 19:5 5:10 6:5 5:5
6:0 8:5 7:5 6:5 12:10 20:5 19:5 5:10 6:5 5:5 7:5
8:0 7:5 6:5 12:10 20:5 19:5 5:10 6:5 5:5 7:5 6:10
7:0 6:5 12:10 20:5 19:5 5:10 6:5 5:5 7:5 6:10 18:5
6:0 12:10 20:5 19:5 5:10 6:5 5:5 7:5 6:10 18:5 19:5
12:0 20:5 19:5 5:10 6:5 5:5 7:5 6:10 18:5 19:5 15:5
20:0 19:5 5:10 6:5 5:5 7:5 6:10 18:5 19:5 15:5 4:5
19:0 5:10 6:5 5:5 7:5 6:10 18:5 19:5 15:5 4:5 6:5
5:0 6:5 5:5 7:5 6:10 18:5 19:5 15:5 4:5 6:5 7:5
6:0 5:5 7:5 6:10 18:5 19:5 15:5 4:5 6:5 7:5 15:5
5:0 7:5 6:10 18:5 19:5 15:5 4:5 6:5 7:5 15:5 19:5
7:0 6:10 18:5 19:5 15:5 4:5 6:5 7:5 15:5 19:5 11:5
6:0 18:5 19:5 15:5 4:5 6:5 7:5 15:5 19:5 11:5 5:5
18:0 19:5 15:5 4:5 6:5 7:5 15:5 19:5 11:5 5:5 6:15
19:0 15:5 4:5 6:5 7:5 15:5 19:5 11:5 5:5 6:15 7:5
15:0 4:5 6:5 7:5 15:5 19:5 11:5 5:5 6:15 7:5 6:10
4:0 6:5 7:5 15:5 19:5 11:5 5:5 6:15 7:5 6:10 14:10
6:0 7:5 15:5 19:5 11:5 5:5 6:15 7:5 6:10 14:10 20:5
7:0 15:5 19:5 11:5 5:5 6:15 7:5 6:10 14:10 20:5 19:5
15:0 19:5 11:5 5:5 6:15 7:5 6:10 14:10 20:5 19:5 18:5
19:0 11:5 5:5 6:15 7:5 6:10 14:10 20:5 19:5 18:5 5:5
11:0 5:5 6:15 7:5 6:10 14:10 20:5 19:5 18:5 5:5 8:15
5:0 6:15 7:5 6:10 14:10 20:5 19:5 18:5 5:5 8:15 7:5
6:0 7:5 6:10 14:10 20:5 19:5 18:5 5:5 8:15 7:5 6:5
7:0 6:10 14:10 20:5 19:5 18:5 5:5 8:15 7:5 6:5 7:10
6:0 14:10 20:5 19:5 18:5 5:5 8:15 7:5 6:5 7:10 19:5
14:0 20:5 19:5 18:5 5:5 8:15 7:5 6:5 7:10 19:5 20:5
20:0 19:5 18:5 5:5 8:15 7:5 6:5 7:10 19:5 20:5 19:5
19:0 18:5 5:5 8:15 7:5 6:5 7:10 19:5 20:5 19:5 11:5
18:0 5:5 8:15 7:5 6:5 7:10 19:5 20:5 19:5 11:5 6:5
5:0 8:15 7:5 6:5 7:10 19:5 20:5 19:5 11:5 6:5 7:5
8:0 7:5 6:5 7:10 19:5 20:5 19:5 11:5 6:5 7:5 5:10
7:0 6:5 7:10 19:5 20:5 19:5 11:5 6:5 7:5 5:10 6:10
6:0 7:10 19:5 20:5 19:5 11:5 6:5 7:5 5:10 6:10 8:5
7:0 19:5 20:5 19:5 11:5 6:5 7:5 5:10 6:10 8:5 20:5
19:0 20:5 19:5 11:5 6:5 7:5 5:10 6:10 8:5 20:5 19:5
20:0 19:5 11:5 6:5 7:5 5:10 6:10 8:5 20:5 19:5 8:5
19:0 11:5 6:5 7:5 5:10 6:10 8:5 20:5 19:5 8:5 6:5
11:0 6:5 7:5 5:10 6:10 8:5 20:5 19:5 8:5 6:5 8:10
6:0 7:5 5:10 6:10 8:5 20:5 19:5 8:5 6:5 8:10 6:5
7:0 5:10 6:10 8:5 20:5 19:5 8:5 6:5 8:10 6:5 7:10
5:0 6:10 8:5 20:5 19:5 8:5 6:5 8:10 6:5 7:10 19:5
6:0 8:5 20:5 19:5 8:5 6:5 8:10 6:5 7:10 19:5 18:10
8:0 20:5 19:5 8:5 6:5 8:10 6:5 7:10 19:5 18:10 5:5
20:0 19:5 8:5 6:5 8:10 6:5 7:10 19:5 18:10 5:5 6:15
19:0 8:5 6:5 8:10 6:5 7:10 19:5 18:10 5:5 6:15 7:5
8:0 6:5 8:10 6:5 7:10 19:5 18:10 5:5 6:15 7:5 6:10
6:0 8:10 6:5 7:10 19:5 18:10 5:5 6:15 7:5 6:10 14:10
8:0 6:5 7:10 19:5 18:10 5:5 6:15 7:5 6:10 14:10 20:5
6:0 7:10 19:5 18:10 5:5 6:15 7:5 6:10 14:10 20:5 19:5
7:0 19:5 18:10 5:5 6:15 7:5 6:10 14:10 20:5 19:5 18:5
19:0 18:10 5:5 6:15 7:5 6:10 14:10 20:5 19:5 18:5 5:5
18:0 5:5 6:15 7:5 6:10 14:10 20:5 19:5 18:5 5:5 9:15
5:0 6:15 7:5 6:10 14:10 20:5 19:5 18:5 5:5 9:15 17:5
6:0 7:5 6:10 14:10 20:5 19:5 18:5 5:5 9:15 17:5 19:5
7:0 6:10 14:10 20:5 19:5 18:5 5:5 9:15 17:5 19:5 15:5
6:0 14:10 20:5 19:5 18:5 5:5 9:15 17:5 19:5 15:5 5:5
14:0 20:5 19:5 18:5 5:5 9:15 17:5 19:5 15:5 5:5 6:20
20:0 19:5 18:5 5:5 9:15 17:5 19:5 15:5 5:5 6:20 8:5
19:0 18:5 5:5 9:15 17:5 19:5 15:5 5:5 6:20 8:5 6:5
18:0 5:5 9:15 17:5 19:5 15:5 5:5 6:20 8:5 6:5 7:10
5:0 9:15 17:5 19:5 15:5 5:5 6:20 8:5 6:5 7:10 19:5
9:0 17:5 19:5 15:5 5:5 6:20 8:5 6:5 7:10 19:5 8:15
17:0 19:5 15:5 5:5 6:20 8:5 6:5 7:10 19:5 8:15 5:5
19:0 15:5 5:5 6:20 8:5 6:5 7:10 19:5 8:15 5:5 7:10
15:0 5:5 6:20 8:5 6:5 7:10 19:5 8:15 5:5 7:10 8:5
5:0 6:20 8:5 6:5 7:10 19:5 8:15 5:5 7:10 8:5 18:5
6:0 8:5 6:5 7:10 19:5 8:15 5:5 7:10 8:5 18:5 19:5
8:0 6:5 7:10 19:5 8:15 5:5 7:10 8:5 18:5 19:5 5:5
6:0 7:10 19:5 8:15 5:5 7:10 8:5 18:5 19:5 5:5 6:10
7:0 19:5 8:15 5:5 7:10 8:5 18:5 19:5 5:5 6:10 8:5
19:0 8:15 5:5 7:10 8:5 18:5 19:5 5:5 6:10 8:5 6:5
8:0 5:5 7:10 8:5 18:5 19:5 5:5 6:10 8:5 6:5 8:15
5:0 7:10 8:5 18:5 19:5 5:5 6:10 8:5 6:5 8:15 20:5
7:0 8:5 18:5 19:5 5:5 6:10 8:5 6:5 8:15 20:5 19:5
8:0 18:5 19:5 5:5 6:10 8:5 6:5 8:15 20:5 19:5 13:5
18:0 19:5 5:5 6:10 8:5 6:5 8:15 20:5 19:5 13:5 6:5
19:0 5:5 6:10 8:5 6:5 8:15 20:5 19:5 13:5 6:5 7:5
5:0 6:10 8:5 6:5 8:15 20:5 19:5 13:5 6:5 7:5 6:5
6:0 8:5 6:5 8:15 20:5 19:5 13:5 6:5 7:5 6:5 5:5
8:0 6:5 8:15 20:5 19:5 13:5 6:5 7:5 6:5 5:5 6:5
6:0 8:15 20:5 19:5 13:5 6:5 7:5 6:5 5:5 6:5 8:5
8:0 20:5 19:5 13:5 6:5 7:5 6:5 5:5 6:5 8:5 20:5
20:0 19:5 13:5 6:5 7:5 6:5 5:5 6:5 8:5 20:5 19:5
19:0 13:5 6:5 7:5 6:5 5:5 6:5 8:5 20:5 19:5 15:5
13:0 6:5 7:5 6:5 5:5 6:5 8:5 20:5 19:5 15:5 6:5
6:0 7:5 6:5 5:5 6:5 8:5 20:5 19:5 15:5 6:5 5:5
7:0 6:5 5:5 6:5 8:5 20:5 19:5 15:5 6:5 5:5 6:10
6:0 5:5 6:5 8:5 20:5 19:5 15:5 6:5 5:5 6:10 7:5
5:0 6:5 8:5 20:5 19:5 15:5 6:5 5:5 6:10 7:5 6:10
6:0 8:5 20:5 19:5 15:5 6:5 5:5 6:10 7:5 6:10 7:5
8:0 20:5 19:5 15:5 6:5 5:5 6:10 7:5 6:10 7:5 17:5
20:0 19:5 15:5 6:5 5:5 6:10 7:5 6:10 7:5 17:5 20:5
19:0 15:5 6:5 5:5 6:10 7:5 6:10 7:5 17:5 20:5 19:5
15:0 6:5 5:5 6:10 7:5 6:10 7:5 17:5 20:5 19:5 12:5
6:0 5:5 6:10 7:5 6:10 7:5 17:5 20:5 19:5 12:5 5:5
5:0 6:10 7:5 6:10 7:5 17:5 20:5 19:5 12:5 5:5 6:10
6:0 7:5 6:10 7:5 17:5 20:5 19:5 12:5 5:5 6:10 8:5
7:0 6:10 7:5 17:5 20:5 19:5 12:5 5:5 6:10 8:5 17:5
6:0 7:5 17:5 20:5 19:5 12:5 5:5 6:10 8:5 17:5 19:5
7:0 17:5 20:5 19:5 12:5 5:5 6:10 8:5 17:5 19:5 11:5
17:0 20:5 19:5 12:5 5:5 6:10 8:5 17:5 19:5 11:5 6:5
20:0 19:5 12:5 5:5 6:10 8:5 17:5 19:5 11:5 6:5 8:10
19:0 12:5 5:5 6:10 8:5 17:5 19:5 11:5 6:5 8:10 5:5
12:0 5:5 6:10 8:5 17:5 19:5 11:5 6:5 8:10 5:5 8:10
5:0 6:10 8:5 17:5 19:5 11:5 6:5 8:10 5:5 8:10 19:5
6:0 8:5 17:5 19:5 11:5 6:5 8:10 5:5 8:10 19:5 17:10
8:0 17:5 19:5 11:5 6:5 8:10 5:5 8:10 19:5 17:10 5:5
17:0 19:5 11:5 6:5 8:10 5:5 8:10 19:5 17:10 5:5 6:5
19:0 11:5 6:5 8:10 5:5 8:10 19:5 17:10 5:5 6:5 5:5
11:0 6:5 8:10 5:5 8:10 19:5 17:10 5:5 6:5 5:5 7:10
6:0 8:10 5:5 8:10 19:5 17:10 5:5 6:5 5:5 7:10 6:15
8:0 5:5 8:10 19:5 17:10 5:5 6:5 5:5 7:10 6:15 14:5
5:0 8:10 19:5 17:10 5:5 6:5 5:5 7:10 6:15 14:5 20:5
8:0 19:5 17:10 5:5 6:5 5:5 7:10 6:15 14:5 20:5 19:5
19:0 17:10 5:5 6:5 5:5 7:10 6:15 14:5 20:5 19:5 5:10
17:0 5:5 6:5 5:5 7:10 6:15 14:5 20:5 19:5 5:10 4:10
5:0 6:5 5:5 7:10 6:15 14:5 20:5 19:5 5:10 4:10 6:5
6:0 5:5 7:10 6:15 14:5 20:5 19:5 5:10 4:10 6:5 7:5
5:0 7:10 6:15 14:5 20:5 19:5 5:10 4:10 6:5 7:5 14:5
7:0 6:15 14:5 20:5 19:5 5:10 4:10 6:5 7:5 14:5 19:5
6:0 14:5 20:5 19:5 5:10 4:10 6:5 7:5 14:5 19:5 12:5
14:0 20:5 19:5 5:10 4:10 6:5 7:5 14:5 19:5 12:5 6:5
20:0 19:5 5:10 4:10 6:5 7:5 14:5 19:5 12:5 6:5 5:5
19:0 5:10 4:10 6:5 7:5 14:5 19:5 12:5 6:5 5:5 8:5
5:0 4:10 6:5 7:5 14:5 19:5 12:5 6:5 5:5 8:5 17:5
4:0 6:5 7:5 14:5 19:5 12:5 6:5 5:5 8:5 17:5 19:5
6:0 7:5 14:5 19:5 12:5 6:5 5:5 8:5 17:5 19:5 18:5
7:0 14:5 19:5 12:5 6:5 5:5 8:5 17:5 19:5 18:5 5:5
14:0 19:5 12:5 6:5 5:5 8:5 17:5 19:5 18:5 5:5 4:10
19:0 12:5 6:5 5:5 8:5 17:5 19:5 18:5 5:5 4:10 6:5
12:0 6:5 5:5 8:5 17:5 19:5 18:5 5:5 4:10 6:5 9:5
6:0 5:5 8:5 17:5 19:5 18:5 5:5 4:10 6:5 9:5 17:5
5:0 8:5 17:5 19:5 18:5 5:5 4:10 6:5 9:5 17:5 19:5
8:0 17:5 19:5 18:5 5:5 4:10 6:5 9:5 17:5 19:5 11:5
17:0 19:5 18:5 5:5 4:10 6:5 9:5 17:5 19:5 11:5 5:5
19:0 18:5 5:5 4:10 6:5 9:5 17:5 19:5 11:5 5:5 7:20
18:0 5:5 4:10 6:5 9:5 17:5 19:5 11:5 5:5 7:20 6:10
5:0 4:10 6:5 9:5 17:5 19:5 11:5 5:5 7:20 6:10 14:10
4:0 6:5 9:5 17:5 19:5 11:5 5:5 7:20 6:10 14:10 20:5
6:0 9:5 17:5 19:5 11:5 5:5 7:20 6:10 14:10 20:5 19:5
9:0 17:5 19:5 11:5 5:5 7:20 6:10 14:10 20:5 19:5 18:5
17:0 19:5 11:5 5:5 7:20 6:10 14:10 20:5 19:5 18:5 5:5
19:0 11:5 5:5 7:20 6:10 14:10 20:5 19:5 18:5 5:5 7:15
11:0 5:5 7:20 6:10 14:10 20:5 19:5 18:5 5:5 7:15 8:5
5:0 7:20 6:10 14:10 20:5 19:5 18:5 5:5 7:15 8:5 6:5
7:0 6:10 14:10 20:5 19:5 18:5 5:5 7:15 8:5 6:5 5:5
6:0 14:10 20:5 19:5 18:5 5:5 7:15 8:5 6:5 5:5 6:5
14:0 20:5 19:5 18:5 5:5 7:15 8:5 6:5 5:5 6:5 15:5
20:0 19:5 18:5 5:5 7:15 8:5 6:5 5:5 6:5 15:5 20:5
19:0 18:5 5:5 7:15 8:5 6:5 5:5 6:5 15:5 20:5 19:5
18:0 5:5 7:15 8:5 6:5 5:5 6:5 15:5 20:5 19:5 15:5
5:0 7:15 8:5 6:5 5:5 6:5 15:5 20:5 19:5 15:5 5:5
7:0 8:5 6:5 5:5 6:5 15:5 20:5 19:5 15:5 5:5 7:10
8:0 6:5 5:5 6:5 15:5 20:5 19:5 15:5 5:5 7:10 6:5
6:0 5:5 6:5 15:5 20:5 19:5 15:5 5:5 7:10 6:5 5:5
5:0 6:5 15:5 20:5 19:5 15:5 5:5 7:10 6:5 5:5 7:5
6:0 15:5 20:5 19:5 15:5 5:5 7:10 6:5 5:5 7:5 19:5
15:0 20:5 19:5 15:5 5:5 7:10 6:5 5:5 7:5 19:5 20:5
20:0 19:5 15:5 5:5 7:10 6:5 5:5 7:5 19:5 20:5 19:5
19:0 15:5 5:5 7:10 6:5 5:5 7:5 19:5 20:5 19:5 4:5
15:0 5:5 7:10 6:5 5:5 7:5 19:5 20:5 19:5 4:5 6:5
5:0 7:10 6:5 5:5 7:5 19:5 20:5 19:5 4:5 6:5 5:5
7:0 6:5 5:5 7:5 19:5 20:5 19:5 4:5 6:5 5:5 6:5
6:0 5:5 7:5 19:5 20:5 19:5 4:5 6:5 5:5 6:5 7:5
5:0 7:5 19:5 20:5 19:5 4:5 6:5 5:5 6:5 7:5 6:5
7:0 19:5 20:5 19:5 4:5 6:5 5:5 6:5 7:5 6:5 7:5
19:0 20:5 19:5 4:5 6:5 5:5 6:5 7:5 6:5 7:5 6:5
20:0 19:5 4:5 6:5 5:5 6:5 7:5 6:5 7:5 6:5 14:5
19:0 4:5 6:5 5:5 6:5 7:5 6:5 7:5 6:5 14:5 20:5
4:0 6:5 5:5 6:5 7:5 6:5 7:5 6:5 14:5 20:5 19:5
6:0 5:5 6:5 7:5 6:5 7:5 6:5 14:5 20:5 19:5 5:10
5:0 6:5 7:5 6:5 7:5 6:5 14:5 20:5 19:5 5:10 4:10
6:0 7:5 6:5 7:5 6:5 14:5 20:5 19:5 5:10 4:10 6:5
7:0 6:5 7:5 6:5 14:5 20:5 19:5 5:10 4:10 6:5 8:5
6:0 7:5 6:5 14:5 20:5 19:5 5:10 4:10 6:5 8:5 7:5
7:0 6:5 14:5 20:5 19:5 5:10 4:10 6:5 8:5 7:5 6:5
6:0 14:5 20:5 19:5 5:10 4:10 6:5 8:5 7:5 6:5 7:10
14:0 20:5 19:5 5:10 4:10 6:5 8:5 7:5 6:5 7:10 19:5
20:0 19:5 5:10 4:10 6:5 8:5 7:5 6:5 7:10 19:5 20:5
19:0 5:10 4:10 6:5 8:5 7:5 6:5 7:10 19:5 20:5 19:5
5:0 4:10 6:5 8:5 7:5 6:5 7:10 19:5 20:5 19:5 11:5
4:0 6:5 8:5 7:5 6:5 7:10 19:5 20:5 19:5 11:5 6:5
6:0 8:5 7:5 6:5 7:10 19:5 20:5 19:5 11:5 6:5 5:5
8:0 7:5 6:5 7:10 19:5 20:5 19:5 11:5 6:5 5:5 6:5
7:0 6:5 7:10 19:5 20:5 19:5 11:5 6:5 5:5 6:5 7:5
6:0 7:10 19:5 20:5 19:5 11:5 6:5 5:5 6:5 7:5 8:5
7:0 19:5 20:5 19:5 11:5 6:5 5:5 6:5 7:5 8:5 17:5
19:0 20:5 19:5 11:5 6:5 5:5 6:5 7:5 8:5 17:5 19:5
20:0 19:5 11:5 6:5 5:5 6:5 7:5 8:5 17:5 19:5 18:5
19:0 11:5 6:5 5:5 6:5 7:5 8:5 17:5 19:5 18:5 4:5
11:0 6:5 5:5 6:5 7:5 8:5 17:5 19:5 18:5 4:5 5:5
6:0 5:5 6:5 7:5 8:5 17:5 19:5 18:5 4:5 5:5 6:5
5:0 6:5 7:5 8:5 17:5 19:5 18:5 4:5 5:5 6:5 7:5
6:0 7:5 8:5 17:5 19:5 18:5 4:5 5:5 6:5 7:5 6:5
7:0 8:5 17:5 19:5 18:5 4:5 5:5 6:5 7:5 6:5 5:5
8:0 17:5 19:5 18:5 4:5 5:5 6:5 7:5 6:5 5:5 6:5
17:0 19:5 18:5 4:5 5:5 6:5 7:5 6:5 5:5 6:5 8:5
19:0 18:5 4:5 5:5 6:5 7:5 6:5 5:5 6:5 8:5 18:5
18:0 4:5 5:5 6:5 7:5 6:5 5:5 6:5 8:5 18:5 19:5
4:0 5:5 6:5 7:5 6:5 5:5 6:5 8:5 18:5 19:5 11:5
5:0 6:5 7:5 6:5 5:5 6:5 8:5 18:5 19:5 11:5 5:5
6:0 7:5 6:5 5:5 6:5 8:5 18:5 19:5 11:5 5:5 7:15
7:0 6:5 5:5 6:5 8:5 18:5 19:5 11:5 5:5 7:15 6:15
6:0 5:5 6:5 8:5 18:5 19:5 11:5 5:5 7:15 6:15 17:10
5:0 6:5 8:5 18:5 19:5 11:5 5:5 7:15 6:15 17:10 20:5
6:0 8:5 18:5 19:5 11:5 5:5 7:15 6:15 17:10 20:5 18:10
8:0 18:5 19:5 11:5 5:5 7:15 6:15 17:10 20:5 18:10 5:5
18:0 19:5 11:5 5:5 7:15 6:15 17:10 20:5 18:10 5:5 7:15
19:0 11:5 5:5 7:15 6:15 17:10 20:5 18:10 5:5 7:15 8:5
11:0 5:5 7:15 6:15 17:10 20:5 18:10 5:5 7:15 8:5 19:5
5:0 7:15 6:15 17:10 20:5 18:10 5:5 7:15 8:5 19:5 18:5
7:0 6:15 17:10 20:5 18:10 5:5 7:15 8:5 19:5 18:5 6:5
6:0 17:10 20:5 18:10 5:5 7:15 8:5 19:5 18:5 6:5 7:5
17:0 20:5 18:10 5:5 7:15 8:5 19:5 18:5 6:5 7:5 5:10
20:0 18:10 5:5 7:15 8:5 19:5 18:5 6:5 7:5 5:10 6:10
18:0 5:5 7:15 8:5 19:5 18:5 6:5 7:5 5:10 6:10 11:5
5:0 7:15 8:5 19:5 18:5 6:5 7:5 5:10 6:10 11:5 20:5
7:0 8:5 19:5 18:5 6:5 7:5 5:10 6:10 11:5 20:5 19:5
8:0 19:5 18:5 6:5 7:5 5:10 6:10 11:5 20:5 19:5 8:5
19:0 18:5 6:5 7:5 5:10 6:10 11:5 20:5 19:5 8:5 6:5
18:0 6:5 7:5 5:10 6:10 11:5 20:5 19:5 8:5 6:5 5:5
6:0 7:5 5:10 6:10 11:5 20:5 19:5 8:5 6:5 5:5 6:10
7:0 5:10 6:10 11:5 20:5 19:5 8:5 6:5 5:5 6:10 8:5
5:0 6:10 11:5 20:5 19:5 8:5 6:5 5:5 6:10 8:5 7:5
6:0 11:5 20:5 19:5 8:5 6:5 5:5 6:10 8:5 7:5 6:5
11:0 20:5 19:5 8:5 6:5 5:5 6:10 8:5 7:5 6:5 7:5
20:0 19:5 8:5 6:5 5:5 6:10 8:5 7:5 6:5 7:5 20:5
19:0 8:5 6:5 5:5 6:10 8:5 7:5 6:5 7:5 20:5 19:5
8:0 6:5 5:5 6:10 8:5 7:5 6:5 7:5 20:5 19:5 12:10
6:0 5:5 6:10 8:5 7:5 6:5 7:5 20:5 19:5 12:10 5:5
5:0 6:10 8:5 7:5 6:5 7:5 20:5 19:5 12:10 5:5 4:5
6:0 8:5 7:5 6:5 7:5 20:5 19:5 12:10 5:5 4:5 6:5
8:0 7:5 6:5 7:5 20:5 19:5 12:10 5:5 4:5 6:5 8:5
7:0 6:5 7:5 20:5 19:5 12:10 5:5 4:5 6:5 8:5 7:5
6:0 7:5 20:5 19:5 12:10 5:5 4:5 6:5 8:5 7:5 6:5
7:0 20:5 19:5 12:10 5:5 4:5 6:5 8:5 7:5 6:5 5:5
20:0 19:5 12:10 5:5 4:5 6:5 8:5 7:5 6:5 5:5 7:5
19:0 12:10 5:5 4:5 6:5 8:5 7:5 6:5 5:5 7:5 19:5
12:0 5:5 4:5 6:5 8:5 7:5 6:5 5:5 7:5 19:5 20:5
5:0 4:5 6:5 8:5 7:5 6:5 5:5 7:5 19:5 20:5 19:5
4:0 6:5 8:5 7:5 6:5 5:5 7:5 19:5 20:5 19:5 8:5
6:0 8:5 7:5 6:5 5:5 7:5 19:5 20:5 19:5 8:5 6:5
8:0 7:5 6:5 5:5 7:5 19:5 20:5 19:5 8:5 6:5 7:5
7:0 6:5 5:5 7:5 19:5 20:5 19:5 8:5 6:5 7:5 6:5
6:0 5:5 7:5 19:5 20:5 19:5 8:5 6:5 7:5 6:5 5:5
5:0 7:5 19:5 20:5 19:5 8:5 6:5 7:5 6:5 5:5 6:5
7:0 19:5 20:5 19:5 8:5 6:5 7:5 6:5 5:5 6:5 7:5
19:0 20:5 19:5 8:5 6:5 7:5 6:5 5:5 6:5 7:5 14:5
20:0 19:5 8:5 6:5 7:5 6:5 5:5 6:5 7:5 14:5 20:5
19:0 8:5 6:5 7:5 6:5 5:5 6:5 7:5 14:5 20:5 19:5
8:0 6:5 7:5 6:5 5:5 6:5 7:5 14:5 20:5 19:5 5:5
6:0 7:5 6:5 5:5 6:5 7:5 14:5 20:5 19:5 5:5 6:5
7:0 6:5 5:5 6:5 7:5 14:5 20:5 19:5 5:5 6:5 5:5
6:0 5:5 6:5 7:5 14:5 20:5 19:5 5:5 6:5 5:5 7:10
5:0 6:5 7:5 14:5 20:5 19:5 5:5 6:5 5:5 7:10 6:10
6:0 7:5 14:5 20:5 19:5 5:5 6:5 5:5 7:10 6:10 14:10
7:0 14:5 20:5 19:5 5:5 6:5 5:5 7:10 6:10 14:10 20:5
14:0 20:5 19:5 5:5 6:5 5:5 7:10 6:10 14:10 20:5 19:10
20:0 19:5 5:5 6:5 5:5 7:10 6:10 14:10 20:5 19:10 8:5
19:0 5:5 6:5 5:5 7:10 6:10 14:10 20:5 19:10 8:5 5:5
5:0 6:5 5:5 7:10 6:10 14:10 20:5 19:10 8:5 5:5 7:10
6:0 5:5 7:10 6:10 14:10 20:5 19:10 8:5 5:5 7:10 8:5
5:0 7:10 6:10 14:10 20:5 19:10 8:5 5:5 7:10 8:5 18:5
7:0 6:10 14:10 20:5 19:10 8:5 5:5 7:10 8:5 18:5 19:5
6:0 14:10 20:5 19:10 8:5 5:5 7:10 8:5 18:5 19:5 5:5
14:0 20:5 19:10 8:5 5:5 7:10 8:5 18:5 19:5 5:5 6:5
20:0 19:10 8:5 5:5 7:10 8:5 18:5 19:5 5:5 6:5 5:5
19:0 8:5 5:5 7:10 8:5 18:5 19:5 5:5 6:5 5:5 6:5
8:0 5:5 7:10 8:5 18:5 19:5 5:5 6:5 5:5 6:5 7:5
5:0 7:10 8:5 18:5 19:5 5:5 6:5 5:5 6:5 7:5 16:10
7:0 8:5 18:5 19:5 5:5 6:5 5:5 6:5 7:5 16:10 19:5
8:0 18:5 19:5 5:5 6:5 5:5 6:5 7:5 16:10 19:5 15:5
18:0 19:5 5:5 6:5 5:5 6:5 7:5 16:10 19:5 15:5 4:5
19:0 5:5 6:5 5:5 6:5 7:5 16:10 19:5 15:5 4:5 6:5
5:0 6:5 5:5 6:5 7:5 16:10 19:5 15:5 4:5 6:5 7:5
6:0 5:5 6:5 7:5 16:10 19:5 15:5 4:5 6:5 7:5 8:5
5:0 6:5 7:5 16:10 19:5 15:5 4:5 6:5 7:5 8:5 6:5
6:0 7:5 16:10 19:5 15:5 4:5 6:5 7:5 8:5 6:5 5:5
7:0 16:10 19:5 15:5 4:5 6:5 7:5 8:5 6:5 5:5 6:5
16:0 19:5 15:5 4:5 6:5 7:5 8:5 6:5 5:5 6:5 17:5
19:0 15:5 4:5 6:5 7:5 8:5 6:5 5:5 6:5 17:5 20:5
15:0 4:5 6:5 7:5 8:5 6:5 5:5 6:5 17:5 20:5 19:5
4:0 6:5 7:5 8:5 6:5 5:5 6:5 17:5 20:5 19:5 11:5
6:0 7:5 8:5 6:5 5:5 6:5 17:5 20:5 19:5 11:5 5:5
7:0 8:5 6:5 5:5 6:5 17:5 20:5 19:5 11:5 5:5 6:5
8:0 6:5 5:5 6:5 17:5 20:5 19:5 11:5 5:5 6:5 7:5
6:0 5:5 6:5 17:5 20:5 19:5 11:5 5:5 6:5 7:5 6:5
5:0 6:5 17:5 20:5 19:5 11:5 5:5 6:5 7:5 6:5 5:5
6:0 17:5 20:5 19:5 11:5 5:5 6:5 7:5 6:5 5:5 8:5
17:0 20:5 19:5 11:5 5:5 6:5 7:5 6:5 5:5 8:5 19:5
20:0 19:5 11:5 5:5 6:5 7:5 6:5 5:5 8:5 19:5 18:10
19:0 11:5 5:5 6:5 7:5 6:5 5:5 8:5 19:5 18:10 5:5
11:0 5:5 6:5 7:5 6:5 5:5 8:5 19:5 18:10 5:5 6:5
5:0 6:5 7:5 6:5 5:5 8:5 19:5 18:10 5:5 6:5 5:15
6:0 7:5 6:5 5:5 8:5 19:5 18:10 5:5 6:5 5:15 6:5
7:0 6:5 5:5 8:5 19:5 18:10 5:5 6:5 5:15 6:5 8:5
6:0 5:5 8:5 19:5 18:10 5:5 6:5 5:15 6:5 8:5 20:5
5:0 8:5 19:5 18:10 5:5 6:5 5:15 6:5 8:5 20:5 19:5
8:0 19:5 18:10 5:5 6:5 5:15 6:5 8:5 20:5 19:5 18:5
19:0 18:10 5:5 6:5 5:15 6:5 8:5 20:5 19:5 18:5 6:5
18:0 5:5 6:5 5:15 6:5 8:5 20:5 19:5 18:5 6:5 8:10
5:0 6:5 5:15 6:5 8:5 20:5 19:5 18:5 6:5 8:10 5:5
6:0 5:15 6:5 8:5 20:5 19:5 18:5 6:5 8:10 5:5 6:10
5:0 6:5 8:5 20:5 19:5 18:5 6:5 8:10 5:5 6:10 11:5
6:0 8:5 20:5 19:5 18:5 6:5 8:10 5:5 6:10 11:5 20:5
8:0 20:5 19:5 18:5 6:5 8:10 5:5 6:10 11:5 20:5 19:5
20:0 19:5 18:5 6:5 8:10 5:5 6:10 11:5 20:5 19:5 12:5
19:0 18:5 6:5 8:10 5:5 6:10 11:5 20:5 19:5 12:5 6:5
18:0 6:5 8:10 5:5 6:10 11:5 20:5 19:5 12:5 6:5 5:5
6:0 8:10 5:5 6:10 11:5 20:5 19:5 12:5 6:5 5:5 7:10
8:0 5:5 6:10 11:5 20:5 19:5 12:5 6:5 5:5 7:10 6:15
5:0 6:10 11:5 20:5 19:5 12:5 6:5 5:5 7:10 6:15 11:5
6:0 11:5 20:5 19:5 12:5 6:5 5:5 7:10 6:15 11:5 20:5
11:0 20:5 19:5 12:5 6:5 5:5 7:10 6:15 11:5 20:5 19:5
20:0 19:5 12:5 6:5 5:5 7:10 6:15 11:5 20:5 19:5 5:10
19:0 12:5 6:5 5:5 7:10 6:15 11:5 20:5 19:5 5:10 6:15
12:0 6:5 5:5 7:10 6:15 11:5 20:5 19:5 5:10 6:15 8:5
6:0 5:5 7:10 6:15 11:5 20:5 19:5 5:10 6:15 8:5 17:5
5:0 7:10 6:15 11:5 20:5 19:5 5:10 6:15 8:5 17:5 19:5
7:0 6:15 11:5 20:5 19:5 5:10 6:15 8:5 17:5 19:5 11:5
6:0 11:5 20:5 19:5 5:10 6:15 8:5 17:5 19:5 11:5 6:5
11:0 20:5 19:5 5:10 6:15 8:5 17:5 19:5 11:5 6:5 8:10
20:0 19:5 5:10 6:15 8:5 17:5 19:5 11:5 6:5 8:10 6:5
19:0 5:10 6:15 8:5 17:5 19:5 11:5 6:5 8:10 6:5 5:5
5:0 6:15 8:5 17:5 19:5 11:5 6:5 8:10 6:5 5:5 8:5
6:0 8:5 17:5 19:5 11:5 6:5 8:10 6:5 5:5 8:5 20:5
8:0 17:5 19:5 11:5 6:5 8:10 6:5 5:5 8:5 20:5 19:5
17:0 19:5 11:5 6:5 8:10 6:5 5:5 8:5 20:5 19:5 18:5
19:0 11:5 6:5 8:10 6:5 5:5 8:5 20:5 19:5 18:5 5:5
11:0 6:5 8:10 6:5 5:5 8:5 20:5 19:5 18:5 5:5 6:5
6:0 8:10 6:5 5:5 8:5 20:5 19:5 18:5 5:5 6:5 5:5
8:0 6:5 5:5 8:5 20:5 19:5 18:5 5:5 6:5 5:5 7:10
6:0 5:5 8:5 20:5 19:5 18:5 5:5 6:5 5:5 7:10 6:10
5:0 8:5 20:5 19:5 18:5 5:5 6:5 5:5 7:10 6:10 7:10
8:0 20:5 19:5 18:5 5:5 6:5 5:5 7:10 6:10 7:10 20:5
20:0 19:5 18:5 5:5 6:5 5:5 7:10 6:10 7:10 20:5 19:5
19:0 18:5 5:5 6:5 5:5 7:10 6:10 7:10 20:5 19:5 8:10
18:0 5:5 6:5 5:5 7:10 6:10 7:10 20:5 19:5 8:10 5:5
5:0 6:5 5:5 7:10 6:10 7:10 20:5 19:5 8:10 5:5 6:10
6:0 5:5 7:10 6:10 7:10 20:5 19:5 8:10 5:5 6:10 8:5
5:0 7:10 6:10 7:10 20:5 19:5 8:10 5:5 6:10 8:5 7:5
7:0 6:10 7:10 20:5 19:5 8:10 5:5 6:10 8:5 7:5 6:5
6:0 7:10 20:5 19:5 8:10 5:5 6:10 8:5 7:5 6:5 5:5
7:0 20:5 19:5 8:10 5:5 6:10 8:5 7:5 6:5 5:5 8:5
20:0 19:5 8:10 5:5 6:10 8:5 7:5 6:5 5:5 8:5 20:5
19:0 8:10 5:5 6:10 8:5 7:5 6:5 5:5 8:5 20:5 19:10
8:0 5:5 6:10 8:5 7:5 6:5 5:5 8:5 20:5 19:10 8:5
5:0 6:10 8:5 7:5 6:5 5:5 8:5 20:5 19:10 8:5 6:5
6:0 8:5 7:5 6:5 5:5 8:5 20:5 19:10 8:5 6:5 7:10
8:0 7:5 6:5 5:5 8:5 20:5 19:10 8:5 6:5 7:10 5:5
7:0 6:5 5:5 8:5 20:5 19:10 8:5 6:5 7:10 5:5 6:5
6:0 5:5 8:5 20:5 19:10 8:5 6:5 7:10 5:5 6:5 15:5
5:0 8:5 20:5 19:10 8:5 6:5 7:10 5:5 6:5 15:5 20:5
8:0 20:5 19:10 8:5 6:5 7:10 5:5 6:5 15:5 20:5 19:5
20:0 19:10 8:5 6:5 7:10 5:5 6:5 15:5 20:5 19:5 11:5
19:0 8:5 6:5 7:10 5:5 6:5 15:5 20:5 19:5 11:5 5:5
8:0 6:5 7:10 5:5 6:5 15:5 20:5 19:5 11:5 5:5 7:20
6:0 7:10 5:5 6:5 15:5 20:5 19:5 11:5 5:5 7:20 6:10
7:0 5:5 6:5 15:5 20:5 19:5 11:5 5:5 7:20 6:10 11:10
5:0 6:5 15:5 20:5 19:5 11:5 5:5 7:20 6:10 11:10 20:5
6:0 15:5 20:5 19:5 11:5 5:5 7:20 6:10 11:10 20:5 19:5
15:0 20:5 19:5 11:5 5:5 7:20 6:10 11:10 20:5 19:5 4:10
20:0 19:5 11:5 5:5 7:20 6:10 11:10 20:5 19:5 4:10 5:5
19:0 11:5 5:5 7:20 6:10 11:10 20:5 19:5 4:10 5:5 8:10
11:0 5:5 7:20 6:10 11:10 20:5 19:5 4:10 5:5 8:10 7:5
5:0 7:20 6:10 11:10 20:5 19:5 4:10 5:5 8:10 7:5 5:10
7:0 6:10 11:10 20:5 19:5 4:10 5:5 8:10 7:5 5:10 6:5
6:0 11:10 20:5 19:5 4:10 5:5 8:10 7:5 5:10 6:5 11:5
11:0 20:5 19:5 4:10 5:5 8:10 7:5 5:10 6:5 11:5 20:5
20:0 19:5 4:10 5:5 8:10 7:5 5:10 6:5 11:5 20:5 19:5
19:0 4:10 5:5 8:10 7:5 5:10 6:5 11:5 20:5 19:5 18:5
4:0 5:5 8:10 7:5 5:10 6:5 11:5 20:5 19:5 18:5 5:5
5:0 8:10 7:5 5:10 6:5 11:5 20:5 19:5 18:5 5:5 6:5
8:0 7:5 5:10 6:5 11:5 20:5 19:5 18:5 5:5 6:5 7:5
7:0 5:10 6:5 11:5 20:5 19:5 18:5 5:5 6:5 7:5 6:5
5:0 6:5 11:5 20:5 19:5 18:5 5:5 6:5 7:5 6:5 5:5
6:0 11:5 20:5 19:5 18:5 5:5 6:5 7:5 6:5 5:5 8:5
11:0 20:5 19:5 18:5 5:5 6:5 7:5 6:5 5:5 8:5 19:5
20:0 19:5 18:5 5:5 6:5 7:5 6:5 5:5 8:5 19:5 20:5
19:0 18:5 5:5 6:5 7:5 6:5 5:5 8:5 19:5 20:5 19:5
18:0 5:5 6:5 7:5 6:5 5:5 8:5 19:5 20:5 19:5 5:5
5:0 6:5 7:5 6:5 5:5 8:5 19:5 20:5 19:5 5:5 6:5
6:0 7:5 6:5 5:5 8:5 19:5 20:5 19:5 5:5 6:5 5:5
7:0 6:5 5:5 8:5 19:5 20:5 19:5 5:5 6:5 5:5 6:10
6:0 5:5 8:5 19:5 20:5 19:5 5:5 6:5 5:5 6:10 7:5
5:0 8:5 19:5 20:5 19:5 5:5 6:5 5:5 6:10 7:5 6:5
8:0 19:5 20:5 19:5 5:5 6:5 5:5 6:10 7:5 6:5 7:5
19:0 20:5 19:5 5:5 6:5 5:5 6:10 7:5 6:5 7:5 20:5
20:0 19:5 5:5 6:5 5:5 6:10 7:5 6:5 7:5 20:5 19:5
19:0 5:5 6:5 5:5 6:10 7:5 6:5 7:5 20:5 19:5 15:5
5:0 6:5 5:5 6:10 7:5 6:5 7:5 20:5 19:5 15:5 6:5
6:0 5:5 6:10 7:5 6:5 7:5 20:5 19:5 15:5 6:5 5:5
5:0 6:10 7:5 6:5 7:5 20:5 19:5 15:5 6:5 5:5 7:10
6:0 7:5 6:5 7:5 20:5 19:5 15:5 6:5 5:5 7:10 6:10
7:0 6:5 7:5 20:5 19:5 15:5 6:5 5:5 7:10 6:10 7:10
6:0 7:5 20:5 19:5 15:5 6:5 5:5 7:10 6:10 7:10 20:5
7:0 20:5 19:5 15:5 6:5 5:5 7:10 6:10 7:10 20:5 19:10
20:0 19:5 15:5 6:5 5:5 7:10 6:10 7:10 20:5 19:10 8:5
19:0 15:5 6:5 5:5 7:10 6:10 7:10 20:5 19:10 8:5 5:5
15:0 6:5 5:5 7:10 6:10 7:10 20:5 19:10 8:5 5:5 7:10
6:0 5:5 7:10 6:10 7:10 20:5 19:10 8:5 5:5 7:10 8:5
5:0 7:10 6:10 7:10 20:5 19:10 8:5 5:5 7:10 8:5 17:5
7:0 6:10 7:10 20:5 19:10 8:5 5:5 7:10 8:5 17:5 19:5
6:0 7:10 20:5 19:10 8:5 5:5 7:10 8:5 17:5 19:5 8:5
7:0 20:5 19:10 8:5 5:5 7:10 8:5 17:5 19:5 8:5 6:5
20:0 19:10 8:5 5:5 7:10 8:5 17:5 19:5 8:5 6:5 7:5
19:0 8:5 5:5 7:10 8:5 17:5 19:5 8:5 6:5 7:5 6:5
8:0 5:5 7:10 8:5 17:5 19:5 8:5 6:5 7:5 6:5 5:5
5:0 7:10 8:5 17:5 19:5 8:5 6:5 7:5 6:5 5:5 6:5
7:0 8:5 17:5 19:5 8:5 6:5 7:5 6:5 5:5 6:5 7:5
8:0 17:5 19:5 8:5 6:5 7:5 6:5 5:5 6:5 7:5 17:5
17:0 19:5 8:5 6:5 7:5 6:5 5:5 6:5 7:5 17:5 19:5
19:0 8:5 6:5 7:5 6:5 5:5 6:5 7:5 17:5 19:5 15:5
8:0 6:5 7:5 6:5 5:5 6:5 7:5 17:5 19:5 15:5 5:5
6:0 7:5 6:5 5:5 6:5 7:5 17:5 19:5 15:5 5:5 7:10
7:0 6:5 5:5 6:5 7:5 17:5 19:5 15:5 5:5 7:10 6:5
6:0 5:5 6:5 7:5 17:5 19:5 15:5 5:5 7:10 6:5 5:5
5:0 6:5 7:5 17:5 19:5 15:5 5:5 7:10 6:5 5:5 6:5
6:0 7:5 17:5 19:5 15:5 5:5 7:10 6:5 5:5 6:5 7:5
7:0 17:5 19:5 15:5 5:5 7:10 6:5 5:5 6:5 7:5 20:5
17:0 19:5 15:5 5:5 7:10 6:5 5:5 6:5 7:5 20:5 19:5
19:0 15:5 5:5 7:10 6:5 5:5 6:5 7:5 20:5 19:5 15:5
15:0 5:5 7:10 6:5 5:5 6:5 7:5 20:5 19:5 15:5 5:5
5:0 7:10 6:5 5:5 6:5 7:5 20:5 19:5 15:5 5:5 6:5
7:0 6:5 5:5 6:5 7:5 20:5 19:5 15:5 5:5 6:5 7:5
6:0 5:5 6:5 7:5 20:5 19:5 15:5 5:5 6:5 7:5 6:5
5:0 6:5 7:5 20:5 19:5 15:5 5:5 6:5 7:5 6:5 5:5
6:0 7:5 20:5 19:5 15:5 5:5 6:5 7:5 6:5 5:5 7:5
7:0 20:5 19:5 15:5 5:5 6:5 7:5 6:5 5:5 7:5 14:5
20:0 19:5 15:5 5:5 6:5 7:5 6:5 5:5 7:5 14:5 19:5
19:0 15:5 5:5 6:5 7:5 6:5 5:5 7:5 14:5 19:5 5:10
15:0 5:5 6:5 7:5 6:5 5:5 7:5 14:5 19:5 5:10 6:15
5:0 6:5 7:5 6:5 5:5 7:5 14:5 19:5 5:10 6:15 8:5
6:0 7:5 6:5 5:5 7:5 14:5 19:5 5:10 6:15 8:5 10:5
7:0 6:5 5:5 7:5 14:5 19:5 5:10 6:15 8:5 10:5 20:5
6:0 5:5 7:5 14:5 19:5 5:10 6:15 8:5 10:5 20:5 19:5
5:0 7:5 14:5 19:5 5:10 6:15 8:5 10:5 20:5 19:5 11:5
7:0 14:5 19:5 5:10 6:15 8:5 10:5 20:5 19:5 11:5 4:5
14:0 19:5 5:10 6:15 8:5 10:5 20:5 19:5 11:5 4:5 6:5
19:0 5:10 6:15 8:5 10:5 20:5 19:5 11:5 4:5 6:5 7:5
5:0 6:15 8:5 10:5 20:5 19:5 11:5 4:5 6:5 7:5 6:10
6:0 8:5 10:5 20:5 19:5 11:5 4:5 6:5 7:5 6:10 5:5
8:0 10:5 20:5 19:5 11:5 4:5 6:5 7:5 6:10 5:5 7:5
10:0 20:5 19:5 11:5 4:5 6:5 7:5 6:10 5:5 7:5 19:5
20:0 19:5 11:5 4:5 6:5 7:5 6:10 5:5 7:5 19:5 5:15
19:0 11:5 4:5 6:5 7:5 6:10 5:5 7:5 19:5 5:15 6:5
11:0 4:5 6:5 7:5 6:10 5:5 7:5 19:5 5:15 6:5 5:5
4:0 6:5 7:5 6:10 5:5 7:5 19:5 5:15 6:5 5:5 7:10
6:0 7:5 6:10 5:5 7:5 19:5 5:15 6:5 5:5 7:10 6:15
7:0 6:10 5:5 7:5 19:5 5:15 6:5 5:5 7:10 6:15 7:5
6:0 5:5 7:5 19:5 5:15 6:5 5:5 7:10 6:15 7:5 17:5
5:0 7:5 19:5 5:15 6:5 5:5 7:10 6:15 7:5 17:5 20:5
7:0 19:5 5:15 6:5 5:5 7:10 6:15 7:5 17:5 20:5 19:5
19:0 5:15 6:5 5:5 7:10 6:15 7:5 17:5 20:5 19:5 18:5
5:0 6:5 5:5 7:10 6:15 7:5 17:5 20:5 19:5 18:5 5:5
6:0 5:5 7:10 6:15 7:5 17:5 20:5 19:5 18:5 5:5 6:10
5:0 7:10 6:15 7:5 17:5 20:5 19:5 18:5 5:5 6:10 8:5
7:0 6:15 7:5 17:5 20:5 19:5 18:5 5:5 6:10 8:5 16:5
6:0 7:5 17:5 20:5 19:5 18:5 5:5 6:10 8:5 16:5 19:5
7:0 17:5 20:5 19:5 18:5 5:5 6:10 8:5 16:5 19:5 11:5
17:0 20:5 19:5 18:5 5:5 6:10 8:5 16:5 19:5 11:5 6:5
20:0 19:5 18:5 5:5 6:10 8:5 16:5 19:5 11:5 6:5 7:5
19:0 18:5 5:5 6:10 8:5 16:5 19:5 11:5 6:5 7:5 5:10
18:0 5:5 6:10 8:5 16:5 19:5 11:5 6:5 7:5 5:10 7:10
5:0 6:10 8:5 16:5 19:5 11:5 6:5 7:5 5:10 7:10 14:5
6:0 8:5 16:5 19:5 11:5 6:5 7:5 5:10 7:10 14:5 19:5
8:0 16:5 19:5 11:5 6:5 7:5 5:10 7:10 14:5 19:5 5:10
16:0 19:5 11:5 6:5 7:5 5:10 7:10 14:5 19:5 5:10 6:5
19:0 11:5 6:5 7:5 5:10 7:10 14:5 19:5 5:10 6:5 5:5
11:0 6:5 7:5 5:10 7:10 14:5 19:5 5:10 6:5 5:5 6:5
6:0 7:5 5:10 7:10 14:5 19:5 5:10 6:5 5:5 6:5 7:10
7:0 5:10 7:10 14:5 19:5 5:10 6:5 5:5 6:5 7:10 6:5
5:0 7:10 14:5 19:5 5:10 6:5 5:5 6:5 7:10 6:5 7:10
7:0 14:5 19:5 5:10 6:5 5:5 6:5 7:10 6:5 7:10 20:5
14:0 19:5 5:10 6:5 5:5 6:5 7:10 6:5 7:10 20:5 19:10
19:0 5:10 6:5 5:5 6:5 7:10 6:5 7:10 20:5 19:10 5:5
5:0 6:5 5:5 6:5 7:10 6:5 7:10 20:5 19:10 5:5 7:15
6:0 5:5 6:5 7:10 6:5 7:10 20:5 19:10 5:5 7:15 8:5
5:0 6:5 7:10 6:5 7:10 20:5 19:10 5:5 7:15 8:5 19:5
6:0 7:10 6:5 7:10 20:5 19:10 5:5 7:15 8:5 19:5 5:10
7:0 6:5 7:10 20:5 19:10 5:5 7:15 8:5 19:5 5:10 6:5
6:0 7:10 20:5 19:10 5:5 7:15 8:5 19:5 5:10 6:5 5:5
7:0 20:5 19:10 5:5 7:15 8:5 19:5 5:10 6:5 5:5 6:5
20:0 19:10 5:5 7:15 8:5 19:5 5:10 6:5 5:5 6:5 7:5
19:0 5:5 7:15 8:5 19:5 5:10 6:5 5:5 6:5 7:5 18:10
5:0 7:15 8:5 19:5 5:10 6:5 5:5 6:5 7:5 18:10 19:5
7:0 8:5 19:5 5:10 6:5 5:5 6:5 7:5 18:10 19:5 15:5
8:0 19:5 5:10 6:5 5:5 6:5 7:5 18:10 19:5 15:5 4:5
19:0 5:10 6:5 5:5 6:5 7:5 18:10 19:5 15:5 4:5 6:5
5:0 6:5 5:5 6:5 7:5 18:10 19:5 15:5 4:5 6:5 7:10
6:0 5:5 6:5 7:5 18:10 19:5 15:5 4:5 6:5 7:10 6:5
5:0 6:5 7:5 18:10 19:5 15:5 4:5 6:5 7:10 6:5 5:5
6:0 7:5 18:10 19:5 15:5 4:5 6:5 7:10 6:5 5:5 6:5
7:0 18:10 19:5 15:5 4:5 6:5 7:10 6:5 5:5 6:5 17:5
18:0 19:5 15:5 4:5 6:5 7:10 6:5 5:5 6:5 17:5 20:5
19:0 15:5 4:5 6:5 7:10 6:5 5:5 6:5 17:5 20:5 19:5
15:0 4:5 6:5 7:10 6:5 5:5 6:5 17:5 20:5 19:5 11:5
4:0 6:5 7:10 6:5 5:5 6:5 17:5 20:5 19:5 11:5 6:5
6:0 7:10 6:5 5:5 6:5 17:5 20:5 19:5 11:5 6:5 5:5
7:0 6:5 5:5 6:5 17:5 20:5 19:5 11:5 6:5 5:5 7:10
6:0 5:5 6:5 17:5 20:5 19:5 11:5 6:5 5:5 7:10 16:10
5:0 6:5 17:5 20:5 19:5 11:5 6:5 5:5 7:10 16:10 19:5
6:0 17:5 20:5 19:5 11:5 6:5 5:5 7:10 16:10 19:5 15:5
17:0 20:5 19:5 11:5 6:5 5:5 7:10 16:10 19:5 15:5 5:5
20:0 19:5 11:5 6:5 5:5 7:10 16:10 19:5 15:5 5:5 9:10
19:0 11:5 6:5 5:5 7:10 16:10 19:5 15:5 5:5 9:10 7:5
11:0 6:5 5:5 7:10 16:10 19:5 15:5 5:5 9:10 7:5 6:5
6:0 5:5 7:10 16:10 19:5 15:5 5:5 9:10 7:5 6:5 5:5
5:0 7:10 16:10 19:5 15:5 5:5 9:10 7:5 6:5 5:5 6:5
7:0 16:10 19:5 15:5 5:5 9:10 7:5 6:5 5:5 6:5 17:5
16:0 19:5 15:5 5:5 9:10 7:5 6:5 5:5 6:5 17:5 20:5
19:0 15:5 5:5 9:10 7:5 6:5 5:5 6:5 17:5 20:5 19:5
15:0 5:5 9:10 7:5 6:5 5:5 6:5 17:5 20:5 19:5 7:5
5:0 9:10 7:5 6:5 5:5 6:5 17:5 20:5 19:5 7:5 6:5
9:0 7:5 6:5 5:5 6:5 17:5 20:5 19:5 7:5 6:5 7:5
7:0 6:5 5:5 6:5 17:5 20:5 19:5 7:5 6:5 7:5 5:10
6:0 5:5 6:5 17:5 20:5 19:5 7:5 6:5 7:5 5:10 6:10
5:0 6:5 17:5 20:5 19:5 7:5 6:5 7:5 5:10 6:10 11:5
6:0 17:5 20:5 19:5 7:5 6:5 7:5 5:10 6:10 11:5 19:5
17:0 20:5 19:5 7:5 6:5 7:5 5:10 6:10 11:5 19:5 8:10
20:0 19:5 7:5 6:5 7:5 5:10 6:10 11:5 19:5 8:10 6:5
19:0 7:5 6:5 7:5 5:10 6:10 11:5 19:5 8:10 6:5 7:10
7:0 6:5 7:5 5:10 6:10 11:5 19:5 8:10 6:5 7:10 5:5
6:0 7:5 5:10 6:10 11:5 19:5 8:10 6:5 7:10 5:5 6:5
7:0 5:10 6:10 11:5 19:5 8:10 6:5 7:10 5:5 6:5 8:5
5:0 6:10 11:5 19:5 8:10 6:5 7:10 5:5 6:5 8:5 20:5
6:0 11:5 19:5 8:10 6:5 7:10 5:5 6:5 8:5 20:5 19:5
11:0 19:5 8:10 6:5 7:10 5:5 6:5 8:5 20:5 19:5 15:5
19:0 8:10 6:5 7:10 5:5 6:5 8:5 20:5 19:5 15:5 5:5
8:0 6:5 7:10 5:5 6:5 8:5 20:5 19:5 15:5 5:5 8:15
6:0 7:10 5:5 6:5 8:5 20:5 19:5 15:5 5:5 8:15 7:5
7:0 5:5 6:5 8:5 20:5 19:5 15:5 5:5 8:15 7:5 16:10
5:0 6:5 8:5 20:5 19:5 15:5 5:5 8:15 7:5 16:10 19:5
6:0 8:5 20:5 19:5 15:5 5:5 8:15 7:5 16:10 19:5 15:5
8:0 20:5 19:5 15:5 5:5 8:15 7:5 16:10 19:5 15:5 4:5
20:0 19:5 15:5 5:5 8:15 7:5 16:10 19:5 15:5 4:5 7:5
19:0 15:5 5:5 8:15 7:5 16:10 19:5 15:5 4:5 7:5 5:15
15:0 5:5 8:15 7:5 16:10 19:5 15:5 4:5 7:5 5:15 6:5
5:0 8:15 7:5 16:10 19:5 15:5 4:5 7:5 5:15 6:5 15:5
8:0 7:5 16:10 19:5 15:5 4:5 7:5 5:15 6:5 15:5 20:5
7:0 16:10 19:5 15:5 4:5 7:5 5:15 6:5 15:5 20:5 19:5
16:0 19:5 15:5 4:5 7:5 5:15 6:5 15:5 20:5 19:5 15:5
19:0 15:5 4:5 7:5 5:15 6:5 15:5 20:5 19:5 15:5 5:5
15:0 4:5 7:5 5:15 6:5 15:5 20:5 19:5 15:5 5:5 7:20
4:0 7:5 5:15 6:5 15:5 20:5 19:5 15:5 5:5 7:20 16:10
7:0 5:15 6:5 15:5 20:5 19:5 15:5 5:5 7:20 16:10 19:5
5:0 6:5 15:5 20:5 19:5 15:5 5:5 7:20 16:10 19:5 15:5
6:0 15:5 20:5 19:5 15:5 5:5 7:20 16:10 19:5 15:5 4:5
15:0 20:5 19:5 15:5 5:5 7:20 16:10 19:5 15:5 4:5 6:5
20:0 19:5 15:5 5:5 7:20 16:10 19:5 15:5 4:5 6:5 7:5
19:0 15:5 5:5 7:20 16:10 19:5 15:5 4:5 6:5 7:5 5:10
15:0 5:5 7:20 16:10 19:5 15:5 4:5 6:5 7:5 5:10 6:5
5:0 7:20 16:10 19:5 15:5 4:5 6:5 7:5 5:10 6:5 7:5
7:0 16:10 19:5 15:5 4:5 6:5 7:5 5:10 6:5 7:5 19:5
16:0 19:5 15:5 4:5 6:5 7:5 5:10 6:5 7:5 19:5 20:5
19:0 15:5 4:5 6:5 7:5 5:10 6:5 7:5 19:5 20:5 19:5
15:0 4:5 6:5 7:5 5:10 6:5 7:5 19:5 20:5 19:5 5:5
4:0 6:5 7:5 5:10 6:5 7:5 19:5 20:5 19:5 5:5 6:5
6:0 7:5 5:10 6:5 7:5 19:5 20:5 19:5 5:5 6:5 5:5
7:0 5:10 6:5 7:5 19:5 20:5 19:5 5:5 6:5 5:5 6:5
5:0 6:5 7:5 19:5 20:5 19:5 5:5 6:5 5:5 6:5 7:5
6:0 7:5 19:5 20:5 19:5 5:5 6:5 5:5 6:5 7:5 6:5
7:0 19:5 20:5 19:5 5:5 6:5 5:5 6:5 7:5 6:5 7:5
19:0 20:5 19:5 5:5 6:5 5:5 6:5 7:5 6:5 7:5 6:5
20:0 19:5 5:5 6:5 5:5 6:5 7:5 6:5 7:5 6:5 14:5
19:0 5:5 6:5 5:5 6:5 7:5 6:5 7:5 6:5 14:5 20:5
5:0 6:5 5:5 6:5 7:5 6:5 7:5 6:5 14:5 20:5 19:5
6:0 5:5 6:5 7:5 6:5 7:5 6:5 14:5 20:5 19:5 11:10
5:0 6:5 7:5 6:5 7:5 6:5 14:5 20:5 19:5 11:10 4:5
6:0 7:5 6:5 7:5 6:5 14:5 20:5 19:5 11:10 4:5 6:10
7:0 6:5 7:5 6:5 14:5 20:5 19:5 11:10 4:5 6:10 7:5
6:0 7:5 6:5 14:5 20:5 19:5 11:10 4:5 6:10 7:5 6:10
7:0 6:5 14:5 20:5 19:5 11:10 4:5 6:10 7:5 6:10 5:5
6:0 14:5 20:5 19:5 11:10 4:5 6:10 7:5 6:10 5:5 7:5
14:0 20:5 19:5 11:10 4:5 6:10 7:5 6:10 5:5 7:5 17:5
20:0 19:5 11:10 4:5 6:10 7:5 6:10 5:5 7:5 17:5 19:5
19:0 11:10 4:5 6:10 7:5 6:10 5:5 7:5 17:5 19:5 5:10
11:0 4:5 6:10 7:5 6:10 5:5 7:5 17:5 19:5 5:10 6:5
4:0 6:10 7:5 6:10 5:5 7:5 17:5 19:5 5:10 6:5 7:5
6:0 7:5 6:10 5:5 7:5 17:5 19:5 5:10 6:5 7:5 5:10
7:0 6:10 5:5 7:5 17:5 19:5 5:10 6:5 7:5 5:10 6:5
6:0 5:5 7:5 17:5 19:5 5:10 6:5 7:5 5:10 6:5 8:5
5:0 7:5 17:5 19:5 5:10 6:5 7:5 5:10 6:5 8:5 19:5
7:0 17:5 19:5 5:10 6:5 7:5 5:10 6:5 8:5 19:5 15:10
17:0 19:5 5:10 6:5 7:5 5:10 6:5 8:5 19:5 15:10 5:5
19:0 5:10 6:5 7:5 5:10 6:5 8:5 19:5 15:10 5:5 8:15
5:0 6:5 7:5 5:10 6:5 8:5 19:5 15:10 5:5 8:15 7:5
6:0 7:5 5:10 6:5 8:5 19:5 15:10 5:5 8:15 7:5 10:5
7:0 5:10 6:5 8:5 19:5 15:10 5:5 8:15 7:5 10:5 19:5
5:0 6:5 8:5 19:5 15:10 5:5 8:15 7:5 10:5 19:5 11:10
6:0 8:5 19:5 15:10 5:5 8:15 7:5 10:5 19:5 11:10 5:5
8:0 19:5 15:10 5:5 8:15 7:5 10:5 19:5 11:10 5:5 8:5
19:0 15:10 5:5 8:15 7:5 10:5 19:5 11:10 5:5 8:5 18:10
15:0 5:5 8:15 7:5 10:5 19:5 11:10 5:5 8:5 18:10 5:10
5:0 8:15 7:5 10:5 19:5 11:10 5:5 8:5 18:10 5:10 6:5
8:0 7:5 10:5 19:5 11:10 5:5 8:5 18:10 5:10 6:5 5:5
7:0 10:5 19:5 11:10 5:5 8:5 18:10 5:10 6:5 5:5 6:5
10:0 19:5 11:10 5:5 8:5 18:10 5:10 6:5 5:5 6:5 7:5
19:0 11:10 5:5 8:5 18:10 5:10 6:5 5:5 6:5 7:5 6:10
11:0 5:5 8:5 18:10 5:10 6:5 5:5 6:5 7:5 6:10 7:5
5:0 8:5 18:10 5:10 6:5 5:5 6:5 7:5 6:10 7:5 20:5
8:0 18:10 5:10 6:5 5:5 6:5 7:5 6:10 7:5 20:5 19:5
18:0 5:10 6:5 5:5 6:5 7:5 6:10 7:5 20:5 19:5 12:10
5:0 6:5 5:5 6:5 7:5 6:10 7:5 20:5 19:5 12:10 5:5
6:0 5:5 6:5 7:5 6:10 7:5 20:5 19:5 12:10 5:5 7:15
5:0 6:5 7:5 6:10 7:5 20:5 19:5 12:10 5:5 7:15 8:5
6:0 7:5 6:10 7:5 20:5 19:5 12:10 5:5 7:15 8:5 17:5
7:0 6:10 7:5 20:5 19:5 12:10 5:5 7:15 8:5 17:5 19:5
6:0 7:5 20:5 19:5 12:10 5:5 7:15 8:5 17:5 19:5 8:5
7:0 20:5 19:5 12:10 5:5 7:15 8:5 17:5 19:5 8:5 6:5
20:0 19:5 12:10 5:5 7:15 8:5 17:5 19:5 8:5 6:5 7:10
19:0 12:10 5:5 7:15 8:5 17:5 19:5 8:5 6:5 7:10 5:5
12:0 5:5 7:15 8:5 17:5 19:5 8:5 6:5 7:10 5:5 6:5
5:0 7:15 8:5 17:5 19:5 8:5 6:5 7:10 5:5 6:5 7:5
7:0 8:5 17:5 19:5 8:5 6:5 7:10 5:5 6:5 7:5 19:5
8:0 17:5 19:5 8:5 6:5 7:10 5:5 6:5 7:5 19:5 20:5
17:0 19:5 8:5 6:5 7:10 5:5 6:5 7:5 19:5 20:5 18:5
19:0 8:5 6:5 7:10 5:5 6:5 7:5 19:5 20:5 18:5 5:5
8:0 6:5 7:10 5:5 6:5 7:5 19:5 20:5 18:5 5:5 6:5
6:0 7:10 5:5 6:5 7:5 19:5 20:5 18:5 5:5 6:5 7:5
7:0 5:5 6:5 7:5 19:5 20:5 18:5 5:5 6:5 7:5 6:5
5:0 6:5 7:5 19:5 20:5 18:5 5:5 6:5 7:5 6:5 5:5
6:0 7:5 19:5 20:5 18:5 5:5 6:5 7:5 6:5 5:5 6:5
7:0 19:5 20:5 18:5 5:5 6:5 7:5 6:5 5:5 6:5 7:5
19:0 20:5 18:5 5:5 6:5 7:5 6:5 5:5 6:5 7:5 15:5
20:0 18:5 5:5 6:5 7:5 6:5 5:5 6:5 7:5 15:5 19:5
18:0 5:5 6:5 7:5 6:5 5:5 6:5 7:5 15:5 19:5 5:10
5:0 6:5 7:5 6:5 5:5 6:5 7:5 15:5 19:5 5:10 8:10
6:0 7:5 6:5 5:5 6:5 7:5 15:5 19:5 5:10 8:10 6:5
7:0 6:5 5:5 6:5 7:5 15:5 19:5 5:10 8:10 6:5 5:5
6:0 5:5 6:5 7:5 15:5 19:5 5:10 8:10 6:5 5:5 6:5
5:0 6:5 7:5 15:5 19:5 5:10 8:10 6:5 5:5 6:5 17:5
6:0 7:5 15:5 19:5 5:10 8:10 6:5 5:5 6:5 17:5 20:5
7:0 15:5 19:5 5:10 8:10 6:5 5:5 6:5 17:5 20:5 19:5
15:0 19:5 5:10 8:10 6:5 5:5 6:5 17:5 20:5 19:5 7:5
19:0 5:10 8:10 6:5 5:5 6:5 17:5 20:5 19:5 7:5 6:5
5:0 8:10 6:5 5:5 6:5 17:5 20:5 19:5 7:5 6:5 5:5
8:0 6:5 5:5 6:5 17:5 20:5 19:5 7:5 6:5 5:5 7:10
6:0 5:5 6:5 17:5 20:5 19:5 7:5 6:5 5:5 7:10 6:15
5:0 6:5 17:5 20:5 19:5 7:5 6:5 5:5 7:10 6:15 7:5
6:0 17:5 20:5 19:5 7:5 6:5 5:5 7:10 6:15 7:5 20:5
17:0 20:5 19:5 7:5 6:5 5:5 7:10 6:15 7:5 20:5 19:5
20:0 19:5 7:5 6:5 5:5 7:10 6:15 7:5 20:5 19:5 12:10
19:0 7:5 6:5 5:5 7:10 6:15 7:5 20:5 19:5 12:10 5:5
7:0 6:5 5:5 7:10 6:15 7:5 20:5 19:5 12:10 5:5 7:10
6:0 5:5 7:10 6:15 7:5 20:5 19:5 12:10 5:5 7:10 8:5
5:0 7:10 6:15 7:5 20:5 19:5 12:10 5:5 7:10 8:5 18:5
7:0 6:15 7:5 20:5 19:5 12:10 5:5 7:10 8:5 18:5 19:5
6:0 7:5 20:5 19:5 12:10 5:5 7:10 8:5 18:5 19:5 4:5
7:0 20:5 19:5 12:10 5:5 7:10 8:5 18:5 19:5 4:5 6:5
20:0 19:5 12:10 5:5 7:10 8:5 18:5 19:5 4:5 6:5 5:5
19:0 12:10 5:5 7:10 8:5 18:5 19:5 4:5 6:5 5:5 7:10
12:0 5:5 7:10 8:5 18:5 19:5 4:5 6:5 5:5 7:10 6:15
5:0 7:10 8:5 18:5 19:5 4:5 6:5 5:5 7:10 6:15 7:5
7:0 8:5 18:5 19:5 4:5 6:5 5:5 7:10 6:15 7:5 19:5
8:0 18:5 19:5 4:5 6:5 5:5 7:10 6:15 7:5 19:5 12:15
18:0 19:5 4:5 6:5 5:5 7:10 6:15 7:5 19:5 12:15 5:5
19:0 4:5 6:5 5:5 7:10 6:15 7:5 19:5 12:15 5:5 7:15
4:0 6:5 5:5 7:10 6:15 7:5 19:5 12:15 5:5 7:15 8:5
6:0 5:5 7:10 6:15 7:5 19:5 12:15 5:5 7:15 8:5 6:5
5:0 7:10 6:15 7:5 19:5 12:15 5:5 7:15 8:5 6:5 5:5
7:0 6:15 7:5 19:5 12:15 5:5 7:15 8:5 6:5 5:5 6:5
6:0 7:5 19:5 12:15 5:5 7:15 8:5 6:5 5:5 6:5 15:5
7:0 19:5 12:15 5:5 7:15 8:5 6:5 5:5 6:5 15:5 20:5
19:0 12:15 5:5 7:15 8:5 6:5 5:5 6:5 15:5 20:5 19:5
12:0 5:5 7:15 8:5 6:5 5:5 6:5 15:5 20:5 19:5 15:5
5:0 7:15 8:5 6:5 5:5 6:5 15:5 20:5 19:5 15:5 5:5
7:0 8:5 6:5 5:5 6:5 15:5 20:5 19:5 15:5 5:5 6:5
8:0 6:5 5:5 6:5 15:5 20:5 19:5 15:5 5:5 6:5 7:5
6:0 5:5 6:5 15:5 20:5 19:5 15:5 5:5 6:5 7:5 5:5
5:0 6:5 15:5 20:5 19:5 15:5 5:5 6:5 7:5 5:5 8:10
6:0 15:5 20:5 19:5 15:5 5:5 6:5 7:5 5:5 8:10 20:5
15:0 20:5 19:5 15:5 5:5 6:5 7:5 5:5 8:10 20:5 19:5
20:0 19:5 15:5 5:5 6:5 7:5 5:5 8:10 20:5 19:5 18:5
19:0 15:5 5:5 6:5 7:5 5:5 8:10 20:5 19:5 18:5 5:5
15:0 5:5 6:5 7:5 5:5 8:10 20:5 19:5 18:5 5:5 6:5
5:0 6:5 7:5 5:5 8:10 20:5 19:5 18:5 5:5 6:5 5:5
6:0 7:5 5:5 8:10 20:5 19:5 18:5 5:5 6:5 5:5 7:10
7:0 5:5 8:10 20:5 19:5 18:5 5:5 6:5 5:5 7:10 6:15
5:0 8:10 20:5 19:5 18:5 5:5 6:5 5:5 7:10 6:15 14:5
8:0 20:5 19:5 18:5 5:5 6:5 5:5 7:10 6:15 14:5 20:5
20:0 19:5 18:5 5:5 6:5 5:5 7:10 6:15 14:5 20:5 19:5
19:0 18:5 5:5 6:5 5:5 7:10 6:15 14:5 20:5 19:5 8:10
18:0 5:5 6:5 5:5 7:10 6:15 14:5 20:5 19:5 8:10 5:5
5:0 6:5 5:5 7:10 6:15 14:5 20:5 19:5 8:10 5:5 7:10
6:0 5:5 7:10 6:15 14:5 20:5 19:5 8:10 5:5 7:10 8:5
5:0 7:10 6:15 14:5 20:5 19:5 8:10 5:5 7:10 8:5 18:5
7:0 6:15 14:5 20:5 19:5 8:10 5:5 7:10 8:5 18:5 19:5
6:0 14:5 20:5 19:5 8:10 5:5 7:10 8:5 18:5 19:5 12:5
14:0 20:5 19:5 8:10 5:5 7:10 8:5 18:5 19:5 12:5 5:5
20:0 19:5 8:10 5:5 7:10 8:5 18:5 19:5 12:5 5:5 6:5
19:0 8:10 5:5 7:10 8:5 18:5 19:5 12:5 5:5 6:5 5:10
8:0 5:5 7:10 8:5 18:5 19:5 12:5 5:5 6:5 5:10 7:10
5:0 7:10 8:5 18:5 19:5 12:5 5:5 6:5 5:10 7:10 14:5
7:0 8:5 18:5 19:5 12:5 5:5 6:5 5:10 7:10 14:5 19:5
8:0 18:5 19:5 12:5 5:5 6:5 5:10 7:10 14:5 19:5 5:10
18:0 19:5 12:5 5:5 6:5 5:10 7:10 14:5 19:5 5:10 6:5
19:0 12:5 5:5 6:5 5:10 7:10 14:5 19:5 5:10 6:5 8:5
12:0 5:5 6:5 5:10 7:10 14:5 19:5 5:10 6:5 8:5 6:5
5:0 6:5 5:10 7:10 14:5 19:5 5:10 6:5 8:5 6:5 5:5
6:0 5:10 7:10 14:5 19:5 5:10 6:5 8:5 6:5 5:5 6:5
5:0 7:10 14:5 19:5 5:10 6:5 8:5 6:5 5:5 6:5 11:5
7:0 14:5 19:5 5:10 6:5 8:5 6:5 5:5 6:5 11:5 20:5
14:0 19:5 5:10 6:5 8:5 6:5 5:5 6:5 11:5 20:5 19:5
19:0 5:10 6:5 8:5 6:5 5:5 6:5 11:5 20:5 19:5 11:5
5:0 6:5 8:5 6:5 5:5 6:5 11:5 20:5 19:5 11:5 5:5
6:0 8:5 6:5 5:5 6:5 11:5 20:5 19:5 11:5 5:5 6:15
8:0 6:5 5:5 6:5 11:5 20:5 19:5 11:5 5:5 6:15 7:5
6:0 5:5 6:5 11:5 20:5 19:5 11:5 5:5 6:15 7:5 6:10
5:0 6:5 11:5 20:5 19:5 11:5 5:5 6:15 7:5 6:10 7:5
6:0 11:5 20:5 19:5 11:5 5:5 6:15 7:5 6:10 7:5 20:5
11:0 20:5 19:5 11:5 5:5 6:15 7:5 6:10 7:5 20:5 19:5
20:0 19:5 11:5 5:5 6:15 7:5 6:10 7:5 20:5 19:5 8:10
19:0 11:5 5:5 6:15 7:5 6:10 7:5 20:5 19:5 8:10 5:5
11:0 5:5 6:15 7:5 6:10 7:5 20:5 19:5 8:10 5:5 8:15
5:0 6:15 7:5 6:10 7:5 20:5 19:5 8:10 5:5 8:15 11:5
6:0 7:5 6:10 7:5 20:5 19:5 8:10 5:5 8:15 11:5 19:5
7:0 6:10 7:5 20:5 19:5 8:10 5:5 8:15 11:5 19:5 18:5
6:0 7:5 20:5 19:5 8:10 5:5 8:15 11:5 19:5 18:5 5:5
7:0 20:5 19:5 8:10 5:5 8:15 11:5 19:5 18:5 5:5 8:10
20:0 19:5 8:10 5:5 8:15 11:5 19:5 18:5 5:5 8:10 6:5
19:0 8:10 5:5 8:15 11:5 19:5 18:5 5:5 8:10 6:5 5:5
8:0 5:5 8:15 11:5 19:5 18:5 5:5 8:10 6:5 5:5 7:5
5:0 8:15 11:5 19:5 18:5 5:5 8:10 6:5 5:5 7:5 19:5
8:0 11:5 19:5 18:5 5:5 8:10 6:5 5:5 7:5 19:5 20:5
11:0 19:5 18:5 5:5 8:10 6:5 5:5 7:5 19:5 20:5 19:5
19:0 18:5 5:5 8:10 6:5 5:5 7:5 19:5 20:5 19:5 4:5
18:0 5:5 8:10 6:5 5:5 7:5 19:5 20:5 19:5 4:5 6:5
5:0 8:10 6:5 5:5 7:5 19:5 20:5 19:5 4:5 6:5 5:5
8:0 6:5 5:5 7:5 19:5 20:5 19:5 4:5 6:5 5:5 6:10
6:0 5:5 7:5 19:5 20:5 19:5 4:5 6:5 5:5 6:10 7:5
5:0 7:5 19:5 20:5 19:5 4:5 6:5 5:5 6:10 7:5 6:10
7:0 19:5 20:5 19:5 4:5 6:5 5:5 6:10 7:5 6:10 7:5
19:0 20:5 19:5 4:5 6:5 5:5 6:10 7:5 6:10 7:5 20:5
20:0 19:5 4:5 6:5 5:5 6:10 7:5 6:10 7:5 20:5 19:5
19:0 4:5 6:5 5:5 6:10 7:5 6:10 7:5 20:5 19:5 11:10
4:0 6:5 5:5 6:10 7:5 6:10 7:5 20:5 19:5 11:10 5:5
6:0 5:5 6:10 7:5 6:10 7:5 20:5 19:5 11:10 5:5 4:5
5:0 6:10 7:5 6:10 7:5 20:5 19:5 11:10 5:5 4:5 5:5
6:0 7:5 6:10 7:5 20:5 19:5 11:10 5:5 4:5 5:5 8:5
7:0 6:10 7:5 20:5 19:5 11:10 5:5 4:5 5:5 8:5 7:5
6:0 7:5 20:5 19:5 11:10 5:5 4:5 5:5 8:5 7:5 6:5
7:0 20:5 19:5 11:10 5:5 4:5 5:5 8:5 7:5 6:5 5:5
20:0 19:5 11:10 5:5 4:5 5:5 8:5 7:5 6:5 5:5 7:5
19:0 11:10 5:5 4:5 5:5 8:5 7:5 6:5 5:5 7:5 19:5
11:0 5:5 4:5 5:5 8:5 7:5 6:5 5:5 7:5 19:5 20:5
5:0 4:5 5:5 8:5 7:5 6:5 5:5 7:5 19:5 20:5 19:5
4:0 5:5 8:5 7:5 6:5 5:5 7:5 19:5 20:5 19:5 12:5
5:0 8:5 7:5 6:5 5:5 7:5 19:5 20:5 19:5 12:5 6:5
8:0 7:5 6:5 5:5 7:5 19:5 20:5 19:5 12:5 6:5 5:5
7:0 6:5 5:5 7:5 19:5 20:5 19:5 12:5 6:5 5:5 6:10
6:0 5:5 7:5 19:5 20:5 19:5 12:5 6:5 5:5 6:10 8:5
5:0 7:5 19:5 20:5 19:5 12:5 6:5 5:5 6:10 8:5 17:5
7:0 19:5 20:5 19:5 12:5 6:5 5:5 6:10 8:5 17:5 19:5
19:0 20:5 19:5 12:5 6:5 5:5 6:10 8:5 17:5 19:5 18:5
20:0 19:5 12:5 6:5 5:5 6:10 8:5 17:5 19:5 18:5 4:5
19:0 12:5 6:5 5:5 6:10 8:5 17:5 19:5 18:5 4:5 5:5
12:0 6:5 5:5 6:10 8:5 17:5 19:5 18:5 4:5 5:5 6:5
6:0 5:5 6:10 8:5 17:5 19:5 18:5 4:5 5:5 6:5 8:5
5:0 6:10 8:5 17:5 19:5 18:5 4:5 5:5 6:5 8:5 5:5
6:0 8:5 17:5 19:5 18:5 4:5 5:5 6:5 8:5 5:5 6:10
8:0 17:5 19:5 18:5 4:5 5:5 6:5 8:5 5:5 6:10 15:5
17:0 19:5 18:5 4:5 5:5 6:5 8:5 5:5 6:10 15:5 20:5
19:0 18:5 4:5 5:5 6:5 8:5 5:5 6:10 15:5 20:5 19:5
18:0 4:5 5:5 6:5 8:5 5:5 6:10 15:5 20:5 19:5 11:5
4:0 5:5 6:5 8:5 5:5 6:10 15:5 20:5 19:5 11:5 5:5
5:0 6:5 8:5 5:5 6:10 15:5 20:5 19:5 11:5 5:5 6:15
6:0 8:5 5:5 6:10 15:5 20:5 19:5 11:5 5:5 6:15 7:5
8:0 5:5 6:10 15:5 20:5 19:5 11:5 5:5 6:15 7:5 19:10
5:0 6:10 15:5 20:5 19:5 11:5 5:5 6:15 7:5 19:10 15:10
6:0 15:5 20:5 19:5 11:5 5:5 6:15 7:5 19:10 15:10 5:5
15:0 20:5 19:5 11:5 5:5 6:15 7:5 19:10 15:10 5:5 7:5
20:0 19:5 11:5 5:5 6:15 7:5 19:10 15:10 5:5 7:5 6:10
19:0 11:5 5:5 6:15 7:5 19:10 15:10 5:5 7:5 6:10 5:5
11:0 5:5 6:15 7:5 19:10 15:10 5:5 7:5 6:10 5:5 6:5
5:0 6:15 7:5 19:10 15:10 5:5 7:5 6:10 5:5 6:5 15:5
6:0 7:5 19:10 15:10 5:5 7:5 6:10 5:5 6:5 15:5 20:5
7:0 19:10 15:10 5:5 7:5 6:10 5:5 6:5 15:5 20:5 19:5
19:0 15:10 5:5 7:5 6:10 5:5 6:5 15:5 20:5 19:5 15:5
15:0 5:5 7:5 6:10 5:5 6:5 15:5 20:5 19:5 15:5 5:5
5:0 7:5 6:10 5:5 6:5 15:5 20:5 19:5 15:5 5:5 7:5
7:0 6:10 5:5 6:5 15:5 20:5 19:5 15:5 5:5 7:5 5:10
6:0 5:5 6:5 15:5 20:5 19:5 15:5 5:5 7:5 5:10 6:10
5:0 6:5 15:5 20:5 19:5 15:5 5:5 7:5 5:10 6:10 8:5
6:0 15:5 20:5 19:5 15:5 5:5 7:5 5:10 6:10 8:5 20:5
15:0 20:5 19:5 15:5 5:5 7:5 5:10 6:10 8:5 20:5 19:5
20:0 19:5 15:5 5:5 7:5 5:10 6:10 8:5 20:5 19:5 12:5
19:0 15:5 5:5 7:5 5:10 6:10 8:5 20:5 19:5 12:5 5:5
15:0 5:5 7:5 5:10 6:10 8:5 20:5 19:5 12:5 5:5 6:5
5:0 7:5 5:10 6:10 8:5 20:5 19:5 12:5 5:5 6:5 7:5
7:0 5:10 6:10 8:5 20:5 19:5 12:5 5:5 6:5 7:5 5:5
5:0 6:10 8:5 20:5 19:5 12:5 5:5 6:5 7:5 5:5 6:5
6:0 8:5 20:5 19:5 12:5 5:5 6:5 7:5 5:5 6:5 8:5
8:0 20:5 19:5 12:5 5:5 6:5 7:5 5:5 6:5 8:5 20:5
20:0 19:5 12:5 5:5 6:5 7:5 5:5 6:5 8:5 20:5 19:5
19:0 12:5 5:5 6:5 7:5 5:5 6:5 8:5 20:5 19:5 18:5
12:0 5:5 6:5 7:5 5:5 6:5 8:5 20:5 19:5 18:5 5:5
5:0 6:5 7:5 5:5 6:5 8:5 20:5 19:5 18:5 5:5 6:15
6:0 7:5 5:5 6:5 8:5 20:5 19:5 18:5 5:5 6:15 7:5
7:0 5:5 6:5 8:5 20:5 19:5 18:5 5:5 6:15 7:5 6:5
5:0 6:5 8:5 20:5 19:5 18:5 5:5 6:15 7:5 6:5 7:10
6:0 8:5 20:5 19:5 18:5 5:5 6:15 7:5 6:5 7:10 20:5
8:0 20:5 19:5 18:5 5:5 6:15 7:5 6:5 7:10 20:5 19:5
20:0 19:5 18:5 5:5 6:15 7:5 6:5 7:10 20:5 19:5 11:10
19:0 18:5 5:5 6:15 7:5 6:5 7:10 20:5 19:5 11:10 5:5
18:0 5:5 6:15 7:5 6:5 7:10 20:5 19:5 11:10 5:5 8:15
5:0 6:15 7:5 6:5 7:10 20:5 19:5 11:10 5:5 8:15 17:5
6:0 7:5 6:5 7:10 20:5 19:5 11:10 5:5 8:15 17:5 19:5
7:0 6:5 7:10 20:5 19:5 11:10 5:5 8:15 17:5 19:5 15:5
6:0 7:10 20:5 19:5 11:10 5:5 8:15 17:5 19:5 15:5 4:5
7:0 20:5 19:5 11:10 5:5 8:15 17:5 19:5 15:5 4:5 6:5
20:0 19:5 11:10 5:5 8:15 17:5 19:5 15:5 4:5 6:5 5:5
19:0 11:10 5:5 8:15 17:5 19:5 15:5 4:5 6:5 5:5 9:15
11:0 5:5 8:15 17:5 19:5 15:5 4:5 6:5 5:5 9:15 19:5
5:0 8:15 17:5 19:5 15:5 4:5 6:5 5:5 9:15 19:5 12:10
8:0 17:5 19:5 15:5 4:5 6:5 5:5 9:15 19:5 12:10 4:5
17:0 19:5 15:5 4:5 6:5 5:5 9:15 19:5 12:10 4:5 5:5
19:0 15:5 4:5 6:5 5:5 9:15 19:5 12:10 4:5 5:5 6:5
15:0 4:5 6:5 5:5 9:15 19:5 12:10 4:5 5:5 6:5 8:5
4:0 6:5 5:5 9:15 19:5 12:10 4:5 5:5 6:5 8:5 6:5
6:0 5:5 9:15 19:5 12:10 4:5 5:5 6:5 8:5 6:5 5:5
5:0 9:15 19:5 12:10 4:5 5:5 6:5 8:5 6:5 5:5 7:5
9:0 19:5 12:10 4:5 5:5 6:5 8:5 6:5 5:5 7:5 14:5
19:0 12:10 4:5 5:5 6:5 8:5 6:5 5:5 7:5 14:5 20:5
12:0 4:5 5:5 6:5 8:5 6:5 5:5 7:5 14:5 20:5 19:5
4:0 5:5 6:5 8:5 6:5 5:5 7:5 14:5 20:5 19:5 8:5
5:0 6:5 8:5 6:5 5:5 7:5 14:5 20:5 19:5 8:5 6:5
6:0 8:5 6:5 5:5 7:5 14:5 20:5 19:5 8:5 6:5 5:5
8:0 6:5 5:5 7:5 14:5 20:5 19:5 8:5 6:5 5:5 8:10
6:0 5:5 7:5 14:5 20:5 19:5 8:5 6:5 5:5 8:10 7:5
5:0 7:5 14:5 20:5 19:5 8:5 6:5 5:5 8:10 7:5 6:10
7:0 14:5 20:5 19:5 8:5 6:5 5:5 8:10 7:5 6:10 7:5
14:0 20:5 19:5 8:5 6:5 5:5 8:10 7:5 6:10 7:5 20:5
20:0 19:5 8:5 6:5 5:5 8:10 7:5 6:10 7:5 20:5 19:10
19:0 8:5 6:5 5:5 8:10 7:5 6:10 7:5 20:5 19:10 18:5
8:0 6:5 5:5 8:10 7:5 6:10 7:5 20:5 19:10 18:5 4:5
6:0 5:5 8:10 7:5 6:10 7:5 20:5 19:10 18:5 4:5 6:10
5:0 8:10 7:5 6:10 7:5 20:5 19:10 18:5 4:5 6:10 7:5
8:0 7:5 6:10 7:5 20:5 19:10 18:5 4:5 6:10 7:5 8:5
7:0 6:10 7:5 20:5 19:10 18:5 4:5 6:10 7:5 8:5 6:5
6:0 7:5 20:5 19:10 18:5 4:5 6:10 7:5 8:5 6:5 5:5
7:0 20:5 19:10 18:5 4:5 6:10 7:5 8:5 6:5 5:5 7:5
20:0 19:10 18:5 4:5 6:10 7:5 8:5 6:5 5:5 7:5 17:5
19:0 18:5 4:5 6:10 7:5 8:5 6:5 5:5 7:5 17:5 20:5
18:0 4:5 6:10 7:5 8:5 6:5 5:5 7:5 17:5 20:5 19:5
4:0 6:10 7:5 8:5 6:5 5:5 7:5 17:5 20:5 19:5 8:5
6:0 7:5 8:5 6:5 5:5 7:5 17:5 20:5 19:5 8:5 6:5
7:0 8:5 6:5 5:5 7:5 17:5 20:5 19:5 8:5 6:5 7:10
8:0 6:5 5:5 7:5 17:5 20:5 19:5 8:5 6:5 7:10 5:5
6:0 5:5 7:5 17:5 20:5 19:5 8:5 6:5 7:10 5:5 6:5
5:0 7:5 17:5 20:5 19:5 8:5 6:5 7:10 5:5 6:5 7:5
7:0 17:5 20:5 19:5 8:5 6:5 7:10 5:5 6:5 7:5 19:5
17:0 20:5 19:5 8:5 6:5 7:10 5:5 6:5 7:5 19:5 18:10
20:0 19:5 8:5 6:5 7:10 5:5 6:5 7:5 19:5 18:10 5:5
19:0 8:5 6:5 7:10 5:5 6:5 7:5 19:5 18:10 5:5 6:5
8:0 6:5 7:10 5:5 6:5 7:5 19:5 18:10 5:5 6:5 7:5
6:0 7:10 5:5 6:5 7:5 19:5 18:10 5:5 6:5 7:5 5:10
7:0 5:5 6:5 7:5 19:5 18:10 5:5 6:5 7:5 5:10 6:5
5:0 6:5 7:5 19:5 18:10 5:5 6:5 7:5 5:10 6:5 8:5
6:0 7:5 19:5 18:10 5:5 6:5 7:5 5:10 6:5 8:5 20:5
7:0 19:5 18:10 5:5 6:5 7:5 5:10 6:5 8:5 20:5 19:5
19:0 18:10 5:5 6:5 7:5 5:10 6:5 8:5 20:5 19:5 15:5
18:0 5:5 6:5 7:5 5:10 6:5 8:5 20:5 19:5 15:5 6:5
5:0 6:5 7:5 5:10 6:5 8:5 20:5 19:5 15:5 6:5 7:5
6:0 7:5 5:10 6:5 8:5 20:5 19:5 15:5 6:5 7:5 5:10
7:0 5:10 6:5 8:5 20:5 19:5 15:5 6:5 7:5 5:10 6:10
5:0 6:5 8:5 20:5 19:5 15:5 6:5 7:5 5:10 6:10 11:5
6:0 8:5 20:5 19:5 15:5 6:5 7:5 5:10 6:10 11:5 20:5
8:0 20:5 19:5 15:5 6:5 7:5 5:10 6:10 11:5 20:5 19:5
20:0 19:5 15:5 6:5 7:5 5:10 6:10 11:5 20:5 19:5 8:5
19:0 15:5 6:5 7:5 5:10 6:10 11:5 20:5 19:5 8:5 6:5
15:0 6:5 7:5 5:10 6:10 11:5 20:5 19:5 8:5 6:5 5:5
6:0 7:5 5:10 6:10 11:5 20:5 19:5 8:5 6:5 5:5 7:10
7:0 5:10 6:10 11:5 20:5 19:5 8:5 6:5 5:5 7:10 8:5
5:0 6:10 11:5 20:5 19:5 8:5 6:5 5:5 7:10 8:5 16:5
6:0 11:5 20:5 19:5 8:5 6:5 5:5 7:10 8:5 16:5 19:5
11:0 20:5 19:5 8:5 6:5 5:5 7:10 8:5 16:5 19:5 15:5
20:0 19:5 8:5 6:5 5:5 7:10 8:5 16:5 19:5 15:5 5:5
19:0 8:5 6:5 5:5 7:10 8:5 16:5 19:5 15:5 5:5 6:5
8:0 6:5 5:5 7:10 8:5 16:5 19:5 15:5 5:5 6:5 8:5
6:0 5:5 7:10 8:5 16:5 19:5 15:5 5:5 6:5 8:5 17:5
5:0 7:10 8:5 16:5 19:5 15:5 5:5 6:5 8:5 17:5 19:5
7:0 8:5 16:5 19:5 15:5 5:5 6:5 8:5 17:5 19:5 11:5
8:0 16:5 19:5 15:5 5:5 6:5 8:5 17:5 19:5 11:5 6:5
16:0 19:5 15:5 5:5 6:5 8:5 17:5 19:5 11:5 6:5 5:5
19:0 15:5 5:5 6:5 8:5 17:5 19:5 11:5 6:5 5:5 7:10
15:0 5:5 6:5 8:5 17:5 19:5 11:5 6:5 5:5 7:10 6:15
5:0 6:5 8:5 17:5 19:5 11:5 6:5 5:5 7:10 6:15 19:10
6:0 8:5 17:5 19:5 11:5 6:5 5:5 7:10 6:15 19:10 20:5
8:0 17:5 19:5 11:5 6:5 5:5 7:10 6:15 19:10 20:5 19:10
17:0 19:5 11:5 6:5 5:5 7:10 6:15 19:10 20:5 19:10 4:5
19:0 11:5 6:5 5:5 7:10 6:15 19:10 20:5 19:10 4:5 5:10
11:0 6:5 5:5 7:10 6:15 19:10 20:5 19:10 4:5 5:10 6:5
6:0 5:5 7:10 6:15 19:10 20:5 19:10 4:5 5:10 6:5 8:5
5:0 7:10 6:15 19:10 20:5 19:10 4:5 5:10 6:5 8:5 6:5
7:0 6:15 19:10 20:5 19:10 4:5 5:10 6:5 8:5 6:5 5:5
6:0 19:10 20:5 19:10 4:5 5:10 6:5 8:5 6:5 5:5 6:5
19:0 20:5 19:10 4:5 5:10 6:5 8:5 6:5 5:5 6:5 12:5
20:0 19:10 4:5 5:10 6:5 8:5 6:5 5:5 6:5 12:5 20:5
19:0 4:5 5:10 6:5 8:5 6:5 5:5 6:5 12:5 20:5 19:5
4:0 5:10 6:5 8:5 6:5 5:5 6:5 12:5 20:5 19:5 15:5
5:0 6:5 8:5 6:5 5:5 6:5 12:5 20:5 19:5 15:5 6:5
6:0 8:5 6:5 5:5 6:5 12:5 20:5 19:5 15:5 6:5 5:5
8:0 6:5 5:5 6:5 12:5 20:5 19:5 15:5 6:5 5:5 7:10
6:0 5:5 6:5 12:5 20:5 19:5 15:5 6:5 5:5 7:10 10:10
5:0 6:5 12:5 20:5 19:5 15:5 6:5 5:5 7:10 10:10 19:5
6:0 12:5 20:5 19:5 15:5 6:5 5:5 7:10 10:10 19:5 18:5
12:0 20:5 19:5 15:5 6:5 5:5 7:10 10:10 19:5 18:5 5:5
20:0 19:5 15:5 6:5 5:5 7:10 10:10 19:5 18:5 5:5 7:10
19:0 15:5 6:5 5:5 7:10 10:10 19:5 18:5 5:5 7:10 8:5
15:0 6:5 5:5 7:10 10:10 19:5 18:5 5:5 7:10 8:5 6:5
6:0 5:5 7:10 10:10 19:5 18:5 5:5 7:10 8:5 6:5 5:5
5:0 7:10 10:10 19:5 18:5 5:5 7:10 8:5 6:5 5:5 6:5
7:0 10:10 19:5 18:5 5:5 7:10 8:5 6:5 5:5 6:5 15:5
10:0 19:5 18:5 5:5 7:10 8:5 6:5 5:5 6:5 15:5 20:5
19:0 18:5 5:5 7:10 8:5 6:5 5:5 6:5 15:5 20:5 19:5
18:0 5:5 7:10 8:5 6:5 5:5 6:5 15:5 20:5 19:5 15:5
5:0 7:10 8:5 6:5 5:5 6:5 15:5 20:5 19:5 15:5 6:5
7:0 8:5 6:5 5:5 6:5 15:5 20:5 19:5 15:5 6:5 7:5
8:0 6:5 5:5 6:5 15:5 20:5 19:5 15:5 6:5 7:5 5:10
6:0 5:5 6:5 15:5 20:5 19:5 15:5 6:5 7:5 5:10 6:10
5:0 6:5 15:5 20:5 19:5 15:5 6:5 7:5 5:10 6:10 8:5
6:0 15:5 20:5 19:5 15:5 6:5 7:5 5:10 6:10 8:5 20:5
15:0 20:5 19:5 15:5 6:5 7:5 5:10 6:10 8:5 20:5 19:5
20:0 19:5 15:5 6:5 7:5 5:10 6:10 8:5 20:5 19:5 11:5
19:0 15:5 6:5 7:5 5:10 6:10 8:5 20:5 19:5 11:5 6:5
15:0 6:5 7:5 5:10 6:10 8:5 20:5 19:5 11:5 6:5 5:5
6:0 7:5 5:10 6:10 8:5 20:5 19:5 11:5 6:5 5:5 7:10
7:0 5:10 6:10 8:5 20:5 19:5 11:5 6:5 5:5 7:10 6:15
5:0 6:10 8:5 20:5 19:5 11:5 6:5 5:5 7:10 6:15 10:5
6:0 8:5 20:5 19:5 11:5 6:5 5:5 7:10 6:15 10:5 20:5
8:0 20:5 19:5 11:5 6:5 5:5 7:10 6:15 10:5 20:5 19:5
20:0 19:5 11:5 6:5 5:5 7:10 6:15 10:5 20:5 19:5 8:10
19:0 11:5 6:5 5:5 7:10 6:15 10:5 20:5 19:5 8:10 5:5
11:0 6:5 5:5 7:10 6:15 10:5 20:5 19:5 8:10 5:5 4:5
6:0 5:5 7:10 6:15 10:5 20:5 19:5 8:10 5:5 4:5 6:5
5:0 7:10 6:15 10:5 20:5 19:5 8:10 5:5 4:5 6:5 8:5
7:0 6:15 10:5 20:5 19:5 8:10 5:5 4:5 6:5 8:5 7:5
6:0 10:5 20:5 19:5 8:10 5:5 4:5 6:5 8:5 7:5 6:5
10:0 20:5 19:5 8:10 5:5 4:5 6:5 8:5 7:5 6:5 7:10
20:0 19:5 8:10 5:5 4:5 6:5 8:5 7:5 6:5 7:10 19:5
19:0 8:10 5:5 4:5 6:5 8:5 7:5 6:5 7:10 19:5 8:15
8:0 5:5 4:5 6:5 8:5 7:5 6:5 7:10 19:5 8:15 6:5
5:0 4:5 6:5 8:5 7:5 6:5 7:10 19:5 8:15 6:5 7:5
4:0 6:5 8:5 7:5 6:5 7:10 19:5 8:15 6:5 7:5 5:10
6:0 8:5 7:5 6:5 7:10 19:5 8:15 6:5 7:5 5:10 6:5
8:0 7:5 6:5 7:10 19:5 8:15 6:5 7:5 5:10 6:5 7:5
7:0 6:5 7:10 19:5 8:15 6:5 7:5 5:10 6:5 7:5 14:5
6:0 7:10 19:5 8:15 6:5 7:5 5:10 6:5 7:5 14:5 20:5
7:0 19:5 8:15 6:5 7:5 5:10 6:5 7:5 14:5 20:5 19:5
19:0 8:15 6:5 7:5 5:10 6:5 7:5 14:5 20:5 19:5 8:5
8:0 6:5 7:5 5:10 6:5 7:5 14:5 20:5 19:5 8:5 5:5
6:0 7:5 5:10 6:5 7:5 14:5 20:5 19:5 8:5 5:5 6:10
7:0 5:10 6:5 7:5 14:5 20:5 19:5 8:5 5:5 6:10 7:5
5:0 6:5 7:5 14:5 20:5 19:5 8:5 5:5 6:10 7:5 20:10
6:0 7:5 14:5 20:5 19:5 8:5 5:5 6:10 7:5 20:10 19:5
7:0 14:5 20:5 19:5 8:5 5:5 6:10 7:5 20:10 19:5 12:5
14:0 20:5 19:5 8:5 5:5 6:10 7:5 20:10 19:5 12:5 4:5
20:0 19:5 8:5 5:5 6:10 7:5 20:10 19:5 12:5 4:5 6:5
19:0 8:5 5:5 6:10 7:5 20:10 19:5 12:5 4:5 6:5 7:5
8:0 5:5 6:10 7:5 20:10 19:5 12:5 4:5 6:5 7:5 5:10
5:0 6:10 7:5 20:10 19:5 12:5 4:5 6:5 7:5 5:10 7:10
6:0 7:5 20:10 19:5 12:5 4:5 6:5 7:5 5:10 7:10 19:5
7:0 20:10 19:5 12:5 4:5 6:5 7:5 5:10 7:10 19:5 5:15
20:0 19:5 12:5 4:5 6:5 7:5 5:10 7:10 19:5 5:15 6:5
19:0 12:5 4:5 6:5 7:5 5:10 7:10 19:5 5:15 6:5 5:5
12:0 4:5 6:5 7:5 5:10 7:10 19:5 5:15 6:5 5:5 6:5
4:0 6:5 7:5 5:10 7:10 19:5 5:15 6:5 5:5 6:5 7:10
6:0 7:5 5:10 7:10 19:5 5:15 6:5 5:5 6:5 7:10 16:5
7:0 5:10 7:10 19:5 5:15 6:5 5:5 6:5 7:10 16:5 19:5
5:0 7:10 19:5 5:15 6:5 5:5 6:5 7:10 16:5 19:5 15:5
7:0 19:5 5:15 6:5 5:5 6:5 7:10 16:5 19:5 15:5 4:5
19:0 5:15 6:5 5:5 6:5 7:10 16:5 19:5 15:5 4:5 6:5
5:0 6:5 5:5 6:5 7:10 16:5 19:5 15:5 4:5 6:5 7:5
6:0 5:5 6:5 7:10 16:5 19:5 15:5 4:5 6:5 7:5 8:5
5:0 6:5 7:10 16:5 19:5 15:5 4:5 6:5 7:5 8:5 6:5
6:0 7:10 16:5 19:5 15:5 4:5 6:5 7:5 8:5 6:5 5:5
7:0 16:5 19:5 15:5 4:5 6:5 7:5 8:5 6:5 5:5 6:5
16:0 19:5 15:5 4:5 6:5 7:5 8:5 6:5 5:5 6:5 19:5
19:0 15:5 4:5 6:5 7:5 8:5 6:5 5:5 6:5 19:5 20:5
15:0 4:5 6:5 7:5 8:5 6:5 5:5 6:5 19:5 20:5 19:5
4:0 6:5 7:5 8:5 6:5 5:5 6:5 19:5 20:5 19:5 11:5
6:0 7:5 8:5 6:5 5:5 6:5 19:5 20:5 19:5 11:5 6:5
7:0 8:5 6:5 5:5 6:5 19:5 20:5 19:5 11:5 6:5 5:5
8:0 6:5 5:5 6:5 19:5 20:5 19:5 11:5 6:5 5:5 8:5
6:0 5:5 6:5 19:5 20:5 19:5 11:5 6:5 5:5 8:5 5:5
5:0 6:5 19:5 20:5 19:5 11:5 6:5 5:5 8:5 5:5 7:10
6:0 19:5 20:5 19:5 11:5 6:5 5:5 8:5 5:5 7:10 17:5
19:0 20:5 19:5 11:5 6:5 5:5 8:5 5:5 7:10 17:5 20:5
20:0 19:5 11:5 6:5 5:5 8:5 5:5 7:10 17:5 20:5 19:5
19:0 11:5 6:5 5:5 8:5 5:5 7:10 17:5 20:5 19:5 5:5
11:0 6:5 5:5 8:5 5:5 7:10 17:5 20:5 19:5 5:5 6:5
6:0 5:5 8:5 5:5 7:10 17:5 20:5 19:5 5:5 6:5 5:5
5:0 8:5 5:5 7:10 17:5 20:5 19:5 5:5 6:5 5:5 6:5
8:0 5:5 7:10 17:5 20:5 19:5 5:5 6:5 5:5 6:5 7:5
5:0 7:10 17:5 20:5 19:5 5:5 6:5 5:5 6:5 7:5 17:15
7:0 17:5 20:5 19:5 5:5 6:5 5:5 6:5 7:5 17:15 20:5
17:0 20:5 19:5 5:5 6:5 5:5 6:5 7:5 17:15 20:5 19:5
20:0 19:5 5:5 6:5 5:5 6:5 7:5 17:15 20:5 19:5 9:5
19:0 5:5 6:5 5:5 6:5 7:5 17:15 20:5 19:5 9:5 7:5
5:0 6:5 5:5 6:5 7:5 17:15 20:5 19:5 9:5 7:5 5:10
6:0 5:5 6:5 7:5 17:15 20:5 19:5 9:5 7:5 5:10 6:10
5:0 6:5 7:5 17:15 20:5 19:5 9:5 7:5 5:10 6:10 14:5
6:0 7:5 17:15 20:5 19:5 9:5 7:5 5:10 6:10 14:5 20:5
7:0 17:15 20:5 19:5 9:5 7:5 5:10 6:10 14:5 20:5 19:5
17:0 20:5 19:5 9:5 7:5 5:10 6:10 14:5 20:5 19:5 11:5
20:0 19:5 9:5 7:5 5:10 6:10 14:5 20:5 19:5 11:5 6:5
19:0 9:5 7:5 5:10 6:10 14:5 20:5 19:5 11:5 6:5 5:5
9:0 7:5 5:10 6:10 14:5 20:5 19:5 11:5 6:5 5:5 6:10
7:0 5:10 6:10 14:5 20:5 19:5 11:5 6:5 5:5 6:10 8:5
5:0 6:10 14:5 20:5 19:5 11:5 6:5 5:5 6:10 8:5 6:5
6:0 14:5 20:5 19:5 11:5 6:5 5:5 6:10 8:5 6:5 17:15
14:0 20:5 19:5 11:5 6:5 5:5 6:10 8:5 6:5 17:15 20:5
20:0 19:5 11:5 6:5 5:5 6:10 8:5 6:5 17:15 20:5 19:5
19:0 11:5 6:5 5:5 6:10 8:5 6:5 17:15 20:5 19:5 18:5
11:0 6:5 5:5 6:10 8:5 6:5 17:15 20:5 19:5 18:5 5:5
6:0 5:5 6:10 8:5 6:5 17:15 20:5 19:5 18:5 5:5 7:10
5:0 6:10 8:5 6:5 17:15 20:5 19:5 18:5 5:5 7:10 8:5
6:0 8:5 6:5 17:15 20:5 19:5 18:5 5:5 7:10 8:5 14:5
8:0 6:5 17:15 20:5 19:5 18:5 5:5 7:10 8:5 14:5 19:5
6:0 17:15 20:5 19:5 18:5 5:5 7:10 8:5 14:5 19:5 15:5
17:0 20:5 19:5 18:5 5:5 7:10 8:5 14:5 19:5 15:5 6:5
20:0 19:5 18:5 5:5 7:10 8:5 14:5 19:5 15:5 6:5 5:5
19:0 18:5 5:5 7:10 8:5 14:5 19:5 15:5 6:5 5:5 7:10
18:0 5:5 7:10 8:5 14:5 19:5 15:5 6:5 5:5 7:10 18:15
5:0 7:10 8:5 14:5 19:5 15:5 6:5 5:5 7:10 18:15 19:5
7:0 8:5 14:5 19:5 15:5 6:5 5:5 7:10 18:15 19:5 18:5
8:0 14:5 19:5 15:5 6:5 5:5 7:10 18:15 19:5 18:5 5:5
14:0 19:5 15:5 6:5 5:5 7:10 18:15 19:5 18:5 5:5 7:20
19:0 15:5 6:5 5:5 7:10 18:15 19:5 18:5 5:5 7:20 6:10
15:0 6:5 5:5 7:10 18:15 19:5 18:5 5:5 7:20 6:10 11:10
6:0 5:5 7:10 18:15 19:5 18:5 5:5 7:20 6:10 11:10 20:5
5:0 7:10 18:15 19:5 18:5 5:5 7:20 6:10 11:10 20:5 19:5
7:0 18:15 19:5 18:5 5:5 7:20 6:10 11:10 20:5 19:5 8:10
18:0 19:5 18:5 5:5 7:20 6:10 11:10 20:5 19:5 8:10 5:5
19:0 18:5 5:5 7:20 6:10 11:10 20:5 19:5 8:10 5:5 6:10
18:0 5:5 7:20 6:10 11:10 20:5 19:5 8:10 5:5 6:10 8:5
5:0 7:20 6:10 11:10 20:5 19:5 8:10 5:5 6:10 8:5 7:5
7:0 6:10 11:10 20:5 19:5 8:10 5:5 6:10 8:5 7:5 6:5
6:0 11:10 20:5 19:5 8:10 5:5 6:10 8:5 7:5 6:5 12:10
11:0 20:5 19:5 8:10 5:5 6:10 8:5 7:5 6:5 12:10 20:5
20:0 19:5 8:10 5:5 6:10 8:5 7:5 6:5 12:10 20:5 19:5
19:0 8:10 5:5 6:10 8:5 7:5 6:5 12:10 20:5 19:5 18:5
8:0 5:5 6:10 8:5 7:5 6:5 12:10 20:5 19:5 18:5 5:5
5:0 6:10 8:5 7:5 6:5 12:10 20:5 19:5 18:5 5:5 6:15
6:0 8:5 7:5 6:5 12:10 20:5 19:5 18:5 5:5 6:15 7:5
8:0 7:5 6:5 12:10 20:5 19:5 18:5 5:5 6:15 7:5 14:10
7:0 6:5 12:10 20:5 19:5 18:5 5:5 6:15 7:5 14:10 19:5
6:0 12:10 20:5 19:5 18:5 5:5 6:15 7:5 14:10 19:5 18:5
12:0 20:5 19:5 18:5 5:5 6:15 7:5 14:10 19:5 18:5 5:5
20:0 19:5 18:5 5:5 6:15 7:5 14:10 19:5 18:5 5:5 6:5
19:0 18:5 5:5 6:15 7:5 14:10 19:5 18:5 5:5 6:5 8:5
18:0 5:5 6:15 7:5 14:10 19:5 18:5 5:5 6:5 8:5 7:5
5:0 6:15 7:5 14:10 19:5 18:5 5:5 6:5 8:5 7:5 6:5
6:0 7:5 14:10 19:5 18:5 5:5 6:5 8:5 7:5 6:5 8:10
7:0 14:10 19:5 18:5 5:5 6:5 8:5 7:5 6:5 8:10 20:5
14:0 19:5 18:5 5:5 6:5 8:5 7:5 6:5 8:10 20:5 19:10
19:0 18:5 5:5 6:5 8:5 7:5 6:5 8:10 20:5 19:10 5:5
18:0 5:5 6:5 8:5 7:5 6:5 8:10 20:5 19:10 5:5 6:5
5:0 6:5 8:5 7:5 6:5 8:10 20:5 19:10 5:5 6:5 5:5
6:0 8:5 7:5 6:5 8:10 20:5 19:10 5:5 6:5 5:5 7:10
8:0 7:5 6:5 8:10 20:5 19:10 5:5 6:5 5:5 7:10 6:15
7:0 6:5 8:10 20:5 19:10 5:5 6:5 5:5 7:10 6:15 7:5
6:0 8:10 20:5 19:10 5:5 6:5 5:5 7:10 6:15 7:5 19:5
8:0 20:5 19:10 5:5 6:5 5:5 7:10 6:15 7:5 19:5 12:15
20:0 19:10 5:5 6:5 5:5 7:10 6:15 7:5 19:5 12:15 5:5
19:0 5:5 6:5 5:5 7:10 6:15 7:5 19:5 12:15 5:5 6:10
5:0 6:5 5:5 7:10 6:15 7:5 19:5 12:15 5:5 6:10 8:5
6:0 5:5 7:10 6:15 7:5 19:5 12:15 5:5 6:10 8:5 14:5
5:0 7:10 6:15 7:5 19:5 12:15 5:5 6:10 8:5 14:5 19:5
7:0 6:15 7:5 19:5 12:15 5:5 6:10 8:5 14:5 19:5 15:5
6:0 7:5 19:5 12:15 5:5 6:10 8:5 14:5 19:5 15:5 6:5
7:0 19:5 12:15 5:5 6:10 8:5 14:5 19:5 15:5 6:5 7:5
19:0 12:15 5:5 6:10 8:5 14:5 19:5 15:5 6:5 7:5 5:10
12:0 5:5 6:10 8:5 14:5 19:5 15:5 6:5 7:5 5:10 7:10
5:0 6:10 8:5 14:5 19:5 15:5 6:5 7:5 5:10 7:10 8:5
6:0 8:5 14:5 19:5 15:5 6:5 7:5 5:10 7:10 8:5 20:5
8:0 14:5 19:5 15:5 6:5 7:5 5:10 7:10 8:5 20:5 19:5
14:0 19:5 15:5 6:5 7:5 5:10 7:10 8:5 20:5 19:5 12:5
19:0 15:5 6:5 7:5 5:10 7:10 8:5 20:5 19:5 12:5 5:5
15:0 6:5 7:5 5:10 7:10 8:5 20:5 19:5 12:5 5:5 7:15
6:0 7:5 5:10 7:10 8:5 20:5 19:5 12:5 5:5 7:15 6:10
7:0 5:10 7:10 8:5 20:5 19:5 12:5 5:5 7:15 6:10 7:10
5:0 7:10 8:5 20:5 19:5 12:5 5:5 7:15 6:10 7:10 17:5
7:0 8:5 20:5 19:5 12:5 5:5 7:15 6:10 7:10 17:5 20:5
8:0 20:5 19:5 12:5 5:5 7:15 6:10 7:10 17:5 20:5 19:5
20:0 19:5 12:5 5:5 7:15 6:10 7:10 17:5 20:5 19:5 8:5
19:0 12:5 5:5 7:15 6:10 7:10 17:5 20:5 19:5 8:5 5:5
12:0 5:5 7:15 6:10 7:10 17:5 20:5 19:5 8:5 5:5 7:10
5:0 7:15 6:10 7:10 17:5 20:5 19:5 8:5 5:5 7:10 8:5
7:0 6:10 7:10 17:5 20:5 19:5 8:5 5:5 7:10 8:5 7:5
6:0 7:10 17:5 20:5 19:5 8:5 5:5 7:10 8:5 7:5 6:5
7:0 17:5 20:5 19:5 8:5 5:5 7:10 8:5 7:5 6:5 7:10
17:0 20:5 19:5 8:5 5:5 7:10 8:5 7:5 6:5 7:10 19:5
20:0 19:5 8:5 5:5 7:10 8:5 7:5 6:5 7:10 19:5 8:15
19:0 8:5 5:5 7:10 8:5 7:5 6:5 7:10 19:5 8:15 7:5
8:0 5:5 7:10 8:5 7:5 6:5 7:10 19:5 8:15 7:5 6:10
5:0 7:10 8:5 7:5 6:5 7:10 19:5 8:15 7:5 6:10 5:5
7:0 8:5 7:5 6:5 7:10 19:5 8:15 7:5 6:10 5:5 6:5
8:0 7:5 6:5 7:10 19:5 8:15 7:5 6:10 5:5 6:5 7:5
7:0 6:5 7:10 19:5 8:15 7:5 6:10 5:5 6:5 7:5 19:5
6:0 7:10 19:5 8:15 7:5 6:10 5:5 6:5 7:5 19:5 18:10
7:0 19:5 8:15 7:5 6:10 5:5 6:5 7:5 19:5 18:10 5:5
19:0 8:15 7:5 6:10 5:5 6:5 7:5 19:5 18:10 5:5 6:5
8:0 7:5 6:10 5:5 6:5 7:5 19:5 18:10 5:5 6:5 8:5
7:0 6:10 5:5 6:5 7:5 19:5 18:10 5:5 6:5 8:5 7:5
6:0 5:5 6:5 7:5 19:5 18:10 5:5 6:5 8:5 7:5 5:5
5:0 6:5 7:5 19:5 18:10 5:5 6:5 8:5 7:5 5:5 7:5
6:0 7:5 19:5 18:10 5:5 6:5 8:5 7:5 5:5 7:5 17:5
7:0 19:5 18:10 5:5 6:5 8:5 7:5 5:5 7:5 17:5 20:5
19:0 18:10 5:5 6:5 8:5 7:5 5:5 7:5 17:5 20:5 19:5
18:0 5:5 6:5 8:5 7:5 5:5 7:5 17:5 20:5 19:5 8:5
5:0 6:5 8:5 7:5 5:5 7:5 17:5 20:5 19:5 8:5 6:5
6:0 8:5 7:5 5:5 7:5 17:5 20:5 19:5 8:5 6:5 7:10
8:0 7:5 5:5 7:5 17:5 20:5 19:5 8:5 6:5 7:10 5:5
7:0 5:5 7:5 17:5 20:5 19:5 8:5 6:5 7:10 5:5 7:10
5:0 7:5 17:5 20:5 19:5 8:5 6:5 7:10 5:5 7:10 17:5
7:0 17:5 20:5 19:5 8:5 6:5 7:10 5:5 7:10 17:5 19:5
17:0 20:5 19:5 8:5 6:5 7:10 5:5 7:10 17:5 19:5 18:5
20:0 19:5 8:5 6:5 7:10 5:5 7:10 17:5 19:5 18:5 5:5
19:0 8:5 6:5 7:10 5:5 7:10 17:5 19:5 18:5 5:5 7:15
8:0 6:5 7:10 5:5 7:10 17:5 19:5 18:5 5:5 7:15 8:5
6:0 7:10 5:5 7:10 17:5 19:5 18:5 5:5 7:15 8:5 7:5
7:0 5:5 7:10 17:5 19:5 18:5 5:5 7:15 8:5 7:5 20:5
5:0 7:10 17:5 19:5 18:5 5:5 7:15 8:5 7:5 20:5 19:5
7:0 17:5 19:5 18:5 5:5 7:15 8:5 7:5 20:5 19:5 11:5
17:0 19:5 18:5 5:5 7:15 8:5 7:5 20:5 19:5 11:5 5:5
19:0 18:5 5:5 7:15 8:5 7:5 20:5 19:5 11:5 5:5 6:5
18:0 5:5 7:15 8:5 7:5 20:5 19:5 11:5 5:5 6:5 7:5
5:0 7:15 8:5 7:5 20:5 19:5 11:5 5:5 6:5 7:5 8:5
7:0 8:5 7:5 20:5 19:5 11:5 5:5 6:5 7:5 8:5 6:5
8:0 7:5 20:5 19:5 11:5 5:5 6:5 7:5 8:5 6:5 8:10
7:0 20:5 19:5 11:5 5:5 6:5 7:5 8:5 6:5 8:10 20:5
20:0 19:5 11:5 5:5 6:5 7:5 8:5 6:5 8:10 20:5 19:5
19:0 11:5 5:5 6:5 7:5 8:5 6:5 8:10 20:5 19:5 5:10
11:0 5:5 6:5 7:5 8:5 6:5 8:10 20:5 19:5 5:10 6:5
5:0 6:5 7:5 8:5 6:5 8:10 20:5 19:5 5:10 6:5 7:5
6:0 7:5 8:5 6:5 8:10 20:5 19:5 5:10 6:5 7:5 6:5
7:0 8:5 6:5 8:10 20:5 19:5 5:10 6:5 7:5 6:5 5:5
8:0 6:5 8:10 20:5 19:5 5:10 6:5 7:5 6:5 5:5 6:5
6:0 8:10 20:5 19:5 5:10 6:5 7:5 6:5 5:5 6:5 7:5
8:0 20:5 19:5 5:10 6:5 7:5 6:5 5:5 6:5 7:5 19:5
20:0 19:5 5:10 6:5 7:5 6:5 5:5 6:5 7:5 19:5 18:10
19:0 5:10 6:5 7:5 6:5 5:5 6:5 7:5 19:5 18:10 5:5
5:0 6:5 7:5 6:5 5:5 6:5 7:5 19:5 18:10 5:5 6:10
6:0 7:5 6:5 5:5 6:5 7:5 19:5 18:10 5:5 6:10 7:5
7:0 6:5 5:5 6:5 7:5 19:5 18:10 5:5 6:10 7:5 5:5
6:0 5:5 6:5 7:5 19:5 18:10 5:5 6:10 7:5 5:5 6:5
5:0 6:5 7:5 19:5 18:10 5:5 6:10 7:5 5:5 6:5 8:5
6:0 7:5 19:5 18:10 5:5 6:10 7:5 5:5 6:5 8:5 20:5
7:0 19:5 18:10 5:5 6:10 7:5 5:5 6:5 8:5 20:5 19:5
19:0 18:10 5:5 6:10 7:5 5:5 6:5 8:5 20:5 19:5 12:5
18:0 5:5 6:10 7:5 5:5 6:5 8:5 20:5 19:5 12:5 6:5
5:0 6:10 7:5 5:5 6:5 8:5 20:5 19:5 12:5 6:5 7:5
6:0 7:5 5:5 6:5 8:5 20:5 19:5 12:5 6:5 7:5 5:10
7:0 5:5 6:5 8:5 20:5 19:5 12:5 6:5 7:5 5:10 6:5
5:0 6:5 8:5 20:5 19:5 12:5 6:5 7:5 5:10 6:5 7:5
6:0 8:5 20:5 19:5 12:5 6:5 7:5 5:10 6:5 7:5 17:5
8:0 20:5 19:5 12:5 6:5 7:5 5:10 6:5 7:5 17:5 19:5
20:0 19:5 12:5 6:5 7:5 5:10 6:5 7:5 17:5 19:5 18:5
19:0 12:5 6:5 7:5 5:10 6:5 7:5 17:5 19:5 18:5 5:5
12:0 6:5 7:5 5:10 6:5 7:5 17:5 19:5 18:5 5:5 6:5
6:0 7:5 5:10 6:5 7:5 17:5 19:5 18:5 5:5 6:5 5:5
7:0 5:10 6:5 7:5 17:5 19:5 18:5 5:5 6:5 5:5 6:5
5:0 6:5 7:5 17:5 19:5 18:5 5:5 6:5 5:5 6:5 7:5
6:0 7:5 17:5 19:5 18:5 5:5 6:5 5:5 6:5 7:5 6:10
7:0 17:5 19:5 18:5 5:5 6:5 5:5 6:5 7:5 6:10 7:5
17:0 19:5 18:5 5:5 6:5 5:5 6:5 7:5 6:10 7:5 19:5
19:0 18:5 5:5 6:5 5:5 6:5 7:5 6:10 7:5 19:5 18:15
18:0 5:5 6:5 5:5 6:5 7:5 6:10 7:5 19:5 18:15 5:5
5:0 6:5 5:5 6:5 7:5 6:10 7:5 19:5 18:15 5:5 7:15
6:0 5:5 6:5 7:5 6:10 7:5 19:5 18:15 5:5 7:15 5:15
5:0 6:5 7:5 6:10 7:5 19:5 18:15 5:5 7:15 5:15 6:5
6:0 7:5 6:10 7:5 19:5 18:15 5:5 7:15 5:15 6:5 8:5
7:0 6:10 7:5 19:5 18:15 5:5 7:15 5:15 6:5 8:5 20:5
6:0 7:5 19:5 18:15 5:5 7:15 5:15 6:5 8:5 20:5 19:5
7:0 19:5 18:15 5:5 7:15 5:15 6:5 8:5 20:5 19:5 5:10
19:0 18:15 5:5 7:15 5:15 6:5 8:5 20:5 19:5 5:10 7:5
18:0 5:5 7:15 5:15 6:5 8:5 20:5 19:5 5:10 7:5 6:10
5:0 7:15 5:15 6:5 8:5 20:5 19:5 5:10 7:5 6:10 5:5
7:0 5:15 6:5 8:5 20:5 19:5 5:10 7:5 6:10 5:5 6:5
5:0 6:5 8:5 20:5 19:5 5:10 7:5 6:10 5:5 6:5 7:5
6:0 8:5 20:5 19:5 5:10 7:5 6:10 5:5 6:5 7:5 19:5
8:0 20:5 19:5 5:10 7:5 6:10 5:5 6:5 7:5 19:5 15:10
20:0 19:5 5:10 7:5 6:10 5:5 6:5 7:5 19:5 15:10 6:5
19:0 5:10 7:5 6:10 5:5 6:5 7:5 19:5 15:10 6:5 5:5
5:0 7:5 6:10 5:5 6:5 7:5 19:5 15:10 6:5 5:5 8:5
7:0 6:10 5:5 6:5 7:5 19:5 15:10 6:5 5:5 8:5 6:5
6:0 5:5 6:5 7:5 19:5 15:10 6:5 5:5 8:5 6:5 5:5
5:0 6:5 7:5 19:5 15:10 6:5 5:5 8:5 6:5 5:5 6:5
6:0 7:5 19:5 15:10 6:5 5:5 8:5 6:5 5:5 6:5 19:5
7:0 19:5 15:10 6:5 5:5 8:5 6:5 5:5 6:5 19:5 20:5
19:0 15:10 6:5 5:5 8:5 6:5 5:5 6:5 19:5 20:5 19:5
15:0 6:5 5:5 8:5 6:5 5:5 6:5 19:5 20:5 19:5 5:5
6:0 5:5 8:5 6:5 5:5 6:5 19:5 20:5 19:5 5:5 6:5
5:0 8:5 6:5 5:5 6:5 19:5 20:5 19:5 5:5 6:5 5:5
8:0 6:5 5:5 6:5 19:5 20:5 19:5 5:5 6:5 5:5 6:10
6:0 5:5 6:5 19:5 20:5 19:5 5:5 6:5 5:5 6:10 8:5
5:0 6:5 19:5 20:5 19:5 5:5 6:5 5:5 6:10 8:5 6:5
6:0 19:5 20:5 19:5 5:5 6:5 5:5 6:10 8:5 6:5 7:10
19:0 20:5 19:5 5:5 6:5 5:5 6:10 8:5 6:5 7:10 17:5
20:0 19:5 5:5 6:5 5:5 6:10 8:5 6:5 7:10 17:5 19:5
19:0 5:5 6:5 5:5 6:10 8:5 6:5 7:10 17:5 19:5 11:10
5:0 6:5 5:5 6:10 8:5 6:5 7:10 17:5 19:5 11:10 5:5
6:0 5:5 6:10 8:5 6:5 7:10 17:5 19:5 11:10 5:5 7:10
5:0 6:10 8:5 6:5 7:10 17:5 19:5 11:10 5:5 7:10 12:5
6:0 8:5 6:5 7:10 17:5 19:5 11:10 5:5 7:10 12:5 20:5
8:0 6:5 7:10 17:5 19:5 11:10 5:5 7:10 12:5 20:5 19:5
6:0 7:10 17:5 19:5 11:10 5:5 7:10 12:5 20:5 19:5 4:5
7:0 17:5 19:5 11:10 5:5 7:10 12:5 20:5 19:5 4:5 6:5
17:0 19:5 11:10 5:5 7:10 12:5 20:5 19:5 4:5 6:5 5:5
19:0 11:10 5:5 7:10 12:5 20:5 19:5 4:5 6:5 5:5 8:15
11:0 5:5 7:10 12:5 20:5 19:5 4:5 6:5 5:5 8:15 6:5
5:0 7:10 12:5 20:5 19:5 4:5 6:5 5:5 8:15 6:5 7:15
7:0 12:5 20:5 19:5 4:5 6:5 5:5 8:15 6:5 7:15 20:5
12:0 20:5 19:5 4:5 6:5 5:5 8:15 6:5 7:15 20:5 19:10
20:0 19:5 4:5 6:5 5:5 8:15 6:5 7:15 20:5 19:10 5:5
19:0 4:5 6:5 5:5 8:15 6:5 7:15 20:5 19:10 5:5 4:5
4:0 6:5 5:5 8:15 6:5 7:15 20:5 19:10 5:5 4:5 5:5
6:0 5:5 8:15 6:5 7:15 20:5 19:10 5:5 4:5 5:5 7:5
5:0 8:15 6:5 7:15 20:5 19:10 5:5 4:5 5:5 7:5 8:5
8:0 6:5 7:15 20:5 19:10 5:5 4:5 5:5 7:5 8:5 6:5
6:0 7:15 20:5 19:10 5:5 4:5 5:5 7:5 8:5 6:5 5:5
7:0 20:5 19:10 5:5 4:5 5:5 7:5 8:5 6:5 5:5 7:5
20:0 19:10 5:5 4:5 5:5 7:5 8:5 6:5 5:5 7:5 19:5
19:0 5:5 4:5 5:5 7:5 8:5 6:5 5:5 7:5 19:5 20:5
5:0 4:5 5:5 7:5 8:5 6:5 5:5 7:5 19:5 20:5 19:5
4:0 5:5 7:5 8:5 6:5 5:5 7:5 19:5 20:5 19:5 8:5
5:0 7:5 8:5 6:5 5:5 7:5 19:5 20:5 19:5 8:5 6:5
7:0 8:5 6:5 5:5 7:5 19:5 20:5 19:5 8:5 6:5 5:5
8:0 6:5 5:5 7:5 19:5 20:5 19:5 8:5 6:5 5:5 6:5
6:0 5:5 7:5 19:5 20:5 19:5 8:5 6:5 5:5 6:5 7:5
5:0 7:5 19:5 20:5 19:5 8:5 6:5 5:5 6:5 7:5 14:10
7:0 19:5 20:5 19:5 8:5 6:5 5:5 6:5 7:5 14:10 19:5
19:0 20:5 19:5 8:5 6:5 5:5 6:5 7:5 14:10 19:5 4:10
20:0 19:5 8:5 6:5 5:5 6:5 7:5 14:10 19:5 4:10 5:5
19:0 8:5 6:5 5:5 6:5 7:5 14:10 19:5 4:10 5:5 8:5
8:0 6:5 5:5 6:5 7:5 14:10 19:5 4:10 5:5 8:5 7:5
6:0 5:5 6:5 7:5 14:10 19:5 4:10 5:5 8:5 7:5 6:5
5:0 6:5 7:5 14:10 19:5 4:10 5:5 8:5 7:5 6:5 5:5
6:0 7:5 14:10 19:5 4:10 5:5 8:5 7:5 6:5 5:5 6:5
7:0 14:10 19:5 4:10 5:5 8:5 7:5 6:5 5:5 6:5 17:5
14:0 19:5 4:10 5:5 8:5 7:5 6:5 5:5 6:5 17:5 20:5
19:0 4:10 5:5 8:5 7:5 6:5 5:5 6:5 17:5 20:5 19:5
4:0 5:5 8:5 7:5 6:5 5:5 6:5 17:5 20:5 19:5 11:5
5:0 8:5 7:5 6:5 5:5 6:5 17:5 20:5 19:5 11:5 6:5
8:0 7:5 6:5 5:5 6:5 17:5 20:5 19:5 11:5 6:5 5:5
7:0 6:5 5:5 6:5 17:5 20:5 19:5 11:5 6:5 5:5 6:10
6:0 5:5 6:5 17:5 20:5 19:5 11:5 6:5 5:5 6:10 8:5
5:0 6:5 17:5 20:5 19:5 11:5 6:5 5:5 6:10 8:5 14:5
6:0 17:5 20:5 19:5 11:5 6:5 5:5 6:10 8:5 14:5 19:5
17:0 20:5 19:5 11:5 6:5 5:5 6:10 8:5 14:5 19:5 15:5
20:0 19:5 11:5 6:5 5:5 6:10 8:5 14:5 19:5 15:5 5:5
19:0 11:5 6:5 5:5 6:10 8:5 14:5 19:5 15:5 5:5 7:10
11:0 6:5 5:5 6:10 8:5 14:5 19:5 15:5 5:5 7:10 6:10
6:0 5:5 6:10 8:5 14:5 19:5 15:5 5:5 7:10 6:10 5:5
5:0 6:10 8:5 14:5 19:5 15:5 5:5 7:10 6:10 5:5 6:5
6:0 8:5 14:5 19:5 15:5 5:5 7:10 6:10 5:5 6:5 15:5
8:0 14:5 19:5 15:5 5:5 7:10 6:10 5:5 6:5 15:5 20:5
14:0 19:5 15:5 5:5 7:10 6:10 5:5 6:5 15:5 20:5 19:5
19:0 15:5 5:5 7:10 6:10 5:5 6:5 15:5 20:5 19:5 15:5
15:0 5:5 7:10 6:10 5:5 6:5 15:5 20:5 19:5 15:5 6:5
5:0 7:10 6:10 5:5 6:5 15:5 20:5 19:5 15:5 6:5 8:10
7:0 6:10 5:5 6:5 15:5 20:5 19:5 15:5 6:5 8:10 5:5
6:0 5:5 6:5 15:5 20:5 19:5 15:5 6:5 8:10 5:5 6:10
5:0 6:5 15:5 20:5 19:5 15:5 6:5 8:10 5:5 6:10 8:5
6:0 15:5 20:5 19:5 15:5 6:5 8:10 5:5 6:10 8:5 19:5
15:0 20:5 19:5 15:5 6:5 8:10 5:5 6:10 8:5 19:5 11:10
20:0 19:5 15:5 6:5 8:10 5:5 6:10 8:5 19:5 11:10 6:5
19:0 15:5 6:5 8:10 5:5 6:10 8:5 19:5 11:10 6:5 7:10
15:0 6:5 8:10 5:5 6:10 8:5 19:5 11:10 6:5 7:10 6:5
6:0 8:10 5:5 6:10 8:5 19:5 11:10 6:5 7:10 6:5 7:10
8:0 5:5 6:10 8:5 19:5 11:10 6:5 7:10 6:5 7:10 19:5
5:0 6:10 8:5 19:5 11:10 6:5 7:10 6:5 7:10 19:5 5:15
6:0 8:5 19:5 11:10 6:5 7:10 6:5 7:10 19:5 5:15 6:10
8:0 19:5 11:10 6:5 7:10 6:5 7:10 19:5 5:15 6:10 8:5
19:0 11:10 6:5 7:10 6:5 7:10 19:5 5:15 6:10 8:5 6:5
11:0 6:5 7:10 6:5 7:10 19:5 5:15 6:10 8:5 6:5 7:15
6:0 7:10 6:5 7:10 19:5 5:15 6:10 8:5 6:5 7:15 20:5
7:0 6:5 7:10 19:5 5:15 6:10 8:5 6:5 7:15 20:5 19:5
6:0 7:10 19:5 5:15 6:10 8:5 6:5 7:15 20:5 19:5 12:10
7:0 19:5 5:15 6:10 8:5 6:5 7:15 20:5 19:5 12:10 5:5
19:0 5:15 6:10 8:5 6:5 7:15 20:5 19:5 12:10 5:5 8:15
5:0 6:10 8:5 6:5 7:15 20:5 19:5 12:10 5:5 8:15 11:5
6:0 8:5 6:5 7:15 20:5 19:5 12:10 5:5 8:15 11:5 19:5
8:0 6:5 7:15 20:5 19:5 12:10 5:5 8:15 11:5 19:5 18:5
6:0 7:15 20:5 19:5 12:10 5:5 8:15 11:5 19:5 18:5 5:5
7:0 20:5 19:5 12:10 5:5 8:15 11:5 19:5 18:5 5:5 6:5
20:0 19:5 12:10 5:5 8:15 11:5 19:5 18:5 5:5 6:5 5:5
19:0 12:10 5:5 8:15 11:5 19:5 18:5 5:5 6:5 5:5 6:5
12:0 5:5 8:15 11:5 19:5 18:5 5:5 6:5 5:5 6:5 7:5
5:0 8:15 11:5 19:5 18:5 5:5 6:5 5:5 6:5 7:5 6:10
8:0 11:5 19:5 18:5 5:5 6:5 5:5 6:5 7:5 6:10 7:10
11:0 19:5 18:5 5:5 6:5 5:5 6:5 7:5 6:10 7:10 20:5
19:0 18:5 5:5 6:5 5:5 6:5 7:5 6:10 7:10 20:5 19:10
18:0 5:5 6:5 5:5 6:5 7:5 6:10 7:10 20:5 19:10 8:5
5:0 6:5 5:5 6:5 7:5 6:10 7:10 20:5 19:10 8:5 5:5
6:0 5:5 6:5 7:5 6:10 7:10 20:5 19:10 8:5 5:5 7:10
5:0 6:5 7:5 6:10 7:10 20:5 19:10 8:5 5:5 7:10 8:5
6:0 7:5 6:10 7:10 20:5 19:10 8:5 5:5 7:10 8:5 18:5
7:0 6:10 7:10 20:5 19:10 8:5 5:5 7:10 8:5 18:5 19:5
6:0 7:10 20:5 19:10 8:5 5:5 7:10 8:5 18:5 19:5 8:5
7:0 20:5 19:10 8:5 5:5 7:10 8:5 18:5 19:5 8:5 6:5
20:0 19:10 8:5 5:5 7:10 8:5 18:5 19:5 8:5 6:5 5:5
19:0 8:5 5:5 7:10 8:5 18:5 19:5 8:5 6:5 5:5 7:10
8:0 5:5 7:10 8:5 18:5 19:5 8:5 6:5 5:5 7:10 6:15
5:0 7:10 8:5 18:5 19:5 8:5 6:5 5:5 7:10 6:15 7:5
7:0 8:5 18:5 19:5 8:5 6:5 5:5 7:10 6:15 7:5 19:5
8:0 18:5 19:5 8:5 6:5 5:5 7:10 6:15 7:5 19:5 20:5
18:0 19:5 8:5 6:5 5:5 7:10 6:15 7:5 19:5 20:5 19:10
19:0 8:5 6:5 5:5 7:10 6:15 7:5 19:5 20:5 19:10 4:5
8:0 6:5 5:5 7:10 6:15 7:5 19:5 20:5 19:10 4:5 5:10
6:0 5:5 7:10 6:15 7:5 19:5 20:5 19:10 4:5 5:10 7:5
5:0 7:10 6:15 7:5 19:5 20:5 19:10 4:5 5:10 7:5 6:10
7:0 6:15 7:5 19:5 20:5 19:10 4:5 5:10 7:5 6:10 5:5
6:0 7:5 19:5 20:5 19:10 4:5 5:10 7:5 6:10 5:5
7:0 19:5 20:5 19:10 4:5 5:10 7:5 6:10 5:5
19:0 20:5 19:10 4:5 5:10 7:5 6:10 5:5
20:0 19:10 4:5 5:10 7:5 6:10 5:5
19:0 4:5 5:10 7:5 6:10 5:5
4:0 5:10 7:5 6:10 5:5
5:0 7:5 6:10 5:5
7:0 6:10 5:5
6:0 5:5
5:0