S0 -> S1 [label="1 [0, 0, 0, 0, 0, 0, 0, 0] p=0.5"]
S0 -> S2 [label="2 [0, 0, 0, 0, 0, 0, 0] p=0.44"]
S0 -> S8 [label="4 [0] p=0.06"]
S1 -> S2 [label="2 [2348, 503, 167, 502, 502, 2855, 503, 167, 502, 502, 2855, 503, 167, 502, 2855, 167, 502, 2855, 167, 2855, 2855] p=0.75"]
S1 -> S8 [label="4 [331, 331, 331, 331, 331, 331, 331] p=0.25"]
S2 -> S1 [label="1 [3, 2, 2, 2, 2, 2, 2, 3, 2, 2, 2, 2, 2, 2, 2, 2, 2, 2, 2, 2, 2, 2, 2, 2, 2, 2, 2, 2] p=1.0"]
S8 -> S9 [label="2 [1, 1, 1, 1, 1, 1, 1, 1, 502, 502, 502, 502, 502, 502, 502, 502, 502, 502, 502, 502, 502, 502, 2855, 2855, 2855, 2855] p=1.0"]
S9 -> S8 [label="1 [2, 2, 2, 2, 2, 2, 2, 2, 2, 2, 2, 2, 2, 2, 2, 2, 2, 2, 2, 2, 2, 2, 2] p=1.0"]