S0 -> S1 [label="1 [0, 0, 0, 0, 0, 0, 0, 0] p=0.33"]
S0 -> S12 [label="7 [0, 0] p=0.08"]
S0 -> S23 [label="5 [0, 0, 0] p=0.12"]
S0 -> S34 [label="4 [0, 0, 0, 0, 0] p=0.21"]
S0 -> S6 [label="6 [0] p=0.04"]
S0 -> S66 [label="2 [0, 0] p=0.08"]
S0 -> S22 [label="9 [0] p=0.04"]
S0 -> S4 [label="3 [0, 0] p=0.08"]
S1 -> S2 [label="7 [2348] p=0.14"]
S1 -> S6 [label="6 [503] p=0.14"]
S1 -> S3 [label="2 [167] p=0.14"]
S1 -> S22 [label="9 [331] p=0.14"]
S1 -> S65 [label="4 [502, 502] p=0.29"]
S1 -> S126 [label="5 [2855] p=0.14"]
S12 -> S3 [label="5 [1] p=0.5"]
S12 -> S4 [label="4 [1] p=0.5"]
S23 -> S24 [label="4 [1] p=0.33"]
S23 -> S115 [label="1 [1] p=0.33"]
S23 -> S4 [label="3 [1] p=0.33"]
S34 -> S35 [label="1 [1, 1, 1] p=0.6"]
S34 -> S4 [label="3 [1] p=0.2"]
S34 -> S105 [label="5 [1] p=0.2"]
S66 -> S8 [label="1 [1] p=0.5"]
S66 -> S4 [label="4 [1] p=0.5"]
S6 -> S7 [label="2 [1, 1, 1, 1, 1, 1] p=1.0"]
S22 -> S3 [label="7 [1, 1, 1, 1, 1, 1, 1, 1, 1, 1] p=1.0"]
S4 -> S5 [label="1 [1, 1, 1, 1, 1, 1, 1, 1, 1, 1, 1, 1, 1, 1, 1, 1, 1, 1, 1, 1, 1, 1, 1, 1, 1, 1, 1, 1, 1, 1, 1, 1, 1, 1, 1, 1, 1, 1, 1, 1] p=1.0"]
S2 -> S3 [label="5 [1] p=1.0"]
S24 -> S25 [label="1 [1] p=1.0"]
S35 -> S6 [label="6 [503] p=0.33"]
S35 -> S22 [label="9 [331] p=0.33"]
S35 -> S126 [label="4 [502] p=0.33"]
S7 -> S8 [label="1 [1, 1, 1, 1, 1, 1] p=1.0"]
S3 -> S4 [label="4 [1, 1, 1, 1, 1, 1, 1, 1, 1, 1, 1, 1, 1, 1, 1, 1, 1, 1, 1] p=1.0"]
S5 -> S6 [label="6 [503, 503] p=0.07"]
S5 -> S65 [label="4 [502, 502, 502, 502, 502, 502, 502, 502, 502, 502, 502, 502, 502, 502, 502, 502, 502] p=0.63"]
S5 -> S22 [label="9 [331, 331, 331, 331, 331, 331, 331, 331] p=0.3"]
S8 -> S3 [label="2 [167, 167, 167, 167, 167, 167, 167] p=1.0"]
S65 -> S105 [label="5 [1, 1, 1, 1, 1, 1, 1, 1, 1] p=0.53"]
S65 -> S4 [label="3 [1, 1, 1, 1, 1, 1, 1, 1] p=0.47"]
S105 -> S115 [label="1 [1, 1, 1, 1, 1, 1, 1, 1, 1] p=1.0"]
S115 -> S126 [label="5 [2855, 2855, 2855, 2855, 2855, 2855, 2855, 2855, 2855] p=1.0"]
S126 -> S4 [label="3 [1, 1, 1, 1, 1, 1, 1, 1, 1, 1] p=1.0"]
S25 -> S6 [label="6 [503] p=1.0"]