S0 -> S1 [label="2 [0, 0, 0, 0, 0, 0, 0, 0, 0, 0, 0, 0, 0, 0, 0, 0, 0, 0, 0, 0, 0, 0, 0, 0, 0, 0, 0, 0, 0, 0, 0, 0, 0, 0, 0, 0, 0, 0, 0, 0, 0, 0, 0, 0, 0, 0, 0, 0, 0, 0, 0, 0, 0, 0, 0, 0, 0, 0, 0, 0, 0, 0, 0, 0, 0, 0, 0, 0, 0, 0, 0, 0, 0, 0, 0, 0, 0, 0, 0, 0, 0, 0, 0, 0, 0, 0, 0, 0, 0, 0, 0, 0, 0, 0, 0, 0, 0, 0, 0, 0, 0, 0, 0, 0, 0, 0, 0, 0, 0, 0, 0, 0, 0, 0, 0, 0, 0, 0, 0, 0, 0, 0, 0, 0, 0, 0, 0, 0, 0, 0, 0, 0, 0, 0, 0, 0, 0, 0, 0, 0, 0, 0, 0, 0, 0, 0, 0, 0, 0, 0, 0, 0, 0, 0, 0, 0, 0, 0, 0, 0, 0, 0, 0, 0, 0, 0, 0, 0, 0, 0, 0, 0, 0, 0, 0, 0, 0, 0, 0, 0, 0, 0, 0, 0, 0, 0, 0, 0, 0, 0, 0, 0, 0, 0, 0, 0, 0, 0, 0, 0, 0, 0, 0, 0, 0, 0, 0, 0, 0, 0, 0, 0, 0, 0, 0, 0, 0, 0, 0, 0, 0, 0, 0, 0, 0, 0, 0, 0, 0, 0, 0, 0, 0, 0, 0, 0, 0, 0, 0, 0, 0, 0, 0, 0, 0, 0, 0, 0, 0, 0, 0, 0, 0, 0, 0, 0, 0, 0, 0, 0, 0, 0, 0, 0, 0, 0, 0, 0, 0, 0, 0, 0, 0, 0, 0, 0, 0, 0, 0, 0, 0, 0, 0, 0, 0, 0, 0, 0, 0, 0, 0, 0, 0, 0, 0, 0, 0, 0, 0, 0, 0, 0, 0, 0, 0, 0, 0, 0, 0, 0, 0, 0] p=0.36"]
S0 -> S2 [label="4 [0, 0, 0, 0, 0, 0, 0, 0, 0, 0, 0, 0, 0, 0, 0, 0, 0, 0, 0, 0, 0, 0, 0, 0, 0, 0, 0, 0, 0, 0, 0, 0, 0, 0, 0, 0, 0, 0, 0, 0, 0, 0, 0, 0, 0, 0, 0, 0, 0, 0, 0, 0, 0, 0, 0, 0, 0, 0, 0, 0, 0, 0, 0, 0, 0, 0, 0, 0, 0, 0, 0, 0, 0, 0, 0, 0, 0, 0, 0, 0, 0, 0, 0, 0, 0, 0, 0, 0, 0, 0, 0, 0, 0, 0, 0, 0, 0, 0, 0, 0, 0, 0, 0, 0, 0, 0, 0, 0, 0, 0, 0, 0, 0, 0, 0, 0, 0, 0, 0, 0, 0, 0, 0, 0, 0, 0, 0, 0, 0, 0, 0, 0, 0, 0, 0, 0, 0, 0, 0, 0, 0, 0, 0, 0, 0, 0, 0, 0, 0, 0, 0, 0, 0, 0, 0, 0, 0, 0, 0, 0, 0, 0, 0, 0, 0, 0, 0, 0, 0, 0, 0, 0, 0, 0, 0, 0, 0, 0, 0, 0, 0, 0, 0, 0, 0, 0, 0, 0, 0, 0, 0, 0, 0, 0, 0, 0, 0, 0, 0, 0, 0, 0, 0, 0, 0, 0, 0, 0, 0, 0, 0, 0, 0, 0, 0, 0, 0, 0, 0, 0, 0, 0, 0, 0, 0, 0, 0, 0, 0, 0, 0, 0, 0, 0, 0, 0, 0, 0, 0, 0, 0, 0, 0, 0, 0, 0, 0, 0, 0, 0, 0, 0, 0, 0, 0, 0, 0, 0, 0, 0, 0, 0, 0, 0, 0, 0, 0, 0, 0, 0, 0, 0, 0, 0, 0, 0, 0, 0, 0, 0, 0, 0, 0, 0, 0, 0, 0, 0, 0, 0, 0, 0, 0, 0, 0, 0, 0, 0, 0, 0, 0, 0, 0] p=0.35"]
S0 -> S3 [label="1 [0, 0, 0, 0, 0, 0, 0, 0, 0, 0, 0, 0, 0, 0, 0, 0, 0, 0, 0, 0, 0, 0, 0, 0, 0, 0, 0, 0, 0, 0, 0, 0, 0, 0, 0, 0, 0, 0, 0, 0, 0, 0, 0, 0, 0, 0, 0, 0, 0, 0, 0, 0, 0, 0, 0, 0, 0, 0, 0, 0, 0, 0, 0, 0, 0, 0, 0, 0, 0, 0, 0, 0, 0, 0, 0, 0, 0, 0, 0, 0, 0, 0, 0, 0, 0, 0, 0, 0, 0, 0, 0, 0, 0, 0, 0, 0, 0, 0, 0, 0, 0, 0, 0, 0, 0, 0, 0, 0, 0, 0, 0, 0, 0, 0, 0, 0, 0, 0, 0, 0, 0, 0, 0, 0, 0, 0, 0, 0, 0, 0, 0, 0, 0, 0, 0, 0, 0, 0, 0, 0, 0, 0, 0, 0, 0, 0, 0, 0, 0, 0, 0, 0, 0, 0, 0, 0, 0, 0, 0, 0, 0, 0, 0, 0, 0, 0, 0, 0, 0, 0, 0, 0, 0, 0, 0, 0, 0, 0, 0, 0, 0, 0, 0, 0, 0, 0, 0, 0, 0, 0, 0, 0, 0, 0, 0, 0, 0, 0, 0, 0, 0, 0, 0, 0, 0, 0, 0, 0, 0, 0, 0, 0, 0, 0, 0, 0, 0, 0, 0, 0, 0, 0, 0, 0, 0, 0, 0, 0, 0, 0, 0, 0, 0, 0, 0, 0, 0, 0, 0, 0, 0, 0, 0, 0, 0, 0, 0, 0, 0, 0] p=0.29"]
S0 -> S2 [label="3 [0] p=0.0"]
S0 -> S102 [label="5 [0] p=0.0"]
S1 -> S2 [label="4 [20, 13, 27, 26, 14, 28, 15, 21, 26, 25, 10, 20, 15, 27, 14, 24, 29, 26, 14, 27, 15, 17, 14, 20, 10, 27, 14, 27, 23, 14, 26, 19, 14, 16, 14, 27, 14, 26, 18, 14, 22, 13, 27, 20, 28, 24, 14, 27, 14, 18, 14, 20, 13, 28, 14, 17, 30, 15, 26, 14, 27, 17, 14, 26, 14, 27, 15, 17, 14, 28, 13, 26, 26, 28, 14, 17, 13, 18, 14, 17, 14, 25, 13, 27, 20, 14, 23, 14, 28, 14, 19, 14, 23, 14, 26, 15, 18, 13, 19, 9, 17, 15, 26, 17, 14, 18, 15, 19, 14, 25, 28, 15, 26, 15, 26, 17, 14, 26, 14, 27, 25, 29, 15, 27, 26, 15, 17, 14, 19, 14, 24, 29, 13, 18, 27, 15, 24, 15, 28, 15, 18, 14, 25, 28, 23, 9, 26, 18, 15, 16, 15, 18, 14, 26, 13, 26, 21, 13, 27, 14, 16, 14, 24, 13, 26, 18, 15, 17, 14, 25, 14, 27, 19, 13, 26, 13, 27, 14, 25, 29, 14, 27, 29, 14, 16, 14, 18, 14, 26, 10, 26, 27, 27, 13, 26, 14, 28, 14, 18, 15, 19, 14, 17, 15, 26, 27, 24, 15, 28, 14, 25, 27, 15, 17, 13, 27, 13, 27, 15, 17, 14, 27, 27, 15, 25, 29, 14, 19, 14, 25, 9, 16, 14, 27, 15, 25, 24, 8, 22, 13, 27, 13, 27, 28, 14, 26, 14, 27, 17, 14, 27, 15, 26, 15, 16, 14, 19, 13, 18, 14, 25, 28, 14, 18, 15, 20, 14, 16, 14, 26, 11, 26, 15, 16, 14, 19, 14, 28, 14, 27, 25, 16, 27, 14, 24, 28, 16, 27, 28, 14, 17, 14, 19, 14, 21, 11, 26, 21, 15, 26, 26, 14, 28, 13, 27, 26, 14, 28, 15, 21, 26, 25, 10, 20, 15, 27, 14, 24, 29, 26, 14, 27, 15, 17, 14, 20, 10, 27, 23, 26, 19, 14, 27, 26, 18, 22, 13, 27, 20, 28, 24, 14, 27, 14, 18, 20, 13, 28, 14, 17, 26, 14, 27, 17, 14, 26, 27, 15, 17, 14, 13, 26, 26, 28, 14, 17, 13, 18, 14, 17, 14, 25, 13, 27, 23, 14, 28, 14, 23, 14, 26, 18, 13, 19, 9, 17, 26, 17, 14, 18, 19, 25, 28, 15, 26, 15, 26, 17, 14, 26, 27, 25, 29, 15, 27, 26, 15, 17, 14, 19, 24, 29, 13, 18, 27, 15, 24, 15, 28, 18, 25, 23, 9, 26, 18, 16, 15, 18, 26, 13, 26, 21, 13, 27, 14, 16, 24, 26, 18, 17, 14, 25, 27, 19, 26, 13, 27, 14, 25, 14, 27, 14, 16, 14, 18, 26, 10, 26, 27, 13, 26, 14, 28, 14, 18, 19, 17, 15, 26, 24, 15, 28, 14, 25, 27, 15, 13, 27, 13, 27, 15, 17, 14, 27, 15, 25, 14, 19, 25, 9, 14, 27, 25, 24, 8, 22, 13, 27, 13, 27, 28, 14, 26, 14, 27, 17, 14, 15, 26, 15, 16, 14, 19, 18, 25, 28, 14, 18, 20, 16, 14, 26, 11, 26, 16, 14, 19, 28, 27, 25, 27, 14, 24, 28, 27, 14, 17, 14, 21, 11, 26, 21, 15, 26, 26, 14, 28, 13, 27, 26, 14, 28, 15, 21, 26, 25, 10, 15, 27, 14, 24, 29, 26, 14, 27, 15, 17, 14, 20, 27, 23, 26, 19, 14, 27, 26, 18, 22, 13, 27, 20, 24, 14, 27, 14, 18, 20, 13, 28, 14, 26, 14, 27, 17, 14, 26, 27, 15, 17, 14, 13, 26, 26, 28, 14, 17, 13, 18, 14, 17, 14, 25, 13, 27, 23, 14, 28, 14, 23, 14, 26, 18, 13, 9, 26, 17, 14, 18, 19, 25, 28, 15, 26, 15, 26, 17, 14, 26, 27, 25, 29, 15, 27, 26, 15, 17, 14, 19, 24, 29, 13, 18, 27, 15, 24, 15, 28, 18, 25, 23, 9, 18, 16, 15, 18, 26, 13, 26, 21, 13, 27, 14, 16, 26, 18, 17, 14, 25, 27, 19, 26, 13, 27, 14, 25, 14, 27, 14, 16, 14, 18, 26, 10, 26, 27, 13, 26, 14, 28, 14, 18, 19, 17, 15, 26, 24, 15, 28, 14, 25, 27, 15, 13, 27, 13, 27, 15, 17, 14, 27, 15, 25, 14, 19, 25, 9, 14, 27, 25, 24, 8, 22, 13, 27, 13, 27, 28, 14, 26, 14, 27, 17, 14, 15, 26, 15, 16, 14, 19, 18, 28, 14, 18, 20, 16, 14, 26, 11, 26, 16, 14, 19, 28, 27, 25, 27, 14, 24, 28, 27, 14, 17, 14, 21, 11, 26, 21, 15, 26, 26, 14, 28, 13, 27, 26, 14, 28, 15, 21, 26, 25, 10, 15, 27, 14, 24, 29, 26, 14, 27, 15, 17, 14, 20, 27, 23, 26, 19, 14, 27, 26, 18, 22, 13, 27, 20, 24, 14, 27, 14, 18, 20, 13, 28, 14, 26, 14, 27, 17, 14, 26, 27, 15, 17, 14, 13, 26, 26, 28, 14, 17, 13, 18, 14, 17, 14, 25, 13, 27, 23, 14, 28, 14, 23, 14, 26, 18, 13, 9, 26, 17, 14, 18, 19, 25, 28, 15, 26, 15, 26, 17, 14, 26, 27, 25, 29, 15, 27, 26, 15, 17, 14, 19, 24, 29, 13, 18, 27, 15, 24, 15, 28, 18, 25, 23, 9, 18, 16, 15, 18, 26, 13, 26, 21, 13, 27, 14, 16, 26, 18, 17, 14, 25, 27, 19, 26, 13, 27, 14, 25, 14, 27, 14, 16, 14, 18, 26, 10, 26, 27, 13, 26, 14, 28, 14, 18, 19, 17, 15, 26, 24, 15, 28, 14, 25, 27, 15, 13, 27, 13, 27, 15, 17, 14, 27, 15, 25, 14, 19, 25, 9, 14, 27, 25, 24, 8, 22, 13, 27, 13, 27, 28, 14, 26, 14, 27, 17, 14, 15, 26, 15, 16, 14, 19, 18, 28, 14, 18, 20, 16, 14, 26, 11, 26, 16, 14, 19, 28, 27, 25, 27, 14, 24, 28, 27, 14, 17, 14, 21, 11, 26, 21, 15, 26, 26, 14, 28, 27, 26, 14, 28, 15, 21, 26, 25, 10, 15, 27, 14, 24, 29, 26, 14, 27, 15, 17, 14, 20, 23, 19, 27, 18, 13, 27, 20, 24, 14, 27, 14, 18, 13, 28, 14, 14, 27, 17, 14, 26, 15, 17, 14, 26, 26, 28, 14, 17, 13, 18, 14, 17, 14, 25, 13, 27, 14, 28, 14, 14, 26, 13, 9, 17, 14, 18, 28, 15, 26, 15, 26, 17, 14, 26, 25, 29, 15, 27, 26, 15, 17, 14, 19, 29, 13, 18, 27, 15, 24, 15, 28, 9, 18, 15, 18, 13, 26, 21, 13, 27, 14, 16, 18, 14, 25, 19, 13, 27, 14, 25, 27, 16, 14, 18, 10, 26, 27, 26, 14, 28, 14, 18, 15, 26, 15, 28, 14, 25, 27, 15, 27, 13, 27, 15, 17, 14, 15, 25, 19, 9, 27, 24, 8, 22, 13, 27, 13, 27, 28, 14, 26, 14, 27, 17, 14, 26, 15, 16, 14, 19, 28, 14, 18, 14, 26, 11, 26, 14, 19, 25, 14, 24, 28, 17, 14, 11, 26, 21, 15, 26, 26, 14, 28, 27, 26, 14, 28, 15, 21, 26, 25, 10, 27, 14, 24, 29, 26, 14, 27, 15, 17, 14, 20, 23, 19, 27, 18, 13, 27, 20, 14, 27, 14, 18, 13, 28, 14, 14, 27, 17, 14, 26, 15, 17, 14, 26, 26, 28, 14, 17, 13, 18, 14, 17, 14, 25, 13, 27, 14, 28, 14, 14, 26, 13, 17, 14, 18, 28, 15, 26, 15, 26, 17, 14, 26, 25, 29, 15, 27, 26, 15, 17, 14, 19, 29, 13, 18, 27, 15, 24, 15, 28, 9, 15, 18, 13, 26, 21, 13, 27, 14, 16, 18, 14, 25, 19, 13, 27, 14, 25, 27, 16, 14, 18, 10, 26, 27, 26, 14, 28, 14, 18, 15, 26, 15, 28, 14, 25, 27, 15, 27, 13, 27, 15, 17, 14, 15, 25, 19, 9, 27, 24, 8, 22, 13, 27, 13, 27, 28, 14, 26, 14, 27, 17, 14, 26, 15, 16, 14, 19, 14, 18, 14, 26, 11, 26, 14, 19, 25, 14, 24, 28, 17, 14, 11, 26, 21, 15, 26, 26, 14, 28, 27, 26, 14, 28, 15, 21, 26, 25, 10, 27, 14, 24, 29, 26, 14, 27, 15, 17, 14, 20, 23, 19, 27, 18, 13, 27, 20, 14, 27, 14, 18, 13, 28, 14, 14, 27, 17, 14, 26, 15, 17, 14, 26, 26, 28, 14, 17, 13, 18, 14, 17, 14, 25, 13, 27, 14, 28, 14, 14, 26, 13, 17, 14, 18, 28, 15, 26, 15, 26, 17, 14, 26, 25, 29, 15, 27, 26, 15, 17, 14, 19, 29, 13, 18, 27, 15, 24, 15, 28, 9, 15, 18, 13, 26, 21, 13, 27, 14, 16, 18, 14, 25, 19, 13, 27, 14, 25, 27, 16, 14, 18, 10, 26, 27, 26, 14, 28, 14, 18, 15, 26, 15, 28, 14, 25, 27, 15, 27, 13, 27, 15, 17, 14, 15, 25, 19, 9, 27, 24, 8, 22, 13, 27, 13, 27, 28, 14, 26, 14, 27, 17, 14, 26, 15, 16, 14, 19, 14, 18, 14, 26, 11, 26, 14, 19, 25, 14, 24, 28, 17, 14, 11, 26, 21, 15, 26, 26, 14, 28, 26, 14, 28, 15, 21, 26, 25, 10, 27, 14, 24, 29, 26, 14, 27, 15, 17, 14, 20, 27, 20, 14, 27, 14, 18, 28, 14, 27, 17, 14, 26, 17, 14, 26, 28, 14, 17, 13, 18, 14, 17, 14, 25, 13, 27, 28, 14, 26, 14, 18, 15, 26, 15, 26, 17, 14, 26, 29, 15, 27, 26, 15, 17, 14, 19, 13, 18, 27, 15, 24, 15, 28, 18, 26, 21, 13, 27, 14, 16, 25, 27, 14, 25, 14, 18, 26, 27, 14, 28, 14, 18, 26, 28, 14, 25, 27, 15, 13, 27, 15, 17, 14, 25, 8, 22, 13, 27, 13, 27, 28, 14, 26, 14, 27, 17, 14, 15, 16, 14, 19, 14, 18, 26, 11, 26, 19, 24, 28, 14, 26, 21, 15, 26, 26, 14, 28, 26, 14, 28, 15, 21, 26, 25, 10, 14, 24, 29, 26, 14, 27, 15, 17, 14, 20, 27, 20, 27, 14, 18, 28, 14, 27, 17, 14, 26, 17, 14, 26, 28, 14, 17, 13, 18, 14, 17, 14, 25, 13, 27, 28, 14, 26, 14, 18, 15, 26, 15, 26, 17, 14, 26, 29, 15, 27, 26, 15, 17, 14, 19, 13, 18, 27, 15, 24, 15, 28, 18, 26, 21, 13, 27, 14, 16, 25, 27, 14, 25, 14, 18, 26, 27, 14, 28, 14, 18, 26, 28, 14, 25, 27, 15, 13, 27, 15, 17, 14, 25, 8, 22, 13, 27, 13, 27, 28, 14, 26, 14, 27, 17, 14, 15, 16, 14, 19, 18, 26, 11, 26, 19, 24, 28, 14, 26, 21, 15, 26, 26, 14, 28, 26, 14, 28, 15, 21, 26, 25, 10, 14, 24, 29, 26, 14, 27, 15, 17, 14, 20, 27, 20, 27, 14, 18, 28, 14, 27, 17, 14, 26, 17, 14, 26, 28, 14, 17, 13, 18, 14, 17, 14, 25, 13, 27, 28, 14, 26, 14, 18, 15, 26, 15, 26, 17, 14, 26, 29, 15, 27, 26, 15, 17, 14, 19, 13, 18, 27, 15, 24, 15, 28, 18, 26, 21, 13, 27, 14, 16, 25, 27, 14, 25, 14, 18, 26, 27, 14, 28, 14, 18, 26, 28, 14, 25, 27, 15, 13, 27, 15, 17, 14, 25, 8, 22, 13, 27, 13, 27, 28, 14, 26, 14, 27, 17, 14, 15, 16, 14, 19, 18, 26, 11, 26, 19, 24, 28, 14, 26, 21, 15, 26, 26, 14, 28, 27, 26, 14, 26, 22, 20, 26, 27, 13, 23, 23, 18, 26, 19, 25, 27, 24, 18, 25, 23, 16, 26, 26, 17, 27, 26, 14, 14, 26, 19, 17, 24, 13, 27, 14, 25, 14, 25, 15, 18, 20, 16, 16, 28, 27, 27, 27, 14, 21, 26, 26, 22, 20, 27, 13, 18, 26, 19, 25, 27, 24, 18, 25, 23, 16, 26, 26, 17, 27, 26, 14, 14, 26, 19, 17, 24, 13, 27, 14, 25, 14, 25, 15, 18, 20, 16, 16, 28, 27, 27, 27, 14, 26, 26, 22, 20, 27, 13, 18, 19, 25, 27, 24, 18, 25, 23, 16, 26, 17, 27, 26, 14, 14, 26, 19, 17, 24, 13, 27, 14, 25, 14, 25, 15, 18, 20, 16, 16, 28, 27, 27, 27, 14, 26, 26, 22, 20, 27, 13, 18, 19, 27, 24, 18, 16, 26, 17, 27, 26, 14, 14, 26, 19, 24, 13, 27, 14, 25, 14, 25, 15, 18, 20, 16, 28, 27, 27, 26, 26, 22, 20, 27, 13, 18, 19, 25, 27, 24, 18, 25, 23, 16, 26, 17, 27, 26, 14, 14, 26, 19, 17, 24, 13, 27, 14, 25, 14, 25, 15, 18, 20, 16, 16, 28, 27, 27, 27, 14, 27, 26, 14, 26, 22, 20, 26, 27, 13, 23, 23, 18, 26, 19, 25, 27, 24, 18, 25, 23, 16, 26, 26, 17, 27, 26, 14, 14, 26, 19, 17, 24, 13, 27, 14, 25, 14, 25, 15, 18, 20, 16, 16, 28, 27, 27, 27, 14, 21, 23, 19, 27, 18, 13, 13, 14, 15, 26, 14, 14, 13, 17, 28, 25, 29, 9, 15, 13, 18, 14, 19, 13, 27, 16, 10, 15, 15, 27, 15, 19, 9, 27, 24, 26, 14, 14, 25, 14, 17, 11, 19, 18, 13, 13, 15, 26, 13, 17, 28, 25, 29, 9, 15, 13, 18, 14, 19, 13, 27, 16, 10, 15, 15, 27, 15, 19, 9, 27, 24, 26, 14, 14, 25, 14, 17, 23, 19, 27, 18, 13, 13, 14, 15, 26, 14, 14, 13, 17, 28, 25, 29, 9, 15, 13, 18, 14, 19, 13, 27, 16, 10, 15, 15, 27, 15, 19, 9, 27, 24, 26, 14, 14, 25, 14, 17, 11, 25, 25, 23, 17, 16, 27, 14, 20, 20, 20, 20, 20, 20, 20, 20, 13, 13, 13, 13, 13, 15, 15, 15, 15, 15, 26, 26, 27, 27, 27, 14, 26, 23, 23, 21, 27, 14, 26, 23, 23, 21, 14, 23, 23, 21, 27, 14, 26, 23, 23, 21, 23, 27, 14, 14, 14, 11, 28, 28, 27, 26, 14, 26, 26, 26, 26, 14, 14, 14, 26, 24, 9, 18, 24, 9, 18, 24, 9, 18, 24, 9, 18, 24, 9, 18, 28, 13, 28, 28, 26, 26, 14, 16, 15, 14, 14, 14, 14, 16, 15, 14, 14, 14, 16, 14, 14, 14, 16, 14, 14, 14, 16, 14, 14, 14, 16, 14, 14, 14, 14, 16, 15, 14, 14, 14, 14, 15, 15, 15, 15, 15, 15, 15, 27, 30, 15, 13, 30, 13, 30, 13, 30, 30, 30, 13, 13, 13, 27, 14, 14, 14, 14, 14, 30, 14, 28, 20, 19, 15, 15, 15, 14, 14, 14, 15, 14, 28, 15, 14, 14, 13, 15, 14, 13, 29, 29, 14, 15, 14, 27, 17, 27, 29, 14, 16, 15, 27, 13, 14, 15, 14, 15, 14, 14, 16, 16, 28, 19, 27, 14, 14, 14, 16, 14, 14, 14, 30, 15, 14, 28, 20, 14, 19, 14, 15, 15, 15, 14, 14, 14, 15, 14, 28, 15, 14, 14, 13, 15, 14, 13, 29, 29, 14, 15, 14, 27, 17, 27, 29, 14, 16, 15, 27, 13, 14, 15, 14, 15, 14, 14, 16, 16, 28, 19, 14, 14, 14, 14, 14, 14, 14, 28, 20, 19, 15, 15, 14, 14, 14, 15, 14, 28, 15, 14, 14, 15, 14, 13, 29, 29, 14, 15, 14, 27, 17, 27, 29, 14, 16, 15, 27, 13, 14, 15, 14, 15, 14, 14, 16, 16, 28, 19, 14, 14, 14, 14, 14, 14, 28, 20, 19, 15, 15, 14, 14, 15, 14, 14, 15, 14, 13, 29, 29, 14, 15, 27, 17, 27, 29, 14, 16, 15, 27, 13, 15, 15, 14, 16, 16, 19, 14, 14, 14, 14, 14, 14, 28, 20, 19, 15, 15, 14, 14, 15, 15, 14, 14, 15, 14, 13, 29, 29, 14, 15, 27, 17, 27, 29, 14, 16, 15, 27, 13, 15, 15, 14, 16, 16, 19, 14, 14, 14, 14, 14, 14, 28, 20, 19, 15, 15, 14, 14, 14, 15, 14, 28, 15, 14, 14, 15, 14, 13, 29, 29, 14, 15, 14, 27, 17, 27, 29, 14, 16, 15, 27, 13, 14, 15, 14, 15, 14, 14, 16, 16, 28, 19, 14, 14, 14, 14, 14, 14, 28, 20, 19, 15, 15, 14, 14, 15, 14, 14, 15, 14, 13, 29, 29, 14, 15, 27, 17, 27, 29, 14, 16, 15, 27, 13, 15, 15, 14, 16, 16, 19, 14, 14, 28, 20, 19, 15, 15, 14, 14, 15, 14, 14, 14, 29, 14, 15, 27, 17, 27, 29, 27, 13, 15, 15, 14, 16, 19, 27, 14, 14, 14, 16, 14, 14, 14, 30, 15, 14, 28, 20, 14, 19, 14, 15, 15, 15, 14, 14, 14, 15, 14, 28, 15, 14, 14, 13, 15, 14, 13, 29, 29, 14, 15, 14, 27, 17, 27, 29, 14, 16, 15, 27, 13, 14, 15, 14, 15, 14, 14, 16, 16, 28, 19, 14, 14, 14, 28, 14, 14, 14, 14, 28, 14, 14, 28, 14, 14, 14, 14, 28, 14, 14, 28, 14, 14, 14, 14, 28, 14, 14, 28, 14, 14, 14, 14, 28, 14, 14, 14, 14, 15, 13, 29, 14, 16, 15, 16, 14, 14, 14, 27, 15, 27, 15, 27, 15, 27, 15, 27, 15] p=0.97"]
S1 -> S102 [label="1 [1, 1, 1, 1, 4, 1, 4, 1, 4, 1, 4, 1, 4, 1, 1, 4, 1, 4, 4, 4, 1, 1, 1, 1, 1, 1, 1, 1, 2, 7, 3, 4, 1, 1, 1, 2, 7, 3, 1, 1, 2, 7, 3, 1, 1, 2, 7, 3, 1, 2, 7, 3, 1, 2, 7, 3, 1, 1, 2, 7, 3, 1, 2, 7, 3, 1, 2, 7, 3, 1, 2, 7, 3, 1, 1, 1, 1, 1, 1, 1] p=0.03"]
S2 -> S3 [label="1 [7, 8, 9, 7, 9, 8, 8, 8, 9, 7, 7, 8, 8, 9, 8, 9, 7, 8, 8, 8, 7, 8, 7, 10, 8, 8, 7, 8, 8, 9, 9, 7, 8, 9, 7, 10, 6, 7, 8, 9, 9, 8, 8, 8, 9, 8, 8, 8, 9, 7, 8, 8, 8, 9, 7, 7, 9, 9, 7, 9, 9, 6, 8, 6, 8, 7, 8, 7, 8, 8, 7, 8, 8, 9, 7, 8, 8, 6, 9, 7, 8, 9, 7, 8, 8, 7, 7, 8, 8, 7, 8, 8, 8, 7, 9, 8, 7, 8, 8, 7, 9, 8, 7, 7, 8, 8, 9, 10, 7, 8, 9, 7, 8, 9, 9, 10, 8, 8, 9, 8, 7, 7, 8, 7, 8, 10, 8, 8, 9, 9, 9, 8, 9, 8, 7, 8, 8, 8, 9, 7, 9, 8, 9, 7, 9, 8, 8, 7, 7, 8, 7, 9, 9, 7, 8, 8, 8, 8, 8, 8, 8, 7, 7, 9, 8, 8, 8, 9, 7, 8, 8, 8, 7, 9, 8, 8, 8, 7, 9, 8, 8, 9, 8, 7, 7, 7, 8, 9, 8, 6, 7, 8, 9, 9, 7, 8, 9, 7, 7, 9, 7, 7, 8, 9, 8, 8, 8, 8, 8, 9, 8, 8, 7, 7, 7, 8, 9, 9, 8, 8, 7, 8, 10, 8, 8, 9, 8, 9, 8, 8, 7, 8, 8, 9, 10, 8, 8, 8, 8, 9, 7, 8, 9, 7, 9, 8, 8, 8, 9, 7, 7, 8, 8, 9, 8, 9, 7, 8, 8, 8, 7, 8, 10, 8, 8, 9, 7, 8, 9, 7, 10, 6, 7, 8, 9, 8, 8, 8, 9, 8, 8, 9, 7, 8, 8, 9, 7, 9, 9, 7, 9, 9, 6, 8, 6, 8, 7, 8, 7, 8, 7, 8, 8, 7, 8, 6, 9, 7, 9, 7, 8, 7, 8, 8, 7, 8, 8, 8, 7, 8, 7, 8, 8, 7, 9, 8, 7, 7, 8, 9, 10, 7, 8, 9, 7, 8, 8, 8, 9, 7, 7, 7, 8, 10, 8, 8, 9, 9, 9, 7, 8, 8, 7, 9, 8, 9, 9, 8, 7, 7, 7, 9, 9, 8, 8, 8, 8, 8, 7, 7, 8, 8, 8, 9, 7, 8, 8, 7, 9, 8, 8, 8, 9, 8, 9, 7, 7, 9, 8, 6, 7, 8, 9, 9, 7, 8, 9, 7, 7, 9, 7, 8, 9, 8, 8, 8, 8, 9, 8, 7, 7, 8, 9, 8, 8, 10, 8, 9, 8, 8, 7, 8, 9, 10, 8, 8, 8, 8, 9, 7, 8, 9, 7, 9, 8, 8, 8, 9, 7, 8, 8, 9, 8, 9, 7, 8, 8, 8, 7, 8, 10, 8, 8, 9, 7, 8, 9, 7, 6, 7, 8, 9, 8, 8, 8, 9, 8, 8, 9, 7, 8, 8, 9, 7, 9, 9, 7, 9, 9, 6, 8, 6, 8, 7, 8, 7, 8, 7, 8, 8, 7, 8, 6, 9, 9, 7, 8, 7, 8, 8, 7, 8, 8, 8, 7, 8, 7, 8, 8, 7, 9, 8, 7, 7, 8, 9, 10, 7, 8, 9, 7, 8, 8, 8, 7, 7, 7, 8, 10, 8, 8, 9, 9, 9, 7, 8, 8, 7, 9, 8, 9, 9, 8, 7, 7, 7, 9, 9, 8, 8, 8, 8, 8, 7, 7, 8, 8, 8, 9, 7, 8, 8, 7, 9, 8, 8, 8, 9, 8, 9, 7, 7, 9, 8, 6, 7, 8, 9, 9, 7, 8, 9, 7, 7, 9, 7, 8, 9, 8, 8, 8, 9, 8, 7, 7, 8, 9, 8, 8, 10, 8, 9, 8, 8, 7, 8, 9, 10, 8, 8, 8, 8, 9, 7, 8, 9, 7, 9, 8, 8, 8, 9, 7, 8, 8, 9, 8, 9, 7, 8, 8, 8, 7, 8, 10, 8, 8, 9, 7, 8, 9, 7, 6, 7, 8, 9, 8, 8, 8, 9, 8, 8, 9, 7, 8, 8, 9, 7, 9, 9, 7, 9, 9, 6, 8, 6, 8, 7, 8, 7, 8, 7, 8, 8, 7, 8, 6, 9, 9, 7, 8, 7, 8, 8, 7, 8, 8, 8, 7, 8, 7, 8, 8, 7, 9, 8, 7, 7, 8, 9, 10, 7, 8, 9, 7, 8, 8, 8, 7, 7, 7, 8, 10, 8, 8, 9, 9, 9, 7, 8, 8, 7, 9, 8, 9, 9, 8, 7, 7, 7, 9, 9, 8, 8, 8, 8, 8, 7, 7, 8, 8, 8, 9, 7, 8, 8, 7, 9, 8, 8, 8, 9, 8, 9, 7, 7, 9, 8, 6, 7, 8, 9, 9, 7, 8, 9, 7, 7, 9, 7, 8, 9, 8, 8, 8, 9, 8, 7, 7, 8, 9, 8, 8, 10, 8, 9, 8, 8, 7, 8, 9, 10, 8, 8, 8, 8, 9, 7, 9, 7, 9, 8, 8, 8, 9, 7, 8, 8, 9, 8, 9, 7, 8, 8, 8, 7, 8, 8, 9, 7, 6, 7, 8, 9, 8, 8, 9, 8, 9, 7, 8, 9, 7, 9, 7, 9, 9, 6, 8, 6, 8, 7, 8, 7, 8, 8, 8, 8, 9, 7, 8, 8, 8, 7, 8, 8, 8, 7, 7, 8, 8, 7, 9, 8, 7, 7, 9, 10, 7, 8, 9, 7, 8, 8, 7, 8, 10, 8, 8, 9, 9, 8, 9, 8, 9, 7, 7, 9, 9, 8, 8, 8, 8, 7, 8, 8, 9, 7, 8, 7, 9, 8, 8, 8, 8, 8, 6, 7, 8, 9, 9, 7, 8, 9, 7, 7, 9, 7, 9, 8, 8, 8, 9, 8, 7, 8, 9, 8, 9, 8, 7, 9, 10, 8, 8, 8, 8, 9, 7, 9, 7, 9, 8, 8, 8, 9, 7, 8, 9, 8, 9, 7, 8, 8, 8, 7, 8, 8, 9, 7, 7, 8, 9, 8, 8, 9, 8, 9, 7, 8, 9, 7, 9, 7, 9, 9, 6, 8, 6, 8, 7, 8, 7, 8, 8, 8, 8, 9, 7, 8, 8, 8, 7, 8, 8, 8, 7, 7, 8, 8, 7, 9, 8, 7, 7, 9, 10, 7, 8, 9, 7, 8, 8, 7, 8, 10, 8, 8, 9, 9, 8, 9, 8, 9, 7, 7, 9, 9, 8, 8, 8, 8, 7, 8, 8, 9, 7, 8, 7, 9, 8, 8, 8, 8, 8, 6, 7, 8, 9, 9, 7, 8, 9, 7, 7, 9, 7, 9, 8, 8, 8, 8, 7, 8, 9, 8, 9, 8, 7, 9, 10, 8, 8, 8, 8, 9, 7, 9, 7, 9, 8, 8, 8, 9, 7, 8, 9, 8, 9, 7, 8, 8, 8, 7, 8, 8, 9, 7, 7, 8, 9, 8, 8, 9, 8, 9, 7, 8, 9, 7, 9, 7, 9, 9, 6, 8, 6, 8, 7, 8, 7, 8, 8, 8, 8, 9, 7, 8, 8, 8, 7, 8, 8, 8, 7, 7, 8, 8, 7, 9, 8, 7, 7, 9, 10, 7, 8, 9, 7, 8, 8, 7, 8, 10, 8, 8, 9, 9, 8, 9, 8, 9, 7, 7, 9, 9, 8, 8, 8, 8, 7, 8, 8, 9, 7, 8, 7, 9, 8, 8, 8, 8, 8, 6, 7, 8, 9, 9, 7, 8, 9, 7, 7, 9, 7, 9, 8, 8, 8, 8, 7, 8, 9, 8, 9, 8, 7, 9, 10, 8, 8, 8, 8, 9, 7, 7, 9, 8, 8, 8, 9, 7, 8, 9, 8, 9, 7, 8, 8, 8, 7, 8, 9, 7, 7, 8, 9, 8, 9, 9, 7, 8, 7, 7, 9, 9, 6, 8, 6, 8, 7, 8, 7, 8, 8, 8, 8, 7, 8, 8, 8, 7, 8, 8, 7, 9, 8, 7, 7, 10, 7, 8, 9, 7, 8, 10, 8, 8, 9, 9, 8, 9, 7, 9, 8, 8, 8, 8, 9, 7, 8, 9, 8, 8, 8, 6, 7, 8, 9, 9, 7, 8, 9, 7, 7, 9, 7, 8, 8, 8, 8, 8, 9, 8, 10, 8, 8, 8, 8, 9, 7, 7, 9, 8, 8, 8, 9, 7, 9, 8, 9, 7, 8, 8, 8, 7, 8, 9, 7, 8, 9, 8, 9, 9, 7, 8, 7, 7, 9, 9, 6, 8, 6, 8, 7, 8, 7, 8, 8, 8, 8, 7, 8, 8, 8, 7, 8, 8, 7, 9, 8, 7, 7, 10, 7, 8, 9, 7, 8, 10, 8, 8, 9, 9, 8, 9, 7, 9, 8, 8, 8, 8, 9, 7, 8, 9, 8, 8, 8, 6, 7, 8, 9, 9, 7, 8, 9, 7, 7, 9, 7, 8, 8, 8, 8, 9, 8, 10, 8, 8, 8, 8, 9, 7, 7, 8, 9, 7, 9, 8, 8, 8, 9, 7, 7, 8, 8, 9, 8, 9, 7, 8, 8, 8, 7, 8, 7, 10, 8, 8, 7, 8, 8, 9, 9, 7, 8, 9, 7, 10, 6, 7, 8, 9, 9, 8, 8, 8, 9, 8, 8, 8, 9, 7, 8, 8, 8, 9, 7, 7, 9, 9, 7, 9, 9, 6, 8, 6, 8, 7, 8, 7, 8, 8, 7, 8, 8, 9, 7, 8, 8, 6, 9, 7, 8, 9, 7, 8, 8, 7, 7, 8, 8, 7, 8, 8, 8, 7, 9, 8, 7, 8, 8, 7, 9, 8, 7, 7, 8, 8, 9, 10, 7, 8, 9, 7, 8, 9, 9, 10, 8, 8, 9, 8, 7, 7, 8, 7, 8, 10, 8, 8, 9, 9, 9, 8, 9, 8, 7, 8, 8, 8, 9, 7, 9, 8, 9, 7, 9, 8, 8, 7, 7, 8, 7, 9, 9, 7, 8, 8, 8, 8, 8, 8, 8, 7, 7, 9, 8, 8, 8, 9, 7, 8, 8, 8, 7, 9, 8, 8, 8, 7, 9, 8, 8, 9, 8, 7, 7, 7, 8, 9, 8, 6, 7, 8, 9, 9, 7, 8, 9, 7, 7, 9, 7, 7, 8, 9, 8, 8, 8, 8, 8, 9, 8, 8, 7, 7, 7, 8, 9, 9, 8, 8, 7, 8, 10, 8, 8, 9, 8, 9, 8, 8, 7, 8, 8, 9, 10, 8, 8, 8, 8, 9, 7, 10, 8, 8, 9, 7, 8, 8, 8, 9, 7, 7, 6, 9, 7, 8, 8, 8, 7, 7, 9, 7, 8, 7, 9, 8, 7, 7, 8, 8, 9, 9, 7, 7, 9, 8, 7, 8, 10, 8, 8, 8, 8, 9, 7, 8, 8, 9, 6, 9, 7, 8, 8, 8, 7, 7, 9, 7, 8, 7, 9, 8, 7, 7, 8, 8, 9, 9, 7, 7, 9, 8, 7, 8, 10, 8, 8, 8, 9, 7, 8, 8, 9, 6, 7, 8, 8, 8, 7, 7, 7, 8, 7, 9, 8, 7, 7, 8, 8, 9, 9, 7, 7, 9, 8, 7, 8, 10, 8, 8, 8, 9, 7, 8, 8, 9, 6, 7, 8, 8, 8, 7, 7, 7, 8, 7, 9, 8, 7, 7, 8, 8, 9, 9, 7, 7, 9, 8, 7, 8, 10, 8, 8, 10, 8, 8, 9, 7, 8, 8, 8, 9, 7, 7, 6, 9, 7, 8, 8, 8, 7, 7, 9, 7, 8, 7, 9, 8, 7, 7, 8, 8, 9, 9, 7, 7, 9, 8, 7, 8, 10, 8, 8, 8, 8, 8, 8, 9, 9, 8, 8, 9, 7, 8, 7, 9, 8, 7, 8, 8, 9, 7, 9, 7, 8, 7, 8, 8, 9, 7, 8, 9, 7, 9, 8, 8, 8, 9, 9, 8, 8, 9, 7, 8, 7, 9, 8, 7, 8, 8, 9, 7, 9, 7, 8, 7, 8, 8, 9, 7, 8, 9, 7, 9, 7, 8, 7, 8, 9, 9, 8, 8, 7, 8, 9, 8, 8, 8, 7, 9, 8, 9, 9, 10, 8, 8, 9, 8, 8, 8, 9, 7, 8, 8, 8, 8, 9, 8, 7, 8, 8, 7, 8, 7, 8, 8, 7, 9, 7, 8, 8, 9, 8, 8, 8, 8, 9, 9, 8, 7, 8, 8, 8, 7, 9, 8, 9, 9, 10, 8, 8, 9, 8, 8, 8, 9, 7, 8, 8, 8, 8, 9, 8, 7, 8, 8, 7, 8, 7, 8, 8, 7, 9, 7, 8, 8, 9, 8, 8, 8, 9, 9, 8, 7, 8, 8, 7, 9, 8, 9, 9, 10, 8, 8, 9, 8, 8, 9, 7, 8, 8, 8, 8, 9, 8, 7, 8, 8, 7, 8, 7, 8, 8, 7, 9, 7, 8, 8, 9, 8, 8, 8, 9, 9, 8, 7, 8, 8, 9, 8, 9, 8, 9, 8, 8, 9, 7, 8, 8, 8, 9, 8, 7, 8, 8, 7, 8, 7, 8, 8, 9, 7, 8, 9, 8, 8, 9, 9, 8, 7, 8, 8, 9, 8, 9, 8, 8, 9, 8, 8, 9, 7, 8, 8, 8, 9, 8, 7, 8, 8, 7, 8, 7, 8, 8, 9, 7, 8, 9, 8, 8, 9, 9, 8, 7, 8, 8, 7, 9, 8, 9, 9, 10, 8, 8, 9, 8, 8, 9, 7, 8, 8, 8, 8, 9, 8, 7, 8, 8, 7, 8, 7, 8, 8, 7, 9, 7, 8, 8, 9, 8, 8, 8, 9, 9, 8, 7, 8, 8, 9, 8, 9, 8, 9, 8, 8, 9, 7, 8, 8, 8, 9, 8, 7, 8, 8, 7, 8, 7, 8, 8, 9, 7, 8, 9, 7, 8, 7, 8, 9, 9, 8, 8, 7, 8, 9, 8, 8, 8, 7, 9, 8, 9, 9, 10, 8, 8, 9, 8, 8, 8, 9, 7, 8, 8, 8, 8, 9, 8, 7, 8, 8, 7, 8, 7, 8, 8, 7, 9, 7, 8, 8, 9, 8, 8, 7, 9, 10, 8, 7, 8, 8, 7, 9, 10, 8, 7, 8, 8, 7, 9, 10, 8, 7, 8, 8, 5, 5, 5, 5, 5, 5, 5, 5, 5, 5, 7, 7, 7, 7, 7, 7, 7, 7, 7, 7, 7, 7, 7, 7, 8, 8, 8, 8, 8, 8, 8, 8, 8, 8, 7, 7, 8, 8, 9, 8, 7, 7, 8, 8, 9, 8, 7, 8, 9, 8, 7, 8, 9, 8, 7, 8, 9, 8, 7, 7, 8, 8, 9, 8, 10, 8, 8, 7, 7, 8, 10, 8, 8, 7, 7, 8, 10, 8, 8, 7, 7, 8, 8, 8, 8, 8, 9, 7, 8, 8, 8, 9, 9, 9, 9, 9, 8, 8, 7, 7, 7, 8, 8, 10, 7, 9, 10, 7, 9, 10, 7, 9, 10, 7, 9, 10, 7, 9, 10, 7, 9, 10, 7, 9, 8, 7, 6, 6, 6, 6, 9, 8, 8, 8, 8, 8, 8, 8, 8, 8, 8, 8, 8, 8, 9] p=0.8"]
S2 -> S2 [label="3 [1, 1, 1, 1, 1, 1, 1, 1, 1, 1] p=0.0"]
S2 -> S1 [label="2 [8, 6, 8, 8, 8, 9, 9, 6, 8, 6, 8, 6, 7, 8, 8, 6, 6, 8, 9, 8, 8, 9, 7, 6, 9, 7, 8, 8, 8, 6, 8, 8, 8, 9, 9, 6, 8, 6, 8, 6, 7, 8, 8, 6, 6, 8, 9, 8, 8, 9, 7, 6, 9, 7, 8, 8, 8, 7, 8, 7, 6, 6, 8, 8, 8, 9, 9, 6, 8, 6, 8, 6, 7, 6, 8, 6, 8, 7, 6, 6, 8, 9, 8, 8, 6, 6, 8, 9, 7, 6, 9, 7, 6, 8, 8, 8, 7, 8, 7, 6, 6, 8, 8, 8, 9, 9, 6, 8, 6, 8, 6, 7, 6, 8, 6, 8, 7, 6, 6, 8, 9, 8, 8, 6, 6, 8, 9, 7, 6, 9, 7, 6, 8, 8, 8, 7, 8, 7, 6, 6, 8, 8, 8, 9, 9, 8, 6, 8, 6, 8, 6, 6, 7, 6, 8, 6, 8, 7, 6, 6, 8, 9, 8, 8, 6, 6, 8, 9, 7, 6, 9, 7, 6, 8, 8, 8, 7, 8, 7, 6, 6, 8, 8, 8, 9, 9, 8, 6, 6, 8, 6, 8, 6, 8, 6, 6, 7, 6, 8, 6, 8, 7, 6, 6, 6, 8, 9, 8, 8, 6, 6, 8, 9, 7, 6, 6, 6, 9, 7, 7, 6, 8, 8, 8, 8, 7, 8, 7, 6, 6, 8, 8, 8, 9, 9, 8, 6, 6, 8, 6, 8, 6, 8, 6, 6, 7, 6, 8, 6, 8, 7, 6, 6, 6, 8, 9, 8, 8, 6, 6, 8, 9, 7, 6, 6, 6, 9, 7, 7, 6, 8, 8, 8, 8, 7, 7, 8, 7, 6, 6, 9, 8, 8, 8, 9, 9, 8, 7, 6, 6, 8, 6, 8, 6, 8, 6, 6, 7, 8, 6, 8, 6, 8, 7, 6, 6, 6, 8, 9, 8, 8, 6, 6, 8, 9, 7, 6, 6, 6, 9, 7, 7, 6, 8, 8, 8, 8, 7, 8, 7, 8, 8, 7, 6, 6, 9, 8, 8, 8, 8, 7, 9, 6, 9, 8, 7, 6, 6, 8, 6, 8, 6, 8, 6, 6, 7, 8, 6, 8, 6, 8, 7, 6, 6, 6, 8, 9, 8, 8, 6, 6, 8, 9, 7, 6, 7, 6, 6, 9, 7, 7, 6, 8, 8, 8, 6, 8, 7, 8, 7, 8, 8, 7, 6, 6, 9, 8, 8, 8, 8, 7, 9, 6, 9, 8, 7, 6, 6, 8, 6, 8, 6, 8, 6, 6, 7, 8, 6, 8, 6, 8, 7, 6, 6, 6, 8, 9, 8, 8, 6, 6, 8, 9, 7, 6, 7, 6, 6, 9, 7, 7, 6, 8, 8, 8, 6, 6, 6, 8, 6, 6, 6, 7, 8, 6, 6, 8, 6, 6, 6, 7, 8, 6, 6, 8, 6, 6, 6, 7, 8, 6, 6, 8, 6, 6, 6, 7, 8, 6, 6, 8, 6, 6, 6, 7, 8, 7, 8, 7, 6, 6, 6, 7, 6, 6, 8, 6, 7, 8, 7, 6, 6, 6, 7, 6, 6, 8, 6, 7, 9, 7, 8, 9, 8, 9, 8, 9, 9, 9, 8, 9, 8, 8, 8, 8, 6, 8, 6, 8, 6, 8, 6, 8, 8, 8, 8, 8, 8, 8, 8, 8, 7, 6, 7, 6, 8, 8, 8, 7, 6, 7, 6, 8, 7, 6, 7, 6, 8, 7, 6, 6, 8, 7, 6, 6, 8, 7, 6, 7, 6, 8, 7, 6, 6, 8, 8, 8, 7, 6, 7, 6, 7, 7, 7, 7, 7, 7, 7, 7, 7, 7, 7, 7, 7, 7, 7, 8, 8, 8, 8] p=0.2"]
S2 -> S102 [label="5 [7, 7, 7, 7, 7, 7, 7, 7, 7, 7] p=0.0"]
S3 -> S1 [label="2 [1, 1, 2, 1, 2, 1, 1, 6, 2, 1, 5, 1, 2, 1, 2, 1, 2, 1, 2, 1, 2, 2, 1, 1, 2, 7, 2, 3, 1, 1, 2, 2, 6, 1, 3, 2, 1, 2, 5, 1, 3, 1, 2, 6, 1, 3, 2, 1, 1, 1, 1, 2, 1, 1, 2, 2, 1, 1, 2, 1, 1, 2, 1, 1, 2, 1, 2, 1, 1, 1, 2, 2, 3, 5, 1, 2, 1, 6, 1, 2, 2, 1, 5, 1, 1, 3, 2, 1, 2, 1, 1, 2, 2, 1, 2, 1, 2, 2, 1, 2, 1, 3, 1, 1, 1, 1, 1, 1, 3, 1, 1, 1, 1, 10, 1, 2, 1, 1, 3, 1, 1, 4, 1, 1, 5, 2, 2, 2, 1, 2, 1, 3, 6, 1, 3, 1, 2, 2, 1, 3, 2, 1, 1, 2, 3, 2, 2, 1, 2, 2, 3, 1, 1, 1, 3, 2, 2, 1, 2, 5, 5, 1, 2, 1, 2, 1, 2, 1, 1, 1, 2, 2, 1, 2, 1, 2, 2, 1, 2, 1, 1, 2, 1, 2, 1, 1, 1, 2, 1, 1, 2, 1, 2, 1, 2, 3, 1, 5, 1, 3, 1, 1, 1, 1, 2, 2, 3, 1, 1, 1, 1, 1, 2, 1, 1, 2, 1, 1, 1, 2, 1, 2, 1, 2, 1, 5, 1, 1, 1, 1, 1, 5, 1, 1, 2, 1, 1, 1, 2, 2, 2, 4, 5, 6, 1, 2, 2, 1, 1, 2, 1, 1, 2, 1, 2, 1, 1, 6, 2, 1, 1, 2, 1, 2, 1, 2, 1, 2, 1, 2, 2, 1, 2, 7, 2, 3, 1, 1, 2, 2, 6, 1, 3, 2, 1, 5, 1, 3, 1, 2, 6, 1, 3, 2, 1, 1, 1, 2, 1, 1, 2, 2, 1, 1, 2, 1, 1, 2, 1, 1, 2, 1, 2, 1, 1, 1, 2, 2, 3, 5, 1, 2, 1, 6, 1, 2, 2, 1, 5, 1, 2, 1, 2, 1, 1, 2, 2, 1, 2, 1, 2, 2, 1, 2, 1, 3, 1, 1, 1, 1, 1, 1, 3, 1, 1, 1, 1, 10, 1, 2, 1, 1, 3, 1, 1, 4, 1, 1, 2, 2, 2, 1, 2, 1, 3, 6, 1, 3, 1, 2, 2, 3, 2, 1, 1, 2, 3, 2, 2, 1, 2, 2, 3, 1, 1, 1, 3, 2, 2, 1, 2, 5, 5, 1, 2, 1, 2, 1, 2, 1, 1, 1, 2, 2, 1, 2, 1, 2, 2, 1, 2, 1, 1, 2, 1, 2, 1, 1, 1, 2, 1, 1, 2, 1, 2, 1, 2, 3, 1, 5, 1, 3, 1, 1, 1, 1, 2, 2, 3, 1, 1, 1, 1, 1, 2, 1, 1, 2, 1, 1, 2, 1, 2, 1, 2, 1, 5, 1, 1, 1, 1, 1, 5, 1, 1, 2, 1, 1, 1, 2, 2, 2, 4, 5, 6, 1, 2, 2, 1, 1, 2, 1, 1, 2, 1, 2, 1, 1, 6, 2, 1, 1, 2, 1, 2, 1, 2, 1, 2, 1, 2, 2, 1, 2, 7, 2, 3, 1, 1, 2, 2, 6, 1, 3, 2, 1, 5, 1, 3, 1, 2, 6, 1, 3, 2, 1, 1, 1, 2, 1, 1, 2, 2, 1, 1, 2, 1, 1, 2, 1, 1, 2, 1, 2, 1, 1, 1, 2, 2, 3, 5, 1, 2, 1, 6, 1, 2, 2, 1, 5, 1, 2, 1, 2, 1, 1, 2, 2, 1, 2, 1, 2, 2, 1, 2, 1, 3, 1, 1, 1, 1, 1, 1, 3, 1, 1, 1, 1, 10, 1, 2, 1, 1, 3, 1, 1, 4, 1, 1, 2, 2, 2, 1, 2, 1, 3, 6, 1, 3, 1, 2, 2, 3, 2, 1, 1, 2, 3, 2, 2, 1, 2, 2, 3, 1, 1, 1, 3, 2, 2, 1, 2, 5, 5, 1, 2, 1, 2, 1, 2, 1, 1, 1, 2, 2, 1, 2, 1, 2, 2, 1, 2, 1, 1, 2, 1, 2, 1, 1, 1, 2, 1, 1, 2, 1, 2, 1, 2, 3, 1, 5, 1, 3, 1, 1, 1, 1, 2, 2, 3, 1, 1, 1, 1, 1, 2, 1, 1, 2, 1, 1, 2, 1, 2, 1, 2, 1, 5, 1, 1, 1, 1, 1, 5, 1, 1, 2, 1, 1, 1, 2, 2, 2, 4, 5, 6, 1, 2, 2, 1, 1, 2, 1, 2, 1, 2, 1, 1, 6, 2, 1, 1, 2, 1, 2, 1, 2, 1, 2, 1, 2, 2, 1, 7, 3, 1, 2, 1, 3, 2, 1, 5, 1, 3, 1, 2, 1, 3, 2, 1, 1, 2, 1, 1, 2, 1, 1, 2, 1, 2, 1, 1, 2, 1, 2, 1, 1, 1, 2, 2, 3, 1, 2, 1, 1, 2, 1, 5, 1, 1, 2, 1, 2, 1, 2, 1, 2, 2, 1, 2, 3, 1, 1, 1, 1, 1, 1, 3, 1, 1, 1, 10, 1, 2, 1, 1, 3, 1, 1, 2, 2, 1, 1, 3, 6, 1, 3, 1, 2, 2, 1, 2, 2, 1, 2, 2, 3, 1, 3, 2, 2, 2, 5, 5, 2, 1, 2, 1, 2, 1, 2, 1, 2, 1, 2, 2, 1, 1, 1, 2, 1, 2, 1, 1, 2, 1, 1, 1, 3, 1, 5, 1, 3, 1, 1, 1, 1, 2, 2, 3, 1, 1, 1, 1, 2, 1, 1, 1, 1, 2, 1, 2, 1, 5, 1, 1, 5, 1, 2, 1, 2, 2, 4, 5, 6, 1, 2, 2, 1, 1, 2, 1, 2, 1, 2, 1, 1, 6, 2, 1, 2, 1, 2, 1, 2, 1, 2, 1, 2, 2, 1, 7, 3, 1, 2, 1, 3, 2, 1, 1, 3, 1, 2, 1, 3, 2, 1, 1, 2, 1, 1, 2, 1, 1, 2, 1, 2, 1, 1, 2, 1, 2, 1, 1, 1, 2, 2, 3, 1, 2, 1, 1, 2, 1, 5, 1, 2, 1, 2, 1, 2, 1, 2, 2, 1, 2, 3, 1, 1, 1, 1, 1, 1, 3, 1, 1, 1, 10, 1, 2, 1, 1, 3, 1, 1, 2, 1, 1, 3, 6, 1, 3, 1, 2, 2, 1, 2, 2, 1, 2, 2, 3, 1, 3, 2, 2, 2, 5, 5, 2, 1, 2, 1, 2, 1, 2, 1, 2, 1, 2, 2, 1, 1, 1, 2, 1, 2, 1, 1, 2, 1, 1, 1, 3, 1, 5, 1, 3, 1, 1, 1, 1, 2, 2, 3, 1, 1, 1, 1, 2, 1, 1, 1, 2, 1, 2, 1, 5, 1, 1, 5, 1, 2, 1, 2, 2, 4, 5, 6, 1, 2, 2, 1, 1, 2, 1, 2, 1, 2, 1, 1, 6, 2, 1, 2, 1, 2, 1, 2, 1, 2, 1, 2, 2, 1, 7, 3, 1, 2, 1, 3, 2, 1, 1, 3, 1, 2, 1, 3, 2, 1, 1, 2, 1, 1, 2, 1, 1, 2, 1, 2, 1, 1, 2, 1, 2, 1, 1, 1, 2, 2, 3, 1, 2, 1, 1, 2, 1, 5, 1, 2, 1, 2, 1, 2, 1, 2, 2, 1, 2, 3, 1, 1, 1, 1, 1, 1, 3, 1, 1, 1, 10, 1, 2, 1, 1, 3, 1, 1, 2, 1, 1, 3, 6, 1, 3, 1, 2, 2, 1, 2, 2, 1, 2, 2, 3, 1, 3, 2, 2, 2, 5, 5, 2, 1, 2, 1, 2, 1, 2, 1, 2, 1, 2, 2, 1, 1, 1, 2, 1, 2, 1, 1, 2, 1, 1, 1, 3, 1, 5, 1, 3, 1, 1, 1, 1, 2, 2, 3, 1, 1, 1, 1, 2, 1, 1, 1, 2, 1, 2, 1, 5, 1, 1, 5, 1, 2, 1, 2, 2, 4, 5, 6, 1, 2, 2, 1, 1, 2, 2, 1, 2, 1, 1, 6, 2, 1, 2, 1, 2, 1, 2, 1, 2, 1, 2, 2, 1, 3, 2, 1, 1, 3, 1, 2, 3, 2, 1, 2, 1, 1, 2, 1, 2, 2, 1, 1, 2, 1, 2, 1, 1, 1, 2, 2, 3, 2, 1, 2, 5, 2, 1, 1, 2, 1, 2, 2, 1, 2, 1, 1, 1, 1, 1, 1, 3, 1, 1, 10, 1, 2, 1, 1, 3, 1, 1, 3, 6, 1, 3, 1, 2, 2, 2, 2, 3, 2, 2, 5, 5, 1, 2, 1, 2, 2, 2, 1, 2, 2, 1, 1, 2, 1, 2, 1, 2, 1, 5, 1, 3, 1, 1, 1, 1, 2, 2, 3, 1, 1, 1, 2, 1, 1, 1, 2, 2, 1, 5, 1, 2, 1, 2, 5, 6, 1, 2, 2, 1, 1, 2, 2, 1, 2, 1, 1, 6, 2, 1, 1, 2, 1, 2, 1, 2, 1, 2, 2, 1, 3, 2, 1, 3, 1, 2, 3, 2, 1, 2, 1, 1, 2, 1, 2, 2, 1, 1, 2, 1, 2, 1, 1, 1, 2, 2, 3, 2, 1, 2, 5, 2, 1, 1, 2, 1, 2, 2, 1, 2, 1, 1, 1, 1, 1, 1, 3, 1, 1, 10, 1, 2, 1, 1, 3, 1, 1, 3, 6, 1, 3, 1, 2, 2, 2, 2, 3, 2, 2, 5, 5, 1, 2, 1, 2, 2, 2, 1, 2, 2, 1, 1, 2, 1, 2, 1, 2, 1, 5, 1, 3, 1, 1, 1, 1, 2, 2, 3, 1, 1, 1, 2, 1, 1, 2, 2, 1, 5, 1, 2, 1, 2, 5, 6, 1, 2, 2, 1, 1, 2, 2, 1, 2, 1, 1, 6, 2, 1, 1, 2, 1, 2, 1, 2, 1, 2, 2, 1, 3, 2, 1, 3, 1, 2, 3, 2, 1, 2, 1, 1, 2, 1, 2, 2, 1, 1, 2, 1, 2, 1, 1, 1, 2, 2, 3, 2, 1, 2, 5, 2, 1, 1, 2, 1, 2, 2, 1, 2, 1, 1, 1, 1, 1, 1, 3, 1, 1, 10, 1, 2, 1, 1, 3, 1, 1, 3, 6, 1, 3, 1, 2, 2, 2, 2, 3, 2, 2, 5, 5, 1, 2, 1, 2, 2, 2, 1, 2, 2, 1, 1, 2, 1, 2, 1, 2, 1, 5, 1, 3, 1, 1, 1, 1, 2, 2, 3, 1, 1, 1, 2, 1, 1, 2, 2, 1, 5, 1, 2, 1, 2, 5, 6, 1, 2, 2, 1, 1, 2, 1, 2, 1, 1, 6, 2, 1, 1, 2, 1, 2, 1, 2, 1, 2, 2, 1, 2, 1, 3, 1, 2, 2, 1, 1, 1, 2, 2, 1, 1, 2, 1, 2, 1, 1, 1, 2, 2, 3, 1, 1, 2, 1, 2, 2, 1, 2, 1, 1, 1, 1, 1, 3, 1, 10, 1, 2, 1, 1, 3, 6, 1, 3, 1, 2, 2, 3, 2, 5, 2, 1, 2, 1, 2, 2, 1, 2, 1, 2, 1, 5, 1, 3, 1, 1, 1, 1, 2, 2, 3, 1, 1, 2, 1, 1, 2, 1, 5, 1, 6, 1, 2, 2, 1, 1, 2, 2, 2, 1, 2, 6, 6, 1, 2, 1, 5, 6, 2, 2, 1, 2, 1, 1, 1, 1, 4, 2, 2, 2, 3, 1, 3, 2, 1, 1, 1, 1, 1, 2, 2, 1, 1, 2, 2, 2, 1, 2, 1, 2, 1, 1, 1, 1, 1, 1, 2, 2, 2, 6, 6, 2, 1, 2, 2, 1, 2, 1, 1, 1, 1, 4, 2, 2, 2, 3, 1, 3, 2, 1, 1, 1, 1, 1, 2, 2, 1, 1, 2, 2, 2, 1, 2, 1, 2, 1, 1, 1, 1, 1, 1, 2, 2, 6, 6, 2, 1, 2, 1, 2, 1, 1, 1, 1, 4, 2, 2, 2, 1, 3, 2, 1, 1, 1, 1, 1, 2, 2, 1, 1, 2, 2, 2, 1, 2, 1, 2, 1, 1, 1, 1, 1, 1, 2, 2, 6, 6, 2, 1, 2, 1, 1, 1, 1, 2, 2, 1, 3, 2, 1, 1, 1, 1, 2, 2, 1, 1, 2, 2, 2, 1, 2, 1, 1, 1, 1, 1, 2, 2, 6, 6, 2, 1, 2, 1, 1, 1, 1, 2, 2, 2, 1, 3, 2, 1, 1, 1, 1, 2, 2, 1, 1, 2, 2, 2, 1, 2, 1, 1, 1, 1, 1, 2, 2, 6, 6, 2, 1, 2, 1, 2, 1, 1, 1, 1, 4, 2, 2, 2, 1, 3, 2, 1, 1, 1, 1, 1, 2, 2, 1, 1, 2, 2, 2, 1, 2, 1, 2, 1, 1, 1, 1, 1, 1, 2, 2, 1, 2, 6, 6, 1, 2, 1, 5, 6, 2, 2, 1, 2, 1, 1, 1, 1, 4, 2, 2, 2, 3, 1, 3, 2, 1, 1, 1, 1, 1, 2, 2, 1, 1, 2, 2, 2, 1, 2, 1, 2, 1, 1, 1, 1, 1, 1, 2, 7, 3, 1, 2, 1, 1, 1, 1, 1, 1, 1, 1, 1, 2, 3, 1, 1, 2, 1, 2, 1, 2, 1, 1, 3, 2, 1, 1, 1, 1, 1, 1, 1, 3, 1, 1, 1, 5, 1, 2, 4, 3, 2, 1, 1, 1, 1, 1, 1, 2, 3, 1, 1, 2, 1, 2, 1, 2, 1, 1, 3, 2, 1, 1, 1, 1, 1, 1, 1, 3, 1, 1, 1, 5, 1, 2, 3, 2, 1, 1, 1, 1, 1, 2, 3, 1, 1, 2, 1, 1, 2, 1, 1, 3, 2, 1, 1, 1, 1, 1, 1, 1, 3, 1, 1, 1, 5, 1, 2, 7, 3, 1, 2, 1, 1, 1, 1, 1, 1, 1, 1, 1, 2, 3, 1, 1, 2, 1, 2, 1, 2, 1, 1, 3, 2, 1, 1, 1, 1, 1, 1, 1, 3, 1, 1, 1, 5, 1, 2, 4, 2, 1, 4, 1, 2, 1, 1, 2, 1, 4, 1, 2, 1, 1, 3, 3, 2, 1, 2, 2, 2, 5, 2, 1, 1, 1, 1, 1, 3, 2, 2, 2, 5, 2, 2, 1, 2, 1, 1, 2, 1, 2, 2, 5, 5, 5, 5, 5, 5, 5, 5, 5, 5, 1, 1, 1, 1, 1, 1, 1, 1, 1, 1, 1, 1, 2, 2, 2, 2, 2, 2, 2, 1, 1, 5, 6, 2, 2, 1, 1, 5, 6, 2, 1, 5, 6, 2, 1, 5, 6, 2, 2, 1, 1, 5, 6, 2, 7, 1, 1, 1, 1, 4, 7, 1, 1, 1, 1, 4, 1, 1, 1, 2, 1, 1, 1, 1, 1, 2, 2, 2, 1, 5, 1, 2, 5, 1, 2, 5, 1, 2, 5, 1, 2, 5, 1, 2, 5, 1, 2, 1, 1, 1, 1, 1, 1, 2, 2, 3, 3, 3, 3, 1, 1, 2, 2, 2] p=1.0"]
S102 -> S105 [label="2 [1, 1, 1, 3, 1, 3, 1, 3, 1, 3, 1, 3, 1, 1, 3, 1, 3, 3, 1, 1, 1, 1, 1, 1, 1, 2, 1, 1, 3, 5, 1, 1, 2, 1, 1, 5, 1, 2, 1, 1, 5, 1, 2, 1, 1, 5, 2, 1, 1, 5, 2, 1, 1, 5, 1, 2, 1, 1, 5, 2, 1, 1, 5, 2, 1, 1, 5, 1, 1, 1, 1, 1, 1, 1, 1, 1, 1, 1, 1, 1, 1, 1] p=1.0"]
S105 -> S2 [label="4 [27, 27, 27, 27, 27, 27, 27, 27, 10, 28, 17, 19, 17, 26, 24, 25, 28, 17, 19, 26, 24, 28, 17, 19, 26, 24, 28, 17, 19, 26, 28, 17, 19, 26, 28, 17, 19, 26, 24, 28, 17, 19, 26, 28, 17, 19, 26, 27, 24, 24, 24, 24, 25, 25, 25, 25, 25, 10, 10, 17, 10, 17, 10, 17, 10, 17, 10, 17, 25, 10, 17, 25, 17] p=1.0"]