S0 -> S1 [label="2 [0, 0, 0, 0, 0, 0, 0, 0, 0, 0, 0, 0, 0, 0, 0, 0, 0, 0, 0, 0, 0, 0, 0, 0, 0, 0, 0, 0, 0, 0, 0, 0, 0, 0, 0, 0, 0, 0, 0, 0, 0, 0, 0, 0, 0, 0, 0, 0, 0, 0, 0, 0, 0, 0, 0, 0, 0, 0, 0, 0, 0, 0, 0, 0, 0, 0, 0, 0, 0, 0, 0, 0, 0, 0, 0, 0, 0, 0, 0, 0, 0, 0, 0, 0, 0, 0, 0, 0, 0, 0, 0, 0, 0, 0, 0, 0, 0, 0, 0, 0, 0, 0, 0, 0, 0, 0, 0, 0, 0, 0, 0, 0, 0, 0, 0, 0, 0, 0, 0, 0, 0, 0, 0, 0, 0, 0, 0, 0, 0, 0, 0, 0, 0, 0, 0, 0, 0, 0, 0, 0, 0, 0, 0, 0, 0, 0, 0, 0, 0, 0, 0, 0, 0, 0, 0, 0, 0, 0, 0, 0, 0, 0, 0, 0, 0, 0, 0, 0, 0, 0, 0, 0, 0, 0, 0, 0, 0, 0, 0, 0, 0, 0, 0, 0, 0, 0, 0, 0, 0, 0, 0, 0, 0, 0, 0, 0, 0, 0, 0, 0, 0, 0, 0, 0, 0, 0, 0, 0, 0, 0, 0, 0, 0, 0, 0, 0, 0, 0, 0, 0, 0, 0, 0, 0, 0, 0, 0, 0, 0, 0, 0, 0, 0, 0, 0, 0, 0, 0, 0, 0, 0, 0, 0, 0, 0, 0, 0, 0, 0, 0, 0, 0, 0, 0, 0, 0, 0, 0, 0, 0, 0, 0, 0, 0, 0, 0, 0, 0, 0, 0, 0, 0, 0, 0, 0, 0, 0, 0, 0, 0, 0, 0, 0, 0, 0, 0, 0, 0, 0, 0, 0, 0, 0, 0, 0, 0, 0, 0, 0, 0, 0, 0, 0, 0, 0, 0, 0, 0, 0, 0, 0, 0, 0, 0, 0, 0, 0, 0, 0, 0, 0, 0, 0, 0, 0, 0, 0, 0, 0, 0, 0, 0, 0, 0, 0, 0, 0, 0, 0, 0, 0, 0, 0, 0, 0, 0, 0, 0, 0, 0, 0, 0, 0, 0, 0, 0, 0, 0, 0, 0, 0, 0, 0, 0, 0, 0, 0, 0, 0, 0, 0, 0, 0, 0, 0, 0, 0, 0, 0, 0, 0, 0, 0, 0, 0, 0, 0, 0, 0, 0, 0, 0, 0, 0, 0, 0, 0, 0, 0, 0, 0, 0, 0, 0, 0, 0, 0, 0, 0, 0, 0, 0, 0, 0, 0, 0, 0, 0, 0, 0, 0, 0, 0, 0, 0, 0, 0, 0, 0, 0, 0, 0, 0, 0, 0, 0, 0, 0, 0, 0, 0, 0, 0, 0, 0, 0, 0, 0, 0, 0, 0, 0, 0, 0, 0, 0, 0, 0, 0, 0, 0, 0, 0, 0, 0, 0, 0, 0, 0, 0, 0, 0, 0, 0, 0, 0, 0, 0] p=0.42"]
S0 -> S2 [label="3 [0, 0, 0, 0, 0, 0, 0, 0, 0, 0, 0, 0, 0, 0, 0, 0, 0, 0, 0, 0, 0, 0, 0, 0, 0, 0, 0, 0, 0, 0, 0, 0, 0, 0, 0, 0, 0, 0, 0, 0, 0, 0, 0, 0, 0, 0, 0, 0, 0, 0, 0, 0, 0, 0, 0, 0, 0, 0, 0, 0, 0, 0, 0, 0, 0, 0, 0, 0, 0, 0, 0, 0, 0, 0, 0, 0, 0, 0, 0, 0, 0, 0, 0, 0, 0, 0, 0, 0, 0, 0, 0, 0, 0, 0, 0, 0, 0, 0, 0, 0, 0, 0, 0, 0, 0, 0, 0, 0, 0, 0, 0, 0, 0, 0, 0, 0, 0, 0, 0, 0, 0, 0, 0, 0, 0, 0, 0, 0, 0, 0, 0, 0, 0, 0, 0, 0, 0, 0, 0, 0, 0, 0, 0, 0, 0, 0, 0, 0, 0, 0, 0, 0, 0, 0, 0, 0, 0, 0, 0, 0, 0, 0, 0, 0, 0, 0, 0, 0, 0, 0, 0, 0, 0, 0, 0, 0, 0, 0, 0, 0, 0, 0, 0, 0, 0, 0, 0, 0, 0, 0, 0, 0, 0, 0, 0, 0, 0, 0, 0, 0, 0, 0, 0, 0, 0, 0, 0, 0, 0, 0, 0, 0, 0, 0, 0, 0, 0, 0, 0, 0, 0, 0, 0, 0, 0, 0, 0, 0, 0, 0, 0, 0, 0, 0, 0, 0, 0, 0, 0, 0, 0, 0, 0, 0, 0, 0, 0, 0, 0, 0, 0, 0, 0, 0, 0, 0, 0, 0, 0, 0, 0, 0, 0, 0, 0, 0, 0, 0, 0, 0, 0, 0, 0, 0, 0, 0, 0, 0, 0, 0, 0, 0, 0, 0, 0, 0, 0, 0, 0, 0, 0, 0, 0, 0, 0, 0, 0, 0, 0, 0, 0, 0, 0, 0, 0, 0, 0, 0, 0, 0, 0, 0, 0, 0, 0, 0, 0, 0, 0, 0, 0, 0, 0, 0, 0, 0, 0, 0, 0, 0, 0, 0, 0, 0, 0, 0, 0, 0, 0, 0, 0, 0, 0, 0, 0, 0, 0, 0, 0, 0, 0, 0, 0, 0, 0, 0, 0, 0, 0, 0, 0, 0, 0, 0, 0, 0, 0, 0, 0, 0, 0, 0, 0, 0, 0, 0, 0, 0, 0, 0, 0, 0, 0, 0, 0, 0, 0, 0, 0, 0, 0, 0, 0, 0, 0, 0, 0, 0, 0, 0, 0, 0, 0, 0, 0, 0, 0, 0, 0, 0, 0, 0, 0, 0, 0, 0, 0, 0, 0, 0, 0, 0, 0, 0, 0, 0, 0, 0, 0, 0, 0, 0, 0, 0, 0, 0, 0, 0, 0, 0, 0, 0, 0, 0, 0, 0, 0, 0, 0, 0, 0, 0, 0, 0, 0, 0, 0, 0, 0, 0, 0, 0, 0, 0, 0, 0, 0, 0, 0, 0, 0, 0, 0, 0, 0, 0, 0] p=0.42"]
S0 -> S9 [label="1 [0, 0, 0, 0, 0, 0, 0, 0, 0, 0, 0, 0, 0, 0, 0, 0, 0, 0, 0, 0, 0, 0, 0, 0, 0, 0, 0, 0, 0, 0, 0, 0, 0, 0, 0, 0, 0, 0, 0, 0, 0, 0, 0, 0, 0, 0, 0, 0, 0, 0, 0, 0, 0, 0, 0, 0, 0, 0, 0, 0, 0, 0, 0, 0, 0, 0, 0, 0, 0, 0, 0, 0, 0, 0, 0, 0, 0, 0, 0, 0, 0, 0, 0, 0, 0, 0, 0, 0, 0, 0, 0, 0, 0, 0, 0, 0, 0, 0, 0, 0, 0, 0, 0, 0, 0, 0, 0, 0, 0, 0, 0, 0, 0, 0, 0, 0, 0, 0, 0, 0, 0, 0, 0, 0, 0, 0, 0, 0, 0, 0, 0, 0, 0, 0, 0, 0, 0, 0, 0, 0, 0, 0, 0, 0, 0, 0, 0, 0, 0, 0, 0, 0, 0, 0, 0, 0, 0, 0, 0, 0, 0, 0, 0, 0, 0, 0, 0, 0, 0, 0, 0, 0, 0, 0, 0] p=0.15"]
S0 -> S174 [label="5 [0] p=0.0"]
S1 -> S2 [label="3 [5, 13, 1, 1, 16, 5, 12, 1, 15, 10, 5, 7, 19, 5, 8, 1, 6, 12, 1, 15, 6, 6, 8, 1, 10, 8, 11, 1, 3, 15, 4, 4, 11, 4, 5, 4, 4, 12, 15, 7, 15, 3, 1, 14, 13, 6, 1, 2, 8, 1, 3, 1, 13, 1, 1, 1, 16, 5, 4, 9, 6, 13, 16, 5, 6, 19, 22, 1, 1, 16, 6, 5, 5, 1, 8, 5, 12, 1, 2, 17, 3, 4, 10, 1, 10, 2, 11, 5, 1, 10, 1, 13, 3, 11, 5, 1, 11, 1, 16, 1, 5, 5, 11, 3, 3, 11, 1, 14, 5, 1, 10, 9, 6, 7, 3, 6, 6, 1, 3, 1, 5, 1, 3, 1, 10, 4, 2, 9, 1, 1, 1, 18, 5, 1, 3, 7, 6, 10, 3, 1, 1, 15, 1, 7, 5, 1, 2, 1, 6, 7, 14, 1, 15, 1, 5, 3, 2, 2, 7, 6, 13, 2, 1, 13, 1, 1, 14, 3, 11, 5, 5, 8, 4, 6, 1, 5, 3, 13, 10, 7, 5, 13, 2, 14, 3, 10, 5, 12, 16, 6, 12, 10, 2, 4, 4, 2, 10, 11, 1, 6, 5, 12, 4, 2, 2, 1, 7, 5, 9, 1, 7, 1, 3, 9, 11, 8, 1, 2, 6, 5, 5, 2, 15, 7, 11, 1, 7, 4, 1, 11, 8, 6, 12, 19, 5, 2, 1, 1, 8, 5, 10, 3, 1, 3, 6, 6, 11, 1, 15, 6, 11, 1, 16, 7, 4, 2, 8, 6, 13, 15, 5, 4, 1, 7, 3, 9, 4, 13, 1, 17, 4, 6, 2, 5, 6, 1, 11, 16, 1, 5, 4, 12, 10, 1, 12, 6, 12, 6, 6, 5, 11, 5, 5, 9, 5, 12, 1, 18, 7, 16, 11, 3, 2, 8, 8, 10, 1, 13, 7, 5, 3, 4, 4, 6, 4, 9, 4, 1, 11, 5, 12, 10, 4, 11, 14, 1, 7, 4, 12, 11, 2, 5, 4, 11, 3, 1, 6, 5, 2, 17, 1, 5, 5, 1, 9, 3, 12, 10, 9, 5, 13, 9, 1, 1, 6, 5, 5, 10, 5, 9, 2, 1, 11, 4, 12, 1, 1, 1, 13, 4, 9, 1, 6, 4, 8, 1, 1, 15, 2, 4, 5, 13, 9, 6, 7, 12, 1, 3, 1, 16, 4, 1, 11, 3, 13, 1, 2, 15, 6, 3, 10, 5, 3, 2, 4, 6, 5, 8, 4, 1, 10, 10, 6, 5, 4, 1, 8, 4, 5, 8, 4, 2, 10, 6, 11, 17, 8, 3, 11, 3, 4, 9, 5, 14, 4, 1, 14, 8, 15, 3, 12, 1, 4, 7, 9, 8, 1, 6, 5, 12, 11, 2, 5, 5, 2, 11, 1, 4, 3, 7, 4, 1, 7, 4, 1, 2, 18, 6, 12, 1, 15, 6, 12, 13, 1, 1, 2, 13, 1, 1, 12, 1, 10, 7, 8, 1, 12, 1, 6, 8, 1, 11, 1, 3, 4, 11, 5, 4, 12, 15, 3, 1, 6, 2, 8, 1, 1, 13, 1, 1, 1, 4, 9, 13, 6, 1, 1, 6, 5, 1, 8, 12, 1, 2, 3, 10, 1, 2, 11, 1, 10, 1, 11, 1, 11, 1, 1, 5, 11, 3, 11, 1, 1, 10, 6, 3, 6, 1, 3, 1, 5, 1, 1, 10, 2, 9, 1, 1, 1, 1, 3, 7, 10, 3, 1, 1, 1, 7, 1, 2, 1, 6, 14, 1, 1, 5, 2, 2, 7, 13, 2, 13, 1, 1, 11, 5, 8, 6, 1, 5, 13, 7, 13, 2, 10, 12, 12, 2, 4, 2, 10, 1, 6, 12, 2, 2, 1, 7, 9, 1, 1, 3, 11, 1, 2, 6, 5, 2, 7, 1, 7, 1, 11, 12, 2, 1, 1, 8, 10, 1, 3, 6, 11, 1, 11, 1, 7, 2, 8, 13, 4, 1, 7, 9, 13, 1, 6, 2, 5, 1, 11, 1, 5, 12, 1, 12, 12, 6, 11, 5, 9, 12, 1, 16, 3, 2, 8, 10, 1, 7, 3, 4, 4, 4, 9, 1, 11, 12, 11, 1, 7, 12, 2, 5, 11, 1, 6, 5, 2, 1, 5, 1, 9, 12, 9, 13, 1, 1, 6, 5, 10, 9, 1, 11, 12, 1, 1, 1, 9, 1, 4, 8, 1, 1, 2, 4, 13, 6, 12, 1, 3, 1, 1, 11, 13, 1, 2, 6, 10, 3, 2, 4, 5, 8, 1, 10, 6, 4, 1, 8, 5, 8, 2, 10, 11, 8, 11, 4, 9, 14, 4, 1, 15, 3, 1, 4, 9, 1, 6, 12, 2, 5, 2, 11, 1, 3, 7, 1, 7, 4, 1, 2, 12, 1, 12, 1, 1, 2, 13, 1, 1, 12, 1, 10, 7, 8, 1, 12, 1, 6, 8, 1, 11, 1, 3, 4, 11, 5, 4, 12, 15, 3, 1, 6, 2, 8, 1, 1, 13, 1, 1, 1, 4, 9, 13, 6, 1, 1, 6, 5, 1, 8, 12, 1, 2, 3, 10, 1, 2, 11, 1, 10, 1, 11, 1, 11, 1, 1, 5, 11, 3, 11, 1, 1, 10, 6, 3, 6, 1, 3, 1, 5, 1, 1, 10, 2, 9, 1, 1, 1, 1, 3, 7, 10, 3, 1, 1, 1, 7, 1, 2, 1, 6, 14, 1, 1, 5, 2, 2, 7, 13, 2, 13, 1, 1, 11, 5, 8, 6, 1, 5, 13, 7, 13, 2, 10, 12, 12, 2, 4, 2, 10, 1, 6, 12, 2, 2, 1, 7, 9, 1, 1, 3, 11, 1, 2, 6, 5, 2, 7, 1, 7, 1, 11, 12, 2, 1, 1, 8, 10, 1, 3, 6, 11, 1, 11, 1, 7, 2, 8, 13, 4, 1, 7, 9, 13, 1, 6, 2, 5, 1, 11, 1, 5, 12, 1, 12, 12, 6, 11, 5, 9, 12, 1, 16, 3, 2, 8, 10, 1, 7, 3, 4, 4, 4, 9, 1, 11, 12, 11, 1, 7, 12, 2, 5, 11, 1, 6, 5, 2, 1, 5, 1, 9, 12, 9, 13, 1, 1, 6, 5, 10, 9, 1, 11, 12, 1, 1, 1, 9, 1, 4, 8, 1, 1, 2, 4, 13, 6, 12, 1, 3, 1, 1, 11, 13, 1, 2, 6, 10, 3, 2, 4, 5, 8, 1, 10, 6, 4, 1, 8, 5, 8, 2, 10, 11, 8, 11, 4, 9, 14, 4, 1, 15, 3, 1, 4, 9, 1, 6, 12, 2, 5, 2, 11, 1, 3, 7, 1, 7, 4, 1, 2, 12, 1, 12, 1, 1, 2, 1, 1, 1, 1, 1, 1, 1, 3, 4, 3, 1, 8, 1, 13, 1, 1, 1, 9, 1, 1, 8, 1, 2, 1, 11, 10, 1, 11, 1, 5, 11, 1, 10, 6, 3, 1, 5, 1, 10, 9, 1, 1, 1, 3, 7, 3, 1, 1, 7, 2, 1, 6, 1, 5, 2, 7, 2, 1, 1, 8, 1, 5, 2, 4, 10, 6, 2, 1, 7, 1, 3, 2, 6, 2, 7, 11, 1, 1, 8, 3, 6, 1, 1, 8, 1, 7, 1, 2, 5, 11, 5, 12, 9, 1, 2, 8, 1, 4, 4, 9, 11, 7, 5, 6, 5, 2, 5, 9, 1, 6, 10, 11, 1, 1, 1, 1, 8, 1, 1, 4, 1, 3, 1, 11, 1, 2, 2, 4, 8, 10, 1, 8, 8, 10, 9, 4, 1, 3, 4, 6, 5, 11, 1, 7, 7, 4, 1, 2, 1, 1, 2, 1, 1, 1, 1, 1, 1, 1, 3, 4, 3, 1, 8, 1, 13, 1, 1, 1, 9, 1, 1, 8, 1, 2, 1, 11, 10, 1, 11, 1, 5, 11, 1, 10, 6, 3, 1, 5, 1, 10, 9, 1, 1, 1, 3, 7, 3, 1, 1, 7, 2, 1, 6, 1, 5, 2, 7, 2, 1, 1, 8, 1, 5, 2, 4, 10, 6, 2, 1, 7, 1, 3, 2, 6, 2, 7, 11, 1, 1, 8, 3, 6, 1, 1, 8, 1, 7, 1, 2, 5, 11, 5, 12, 9, 1, 2, 8, 1, 4, 4, 9, 11, 7, 5, 6, 5, 2, 5, 9, 1, 6, 10, 11, 1, 1, 1, 1, 8, 1, 1, 4, 1, 3, 1, 11, 1, 2, 2, 4, 8, 10, 1, 8, 8, 10, 9, 4, 1, 3, 4, 6, 5, 11, 1, 7, 7, 4, 1, 2, 1, 1, 2, 1, 3, 1, 1, 1, 1, 1, 8, 2, 1, 1, 1, 1, 5, 1, 1, 1, 1, 7, 1, 1, 1, 6, 7, 1, 5, 1, 7, 6, 1, 8, 6, 7, 5, 8, 4, 5, 2, 6, 1, 1, 1, 1, 3, 1, 2, 4, 8, 1, 1, 4, 1, 2, 2, 1, 3, 1, 1, 1, 1, 1, 8, 2, 1, 1, 1, 1, 5, 1, 1, 1, 1, 7, 1, 1, 1, 6, 7, 1, 5, 1, 7, 6, 1, 8, 6, 7, 5, 8, 4, 5, 2, 6, 1, 1, 1, 1, 3, 1, 2, 4, 8, 1, 1, 4, 1, 2, 2, 1, 1, 5, 1, 1, 1, 1, 6, 7, 8, 2, 1, 1, 1, 1, 2, 1, 1, 5, 1, 1, 1, 1, 6, 7, 8, 2, 1, 1, 1, 1, 2, 1, 1, 1, 2, 12, 10, 7, 8, 12, 6, 8, 11, 4, 11, 5, 12, 15, 6, 2, 1, 4, 13, 6, 1, 6, 5, 12, 3, 10, 2, 1, 11, 1, 1, 11, 3, 1, 6, 3, 1, 1, 2, 1, 10, 1, 1, 14, 1, 2, 13, 13, 11, 5, 6, 13, 7, 13, 10, 12, 12, 2, 2, 1, 12, 2, 9, 1, 11, 1, 5, 7, 1, 1, 12, 2, 10, 1, 11, 11, 7, 2, 13, 4, 9, 13, 6, 1, 1, 12, 1, 12, 6, 11, 5, 12, 16, 3, 10, 7, 3, 4, 1, 12, 11, 1, 12, 2, 11, 1, 1, 1, 12, 9, 13, 1, 5, 9, 1, 12, 9, 4, 2, 13, 6, 12, 1, 13, 6, 10, 3, 5, 1, 6, 4, 5, 2, 11, 8, 11, 4, 14, 15, 1, 9, 1, 12, 2, 2, 3, 1, 12, 12, 1, 1, 1, 1, 1, 1, 4, 3, 8, 13, 9, 1, 1, 1, 1, 11, 10, 11, 5, 11, 10, 6, 3, 10, 9, 3, 3, 7, 2, 1, 5, 2, 2, 1, 8, 1, 2, 4, 10, 6, 2, 1, 3, 2, 2, 7, 11, 1, 3, 1, 1, 8, 1, 1, 2, 11, 5, 12, 9, 1, 2, 1, 4, 9, 11, 7, 5, 6, 5, 9, 1, 10, 11, 1, 1, 8, 4, 1, 11, 1, 2, 8, 10, 1, 8, 10, 9, 4, 3, 4, 6, 5, 11, 7, 7, 1, 1, 3, 1, 1, 1, 8, 2, 1, 1, 1, 1, 1, 7, 1, 1, 7, 1, 5, 1, 6, 1, 6, 7, 5, 8, 4, 5, 6, 1, 1, 3, 2, 4, 8, 1, 1, 4, 2, 1, 5, 1, 1, 6, 7, 8, 2, 1, 1, 1, 1, 12, 10, 7, 8, 12, 6, 8, 11, 4, 11, 5, 12, 15, 6, 2, 1, 4, 13, 6, 1, 6, 5, 12, 3, 10, 2, 1, 11, 1, 1, 11, 3, 1, 6, 3, 1, 1, 2, 1, 10, 1, 1, 14, 1, 2, 13, 13, 11, 5, 6, 13, 7, 13, 10, 12, 12, 2, 2, 1, 12, 2, 9, 1, 11, 1, 5, 7, 1, 1, 12, 2, 10, 1, 11, 11, 7, 2, 13, 4, 9, 13, 6, 1, 1, 12, 1, 12, 6, 11, 5, 12, 16, 10, 7, 3, 4, 1, 12, 11, 1, 12, 2, 11, 1, 1, 1, 12, 9, 13, 1, 5, 9, 1, 12, 9, 4, 2, 13, 6, 12, 1, 13, 6, 10, 3, 5, 1, 6, 4, 5, 2, 11, 8, 11, 4, 14, 15, 1, 9, 1, 12, 2, 2, 3, 1, 12, 12, 1, 1, 1, 1, 1, 1, 4, 3, 8, 13, 9, 1, 1, 1, 1, 11, 10, 11, 5, 11, 10, 6, 3, 10, 9, 3, 3, 7, 2, 1, 5, 2, 2, 1, 8, 1, 2, 4, 10, 6, 2, 1, 3, 2, 2, 7, 11, 1, 3, 1, 1, 8, 1, 1, 2, 11, 5, 12, 9, 1, 1, 4, 9, 11, 7, 5, 6, 5, 9, 1, 10, 11, 1, 1, 8, 4, 1, 11, 1, 2, 8, 10, 1, 8, 10, 9, 4, 3, 4, 6, 5, 11, 7, 7, 1, 1, 3, 1, 1, 1, 8, 2, 1, 1, 1, 1, 1, 7, 1, 1, 7, 1, 5, 1, 6, 1, 6, 7, 5, 4, 5, 6, 1, 1, 3, 2, 4, 8, 1, 1, 4, 2, 12, 10, 7, 8, 12, 6, 8, 11, 4, 11, 5, 12, 15, 6, 2, 1, 4, 13, 6, 1, 6, 5, 12, 3, 10, 2, 1, 11, 1, 1, 11, 3, 1, 6, 3, 1, 1, 2, 1, 10, 1, 1, 14, 1, 2, 13, 13, 11, 5, 6, 13, 7, 13, 10, 12, 12, 2, 2, 1, 12, 2, 9, 1, 11, 1, 5, 7, 1, 1, 12, 2, 10, 1, 11, 11, 7, 2, 13, 4, 9, 13, 6, 1, 1, 12, 1, 12, 6, 11, 5, 12, 16, 10, 7, 3, 4, 1, 12, 11, 1, 12, 2, 11, 1, 1, 1, 12, 9, 13, 1, 5, 9, 1, 12, 9, 4, 2, 13, 6, 12, 1, 13, 6, 10, 3, 5, 1, 6, 4, 5, 2, 11, 8, 11, 4, 14, 15, 1, 9, 1, 12, 2, 2, 3, 1, 12, 12, 1, 10, 7, 12, 6, 8, 4, 11, 5, 12, 2, 1, 13, 6, 5, 12, 3, 10, 2, 1, 1, 1, 11, 3, 6, 3, 1, 1, 2, 10, 1, 1, 14, 1, 2, 13, 13, 5, 6, 13, 7, 13, 12, 2, 2, 1, 12, 2, 9, 1, 11, 1, 5, 7, 1, 1, 10, 1, 11, 7, 2, 13, 9, 13, 1, 1, 12, 1, 12, 6, 11, 5, 12, 10, 7, 3, 4, 1, 12, 1, 12, 2, 11, 1, 1, 1, 12, 9, 13, 1, 5, 9, 1, 12, 4, 2, 13, 6, 12, 13, 6, 10, 3, 5, 1, 6, 4, 5, 2, 11, 8, 11, 4, 14, 1, 9, 1, 12, 2, 2, 3, 1, 1, 10, 12, 6, 4, 12, 1, 13, 6, 12, 3, 2, 1, 1, 11, 6, 1, 1, 2, 10, 1, 1, 14, 1, 2, 13, 13, 6, 13, 2, 1, 12, 9, 1, 11, 5, 7, 1, 10, 11, 7, 13, 9, 1, 1, 12, 12, 12, 10, 7, 4, 1, 12, 12, 11, 1, 1, 12, 5, 9, 12, 4, 2, 13, 13, 6, 5, 1, 6, 5, 2, 11, 14, 1, 9, 12, 2, 3, 1, 10, 7, 12, 6, 8, 4, 11, 5, 12, 2, 1, 13, 6, 5, 12, 3, 10, 2, 1, 1, 1, 11, 3, 6, 3, 1, 1, 2, 10, 1, 1, 14, 1, 2, 13, 13, 5, 6, 13, 7, 13, 12, 2, 2, 1, 12, 2, 9, 1, 11, 1, 5, 7, 1, 1, 10, 1, 11, 7, 2, 13, 9, 13, 1, 1, 12, 1, 12, 6, 11, 5, 12, 10, 7, 3, 4, 1, 12, 1, 12, 2, 11, 1, 1, 1, 12, 9, 13, 1, 5, 9, 1, 12, 4, 2, 13, 6, 12, 13, 6, 10, 3, 5, 1, 6, 4, 5, 2, 11, 8, 11, 4, 14, 1, 9, 1, 12, 2, 2, 3, 1, 1, 10, 12, 6, 4, 12, 1, 13, 6, 12, 3, 2, 1, 1, 11, 6, 1, 1, 2, 10, 1, 1, 14, 1, 2, 13, 13, 6, 13, 2, 1, 12, 9, 1, 11, 5, 7, 1, 10, 11, 7, 13, 9, 1, 1, 12, 12, 12, 10, 7, 4, 1, 12, 12, 11, 1, 1, 12, 5, 9, 12, 4, 2, 13, 13, 6, 5, 1, 6, 5, 2, 11, 14, 1, 9, 12, 2, 3, 1, 7, 8, 11, 5, 2, 5, 10, 1, 3, 3, 5, 7, 13, 12, 2, 2, 1, 1, 1, 2, 13, 1, 6, 11, 5, 3, 1, 2, 1, 9, 13, 1, 1, 6, 12, 10, 3, 4, 8, 11, 4, 1, 2, 1, 7, 8, 11, 5, 2, 5, 10, 1, 3, 3, 5, 7, 13, 12, 2, 2, 1, 1, 1, 2, 13, 1, 6, 11, 5, 3, 1, 2, 1, 9, 13, 1, 1, 6, 12, 10, 3, 4, 8, 11, 4, 1, 2, 1, 1, 1, 1, 1, 1, 4, 3, 8, 13, 9, 1, 1, 1, 1, 11, 10, 11, 5, 11, 10, 6, 3, 10, 9, 3, 3, 7, 2, 1, 5, 2, 2, 1, 8, 1, 2, 4, 10, 6, 2, 1, 3, 2, 2, 7, 11, 1, 3, 1, 1, 8, 1, 1, 2, 11, 5, 12, 9, 1, 1, 4, 9, 11, 7, 5, 6, 5, 9, 1, 10, 11, 1, 1, 8, 4, 1, 11, 1, 2, 8, 10, 1, 8, 10, 9, 4, 3, 4, 6, 5, 11, 7, 7, 1, 1, 1, 1, 4, 8, 13, 1, 1, 1, 11, 10, 11, 5, 11, 6, 3, 10, 9, 3, 7, 2, 1, 5, 2, 2, 1, 8, 1, 2, 4, 10, 6, 2, 1, 3, 2, 2, 7, 11, 3, 1, 8, 1, 11, 5, 12, 9, 1, 1, 4, 9, 11, 7, 5, 6, 5, 9, 1, 10, 11, 1, 8, 4, 1, 1, 2, 8, 10, 1, 8, 10, 9, 4, 4, 6, 5, 11, 7, 7, 1, 1, 1, 4, 8, 13, 1, 1, 1, 11, 10, 11, 5, 11, 6, 3, 10, 9, 3, 7, 2, 1, 5, 2, 2, 1, 8, 1, 2, 4, 10, 6, 2, 1, 3, 2, 2, 7, 11, 3, 1, 8, 1, 11, 5, 12, 9, 1, 1, 4, 9, 11, 7, 5, 6, 5, 9, 1, 10, 11, 1, 8, 4, 1, 1, 2, 8, 10, 1, 8, 10, 9, 4, 4, 6, 5, 11, 7, 7, 1, 3, 1, 1, 1, 8, 2, 1, 1, 1, 1, 1, 7, 1, 1, 7, 1, 5, 1, 6, 1, 6, 7, 5, 4, 5, 6, 1, 1, 3, 2, 4, 8, 1, 1, 4, 2, 12, 8, 11, 15, 6, 4, 6, 1, 11, 1, 1, 11, 10, 12, 12, 2, 11, 4, 6, 16, 11, 9, 1, 15, 12, 12, 1, 1, 1, 3, 9, 1, 10, 3, 1, 1, 1, 2, 1, 11, 3, 1, 12, 8, 11, 15, 6, 4, 6, 1, 11, 1, 1, 11, 10, 12, 12, 2, 11, 4, 6, 16, 11, 9, 1, 15, 12, 12, 1, 1, 1, 3, 9, 1, 10, 3, 1, 1, 1, 2, 1, 11, 3, 1, 12, 8, 11, 15, 6, 4, 6, 1, 11, 1, 1, 11, 10, 12, 12, 2, 11, 4, 6, 16, 11, 9, 1, 15, 12, 12, 12, 8, 11, 15, 6, 4, 6, 1, 11, 1, 1, 11, 10, 12, 12, 2, 11, 4, 6, 16, 11, 9, 1, 15, 12, 12, 3, 2, 8, 3, 3, 3, 3, 3, 2, 2, 2, 8] p=1.0"]
S2 -> S9 [label="1 [7, 8, 4, 9, 6, 6, 3, 10, 3, 5, 7, 3, 6, 3, 6, 6, 8, 10, 7, 8, 7, 8, 9, 7, 7, 9, 3, 4, 5, 5, 6, 8, 7, 9, 5, 6, 3, 6, 7, 3, 3, 6, 7, 7, 3, 5, 5, 6, 3, 7, 8, 4, 9, 6, 6, 3, 10, 3, 5, 7, 3, 6, 3, 6, 6, 8, 10, 7, 8, 7, 8, 9, 7, 7, 9, 3, 4, 5, 5, 6, 8, 7, 9, 5, 6, 3, 7, 4, 14, 16, 5, 8, 10, 4, 9, 6, 7, 8, 6, 3, 13, 9, 10, 3, 7, 5, 13, 8, 7, 9, 3, 6, 3, 6, 6, 6, 7, 6, 4, 8, 9, 10, 7, 8, 11, 7, 7, 8, 7, 8, 25, 9, 13, 7, 8, 9, 4, 5, 9, 8, 7, 24, 7, 6, 7, 14, 7, 8, 9, 8, 9, 8, 7, 3, 8, 10, 4, 7, 7, 5, 16, 5, 5, 6, 10, 8, 7, 8, 13, 9, 9, 9, 6, 5, 7, 7, 7, 7, 6, 7, 3, 10, 7, 4, 14, 16, 5, 8, 10, 4, 9, 6, 7, 8, 6, 3, 13, 9, 10, 3, 7, 5, 13, 8, 7, 9, 3, 6, 3, 6, 6, 6, 7, 6, 4, 8, 9, 10, 7, 8, 11, 7, 7, 8, 7, 8, 25, 9, 13, 7, 8, 9, 4, 5, 9, 8, 7, 24, 7, 6, 7, 14, 7, 8, 9, 8, 9, 8, 7, 3, 8, 10, 4, 7, 7, 5, 16, 5, 5, 6, 10, 8, 7, 8, 13, 9, 9, 9, 6, 5, 7, 7, 7, 7, 6, 7, 3, 10, 7, 4, 8, 7, 14, 16, 6, 5, 8, 6, 10, 10, 25, 4, 13, 9, 6, 7, 23, 7, 8, 6, 6, 3, 8, 13, 9, 10, 8, 3, 7, 9, 5, 13, 6, 8, 7, 9, 3, 6, 3, 6, 6, 6, 7, 6, 4, 8, 9, 9, 10, 11, 7, 7, 9, 26, 12, 8, 11, 7, 9, 7, 8, 7, 13, 8, 25, 8, 9, 13, 21, 7, 11, 8, 9, 4, 7, 5, 23, 9, 9, 8, 7, 24, 7, 11, 6, 13, 7, 9, 7, 14, 7, 8, 6, 9, 8, 9, 12, 26, 8, 13, 7, 9, 3, 8, 10, 13, 7, 13, 4, 7, 20, 7, 5, 16, 5, 5, 14, 6, 6, 10, 8, 8, 9, 7, 8, 13, 7, 9, 9, 9, 23, 8, 9, 6, 5, 7, 7, 14, 7, 11, 7, 6, 7, 3, 10, 26, 7, 4, 8, 7, 14, 16, 6, 5, 8, 6, 10, 10, 25, 4, 13, 9, 6, 7, 23, 7, 8, 6, 6, 3, 8, 13, 9, 10, 8, 3, 7, 9, 5, 13, 6, 8, 7, 9, 3, 6, 3, 6, 6, 6, 7, 6, 4, 8, 9, 9, 10, 11, 7, 7, 9, 26, 12, 8, 11, 7, 9, 7, 8, 7, 13, 8, 25, 8, 9, 13, 21, 7, 11, 8, 9, 4, 7, 5, 23, 9, 9, 8, 7, 24, 7, 11, 6, 13, 7, 9, 7, 14, 7, 8, 6, 9, 8, 9, 12, 26, 8, 13, 7, 9, 3, 8, 10, 13, 7, 13, 4, 7, 20, 7, 5, 16, 5, 5, 14, 6, 6, 10, 8, 8, 9, 7, 8, 13, 7, 9, 9, 9, 23, 8, 9, 6, 5, 7, 7, 14, 7, 11, 7, 6, 7, 3, 10, 26, 7, 10, 4, 8, 7, 10, 14, 16, 6, 5, 10, 8, 6, 10, 10, 25, 8, 4, 11, 13, 9, 6, 9, 7, 23, 12, 7, 9, 8, 6, 6, 3, 8, 13, 9, 10, 13, 8, 3, 7, 9, 5, 11, 13, 6, 8, 7, 9, 3, 9, 6, 3, 6, 6, 6, 7, 6, 4, 8, 12, 9, 9, 10, 11, 7, 7, 9, 9, 26, 9, 12, 8, 11, 7, 9, 7, 8, 7, 13, 8, 25, 8, 9, 13, 11, 21, 11, 7, 11, 8, 9, 9, 4, 7, 5, 23, 10, 9, 9, 8, 11, 7, 24, 7, 11, 6, 13, 7, 9, 7, 14, 7, 7, 8, 6, 9, 8, 9, 12, 9, 26, 8, 13, 7, 9, 3, 8, 10, 13, 7, 13, 4, 7, 20, 7, 5, 11, 16, 5, 5, 14, 6, 6, 10, 10, 8, 8, 9, 7, 8, 13, 7, 9, 9, 9, 23, 8, 9, 6, 5, 8, 7, 7, 14, 7, 11, 7, 6, 7, 3, 9, 10, 10, 26, 6, 7, 3, 3, 6, 7, 7, 3, 5, 5, 6, 3, 8, 7, 6, 6, 10, 25, 13, 23, 7, 6, 8, 8, 9, 6, 9, 11, 7, 9, 26, 12, 9, 13, 8, 21, 11, 7, 23, 9, 11, 13, 7, 9, 6, 12, 26, 13, 9, 13, 7, 13, 20, 14, 6, 8, 9, 7, 23, 8, 9, 14, 11, 26, 4, 14, 16, 5, 10, 7, 8, 13, 9, 7, 13, 8, 9, 6, 6, 7, 4, 9, 7, 8, 11, 7, 8, 7, 25, 9, 13, 9, 4, 5, 8, 24, 7, 6, 7, 14, 8, 8, 9, 8, 7, 8, 10, 7, 7, 16, 5, 10, 8, 13, 9, 9, 6, 7, 7, 7, 7, 7, 10, 8, 4, 9, 6, 3, 10, 3, 5, 6, 6, 8, 10, 8, 8, 9, 7, 7, 9, 4, 8, 7, 9, 5, 6, 8, 7, 6, 6, 10, 25, 13, 23, 7, 6, 8, 8, 9, 6, 9, 11, 7, 9, 26, 12, 9, 13, 8, 21, 11, 7, 23, 9, 11, 13, 7, 9, 6, 12, 26, 13, 9, 13, 7, 13, 20, 14, 6, 8, 9, 7, 23, 8, 9, 14, 11, 26, 4, 14, 16, 5, 10, 7, 8, 13, 9, 7, 13, 8, 9, 6, 6, 7, 4, 9, 7, 8, 11, 7, 8, 7, 25, 9, 13, 9, 4, 5, 8, 24, 7, 6, 7, 14, 8, 8, 9, 8, 7, 8, 10, 7, 7, 16, 5, 10, 8, 13, 9, 9, 6, 7, 7, 7, 7, 7, 10, 8, 4, 9, 6, 3, 10, 3, 5, 6, 6, 8, 10, 8, 8, 9, 7, 9, 4, 8, 7, 9, 5, 6, 8, 6, 6, 25, 23, 6, 8, 9, 6, 11, 9, 13, 8, 11, 7, 23, 9, 11, 13, 6, 12, 13, 9, 13, 20, 14, 8, 7, 23, 14, 11, 8, 7, 6, 6, 10, 25, 23, 6, 8, 9, 6, 11, 7, 26, 9, 13, 8, 11, 7, 23, 9, 11, 13, 7, 9, 6, 12, 13, 9, 13, 7, 13, 20, 14, 6, 8, 9, 7, 23, 8, 9, 14, 11, 8, 7, 6, 6, 10, 25, 23, 6, 8, 9, 6, 11, 7, 26, 9, 13, 8, 11, 7, 23, 9, 11, 13, 7, 9, 6, 12, 13, 9, 13, 7, 13, 20, 14, 6, 8, 9, 7, 23, 8, 9, 14, 11, 8, 7, 6, 6, 10, 25, 13, 23, 7, 6, 8, 8, 9, 6, 9, 11, 7, 9, 26, 12, 9, 13, 8, 21, 11, 7, 23, 9, 11, 13, 7, 9, 6, 12, 26, 13, 9, 13, 7, 13, 20, 14, 6, 8, 9, 7, 23, 8, 9, 14, 11, 26, 7, 10, 7, 26, 7, 9, 7, 13, 6, 9, 8, 9, 4, 14, 16, 5, 10, 7, 8, 13, 9, 7, 13, 8, 9, 6, 6, 7, 4, 9, 7, 8, 11, 7, 8, 7, 25, 9, 13, 9, 4, 5, 8, 24, 7, 6, 7, 14, 8, 8, 9, 8, 7, 8, 10, 7, 7, 16, 5, 10, 8, 13, 9, 9, 6, 7, 7, 7, 7, 7, 10, 16, 5, 10, 13, 9, 7, 8, 9, 6, 6, 7, 4, 9, 7, 8, 11, 7, 8, 7, 25, 9, 13, 9, 5, 8, 24, 7, 6, 7, 14, 8, 8, 9, 8, 7, 8, 10, 7, 7, 5, 8, 13, 9, 9, 6, 7, 7, 7, 7, 13, 7, 8, 9, 9, 12, 21, 26, 26, 4, 14, 7, 8, 13, 4, 16, 10, 7, 10, 13, 7, 8, 9, 9, 12, 21, 26, 26, 13, 7, 8, 9, 9, 12, 21, 26, 26, 7, 10, 4, 8, 7, 10, 14, 16, 6, 5, 10, 8, 6, 10, 10, 25, 8, 4, 11, 13, 9, 6, 9, 7, 23, 12, 7, 9, 8, 6, 6, 3, 8, 13, 9, 10, 13, 8, 3, 7, 9, 5, 11, 13, 6, 8, 7, 9, 3, 9, 6, 3, 6, 6, 6, 7, 6, 4, 8, 12, 9, 9, 10, 11, 7, 7, 9, 9, 26, 9, 12, 8, 11, 7, 9, 7, 8, 7, 13, 8, 25, 8, 9, 13, 11, 21, 11, 7, 11, 8, 9, 9, 4, 7, 5, 23, 10, 9, 9, 8, 11, 7, 24, 7, 11, 6, 13, 7, 9, 7, 14, 7, 7, 8, 6, 9, 8, 9, 12, 9, 26, 8, 13, 7, 9, 3, 8, 10, 13, 7, 13, 4, 7, 20, 7, 5, 11, 16, 5, 5, 14, 6, 6, 10, 10, 8, 8, 9, 7, 8, 13, 7, 9, 9, 9, 23, 8, 9, 6, 5, 8, 7, 7, 14, 7, 11, 7, 6, 7, 3, 9, 10, 10, 26, 7] p=0.46"]
S2 -> S174 [label="5 [7, 7, 7, 7, 7, 7, 7, 7, 7, 7] p=0.0"]
S2 -> S1 [label="2 [2, 13, 2, 2, 19, 13, 1, 3, 1, 2, 7, 16, 2, 9, 1, 13, 1, 17, 13, 4, 8, 3, 1, 15, 2, 8, 3, 8, 1, 1, 1, 13, 1, 2, 2, 7, 2, 2, 13, 1, 16, 1, 6, 1, 2, 8, 10, 18, 1, 1, 2, 8, 1, 1, 16, 13, 2, 1, 20, 14, 1, 12, 2, 1, 17, 1, 2, 17, 1, 9, 1, 1, 6, 3, 1, 5, 7, 2, 1, 8, 9, 1, 1, 1, 9, 1, 1, 14, 6, 3, 12, 1, 1, 6, 3, 1, 18, 14, 2, 2, 1, 9, 2, 13, 3, 12, 3, 13, 2, 8, 1, 6, 2, 2, 15, 2, 18, 14, 2, 1, 14, 1, 1, 2, 12, 2, 12, 2, 1, 6, 2, 3, 8, 2, 15, 1, 11, 1, 1, 4, 2, 15, 6, 2, 1, 1, 2, 2, 1, 7, 1, 12, 1, 2, 8, 3, 14, 4, 20, 16, 1, 12, 2, 1, 6, 3, 13, 2, 15, 1, 6, 1, 2, 1, 10, 5, 3, 3, 7, 2, 16, 12, 1, 6, 2, 7, 2, 2, 7, 1, 1, 16, 17, 3, 6, 1, 2, 7, 3, 8, 2, 3, 11, 3, 2, 13, 1, 13, 2, 1, 1, 18, 12, 2, 3, 9, 1, 13, 1, 3, 8, 5, 2, 6, 3, 4, 7, 3, 13, 1, 4, 2, 1, 1, 1, 8, 10, 16, 1, 2, 15, 1, 7, 7, 1, 3, 8, 1, 15, 2, 16, 13, 3, 8, 1, 1, 8, 2, 1, 15, 2, 6, 1, 3, 7, 3, 7, 2, 13, 13, 4, 7, 2, 12, 4, 1, 16, 16, 1, 2, 13, 2, 3, 12, 3, 3, 7, 3, 4, 9, 1, 1, 8, 7, 1, 2, 15, 1, 2, 7, 1, 1, 2, 13, 2, 2, 19, 13, 1, 3, 1, 2, 7, 16, 2, 9, 1, 13, 1, 17, 13, 4, 8, 3, 1, 15, 2, 8, 3, 8, 1, 1, 1, 13, 1, 2, 2, 7, 2, 2, 13, 1, 16, 1, 6, 1, 2, 8, 10, 18, 1, 1, 2, 8, 1, 1, 16, 13, 2, 1, 20, 14, 1, 12, 2, 1, 17, 1, 2, 17, 1, 9, 1, 1, 6, 3, 1, 5, 7, 2, 1, 8, 9, 1, 1, 1, 9, 1, 1, 14, 6, 3, 12, 1, 1, 6, 3, 1, 18, 14, 2, 2, 1, 9, 2, 13, 3, 12, 3, 13, 2, 8, 1, 6, 2, 2, 15, 2, 18, 14, 2, 1, 14, 1, 1, 2, 12, 2, 12, 2, 1, 6, 2, 3, 8, 2, 15, 1, 11, 1, 1, 4, 2, 15, 6, 2, 1, 1, 2, 2, 1, 7, 1, 12, 1, 2, 8, 3, 14, 4, 20, 16, 1, 12, 2, 1, 6, 3, 13, 2, 15, 1, 6, 1, 2, 1, 10, 5, 3, 3, 7, 2, 16, 12, 1, 6, 2, 7, 2, 2, 7, 1, 1, 16, 17, 3, 6, 1, 2, 7, 3, 8, 2, 3, 11, 3, 2, 13, 1, 13, 2, 1, 1, 18, 12, 2, 3, 9, 1, 13, 1, 3, 8, 5, 2, 6, 3, 4, 7, 3, 13, 1, 4, 2, 1, 1, 1, 8, 10, 16, 1, 2, 15, 1, 7, 7, 1, 3, 8, 1, 15, 2, 16, 13, 3, 8, 1, 1, 8, 2, 1, 15, 2, 6, 1, 3, 7, 3, 7, 2, 13, 13, 4, 7, 2, 12, 4, 1, 16, 16, 1, 2, 13, 2, 3, 12, 3, 3, 7, 3, 4, 9, 1, 1, 8, 7, 1, 2, 15, 1, 2, 7, 1, 1, 13, 2, 19, 1, 7, 9, 13, 1, 8, 15, 2, 8, 1, 1, 13, 1, 2, 7, 1, 6, 1, 8, 10, 1, 8, 1, 16, 1, 20, 1, 1, 17, 2, 9, 1, 6, 3, 1, 7, 1, 8, 9, 1, 1, 9, 1, 14, 6, 12, 1, 6, 3, 18, 2, 1, 9, 13, 12, 3, 8, 6, 2, 18, 1, 2, 2, 1, 6, 2, 8, 15, 1, 1, 2, 2, 1, 1, 7, 1, 2, 8, 14, 20, 12, 6, 3, 15, 6, 1, 1, 5, 7, 6, 7, 7, 1, 16, 6, 1, 7, 8, 3, 1, 1, 1, 18, 2, 9, 8, 5, 6, 7, 13, 1, 4, 1, 1, 8, 10, 1, 7, 7, 1, 8, 15, 2, 8, 1, 8, 1, 6, 1, 7, 7, 7, 12, 4, 16, 1, 2, 3, 7, 3, 9, 1, 8, 7, 1, 15, 7, 1, 1, 13, 2, 19, 1, 7, 9, 13, 1, 8, 15, 2, 8, 1, 1, 13, 1, 2, 7, 1, 6, 1, 8, 10, 1, 8, 1, 16, 1, 20, 1, 1, 17, 2, 9, 1, 6, 3, 1, 7, 1, 8, 9, 1, 1, 9, 1, 14, 6, 12, 1, 6, 3, 18, 2, 1, 9, 13, 12, 3, 8, 6, 2, 18, 1, 2, 2, 1, 6, 2, 8, 15, 1, 1, 2, 2, 1, 1, 7, 1, 2, 8, 14, 20, 12, 6, 3, 15, 6, 1, 1, 5, 7, 6, 7, 7, 1, 16, 6, 1, 7, 8, 3, 1, 1, 1, 18, 2, 9, 8, 5, 6, 7, 13, 1, 4, 1, 1, 8, 10, 1, 7, 7, 1, 8, 15, 2, 8, 1, 8, 1, 6, 1, 7, 7, 7, 12, 4, 16, 1, 2, 3, 7, 3, 9, 1, 8, 7, 1, 15, 7, 1, 1, 2, 1, 2, 1, 13, 1, 2, 1, 10, 16, 20, 17, 6, 3, 1, 8, 9, 1, 9, 14, 6, 6, 3, 9, 3, 2, 6, 2, 1, 7, 1, 8, 3, 1, 1, 1, 1, 18, 5, 1, 4, 8, 10, 7, 1, 2, 1, 1, 4, 3, 8, 7, 1, 1, 1, 2, 1, 2, 1, 13, 1, 2, 1, 10, 16, 20, 17, 6, 3, 1, 8, 9, 1, 9, 14, 6, 6, 3, 9, 3, 2, 6, 2, 1, 7, 1, 8, 3, 1, 1, 1, 1, 18, 5, 1, 4, 8, 10, 7, 1, 2, 1, 1, 4, 3, 8, 7, 1, 1, 1, 1, 2, 3, 1, 9, 1, 6, 3, 2, 1, 18, 4, 10, 1, 7, 1, 1, 1, 2, 3, 1, 9, 1, 6, 3, 2, 1, 18, 4, 10, 1, 7, 1, 1, 2, 1, 1, 1, 2, 1, 1, 1, 19, 1, 7, 9, 13, 8, 15, 8, 1, 7, 1, 6, 8, 1, 8, 1, 1, 1, 1, 2, 9, 1, 7, 1, 1, 1, 12, 1, 18, 2, 1, 13, 12, 8, 6, 18, 1, 2, 2, 1, 8, 15, 1, 2, 2, 1, 1, 2, 14, 20, 12, 6, 15, 6, 1, 5, 7, 6, 7, 7, 16, 6, 7, 8, 3, 1, 1, 2, 9, 8, 6, 7, 13, 1, 1, 1, 7, 8, 15, 8, 8, 1, 6, 7, 7, 7, 12, 16, 1, 2, 3, 7, 9, 1, 15, 7, 1, 2, 1, 13, 1, 10, 16, 20, 17, 6, 8, 9, 14, 6, 9, 3, 2, 6, 1, 7, 8, 3, 1, 1, 1, 1, 5, 1, 8, 7, 2, 1, 1, 4, 3, 8, 1, 1, 3, 9, 6, 3, 2, 1, 18, 4, 10, 1, 7, 1, 19, 1, 7, 9, 13, 8, 15, 8, 1, 7, 1, 6, 8, 1, 8, 1, 1, 1, 1, 2, 9, 1, 7, 1, 1, 1, 12, 1, 18, 2, 1, 13, 12, 8, 6, 18, 1, 2, 2, 1, 8, 15, 1, 2, 2, 1, 1, 2, 14, 20, 12, 6, 15, 6, 1, 5, 7, 6, 7, 16, 6, 7, 8, 3, 1, 1, 2, 9, 8, 6, 7, 13, 1, 1, 1, 7, 8, 15, 8, 8, 1, 6, 7, 7, 7, 12, 16, 1, 2, 3, 7, 9, 1, 15, 7, 1, 2, 1, 13, 1, 10, 16, 20, 17, 6, 8, 9, 14, 6, 9, 3, 2, 6, 1, 7, 8, 3, 1, 1, 1, 5, 1, 8, 7, 2, 1, 1, 4, 3, 8, 1, 1, 3, 9, 6, 3, 2, 1, 18, 4, 10, 1, 7, 1, 19, 1, 7, 9, 13, 8, 15, 8, 1, 7, 1, 6, 8, 1, 8, 1, 1, 1, 1, 2, 9, 1, 7, 1, 1, 1, 12, 1, 18, 2, 1, 13, 12, 8, 6, 18, 1, 2, 2, 1, 8, 15, 1, 2, 2, 1, 1, 2, 14, 20, 12, 6, 15, 6, 1, 5, 7, 6, 7, 16, 6, 7, 8, 3, 1, 1, 2, 9, 8, 6, 7, 13, 1, 1, 1, 7, 8, 15, 8, 8, 1, 6, 7, 7, 7, 12, 16, 1, 2, 3, 7, 9, 1, 15, 7, 7, 9, 8, 8, 1, 6, 8, 1, 8, 1, 1, 1, 1, 9, 1, 7, 1, 1, 12, 1, 18, 2, 1, 13, 12, 8, 6, 18, 1, 2, 2, 1, 8, 15, 1, 2, 2, 1, 2, 14, 12, 15, 1, 5, 7, 6, 7, 16, 6, 7, 8, 3, 1, 1, 2, 9, 8, 6, 7, 13, 1, 1, 7, 15, 8, 8, 1, 6, 7, 7, 7, 12, 1, 2, 3, 7, 9, 1, 7, 7, 1, 8, 8, 1, 1, 1, 7, 1, 1, 12, 1, 18, 2, 1, 13, 12, 6, 2, 2, 8, 15, 2, 1, 14, 1, 5, 7, 16, 7, 8, 2, 9, 6, 13, 1, 1, 15, 8, 1, 7, 7, 12, 1, 7, 9, 1, 7, 9, 8, 8, 1, 6, 8, 1, 8, 1, 1, 1, 1, 9, 1, 7, 1, 1, 12, 1, 18, 2, 1, 13, 12, 8, 6, 18, 1, 2, 2, 1, 8, 15, 1, 2, 2, 1, 2, 14, 12, 15, 1, 5, 7, 6, 7, 16, 6, 7, 8, 3, 1, 1, 2, 9, 8, 6, 7, 13, 1, 1, 7, 15, 8, 8, 1, 6, 7, 7, 7, 12, 1, 2, 3, 7, 9, 1, 7, 9, 8, 8, 6, 1, 1, 1, 9, 8, 18, 1, 1, 1, 2, 2, 12, 15, 7, 6, 6, 3, 1, 1, 8, 7, 7, 8, 6, 7, 2, 3, 7, 1, 2, 1, 13, 1, 10, 16, 20, 17, 6, 8, 9, 14, 6, 9, 3, 2, 6, 1, 7, 8, 3, 1, 1, 1, 5, 1, 8, 7, 2, 1, 1, 4, 3, 8, 1, 1, 13, 1, 10, 16, 20, 17, 6, 8, 14, 6, 9, 3, 2, 6, 1, 8, 1, 1, 5, 1, 8, 7, 2, 1, 1, 4, 3, 8, 1, 19, 1, 13, 15, 7, 1, 2, 1, 1, 20, 6, 6, 1, 8, 16, 15, 1, 2, 9, 7, 3, 1, 19, 1, 13, 15, 7, 1, 2, 1, 1, 20, 6, 6, 1, 8, 16, 15, 19, 1, 13, 15, 7, 1, 2, 1, 1, 20, 6, 6, 1, 8, 16, 15, 7, 1, 7, 7, 7, 7, 1, 1] p=0.54"]
S9 -> S10 [label="2 [16, 16, 15, 13, 15, 14, 17, 17, 17, 18, 14, 16, 14, 16, 14, 14, 16, 12, 13, 14, 13, 14, 12, 14, 13, 13, 17, 16, 17, 17, 16, 14, 14, 13, 15, 11, 17, 15, 14, 16, 16, 14, 13, 13, 17, 17, 17, 16, 17, 16, 16, 15, 13, 15, 14, 17, 17, 17, 18, 14, 16, 14, 16, 14, 14, 16, 12, 13, 14, 13, 14, 12, 14, 13, 13, 17, 16, 17, 17, 16, 14, 14, 13, 15, 11, 17, 16, 19, 15, 18, 12, 16, 13, 15, 13, 15, 13, 16, 14, 17, 12, 11, 17, 17, 15, 18, 11, 13, 14, 13, 16, 14, 16, 16, 14, 16, 15, 14, 13, 16, 13, 12, 17, 15, 11, 14, 13, 11, 15, 14, 19, 12, 13, 13, 14, 17, 16, 14, 12, 16, 14, 17, 16, 14, 14, 17, 13, 19, 13, 13, 12, 14, 15, 17, 15, 13, 16, 13, 14, 17, 13, 17, 15, 16, 12, 14, 14, 12, 12, 13, 12, 12, 14, 15, 15, 15, 15, 15, 11, 14, 17, 16, 16, 19, 15, 18, 12, 16, 13, 15, 13, 15, 13, 16, 14, 17, 12, 11, 17, 17, 15, 18, 11, 13, 14, 13, 16, 14, 16, 16, 14, 16, 15, 14, 13, 16, 13, 12, 17, 15, 11, 14, 13, 11, 15, 14, 19, 12, 13, 13, 14, 17, 16, 14, 12, 16, 14, 17, 16, 14, 14, 17, 13, 19, 13, 13, 12, 14, 15, 17, 15, 13, 16, 13, 14, 17, 13, 17, 15, 16, 12, 14, 14, 12, 12, 13, 12, 12, 14, 15, 15, 15, 15, 15, 11, 14, 17, 16, 16, 19, 13, 13, 15, 18, 16, 12, 16, 16, 11, 13, 16, 15, 12, 13, 15, 13, 17, 12, 16, 15, 14, 17, 16, 12, 11, 17, 12, 17, 15, 12, 18, 11, 15, 13, 14, 13, 16, 14, 16, 16, 14, 16, 15, 14, 13, 16, 11, 13, 12, 13, 14, 17, 12, 15, 12, 15, 11, 14, 12, 13, 11, 15, 11, 14, 19, 13, 12, 13, 17, 13, 12, 14, 17, 16, 15, 14, 18, 12, 13, 16, 14, 17, 16, 12, 14, 13, 15, 12, 14, 17, 13, 19, 14, 13, 13, 12, 11, 19, 14, 10, 15, 12, 17, 15, 13, 12, 14, 11, 16, 13, 14, 14, 17, 13, 17, 15, 11, 15, 16, 12, 14, 15, 13, 14, 12, 12, 15, 13, 12, 12, 18, 15, 12, 14, 15, 15, 15, 12, 15, 10, 15, 11, 14, 17, 16, 19, 16, 19, 13, 13, 15, 18, 16, 12, 16, 16, 11, 13, 16, 15, 12, 13, 15, 13, 17, 12, 16, 15, 14, 17, 16, 12, 11, 17, 12, 17, 15, 12, 18, 11, 15, 13, 14, 13, 16, 14, 16, 16, 14, 16, 15, 14, 13, 16, 11, 13, 12, 13, 14, 17, 12, 15, 12, 15, 11, 14, 12, 13, 11, 15, 11, 14, 19, 13, 12, 13, 17, 13, 12, 14, 17, 16, 15, 14, 18, 12, 13, 16, 14, 17, 16, 12, 14, 13, 15, 12, 14, 17, 13, 19, 14, 13, 13, 12, 11, 19, 14, 10, 15, 12, 17, 15, 13, 12, 14, 11, 16, 13, 14, 14, 17, 13, 17, 15, 11, 15, 16, 12, 14, 15, 13, 14, 12, 12, 15, 13, 12, 12, 18, 15, 12, 14, 15, 15, 15, 12, 15, 10, 15, 11, 14, 17, 16, 19, 16, 9, 19, 13, 13, 9, 15, 18, 16, 12, 9, 16, 16, 11, 13, 16, 11, 15, 9, 12, 13, 15, 10, 13, 17, 9, 12, 10, 16, 15, 14, 17, 16, 12, 11, 17, 9, 12, 17, 15, 12, 18, 9, 11, 15, 13, 14, 13, 16, 10, 14, 16, 16, 14, 16, 15, 14, 13, 16, 9, 11, 13, 12, 13, 14, 17, 10, 12, 15, 10, 12, 15, 11, 14, 12, 13, 11, 15, 11, 14, 19, 13, 12, 13, 8, 17, 9, 13, 12, 14, 17, 9, 16, 15, 14, 18, 11, 12, 13, 16, 10, 14, 17, 16, 12, 14, 13, 15, 12, 14, 17, 11, 13, 19, 14, 13, 13, 12, 11, 10, 19, 14, 10, 15, 12, 17, 15, 13, 12, 14, 11, 16, 13, 14, 14, 17, 10, 13, 17, 15, 11, 15, 16, 10, 12, 14, 15, 13, 14, 12, 12, 15, 13, 12, 12, 18, 15, 12, 14, 15, 11, 15, 15, 12, 15, 10, 15, 11, 14, 17, 10, 16, 10, 19, 13, 13, 16, 16, 11, 16, 12, 17, 12, 15, 16, 12, 12, 15, 11, 13, 14, 12, 15, 12, 12, 11, 13, 17, 12, 15, 18, 13, 12, 13, 15, 12, 14, 11, 19, 10, 12, 12, 14, 11, 14, 11, 15, 15, 13, 15, 18, 15, 12, 12, 10, 19, 19, 15, 18, 12, 13, 13, 16, 12, 11, 15, 11, 13, 13, 16, 16, 15, 13, 13, 17, 15, 11, 14, 11, 15, 19, 12, 13, 17, 16, 14, 16, 17, 16, 14, 14, 17, 19, 13, 12, 14, 15, 15, 13, 13, 14, 13, 15, 12, 12, 12, 12, 12, 14, 15, 15, 15, 15, 14, 16, 16, 15, 13, 14, 17, 17, 17, 18, 14, 14, 16, 12, 14, 14, 12, 14, 13, 13, 16, 14, 14, 13, 15, 11, 13, 13, 16, 16, 11, 16, 12, 17, 12, 15, 16, 12, 12, 15, 11, 13, 14, 12, 15, 12, 12, 11, 13, 17, 12, 15, 18, 13, 12, 13, 15, 12, 14, 11, 19, 10, 12, 12, 14, 11, 14, 11, 15, 15, 13, 15, 18, 15, 12, 12, 10, 19, 19, 15, 18, 12, 13, 13, 16, 12, 11, 15, 11, 13, 13, 16, 16, 15, 13, 13, 17, 15, 11, 14, 11, 15, 19, 12, 13, 17, 16, 14, 16, 17, 16, 14, 14, 17, 19, 13, 12, 14, 15, 15, 13, 13, 14, 13, 15, 12, 12, 12, 12, 12, 14, 15, 15, 15, 15, 14, 16, 13, 13, 16, 16, 11, 16, 17, 15, 16, 12, 15, 13, 14, 15, 12, 11, 13, 12, 15, 18, 13, 12, 13, 15, 12, 14, 11, 10, 12, 12, 14, 11, 14, 11, 15, 15, 13, 15, 18, 15, 12, 12, 10, 13, 13, 16, 16, 11, 16, 17, 15, 16, 12, 15, 13, 14, 15, 12, 11, 13, 12, 15, 18, 13, 12, 13, 15, 12, 14, 11, 10, 12, 12, 14, 11, 14, 11, 15, 15, 13, 15, 18, 15, 12, 12, 10, 13, 13, 16, 16, 11, 16, 12, 17, 12, 15, 16, 12, 12, 15, 11, 13, 14, 12, 15, 12, 12, 11, 13, 17, 12, 15, 18, 13, 12, 13, 15, 12, 14, 11, 19, 10, 12, 12, 14, 11, 14, 11, 15, 15, 13, 15, 18, 15, 12, 12, 10, 19, 19, 15, 18, 12, 13, 13, 16, 12, 11, 15, 11, 13, 13, 16, 16, 15, 13, 13, 17, 15, 11, 14, 11, 15, 19, 12, 13, 17, 16, 14, 16, 17, 16, 14, 14, 17, 19, 13, 12, 14, 15, 15, 13, 13, 14, 13, 15, 12, 12, 12, 12, 12, 14, 15, 15, 15, 15, 14, 16, 12, 12, 12, 11, 12, 12, 17, 19, 19, 12, 12, 12, 11, 12, 12, 17, 19, 19, 16, 9, 19, 13, 13, 9, 15, 18, 16, 12, 9, 16, 16, 11, 13, 16, 11, 15, 9, 12, 13, 15, 10, 13, 17, 9, 12, 10, 16, 15, 14, 17, 16, 12, 11, 17, 9, 12, 17, 15, 12, 18, 9, 11, 15, 13, 14, 13, 16, 10, 14, 16, 16, 14, 16, 15, 14, 13, 16, 9, 11, 13, 12, 13, 14, 17, 10, 12, 15, 10, 12, 15, 11, 14, 12, 13, 11, 15, 11, 14, 19, 13, 12, 13, 8, 17, 9, 13, 12, 14, 17, 9, 16, 15, 14, 18, 11, 12, 13, 16, 10, 14, 17, 16, 12, 14, 13, 15, 12, 14, 17, 11, 13, 19, 14, 13, 13, 12, 11, 10, 19, 14, 10, 15, 12, 17, 15, 13, 12, 14, 11, 16, 13, 14, 14, 17, 10, 13, 17, 15, 11, 15, 16, 10, 12, 14, 15, 13, 14, 12, 12, 15, 13, 12, 12, 18, 15, 12, 14, 15, 11, 15, 15, 12, 15, 10, 15, 11, 14, 17, 10, 16, 10, 19, 16, 9, 19, 13, 13, 9, 15, 18, 16, 12, 9, 16, 16, 11, 13, 16, 11, 15, 9, 12, 13, 15, 10, 13, 17, 9, 12, 10, 16, 15, 14, 17, 16, 12, 11, 17, 9, 12, 17, 15, 12, 18, 9, 11, 15, 13, 14, 13, 16, 10, 14, 16, 16, 14, 16, 15, 14, 13, 16, 9, 11, 13, 12, 13, 14, 17, 10, 12, 15, 10, 12, 15, 11, 14, 12, 13, 11, 15, 11, 14, 19, 13, 12, 13, 8, 17, 9, 13, 12, 14, 17, 9, 16, 15, 14, 18, 11, 12, 13, 16, 10, 14, 17, 16, 12, 14, 13, 15, 12, 14, 17, 11, 11, 13, 19, 14, 13, 13, 12, 11, 10, 19, 14, 10, 15, 12, 17, 15, 13, 12, 14, 11, 16, 13, 14, 14, 17, 10, 13, 17, 15, 11, 15, 16, 10, 12, 14, 15, 13, 14, 12, 12, 15, 13, 12, 12, 18, 15, 12, 14, 15, 11, 15, 15, 12, 15, 10, 15, 11, 14, 17, 10, 16, 10, 19, 11, 11, 11, 11, 11, 11, 11, 11, 11, 9, 9, 9, 10, 9, 9, 10, 9, 10, 8, 9, 10, 11, 10, 10, 11, 10, 10, 9, 9, 9, 10, 9, 9, 10, 9, 10, 8, 9, 10, 11, 10, 10, 11, 10, 10, 9, 9, 9, 11, 9, 10, 9, 10, 9, 9, 10, 9, 10, 10, 8, 9, 9, 11, 10, 11, 10, 10, 10, 11, 10, 10, 9, 9, 9, 11, 9, 10, 9, 10, 9, 9, 10, 9, 10, 10, 8, 9, 9, 11, 10, 11, 10, 10, 10, 11, 10, 10, 9, 9, 9, 11, 9, 10, 9, 10, 9, 9, 10, 9, 10, 10, 8, 9, 9, 11, 10, 11, 10, 10, 10, 11, 10, 10, 9, 11, 9, 10, 10, 9, 11, 10, 9, 11, 9, 10, 10, 9, 11, 10, 9, 9, 9, 11, 9, 10, 9, 10, 9, 9, 10, 9, 10, 10, 8, 9, 9, 11, 10, 11, 10, 10, 10, 11, 10, 10, 9, 9, 9, 11, 9, 10, 9, 10, 9, 9, 10, 9, 10, 10, 8, 9, 9, 11, 10, 11, 10, 10, 10, 11, 10, 10] p=1.0"]
S174 -> S9 [label="1 [1, 1, 1, 1, 1, 1, 1, 1, 1, 1] p=1.0"]
S10 -> S11 [label="3 [16, 15, 14, 3, 16, 5, 17, 13, 16, 14, 3, 18, 6, 15, 7, 6, 14, 3, 5, 5, 5, 6, 3, 6, 8, 6, 17, 5, 13, 15, 16, 15, 6, 4, 14, 4, 18, 16, 15, 14, 3, 16, 5, 17, 13, 16, 14, 3, 18, 6, 15, 7, 6, 14, 3, 5, 5, 5, 6, 3, 6, 8, 6, 17, 5, 13, 15, 16, 15, 6, 4, 14, 4, 18, 16, 15, 6, 15, 10, 15, 4, 14, 3, 16, 6, 16, 5, 17, 10, 5, 13, 16, 5, 14, 9, 6, 3, 4, 18, 6, 15, 5, 7, 15, 3, 6, 1, 14, 4, 3, 14, 4, 11, 5, 5, 7, 9, 5, 15, 4, 8, 5, 6, 15, 16, 6, 3, 17, 6, 16, 4, 6, 5, 18, 8, 13, 6, 4, 5, 4, 4, 17, 5, 3, 5, 5, 4, 13, 6, 15, 5, 16, 3, 15, 6, 4, 10, 4, 4, 6, 5, 14, 12, 7, 5, 5, 4, 4, 18, 15, 16, 15, 6, 15, 10, 15, 4, 14, 3, 16, 6, 16, 5, 17, 10, 5, 13, 16, 5, 14, 9, 6, 3, 4, 18, 6, 15, 5, 7, 15, 3, 6, 1, 14, 4, 3, 14, 4, 11, 5, 5, 7, 9, 5, 15, 4, 8, 5, 6, 15, 16, 6, 3, 17, 6, 16, 4, 6, 5, 18, 8, 13, 6, 4, 5, 4, 4, 17, 5, 3, 5, 5, 4, 13, 6, 15, 5, 16, 3, 15, 6, 4, 10, 4, 4, 6, 5, 14, 12, 7, 5, 5, 4, 4, 18, 15, 16, 15, 5, 19, 6, 15, 6, 10, 15, 4, 4, 4, 15, 14, 1, 3, 16, 6, 16, 19, 16, 5, 5, 17, 4, 10, 5, 13, 5, 16, 5, 3, 14, 9, 7, 6, 3, 4, 18, 6, 15, 5, 7, 15, 3, 6, 1, 14, 5, 4, 3, 10, 5, 14, 5, 16, 10, 4, 11, 5, 4, 5, 7, 9, 8, 5, 15, 11, 4, 8, 19, 5, 3, 6, 15, 16, 4, 6, 15, 3, 4, 17, 6, 16, 4, 10, 6, 6, 5, 5, 5, 18, 8, 13, 5, 6, 4, 5, 10, 14, 4, 11, 4, 3, 17, 5, 3, 10, 5, 9, 5, 5, 2, 4, 13, 6, 15, 5, 9, 7, 16, 3, 15, 3, 5, 6, 4, 10, 5, 4, 4, 6, 17, 3, 3, 5, 14, 12, 7, 8, 5, 11, 5, 4, 4, 18, 15, 13, 16, 15, 5, 19, 6, 15, 6, 10, 15, 4, 4, 4, 15, 14, 1, 3, 16, 6, 16, 19, 16, 5, 5, 17, 4, 10, 5, 13, 5, 16, 5, 3, 14, 9, 7, 6, 3, 4, 18, 6, 15, 5, 7, 15, 3, 6, 1, 14, 5, 4, 3, 10, 5, 14, 5, 16, 10, 4, 11, 5, 4, 5, 7, 9, 8, 5, 15, 11, 4, 8, 19, 5, 3, 6, 15, 16, 4, 6, 15, 3, 4, 17, 6, 16, 4, 10, 6, 6, 5, 5, 5, 18, 8, 13, 5, 6, 4, 5, 10, 14, 4, 11, 4, 3, 17, 5, 3, 10, 5, 9, 5, 5, 2, 4, 13, 6, 15, 5, 9, 7, 16, 3, 15, 3, 5, 6, 4, 10, 5, 4, 4, 6, 17, 3, 3, 5, 14, 12, 7, 8, 5, 11, 5, 4, 4, 18, 15, 13, 16, 5, 15, 5, 19, 5, 6, 15, 6, 10, 8, 15, 4, 4, 4, 15, 7, 14, 13, 1, 3, 16, 5, 6, 16, 5, 19, 22, 16, 5, 5, 17, 4, 10, 5, 13, 3, 5, 16, 5, 3, 14, 5, 9, 7, 6, 3, 4, 18, 5, 6, 15, 5, 7, 15, 3, 6, 1, 14, 3, 5, 4, 3, 10, 5, 14, 3, 5, 16, 6, 10, 4, 11, 5, 4, 5, 7, 9, 8, 5, 15, 11, 4, 8, 6, 19, 5, 5, 3, 6, 15, 6, 16, 4, 6, 15, 5, 3, 4, 17, 4, 6, 16, 4, 10, 6, 6, 5, 5, 5, 18, 7, 8, 13, 5, 6, 4, 5, 10, 4, 14, 4, 11, 4, 3, 17, 5, 3, 10, 5, 9, 5, 5, 2, 4, 13, 4, 6, 15, 5, 9, 7, 16, 4, 3, 15, 3, 5, 6, 4, 10, 5, 4, 4, 6, 17, 3, 3, 5, 14, 8, 12, 7, 8, 5, 11, 5, 4, 4, 18, 6, 15, 6, 13, 5, 19, 6, 4, 4, 15, 1, 16, 19, 5, 4, 5, 3, 7, 5, 10, 5, 5, 16, 10, 4, 8, 11, 19, 3, 4, 15, 4, 10, 6, 5, 5, 5, 10, 14, 11, 3, 10, 5, 9, 2, 9, 7, 3, 5, 5, 17, 3, 3, 8, 11, 13, 15, 6, 15, 10, 4, 6, 16, 10, 5, 5, 9, 6, 4, 5, 15, 3, 1, 4, 14, 4, 11, 5, 7, 9, 15, 4, 8, 15, 16, 6, 17, 16, 4, 6, 5, 18, 13, 4, 5, 4, 4, 5, 3, 5, 4, 6, 5, 3, 4, 10, 4, 6, 5, 12, 7, 5, 5, 4, 15, 5, 19, 6, 4, 4, 15, 1, 16, 19, 5, 4, 5, 3, 7, 5, 10, 5, 5, 16, 10, 4, 8, 11, 19, 3, 4, 15, 4, 10, 6, 5, 5, 5, 10, 14, 11, 3, 10, 5, 9, 2, 9, 7, 3, 5, 5, 17, 3, 3, 8, 11, 13, 15, 6, 15, 10, 4, 6, 16, 10, 5, 5, 9, 6, 4, 5, 15, 3, 1, 4, 14, 4, 11, 5, 7, 9, 15, 4, 8, 15, 16, 6, 17, 16, 4, 6, 5, 18, 13, 4, 5, 4, 4, 5, 3, 5, 4, 6, 5, 3, 4, 10, 4, 6, 5, 12, 7, 5, 5, 4, 15, 5, 19, 6, 4, 4, 15, 16, 5, 4, 3, 7, 10, 5, 16, 4, 8, 11, 3, 4, 15, 4, 10, 6, 5, 5, 5, 10, 11, 3, 10, 5, 9, 2, 9, 7, 3, 5, 5, 17, 3, 3, 8, 11, 5, 19, 6, 4, 4, 15, 1, 16, 19, 5, 4, 5, 3, 7, 5, 10, 5, 5, 16, 10, 4, 8, 11, 19, 3, 4, 15, 4, 10, 6, 5, 5, 5, 10, 14, 11, 3, 10, 5, 9, 2, 9, 7, 3, 5, 5, 17, 3, 3, 8, 11, 13, 1, 19, 5, 5, 5, 10, 19, 14, 13, 16, 5, 15, 5, 19, 5, 6, 15, 6, 10, 8, 15, 4, 4, 4, 15, 7, 14, 13, 1, 3, 16, 5, 6, 16, 5, 19, 22, 16, 5, 5, 17, 4, 10, 5, 13, 3, 5, 16, 5, 3, 14, 5, 9, 7, 6, 3, 4, 18, 5, 6, 15, 5, 7, 15, 3, 6, 1, 14, 3, 5, 4, 3, 10, 5, 14, 3, 5, 16, 6, 10, 4, 11, 5, 4, 5, 7, 9, 8, 5, 15, 11, 4, 8, 6, 19, 5, 5, 3, 6, 15, 6, 16, 4, 6, 15, 5, 3, 4, 17, 4, 6, 16, 4, 10, 6, 6, 5, 5, 5, 18, 7, 8, 13, 5, 6, 4, 5, 10, 4, 14, 4, 11, 4, 3, 17, 5, 3, 10, 5, 9, 5, 5, 2, 4, 13, 4, 6, 15, 5, 9, 7, 16, 4, 3, 15, 3, 5, 6, 4, 10, 5, 4, 4, 6, 17, 3, 3, 5, 14, 8, 12, 7, 8, 5, 11, 5, 4, 4, 18, 6, 15, 6, 13, 16, 5, 15, 5, 19, 5, 6, 15, 6, 10, 8, 15, 4, 4, 4, 15, 7, 14, 13, 1, 3, 16, 5, 6, 16, 5, 19, 22, 16, 5, 5, 17, 4, 10, 5, 13, 3, 5, 16, 5, 3, 14, 5, 9, 7, 6, 3, 4, 18, 5, 6, 15, 5, 7, 15, 3, 6, 1, 14, 3, 5, 4, 3, 10, 5, 14, 3, 5, 16, 6, 10, 4, 11, 5, 4, 5, 7, 9, 8, 5, 15, 11, 4, 8, 6, 19, 5, 5, 3, 6, 15, 6, 16, 4, 6, 15, 5, 3, 4, 17, 4, 6, 16, 4, 10, 6, 6, 5, 5, 5, 18, 7, 11, 8, 13, 5, 6, 4, 5, 10, 4, 14, 4, 11, 4, 3, 17, 5, 3, 10, 5, 9, 5, 5, 2, 4, 13, 4, 6, 15, 5, 9, 7, 16, 4, 3, 15, 3, 5, 6, 4, 10, 5, 4, 4, 6, 17, 3, 3, 5, 14, 8, 12, 7, 8, 5, 11, 5, 4, 4, 18, 6, 15, 6, 13, 11, 11, 11, 11, 11, 11, 11, 11, 5, 8, 13, 5, 3, 5, 5, 3, 3, 6, 6, 4, 7, 4, 4, 8, 6, 6, 5, 5, 8, 7, 13, 5, 5, 22, 3, 5, 5, 3, 3, 6, 6, 5, 6, 5, 4, 7, 4, 4, 4, 8, 6, 6, 5, 5, 8, 7, 13, 5, 5, 22, 3, 5, 5, 3, 3, 6, 6, 5, 6, 5, 4, 7, 4, 4, 4, 8, 6, 6, 5, 5, 8, 7, 13, 5, 5, 22, 3, 5, 5, 3, 3, 6, 6, 5, 6, 5, 4, 7, 4, 4, 4, 8, 6, 6, 5, 7, 5, 22, 6, 5, 5, 4, 5, 5, 8, 7, 13, 5, 5, 22, 3, 5, 5, 3, 3, 6, 6, 5, 6, 5, 4, 7, 4, 4, 4, 8, 6, 6, 5, 5, 8, 7, 13, 5, 5, 22, 3, 5, 5, 3, 3, 6, 6, 5, 6, 5, 4, 7, 4, 4, 4, 8, 6, 6] p=1.0"]
S11 -> S9 [label="1 [10, 11, 9, 13, 11, 9, 12, 11, 10, 8, 9, 10, 10, 11, 9, 13, 11, 9, 12, 9, 11, 9, 11, 7, 11, 10, 8, 9, 10, 10, 10, 11, 9, 13, 11, 9, 12, 9, 11, 9, 11, 7, 11, 10, 8, 9, 10, 10, 10, 10, 8, 11, 9, 12, 9, 13, 11, 9, 12, 9, 9, 11, 11, 9, 10, 11, 7, 9, 11, 10, 8, 9, 10, 10, 10, 10, 8, 11, 9, 12, 9, 13, 11, 9, 12, 9, 9, 11, 11, 9, 10, 11, 7, 9, 11, 10, 8, 9, 10, 10, 10, 10, 8, 11, 9, 12, 9, 13, 11, 9, 12, 9, 9, 11, 11, 9, 10, 11, 7, 9, 11, 10, 8, 9, 10, 10, 8, 12, 9, 9, 11, 10, 9, 10, 9, 11, 9, 11, 7, 10, 10, 8, 12, 9, 9, 11, 10, 9, 10, 8, 12, 9, 9, 11, 10, 9, 10, 10, 10, 8, 11, 9, 12, 9, 13, 11, 9, 12, 9, 9, 11, 11, 9, 10, 11, 7, 9, 11, 10, 8, 9, 10, 10, 10, 10, 8, 11, 9, 12, 9, 13, 11, 9, 12, 9, 9, 11, 11, 9, 10, 11, 7, 9, 11, 10, 8, 9, 10] p=0.15"]
S11 -> S1 [label="2 [2, 13, 1, 3, 2, 16, 2, 1, 17, 13, 4, 3, 1, 8, 3, 1, 2, 2, 2, 13, 16, 1, 2, 18, 1, 2, 1, 13, 2, 14, 12, 2, 1, 17, 1, 1, 5, 2, 1, 1, 3, 1, 1, 14, 2, 2, 3, 13, 2, 1, 2, 15, 2, 14, 2, 1, 14, 1, 12, 12, 2, 3, 2, 1, 11, 4, 15, 6, 1, 2, 2, 12, 1, 3, 4, 16, 1, 2, 1, 13, 2, 1, 2, 10, 3, 3, 2, 16, 12, 1, 2, 2, 2, 1, 17, 3, 2, 3, 2, 3, 11, 2, 13, 13, 2, 12, 3, 1, 13, 1, 3, 2, 3, 4, 3, 2, 1, 16, 2, 15, 1, 3, 1, 16, 13, 3, 1, 2, 15, 2, 3, 3, 2, 13, 13, 4, 2, 1, 16, 2, 13, 3, 12, 3, 4, 1, 2, 1, 2, 2, 2, 13, 1, 3, 2, 16, 2, 1, 17, 13, 4, 3, 1, 8, 3, 1, 2, 2, 2, 13, 16, 1, 2, 18, 1, 2, 1, 13, 2, 14, 12, 2, 1, 17, 1, 1, 5, 2, 1, 1, 3, 1, 1, 14, 2, 2, 3, 13, 2, 1, 2, 15, 2, 14, 2, 1, 14, 1, 12, 12, 2, 3, 2, 1, 11, 4, 15, 6, 1, 2, 2, 12, 1, 3, 4, 16, 1, 2, 1, 13, 2, 1, 2, 10, 3, 3, 2, 16, 12, 1, 2, 2, 1, 17, 3, 2, 3, 2, 3, 11, 2, 13, 13, 2, 12, 3, 1, 13, 1, 3, 2, 3, 4, 3, 2, 1, 16, 2, 15, 1, 3, 1, 16, 13, 3, 1, 2, 15, 2, 3, 3, 2, 13, 13, 4, 2, 1, 16, 2, 13, 3, 12, 3, 4, 1, 2, 1, 2, 2, 13, 1, 3, 2, 16, 2, 1, 17, 13, 4, 3, 1, 8, 3, 1, 2, 2, 2, 13, 16, 1, 2, 18, 1, 2, 1, 13, 2, 14, 12, 2, 1, 17, 1, 1, 5, 2, 1, 1, 3, 1, 1, 14, 2, 2, 3, 13, 2, 1, 2, 15, 2, 14, 2, 1, 14, 1, 12, 12, 2, 3, 2, 1, 11, 4, 15, 6, 1, 2, 2, 12, 1, 3, 4, 16, 1, 2, 1, 13, 2, 1, 2, 10, 3, 3, 2, 16, 12, 1, 2, 2, 1, 17, 3, 2, 3, 2, 3, 11, 2, 13, 13, 2, 12, 3, 1, 13, 1, 3, 2, 3, 4, 3, 2, 1, 16, 2, 15, 1, 3, 1, 16, 13, 3, 1, 2, 15, 2, 3, 3, 2, 13, 13, 4, 2, 1, 16, 2, 13, 3, 12, 3, 4, 1, 2, 1, 2, 13, 1, 2, 16, 2, 17, 13, 4, 3, 3, 1, 2, 16, 1, 2, 18, 1, 2, 1, 2, 14, 12, 2, 17, 1, 1, 5, 2, 1, 3, 1, 1, 14, 2, 2, 3, 2, 1, 2, 15, 2, 2, 14, 1, 12, 12, 2, 3, 2, 1, 11, 4, 15, 6, 1, 12, 1, 3, 16, 1, 2, 13, 2, 2, 10, 3, 3, 2, 16, 12, 1, 2, 1, 17, 3, 2, 3, 2, 11, 2, 13, 13, 2, 12, 3, 1, 13, 1, 3, 2, 3, 4, 3, 1, 16, 2, 15, 1, 1, 16, 13, 3, 1, 2, 15, 2, 3, 3, 2, 13, 13, 4, 2, 16, 2, 13, 3, 12, 3, 4, 1, 2, 13, 2, 16, 17, 3, 1, 2, 16, 2, 18, 2, 1, 14, 12, 17, 1, 5, 2, 1, 3, 1, 1, 14, 2, 2, 3, 1, 2, 1, 12, 12, 3, 2, 1, 4, 15, 1, 12, 3, 16, 2, 13, 2, 10, 3, 2, 2, 1, 17, 2, 3, 2, 2, 13, 12, 3, 1, 2, 3, 3, 1, 16, 2, 1, 16, 1, 2, 15, 3, 3, 2, 2, 16, 2, 3, 3, 4, 1, 13, 1, 2, 16, 2, 17, 13, 4, 3, 3, 1, 2, 16, 1, 2, 18, 1, 2, 1, 2, 14, 12, 2, 17, 1, 1, 5, 2, 1, 3, 1, 1, 14, 2, 2, 3, 2, 1, 2, 15, 2, 2, 14, 1, 12, 12, 2, 3, 2, 1, 11, 4, 15, 6, 1, 12, 1, 3, 16, 1, 2, 13, 2, 2, 10, 3, 3, 2, 16, 12, 1, 2, 1, 17, 3, 2, 3, 2, 11, 2, 13, 13, 2, 12, 3, 1, 13, 1, 3, 2, 3, 4, 3, 1, 16, 2, 15, 1, 1, 16, 13, 3, 1, 2, 15, 2, 3, 3, 2, 13, 13, 4, 2, 16, 2, 13, 3, 12, 3, 4, 1, 2, 13, 2, 16, 17, 3, 1, 2, 16, 2, 18, 2, 1, 14, 12, 17, 1, 5, 2, 1, 3, 1, 1, 14, 2, 2, 3, 1, 2, 1, 12, 12, 3, 2, 1, 4, 15, 1, 12, 3, 16, 2, 13, 2, 10, 3, 2, 2, 1, 17, 2, 3, 2, 2, 13, 12, 3, 1, 2, 3, 3, 1, 16, 2, 1, 16, 1, 2, 15, 3, 3, 2, 2, 16, 2, 3, 3, 4, 1, 17, 1, 2, 18, 14, 5, 1, 3, 1, 2, 2, 3, 4, 12, 3, 13, 2, 1, 2, 12, 2, 16, 16, 1, 3, 4, 1, 2, 13, 4, 3, 1, 1, 2, 2, 1, 2, 15, 2, 2, 14, 2, 11, 6, 1, 1, 2, 3, 16, 12, 1, 3, 11, 13, 2, 13, 1, 3, 4, 15, 1, 13, 3, 2, 13, 13, 4, 13, 12, 2, 13, 2, 16, 3, 2, 16, 2, 1, 12, 17, 1, 2, 1, 14, 2, 3, 1, 1, 12, 12, 2, 1, 15, 1, 16, 2, 10, 3, 2, 2, 17, 3, 2, 2, 13, 3, 1, 3, 3, 1, 2, 1, 2, 15, 3, 2, 2, 16, 2, 3, 3, 1, 1, 2, 13, 4, 3, 1, 1, 2, 2, 1, 2, 15, 2, 2, 14, 2, 11, 6, 1, 1, 2, 3, 16, 12, 1, 3, 11, 13, 2, 13, 1, 3, 4, 15, 1, 13, 3, 2, 13, 13, 4, 13, 12, 2, 1, 2, 13, 4, 3, 1, 1, 2, 2, 1, 2, 15, 2, 2, 14, 2, 11, 6, 1, 1, 2, 3, 16, 12, 1, 3, 11, 13, 2, 13, 1, 3, 4, 15, 1, 13, 3, 2, 13, 13, 4, 13, 12, 2, 2, 2, 2, 2, 2, 2, 2, 3, 1, 1, 8, 2, 2, 13, 13, 1, 1, 13, 14, 1, 2, 2, 4, 1, 1, 2, 3, 2, 3, 1, 2, 1, 2, 3, 1, 1, 8, 2, 2, 13, 13, 1, 1, 13, 14, 1, 2, 2, 4, 1, 1, 2, 3, 2, 3, 1, 2, 1, 2, 3, 1, 1, 8, 2, 2, 13, 13, 1, 1, 13, 14, 1, 2, 2, 4, 1, 1, 2, 3, 2, 3, 1, 2, 1, 2, 3, 1, 1, 8, 2, 2, 13, 13, 1, 1, 13, 14, 1, 2, 2, 4, 1, 1, 2, 3, 2, 3, 1, 2, 1, 2, 3, 1, 1, 8, 2, 2, 13, 13, 1, 1, 13, 14, 1, 2, 2, 4, 1, 1, 2, 3, 2, 3, 1, 2, 1] p=0.85"]