S0 -> S1 [label="2 [0, 0, 0, 0, 0, 0, 0, 0, 0, 0, 0, 0, 0, 0, 0, 0, 0, 0, 0, 0, 0, 0, 0, 0, 0, 0, 0, 0, 0, 0, 0, 0, 0, 0, 0, 0, 0, 0, 0, 0, 0, 0, 0, 0, 0, 0, 0, 0, 0, 0, 0, 0, 0, 0, 0, 0, 0, 0, 0, 0, 0, 0, 0, 0, 0, 0, 0, 0, 0, 0, 0, 0, 0, 0, 0, 0, 0, 0, 0, 0, 0, 0, 0, 0, 0, 0, 0, 0, 0, 0, 0, 0, 0, 0, 0, 0, 0, 0, 0, 0, 0, 0, 0, 0, 0, 0, 0, 0, 0, 0, 0, 0, 0, 0, 0, 0, 0, 0, 0, 0, 0, 0, 0, 0, 0, 0, 0, 0, 0, 0, 0, 0, 0, 0, 0, 0, 0, 0, 0, 0, 0, 0, 0, 0, 0, 0, 0, 0, 0, 0, 0, 0, 0, 0, 0, 0, 0, 0, 0, 0, 0, 0, 0, 0, 0, 0, 0, 0, 0, 0, 0, 0, 0, 0, 0, 0, 0, 0, 0, 0, 0, 0, 0, 0, 0, 0, 0, 0, 0, 0, 0, 0, 0, 0, 0, 0, 0, 0, 0, 0, 0, 0, 0, 0, 0, 0, 0, 0, 0, 0, 0, 0, 0, 0, 0, 0, 0, 0, 0, 0, 0, 0, 0, 0, 0, 0, 0, 0, 0, 0, 0, 0, 0, 0, 0, 0, 0, 0, 0, 0, 0, 0, 0, 0, 0, 0, 0, 0, 0, 0, 0, 0, 0, 0, 0, 0, 0, 0, 0, 0, 0, 0, 0, 0, 0, 0, 0, 0, 0, 0, 0, 0, 0, 0, 0, 0, 0, 0, 0, 0, 0, 0, 0, 0, 0, 0, 0, 0, 0, 0, 0, 0, 0, 0, 0, 0, 0, 0, 0, 0, 0, 0, 0, 0, 0, 0, 0, 0, 0, 0, 0, 0, 0, 0, 0, 0, 0, 0, 0, 0, 0, 0, 0, 0, 0, 0, 0, 0, 0, 0, 0, 0, 0, 0, 0, 0, 0, 0, 0, 0, 0, 0, 0, 0, 0, 0, 0, 0, 0, 0, 0, 0, 0, 0, 0, 0, 0, 0, 0, 0, 0, 0, 0, 0, 0, 0, 0, 0, 0, 0, 0, 0, 0, 0, 0, 0, 0, 0, 0, 0, 0, 0, 0, 0, 0, 0, 0, 0, 0, 0, 0, 0, 0, 0, 0, 0, 0, 0, 0, 0, 0, 0, 0, 0, 0, 0, 0, 0, 0, 0, 0, 0, 0, 0, 0, 0, 0, 0, 0, 0, 0, 0, 0, 0, 0, 0, 0, 0, 0, 0, 0, 0, 0, 0, 0, 0, 0, 0, 0, 0, 0, 0, 0, 0, 0, 0, 0, 0, 0, 0, 0, 0, 0, 0, 0, 0, 0, 0, 0, 0, 0, 0, 0, 0, 0, 0, 0, 0, 0, 0, 0, 0, 0, 0, 0, 0, 0, 0, 0, 0, 0, 0, 0, 0, 0, 0, 0, 0, 0, 0, 0, 0, 0, 0, 0, 0, 0, 0, 0, 0, 0, 0, 0, 0, 0, 0, 0, 0, 0, 0, 0, 0, 0, 0, 0, 0, 0, 0, 0, 0, 0, 0, 0, 0, 0] p=0.39"]
S0 -> S2 [label="3 [0, 0, 0, 0, 0, 0, 0, 0, 0, 0, 0, 0, 0, 0, 0, 0, 0, 0, 0, 0, 0, 0, 0, 0, 0, 0, 0, 0, 0, 0, 0, 0, 0, 0, 0, 0, 0, 0, 0, 0, 0, 0, 0, 0, 0, 0, 0, 0, 0, 0, 0, 0, 0, 0, 0, 0, 0, 0, 0, 0, 0, 0, 0, 0, 0, 0, 0, 0, 0, 0, 0, 0, 0, 0, 0, 0, 0, 0, 0, 0, 0, 0, 0, 0, 0, 0, 0, 0, 0, 0, 0, 0, 0, 0, 0, 0, 0, 0, 0, 0, 0, 0, 0, 0, 0, 0, 0, 0, 0, 0, 0, 0, 0, 0, 0, 0, 0, 0, 0, 0, 0, 0, 0, 0, 0, 0, 0, 0, 0, 0, 0, 0, 0, 0, 0, 0, 0, 0, 0, 0, 0, 0, 0, 0, 0, 0, 0, 0, 0, 0, 0, 0, 0, 0, 0, 0, 0, 0, 0, 0, 0, 0, 0, 0, 0, 0, 0, 0, 0, 0, 0, 0, 0, 0, 0, 0, 0, 0, 0, 0, 0, 0, 0, 0, 0, 0, 0, 0, 0, 0, 0, 0, 0, 0, 0, 0, 0, 0, 0, 0, 0, 0, 0, 0, 0, 0, 0, 0, 0, 0, 0, 0, 0, 0, 0, 0, 0, 0, 0, 0, 0, 0, 0, 0, 0, 0, 0, 0, 0, 0, 0, 0, 0, 0, 0, 0, 0, 0, 0, 0, 0, 0, 0, 0, 0, 0, 0, 0, 0, 0, 0, 0, 0, 0, 0, 0, 0, 0, 0, 0, 0, 0, 0, 0, 0, 0, 0, 0, 0, 0, 0, 0, 0, 0, 0, 0, 0, 0, 0, 0, 0, 0, 0, 0, 0, 0, 0, 0, 0, 0, 0, 0, 0, 0, 0, 0, 0, 0, 0, 0, 0, 0, 0, 0, 0, 0, 0, 0, 0, 0, 0, 0, 0, 0, 0, 0, 0, 0, 0, 0, 0, 0, 0, 0, 0, 0, 0, 0, 0, 0, 0, 0, 0, 0, 0, 0, 0, 0, 0, 0, 0, 0, 0, 0, 0, 0, 0, 0, 0, 0, 0, 0, 0, 0, 0, 0, 0, 0, 0, 0, 0, 0, 0, 0, 0, 0, 0, 0, 0, 0, 0, 0, 0, 0, 0, 0, 0, 0, 0, 0, 0, 0, 0, 0, 0, 0, 0, 0, 0, 0, 0, 0, 0, 0, 0, 0, 0, 0, 0, 0, 0, 0, 0, 0, 0, 0, 0, 0, 0, 0, 0, 0, 0, 0, 0, 0, 0, 0, 0, 0, 0, 0, 0, 0, 0, 0, 0, 0, 0, 0, 0, 0, 0, 0, 0, 0, 0, 0, 0, 0, 0, 0, 0, 0, 0, 0, 0, 0, 0, 0, 0, 0, 0, 0, 0, 0, 0, 0, 0, 0, 0, 0, 0, 0, 0, 0, 0, 0, 0, 0, 0, 0, 0, 0, 0, 0, 0, 0, 0, 0, 0, 0, 0, 0, 0, 0, 0, 0, 0, 0, 0, 0, 0, 0, 0, 0, 0, 0, 0, 0, 0, 0, 0, 0, 0, 0, 0, 0, 0, 0, 0, 0, 0, 0, 0, 0, 0, 0, 0, 0, 0, 0, 0, 0, 0, 0] p=0.39"]
S0 -> S3 [label="5 [0, 0, 0, 0, 0, 0, 0, 0, 0, 0, 0, 0, 0, 0, 0, 0, 0, 0, 0, 0, 0, 0, 0, 0, 0, 0, 0, 0, 0, 0, 0, 0, 0, 0, 0, 0, 0, 0, 0, 0, 0, 0, 0, 0, 0, 0, 0, 0, 0, 0, 0, 0, 0, 0, 0, 0, 0, 0, 0, 0, 0, 0, 0, 0, 0, 0, 0, 0, 0, 0, 0, 0, 0, 0, 0, 0, 0, 0, 0, 0, 0, 0, 0, 0, 0, 0, 0, 0, 0, 0, 0, 0, 0, 0, 0, 0, 0, 0, 0, 0, 0, 0, 0, 0, 0, 0, 0, 0, 0, 0, 0, 0, 0, 0, 0, 0, 0, 0, 0, 0, 0, 0, 0, 0, 0, 0, 0, 0, 0, 0, 0, 0, 0, 0, 0, 0, 0, 0, 0, 0, 0, 0, 0, 0, 0, 0, 0, 0, 0, 0, 0, 0, 0, 0, 0, 0, 0, 0, 0, 0, 0, 0, 0, 0, 0, 0, 0, 0, 0, 0, 0, 0, 0, 0, 0, 0, 0, 0, 0, 0, 0, 0, 0, 0, 0, 0, 0, 0, 0, 0, 0, 0, 0, 0, 0, 0, 0, 0, 0, 0, 0, 0, 0, 0, 0, 0, 0, 0, 0, 0, 0, 0, 0, 0, 0, 0, 0, 0, 0, 0, 0, 0, 0, 0, 0, 0, 0, 0, 0, 0, 0, 0, 0, 0, 0, 0, 0, 0, 0, 0, 0, 0, 0, 0, 0, 0, 0, 0, 0, 0, 0, 0, 0, 0, 0, 0, 0, 0, 0, 0, 0, 0, 0, 0, 0, 0, 0, 0, 0, 0, 0, 0, 0, 0, 0, 0, 0, 0, 0, 0, 0, 0, 0, 0, 0, 0, 0, 0, 0, 0, 0, 0, 0, 0, 0, 0, 0, 0, 0, 0, 0, 0, 0] p=0.22"]
S0 -> S154 [label="4 [0] p=0.0"]
S0 -> S157 [label="1 [0] p=0.0"]
S0 -> S157 [label="6 [0] p=0.0"]
S1 -> S2 [label="3 [5, 2, 2, 3, 3, 4, 9, 2, 2, 2, 6, 4, 6, 5, 3, 9, 6, 2, 1, 3, 12, 4, 10, 3, 3, 6, 2, 3, 13, 3, 1, 12, 3, 2, 3, 5, 5, 13, 12, 5, 6, 6, 1, 10, 2, 2, 2, 6, 14, 1, 3, 11, 4, 9, 7, 1, 8, 11, 2, 9, 1, 4, 6, 1, 3, 9, 3, 5, 13, 2, 5, 8, 5, 7, 9, 2, 14, 3, 4, 10, 4, 5, 8, 3, 5, 12, 3, 7, 2, 4, 5, 12, 2, 4, 3, 5, 5, 13, 2, 5, 1, 5, 2, 9, 11, 5, 7, 1, 3, 6, 3, 5, 13, 6, 5, 11, 2, 2, 1, 3, 1, 3, 9, 2, 3, 2, 4, 3, 8, 4, 3, 2, 10, 3, 5, 2, 9, 10, 4, 8, 3, 3, 2, 2, 5, 12, 10, 12, 2, 3, 7, 2, 1, 2, 4, 12, 3, 5, 14, 2, 2, 3, 7, 4, 13, 5, 3, 13, 2, 8, 2, 2, 9, 2, 9, 12, 2, 9, 10, 2, 10, 9, 12, 3, 4, 2, 5, 5, 3, 8, 2, 2, 3, 5, 13, 10, 4, 8, 1, 3, 9, 13, 3, 3, 3, 5, 3, 2, 10, 2, 2, 3, 12, 7, 4, 4, 8, 2, 4, 12, 3, 1, 4, 12, 2, 6, 4, 11, 2, 4, 6, 5, 4, 5, 12, 4, 5, 4, 8, 2, 2, 13, 2, 8, 3, 1, 3, 4, 8, 6, 3, 2, 10, 12, 11, 5, 3, 12, 2, 3, 3, 5, 12, 2, 4, 9, 4, 5, 5, 7, 4, 5, 13, 1, 3, 2, 6, 6, 7, 3, 5, 12, 11, 2, 9, 3, 5, 3, 1, 2, 7, 6, 2, 1, 5, 13, 2, 3, 1, 3, 1, 5, 3, 12, 1, 4, 3, 4, 3, 4, 8, 2, 3, 5, 8, 7, 4, 3, 9, 5, 3, 6, 6, 3, 6, 4, 4, 14, 1, 12, 6, 2, 1, 4, 3, 10, 1, 3, 1, 5, 4, 3, 5, 8, 4, 4, 12, 3, 5, 5, 7, 12, 3, 10, 2, 4, 12, 2, 3, 1, 6, 3, 3, 4, 13, 3, 5, 5, 3, 12, 6, 4, 12, 2, 4, 7, 2, 3, 4, 8, 11, 11, 2, 6, 6, 5, 2, 9, 2, 3, 3, 1, 1, 2, 5, 7, 4, 5, 4, 8, 3, 10, 6, 5, 13, 2, 2, 2, 1, 4, 6, 7, 3, 12, 2, 3, 1, 5, 1, 3, 13, 3, 2, 2, 12, 4, 3, 2, 7, 3, 8, 11, 12, 2, 3, 6, 4, 4, 3, 9, 6, 4, 12, 8, 3, 9, 10, 13, 2, 3, 4, 7, 6, 6, 4, 13, 9, 4, 8, 11, 5, 8, 2, 5, 3, 7, 2, 4, 3, 2, 9, 6, 4, 3, 8, 4, 4, 1, 11, 1, 2, 2, 6, 14, 1, 1, 2, 6, 3, 4, 12, 2, 1, 1, 4, 12, 1, 2, 4, 3, 4, 7, 6, 12, 12, 4, 4, 12, 6, 5, 2, 6, 13, 2, 3, 8, 1, 5, 8, 2, 1, 1, 6, 2, 4, 2, 2, 4, 2, 2, 6, 3, 6, 12, 4, 3, 3, 3, 13, 3, 12, 3, 2, 5, 13, 12, 5, 6, 1, 2, 2, 14, 1, 3, 4, 7, 1, 11, 2, 1, 4, 3, 3, 13, 2, 5, 5, 9, 14, 3, 4, 4, 5, 3, 12, 3, 7, 5, 12, 2, 5, 13, 2, 5, 2, 11, 5, 1, 3, 5, 13, 6, 11, 2, 2, 3, 2, 4, 3, 4, 2, 3, 2, 10, 4, 3, 3, 12, 10, 12, 2, 3, 1, 12, 3, 14, 2, 2, 4, 13, 5, 13, 2, 8, 2, 2, 2, 12, 2, 10, 2, 9, 12, 3, 5, 3, 2, 2, 13, 10, 4, 1, 3, 13, 3, 5, 2, 2, 3, 12, 7, 4, 2, 12, 3, 4, 12, 2, 6, 11, 2, 4, 4, 12, 4, 4, 2, 13, 2, 8, 4, 6, 2, 12, 11, 5, 12, 2, 3, 12, 2, 4, 4, 5, 4, 13, 1, 3, 6, 3, 12, 11, 2, 3, 5, 7, 2, 13, 2, 3, 5, 12, 1, 4, 4, 2, 3, 5, 7, 3, 5, 6, 3, 6, 14, 2, 3, 1, 3, 3, 5, 4, 12, 3, 5, 12, 3, 2, 12, 2, 3, 3, 13, 3, 5, 12, 6, 12, 2, 4, 3, 4, 11, 11, 2, 6, 2, 2, 1, 5, 4, 4, 3, 10, 6, 13, 2, 2, 6, 3, 12, 2, 3, 3, 13, 3, 2, 12, 4, 3, 3, 11, 12, 2, 3, 4, 3, 6, 12, 8, 3, 10, 13, 2, 4, 7, 6, 13, 9, 4, 11, 5, 2, 5, 4, 2, 6, 3, 4, 1, 1, 2, 14, 1, 1, 4, 12, 2, 4, 12, 1, 3, 7, 12, 12, 12, 6, 5, 13, 2, 3, 5, 2, 1, 4, 3, 3, 9, 2, 6, 4, 5, 9, 2, 1, 3, 6, 2, 1, 3, 5, 6, 10, 2, 6, 11, 9, 8, 9, 6, 1, 9, 5, 8, 7, 2, 10, 8, 5, 2, 4, 4, 3, 5, 1, 5, 9, 7, 6, 3, 5, 1, 3, 1, 9, 3, 2, 8, 3, 10, 5, 9, 8, 2, 2, 5, 7, 2, 2, 4, 5, 3, 7, 3, 9, 9, 9, 10, 4, 2, 5, 8, 3, 5, 8, 9, 3, 3, 3, 10, 2, 4, 8, 4, 1, 4, 6, 5, 5, 5, 8, 2, 3, 1, 3, 8, 3, 10, 3, 3, 5, 9, 5, 7, 5, 2, 6, 7, 5, 9, 3, 1, 2, 6, 1, 5, 1, 3, 1, 3, 4, 3, 3, 8, 8, 4, 9, 3, 6, 4, 4, 12, 6, 1, 4, 10, 1, 5, 4, 8, 4, 5, 7, 10, 4, 1, 6, 3, 4, 5, 3, 4, 7, 2, 8, 6, 5, 9, 3, 3, 1, 2, 7, 5, 8, 5, 2, 1, 4, 7, 1, 5, 1, 2, 2, 7, 8, 6, 4, 9, 4, 9, 3, 6, 4, 8, 8, 3, 7, 2, 3, 9, 4, 8, 4, 11, 2, 6, 2, 6, 3, 1, 1, 2, 4, 4, 6, 4, 4, 2, 6, 8, 1, 8, 1, 6, 2, 2, 2, 4, 2, 2, 6, 3, 6, 12, 4, 3, 3, 3, 13, 3, 12, 3, 2, 5, 13, 12, 5, 6, 1, 2, 2, 14, 1, 3, 4, 7, 1, 11, 2, 1, 4, 3, 3, 13, 2, 5, 5, 9, 14, 3, 4, 4, 5, 3, 12, 3, 7, 5, 12, 2, 5, 13, 2, 5, 2, 11, 5, 1, 3, 5, 13, 6, 11, 2, 2, 3, 2, 4, 3, 4, 2, 3, 2, 10, 4, 3, 3, 12, 10, 12, 2, 3, 1, 12, 3, 14, 2, 2, 4, 13, 5, 13, 2, 8, 2, 2, 2, 12, 2, 10, 2, 9, 12, 3, 5, 3, 2, 2, 13, 10, 4, 1, 3, 13, 3, 5, 2, 2, 3, 12, 7, 4, 2, 12, 3, 4, 12, 2, 6, 11, 2, 4, 4, 12, 4, 4, 2, 13, 2, 8, 4, 6, 2, 12, 11, 5, 12, 2, 3, 12, 2, 4, 4, 5, 4, 13, 1, 3, 6, 3, 12, 11, 2, 3, 5, 7, 2, 13, 2, 3, 5, 12, 1, 4, 4, 2, 3, 5, 7, 3, 5, 6, 3, 6, 14, 2, 3, 1, 3, 3, 5, 4, 12, 3, 5, 12, 3, 2, 12, 2, 3, 3, 13, 3, 5, 12, 6, 12, 2, 4, 3, 4, 11, 11, 2, 6, 2, 2, 1, 5, 4, 4, 3, 10, 6, 13, 2, 2, 6, 3, 12, 2, 3, 3, 13, 3, 2, 12, 4, 3, 3, 11, 12, 2, 3, 4, 3, 6, 12, 8, 3, 10, 13, 2, 4, 7, 6, 13, 9, 4, 11, 5, 2, 5, 4, 2, 6, 3, 4, 1, 1, 2, 14, 1, 1, 4, 12, 2, 4, 12, 1, 3, 7, 12, 12, 12, 6, 5, 13, 2, 3, 5, 2, 1, 4, 3, 9, 2, 5, 9, 2, 6, 1, 3, 6, 10, 2, 11, 9, 8, 9, 6, 9, 5, 8, 7, 2, 10, 8, 5, 2, 4, 5, 1, 9, 7, 6, 5, 1, 9, 3, 8, 3, 10, 5, 9, 8, 2, 7, 2, 5, 3, 3, 9, 9, 9, 10, 4, 5, 8, 3, 8, 9, 3, 3, 10, 2, 4, 8, 4, 1, 4, 6, 5, 5, 8, 2, 3, 8, 3, 10, 3, 3, 9, 5, 7, 5, 2, 7, 5, 9, 3, 6, 1, 1, 3, 4, 3, 8, 8, 4, 9, 3, 6, 4, 1, 10, 1, 8, 4, 5, 7, 10, 4, 1, 4, 5, 3, 4, 7, 8, 6, 5, 9, 3, 1, 7, 5, 8, 5, 2, 7, 1, 2, 2, 8, 6, 4, 9, 4, 9, 3, 6, 4, 8, 8, 3, 3, 9, 4, 8, 4, 11, 2, 2, 1, 2, 4, 6, 2, 8, 8, 1, 3, 9, 2, 5, 9, 2, 6, 1, 3, 6, 10, 2, 11, 9, 8, 9, 6, 9, 5, 8, 7, 2, 10, 8, 5, 2, 4, 5, 1, 9, 7, 6, 5, 1, 9, 3, 8, 3, 10, 5, 9, 8, 2, 7, 2, 5, 3, 3, 9, 9, 9, 10, 4, 5, 8, 3, 8, 9, 3, 3, 10, 2, 4, 8, 4, 1, 4, 6, 5, 5, 8, 2, 3, 8, 3, 10, 3, 3, 9, 5, 7, 5, 2, 7, 5, 9, 3, 6, 1, 1, 3, 4, 3, 8, 8, 4, 9, 3, 6, 4, 1, 10, 1, 8, 4, 5, 7, 10, 4, 1, 4, 5, 3, 4, 7, 8, 6, 5, 9, 3, 1, 7, 5, 8, 5, 2, 7, 1, 2, 2, 8, 6, 4, 9, 4, 9, 3, 6, 4, 8, 8, 3, 3, 9, 4, 8, 4, 11, 2, 2, 1, 2, 4, 6, 2, 8, 8, 1, 3, 3, 9, 2, 6, 4, 5, 9, 2, 1, 3, 6, 2, 1, 3, 5, 6, 10, 2, 6, 11, 9, 8, 9, 6, 1, 9, 5, 8, 7, 2, 10, 8, 5, 2, 4, 4, 3, 5, 1, 5, 9, 7, 6, 3, 5, 1, 3, 1, 9, 3, 2, 8, 3, 10, 5, 9, 8, 2, 2, 5, 7, 2, 2, 4, 5, 3, 7, 3, 9, 9, 9, 10, 4, 2, 5, 8, 3, 5, 8, 9, 3, 3, 3, 10, 2, 4, 8, 4, 1, 4, 6, 5, 5, 5, 8, 2, 3, 1, 3, 8, 3, 10, 3, 3, 5, 9, 5, 7, 5, 2, 6, 7, 5, 9, 3, 1, 2, 6, 1, 5, 1, 3, 1, 3, 4, 3, 3, 8, 8, 4, 9, 3, 6, 4, 4, 12, 6, 1, 4, 10, 1, 5, 4, 8, 4, 5, 7, 10, 4, 1, 6, 3, 4, 5, 3, 4, 7, 2, 8, 6, 5, 9, 3, 3, 1, 2, 7, 5, 8, 5, 2, 1, 4, 7, 1, 5, 1, 2, 2, 7, 8, 6, 4, 9, 4, 9, 3, 6, 4, 8, 8, 3, 7, 2, 3, 9, 4, 8, 4, 11, 2, 6, 2, 6, 3, 1, 1, 2, 4, 4, 6, 4, 2, 6, 8, 1, 8, 1, 6, 2, 3, 6, 4, 1, 3, 2, 5, 6, 1, 4, 3, 5, 3, 3, 1, 2, 2, 5, 2, 4, 7, 2, 5, 3, 5, 1, 3, 5, 6, 1, 2, 5, 3, 1, 3, 4, 6, 4, 5, 4, 6, 3, 2, 3, 2, 1, 4, 5, 1, 7, 7, 2, 6, 6, 3, 1, 4, 4, 6, 1, 6, 2, 3, 6, 1, 2, 5, 6, 1, 4, 3, 5, 3, 3, 2, 2, 2, 4, 7, 2, 5, 3, 5, 1, 5, 6, 1, 5, 3, 3, 4, 4, 5, 6, 2, 3, 2, 1, 5, 7, 7, 6, 6, 1, 4, 6, 1, 6, 3, 6, 1, 2, 5, 6, 1, 4, 3, 5, 3, 3, 2, 2, 2, 4, 7, 2, 5, 3, 5, 1, 5, 6, 1, 5, 3, 3, 4, 4, 5, 6, 2, 3, 2, 1, 5, 7, 7, 6, 6, 1, 4, 6, 1, 6, 3, 6, 4, 1, 3, 2, 5, 6, 1, 4, 3, 5, 3, 3, 1, 2, 2, 5, 2, 4, 7, 2, 5, 3, 5, 1, 3, 5, 6, 1, 2, 5, 3, 1, 3, 4, 6, 4, 5, 4, 6, 3, 2, 3, 2, 1, 4, 5, 1, 7, 7, 2, 6, 6, 3, 1, 4, 6, 1, 6, 2, 4, 3, 1, 5, 3, 2, 1, 4, 3, 4, 1, 2, 3, 2, 4, 3, 1, 5, 3, 2, 1, 4, 3, 4, 1, 2, 3, 2, 4, 3, 1, 5, 3, 2, 1, 4, 3, 4, 1, 2, 3, 2, 4, 3, 1, 5, 3, 2, 1, 4, 3, 4, 1, 2, 3, 2, 2, 2, 4, 2, 2, 6, 3, 6, 12, 4, 3, 3, 3, 13, 3, 12, 3, 2, 5, 13, 12, 5, 6, 1, 2, 2, 14, 1, 3, 4, 7, 1, 11, 2, 1, 4, 3, 3, 13, 2, 5, 5, 9, 14, 3, 4, 4, 5, 3, 12, 3, 7, 5, 12, 2, 5, 13, 2, 5, 2, 11, 5, 1, 3, 5, 13, 6, 11, 2, 2, 3, 2, 4, 3, 4, 2, 3, 2, 10, 4, 3, 3, 12, 10, 12, 2, 3, 1, 12, 3, 14, 2, 2, 4, 13, 5, 13, 2, 8, 2, 2, 2, 12, 2, 10, 2, 9, 12, 3, 5, 3, 2, 2, 13, 10, 4, 1, 3, 13, 3, 5, 2, 2, 3, 12, 7, 4, 2, 12, 3, 4, 12, 2, 6, 11, 2, 4, 4, 12, 4, 4, 2, 13, 2, 8, 4, 6, 2, 12, 11, 5, 12, 2, 3, 12, 2, 4, 4, 5, 4, 13, 1, 3, 6, 3, 12, 11, 2, 3, 5, 7, 2, 13, 2, 3, 5, 12, 1, 4, 4, 2, 3, 5, 7, 3, 5, 6, 3, 6, 14, 2, 3, 1, 3, 3, 5, 4, 12, 3, 5, 12, 3, 2, 12, 2, 3, 3, 13, 3, 5, 12, 6, 12, 2, 4, 3, 4, 11, 11, 2, 6, 2, 2, 1, 5, 4, 4, 3, 10, 6, 13, 2, 2, 6, 3, 12, 2, 3, 3, 13, 3, 2, 12, 4, 3, 3, 11, 12, 2, 3, 4, 3, 6, 12, 8, 3, 10, 13, 2, 4, 7, 6, 13, 9, 4, 11, 5, 2, 5, 4, 2, 6, 3, 4, 1, 1, 2, 14, 1, 1, 4, 12, 2, 4, 12, 1, 3, 7, 12, 12, 12, 6, 5, 13, 2, 3, 5, 2, 1, 4, 2, 2, 4, 3, 13, 3, 3, 2, 13, 12, 5, 1, 2, 1, 3, 1, 2, 4, 2, 5, 3, 4, 5, 3, 7, 12, 2, 2, 5, 5, 3, 13, 6, 2, 2, 3, 4, 3, 10, 12, 2, 3, 3, 2, 2, 13, 5, 2, 8, 2, 2, 2, 2, 12, 3, 2, 10, 4, 3, 3, 12, 7, 3, 12, 2, 6, 2, 4, 4, 2, 8, 11, 5, 2, 3, 2, 4, 1, 3, 11, 2, 5, 2, 3, 1, 3, 5, 6, 3, 5, 3, 3, 2, 3, 3, 6, 2, 4, 4, 11, 2, 10, 6, 2, 2, 12, 2, 3, 13, 3, 12, 4, 3, 12, 2, 3, 8, 3, 13, 2, 7, 9, 4, 5, 5, 2, 1, 1, 12, 2, 12, 1, 12, 6, 5, 2, 3, 1, 4, 2, 6, 3, 6, 12, 3, 12, 5, 6, 2, 14, 4, 7, 11, 1, 3, 3, 13, 5, 9, 14, 4, 3, 12, 5, 5, 13, 2, 11, 1, 5, 11, 3, 2, 4, 4, 2, 3, 2, 10, 3, 12, 1, 12, 14, 4, 13, 2, 12, 10, 9, 5, 3, 2, 13, 1, 13, 5, 2, 2, 3, 4, 2, 12, 4, 11, 4, 12, 4, 2, 13, 4, 6, 2, 12, 12, 12, 4, 5, 4, 13, 6, 3, 12, 3, 7, 2, 13, 5, 12, 4, 4, 2, 7, 3, 5, 6, 3, 14, 2, 3, 1, 3, 4, 12, 5, 12, 2, 12, 3, 13, 5, 12, 12, 3, 11, 6, 2, 2, 1, 5, 4, 4, 3, 13, 6, 3, 3, 2, 3, 11, 4, 3, 6, 12, 10, 4, 6, 13, 11, 2, 4, 2, 6, 3, 4, 1, 1, 14, 4, 4, 3, 7, 12, 12, 13, 5, 2, 4, 2, 2, 4, 3, 13, 3, 3, 2, 13, 12, 5, 1, 2, 1, 3, 1, 2, 4, 2, 5, 3, 4, 5, 3, 7, 12, 2, 2, 5, 5, 3, 13, 6, 2, 2, 3, 4, 3, 10, 12, 2, 3, 3, 2, 2, 13, 5, 2, 8, 2, 2, 2, 2, 12, 3, 2, 10, 4, 3, 3, 12, 7, 3, 12, 2, 6, 2, 4, 4, 2, 8, 11, 5, 2, 3, 2, 4, 1, 3, 11, 2, 5, 2, 3, 1, 3, 5, 6, 3, 5, 3, 3, 2, 3, 3, 6, 2, 4, 4, 11, 2, 10, 6, 2, 2, 12, 2, 3, 13, 3, 12, 4, 3, 12, 2, 3, 8, 3, 13, 2, 7, 9, 4, 5, 5, 2, 1, 1, 12, 2, 12, 1, 12, 6, 5, 2, 3, 1, 4, 6, 12, 3, 5, 14, 3, 5, 5, 2, 5, 3, 4, 12, 1, 12, 4, 5, 13, 5, 4, 4, 12, 6, 7, 13, 5, 4, 14, 2, 3, 3, 3, 3, 1, 5, 6, 3, 3, 4, 14, 4, 4, 3, 12, 13, 5, 4, 4, 2, 6, 3, 6, 12, 3, 12, 5, 6, 2, 14, 4, 7, 11, 1, 3, 3, 13, 5, 9, 14, 4, 3, 12, 5, 5, 13, 2, 11, 1, 5, 11, 3, 2, 4, 4, 2, 3, 2, 10, 3, 12, 1, 12, 14, 4, 13, 2, 12, 10, 9, 5, 3, 2, 13, 1, 13, 5, 2, 2, 3, 4, 2, 12, 4, 11, 4, 12, 4, 2, 13, 4, 6, 2, 12, 12, 12, 4, 5, 4, 13, 6, 3, 12, 3, 7, 2, 13, 5, 12, 4, 4, 2, 7, 3, 5, 6, 3, 14, 2, 3, 1, 3, 4, 12, 5, 12, 2, 12, 3, 13, 5, 12, 12, 3, 11, 6, 2, 2, 1, 5, 4, 4, 3, 13, 6, 3, 3, 2, 3, 11, 4, 3, 6, 12, 10, 4, 6, 13, 11, 2, 4, 2, 6, 3, 4, 1, 1, 14, 4, 4, 3, 7, 12, 12, 13, 5, 2, 4, 2, 3, 6, 12, 6, 2, 4, 7, 11, 1, 3, 13, 5, 9, 14, 4, 3, 12, 13, 11, 1, 11, 2, 4, 2, 3, 2, 10, 3, 14, 13, 2, 12, 10, 9, 3, 2, 1, 13, 2, 2, 3, 4, 2, 12, 4, 11, 12, 4, 2, 13, 6, 2, 12, 12, 4, 5, 4, 13, 3, 12, 3, 2, 12, 4, 2, 7, 3, 5, 6, 3, 1, 4, 12, 5, 12, 2, 12, 13, 5, 12, 12, 11, 6, 2, 2, 4, 4, 3, 13, 3, 2, 11, 4, 3, 6, 12, 10, 4, 6, 13, 11, 2, 2, 6, 3, 4, 1, 1, 7, 12, 2, 2, 3, 6, 12, 6, 2, 4, 7, 11, 1, 3, 13, 5, 9, 14, 4, 3, 12, 13, 11, 1, 11, 2, 4, 2, 3, 2, 10, 3, 14, 13, 2, 12, 10, 9, 3, 2, 1, 13, 2, 2, 3, 4, 2, 12, 4, 11, 12, 4, 2, 13, 6, 2, 12, 12, 4, 5, 4, 13, 3, 12, 3, 2, 12, 4, 2, 7, 3, 5, 6, 3, 1, 4, 12, 5, 12, 2, 12, 13, 5, 12, 12, 11, 6, 2, 2, 4, 4, 3, 13, 3, 2, 11, 4, 3, 6, 12, 10, 4, 6, 13, 11, 2, 2, 6, 3, 4, 1, 1, 7, 12, 2, 4, 3, 5, 14, 3, 5, 5, 2, 5, 4, 1, 12, 4, 5, 13, 5, 4, 12, 6, 13, 4, 14, 3, 3, 1, 5, 3, 14, 4, 3, 13, 5, 4, 3, 5, 14, 3, 5, 5, 2, 5, 4, 1, 12, 4, 5, 13, 5, 4, 12, 6, 13, 4, 14, 3, 3, 1, 5, 3, 14, 4, 3, 13, 5, 4, 6, 12, 3, 5, 14, 3, 5, 5, 2, 5, 3, 4, 12, 1, 12, 4, 5, 13, 5, 4, 4, 12, 6, 7, 13, 5, 4, 14, 2, 3, 3, 3, 3, 1, 5, 6, 3, 3, 4, 14, 4, 4, 3, 13, 5, 4, 6, 12, 3, 12, 4, 7, 5, 3, 3, 6, 3, 4, 4, 4, 6, 12, 3, 12, 4, 7, 5, 3, 3, 6, 3, 4, 4, 4, 2, 2, 4, 3, 13, 3, 3, 2, 13, 12, 5, 1, 2, 1, 3, 1, 2, 4, 2, 5, 3, 4, 5, 3, 7, 12, 2, 2, 5, 5, 3, 13, 6, 2, 2, 3, 4, 3, 10, 12, 2, 3, 3, 2, 2, 13, 5, 2, 8, 2, 2, 2, 2, 12, 3, 2, 10, 4, 3, 3, 12, 7, 3, 12, 2, 6, 2, 4, 4, 2, 8, 11, 5, 2, 3, 2, 4, 1, 3, 11, 2, 5, 2, 3, 1, 3, 5, 6, 3, 5, 3, 3, 2, 3, 3, 6, 2, 4, 4, 11, 2, 10, 6, 2, 2, 12, 2, 3, 13, 3, 12, 4, 3, 12, 2, 3, 8, 3, 13, 2, 7, 9, 4, 5, 5, 2, 1, 1, 12, 2, 12, 1, 12, 6, 5, 2, 3, 1, 3, 2, 12, 5, 3, 5, 4, 7, 2, 5, 6, 2, 12, 2, 3, 2, 5, 8, 2, 2, 3, 4, 7, 2, 6, 4, 8, 5, 3, 4, 3, 2, 3, 5, 3, 4, 2, 6, 2, 2, 3, 3, 4, 3, 2, 3, 3, 2, 4, 1, 2, 1, 5, 3, 2, 4, 13, 3, 13, 1, 2, 1, 1, 2, 4, 2, 3, 5, 3, 12, 2, 5, 3, 13, 2, 3, 4, 3, 10, 3, 2, 13, 2, 2, 2, 12, 2, 10, 3, 3, 12, 3, 12, 2, 4, 2, 11, 2, 2, 1, 11, 5, 2, 1, 3, 6, 3, 5, 3, 3, 2, 3, 6, 2, 4, 11, 10, 2, 12, 13, 12, 12, 8, 13, 7, 9, 5, 5, 2, 1, 12, 12, 12, 6, 2, 1, 3, 2, 12, 5, 3, 5, 4, 7, 2, 5, 6, 2, 12, 2, 3, 2, 5, 8, 2, 2, 3, 4, 7, 2, 6, 4, 8, 5, 3, 4, 3, 2, 3, 5, 3, 4, 2, 6, 2, 2, 3, 3, 4, 3, 2, 3, 3, 2, 4, 1, 2, 1, 5, 3, 2, 3, 1, 2, 1, 2, 4, 2, 3, 5, 3, 2, 5, 3, 2, 4, 3, 2, 2, 2, 2, 12, 2, 3, 3, 12, 3, 12, 2, 4, 2, 11, 2, 1, 11, 5, 1, 3, 6, 3, 3, 3, 2, 3, 6, 2, 11, 10, 2, 12, 12, 12, 8, 13, 7, 9, 5, 5, 2, 12, 1, 2, 4, 13, 3, 13, 1, 2, 1, 1, 2, 4, 2, 3, 5, 3, 12, 2, 5, 3, 13, 2, 3, 4, 3, 10, 3, 2, 13, 2, 2, 2, 12, 2, 10, 3, 3, 12, 3, 12, 2, 4, 2, 11, 2, 2, 1, 11, 5, 2, 1, 3, 6, 3, 5, 3, 3, 2, 3, 6, 2, 4, 11, 10, 2, 12, 13, 12, 12, 8, 13, 7, 9, 5, 5, 2, 1, 12, 12, 12, 6, 2, 1, 4, 13, 13, 1, 12, 13, 3, 10, 3, 13, 10, 2, 2, 5, 4, 13, 1, 12, 12, 6, 2, 3, 2, 6, 1, 3, 6, 10, 2, 11, 8, 9, 6, 8, 10, 8, 2, 4, 1, 7, 6, 5, 1, 8, 8, 2, 7, 5, 3, 3, 9, 9, 10, 4, 3, 8, 9, 3, 4, 1, 4, 6, 5, 3, 3, 3, 9, 2, 9, 3, 1, 4, 8, 4, 1, 8, 5, 10, 1, 5, 4, 7, 8, 6, 5, 2, 1, 2, 2, 6, 9, 3, 6, 8, 8, 3, 2, 2, 1, 2, 2, 8, 1, 3, 2, 6, 1, 3, 6, 10, 2, 11, 8, 9, 6, 8, 10, 8, 2, 4, 1, 7, 6, 5, 1, 8, 8, 2, 7, 5, 3, 3, 9, 9, 10, 4, 3, 8, 9, 3, 4, 1, 4, 6, 5, 3, 3, 3, 9, 2, 9, 3, 1, 4, 8, 4, 1, 8, 5, 10, 1, 5, 4, 7, 8, 6, 5, 2, 1, 2, 2, 6, 9, 3, 6, 8, 8, 3, 2, 2, 1, 2, 2, 8, 1, 3, 9, 2, 5, 9, 2, 6, 1, 3, 6, 10, 2, 11, 9, 8, 9, 6, 9, 5, 8, 7, 2, 10, 8, 5, 2, 4, 5, 1, 9, 7, 6, 5, 1, 9, 3, 8, 3, 10, 5, 9, 8, 2, 7, 2, 5, 3, 3, 9, 9, 9, 10, 4, 5, 8, 3, 8, 9, 3, 3, 10, 2, 4, 8, 4, 1, 4, 6, 5, 5, 8, 2, 3, 8, 3, 10, 3, 3, 9, 5, 7, 5, 2, 7, 5, 9, 3, 6, 1, 1, 3, 4, 3, 8, 8, 4, 9, 3, 6, 4, 1, 10, 1, 8, 4, 5, 7, 10, 4, 1, 4, 5, 3, 4, 7, 8, 6, 5, 9, 3, 1, 7, 5, 8, 5, 2, 7, 1, 2, 2, 8, 6, 4, 9, 4, 9, 3, 6, 4, 8, 8, 3, 3, 9, 4, 8, 4, 11, 2, 2, 1, 2, 4, 6, 2, 8, 8, 1, 9, 5, 9, 2, 9, 9, 5, 7, 2, 5, 5, 9, 9, 3, 3, 10, 5, 9, 2, 9, 5, 8, 3, 10, 2, 8, 4, 5, 8, 2, 8, 3, 10, 5, 7, 5, 7, 5, 6, 1, 3, 3, 8, 4, 9, 3, 6, 1, 10, 4, 7, 4, 4, 3, 5, 9, 3, 1, 7, 5, 8, 7, 8, 4, 9, 4, 4, 3, 9, 4, 8, 4, 11, 4, 6, 8, 9, 5, 9, 5, 9, 9, 2, 5, 3, 5, 8, 7, 6, 3, 3, 1, 10, 4, 1, 7, 7, 8, 3, 4, 8, 9, 5, 9, 2, 9, 9, 5, 7, 2, 5, 5, 9, 9, 3, 3, 10, 5, 9, 2, 9, 5, 8, 3, 10, 2, 8, 4, 5, 8, 2, 8, 3, 10, 5, 7, 5, 7, 5, 6, 1, 3, 3, 8, 4, 9, 3, 6, 1, 10, 4, 7, 4, 4, 3, 5, 9, 3, 1, 7, 5, 8, 7, 8, 4, 9, 4, 4, 3, 9, 4, 8, 4, 11, 4, 6, 8, 9, 2, 9, 5, 7, 2, 5, 3, 3, 10, 5, 9, 9, 8, 10, 2, 8, 4, 8, 2, 3, 10, 5, 7, 5, 5, 1, 8, 4, 9, 3, 6, 4, 7, 4, 3, 5, 9, 3, 5, 8, 4, 9, 4, 4, 9, 4, 8, 4, 11, 6, 9, 2, 9, 5, 7, 2, 5, 3, 3, 10, 5, 9, 9, 8, 10, 2, 8, 4, 8, 2, 3, 10, 5, 7, 5, 5, 1, 8, 4, 9, 3, 6, 4, 7, 4, 3, 5, 9, 3, 5, 8, 4, 9, 4, 4, 9, 4, 8, 4, 11, 6, 9, 5, 9, 5, 9, 9, 2, 5, 3, 5, 8, 7, 6, 3, 3, 1, 10, 4, 1, 7, 7, 8, 3, 4, 8, 3, 2, 12, 5, 3, 5, 4, 7, 2, 5, 6, 2, 12, 2, 3, 2, 5, 8, 2, 2, 3, 4, 7, 2, 6, 4, 8, 5, 3, 4, 3, 2, 3, 5, 3, 4, 2, 6, 2, 2, 3, 3, 4, 3, 2, 3, 3, 2, 4, 1, 2, 1, 5, 3, 3, 2, 6, 1, 3, 6, 10, 2, 11, 8, 9, 6, 8, 10, 8, 2, 4, 1, 7, 6, 5, 1, 8, 8, 2, 7, 5, 3, 3, 9, 9, 10, 4, 3, 8, 9, 3, 4, 1, 4, 6, 5, 3, 3, 3, 9, 2, 9, 3, 1, 4, 8, 4, 1, 8, 5, 10, 1, 5, 4, 7, 8, 6, 5, 2, 1, 2, 2, 6, 9, 3, 6, 8, 8, 3, 2, 2, 1, 2, 2, 8, 1, 1, 3, 6, 11, 8, 10, 2, 4, 1, 5, 1, 7, 3, 3, 9, 4, 8, 4, 4, 6, 3, 3, 3, 9, 2, 9, 1, 8, 1, 7, 6, 5, 2, 1, 2, 2, 6, 9, 3, 8, 2, 1, 2, 2, 8, 2, 10, 2, 8, 9, 6, 8, 7, 6, 8, 8, 2, 5, 9, 10, 3, 9, 3, 1, 5, 3, 4, 4, 1, 8, 5, 10, 5, 4, 8, 6, 8, 3, 2, 1, 3, 6, 2, 5, 6, 1, 4, 3, 5, 3, 3, 2, 2, 7, 2, 5, 3, 5, 1, 5, 6, 1, 3, 3, 4, 5, 6, 2, 1, 5, 7, 7, 6, 6, 1, 4, 6, 1, 6, 3, 6, 2, 5, 6, 1, 4, 3, 5, 3, 3, 2, 2, 7, 2, 5, 3, 5, 1, 5, 6, 1, 3, 3, 4, 5, 6, 2, 1, 5, 7, 7, 6, 6, 1, 4, 6, 1, 6, 3, 6, 1, 2, 5, 6, 1, 4, 3, 5, 3, 3, 2, 2, 2, 4, 7, 2, 5, 3, 5, 1, 5, 6, 1, 5, 3, 3, 4, 4, 5, 6, 2, 3, 2, 1, 5, 7, 7, 6, 6, 1, 4, 6, 1, 6, 1, 2, 4, 5, 4, 3, 2, 1, 2, 4, 5, 4, 3, 2, 2, 3, 6, 7, 3, 13, 9, 14, 12, 13, 11, 2, 2, 3, 2, 10, 12, 3, 2, 2, 2, 3, 2, 12, 12, 2, 13, 6, 2, 12, 5, 4, 13, 3, 12, 2, 12, 4, 2, 3, 5, 6, 3, 1, 12, 12, 12, 13, 12, 2, 2, 4, 4, 3, 3, 11, 3, 6, 12, 13, 2, 6, 3, 4, 1, 1, 7, 12, 2, 2, 3, 6, 12, 6, 2, 4, 7, 11, 1, 3, 13, 5, 9, 14, 4, 3, 12, 13, 11, 1, 11, 2, 4, 2, 3, 2, 10, 3, 14, 13, 2, 12, 10, 9, 3, 2, 1, 13, 2, 2, 3, 4, 2, 12, 4, 11, 12, 4, 2, 13, 6, 2, 12, 12, 4, 5, 4, 13, 3, 12, 3, 2, 12, 4, 2, 7, 3, 5, 6, 3, 1, 4, 12, 5, 12, 2, 12, 13, 5, 12, 12, 11, 6, 2, 2, 4, 4, 3, 13, 3, 2, 11, 4, 3, 6, 12, 10, 4, 6, 13, 11, 2, 2, 6, 3, 4, 1, 1, 7, 12, 2, 12, 6, 2, 4, 11, 1, 5, 4, 3, 1, 11, 4, 3, 14, 13, 2, 10, 9, 1, 13, 4, 4, 11, 4, 12, 4, 3, 7, 4, 5, 2, 5, 12, 11, 6, 13, 2, 4, 10, 4, 6, 11, 2, 4, 3, 1, 5, 3, 2, 1, 4, 3, 4, 1, 2, 3, 2, 10, 1, 3, 12, 6, 3, 6, 2, 1, 1, 1, 1, 1, 1, 1, 1, 12, 12, 12, 12, 12, 12, 6, 6, 6, 6, 2, 4, 4, 4, 4, 4, 4, 4, 4, 4, 4, 4, 4, 4, 4, 12, 12, 12, 10, 10, 10, 10, 10, 10, 10, 10, 3, 3, 3, 3, 3, 3, 3] p=1.0"]
S2 -> S3 [label="5 [15, 12, 15, 14, 13, 4, 4, 9, 15, 15, 7, 14, 13, 14, 12, 13, 13, 16, 12, 14, 11, 6, 4, 9, 6, 15, 12, 13, 16, 13, 13, 7, 7, 6, 4, 16, 13, 14, 6, 3, 15, 12, 15, 9, 21, 15, 12, 14, 11, 6, 3, 14, 11, 14, 11, 14, 5, 4, 14, 13, 16, 6, 4, 15, 13, 14, 11, 5, 4, 17, 12, 13, 15, 4, 11, 7, 4, 7, 4, 6, 5, 14, 12, 14, 8, 4, 16, 13, 15, 4, 7, 3, 15, 13, 13, 11, 7, 4, 15, 8, 16, 13, 15, 6, 4, 7, 5, 7, 5, 15, 4, 4, 15, 14, 14, 6, 5, 15, 13, 14, 15, 4, 5, 15, 15, 13, 6, 5, 7, 4, 13, 14, 10, 16, 26, 5, 14, 14, 4, 4, 7, 3, 13, 13, 14, 8, 13, 7, 5, 5, 5, 8, 5, 16, 12, 13, 15, 12, 15, 3, 5, 3, 15, 12, 15, 6, 4, 6, 4, 15, 11, 14, 7, 3, 15, 12, 15, 5, 16, 5, 5, 15, 27, 12, 5, 4, 7, 5, 14, 9, 14, 18, 6, 3, 14, 14, 4, 12, 6, 5, 8, 4, 5, 4, 14, 13, 14, 14, 5, 4, 14, 13, 5, 5, 4, 16, 12, 13, 13, 5, 4, 16, 12, 4, 15, 4, 6, 7, 4, 14, 7, 6, 4, 15, 13, 13, 13, 6, 15, 12, 4, 11, 15, 13, 13, 16, 12, 14, 5, 4, 15, 14, 16, 4, 5, 4, 8, 5, 7, 4, 14, 12, 11, 6, 4, 8, 5, 5, 4, 14, 10, 4, 5, 5, 4, 8, 5, 16, 13, 12, 16, 15, 4, 11, 14, 4, 12, 16, 14, 5, 5, 4, 7, 4, 11, 9, 13, 14, 14, 13, 14, 13, 5, 12, 13, 15, 7, 13, 12, 13, 16, 12, 11, 6, 4, 6, 12, 16, 13, 7, 4, 13, 15, 12, 15, 12, 11, 14, 11, 11, 14, 14, 13, 4, 13, 11, 5, 17, 12, 11, 5, 12, 8, 4, 16, 13, 7, 15, 13, 11, 7, 15, 8, 16, 13, 4, 5, 5, 15, 14, 6, 5, 13, 15, 13, 6, 13, 10, 16, 26, 14, 14, 7, 14, 8, 5, 8, 16, 12, 15, 12, 15, 12, 6, 4, 11, 15, 12, 16, 27, 12, 9, 18, 14, 12, 8, 4, 14, 14, 14, 5, 16, 12, 13, 4, 16, 7, 6, 15, 13, 6, 15, 12, 11, 15, 13, 16, 12, 4, 15, 14, 8, 5, 4, 14, 11, 8, 5, 4, 10, 13, 16, 15, 11, 14, 12, 16, 4, 7, 11, 9, 14, 14, 13, 15, 14, 4, 4, 9, 15, 14, 13, 14, 9, 15, 13, 13, 7, 6, 16, 14, 6, 3, 15, 9, 21, 14, 6, 3, 14, 5, 4, 16, 6, 15, 14, 4, 13, 15, 4, 7, 4, 7, 4, 6, 14, 14, 15, 4, 3, 13, 4, 15, 6, 7, 7, 4, 4, 15, 14, 15, 14, 4, 5, 15, 15, 5, 7, 4, 14, 5, 4, 4, 3, 13, 13, 13, 7, 5, 5, 5, 13, 15, 3, 5, 3, 15, 6, 4, 15, 14, 7, 3, 15, 5, 5, 5, 15, 5, 4, 7, 5, 14, 14, 6, 3, 14, 4, 6, 5, 4, 5, 14, 13, 5, 4, 13, 5, 4, 13, 5, 12, 4, 15, 4, 6, 7, 4, 14, 4, 13, 13, 4, 13, 14, 5, 16, 4, 5, 4, 7, 12, 6, 4, 5, 14, 4, 5, 5, 4, 8, 5, 16, 12, 4, 4, 14, 5, 5, 4, 13, 13, 14, 5, 12, 13, 15, 7, 13, 12, 13, 16, 12, 11, 6, 4, 6, 12, 16, 13, 7, 4, 13, 15, 12, 15, 12, 11, 14, 11, 11, 14, 14, 13, 4, 13, 11, 5, 17, 12, 11, 5, 12, 8, 4, 16, 13, 7, 15, 13, 11, 7, 15, 8, 16, 13, 4, 5, 5, 15, 14, 6, 5, 13, 15, 13, 6, 13, 10, 16, 26, 14, 14, 7, 14, 8, 5, 8, 16, 12, 15, 12, 15, 12, 6, 4, 11, 15, 12, 16, 27, 12, 9, 18, 14, 12, 8, 4, 14, 14, 14, 5, 16, 12, 13, 4, 16, 7, 6, 15, 13, 6, 15, 12, 11, 15, 13, 16, 12, 4, 15, 14, 8, 5, 4, 14, 11, 8, 5, 4, 10, 13, 16, 15, 11, 14, 12, 16, 4, 7, 11, 9, 14, 14, 13, 15, 4, 15, 14, 14, 13, 14, 14, 5, 16, 14, 13, 4, 14, 15, 4, 13, 4, 14, 4, 4, 13, 13, 15, 14, 3, 15, 5, 14, 6, 3, 4, 5, 13, 4, 6, 13, 4, 14, 4, 12, 4, 4, 14, 4, 13, 13, 5, 15, 14, 4, 4, 9, 15, 14, 13, 14, 9, 15, 13, 13, 7, 6, 16, 14, 6, 3, 15, 9, 21, 14, 6, 3, 14, 5, 4, 16, 6, 15, 14, 4, 13, 15, 4, 7, 4, 7, 4, 6, 14, 14, 15, 4, 3, 13, 4, 15, 6, 7, 7, 4, 4, 15, 14, 15, 14, 4, 5, 15, 15, 5, 7, 4, 14, 5, 4, 4, 3, 13, 13, 13, 7, 5, 5, 5, 13, 15, 3, 5, 3, 15, 6, 4, 15, 14, 7, 3, 15, 5, 5, 5, 15, 5, 4, 7, 5, 14, 14, 6, 3, 14, 4, 6, 5, 4, 5, 14, 13, 5, 4, 13, 5, 4, 13, 5, 12, 4, 15, 4, 6, 7, 4, 14, 4, 13, 13, 4, 13, 14, 5, 16, 4, 5, 4, 7, 12, 6, 4, 5, 14, 4, 5, 5, 4, 8, 5, 16, 12, 4, 4, 14, 5, 5, 4, 13, 13, 14, 5, 14, 4, 9, 13, 9, 15, 13, 7, 6, 16, 6, 3, 15, 9, 21, 14, 6, 3, 4, 6, 15, 4, 15, 7, 4, 7, 4, 6, 14, 3, 4, 15, 6, 7, 7, 4, 15, 15, 14, 5, 15, 15, 5, 7, 4, 14, 5, 4, 3, 13, 13, 7, 5, 5, 5, 15, 3, 5, 3, 6, 4, 15, 7, 5, 5, 15, 5, 4, 7, 5, 14, 14, 6, 5, 4, 5, 14, 13, 4, 13, 5, 4, 5, 12, 4, 15, 7, 4, 14, 4, 13, 13, 5, 16, 4, 5, 4, 7, 12, 6, 4, 5, 14, 5, 5, 4, 8, 5, 16, 5, 5, 14, 14, 4, 9, 13, 9, 15, 13, 7, 6, 16, 6, 3, 15, 9, 21, 14, 6, 3, 4, 6, 15, 4, 15, 7, 4, 7, 4, 6, 14, 3, 4, 15, 6, 7, 7, 4, 15, 15, 14, 5, 15, 15, 5, 7, 4, 14, 5, 4, 3, 13, 13, 7, 5, 5, 5, 15, 3, 5, 3, 6, 4, 15, 7, 5, 5, 15, 5, 4, 7, 5, 14, 14, 6, 5, 4, 5, 14, 13, 4, 13, 5, 4, 5, 12, 4, 15, 7, 4, 14, 4, 13, 13, 5, 16, 4, 5, 4, 7, 12, 6, 4, 5, 14, 5, 5, 4, 8, 5, 16, 5, 5, 14, 15, 14, 14, 13, 14, 14, 5, 16, 14, 4, 15, 4, 13, 4, 14, 4, 4, 13, 15, 3, 5, 14, 3, 13, 4, 6, 14, 12, 4, 14, 13, 13, 15, 14, 14, 13, 14, 14, 5, 16, 14, 4, 15, 4, 13, 4, 14, 4, 4, 13, 15, 3, 5, 14, 3, 13, 4, 6, 14, 12, 4, 14, 13, 13, 15, 4, 15, 14, 14, 13, 14, 14, 5, 16, 14, 13, 4, 14, 15, 4, 13, 4, 14, 4, 4, 13, 13, 15, 14, 3, 15, 5, 14, 6, 3, 4, 5, 13, 4, 6, 13, 4, 14, 4, 12, 4, 4, 14, 13, 13, 5, 4, 15, 13, 14, 13, 14, 15, 4, 5, 13, 4, 4, 4, 5, 4, 15, 13, 14, 13, 14, 15, 4, 5, 13, 4, 4, 4, 5, 4, 15, 13, 14, 13, 14, 15, 4, 5, 13, 4, 4, 4, 5, 4, 15, 13, 14, 13, 14, 15, 4, 5, 13, 4, 4, 4, 5, 12, 13, 15, 7, 13, 12, 13, 16, 12, 11, 6, 4, 6, 12, 16, 13, 7, 4, 13, 15, 12, 15, 12, 11, 14, 11, 11, 14, 14, 13, 4, 13, 11, 5, 17, 12, 11, 5, 12, 8, 4, 16, 13, 7, 15, 13, 11, 7, 15, 8, 16, 13, 4, 5, 5, 15, 14, 6, 5, 13, 15, 13, 6, 13, 10, 16, 26, 14, 14, 7, 14, 8, 5, 8, 16, 12, 15, 12, 15, 12, 6, 4, 11, 15, 12, 16, 27, 12, 9, 18, 14, 12, 8, 4, 14, 14, 14, 5, 16, 12, 13, 4, 16, 7, 6, 15, 13, 6, 15, 12, 11, 15, 13, 16, 12, 4, 15, 14, 8, 5, 4, 14, 11, 8, 5, 4, 10, 13, 16, 15, 11, 14, 12, 16, 4, 7, 11, 9, 14, 14, 13, 7, 13, 12, 6, 4, 13, 12, 12, 11, 14, 13, 5, 12, 4, 16, 13, 13, 7, 8, 16, 13, 15, 5, 6, 16, 26, 14, 8, 8, 12, 12, 12, 4, 12, 12, 14, 12, 16, 6, 13, 15, 12, 15, 16, 12, 15, 14, 5, 14, 5, 15, 14, 16, 7, 9, 14, 13, 15, 12, 16, 11, 6, 12, 16, 7, 4, 13, 15, 15, 11, 14, 11, 14, 4, 13, 11, 17, 11, 5, 12, 8, 7, 15, 11, 15, 4, 5, 5, 14, 6, 13, 15, 13, 13, 10, 14, 7, 14, 5, 16, 15, 15, 6, 11, 15, 16, 27, 9, 18, 14, 12, 8, 4, 14, 14, 5, 16, 13, 4, 7, 15, 6, 11, 13, 4, 8, 4, 11, 8, 4, 10, 13, 16, 11, 12, 4, 11, 14, 13, 7, 13, 12, 6, 4, 13, 12, 12, 11, 14, 13, 5, 12, 4, 16, 13, 13, 7, 8, 16, 13, 15, 5, 6, 16, 26, 14, 8, 8, 12, 12, 12, 4, 12, 12, 14, 12, 16, 6, 13, 15, 12, 15, 16, 12, 15, 14, 5, 14, 5, 15, 14, 16, 7, 9, 14, 13, 16, 6, 12, 7, 4, 13, 15, 15, 11, 14, 14, 4, 13, 17, 5, 12, 15, 15, 4, 5, 5, 14, 13, 15, 13, 13, 10, 14, 7, 14, 5, 16, 15, 6, 11, 16, 27, 9, 14, 8, 4, 14, 14, 5, 16, 4, 7, 15, 6, 13, 4, 8, 4, 11, 8, 4, 10, 13, 4, 13, 13, 16, 6, 12, 7, 4, 13, 15, 15, 11, 14, 14, 4, 13, 17, 5, 12, 15, 15, 4, 5, 5, 14, 13, 15, 13, 13, 10, 14, 7, 14, 5, 16, 15, 6, 11, 16, 27, 9, 14, 8, 4, 14, 14, 5, 16, 4, 7, 15, 6, 13, 4, 8, 4, 11, 8, 4, 10, 13, 4, 13, 13, 15, 12, 16, 11, 6, 12, 16, 7, 4, 13, 15, 15, 11, 14, 11, 14, 4, 13, 11, 17, 11, 5, 12, 8, 7, 15, 11, 15, 4, 5, 5, 14, 6, 13, 15, 13, 13, 10, 14, 7, 14, 5, 16, 15, 15, 6, 11, 15, 16, 27, 9, 18, 14, 12, 8, 4, 14, 14, 5, 16, 13, 4, 7, 15, 6, 11, 13, 4, 8, 4, 11, 8, 4, 10, 13, 16, 11, 12, 4, 11, 14, 13, 15, 12, 11, 16, 11, 11, 11, 8, 7, 11, 6, 15, 15, 18, 12, 13, 11, 16, 11, 12, 11, 14, 15, 8, 12, 11, 11, 15, 12, 11, 16, 11, 11, 11, 8, 7, 11, 6, 15, 15, 18, 12, 13, 11, 16, 11, 12, 14, 12, 11, 16, 11, 11, 11, 7, 11, 6, 15, 15, 18, 13, 16, 12, 14, 7, 13, 12, 6, 13, 12, 12, 11, 14, 13, 5, 12, 4, 13, 7, 8, 15, 5, 6, 16, 14, 8, 8, 12, 12, 12, 4, 12, 12, 14, 12, 16, 6, 13, 15, 15, 16, 15, 5, 14, 5, 15, 14, 16, 7, 9, 14, 7, 13, 12, 6, 13, 12, 12, 11, 14, 13, 5, 12, 4, 13, 7, 8, 15, 5, 6, 16, 14, 8, 8, 12, 12, 12, 4, 12, 12, 14, 12, 16, 6, 13, 15, 15, 16, 15, 5, 14, 5, 15, 14, 16, 7, 9, 14, 7, 13, 12, 6, 4, 13, 12, 12, 11, 14, 13, 5, 12, 4, 16, 13, 13, 7, 8, 16, 13, 15, 5, 6, 16, 26, 14, 8, 8, 12, 12, 12, 4, 12, 12, 14, 12, 16, 6, 13, 15, 12, 15, 16, 12, 15, 14, 5, 14, 5, 15, 14, 16, 7, 9, 14, 4, 16, 13, 16, 13, 26, 12, 12, 14, 4, 16, 13, 16, 13, 26, 12, 12, 14, 14, 4, 6, 4, 6, 15, 4, 5, 4, 7, 6, 7, 5, 5, 14, 4, 7, 13, 5, 5, 5, 14, 14, 4, 9, 7, 6, 3, 9, 21, 3, 4, 6, 15, 4, 7, 4, 6, 6, 4, 15, 5, 15, 15, 7, 4, 4, 13, 13, 7, 5, 5, 3, 5, 3, 6, 4, 7, 5, 5, 15, 4, 7, 5, 14, 14, 5, 5, 13, 4, 5, 4, 15, 7, 4, 14, 13, 5, 4, 5, 4, 4, 5, 5, 4, 8, 5, 16, 5, 5, 14, 9, 7, 3, 9, 21, 3, 4, 7, 4, 6, 6, 15, 15, 15, 7, 4, 13, 13, 5, 5, 3, 5, 3, 4, 15, 4, 7, 5, 14, 5, 5, 13, 5, 4, 15, 4, 14, 4, 5, 4, 4, 5, 4, 8, 5, 16, 5, 14, 4, 9, 7, 6, 3, 9, 21, 3, 4, 6, 15, 4, 7, 4, 6, 6, 4, 15, 5, 15, 15, 7, 4, 4, 13, 13, 7, 5, 5, 3, 5, 3, 6, 4, 7, 5, 5, 15, 4, 7, 5, 14, 14, 5, 5, 13, 4, 5, 4, 15, 7, 4, 14, 13, 5, 4, 5, 4, 4, 5, 5, 4, 8, 5, 16, 5, 5, 14, 14, 4, 9, 13, 9, 15, 13, 7, 6, 16, 6, 3, 15, 9, 21, 14, 6, 3, 4, 6, 15, 4, 15, 7, 4, 7, 4, 6, 14, 3, 4, 15, 6, 7, 7, 4, 15, 15, 14, 5, 15, 15, 5, 7, 4, 14, 5, 4, 3, 13, 13, 7, 5, 5, 5, 15, 3, 5, 3, 6, 4, 15, 7, 5, 5, 15, 5, 4, 7, 5, 14, 14, 6, 5, 4, 5, 14, 13, 4, 13, 5, 4, 5, 12, 4, 15, 7, 4, 14, 4, 13, 13, 5, 16, 4, 5, 4, 7, 12, 6, 4, 5, 14, 5, 5, 4, 8, 5, 16, 5, 5, 14, 13, 9, 15, 13, 6, 16, 15, 14, 6, 15, 4, 7, 14, 3, 4, 15, 7, 7, 15, 14, 5, 14, 5, 3, 5, 15, 15, 5, 6, 4, 14, 13, 4, 5, 12, 4, 13, 16, 7, 12, 6, 5, 14, 13, 9, 15, 13, 6, 16, 15, 14, 6, 15, 4, 7, 14, 3, 4, 15, 7, 7, 15, 14, 5, 14, 5, 3, 5, 15, 15, 5, 6, 4, 14, 13, 4, 5, 12, 4, 13, 16, 7, 12, 6, 5, 14, 13, 9, 15, 13, 6, 16, 15, 14, 6, 15, 4, 7, 14, 3, 4, 15, 7, 7, 15, 14, 5, 14, 5, 3, 5, 15, 15, 5, 6, 4, 14, 13, 4, 5, 12, 4, 13, 16, 7, 12, 6, 5, 14, 15, 14, 14, 13, 14, 14, 5, 16, 14, 15, 13, 4, 14, 4, 4, 13, 15, 5, 14, 13, 14, 12, 4, 14, 13, 13, 15, 14, 14, 13, 14, 14, 5, 16, 14, 4, 15, 4, 13, 4, 14, 4, 4, 13, 15, 3, 5, 14, 3, 13, 4, 6, 14, 12, 4, 14, 13, 13, 4, 4, 3, 3, 4, 6, 13, 16, 6, 12, 7, 4, 13, 15, 15, 11, 14, 14, 4, 13, 17, 5, 12, 15, 15, 4, 5, 5, 14, 13, 15, 13, 13, 10, 14, 7, 14, 5, 16, 15, 6, 11, 16, 27, 9, 14, 8, 4, 14, 14, 5, 16, 4, 7, 15, 6, 13, 4, 8, 4, 11, 8, 4, 10, 13, 4, 13, 15, 12, 15, 14, 13, 4, 4, 9, 15, 15, 7, 14, 13, 14, 12, 13, 13, 16, 12, 14, 11, 6, 4, 9, 6, 15, 12, 13, 16, 13, 13, 7, 7, 6, 4, 16, 13, 14, 6, 3, 15, 12, 15, 9, 21, 15, 12, 14, 11, 6, 3, 14, 11, 14, 11, 14, 5, 4, 14, 13, 16, 6, 4, 15, 13, 14, 11, 5, 4, 17, 12, 13, 15, 4, 11, 7, 4, 7, 4, 6, 5, 14, 12, 14, 8, 4, 16, 13, 15, 4, 7, 3, 15, 13, 13, 11, 7, 4, 15, 8, 16, 13, 15, 6, 4, 7, 5, 7, 5, 15, 4, 4, 15, 14, 14, 6, 5, 15, 13, 14, 15, 4, 5, 15, 15, 13, 6, 5, 7, 4, 13, 14, 10, 16, 26, 5, 14, 14, 4, 4, 7, 3, 13, 13, 14, 8, 13, 7, 5, 5, 5, 8, 5, 16, 12, 13, 15, 12, 15, 3, 5, 3, 15, 12, 15, 6, 4, 6, 4, 15, 11, 14, 7, 3, 15, 12, 15, 5, 16, 5, 5, 15, 27, 12, 5, 4, 7, 5, 14, 9, 14, 18, 6, 3, 14, 14, 4, 12, 6, 5, 8, 4, 5, 4, 14, 13, 14, 14, 5, 4, 14, 13, 5, 5, 4, 16, 12, 13, 13, 5, 4, 16, 12, 4, 15, 4, 6, 7, 4, 14, 7, 6, 4, 15, 13, 13, 13, 6, 15, 12, 4, 11, 15, 13, 13, 16, 12, 14, 5, 4, 15, 14, 16, 4, 5, 4, 8, 5, 7, 4, 14, 12, 11, 6, 4, 8, 5, 5, 4, 14, 10, 4, 5, 5, 4, 8, 5, 16, 13, 12, 16, 15, 4, 11, 14, 4, 12, 16, 14, 5, 5, 4, 7, 4, 11, 9, 13, 14, 14, 13, 14, 13, 5, 14, 13, 6, 6, 6, 6, 4, 4, 4, 4, 4, 11, 11, 14, 14, 14, 14, 14, 14, 14, 13, 13, 13, 13] p=0.58"]
S2 -> S1 [label="2 [1, 4, 1, 2, 5, 5, 1, 1, 1, 2, 2, 2, 2, 13, 2, 3, 1, 1, 2, 4, 1, 2, 1, 1, 2, 1, 2, 3, 2, 1, 1, 2, 1, 3, 2, 2, 10, 6, 1, 1, 1, 1, 1, 2, 1, 1, 2, 4, 1, 1, 11, 7, 1, 3, 1, 3, 1, 1, 2, 1, 1, 2, 1, 1, 3, 3, 2, 1, 2, 2, 1, 1, 1, 10, 7, 2, 2, 1, 3, 1, 2, 11, 6, 3, 1, 8, 1, 1, 4, 12, 2, 7, 5, 2, 2, 1, 11, 2, 2, 1, 1, 1, 1, 1, 2, 3, 2, 3, 1, 2, 2, 1, 1, 3, 1, 2, 1, 2, 1, 1, 1, 3, 2, 1, 3, 10, 6, 3, 1, 1, 1, 1, 1, 1, 2, 1, 1, 1, 1, 3, 1, 3, 4, 6, 1, 2, 2, 1, 1, 8, 2, 5, 5, 4, 8, 3, 1, 2, 1, 2, 8, 1, 1, 11, 6, 1, 4, 1, 1, 1, 1, 2, 1, 2, 1, 2, 4, 10, 11, 2, 2, 2, 2, 4, 1, 1, 1, 12, 1, 1, 1, 1, 1, 1, 8, 3, 1, 1, 1, 1, 1, 1, 5, 2, 3, 7, 13, 8, 2, 5, 3, 1, 1, 1, 2, 3, 1, 2, 1, 2, 6, 6, 1, 1, 2, 1, 1, 1, 2, 13, 2, 1, 1, 2, 1, 2, 1, 1, 2, 2, 3, 2, 1, 1, 2, 1, 3, 2, 10, 1, 1, 1, 1, 2, 1, 2, 1, 11, 1, 3, 1, 3, 1, 1, 2, 2, 1, 3, 2, 2, 2, 1, 1, 1, 10, 2, 2, 1, 1, 2, 11, 3, 1, 8, 1, 1, 4, 12, 2, 7, 2, 2, 1, 11, 2, 1, 1, 1, 1, 2, 2, 3, 1, 2, 2, 1, 3, 1, 2, 1, 1, 3, 3, 10, 3, 1, 1, 1, 1, 1, 1, 2, 1, 1, 3, 1, 2, 2, 1, 1, 8, 2, 4, 8, 3, 1, 2, 2, 8, 1, 1, 11, 1, 1, 1, 1, 1, 2, 1, 2, 11, 2, 2, 2, 4, 1, 1, 1, 12, 1, 1, 1, 1, 1, 3, 1, 1, 1, 1, 1, 1, 2, 13, 2, 3, 1, 2, 1, 1, 2, 1, 1, 2, 1, 1, 1, 2, 13, 2, 1, 1, 2, 1, 2, 1, 1, 2, 2, 3, 2, 1, 1, 2, 1, 3, 2, 10, 1, 1, 1, 1, 2, 1, 2, 1, 11, 1, 3, 1, 3, 1, 1, 2, 2, 1, 3, 2, 2, 2, 1, 1, 1, 10, 2, 2, 1, 1, 2, 11, 3, 1, 8, 1, 1, 4, 12, 2, 7, 2, 2, 1, 11, 2, 1, 1, 1, 1, 2, 2, 3, 1, 2, 2, 1, 3, 1, 2, 1, 1, 3, 3, 10, 3, 1, 1, 1, 1, 1, 1, 2, 1, 1, 3, 1, 2, 2, 1, 1, 8, 2, 4, 8, 3, 1, 2, 2, 8, 1, 1, 11, 1, 1, 1, 1, 1, 2, 1, 2, 11, 2, 2, 2, 4, 1, 1, 1, 12, 1, 1, 1, 1, 1, 3, 1, 1, 1, 1, 1, 1, 2, 13, 2, 3, 1, 2, 1, 1, 2, 1, 4, 1, 2, 5, 5, 1, 1, 1, 2, 2, 2, 2, 13, 2, 3, 1, 1, 2, 4, 1, 2, 1, 1, 2, 1, 2, 3, 2, 1, 1, 2, 1, 3, 2, 2, 10, 6, 1, 1, 1, 1, 1, 2, 1, 1, 2, 4, 1, 1, 11, 7, 1, 3, 1, 3, 1, 1, 2, 1, 1, 2, 1, 1, 3, 3, 2, 1, 2, 2, 1, 1, 1, 10, 7, 2, 2, 1, 3, 1, 2, 11, 6, 3, 1, 8, 1, 1, 4, 12, 2, 7, 5, 2, 2, 1, 11, 2, 2, 1, 1, 1, 1, 1, 2, 3, 2, 3, 1, 2, 2, 1, 1, 3, 1, 2, 1, 2, 1, 1, 1, 3, 2, 1, 3, 10, 6, 3, 1, 1, 1, 1, 1, 1, 2, 1, 1, 1, 1, 3, 1, 3, 4, 6, 1, 2, 2, 1, 1, 8, 2, 5, 5, 4, 8, 3, 1, 2, 1, 2, 8, 1, 1, 11, 6, 1, 4, 1, 1, 1, 1, 2, 1, 2, 1, 2, 4, 10, 11, 2, 2, 2, 2, 4, 1, 1, 1, 12, 1, 1, 1, 1, 1, 1, 8, 3, 1, 1, 1, 1, 1, 1, 5, 2, 3, 7, 13, 8, 2, 5, 3, 1, 1, 2, 3, 1, 2, 1, 2, 6, 6, 4, 5, 5, 2, 2, 2, 3, 4, 1, 2, 6, 1, 1, 4, 1, 7, 1, 1, 1, 3, 1, 7, 3, 6, 5, 2, 1, 3, 1, 1, 2, 1, 2, 1, 6, 1, 1, 3, 4, 6, 5, 5, 1, 6, 4, 1, 2, 4, 10, 2, 1, 8, 5, 3, 7, 8, 5, 1, 3, 2, 6, 6, 4, 5, 2, 2, 3, 4, 1, 2, 6, 1, 1, 4, 7, 1, 1, 3, 1, 7, 3, 6, 5, 2, 3, 1, 1, 1, 2, 6, 1, 3, 4, 5, 1, 6, 4, 1, 4, 2, 1, 5, 3, 8, 5, 3, 2, 6, 4, 5, 2, 2, 3, 4, 1, 2, 6, 1, 1, 4, 7, 1, 1, 3, 1, 7, 3, 6, 5, 2, 3, 1, 1, 1, 2, 6, 1, 3, 4, 5, 1, 6, 4, 1, 4, 2, 1, 5, 3, 8, 5, 3, 2, 6, 4, 5, 5, 2, 2, 2, 3, 4, 1, 2, 6, 1, 1, 4, 1, 7, 1, 1, 1, 3, 1, 7, 3, 6, 5, 2, 1, 3, 1, 1, 2, 1, 2, 1, 6, 1, 1, 3, 4, 6, 5, 5, 1, 6, 4, 1, 2, 4, 10, 2, 1, 8, 5, 3, 7, 8, 5, 3, 2, 6, 6, 5, 2, 1, 1, 1, 2, 1, 6, 5, 2, 10, 8, 7, 6, 5, 2, 1, 1, 1, 2, 1, 6, 5, 2, 10, 8, 7, 6, 5, 2, 1, 1, 1, 2, 1, 6, 5, 2, 10, 8, 7, 6, 5, 2, 1, 1, 1, 2, 1, 6, 5, 2, 10, 8, 7, 6, 1, 2, 2, 13, 2, 1, 1, 2, 1, 1, 1, 2, 2, 2, 1, 2, 10, 1, 1, 2, 1, 2, 1, 1, 2, 2, 3, 2, 2, 2, 1, 1, 10, 1, 1, 2, 11, 1, 12, 2, 7, 2, 2, 1, 2, 2, 2, 1, 2, 3, 10, 1, 2, 3, 1, 2, 1, 2, 8, 1, 2, 2, 8, 1, 2, 2, 11, 2, 2, 1, 12, 1, 1, 1, 1, 1, 2, 13, 2, 2, 1, 2, 1, 2, 2, 13, 2, 1, 1, 2, 1, 1, 1, 2, 2, 2, 1, 2, 10, 1, 1, 2, 1, 2, 1, 1, 2, 2, 3, 2, 2, 2, 1, 1, 10, 1, 1, 2, 11, 1, 12, 2, 7, 2, 2, 1, 2, 2, 2, 1, 2, 3, 10, 1, 2, 3, 1, 2, 1, 2, 8, 1, 2, 2, 8, 1, 2, 2, 11, 2, 2, 1, 12, 1, 1, 1, 1, 1, 2, 13, 2, 2, 1, 2, 1, 1, 2, 1, 1, 1, 2, 13, 2, 1, 1, 2, 1, 2, 1, 1, 2, 2, 3, 2, 1, 1, 2, 1, 3, 2, 10, 1, 1, 1, 1, 2, 1, 2, 1, 11, 1, 3, 1, 3, 1, 1, 2, 2, 1, 3, 2, 2, 2, 1, 1, 1, 10, 2, 2, 1, 1, 2, 11, 3, 1, 8, 1, 1, 4, 12, 2, 7, 2, 2, 1, 11, 2, 1, 1, 1, 1, 2, 2, 3, 1, 2, 2, 1, 3, 1, 2, 1, 1, 3, 3, 10, 3, 1, 1, 1, 1, 1, 1, 2, 1, 1, 3, 1, 2, 2, 1, 1, 8, 2, 4, 8, 3, 1, 2, 2, 8, 1, 1, 11, 1, 1, 1, 1, 1, 2, 1, 2, 11, 2, 2, 2, 4, 1, 1, 1, 12, 1, 1, 1, 1, 1, 3, 1, 1, 1, 1, 1, 1, 2, 13, 2, 3, 1, 2, 1, 1, 2, 1, 1, 1, 1, 2, 2, 3, 1, 1, 3, 1, 1, 1, 11, 3, 1, 3, 1, 1, 1, 2, 2, 3, 1, 8, 1, 4, 2, 1, 11, 1, 1, 1, 3, 1, 2, 1, 3, 1, 1, 3, 3, 1, 1, 1, 1, 1, 1, 1, 2, 1, 8, 4, 3, 1, 1, 11, 1, 1, 1, 1, 1, 2, 4, 1, 1, 1, 3, 1, 1, 1, 1, 1, 3, 1, 1, 1, 1, 2, 1, 1, 1, 1, 2, 3, 2, 1, 1, 1, 3, 3, 1, 1, 4, 1, 1, 1, 2, 3, 3, 1, 1, 1, 1, 1, 2, 2, 3, 1, 1, 3, 1, 1, 1, 11, 3, 1, 3, 1, 1, 1, 2, 2, 3, 1, 8, 1, 4, 2, 1, 11, 1, 1, 1, 3, 1, 2, 1, 3, 1, 1, 3, 3, 1, 1, 1, 1, 1, 1, 1, 2, 1, 8, 4, 3, 1, 1, 11, 1, 1, 1, 1, 1, 2, 4, 1, 1, 1, 3, 1, 1, 1, 1, 1, 3, 1, 1, 1, 1, 2, 3, 1, 1, 3, 11, 3, 1, 3, 1, 1, 2, 1, 8, 1, 4, 1, 11, 1, 1, 3, 1, 2, 3, 1, 1, 1, 1, 1, 1, 2, 1, 8, 3, 1, 1, 11, 1, 1, 4, 1, 1, 1, 1, 1, 1, 1, 1, 1, 1, 1, 2, 3, 1, 1, 3, 11, 3, 1, 3, 1, 1, 2, 1, 8, 1, 4, 1, 11, 1, 1, 3, 1, 2, 3, 1, 1, 1, 1, 1, 1, 2, 1, 8, 3, 1, 1, 11, 1, 1, 4, 1, 1, 1, 1, 1, 1, 1, 1, 1, 1, 2, 1, 1, 1, 2, 3, 2, 1, 3, 1, 1, 1, 2, 3, 1, 1, 1, 2, 1, 1, 1, 1, 2, 3, 2, 1, 1, 1, 3, 3, 1, 1, 4, 1, 1, 1, 2, 3, 3, 1, 1, 1, 1, 1, 3, 4, 1, 3, 1, 2, 2, 13, 2, 1, 1, 2, 1, 1, 1, 2, 2, 2, 1, 2, 10, 1, 1, 2, 1, 2, 1, 1, 2, 2, 3, 2, 2, 2, 1, 1, 10, 1, 1, 2, 11, 1, 12, 2, 7, 2, 2, 1, 2, 2, 2, 1, 2, 3, 10, 1, 2, 3, 1, 2, 1, 2, 8, 1, 2, 2, 8, 1, 2, 2, 11, 2, 2, 1, 12, 1, 1, 1, 1, 1, 2, 13, 2, 2, 1, 2, 13, 2, 1, 1, 2, 2, 2, 10, 1, 1, 2, 2, 2, 2, 2, 10, 1, 1, 2, 7, 2, 1, 2, 2, 2, 1, 3, 1, 2, 2, 8, 1, 2, 2, 11, 2, 2, 1, 12, 1, 2, 13, 2, 2, 1, 2, 1, 2, 1, 1, 2, 1, 1, 2, 1, 1, 2, 3, 1, 1, 1, 2, 11, 12, 2, 2, 10, 2, 3, 1, 2, 1, 8, 1, 2, 1, 1, 1, 1, 2, 13, 2, 1, 1, 2, 2, 2, 10, 1, 1, 2, 2, 2, 2, 2, 10, 1, 1, 2, 7, 2, 1, 2, 2, 2, 1, 3, 1, 2, 2, 8, 1, 2, 2, 11, 2, 2, 1, 12, 1, 2, 13, 2, 2, 1, 2, 1, 2, 1, 1, 2, 1, 1, 2, 1, 1, 2, 3, 1, 1, 1, 2, 11, 12, 2, 2, 10, 2, 3, 1, 2, 1, 8, 1, 2, 1, 1, 1, 1, 2, 4, 5, 2, 3, 4, 1, 2, 6, 1, 1, 4, 1, 1, 1, 7, 3, 6, 5, 2, 3, 1, 1, 2, 6, 1, 4, 5, 1, 1, 4, 2, 1, 5, 3, 8, 5, 3, 2, 6, 4, 5, 2, 3, 4, 1, 2, 6, 1, 1, 4, 1, 1, 1, 7, 3, 6, 5, 2, 3, 1, 1, 2, 6, 1, 4, 5, 1, 1, 4, 2, 1, 5, 3, 8, 5, 3, 2, 6, 4, 5, 2, 2, 3, 4, 1, 2, 6, 1, 1, 4, 7, 1, 1, 3, 1, 7, 3, 6, 5, 2, 3, 1, 1, 1, 2, 6, 1, 3, 4, 5, 1, 6, 4, 1, 4, 2, 1, 5, 3, 8, 5, 3, 2, 6, 2, 7, 3, 1, 3, 6, 4, 2, 7, 1, 6, 2, 7, 3, 1, 3, 6, 4, 3, 3, 4, 4, 5, 2, 3, 4, 1, 2, 6, 1, 1, 4, 1, 1, 1, 7, 3, 6, 5, 2, 3, 1, 1, 2, 6, 1, 4, 5, 1, 1, 4, 2, 1, 5, 3, 8, 5, 3, 2, 6, 5, 1, 1, 1, 2, 1, 6, 5, 2, 10, 8, 7, 6, 5, 2, 1, 1, 1, 2, 1, 6, 5, 2, 10, 8, 7, 6, 2, 1, 1, 2, 3, 1, 1, 3, 11, 3, 1, 3, 1, 1, 2, 1, 8, 1, 4, 1, 11, 1, 1, 3, 1, 2, 3, 1, 1, 1, 1, 1, 1, 2, 1, 8, 3, 1, 1, 11, 1, 1, 4, 1, 1, 1, 1, 1, 1, 1, 1, 1, 1, 1, 2, 1, 1, 1, 1, 1, 1, 1, 1, 1, 1, 1, 1, 1, 1, 1, 1, 1, 1, 1, 1, 2] p=0.42"]
S3 -> S157 [label="6 [7, 7, 7, 7, 7, 7, 7, 7, 7, 7] p=0.0"]
S3 -> S154 [label="4 [1, 1, 1, 1, 1, 1, 1, 1, 1, 1] p=0.0"]
S3 -> S157 [label="3 [6, 6, 6, 6, 6, 6, 6, 6, 6, 6] p=0.0"]
S3 -> S1 [label="2 [7, 8, 9, 7, 9, 8, 8, 8, 9, 7, 7, 8, 8, 9, 8, 9, 7, 8, 8, 8, 7, 8, 8, 7, 8, 7, 10, 7, 8, 8, 8, 8, 7, 8, 7, 8, 9, 6, 9, 7, 8, 9, 7, 10, 6, 7, 8, 9, 6, 9, 8, 8, 8, 9, 9, 8, 8, 8, 8, 9, 7, 8, 8, 8, 8, 9, 7, 8, 7, 9, 9, 7, 9, 9, 6, 8, 6, 8, 7, 8, 7, 8, 8, 7, 8, 7, 8, 8, 9, 6, 9, 7, 8, 9, 8, 6, 9, 7, 8, 7, 8, 9, 7, 8, 6, 8, 6, 7, 7, 8, 8, 7, 8, 8, 8, 7, 8, 9, 8, 7, 8, 8, 7, 9, 8, 7, 7, 6, 8, 8, 9, 10, 7, 8, 9, 7, 8, 8, 9, 6, 9, 8, 10, 8, 8, 9, 6, 8, 7, 7, 6, 8, 7, 8, 10, 8, 8, 9, 9, 7, 9, 8, 8, 9, 6, 8, 7, 8, 8, 8, 8, 6, 9, 7, 9, 8, 9, 8, 7, 9, 7, 8, 8, 7, 7, 6, 8, 7, 9, 9, 7, 8, 8, 8, 8, 8, 6, 8, 6, 8, 7, 7, 8, 9, 8, 8, 8, 9, 7, 8, 9, 8, 8, 7, 9, 8, 8, 8, 8, 7, 9, 8, 8, 8, 9, 6, 8, 7, 6, 7, 7, 8, 8, 9, 8, 6, 7, 8, 9, 9, 7, 8, 9, 7, 7, 9, 7, 9, 7, 8, 9, 8, 8, 8, 7, 8, 6, 7, 8, 9, 8, 6, 8, 6, 7, 7, 7, 8, 9, 9, 9, 8, 8, 7, 7, 7, 8, 10, 6, 8, 8, 9, 8, 8, 9, 8, 8, 8, 7, 8, 8, 8, 9, 10, 8, 8, 8, 8, 9, 7, 7, 8, 9, 7, 9, 8, 8, 8, 9, 7, 7, 8, 8, 9, 8, 9, 7, 8, 8, 8, 7, 8, 8, 7, 8, 7, 10, 7, 8, 8, 8, 8, 7, 8, 7, 8, 9, 6, 9, 7, 8, 9, 7, 10, 6, 7, 8, 9, 6, 9, 8, 8, 8, 9, 9, 8, 8, 8, 8, 9, 7, 8, 8, 8, 8, 9, 7, 8, 7, 9, 9, 7, 9, 9, 6, 8, 6, 8, 7, 8, 7, 8, 8, 7, 8, 7, 8, 8, 9, 6, 9, 7, 8, 9, 8, 6, 9, 7, 8, 7, 8, 9, 7, 8, 6, 8, 6, 7, 7, 8, 8, 7, 8, 8, 8, 7, 8, 9, 8, 7, 8, 8, 7, 9, 8, 7, 7, 6, 8, 8, 9, 10, 7, 8, 9, 7, 8, 8, 9, 6, 9, 8, 10, 8, 8, 9, 6, 8, 7, 7, 6, 8, 7, 8, 10, 8, 8, 9, 9, 7, 9, 8, 8, 9, 6, 8, 7, 8, 8, 8, 8, 6, 9, 7, 9, 8, 9, 8, 7, 9, 7, 8, 8, 7, 7, 6, 8, 7, 9, 9, 7, 8, 8, 8, 8, 8, 6, 8, 6, 8, 7, 7, 8, 9, 8, 8, 8, 9, 7, 8, 9, 8, 8, 7, 9, 8, 8, 8, 8, 7, 9, 8, 8, 8, 9, 6, 8, 7, 6, 7, 7, 8, 8, 9, 8, 6, 7, 8, 9, 9, 7, 8, 9, 7, 7, 9, 7, 9, 7, 8, 9, 8, 8, 8, 7, 8, 6, 7, 8, 9, 8, 6, 8, 6, 7, 7, 7, 8, 9, 9, 9, 8, 8, 7, 7, 7, 8, 10, 6, 8, 8, 9, 8, 8, 9, 8, 8, 8, 7, 8, 8, 8, 9, 10, 8, 8, 8, 8, 9, 7, 7, 8, 9, 7, 9, 8, 8, 8, 9, 7, 7, 8, 8, 9, 8, 9, 7, 8, 8, 8, 7, 8, 8, 7, 8, 7, 10, 7, 8, 8, 8, 8, 7, 8, 7, 8, 9, 6, 9, 7, 8, 9, 7, 10, 6, 7, 8, 9, 6, 9, 8, 8, 8, 9, 9, 8, 8, 8, 8, 9, 7, 8, 8, 8, 8, 9, 7, 8, 7, 9, 9, 7, 9, 9, 6, 8, 6, 8, 7, 8, 7, 8, 8, 7, 8, 7, 8, 8, 9, 6, 9, 7, 8, 9, 8, 6, 9, 7, 8, 7, 8, 9, 7, 8, 6, 8, 6, 7, 7, 8, 8, 7, 8, 8, 8, 7, 8, 9, 8, 7, 8, 8, 7, 9, 8, 7, 7, 6, 8, 8, 9, 10, 7, 8, 9, 7, 8, 8, 9, 6, 9, 8, 10, 8, 8, 9, 6, 8, 7, 7, 6, 8, 7, 8, 10, 8, 8, 9, 9, 7, 9, 8, 8, 9, 6, 8, 7, 8, 8, 8, 8, 6, 9, 7, 9, 8, 9, 8, 7, 9, 7, 8, 8, 7, 7, 6, 8, 7, 9, 9, 7, 8, 8, 8, 8, 8, 6, 8, 6, 8, 7, 7, 8, 9, 8, 8, 8, 9, 7, 8, 9, 8, 8, 7, 9, 8, 8, 8, 8, 7, 9, 8, 8, 8, 9, 6, 8, 7, 6, 7, 7, 8, 8, 9, 8, 6, 7, 8, 9, 9, 7, 8, 9, 7, 7, 9, 7, 9, 7, 8, 9, 8, 8, 8, 7, 8, 6, 7, 8, 9, 8, 6, 8, 6, 7, 7, 7, 8, 9, 9, 9, 8, 8, 7, 7, 7, 8, 10, 6, 8, 8, 9, 8, 8, 9, 8, 8, 8, 7, 8, 8, 8, 9, 10, 8, 8, 8, 8, 9, 7, 8, 9, 7, 8, 9, 8, 7, 8, 8, 7, 8, 7, 7, 7, 8, 8, 8, 8, 7, 8, 6, 7, 9, 8, 8, 9, 9, 8, 8, 8, 8, 9, 7, 7, 9, 9, 8, 8, 7, 8, 7, 8, 6, 7, 8, 8, 6, 7, 8, 7, 8, 8, 8, 7, 7, 8, 8, 7, 9, 7, 8, 7, 8, 10, 7, 8, 7, 8, 6, 8, 8, 7, 6, 7, 8, 8, 8, 8, 8, 7, 8, 8, 7, 9, 8, 8, 8, 9, 8, 8, 6, 7, 8, 8, 7, 8, 7, 9, 8, 8, 7, 6, 7, 8, 8, 6, 7, 8, 9, 7, 9, 7, 7, 9, 7, 8, 7, 8, 7, 8, 8, 6, 7, 7, 9, 8, 6, 8, 9, 8, 9, 8, 8, 8, 9, 8, 8, 9, 9, 7, 8, 8, 8, 9, 8, 9, 8, 8, 8, 10, 8, 8, 7, 7, 9, 6, 9, 9, 7, 10, 8, 6, 9, 8, 8, 8, 9, 7, 8, 8, 8, 9, 7, 9, 6, 8, 6, 8, 7, 7, 8, 8, 9, 9, 9, 9, 9, 7, 6, 6, 8, 8, 7, 8, 8, 8, 8, 8, 7, 9, 7, 6, 8, 9, 9, 8, 9, 9, 8, 10, 9, 6, 8, 7, 8, 10, 9, 9, 7, 9, 9, 6, 8, 8, 8, 6, 9, 8, 9, 7, 9, 7, 7, 7, 6, 8, 7, 9, 7, 8, 8, 8, 6, 8, 8, 7, 8, 9, 8, 9, 8, 9, 8, 8, 8, 9, 8, 8, 8, 9, 6, 8, 7, 7, 9, 8, 9, 8, 9, 7, 9, 8, 8, 8, 6, 9, 6, 8, 7, 8, 9, 9, 8, 8, 7, 7, 7, 10, 8, 8, 8, 8, 7, 8, 10, 8, 8, 7, 8, 9, 7, 8, 9, 8, 7, 8, 8, 7, 8, 7, 7, 7, 8, 8, 8, 8, 7, 8, 6, 7, 9, 8, 8, 9, 9, 8, 8, 8, 8, 9, 7, 7, 9, 9, 8, 8, 7, 8, 7, 8, 6, 7, 8, 8, 6, 7, 8, 7, 8, 8, 8, 7, 7, 8, 8, 7, 9, 7, 8, 7, 8, 10, 7, 8, 7, 8, 6, 8, 8, 7, 6, 7, 8, 8, 8, 8, 8, 7, 8, 8, 7, 9, 8, 8, 8, 9, 8, 8, 6, 7, 8, 8, 7, 8, 7, 9, 8, 8, 7, 6, 7, 8, 8, 6, 7, 8, 9, 7, 9, 7, 7, 9, 7, 8, 7, 8, 7, 8, 8, 6, 7, 7, 9, 8, 6, 8, 9, 8, 9, 8, 8, 8, 9, 8, 8, 9, 9, 8, 9, 8, 8, 10, 9, 8, 8, 9, 8, 9, 9, 8, 8, 9, 9, 8, 8, 8, 8, 9, 10, 9, 8, 9, 8, 7, 9, 7, 8, 8, 8, 8, 8, 9, 9, 9, 9, 9, 10, 8, 8, 8, 8, 10, 8, 7, 9, 7, 8, 8, 8, 9, 8, 9, 8, 8, 8, 10, 8, 8, 7, 7, 9, 6, 9, 9, 7, 10, 8, 6, 9, 8, 8, 8, 9, 7, 8, 8, 8, 9, 7, 9, 6, 8, 6, 8, 7, 7, 8, 8, 9, 9, 9, 9, 9, 7, 6, 6, 8, 8, 7, 8, 8, 8, 8, 8, 7, 9, 7, 6, 8, 9, 9, 8, 9, 9, 8, 10, 9, 6, 8, 7, 8, 10, 9, 9, 7, 9, 9, 6, 8, 8, 8, 6, 9, 8, 9, 7, 9, 7, 7, 7, 6, 8, 7, 9, 7, 8, 8, 8, 6, 8, 8, 7, 8, 9, 8, 9, 8, 9, 8, 8, 8, 9, 8, 8, 8, 9, 6, 8, 7, 7, 9, 8, 9, 8, 9, 7, 9, 8, 8, 8, 6, 9, 6, 8, 7, 8, 9, 9, 8, 8, 7, 7, 7, 10, 8, 8, 8, 8, 7, 8, 10, 8, 8, 7, 7, 8, 8, 9, 8, 8, 8, 8, 7, 7, 6, 9, 9, 7, 10, 8, 6, 9, 8, 7, 8, 8, 7, 6, 8, 6, 8, 7, 7, 9, 9, 9, 7, 6, 6, 8, 7, 8, 8, 8, 7, 9, 7, 6, 8, 9, 9, 9, 9, 8, 10, 6, 8, 7, 8, 9, 9, 7, 9, 6, 8, 8, 6, 9, 9, 7, 7, 7, 6, 8, 7, 8, 6, 8, 8, 7, 8, 9, 9, 8, 9, 8, 8, 9, 8, 8, 6, 8, 7, 7, 8, 8, 7, 9, 8, 8, 8, 6, 9, 6, 8, 7, 8, 9, 8, 8, 7, 7, 7, 8, 7, 8, 7, 8, 8, 9, 8, 8, 8, 8, 7, 7, 6, 9, 9, 7, 10, 8, 6, 9, 8, 7, 8, 8, 7, 6, 8, 6, 8, 7, 7, 9, 9, 9, 7, 6, 6, 8, 7, 8, 8, 8, 7, 9, 7, 6, 8, 9, 9, 9, 9, 8, 10, 6, 8, 7, 8, 9, 9, 7, 9, 6, 8, 8, 6, 9, 9, 7, 7, 7, 6, 8, 7, 8, 6, 8, 8, 7, 8, 9, 9, 8, 9, 8, 8, 9, 8, 8, 6, 8, 7, 7, 8, 8, 7, 9, 8, 8, 8, 6, 9, 6, 8, 7, 8, 9, 8, 8, 7, 7, 7, 8, 7, 8, 9, 8, 8, 10, 9, 8, 8, 9, 8, 9, 8, 9, 9, 8, 8, 8, 8, 10, 9, 9, 7, 9, 8, 8, 8, 9, 9, 10, 8, 8, 10, 8, 9, 8, 8, 10, 9, 8, 8, 9, 8, 9, 8, 9, 9, 8, 8, 8, 8, 10, 9, 9, 7, 9, 8, 8, 8, 9, 9, 10, 8, 8, 10, 8, 9, 8, 9, 8, 8, 10, 9, 8, 8, 9, 8, 9, 9, 8, 8, 9, 9, 8, 8, 8, 8, 9, 10, 9, 8, 9, 8, 7, 9, 7, 8, 8, 8, 8, 8, 9, 9, 9, 9, 9, 10, 8, 8, 8, 10, 8, 7, 8, 9, 9, 8, 9, 8, 8, 8, 8, 9, 9, 9, 8, 7, 8, 9, 9, 8, 9, 8, 8, 8, 8, 9, 9, 9, 8, 7, 8, 9, 9, 8, 9, 8, 8, 8, 8, 9, 9, 9, 8, 7, 8, 9, 7, 8, 9, 8, 7, 8, 8, 7, 8, 7, 7, 7, 8, 8, 8, 8, 7, 8, 6, 7, 9, 8, 8, 9, 9, 8, 8, 8, 8, 9, 7, 7, 9, 9, 8, 8, 7, 8, 7, 8, 6, 7, 8, 8, 6, 7, 8, 7, 8, 8, 8, 7, 7, 8, 8, 7, 9, 7, 8, 7, 8, 10, 7, 8, 7, 8, 6, 8, 8, 7, 6, 7, 8, 8, 8, 8, 8, 7, 8, 8, 7, 9, 8, 8, 8, 9, 8, 8, 6, 7, 8, 8, 7, 8, 7, 9, 8, 8, 7, 6, 7, 8, 8, 6, 7, 8, 9, 7, 9, 7, 7, 9, 7, 8, 7, 8, 7, 8, 8, 6, 7, 7, 9, 8, 6, 8, 9, 8, 9, 8, 8, 8, 9, 8, 8, 9, 8, 8, 7, 8, 8, 8, 7, 8, 9, 8, 7, 9, 8, 7, 8, 8, 6, 8, 7, 8, 7, 7, 7, 7, 8, 8, 8, 6, 8, 8, 8, 8, 9, 8, 8, 9, 7, 7, 8, 7, 8, 7, 7, 7, 7, 8, 8, 8, 7, 8, 8, 8, 9, 8, 9, 7, 9, 7, 8, 7, 7, 7, 8, 8, 8, 7, 6, 9, 8, 9, 8, 8, 8, 9, 7, 9, 8, 8, 7, 6, 7, 8, 7, 8, 8, 7, 8, 8, 9, 7, 8, 8, 10, 7, 6, 8, 7, 7, 8, 8, 7, 8, 7, 8, 8, 9, 8, 8, 6, 7, 8, 7, 8, 7, 8, 8, 6, 8, 6, 9, 9, 9, 7, 7, 8, 6, 7, 9, 8, 6, 9, 9, 8, 8, 8, 9, 8, 8, 7, 8, 8, 8, 7, 8, 9, 8, 7, 9, 8, 7, 8, 8, 6, 8, 7, 8, 7, 7, 7, 7, 8, 8, 8, 6, 8, 8, 8, 8, 9, 8, 8, 9, 7, 7, 8, 7, 8, 7, 7, 7, 7, 8, 8, 8, 7, 8, 8, 8, 9, 8, 9, 7, 7, 7, 8, 8, 8, 7, 6, 9, 8, 8, 8, 8, 7, 8, 8, 7, 7, 8, 8, 7, 8, 9, 7, 8, 8, 10, 7, 6, 8, 7, 7, 8, 7, 8, 8, 8, 9, 8, 6, 7, 8, 7, 8, 7, 8, 6, 8, 6, 9, 9, 7, 7, 8, 6, 7, 9, 8, 8, 9, 9, 7, 7, 7, 8, 8, 8, 7, 6, 9, 8, 8, 8, 8, 7, 8, 8, 7, 7, 8, 8, 7, 8, 9, 7, 8, 8, 10, 7, 6, 8, 7, 7, 8, 7, 8, 8, 8, 9, 8, 6, 7, 8, 7, 8, 7, 8, 6, 8, 6, 9, 9, 7, 7, 8, 6, 7, 9, 8, 8, 9, 9, 7, 9, 7, 8, 7, 7, 7, 8, 8, 8, 7, 6, 9, 8, 9, 8, 8, 8, 9, 7, 9, 8, 8, 7, 6, 7, 8, 7, 8, 8, 7, 8, 8, 9, 7, 8, 8, 10, 7, 6, 8, 7, 7, 8, 8, 7, 8, 7, 8, 8, 9, 8, 8, 6, 7, 8, 7, 8, 7, 8, 8, 6, 8, 6, 9, 9, 9, 7, 7, 8, 6, 7, 9, 8, 6, 9, 9, 8, 8, 8, 9, 7, 9, 8, 7, 9, 9, 9, 7, 6, 8, 8, 8, 7, 8, 8, 9, 6, 9, 9, 8, 8, 7, 9, 8, 7, 9, 9, 9, 7, 6, 8, 8, 8, 7, 8, 8, 9, 6, 9, 9, 8, 8, 8, 7, 8, 8, 7, 8, 9, 8, 7, 9, 8, 8, 6, 8, 7, 7, 7, 7, 8, 8, 6, 8, 8, 8, 8, 9, 8, 8, 9, 7, 7, 8, 7, 7, 7, 7, 8, 8, 7, 8, 8, 8, 9, 8, 8, 8, 7, 8, 8, 8, 7, 8, 9, 8, 7, 9, 8, 7, 8, 8, 6, 8, 7, 8, 7, 7, 7, 7, 8, 8, 8, 6, 8, 8, 8, 8, 9, 8, 8, 9, 7, 7, 8, 7, 8, 7, 7, 7, 7, 8, 8, 8, 7, 8, 8, 8, 9, 8, 8, 7, 8, 7, 8, 8, 8, 7, 8, 7, 8, 8, 8, 6, 9, 7, 10, 9, 8, 7, 7, 8, 6, 8, 7, 7, 8, 7, 8, 7, 9, 6, 8, 9, 8, 10, 6, 8, 7, 9, 7, 9, 6, 8, 6, 9, 9, 7, 7, 6, 8, 7, 8, 8, 7, 9, 9, 9, 8, 8, 6, 8, 7, 8, 7, 8, 8, 8, 8, 9, 8, 8, 7, 7, 7, 8, 7, 8, 7, 8, 8, 8, 6, 9, 7, 10, 9, 8, 7, 7, 8, 6, 8, 7, 7, 8, 7, 8, 7, 9, 6, 8, 9, 8, 10, 6, 8, 7, 9, 7, 9, 6, 8, 6, 9, 9, 7, 7, 6, 8, 7, 8, 8, 7, 9, 9, 9, 8, 8, 6, 8, 7, 8, 7, 8, 8, 8, 8, 9, 8, 8, 7, 7, 7, 8, 7, 8, 7, 8, 8, 9, 8, 8, 8, 8, 7, 7, 6, 9, 9, 7, 10, 8, 6, 9, 8, 7, 8, 8, 7, 6, 8, 6, 8, 7, 7, 9, 9, 9, 7, 6, 6, 8, 7, 8, 8, 8, 7, 9, 7, 6, 8, 9, 9, 9, 9, 8, 10, 6, 8, 7, 8, 9, 9, 7, 9, 6, 8, 8, 6, 9, 9, 7, 7, 7, 6, 8, 7, 8, 6, 8, 8, 7, 8, 9, 9, 8, 9, 8, 8, 9, 8, 8, 6, 8, 7, 7, 8, 8, 7, 9, 8, 8, 8, 6, 9, 6, 8, 7, 8, 9, 8, 8, 7, 7, 7, 8, 7, 8, 9, 8, 8, 8, 7, 7, 9, 8, 6, 8, 8, 6, 7, 9, 9, 9, 6, 6, 8, 8, 7, 9, 9, 9, 8, 9, 8, 7, 6, 8, 8, 8, 8, 8, 9, 7, 8, 9, 6, 9, 6, 7, 8, 9, 8, 8, 8, 7, 7, 9, 8, 6, 8, 8, 6, 7, 9, 9, 9, 6, 6, 8, 8, 7, 9, 9, 9, 8, 9, 8, 7, 6, 8, 8, 8, 8, 8, 9, 7, 8, 9, 6, 9, 6, 7, 8, 9, 8, 8, 10, 9, 8, 8, 9, 8, 9, 8, 9, 9, 8, 8, 8, 8, 10, 9, 9, 7, 9, 8, 8, 8, 9, 9, 10, 8, 8, 10, 8, 7, 8, 7, 7, 7, 8, 8, 8, 8, 8, 7, 7, 7, 7, 7, 7, 8, 8, 8] p=0.99"]
S154 -> S157 [label="1 [5, 5, 5, 5, 5, 5, 5, 5, 5, 5] p=1.0"]
S157 -> S1 [label="2 [1, 1, 1, 1, 1, 1, 1, 1, 1, 1, 1, 1, 1, 1, 1, 1, 1, 1, 1, 1, 1, 1, 1, 1, 1, 1, 1, 1, 1] p=1.0"]