S0 -> S1 [label="2 [0, 0, 0, 0, 0, 0, 0, 0, 0, 0, 0, 0, 0, 0, 0, 0, 0, 0, 0, 0, 0, 0, 0, 0, 0, 0, 0, 0, 0, 0, 0, 0, 0, 0, 0, 0, 0, 0, 0, 0, 0, 0, 0, 0, 0, 0, 0, 0, 0, 0, 0, 0, 0, 0, 0, 0, 0, 0, 0, 0, 0, 0, 0, 0, 0, 0, 0, 0, 0, 0, 0, 0, 0, 0, 0, 0, 0, 0, 0, 0, 0, 0, 0, 0, 0, 0, 0, 0, 0, 0, 0, 0, 0, 0, 0, 0, 0, 0, 0, 0, 0, 0, 0, 0, 0, 0, 0, 0, 0, 0, 0, 0, 0, 0, 0, 0, 0, 0, 0, 0, 0, 0, 0, 0, 0, 0, 0, 0, 0, 0, 0, 0, 0, 0, 0, 0, 0, 0, 0, 0, 0, 0, 0, 0, 0, 0, 0, 0, 0, 0, 0, 0, 0, 0, 0, 0, 0, 0, 0, 0, 0, 0, 0, 0, 0, 0, 0, 0, 0, 0, 0, 0, 0, 0, 0, 0, 0, 0, 0, 0, 0, 0, 0, 0, 0, 0, 0, 0, 0, 0, 0, 0, 0, 0, 0, 0, 0, 0, 0, 0, 0, 0, 0, 0, 0, 0, 0, 0, 0, 0, 0, 0, 0, 0, 0, 0, 0, 0, 0, 0, 0, 0, 0, 0, 0, 0, 0, 0, 0, 0, 0, 0, 0, 0, 0, 0, 0, 0, 0, 0, 0, 0, 0, 0, 0, 0, 0, 0, 0, 0, 0, 0, 0, 0, 0, 0, 0, 0, 0, 0, 0, 0, 0, 0, 0, 0, 0, 0, 0, 0, 0, 0, 0, 0, 0, 0, 0, 0, 0, 0, 0, 0, 0, 0, 0, 0, 0, 0, 0, 0, 0, 0, 0, 0, 0, 0, 0, 0, 0, 0, 0, 0, 0, 0, 0, 0, 0, 0, 0, 0, 0, 0, 0, 0, 0, 0, 0, 0, 0, 0, 0, 0, 0, 0, 0, 0, 0, 0, 0, 0, 0, 0, 0, 0, 0, 0, 0, 0, 0, 0, 0, 0, 0, 0, 0, 0, 0, 0, 0, 0, 0, 0, 0, 0, 0, 0, 0, 0, 0, 0, 0, 0, 0, 0, 0, 0, 0, 0, 0, 0, 0, 0, 0, 0, 0, 0, 0, 0, 0, 0, 0, 0, 0, 0, 0, 0, 0, 0, 0, 0, 0, 0, 0, 0, 0, 0, 0, 0, 0, 0, 0, 0, 0, 0, 0, 0, 0, 0, 0, 0, 0, 0, 0, 0, 0, 0, 0, 0, 0, 0, 0, 0, 0, 0, 0, 0, 0, 0, 0, 0, 0, 0, 0, 0, 0, 0, 0, 0, 0, 0, 0, 0, 0, 0, 0, 0, 0, 0, 0, 0, 0, 0, 0, 0, 0, 0, 0, 0, 0, 0, 0, 0, 0, 0, 0, 0, 0, 0, 0, 0, 0, 0, 0, 0, 0, 0, 0, 0, 0, 0, 0, 0, 0, 0, 0, 0, 0, 0, 0, 0, 0, 0, 0, 0, 0, 0, 0, 0, 0, 0, 0, 0, 0, 0, 0, 0, 0, 0, 0, 0, 0, 0, 0, 0, 0, 0, 0, 0, 0, 0, 0, 0, 0, 0, 0, 0, 0, 0, 0, 0, 0, 0, 0, 0, 0, 0, 0, 0, 0, 0, 0, 0, 0, 0, 0, 0, 0, 0, 0, 0, 0, 0, 0, 0, 0, 0, 0, 0, 0, 0, 0, 0, 0, 0, 0, 0, 0, 0, 0, 0, 0, 0, 0, 0, 0, 0, 0, 0, 0, 0, 0, 0, 0, 0, 0, 0, 0, 0, 0, 0, 0, 0, 0, 0, 0, 0, 0, 0, 0, 0, 0, 0, 0, 0, 0, 0, 0, 0, 0, 0, 0, 0, 0, 0, 0, 0, 0, 0, 0, 0, 0, 0, 0, 0, 0, 0, 0, 0, 0, 0, 0, 0, 0, 0, 0, 0, 0, 0, 0, 0, 0, 0, 0, 0, 0, 0, 0, 0, 0, 0, 0, 0, 0, 0, 0, 0, 0, 0, 0, 0, 0, 0, 0, 0, 0, 0, 0, 0, 0, 0, 0, 0, 0, 0, 0, 0, 0, 0, 0, 0, 0, 0, 0, 0, 0, 0, 0, 0, 0, 0, 0, 0, 0, 0, 0, 0, 0, 0, 0, 0, 0, 0, 0, 0, 0, 0, 0, 0, 0, 0, 0, 0, 0, 0, 0, 0, 0, 0, 0, 0, 0, 0, 0] p=0.45"]
S0 -> S2 [label="1 [0, 0, 0, 0, 0, 0, 0, 0, 0, 0, 0, 0, 0, 0, 0, 0, 0, 0, 0, 0, 0, 0, 0, 0, 0, 0, 0, 0, 0, 0, 0, 0, 0, 0, 0, 0, 0, 0, 0, 0, 0, 0, 0, 0, 0, 0, 0, 0, 0, 0, 0, 0, 0, 0, 0, 0, 0, 0, 0, 0, 0, 0, 0, 0, 0, 0, 0, 0, 0, 0, 0, 0, 0, 0, 0, 0, 0, 0, 0, 0, 0, 0, 0, 0, 0, 0, 0, 0, 0, 0, 0, 0, 0, 0, 0, 0, 0, 0, 0, 0, 0, 0, 0, 0, 0, 0, 0, 0, 0, 0, 0, 0, 0, 0, 0, 0, 0, 0, 0, 0, 0, 0, 0, 0, 0, 0, 0, 0, 0, 0, 0, 0, 0, 0, 0, 0, 0, 0, 0, 0, 0, 0, 0, 0, 0, 0, 0, 0, 0, 0, 0, 0, 0, 0, 0, 0, 0, 0, 0, 0, 0, 0, 0, 0, 0, 0, 0, 0] p=0.1"]
S0 -> S78 [label="5 [0, 0, 0, 0, 0, 0, 0, 0, 0, 0, 0, 0, 0, 0, 0, 0, 0, 0, 0, 0, 0, 0, 0, 0, 0, 0, 0, 0, 0, 0, 0, 0, 0, 0, 0, 0, 0, 0, 0, 0, 0, 0, 0, 0, 0, 0, 0, 0, 0, 0, 0, 0, 0, 0, 0, 0, 0, 0, 0, 0, 0, 0, 0, 0, 0, 0, 0, 0, 0, 0, 0, 0, 0, 0, 0, 0, 0, 0, 0, 0, 0, 0, 0, 0, 0, 0, 0, 0, 0, 0, 0, 0, 0, 0, 0, 0, 0, 0, 0, 0, 0, 0, 0, 0, 0, 0, 0, 0, 0, 0, 0, 0, 0, 0, 0, 0, 0, 0, 0, 0, 0, 0, 0, 0, 0, 0, 0, 0, 0, 0, 0, 0, 0, 0, 0, 0, 0, 0, 0, 0, 0, 0, 0, 0, 0, 0, 0, 0, 0, 0, 0, 0, 0, 0, 0, 0, 0, 0, 0, 0, 0, 0, 0, 0, 0, 0, 0, 0, 0, 0, 0, 0, 0, 0, 0, 0, 0, 0, 0, 0, 0, 0, 0, 0, 0, 0, 0, 0, 0, 0, 0, 0, 0, 0, 0, 0, 0, 0, 0, 0, 0, 0, 0, 0, 0, 0, 0, 0, 0, 0, 0, 0, 0, 0, 0, 0, 0, 0, 0, 0, 0, 0, 0, 0, 0, 0, 0, 0, 0, 0, 0, 0, 0, 0, 0, 0, 0, 0, 0, 0, 0, 0, 0, 0, 0, 0, 0, 0, 0, 0, 0, 0, 0, 0, 0, 0, 0, 0, 0, 0, 0, 0] p=0.16"]
S0 -> S144 [label="4 [0, 0, 0, 0, 0, 0, 0, 0, 0, 0, 0, 0, 0, 0, 0, 0, 0, 0, 0, 0, 0, 0, 0, 0, 0, 0, 0, 0, 0, 0, 0, 0, 0, 0, 0, 0, 0, 0, 0, 0, 0, 0, 0, 0, 0, 0, 0, 0, 0, 0, 0, 0, 0, 0, 0, 0, 0, 0, 0, 0, 0, 0, 0, 0, 0, 0, 0, 0, 0, 0, 0, 0, 0, 0, 0, 0, 0, 0, 0, 0, 0, 0, 0, 0, 0, 0, 0, 0, 0, 0, 0, 0, 0, 0, 0, 0, 0, 0, 0, 0, 0, 0, 0, 0, 0, 0, 0, 0, 0, 0, 0, 0, 0, 0, 0, 0, 0, 0, 0, 0, 0, 0, 0, 0, 0, 0, 0, 0, 0, 0, 0, 0, 0, 0, 0, 0, 0, 0, 0, 0, 0, 0, 0, 0, 0, 0, 0, 0, 0, 0, 0, 0, 0, 0, 0, 0, 0, 0, 0, 0, 0, 0, 0, 0, 0, 0, 0, 0, 0, 0, 0, 0, 0, 0, 0, 0, 0, 0, 0, 0, 0, 0, 0] p=0.11"]
S0 -> S264 [label="3 [0, 0, 0, 0, 0, 0, 0, 0, 0, 0, 0, 0, 0, 0, 0, 0, 0, 0, 0, 0, 0, 0, 0, 0, 0, 0, 0, 0, 0, 0, 0, 0, 0, 0, 0, 0, 0, 0, 0, 0, 0, 0, 0, 0, 0, 0, 0, 0, 0, 0, 0, 0, 0, 0, 0, 0, 0, 0, 0, 0, 0, 0, 0, 0, 0, 0, 0, 0, 0, 0, 0, 0, 0, 0, 0, 0, 0, 0, 0, 0, 0, 0, 0, 0, 0, 0, 0, 0, 0, 0, 0, 0, 0, 0, 0, 0, 0, 0, 0, 0, 0, 0, 0, 0, 0, 0, 0, 0, 0, 0, 0, 0, 0, 0, 0, 0, 0, 0, 0, 0, 0, 0, 0, 0, 0, 0, 0, 0, 0, 0, 0, 0, 0, 0, 0, 0, 0, 0, 0, 0, 0, 0, 0, 0, 0, 0, 0, 0, 0, 0, 0, 0, 0, 0, 0, 0, 0, 0, 0, 0, 0, 0, 0, 0, 0, 0, 0, 0, 0, 0, 0, 0, 0, 0, 0, 0, 0, 0, 0, 0, 0, 0, 0, 0, 0, 0, 0, 0, 0, 0, 0, 0, 0, 0, 0, 0, 0, 0, 0, 0, 0, 0, 0, 0, 0, 0, 0, 0, 0, 0, 0, 0, 0, 0, 0, 0, 0, 0, 0, 0, 0, 0, 0, 0, 0, 0, 0, 0, 0, 0, 0, 0, 0, 0, 0, 0, 0, 0, 0, 0, 0, 0, 0, 0, 0, 0, 0, 0, 0, 0, 0, 0, 0, 0, 0, 0, 0, 0, 0, 0, 0, 0, 0, 0, 0, 0, 0, 0, 0, 0, 0, 0, 0, 0, 0, 0, 0, 0, 0] p=0.17"]
S0 -> S2 [label="6 [0] p=0.0"]
S1 -> S2 [label="1 [3, 7, 6, 7, 8, 13, 36, 5, 5, 19, 12, 9, 3, 4, 4, 3, 15, 17, 3, 5, 5, 15, 3, 6, 3, 2, 10, 3, 4, 6, 2, 2, 3, 1, 2, 3, 1, 3, 5, 2, 4, 3, 2, 3, 8, 19, 4, 41, 22, 2, 35, 21, 4, 4, 3, 123, 5, 399, 354, 191, 146, 124, 16, 113, 18, 114, 190, 474, 224, 51, 170, 35, 76, 679, 181, 110, 329, 46, 43, 45, 25, 32, 70, 13, 167, 108, 22, 9, 4, 7, 10, 2, 3, 4, 5, 48, 5, 7, 14, 4, 15, 4, 4, 5, 1, 3, 3, 2, 15, 3, 5, 2, 6, 4, 2, 7, 10, 10, 2, 2, 3, 3, 2, 2, 5, 8, 2, 2, 3, 2, 5, 1, 1, 3, 3, 4, 5, 5, 5, 3, 7, 6, 3, 3, 2, 2, 4, 5, 5, 3, 2, 3, 2, 7, 3, 3, 2, 5, 3, 2, 5, 1, 1, 3, 2, 3, 2] p=0.23"]
S1 -> S68 [label="5 [457, 71, 15, 52, 111, 82, 46, 21, 88, 32, 10, 15, 27, 33, 4, 7, 15, 48, 9, 27, 21, 7, 15, 81, 46, 8, 3, 4, 7, 4, 3, 4, 3, 3, 34, 14, 35, 7, 23, 71, 5, 5, 17, 121, 21, 68, 21, 22, 104, 3, 3, 107, 2, 6, 237, 48, 10, 20, 16, 8, 24, 35, 4, 3, 4, 8, 6, 3, 12, 18, 115, 67, 14, 8, 7, 8, 3, 10, 24, 4, 6, 3, 4, 2, 8, 5, 10, 4, 5, 39, 8, 4, 33, 49, 36, 16, 17, 2, 42, 42, 5, 58, 20, 5, 10, 150, 23, 18, 16, 5, 132, 3, 11, 10, 35, 14, 22, 83, 95, 209, 5, 4, 721, 9, 31, 89, 90, 672, 149, 13, 318, 102, 110, 47, 93, 175, 90, 48, 60, 40, 50, 102, 35, 24, 3, 7, 106, 82, 24, 32, 12, 23, 9, 10, 11, 4, 38, 26, 103, 10, 56, 17, 2, 19, 57, 18, 3, 41, 77, 4, 5, 3, 10, 93, 15, 61, 95, 12, 17, 3, 4, 11, 130, 5, 33, 3, 16, 22, 40, 16, 38, 33, 45, 129, 6, 19, 179, 4, 35, 9, 15, 6, 194, 538] p=0.28"]
S1 -> S134 [label="4 [10, 215, 305, 79, 6, 143, 34, 72, 15, 11, 16, 62, 4, 8, 96, 96, 12, 58, 30, 4, 6, 161, 150, 5, 29, 20, 4, 35, 35, 146, 15, 83, 38, 3, 2, 6, 13, 3, 5, 8, 15, 10, 3, 4, 14, 8, 18, 6, 4, 8, 8, 25, 4, 19, 245, 36, 33, 17, 22, 24, 76, 4, 105, 4, 185, 18, 37, 3, 18, 108, 40, 71, 54, 141, 122, 18, 4, 13, 75, 79, 346, 147, 159, 63, 30, 92, 16, 26, 258, 145, 12, 21, 11, 64, 41, 44, 20, 5, 53, 44, 5, 16, 77, 63, 41, 17, 96, 8, 179, 70, 41, 6, 32, 101, 20, 68, 18, 15, 27, 21, 14, 61, 4, 20, 11, 6, 22, 382, 49, 142, 6, 9, 30, 29, 52, 10, 8, 56, 63, 17, 2, 6, 6, 4, 183] p=0.2"]
S1 -> S264 [label="3 [21, 70, 115, 27, 31, 124, 92, 13, 74, 27, 13, 41, 1, 25, 59, 29, 41, 101, 7, 89, 59, 126, 145, 6, 16, 8, 10, 9, 140, 26, 91, 11, 66, 34, 87, 18, 10, 17, 216, 3, 8, 5, 19, 12, 4, 14, 3, 4, 31, 151, 2, 24, 3, 56, 17, 4, 17, 5, 20, 10, 9, 2, 10, 3, 9, 5, 108, 35, 29, 40, 11, 6, 48, 19, 14, 18, 230, 4, 80, 22, 101, 10, 11, 32, 83, 101, 20, 54, 169, 34, 100, 128, 166, 353, 194, 792, 337, 8, 118, 50, 5, 80, 163, 224, 21, 245, 56, 268, 67, 143, 241, 246, 13, 128, 53, 33, 63, 33, 277, 40, 161, 26, 90, 21, 43, 120, 10, 4, 71, 8, 11, 16, 25, 83, 52, 18, 70, 29, 9, 50, 5, 10, 32, 6, 13, 57, 5, 20, 155, 29, 6, 36, 183, 43, 66, 28, 6, 34, 45, 2, 105, 29, 13, 2, 93, 26, 115, 43, 94, 5, 125, 3, 5, 66, 64, 14, 56, 28, 5, 10, 52, 12, 25, 78, 14, 27, 88, 4, 16, 14, 94, 36, 15, 43, 7, 45, 11, 21, 21, 38, 3, 6, 18, 5, 99, 22, 12] p=0.29"]
S78 -> S2 [label="2 [1, 1, 3, 4, 4, 2, 2, 4, 4, 3, 2, 2, 3, 4, 3, 2, 5, 9, 3, 3, 3, 3, 5, 27, 10, 9, 2, 4, 5, 3, 21, 3, 4, 2, 2, 3, 3, 14, 4, 2, 7, 3, 2, 3, 4, 8, 8, 2, 4, 4, 5, 8, 11, 3, 7, 6, 5, 6, 9, 4, 6, 5, 2, 8, 3, 5, 3, 5, 7, 37, 5, 9, 14, 8, 4, 31, 14, 26, 39, 3, 4, 3, 3, 4, 2, 5, 3, 3, 2, 4, 2, 2, 3, 5, 3, 2, 3, 3, 2, 2, 4, 4, 3, 7, 2, 2, 4, 2, 2, 1, 1, 2, 3, 3, 2, 4, 2, 3, 2, 2, 2, 3, 2, 3, 4, 2, 3, 5, 4, 4, 3, 2, 3, 4, 3, 4, 2, 3, 2, 3, 7, 7, 3, 4, 2, 4, 2, 4, 4, 3, 3, 2, 3, 6, 4, 2, 2, 1, 4, 2, 3, 5, 2, 3, 3, 4, 2, 3, 3, 1, 2, 2, 5, 8, 8, 4, 3, 3, 3, 2] p=0.69"]
S78 -> S427 [label="3 [4, 3, 1, 3, 2, 6, 3, 7, 6, 6, 7, 4, 3, 9, 5, 3, 5, 17, 5, 3, 5, 14, 4, 7, 6, 3, 16, 4, 4, 4, 5, 104, 7, 9, 6, 2, 2, 3, 2, 2, 3, 3, 2, 6, 3, 2, 6, 2, 3, 3] p=0.19"]
S78 -> S1199 [label="4 [3, 7, 3, 7, 3, 3, 5, 6, 7, 12, 4, 2, 10, 11, 6, 8, 4, 3, 4, 9, 4, 5, 2, 3, 2, 2, 6, 4, 1, 6, 4] p=0.12"]
S78 -> S2 [label="6 [2] p=0.0"]
S144 -> S2 [label="1 [2] p=0.01"]
S144 -> S163 [label="2 [2, 2, 3, 4, 4, 6, 3, 3, 3, 4, 4, 8, 5, 17, 11, 2, 1, 13, 98, 71, 7, 4, 30, 5, 22, 34, 10, 7, 16, 114, 6, 10, 6, 13, 4, 21, 54, 24, 11, 95, 26, 56, 3, 40, 219, 11, 119, 269, 1, 80, 116, 198, 15, 31, 7, 5, 4, 15, 1, 3, 18, 8, 3, 20, 3, 1, 6, 4, 18, 5, 1, 7, 6, 1, 2, 3, 6, 2, 1, 5, 2, 2, 4, 3, 3, 3, 5, 3, 3, 2, 2, 2, 3, 2, 4, 2, 9, 4, 8, 5, 6, 6, 1, 4, 5, 4, 1, 10, 4, 2, 7, 3, 10, 6, 3, 2, 4, 2, 10, 4, 2, 4, 5, 4, 5, 1, 2, 4, 2, 4, 7, 14, 9, 3, 2, 4, 7, 5, 10, 3, 1, 2, 3, 3] p=0.79"]
S144 -> S2 [label="5 [1, 54, 23, 1, 1, 1, 5, 182, 128, 3, 18, 33, 2, 107, 1, 1, 1] p=0.09"]
S144 -> S2 [label="3 [10, 4, 41, 6, 1, 65, 50, 3, 61, 17, 3, 8, 9, 9, 3, 2, 2, 6, 7, 5, 20] p=0.11"]
S2 -> S2 [label="2 [13, 3, 5, 38, 5, 9, 27, 13, 21, 41, 3, 17, 18, 14, 9, 5, 6, 60, 26, 30, 3, 22, 98, 286, 163, 31, 205, 13, 153, 99, 192, 42, 550, 121, 400, 270, 37557, 123, 23, 45, 57, 79, 24, 82, 18, 9, 3, 6, 4, 7, 7, 20, 4, 7, 6, 10, 9, 9, 3, 1, 3, 2, 2, 3, 4, 2, 2, 1, 2, 2, 1, 3, 2, 3, 2, 4, 4, 7, 4, 2, 3, 8, 2, 9, 4, 8, 13, 4, 8, 81, 27, 23, 6, 65, 4, 47, 5, 34, 2, 93, 17, 5, 19, 46, 35, 20, 37, 7, 98, 51, 7, 42, 10, 51, 16, 16, 68, 70, 38, 42, 6, 10, 6, 20, 50, 657, 4, 241, 457, 70, 53800, 15087, 1561, 1234, 76239, 837, 234, 167, 172, 108, 12, 179, 130, 20, 146, 419, 104, 84, 34, 194, 763, 20, 236, 446, 178, 301, 960, 171, 554, 219, 3698, 692, 720, 409, 668, 2942, 13, 3, 5, 38, 5, 9, 27, 13, 21, 41, 3, 17, 18, 14, 9, 5, 6, 60, 26, 30, 3, 22, 98, 286, 163, 31, 205, 13, 153, 99, 192, 42, 550, 121, 400, 270, 37557, 123, 23, 45, 57, 79, 24, 82, 18, 9, 3, 6, 4, 7, 7, 20, 4, 7, 6, 10, 9, 9, 3, 1, 3, 2, 2, 3, 2, 4, 2, 2, 1, 2, 2, 1, 3, 2, 3, 2, 4, 4, 7, 4, 2, 3, 8, 2, 9, 4, 8, 13, 4, 8, 81, 27, 23, 6, 65, 4, 47, 5, 34, 2, 93, 17, 5, 19, 46, 35, 20, 37, 7, 98, 51, 7, 42, 10, 51, 16, 16, 68, 70, 38, 42, 6, 10, 6, 20, 50, 657, 4, 241, 457, 70, 53800, 15087, 1561, 1234, 76239, 837, 234, 167, 172, 108, 12, 179, 130, 20, 146, 419, 104, 84, 34, 194, 763, 20, 236, 446, 178, 301, 960, 171, 554, 219, 3698, 692, 720, 409, 668, 2942, 8, 48, 238, 27, 8, 12, 10, 7, 4, 13, 12, 4, 17, 173, 4, 3, 6, 22, 4, 20, 13, 173, 3, 6, 22, 4, 20, 13, 3, 5, 38, 5, 9, 27, 13, 21, 41, 3, 17, 18, 14, 9, 5, 6, 60, 26, 30, 3, 22, 98, 286, 163, 31, 205, 13, 153, 99, 192, 42, 550, 121, 400, 270, 37557, 123, 23, 45, 57, 79, 24, 82, 18, 9, 3, 6, 4, 7, 7, 20, 4, 7, 6, 10, 9, 9, 3, 3, 2, 2, 3, 2, 3, 4, 4, 7, 4, 2, 3, 8, 2, 9, 4, 8, 13, 4, 8, 81, 27, 23, 6, 65, 4, 47, 5, 34, 2, 93, 17, 5, 19, 46, 35, 20, 37, 7, 98, 51, 7, 42, 10, 51, 16, 16, 68, 70, 38, 42, 6, 10, 6, 20, 50, 657, 4, 241, 457, 70, 53800, 15087, 1561, 1234, 76239, 837, 234, 167, 172, 108, 12, 179, 130, 20, 146, 419, 104, 84, 34, 194, 763, 20, 236, 446, 178, 301, 960, 171, 554, 219, 3698, 692, 720, 409, 668, 2942, 3, 5, 38, 5, 9, 27, 13, 21, 41, 3, 17, 18, 14, 9, 5, 6, 60, 26, 30, 3, 22, 98, 286, 163, 31, 205, 13, 153, 99, 192, 42, 550, 121, 400, 270, 37557, 123, 23, 45, 57, 79, 24, 82, 18, 9, 3, 6, 4, 7, 7, 20, 4, 7, 6, 10, 9, 9, 3, 3, 2, 2, 3, 2, 3, 4, 4, 7, 4, 2, 3, 8, 2, 9, 4, 8, 13, 4, 8, 81, 27, 23, 6, 65, 4, 47, 5, 34, 2, 93, 17, 5, 19, 46, 35, 20, 37, 7, 98, 51, 7, 42, 10, 51, 16, 16, 68, 70, 38, 42, 6, 10, 6, 20, 50, 657, 4, 241, 457, 70, 53800, 15087, 1561, 1234, 76239, 837, 234, 167, 172, 108, 12, 179, 130, 20, 146, 419, 104, 84, 34, 194, 763, 20, 236, 446, 178, 301, 960, 171, 554, 219, 3698, 692, 720, 409, 668, 2942, 2, 2, 2, 5, 38, 5, 9, 27, 13, 21, 41, 3, 17, 18, 14, 9, 5, 6, 60, 26, 30, 3, 22, 98, 286, 163, 31, 205, 13, 153, 99, 192, 42, 550, 121, 400, 270, 37557, 123, 23, 45, 57, 79, 24, 82, 18, 9, 3, 6, 4, 7, 7, 20, 4, 7, 6, 10, 9, 9, 3, 2, 2, 3, 4, 7, 4, 2, 3, 8, 2, 9, 4, 8, 13, 4, 8, 81, 27, 23, 6, 65, 4, 47, 5, 34, 2, 93, 17, 5, 19, 46, 35, 20, 37, 7, 98, 51, 7, 42, 10, 51, 16, 16, 68, 70, 38, 42, 6, 10, 6, 20, 50, 657, 4, 241, 457, 70, 53800, 15087, 1561, 1234, 76239, 837, 234, 167, 172, 108, 12, 179, 130, 20, 146, 419, 104, 84, 34, 194, 763, 20, 236, 446, 178, 301, 960, 171, 554, 219, 3698, 692, 720, 409, 668, 2942, 5, 38, 5, 9, 27, 13, 21, 41, 3, 17, 18, 14, 9, 5, 6, 60, 26, 30, 3, 22, 98, 286, 163, 31, 205, 13, 153, 99, 192, 42, 550, 121, 400, 270, 37557, 123, 23, 45, 57, 79, 24, 82, 18, 9, 3, 6, 4, 7, 7, 20, 4, 7, 6, 10, 9, 9, 3, 2, 2, 3, 4, 7, 4, 2, 3, 8, 2, 9, 4, 8, 13, 4, 8, 81, 27, 23, 6, 65, 4, 47, 5, 34, 2, 93, 17, 5, 19, 46, 35, 20, 37, 7, 98, 51, 7, 42, 10, 51, 16, 16, 68, 70, 38, 42, 6, 10, 6, 20, 50, 657, 4, 241, 457, 70, 53800, 15087, 1561, 1234, 76239, 837, 234, 167, 172, 108, 12, 179, 130, 20, 146, 419, 104, 84, 34, 194, 763, 20, 236, 446, 178, 301, 960, 171, 554, 219, 3698, 692, 720, 409, 668, 2942, 38, 5, 9, 27, 13, 21, 41, 3, 17, 18, 14, 9, 5, 6, 60, 26, 30, 3, 22, 98, 286, 163, 31, 205, 13, 153, 99, 192, 42, 550, 121, 400, 270, 37557, 123, 23, 45, 57, 79, 24, 82, 18, 9, 3, 6, 4, 7, 7, 20, 4, 7, 6, 10, 9, 9, 3, 2, 3, 7, 4, 2, 3, 8, 2, 9, 4, 8, 13, 4, 8, 81, 27, 23, 6, 65, 4, 47, 5, 34, 2, 93, 17, 5, 19, 46, 35, 20, 37, 7, 98, 51, 7, 42, 10, 51, 16, 16, 68, 70, 38, 42, 6, 10, 6, 20, 50, 657, 4, 241, 457, 70, 53800, 15087, 1561, 1234, 76239, 837, 234, 167, 172, 108, 12, 179, 130, 20, 146, 419, 104, 84, 34, 194, 763, 20, 236, 446, 178, 301, 960, 171, 554, 219, 3698, 692, 720, 409, 668, 2942, 38, 5, 9, 27, 13, 21, 41, 3, 17, 18, 14, 9, 5, 6, 60, 26, 30, 3, 22, 98, 286, 163, 31, 205, 13, 153, 99, 192, 42, 550, 121, 400, 270, 37557, 123, 23, 45, 57, 79, 24, 82, 18, 9, 3, 6, 4, 7, 7, 20, 4, 7, 6, 10, 9, 9, 3, 2, 3, 7, 4, 2, 3, 8, 2, 9, 4, 8, 13, 4, 8, 81, 27, 23, 6, 65, 4, 47, 5, 34, 2, 93, 17, 5, 19, 46, 35, 20, 37, 7, 98, 51, 7, 42, 10, 51, 16, 16, 68, 70, 38, 42, 6, 10, 6, 20, 50, 657, 4, 241, 457, 70, 53800, 15087, 1561, 1234, 76239, 837, 234, 167, 172, 108, 12, 179, 130, 20, 146, 419, 104, 84, 34, 194, 763, 20, 236, 446, 178, 301, 960, 171, 554, 219, 3698, 692, 720, 409, 668, 2942, 5, 9, 27, 13, 21, 41, 3, 17, 18, 14, 9, 5, 6, 60, 26, 30, 3, 22, 98, 286, 163, 31, 205, 13, 153, 99, 192, 42, 550, 121, 400, 270, 37557, 123, 23, 45, 57, 79, 24, 82, 18, 9, 3, 6, 4, 7, 7, 20, 4, 7, 6, 10, 9, 9, 3, 3, 4, 2, 3, 8, 2, 9, 4, 8, 13, 4, 8, 81, 27, 23, 6, 65, 4, 47, 5, 34, 2, 93, 17, 5, 19, 46, 35, 20, 37, 7, 98, 51, 7, 42, 10, 51, 16, 16, 68, 70, 38, 42, 6, 10, 6, 20, 50, 657, 4, 241, 457, 70, 53800, 15087, 1561, 1234, 76239, 837, 234, 167, 172, 108, 12, 179, 130, 20, 146, 419, 104, 84, 34, 194, 763, 20, 236, 446, 178, 301, 960, 171, 554, 219, 3698, 692, 720, 409, 668, 2942, 5, 9, 27, 13, 21, 41, 3, 17, 18, 14, 9, 5, 6, 60, 26, 30, 3, 22, 98, 286, 163, 31, 205, 13, 153, 99, 192, 42, 550, 121, 400, 270, 37557, 123, 23, 45, 57, 79, 24, 82, 18, 9, 3, 6, 4, 7, 7, 20, 4, 7, 6, 10, 9, 9, 3, 3, 4, 2, 3, 8, 2, 9, 4, 8, 13, 4, 8, 81, 27, 23, 6, 65, 4, 47, 5, 34, 2, 93, 17, 5, 19, 46, 35, 20, 37, 7, 98, 51, 7, 42, 10, 51, 16, 16, 68, 70, 38, 42, 6, 10, 6, 20, 50, 657, 4, 241, 457, 70, 53800, 15087, 1561, 1234, 76239, 837, 234, 167, 172, 108, 12, 179, 130, 20, 146, 419, 104, 84, 34, 194, 763, 20, 236, 446, 178, 301, 960, 171, 554, 219, 3698, 692, 720, 409, 668, 2942, 8, 48, 238, 27, 8, 12, 10, 3, 7, 9, 4, 13, 13, 12, 4, 2, 121, 55, 3, 2, 2, 2, 4, 4, 2, 2, 2, 2, 2, 2, 2, 4, 4, 1, 1, 1, 1, 1, 1, 4, 3, 3, 3, 3, 4, 2, 2, 48, 238, 8, 7, 48, 238, 8, 7, 2, 2, 4, 4, 2, 6, 2, 4, 11, 58, 18, 2, 11, 4, 11, 58, 18, 2, 11, 112, 112, 58, 58, 2, 6, 3, 6, 22, 3, 6, 22, 3, 3, 1, 1, 2, 2, 2, 2, 2, 2, 2, 2, 4, 4, 4, 4, 7, 3, 3, 3, 3, 7, 5, 6, 4, 3, 6, 3, 4, 4, 3, 4, 3, 3, 5, 2, 2, 2, 2, 3, 2, 2, 5, 2, 5, 3, 5, 2, 2, 4, 7, 3, 4, 2, 2, 3, 2, 3, 7, 2, 1, 3, 5, 4, 3, 5, 4, 30, 30, 30, 30, 30, 10, 4, 4, 4, 4, 4, 4, 4, 4, 4, 2, 2, 22, 22, 3, 3, 2, 10, 6, 26, 5, 2, 1, 4, 9, 7, 4, 10, 1, 71, 14, 2, 3, 3, 3, 3, 18, 3, 3, 18, 2, 1, 1, 1, 1, 1, 2, 1, 2, 3, 1, 3, 2, 1, 3, 2, 3, 4, 3, 1, 2, 3, 4, 4, 3, 7, 1, 3, 1, 1, 4, 4, 4, 4, 2, 1, 1, 3, 3, 1, 1, 1, 1, 3, 1, 1, 37, 37, 8, 2, 2, 2, 2, 2, 2, 2, 2, 3, 2, 2, 2, 4, 3, 14, 2, 2, 2, 2, 2, 3, 16, 3, 2, 5, 16, 3, 2, 5, 4, 4, 4, 26, 26, 8, 3, 8, 3, 3, 3, 6, 8, 5, 8, 5, 10, 10, 2, 2, 2, 2, 3, 3, 3, 2, 7, 2, 7, 3, 3, 3, 3, 5, 4, 4, 2, 3, 4, 2, 2, 4, 4, 3, 7, 4, 4, 1, 2, 3, 4, 2, 2, 4, 4, 3, 7, 4, 4, 1, 1, 1, 3, 3, 5, 7, 5, 5, 7, 5, 2, 2, 3, 1, 1, 4, 4, 5, 7, 7, 8, 4, 4, 8, 4, 4, 16, 16, 2, 2, 2, 2, 3, 3, 3, 3, 3, 3, 119, 5, 5, 116, 3, 2, 2, 3, 1, 1, 3, 4, 2, 4, 13, 2, 2, 4, 4, 10, 80, 3, 3, 10, 13, 40, 56, 80, 3, 4, 3, 4, 3, 3, 3, 3, 4, 4, 6, 6, 9, 9, 4, 7, 6, 7, 6, 3, 13, 10, 6, 95, 40, 7, 7, 4, 4, 8, 8, 13, 13, 11, 11, 3, 3, 10, 10, 80, 80, 3, 3, 4, 4, 3, 3, 56, 56, 18, 2, 18, 2, 13, 116, 20, 3, 7, 7, 3, 4, 4, 95, 40, 15, 3, 2, 6, 1, 10, 4, 7, 6, 4, 3, 3, 4, 5, 6, 2, 3, 2, 2, 2, 3, 3, 18, 56, 80, 31, 4, 4, 5, 18, 4, 5, 3, 9, 31, 6, 3, 2, 6, 3, 2, 3, 4, 3, 4, 3, 3, 3, 2, 2, 26, 26, 56, 56, 80, 1, 10, 1, 10, 5, 18, 1, 8, 6, 5, 3, 5, 4, 31, 1, 1, 2, 2, 4, 4, 9, 9, 3, 3, 2, 2, 31, 31, 3, 3, 1, 1, 1, 1, 2, 2, 9, 9, 2, 3, 2, 3, 5, 95, 1, 26, 4, 3, 2, 2, 2, 1, 4, 6, 2, 6, 2, 3, 3, 8, 8, 6, 6, 5, 5, 4, 4, 2, 2, 2, 2, 7, 7, 2, 2, 4, 4, 4, 4, 16, 16, 31, 31, 3, 3, 1, 1, 21, 21, 3, 4, 3, 4, 5, 5, 19, 19, 10, 10, 1, 1, 11, 20, 3, 11, 20, 3, 5, 1, 31, 26, 4, 3, 1, 4, 9, 9, 1, 1, 2, 2, 2, 7, 4, 2, 7, 4, 2, 2, 3, 3, 3, 3, 5, 5, 4, 4, 7, 7, 3, 6, 3, 6, 2, 2, 6, 6, 54, 54, 269, 11, 6, 95, 4, 4, 4, 3, 4, 2, 4, 7, 2, 4, 2, 4, 3, 3, 1, 1, 2, 2, 2, 3, 3, 3, 3, 4, 4, 2, 4, 5, 2, 4, 2, 13, 3, 3, 6, 3, 6, 1, 1, 3, 3, 2, 3, 3, 4, 6, 26, 4, 6, 7, 14, 14, 16, 16, 16, 1, 21, 21, 21, 21, 21, 4, 78, 23, 6, 1, 1, 4, 9, 16, 43, 1, 21, 4, 78, 23, 6, 14, 3, 41, 3, 3, 3, 1, 1, 17, 17, 23, 23, 5, 5, 3, 3, 7, 7, 7, 7, 4, 9, 16, 43, 1, 21, 4, 18, 1, 58, 1, 121, 78, 14, 4, 23, 17, 3, 2, 2, 5, 9, 3, 41, 13, 4, 6, 3, 2, 2, 27, 27, 9, 9, 3, 55, 55, 23, 23, 6, 3, 3, 1, 1, 1, 1, 9, 9, 3, 3, 3, 4, 4, 4, 9, 7, 4, 1, 1, 43, 30, 1, 21, 9, 14, 5, 1, 58, 1, 27, 121, 78, 14, 1, 4, 23, 17, 3, 15, 3, 5, 3, 3, 2, 2, 11, 5, 6, 9, 3, 12, 3, 4, 41, 13, 4, 4, 6, 2, 18, 30, 1, 1, 2, 2, 6, 3, 6, 3, 17, 17, 4, 4, 23, 23, 4, 5, 4, 5, 8, 8, 16, 16, 3, 3, 9, 16, 17, 4, 6, 10, 27, 9, 4, 4, 1, 24, 1, 43, 30, 10, 30, 1, 21, 9, 14, 5, 1, 58, 15, 1, 1, 27, 121, 55, 14, 1, 4, 17, 15, 3, 5, 3, 5, 14, 1, 2, 3, 3, 2, 8, 1, 1, 2, 11, 1, 2, 3, 1, 1, 7, 6, 9, 2, 3, 4, 41, 11, 4, 4, 23, 1, 9, 4, 6, 2, 4, 11, 30, 3, 11, 4, 9, 7, 6, 2, 5, 3, 12, 13, 20, 5, 2, 3, 18, 30, 3, 3, 4, 4, 3, 11, 6, 27, 27, 3, 3, 3, 11, 78, 2, 18, 6, 15, 23, 3, 37, 11, 3, 12, 16, 5, 1, 18, 1, 30, 3, 4, 18, 18, 200, 200, 21, 4, 245, 13, 5, 245, 13, 5, 3, 4, 5, 3, 4, 5, 7, 9, 5, 7, 9, 5, 3, 3, 12, 12, 29, 1, 1, 1, 1, 1, 29, 3, 3, 2, 27, 14, 1, 14, 1, 48, 48, 3, 1, 3, 1, 1, 23, 27, 7, 3, 7, 3, 17, 3, 17, 3, 14, 14, 121, 121, 7, 7, 2, 2, 1, 29, 1, 30, 29, 1, 30, 16, 4, 26, 4, 11, 2, 6, 16, 4, 26, 4, 11, 2, 6, 12, 3, 5, 12, 3, 5, 41, 41, 4, 24, 4, 24, 3, 1, 2, 8, 8, 4, 2, 1, 6, 6, 30, 20, 20, 3, 3, 2, 2, 5, 3, 2, 3, 2, 3, 9, 9, 2, 26, 2, 2, 3, 4, 4, 4, 4, 98, 98, 269, 3, 3, 4, 4, 4, 6, 6, 9, 9, 3, 3, 21, 21, 11, 11, 3, 3, 4, 5, 3, 2, 5, 3, 2, 8, 3, 2, 3, 2, 8, 8, 8, 5, 5, 8, 15, 15, 1, 1, 3, 3, 3, 3, 3, 3, 19, 71, 14, 9, 2, 1, 2, 4, 4, 3, 20, 21, 5, 6, 8, 3, 4, 5, 1, 1, 6, 6, 2, 2, 3, 1, 11, 5, 11, 5, 2, 2, 4, 1, 2, 2, 2, 2, 4, 2, 4, 2, 2, 2, 3, 2, 2, 14, 15, 15, 15, 10, 10, 3, 5, 3, 5, 26, 4, 2, 6, 26, 4, 2, 6, 4, 4, 10, 4, 4, 10, 15, 10, 5, 5, 2, 2, 1, 1, 3, 3, 4, 2, 2, 3, 4, 2, 2, 3, 3, 4, 3, 8, 2, 2, 3, 3, 3, 4, 4, 1, 4, 5, 22, 4, 5, 22, 1, 9, 1, 200, 18, 29, 19, 1, 1, 30, 14, 1, 29, 19, 1, 1, 30, 14, 3, 3, 1, 1, 2, 23, 15, 8, 2, 1, 1, 1, 7, 2, 1, 18, 3, 3, 43, 1, 4, 1, 1, 2, 23, 15, 8, 2, 1, 1, 1, 7, 2, 1, 18, 4, 10, 6, 3, 4, 3, 5, 1, 3, 2, 4, 4, 7, 3, 2, 7, 23, 11, 4, 34, 3, 4, 4, 7, 3, 2, 4, 7, 23, 11, 4, 34, 3, 3, 10, 3, 4, 3, 5, 1, 3, 2, 19, 1, 14, 19, 1, 14, 51, 5, 7, 6, 3, 51, 5, 1, 7, 6, 3, 10, 2, 10, 2, 7, 114, 4, 7, 114, 11, 4, 56, 80, 114, 114, 95, 4, 2, 6, 3, 11, 9, 17, 27, 3, 5, 2, 5, 9, 3, 9, 17, 27, 3, 5, 2, 5, 9, 3, 2, 11, 2, 11, 37, 4, 2, 12, 37, 4, 5, 2, 12, 6, 3, 11, 11, 11, 2, 7, 7, 3, 3, 6, 6, 4, 4, 2, 3, 3, 4, 5, 3, 4, 3, 17, 15, 15, 4, 4, 3, 5, 3, 4, 3, 7, 3, 4, 2, 2, 2, 34, 34, 34, 24, 219, 15, 1, 5, 34, 24, 219, 1, 15, 1, 5, 10, 10, 10, 2, 1, 1, 112, 112, 31, 12, 12, 3, 4, 4, 5, 3, 3, 9, 3, 12, 4, 17, 16, 3, 7, 3, 3, 2, 3, 3, 3, 4, 4, 3, 4, 4, 3, 3, 3, 4, 3, 2, 5, 4, 4, 5, 3, 2, 5, 4, 3, 2, 2, 2, 71, 14, 71, 14, 18, 4, 11, 18, 8, 8, 9, 200, 9, 200, 5, 9, 2, 2, 3, 2, 4, 2, 2, 4, 4, 6, 6, 8, 71, 14, 7, 4, 7, 4, 4, 4, 9, 3, 2, 3, 21, 21, 14, 3, 21, 14, 5, 5, 3, 3, 1, 24, 219, 15, 5, 24, 219, 15, 5, 1, 2, 4, 4, 4, 7, 7, 21, 5, 4, 4, 3, 2, 24, 219, 5, 31, 10, 10, 3, 20, 21, 5, 6, 6, 6, 459, 459, 3, 11, 8, 112, 459, 10, 4, 3, 3, 5, 1, 3, 12, 4, 9, 16, 3, 4, 3, 4, 2, 3, 3, 2, 8, 8, 5, 5, 198, 3, 3, 5, 5, 22, 31, 7, 7, 2, 3, 13, 5, 2, 3, 3, 26, 4, 4, 1, 1, 8, 16, 5, 5, 5, 5, 2, 2, 3, 2, 2, 2, 3, 2, 3, 6, 2, 18, 2, 18, 2, 18, 2, 3, 1, 1, 5, 5, 1, 1, 2, 2, 3, 3, 8, 2, 7, 4, 2, 7, 4, 2, 3, 5, 2, 3, 5, 1, 6, 51, 6, 3, 51, 6, 3, 13, 40, 10, 3, 10, 3, 3, 3, 3, 1, 2, 2, 34, 2, 8, 10, 8, 10, 2, 22, 22, 1, 7, 5, 5, 4, 6, 4, 6, 2, 4, 2, 4, 3, 5, 5, 9, 3, 2, 9, 3, 2, 3, 4, 3, 4, 11, 4, 1, 1, 55, 55, 3, 1, 3, 1, 3, 3, 3, 11, 5, 11, 5, 11, 5, 11, 5, 5, 5, 3, 3, 3, 3, 4, 6, 9, 16, 9, 1, 1, 459, 30, 200, 18, 1, 29, 1, 12, 19, 14, 1, 1, 6, 3, 1, 16, 1, 11, 3, 30, 14, 1, 34, 24, 219, 1, 15, 1, 1, 5, 1, 1, 34, 24, 219, 1, 198, 15, 1, 1, 5, 1, 21, 11, 1, 1, 1, 1, 1, 6, 1, 1, 12, 6, 1, 2, 9, 2, 7, 37, 8, 31, 14, 2, 1, 9, 5, 3, 21, 2, 3, 3, 14, 2, 3, 3, 8, 6, 5, 6, 3, 5, 3, 4, 3, 5, 3, 3, 4, 2, 4, 3, 2, 3, 2, 3, 2, 3, 3, 8, 3, 9, 2, 5, 3, 21, 2, 3, 3, 14, 2, 3, 3, 8, 7, 6, 5, 6, 8, 3, 5, 5, 9, 4, 3, 4, 3, 5, 3, 3, 4, 2, 4, 1, 3, 5, 2, 3, 3, 2, 3, 2, 3, 3, 3, 8, 3, 5, 2, 2, 3, 3, 8, 5, 3, 3, 3, 2, 2, 3, 3, 8, 5, 3, 3, 3, 4, 6, 4, 2, 2, 6, 2, 3, 4, 2, 2, 6, 2, 6, 3, 2, 3, 4, 2, 6, 2, 2, 4, 2, 5, 3, 3, 2, 2, 3, 5, 4, 2, 2, 4, 2, 5, 3, 3, 3, 2, 2, 3, 5, 4, 5, 3, 3, 3, 3, 3, 21, 3, 14, 5, 5, 4, 3, 4, 2, 3, 3, 21, 3, 14, 6, 5, 3, 5, 4, 3, 4, 2, 3, 3, 8, 4, 1, 6, 3, 3, 14, 14, 3, 14, 2, 8, 21, 54, 269, 54, 269, 8, 4, 16, 459, 30, 11, 3, 459, 30, 11, 3, 30, 30, 11, 9, 200, 6, 3, 3, 2, 6, 3, 3, 2, 12, 12, 12, 4, 6, 459, 30, 14, 1, 3, 11, 3, 4, 6, 16, 9, 1, 459, 30, 14, 1, 3, 16, 11, 3, 14, 14, 1, 14, 1, 9, 200, 12, 43, 2, 9, 3, 2, 2, 14, 3, 3, 3, 3, 2, 5, 8, 18, 2, 4, 4, 1, 3, 4, 5, 8, 18, 2, 4, 4, 3, 4, 5, 5, 119, 119, 119, 4, 245, 9, 3, 12, 14, 3, 5, 7, 13, 5, 3, 5, 9, 5, 5, 4, 10, 245, 9, 78, 23, 3, 12, 14, 3, 5, 7, 13, 5, 3, 5, 6, 9, 5, 5, 9, 14, 5, 5, 9, 14, 5, 5, 2, 2, 2, 26, 14, 3, 1, 1, 1, 10, 4, 4, 4, 4, 10, 4, 4, 4, 2, 4, 4, 4, 98, 8, 2, 7, 8, 2, 7, 6, 6, 6, 2, 6, 2, 116, 6, 6, 7, 2, 4, 2, 4, 37, 2, 1, 2, 2, 2, 1, 2, 2, 1, 1, 2, 1, 2, 2, 2, 1, 2, 2, 2, 2, 2, 2, 2, 2, 2, 2, 3, 3, 3, 3, 3, 4, 3, 14, 14, 8, 9, 4, 8, 15, 10, 12, 8, 27, 9, 4, 8, 15, 10, 12, 8, 10, 8, 10, 20, 13, 20, 13, 7, 7, 34, 7, 34, 4, 5, 4, 5, 4, 5, 4, 5, 15, 3, 3, 5, 5, 2, 2, 4, 3, 3, 4, 3, 3, 5, 1, 1, 3, 4, 4, 7, 2, 8, 2, 4, 5, 2, 3, 3, 2, 3, 7, 3, 3, 4, 2, 2, 2, 4, 3, 7, 4, 2, 2, 3, 2, 2, 1, 3, 3, 4, 4, 4, 7, 2, 8, 2, 4, 6, 5, 4, 2, 3, 3, 2, 3, 7, 2, 3, 3, 4, 2, 2, 2, 4, 2, 3, 7, 4, 2, 6, 2, 2, 3, 2, 2, 4, 4, 2, 7, 3, 2, 3, 7, 2, 2, 4, 4, 2, 7, 3, 2, 3, 7, 2, 2, 7, 2, 2, 7, 2, 3, 2, 4, 4, 4, 4, 4, 3, 13, 40, 6, 3, 10, 4, 3, 4, 3, 13, 95, 40, 6, 3, 4, 10, 4, 3, 4, 3, 5, 11, 13, 71, 7, 7, 114, 6, 13, 4, 95, 40, 11, 20, 4, 6, 3, 3, 3, 3, 4, 5, 10, 4, 14, 7, 3, 3, 4, 3, 5, 11, 13, 71, 7, 7, 114, 6, 13, 4, 95, 56, 40, 11, 80, 116, 18, 20, 4, 6, 3, 3, 3, 3, 4, 5, 10, 4, 14, 2, 7, 3, 3, 1, 1, 1, 1, 14, 3, 4, 22, 14, 3, 4, 22, 14, 3, 30, 15, 6, 7, 4, 5, 22, 14, 3, 30, 15, 6, 7, 4, 5, 16, 22, 15, 8, 8, 15, 8, 8, 17, 6, 8, 173, 48, 238, 15, 27, 11, 4, 16, 8, 3, 8, 4, 12, 10, 2, 3, 8, 5, 3, 3, 8, 8, 7, 9, 26, 4, 4, 6, 22, 13, 8, 20, 11, 4, 6, 2, 13, 6, 20, 21, 10, 12, 13, 4, 17, 6, 7, 4, 8, 24, 173, 48, 238, 15, 27, 121, 55, 11, 4, 16, 8, 3, 8, 4, 12, 10, 2, 3, 8, 5, 3, 3, 8, 8, 7, 9, 26, 4, 4, 6, 22, 13, 8, 20, 11, 4, 4, 6, 2, 13, 6, 20, 21, 10, 3, 12, 13, 4, 15, 11, 8, 5, 8, 8, 10, 15, 11, 2, 8, 5, 8, 8, 6, 10, 2, 2, 39, 2, 18, 2, 18, 2, 2, 7, 18, 2, 2, 7, 18, 14, 14, 2, 5, 2, 5, 5, 5, 5, 17, 11, 5, 17, 11, 5, 17, 10, 11, 30, 5, 17, 10, 11, 30, 8, 8, 11, 4, 27, 4, 27, 3, 3, 4, 2, 9, 2, 9, 1, 2, 2, 2, 2, 8, 8, 21, 2, 3, 3, 2, 3, 4, 1, 198, 4, 4, 4, 5, 5, 8, 8, 3, 3, 6, 5, 5, 3, 4, 3, 4, 198, 198, 3, 3, 3, 6, 5, 3, 4, 4, 9, 9, 7, 7, 3, 7, 6, 4, 4, 2, 6, 2, 3, 4, 7, 4, 8, 3, 3, 3, 43, 43, 43, 1, 4, 1, 4, 1, 8, 4, 3, 98, 98, 2, 2, 3, 3, 11, 11, 11, 5, 5, 5, 5, 11, 7, 6, 3, 8, 198, 3, 3, 3, 2, 2, 5, 11, 21, 7, 6, 3, 119, 11, 11, 5, 5, 22, 22, 3, 3, 6, 6, 3, 3, 3, 3, 3, 5, 11, 3, 11, 4, 4, 3, 3, 9, 9, 7, 7, 269, 269, 1, 1, 6, 6, 2, 2, 3, 3, 4, 4, 1, 1, 4, 4, 6, 6, 5, 5, 8, 8, 2, 2, 2, 9, 2, 3, 11, 3, 8, 10, 8, 3, 8, 3, 3, 3, 114, 114, 3, 3, 10, 10, 11, 11, 2, 2, 4, 8, 7, 3, 4, 3, 4, 7, 3, 2, 3, 2, 3, 3, 1, 1, 3, 2, 8, 3, 2, 8, 13, 12, 13, 12, 1, 6, 6, 27, 5, 9, 27, 5, 5, 9, 3, 3, 54, 54, 12, 4, 12, 4, 4, 2, 2, 4, 173, 4, 173, 4, 4, 4, 4, 4, 3, 8, 5, 3, 8, 5, 238, 8, 8, 3, 3, 9, 5, 9, 5, 18, 18, 3, 3, 1, 3, 1, 29, 37, 2, 12, 12, 4, 4, 4, 4, 5, 2, 2, 10, 121, 55, 3, 8, 9, 4, 15, 8, 9, 4, 15, 37, 37, 37, 2, 37, 2, 1, 1, 10, 4, 10, 4, 16, 14, 3, 39, 39, 39, 11, 9, 2, 2, 39, 5, 5, 21, 119, 21, 10, 6, 7, 6, 2, 10, 6, 7, 6, 2, 11, 3, 2, 5, 5, 5, 2, 2, 3, 2, 2, 3, 3, 3, 3, 3, 3, 26, 16, 16, 3, 4, 3, 4, 3, 238, 14, 14, 14, 6, 7, 6, 6, 7, 6, 4, 4, 2, 3, 2, 3, 3, 6, 2, 2, 2, 2, 3, 4, 3, 4, 8, 8, 10, 10, 7, 4, 7, 4, 3, 3, 2, 4, 7, 4, 7, 4, 24, 24, 2, 5, 4, 4, 18, 18, 3, 3, 6, 6, 4, 4, 2, 2, 1, 1, 3, 3, 1, 1, 7, 2, 14, 14, 14, 14, 2, 2, 2, 2, 1, 1, 1, 1, 10, 10, 5, 5, 6, 6, 2, 3, 2, 2, 3, 2, 3, 2, 3, 2, 3, 3, 14, 4, 4, 4, 4, 7, 7, 15, 3, 2, 3, 3, 3, 3, 2, 2, 2, 3, 3, 1, 1, 1, 1, 2, 1, 2, 2, 2, 2, 2, 7, 2, 7, 2, 11, 2, 11] p=0.46"]
S2 -> S2 [label="1 [7, 6, 7, 8, 13, 36, 5, 5, 19, 12, 9, 3, 4, 4, 3, 15, 17, 3, 5, 5, 15, 3, 6, 3, 2, 10, 3, 4, 6, 2, 2, 3, 1, 2, 3, 1, 3, 5, 2, 4, 3, 2, 3, 8, 19, 4, 41, 22, 2, 35, 21, 4, 4, 3, 123, 5, 399, 354, 146, 124, 16, 113, 224, 35, 110, 329, 46, 43, 45, 25, 32, 70, 13, 167, 108, 22, 9, 4, 7, 10, 2, 3, 4, 5, 48, 5, 7, 14, 4, 15, 4, 4, 5, 1, 3, 3, 2, 15, 3, 5, 2, 6, 4, 2, 7, 10, 10, 2, 2, 3, 3, 2, 2, 5, 8, 2, 2, 3, 2, 5, 1, 1, 3, 3, 4, 5, 5, 5, 3, 7, 6, 3, 3, 2, 2, 4, 5, 5, 3, 2, 3, 2, 7, 3, 3, 2, 5, 3, 2, 5, 1, 1, 3, 2, 3, 2, 7, 6, 7, 8, 13, 36, 5, 5, 19, 12, 9, 3, 4, 4, 3, 15, 17, 3, 5, 5, 15, 3, 6, 3, 2, 10, 3, 4, 6, 2, 2, 3, 1, 2, 3, 1, 3, 5, 2, 4, 3, 2, 3, 8, 19, 4, 41, 22, 2, 35, 21, 4, 4, 3, 123, 5, 399, 354, 146, 124, 16, 113, 224, 35, 110, 329, 46, 43, 45, 25, 32, 70, 13, 167, 108, 22, 9, 4, 7, 10, 2, 3, 4, 5, 48, 5, 7, 14, 4, 15, 4, 4, 5, 1, 3, 3, 2, 15, 3, 5, 2, 6, 4, 2, 7, 10, 10, 2, 2, 3, 3, 2, 2, 5, 8, 2, 2, 3, 2, 5, 1, 1, 3, 3, 4, 5, 5, 5, 3, 7, 6, 3, 3, 2, 2, 4, 5, 5, 3, 2, 3, 2, 7, 3, 3, 2, 5, 3, 2, 5, 1, 1, 3, 2, 3, 2, 114, 51, 51, 6, 7, 8, 13, 36, 5, 5, 19, 12, 9, 3, 4, 4, 3, 15, 17, 3, 5, 5, 15, 3, 6, 3, 2, 10, 3, 4, 6, 2, 2, 3, 1, 2, 3, 1, 3, 5, 2, 4, 3, 2, 3, 8, 19, 4, 41, 22, 2, 35, 21, 4, 4, 3, 123, 5, 399, 354, 124, 16, 113, 329, 46, 43, 45, 25, 32, 70, 13, 167, 108, 22, 9, 4, 7, 10, 2, 3, 4, 5, 48, 5, 7, 14, 4, 15, 4, 4, 5, 1, 3, 3, 2, 15, 3, 5, 2, 6, 4, 2, 7, 10, 10, 2, 2, 3, 3, 2, 2, 5, 8, 2, 2, 3, 2, 5, 1, 1, 3, 3, 4, 5, 5, 5, 3, 7, 6, 3, 3, 2, 2, 4, 5, 5, 3, 2, 3, 2, 7, 3, 3, 2, 5, 3, 2, 5, 1, 1, 3, 2, 3, 2, 6, 7, 8, 13, 36, 5, 5, 19, 12, 9, 3, 4, 4, 3, 15, 17, 3, 5, 5, 15, 3, 6, 3, 2, 10, 3, 4, 6, 2, 2, 3, 1, 2, 3, 1, 3, 5, 2, 4, 3, 2, 3, 8, 19, 4, 41, 22, 2, 35, 21, 4, 4, 3, 123, 5, 399, 354, 124, 16, 113, 329, 46, 43, 45, 25, 32, 70, 13, 167, 108, 22, 9, 4, 7, 10, 2, 3, 4, 5, 48, 5, 7, 14, 4, 15, 4, 4, 5, 1, 3, 3, 2, 15, 3, 5, 2, 6, 4, 2, 7, 10, 10, 2, 2, 3, 3, 2, 2, 5, 8, 2, 2, 3, 2, 5, 1, 1, 3, 3, 4, 5, 5, 5, 3, 7, 6, 3, 3, 2, 2, 4, 5, 5, 3, 2, 3, 2, 7, 3, 3, 2, 5, 3, 2, 5, 1, 1, 3, 2, 3, 2, 7, 8, 13, 36, 5, 5, 19, 12, 9, 3, 4, 4, 3, 15, 17, 3, 5, 5, 15, 3, 6, 3, 2, 10, 3, 4, 6, 2, 2, 3, 1, 2, 3, 1, 3, 5, 2, 4, 3, 2, 3, 8, 19, 4, 41, 22, 2, 35, 21, 4, 4, 3, 123, 5, 399, 354, 16, 113, 46, 43, 45, 25, 32, 70, 13, 167, 108, 22, 9, 4, 7, 10, 2, 3, 4, 5, 48, 5, 7, 14, 4, 15, 4, 4, 5, 1, 3, 3, 2, 15, 3, 5, 2, 6, 4, 2, 7, 10, 10, 2, 2, 3, 3, 2, 2, 5, 8, 2, 2, 3, 2, 5, 1, 1, 3, 3, 4, 5, 5, 5, 3, 7, 6, 3, 3, 2, 2, 4, 5, 5, 3, 2, 3, 2, 7, 3, 3, 2, 5, 3, 2, 5, 1, 1, 3, 2, 3, 2, 7, 8, 13, 36, 5, 5, 19, 12, 9, 3, 4, 4, 3, 15, 17, 3, 5, 5, 15, 3, 6, 3, 2, 10, 3, 4, 6, 2, 2, 3, 1, 2, 3, 1, 3, 5, 2, 4, 3, 2, 3, 8, 19, 4, 41, 22, 2, 35, 21, 4, 4, 3, 123, 5, 399, 354, 16, 113, 46, 43, 45, 25, 32, 70, 13, 167, 108, 22, 9, 4, 7, 10, 2, 3, 4, 5, 48, 5, 7, 14, 4, 15, 4, 4, 5, 1, 3, 3, 2, 15, 3, 5, 2, 6, 4, 2, 7, 10, 10, 2, 2, 3, 3, 2, 2, 5, 8, 2, 2, 3, 2, 5, 1, 1, 3, 3, 4, 5, 5, 5, 3, 7, 6, 3, 3, 2, 2, 4, 5, 5, 3, 2, 3, 2, 7, 3, 3, 2, 5, 3, 2, 5, 1, 1, 3, 2, 3, 2, 8, 13, 36, 5, 5, 19, 12, 9, 3, 4, 4, 3, 15, 17, 3, 5, 5, 15, 3, 6, 3, 2, 10, 3, 4, 6, 2, 2, 3, 1, 2, 3, 1, 3, 5, 2, 4, 3, 2, 3, 8, 19, 4, 41, 22, 2, 35, 21, 4, 4, 3, 123, 5, 399, 354, 113, 43, 45, 25, 32, 70, 13, 167, 108, 22, 9, 4, 7, 10, 2, 3, 4, 5, 48, 5, 7, 14, 4, 15, 4, 4, 5, 1, 3, 3, 2, 15, 3, 5, 2, 6, 4, 2, 7, 10, 10, 2, 2, 3, 3, 2, 2, 5, 8, 2, 2, 3, 2, 5, 1, 1, 3, 3, 4, 5, 5, 5, 3, 7, 6, 3, 3, 2, 2, 4, 5, 5, 3, 2, 3, 2, 7, 3, 3, 2, 5, 3, 2, 5, 1, 1, 3, 2, 3, 2, 8, 13, 36, 5, 5, 19, 12, 9, 3, 4, 4, 3, 15, 17, 3, 5, 5, 15, 3, 6, 3, 2, 10, 3, 4, 6, 2, 2, 3, 1, 2, 3, 1, 3, 5, 2, 4, 3, 2, 3, 8, 19, 4, 41, 22, 2, 35, 21, 4, 4, 3, 123, 5, 399, 354, 113, 43, 45, 25, 32, 70, 13, 167, 108, 22, 9, 4, 7, 10, 2, 3, 4, 5, 48, 5, 7, 14, 4, 15, 4, 4, 5, 1, 3, 3, 2, 15, 3, 5, 2, 6, 4, 2, 7, 10, 10, 2, 2, 3, 3, 2, 2, 5, 8, 2, 2, 3, 2, 5, 1, 1, 3, 3, 4, 5, 5, 5, 3, 7, 6, 3, 3, 2, 2, 4, 5, 5, 3, 2, 3, 2, 7, 3, 3, 2, 5, 3, 2, 5, 1, 1, 3, 2, 3, 2, 13, 36, 5, 5, 19, 12, 9, 3, 4, 4, 3, 15, 17, 3, 5, 5, 15, 3, 6, 3, 2, 10, 3, 4, 6, 2, 2, 3, 1, 2, 3, 1, 3, 5, 2, 4, 3, 2, 3, 8, 19, 4, 41, 22, 2, 35, 21, 4, 4, 3, 123, 5, 399, 354, 45, 25, 32, 70, 13, 167, 108, 22, 9, 4, 7, 10, 2, 3, 4, 5, 48, 5, 7, 14, 4, 15, 4, 4, 5, 1, 3, 3, 2, 15, 3, 5, 2, 6, 4, 2, 7, 10, 10, 2, 2, 3, 3, 2, 2, 5, 8, 2, 2, 3, 2, 5, 1, 1, 3, 3, 4, 5, 5, 5, 3, 7, 6, 3, 3, 2, 2, 4, 5, 5, 3, 2, 3, 2, 7, 3, 3, 2, 5, 3, 2, 5, 1, 1, 3, 2, 3, 2, 114, 190, 190, 181, 181, 110, 110, 2, 2, 2, 2, 2, 2, 2, 2, 329, 329, 191, 191, 191, 191, 191, 191, 191, 18, 46, 146, 146, 146, 146, 146, 18, 18, 124, 124, 124, 16, 114, 114, 18, 18, 181, 76, 190, 51, 146, 146, 474, 474, 474, 124, 124, 224, 16, 16, 181, 181, 181, 181, 113, 110, 110, 110, 329, 114, 474, 51, 76, 114, 474, 51, 76, 474, 474, 190, 190, 224, 224, 224, 224, 224, 224, 170, 679, 679, 191, 679, 191, 679, 679, 679, 114, 679] p=0.14"]
S2 -> S2 [label="6 [2, 2, 2, 2, 2, 2] p=0.0"]
S2 -> S2 [label="3 [66, 8, 14, 17, 18, 32, 54, 26, 11, 14, 38, 99, 66, 3, 8, 14, 17, 18, 32, 54, 34, 26, 43, 11, 10, 14, 38, 99, 17, 20, 2, 7, 8, 14, 18, 26, 8, 14, 18, 26, 169, 3, 92, 41, 151, 10, 5, 10, 5, 92, 41, 151, 10, 10, 5, 56, 9, 56, 9, 151, 151, 169, 3, 5, 21, 21, 21, 3, 3, 3, 6, 3, 3, 3, 3, 3, 1, 5, 10, 45, 2, 2, 92, 2, 6, 41, 6, 3, 1, 5, 10, 45, 7, 34, 3, 7, 4, 4, 7, 7, 4, 4, 3, 3, 14, 14, 230, 230, 128, 128, 128, 128, 92, 2, 6, 41, 6, 3, 1, 5, 3, 151, 50, 17, 5, 7, 108, 45, 35, 94, 792, 337, 33, 43, 3, 3, 10, 125, 3, 7, 9, 9, 145, 145, 9, 9, 11, 20, 20, 10, 10, 45, 34, 34, 3, 3, 2, 2, 94, 94, 194, 194, 194, 194, 5, 5, 5, 5, 2, 59, 26, 3, 7, 41, 18, 6, 3, 4, 166, 6, 3, 151, 50, 17, 17, 5, 7, 9, 108, 45, 35, 94, 8, 11, 14, 230, 100, 792, 337, 21, 33, 2, 43, 3, 4, 25, 83, 3, 10, 29, 125, 3, 5, 20, 3, 6, 6, 41, 41, 7, 8, 7, 8, 4, 4, 1, 1, 3, 3, 67, 161, 67, 161, 241, 241, 6, 6, 7, 7, 1, 3, 1, 25, 101, 126, 145, 9, 26, 91, 3, 87, 7, 41, 18, 10, 3, 6, 3, 4, 166, 6, 3, 151, 2, 50, 3, 17, 17, 20, 7, 9, 108, 35, 8, 11, 14, 230, 101, 2, 2, 169, 34, 100, 9, 128, 3, 3, 792, 21, 245, 56, 53, 2, 2, 26, 2, 43, 71, 25, 83, 3, 5, 155, 29, 45, 5, 94, 125, 3, 5, 52, 2, 14, 94, 5, 99, 2, 2, 59, 59, 20, 20, 337, 337, 33, 33, 3, 3, 4, 4, 10, 10, 57, 57, 66, 66, 10, 10, 12, 12, 20, 20, 3, 3, 21, 21, 53, 59, 3, 70, 92, 92, 92, 13, 41, 5, 45, 40, 40, 4, 4, 13, 41, 5, 2, 29, 36, 10, 5, 45, 6, 6, 10, 10, 5, 5, 19, 19, 41, 126, 10, 13, 5, 2, 29, 36, 11, 4, 245, 10, 83, 52, 5, 6, 66, 94, 118, 40, 143, 246, 45, 33, 13, 74, 3, 21, 53, 13, 4, 74, 43, 28, 5, 87, 52, 169, 11, 101, 155, 9, 34, 3, 2, 91, 5, 20, 17, 125, 3, 9, 151, 2, 2, 21, 9, 3, 31, 124, 1, 5, 5, 5, 4, 108, 9, 2, 94, 145, 9, 9, 78, 78, 25, 216, 70, 18, 216, 70, 18, 100, 67, 161, 100, 67, 161, 90, 3, 22, 67, 90, 3, 22, 59, 29, 143, 143, 12, 12, 6, 3, 3, 3, 3, 3, 3, 6, 83, 83, 100, 7, 7, 61, 61, 61, 3, 34, 16, 56, 230, 230, 48, 34, 120, 16, 56, 230, 6, 101, 20, 241, 17, 6, 128, 26, 2, 2, 2, 2, 8, 8, 3, 29, 4, 50, 4, 50, 3, 3, 40, 4, 8, 277, 11, 277, 11, 140, 140, 40, 18, 35, 94, 35, 94, 29, 36, 29, 36, 6, 7, 6, 7, 17, 17, 9, 90, 90, 3, 7, 6, 3, 3, 6, 3, 3, 10, 10, 34, 48, 101, 120, 16, 5, 5, 56, 34, 48, 101, 120, 16, 5, 5, 56, 10, 66, 28, 10, 66, 28, 89, 89, 11, 7, 32, 19, 20, 3, 3, 7, 3, 7, 5, 3, 5, 5, 26, 87, 26, 87, 104, 4, 10, 13, 13, 31, 4, 31, 4, 5, 3, 31, 31, 13, 13, 3, 17, 9, 9, 35, 14, 4, 43, 43, 18, 31, 65, 17, 4, 7, 41, 101, 45, 128, 15, 50, 17, 65, 9, 4, 13, 13, 3, 3, 6, 6, 3, 4, 2, 2, 21, 140, 140, 57, 57, 18, 3, 4, 4, 14, 4, 31, 20, 20, 792, 5, 16, 16, 34, 34, 29, 4, 40, 40, 14, 38, 8, 8, 3, 56, 63, 2, 2, 3, 21, 57, 78, 16, 3, 66, 54, 3, 14, 1, 5, 3, 16, 3, 3, 3, 50, 8, 9, 4, 10, 10, 41, 31, 20, 194, 21, 9, 35, 40, 11, 14, 792, 33, 94, 94, 9, 35, 40, 11, 14, 792, 33, 94, 94, 10, 5, 10, 5, 19, 83, 2, 27, 19, 83, 66, 2, 27, 31, 20, 194, 21, 5, 5, 56, 26, 26, 21, 21, 80, 80, 12, 52, 105, 88, 12, 52, 105, 88, 29, 5, 36, 29, 5, 36, 52, 52, 245, 245, 6, 6, 28, 22, 21, 21, 1, 2, 99, 25, 17, 2, 56, 9, 56, 9, 3, 6, 3, 6, 7, 7, 13, 4, 52, 1, 74, 12, 27, 25, 78, 78, 92, 41, 10, 10, 9, 9, 1, 9, 1, 9, 16, 16, 3, 3, 66, 6, 54, 54, 34, 21, 57, 78, 80, 80, 80, 16, 3, 4, 4, 2, 2, 66, 56, 9, 56, 9, 4, 4, 3, 54, 43, 13, 4, 52, 74, 12, 71, 27, 25, 41, 50, 5, 3, 7, 5, 5, 5, 3, 3, 3, 6, 6, 6, 17, 6, 17, 15, 15, 15, 3, 3, 70, 3, 101, 183, 43, 8, 26, 241, 43, 241, 43, 17, 4, 21, 21, 5, 26, 246, 246, 90, 13, 9, 11, 792, 9, 11, 792, 6, 6, 20, 20, 7, 5, 3, 4, 6, 4, 3, 6, 4, 3, 2, 2, 3, 2, 2, 4, 3, 3, 2, 3, 6, 4, 3, 2, 2, 3, 6, 2, 2, 6, 4, 104, 7, 6, 2, 2, 2, 2, 3, 6, 5, 3, 6, 3, 6, 1, 9, 1, 9, 3, 4, 3, 2, 2, 4, 3, 2, 2, 3, 3, 2, 6, 6, 41, 9, 9, 9, 3, 3, 5, 7, 7, 25, 216, 4, 4, 10, 166, 118, 246, 90, 70, 6, 66, 28, 3, 18, 22, 25, 126, 216, 4, 5, 10, 4, 10, 166, 118, 246, 90, 70, 6, 66, 28, 45, 3, 18, 22, 4, 166, 246, 6, 4, 166, 246, 6, 7, 5, 7, 7, 4, 14, 14, 4, 2, 91, 19, 83, 20, 19, 83, 20, 59, 11, 50, 13, 29, 13, 12, 59, 145, 11, 50, 13, 29, 13, 12, 13, 13, 13, 13, 2, 4, 3, 3, 5, 6, 5, 6, 61, 6, 6, 6, 14, 6, 14, 10, 64, 6, 67, 161, 67, 161, 67, 161, 67, 161, 29, 5, 29, 6, 5, 143, 143, 143, 143, 18, 27, 16, 80, 5, 5, 2, 2, 6, 9, 5, 16, 9, 2, 5, 5, 3, 16, 4, 9, 6, 2, 21, 31, 4, 29, 21, 21, 31, 4, 29, 21, 21, 31, 89, 18, 2, 4, 80, 128, 29, 16, 21, 21, 31, 89, 18, 2, 4, 10, 80, 128, 29, 16, 15, 21, 5, 5, 5, 16, 5, 16, 1, 7, 140, 66, 34, 17, 3, 8, 14, 3, 17, 5, 6, 48, 18, 230, 22, 101, 32, 54, 169, 34, 128, 353, 8, 268, 241, 40, 26, 21, 43, 120, 11, 16, 18, 9, 50, 10, 32, 57, 5, 28, 3, 5, 14, 56, 5, 78, 43, 38, 6, 99, 1, 7, 59, 140, 26, 66, 34, 87, 17, 3, 8, 14, 3, 17, 17, 20, 9, 2, 3, 5, 6, 48, 18, 230, 22, 101, 32, 54, 169, 34, 128, 353, 8, 268, 241, 40, 26, 21, 43, 120, 11, 16, 18, 9, 50, 10, 32, 57, 5, 155, 28, 3, 5, 14, 56, 5, 78, 43, 7, 38, 6, 99, 3, 5, 128, 353, 241, 50, 32, 43, 3, 5, 169, 128, 353, 241, 50, 32, 3, 43, 3, 128, 50, 32, 3, 128, 50, 32, 50, 65, 17, 9, 6, 20, 17, 9, 6, 20, 17, 20, 17, 20, 70, 124, 6, 70, 124, 6, 70, 124, 10, 24, 6, 14, 70, 124, 10, 24, 6, 14, 9, 9, 22, 22, 115, 115, 115, 17, 17, 17, 5, 36, 5, 2, 5, 2, 4, 1, 66, 6, 6, 2, 2, 6, 5, 29, 5, 104, 104, 268, 18, 13, 5, 5, 43, 43, 21, 14, 38, 14, 38, 3, 5, 5, 3, 22, 14, 4, 4, 4, 11, 216, 140, 140, 14, 18, 18, 26, 12, 83, 6, 34, 16, 56, 12, 105, 88, 34, 3, 3, 3, 4, 3, 5, 3, 7, 3, 1, 2, 2, 104, 104, 14, 4, 10, 65, 2, 10, 10, 3, 7, 65, 3, 6, 6, 5, 5, 2, 21, 11, 11, 104, 104, 120, 120, 17, 10, 15, 15, 4, 4, 43, 21, 43, 21, 277, 11, 5, 4, 5, 16, 14, 14, 66, 66, 43, 43, 169, 169, 9, 9, 7, 7, 1, 3, 2, 2, 2, 25, 63, 36, 63, 36, 25, 25, 5, 353, 5, 353, 353, 126, 126, 5, 161, 50] p=0.14"]
S2 -> S2 [label="4 [7, 3, 3, 3, 4, 10, 4, 5, 4, 3, 4, 10, 3, 4, 5, 4, 7, 1, 1, 44, 44, 122, 122, 5, 10, 10, 10, 10, 10, 10, 10, 10, 79, 183, 10, 215, 79, 183, 18, 41, 18, 41, 18, 18, 141, 16, 58, 150, 150, 150, 150, 150, 150, 150, 14, 8, 20, 20, 21, 14, 8, 141, 29, 29, 258, 258, 258, 21, 15, 83, 3, 14, 346, 8, 8, 141, 141, 75, 75, 20, 20, 79, 79, 150, 4, 83, 3, 14, 36, 346, 44, 56, 62, 29, 44, 21, 4, 14, 5, 5, 5, 5, 5, 5, 14, 44, 30, 63, 63, 185, 5, 35, 36, 56, 41, 4, 2, 2, 15, 6, 9, 6, 9, 2, 2, 92, 92, 305, 15, 4, 26, 26, 26, 26, 4, 8, 215, 215, 215, 215, 215, 215, 10, 75, 75, 75, 75, 10, 79, 6, 6, 305, 305, 305, 305, 30, 30, 3, 3, 4, 2, 2, 5, 5, 35, 53, 53, 18, 18, 4, 2, 2, 10, 56, 10, 56, 4, 4, 8, 4, 4, 8, 105, 5, 179, 105, 5, 179, 35, 35, 382, 3, 16, 24, 10, 11, 4, 58, 58, 8, 9, 305, 305, 8, 79, 79, 6, 15, 8, 8, 13, 8, 15, 76, 15, 15, 8, 215, 215, 11, 11, 15, 15, 8, 4, 79, 79, 30, 15, 38, 3, 22, 8, 4, 34, 4, 159, 34, 4, 159, 72, 63, 72, 63, 22, 11, 11, 17, 17, 5, 5, 40, 68, 40, 68, 30, 15, 83, 2, 6, 3, 22, 4, 25, 19, 16, 16, 62, 62, 38, 38, 18, 18, 92, 92, 14, 14, 4, 4, 183, 183, 6, 6, 122, 122, 26, 26, 8, 8, 24, 10, 24, 10, 30, 13, 6, 8, 25, 22, 185, 64, 64, 40, 6, 34, 159, 34, 159, 11, 11, 2, 2, 6, 6, 3, 3, 33, 33, 54, 54, 18, 18, 53, 53, 17, 17, 70, 70, 41, 41, 8, 8, 19, 19, 4, 4, 37, 37, 142, 142, 72, 63, 72, 63, 3, 3, 108, 108, 68, 68, 6, 6, 12, 18, 41, 12, 18, 41, 4, 6, 4, 8, 25, 3, 40, 6, 18, 122, 26, 21, 20, 11, 49, 183, 92, 63, 38, 145, 12, 101, 6, 143, 8, 6, 6, 25, 96, 96, 96, 96, 13, 54, 2, 2, 7, 15, 30, 18, 18, 3, 3, 180, 7, 3, 3, 4, 6, 25, 25, 5, 5, 3, 6, 6, 7, 7, 18, 18, 22, 22, 3, 6, 6, 15, 6, 9, 3, 142, 13, 15, 8, 96, 145, 96, 145, 15, 10, 108, 56, 10, 108, 56, 3, 20, 53, 17, 3, 20, 53, 17, 33, 14, 27, 6, 2, 27, 6, 2, 33, 14, 108, 108, 79, 62, 79, 4, 346, 4, 346, 4, 3, 3, 96, 185, 64, 96, 185, 64, 3, 33, 33, 4, 3, 7, 15, 20, 20, 20, 20, 6, 1, 1, 4, 4, 17, 8, 3, 44, 1, 34, 11, 4, 159, 34, 11, 4, 159, 17, 17, 17, 30, 30, 30, 30, 21, 7, 15, 6, 9, 6, 9, 7, 7, 15, 15, 6, 9, 161, 3, 161, 3, 3, 3, 3, 4, 10, 4, 4, 4, 10, 4, 4, 3, 161, 161, 6, 4, 10, 4, 4, 1, 10, 4, 142, 141, 2, 2, 4, 4, 44, 54, 17, 9, 4, 19, 30, 16, 16, 3, 3, 3, 3, 24, 10, 24, 10, 24, 10, 76, 76, 76, 41, 21, 20, 11, 21, 20, 11, 11, 96, 38, 3, 22, 41, 6, 41, 6, 2, 6, 3, 3, 180, 20, 17, 20, 17, 2, 346, 346, 96, 96, 245, 245, 245, 183, 183, 183, 183, 3, 3, 4, 10, 3, 4, 5, 2, 4, 4, 3, 3, 6, 4, 10, 3, 9, 4, 5, 2, 4, 4, 7, 2, 4, 2, 2, 8, 1, 1, 16, 15, 83, 10, 36, 17, 108, 75, 30, 21, 56, 161, 35, 3, 161, 35, 4, 18, 3, 8, 4, 35, 35, 6, 25, 96, 15, 10, 36, 17, 108, 75, 30, 21, 56, 20, 6, 6, 20, 6, 6, 36, 36, 17, 25, 96, 7, 12, 6, 7, 4, 12, 6, 8, 8, 7, 7, 7, 12, 12, 6, 2, 7, 7, 4, 4, 58, 245, 105, 18, 54, 141, 5, 41, 179, 70, 18, 142, 245, 105, 18, 54, 141, 5, 41, 179, 18, 142, 245, 245, 54, 11, 11, 11, 12, 8, 8, 25, 2, 2, 3, 2, 16, 15, 6, 16, 15, 6, 14, 8, 4, 382, 4, 382, 4, 4, 8, 4, 146, 5, 4, 146, 5, 63, 146, 77, 77, 13, 13, 49, 13, 49, 17, 1, 1, 44, 44, 44, 44, 16, 16, 16, 27, 4, 5, 5, 8, 1, 5, 5, 13, 12, 35, 13, 18, 41, 17, 12, 35, 13, 15, 8, 76, 18, 41, 17, 6, 72, 38, 3, 22, 71, 63, 41, 6, 52, 6, 6, 72, 38, 6, 3, 25, 22, 71, 63, 96, 41, 6, 52, 6, 6, 72, 15, 4, 96, 30, 4, 6, 161, 4, 35, 146, 38, 3, 6, 3, 4, 18, 25, 22, 185, 3, 71, 122, 18, 63, 26, 64, 5, 96, 8, 41, 6, 9, 52, 63, 6, 4, 6, 72, 15, 4, 96, 30, 4, 6, 161, 4, 35, 146, 38, 3, 2, 6, 8, 3, 4, 18, 4, 8, 25, 22, 24, 185, 3, 71, 122, 18, 63, 26, 64, 5, 96, 8, 41, 6, 9, 52, 10, 63, 6, 4, 6, 6, 6, 6, 180, 180, 180, 180, 258, 258, 8, 32, 32, 30, 32, 30, 4, 4, 11, 6, 29, 7, 3, 3, 9, 6, 7, 4, 3, 9, 9, 6, 6, 8, 4, 8, 4, 6, 6, 4, 4, 5, 5, 4, 4, 18, 18, 35, 35, 22, 6, 6, 3, 4, 5, 5, 76, 76, 3, 3, 7, 4, 11, 4, 4, 8, 8, 71, 71, 8, 8, 2, 2, 2, 12, 6, 12, 71, 71, 58, 63, 63, 52, 52, 52, 29, 29, 63, 63, 161, 79, 79, 70, 70, 4, 37, 37, 2, 37, 40, 68, 37, 40, 68, 2, 53, 53, 6, 6, 6] p=0.1"]
S2 -> S2 [label="5 [32, 168, 2, 85, 188, 4, 1, 1, 12, 85, 85, 1, 1, 3, 124, 188, 10, 12, 76, 188, 188, 122, 122, 168, 168, 15, 13, 15, 13, 1, 76, 76, 105, 3, 7, 188, 1, 122, 122, 33, 33, 1, 1, 1, 85, 76, 32, 32, 16, 15, 45, 10, 33, 4, 4, 42, 7, 7, 8, 5, 16, 45, 5, 16, 45, 4, 10, 10, 5, 5, 8, 5, 16, 35, 4, 49, 149, 175, 24, 38, 3, 93, 31, 31, 45, 48, 7, 8, 5, 10, 35, 67, 4, 49, 42, 5, 9, 149, 175, 102, 24, 38, 3, 93, 16, 38, 22, 48, 48, 15, 15, 5, 5, 5, 3, 26, 11, 33, 18, 14, 318, 2, 22, 102, 128, 10, 34, 23, 5, 40, 34, 23, 5, 40, 71, 457, 457, 457, 457, 457, 457, 672, 93, 457, 672, 93, 5, 457, 5, 672, 93, 457, 5, 672, 93, 27, 21, 2, 67, 5, 24, 95, 42, 17, 17, 27, 21, 2, 67, 5, 24, 24, 38, 95, 5, 4, 9, 9, 9, 40, 35, 40, 35, 194, 71, 71, 182, 182, 182, 1, 3, 4, 4, 47, 47, 2, 71, 8, 17, 67, 121, 83, 83, 7, 7, 21, 33, 7, 7, 18, 6, 58, 6, 58, 90, 90, 115, 237, 20, 237, 20, 1, 129, 31, 31, 50, 50, 89, 89, 4, 4, 5, 5, 39, 23, 23, 5, 21, 2, 21, 2, 5, 40, 7, 7, 7, 1, 1, 3, 3, 4, 4, 14, 14, 26, 26, 12, 15, 7, 6, 7, 7, 21, 21, 107, 35, 35, 3, 4, 4, 5, 71, 71, 10, 33, 24, 33, 15, 13, 15, 13, 318, 318, 23, 23, 1, 1, 33, 18, 35, 35, 8, 5, 1, 4, 24, 6, 47, 18, 1, 1, 15, 13, 15, 13, 2, 2, 10, 10, 12, 4, 128, 1, 46, 46, 11, 11, 93, 1, 721, 33, 18, 115, 60, 9, 60, 9, 10, 102, 102, 15, 15, 5, 115, 115, 1, 89, 89, 81, 32, 1, 1, 1, 12, 1, 1, 1, 1, 1, 2, 1, 1, 1, 39, 88, 88, 1, 1, 39, 2, 1, 2, 1, 122, 122, 1, 1, 105, 7, 7, 14, 1, 1, 85, 79, 76, 12, 39, 188, 1, 1, 91, 91, 33, 33, 39, 1, 1, 56, 56, 107, 4, 4, 3, 2, 1, 1, 14, 14, 48, 50, 23, 48, 50, 23, 12, 10, 10, 4, 4, 4, 4, 3, 3, 23, 23, 16, 16, 3, 3, 6, 6, 22, 83, 129, 129, 2, 2, 32, 36, 61, 36, 61, 4, 16, 10, 3, 3, 16, 82, 15, 15, 46, 9, 15, 95, 1, 14, 209, 81, 32, 35, 1, 56, 21, 27, 35, 10, 10, 107, 107, 68, 68, 83, 1, 1, 1, 8, 14, 2, 88, 7, 71, 10, 7, 10, 7, 18, 31, 7, 8, 5, 16, 18, 31, 49, 90, 19, 15, 49, 90, 19, 15, 179, 14, 2, 10, 10, 11, 106, 11, 106, 3, 3, 21, 48, 21, 48, 6, 48, 48, 11, 4, 42, 5, 175, 4, 42, 5, 175, 15, 15, 10, 57, 10, 15, 15, 110, 179, 179, 16, 16, 6, 6, 12, 12, 1, 5, 18, 18, 1, 188, 88, 188, 88, 19, 19, 1, 1, 19, 19, 1, 1, 2, 1, 2, 1, 1, 1, 42, 42, 1, 1, 35, 6, 2, 8, 16, 5, 22, 16, 88, 71, 1, 18, 10, 17, 3, 10, 17, 3, 3, 3, 10, 3, 3, 27, 27, 15, 35, 15, 6, 82, 21, 34, 23, 83, 5, 40, 82, 21, 48, 34, 23, 83, 5, 40, 4, 83, 83, 88, 71, 46, 95, 46, 9, 95, 5, 95, 95, 1, 14, 14, 88, 71, 88, 71, 39, 209, 209, 8, 21, 46, 9, 15, 5, 95, 4, 130, 3, 3, 3, 121, 3, 3, 8, 4, 5, 3, 3, 121, 6, 3, 8, 3, 8, 4, 5, 22, 7, 8, 1, 14, 21, 21, 32, 3, 3, 3, 5, 3, 3, 3, 5, 8, 39, 209, 81, 10, 3, 10, 3, 35, 68, 21, 18, 3, 8, 46, 21, 34, 34, 40, 5, 1, 5, 5, 56, 3, 27, 35, 35, 35, 15, 35, 15, 130, 1, 11, 93, 1, 2, 10, 7, 7, 5, 8, 8, 3, 105, 7, 22, 4, 104, 5, 17, 121, 128, 128, 33, 33, 168, 168, 15, 15, 4, 48, 48, 9, 19, 19, 10, 10, 3, 19, 27, 106, 104, 104, 60, 9, 24, 2, 2, 3, 3, 10, 33, 33, 1, 6, 48, 23, 48, 23, 60, 9, 60, 9, 4, 42, 4, 42, 721, 721, 33, 33, 74, 27, 83, 79, 19, 23, 3, 128, 74, 27, 83, 79, 83, 24, 24, 3, 2, 82, 21, 88, 48, 7, 34, 23, 71, 83, 102, 10, 5, 40, 81, 10, 17, 10, 3, 81, 10, 10, 17, 10, 3, 3, 12, 10, 10, 10, 102, 102, 82, 21, 88, 48, 7, 34, 23, 71, 4, 83, 102, 10, 5, 40, 32, 8, 2, 721, 4, 3, 3, 7, 17, 121, 3, 6, 3, 8, 3, 39, 8, 16, 18, 209, 77, 4, 5, 130, 22, 4, 3, 3, 7, 17, 121, 3, 8, 6, 3, 7, 8, 3, 8, 39, 8, 16, 18, 209, 77, 4, 5, 130, 16, 22, 4, 7, 3, 18, 130, 7, 3, 18, 46, 3, 11, 10, 46, 11, 3, 3, 4, 4, 128, 128, 2, 33, 93, 33, 33, 27, 21, 2, 67, 42, 5, 5, 24, 3, 24, 38, 56, 93, 95, 17, 33, 33, 27, 21, 21, 2, 67, 42, 5, 5, 24, 3, 24, 38, 56, 93, 95, 17, 33, 8, 105, 1, 1, 3, 3, 33, 33, 33, 33, 33, 122, 39, 85, 74, 27, 27, 74, 27, 79, 1, 1, 2, 1, 27, 11, 11, 11, 91, 91, 74, 3, 1, 1, 1, 7, 14, 124, 124, 1, 1, 2, 33, 33, 17, 33, 33, 24, 7, 5, 8, 8, 24, 24, 24, 4, 3, 3, 4, 10, 10, 40, 12, 35, 9, 4, 10, 10, 40, 12, 45, 35, 9, 10, 10, 721, 721, 721, 182, 54, 54, 4, 20, 90, 672, 672, 672, 672, 672, 5, 5, 5, 5, 1, 1, 1, 1, 132, 12, 103, 194, 132, 12, 103, 194, 103, 88, 1, 1, 17, 3, 4, 14, 22, 102, 22, 102, 35, 68, 22, 102, 35, 68, 22, 102, 111, 46, 9, 15, 46, 3, 4, 3, 3, 35, 7, 5, 17, 121, 68, 104, 3, 107, 237, 8, 6, 3, 115, 7, 8, 3, 8, 5, 39, 8, 36, 16, 20, 23, 18, 3, 22, 95, 209, 102, 60, 7, 82, 9, 41, 77, 4, 5, 61, 11, 130, 16, 22, 19, 4, 6, 111, 46, 32, 10, 15, 9, 15, 46, 7, 3, 4, 3, 3, 35, 7, 5, 17, 121, 68, 104, 3, 107, 237, 4, 4, 8, 6, 3, 115, 8, 7, 8, 3, 24, 4, 2, 8, 5, 5, 39, 8, 36, 16, 20, 23, 18, 3, 22, 95, 209, 721, 102, 60, 35, 7, 82, 9, 4, 18, 41, 77, 4, 5, 61, 11, 130, 3, 16, 22, 19, 4, 6, 46, 3, 35, 68, 104, 107, 237, 20, 23, 22, 102, 60, 9, 11, 35, 68, 104, 107, 237, 20, 23, 22, 102, 60, 9, 14, 21, 48, 20, 24, 6, 14, 89, 318, 11, 26, 2, 538, 14, 21, 48, 20, 24, 6, 14, 89, 318, 11, 26, 2, 538, 24, 14, 318, 2, 24, 14, 318, 11, 2, 1, 1, 54, 5, 1, 1, 54, 5, 1, 1, 1, 1, 1, 105, 1, 1, 1, 1, 105, 11, 1, 1, 1, 1, 1, 1, 1, 1, 1, 76, 83, 83, 16, 6, 16, 6, 6, 6, 188, 19, 19, 19, 1, 1, 11, 11, 52, 52, 3, 52, 3, 5, 128, 128, 4, 111, 1, 1, 1, 1, 8, 8, 8, 7, 23, 5, 17, 5, 17, 8, 10, 3, 3, 4, 7, 7, 8, 23, 6, 3, 40, 8, 39, 10, 3, 23, 74, 6, 3, 79, 104, 132, 12, 8, 8, 5, 16, 5, 16, 8, 5, 2, 8, 5, 4, 4, 71, 71, 8, 8, 9, 9, 12, 12, 12, 4, 4, 4, 4, 4, 8, 6, 22, 2, 10, 5, 5, 5, 4, 4, 4, 4, 3, 8, 6, 22, 3, 15, 15, 9, 9, 22, 22, 9, 9, 8, 8, 93, 93, 93, 46, 4, 4, 4, 12, 82, 82, 7, 7, 7, 7, 8, 8, 4, 4, 17, 17, 150, 150, 50, 50, 130, 130, 38, 38, 17, 17, 18, 18, 14, 14, 57, 57, 4, 4, 11, 11, 88, 7, 3, 4, 4, 2, 5, 237, 20, 5, 48, 16, 33, 12, 4, 3, 128, 3, 85, 85, 33, 14, 14, 15, 15, 104, 16, 16, 95, 5, 175, 175, 91, 24, 124, 12, 18, 115, 115, 1, 1, 2, 35, 36, 61, 12, 1, 14, 18, 18, 5, 3, 3, 107, 107, 3, 150, 35, 3, 150, 35, 6, 3, 3, 3, 58, 107, 23, 107, 23, 18, 18, 179, 179, 74, 79, 74, 83, 1, 1, 2, 1, 2, 150, 35, 150, 35, 23, 23, 11, 11, 21, 21, 46, 46, 93, 93, 88, 88, 88, 88, 105, 107, 107, 7, 2, 5, 2, 2, 2, 128, 128, 4, 124, 121, 5, 31, 31, 4, 4, 4, 4, 4, 4, 4, 4, 4, 4, 4, 81, 19] p=0.15"]
S264 -> S265 [label="2 [14, 5, 6, 3, 17, 4, 3, 16, 11, 17, 4, 8, 2, 6, 6, 7, 10, 27, 15, 29, 17, 51, 9, 4, 4, 8, 24, 30, 10, 173, 245, 48, 4, 37, 17, 238, 15, 9, 58, 15, 27, 121, 78, 55, 23, 112, 11, 4, 17, 27, 3, 4, 16, 5, 8, 3, 3, 6, 8, 4, 12, 9, 12, 3, 5, 6, 10, 2, 3, 3, 8, 14, 5, 3, 2, 2, 3, 3, 4, 3, 4, 2, 11, 1, 2, 3, 4, 3, 8, 5, 8, 7, 3, 7, 3, 5, 7, 8, 5, 7, 7, 9, 26, 18, 12, 2, 6, 4, 4, 3, 4, 4, 6, 13, 15, 22, 13, 8, 5, 10, 20, 11, 4, 4, 11, 6, 2, 4, 5, 4, 7, 23, 2, 5, 7, 6, 6, 3, 7, 3, 11, 9, 3, 4, 6, 2, 3, 4, 13, 6, 5, 20, 2, 4, 3, 7, 21, 34, 12, 22, 4, 5, 30, 3, 16, 10, 3, 6, 3, 22, 3, 12, 9, 13, 5, 11, 4, 5, 12, 14, 5, 6, 3, 17, 4, 6, 9, 16, 4, 3, 16, 9, 11, 17, 4, 8, 1, 2, 6, 6, 7, 10, 27, 15, 29, 17, 51, 3, 9, 3, 4, 4, 1, 8, 24, 1, 43, 30, 10, 173, 245, 459, 30, 200, 1, 48, 21, 4, 37, 17, 238, 15, 9, 4, 18, 1, 1, 58, 15, 1, 1, 27, 29, 121, 78, 55, 23, 14, 112, 11, 1, 4, 12, 2, 17, 23, 27, 15, 3, 4, 16, 8, 5, 8, 3, 3, 6, 8, 4, 12, 9, 12, 3, 5, 19, 6, 14, 10, 2, 3, 3, 2, 8, 14, 5, 1, 3, 1, 2, 2, 3, 3, 4, 3, 4, 2, 1, 11, 1, 2, 3, 4, 3, 8, 5, 8, 7, 3, 7, 3, 1, 5, 7, 8, 5, 1, 7, 7, 7, 6, 9, 26, 3, 18, 12, 2, 6, 4, 4, 3, 4, 4, 6, 13, 15, 22, 2, 41, 13, 8, 5, 10, 1, 20, 11, 4, 4, 11, 6, 2, 4, 5, 4, 7, 16, 23, 2, 5, 7, 6, 6, 3, 7, 3, 11, 1, 9, 3, 4, 6, 2, 3, 4, 13, 6, 5, 20, 1, 2, 4, 3, 7, 11, 21, 34, 12, 22, 4, 3, 5, 30, 18, 3, 16, 10, 30, 3, 6, 3, 22, 3, 12, 9, 13, 5, 14, 11, 4, 5, 12] p=0.84"]
S264 -> S2 [label="4 [1, 1, 180, 1, 1, 1, 1, 8, 180, 25, 1, 1] p=0.02"]
S264 -> S615 [label="5 [1, 1, 1, 1, 1, 1, 105, 1, 12, 1, 91, 3, 11, 1, 76, 1, 2, 1, 1, 1, 1, 2, 1, 1, 1, 1, 1, 1, 1, 33, 122, 105, 7, 1, 12, 1, 128, 33, 168, 188, 74, 91, 124, 12, 3, 27, 88, 83, 11, 79, 39, 1, 14, 76, 1, 85, 2, 1, 1, 1, 1, 2, 19, 1] p=0.13"]
S68 -> S2 [label="2 [1, 1, 3, 4, 4, 2, 4, 3, 2, 3, 4, 5, 9, 3, 3, 3, 5, 27, 10, 2, 4, 5, 3, 21, 3, 4, 2, 2, 3, 3, 14, 4, 2, 7, 3, 2, 3, 4, 8, 8, 2, 4, 4, 5, 7, 6, 5, 6, 4, 6, 5, 8, 3, 5, 5, 9, 4, 4, 3, 3, 4, 2, 5, 3, 3, 4, 2, 2, 3, 5, 3, 2, 3, 3, 2, 2, 4, 4, 3, 7, 2, 2, 4, 2, 1, 1, 2, 3, 3, 2, 4, 2, 3, 2, 2, 2, 3, 2, 3, 4, 2, 5, 4, 4, 3, 2, 3, 4, 3, 4, 2, 3, 3, 7, 7, 3, 4, 4, 2, 4, 3, 3, 2, 3, 6, 4, 2, 2, 1, 4, 2, 3, 5, 3, 3, 4, 2, 3, 2, 2, 5, 8, 8, 4, 3, 3, 3, 2] p=0.73"]
S68 -> S2 [label="3 [4, 3, 1, 3, 2, 3, 7, 6, 4, 3, 9, 5, 5, 5, 6, 3, 16, 4, 9, 6, 2, 2, 3, 2, 2, 3, 2, 6, 3, 2, 6, 2, 3, 3] p=0.17"]
S68 -> S940 [label="4 [3, 7, 3, 5, 6, 4, 10, 8, 3, 9, 4, 5, 2, 3, 2, 2, 6, 4, 1, 6, 4] p=0.1"]
S68 -> S2 [label="6 [2] p=0.0"]
S134 -> S2 [label="1 [2] p=0.01"]
S134 -> S163 [label="2 [2, 2, 3, 4, 4, 3, 3, 4, 4, 8, 5, 17, 11, 2, 13, 71, 7, 4, 30, 22, 10, 7, 16, 114, 6, 10, 6, 13, 4, 95, 26, 56, 3, 40, 11, 80, 116, 31, 7, 5, 4, 15, 3, 18, 8, 20, 3, 6, 4, 18, 5, 7, 6, 2, 3, 6, 2, 1, 5, 2, 4, 3, 3, 3, 5, 3, 3, 2, 2, 2, 3, 2, 4, 2, 9, 4, 8, 5, 6, 6, 4, 5, 4, 1, 10, 4, 2, 7, 3, 6, 3, 2, 4, 2, 10, 4, 2, 4, 5, 4, 2, 4, 4, 7, 14, 9, 3, 2, 4, 7, 5, 10, 3, 2, 3, 3] p=0.8"]
S134 -> S503 [label="5 [1, 54, 1, 5, 182, 18, 33, 1, 1, 1] p=0.07"]
S134 -> S2 [label="3 [10, 4, 65, 50, 3, 61, 17, 3, 8, 9, 9, 3, 2, 2, 6, 7, 5, 20] p=0.12"]
S427 -> S2 [label="2 [4, 6, 9, 16, 9, 1, 1, 1, 459, 30, 200, 18, 1, 1, 29, 14, 1, 12, 19, 14, 1, 1, 6, 3, 41, 1, 16, 1, 11, 3, 30, 14] p=0.64"]
S427 -> S1237 [label="5 [33, 122, 7, 128, 33, 168, 74, 124, 12, 27, 83, 79, 39, 14, 85, 19] p=0.32"]
S427 -> S2 [label="4 [8, 25] p=0.04"]
S1199 -> S941 [label="2 [1, 98, 5, 34, 21, 54, 24, 11, 219, 119, 269, 1, 198, 15, 1, 1, 1, 1, 1, 10, 5, 1, 2, 1] p=0.77"]
S1199 -> S2 [label="3 [41, 6, 1] p=0.1"]
S1199 -> S2176 [label="5 [23, 128, 107] p=0.1"]
S1199 -> S3 [label="5 [3] p=0.03"]
S265 -> S266 [label="3 [70, 115, 124, 13, 74, 27, 25, 59, 29, 126, 145, 6, 16, 10, 11, 10, 216, 19, 12, 4, 24, 5, 10, 29, 4, 10, 11, 101, 166, 118, 50, 5, 80, 163, 245, 56, 143, 246, 13, 33, 90, 4, 8, 83, 52, 70, 29, 6, 13, 6, 66, 2, 105, 29, 13, 93, 26, 5, 125, 66, 28, 52, 12, 25, 27, 88, 4, 14, 36, 45, 3, 18, 22, 12, 70, 115, 124, 92, 13, 74, 27, 41, 25, 59, 29, 126, 145, 6, 16, 10, 9, 11, 10, 216, 19, 12, 4, 151, 24, 5, 10, 35, 29, 40, 11, 14, 4, 10, 11, 101, 166, 792, 118, 50, 5, 80, 163, 245, 56, 143, 246, 13, 33, 33, 90, 10, 4, 8, 83, 52, 70, 29, 5, 6, 13, 6, 66, 2, 105, 29, 13, 93, 26, 94, 5, 125, 66, 28, 10, 52, 12, 25, 27, 88, 4, 14, 94, 36, 45, 3, 18, 5, 22, 12] p=0.4"]
S265 -> S270 [label="4 [143, 62, 8, 96, 58, 29, 14, 8, 4, 245, 4, 105, 18, 54, 141, 4, 79, 346, 147, 92, 16, 258, 145, 12, 44, 44, 5, 41, 179, 70, 32, 101, 18, 27, 61, 4, 20, 6, 382, 142, 30, 8, 2, 143, 16, 62, 8, 96, 58, 150, 29, 15, 83, 3, 10, 14, 8, 4, 245, 36, 17, 4, 105, 18, 108, 54, 141, 4, 75, 79, 346, 147, 30, 92, 16, 258, 145, 12, 44, 20, 53, 44, 5, 41, 17, 179, 70, 32, 101, 18, 27, 21, 61, 4, 20, 6, 382, 142, 30, 8, 56, 2] p=0.25"]
S265 -> S384 [label="5 [52, 15, 27, 33, 4, 27, 21, 3, 4, 21, 2, 10, 35, 67, 49, 42, 42, 5, 10, 16, 5, 132, 11, 10, 5, 9, 149, 110, 175, 90, 40, 24, 3, 106, 24, 32, 12, 38, 103, 56, 19, 57, 3, 93, 15, 95, 12, 17, 3, 33, 33, 45, 6, 179, 35, 9, 15, 194, 52, 82, 21, 88, 15, 27, 33, 4, 7, 48, 27, 21, 7, 8, 3, 4, 34, 23, 71, 5, 21, 2, 10, 16, 35, 18, 67, 4, 49, 42, 42, 5, 10, 16, 5, 132, 11, 10, 83, 5, 9, 31, 149, 110, 175, 90, 40, 102, 24, 3, 106, 24, 32, 12, 38, 103, 10, 56, 19, 57, 3, 93, 15, 95, 12, 17, 3, 5, 33, 40, 33, 45, 6, 179, 35, 9, 15, 194] p=0.33"]
S265 -> S2 [label="1 [114, 474, 51, 76, 114, 474, 51, 76] p=0.02"]
S615 -> S616 [label="2 [4, 2, 3, 2, 3, 39, 2, 3, 2, 2, 4, 3, 4, 2, 3, 2, 3, 9, 8, 11, 3, 3, 5, 14, 26, 39, 3, 2, 3, 2, 2, 4, 2, 3] p=0.53"]
S615 -> S717 [label="3 [6, 7, 3, 17, 14, 7, 5, 3, 6, 7, 3, 17, 5, 3, 14, 4, 7, 4, 5, 3] p=0.31"]
S615 -> S1246 [label="4 [7, 3, 3, 12, 11, 6, 4, 3, 11, 4] p=0.16"]
S163 -> S164 [label="4 [305, 12, 5, 35, 13, 5, 15, 8, 19, 33, 76, 18, 13, 21, 11, 41, 16, 77, 63, 20, 15, 14, 11, 22, 49, 6, 29, 17, 305, 34, 11, 12, 5, 20, 35, 13, 5, 15, 6, 8, 19, 33, 76, 4, 18, 37, 40, 13, 159, 21, 11, 41, 16, 77, 63, 20, 68, 15, 14, 11, 22, 49, 6, 29, 17, 6] p=0.25"]
S163 -> S2 [label="1 [18, 18] p=0.01"]
S163 -> S2 [label="5 [71, 15, 14, 21, 22, 3, 6, 48, 20, 8, 24, 14, 6, 4, 33, 2, 58, 150, 35, 14, 89, 90, 13, 318, 47, 48, 50, 23, 11, 26, 17, 2, 16, 38, 129, 538, 71, 15, 81, 4, 14, 21, 22, 3, 6, 48, 20, 8, 24, 3, 12, 14, 10, 6, 3, 4, 10, 4, 33, 17, 2, 58, 150, 35, 14, 4, 89, 90, 13, 318, 47, 48, 50, 23, 10, 11, 26, 17, 2, 3, 10, 4, 16, 38, 129, 538] p=0.33"]
S163 -> S247 [label="3 [21, 27, 31, 13, 41, 101, 89, 8, 91, 18, 5, 31, 2, 4, 10, 108, 19, 80, 83, 20, 194, 337, 224, 21, 128, 53, 63, 277, 71, 25, 20, 29, 36, 183, 43, 6, 34, 45, 2, 115, 43, 64, 14, 16, 15, 11, 21, 21, 21, 27, 31, 13, 41, 101, 89, 8, 91, 18, 5, 4, 31, 2, 3, 56, 4, 10, 9, 108, 19, 80, 83, 20, 194, 337, 224, 21, 128, 53, 63, 277, 71, 25, 20, 29, 36, 183, 43, 6, 34, 45, 2, 115, 43, 64, 14, 16, 15, 11, 21, 21] p=0.38"]
S163 -> S9 [label="1 [170, 170] p=0.01"]
S163 -> S32 [label="1 [190, 181, 190, 181] p=0.02"]
S503 -> S350 [label="2 [2, 9, 7, 37, 31, 2, 1] p=0.7"]
S503 -> S3 [label="3 [7] p=0.1"]
S503 -> S4 [label="3 [6] p=0.1"]
S503 -> S18 [label="3 [4] p=0.1"]
S1237 -> S362 [label="4 [7, 3, 12, 6] p=0.25"]
S1237 -> S1347 [label="2 [9, 8, 3, 3, 14, 26, 3, 2] p=0.5"]
S1237 -> S2088 [label="3 [5, 3, 4, 4] p=0.25"]
S1246 -> S2 [label="3 [41] p=0.1"]
S1246 -> S1403 [label="2 [5, 54, 5] p=0.3"]
S1246 -> S2 [label="5 [107, 107] p=0.2"]
S1246 -> S5 [label="2 [98, 119, 269, 119] p=0.4"]
S2176 -> S2 [label="4 [7, 4] p=0.67"]
S2176 -> S2 [label="3 [104] p=0.33"]
S266 -> S267 [label="2 [5, 6, 17, 3, 16, 4, 8, 10, 27, 15, 29, 51, 10, 245, 37, 9, 78, 23, 3, 12, 9, 5, 14, 3, 4, 3, 4, 2, 1, 2, 3, 5, 8, 7, 7, 12, 6, 4, 4, 13, 15, 5, 10, 11, 5, 2, 5, 7, 6, 3, 7, 3, 4, 3, 5, 4, 3, 7, 12, 22, 4, 30, 6, 9, 5, 5, 12, 5, 6, 17, 4, 3, 16, 11, 4, 8, 10, 27, 15, 29, 51, 9, 10, 245, 37, 9, 58, 78, 23, 17, 27, 3, 5, 3, 12, 9, 5, 14, 2, 3, 4, 3, 4, 2, 1, 2, 3, 5, 8, 7, 5, 7, 18, 12, 6, 4, 4, 13, 15, 5, 10, 11, 5, 2, 5, 7, 6, 3, 7, 9, 3, 4, 3, 5, 2, 4, 3, 7, 12, 22, 4, 30, 3, 6, 9, 5, 11, 5, 12, 6, 16, 8, 27, 15, 29, 9, 4, 3, 4, 2, 2, 8, 4, 15, 10, 5, 7, 6, 7, 4, 3, 7, 22, 4, 12, 6, 3, 16, 8, 27, 15, 29, 9, 4, 3, 4, 2, 2, 8, 12, 4, 15, 10, 5, 7, 6, 7, 3, 4, 4, 3, 7, 22, 4, 12, 16, 15, 29, 3, 4, 2, 7, 6, 4, 3, 7, 4, 15, 29, 3, 4, 2, 7, 6, 7, 4, 29, 4, 2, 6, 29, 4, 2, 6, 7] p=0.89"]
S266 -> S2 [label="4 [1, 1, 1, 1, 1, 1, 1] p=0.03"]
S266 -> S2 [label="5 [1, 1, 1, 1, 1, 1, 2, 1, 1, 1, 1, 1, 2, 1, 1, 1, 1, 1, 2, 1, 1] p=0.08"]
S384 -> S385 [label="2 [4, 4, 3, 2, 3, 3, 27, 10, 4, 4, 5, 5, 4, 2, 2, 2, 2, 4, 1, 2, 3, 2, 3, 4, 4, 4, 3, 3, 4, 3, 7, 4, 4, 3, 4, 2, 1, 4, 2, 5, 8, 4, 3, 3, 4, 4, 2, 4, 3, 2, 3, 4, 5, 3, 3, 5, 27, 10, 3, 2, 4, 4, 5, 4, 3, 5, 4, 2, 2, 2, 2, 4, 2, 1, 2, 2, 3, 2, 3, 4, 2, 4, 4, 3, 3, 4, 3, 7, 3, 4, 4, 3, 4, 2, 1, 4, 5, 4, 2, 5, 8, 4, 3, 3] p=0.76"]
S384 -> S2 [label="6 [2, 2] p=0.01"]
S384 -> S2 [label="3 [1, 7, 9, 5, 6, 2, 2, 3, 6, 3, 3, 7, 6, 2, 2, 3, 6, 3, 3] p=0.14"]
S384 -> S482 [label="4 [7, 2, 3, 2, 6, 6, 2, 3, 2, 6, 6] p=0.08"]
S616 -> S617 [label="5 [10, 15, 35, 4, 18, 10, 15, 7, 4, 4, 24, 4, 5, 35, 4, 18, 3] p=0.5"]
S616 -> S251 [label="3 [59, 26, 87, 3, 155, 59, 26, 87, 9, 3, 155] p=0.32"]
S616 -> S482 [label="4 [2, 8, 24, 10, 24, 10] p=0.18"]
S717 -> S718 [label="2 [1, 1, 41, 1, 1, 41] p=0.3"]
S717 -> S1381 [label="5 [128, 124, 14, 128, 33, 168, 124, 14] p=0.4"]
S717 -> S2 [label="4 [8, 8, 25] p=0.15"]
S717 -> S6 [label="5 [7, 7] p=0.1"]
S717 -> S2 [label="5 [12] p=0.05"]
S164 -> S165 [label="2 [2, 30, 16, 7, 15, 3, 2, 2, 2, 8, 5, 6, 3, 2, 10, 5, 4, 7, 3, 5, 2, 3, 4, 30, 10, 16, 7, 15, 3, 6, 7, 2, 4, 2, 2, 8, 5, 6, 3, 6, 2, 10, 5, 4, 7, 3, 5, 2] p=0.73"]
S164 -> S349 [label="3 [4, 50, 3, 3, 2, 5, 4, 50, 3, 3, 9, 2, 5] p=0.2"]
S164 -> S19 [label="5 [33, 33] p=0.03"]
S164 -> S7 [label="5 [1, 1, 18] p=0.05"]
S247 -> S248 [label="2 [14, 3, 2, 6, 17, 4, 30, 4, 15, 4, 6, 3, 6, 3, 2, 11, 7, 3, 3, 7, 2, 3, 4, 6, 2, 4, 7, 23, 6, 3, 11, 4, 34, 5, 16, 3, 22, 3, 14, 3, 2, 6, 17, 4, 30, 4, 17, 15, 112, 4, 6, 3, 6, 3, 2, 11, 7, 3, 3, 7, 2, 3, 4, 6, 2, 4, 7, 23, 6, 3, 11, 4, 34, 5, 16, 3, 22, 3] p=0.78"]
S247 -> S315 [label="4 [1, 180, 1, 1, 1, 180, 1, 1] p=0.08"]
S247 -> S600 [label="5 [76, 76] p=0.02"]
S247 -> S16 [label="5 [91] p=0.01"]
S247 -> S25 [label="5 [1, 1, 1, 2, 1, 1, 1, 2] p=0.08"]
S247 -> S26 [label="5 [3] p=0.01"]
S247 -> S27 [label="5 [12, 12] p=0.02"]
S270 -> S271 [label="2 [4, 17, 2, 5, 4, 2, 4, 17, 2, 5, 9, 4, 2, 4, 17, 6, 2, 3, 5, 2, 9, 2, 4, 2, 2, 9, 4, 17, 6, 5, 2, 3, 5, 2, 9, 2, 4, 2, 2, 9, 17, 2, 4, 17, 2, 4, 4, 8, 17, 2, 22, 31, 5, 8, 18, 2, 6, 5, 2, 3, 5, 3, 2, 2, 9, 4, 4, 1, 2, 7, 3, 4, 4, 2, 4, 4, 2, 4, 9, 4, 10, 4, 4, 8, 17, 2, 4, 22, 10, 6, 26, 3, 31, 5, 4, 3, 8, 18, 5, 2, 6, 1, 5, 2, 3, 3, 5, 3, 2, 2, 4, 2, 9, 4, 6, 4, 1, 2, 7, 3, 4, 2, 4, 2, 4, 4, 2, 4, 9, 4, 10] p=0.85"]
S270 -> S2 [label="3 [61, 61, 61, 61] p=0.03"]
S270 -> S2 [label="5 [182, 182, 182, 1, 182, 1, 1] p=0.05"]
S270 -> S3 [label="3 [10, 10, 8, 10, 8, 3, 2, 7, 10, 8, 3, 2, 7] p=0.08"]
S940 -> S941 [label="2 [11, 6, 4, 20, 3, 7, 3, 6, 7, 3, 3, 3, 1, 34, 24, 219, 1, 198, 15, 1, 1, 1, 1, 1, 10, 5, 1, 2, 1, 30, 7, 15, 2, 2, 8, 3, 2, 10, 5, 4, 7, 3, 7, 2, 2, 8, 3, 2, 5, 4, 7, 3, 2, 4, 3, 2, 4, 3] p=0.84"]
S940 -> S2 [label="3 [6, 6, 6, 1, 5, 5] p=0.09"]
S940 -> S2 [label="5 [1, 54, 54, 23, 128] p=0.07"]
S941 -> S2 [label="4 [12, 18, 41, 17, 17, 20, 6, 37, 40, 68, 6, 20, 6, 37, 40, 68, 6, 4, 18, 11, 77, 11, 77] p=0.26"]
S941 -> S2 [label="5 [81, 4, 3, 12, 10, 3, 4, 10, 17, 4, 10, 3, 10, 4, 81, 10, 10, 17, 4, 10, 3, 10, 4, 8, 16, 20, 538, 20, 538, 538, 4, 90, 16, 4, 90, 16, 90, 16, 90, 16] p=0.44"]
S941 -> S349 [label="3 [5, 108, 183, 6, 45, 43, 64, 14, 183, 6, 43, 64, 14, 64, 64, 3, 43, 10, 43, 10, 4, 3, 56, 9, 56, 9, 2] p=0.3"]
S3 -> S2 [label="2 [3, 3, 15, 3, 15, 1, 1, 2, 3, 15, 1, 1, 2, 8, 14, 3, 2, 3, 2, 2, 1, 1, 9] p=1.0"]
S9 -> S31 [label="2 [1, 1, 1, 1, 1, 1, 1, 1] p=1.0"]
S32 -> S183 [label="2 [2, 2, 2, 2] p=1.0"]
S1347 -> S1348 [label="5 [7, 4, 24, 5, 3] p=0.62"]
S1347 -> S482 [label="4 [2, 8] p=0.25"]
S1347 -> S11 [label="3 [9] p=0.12"]
S1403 -> S315 [label="3 [4, 4, 3] p=1.0"]
S2088 -> S482 [label="5 [33, 168, 12] p=0.75"]
S2088 -> S2 [label="4 [25] p=0.25"]
S267 -> S266 [label="3 [115, 74, 27, 59, 29, 145, 6, 16, 12, 11, 50, 5, 80, 163, 56, 13, 52, 29, 13, 105, 29, 13, 26, 125, 12, 25, 88, 4, 12, 115, 13, 74, 27, 59, 29, 145, 6, 16, 12, 29, 11, 50, 5, 80, 163, 56, 13, 4, 52, 29, 13, 105, 29, 13, 26, 5, 125, 52, 12, 25, 88, 4, 36, 12, 74, 27, 29, 6, 16, 5, 80, 163, 29, 13, 125, 12, 25, 4, 27, 29, 6, 16, 5, 80, 163, 29, 13, 25, 4, 27, 16, 80, 163, 13, 25, 16, 80, 163, 13, 163] p=0.43"]
S267 -> S371 [label="5 [52, 3, 4, 10, 10, 132, 11, 110, 40, 106, 32, 12, 103, 57, 3, 12, 3, 33, 45, 35, 9, 194, 52, 15, 4, 3, 4, 10, 35, 42, 5, 10, 132, 11, 110, 175, 40, 106, 32, 12, 103, 57, 3, 12, 3, 33, 45, 35, 9, 15, 194, 132, 110, 32, 12, 103, 3, 3, 33, 194, 132, 110, 32, 12, 103, 3, 3, 33, 194, 3, 3, 33, 3, 33, 3] p=0.32"]
S267 -> S270 [label="4 [143, 8, 147, 16, 61, 4, 143, 8, 147, 16, 44, 61, 4, 143, 8, 96, 14, 8, 4, 147, 92, 16, 145, 44, 32, 61, 4, 382, 30, 143, 8, 96, 14, 8, 4, 4, 346, 147, 92, 16, 145, 44, 32, 61, 4, 382, 30, 8, 147, 61, 8, 147, 61, 8, 147, 61] p=0.24"]
S385 -> S386 [label="5 [111, 36, 3, 7, 82, 41, 61, 19, 4, 6, 111, 46, 9, 15, 5, 115, 5, 36, 3, 95, 7, 82, 41, 61, 19, 4, 6] p=0.26"]
S385 -> S654 [label="3 [1, 7, 34, 17, 6, 48, 22, 101, 8, 268, 40, 120, 16, 18, 9, 5, 28, 5, 56, 5, 6, 1, 7, 140, 34, 17, 6, 48, 22, 101, 8, 268, 40, 21, 120, 16, 18, 9, 57, 5, 28, 5, 56, 5, 78, 6] p=0.44"]
S385 -> S481 [label="4 [15, 4, 96, 30, 4, 6, 4, 146, 3, 185, 122, 18, 64, 5, 8, 9, 63, 4, 4, 96, 4, 4, 146, 3, 185, 122, 64, 5, 8, 63, 4] p=0.3"]
S617 -> S349 [label="3 [2, 3, 6, 2, 3, 6] p=0.35"]
S617 -> S941 [label="2 [2, 7, 5, 9, 5, 3, 3, 5, 3] p=0.53"]
S617 -> S2154 [label="4 [9] p=0.06"]
S617 -> S11 [label="4 [6] p=0.06"]
S718 -> S25 [label="4 [16, 83, 16, 83, 3] p=0.62"]
S718 -> S2 [label="3 [4, 5, 5] p=0.38"]
S1381 -> S2075 [label="3 [5, 4, 5, 3, 4] p=0.62"]
S1381 -> S12 [label="2 [8, 26, 26] p=0.38"]
S165 -> S2 [label="1 [18, 18] p=0.04"]
S165 -> S482 [label="4 [11, 77, 63, 11, 77, 63] p=0.12"]
S165 -> S349 [label="5 [15, 3, 6, 4, 58, 150, 35, 90, 13, 16, 6, 4, 58, 90, 16] p=0.31"]
S165 -> S2 [label="3 [13, 5, 108, 277, 25, 183, 43, 6, 45, 43, 64, 14, 11, 21, 5, 108, 277, 25, 183, 6, 45, 43, 64, 14, 11] p=0.52"]
S183 -> S2 [label="3 [100, 100] p=0.5"]
S183 -> S30 [label="1 [110, 110] p=0.5"]
S248 -> S249 [label="3 [70, 124, 10, 11, 10, 19, 24, 101, 245, 33, 8, 83, 6, 66, 2, 93, 27, 14, 70, 124, 10, 11, 10, 19, 24, 101, 245, 33, 8, 83, 6, 66, 2, 93, 27, 14, 89, 2, 89, 18, 2, 16] p=0.41"]
S248 -> S748 [label="4 [62, 79, 258, 12, 101, 27, 20, 6, 8, 2, 62, 29, 4, 79, 258, 12, 101, 27, 20, 6, 8, 2, 12, 35, 18, 41, 17, 12, 35, 18, 41, 17] p=0.31"]
S248 -> S771 [label="5 [27, 49, 16, 10, 149, 90, 19, 15, 6, 179, 27, 49, 16, 10, 149, 90, 19, 15, 6, 179, 14, 20, 89, 26, 538, 20, 26, 538] p=0.27"]
S315 -> S316 [label="2 [6, 3, 2, 6, 3, 2, 17, 17] p=0.73"]
S315 -> S2 [label="5 [1, 1, 91] p=0.27"]
S600 -> S24 [label="2 [39, 39] p=1.0"]
S271 -> S272 [label="3 [27, 8, 224, 2, 115, 27, 8, 224, 71, 2, 115, 27, 8, 224, 63, 71, 36, 2, 115, 27, 8, 337, 224, 63, 71, 36, 2, 115, 8, 224, 2, 27, 101, 8, 91, 19, 83, 337, 224, 53, 63, 71, 20, 36, 34, 2, 115, 27, 41, 101, 8, 91, 31, 19, 83, 20, 194, 337, 224, 21, 53, 63, 71, 20, 36, 34, 2, 115] p=0.53"]
S271 -> S1742 [label="5 [22, 33, 47, 17, 38, 129, 22, 8, 14, 33, 2, 47, 48, 50, 23, 17, 38, 129, 47, 47] p=0.16"]
S271 -> S3805 [label="1 [190, 190] p=0.02"]
S271 -> S940 [label="4 [5, 5, 19, 33, 13, 21, 16, 20, 15, 14, 11, 22, 49, 6, 29, 19, 13, 21, 16, 20, 15, 11, 22, 49, 6, 29, 13, 49, 29, 13, 49, 29] p=0.25"]
S271 -> S9 [label="1 [170, 170, 170, 170, 170, 170] p=0.05"]
S251 -> S252 [label="2 [6, 2, 4, 5, 7, 22, 6, 2, 4, 5, 7, 22, 7, 4, 24, 4, 7, 4, 24, 4, 10, 30, 6, 3, 6, 3, 7, 3, 7, 3, 16, 4, 16, 4, 11] p=0.8"]
S251 -> S2 [label="5 [2, 2, 1, 1, 11, 1, 1, 1, 1] p=0.2"]
S349 -> S350 [label="2 [3, 2, 8, 2, 3, 2, 3, 3, 4, 2, 8, 2, 3, 3, 2, 3, 1, 1, 23, 1, 1, 3, 1, 1, 23, 8, 1, 1, 9, 1, 16, 9, 1, 16, 8, 27, 12, 4, 13, 12, 4, 12, 4, 13, 12, 4, 4, 4, 2, 7, 23, 11, 4, 34, 2, 7, 11, 4, 34, 4, 4, 4, 245, 12, 3, 13, 3, 5, 5, 4, 245, 12, 3, 13, 3, 5, 5, 1, 1, 6, 17, 112, 112, 9, 13, 9, 13, 15] p=0.96"]
S349 -> S1357 [label="5 [105, 91, 3, 3] p=0.04"]
S362 -> S28 [label="2 [4, 27, 3, 4, 4, 27, 3, 4, 98, 54, 269, 4, 3, 4, 3, 4, 2, 3, 4, 2, 3, 3, 2, 4, 2, 4] p=0.81"]
S362 -> S2 [label="3 [3, 41, 4, 4, 2, 2] p=0.19"]
S350 -> S2 [label="3 [5, 353, 5, 353, 40, 33, 94, 40, 14, 33, 94, 41, 41, 3, 22, 3, 22, 19, 2, 27, 27, 59, 11, 50, 29, 59, 11, 50, 29, 17, 20, 7, 24] p=0.35"]
S350 -> S2 [label="4 [52, 72, 71, 63, 52, 3, 3, 21, 21, 18, 18, 27, 6, 27, 6, 8, 4, 382, 382, 4, 29, 4, 36, 36] p=0.26"]
S350 -> S2 [label="5 [48, 48, 7, 18, 7, 18, 107, 237, 20, 23, 237, 20, 27, 67, 24, 95, 24, 95, 49, 19, 15, 19, 15, 15, 32, 721, 4, 12, 9, 4, 12, 9, 102, 24, 38, 24, 38] p=0.39"]
S482 -> S2 [label="2 [2, 2, 2, 2, 116, 116, 18, 2, 18, 2, 2, 116, 116, 2, 2, 9, 2, 2, 9, 5, 6, 5, 6, 8, 3, 3, 8, 3, 1, 1, 1, 10, 2, 1, 1, 1, 10, 2] p=0.72"]
S482 -> S2 [label="3 [6, 3, 3, 3, 65, 65, 6, 6, 65, 10, 10, 2, 2, 17, 17] p=0.28"]
S4 -> S3 [label="5 [122] p=1.0"]
S5 -> S1404 [label="5 [4, 4] p=0.5"]
S5 -> S19 [label="5 [3, 3] p=0.5"]
S6 -> S2 [label="4 [3, 3, 3] p=1.0"]
S7 -> S316 [label="2 [9, 9, 31] p=1.0"]
S16 -> S2 [label="3 [14] p=1.0"]
S18 -> S1331 [label="5 [39] p=1.0"]
S25 -> S28 [label="2 [4, 4, 4, 4, 2, 2, 2, 2, 4, 2, 4, 2, 2, 1, 2, 1, 4, 3, 4, 6, 3, 4, 6, 4, 6, 98, 3, 3, 3, 3, 4, 4, 2, 2, 7, 5, 5, 3, 5, 3, 5] p=1.0"]
S26 -> S1965 [label="3 [7] p=1.0"]
S27 -> S14 [label="3 [3, 3] p=1.0"]
S31 -> S2 [label="1 [35, 35, 35, 35, 35, 35, 35] p=1.0"]
S19 -> S11 [label="3 [4, 4, 4, 4] p=1.0"]
S481 -> S482 [label="5 [1, 54, 54] p=0.1"]
S481 -> S248 [label="2 [5, 11, 7, 6, 4, 20, 3, 5, 7, 3, 5, 11, 13, 71, 7, 6, 4, 20, 3, 3, 5, 14, 7, 3] p=0.77"]
S481 -> S2 [label="3 [9, 6, 9, 6] p=0.13"]
S1331 -> S787 [label="3 [4] p=1.0"]
S1348 -> S1349 [label="2 [7, 5, 3] p=0.6"]
S1348 -> S2 [label="4 [9] p=0.2"]
S1348 -> S20 [label="2 [2] p=0.2"]
S1404 -> S2 [label="2 [4] p=0.5"]
S1404 -> S11 [label="4 [8] p=0.5"]
S2154 -> S2 [label="2 [198] p=1.0"]
S371 -> S372 [label="2 [4, 27, 10, 4, 4, 3, 4, 3, 4, 3, 4, 3, 4, 2, 4, 3, 4, 4, 3, 27, 10, 4, 5, 4, 2, 4, 3, 2, 4, 3, 4, 3, 4, 3, 4, 2, 4, 3, 3, 4, 3, 4, 3, 3, 3, 4, 3, 4, 3, 3, 3, 3] p=0.7"]
S371 -> S2 [label="4 [2, 6, 2, 6, 6, 6, 6, 6] p=0.11"]
S371 -> S2 [label="3 [2, 2, 6, 3, 2, 2, 6, 3, 2, 6, 2, 6, 6, 6] p=0.19"]
S386 -> S25 [label="3 [4, 3, 4, 3, 3] p=0.19"]
S386 -> S1088 [label="2 [9, 3, 6, 3, 3, 4, 2, 2, 3, 2, 8, 3, 3, 4, 2, 3, 2, 8, 3] p=0.7"]
S386 -> S2 [label="4 [3, 4, 4] p=0.11"]
S654 -> S655 [label="2 [17, 6, 173, 4, 16, 8, 4, 3, 3, 8, 26, 4, 6, 22, 11, 4, 2, 6, 20, 13, 17, 6, 173, 4, 16, 8, 4, 3, 3, 8, 26, 4, 6, 22, 20, 11, 4, 2, 6, 20, 21, 13] p=0.91"]
S654 -> S25 [label="5 [1, 1, 1, 1] p=0.09"]
S1742 -> S349 [label="3 [9, 9, 2] p=0.15"]
S1742 -> S2 [label="2 [2, 2, 7, 2, 4, 3, 2, 7, 4, 5, 3, 2, 2, 4, 4, 3, 2] p=0.85"]
S2075 -> S482 [label="5 [33, 12, 33, 168, 12] p=1.0"]
S3805 -> S21 [label="2 [2, 2] p=1.0"]
S249 -> S250 [label="2 [5, 17, 51, 10, 37, 5, 1, 7, 6, 4, 11, 5, 2, 3, 12, 30, 5, 17, 51, 10, 37, 5, 1, 7, 6, 4, 11, 5, 2, 3, 12, 30, 30, 15, 5, 15] p=0.86"]
S249 -> S482 [label="5 [1, 1, 1, 1, 1, 1] p=0.14"]
S316 -> S2 [label="4 [8, 8, 4, 29, 29, 34, 4, 159, 34, 4, 159, 7, 83, 83, 11, 2, 4, 6, 6, 2, 2] p=0.91"]
S316 -> S787 [label="3 [4, 4] p=0.09"]
S748 -> S749 [label="2 [8, 3, 2, 7, 4, 4, 4, 4, 10, 8, 22, 31, 3, 2, 7, 4, 4, 4, 4, 10, 16, 3, 2, 5, 16, 3, 2, 5, 2, 2, 2, 4, 2, 2, 2, 4, 4] p=0.86"]
S748 -> S2 [label="3 [4, 4, 3, 3, 3, 3] p=0.14"]
S771 -> S772 [label="2 [3, 5, 2, 2, 3, 2, 5, 8, 3, 5, 2, 2, 3, 2, 5, 8, 4, 3, 7, 2, 7, 2] p=0.79"]
S771 -> S2 [label="4 [5, 5, 3, 6, 3, 6] p=0.21"]
S1965 -> S11 [label="4 [8] p=1.0"]
S272 -> S2 [label="4 [1, 1, 1, 1, 1, 1, 1, 1, 1, 1, 1, 1, 1, 1] p=0.22"]
S272 -> S742 [label="2 [2, 6, 17, 4, 3, 6, 3, 2, 11, 3, 3, 2, 6, 6, 3, 6, 17, 4, 3, 2, 3, 3, 2, 6, 6, 3, 17, 6, 3, 17, 2, 6, 3, 17, 3, 2, 6, 6, 3, 17, 2, 3, 2, 6, 6, 3] p=0.71"]
S272 -> S362 [label="5 [12, 1, 2, 1, 2] p=0.08"]
S1357 -> S1358 [label="3 [7, 14, 7, 7] p=1.0"]
S252 -> S25 [label="4 [143, 4, 143, 4, 58, 70, 58, 70, 30, 2, 105, 179] p=0.39"]
S252 -> S2 [label="5 [21, 21, 110, 32, 110, 32, 3, 27, 27, 90] p=0.32"]
S252 -> S2 [label="3 [33, 33, 126, 126, 29, 4, 29, 4, 10] p=0.29"]
S11 -> S316 [label="5 [23, 1, 11, 128, 79, 79, 1, 1, 39, 39] p=1.0"]
S12 -> S482 [label="4 [2, 8, 8] p=1.0"]
S14 -> S316 [label="2 [1, 1] p=1.0"]
S24 -> S829 [label="3 [3, 3] p=1.0"]
S28 -> S2 [label="5 [10, 18, 10, 18, 18, 18, 77, 77, 77, 4, 4, 111, 82, 111, 82, 8, 8, 35, 82, 82, 21, 17, 17, 8, 4, 4, 4] p=0.44"]
S28 -> S2 [label="3 [41, 41, 26, 87, 87, 10, 10, 155, 155, 3, 32, 32, 11, 32, 11, 99, 17, 28, 17, 28, 27, 115, 91, 91, 59, 59, 155, 155, 54, 89, 183, 43, 183, 43] p=0.56"]
S30 -> S4161 [label="2 [4, 4, 4, 4, 7, 7] p=1.0"]
S742 -> S6 [label="5 [10] p=0.02"]
S742 -> S2 [label="3 [10, 11, 101, 33, 8, 93, 10, 11, 101, 245, 33, 8, 93, 10, 8, 93, 10, 8, 93, 10, 8, 93] p=0.51"]
S742 -> S2 [label="4 [12, 101, 20, 12, 101, 20, 20, 62, 79, 12, 101, 20, 12, 101, 20] p=0.35"]
S742 -> S3 [label="5 [27, 149, 27, 149, 149] p=0.12"]
S1088 -> S349 [label="3 [66, 17, 32, 11, 14, 38, 99, 32, 11, 14, 38, 99] p=0.63"]
S1088 -> S787 [label="5 [16, 16] p=0.11"]
S1088 -> S25 [label="5 [39, 209, 77, 77] p=0.21"]
S1088 -> S2 [label="5 [17] p=0.05"]
S1349 -> S2 [label="5 [8, 16] p=0.67"]
S1349 -> S2 [label="4 [4] p=0.33"]
S372 -> S362 [label="5 [111, 3, 82, 41, 111, 3, 82, 41, 6, 3, 41, 3, 41, 41] p=0.27"]
S372 -> S2 [label="3 [1, 17, 6, 268, 18, 9, 28, 5, 6, 17, 268, 18, 9, 28, 5, 6, 268, 18, 9, 268, 18, 9] p=0.42"]
S372 -> S940 [label="4 [96, 4, 146, 3, 185, 64, 5, 63, 4, 4, 146, 5, 63, 4, 4, 4] p=0.31"]
S655 -> S349 [label="3 [25, 216, 10, 118, 70, 66, 28, 18, 25, 216, 10, 118, 70, 66, 28, 18] p=0.38"]
S655 -> S748 [label="5 [33, 42, 5, 3, 17, 33, 42, 5, 3, 56, 17] p=0.26"]
S655 -> S3376 [label="4 [105, 5, 41, 179, 18, 105, 5, 41, 179, 18, 142] p=0.26"]
S655 -> S2 [label="1 [51, 76, 51, 76] p=0.1"]
S250 -> S251 [label="3 [115, 12, 56, 52, 105, 26, 88, 115, 12, 56, 52, 105, 26, 88, 10, 24, 14, 24] p=0.5"]
S250 -> S362 [label="5 [52, 3, 11, 106, 57, 52, 3, 11, 106, 57] p=0.28"]
S250 -> S482 [label="4 [96, 145, 32, 30, 96, 145, 32, 30] p=0.22"]
S749 -> S251 [label="3 [101, 53, 34, 101, 53, 34, 277, 11, 277, 11, 48, 101, 48, 101, 5] p=0.41"]
S749 -> S786 [label="4 [22, 22] p=0.05"]
S749 -> S2 [label="5 [7, 7, 6, 58, 6, 58, 22, 38, 129, 38, 129] p=0.3"]
S749 -> S25 [label="4 [4, 4, 19, 20, 11, 20, 11] p=0.19"]
S749 -> S40 [label="4 [21, 21] p=0.05"]
S772 -> S773 [label="3 [7, 22, 8, 40, 7, 22, 8, 40, 128, 32, 32] p=0.5"]
S772 -> S2 [label="5 [35, 36, 61, 19, 4, 36, 61, 19, 4] p=0.41"]
S772 -> S2 [label="1 [679, 679] p=0.09"]
S829 -> S787 [label="5 [1, 1] p=1.0"]
S4161 -> S30 [label="1 [329, 329, 46, 46, 43] p=1.0"]
S1358 -> S718 [label="5 [7, 124] p=0.5"]
S1358 -> S11 [label="4 [8, 8] p=0.5"]
S20 -> S2 [label="3 [3] p=1.0"]
S21 -> S2 [label="3 [100, 100] p=1.0"]
S787 -> S2 [label="4 [11, 11, 5, 5, 25, 25, 25, 4, 4] p=1.0"]
S3376 -> S3377 [label="2 [4, 4, 3, 4, 4, 3, 4] p=0.64"]
S3376 -> S2 [label="3 [7, 7] p=0.18"]
S3376 -> S42 [label="2 [8, 8] p=0.18"]
S773 -> S774 [label="2 [6, 8, 3, 8, 6, 8, 3, 8, 8, 8, 8] p=1.0"]
S786 -> S3 [label="3 [5, 5] p=1.0"]
S40 -> S787 [label="2 [2, 2] p=1.0"]
S3377 -> S3378 [label="3 [20, 20] p=0.29"]
S3377 -> S775 [label="4 [16, 15, 16, 15, 6] p=0.71"]
S774 -> S775 [label="5 [33, 5, 33, 5] p=0.4"]
S774 -> S2 [label="1 [76, 76] p=0.2"]
S774 -> S2 [label="3 [166, 6, 118, 118] p=0.4"]
S42 -> S41 [label="3 [19, 19] p=1.0"]
S3378 -> S2 [label="5 [1, 1] p=1.0"]
S775 -> S776 [label="2 [2, 2, 2, 2, 8, 2, 8, 2, 7] p=1.0"]
S41 -> S2 [label="4 [1, 1] p=1.0"]
S776 -> S783 [label="4 [4, 77] p=0.4"]
S776 -> S3555 [label="3 [101, 6, 14] p=0.6"]