S0 -> S1 [label="4 [0, 0, 0, 0, 0, 0, 0, 0, 0, 0, 0, 0, 0, 0, 0, 0, 0, 0, 0, 0, 0, 0, 0, 0, 0, 0, 0, 0, 0, 0, 0, 0, 0, 0, 0, 0, 0, 0, 0, 0, 0, 0, 0, 0, 0, 0, 0, 0, 0, 0, 0, 0, 0, 0, 0, 0, 0, 0, 0, 0, 0, 0, 0, 0, 0, 0, 0, 0, 0, 0, 0, 0, 0, 0, 0, 0, 0, 0, 0, 0, 0, 0, 0, 0, 0, 0, 0, 0, 0, 0, 0, 0, 0, 0, 0, 0, 0, 0, 0, 0, 0, 0, 0, 0, 0, 0, 0, 0, 0, 0, 0, 0, 0, 0, 0, 0, 0, 0, 0, 0, 0, 0, 0, 0, 0, 0, 0, 0, 0, 0, 0, 0, 0, 0, 0, 0, 0, 0, 0, 0, 0, 0, 0, 0, 0, 0, 0, 0] p=0.17"]
S0 -> S12 [label="3 [0, 0, 0, 0, 0, 0, 0, 0, 0, 0, 0, 0, 0, 0, 0, 0, 0, 0, 0, 0, 0, 0, 0, 0, 0, 0, 0, 0, 0, 0, 0, 0, 0, 0, 0, 0, 0, 0, 0, 0, 0, 0, 0, 0, 0, 0, 0, 0, 0, 0, 0, 0, 0, 0, 0, 0, 0, 0, 0, 0, 0, 0, 0, 0, 0, 0, 0, 0, 0, 0, 0, 0, 0, 0, 0, 0, 0, 0, 0, 0, 0, 0, 0, 0, 0, 0, 0, 0, 0, 0, 0, 0, 0, 0, 0, 0, 0, 0, 0, 0, 0, 0, 0, 0, 0, 0, 0, 0, 0, 0, 0, 0, 0, 0, 0, 0, 0, 0, 0, 0, 0, 0, 0, 0, 0, 0, 0, 0, 0, 0, 0, 0, 0, 0, 0, 0, 0, 0, 0, 0, 0, 0, 0, 0, 0, 0, 0, 0, 0, 0, 0, 0, 0, 0, 0, 0, 0, 0, 0, 0, 0, 0, 0, 0, 0, 0, 0, 0, 0, 0, 0, 0, 0, 0, 0, 0, 0, 0, 0, 0, 0, 0, 0, 0, 0, 0, 0, 0, 0, 0, 0, 0, 0, 0, 0, 0, 0, 0, 0, 0, 0, 0, 0, 0, 0, 0, 0, 0, 0, 0, 0, 0, 0, 0, 0, 0, 0, 0, 0, 0, 0, 0, 0, 0, 0, 0, 0, 0, 0, 0, 0, 0, 0, 0, 0, 0, 0, 0, 0, 0, 0, 0, 0, 0, 0, 0, 0, 0, 0, 0, 0, 0, 0, 0, 0, 0, 0, 0, 0, 0, 0, 0, 0, 0, 0, 0, 0, 0, 0, 0, 0, 0, 0, 0, 0, 0, 0, 0, 0, 0, 0, 0, 0, 0, 0, 0, 0, 0, 0, 0, 0, 0] p=0.33"]
S0 -> S23 [label="2 [0, 0, 0, 0, 0, 0, 0, 0, 0, 0, 0, 0, 0, 0, 0, 0, 0, 0, 0, 0, 0, 0, 0, 0, 0, 0, 0, 0, 0, 0, 0, 0, 0, 0, 0, 0, 0, 0, 0, 0, 0, 0, 0, 0, 0, 0, 0, 0, 0, 0, 0, 0, 0, 0, 0, 0, 0, 0, 0, 0, 0, 0, 0, 0, 0, 0, 0, 0, 0, 0, 0, 0, 0, 0, 0, 0, 0, 0, 0, 0, 0, 0, 0, 0, 0, 0, 0, 0, 0, 0, 0, 0, 0, 0, 0, 0, 0, 0, 0, 0, 0, 0, 0, 0, 0, 0, 0, 0, 0, 0, 0, 0, 0, 0, 0, 0, 0, 0, 0, 0, 0, 0, 0, 0, 0, 0, 0, 0, 0, 0, 0, 0, 0, 0, 0, 0, 0, 0, 0, 0, 0, 0, 0, 0, 0, 0, 0, 0, 0, 0, 0, 0, 0, 0, 0, 0, 0, 0, 0, 0, 0, 0, 0, 0, 0, 0, 0, 0, 0, 0, 0, 0, 0, 0, 0, 0, 0, 0, 0, 0, 0, 0, 0, 0, 0, 0, 0, 0, 0, 0, 0, 0, 0, 0, 0, 0, 0, 0, 0, 0, 0, 0, 0, 0, 0, 0, 0, 0, 0, 0, 0, 0, 0, 0, 0, 0, 0, 0, 0, 0, 0, 0, 0, 0, 0, 0, 0, 0, 0, 0, 0, 0, 0, 0, 0, 0, 0, 0, 0, 0, 0, 0, 0, 0, 0, 0, 0, 0, 0, 0, 0, 0, 0, 0, 0, 0, 0, 0, 0, 0, 0, 0, 0, 0, 0, 0, 0, 0, 0, 0, 0, 0, 0, 0, 0, 0, 0, 0, 0, 0, 0, 0, 0, 0, 0, 0, 0, 0, 0, 0, 0, 0] p=0.33"]
S0 -> S4 [label="1 [0, 0, 0, 0, 0, 0, 0, 0, 0, 0, 0, 0, 0, 0, 0, 0, 0, 0, 0, 0, 0, 0, 0, 0, 0, 0, 0, 0, 0, 0, 0, 0, 0, 0, 0, 0, 0, 0, 0, 0, 0, 0, 0, 0, 0, 0, 0, 0, 0, 0, 0, 0, 0, 0, 0, 0, 0, 0, 0, 0, 0, 0, 0, 0, 0, 0, 0, 0, 0, 0, 0, 0, 0, 0, 0, 0, 0, 0, 0, 0, 0, 0, 0, 0, 0, 0, 0, 0, 0, 0, 0, 0, 0, 0, 0, 0, 0, 0, 0, 0, 0, 0, 0, 0, 0, 0, 0, 0, 0, 0, 0, 0, 0, 0, 0, 0, 0, 0, 0, 0, 0, 0, 0, 0, 0, 0, 0, 0, 0, 0, 0, 0, 0, 0, 0, 0, 0, 0, 0, 0, 0, 0, 0, 0, 0, 0] p=0.17"]
S0 -> S6 [label="6 [0] p=0.0"]
S1 -> S2 [label="3 [63, 1770, 1584, 1775, 1578, 1779, 1564, 1792, 1528, 1771, 1547, 1752, 1543, 1758, 1523, 1767, 1545, 1750, 1516, 1783, 1506, 1787, 1470, 1768, 1510, 1786, 1530, 1762, 1554, 1741, 1493, 1744, 1434, 1798, 1393, 1782, 1427, 1744, 1517, 1776, 1519, 1772, 1549, 1745, 1550, 1744, 1555, 1798, 1512, 1785, 1514, 1782, 1491, 1748, 1532, 1759, 1570, 1779, 1539, 1755, 1526, 1769, 1507, 1790, 1485, 1749, 1523, 1775, 1504, 1794, 1542, 1754, 1617, 1746, 1675, 1748, 1740, 1739, 1723, 1767, 1705, 1776, 1671, 1745, 1669, 1749, 1688, 1791, 1586, 1774, 1599, 1760, 1603, 1750, 1618, 1796, 1575, 1780, 1588, 1769, 1585, 1773, 1599, 1758, 1592, 1757, 1620, 1794, 1587, 1766, 1660, 1750, 1709, 1770, 1757, 690, 1775, 1754, 1794, 1756, 749, 1771, 1758, 761, 1756, 1758, 701, 1760, 1758, 672, 1791, 1678, 1745, 1716, 1766, 1718, 1756, 1700, 1779, 1697, 1783, 1660, 1761, 1679, 1741, 1706, 1770, 1584, 1775, 1578, 1779, 1564, 1792, 1528, 1771, 1547, 1752, 1543, 1758, 1523, 1767, 1545, 1750, 1516, 1783, 1506, 1787, 1470, 1768, 1510, 1786, 1530, 1762, 1554, 1741, 1744, 1434, 1798, 1393, 1782, 1427, 1744, 1517, 1776, 1519, 1772, 1549, 1745, 1550, 1744, 1555, 1798, 1512, 1785, 1514, 1782, 1491, 1748, 1532, 1759, 1570, 1779, 1539, 1755, 1526, 1769, 1507, 1790, 1485, 1749, 1523, 1775, 1504, 1794, 1542, 1754, 1617, 1746, 1675, 1748, 1740, 1739, 1723, 1767, 1705, 1776, 1671, 1745, 1669, 1749, 1688, 1791, 1586, 1774, 1599, 1760, 1603, 1750, 1618, 1796, 1575, 1780, 1588, 1769, 1585, 1773, 1599, 1758, 1592, 1757, 1620, 1794, 1587, 1766, 1660, 1750, 1709, 1770, 1757, 690, 1775, 1754, 1794, 1756, 749, 1771, 1758, 761, 1756, 1758, 701, 1760, 1758, 672, 1791, 1678, 1745, 1716, 1766, 1718, 1756, 1700, 1779, 1697, 1783, 1660, 1761, 1679, 1741, 1706, 1770, 1584, 1775, 1578, 1779, 1564, 1792, 1528, 1771, 1547, 1752, 1543, 1758, 1523, 1767, 1545, 1750, 1516, 1783, 1506, 1787, 1470, 1768, 1510, 1786, 1530, 1762, 1554, 1741, 1744, 1434, 1798, 1393, 1782, 1427, 1744, 1517, 1776, 1519, 1772, 1549, 1745, 1550, 1744, 1555, 1798, 1512, 1785, 1514, 1782, 1491, 1748, 1532, 1759, 1570, 1779, 1539, 1755, 1526, 1769, 1507, 1790, 1485, 1749, 1523, 1775, 1504, 1794, 1542, 1754, 1617, 1746, 1675, 1748, 1740, 1739, 1723, 1767, 1705, 1776, 1671, 1745, 1669, 1749, 1688, 1791, 1586, 1774, 1599, 1760, 1603, 1750, 1618, 1796, 1575, 1780, 1588, 1769, 1585, 1773, 1599, 1758, 1592, 1757, 1620, 1794, 1587, 1766, 1660, 1750, 1709, 1770, 1757, 690, 1775, 1754, 1794, 1756, 749, 1771, 1758, 761, 1756, 1758, 701, 1760, 1758, 672, 1791, 1678, 1745, 1716, 1766, 1718, 1756, 1700, 1779, 1697, 1783, 1660, 1761, 1679, 1741, 1706, 1770, 1584, 1775, 1578, 1779, 1564, 1792, 1528, 1771, 1547, 1752, 1543, 1758, 1523, 1767, 1545, 1750, 1516, 1783, 1506, 1787, 1470, 1768, 1510, 1786, 1530, 1762, 1554, 1741, 1744, 1434, 1798, 1393, 1782, 1427, 1744, 1517, 1776, 1519, 1772, 1549, 1745, 1550, 1744, 1555, 1798, 1512, 1785, 1514, 1782, 1491, 1748, 1532, 1759, 1570, 1779, 1539, 1755, 1526, 1769, 1507, 1790, 1485, 1749, 1523, 1775, 1504, 1794, 1542, 1754, 1617, 1746, 1675, 1748, 1740, 1739, 1723, 1767, 1705, 1776, 1671, 1745, 1669, 1749, 1688, 1791, 1586, 1774, 1599, 1760, 1603, 1750, 1618, 1796, 1575, 1780, 1588, 1769, 1585, 1773, 1599, 1758, 1592, 1757, 1620, 1794, 1587, 1766, 1660, 1750, 1709, 1770, 1757, 690, 1775, 1754, 1794, 1756, 749, 1771, 1758, 761, 1756, 1758, 701, 1760, 1758, 672, 1791, 1678, 1745, 1716, 1766, 1718, 1756, 1700, 1779, 1697, 1783, 1660, 1761, 1679, 1741, 1706, 1770, 1584, 1775, 1578, 1779, 1564, 1792, 1528, 1771, 1547, 1752, 1543, 1758, 1523, 1767, 1545, 1750, 1516, 1783, 1506, 1787, 1470, 1768, 1510, 1786, 1530, 1762, 1554, 1741, 1744, 1434, 1798, 1393, 1782, 1427, 1744, 1517, 1776, 1519, 1772, 1549, 1745, 1550, 1744, 1555, 1798, 1512, 1785, 1514, 1782, 1491, 1748, 1532, 1759, 1570, 1779, 1539, 1755, 1526, 1769, 1507, 1790, 1485, 1749, 1523, 1775, 1504, 1794, 1542, 1754, 1617, 1746, 1675, 1748, 1740, 1739, 1723, 1767, 1705, 1776, 1671, 1745, 1669, 1749, 1688, 1791, 1586, 1774, 1599, 1760, 1603, 1750, 1618, 1796, 1575, 1780, 1588, 1769, 1585, 1773, 1599, 1758, 1592, 1757, 1620, 1794, 1587, 1766, 1660, 1750, 1709, 1770, 1757, 690, 1775, 1754, 1794, 1756, 749, 1771, 1758, 761, 1756, 1758, 701, 1760, 1758, 672, 1791, 1678, 1745, 1716, 1766, 1718, 1756, 1700, 1779, 1697, 1783, 1660, 1761, 1679, 1741, 1706, 1770, 1584, 1775, 1578, 1779, 1564, 1792, 1528, 1771, 1547, 1752, 1543, 1758, 1523, 1767, 1545, 1750, 1516, 1783, 1506, 1787, 1470, 1768, 1510, 1786, 1530, 1762, 1554, 1741, 1744, 1434, 1798, 1393, 1782, 1427, 1744, 1517, 1776, 1519, 1772, 1549, 1745, 1550, 1744, 1555, 1798, 1512, 1785, 1514, 1782, 1491, 1748, 1532, 1759, 1570, 1779, 1539, 1755, 1526, 1769, 1507, 1790, 1485, 1749, 1523, 1775, 1504, 1794, 1542, 1754, 1617, 1746, 1675, 1748, 1740, 1739, 1723, 1767, 1705, 1776, 1671, 1745, 1669, 1749, 1688, 1791, 1586, 1774, 1599, 1760, 1603, 1750, 1618, 1796, 1575, 1780, 1588, 1769, 1585, 1773, 1599, 1758, 1592, 1757, 1620, 1794, 1587, 1766, 1660, 1750, 1709, 1770, 1757, 690, 1775, 1754, 1794, 1756, 749, 1771, 1758, 761, 1756, 1758, 701, 1760, 1758, 672, 1791, 1678, 1745, 1716, 1766, 1718, 1756, 1700, 1779, 1697, 1783, 1660, 1761, 1679, 1741, 1706, 1770, 1584, 1775, 1578, 1779, 1564, 1792, 1528, 1771, 1547, 1752, 1543, 1758, 1523, 1767, 1545, 1750, 1516, 1783, 1506, 1787, 1470, 1768, 1510, 1786, 1530, 1762, 1554, 1741, 1744, 1434, 1798, 1393, 1782, 1427, 1744, 1517, 1776, 1519, 1772, 1549, 1745, 1550, 1744, 1555, 1798, 1512, 1785, 1514, 1782, 1491, 1748, 1532, 1759, 1570, 1779, 1539, 1755, 1526, 1769, 1507, 1790, 1485, 1749, 1523, 1775, 1504, 1794, 1542, 1754, 1617, 1746, 1675, 1748, 1740, 1739, 1723, 1767, 1705, 1776, 1671, 1745, 1669, 1749, 1688, 1791, 1586, 1774, 1599, 1760, 1603, 1750, 1618, 1796, 1575, 1780, 1588, 1769, 1585, 1773, 1599, 1758, 1592, 1757, 1620, 1794, 1587, 1766, 1660, 1750, 1709, 1770, 1757, 690, 1775, 1754, 1794, 1756, 749, 1771, 1758, 761, 1756, 1758, 701, 1760, 1758, 672, 1791, 1678, 1745, 1716, 1766, 1718, 1756, 1700, 1779, 1697, 1783, 1660, 1761, 1679, 1741, 1706, 1584, 1775, 1578, 1779, 1564, 1792, 1528, 1771, 1547, 1752, 1543, 1758, 1523, 1767, 1545, 1750, 1516, 1783, 1506, 1787, 1470, 1768, 1510, 1786, 1530, 1762, 1554, 1741, 1434, 1798, 1393, 1782, 1427, 1744, 1517, 1776, 1519, 1772, 1549, 1745, 1550, 1744, 1555, 1798, 1512, 1785, 1514, 1782, 1491, 1748, 1532, 1759, 1570, 1779, 1539, 1755, 1526, 1769, 1507, 1790, 1485, 1749, 1523, 1775, 1504, 1794, 1542, 1754, 1617, 1746, 1675, 1748, 1740, 1739, 1723, 1767, 1705, 1776, 1671, 1745, 1669, 1749, 1688, 1791, 1586, 1774, 1599, 1760, 1603, 1750, 1618, 1796, 1575, 1780, 1588, 1769, 1585, 1773, 1599, 1758, 1592, 1757, 1620, 1794, 1587, 1766, 1660, 1750, 1709, 1770, 1757, 690, 1775, 1754, 1794, 1756, 749, 1771, 1758, 761, 1756, 1758, 701, 1760, 1758, 672, 1791, 1678, 1745, 1716, 1766, 1718, 1756, 1700, 1779, 1697, 1783, 1660, 1761, 1679, 1741, 1706, 1584, 1775, 1578, 1779, 1564, 1792, 1528, 1771, 1547, 1752, 1543, 1758, 1523, 1767, 1545, 1750, 1516, 1783, 1506, 1787, 1470, 1768, 1510, 1786, 1530, 1762, 1554, 1741, 1434, 1798, 1393, 1782, 1427, 1744, 1517, 1776, 1519, 1772, 1549, 1745, 1550, 1744, 1555, 1798, 1512, 1785, 1514, 1782, 1491, 1748, 1532, 1759, 1570, 1779, 1539, 1755, 1526, 1769, 1507, 1790, 1485, 1749, 1523, 1775, 1504, 1794, 1542, 1754, 1617, 1746, 1675, 1748, 1740, 1739, 1723, 1767, 1705, 1776, 1671, 1745, 1669, 1749, 1688, 1791, 1586, 1774, 1599, 1760, 1603, 1750, 1618, 1796, 1575, 1780, 1588, 1769, 1585, 1773, 1599, 1758, 1592, 1757, 1620, 1794, 1587, 1766, 1660, 1750, 1709, 1770, 1757, 690, 1775, 1754, 1794, 1756, 749, 1771, 1758, 761, 1756, 1758, 701, 1760, 1758, 672, 1791, 1678, 1745, 1716, 1766, 1718, 1756, 1700, 1779, 1697, 1783, 1660, 1761, 1679, 1741, 1706, 1584, 1775, 1578, 1779, 1564, 1792, 1528, 1771, 1547, 1752, 1543, 1758, 1523, 1767, 1545, 1750, 1516, 1783, 1506, 1787, 1470, 1768, 1510, 1786, 1530, 1762, 1554, 1741, 1434, 1798, 1393, 1782, 1427, 1744, 1517, 1776, 1519, 1772, 1549, 1745, 1550, 1744, 1555, 1798, 1512, 1785, 1514, 1782, 1491, 1748, 1532, 1759, 1570, 1779, 1539, 1755, 1526, 1769, 1507, 1790, 1485, 1749, 1523, 1775, 1504, 1794, 1542, 1754, 1617, 1746, 1675, 1748, 1740, 1739, 1723, 1767, 1705, 1776, 1671, 1745, 1669, 1749, 1688, 1791, 1586, 1774, 1599, 1760, 1603, 1750, 1618, 1796, 1575, 1780, 1588, 1769, 1585, 1773, 1599, 1758, 1592, 1757, 1620, 1794, 1587, 1766, 1660, 1750, 1709, 1770, 1757, 690, 1775, 1754, 1794, 1756, 749, 1771, 1758, 761, 1756, 1758, 701, 1760, 1758, 672, 1791, 1678, 1745, 1716, 1766, 1718, 1756, 1700, 1779, 1697, 1783, 1660, 1761, 1679, 1741, 1706, 1493, 1493, 1493, 1493, 1493, 1493, 1493, 1493, 1493, 1744, 1744, 1744] p=0.99"]
S1 -> S6 [label="6 [50, 50, 50, 50, 50, 50, 50, 50, 50, 50] p=0.01"]
S12 -> S3 [label="2 [2, 2, 2, 2, 2, 2, 2, 2, 2, 3, 2, 3, 2, 2, 3, 2, 3, 2, 2, 2, 2, 3, 2, 2, 3, 2, 2, 2, 2, 2, 2, 3, 2, 2, 2, 2, 3, 2, 2, 2, 2, 2, 2, 2, 2, 3, 2, 2, 2, 2, 2, 2, 2, 2, 2, 2, 2, 2, 3, 2, 2, 2, 2, 2, 2, 2, 3, 2, 2, 2, 2, 2, 3, 3, 2, 2, 2, 3, 2, 2, 2, 2, 2, 2, 2, 2, 2, 2, 2, 2, 2, 2, 2, 2, 2, 2, 1, 3, 2, 1, 1, 2, 2, 2, 2, 2, 2, 2, 2, 3, 2, 2, 2, 2, 2, 2, 2, 2, 3, 3, 2, 2, 2, 2, 2, 2, 3, 2, 2, 2, 2, 2, 2, 3, 3, 2, 2, 2, 2, 2, 2, 3, 2, 1, 3, 2] p=0.5"]
S12 -> S1 [label="4 [13, 13, 13, 13, 12, 13, 11, 13, 12, 13, 12, 12, 12, 14, 14, 13, 12, 12, 12, 13, 12, 12, 12, 12, 12, 12, 13, 13, 13, 13, 12, 13, 12, 12, 13, 13, 12, 14, 13, 13, 13, 13, 13, 13, 12, 13, 13, 12, 12, 13, 13, 13, 13, 13, 13, 12, 12, 12, 12, 14, 13, 13, 11, 12, 14, 14, 13, 12, 13, 13, 13, 13, 14, 13, 12, 13, 14, 13, 12, 14, 13, 14, 12, 13, 12, 12, 13, 13, 12, 12, 13, 12, 13, 14, 13, 14, 11, 13, 12, 14, 12, 12, 13, 13, 12, 13, 13, 13, 13, 13, 12, 13, 13, 14, 13, 13, 13, 13, 14, 13, 14, 12, 14, 12, 13, 13, 12, 13, 12, 13, 13, 14, 13, 12, 13, 13, 13, 13, 12, 12, 13, 13, 13, 12, 13, 12] p=0.5"]
S23 -> S4 [label="1 [3, 3, 3, 4, 3, 3, 4, 2, 3, 3, 3, 2, 3, 3, 2, 3, 3, 3, 3, 3, 3, 3, 3, 3, 2, 3, 3, 4, 3, 3, 3, 2, 3, 3, 3, 3, 3, 3, 3, 3, 3, 3, 3, 3, 4, 2, 3, 3, 2, 3, 2, 2, 3, 3, 4, 3, 3, 3, 2, 3, 3, 3, 3, 3, 3, 3, 3, 3, 3, 3, 3, 3, 3, 2, 3, 3, 3, 3, 3, 2, 3, 3, 3, 3, 3, 4, 3, 3, 3, 3, 3, 2, 3, 3, 3, 3, 3, 2, 3, 4, 3, 3, 2, 3, 2, 2, 3, 3, 3, 2, 3, 3, 3, 3, 3, 2, 3, 3, 2, 2, 3, 3, 4, 2, 2, 3, 2, 3, 3, 3, 3, 3, 3, 2, 2, 3, 3, 3, 3, 2, 2, 2, 3, 3, 2, 3] p=0.5"]
S23 -> S6 [label="3 [33, 33, 35, 35, 34, 35, 34, 35, 35, 36, 33, 35, 34, 34, 34, 35, 34, 34, 35, 35, 36, 36, 35, 35, 34, 35, 34, 35, 34, 34, 35, 35, 33, 35, 34, 34, 35, 34, 34, 35, 34, 35, 34, 34, 33, 34, 32, 34, 34, 34, 34, 34, 35, 35, 33, 34, 35, 36, 34, 35, 34, 34, 34, 34, 33, 34, 34, 35, 34, 34, 34, 35, 33, 35, 34, 35, 33, 35, 34, 35, 35, 34, 35, 34, 35, 36, 33, 35, 33, 35, 33, 35, 34, 34, 33, 34, 34, 35, 35, 34, 34, 34, 33, 35, 35, 35, 34, 35, 34, 35, 34, 35, 35, 35, 34, 33, 34, 33, 35, 36, 34, 35, 34, 34, 35, 35, 33, 34, 36, 33, 35, 33, 35, 35, 35, 34, 34, 33, 35, 33, 35, 33, 34, 34, 35, 33] p=0.5"]
S4 -> S5 [label="2 [635, 111, 626, 110, 629, 110, 630, 111, 627, 108, 628, 110, 627, 109, 635, 110, 630, 111, 627, 111, 630, 111, 627, 111, 629, 111, 634, 109, 630, 112, 633, 112, 634, 110, 632, 111, 633, 111, 631, 110, 635, 109, 632, 110, 634, 110, 635, 110, 632, 110, 632, 111, 626, 110, 634, 111, 638, 109, 633, 109, 630, 110, 632, 110, 633, 110, 626, 110, 629, 110, 631, 109, 621, 110, 624, 109, 627, 109, 617, 110, 624, 110, 628, 111, 627, 110, 627, 110, 628, 110, 628, 112, 632, 110, 632, 110, 633, 111, 629, 110, 628, 111, 632, 110, 638, 110, 632, 110, 631, 111, 636, 110, 626, 109, 111, 622, 111, 618, 110, 110, 624, 110, 110, 630, 110, 110, 626, 110, 110, 623, 110, 622, 110, 624, 110, 631, 111, 627, 112, 629, 110, 625, 111, 628, 110, 629, 111, 626, 110, 629, 110, 630, 111, 627, 108, 628, 110, 627, 109, 635, 110, 630, 111, 627, 111, 630, 111, 627, 111, 629, 111, 634, 109, 630, 112, 112, 634, 110, 632, 111, 633, 111, 631, 110, 635, 109, 632, 110, 634, 110, 635, 110, 632, 110, 632, 111, 626, 110, 634, 111, 638, 109, 633, 109, 630, 110, 632, 110, 633, 110, 626, 110, 629, 110, 631, 109, 621, 110, 624, 109, 627, 109, 617, 110, 624, 110, 628, 111, 627, 110, 627, 110, 628, 110, 628, 112, 632, 110, 632, 110, 633, 111, 629, 110, 628, 111, 632, 110, 638, 110, 632, 110, 631, 111, 636, 110, 626, 109, 111, 622, 111, 618, 110, 110, 624, 110, 110, 630, 110, 110, 626, 110, 110, 623, 110, 622, 110, 624, 110, 631, 111, 627, 112, 629, 110, 625, 111, 628, 110, 629, 111, 626, 110, 629, 110, 630, 111, 627, 108, 628, 110, 627, 109, 635, 110, 630, 111, 627, 111, 630, 111, 627, 111, 629, 111, 634, 109, 630, 112, 112, 634, 110, 632, 111, 633, 111, 631, 110, 635, 109, 632, 110, 634, 110, 635, 110, 632, 110, 632, 111, 626, 110, 634, 111, 638, 109, 633, 109, 630, 110, 632, 110, 633, 110, 626, 110, 629, 110, 631, 109, 621, 110, 624, 109, 627, 109, 617, 110, 624, 110, 628, 111, 627, 110, 627, 110, 628, 110, 628, 112, 632, 110, 632, 110, 633, 111, 629, 110, 628, 111, 632, 110, 638, 110, 632, 110, 631, 111, 636, 110, 626, 109, 111, 622, 111, 618, 110, 110, 624, 110, 110, 630, 110, 110, 626, 110, 110, 623, 110, 622, 110, 624, 110, 631, 111, 627, 112, 629, 110, 625, 111, 628, 110, 629, 111, 626, 110, 629, 110, 630, 111, 627, 108, 628, 110, 627, 109, 635, 110, 630, 111, 627, 111, 630, 111, 627, 111, 629, 111, 634, 109, 630, 112, 112, 634, 110, 632, 111, 633, 111, 631, 110, 635, 109, 632, 110, 634, 110, 635, 110, 632, 110, 632, 111, 626, 110, 634, 111, 638, 109, 633, 109, 630, 110, 632, 110, 633, 110, 626, 110, 629, 110, 631, 109, 621, 110, 624, 109, 627, 109, 617, 110, 624, 110, 628, 111, 627, 110, 627, 110, 628, 110, 628, 112, 632, 110, 632, 110, 633, 111, 629, 110, 628, 111, 632, 110, 638, 110, 632, 110, 631, 111, 636, 110, 626, 109, 111, 622, 111, 618, 110, 110, 624, 110, 110, 630, 110, 110, 626, 110, 110, 623, 110, 622, 110, 624, 110, 631, 111, 627, 112, 629, 110, 625, 111, 628, 110, 629, 111, 626, 110, 629, 110, 630, 111, 627, 108, 628, 110, 627, 109, 635, 110, 630, 111, 627, 111, 630, 111, 627, 111, 629, 111, 634, 109, 630, 112, 112, 634, 110, 632, 111, 633, 111, 631, 110, 635, 109, 632, 110, 634, 110, 635, 110, 632, 110, 632, 111, 626, 110, 634, 111, 638, 109, 633, 109, 630, 110, 632, 110, 633, 110, 626, 110, 629, 110, 631, 109, 621, 110, 624, 109, 627, 109, 617, 110, 624, 110, 628, 111, 627, 110, 627, 110, 628, 110, 628, 112, 632, 110, 632, 110, 633, 111, 629, 110, 628, 111, 632, 110, 638, 110, 632, 110, 631, 111, 636, 110, 626, 109, 111, 622, 111, 618, 110, 110, 624, 110, 110, 630, 110, 110, 626, 110, 110, 623, 110, 622, 110, 624, 110, 631, 111, 627, 112, 629, 110, 625, 111, 628, 110, 629, 111, 626, 110, 629, 110, 630, 111, 627, 108, 628, 110, 627, 109, 635, 110, 630, 111, 627, 111, 630, 111, 627, 111, 629, 111, 634, 109, 630, 112, 112, 634, 110, 632, 111, 633, 111, 631, 110, 635, 109, 632, 110, 634, 110, 635, 110, 632, 110, 632, 111, 626, 110, 634, 111, 638, 109, 633, 109, 630, 110, 632, 110, 633, 110, 626, 110, 629, 110, 631, 109, 621, 110, 624, 109, 627, 109, 617, 110, 624, 110, 628, 111, 627, 110, 627, 110, 628, 110, 628, 112, 632, 110, 632, 110, 633, 111, 629, 110, 628, 111, 632, 110, 638, 110, 632, 110, 631, 111, 636, 110, 626, 109, 111, 622, 111, 618, 110, 110, 624, 110, 110, 630, 110, 110, 626, 110, 110, 623, 110, 622, 110, 624, 110, 631, 111, 627, 112, 629, 110, 625, 111, 628, 110, 629, 111, 626, 110, 629, 110, 630, 111, 627, 108, 628, 110, 627, 109, 635, 110, 630, 111, 627, 111, 630, 111, 627, 111, 629, 111, 634, 109, 630, 112, 112, 634, 110, 632, 111, 633, 111, 631, 110, 635, 109, 632, 110, 634, 110, 635, 110, 632, 110, 632, 111, 626, 110, 634, 111, 638, 109, 633, 109, 630, 110, 632, 110, 633, 110, 626, 110, 629, 110, 631, 109, 621, 110, 624, 109, 627, 109, 617, 110, 624, 110, 628, 111, 627, 110, 627, 110, 628, 110, 628, 112, 632, 110, 632, 110, 633, 111, 629, 110, 628, 111, 632, 110, 638, 110, 632, 110, 631, 111, 636, 110, 626, 109, 111, 622, 111, 618, 110, 110, 624, 110, 110, 630, 110, 110, 626, 110, 110, 623, 110, 622, 110, 624, 110, 631, 111, 627, 112, 629, 110, 625, 111, 628, 110, 629, 635, 111, 626, 110, 629, 110, 630, 111, 627, 108, 628, 110, 627, 109, 635, 110, 630, 111, 627, 111, 630, 111, 627, 111, 629, 111, 634, 109, 630, 112, 633, 112, 634, 110, 632, 111, 633, 111, 631, 110, 635, 109, 632, 110, 634, 110, 635, 110, 632, 110, 632, 111, 626, 110, 634, 111, 638, 109, 633, 109, 630, 110, 632, 110, 633, 110, 626, 110, 629, 110, 631, 109, 621, 110, 624, 109, 627, 109, 617, 110, 624, 110, 628, 111, 627, 110, 627, 110, 628, 110, 628, 112, 632, 110, 632, 110, 633, 111, 629, 110, 628, 111, 632, 110, 638, 110, 632, 110, 631, 111, 636, 110, 626, 109, 111, 622, 111, 618, 110, 110, 624, 110, 110, 630, 110, 110, 626, 110, 110, 623, 110, 622, 110, 624, 110, 631, 111, 627, 112, 629, 110, 625, 111, 628, 110, 629, 635, 111, 626, 110, 629, 110, 630, 111, 627, 108, 628, 110, 627, 109, 635, 110, 630, 111, 627, 111, 630, 111, 627, 111, 629, 111, 634, 109, 630, 112, 633, 112, 634, 110, 632, 111, 633, 111, 631, 110, 635, 109, 632, 110, 634, 110, 635, 110, 632, 110, 632, 111, 626, 110, 634, 111, 638, 109, 633, 109, 630, 110, 632, 110, 633, 110, 626, 110, 629, 110, 631, 109, 621, 110, 624, 109, 627, 109, 617, 110, 624, 110, 628, 111, 627, 110, 627, 110, 628, 110, 628, 112, 632, 110, 632, 110, 633, 111, 629, 110, 628, 111, 632, 110, 638, 110, 632, 110, 631, 111, 636, 110, 626, 109, 111, 622, 111, 618, 110, 110, 624, 110, 110, 630, 110, 110, 626, 110, 110, 623, 110, 622, 110, 624, 110, 631, 111, 627, 112, 629, 110, 625, 111, 628, 110, 629, 635, 111, 626, 110, 629, 110, 630, 111, 627, 108, 628, 110, 627, 109, 635, 110, 630, 111, 627, 111, 630, 111, 627, 111, 629, 111, 634, 109, 630, 112, 633, 112, 634, 110, 632, 111, 633, 111, 631, 110, 635, 109, 632, 110, 634, 110, 635, 110, 632, 110, 632, 111, 626, 110, 634, 111, 638, 109, 633, 109, 630, 110, 632, 110, 633, 110, 626, 110, 629, 110, 631, 109, 621, 110, 624, 109, 627, 109, 617, 110, 624, 110, 628, 111, 627, 110, 627, 110, 628, 110, 628, 112, 632, 110, 632, 110, 633, 111, 629, 110, 628, 111, 632, 110, 638, 110, 632, 110, 631, 111, 636, 110, 626, 109, 111, 622, 111, 618, 110, 110, 624, 110, 110, 630, 110, 110, 626, 110, 110, 623, 110, 622, 110, 624, 110, 631, 111, 627, 112, 629, 110, 625, 111, 628, 110, 629, 633, 633, 633, 633, 633, 633] p=1.0"]
S6 -> S1 [label="4 [13, 13, 13, 13, 12, 13, 11, 13, 12, 13, 12, 12, 12, 14, 14, 13, 12, 12, 12, 13, 12, 12, 12, 12, 12, 12, 13, 13, 13, 13, 12, 13, 12, 12, 13, 13, 12, 14, 13, 13, 13, 13, 13, 13, 12, 13, 13, 12, 12, 13, 13, 13, 13, 13, 13, 12, 12, 12, 12, 14, 13, 13, 11, 12, 14, 14, 13, 12, 13, 13, 13, 13, 14, 13, 12, 13, 14, 13, 12, 14, 13, 14, 12, 13, 12, 12, 13, 13, 12, 12, 13, 12, 13, 14, 13, 14, 11, 13, 12, 14, 12, 12, 13, 13, 12, 13, 13, 13, 13, 13, 12, 13, 13, 14, 13, 13, 13, 13, 14, 13, 14, 12, 14, 12, 13, 13, 12, 13, 12, 13, 13, 14, 13, 12, 13, 13, 13, 13, 12, 12, 13, 13, 13, 12, 13, 12, 13, 13, 13, 13, 12, 13, 11, 13, 12, 13, 12, 12, 12, 14, 14, 13, 12, 12, 12, 13, 12, 12, 12, 12, 12, 12, 13, 13, 13, 13, 12, 13, 12, 12, 13, 13, 12, 14, 13, 13, 13, 13, 13, 13, 12, 13, 13, 12, 12, 13, 13, 13, 13, 13, 13, 12, 12, 12, 12, 14, 13, 13, 11, 12, 14, 14, 13, 12, 13, 13, 13, 13, 14, 13, 12, 13, 14, 13, 12, 14, 13, 14, 12, 13, 12, 12, 13, 13, 12, 12, 13, 12, 13, 14, 13, 14, 11, 13, 12, 14, 12, 12, 13, 13, 12, 13, 13, 13, 13, 13, 12, 13, 13, 14, 13, 13, 13, 13, 14, 13, 14, 12, 14, 12, 13, 13, 12, 13, 12, 13, 13, 14, 13, 12, 13, 13, 13, 13, 12, 12, 13, 13, 13, 12, 13, 12, 13, 13, 13, 13, 12, 13, 11, 13, 12, 13, 12, 12, 12, 14, 14, 13, 12, 12, 12, 13, 12, 12, 12, 12, 12, 12, 13, 13, 13, 13, 12, 13, 12, 12, 13, 13, 12, 14, 13, 13, 13, 13, 13, 13, 12, 13, 13, 12, 12, 13, 13, 13, 13, 13, 13, 12, 12, 12, 12, 14, 13, 13, 11, 12, 14, 14, 13, 12, 13, 13, 13, 13, 14, 13, 12, 13, 14, 13, 12, 14, 13, 14, 12, 13, 12, 12, 13, 13, 12, 12, 13, 12, 13, 14, 13, 14, 11, 13, 12, 14, 12, 12, 13, 13, 12, 13, 13, 13, 13, 13, 12, 13, 13, 14, 13, 13, 13, 13, 14, 13, 14, 12, 14, 12, 13, 13, 12, 13, 12, 13, 13, 14, 13, 12, 13, 13, 13, 13, 12, 12, 13, 13, 13, 12, 13, 12, 13, 13, 13, 13, 12, 13, 11, 13, 12, 13, 12, 12, 12, 14, 14, 13, 12, 12, 12, 13, 12, 12, 12, 12, 12, 12, 13, 13, 13, 13, 12, 13, 12, 12, 13, 13, 12, 14, 13, 13, 13, 13, 13, 13, 12, 13, 13, 12, 12, 13, 13, 13, 13, 13, 13, 12, 12, 12, 12, 14, 13, 13, 11, 12, 14, 14, 13, 12, 13, 13, 13, 13, 14, 13, 12, 13, 14, 13, 12, 14, 13, 14, 12, 13, 12, 12, 13, 13, 12, 12, 13, 12, 13, 14, 13, 14, 11, 13, 12, 14, 12, 12, 13, 13, 12, 13, 13, 13, 13, 13, 12, 13, 13, 14, 13, 13, 13, 13, 14, 13, 14, 12, 14, 12, 13, 13, 12, 13, 12, 13, 13, 14, 13, 12, 13, 13, 13, 13, 12, 12, 13, 13, 13, 12, 13, 12, 13, 13, 13, 13, 12, 13, 11, 13, 12, 13, 12, 12, 12, 14, 14, 13, 12, 12, 12, 13, 12, 12, 12, 12, 12, 12, 13, 13, 13, 13, 12, 13, 12, 12, 13, 13, 12, 14, 13, 13, 13, 13, 13, 13, 12, 13, 13, 12, 12, 13, 13, 13, 13, 13, 13, 12, 12, 12, 12, 14, 13, 13, 11, 12, 14, 14, 13, 12, 13, 13, 13, 13, 14, 13, 12, 13, 14, 13, 12, 14, 13, 14, 12, 13, 12, 12, 13, 13, 12, 12, 13, 12, 13, 14, 13, 14, 11, 13, 12, 14, 12, 12, 13, 13, 12, 13, 13, 13, 13, 13, 12, 13, 13, 14, 13, 13, 13, 13, 14, 13, 14, 12, 14, 12, 13, 13, 12, 13, 12, 13, 13, 14, 13, 12, 13, 13, 13, 13, 12, 12, 13, 13, 13, 12, 13, 12, 13, 13, 13, 12, 13, 11, 13, 12, 13, 12, 12, 12, 14, 14, 13, 12, 12, 12, 13, 12, 12, 12, 12, 12, 12, 13, 13, 13, 13, 13, 12, 12, 13, 13, 12, 14, 13, 13, 13, 13, 13, 13, 12, 13, 13, 12, 12, 13, 13, 13, 13, 13, 13, 12, 12, 12, 12, 14, 13, 13, 11, 12, 14, 14, 13, 12, 13, 13, 13, 13, 14, 13, 12, 13, 14, 13, 12, 14, 13, 14, 12, 13, 12, 12, 13, 13, 12, 12, 13, 12, 13, 14, 13, 14, 11, 13, 12, 14, 12, 12, 13, 13, 12, 13, 13, 13, 13, 13, 12, 13, 13, 14, 13, 13, 13, 13, 14, 13, 14, 12, 14, 12, 13, 13, 12, 13, 12, 13, 13, 14, 13, 12, 13, 13, 13, 13, 12, 12, 13, 13, 13, 12, 13, 12, 13, 13, 13, 12, 13, 11, 13, 12, 13, 12, 12, 12, 14, 14, 13, 12, 12, 12, 13, 12, 12, 12, 12, 12, 12, 13, 13, 13, 13, 13, 12, 12, 13, 13, 12, 14, 13, 13, 13, 13, 13, 13, 12, 13, 13, 12, 12, 13, 13, 13, 13, 13, 13, 12, 12, 12, 12, 14, 13, 13, 11, 12, 14, 14, 13, 12, 13, 13, 13, 13, 14, 13, 12, 13, 14, 13, 12, 14, 13, 14, 12, 13, 12, 12, 13, 13, 12, 12, 13, 12, 13, 14, 13, 14, 11, 13, 12, 14, 12, 12, 13, 13, 12, 13, 13, 13, 13, 13, 12, 13, 13, 14, 13, 13, 13, 13, 14, 13, 14, 12, 14, 12, 13, 13, 12, 13, 12, 13, 13, 14, 13, 12, 13, 13, 13, 13, 12, 12, 13, 13, 13, 12, 13, 12, 13, 13, 13, 12, 13, 11, 13, 12, 13, 12, 12, 12, 14, 14, 13, 12, 12, 12, 13, 12, 12, 12, 12, 12, 12, 13, 13, 13, 13, 13, 12, 12, 13, 13, 12, 14, 13, 13, 13, 13, 13, 13, 12, 13, 13, 12, 12, 13, 13, 13, 13, 13, 13, 12, 12, 12, 12, 14, 13, 13, 11, 12, 14, 14, 13, 12, 13, 13, 13, 13, 14, 13, 12, 13, 14, 13, 12, 14, 13, 14, 12, 13, 12, 12, 13, 13, 12, 12, 13, 12, 13, 14, 13, 14, 11, 13, 12, 14, 12, 12, 13, 13, 12, 13, 13, 13, 13, 13, 12, 13, 13, 14, 13, 13, 13, 13, 14, 13, 14, 12, 14, 12, 13, 13, 12, 13, 12, 13, 13, 14, 13, 12, 13, 13, 13, 13, 12, 12, 13, 13, 13, 12, 13, 12, 13, 13, 13, 12, 13, 11, 13, 12, 13, 12, 12, 12, 14, 14, 13, 12, 12, 12, 13, 12, 12, 12, 12, 12, 12, 13, 13, 13, 13, 13, 12, 12, 13, 13, 12, 14, 13, 13, 13, 13, 13, 13, 12, 13, 13, 12, 12, 13, 13, 13, 13, 13, 13, 12, 12, 12, 12, 14, 13, 13, 11, 12, 14, 14, 13, 12, 13, 13, 13, 13, 14, 13, 12, 13, 14, 13, 12, 14, 13, 14, 12, 13, 12, 12, 13, 13, 12, 12, 13, 12, 13, 14, 13, 14, 11, 13, 12, 14, 12, 12, 13, 13, 12, 13, 13, 13, 13, 13, 12, 13, 13, 14, 13, 13, 13, 13, 14, 13, 14, 12, 14, 12, 13, 13, 12, 13, 12, 13, 13, 14, 13, 12, 13, 13, 13, 13, 12, 12, 13, 13, 13, 12, 13, 12, 4, 4, 4, 4, 4, 4, 4, 4, 4, 4, 12, 12, 12, 12] p=1.0"]
S2 -> S3 [label="2 [2, 2, 2, 2, 2, 2, 2, 2, 2, 3, 2, 3, 2, 2, 3, 2, 3, 2, 2, 2, 2, 3, 2, 2, 3, 2, 2, 2, 2, 2, 2, 3, 2, 2, 2, 2, 3, 2, 2, 2, 2, 2, 2, 2, 2, 3, 2, 2, 2, 2, 2, 2, 2, 2, 2, 2, 2, 2, 3, 2, 2, 2, 2, 2, 2, 2, 3, 2, 2, 2, 2, 2, 3, 3, 2, 2, 2, 3, 2, 2, 2, 2, 2, 2, 2, 2, 2, 2, 2, 2, 2, 2, 2, 2, 2, 2, 1, 3, 2, 1, 1, 2, 2, 2, 2, 2, 2, 2, 2, 3, 2, 2, 2, 2, 2, 2, 2, 2, 3, 3, 2, 2, 2, 2, 2, 2, 3, 2, 2, 2, 2, 2, 2, 3, 3, 2, 2, 2, 2, 2, 2, 3, 2, 1, 3, 2, 2, 2, 2, 2, 2, 2, 2, 2, 3, 2, 3, 2, 2, 3, 2, 3, 2, 2, 2, 2, 3, 2, 2, 3, 2, 2, 2, 2, 2, 3, 2, 2, 2, 2, 3, 2, 2, 2, 2, 2, 2, 2, 2, 3, 2, 2, 2, 2, 2, 2, 2, 2, 2, 2, 2, 2, 3, 2, 2, 2, 2, 2, 2, 2, 3, 2, 2, 2, 2, 2, 3, 3, 2, 2, 2, 3, 2, 2, 2, 2, 2, 2, 2, 2, 2, 2, 2, 2, 2, 2, 2, 2, 2, 2, 1, 3, 2, 1, 1, 2, 2, 2, 2, 2, 2, 2, 2, 3, 2, 2, 2, 2, 2, 2, 2, 2, 3, 3, 2, 2, 2, 2, 2, 2, 3, 2, 2, 2, 2, 2, 2, 3, 3, 2, 2, 2, 2, 2, 2, 3, 2, 1, 3, 2, 2, 2, 2, 2, 2, 2, 2, 2, 3, 2, 3, 2, 2, 3, 2, 3, 2, 2, 2, 2, 3, 2, 2, 3, 2, 2, 2, 2, 2, 3, 2, 2, 2, 2, 3, 2, 2, 2, 2, 2, 2, 2, 2, 3, 2, 2, 2, 2, 2, 2, 2, 2, 2, 2, 2, 2, 3, 2, 2, 2, 2, 2, 2, 2, 3, 2, 2, 2, 2, 2, 3, 3, 2, 2, 2, 3, 2, 2, 2, 2, 2, 2, 2, 2, 2, 2, 2, 2, 2, 2, 2, 2, 2, 2, 1, 3, 2, 1, 1, 2, 2, 2, 2, 2, 2, 2, 2, 3, 2, 2, 2, 2, 2, 2, 2, 2, 3, 3, 2, 2, 2, 2, 2, 2, 3, 2, 2, 2, 2, 2, 2, 3, 3, 2, 2, 2, 2, 2, 2, 3, 2, 1, 3, 2, 2, 2, 2, 2, 2, 2, 2, 2, 3, 2, 3, 2, 2, 3, 2, 3, 2, 2, 2, 2, 3, 2, 2, 3, 2, 2, 2, 2, 2, 3, 2, 2, 2, 2, 3, 2, 2, 2, 2, 2, 2, 2, 2, 3, 2, 2, 2, 2, 2, 2, 2, 2, 2, 2, 2, 2, 3, 2, 2, 2, 2, 2, 2, 2, 3, 2, 2, 2, 2, 2, 3, 3, 2, 2, 2, 3, 2, 2, 2, 2, 2, 2, 2, 2, 2, 2, 2, 2, 2, 2, 2, 2, 2, 2, 1, 3, 2, 1, 1, 2, 2, 2, 2, 2, 2, 2, 2, 3, 2, 2, 2, 2, 2, 2, 2, 2, 3, 3, 2, 2, 2, 2, 2, 2, 3, 2, 2, 2, 2, 2, 2, 3, 3, 2, 2, 2, 2, 2, 2, 3, 2, 1, 3, 2, 2, 2, 2, 2, 2, 2, 2, 2, 3, 2, 3, 2, 2, 3, 2, 3, 2, 2, 2, 2, 3, 2, 2, 3, 2, 2, 2, 2, 2, 3, 2, 2, 2, 2, 3, 2, 2, 2, 2, 2, 2, 2, 2, 3, 2, 2, 2, 2, 2, 2, 2, 2, 2, 2, 2, 2, 3, 2, 2, 2, 2, 2, 2, 2, 3, 2, 2, 2, 2, 2, 3, 3, 2, 2, 2, 3, 2, 2, 2, 2, 2, 2, 2, 2, 2, 2, 2, 2, 2, 2, 2, 2, 2, 2, 1, 3, 2, 1, 1, 2, 2, 2, 2, 2, 2, 2, 2, 3, 2, 2, 2, 2, 2, 2, 2, 2, 3, 3, 2, 2, 2, 2, 2, 2, 3, 2, 2, 2, 2, 2, 2, 3, 3, 2, 2, 2, 2, 2, 2, 3, 2, 1, 3, 2, 2, 2, 2, 2, 2, 2, 2, 2, 3, 2, 3, 2, 2, 3, 2, 3, 2, 2, 2, 2, 3, 2, 2, 3, 2, 2, 2, 2, 2, 3, 2, 2, 2, 2, 3, 2, 2, 2, 2, 2, 2, 2, 2, 3, 2, 2, 2, 2, 2, 2, 2, 2, 2, 2, 2, 2, 3, 2, 2, 2, 2, 2, 2, 2, 3, 2, 2, 2, 2, 2, 3, 3, 2, 2, 2, 3, 2, 2, 2, 2, 2, 2, 2, 2, 2, 2, 2, 2, 2, 2, 2, 2, 2, 2, 1, 3, 2, 1, 1, 2, 2, 2, 2, 2, 2, 2, 2, 3, 2, 2, 2, 2, 2, 2, 2, 2, 3, 3, 2, 2, 2, 2, 2, 2, 3, 2, 2, 2, 2, 2, 2, 3, 3, 2, 2, 2, 2, 2, 2, 3, 2, 1, 3, 2, 2, 2, 2, 2, 2, 2, 2, 2, 3, 2, 3, 2, 2, 3, 2, 3, 2, 2, 2, 2, 3, 2, 2, 3, 2, 2, 2, 2, 2, 3, 2, 2, 2, 2, 3, 2, 2, 2, 2, 2, 2, 2, 2, 3, 2, 2, 2, 2, 2, 2, 2, 2, 2, 2, 2, 2, 3, 2, 2, 2, 2, 2, 2, 2, 3, 2, 2, 2, 2, 2, 3, 3, 2, 2, 2, 3, 2, 2, 2, 2, 2, 2, 2, 2, 2, 2, 2, 2, 2, 2, 2, 2, 2, 2, 1, 3, 2, 1, 1, 2, 2, 2, 2, 2, 2, 2, 2, 3, 2, 2, 2, 2, 2, 2, 2, 2, 3, 3, 2, 2, 2, 2, 2, 2, 3, 2, 2, 2, 2, 2, 2, 3, 3, 2, 2, 2, 2, 2, 2, 3, 2, 1, 3, 2, 2, 2, 2, 2, 2, 2, 2, 3, 2, 3, 2, 2, 3, 2, 3, 2, 2, 2, 2, 3, 2, 2, 3, 2, 2, 2, 2, 2, 2, 2, 2, 2, 3, 2, 2, 2, 2, 2, 2, 2, 2, 3, 2, 2, 2, 2, 2, 2, 2, 2, 2, 2, 2, 2, 3, 2, 2, 2, 2, 2, 2, 2, 3, 2, 2, 2, 2, 2, 3, 3, 2, 2, 2, 3, 2, 2, 2, 2, 2, 2, 2, 2, 2, 2, 2, 2, 2, 2, 2, 2, 2, 2, 1, 3, 2, 1, 1, 2, 2, 2, 2, 2, 2, 2, 2, 3, 2, 2, 2, 2, 2, 2, 2, 2, 3, 3, 2, 2, 2, 2, 2, 2, 3, 2, 2, 2, 2, 2, 2, 3, 3, 2, 2, 2, 2, 2, 2, 3, 2, 1, 3, 2, 2, 2, 2, 2, 2, 2, 2, 3, 2, 3, 2, 2, 3, 2, 3, 2, 2, 2, 2, 3, 2, 2, 3, 2, 2, 2, 2, 2, 2, 2, 2, 2, 3, 2, 2, 2, 2, 2, 2, 2, 2, 3, 2, 2, 2, 2, 2, 2, 2, 2, 2, 2, 2, 2, 3, 2, 2, 2, 2, 2, 2, 2, 3, 2, 2, 2, 2, 2, 3, 3, 2, 2, 2, 3, 2, 2, 2, 2, 2, 2, 2, 2, 2, 2, 2, 2, 2, 2, 2, 2, 2, 2, 1, 3, 2, 1, 1, 2, 2, 2, 2, 2, 2, 2, 2, 3, 2, 2, 2, 2, 2, 2, 2, 2, 3, 3, 2, 2, 2, 2, 2, 2, 3, 2, 2, 2, 2, 2, 2, 3, 3, 2, 2, 2, 2, 2, 2, 3, 2, 1, 3, 2, 2, 2, 2, 2, 2, 2, 2, 2, 3, 3] p=1.0"]
S5 -> S6 [label="3 [33, 33, 35, 35, 34, 35, 34, 35, 35, 36, 33, 35, 34, 34, 34, 35, 34, 34, 35, 35, 36, 36, 35, 35, 34, 35, 34, 35, 34, 34, 35, 35, 33, 35, 34, 34, 35, 34, 34, 35, 34, 35, 34, 34, 33, 34, 32, 34, 34, 34, 34, 34, 35, 35, 33, 34, 35, 36, 34, 35, 34, 34, 34, 34, 33, 34, 34, 35, 34, 34, 34, 35, 33, 35, 34, 35, 33, 35, 34, 35, 35, 34, 35, 34, 35, 36, 33, 35, 33, 35, 33, 35, 34, 34, 33, 34, 34, 35, 35, 34, 34, 34, 33, 35, 35, 35, 34, 35, 34, 35, 34, 35, 35, 35, 34, 33, 34, 33, 35, 36, 34, 35, 34, 34, 35, 35, 33, 34, 36, 33, 35, 33, 35, 35, 35, 34, 34, 33, 35, 33, 35, 33, 34, 34, 35, 33, 33, 35, 35, 34, 35, 34, 35, 35, 36, 33, 35, 34, 34, 34, 35, 34, 34, 35, 35, 36, 36, 35, 35, 34, 35, 34, 35, 34, 34, 35, 33, 35, 34, 34, 35, 34, 34, 35, 34, 35, 34, 34, 33, 34, 32, 34, 34, 34, 34, 34, 35, 35, 33, 34, 35, 36, 34, 35, 34, 34, 34, 34, 33, 34, 34, 35, 34, 34, 34, 35, 33, 35, 34, 35, 33, 35, 34, 35, 35, 34, 35, 34, 35, 36, 33, 35, 33, 35, 33, 35, 34, 34, 33, 34, 34, 35, 35, 34, 34, 34, 33, 35, 35, 35, 34, 35, 34, 35, 34, 35, 35, 35, 34, 33, 34, 33, 35, 36, 34, 35, 34, 34, 35, 35, 33, 34, 36, 33, 35, 33, 35, 35, 35, 34, 34, 33, 35, 33, 35, 33, 34, 34, 35, 33, 33, 35, 35, 34, 35, 34, 35, 35, 36, 33, 35, 34, 34, 34, 35, 34, 34, 35, 35, 36, 36, 35, 35, 34, 35, 34, 35, 34, 34, 35, 33, 35, 34, 34, 35, 34, 34, 35, 34, 35, 34, 34, 33, 34, 32, 34, 34, 34, 34, 34, 35, 35, 33, 34, 35, 36, 34, 35, 34, 34, 34, 34, 33, 34, 34, 35, 34, 34, 34, 35, 33, 35, 34, 35, 33, 35, 34, 35, 35, 34, 35, 34, 35, 36, 33, 35, 33, 35, 33, 35, 34, 34, 33, 34, 34, 35, 35, 34, 34, 34, 33, 35, 35, 35, 34, 35, 34, 35, 34, 35, 35, 35, 34, 33, 34, 33, 35, 36, 34, 35, 34, 34, 35, 35, 33, 34, 36, 33, 35, 33, 35, 35, 35, 34, 34, 33, 35, 33, 35, 33, 34, 34, 35, 33, 33, 35, 35, 34, 35, 34, 35, 35, 36, 33, 35, 34, 34, 34, 35, 34, 34, 35, 35, 36, 36, 35, 35, 34, 35, 34, 35, 34, 34, 35, 33, 35, 34, 34, 35, 34, 34, 35, 34, 35, 34, 34, 33, 34, 32, 34, 34, 34, 34, 34, 35, 35, 33, 34, 35, 36, 34, 35, 34, 34, 34, 34, 33, 34, 34, 35, 34, 34, 34, 35, 33, 35, 34, 35, 33, 35, 34, 35, 35, 34, 35, 34, 35, 36, 33, 35, 33, 35, 33, 35, 34, 34, 33, 34, 34, 35, 35, 34, 34, 34, 33, 35, 35, 35, 34, 35, 34, 35, 34, 35, 35, 35, 34, 33, 34, 33, 35, 36, 34, 35, 34, 34, 35, 35, 33, 34, 36, 33, 35, 33, 35, 35, 35, 34, 34, 33, 35, 33, 35, 33, 34, 34, 35, 33, 33, 35, 35, 34, 35, 34, 35, 35, 36, 33, 35, 34, 34, 34, 35, 34, 34, 35, 35, 36, 36, 35, 35, 34, 35, 34, 35, 34, 34, 35, 33, 35, 34, 34, 35, 34, 34, 35, 34, 35, 34, 34, 33, 34, 32, 34, 34, 34, 34, 34, 35, 35, 33, 34, 35, 36, 34, 35, 34, 34, 34, 34, 33, 34, 34, 35, 34, 34, 34, 35, 33, 35, 34, 35, 33, 35, 34, 35, 35, 34, 35, 34, 35, 36, 33, 35, 33, 35, 33, 35, 34, 34, 33, 34, 34, 35, 35, 34, 34, 34, 33, 35, 35, 35, 34, 35, 34, 35, 34, 35, 35, 35, 34, 33, 34, 33, 35, 36, 34, 35, 34, 34, 35, 35, 33, 34, 36, 33, 35, 33, 35, 35, 35, 34, 34, 33, 35, 33, 35, 33, 34, 34, 35, 33, 33, 35, 35, 34, 35, 34, 35, 35, 36, 33, 35, 34, 34, 34, 35, 34, 34, 35, 35, 36, 36, 35, 35, 34, 35, 34, 35, 34, 34, 35, 33, 35, 34, 34, 35, 34, 34, 35, 34, 35, 34, 34, 33, 34, 32, 34, 34, 34, 34, 34, 35, 35, 33, 34, 35, 36, 34, 35, 34, 34, 34, 34, 33, 34, 34, 35, 34, 34, 34, 35, 33, 35, 34, 35, 33, 35, 34, 35, 35, 34, 35, 34, 35, 36, 33, 35, 33, 35, 33, 35, 34, 34, 33, 34, 34, 35, 35, 34, 34, 34, 33, 35, 35, 35, 34, 35, 34, 35, 34, 35, 35, 35, 34, 33, 34, 33, 35, 36, 34, 35, 34, 34, 35, 35, 33, 34, 36, 33, 35, 33, 35, 35, 35, 34, 34, 33, 35, 33, 35, 33, 34, 34, 35, 33, 33, 33, 35, 35, 34, 35, 34, 35, 35, 36, 33, 35, 34, 34, 34, 35, 34, 34, 35, 35, 36, 36, 35, 35, 34, 35, 34, 35, 34, 34, 35, 35, 33, 35, 34, 34, 35, 34, 34, 35, 34, 35, 34, 34, 33, 34, 32, 34, 34, 34, 34, 34, 35, 35, 33, 34, 35, 36, 34, 35, 34, 34, 34, 34, 33, 34, 34, 35, 34, 34, 34, 35, 33, 35, 34, 35, 33, 35, 34, 35, 35, 34, 35, 34, 35, 36, 33, 35, 33, 35, 33, 35, 34, 34, 33, 34, 34, 35, 35, 34, 34, 34, 33, 35, 35, 35, 34, 35, 34, 35, 34, 35, 35, 35, 34, 33, 34, 33, 35, 36, 34, 35, 34, 34, 35, 35, 33, 34, 36, 33, 35, 33, 35, 35, 35, 34, 34, 33, 35, 33, 35, 33, 34, 34, 35, 33, 33, 33, 35, 35, 34, 35, 34, 35, 35, 36, 33, 35, 34, 34, 34, 35, 34, 34, 35, 35, 36, 36, 35, 35, 34, 35, 34, 35, 34, 34, 35, 35, 33, 35, 34, 34, 35, 34, 34, 35, 34, 35, 34, 34, 33, 34, 32, 34, 34, 34, 34, 34, 35, 35, 33, 34, 35, 36, 34, 35, 34, 34, 34, 34, 33, 34, 34, 35, 34, 34, 34, 35, 33, 35, 34, 35, 33, 35, 34, 35, 35, 34, 35, 34, 35, 36, 33, 35, 33, 35, 33, 35, 34, 34, 33, 34, 34, 35, 35, 34, 34, 34, 33, 35, 35, 35, 34, 35, 34, 35, 34, 35, 35, 35, 34, 33, 34, 33, 35, 36, 34, 35, 34, 34, 35, 35, 33, 34, 36, 33, 35, 33, 35, 35, 35, 34, 34, 33, 35, 33, 35, 33, 34, 34, 35, 33, 33, 33, 35, 35, 34, 35, 34, 35, 35, 36, 33, 35, 34, 34, 34, 35, 34, 34, 35, 35, 36, 36, 35, 35, 34, 35, 34, 35, 34, 34, 35, 35, 33, 35, 34, 34, 35, 34, 34, 35, 34, 35, 34, 34, 33, 34, 32, 34, 34, 34, 34, 34, 35, 35, 33, 34, 35, 36, 34, 35, 34, 34, 34, 34, 33, 34, 34, 35, 34, 34, 34, 35, 33, 35, 34, 35, 33, 35, 34, 35, 35, 34, 35, 34, 35, 36, 33, 35, 33, 35, 33, 35, 34, 34, 33, 34, 34, 35, 35, 34, 34, 34, 33, 35, 35, 35, 34, 35, 34, 35, 34, 35, 35, 35, 34, 33, 34, 33, 35, 36, 34, 35, 34, 34, 35, 35, 33, 34, 36, 33, 35, 33, 35, 35, 35, 34, 34, 33, 35, 33, 35, 33, 34, 34, 35, 33, 35, 35, 35, 35, 35] p=1.0"]
S3 -> S4 [label="1 [3, 3, 3, 4, 3, 3, 4, 2, 3, 3, 3, 2, 3, 3, 2, 3, 3, 3, 3, 3, 3, 3, 3, 3, 2, 3, 3, 4, 3, 3, 3, 2, 3, 3, 3, 3, 3, 3, 3, 3, 3, 3, 3, 3, 4, 2, 3, 3, 2, 3, 2, 2, 3, 3, 4, 3, 3, 3, 2, 3, 3, 3, 3, 3, 3, 3, 3, 3, 3, 3, 3, 3, 3, 2, 3, 3, 3, 3, 3, 2, 3, 3, 3, 3, 3, 4, 3, 3, 3, 3, 3, 2, 3, 3, 3, 3, 3, 2, 3, 4, 3, 3, 2, 3, 2, 2, 3, 3, 3, 2, 3, 3, 3, 3, 3, 2, 3, 3, 2, 2, 3, 3, 4, 2, 2, 3, 2, 3, 3, 3, 3, 3, 3, 2, 2, 3, 3, 3, 3, 2, 2, 2, 3, 3, 2, 3, 3, 3, 4, 3, 3, 4, 2, 3, 3, 3, 2, 3, 3, 2, 3, 3, 3, 3, 3, 3, 3, 3, 3, 2, 3, 3, 4, 3, 3, 2, 3, 3, 3, 3, 3, 3, 3, 3, 3, 3, 3, 3, 4, 2, 3, 3, 2, 3, 2, 2, 3, 3, 4, 3, 3, 3, 2, 3, 3, 3, 3, 3, 3, 3, 3, 3, 3, 3, 3, 3, 3, 2, 3, 3, 3, 3, 3, 2, 3, 3, 3, 3, 3, 4, 3, 3, 3, 3, 3, 2, 3, 3, 3, 3, 3, 2, 3, 4, 3, 3, 2, 3, 2, 2, 3, 3, 3, 2, 3, 3, 3, 3, 3, 2, 3, 3, 2, 2, 3, 3, 4, 2, 2, 3, 2, 3, 3, 3, 3, 3, 3, 2, 2, 3, 3, 3, 3, 2, 2, 2, 3, 3, 2, 3, 3, 3, 4, 3, 3, 4, 2, 3, 3, 3, 2, 3, 3, 2, 3, 3, 3, 3, 3, 3, 3, 3, 3, 2, 3, 3, 4, 3, 3, 2, 3, 3, 3, 3, 3, 3, 3, 3, 3, 3, 3, 3, 4, 2, 3, 3, 2, 3, 2, 2, 3, 3, 4, 3, 3, 3, 2, 3, 3, 3, 3, 3, 3, 3, 3, 3, 3, 3, 3, 3, 3, 2, 3, 3, 3, 3, 3, 2, 3, 3, 3, 3, 3, 4, 3, 3, 3, 3, 3, 2, 3, 3, 3, 3, 3, 2, 3, 4, 3, 3, 2, 3, 2, 2, 3, 3, 3, 2, 3, 3, 3, 3, 3, 2, 3, 3, 2, 2, 3, 3, 4, 2, 2, 3, 2, 3, 3, 3, 3, 3, 3, 2, 2, 3, 3, 3, 3, 2, 2, 2, 3, 3, 2, 3, 3, 3, 4, 3, 3, 4, 2, 3, 3, 3, 2, 3, 3, 2, 3, 3, 3, 3, 3, 3, 3, 3, 3, 2, 3, 3, 4, 3, 3, 2, 3, 3, 3, 3, 3, 3, 3, 3, 3, 3, 3, 3, 4, 2, 3, 3, 2, 3, 2, 2, 3, 3, 4, 3, 3, 3, 2, 3, 3, 3, 3, 3, 3, 3, 3, 3, 3, 3, 3, 3, 3, 2, 3, 3, 3, 3, 3, 2, 3, 3, 3, 3, 3, 4, 3, 3, 3, 3, 3, 2, 3, 3, 3, 3, 3, 2, 3, 4, 3, 3, 2, 3, 2, 2, 3, 3, 3, 2, 3, 3, 3, 3, 3, 2, 3, 3, 2, 2, 3, 3, 4, 2, 2, 3, 2, 3, 3, 3, 3, 3, 3, 2, 2, 3, 3, 3, 3, 2, 2, 2, 3, 3, 2, 3, 3, 3, 4, 3, 3, 4, 2, 3, 3, 3, 2, 3, 3, 2, 3, 3, 3, 3, 3, 3, 3, 3, 3, 2, 3, 3, 4, 3, 3, 2, 3, 3, 3, 3, 3, 3, 3, 3, 3, 3, 3, 3, 4, 2, 3, 3, 2, 3, 2, 2, 3, 3, 4, 3, 3, 3, 2, 3, 3, 3, 3, 3, 3, 3, 3, 3, 3, 3, 3, 3, 3, 2, 3, 3, 3, 3, 3, 2, 3, 3, 3, 3, 3, 4, 3, 3, 3, 3, 3, 2, 3, 3, 3, 3, 3, 2, 3, 4, 3, 3, 2, 3, 2, 2, 3, 3, 3, 2, 3, 3, 3, 3, 3, 2, 3, 3, 2, 2, 3, 3, 4, 2, 2, 3, 2, 3, 3, 3, 3, 3, 3, 2, 2, 3, 3, 3, 3, 2, 2, 2, 3, 3, 2, 3, 3, 3, 4, 3, 3, 4, 2, 3, 3, 3, 2, 3, 3, 2, 3, 3, 3, 3, 3, 3, 3, 3, 3, 2, 3, 3, 4, 3, 3, 2, 3, 3, 3, 3, 3, 3, 3, 3, 3, 3, 3, 3, 4, 2, 3, 3, 2, 3, 2, 2, 3, 3, 4, 3, 3, 3, 2, 3, 3, 3, 3, 3, 3, 3, 3, 3, 3, 3, 3, 3, 3, 2, 3, 3, 3, 3, 3, 2, 3, 3, 3, 3, 3, 4, 3, 3, 3, 3, 3, 2, 3, 3, 3, 3, 3, 2, 3, 4, 3, 3, 2, 3, 2, 2, 3, 3, 3, 2, 3, 3, 3, 3, 3, 2, 3, 3, 2, 2, 3, 3, 4, 2, 2, 3, 2, 3, 3, 3, 3, 3, 3, 2, 2, 3, 3, 3, 3, 2, 2, 2, 3, 3, 2, 3, 3, 3, 4, 3, 3, 4, 2, 3, 3, 3, 2, 3, 3, 2, 3, 3, 3, 3, 3, 3, 3, 3, 3, 2, 3, 3, 4, 3, 3, 2, 3, 3, 3, 3, 3, 3, 3, 3, 3, 3, 3, 3, 4, 2, 3, 3, 2, 3, 2, 2, 3, 3, 4, 3, 3, 3, 2, 3, 3, 3, 3, 3, 3, 3, 3, 3, 3, 3, 3, 3, 3, 2, 3, 3, 3, 3, 3, 2, 3, 3, 3, 3, 3, 4, 3, 3, 3, 3, 3, 2, 3, 3, 3, 3, 3, 2, 3, 4, 3, 3, 2, 3, 2, 2, 3, 3, 3, 2, 3, 3, 3, 3, 3, 2, 3, 3, 2, 2, 3, 3, 4, 2, 2, 3, 2, 3, 3, 3, 3, 3, 3, 2, 2, 3, 3, 3, 3, 2, 2, 2, 3, 3, 2, 3, 3, 4, 3, 3, 4, 2, 3, 3, 3, 2, 3, 3, 2, 3, 3, 3, 3, 3, 3, 3, 3, 3, 2, 3, 3, 4, 3, 3, 3, 3, 3, 3, 3, 3, 3, 3, 3, 3, 3, 3, 4, 2, 3, 3, 2, 3, 2, 2, 3, 3, 4, 3, 3, 3, 2, 3, 3, 3, 3, 3, 3, 3, 3, 3, 3, 3, 3, 3, 3, 2, 3, 3, 3, 3, 3, 2, 3, 3, 3, 3, 3, 4, 3, 3, 3, 3, 3, 2, 3, 3, 3, 3, 3, 2, 3, 4, 3, 3, 2, 3, 2, 2, 3, 3, 3, 2, 3, 3, 3, 3, 3, 2, 3, 3, 2, 2, 3, 3, 4, 2, 2, 3, 2, 3, 3, 3, 3, 3, 3, 2, 2, 3, 3, 3, 3, 2, 2, 2, 3, 3, 2, 3, 3, 3, 3, 3, 3, 3, 3, 2, 3, 3, 3, 4, 3, 3, 4, 2, 3, 3, 3, 2, 3, 3, 2, 3, 3, 3, 3, 3, 3, 3, 3, 3, 2, 3, 3, 4, 3, 3, 3, 2, 3, 3, 3, 3, 3, 3, 3, 3, 3, 3, 3, 3, 4, 2, 3, 3, 2, 3, 2, 2, 3, 3, 4, 3, 3, 3, 2, 3, 3, 3, 3, 3, 3, 3, 3, 3, 3, 3, 3, 3, 3, 2, 3, 3, 3, 3, 3, 2, 3, 3, 3, 3, 3, 4, 3, 3, 3, 3, 3, 2, 3, 3, 3, 3, 3, 2, 3, 4, 3, 3, 2, 3, 2, 2, 3, 3, 3, 2, 3, 3, 3, 3, 3, 2, 3, 3, 2, 2, 3, 3, 4, 2, 2, 3, 2, 3, 3, 3, 3, 3, 3, 2, 2, 3, 3, 3, 3, 2, 2, 2, 3, 3, 2, 3] p=1.0"]