2:0 1:3 2:7 1:1 2:2 1:1 3:30 4:5 5:8 2:3 1:4
1:0 2:7 1:1 2:2 1:1 3:30 4:5 5:8 2:3 1:4 2:5
2:0 1:1 2:2 1:1 3:30 4:5 5:8 2:3 1:4 2:5 1:3
1:0 2:2 1:1 3:30 4:5 5:8 2:3 1:4 2:5 1:3 4:14
2:0 1:1 3:30 4:5 5:8 2:3 1:4 2:5 1:3 4:14 5:5
1:0 3:30 4:5 5:8 2:3 1:4 2:5 1:3 4:14 5:5 2:4
3:0 4:5 5:8 2:3 1:4 2:5 1:3 4:14 5:5 2:4 1:3
4:0 5:8 2:3 1:4 2:5 1:3 4:14 5:5 2:4 1:3 2:8
5:0 2:3 1:4 2:5 1:3 4:14 5:5 2:4 1:3 2:8 1:1
2:0 1:4 2:5 1:3 4:14 5:5 2:4 1:3 2:8 1:1 3:31
1:0 2:5 1:3 4:14 5:5 2:4 1:3 2:8 1:1 3:31 4:4
2:0 1:3 4:14 5:5 2:4 1:3 2:8 1:1 3:31 4:4 3:2
1:0 4:14 5:5 2:4 1:3 2:8 1:1 3:31 4:4 3:2 4:1
4:0 5:5 2:4 1:3 2:8 1:1 3:31 4:4 3:2 4:1 5:11
5:0 2:4 1:3 2:8 1:1 3:31 4:4 3:2 4:1 5:11 2:1
2:0 1:3 2:8 1:1 3:31 4:4 3:2 4:1 5:11 2:1 1:13
1:0 2:8 1:1 3:31 4:4 3:2 4:1 5:11 2:1 1:13 3:33
2:0 1:1 3:31 4:4 3:2 4:1 5:11 2:1 1:13 3:33 4:4
1:0 3:31 4:4 3:2 4:1 5:11 2:1 1:13 3:33 4:4 5:5
3:0 4:4 3:2 4:1 5:11 2:1 1:13 3:33 4:4 5:5 2:4
4:0 3:2 4:1 5:11 2:1 1:13 3:33 4:4 5:5 2:4 1:1
3:0 4:1 5:11 2:1 1:13 3:33 4:4 5:5 2:4 1:1 3:19
4:0 5:11 2:1 1:13 3:33 4:4 5:5 2:4 1:1 3:19 5:1
5:0 2:1 1:13 3:33 4:4 5:5 2:4 1:1 3:19 5:1 4:6
2:0 1:13 3:33 4:4 5:5 2:4 1:1 3:19 5:1 4:6 1:6
1:0 3:33 4:4 5:5 2:4 1:1 3:19 5:1 4:6 1:6 2:1
3:0 4:4 5:5 2:4 1:1 3:19 5:1 4:6 1:6 2:1 1:6
4:0 5:5 2:4 1:1 3:19 5:1 4:6 1:6 2:1 1:6 2:3
5:0 2:4 1:1 3:19 5:1 4:6 1:6 2:1 1:6 2:3 1:7
2:0 1:1 3:19 5:1 4:6 1:6 2:1 1:6 2:3 1:7 4:12
1:0 3:19 5:1 4:6 1:6 2:1 1:6 2:3 1:7 4:12 5:6
3:0 5:1 4:6 1:6 2:1 1:6 2:3 1:7 4:12 5:6 2:3
5:0 4:6 1:6 2:1 1:6 2:3 1:7 4:12 5:6 2:3 1:3
4:0 1:6 2:1 1:6 2:3 1:7 4:12 5:6 2:3 1:3 3:29
1:0 2:1 1:6 2:3 1:7 4:12 5:6 2:3 1:3 3:29 4:3
2:0 1:6 2:3 1:7 4:12 5:6 2:3 1:3 3:29 4:3 5:7
1:0 2:3 1:7 4:12 5:6 2:3 1:3 3:29 4:3 5:7 2:5
2:0 1:7 4:12 5:6 2:3 1:3 3:29 4:3 5:7 2:5 1:5
1:0 4:12 5:6 2:3 1:3 3:29 4:3 5:7 2:5 1:5 2:9
4:0 5:6 2:3 1:3 3:29 4:3 5:7 2:5 1:5 2:9 1:1
5:0 2:3 1:3 3:29 4:3 5:7 2:5 1:5 2:9 1:1 3:29
2:0 1:3 3:29 4:3 5:7 2:5 1:5 2:9 1:1 3:29 4:7
1:0 3:29 4:3 5:7 2:5 1:5 2:9 1:1 3:29 4:7 5:8
3:0 4:3 5:7 2:5 1:5 2:9 1:1 3:29 4:7 5:8 2:3
4:0 5:7 2:5 1:5 2:9 1:1 3:29 4:7 5:8 2:3 1:4
5:0 2:5 1:5 2:9 1:1 3:29 4:7 5:8 2:3 1:4 2:3
2:0 1:5 2:9 1:1 3:29 4:7 5:8 2:3 1:4 2:3 1:6
1:0 2:9 1:1 3:29 4:7 5:8 2:3 1:4 2:3 1:6 3:30
2:0 1:1 3:29 4:7 5:8 2:3 1:4 2:3 1:6 3:30 4:7
1:0 3:29 4:7 5:8 2:3 1:4 2:3 1:6 3:30 4:7 5:5
3:0 4:7 5:8 2:3 1:4 2:3 1:6 3:30 4:7 5:5 2:4
4:0 5:8 2:3 1:4 2:3 1:6 3:30 4:7 5:5 2:4 1:4
5:0 2:3 1:4 2:3 1:6 3:30 4:7 5:5 2:4 1:4 3:27
2:0 1:4 2:3 1:6 3:30 4:7 5:5 2:4 1:4 3:27 4:1
1:0 2:3 1:6 3:30 4:7 5:5 2:4 1:4 3:27 4:1 5:9
2:0 1:6 3:30 4:7 5:5 2:4 1:4 3:27 4:1 5:9 2:2
1:0 3:30 4:7 5:5 2:4 1:4 3:27 4:1 5:9 2:2 1:7
3:0 4:7 5:5 2:4 1:4 3:27 4:1 5:9 2:2 1:7 3:13
4:0 5:5 2:4 1:4 3:27 4:1 5:9 2:2 1:7 3:13 4:1
5:0 2:4 1:4 3:27 4:1 5:9 2:2 1:7 3:13 4:1 5:5
2:0 1:4 3:27 4:1 5:9 2:2 1:7 3:13 4:1 5:5 2:3
1:0 3:27 4:1 5:9 2:2 1:7 3:13 4:1 5:5 2:3 1:3
3:0 4:1 5:9 2:2 1:7 3:13 4:1 5:5 2:3 1:3 3:43
4:0 5:9 2:2 1:7 3:13 4:1 5:5 2:3 1:3 3:43 4:4
5:0 2:2 1:7 3:13 4:1 5:5 2:3 1:3 3:43 4:4 5:8
2:0 1:7 3:13 4:1 5:5 2:3 1:3 3:43 4:4 5:8 4:1
1:0 3:13 4:1 5:5 2:3 1:3 3:43 4:4 5:8 4:1 1:3
3:0 4:1 5:5 2:3 1:3 3:43 4:4 5:8 4:1 1:3 2:1
4:0 5:5 2:3 1:3 3:43 4:4 5:8 4:1 1:3 2:1 1:3
5:0 2:3 1:3 3:43 4:4 5:8 4:1 1:3 2:1 1:3 2:3
2:0 1:3 3:43 4:4 5:8 4:1 1:3 2:1 1:3 2:3 1:4
1:0 3:43 4:4 5:8 4:1 1:3 2:1 1:3 2:3 1:4 3:31
3:0 4:4 5:8 4:1 1:3 2:1 1:3 2:3 1:4 3:31 4:7
4:0 5:8 4:1 1:3 2:1 1:3 2:3 1:4 3:31 4:7 5:5
5:0 4:1 1:3 2:1 1:3 2:3 1:4 3:31 4:7 5:5 2:4
4:0 1:3 2:1 1:3 2:3 1:4 3:31 4:7 5:5 2:4 1:2
1:0 2:1 1:3 2:3 1:4 3:31 4:7 5:5 2:4 1:2 3:36
2:0 1:3 2:3 1:4 3:31 4:7 5:5 2:4 1:2 3:36 4:3
1:0 2:3 1:4 3:31 4:7 5:5 2:4 1:2 3:36 4:3 5:3
2:0 1:4 3:31 4:7 5:5 2:4 1:2 3:36 4:3 5:3 2:5
1:0 3:31 4:7 5:5 2:4 1:2 3:36 4:3 5:3 2:5 1:2
3:0 4:7 5:5 2:4 1:2 3:36 4:3 5:3 2:5 1:2 3:33
4:0 5:5 2:4 1:2 3:36 4:3 5:3 2:5 1:2 3:33 4:5
5:0 2:4 1:2 3:36 4:3 5:3 2:5 1:2 3:33 4:5 5:4
2:0 1:2 3:36 4:3 5:3 2:5 1:2 3:33 4:5 5:4 2:4
1:0 3:36 4:3 5:3 2:5 1:2 3:33 4:5 5:4 2:4 1:3
3:0 4:3 5:3 2:5 1:2 3:33 4:5 5:4 2:4 1:3 2:10
4:0 5:3 2:5 1:2 3:33 4:5 5:4 2:4 1:3 2:10 1:1
5:0 2:5 1:2 3:33 4:5 5:4 2:4 1:3 2:10 1:1 3:30
2:0 1:2 3:33 4:5 5:4 2:4 1:3 2:10 1:1 3:30 4:4
1:0 3:33 4:5 5:4 2:4 1:3 2:10 1:1 3:30 4:4 5:9
3:0 4:5 5:4 2:4 1:3 2:10 1:1 3:30 4:4 5:9 2:3
4:0 5:4 2:4 1:3 2:10 1:1 3:30 4:4 5:9 2:3 1:4
5:0 2:4 1:3 2:10 1:1 3:30 4:4 5:9 2:3 1:4 2:4
2:0 1:3 2:10 1:1 3:30 4:4 5:9 2:3 1:4 2:4 1:4
1:0 2:10 1:1 3:30 4:4 5:9 2:3 1:4 2:4 1:4 3:11
2:0 1:1 3:30 4:4 5:9 2:3 1:4 2:4 1:4 3:11 4:4
1:0 3:30 4:4 5:9 2:3 1:4 2:4 1:4 3:11 4:4 5:3
3:0 4:4 5:9 2:3 1:4 2:4 1:4 3:11 4:4 5:3 2:4
4:0 5:9 2:3 1:4 2:4 1:4 3:11 4:4 5:3 2:4 1:4
5:0 2:3 1:4 2:4 1:4 3:11 4:4 5:3 2:4 1:4 2:7
2:0 1:4 2:4 1:4 3:11 4:4 5:3 2:4 1:4 2:7 1:1
1:0 2:4 1:4 3:11 4:4 5:3 2:4 1:4 2:7 1:1 3:36
2:0 1:4 3:11 4:4 5:3 2:4 1:4 2:7 1:1 3:36 4:4
1:0 3:11 4:4 5:3 2:4 1:4 2:7 1:1 3:36 4:4 5:7
3:0 4:4 5:3 2:4 1:4 2:7 1:1 3:36 4:4 5:7 2:4
4:0 5:3 2:4 1:4 2:7 1:1 3:36 4:4 5:7 2:4 1:3
5:0 2:4 1:4 2:7 1:1 3:36 4:4 5:7 2:4 1:3 2:5
2:0 1:4 2:7 1:1 3:36 4:4 5:7 2:4 1:3 2:5 1:5
1:0 2:7 1:1 3:36 4:4 5:7 2:4 1:3 2:5 1:5 4:12
2:0 1:1 3:36 4:4 5:7 2:4 1:3 2:5 1:5 4:12 5:6
1:0 3:36 4:4 5:7 2:4 1:3 2:5 1:5 4:12 5:6 2:3
3:0 4:4 5:7 2:4 1:3 2:5 1:5 4:12 5:6 2:3 1:3
4:0 5:7 2:4 1:3 2:5 1:5 4:12 5:6 2:3 1:3 3:37
5:0 2:4 1:3 2:5 1:5 4:12 5:6 2:3 1:3 3:37 4:3
2:0 1:3 2:5 1:5 4:12 5:6 2:3 1:3 3:37 4:3 5:3
1:0 2:5 1:5 4:12 5:6 2:3 1:3 3:37 4:3 5:3 4:5
2:0 1:5 4:12 5:6 2:3 1:3 3:37 4:3 5:3 4:5 1:1
1:0 4:12 5:6 2:3 1:3 3:37 4:3 5:3 4:5 1:1 3:33
4:0 5:6 2:3 1:3 3:37 4:3 5:3 4:5 1:1 3:33 4:4
5:0 2:3 1:3 3:37 4:3 5:3 4:5 1:1 3:33 4:4 5:6
2:0 1:3 3:37 4:3 5:3 4:5 1:1 3:33 4:4 5:6 1:3
1:0 3:37 4:3 5:3 4:5 1:1 3:33 4:4 5:6 1:3 2:1
3:0 4:3 5:3 4:5 1:1 3:33 4:4 5:6 1:3 2:1 1:1
4:0 5:3 4:5 1:1 3:33 4:4 5:6 1:3 2:1 1:1 2:12
5:0 4:5 1:1 3:33 4:4 5:6 1:3 2:1 1:1 2:12 1:1
4:0 1:1 3:33 4:4 5:6 1:3 2:1 1:1 2:12 1:1 3:29
1:0 3:33 4:4 5:6 1:3 2:1 1:1 2:12 1:1 3:29 4:1
3:0 4:4 5:6 1:3 2:1 1:1 2:12 1:1 3:29 4:1 3:2
4:0 5:6 1:3 2:1 1:1 2:12 1:1 3:29 4:1 3:2 4:1
5:0 1:3 2:1 1:1 2:12 1:1 3:29 4:1 3:2 4:1 5:8
1:0 2:1 1:1 2:12 1:1 3:29 4:1 3:2 4:1 5:8 1:3
2:0 1:1 2:12 1:1 3:29 4:1 3:2 4:1 5:8 1:3 2:2
1:0 2:12 1:1 3:29 4:1 3:2 4:1 5:8 1:3 2:2 1:1
2:0 1:1 3:29 4:1 3:2 4:1 5:8 1:3 2:2 1:1 2:4
1:0 3:29 4:1 3:2 4:1 5:8 1:3 2:2 1:1 2:4 1:5
3:0 4:1 3:2 4:1 5:8 1:3 2:2 1:1 2:4 1:5 3:13
4:0 3:2 4:1 5:8 1:3 2:2 1:1 2:4 1:5 3:13 4:1
3:0 4:1 5:8 1:3 2:2 1:1 2:4 1:5 3:13 4:1 5:6
4:0 5:8 1:3 2:2 1:1 2:4 1:5 3:13 4:1 5:6 2:3
5:0 1:3 2:2 1:1 2:4 1:5 3:13 4:1 5:6 2:3 1:3
1:0 2:2 1:1 2:4 1:5 3:13 4:1 5:6 2:3 1:3 3:31
2:0 1:1 2:4 1:5 3:13 4:1 5:6 2:3 1:3 3:31 4:6
1:0 2:4 1:5 3:13 4:1 5:6 2:3 1:3 3:31 4:6 5:1
2:0 1:5 3:13 4:1 5:6 2:3 1:3 3:31 4:6 5:1 2:6
1:0 3:13 4:1 5:6 2:3 1:3 3:31 4:6 5:1 2:6 1:4
3:0 4:1 5:6 2:3 1:3 3:31 4:6 5:1 2:6 1:4 2:11
4:0 5:6 2:3 1:3 3:31 4:6 5:1 2:6 1:4 2:11 1:1
5:0 2:3 1:3 3:31 4:6 5:1 2:6 1:4 2:11 1:1 3:28
2:0 1:3 3:31 4:6 5:1 2:6 1:4 2:11 1:1 3:28 4:4
1:0 3:31 4:6 5:1 2:6 1:4 2:11 1:1 3:28 4:4 3:1
3:0 4:6 5:1 2:6 1:4 2:11 1:1 3:28 4:4 3:1 4:1
4:0 5:1 2:6 1:4 2:11 1:1 3:28 4:4 3:1 4:1 5:8
5:0 2:6 1:4 2:11 1:1 3:28 4:4 3:1 4:1 5:8 2:3
2:0 1:4 2:11 1:1 3:28 4:4 3:1 4:1 5:8 2:3 1:3
1:0 2:11 1:1 3:28 4:4 3:1 4:1 5:8 2:3 1:3 2:5
2:0 1:1 3:28 4:4 3:1 4:1 5:8 2:3 1:3 2:5 1:6
1:0 3:28 4:4 3:1 4:1 5:8 2:3 1:3 2:5 1:6 4:14
3:0 4:4 3:1 4:1 5:8 2:3 1:3 2:5 1:6 4:14 5:4
4:0 3:1 4:1 5:8 2:3 1:3 2:5 1:6 4:14 5:4 2:5
3:0 4:1 5:8 2:3 1:3 2:5 1:6 4:14 5:4 2:5 1:2
4:0 5:8 2:3 1:3 2:5 1:6 4:14 5:4 2:5 1:2 4:18
5:0 2:3 1:3 2:5 1:6 4:14 5:4 2:5 1:2 4:18 5:1
2:0 1:3 2:5 1:6 4:14 5:4 2:5 1:2 4:18 5:1 4:1
1:0 2:5 1:6 4:14 5:4 2:5 1:2 4:18 5:1 4:1 5:1
2:0 1:6 4:14 5:4 2:5 1:2 4:18 5:1 4:1 5:1 4:2
1:0 4:14 5:4 2:5 1:2 4:18 5:1 4:1 5:1 4:2 2:7
4:0 5:4 2:5 1:2 4:18 5:1 4:1 5:1 4:2 2:7 1:1
5:0 2:5 1:2 4:18 5:1 4:1 5:1 4:2 2:7 1:1 2:1
2:0 1:2 4:18 5:1 4:1 5:1 4:2 2:7 1:1 2:1 1:4
1:0 4:18 5:1 4:1 5:1 4:2 2:7 1:1 2:1 1:4 2:5
4:0 5:1 4:1 5:1 4:2 2:7 1:1 2:1 1:4 2:5 1:1
5:0 4:1 5:1 4:2 2:7 1:1 2:1 1:4 2:5 1:1 2:1
4:0 5:1 4:2 2:7 1:1 2:1 1:4 2:5 1:1 2:1 1:4
5:0 4:2 2:7 1:1 2:1 1:4 2:5 1:1 2:1 1:4 3:11
4:0 2:7 1:1 2:1 1:4 2:5 1:1 2:1 1:4 3:11 4:3
2:0 1:1 2:1 1:4 2:5 1:1 2:1 1:4 3:11 4:3 5:1
1:0 2:1 1:4 2:5 1:1 2:1 1:4 3:11 4:3 5:1 2:6
2:0 1:4 2:5 1:1 2:1 1:4 3:11 4:3 5:1 2:6 1:3
1:0 2:5 1:1 2:1 1:4 3:11 4:3 5:1 2:6 1:3 2:11
2:0 1:1 2:1 1:4 3:11 4:3 5:1 2:6 1:3 2:11 1:1
1:0 2:1 1:4 3:11 4:3 5:1 2:6 1:3 2:11 1:1 3:31
2:0 1:4 3:11 4:3 5:1 2:6 1:3 2:11 1:1 3:31 4:4
1:0 3:11 4:3 5:1 2:6 1:3 2:11 1:1 3:31 4:4 5:10
3:0 4:3 5:1 2:6 1:3 2:11 1:1 3:31 4:4 5:10 2:2
4:0 5:1 2:6 1:3 2:11 1:1 3:31 4:4 5:10 2:2 1:5
5:0 2:6 1:3 2:11 1:1 3:31 4:4 5:10 2:2 1:5 2:3
2:0 1:3 2:11 1:1 3:31 4:4 5:10 2:2 1:5 2:3 1:5
1:0 2:11 1:1 3:31 4:4 5:10 2:2 1:5 2:3 1:5 3:31
2:0 1:1 3:31 4:4 5:10 2:2 1:5 2:3 1:5 3:31 4:6
1:0 3:31 4:4 5:10 2:2 1:5 2:3 1:5 3:31 4:6 5:6
3:0 4:4 5:10 2:2 1:5 2:3 1:5 3:31 4:6 5:6 2:3
4:0 5:10 2:2 1:5 2:3 1:5 3:31 4:6 5:6 2:3 1:3
5:0 2:2 1:5 2:3 1:5 3:31 4:6 5:6 2:3 1:3 3:30
2:0 1:5 2:3 1:5 3:31 4:6 5:6 2:3 1:3 3:30 5:7
1:0 2:3 1:5 3:31 4:6 5:6 2:3 1:3 3:30 5:7 2:7
2:0 1:5 3:31 4:6 5:6 2:3 1:3 3:30 5:7 2:7 1:4
1:0 3:31 4:6 5:6 2:3 1:3 3:30 5:7 2:7 1:4 3:39
3:0 4:6 5:6 2:3 1:3 3:30 5:7 2:7 1:4 3:39 4:4
4:0 5:6 2:3 1:3 3:30 5:7 2:7 1:4 3:39 4:4 3:1
5:0 2:3 1:3 3:30 5:7 2:7 1:4 3:39 4:4 3:1 5:1
2:0 1:3 3:30 5:7 2:7 1:4 3:39 4:4 3:1 5:1 4:3
1:0 3:30 5:7 2:7 1:4 3:39 4:4 3:1 5:1 4:3 5:6
3:0 5:7 2:7 1:4 3:39 4:4 3:1 5:1 4:3 5:6 2:2
5:0 2:7 1:4 3:39 4:4 3:1 5:1 4:3 5:6 2:2 1:3
2:0 1:4 3:39 4:4 3:1 5:1 4:3 5:6 2:2 1:3 2:1
1:0 3:39 4:4 3:1 5:1 4:3 5:6 2:2 1:3 2:1 1:1
3:0 4:4 3:1 5:1 4:3 5:6 2:2 1:3 2:1 1:1 2:3
4:0 3:1 5:1 4:3 5:6 2:2 1:3 2:1 1:1 2:3 1:1
3:0 5:1 4:3 5:6 2:2 1:3 2:1 1:1 2:3 1:1 2:1
5:0 4:3 5:6 2:2 1:3 2:1 1:1 2:3 1:1 2:1 1:5
4:0 5:6 2:2 1:3 2:1 1:1 2:3 1:1 2:1 1:5 3:31
5:0 2:2 1:3 2:1 1:1 2:3 1:1 2:1 1:5 3:31 4:7
2:0 1:3 2:1 1:1 2:3 1:1 2:1 1:5 3:31 4:7 5:6
1:0 2:1 1:1 2:3 1:1 2:1 1:5 3:31 4:7 5:6 2:3
2:0 1:1 2:3 1:1 2:1 1:5 3:31 4:7 5:6 2:3 1:3
1:0 2:3 1:1 2:1 1:5 3:31 4:7 5:6 2:3 1:3 3:27
2:0 1:1 2:1 1:5 3:31 4:7 5:6 2:3 1:3 3:27 4:2
1:0 2:1 1:5 3:31 4:7 5:6 2:3 1:3 3:27 4:2 5:5
2:0 1:5 3:31 4:7 5:6 2:3 1:3 3:27 4:2 5:5 4:2
1:0 3:31 4:7 5:6 2:3 1:3 3:27 4:2 5:5 4:2 5:1
3:0 4:7 5:6 2:3 1:3 3:27 4:2 5:5 4:2 5:1 2:2
4:0 5:6 2:3 1:3 3:27 4:2 5:5 4:2 5:1 2:2 1:8
5:0 2:3 1:3 3:27 4:2 5:5 4:2 5:1 2:2 1:8 3:34
2:0 1:3 3:27 4:2 5:5 4:2 5:1 2:2 1:8 3:34 4:3
1:0 3:27 4:2 5:5 4:2 5:1 2:2 1:8 3:34 4:3 5:5
3:0 4:2 5:5 4:2 5:1 2:2 1:8 3:34 4:3 5:5 2:3
4:0 5:5 4:2 5:1 2:2 1:8 3:34 4:3 5:5 2:3 1:2
5:0 4:2 5:1 2:2 1:8 3:34 4:3 5:5 2:3 1:2 2:1
4:0 5:1 2:2 1:8 3:34 4:3 5:5 2:3 1:2 2:1 1:1
5:0 2:2 1:8 3:34 4:3 5:5 2:3 1:2 2:1 1:1 2:8
2:0 1:8 3:34 4:3 5:5 2:3 1:2 2:1 1:1 2:8 1:1
1:0 3:34 4:3 5:5 2:3 1:2 2:1 1:1 2:8 1:1 2:2
3:0 4:3 5:5 2:3 1:2 2:1 1:1 2:8 1:1 2:2 1:1
4:0 5:5 2:3 1:2 2:1 1:1 2:8 1:1 2:2 1:1 3:29
5:0 2:3 1:2 2:1 1:1 2:8 1:1 2:2 1:1 3:29 4:5
2:0 1:2 2:1 1:1 2:8 1:1 2:2 1:1 3:29 4:5 5:10
1:0 2:1 1:1 2:8 1:1 2:2 1:1 3:29 4:5 5:10 2:2
2:0 1:1 2:8 1:1 2:2 1:1 3:29 4:5 5:10 2:2 1:4
1:0 2:8 1:1 2:2 1:1 3:29 4:5 5:10 2:2 1:4 2:1
2:0 1:1 2:2 1:1 3:29 4:5 5:10 2:2 1:4 2:1 1:7
1:0 2:2 1:1 3:29 4:5 5:10 2:2 1:4 2:1 1:7 4:14
2:0 1:1 3:29 4:5 5:10 2:2 1:4 2:1 1:7 4:14 5:4
1:0 3:29 4:5 5:10 2:2 1:4 2:1 1:7 4:14 5:4 2:5
3:0 4:5 5:10 2:2 1:4 2:1 1:7 4:14 5:4 2:5 1:1
4:0 5:10 2:2 1:4 2:1 1:7 4:14 5:4 2:5 1:1 3:34
5:0 2:2 1:4 2:1 1:7 4:14 5:4 2:5 1:1 3:34 4:4
2:0 1:4 2:1 1:7 4:14 5:4 2:5 1:1 3:34 4:4 5:3
1:0 2:1 1:7 4:14 5:4 2:5 1:1 3:34 4:4 5:3 2:5
2:0 1:7 4:14 5:4 2:5 1:1 3:34 4:4 5:3 2:5 1:3
1:0 4:14 5:4 2:5 1:1 3:34 4:4 5:3 2:5 1:3 3:41
4:0 5:4 2:5 1:1 3:34 4:4 5:3 2:5 1:3 3:41 4:3
5:0 2:5 1:1 3:34 4:4 5:3 2:5 1:3 3:41 4:3 3:1
2:0 1:1 3:34 4:4 5:3 2:5 1:3 3:41 4:3 3:1 4:2
1:0 3:34 4:4 5:3 2:5 1:3 3:41 4:3 3:1 4:2 5:7
3:0 4:4 5:3 2:5 1:3 3:41 4:3 3:1 4:2 5:7 2:4
4:0 5:3 2:5 1:3 3:41 4:3 3:1 4:2 5:7 2:4 1:4
5:0 2:5 1:3 3:41 4:3 3:1 4:2 5:7 2:4 1:4 2:3
2:0 1:3 3:41 4:3 3:1 4:2 5:7 2:4 1:4 2:3 1:7
1:0 3:41 4:3 3:1 4:2 5:7 2:4 1:4 2:3 1:7 3:30
3:0 4:3 3:1 4:2 5:7 2:4 1:4 2:3 1:7 3:30 4:7
4:0 3:1 4:2 5:7 2:4 1:4 2:3 1:7 3:30 4:7 5:6
3:0 4:2 5:7 2:4 1:4 2:3 1:7 3:30 4:7 5:6 2:2
4:0 5:7 2:4 1:4 2:3 1:7 3:30 4:7 5:6 2:2 1:2
5:0 2:4 1:4 2:3 1:7 3:30 4:7 5:6 2:2 1:2 3:35
2:0 1:4 2:3 1:7 3:30 4:7 5:6 2:2 1:2 3:35 4:4
1:0 2:3 1:7 3:30 4:7 5:6 2:2 1:2 3:35 4:4 5:4
2:0 1:7 3:30 4:7 5:6 2:2 1:2 3:35 4:4 5:4 2:4
1:0 3:30 4:7 5:6 2:2 1:2 3:35 4:4 5:4 2:4 1:2
3:0 4:7 5:6 2:2 1:2 3:35 4:4 5:4 2:4 1:2 3:41
4:0 5:6 2:2 1:2 3:35 4:4 5:4 2:4 1:2 3:41 4:2
5:0 2:2 1:2 3:35 4:4 5:4 2:4 1:2 3:41 4:2 3:1
2:0 1:2 3:35 4:4 5:4 2:4 1:2 3:41 4:2 3:1 4:2
1:0 3:35 4:4 5:4 2:4 1:2 3:41 4:2 3:1 4:2 3:1
3:0 4:4 5:4 2:4 1:2 3:41 4:2 3:1 4:2 3:1 4:1
4:0 5:4 2:4 1:2 3:41 4:2 3:1 4:2 3:1 4:1 5:7
5:0 2:4 1:2 3:41 4:2 3:1 4:2 3:1 4:1 5:7 4:1
2:0 1:2 3:41 4:2 3:1 4:2 3:1 4:1 5:7 4:1 5:1
1:0 3:41 4:2 3:1 4:2 3:1 4:1 5:7 4:1 5:1 2:2
3:0 4:2 3:1 4:2 3:1 4:1 5:7 4:1 5:1 2:2 1:13
4:0 3:1 4:2 3:1 4:1 5:7 4:1 5:1 2:2 1:13 4:12
3:0 4:2 3:1 4:1 5:7 4:1 5:1 2:2 1:13 4:12 5:4
4:0 3:1 4:1 5:7 4:1 5:1 2:2 1:13 4:12 5:4 4:1
3:0 4:1 5:7 4:1 5:1 2:2 1:13 4:12 5:4 4:1 5:2
4:0 5:7 4:1 5:1 2:2 1:13 4:12 5:4 4:1 5:2 2:2
5:0 4:1 5:1 2:2 1:13 4:12 5:4 4:1 5:2 2:2 1:3
4:0 5:1 2:2 1:13 4:12 5:4 4:1 5:2 2:2 1:3 3:29
5:0 2:2 1:13 4:12 5:4 4:1 5:2 2:2 1:3 3:29 4:1
2:0 1:13 4:12 5:4 4:1 5:2 2:2 1:3 3:29 4:1 5:4
1:0 4:12 5:4 4:1 5:2 2:2 1:3 3:29 4:1 5:4 4:4
4:0 5:4 4:1 5:2 2:2 1:3 3:29 4:1 5:4 4:4 5:1
5:0 4:1 5:2 2:2 1:3 3:29 4:1 5:4 4:4 5:1 2:1
4:0 5:2 2:2 1:3 3:29 4:1 5:4 4:4 5:1 2:1 1:8
5:0 2:2 1:3 3:29 4:1 5:4 4:4 5:1 2:1 1:8 3:30
2:0 1:3 3:29 4:1 5:4 4:4 5:1 2:1 1:8 3:30 4:7
1:0 3:29 4:1 5:4 4:4 5:1 2:1 1:8 3:30 4:7 5:4
3:0 4:1 5:4 4:4 5:1 2:1 1:8 3:30 4:7 5:4 2:4
4:0 5:4 4:4 5:1 2:1 1:8 3:30 4:7 5:4 2:4 1:3
5:0 4:4 5:1 2:1 1:8 3:30 4:7 5:4 2:4 1:3 3:31
4:0 5:1 2:1 1:8 3:30 4:7 5:4 2:4 1:3 3:31 4:5
5:0 2:1 1:8 3:30 4:7 5:4 2:4 1:3 3:31 4:5 5:6
2:0 1:8 3:30 4:7 5:4 2:4 1:3 3:31 4:5 5:6 2:2
1:0 3:30 4:7 5:4 2:4 1:3 3:31 4:5 5:6 2:2 1:4
3:0 4:7 5:4 2:4 1:3 3:31 4:5 5:6 2:2 1:4 3:32
4:0 5:4 2:4 1:3 3:31 4:5 5:6 2:2 1:4 3:32 4:5
5:0 2:4 1:3 3:31 4:5 5:6 2:2 1:4 3:32 4:5 5:5
2:0 1:3 3:31 4:5 5:6 2:2 1:4 3:32 4:5 5:5 2:4
1:0 3:31 4:5 5:6 2:2 1:4 3:32 4:5 5:5 2:4 1:1
3:0 4:5 5:6 2:2 1:4 3:32 4:5 5:5 2:4 1:1 2:19
4:0 5:6 2:2 1:4 3:32 4:5 5:5 2:4 1:1 2:19 1:1
5:0 2:2 1:4 3:32 4:5 5:5 2:4 1:1 2:19 1:1 3:14
2:0 1:4 3:32 4:5 5:5 2:4 1:1 2:19 1:1 3:14 4:4
1:0 3:32 4:5 5:5 2:4 1:1 2:19 1:1 3:14 4:4 5:8
3:0 4:5 5:5 2:4 1:1 2:19 1:1 3:14 4:4 5:8 2:1
4:0 5:5 2:4 1:1 2:19 1:1 3:14 4:4 5:8 2:1 1:1
5:0 2:4 1:1 2:19 1:1 3:14 4:4 5:8 2:1 1:1 3:41
2:0 1:1 2:19 1:1 3:14 4:4 5:8 2:1 1:1 3:41 4:4
1:0 2:19 1:1 3:14 4:4 5:8 2:1 1:1 3:41 4:4 3:1
2:0 1:1 3:14 4:4 5:8 2:1 1:1 3:41 4:4 3:1 4:1
1:0 3:14 4:4 5:8 2:1 1:1 3:41 4:4 3:1 4:1 5:8
3:0 4:4 5:8 2:1 1:1 3:41 4:4 3:1 4:1 5:8 1:2
4:0 5:8 2:1 1:1 3:41 4:4 3:1 4:1 5:8 1:2 2:1
5:0 2:1 1:1 3:41 4:4 3:1 4:1 5:8 1:2 2:1 1:2
2:0 1:1 3:41 4:4 3:1 4:1 5:8 1:2 2:1 1:2 2:1
1:0 3:41 4:4 3:1 4:1 5:8 1:2 2:1 1:2 2:1 1:3
3:0 4:4 3:1 4:1 5:8 1:2 2:1 1:2 2:1 1:3 2:2
4:0 3:1 4:1 5:8 1:2 2:1 1:2 2:1 1:3 2:2 1:6
3:0 4:1 5:8 1:2 2:1 1:2 2:1 1:3 2:2 1:6 3:12
4:0 5:8 1:2 2:1 1:2 2:1 1:3 2:2 1:6 3:12 4:1
5:0 1:2 2:1 1:2 2:1 1:3 2:2 1:6 3:12 4:1 5:6
1:0 2:1 1:2 2:1 1:3 2:2 1:6 3:12 4:1 5:6 2:3
2:0 1:2 2:1 1:3 2:2 1:6 3:12 4:1 5:6 2:3 1:2
1:0 2:1 1:3 2:2 1:6 3:12 4:1 5:6 2:3 1:2 3:31
2:0 1:3 2:2 1:6 3:12 4:1 5:6 2:3 1:2 3:31 4:7
1:0 2:2 1:6 3:12 4:1 5:6 2:3 1:2 3:31 4:7 5:2
2:0 1:6 3:12 4:1 5:6 2:3 1:2 3:31 4:7 5:2 2:5
1:0 3:12 4:1 5:6 2:3 1:2 3:31 4:7 5:2 2:5 1:5
3:0 4:1 5:6 2:3 1:2 3:31 4:7 5:2 2:5 1:5 3:41
4:0 5:6 2:3 1:2 3:31 4:7 5:2 2:5 1:5 3:41 4:2
5:0 2:3 1:2 3:31 4:7 5:2 2:5 1:5 3:41 4:2 3:1
2:0 1:2 3:31 4:7 5:2 2:5 1:5 3:41 4:2 3:1 4:2
1:0 3:31 4:7 5:2 2:5 1:5 3:41 4:2 3:1 4:2 5:9
3:0 4:7 5:2 2:5 1:5 3:41 4:2 3:1 4:2 5:9 2:2
4:0 5:2 2:5 1:5 3:41 4:2 3:1 4:2 5:9 2:2 1:1
5:0 2:5 1:5 3:41 4:2 3:1 4:2 5:9 2:2 1:1 2:1
2:0 1:5 3:41 4:2 3:1 4:2 5:9 2:2 1:1 2:1 1:4
1:0 3:41 4:2 3:1 4:2 5:9 2:2 1:1 2:1 1:4 2:2
3:0 4:2 3:1 4:2 5:9 2:2 1:1 2:1 1:4 2:2 1:5
4:0 3:1 4:2 5:9 2:2 1:1 2:1 1:4 2:2 1:5 3:31
3:0 4:2 5:9 2:2 1:1 2:1 1:4 2:2 1:5 3:31 4:7
4:0 5:9 2:2 1:1 2:1 1:4 2:2 1:5 3:31 4:7 5:5
5:0 2:2 1:1 2:1 1:4 2:2 1:5 3:31 4:7 5:5 4:1
2:0 1:1 2:1 1:4 2:2 1:5 3:31 4:7 5:5 4:1 5:1
1:0 2:1 1:4 2:2 1:5 3:31 4:7 5:5 4:1 5:1 2:2
2:0 1:4 2:2 1:5 3:31 4:7 5:5 4:1 5:1 2:2 1:3
1:0 2:2 1:5 3:31 4:7 5:5 4:1 5:1 2:2 1:3 3:29
2:0 1:5 3:31 4:7 5:5 4:1 5:1 2:2 1:3 3:29 4:7
1:0 3:31 4:7 5:5 4:1 5:1 2:2 1:3 3:29 4:7 5:2
3:0 4:7 5:5 4:1 5:1 2:2 1:3 3:29 4:7 5:2 3:5
4:0 5:5 4:1 5:1 2:2 1:3 3:29 4:7 5:2 3:5 2:1
5:0 4:1 5:1 2:2 1:3 3:29 4:7 5:2 3:5 2:1 1:4
4:0 5:1 2:2 1:3 3:29 4:7 5:2 3:5 2:1 1:4 2:9
5:0 2:2 1:3 3:29 4:7 5:2 3:5 2:1 1:4 2:9 1:1
2:0 1:3 3:29 4:7 5:2 3:5 2:1 1:4 2:9 1:1 3:32
1:0 3:29 4:7 5:2 3:5 2:1 1:4 2:9 1:1 3:32 4:5
3:0 4:7 5:2 3:5 2:1 1:4 2:9 1:1 3:32 4:5 5:7
4:0 5:2 3:5 2:1 1:4 2:9 1:1 3:32 4:5 5:7 3:4
5:0 3:5 2:1 1:4 2:9 1:1 3:32 4:5 5:7 3:4 2:1
3:0 2:1 1:4 2:9 1:1 3:32 4:5 5:7 3:4 2:1 1:3
2:0 1:4 2:9 1:1 3:32 4:5 5:7 3:4 2:1 1:3 2:2
1:0 2:9 1:1 3:32 4:5 5:7 3:4 2:1 1:3 2:2 1:7
2:0 1:1 3:32 4:5 5:7 3:4 2:1 1:3 2:2 1:7 3:31
1:0 3:32 4:5 5:7 3:4 2:1 1:3 2:2 1:7 3:31 4:5
3:0 4:5 5:7 3:4 2:1 1:3 2:2 1:7 3:31 4:5 5:7
4:0 5:7 3:4 2:1 1:3 2:2 1:7 3:31 4:5 5:7 2:3
5:0 3:4 2:1 1:3 2:2 1:7 3:31 4:5 5:7 2:3 1:1
3:0 2:1 1:3 2:2 1:7 3:31 4:5 5:7 2:3 1:1 2:1
2:0 1:3 2:2 1:7 3:31 4:5 5:7 2:3 1:1 2:1 1:1
1:0 2:2 1:7 3:31 4:5 5:7 2:3 1:1 2:1 1:1 3:29
2:0 1:7 3:31 4:5 5:7 2:3 1:1 2:1 1:1 3:29 4:7
1:0 3:31 4:5 5:7 2:3 1:1 2:1 1:1 3:29 4:7 5:2
3:0 4:5 5:7 2:3 1:1 2:1 1:1 3:29 4:7 5:2 2:5
4:0 5:7 2:3 1:1 2:1 1:1 3:29 4:7 5:2 2:5 1:4
5:0 2:3 1:1 2:1 1:1 3:29 4:7 5:2 2:5 1:4 3:36
2:0 1:1 2:1 1:1 3:29 4:7 5:2 2:5 1:4 3:36 4:6
1:0 2:1 1:1 3:29 4:7 5:2 2:5 1:4 3:36 4:6 5:2
2:0 1:1 3:29 4:7 5:2 2:5 1:4 3:36 4:6 5:2 4:1
1:0 3:29 4:7 5:2 2:5 1:4 3:36 4:6 5:2 4:1 5:1
3:0 4:7 5:2 2:5 1:4 3:36 4:6 5:2 4:1 5:1 1:3
4:0 5:2 2:5 1:4 3:36 4:6 5:2 4:1 5:1 1:3 3:42
5:0 2:5 1:4 3:36 4:6 5:2 4:1 5:1 1:3 3:42 4:5
2:0 1:4 3:36 4:6 5:2 4:1 5:1 1:3 3:42 4:5 5:10
1:0 3:36 4:6 5:2 4:1 5:1 1:3 3:42 4:5 5:10 2:1
3:0 4:6 5:2 4:1 5:1 1:3 3:42 4:5 5:10 2:1 1:3
4:0 5:2 4:1 5:1 1:3 3:42 4:5 5:10 2:1 1:3 2:4
5:0 4:1 5:1 1:3 3:42 4:5 5:10 2:1 1:3 2:4 1:4
4:0 5:1 1:3 3:42 4:5 5:10 2:1 1:3 2:4 1:4 4:15
5:0 1:3 3:42 4:5 5:10 2:1 1:3 2:4 1:4 4:15 5:5
1:0 3:42 4:5 5:10 2:1 1:3 2:4 1:4 4:15 5:5 2:4
3:0 4:5 5:10 2:1 1:3 2:4 1:4 4:15 5:5 2:4 1:1
4:0 5:10 2:1 1:3 2:4 1:4 4:15 5:5 2:4 1:1 3:35
5:0 2:1 1:3 2:4 1:4 4:15 5:5 2:4 1:1 3:35 4:4
2:0 1:3 2:4 1:4 4:15 5:5 2:4 1:1 3:35 4:4 5:5
1:0 2:4 1:4 4:15 5:5 2:4 1:1 3:35 4:4 5:5 2:2
2:0 1:4 4:15 5:5 2:4 1:1 3:35 4:4 5:5 2:2 1:2
1:0 4:15 5:5 2:4 1:1 3:35 4:4 5:5 2:2 1:2 2:1
4:0 5:5 2:4 1:1 3:35 4:4 5:5 2:2 1:2 2:1 1:1
5:0 2:4 1:1 3:35 4:4 5:5 2:2 1:2 2:1 1:1 3:33
2:0 1:1 3:35 4:4 5:5 2:2 1:2 2:1 1:1 3:33 4:4
1:0 3:35 4:4 5:5 2:2 1:2 2:1 1:1 3:33 4:4 5:3
3:0 4:4 5:5 2:2 1:2 2:1 1:1 3:33 4:4 5:3 4:4
4:0 5:5 2:2 1:2 2:1 1:1 3:33 4:4 5:3 4:4 5:1
5:0 2:2 1:2 2:1 1:1 3:33 4:4 5:3 4:4 5:1 1:1
2:0 1:2 2:1 1:1 3:33 4:4 5:3 4:4 5:1 1:1 3:35
1:0 2:1 1:1 3:33 4:4 5:3 4:4 5:1 1:1 3:35 4:3
2:0 1:1 3:33 4:4 5:3 4:4 5:1 1:1 3:35 4:3 5:4
1:0 3:33 4:4 5:3 4:4 5:1 1:1 3:35 4:3 5:4 2:5
3:0 4:4 5:3 4:4 5:1 1:1 3:35 4:3 5:4 2:5 1:1
4:0 5:3 4:4 5:1 1:1 3:35 4:3 5:4 2:5 1:1 3:28
5:0 4:4 5:1 1:1 3:35 4:3 5:4 2:5 1:1 3:28 4:4
4:0 5:1 1:1 3:35 4:3 5:4 2:5 1:1 3:28 4:4 5:4
5:0 1:1 3:35 4:3 5:4 2:5 1:1 3:28 4:4 5:4 2:5
1:0 3:35 4:3 5:4 2:5 1:1 3:28 4:4 5:4 2:5 1:8
3:0 4:3 5:4 2:5 1:1 3:28 4:4 5:4 2:5 1:8 3:31
4:0 5:4 2:5 1:1 3:28 4:4 5:4 2:5 1:8 3:31 4:6
5:0 2:5 1:1 3:28 4:4 5:4 2:5 1:8 3:31 4:6 5:5
2:0 1:1 3:28 4:4 5:4 2:5 1:8 3:31 4:6 5:5 2:3
1:0 3:28 4:4 5:4 2:5 1:8 3:31 4:6 5:5 2:3 1:3
3:0 4:4 5:4 2:5 1:8 3:31 4:6 5:5 2:3 1:3 3:44
4:0 5:4 2:5 1:8 3:31 4:6 5:5 2:3 1:3 3:44 4:4
5:0 2:5 1:8 3:31 4:6 5:5 2:3 1:3 3:44 4:4 3:2
2:0 1:8 3:31 4:6 5:5 2:3 1:3 3:44 4:4 3:2 4:2
1:0 3:31 4:6 5:5 2:3 1:3 3:44 4:4 3:2 4:2 5:4
3:0 4:6 5:5 2:3 1:3 3:44 4:4 3:2 4:2 5:4 4:2
4:0 5:5 2:3 1:3 3:44 4:4 3:2 4:2 5:4 4:2 2:3
5:0 2:3 1:3 3:44 4:4 3:2 4:2 5:4 4:2 2:3 1:2
2:0 1:3 3:44 4:4 3:2 4:2 5:4 4:2 2:3 1:2 2:2
1:0 3:44 4:4 3:2 4:2 5:4 4:2 2:3 1:2 2:2 1:5
3:0 4:4 3:2 4:2 5:4 4:2 2:3 1:2 2:2 1:5 4:14
4:0 3:2 4:2 5:4 4:2 2:3 1:2 2:2 1:5 4:14 5:7
3:0 4:2 5:4 4:2 2:3 1:2 2:2 1:5 4:14 5:7 2:3
4:0 5:4 4:2 2:3 1:2 2:2 1:5 4:14 5:7 2:3 1:2
5:0 4:2 2:3 1:2 2:2 1:5 4:14 5:7 2:3 1:2 2:23
4:0 2:3 1:2 2:2 1:5 4:14 5:7 2:3 1:2 2:23 1:1
2:0 1:2 2:2 1:5 4:14 5:7 2:3 1:2 2:23 1:1 3:10
1:0 2:2 1:5 4:14 5:7 2:3 1:2 2:23 1:1 3:10 4:3
2:0 1:5 4:14 5:7 2:3 1:2 2:23 1:1 3:10 4:3 5:5
1:0 4:14 5:7 2:3 1:2 2:23 1:1 3:10 4:3 5:5 1:4
4:0 5:7 2:3 1:2 2:23 1:1 3:10 4:3 5:5 1:4 2:1
5:0 2:3 1:2 2:23 1:1 3:10 4:3 5:5 1:4 2:1 1:1
2:0 1:2 2:23 1:1 3:10 4:3 5:5 1:4 2:1 1:1 3:43
1:0 2:23 1:1 3:10 4:3 5:5 1:4 2:1 1:1 3:43 4:5
2:0 1:1 3:10 4:3 5:5 1:4 2:1 1:1 3:43 4:5 5:6
1:0 3:10 4:3 5:5 1:4 2:1 1:1 3:43 4:5 5:6 2:4
3:0 4:3 5:5 1:4 2:1 1:1 3:43 4:5 5:6 2:4 1:2
4:0 5:5 1:4 2:1 1:1 3:43 4:5 5:6 2:4 1:2 2:1
5:0 1:4 2:1 1:1 3:43 4:5 5:6 2:4 1:2 2:1 1:1
1:0 2:1 1:1 3:43 4:5 5:6 2:4 1:2 2:1 1:1 2:3
2:0 1:1 3:43 4:5 5:6 2:4 1:2 2:1 1:1 2:3 1:1
1:0 3:43 4:5 5:6 2:4 1:2 2:1 1:1 2:3 1:1 2:1
3:0 4:5 5:6 2:4 1:2 2:1 1:1 2:3 1:1 2:1 1:4
4:0 5:6 2:4 1:2 2:1 1:1 2:3 1:1 2:1 1:4 3:12
5:0 2:4 1:2 2:1 1:1 2:3 1:1 2:1 1:4 3:12 4:1
2:0 1:2 2:1 1:1 2:3 1:1 2:1 1:4 3:12 4:1 5:1
1:0 2:1 1:1 2:3 1:1 2:1 1:4 3:12 4:1 5:1 4:1
2:0 1:1 2:3 1:1 2:1 1:4 3:12 4:1 5:1 4:1 5:4
1:0 2:3 1:1 2:1 1:4 3:12 4:1 5:1 4:1 5:4 2:3
2:0 1:1 2:1 1:4 3:12 4:1 5:1 4:1 5:4 2:3 1:3
1:0 2:1 1:4 3:12 4:1 5:1 4:1 5:4 2:3 1:3 3:28
2:0 1:4 3:12 4:1 5:1 4:1 5:4 2:3 1:3 3:28 4:1
1:0 3:12 4:1 5:1 4:1 5:4 2:3 1:3 3:28 4:1 5:9
3:0 4:1 5:1 4:1 5:4 2:3 1:3 3:28 4:1 5:9 2:2
4:0 5:1 4:1 5:4 2:3 1:3 3:28 4:1 5:9 2:2 1:7
5:0 4:1 5:4 2:3 1:3 3:28 4:1 5:9 2:2 1:7 2:1
4:0 5:4 2:3 1:3 3:28 4:1 5:9 2:2 1:7 2:1 1:1
5:0 2:3 1:3 3:28 4:1 5:9 2:2 1:7 2:1 1:1 3:30
2:0 1:3 3:28 4:1 5:9 2:2 1:7 2:1 1:1 3:30 4:6
1:0 3:28 4:1 5:9 2:2 1:7 2:1 1:1 3:30 4:6 5:5
3:0 4:1 5:9 2:2 1:7 2:1 1:1 3:30 4:6 5:5 2:4
4:0 5:9 2:2 1:7 2:1 1:1 3:30 4:6 5:5 2:4 1:1
5:0 2:2 1:7 2:1 1:1 3:30 4:6 5:5 2:4 1:1 4:29
2:0 1:7 2:1 1:1 3:30 4:6 5:5 2:4 1:1 4:29 5:8
1:0 2:1 1:1 3:30 4:6 5:5 2:4 1:1 4:29 5:8 1:3
2:0 1:1 3:30 4:6 5:5 2:4 1:1 4:29 5:8 1:3 2:1
1:0 3:30 4:6 5:5 2:4 1:1 4:29 5:8 1:3 2:1 1:7
3:0 4:6 5:5 2:4 1:1 4:29 5:8 1:3 2:1 1:7 3:31
4:0 5:5 2:4 1:1 4:29 5:8 1:3 2:1 1:7 3:31 4:6
5:0 2:4 1:1 4:29 5:8 1:3 2:1 1:7 3:31 4:6 5:5
2:0 1:1 4:29 5:8 1:3 2:1 1:7 3:31 4:6 5:5 3:3
1:0 4:29 5:8 1:3 2:1 1:7 3:31 4:6 5:5 3:3 2:1
4:0 5:8 1:3 2:1 1:7 3:31 4:6 5:5 3:3 2:1 1:2
5:0 1:3 2:1 1:7 3:31 4:6 5:5 3:3 2:1 1:2 3:35
1:0 2:1 1:7 3:31 4:6 5:5 3:3 2:1 1:2 3:35 4:3
2:0 1:7 3:31 4:6 5:5 3:3 2:1 1:2 3:35 4:3 5:6
1:0 3:31 4:6 5:5 3:3 2:1 1:2 3:35 4:3 5:6 2:3
3:0 4:6 5:5 3:3 2:1 1:2 3:35 4:3 5:6 2:3 1:1
4:0 5:5 3:3 2:1 1:2 3:35 4:3 5:6 2:3 1:1 2:1
5:0 3:3 2:1 1:2 3:35 4:3 5:6 2:3 1:1 2:1 1:1
3:0 2:1 1:2 3:35 4:3 5:6 2:3 1:1 2:1 1:1 3:31
2:0 1:2 3:35 4:3 5:6 2:3 1:1 2:1 1:1 3:31 4:5
1:0 3:35 4:3 5:6 2:3 1:1 2:1 1:1 3:31 4:5 5:5
3:0 4:3 5:6 2:3 1:1 2:1 1:1 3:31 4:5 5:5 2:3
4:0 5:6 2:3 1:1 2:1 1:1 3:31 4:5 5:5 2:3 1:3
5:0 2:3 1:1 2:1 1:1 3:31 4:5 5:5 2:3 1:3 4:31
2:0 1:1 2:1 1:1 3:31 4:5 5:5 2:3 1:3 4:31 5:10
1:0 2:1 1:1 3:31 4:5 5:5 2:3 1:3 4:31 5:10 2:1
2:0 1:1 3:31 4:5 5:5 2:3 1:3 4:31 5:10 2:1 1:5
1:0 3:31 4:5 5:5 2:3 1:3 4:31 5:10 2:1 1:5 3:30
3:0 4:5 5:5 2:3 1:3 4:31 5:10 2:1 1:5 3:30 5:8
4:0 5:5 2:3 1:3 4:31 5:10 2:1 1:5 3:30 5:8 2:7
5:0 2:3 1:3 4:31 5:10 2:1 1:5 3:30 5:8 2:7 1:4
2:0 1:3 4:31 5:10 2:1 1:5 3:30 5:8 2:7 1:4 2:9
1:0 4:31 5:10 2:1 1:5 3:30 5:8 2:7 1:4 2:9 1:1
4:0 5:10 2:1 1:5 3:30 5:8 2:7 1:4 2:9 1:1 2:1
5:0 2:1 1:5 3:30 5:8 2:7 1:4 2:9 1:1 2:1 1:1
2:0 1:5 3:30 5:8 2:7 1:4 2:9 1:1 2:1 1:1 2:1
1:0 3:30 5:8 2:7 1:4 2:9 1:1 2:1 1:1 2:1 1:1
3:0 5:8 2:7 1:4 2:9 1:1 2:1 1:1 2:1 1:1 4:16
5:0 2:7 1:4 2:9 1:1 2:1 1:1 2:1 1:1 4:16 2:11
2:0 1:4 2:9 1:1 2:1 1:1 2:1 1:1 4:16 2:11 1:6
1:0 2:9 1:1 2:1 1:1 2:1 1:1 4:16 2:11 1:6 3:32
2:0 1:1 2:1 1:1 2:1 1:1 4:16 2:11 1:6 3:32 4:5
1:0 2:1 1:1 2:1 1:1 4:16 2:11 1:6 3:32 4:5 3:1
2:0 1:1 2:1 1:1 4:16 2:11 1:6 3:32 4:5 3:1 4:1
1:0 2:1 1:1 4:16 2:11 1:6 3:32 4:5 3:1 4:1 5:3
2:0 1:1 4:16 2:11 1:6 3:32 4:5 3:1 4:1 5:3 2:4
1:0 4:16 2:11 1:6 3:32 4:5 3:1 4:1 5:3 2:4 1:4
4:0 2:11 1:6 3:32 4:5 3:1 4:1 5:3 2:4 1:4 3:39
2:0 1:6 3:32 4:5 3:1 4:1 5:3 2:4 1:4 3:39 4:4
1:0 3:32 4:5 3:1 4:1 5:3 2:4 1:4 3:39 4:4 3:1
3:0 4:5 3:1 4:1 5:3 2:4 1:4 3:39 4:4 3:1 4:1
4:0 3:1 4:1 5:3 2:4 1:4 3:39 4:4 3:1 4:1 5:11
3:0 4:1 5:3 2:4 1:4 3:39 4:4 3:1 4:1 5:11 2:2
4:0 5:3 2:4 1:4 3:39 4:4 3:1 4:1 5:11 2:2 1:13
5:0 2:4 1:4 3:39 4:4 3:1 4:1 5:11 2:2 1:13 3:32
2:0 1:4 3:39 4:4 3:1 4:1 5:11 2:2 1:13 3:32 4:5
1:0 3:39 4:4 3:1 4:1 5:11 2:2 1:13 3:32 4:5 5:4
3:0 4:4 3:1 4:1 5:11 2:2 1:13 3:32 4:5 5:4 2:4
4:0 3:1 4:1 5:11 2:2 1:13 3:32 4:5 5:4 2:4 1:2
3:0 4:1 5:11 2:2 1:13 3:32 4:5 5:4 2:4 1:2 3:34
4:0 5:11 2:2 1:13 3:32 4:5 5:4 2:4 1:2 3:34 4:4
5:0 2:2 1:13 3:32 4:5 5:4 2:4 1:2 3:34 4:4 5:5
2:0 1:13 3:32 4:5 5:4 2:4 1:2 3:34 4:4 5:5 2:3
1:0 3:32 4:5 5:4 2:4 1:2 3:34 4:4 5:5 2:3 1:2
3:0 4:5 5:4 2:4 1:2 3:34 4:4 5:5 2:3 1:2 4:29
4:0 5:4 2:4 1:2 3:34 4:4 5:5 2:3 1:2 4:29 3:1
5:0 2:4 1:2 3:34 4:4 5:5 2:3 1:2 4:29 3:1 4:1
2:0 1:2 3:34 4:4 5:5 2:3 1:2 4:29 3:1 4:1 2:11
1:0 3:34 4:4 5:5 2:3 1:2 4:29 3:1 4:1 2:11 1:6
3:0 4:4 5:5 2:3 1:2 4:29 3:1 4:1 2:11 1:6 3:13
4:0 5:5 2:3 1:2 4:29 3:1 4:1 2:11 1:6 3:13 4:1
5:0 2:3 1:2 4:29 3:1 4:1 2:11 1:6 3:13 4:1 5:2
2:0 1:2 4:29 3:1 4:1 2:11 1:6 3:13 4:1 5:2 2:5
1:0 4:29 3:1 4:1 2:11 1:6 3:13 4:1 5:2 2:5 1:4
4:0 3:1 4:1 2:11 1:6 3:13 4:1 5:2 2:5 1:4 2:7
3:0 4:1 2:11 1:6 3:13 4:1 5:2 2:5 1:4 2:7 1:1
4:0 2:11 1:6 3:13 4:1 5:2 2:5 1:4 2:7 1:1 3:29
2:0 1:6 3:13 4:1 5:2 2:5 1:4 2:7 1:1 3:29 5:5
1:0 3:13 4:1 5:2 2:5 1:4 2:7 1:1 3:29 5:5 4:1
3:0 4:1 5:2 2:5 1:4 2:7 1:1 3:29 5:5 4:1 5:1
4:0 5:2 2:5 1:4 2:7 1:1 3:29 5:5 4:1 5:1 4:4
5:0 2:5 1:4 2:7 1:1 3:29 5:5 4:1 5:1 4:4 5:5
2:0 1:4 2:7 1:1 3:29 5:5 4:1 5:1 4:4 5:5 1:1
1:0 2:7 1:1 3:29 5:5 4:1 5:1 4:4 5:5 1:1 2:1
2:0 1:1 3:29 5:5 4:1 5:1 4:4 5:5 1:1 2:1 1:7
1:0 3:29 5:5 4:1 5:1 4:4 5:5 1:1 2:1 1:7 2:3
3:0 5:5 4:1 5:1 4:4 5:5 1:1 2:1 1:7 2:3 1:1
5:0 4:1 5:1 4:4 5:5 1:1 2:1 1:7 2:3 1:1 2:1
4:0 5:1 4:4 5:5 1:1 2:1 1:7 2:3 1:1 2:1 1:4
5:0 4:4 5:5 1:1 2:1 1:7 2:3 1:1 2:1 1:4 4:13
4:0 5:5 1:1 2:1 1:7 2:3 1:1 2:1 1:4 4:13 5:6
5:0 1:1 2:1 1:7 2:3 1:1 2:1 1:4 4:13 5:6 2:3
1:0 2:1 1:7 2:3 1:1 2:1 1:4 4:13 5:6 2:3 1:2
2:0 1:7 2:3 1:1 2:1 1:4 4:13 5:6 2:3 1:2 3:33
1:0 2:3 1:1 2:1 1:4 4:13 5:6 2:3 1:2 3:33 4:5
2:0 1:1 2:1 1:4 4:13 5:6 2:3 1:2 3:33 4:5 5:4
1:0 2:1 1:4 4:13 5:6 2:3 1:2 3:33 4:5 5:4 2:4
2:0 1:4 4:13 5:6 2:3 1:2 3:33 4:5 5:4 2:4 1:2
1:0 4:13 5:6 2:3 1:2 3:33 4:5 5:4 2:4 1:2 3:36
4:0 5:6 2:3 1:2 3:33 4:5 5:4 2:4 1:2 3:36 4:3
5:0 2:3 1:2 3:33 4:5 5:4 2:4 1:2 3:36 4:3 5:3
2:0 1:2 3:33 4:5 5:4 2:4 1:2 3:36 4:3 5:3 4:1
1:0 3:33 4:5 5:4 2:4 1:2 3:36 4:3 5:3 4:1 5:1
3:0 4:5 5:4 2:4 1:2 3:36 4:3 5:3 4:1 5:1 1:4
4:0 5:4 2:4 1:2 3:36 4:3 5:3 4:1 5:1 1:4 3:32
5:0 2:4 1:2 3:36 4:3 5:3 4:1 5:1 1:4 3:32 4:6
2:0 1:2 3:36 4:3 5:3 4:1 5:1 1:4 3:32 4:6 5:1
1:0 3:36 4:3 5:3 4:1 5:1 1:4 3:32 4:6 5:1 4:1
3:0 4:3 5:3 4:1 5:1 1:4 3:32 4:6 5:1 4:1 5:4
4:0 5:3 4:1 5:1 1:4 3:32 4:6 5:1 4:1 5:4 2:2
5:0 4:1 5:1 1:4 3:32 4:6 5:1 4:1 5:4 2:2 1:4
4:0 5:1 1:4 3:32 4:6 5:1 4:1 5:4 2:2 1:4 3:40
5:0 1:4 3:32 4:6 5:1 4:1 5:4 2:2 1:4 3:40 4:5
1:0 3:32 4:6 5:1 4:1 5:4 2:2 1:4 3:40 4:5 5:10
3:0 4:6 5:1 4:1 5:4 2:2 1:4 3:40 4:5 5:10 1:2
4:0 5:1 4:1 5:4 2:2 1:4 3:40 4:5 5:10 1:2 2:1
5:0 4:1 5:4 2:2 1:4 3:40 4:5 5:10 1:2 2:1 1:4
4:0 5:4 2:2 1:4 3:40 4:5 5:10 1:2 2:1 1:4 2:3
5:0 2:2 1:4 3:40 4:5 5:10 1:2 2:1 1:4 2:3 1:4
2:0 1:4 3:40 4:5 5:10 1:2 2:1 1:4 2:3 1:4 3:12
1:0 3:40 4:5 5:10 1:2 2:1 1:4 2:3 1:4 3:12 4:3
3:0 4:5 5:10 1:2 2:1 1:4 2:3 1:4 3:12 4:3 5:2
4:0 5:10 1:2 2:1 1:4 2:3 1:4 3:12 4:3 5:2 2:4
5:0 1:2 2:1 1:4 2:3 1:4 3:12 4:3 5:2 2:4 1:5
1:0 2:1 1:4 2:3 1:4 3:12 4:3 5:2 2:4 1:5 3:41
2:0 1:4 2:3 1:4 3:12 4:3 5:2 2:4 1:5 3:41 4:3
1:0 2:3 1:4 3:12 4:3 5:2 2:4 1:5 3:41 4:3 3:1
2:0 1:4 3:12 4:3 5:2 2:4 1:5 3:41 4:3 3:1 4:1
1:0 3:12 4:3 5:2 2:4 1:5 3:41 4:3 3:1 4:1 5:9
3:0 4:3 5:2 2:4 1:5 3:41 4:3 3:1 4:1 5:9 2:2
4:0 5:2 2:4 1:5 3:41 4:3 3:1 4:1 5:9 2:2 1:1
5:0 2:4 1:5 3:41 4:3 3:1 4:1 5:9 2:2 1:1 2:1
2:0 1:5 3:41 4:3 3:1 4:1 5:9 2:2 1:1 2:1 1:3
1:0 3:41 4:3 3:1 4:1 5:9 2:2 1:1 2:1 1:3 2:3
3:0 4:3 3:1 4:1 5:9 2:2 1:1 2:1 1:3 2:3 1:1
4:0 3:1 4:1 5:9 2:2 1:1 2:1 1:3 2:3 1:1 2:2
3:0 4:1 5:9 2:2 1:1 2:1 1:3 2:3 1:1 2:2 1:4
4:0 5:9 2:2 1:1 2:1 1:3 2:3 1:1 2:2 1:4 3:31
5:0 2:2 1:1 2:1 1:3 2:3 1:1 2:2 1:4 3:31 4:6
2:0 1:1 2:1 1:3 2:3 1:1 2:2 1:4 3:31 4:6 5:5
1:0 2:1 1:3 2:3 1:1 2:2 1:4 3:31 4:6 5:5 2:4
2:0 1:3 2:3 1:1 2:2 1:4 3:31 4:6 5:5 2:4 1:2
1:0 2:3 1:1 2:2 1:4 3:31 4:6 5:5 2:4 1:2 2:20
2:0 1:1 2:2 1:4 3:31 4:6 5:5 2:4 1:2 2:20 1:1
1:0 2:2 1:4 3:31 4:6 5:5 2:4 1:2 2:20 1:1 3:9
2:0 1:4 3:31 4:6 5:5 2:4 1:2 2:20 1:1 3:9 4:7
1:0 3:31 4:6 5:5 2:4 1:2 2:20 1:1 3:9 4:7 5:3
3:0 4:6 5:5 2:4 1:2 2:20 1:1 3:9 4:7 5:3 2:4
4:0 5:5 2:4 1:2 2:20 1:1 3:9 4:7 5:3 2:4 1:4
5:0 2:4 1:2 2:20 1:1 3:9 4:7 5:3 2:4 1:4 3:40
2:0 1:2 2:20 1:1 3:9 4:7 5:3 2:4 1:4 3:40 4:6
1:0 2:20 1:1 3:9 4:7 5:3 2:4 1:4 3:40 4:6 5:9
2:0 1:1 3:9 4:7 5:3 2:4 1:4 3:40 4:6 5:9 2:3
1:0 3:9 4:7 5:3 2:4 1:4 3:40 4:6 5:9 2:3 1:2
3:0 4:7 5:3 2:4 1:4 3:40 4:6 5:9 2:3 1:2 2:4
4:0 5:3 2:4 1:4 3:40 4:6 5:9 2:3 1:2 2:4 1:7
5:0 2:4 1:4 3:40 4:6 5:9 2:3 1:2 2:4 1:7 3:12
2:0 1:4 3:40 4:6 5:9 2:3 1:2 2:4 1:7 3:12 4:1
1:0 3:40 4:6 5:9 2:3 1:2 2:4 1:7 3:12 4:1 5:5
3:0 4:6 5:9 2:3 1:2 2:4 1:7 3:12 4:1 5:5 4:1
4:0 5:9 2:3 1:2 2:4 1:7 3:12 4:1 5:5 4:1 5:1
5:0 2:3 1:2 2:4 1:7 3:12 4:1 5:5 4:1 5:1 2:3
2:0 1:2 2:4 1:7 3:12 4:1 5:5 4:1 5:1 2:3 1:1
1:0 2:4 1:7 3:12 4:1 5:5 4:1 5:1 2:3 1:1 2:1
2:0 1:7 3:12 4:1 5:5 4:1 5:1 2:3 1:1 2:1 1:1
1:0 3:12 4:1 5:5 4:1 5:1 2:3 1:1 2:1 1:1 3:33
3:0 4:1 5:5 4:1 5:1 2:3 1:1 2:1 1:1 3:33 4:3
4:0 5:5 4:1 5:1 2:3 1:1 2:1 1:1 3:33 4:3 5:4
5:0 4:1 5:1 2:3 1:1 2:1 1:1 3:33 4:3 5:4 6:3
4:0 5:1 2:3 1:1 2:1 1:1 3:33 4:3 5:4 6:3 5:1
5:0 2:3 1:1 2:1 1:1 3:33 4:3 5:4 6:3 5:1 2:1
2:0 1:1 2:1 1:1 3:33 4:3 5:4 6:3 5:1 2:1 1:1
1:0 2:1 1:1 3:33 4:3 5:4 6:3 5:1 2:1 1:1 3:33
2:0 1:1 3:33 4:3 5:4 6:3 5:1 2:1 1:1 3:33 4:5
1:0 3:33 4:3 5:4 6:3 5:1 2:1 1:1 3:33 4:5 5:5
3:0 4:3 5:4 6:3 5:1 2:1 1:1 3:33 4:5 5:5 2:3
4:0 5:4 6:3 5:1 2:1 1:1 3:33 4:5 5:5 2:3 1:4
5:0 6:3 5:1 2:1 1:1 3:33 4:5 5:5 2:3 1:4 2:7
6:0 5:1 2:1 1:1 3:33 4:5 5:5 2:3 1:4 2:7 1:1
5:0 2:1 1:1 3:33 4:5 5:5 2:3 1:4 2:7 1:1 2:1
2:0 1:1 3:33 4:5 5:5 2:3 1:4 2:7 1:1 2:1 1:1
1:0 3:33 4:5 5:5 2:3 1:4 2:7 1:1 2:1 1:1 3:29
3:0 4:5 5:5 2:3 1:4 2:7 1:1 2:1 1:1 3:29 4:3
4:0 5:5 2:3 1:4 2:7 1:1 2:1 1:1 3:29 4:3 3:1
5:0 2:3 1:4 2:7 1:1 2:1 1:1 3:29 4:3 3:1 4:2
2:0 1:4 2:7 1:1 2:1 1:1 3:29 4:3 3:1 4:2 5:9
1:0 2:7 1:1 2:1 1:1 3:29 4:3 3:1 4:2 5:9 2:1
2:0 1:1 2:1 1:1 3:29 4:3 3:1 4:2 5:9 2:1 1:4
1:0 2:1 1:1 3:29 4:3 3:1 4:2 5:9 2:1 1:4 2:1
2:0 1:1 3:29 4:3 3:1 4:2 5:9 2:1 1:4 2:1 1:2
1:0 3:29 4:3 3:1 4:2 5:9 2:1 1:4 2:1 1:2 2:3
3:0 4:3 3:1 4:2 5:9 2:1 1:4 2:1 1:2 2:3 1:6
4:0 3:1 4:2 5:9 2:1 1:4 2:1 1:2 2:3 1:6 4:12
3:0 4:2 5:9 2:1 1:4 2:1 1:2 2:3 1:6 4:12 5:5
4:0 5:9 2:1 1:4 2:1 1:2 2:3 1:6 4:12 5:5 2:5
5:0 2:1 1:4 2:1 1:2 2:3 1:6 4:12 5:5 2:5 1:2
2:0 1:4 2:1 1:2 2:3 1:6 4:12 5:5 2:5 1:2 3:30
1:0 2:1 1:2 2:3 1:6 4:12 5:5 2:5 1:2 3:30 5:7
2:0 1:2 2:3 1:6 4:12 5:5 2:5 1:2 3:30 5:7 4:2
1:0 2:3 1:6 4:12 5:5 2:5 1:2 3:30 5:7 4:2 5:1
2:0 1:6 4:12 5:5 2:5 1:2 3:30 5:7 4:2 5:1 4:1
1:0 4:12 5:5 2:5 1:2 3:30 5:7 4:2 5:1 4:1 5:1
4:0 5:5 2:5 1:2 3:30 5:7 4:2 5:1 4:1 5:1 2:2
5:0 2:5 1:2 3:30 5:7 4:2 5:1 4:1 5:1 2:2 1:5
2:0 1:2 3:30 5:7 4:2 5:1 4:1 5:1 2:2 1:5 3:40
1:0 3:30 5:7 4:2 5:1 4:1 5:1 2:2 1:5 3:40 4:6
3:0 5:7 4:2 5:1 4:1 5:1 2:2 1:5 3:40 4:6 5:9
5:0 4:2 5:1 4:1 5:1 2:2 1:5 3:40 4:6 5:9 1:2
4:0 5:1 4:1 5:1 2:2 1:5 3:40 4:6 5:9 1:2 2:1
5:0 4:1 5:1 2:2 1:5 3:40 4:6 5:9 1:2 2:1 1:2
4:0 5:1 2:2 1:5 3:40 4:6 5:9 1:2 2:1 1:2 2:1
5:0 2:2 1:5 3:40 4:6 5:9 1:2 2:1 1:2 2:1 1:2
2:0 1:5 3:40 4:6 5:9 1:2 2:1 1:2 2:1 1:2 2:1
1:0 3:40 4:6 5:9 1:2 2:1 1:2 2:1 1:2 2:1 1:8
3:0 4:6 5:9 1:2 2:1 1:2 2:1 1:2 2:1 1:8 3:29
4:0 5:9 1:2 2:1 1:2 2:1 1:2 2:1 1:8 3:29 4:7
5:0 1:2 2:1 1:2 2:1 1:2 2:1 1:8 3:29 4:7 5:4
1:0 2:1 1:2 2:1 1:2 2:1 1:8 3:29 4:7 5:4 2:5
2:0 1:2 2:1 1:2 2:1 1:8 3:29 4:7 5:4 2:5 1:1
1:0 2:1 1:2 2:1 1:8 3:29 4:7 5:4 2:5 1:1 3:29
2:0 1:2 2:1 1:8 3:29 4:7 5:4 2:5 1:1 3:29 4:1
1:0 2:1 1:8 3:29 4:7 5:4 2:5 1:1 3:29 4:1 5:5
2:0 1:8 3:29 4:7 5:4 2:5 1:1 3:29 4:1 5:5 4:1
1:0 3:29 4:7 5:4 2:5 1:1 3:29 4:1 5:5 4:1 5:4
3:0 4:7 5:4 2:5 1:1 3:29 4:1 5:5 4:1 5:4 2:1
4:0 5:4 2:5 1:1 3:29 4:1 5:5 4:1 5:4 2:1 1:8
5:0 2:5 1:1 3:29 4:1 5:5 4:1 5:4 2:1 1:8 3:31
2:0 1:1 3:29 4:1 5:5 4:1 5:4 2:1 1:8 3:31 4:6
1:0 3:29 4:1 5:5 4:1 5:4 2:1 1:8 3:31 4:6 5:4
3:0 4:1 5:5 4:1 5:4 2:1 1:8 3:31 4:6 5:4 2:4
4:0 5:5 4:1 5:4 2:1 1:8 3:31 4:6 5:4 2:4 1:4
5:0 4:1 5:4 2:1 1:8 3:31 4:6 5:4 2:4 1:4 3:29
4:0 5:4 2:1 1:8 3:31 4:6 5:4 2:4 1:4 3:29 4:1
5:0 2:1 1:8 3:31 4:6 5:4 2:4 1:4 3:29 4:1 2:12
2:0 1:8 3:31 4:6 5:4 2:4 1:4 3:29 4:1 2:12 1:5
1:0 3:31 4:6 5:4 2:4 1:4 3:29 4:1 2:12 1:5 3:30
3:0 4:6 5:4 2:4 1:4 3:29 4:1 2:12 1:5 3:30 4:6
4:0 5:4 2:4 1:4 3:29 4:1 2:12 1:5 3:30 4:6 5:5
5:0 2:4 1:4 3:29 4:1 2:12 1:5 3:30 4:6 5:5 2:4
2:0 1:4 3:29 4:1 2:12 1:5 3:30 4:6 5:5 2:4 1:2
1:0 3:29 4:1 2:12 1:5 3:30 4:6 5:5 2:4 1:2 3:35
3:0 4:1 2:12 1:5 3:30 4:6 5:5 2:4 1:2 3:35 4:3
4:0 2:12 1:5 3:30 4:6 5:5 2:4 1:2 3:35 4:3 5:5
2:0 1:5 3:30 4:6 5:5 2:4 1:2 3:35 4:3 5:5 2:4
1:0 3:30 4:6 5:5 2:4 1:2 3:35 4:3 5:5 2:4 1:1
3:0 4:6 5:5 2:4 1:2 3:35 4:3 5:5 2:4 1:1 2:22
4:0 5:5 2:4 1:2 3:35 4:3 5:5 2:4 1:1 2:22 1:1
5:0 2:4 1:2 3:35 4:3 5:5 2:4 1:1 2:22 1:1 3:9
2:0 1:2 3:35 4:3 5:5 2:4 1:1 2:22 1:1 3:9 4:6
1:0 3:35 4:3 5:5 2:4 1:1 2:22 1:1 3:9 4:6 5:5
3:0 4:3 5:5 2:4 1:1 2:22 1:1 3:9 4:6 5:5 2:3
4:0 5:5 2:4 1:1 2:22 1:1 3:9 4:6 5:5 2:3 1:3
5:0 2:4 1:1 2:22 1:1 3:9 4:6 5:5 2:3 1:3 3:38
2:0 1:1 2:22 1:1 3:9 4:6 5:5 2:3 1:3 3:38 5:6
1:0 2:22 1:1 3:9 4:6 5:5 2:3 1:3 3:38 5:6 4:2
2:0 1:1 3:9 4:6 5:5 2:3 1:3 3:38 5:6 4:2 5:7
1:0 3:9 4:6 5:5 2:3 1:3 3:38 5:6 4:2 5:7 2:2
3:0 4:6 5:5 2:3 1:3 3:38 5:6 4:2 5:7 2:2 1:3
4:0 5:5 2:3 1:3 3:38 5:6 4:2 5:7 2:2 1:3 2:1
5:0 2:3 1:3 3:38 5:6 4:2 5:7 2:2 1:3 2:1 1:1
2:0 1:3 3:38 5:6 4:2 5:7 2:2 1:3 2:1 1:1 2:3
1:0 3:38 5:6 4:2 5:7 2:2 1:3 2:1 1:1 2:3 1:1
3:0 5:6 4:2 5:7 2:2 1:3 2:1 1:1 2:3 1:1 2:3
5:0 4:2 5:7 2:2 1:3 2:1 1:1 2:3 1:1 2:3 1:3
4:0 5:7 2:2 1:3 2:1 1:1 2:3 1:1 2:3 1:3 3:10
5:0 2:2 1:3 2:1 1:1 2:3 1:1 2:3 1:3 3:10 5:4
2:0 1:3 2:1 1:1 2:3 1:1 2:3 1:3 3:10 5:4 2:7
1:0 2:1 1:1 2:3 1:1 2:3 1:3 3:10 5:4 2:7 1:7
2:0 1:1 2:3 1:1 2:3 1:3 3:10 5:4 2:7 1:7 3:26
1:0 2:3 1:1 2:3 1:3 3:10 5:4 2:7 1:7 3:26 4:1
2:0 1:1 2:3 1:3 3:10 5:4 2:7 1:7 3:26 4:1 5:5
1:0 2:3 1:3 3:10 5:4 2:7 1:7 3:26 4:1 5:5 4:1
2:0 1:3 3:10 5:4 2:7 1:7 3:26 4:1 5:5 4:1 2:4
1:0 3:10 5:4 2:7 1:7 3:26 4:1 5:5 4:1 2:4 3:5
3:0 5:4 2:7 1:7 3:26 4:1 5:5 4:1 2:4 3:5 2:1
5:0 2:7 1:7 3:26 4:1 5:5 4:1 2:4 3:5 2:1 1:3
2:0 1:7 3:26 4:1 5:5 4:1 2:4 3:5 2:1 1:3 3:32
1:0 3:26 4:1 5:5 4:1 2:4 3:5 2:1 1:3 3:32 4:4
3:0 4:1 5:5 4:1 2:4 3:5 2:1 1:3 3:32 4:4 5:6
4:0 5:5 4:1 2:4 3:5 2:1 1:3 3:32 4:4 5:6 2:3
5:0 4:1 2:4 3:5 2:1 1:3 3:32 4:4 5:6 2:3 1:2
4:0 2:4 3:5 2:1 1:3 3:32 4:4 5:6 2:3 1:2 3:42
2:0 3:5 2:1 1:3 3:32 4:4 5:6 2:3 1:2 3:42 4:6
3:0 2:1 1:3 3:32 4:4 5:6 2:3 1:2 3:42 4:6 5:10
2:0 1:3 3:32 4:4 5:6 2:3 1:2 3:42 4:6 5:10 2:3
1:0 3:32 4:4 5:6 2:3 1:2 3:42 4:6 5:10 2:3 1:11
3:0 4:4 5:6 2:3 1:2 3:42 4:6 5:10 2:3 1:11 3:32
4:0 5:6 2:3 1:2 3:42 4:6 5:10 2:3 1:11 3:32 4:5
5:0 2:3 1:2 3:42 4:6 5:10 2:3 1:11 3:32 4:5 5:6
2:0 1:2 3:42 4:6 5:10 2:3 1:11 3:32 4:5 5:6 2:3
1:0 3:42 4:6 5:10 2:3 1:11 3:32 4:5 5:6 2:3 1:4
3:0 4:6 5:10 2:3 1:11 3:32 4:5 5:6 2:3 1:4 3:31
4:0 5:10 2:3 1:11 3:32 4:5 5:6 2:3 1:4 3:31 4:5
5:0 2:3 1:11 3:32 4:5 5:6 2:3 1:4 3:31 4:5 5:6
2:0 1:11 3:32 4:5 5:6 2:3 1:4 3:31 4:5 5:6 2:2
1:0 3:32 4:5 5:6 2:3 1:4 3:31 4:5 5:6 2:2 1:3
3:0 4:5 5:6 2:3 1:4 3:31 4:5 5:6 2:2 1:3 3:33
4:0 5:6 2:3 1:4 3:31 4:5 5:6 2:2 1:3 3:33 4:4
5:0 2:3 1:4 3:31 4:5 5:6 2:2 1:3 3:33 4:4 5:6
2:0 1:4 3:31 4:5 5:6 2:2 1:3 3:33 4:4 5:6 2:3
1:0 3:31 4:5 5:6 2:2 1:3 3:33 4:4 5:6 2:3 1:1
3:0 4:5 5:6 2:2 1:3 3:33 4:4 5:6 2:3 1:1 3:35
4:0 5:6 2:2 1:3 3:33 4:4 5:6 2:3 1:1 3:35 4:3
5:0 2:2 1:3 3:33 4:4 5:6 2:3 1:1 3:35 4:3 5:4
2:0 1:3 3:33 4:4 5:6 2:3 1:1 3:35 4:3 5:4 2:5
1:0 3:33 4:4 5:6 2:3 1:1 3:35 4:3 5:4 2:5 1:2
3:0 4:4 5:6 2:3 1:1 3:35 4:3 5:4 2:5 1:2 2:10
4:0 5:6 2:3 1:1 3:35 4:3 5:4 2:5 1:2 2:10 1:2
5:0 2:3 1:1 3:35 4:3 5:4 2:5 1:2 2:10 1:2 4:17
2:0 1:1 3:35 4:3 5:4 2:5 1:2 2:10 1:2 4:17 5:7
1:0 3:35 4:3 5:4 2:5 1:2 2:10 1:2 4:17 5:7 4:3
3:0 4:3 5:4 2:5 1:2 2:10 1:2 4:17 5:7 4:3 1:1
4:0 5:4 2:5 1:2 2:10 1:2 4:17 5:7 4:3 1:1 2:1
5:0 2:5 1:2 2:10 1:2 4:17 5:7 4:3 1:1 2:1 1:1
2:0 1:2 2:10 1:2 4:17 5:7 4:3 1:1 2:1 1:1 2:1
1:0 2:10 1:2 4:17 5:7 4:3 1:1 2:1 1:1 2:1 1:3
2:0 1:2 4:17 5:7 4:3 1:1 2:1 1:1 2:1 1:3 3:13
1:0 4:17 5:7 4:3 1:1 2:1 1:1 2:1 1:3 3:13 4:2
4:0 5:7 4:3 1:1 2:1 1:1 2:1 1:3 3:13 4:2 5:4
5:0 4:3 1:1 2:1 1:1 2:1 1:3 3:13 4:2 5:4 2:4
4:0 1:1 2:1 1:1 2:1 1:3 3:13 4:2 5:4 2:4 1:4
1:0 2:1 1:1 2:1 1:3 3:13 4:2 5:4 2:4 1:4 2:9
2:0 1:1 2:1 1:3 3:13 4:2 5:4 2:4 1:4 2:9 1:1
1:0 2:1 1:3 3:13 4:2 5:4 2:4 1:4 2:9 1:1 3:30
2:0 1:3 3:13 4:2 5:4 2:4 1:4 2:9 1:1 3:30 4:3
1:0 3:13 4:2 5:4 2:4 1:4 2:9 1:1 3:30 4:3 3:2
3:0 4:2 5:4 2:4 1:4 2:9 1:1 3:30 4:3 3:2 4:1
4:0 5:4 2:4 1:4 2:9 1:1 3:30 4:3 3:2 4:1 5:10
5:0 2:4 1:4 2:9 1:1 3:30 4:3 3:2 4:1 5:10 2:3
2:0 1:4 2:9 1:1 3:30 4:3 3:2 4:1 5:10 2:3 1:13
1:0 2:9 1:1 3:30 4:3 3:2 4:1 5:10 2:3 1:13 3:31
2:0 1:1 3:30 4:3 3:2 4:1 5:10 2:3 1:13 3:31 4:5
1:0 3:30 4:3 3:2 4:1 5:10 2:3 1:13 3:31 4:5 5:6
3:0 4:3 3:2 4:1 5:10 2:3 1:13 3:31 4:5 5:6 2:3
4:0 3:2 4:1 5:10 2:3 1:13 3:31 4:5 5:6 2:3 1:2
3:0 4:1 5:10 2:3 1:13 3:31 4:5 5:6 2:3 1:2 4:29
4:0 5:10 2:3 1:13 3:31 4:5 5:6 2:3 1:2 4:29 5:5
5:0 2:3 1:13 3:31 4:5 5:6 2:3 1:2 4:29 5:5 4:3
2:0 1:13 3:31 4:5 5:6 2:3 1:2 4:29 5:5 4:3 1:2
1:0 3:31 4:5 5:6 2:3 1:2 4:29 5:5 4:3 1:2 2:2
3:0 4:5 5:6 2:3 1:2 4:29 5:5 4:3 1:2 2:2 1:6
4:0 5:6 2:3 1:2 4:29 5:5 4:3 1:2 2:2 1:6 3:31
5:0 2:3 1:2 4:29 5:5 4:3 1:2 2:2 1:6 3:31 4:7
2:0 1:2 4:29 5:5 4:3 1:2 2:2 1:6 3:31 4:7 5:5
1:0 4:29 5:5 4:3 1:2 2:2 1:6 3:31 4:7 5:5 2:3
4:0 5:5 4:3 1:2 2:2 1:6 3:31 4:7 5:5 2:3 1:2
5:0 4:3 1:2 2:2 1:6 3:31 4:7 5:5 2:3 1:2 3:35
4:0 1:2 2:2 1:6 3:31 4:7 5:5 2:3 1:2 3:35 4:3
1:0 2:2 1:6 3:31 4:7 5:5 2:3 1:2 3:35 4:3 5:4
2:0 1:6 3:31 4:7 5:5 2:3 1:2 3:35 4:3 5:4 2:5
1:0 3:31 4:7 5:5 2:3 1:2 3:35 4:3 5:4 2:5 1:2
3:0 4:7 5:5 2:3 1:2 3:35 4:3 5:4 2:5 1:2 2:6
4:0 5:5 2:3 1:2 3:35 4:3 5:4 2:5 1:2 2:6 1:2
5:0 2:3 1:2 3:35 4:3 5:4 2:5 1:2 2:6 1:2 3:32
2:0 1:2 3:35 4:3 5:4 2:5 1:2 2:6 1:2 3:32 4:7
1:0 3:35 4:3 5:4 2:5 1:2 2:6 1:2 3:32 4:7 5:7
3:0 4:3 5:4 2:5 1:2 2:6 1:2 3:32 4:7 5:7 2:3
4:0 5:4 2:5 1:2 2:6 1:2 3:32 4:7 5:7 2:3 1:6
5:0 2:5 1:2 2:6 1:2 3:32 4:7 5:7 2:3 1:6 2:1
2:0 1:2 2:6 1:2 3:32 4:7 5:7 2:3 1:6 2:1 1:7
1:0 2:6 1:2 3:32 4:7 5:7 2:3 1:6 2:1 1:7 3:31
2:0 1:2 3:32 4:7 5:7 2:3 1:6 2:1 1:7 3:31 4:6
1:0 3:32 4:7 5:7 2:3 1:6 2:1 1:7 3:31 4:6 5:6
3:0 4:7 5:7 2:3 1:6 2:1 1:7 3:31 4:6 5:6 2:3
4:0 5:7 2:3 1:6 2:1 1:7 3:31 4:6 5:6 2:3 1:2
5:0 2:3 1:6 2:1 1:7 3:31 4:6 5:6 2:3 1:2 3:35
2:0 1:6 2:1 1:7 3:31 4:6 5:6 2:3 1:2 3:35 4:4
1:0 2:1 1:7 3:31 4:6 5:6 2:3 1:2 3:35 4:4 5:3
2:0 1:7 3:31 4:6 5:6 2:3 1:2 3:35 4:4 5:3 2:6
1:0 3:31 4:6 5:6 2:3 1:2 3:35 4:4 5:3 2:6 1:1
3:0 4:6 5:6 2:3 1:2 3:35 4:4 5:3 2:6 1:1 3:28
4:0 5:6 2:3 1:2 3:35 4:4 5:3 2:6 1:1 3:28 4:1
5:0 2:3 1:2 3:35 4:4 5:3 2:6 1:1 3:28 4:1 5:7
2:0 1:2 3:35 4:4 5:3 2:6 1:1 3:28 4:1 5:7 4:1
1:0 3:35 4:4 5:3 2:6 1:1 3:28 4:1 5:7 4:1 2:3
3:0 4:4 5:3 2:6 1:1 3:28 4:1 5:7 4:1 2:3 1:1
4:0 5:3 2:6 1:1 3:28 4:1 5:7 4:1 2:3 1:1 2:1
5:0 2:6 1:1 3:28 4:1 5:7 4:1 2:3 1:1 2:1 1:5
2:0 1:1 3:28 4:1 5:7 4:1 2:3 1:1 2:1 1:5 3:32
1:0 3:28 4:1 5:7 4:1 2:3 1:1 2:1 1:5 3:32 4:6
3:0 4:1 5:7 4:1 2:3 1:1 2:1 1:5 3:32 4:6 5:5
4:0 5:7 4:1 2:3 1:1 2:1 1:5 3:32 4:6 5:5 2:3
5:0 4:1 2:3 1:1 2:1 1:5 3:32 4:6 5:5 2:3 1:4
4:0 2:3 1:1 2:1 1:5 3:32 4:6 5:5 2:3 1:4 2:9
2:0 1:1 2:1 1:5 3:32 4:6 5:5 2:3 1:4 2:9 1:1
1:0 2:1 1:5 3:32 4:6 5:5 2:3 1:4 2:9 1:1 4:18
2:0 1:5 3:32 4:6 5:5 2:3 1:4 2:9 1:1 4:18 5:9
1:0 3:32 4:6 5:5 2:3 1:4 2:9 1:1 4:18 5:9 2:2
3:0 4:6 5:5 2:3 1:4 2:9 1:1 4:18 5:9 2:2 1:7
4:0 5:5 2:3 1:4 2:9 1:1 4:18 5:9 2:2 1:7 3:30
5:0 2:3 1:4 2:9 1:1 4:18 5:9 2:2 1:7 3:30 4:8
2:0 1:4 2:9 1:1 4:18 5:9 2:2 1:7 3:30 4:8 5:4
1:0 2:9 1:1 4:18 5:9 2:2 1:7 3:30 4:8 5:4 4:1
2:0 1:1 4:18 5:9 2:2 1:7 3:30 4:8 5:4 4:1 5:1
1:0 4:18 5:9 2:2 1:7 3:30 4:8 5:4 4:1 5:1 2:2
4:0 5:9 2:2 1:7 3:30 4:8 5:4 4:1 5:1 2:2 1:3
5:0 2:2 1:7 3:30 4:8 5:4 4:1 5:1 2:2 1:3 3:32
2:0 1:7 3:30 4:8 5:4 4:1 5:1 2:2 1:3 3:32 4:5
1:0 3:30 4:8 5:4 4:1 5:1 2:2 1:3 3:32 4:5 5:5
3:0 4:8 5:4 4:1 5:1 2:2 1:3 3:32 4:5 5:5 2:3
4:0 5:4 4:1 5:1 2:2 1:3 3:32 4:5 5:5 2:3 1:4
5:0 4:1 5:1 2:2 1:3 3:32 4:5 5:5 2:3 1:4 2:6
4:0 5:1 2:2 1:3 3:32 4:5 5:5 2:3 1:4 2:6 1:1
5:0 2:2 1:3 3:32 4:5 5:5 2:3 1:4 2:6 1:1 3:26
2:0 1:3 3:32 4:5 5:5 2:3 1:4 2:6 1:1 3:26 4:5
1:0 3:32 4:5 5:5 2:3 1:4 2:6 1:1 3:26 4:5 5:5
3:0 4:5 5:5 2:3 1:4 2:6 1:1 3:26 4:5 5:5 1:4
4:0 5:5 2:3 1:4 2:6 1:1 3:26 4:5 5:5 1:4 3:32
5:0 2:3 1:4 2:6 1:1 3:26 4:5 5:5 1:4 3:32 4:5
2:0 1:4 2:6 1:1 3:26 4:5 5:5 1:4 3:32 4:5 5:4
1:0 2:6 1:1 3:26 4:5 5:5 1:4 3:32 4:5 5:4 2:5
2:0 1:1 3:26 4:5 5:5 1:4 3:32 4:5 5:4 2:5 1:2
1:0 3:26 4:5 5:5 1:4 3:32 4:5 5:4 2:5 1:2 3:43
3:0 4:5 5:5 1:4 3:32 4:5 5:4 2:5 1:2 3:43 4:5
4:0 5:5 1:4 3:32 4:5 5:4 2:5 1:2 3:43 4:5 5:7
5:0 1:4 3:32 4:5 5:4 2:5 1:2 3:43 4:5 5:7 4:1
1:0 3:32 4:5 5:4 2:5 1:2 3:43 4:5 5:7 4:1 5:1
3:0 4:5 5:4 2:5 1:2 3:43 4:5 5:7 4:1 5:1 2:3
4:0 5:4 2:5 1:2 3:43 4:5 5:7 4:1 5:1 2:3 1:2
5:0 2:5 1:2 3:43 4:5 5:7 4:1 5:1 2:3 1:2 2:4
2:0 1:2 3:43 4:5 5:7 4:1 5:1 2:3 1:2 2:4 1:3
1:0 3:43 4:5 5:7 4:1 5:1 2:3 1:2 2:4 1:3 2:1
3:0 4:5 5:7 4:1 5:1 2:3 1:2 2:4 1:3 2:1 1:1
4:0 5:7 4:1 5:1 2:3 1:2 2:4 1:3 2:1 1:1 4:13
5:0 4:1 5:1 2:3 1:2 2:4 1:3 2:1 1:1 4:13 5:7
4:0 5:1 2:3 1:2 2:4 1:3 2:1 1:1 4:13 5:7 2:3
5:0 2:3 1:2 2:4 1:3 2:1 1:1 4:13 5:7 2:3 1:2
2:0 1:2 2:4 1:3 2:1 1:1 4:13 5:7 2:3 1:2 2:8
1:0 2:4 1:3 2:1 1:1 4:13 5:7 2:3 1:2 2:8 1:1
2:0 1:3 2:1 1:1 4:13 5:7 2:3 1:2 2:8 1:1 4:22
1:0 2:1 1:1 4:13 5:7 2:3 1:2 2:8 1:1 4:22 3:1
2:0 1:1 4:13 5:7 2:3 1:2 2:8 1:1 4:22 3:1 5:6
1:0 4:13 5:7 2:3 1:2 2:8 1:1 4:22 3:1 5:6 2:6
4:0 5:7 2:3 1:2 2:8 1:1 4:22 3:1 5:6 2:6 1:5
5:0 2:3 1:2 2:8 1:1 4:22 3:1 5:6 2:6 1:5 3:40
2:0 1:2 2:8 1:1 4:22 3:1 5:6 2:6 1:5 3:40 4:5
1:0 2:8 1:1 4:22 3:1 5:6 2:6 1:5 3:40 4:5 5:10
2:0 1:1 4:22 3:1 5:6 2:6 1:5 3:40 4:5 5:10 2:2
1:0 4:22 3:1 5:6 2:6 1:5 3:40 4:5 5:10 2:2 1:13
4:0 3:1 5:6 2:6 1:5 3:40 4:5 5:10 2:2 1:13 3:30
3:0 5:6 2:6 1:5 3:40 4:5 5:10 2:2 1:13 3:30 4:7
5:0 2:6 1:5 3:40 4:5 5:10 2:2 1:13 3:30 4:7 5:4
2:0 1:5 3:40 4:5 5:10 2:2 1:13 3:30 4:7 5:4 3:4
1:0 3:40 4:5 5:10 2:2 1:13 3:30 4:7 5:4 3:4 2:1
3:0 4:5 5:10 2:2 1:13 3:30 4:7 5:4 3:4 2:1 1:2
4:0 5:10 2:2 1:13 3:30 4:7 5:4 3:4 2:1 1:2 3:31
5:0 2:2 1:13 3:30 4:7 5:4 3:4 2:1 1:2 3:31 4:2
2:0 1:13 3:30 4:7 5:4 3:4 2:1 1:2 3:31 4:2 5:5
1:0 3:30 4:7 5:4 3:4 2:1 1:2 3:31 4:2 5:5 2:4
3:0 4:7 5:4 3:4 2:1 1:2 3:31 4:2 5:5 2:4 1:7
4:0 5:4 3:4 2:1 1:2 3:31 4:2 5:5 2:4 1:7 3:29
5:0 3:4 2:1 1:2 3:31 4:2 5:5 2:4 1:7 3:29 4:7
3:0 2:1 1:2 3:31 4:2 5:5 2:4 1:7 3:29 4:7 5:3
2:0 1:2 3:31 4:2 5:5 2:4 1:7 3:29 4:7 5:3 2:5
1:0 3:31 4:2 5:5 2:4 1:7 3:29 4:7 5:3 2:5 1:4
3:0 4:2 5:5 2:4 1:7 3:29 4:7 5:3 2:5 1:4 2:8
4:0 5:5 2:4 1:7 3:29 4:7 5:3 2:5 1:4 2:8 1:1
5:0 2:4 1:7 3:29 4:7 5:3 2:5 1:4 2:8 1:1 3:33
2:0 1:7 3:29 4:7 5:3 2:5 1:4 2:8 1:1 3:33 4:3
1:0 3:29 4:7 5:3 2:5 1:4 2:8 1:1 3:33 4:3 5:1
3:0 4:7 5:3 2:5 1:4 2:8 1:1 3:33 4:3 5:1 4:1
4:0 5:3 2:5 1:4 2:8 1:1 3:33 4:3 5:1 4:1 5:8
5:0 2:5 1:4 2:8 1:1 3:33 4:3 5:1 4:1 5:8 1:3
2:0 1:4 2:8 1:1 3:33 4:3 5:1 4:1 5:8 1:3 2:3
1:0 2:8 1:1 3:33 4:3 5:1 4:1 5:8 1:3 2:3 1:1
2:0 1:1 3:33 4:3 5:1 4:1 5:8 1:3 2:3 1:1 2:3
1:0 3:33 4:3 5:1 4:1 5:8 1:3 2:3 1:1 2:3 1:1
3:0 4:3 5:1 4:1 5:8 1:3 2:3 1:1 2:3 1:1 2:1
4:0 5:1 4:1 5:8 1:3 2:3 1:1 2:3 1:1 2:1 1:3
5:0 4:1 5:8 1:3 2:3 1:1 2:3 1:1 2:1 1:3 3:14
4:0 5:8 1:3 2:3 1:1 2:3 1:1 2:1 1:3 3:14 4:1
5:0 1:3 2:3 1:1 2:3 1:1 2:1 1:3 3:14 4:1 5:5
1:0 2:3 1:1 2:3 1:1 2:1 1:3 3:14 4:1 5:5 2:4
2:0 1:1 2:3 1:1 2:1 1:3 3:14 4:1 5:5 2:4 1:1
1:0 2:3 1:1 2:1 1:3 3:14 4:1 5:5 2:4 1:1 3:36
2:0 1:1 2:1 1:3 3:14 4:1 5:5 2:4 1:1 3:36 4:3
1:0 2:1 1:3 3:14 4:1 5:5 2:4 1:1 3:36 4:3 5:4
2:0 1:3 3:14 4:1 5:5 2:4 1:1 3:36 4:3 5:4 4:3
1:0 3:14 4:1 5:5 2:4 1:1 3:36 4:3 5:4 4:3 1:2
3:0 4:1 5:5 2:4 1:1 3:36 4:3 5:4 4:3 1:2 2:1
4:0 5:5 2:4 1:1 3:36 4:3 5:4 4:3 1:2 2:1 1:1
5:0 2:4 1:1 3:36 4:3 5:4 4:3 1:2 2:1 1:1 3:43
2:0 1:1 3:36 4:3 5:4 4:3 1:2 2:1 1:1 3:43 4:4
1:0 3:36 4:3 5:4 4:3 1:2 2:1 1:1 3:43 4:4 5:6
3:0 4:3 5:4 4:3 1:2 2:1 1:1 3:43 4:4 5:6 2:4
4:0 5:4 4:3 1:2 2:1 1:1 3:43 4:4 5:6 2:4 1:2
5:0 4:3 1:2 2:1 1:1 3:43 4:4 5:6 2:4 1:2 2:5
4:0 1:2 2:1 1:1 3:43 4:4 5:6 2:4 1:2 2:5 1:1
1:0 2:1 1:1 3:43 4:4 5:6 2:4 1:2 2:5 1:1 2:1
2:0 1:1 3:43 4:4 5:6 2:4 1:2 2:5 1:1 2:1 1:3
1:0 3:43 4:4 5:6 2:4 1:2 2:5 1:1 2:1 1:3 2:1
3:0 4:4 5:6 2:4 1:2 2:5 1:1 2:1 1:3 2:1 1:1
4:0 5:6 2:4 1:2 2:5 1:1 2:1 1:3 2:1 1:1 3:31
5:0 2:4 1:2 2:5 1:1 2:1 1:3 2:1 1:1 3:31 4:5
2:0 1:2 2:5 1:1 2:1 1:3 2:1 1:1 3:31 4:5 5:8
1:0 2:5 1:1 2:1 1:3 2:1 1:1 3:31 4:5 5:8 2:2
2:0 1:1 2:1 1:3 2:1 1:1 3:31 4:5 5:8 2:2 1:2
1:0 2:1 1:3 2:1 1:1 3:31 4:5 5:8 2:2 1:2 3:33
2:0 1:3 2:1 1:1 3:31 4:5 5:8 2:2 1:2 3:33 4:4
1:0 2:1 1:1 3:31 4:5 5:8 2:2 1:2 3:33 4:4 5:5
2:0 1:1 3:31 4:5 5:8 2:2 1:2 3:33 4:4 5:5 2:4
1:0 3:31 4:5 5:8 2:2 1:2 3:33 4:4 5:5 2:4 1:1
3:0 4:5 5:8 2:2 1:2 3:33 4:4 5:5 2:4 1:1 3:32
4:0 5:8 2:2 1:2 3:33 4:4 5:5 2:4 1:1 3:32 4:6
5:0 2:2 1:2 3:33 4:4 5:5 2:4 1:1 3:32 4:6 5:4
2:0 1:2 3:33 4:4 5:5 2:4 1:1 3:32 4:6 5:4 4:1
1:0 3:33 4:4 5:5 2:4 1:1 3:32 4:6 5:4 4:1 5:1
3:0 4:4 5:5 2:4 1:1 3:32 4:6 5:4 4:1 5:1 2:2
4:0 5:5 2:4 1:1 3:32 4:6 5:4 4:1 5:1 2:2 1:2
5:0 2:4 1:1 3:32 4:6 5:4 4:1 5:1 2:2 1:2 3:34
2:0 1:1 3:32 4:6 5:4 4:1 5:1 2:2 1:2 3:34 4:3
1:0 3:32 4:6 5:4 4:1 5:1 2:2 1:2 3:34 4:3 5:4
3:0 4:6 5:4 4:1 5:1 2:2 1:2 3:34 4:3 5:4 2:5
4:0 5:4 4:1 5:1 2:2 1:2 3:34 4:3 5:4 2:5 1:3
5:0 4:1 5:1 2:2 1:2 3:34 4:3 5:4 2:5 1:3 3:28
4:0 5:1 2:2 1:2 3:34 4:3 5:4 2:5 1:3 3:28 4:3
5:0 2:2 1:2 3:34 4:3 5:4 2:5 1:3 3:28 4:3 5:4
2:0 1:2 3:34 4:3 5:4 2:5 1:3 3:28 4:3 5:4 2:5
1:0 3:34 4:3 5:4 2:5 1:3 3:28 4:3 5:4 2:5 1:7
3:0 4:3 5:4 2:5 1:3 3:28 4:3 5:4 2:5 1:7 3:31
4:0 5:4 2:5 1:3 3:28 4:3 5:4 2:5 1:7 3:31 4:6
5:0 2:5 1:3 3:28 4:3 5:4 2:5 1:7 3:31 4:6 5:5
2:0 1:3 3:28 4:3 5:4 2:5 1:7 3:31 4:6 5:5 2:4
1:0 3:28 4:3 5:4 2:5 1:7 3:31 4:6 5:5 2:4 1:4
3:0 4:3 5:4 2:5 1:7 3:31 4:6 5:5 2:4 1:4 3:32
4:0 5:4 2:5 1:7 3:31 4:6 5:5 2:4 1:4 3:32 4:4
5:0 2:5 1:7 3:31 4:6 5:5 2:4 1:4 3:32 4:4 5:6
2:0 1:7 3:31 4:6 5:5 2:4 1:4 3:32 4:4 5:6 2:3
1:0 3:31 4:6 5:5 2:4 1:4 3:32 4:4 5:6 2:3 1:3
3:0 4:6 5:5 2:4 1:4 3:32 4:4 5:6 2:3 1:3 2:20
4:0 5:5 2:4 1:4 3:32 4:4 5:6 2:3 1:3 2:20 1:1
5:0 2:4 1:4 3:32 4:4 5:6 2:3 1:3 2:20 1:1 3:12
2:0 1:4 3:32 4:4 5:6 2:3 1:3 2:20 1:1 3:12 4:3
1:0 3:32 4:4 5:6 2:3 1:3 2:20 1:1 3:12 4:3 5:5
3:0 4:4 5:6 2:3 1:3 2:20 1:1 3:12 4:3 5:5 2:4
4:0 5:6 2:3 1:3 2:20 1:1 3:12 4:3 5:5 2:4 1:1
5:0 2:3 1:3 2:20 1:1 3:12 4:3 5:5 2:4 1:1 3:34
2:0 1:3 2:20 1:1 3:12 4:3 5:5 2:4 1:1 3:34 4:3
1:0 2:20 1:1 3:12 4:3 5:5 2:4 1:1 3:34 4:3 5:6
2:0 1:1 3:12 4:3 5:5 2:4 1:1 3:34 4:3 5:6 2:3
1:0 3:12 4:3 5:5 2:4 1:1 3:34 4:3 5:6 2:3 1:4
3:0 4:3 5:5 2:4 1:1 3:34 4:3 5:6 2:3 1:4 2:10
4:0 5:5 2:4 1:1 3:34 4:3 5:6 2:3 1:4 2:10 1:1
5:0 2:4 1:1 3:34 4:3 5:6 2:3 1:4 2:10 1:1 3:27
2:0 1:1 3:34 4:3 5:6 2:3 1:4 2:10 1:1 3:27 5:6
1:0 3:34 4:3 5:6 2:3 1:4 2:10 1:1 3:27 5:6 4:1
3:0 4:3 5:6 2:3 1:4 2:10 1:1 3:27 5:6 4:1 5:9
4:0 5:6 2:3 1:4 2:10 1:1 3:27 5:6 4:1 5:9 2:2
5:0 2:3 1:4 2:10 1:1 3:27 5:6 4:1 5:9 2:2 1:6
2:0 1:4 2:10 1:1 3:27 5:6 4:1 5:9 2:2 1:6 2:1
1:0 2:10 1:1 3:27 5:6 4:1 5:9 2:2 1:6 2:1 1:8
2:0 1:1 3:27 5:6 4:1 5:9 2:2 1:6 2:1 1:8 3:31
1:0 3:27 5:6 4:1 5:9 2:2 1:6 2:1 1:8 3:31 4:6
3:0 5:6 4:1 5:9 2:2 1:6 2:1 1:8 3:31 4:6 5:5
5:0 4:1 5:9 2:2 1:6 2:1 1:8 3:31 4:6 5:5 2:4
4:0 5:9 2:2 1:6 2:1 1:8 3:31 4:6 5:5 2:4 1:2
5:0 2:2 1:6 2:1 1:8 3:31 4:6 5:5 2:4 1:2 3:34
2:0 1:6 2:1 1:8 3:31 4:6 5:5 2:4 1:2 3:34 4:3
1:0 2:1 1:8 3:31 4:6 5:5 2:4 1:2 3:34 4:3 5:5
2:0 1:8 3:31 4:6 5:5 2:4 1:2 3:34 4:3 5:5 2:4
1:0 3:31 4:6 5:5 2:4 1:2 3:34 4:3 5:5 2:4 1:1
3:0 4:6 5:5 2:4 1:2 3:34 4:3 5:5 2:4 1:1 2:8
4:0 5:5 2:4 1:2 3:34 4:3 5:5 2:4 1:1 2:8 1:1
5:0 2:4 1:2 3:34 4:3 5:5 2:4 1:1 2:8 1:1 3:23
2:0 1:2 3:34 4:3 5:5 2:4 1:1 2:8 1:1 3:23 4:6
1:0 3:34 4:3 5:5 2:4 1:1 2:8 1:1 3:23 4:6 5:4
3:0 4:3 5:5 2:4 1:1 2:8 1:1 3:23 4:6 5:4 2:4
4:0 5:5 2:4 1:1 2:8 1:1 3:23 4:6 5:4 2:4 1:1
5:0 2:4 1:1 2:8 1:1 3:23 4:6 5:4 2:4 1:1 2:1
2:0 1:1 2:8 1:1 3:23 4:6 5:4 2:4 1:1 2:1 1:2
1:0 2:8 1:1 3:23 4:6 5:4 2:4 1:1 2:1 1:2 3:43
2:0 1:1 3:23 4:6 5:4 2:4 1:1 2:1 1:2 3:43 4:3
1:0 3:23 4:6 5:4 2:4 1:1 2:1 1:2 3:43 4:3 5:9
3:0 4:6 5:4 2:4 1:1 2:1 1:2 3:43 4:3 5:9 2:3
4:0 5:4 2:4 1:1 2:1 1:2 3:43 4:3 5:9 2:3 1:4
5:0 2:4 1:1 2:1 1:2 3:43 4:3 5:9 2:3 1:4 2:4
2:0 1:1 2:1 1:2 3:43 4:3 5:9 2:3 1:4 2:4 1:3
1:0 2:1 1:2 3:43 4:3 5:9 2:3 1:4 2:4 1:3 3:11
2:0 1:2 3:43 4:3 5:9 2:3 1:4 2:4 1:3 3:11 4:4
1:0 3:43 4:3 5:9 2:3 1:4 2:4 1:3 3:11 4:4 5:2
3:0 4:3 5:9 2:3 1:4 2:4 1:3 3:11 4:4 5:2 2:5
4:0 5:9 2:3 1:4 2:4 1:3 3:11 4:4 5:2 2:5 1:5
5:0 2:3 1:4 2:4 1:3 3:11 4:4 5:2 2:5 1:5 2:5
2:0 1:4 2:4 1:3 3:11 4:4 5:2 2:5 1:5 2:5 1:2
1:0 2:4 1:3 3:11 4:4 5:2 2:5 1:5 2:5 1:2 2:9
2:0 1:3 3:11 4:4 5:2 2:5 1:5 2:5 1:2 2:9 1:2
1:0 3:11 4:4 5:2 2:5 1:5 2:5 1:2 2:9 1:2 3:27
3:0 4:4 5:2 2:5 1:5 2:5 1:2 2:9 1:2 3:27 4:3
4:0 5:2 2:5 1:5 2:5 1:2 2:9 1:2 3:27 4:3 3:1
5:0 2:5 1:5 2:5 1:2 2:9 1:2 3:27 4:3 3:1 4:2
2:0 1:5 2:5 1:2 2:9 1:2 3:27 4:3 3:1 4:2 5:6
1:0 2:5 1:2 2:9 1:2 3:27 4:3 3:1 4:2 5:6 2:3
2:0 1:2 2:9 1:2 3:27 4:3 3:1 4:2 5:6 2:3 1:3
1:0 2:9 1:2 3:27 4:3 3:1 4:2 5:6 2:3 1:3 2:1
2:0 1:2 3:27 4:3 3:1 4:2 5:6 2:3 1:3 2:1 1:7
1:0 3:27 4:3 3:1 4:2 5:6 2:3 1:3 2:1 1:7 3:30
3:0 4:3 3:1 4:2 5:6 2:3 1:3 2:1 1:7 3:30 4:7
4:0 3:1 4:2 5:6 2:3 1:3 2:1 1:7 3:30 4:7 5:3
3:0 4:2 5:6 2:3 1:3 2:1 1:7 3:30 4:7 5:3 4:1
4:0 5:6 2:3 1:3 2:1 1:7 3:30 4:7 5:3 4:1 5:1
5:0 2:3 1:3 2:1 1:7 3:30 4:7 5:3 4:1 5:1 4:1
2:0 1:3 2:1 1:7 3:30 4:7 5:3 4:1 5:1 4:1 5:1
1:0 2:1 1:7 3:30 4:7 5:3 4:1 5:1 4:1 5:1 2:1
2:0 1:7 3:30 4:7 5:3 4:1 5:1 4:1 5:1 2:1 1:4
1:0 3:30 4:7 5:3 4:1 5:1 4:1 5:1 2:1 1:4 3:28
3:0 4:7 5:3 4:1 5:1 4:1 5:1 2:1 1:4 3:28 4:1
4:0 5:3 4:1 5:1 4:1 5:1 2:1 1:4 3:28 4:1 5:6
5:0 4:1 5:1 4:1 5:1 2:1 1:4 3:28 4:1 5:6 4:1
4:0 5:1 4:1 5:1 2:1 1:4 3:28 4:1 5:6 4:1 5:1
5:0 4:1 5:1 2:1 1:4 3:28 4:1 5:6 4:1 5:1 2:3
4:0 5:1 2:1 1:4 3:28 4:1 5:6 4:1 5:1 2:3 1:6
5:0 2:1 1:4 3:28 4:1 5:6 4:1 5:1 2:3 1:6 3:31
2:0 1:4 3:28 4:1 5:6 4:1 5:1 2:3 1:6 3:31 4:7
1:0 3:28 4:1 5:6 4:1 5:1 2:3 1:6 3:31 4:7 5:5
3:0 4:1 5:6 4:1 5:1 2:3 1:6 3:31 4:7 5:5 2:3
4:0 5:6 4:1 5:1 2:3 1:6 3:31 4:7 5:5 2:3 1:4
5:0 4:1 5:1 2:3 1:6 3:31 4:7 5:5 2:3 1:4 2:6
4:0 5:1 2:3 1:6 3:31 4:7 5:5 2:3 1:4 2:6 1:1
5:0 2:3 1:6 3:31 4:7 5:5 2:3 1:4 2:6 1:1 4:20
2:0 1:6 3:31 4:7 5:5 2:3 1:4 2:6 1:1 4:20 5:8
1:0 3:31 4:7 5:5 2:3 1:4 2:6 1:1 4:20 5:8 2:2
3:0 4:7 5:5 2:3 1:4 2:6 1:1 4:20 5:8 2:2 1:1
4:0 5:5 2:3 1:4 2:6 1:1 4:20 5:8 2:2 1:1 2:1
5:0 2:3 1:4 2:6 1:1 4:20 5:8 2:2 1:1 2:1 1:6
2:0 1:4 2:6 1:1 4:20 5:8 2:2 1:1 2:1 1:6 3:32
1:0 2:6 1:1 4:20 5:8 2:2 1:1 2:1 1:6 3:32 4:6
2:0 1:1 4:20 5:8 2:2 1:1 2:1 1:6 3:32 4:6 5:6
1:0 4:20 5:8 2:2 1:1 2:1 1:6 3:32 4:6 5:6 3:3
4:0 5:8 2:2 1:1 2:1 1:6 3:32 4:6 5:6 3:3 2:1
5:0 2:2 1:1 2:1 1:6 3:32 4:6 5:6 3:3 2:1 1:1
2:0 1:1 2:1 1:6 3:32 4:6 5:6 3:3 2:1 1:1 3:36
1:0 2:1 1:6 3:32 4:6 5:6 3:3 2:1 1:1 3:36 4:3
2:0 1:6 3:32 4:6 5:6 3:3 2:1 1:1 3:36 4:3 5:5
1:0 3:32 4:6 5:6 3:3 2:1 1:1 3:36 4:3 5:5 2:3
3:0 4:6 5:6 3:3 2:1 1:1 3:36 4:3 5:5 2:3 1:2
4:0 5:6 3:3 2:1 1:1 3:36 4:3 5:5 2:3 1:2 3:32
5:0 3:3 2:1 1:1 3:36 4:3 5:5 2:3 1:2 3:32 4:5
3:0 2:1 1:1 3:36 4:3 5:5 2:3 1:2 3:32 4:5 5:4
2:0 1:1 3:36 4:3 5:5 2:3 1:2 3:32 4:5 5:4 2:5
1:0 3:36 4:3 5:5 2:3 1:2 3:32 4:5 5:4 2:5 1:2
3:0 4:3 5:5 2:3 1:2 3:32 4:5 5:4 2:5 1:2 3:38
4:0 5:5 2:3 1:2 3:32 4:5 5:4 2:5 1:2 3:38 4:4
5:0 2:3 1:2 3:32 4:5 5:4 2:5 1:2 3:38 4:4 3:1
2:0 1:2 3:32 4:5 5:4 2:5 1:2 3:38 4:4 3:1 5:1
1:0 3:32 4:5 5:4 2:5 1:2 3:38 4:4 3:1 5:1 4:2
3:0 4:5 5:4 2:5 1:2 3:38 4:4 3:1 5:1 4:2 2:9
4:0 5:4 2:5 1:2 3:38 4:4 3:1 5:1 4:2 2:9 1:2
5:0 2:5 1:2 3:38 4:4 3:1 5:1 4:2 2:9 1:2 2:1
2:0 1:2 3:38 4:4 3:1 5:1 4:2 2:9 1:2 2:1 1:2
1:0 3:38 4:4 3:1 5:1 4:2 2:9 1:2 2:1 1:2 2:1
3:0 4:4 3:1 5:1 4:2 2:9 1:2 2:1 1:2 2:1 1:2
4:0 3:1 5:1 4:2 2:9 1:2 2:1 1:2 2:1 1:2 2:2
3:0 5:1 4:2 2:9 1:2 2:1 1:2 2:1 1:2 2:2 1:5
5:0 4:2 2:9 1:2 2:1 1:2 2:1 1:2 2:2 1:5 3:12
4:0 2:9 1:2 2:1 1:2 2:1 1:2 2:2 1:5 3:12 5:3
2:0 1:2 2:1 1:2 2:1 1:2 2:2 1:5 3:12 5:3 4:1
1:0 2:1 1:2 2:1 1:2 2:2 1:5 3:12 5:3 4:1 5:1
2:0 1:2 2:1 1:2 2:2 1:5 3:12 5:3 4:1 5:1 2:5
1:0 2:1 1:2 2:2 1:5 3:12 5:3 4:1 5:1 2:5 1:5
2:0 1:2 2:2 1:5 3:12 5:3 4:1 5:1 2:5 1:5 3:41
1:0 2:2 1:5 3:12 5:3 4:1 5:1 2:5 1:5 3:41 4:2
2:0 1:5 3:12 5:3 4:1 5:1 2:5 1:5 3:41 4:2 3:2
1:0 3:12 5:3 4:1 5:1 2:5 1:5 3:41 4:2 3:2 4:2
3:0 5:3 4:1 5:1 2:5 1:5 3:41 4:2 3:2 4:2 5:6
5:0 4:1 5:1 2:5 1:5 3:41 4:2 3:2 4:2 5:6 1:4
4:0 5:1 2:5 1:5 3:41 4:2 3:2 4:2 5:6 1:4 2:1
5:0 2:5 1:5 3:41 4:2 3:2 4:2 5:6 1:4 2:1 1:1
2:0 1:5 3:41 4:2 3:2 4:2 5:6 1:4 2:1 1:1 2:5
1:0 3:41 4:2 3:2 4:2 5:6 1:4 2:1 1:1 2:5 1:5
3:0 4:2 3:2 4:2 5:6 1:4 2:1 1:1 2:5 1:5 3:13
4:0 3:2 4:2 5:6 1:4 2:1 1:1 2:5 1:5 3:13 4:1
3:0 4:2 5:6 1:4 2:1 1:1 2:5 1:5 3:13 4:1 5:6
4:0 5:6 1:4 2:1 1:1 2:5 1:5 3:13 4:1 5:6 2:3
5:0 1:4 2:1 1:1 2:5 1:5 3:13 4:1 5:6 2:3 1:1
1:0 2:1 1:1 2:5 1:5 3:13 4:1 5:6 2:3 1:1 3:44
2:0 1:1 2:5 1:5 3:13 4:1 5:6 2:3 1:1 3:44 4:2
1:0 2:5 1:5 3:13 4:1 5:6 2:3 1:1 3:44 4:2 3:1
2:0 1:5 3:13 4:1 5:6 2:3 1:1 3:44 4:2 3:1 4:3
1:0 3:13 4:1 5:6 2:3 1:1 3:44 4:2 3:1 4:3 3:1
3:0 4:1 5:6 2:3 1:1 3:44 4:2 3:1 4:3 3:1 4:1
4:0 5:6 2:3 1:1 3:44 4:2 3:1 4:3 3:1 4:1 5:8
5:0 2:3 1:1 3:44 4:2 3:1 4:3 3:1 4:1 5:8 2:3
2:0 1:1 3:44 4:2 3:1 4:3 3:1 4:1 5:8 2:3 1:11
1:0 3:44 4:2 3:1 4:3 3:1 4:1 5:8 2:3 1:11
3:0 4:2 3:1 4:3 3:1 4:1 5:8 2:3 1:11
4:0 3:1 4:3 3:1 4:1 5:8 2:3 1:11
3:0 4:3 3:1 4:1 5:8 2:3 1:11
4:0 3:1 4:1 5:8 2:3 1:11
3:0 4:1 5:8 2:3 1:11
4:0 5:8 2:3 1:11
5:0 2:3 1:11
2:0 1:11
1:0