2:0 3:4 1:19 3:5 2:17 1:1 3:4 2:32 1:1 3:5 2:6
3:0 1:19 3:5 2:17 1:1 3:4 2:32 1:1 3:5 2:6 3:1
1:0 3:5 2:17 1:1 3:4 2:32 1:1 3:5 2:6 3:1 1:22
3:0 2:17 1:1 3:4 2:32 1:1 3:5 2:6 3:1 1:22 3:5
2:0 1:1 3:4 2:32 1:1 3:5 2:6 3:1 1:22 3:5 2:18
1:0 3:4 2:32 1:1 3:5 2:6 3:1 1:22 3:5 2:18 1:1
3:0 2:32 1:1 3:5 2:6 3:1 1:22 3:5 2:18 1:1 3:6
2:0 1:1 3:5 2:6 3:1 1:22 3:5 2:18 1:1 3:6 1:32
1:0 3:5 2:6 3:1 1:22 3:5 2:18 1:1 3:6 1:32 3:5
3:0 2:6 3:1 1:22 3:5 2:18 1:1 3:6 1:32 3:5 1:19
2:0 3:1 1:22 3:5 2:18 1:1 3:6 1:32 3:5 1:19 3:5
3:0 1:22 3:5 2:18 1:1 3:6 1:32 3:5 1:19 3:5 2:6
1:0 3:5 2:18 1:1 3:6 1:32 3:5 1:19 3:5 2:6 3:2
3:0 2:18 1:1 3:6 1:32 3:5 1:19 3:5 2:6 3:2 1:13
2:0 1:1 3:6 1:32 3:5 1:19 3:5 2:6 3:2 1:13 2:8
1:0 3:6 1:32 3:5 1:19 3:5 2:6 3:2 1:13 2:8 1:1
3:0 1:32 3:5 1:19 3:5 2:6 3:2 1:13 2:8 1:1 3:5
1:0 3:5 1:19 3:5 2:6 3:2 1:13 2:8 1:1 3:5 1:32
3:0 1:19 3:5 2:6 3:2 1:13 2:8 1:1 3:5 1:32 3:5
1:0 3:5 2:6 3:2 1:13 2:8 1:1 3:5 1:32 3:5 2:6
3:0 2:6 3:2 1:13 2:8 1:1 3:5 1:32 3:5 2:6 3:1
2:0 3:2 1:13 2:8 1:1 3:5 1:32 3:5 2:6 3:1 2:22
3:0 1:13 2:8 1:1 3:5 1:32 3:5 2:6 3:1 2:22 1:1
1:0 2:8 1:1 3:5 1:32 3:5 2:6 3:1 2:22 1:1 2:4
2:0 1:1 3:5 1:32 3:5 2:6 3:1 2:22 1:1 2:4 3:1
1:0 3:5 1:32 3:5 2:6 3:1 2:22 1:1 2:4 3:1 1:9
3:0 1:32 3:5 2:6 3:1 2:22 1:1 2:4 3:1 1:9 2:6
1:0 3:5 2:6 3:1 2:22 1:1 2:4 3:1 1:9 2:6 3:4
3:0 2:6 3:1 2:22 1:1 2:4 3:1 1:9 2:6 3:4 2:1
2:0 3:1 2:22 1:1 2:4 3:1 1:9 2:6 3:4 2:1 3:5
3:0 2:22 1:1 2:4 3:1 1:9 2:6 3:4 2:1 3:5 1:17
2:0 1:1 2:4 3:1 1:9 2:6 3:4 2:1 3:5 1:17 3:6
1:0 2:4 3:1 1:9 2:6 3:4 2:1 3:5 1:17 3:6 2:18
2:0 3:1 1:9 2:6 3:4 2:1 3:5 1:17 3:6 2:18 1:1
3:0 1:9 2:6 3:4 2:1 3:5 1:17 3:6 2:18 1:1 3:5
1:0 2:6 3:4 2:1 3:5 1:17 3:6 2:18 1:1 3:5 1:32
2:0 3:4 2:1 3:5 1:17 3:6 2:18 1:1 3:5 1:32 3:5
3:0 2:1 3:5 1:17 3:6 2:18 1:1 3:5 1:32 3:5 1:19
2:0 3:5 1:17 3:6 2:18 1:1 3:5 1:32 3:5 1:19 2:5
3:0 1:17 3:6 2:18 1:1 3:5 1:32 3:5 1:19 2:5 3:1
1:0 3:6 2:18 1:1 3:5 1:32 3:5 1:19 2:5 3:1 2:5
3:0 2:18 1:1 3:5 1:32 3:5 1:19 2:5 3:1 2:5 3:4
2:0 1:1 3:5 1:32 3:5 1:19 2:5 3:1 2:5 3:4 2:18
1:0 3:5 1:32 3:5 1:19 2:5 3:1 2:5 3:4 2:18 1:1
3:0 1:32 3:5 1:19 2:5 3:1 2:5 3:4 2:18 1:1 2:5
1:0 3:5 1:19 2:5 3:1 2:5 3:4 2:18 1:1 2:5 3:1
3:0 1:19 2:5 3:1 2:5 3:4 2:18 1:1 2:5 3:1 1:32
1:0 2:5 3:1 2:5 3:4 2:18 1:1 2:5 3:1 1:32 2:5
2:0 3:1 2:5 3:4 2:18 1:1 2:5 3:1 1:32 2:5 3:1
3:0 2:5 3:4 2:18 1:1 2:5 3:1 1:32 2:5 3:1 2:5
2:0 3:4 2:18 1:1 2:5 3:1 1:32 2:5 3:1 2:5 3:5
3:0 2:18 1:1 2:5 3:1 1:32 2:5 3:1 2:5 3:5 1:19
2:0 1:1 2:5 3:1 1:32 2:5 3:1 2:5 3:5 1:19 3:5
1:0 2:5 3:1 1:32 2:5 3:1 2:5 3:5 1:19 3:5 1:18
2:0 3:1 1:32 2:5 3:1 2:5 3:5 1:19 3:5 1:18 3:6
3:0 1:32 2:5 3:1 2:5 3:5 1:19 3:5 1:18 3:6 1:32
1:0 2:5 3:1 2:5 3:5 1:19 3:5 1:18 3:6 1:32 3:5
2:0 3:1 2:5 3:5 1:19 3:5 1:18 3:6 1:32 3:5 1:19
3:0 2:5 3:5 1:19 3:5 1:18 3:6 1:32 3:5 1:19 2:5
2:0 3:5 1:19 3:5 1:18 3:6 1:32 3:5 1:19 2:5 3:1
3:0 1:19 3:5 1:18 3:6 1:32 3:5 1:19 2:5 3:1 2:5
1:0 3:5 1:18 3:6 1:32 3:5 1:19 2:5 3:1 2:5 3:3
3:0 1:18 3:6 1:32 3:5 1:19 2:5 3:1 2:5 3:3 1:11
1:0 3:6 1:32 3:5 1:19 2:5 3:1 2:5 3:3 1:11 3:6
3:0 1:32 3:5 1:19 2:5 3:1 2:5 3:3 1:11 3:6 1:18
1:0 3:5 1:19 2:5 3:1 2:5 3:3 1:11 3:6 1:18 2:1
3:0 1:19 2:5 3:1 2:5 3:3 1:11 3:6 1:18 2:1 1:1
1:0 2:5 3:1 2:5 3:3 1:11 3:6 1:18 2:1 1:1 3:3
2:0 3:1 2:5 3:3 1:11 3:6 1:18 2:1 1:1 3:3 2:6
3:0 2:5 3:3 1:11 3:6 1:18 2:1 1:1 3:3 2:6 3:1
2:0 3:3 1:11 3:6 1:18 2:1 1:1 3:3 2:6 3:1 1:13
3:0 1:11 3:6 1:18 2:1 1:1 3:3 2:6 3:1 1:13 3:8
1:0 3:6 1:18 2:1 1:1 3:3 2:6 3:1 1:13 3:8 1:1
3:0 1:18 2:1 1:1 3:3 2:6 3:1 1:13 3:8 1:1 2:1
1:0 2:1 1:1 3:3 2:6 3:1 1:13 3:8 1:1 2:1 3:3
2:0 1:1 3:3 2:6 3:1 1:13 3:8 1:1 2:1 3:3 1:9
1:0 3:3 2:6 3:1 1:13 3:8 1:1 2:1 3:3 1:9 3:5
3:0 2:6 3:1 1:13 3:8 1:1 2:1 3:3 1:9 3:5 2:6
2:0 3:1 1:13 3:8 1:1 2:1 3:3 1:9 3:5 2:6 3:4
3:0 1:13 3:8 1:1 2:1 3:3 1:9 3:5 2:6 3:4 1:20
1:0 3:8 1:1 2:1 3:3 1:9 3:5 2:6 3:4 1:20 3:5
3:0 1:1 2:1 3:3 1:9 3:5 2:6 3:4 1:20 3:5 1:18
1:0 2:1 3:3 1:9 3:5 2:6 3:4 1:20 3:5 1:18 3:5
2:0 3:3 1:9 3:5 2:6 3:4 1:20 3:5 1:18 3:5 2:33
3:0 1:9 3:5 2:6 3:4 1:20 3:5 1:18 3:5 2:33 1:1
1:0 3:5 2:6 3:4 1:20 3:5 1:18 3:5 2:33 1:1 2:6
3:0 2:6 3:4 1:20 3:5 1:18 3:5 2:33 1:1 2:6 3:4
2:0 3:4 1:20 3:5 1:18 3:5 2:33 1:1 2:6 3:4 2:1
3:0 1:20 3:5 1:18 3:5 2:33 1:1 2:6 3:4 2:1 3:4
1:0 3:5 1:18 3:5 2:33 1:1 2:6 3:4 2:1 3:4 1:19
3:0 1:18 3:5 2:33 1:1 2:6 3:4 2:1 3:4 1:19 3:6
1:0 3:5 2:33 1:1 2:6 3:4 2:1 3:4 1:19 3:6 1:18
3:0 2:33 1:1 2:6 3:4 2:1 3:4 1:19 3:6 1:18 3:6
2:0 1:1 2:6 3:4 2:1 3:4 1:19 3:6 1:18 3:6 2:30
1:0 2:6 3:4 2:1 3:4 1:19 3:6 1:18 3:6 2:30 1:1
2:0 3:4 2:1 3:4 1:19 3:6 1:18 3:6 2:30 1:1 3:6
3:0 2:1 3:4 1:19 3:6 1:18 3:6 2:30 1:1 3:6 1:20
2:0 3:4 1:19 3:6 1:18 3:6 2:30 1:1 3:6 1:20 3:7
3:0 1:19 3:6 1:18 3:6 2:30 1:1 3:6 1:20 3:7 1:2
1:0 3:6 1:18 3:6 2:30 1:1 3:6 1:20 3:7 1:2 2:1
3:0 1:18 3:6 2:30 1:1 3:6 1:20 3:7 1:2 2:1 3:3
1:0 3:6 2:30 1:1 3:6 1:20 3:7 1:2 2:1 3:3 1:9
3:0 2:30 1:1 3:6 1:20 3:7 1:2 2:1 3:3 1:9 3:7
2:0 1:1 3:6 1:20 3:7 1:2 2:1 3:3 1:9 3:7 2:4
1:0 3:6 1:20 3:7 1:2 2:1 3:3 1:9 3:7 2:4 3:5
3:0 1:20 3:7 1:2 2:1 3:3 1:9 3:7 2:4 3:5 1:9
1:0 3:7 1:2 2:1 3:3 1:9 3:7 2:4 3:5 1:9 3:6
3:0 1:2 2:1 3:3 1:9 3:7 2:4 3:5 1:9 3:6 1:18
1:0 2:1 3:3 1:9 3:7 2:4 3:5 1:9 3:6 1:18 2:5
2:0 3:3 1:9 3:7 2:4 3:5 1:9 3:6 1:18 2:5 3:1
3:0 1:9 3:7 2:4 3:5 1:9 3:6 1:18 2:5 3:1 2:5
1:0 3:7 2:4 3:5 1:9 3:6 1:18 2:5 3:1 2:5 3:2
3:0 2:4 3:5 1:9 3:6 1:18 2:5 3:1 2:5 3:2 1:21
2:0 3:5 1:9 3:6 1:18 2:5 3:1 2:5 3:2 1:21 3:5
3:0 1:9 3:6 1:18 2:5 3:1 2:5 3:2 1:21 3:5 2:18
1:0 3:6 1:18 2:5 3:1 2:5 3:2 1:21 3:5 2:18 1:1
3:0 1:18 2:5 3:1 2:5 3:2 1:21 3:5 2:18 1:1 3:5
1:0 2:5 3:1 2:5 3:2 1:21 3:5 2:18 1:1 3:5 1:31
2:0 3:1 2:5 3:2 1:21 3:5 2:18 1:1 3:5 1:31 3:6
3:0 2:5 3:2 1:21 3:5 2:18 1:1 3:5 1:31 3:6 2:6
2:0 3:2 1:21 3:5 2:18 1:1 3:5 1:31 3:6 2:6 3:1
3:0 1:21 3:5 2:18 1:1 3:5 1:31 3:6 2:6 3:1 1:12
1:0 3:5 2:18 1:1 3:5 1:31 3:6 2:6 3:1 1:12 3:5
3:0 2:18 1:1 3:5 1:31 3:6 2:6 3:1 1:12 3:5 1:20
2:0 1:1 3:5 1:31 3:6 2:6 3:1 1:12 3:5 1:20 2:6
1:0 3:5 1:31 3:6 2:6 3:1 1:12 3:5 1:20 2:6 3:4
3:0 1:31 3:6 2:6 3:1 1:12 3:5 1:20 2:6 3:4 2:1
1:0 3:6 2:6 3:1 1:12 3:5 1:20 2:6 3:4 2:1 3:4
3:0 2:6 3:1 1:12 3:5 1:20 2:6 3:4 2:1 3:4 1:19
2:0 3:1 1:12 3:5 1:20 2:6 3:4 2:1 3:4 1:19 3:5
3:0 1:12 3:5 1:20 2:6 3:4 2:1 3:4 1:19 3:5 2:17
1:0 3:5 1:20 2:6 3:4 2:1 3:4 1:19 3:5 2:17 1:1
3:0 1:20 2:6 3:4 2:1 3:4 1:19 3:5 2:17 1:1 3:6
1:0 2:6 3:4 2:1 3:4 1:19 3:5 2:17 1:1 3:6 1:32
2:0 3:4 2:1 3:4 1:19 3:5 2:17 1:1 3:6 1:32 3:6
3:0 2:1 3:4 1:19 3:5 2:17 1:1 3:6 1:32 3:6 2:6
2:0 3:4 1:19 3:5 2:17 1:1 3:6 1:32 3:6 2:6 3:1
3:0 1:19 3:5 2:17 1:1 3:6 1:32 3:6 2:6 3:1 1:13
1:0 3:5 2:17 1:1 3:6 1:32 3:6 2:6 3:1 1:13 2:7
3:0 2:17 1:1 3:6 1:32 3:6 2:6 3:1 1:13 2:7 3:2
2:0 1:1 3:6 1:32 3:6 2:6 3:1 1:13 2:7 3:2 1:1
1:0 3:6 1:32 3:6 2:6 3:1 1:13 2:7 3:2 1:1 3:2
3:0 1:32 3:6 2:6 3:1 1:13 2:7 3:2 1:1 3:2 2:34
1:0 3:6 2:6 3:1 1:13 2:7 3:2 1:1 3:2 2:34 1:1
3:0 2:6 3:1 1:13 2:7 3:2 1:1 3:2 2:34 1:1 2:5
2:0 3:1 1:13 2:7 3:2 1:1 3:2 2:34 1:1 2:5 3:4
3:0 1:13 2:7 3:2 1:1 3:2 2:34 1:1 2:5 3:4 2:1
1:0 2:7 3:2 1:1 3:2 2:34 1:1 2:5 3:4 2:1 3:5
2:0 3:2 1:1 3:2 2:34 1:1 2:5 3:4 2:1 3:5 1:19
3:0 1:1 3:2 2:34 1:1 2:5 3:4 2:1 3:5 1:19 3:5
1:0 3:2 2:34 1:1 2:5 3:4 2:1 3:5 1:19 3:5 2:17
3:0 2:34 1:1 2:5 3:4 2:1 3:5 1:19 3:5 2:17 1:1
2:0 1:1 2:5 3:4 2:1 3:5 1:19 3:5 2:17 1:1 3:6
1:0 2:5 3:4 2:1 3:5 1:19 3:5 2:17 1:1 3:6 1:31
2:0 3:4 2:1 3:5 1:19 3:5 2:17 1:1 3:6 1:31 3:5
3:0 2:1 3:5 1:19 3:5 2:17 1:1 3:6 1:31 3:5 1:20
2:0 3:5 1:19 3:5 2:17 1:1 3:6 1:31 3:5 1:20 3:5
3:0 1:19 3:5 2:17 1:1 3:6 1:31 3:5 1:20 3:5 2:5
1:0 3:5 2:17 1:1 3:6 1:31 3:5 1:20 3:5 2:5 3:2
3:0 2:17 1:1 3:6 1:31 3:5 1:20 3:5 2:5 3:2 1:11
2:0 1:1 3:6 1:31 3:5 1:20 3:5 2:5 3:2 1:11 3:6
1:0 3:6 1:31 3:5 1:20 3:5 2:5 3:2 1:11 3:6 1:19
3:0 1:31 3:5 1:20 3:5 2:5 3:2 1:11 3:6 1:19 2:6
1:0 3:5 1:20 3:5 2:5 3:2 1:11 3:6 1:19 2:6 3:10
3:0 1:20 3:5 2:5 3:2 1:11 3:6 1:19 2:6 3:10 1:18
1:0 3:5 2:5 3:2 1:11 3:6 1:19 2:6 3:10 1:18 3:6
3:0 2:5 3:2 1:11 3:6 1:19 2:6 3:10 1:18 3:6 1:12
2:0 3:2 1:11 3:6 1:19 2:6 3:10 1:18 3:6 1:12 3:1
3:0 1:11 3:6 1:19 2:6 3:10 1:18 3:6 1:12 3:1 2:2
1:0 3:6 1:19 2:6 3:10 1:18 3:6 1:12 3:1 2:2 1:1
3:0 1:19 2:6 3:10 1:18 3:6 1:12 3:1 2:2 1:1 3:7
1:0 2:6 3:10 1:18 3:6 1:12 3:1 2:2 1:1 3:7 1:33
2:0 3:10 1:18 3:6 1:12 3:1 2:2 1:1 3:7 1:33 3:5
3:0 1:18 3:6 1:12 3:1 2:2 1:1 3:7 1:33 3:5 1:19
1:0 3:6 1:12 3:1 2:2 1:1 3:7 1:33 3:5 1:19 2:5
3:0 1:12 3:1 2:2 1:1 3:7 1:33 3:5 1:19 2:5 3:1
1:0 3:1 2:2 1:1 3:7 1:33 3:5 1:19 2:5 3:1 2:5
3:0 2:2 1:1 3:7 1:33 3:5 1:19 2:5 3:1 2:5 3:5
2:0 1:1 3:7 1:33 3:5 1:19 2:5 3:1 2:5 3:5 1:19
1:0 3:7 1:33 3:5 1:19 2:5 3:1 2:5 3:5 1:19 2:4
3:0 1:33 3:5 1:19 2:5 3:1 2:5 3:5 1:19 2:4 3:1
1:0 3:5 1:19 2:5 3:1 2:5 3:5 1:19 2:4 3:1 1:32
3:0 1:19 2:5 3:1 2:5 3:5 1:19 2:4 3:1 1:32 3:1
1:0 2:5 3:1 2:5 3:5 1:19 2:4 3:1 1:32 3:1 1:1
2:0 3:1 2:5 3:5 1:19 2:4 3:1 1:32 3:1 1:1 3:3
3:0 2:5 3:5 1:19 2:4 3:1 1:32 3:1 1:1 3:3 1:19
2:0 3:5 1:19 2:4 3:1 1:32 3:1 1:1 3:3 1:19 3:5
3:0 1:19 2:4 3:1 1:32 3:1 1:1 3:3 1:19 3:5 2:6
1:0 2:4 3:1 1:32 3:1 1:1 3:3 1:19 3:5 2:6 3:5
2:0 3:1 1:32 3:1 1:1 3:3 1:19 3:5 2:6 3:5 1:19
3:0 1:32 3:1 1:1 3:3 1:19 3:5 2:6 3:5 1:19 3:5
1:0 3:1 1:1 3:3 1:19 3:5 2:6 3:5 1:19 3:5 1:19
3:0 1:1 3:3 1:19 3:5 2:6 3:5 1:19 3:5 1:19 3:5
1:0 3:3 1:19 3:5 2:6 3:5 1:19 3:5 1:19 3:5 1:32
3:0 1:19 3:5 2:6 3:5 1:19 3:5 1:19 3:5 1:32 3:5
1:0 3:5 2:6 3:5 1:19 3:5 1:19 3:5 1:32 3:5 2:6
3:0 2:6 3:5 1:19 3:5 1:19 3:5 1:32 3:5 2:6 3:1
2:0 3:5 1:19 3:5 1:19 3:5 1:32 3:5 2:6 3:1 1:13
3:0 1:19 3:5 1:19 3:5 1:32 3:5 2:6 3:1 1:13 3:5
1:0 3:5 1:19 3:5 1:32 3:5 2:6 3:1 1:13 3:5 1:18
3:0 1:19 3:5 1:32 3:5 2:6 3:1 1:13 3:5 1:18 3:6
1:0 3:5 1:32 3:5 2:6 3:1 1:13 3:5 1:18 3:6 1:29
3:0 1:32 3:5 2:6 3:1 1:13 3:5 1:18 3:6 1:29 3:5
1:0 3:5 2:6 3:1 1:13 3:5 1:18 3:6 1:29 3:5 1:19
3:0 2:6 3:1 1:13 3:5 1:18 3:6 1:29 3:5 1:19 3:5
2:0 3:1 1:13 3:5 1:18 3:6 1:29 3:5 1:19 3:5 1:31
3:0 1:13 3:5 1:18 3:6 1:29 3:5 1:19 3:5 1:31 3:6
1:0 3:5 1:18 3:6 1:29 3:5 1:19 3:5 1:31 3:6 2:18
3:0 1:18 3:6 1:29 3:5 1:19 3:5 1:31 3:6 2:18 1:1
1:0 3:6 1:29 3:5 1:19 3:5 1:31 3:6 2:18 1:1 3:5
3:0 1:29 3:5 1:19 3:5 1:31 3:6 2:18 1:1 3:5 1:20
1:0 3:5 1:19 3:5 1:31 3:6 2:18 1:1 3:5 1:20 3:6
3:0 1:19 3:5 1:31 3:6 2:18 1:1 3:5 1:20 3:6 1:17
1:0 3:5 1:31 3:6 2:18 1:1 3:5 1:20 3:6 1:17 3:1
3:0 1:31 3:6 2:18 1:1 3:5 1:20 3:6 1:17 3:1 1:1
1:0 3:6 2:18 1:1 3:5 1:20 3:6 1:17 3:1 1:1 3:3
3:0 2:18 1:1 3:5 1:20 3:6 1:17 3:1 1:1 3:3 2:6
2:0 1:1 3:5 1:20 3:6 1:17 3:1 1:1 3:3 2:6 3:4
1:0 3:5 1:20 3:6 1:17 3:1 1:1 3:3 2:6 3:4 1:20
3:0 1:20 3:6 1:17 3:1 1:1 3:3 2:6 3:4 1:20 3:6
1:0 3:6 1:17 3:1 1:1 3:3 2:6 3:4 1:20 3:6 1:18
3:0 1:17 3:1 1:1 3:3 2:6 3:4 1:20 3:6 1:18 3:5
1:0 3:1 1:1 3:3 2:6 3:4 1:20 3:6 1:18 3:5 2:31
3:0 1:1 3:3 2:6 3:4 1:20 3:6 1:18 3:5 2:31 1:1
1:0 3:3 2:6 3:4 1:20 3:6 1:18 3:5 2:31 1:1 2:5
3:0 2:6 3:4 1:20 3:6 1:18 3:5 2:31 1:1 2:5 3:1
2:0 3:4 1:20 3:6 1:18 3:5 2:31 1:1 2:5 3:1 2:5
3:0 1:20 3:6 1:18 3:5 2:31 1:1 2:5 3:1 2:5 3:1
1:0 3:6 1:18 3:5 2:31 1:1 2:5 3:1 2:5 3:1 1:23
3:0 1:18 3:5 2:31 1:1 2:5 3:1 2:5 3:1 1:23 3:5
1:0 3:5 2:31 1:1 2:5 3:1 2:5 3:1 1:23 3:5 1:32
3:0 2:31 1:1 2:5 3:1 2:5 3:1 1:23 3:5 1:32 2:1
2:0 1:1 2:5 3:1 2:5 3:1 1:23 3:5 1:32 2:1 1:1
1:0 2:5 3:1 2:5 3:1 1:23 3:5 1:32 2:1 1:1 3:3
2:0 3:1 2:5 3:1 1:23 3:5 1:32 2:1 1:1 3:3 2:19
3:0 2:5 3:1 1:23 3:5 1:32 2:1 1:1 3:3 2:19 1:1
2:0 3:1 1:23 3:5 1:32 2:1 1:1 3:3 2:19 1:1 2:5
3:0 1:23 3:5 1:32 2:1 1:1 3:3 2:19 1:1 2:5 3:1
1:0 3:5 1:32 2:1 1:1 3:3 2:19 1:1 2:5 3:1 1:17
3:0 1:32 2:1 1:1 3:3 2:19 1:1 2:5 3:1 1:17 3:6
1:0 2:1 1:1 3:3 2:19 1:1 2:5 3:1 1:17 3:6 1:17
2:0 1:1 3:3 2:19 1:1 2:5 3:1 1:17 3:6 1:17 3:6
1:0 3:3 2:19 1:1 2:5 3:1 1:17 3:6 1:17 3:6 1:19
3:0 2:19 1:1 2:5 3:1 1:17 3:6 1:17 3:6 1:19 3:6
2:0 1:1 2:5 3:1 1:17 3:6 1:17 3:6 1:19 3:6 1:18
1:0 2:5 3:1 1:17 3:6 1:17 3:6 1:19 3:6 1:18 3:5
2:0 3:1 1:17 3:6 1:17 3:6 1:19 3:6 1:18 3:5 2:6
3:0 1:17 3:6 1:17 3:6 1:19 3:6 1:18 3:5 2:6 3:2
1:0 3:6 1:17 3:6 1:19 3:6 1:18 3:5 2:6 3:2 1:12
3:0 1:17 3:6 1:19 3:6 1:18 3:5 2:6 3:2 1:12 3:5
1:0 3:6 1:19 3:6 1:18 3:5 2:6 3:2 1:12 3:5 1:18
3:0 1:19 3:6 1:18 3:5 2:6 3:2 1:12 3:5 1:18 3:6
1:0 3:6 1:18 3:5 2:6 3:2 1:12 3:5 1:18 3:6 2:6
3:0 1:18 3:5 2:6 3:2 1:12 3:5 1:18 3:6 2:6 3:1
1:0 3:5 2:6 3:2 1:12 3:5 1:18 3:6 2:6 3:1 1:21
3:0 2:6 3:2 1:12 3:5 1:18 3:6 2:6 3:1 1:21 3:6
2:0 3:2 1:12 3:5 1:18 3:6 2:6 3:1 1:21 3:6 2:17
3:0 1:12 3:5 1:18 3:6 2:6 3:1 1:21 3:6 2:17 1:1
1:0 3:5 1:18 3:6 2:6 3:1 1:21 3:6 2:17 1:1 3:6
3:0 1:18 3:6 2:6 3:1 1:21 3:6 2:17 1:1 3:6 2:31
1:0 3:6 2:6 3:1 1:21 3:6 2:17 1:1 3:6 2:31 1:1
3:0 2:6 3:1 1:21 3:6 2:17 1:1 3:6 2:31 1:1 3:3
2:0 3:1 1:21 3:6 2:17 1:1 3:6 2:31 1:1 3:3 1:21
3:0 1:21 3:6 2:17 1:1 3:6 2:31 1:1 3:3 1:21 3:6
1:0 3:6 2:17 1:1 3:6 2:31 1:1 3:3 1:21 3:6 1:19
3:0 2:17 1:1 3:6 2:31 1:1 3:3 1:21 3:6 1:19 2:5
2:0 1:1 3:6 2:31 1:1 3:3 1:21 3:6 1:19 2:5 3:4
1:0 3:6 2:31 1:1 3:3 1:21 3:6 1:19 2:5 3:4 2:1
3:0 2:31 1:1 3:3 1:21 3:6 1:19 2:5 3:4 2:1 3:5
2:0 1:1 3:3 1:21 3:6 1:19 2:5 3:4 2:1 3:5 1:19
1:0 3:3 1:21 3:6 1:19 2:5 3:4 2:1 3:5 1:19 2:5
3:0 1:21 3:6 1:19 2:5 3:4 2:1 3:5 1:19 2:5 3:1
1:0 3:6 1:19 2:5 3:4 2:1 3:5 1:19 2:5 3:1 2:17
3:0 1:19 2:5 3:4 2:1 3:5 1:19 2:5 3:1 2:17 1:1
1:0 2:5 3:4 2:1 3:5 1:19 2:5 3:1 2:17 1:1 3:5
2:0 3:4 2:1 3:5 1:19 2:5 3:1 2:17 1:1 3:5 1:32
3:0 2:1 3:5 1:19 2:5 3:1 2:17 1:1 3:5 1:32 3:5
2:0 3:5 1:19 2:5 3:1 2:17 1:1 3:5 1:32 3:5 1:19
3:0 1:19 2:5 3:1 2:17 1:1 3:5 1:32 3:5 1:19 3:4
1:0 2:5 3:1 2:17 1:1 3:5 1:32 3:5 1:19 3:4 1:20
2:0 3:1 2:17 1:1 3:5 1:32 3:5 1:19 3:4 1:20 3:5
3:0 2:17 1:1 3:5 1:32 3:5 1:19 3:4 1:20 3:5 2:19
2:0 1:1 3:5 1:32 3:5 1:19 3:4 1:20 3:5 2:19 1:1
1:0 3:5 1:32 3:5 1:19 3:4 1:20 3:5 2:19 1:1 2:7
3:0 1:32 3:5 1:19 3:4 1:20 3:5 2:19 1:1 2:7 3:3
1:0 3:5 1:19 3:4 1:20 3:5 2:19 1:1 2:7 3:3 2:1
3:0 1:19 3:4 1:20 3:5 2:19 1:1 2:7 3:3 2:1 3:5
1:0 3:4 1:20 3:5 2:19 1:1 2:7 3:3 2:1 3:5 1:19
3:0 1:20 3:5 2:19 1:1 2:7 3:3 2:1 3:5 1:19 3:5
1:0 3:5 2:19 1:1 2:7 3:3 2:1 3:5 1:19 3:5 1:18
3:0 2:19 1:1 2:7 3:3 2:1 3:5 1:19 3:5 1:18 3:6
2:0 1:1 2:7 3:3 2:1 3:5 1:19 3:5 1:18 3:6 1:31
1:0 2:7 3:3 2:1 3:5 1:19 3:5 1:18 3:6 1:31 3:5
2:0 3:3 2:1 3:5 1:19 3:5 1:18 3:6 1:31 3:5 2:18
3:0 2:1 3:5 1:19 3:5 1:18 3:6 1:31 3:5 2:18 1:1
2:0 3:5 1:19 3:5 1:18 3:6 1:31 3:5 2:18 1:1 3:5
3:0 1:19 3:5 1:18 3:6 1:31 3:5 2:18 1:1 3:5 1:19
1:0 3:5 1:18 3:6 1:31 3:5 2:18 1:1 3:5 1:19 3:6
3:0 1:18 3:6 1:31 3:5 2:18 1:1 3:5 1:19 3:6 4:12
1:0 3:6 1:31 3:5 2:18 1:1 3:5 1:19 3:6 4:12 3:1
3:0 1:31 3:5 2:18 1:1 3:5 1:19 3:6 4:12 3:1 2:5
1:0 3:5 2:18 1:1 3:5 1:19 3:6 4:12 3:1 2:5 1:1
3:0 2:18 1:1 3:5 1:19 3:6 4:12 3:1 2:5 1:1 2:5
2:0 1:1 3:5 1:19 3:6 4:12 3:1 2:5 1:1 2:5 3:4
1:0 3:5 1:19 3:6 4:12 3:1 2:5 1:1 2:5 3:4 2:1
3:0 1:19 3:6 4:12 3:1 2:5 1:1 2:5 3:4 2:1 1:1
1:0 3:6 4:12 3:1 2:5 1:1 2:5 3:4 2:1 1:1 2:2
3:0 4:12 3:1 2:5 1:1 2:5 3:4 2:1 1:1 2:2 3:2
4:0 3:1 2:5 1:1 2:5 3:4 2:1 1:1 2:2 3:2 1:19
3:0 2:5 1:1 2:5 3:4 2:1 1:1 2:2 3:2 1:19 3:5
2:0 1:1 2:5 3:4 2:1 1:1 2:2 3:2 1:19 3:5 1:10
1:0 2:5 3:4 2:1 1:1 2:2 3:2 1:19 3:5 1:10 3:7
2:0 3:4 2:1 1:1 2:2 3:2 1:19 3:5 1:10 3:7 2:3
3:0 2:1 1:1 2:2 3:2 1:19 3:5 1:10 3:7 2:3 1:1
2:0 1:1 2:2 3:2 1:19 3:5 1:10 3:7 2:3 1:1 2:3
1:0 2:2 3:2 1:19 3:5 1:10 3:7 2:3 1:1 2:3 3:1
2:0 3:2 1:19 3:5 1:10 3:7 2:3 1:1 2:3 3:1 1:19
3:0 1:19 3:5 1:10 3:7 2:3 1:1 2:3 3:1 1:19 3:5
1:0 3:5 1:10 3:7 2:3 1:1 2:3 3:1 1:19 3:5 2:17
3:0 1:10 3:7 2:3 1:1 2:3 3:1 1:19 3:5 2:17 1:1
1:0 3:7 2:3 1:1 2:3 3:1 1:19 3:5 2:17 1:1 3:6
3:0 2:3 1:1 2:3 3:1 1:19 3:5 2:17 1:1 3:6 1:31
2:0 1:1 2:3 3:1 1:19 3:5 2:17 1:1 3:6 1:31 3:5
1:0 2:3 3:1 1:19 3:5 2:17 1:1 3:6 1:31 3:5 2:7
2:0 3:1 1:19 3:5 2:17 1:1 3:6 1:31 3:5 2:7 3:1
3:0 1:19 3:5 2:17 1:1 3:6 1:31 3:5 2:7 3:1 1:12
1:0 3:5 2:17 1:1 3:6 1:31 3:5 2:7 3:1 1:12 3:6
3:0 2:17 1:1 3:6 1:31 3:5 2:7 3:1 1:12 3:6 1:17
2:0 1:1 3:6 1:31 3:5 2:7 3:1 1:12 3:6 1:17 2:5
1:0 3:6 1:31 3:5 2:7 3:1 1:12 3:6 1:17 2:5 3:2
3:0 1:31 3:5 2:7 3:1 1:12 3:6 1:17 2:5 3:2 2:4
1:0 3:5 2:7 3:1 1:12 3:6 1:17 2:5 3:2 2:4 3:1
3:0 2:7 3:1 1:12 3:6 1:17 2:5 3:2 2:4 3:1 1:12
2:0 3:1 1:12 3:6 1:17 2:5 3:2 2:4 3:1 1:12 3:6
3:0 1:12 3:6 1:17 2:5 3:2 2:4 3:1 1:12 3:6 1:19
1:0 3:6 1:17 2:5 3:2 2:4 3:1 1:12 3:6 1:19 3:5
3:0 1:17 2:5 3:2 2:4 3:1 1:12 3:6 1:19 3:5 2:7
1:0 2:5 3:2 2:4 3:1 1:12 3:6 1:19 3:5 2:7 3:1
2:0 3:2 2:4 3:1 1:12 3:6 1:19 3:5 2:7 3:1 1:11
3:0 2:4 3:1 1:12 3:6 1:19 3:5 2:7 3:1 1:11 3:6
2:0 3:1 1:12 3:6 1:19 3:5 2:7 3:1 1:11 3:6 1:17
3:0 1:12 3:6 1:19 3:5 2:7 3:1 1:11 3:6 1:17 3:6
1:0 3:6 1:19 3:5 2:7 3:1 1:11 3:6 1:17 3:6 2:5
3:0 1:19 3:5 2:7 3:1 1:11 3:6 1:17 3:6 2:5 3:4
1:0 3:5 2:7 3:1 1:11 3:6 1:17 3:6 2:5 3:4 2:19
3:0 2:7 3:1 1:11 3:6 1:17 3:6 2:5 3:4 2:19 1:1
2:0 3:1 1:11 3:6 1:17 3:6 2:5 3:4 2:19 1:1 2:5
3:0 1:11 3:6 1:17 3:6 2:5 3:4 2:19 1:1 2:5 3:1
1:0 3:6 1:17 3:6 2:5 3:4 2:19 1:1 2:5 3:1 1:31
3:0 1:17 3:6 2:5 3:4 2:19 1:1 2:5 3:1 1:31 3:5
1:0 3:6 2:5 3:4 2:19 1:1 2:5 3:1 1:31 3:5 1:19
3:0 2:5 3:4 2:19 1:1 2:5 3:1 1:31 3:5 1:19 2:5
2:0 3:4 2:19 1:1 2:5 3:1 1:31 3:5 1:19 2:5 3:1
3:0 2:19 1:1 2:5 3:1 1:31 3:5 1:19 2:5 3:1 2:5
2:0 1:1 2:5 3:1 1:31 3:5 1:19 2:5 3:1 2:5 3:1
1:0 2:5 3:1 1:31 3:5 1:19 2:5 3:1 2:5 3:1 1:23
2:0 3:1 1:31 3:5 1:19 2:5 3:1 2:5 3:1 1:23 3:5
3:0 1:31 3:5 1:19 2:5 3:1 2:5 3:1 1:23 3:5 1:19
1:0 3:5 1:19 2:5 3:1 2:5 3:1 1:23 3:5 1:19 3:6
3:0 1:19 2:5 3:1 2:5 3:1 1:23 3:5 1:19 3:6 1:31
1:0 2:5 3:1 2:5 3:1 1:23 3:5 1:19 3:6 1:31 3:5
2:0 3:1 2:5 3:1 1:23 3:5 1:19 3:6 1:31 3:5 2:6
3:0 2:5 3:1 1:23 3:5 1:19 3:6 1:31 3:5 2:6 3:4
2:0 3:1 1:23 3:5 1:19 3:6 1:31 3:5 2:6 3:4 1:10
3:0 1:23 3:5 1:19 3:6 1:31 3:5 2:6 3:4 1:10 3:6
1:0 3:5 1:19 3:6 1:31 3:5 2:6 3:4 1:10 3:6 1:17
3:0 1:19 3:6 1:31 3:5 2:6 3:4 1:10 3:6 1:17 3:6
1:0 3:6 1:31 3:5 2:6 3:4 1:10 3:6 1:17 3:6 2:5
3:0 1:31 3:5 2:6 3:4 1:10 3:6 1:17 3:6 2:5 3:2
1:0 3:5 2:6 3:4 1:10 3:6 1:17 3:6 2:5 3:2 1:21
3:0 2:6 3:4 1:10 3:6 1:17 3:6 2:5 3:2 1:21 3:6
2:0 3:4 1:10 3:6 1:17 3:6 2:5 3:2 1:21 3:6 1:19
3:0 1:10 3:6 1:17 3:6 2:5 3:2 1:21 3:6 1:19 3:5
1:0 3:6 1:17 3:6 2:5 3:2 1:21 3:6 1:19 3:5 2:31
3:0 1:17 3:6 2:5 3:2 1:21 3:6 1:19 3:5 2:31 1:1
1:0 3:6 2:5 3:2 1:21 3:6 1:19 3:5 2:31 1:1 2:5
3:0 2:5 3:2 1:21 3:6 1:19 3:5 2:31 1:1 2:5 3:1
2:0 3:2 1:21 3:6 1:19 3:5 2:31 1:1 2:5 3:1 2:5
3:0 1:21 3:6 1:19 3:5 2:31 1:1 2:5 3:1 2:5 3:3
1:0 3:6 1:19 3:5 2:31 1:1 2:5 3:1 2:5 3:3 1:21
3:0 1:19 3:5 2:31 1:1 2:5 3:1 2:5 3:3 1:21 3:5
1:0 3:5 2:31 1:1 2:5 3:1 2:5 3:3 1:21 3:5 1:32
3:0 2:31 1:1 2:5 3:1 2:5 3:3 1:21 3:5 1:32 3:5
2:0 1:1 2:5 3:1 2:5 3:3 1:21 3:5 1:32 3:5 1:19
1:0 2:5 3:1 2:5 3:3 1:21 3:5 1:32 3:5 1:19 2:5
2:0 3:1 2:5 3:3 1:21 3:5 1:32 3:5 1:19 2:5 3:1
3:0 2:5 3:3 1:21 3:5 1:32 3:5 1:19 2:5 3:1 2:6
2:0 3:3 1:21 3:5 1:32 3:5 1:19 2:5 3:1 2:6 3:1
3:0 1:21 3:5 1:32 3:5 1:19 2:5 3:1 2:6 3:1 1:22
1:0 3:5 1:32 3:5 1:19 2:5 3:1 2:6 3:1 1:22 3:5
3:0 1:32 3:5 1:19 2:5 3:1 2:6 3:1 1:22 3:5 1:31
1:0 3:5 1:19 2:5 3:1 2:6 3:1 1:22 3:5 1:31 3:6
3:0 1:19 2:5 3:1 2:6 3:1 1:22 3:5 1:31 3:6 2:18
1:0 2:5 3:1 2:6 3:1 1:22 3:5 1:31 3:6 2:18 1:1
2:0 3:1 2:6 3:1 1:22 3:5 1:31 3:6 2:18 1:1 3:4
3:0 2:6 3:1 1:22 3:5 1:31 3:6 2:18 1:1 3:4 1:21
2:0 3:1 1:22 3:5 1:31 3:6 2:18 1:1 3:4 1:21 3:6
3:0 1:22 3:5 1:31 3:6 2:18 1:1 3:4 1:21 3:6 1:17
1:0 3:5 1:31 3:6 2:18 1:1 3:4 1:21 3:6 1:17 3:5
3:0 1:31 3:6 2:18 1:1 3:4 1:21 3:6 1:17 3:5 2:7
1:0 3:6 2:18 1:1 3:4 1:21 3:6 1:17 3:5 2:7 3:1
3:0 2:18 1:1 3:4 1:21 3:6 1:17 3:5 2:7 3:1 1:12
2:0 1:1 3:4 1:21 3:6 1:17 3:5 2:7 3:1 1:12 3:5
1:0 3:4 1:21 3:6 1:17 3:5 2:7 3:1 1:12 3:5 1:18
3:0 1:21 3:6 1:17 3:5 2:7 3:1 1:12 3:5 1:18 3:5
1:0 3:6 1:17 3:5 2:7 3:1 1:12 3:5 1:18 3:5 2:6
3:0 1:17 3:5 2:7 3:1 1:12 3:5 1:18 3:5 2:6 3:5
1:0 3:5 2:7 3:1 1:12 3:5 1:18 3:5 2:6 3:5 2:16
3:0 2:7 3:1 1:12 3:5 1:18 3:5 2:6 3:5 2:16 1:1
2:0 3:1 1:12 3:5 1:18 3:5 2:6 3:5 2:16 1:1 2:6
3:0 1:12 3:5 1:18 3:5 2:6 3:5 2:16 1:1 2:6 3:1
1:0 3:5 1:18 3:5 2:6 3:5 2:16 1:1 2:6 3:1 1:32
3:0 1:18 3:5 2:6 3:5 2:16 1:1 2:6 3:1 1:32 3:5
1:0 3:5 2:6 3:5 2:16 1:1 2:6 3:1 1:32 3:5 1:19
3:0 2:6 3:5 2:16 1:1 2:6 3:1 1:32 3:5 1:19 2:7
2:0 3:5 2:16 1:1 2:6 3:1 1:32 3:5 1:19 2:7 1:3
3:0 2:16 1:1 2:6 3:1 1:32 3:5 1:19 2:7 1:3 2:1
2:0 1:1 2:6 3:1 1:32 3:5 1:19 2:7 1:3 2:1 1:1
1:0 2:6 3:1 1:32 3:5 1:19 2:7 1:3 2:1 1:1 2:2
2:0 3:1 1:32 3:5 1:19 2:7 1:3 2:1 1:1 2:2 3:2
3:0 1:32 3:5 1:19 2:7 1:3 2:1 1:1 2:2 3:2 1:19
1:0 3:5 1:19 2:7 1:3 2:1 1:1 2:2 3:2 1:19 3:5
3:0 1:19 2:7 1:3 2:1 1:1 2:2 3:2 1:19 3:5 1:32
1:0 2:7 1:3 2:1 1:1 2:2 3:2 1:19 3:5 1:32 3:5
2:0 1:3 2:1 1:1 2:2 3:2 1:19 3:5 1:32 3:5 1:19
1:0 2:1 1:1 2:2 3:2 1:19 3:5 1:32 3:5 1:19 3:6
2:0 1:1 2:2 3:2 1:19 3:5 1:32 3:5 1:19 3:6 2:5
1:0 2:2 3:2 1:19 3:5 1:32 3:5 1:19 3:6 2:5 3:5
2:0 3:2 1:19 3:5 1:32 3:5 1:19 3:6 2:5 3:5 1:18
3:0 1:19 3:5 1:32 3:5 1:19 3:6 2:5 3:5 1:18 3:5
1:0 3:5 1:32 3:5 1:19 3:6 2:5 3:5 1:18 3:5 2:18
3:0 1:32 3:5 1:19 3:6 2:5 3:5 1:18 3:5 2:18 1:1
1:0 3:5 1:19 3:6 2:5 3:5 1:18 3:5 2:18 1:1 3:6
3:0 1:19 3:6 2:5 3:5 1:18 3:5 2:18 1:1 3:6 1:31
1:0 3:6 2:5 3:5 1:18 3:5 2:18 1:1 3:6 1:31 3:5
3:0 2:5 3:5 1:18 3:5 2:18 1:1 3:6 1:31 3:5 1:19
2:0 3:5 1:18 3:5 2:18 1:1 3:6 1:31 3:5 1:19 3:6
3:0 1:18 3:5 2:18 1:1 3:6 1:31 3:5 1:19 3:6 2:6
1:0 3:5 2:18 1:1 3:6 1:31 3:5 1:19 3:6 2:6 3:3
3:0 2:18 1:1 3:6 1:31 3:5 1:19 3:6 2:6 3:3 1:10
2:0 1:1 3:6 1:31 3:5 1:19 3:6 2:6 3:3 1:10 3:5
1:0 3:6 1:31 3:5 1:19 3:6 2:6 3:3 1:10 3:5 1:19
3:0 1:31 3:5 1:19 3:6 2:6 3:3 1:10 3:5 1:19 3:5
1:0 3:5 1:19 3:6 2:6 3:3 1:10 3:5 1:19 3:5 2:6
3:0 1:19 3:6 2:6 3:3 1:10 3:5 1:19 3:5 2:6 3:1
1:0 3:6 2:6 3:3 1:10 3:5 1:19 3:5 2:6 3:1 1:22
3:0 2:6 3:3 1:10 3:5 1:19 3:5 2:6 3:1 1:22 2:5
2:0 3:3 1:10 3:5 1:19 3:5 2:6 3:1 1:22 2:5 3:1
3:0 1:10 3:5 1:19 3:5 2:6 3:1 1:22 2:5 3:1 2:32
1:0 3:5 1:19 3:5 2:6 3:1 1:22 2:5 3:1 2:32 1:1
3:0 1:19 3:5 2:6 3:1 1:22 2:5 3:1 2:32 1:1 2:5
1:0 3:5 2:6 3:1 1:22 2:5 3:1 2:32 1:1 2:5 3:3
3:0 2:6 3:1 1:22 2:5 3:1 2:32 1:1 2:5 3:3 2:3
2:0 3:1 1:22 2:5 3:1 2:32 1:1 2:5 3:3 2:3 3:4
3:0 1:22 2:5 3:1 2:32 1:1 2:5 3:3 2:3 3:4 1:19
1:0 2:5 3:1 2:32 1:1 2:5 3:3 2:3 3:4 1:19 3:5
2:0 3:1 2:32 1:1 2:5 3:3 2:3 3:4 1:19 3:5 1:10
3:0 2:32 1:1 2:5 3:3 2:3 3:4 1:19 3:5 1:10 2:7
2:0 1:1 2:5 3:3 2:3 3:4 1:19 3:5 1:10 2:7 1:2
1:0 2:5 3:3 2:3 3:4 1:19 3:5 1:10 2:7 1:2 3:5
2:0 3:3 2:3 3:4 1:19 3:5 1:10 2:7 1:2 3:5 2:31
3:0 2:3 3:4 1:19 3:5 1:10 2:7 1:2 3:5 2:31 1:1
2:0 3:4 1:19 3:5 1:10 2:7 1:2 3:5 2:31 1:1 2:5
3:0 1:19 3:5 1:10 2:7 1:2 3:5 2:31 1:1 2:5 3:1
1:0 3:5 1:10 2:7 1:2 3:5 2:31 1:1 2:5 3:1 1:18
3:0 1:10 2:7 1:2 3:5 2:31 1:1 2:5 3:1 1:18 3:5
1:0 2:7 1:2 3:5 2:31 1:1 2:5 3:1 1:18 3:5 1:19
2:0 1:2 3:5 2:31 1:1 2:5 3:1 1:18 3:5 1:19 3:6
1:0 3:5 2:31 1:1 2:5 3:1 1:18 3:5 1:19 3:6 1:19
3:0 2:31 1:1 2:5 3:1 1:18 3:5 1:19 3:6 1:19 3:6
2:0 1:1 2:5 3:1 1:18 3:5 1:19 3:6 1:19 3:6 1:17
1:0 2:5 3:1 1:18 3:5 1:19 3:6 1:19 3:6 1:17 2:6
2:0 3:1 1:18 3:5 1:19 3:6 1:19 3:6 1:17 2:6 3:1
3:0 1:18 3:5 1:19 3:6 1:19 3:6 1:17 2:6 3:1 2:5
1:0 3:5 1:19 3:6 1:19 3:6 1:17 2:6 3:1 2:5 3:3
3:0 1:19 3:6 1:19 3:6 1:17 2:6 3:1 2:5 3:3 1:9
1:0 3:6 1:19 3:6 1:17 2:6 3:1 2:5 3:3 1:9 3:6
3:0 1:19 3:6 1:17 2:6 3:1 2:5 3:3 1:9 3:6 1:18
1:0 3:6 1:17 2:6 3:1 2:5 3:3 1:9 3:6 1:18 2:1
3:0 1:17 2:6 3:1 2:5 3:3 1:9 3:6 1:18 2:1 1:1
1:0 2:6 3:1 2:5 3:3 1:9 3:6 1:18 2:1 1:1 3:4
2:0 3:1 2:5 3:3 1:9 3:6 1:18 2:1 1:1 3:4 2:5
3:0 2:5 3:3 1:9 3:6 1:18 2:1 1:1 3:4 2:5 3:5
2:0 3:3 1:9 3:6 1:18 2:1 1:1 3:4 2:5 3:5 1:18
3:0 1:9 3:6 1:18 2:1 1:1 3:4 2:5 3:5 1:18 3:6
1:0 3:6 1:18 2:1 1:1 3:4 2:5 3:5 1:18 3:6 2:17
3:0 1:18 2:1 1:1 3:4 2:5 3:5 1:18 3:6 2:17 1:1
1:0 2:1 1:1 3:4 2:5 3:5 1:18 3:6 2:17 1:1 3:6
2:0 1:1 3:4 2:5 3:5 1:18 3:6 2:17 1:1 3:6 2:32
1:0 3:4 2:5 3:5 1:18 3:6 2:17 1:1 3:6 2:32 1:1
3:0 2:5 3:5 1:18 3:6 2:17 1:1 3:6 2:32 1:1 2:6
2:0 3:5 1:18 3:6 2:17 1:1 3:6 2:32 1:1 2:6 3:3
3:0 1:18 3:6 2:17 1:1 3:6 2:32 1:1 2:6 3:3 2:2
1:0 3:6 2:17 1:1 3:6 2:32 1:1 2:6 3:3 2:2 3:3
3:0 2:17 1:1 3:6 2:32 1:1 2:6 3:3 2:2 3:3 1:20
2:0 1:1 3:6 2:32 1:1 2:6 3:3 2:2 3:3 1:20 3:5
1:0 3:6 2:32 1:1 2:6 3:3 2:2 3:3 1:20 3:5 2:17
3:0 2:32 1:1 2:6 3:3 2:2 3:3 1:20 3:5 2:17 1:1
2:0 1:1 2:6 3:3 2:2 3:3 1:20 3:5 2:17 1:1 3:6
1:0 2:6 3:3 2:2 3:3 1:20 3:5 2:17 1:1 3:6 1:32
2:0 3:3 2:2 3:3 1:20 3:5 2:17 1:1 3:6 1:32 3:5
3:0 2:2 3:3 1:20 3:5 2:17 1:1 3:6 1:32 3:5 1:19
2:0 3:3 1:20 3:5 2:17 1:1 3:6 1:32 3:5 1:19 3:6
3:0 1:20 3:5 2:17 1:1 3:6 1:32 3:5 1:19 3:6 1:18
1:0 3:5 2:17 1:1 3:6 1:32 3:5 1:19 3:6 1:18 3:5
3:0 2:17 1:1 3:6 1:32 3:5 1:19 3:6 1:18 3:5 1:20
2:0 1:1 3:6 1:32 3:5 1:19 3:6 1:18 3:5 1:20 2:5
1:0 3:6 1:32 3:5 1:19 3:6 1:18 3:5 1:20 2:5 3:2
3:0 1:32 3:5 1:19 3:6 1:18 3:5 1:20 2:5 3:2 2:3
1:0 3:5 1:19 3:6 1:18 3:5 1:20 2:5 3:2 2:3 3:5
3:0 1:19 3:6 1:18 3:5 1:20 2:5 3:2 2:3 3:5 1:19
1:0 3:6 1:18 3:5 1:20 2:5 3:2 2:3 3:5 1:19 3:5
3:0 1:18 3:5 1:20 2:5 3:2 2:3 3:5 1:19 3:5 2:17
1:0 3:5 1:20 2:5 3:2 2:3 3:5 1:19 3:5 2:17 1:1
3:0 1:20 2:5 3:2 2:3 3:5 1:19 3:5 2:17 1:1 3:6
1:0 2:5 3:2 2:3 3:5 1:19 3:5 2:17 1:1 3:6 1:32
2:0 3:2 2:3 3:5 1:19 3:5 2:17 1:1 3:6 1:32 3:5
3:0 2:3 3:5 1:19 3:5 2:17 1:1 3:6 1:32 3:5 1:19
2:0 3:5 1:19 3:5 2:17 1:1 3:6 1:32 3:5 1:19 3:5
3:0 1:19 3:5 2:17 1:1 3:6 1:32 3:5 1:19 3:5 1:19
1:0 3:5 2:17 1:1 3:6 1:32 3:5 1:19 3:5 1:19 3:5
3:0 2:17 1:1 3:6 1:32 3:5 1:19 3:5 1:19 3:5 2:6
2:0 1:1 3:6 1:32 3:5 1:19 3:5 1:19 3:5 2:6 3:4
1:0 3:6 1:32 3:5 1:19 3:5 1:19 3:5 2:6 3:4 1:10
3:0 1:32 3:5 1:19 3:5 1:19 3:5 2:6 3:4 1:10 3:5
1:0 3:5 1:19 3:5 1:19 3:5 2:6 3:4 1:10 3:5 1:19
3:0 1:19 3:5 1:19 3:5 2:6 3:4 1:10 3:5 1:19 2:4
1:0 3:5 1:19 3:5 2:6 3:4 1:10 3:5 1:19 2:4 3:1
3:0 1:19 3:5 2:6 3:4 1:10 3:5 1:19 2:4 3:1 2:5
1:0 3:5 2:6 3:4 1:10 3:5 1:19 2:4 3:1 2:5 3:1
3:0 2:6 3:4 1:10 3:5 1:19 2:4 3:1 2:5 3:1 1:22
2:0 3:4 1:10 3:5 1:19 2:4 3:1 2:5 3:1 1:22 3:5
3:0 1:10 3:5 1:19 2:4 3:1 2:5 3:1 1:22 3:5 2:17
1:0 3:5 1:19 2:4 3:1 2:5 3:1 1:22 3:5 2:17 1:2
3:0 1:19 2:4 3:1 2:5 3:1 1:22 3:5 2:17 1:2 3:6
1:0 2:4 3:1 2:5 3:1 1:22 3:5 2:17 1:2 3:6 1:32
2:0 3:1 2:5 3:1 1:22 3:5 2:17 1:2 3:6 1:32 3:5
3:0 2:5 3:1 1:22 3:5 2:17 1:2 3:6 1:32 3:5 2:7
2:0 3:1 1:22 3:5 2:17 1:2 3:6 1:32 3:5 2:7 3:1
3:0 1:22 3:5 2:17 1:2 3:6 1:32 3:5 2:7 3:1 1:11
1:0 3:5 2:17 1:2 3:6 1:32 3:5 2:7 3:1 1:11 3:6
3:0 2:17 1:2 3:6 1:32 3:5 2:7 3:1 1:11 3:6 2:18
2:0 1:2 3:6 1:32 3:5 2:7 3:1 1:11 3:6 2:18 1:1
1:0 3:6 1:32 3:5 2:7 3:1 1:11 3:6 2:18 1:1 2:5
3:0 1:32 3:5 2:7 3:1 1:11 3:6 2:18 1:1 2:5 3:2
1:0 3:5 2:7 3:1 1:11 3:6 2:18 1:1 2:5 3:2 2:3
3:0 2:7 3:1 1:11 3:6 2:18 1:1 2:5 3:2 2:3 3:5
2:0 3:1 1:11 3:6 2:18 1:1 2:5 3:2 2:3 3:5 1:19
3:0 1:11 3:6 2:18 1:1 2:5 3:2 2:3 3:5 1:19 3:5
1:0 3:6 2:18 1:1 2:5 3:2 2:3 3:5 1:19 3:5 1:18
3:0 2:18 1:1 2:5 3:2 2:3 3:5 1:19 3:5 1:18 3:6
2:0 1:1 2:5 3:2 2:3 3:5 1:19 3:5 1:18 3:6 2:31
1:0 2:5 3:2 2:3 3:5 1:19 3:5 1:18 3:6 2:31 1:2
2:0 3:2 2:3 3:5 1:19 3:5 1:18 3:6 2:31 1:2 3:4
3:0 2:3 3:5 1:19 3:5 1:18 3:6 2:31 1:2 3:4 1:19
2:0 3:5 1:19 3:5 1:18 3:6 2:31 1:2 3:4 1:19 2:6
3:0 1:19 3:5 1:18 3:6 2:31 1:2 3:4 1:19 2:6 3:1
1:0 3:5 1:18 3:6 2:31 1:2 3:4 1:19 2:6 3:1 2:4
3:0 1:18 3:6 2:31 1:2 3:4 1:19 2:6 3:1 2:4 3:4
1:0 3:6 2:31 1:2 3:4 1:19 2:6 3:1 2:4 3:4 1:20
3:0 2:31 1:2 3:4 1:19 2:6 3:1 2:4 3:4 1:20 3:5
2:0 1:2 3:4 1:19 2:6 3:1 2:4 3:4 1:20 3:5 1:32
1:0 3:4 1:19 2:6 3:1 2:4 3:4 1:20 3:5 1:32 3:5
3:0 1:19 2:6 3:1 2:4 3:4 1:20 3:5 1:32 3:5 1:19
1:0 2:6 3:1 2:4 3:4 1:20 3:5 1:32 3:5 1:19 3:5
2:0 3:1 2:4 3:4 1:20 3:5 1:32 3:5 1:19 3:5 2:6
3:0 2:4 3:4 1:20 3:5 1:32 3:5 1:19 3:5 2:6 3:1
2:0 3:4 1:20 3:5 1:32 3:5 1:19 3:5 2:6 3:1 1:23
3:0 1:20 3:5 1:32 3:5 1:19 3:5 2:6 3:1 1:23 3:5
1:0 3:5 1:32 3:5 1:19 3:5 2:6 3:1 1:23 3:5 1:32
3:0 1:32 3:5 1:19 3:5 2:6 3:1 1:23 3:5 1:32 3:5
1:0 3:5 1:19 3:5 2:6 3:1 1:23 3:5 1:32 3:5 1:19
3:0 1:19 3:5 2:6 3:1 1:23 3:5 1:32 3:5 1:19 3:6
1:0 3:5 2:6 3:1 1:23 3:5 1:32 3:5 1:19 3:6 1:19
3:0 2:6 3:1 1:23 3:5 1:32 3:5 1:19 3:6 1:19 3:6
2:0 3:1 1:23 3:5 1:32 3:5 1:19 3:6 1:19 3:6 1:17
3:0 1:23 3:5 1:32 3:5 1:19 3:6 1:19 3:6 1:17 3:6
1:0 3:5 1:32 3:5 1:19 3:6 1:19 3:6 1:17 3:6 2:6
3:0 1:32 3:5 1:19 3:6 1:19 3:6 1:17 3:6 2:6 3:1
1:0 3:5 1:19 3:6 1:19 3:6 1:17 3:6 2:6 3:1 1:11
3:0 1:19 3:6 1:19 3:6 1:17 3:6 2:6 3:1 1:11 3:6
1:0 3:6 1:19 3:6 1:17 3:6 2:6 3:1 1:11 3:6 1:18
3:0 1:19 3:6 1:17 3:6 2:6 3:1 1:11 3:6 1:18 3:1
1:0 3:6 1:17 3:6 2:6 3:1 1:11 3:6 1:18 3:1 1:1
3:0 1:17 3:6 2:6 3:1 1:11 3:6 1:18 3:1 1:1 3:3
1:0 3:6 2:6 3:1 1:11 3:6 1:18 3:1 1:1 3:3 1:29
3:0 2:6 3:1 1:11 3:6 1:18 3:1 1:1 3:3 1:29 3:6
2:0 3:1 1:11 3:6 1:18 3:1 1:1 3:3 1:29 3:6 1:11
3:0 1:11 3:6 1:18 3:1 1:1 3:3 1:29 3:6 1:11 3:1
1:0 3:6 1:18 3:1 1:1 3:3 1:29 3:6 1:11 3:1 2:2
3:0 1:18 3:1 1:1 3:3 1:29 3:6 1:11 3:1 2:2 1:1
1:0 3:1 1:1 3:3 1:29 3:6 1:11 3:1 2:2 1:1 3:9
3:0 1:1 3:3 1:29 3:6 1:11 3:1 2:2 1:1 3:9 1:32
1:0 3:3 1:29 3:6 1:11 3:1 2:2 1:1 3:9 1:32 2:7
3:0 1:29 3:6 1:11 3:1 2:2 1:1 3:9 1:32 2:7 3:3
1:0 3:6 1:11 3:1 2:2 1:1 3:9 1:32 2:7 3:3 2:1
3:0 1:11 3:1 2:2 1:1 3:9 1:32 2:7 3:3 2:1 3:5
1:0 3:1 2:2 1:1 3:9 1:32 2:7 3:3 2:1 3:5 1:19
3:0 2:2 1:1 3:9 1:32 2:7 3:3 2:1 3:5 1:19 2:5
2:0 1:1 3:9 1:32 2:7 3:3 2:1 3:5 1:19 2:5 1:1
1:0 3:9 1:32 2:7 3:3 2:1 3:5 1:19 2:5 1:1 3:2
3:0 1:32 2:7 3:3 2:1 3:5 1:19 2:5 1:1 3:2 1:29
1:0 2:7 3:3 2:1 3:5 1:19 2:5 1:1 3:2 1:29 3:6
2:0 3:3 2:1 3:5 1:19 2:5 1:1 3:2 1:29 3:6 1:18
3:0 2:1 3:5 1:19 2:5 1:1 3:2 1:29 3:6 1:18 3:5
2:0 3:5 1:19 2:5 1:1 3:2 1:29 3:6 1:18 3:5 2:6
3:0 1:19 2:5 1:1 3:2 1:29 3:6 1:18 3:5 2:6 3:1
1:0 2:5 1:1 3:2 1:29 3:6 1:18 3:5 2:6 3:1 1:23
2:0 1:1 3:2 1:29 3:6 1:18 3:5 2:6 3:1 1:23 3:5
1:0 3:2 1:29 3:6 1:18 3:5 2:6 3:1 1:23 3:5 1:19
3:0 1:29 3:6 1:18 3:5 2:6 3:1 1:23 3:5 1:19 3:5
1:0 3:6 1:18 3:5 2:6 3:1 1:23 3:5 1:19 3:5 1:32
3:0 1:18 3:5 2:6 3:1 1:23 3:5 1:19 3:5 1:32 3:5
1:0 3:5 2:6 3:1 1:23 3:5 1:19 3:5 1:32 3:5 1:19
3:0 2:6 3:1 1:23 3:5 1:19 3:5 1:32 3:5 1:19 3:5
2:0 3:1 1:23 3:5 1:19 3:5 1:32 3:5 1:19 3:5 2:6
3:0 1:23 3:5 1:19 3:5 1:32 3:5 1:19 3:5 2:6 3:1
1:0 3:5 1:19 3:5 1:32 3:5 1:19 3:5 2:6 3:1 1:12
3:0 1:19 3:5 1:32 3:5 1:19 3:5 2:6 3:1 1:12 3:5
1:0 3:5 1:32 3:5 1:19 3:5 2:6 3:1 1:12 3:5 1:19
3:0 1:32 3:5 1:19 3:5 2:6 3:1 1:12 3:5 1:19 3:5
1:0 3:5 1:19 3:5 2:6 3:1 1:12 3:5 1:19 3:5 2:6
3:0 1:19 3:5 2:6 3:1 1:12 3:5 1:19 3:5 2:6 3:4
1:0 3:5 2:6 3:1 1:12 3:5 1:19 3:5 2:6 3:4 1:9
3:0 2:6 3:1 1:12 3:5 1:19 3:5 2:6 3:4 1:9 3:6
2:0 3:1 1:12 3:5 1:19 3:5 2:6 3:4 1:9 3:6 1:18
3:0 1:12 3:5 1:19 3:5 2:6 3:4 1:9 3:6 1:18 3:5
1:0 3:5 1:19 3:5 2:6 3:4 1:9 3:6 1:18 3:5 1:20
3:0 1:19 3:5 2:6 3:4 1:9 3:6 1:18 3:5 1:20 3:5
1:0 3:5 2:6 3:4 1:9 3:6 1:18 3:5 1:20 3:5 1:19
3:0 2:6 3:4 1:9 3:6 1:18 3:5 1:20 3:5 1:19 3:5
2:0 3:4 1:9 3:6 1:18 3:5 1:20 3:5 1:19 3:5 2:6
3:0 1:9 3:6 1:18 3:5 1:20 3:5 1:19 3:5 2:6 3:1
1:0 3:6 1:18 3:5 1:20 3:5 1:19 3:5 2:6 3:1 1:23
3:0 1:18 3:5 1:20 3:5 1:19 3:5 2:6 3:1 1:23 3:5
1:0 3:5 1:20 3:5 1:19 3:5 2:6 3:1 1:23 3:5 1:31
3:0 1:20 3:5 1:19 3:5 2:6 3:1 1:23 3:5 1:31 3:6
1:0 3:5 1:19 3:5 2:6 3:1 1:23 3:5 1:31 3:6 2:6
3:0 1:19 3:5 2:6 3:1 1:23 3:5 1:31 3:6 2:6 3:4
1:0 3:5 2:6 3:1 1:23 3:5 1:31 3:6 2:6 3:4 2:18
3:0 2:6 3:1 1:23 3:5 1:31 3:6 2:6 3:4 2:18 1:1
2:0 3:1 1:23 3:5 1:31 3:6 2:6 3:4 2:18 1:1 2:4
3:0 1:23 3:5 1:31 3:6 2:6 3:4 2:18 1:1 2:4 3:1
1:0 3:5 1:31 3:6 2:6 3:4 2:18 1:1 2:4 3:1 1:19
3:0 1:31 3:6 2:6 3:4 2:18 1:1 2:4 3:1 1:19 3:5
1:0 3:6 2:6 3:4 2:18 1:1 2:4 3:1 1:19 3:5 1:32
3:0 2:6 3:4 2:18 1:1 2:4 3:1 1:19 3:5 1:32 3:6
2:0 3:4 2:18 1:1 2:4 3:1 1:19 3:5 1:32 3:6 2:17
3:0 2:18 1:1 2:4 3:1 1:19 3:5 1:32 3:6 2:17 1:3
2:0 1:1 2:4 3:1 1:19 3:5 1:32 3:6 2:17 1:3 3:4
1:0 2:4 3:1 1:19 3:5 1:32 3:6 2:17 1:3 3:4 2:5
2:0 3:1 1:19 3:5 1:32 3:6 2:17 1:3 3:4 2:5 3:5
3:0 1:19 3:5 1:32 3:6 2:17 1:3 3:4 2:5 3:5 2:18
1:0 3:5 1:32 3:6 2:17 1:3 3:4 2:5 3:5 2:18 1:1
3:0 1:32 3:6 2:17 1:3 3:4 2:5 3:5 2:18 1:1 2:5
1:0 3:6 2:17 1:3 3:4 2:5 3:5 2:18 1:1 2:5 3:1
3:0 2:17 1:3 3:4 2:5 3:5 2:18 1:1 2:5 3:1 1:30
2:0 1:3 3:4 2:5 3:5 2:18 1:1 2:5 3:1 1:30 3:6
1:0 3:4 2:5 3:5 2:18 1:1 2:5 3:1 1:30 3:6 1:19
3:0 2:5 3:5 2:18 1:1 2:5 3:1 1:30 3:6 1:19 3:4
2:0 3:5 2:18 1:1 2:5 3:1 1:30 3:6 1:19 3:4 2:7
3:0 2:18 1:1 2:5 3:1 1:30 3:6 1:19 3:4 2:7 3:1
2:0 1:1 2:5 3:1 1:30 3:6 1:19 3:4 2:7 3:1 1:13
1:0 2:5 3:1 1:30 3:6 1:19 3:4 2:7 3:1 1:13 3:6
2:0 3:1 1:30 3:6 1:19 3:4 2:7 3:1 1:13 3:6 1:17
3:0 1:30 3:6 1:19 3:4 2:7 3:1 1:13 3:6 1:17 3:5
1:0 3:6 1:19 3:4 2:7 3:1 1:13 3:6 1:17 3:5 2:6
3:0 1:19 3:4 2:7 3:1 1:13 3:6 1:17 3:5 2:6 3:5
1:0 3:4 2:7 3:1 1:13 3:6 1:17 3:5 2:6 3:5 1:19
3:0 2:7 3:1 1:13 3:6 1:17 3:5 2:6 3:5 1:19 3:5
2:0 3:1 1:13 3:6 1:17 3:5 2:6 3:5 1:19 3:5 2:18
3:0 1:13 3:6 1:17 3:5 2:6 3:5 1:19 3:5 2:18 1:1
1:0 3:6 1:17 3:5 2:6 3:5 1:19 3:5 2:18 1:1 3:5
3:0 1:17 3:5 2:6 3:5 1:19 3:5 2:18 1:1 3:5 2:31
1:0 3:5 2:6 3:5 1:19 3:5 2:18 1:1 3:5 2:31 1:1
3:0 2:6 3:5 1:19 3:5 2:18 1:1 3:5 2:31 1:1 3:5
2:0 3:5 1:19 3:5 2:18 1:1 3:5 2:31 1:1 3:5 1:19
3:0 1:19 3:5 2:18 1:1 3:5 2:31 1:1 3:5 1:19 3:5
1:0 3:5 2:18 1:1 3:5 2:31 1:1 3:5 1:19 3:5 1:20
3:0 2:18 1:1 3:5 2:31 1:1 3:5 1:19 3:5 1:20 3:6
2:0 1:1 3:5 2:31 1:1 3:5 1:19 3:5 1:20 3:6 1:17
1:0 3:5 2:31 1:1 3:5 1:19 3:5 1:20 3:6 1:17 2:5
3:0 2:31 1:1 3:5 1:19 3:5 1:20 3:6 1:17 2:5 3:1
2:0 1:1 3:5 1:19 3:5 1:20 3:6 1:17 2:5 3:1 2:5
1:0 3:5 1:19 3:5 1:20 3:6 1:17 2:5 3:1 2:5 3:4
3:0 1:19 3:5 1:20 3:6 1:17 2:5 3:1 2:5 3:4 1:20
1:0 3:5 1:20 3:6 1:17 2:5 3:1 2:5 3:4 1:20 3:5
3:0 1:20 3:6 1:17 2:5 3:1 2:5 3:4 1:20 3:5 1:32
1:0 3:6 1:17 2:5 3:1 2:5 3:4 1:20 3:5 1:32 3:5
3:0 1:17 2:5 3:1 2:5 3:4 1:20 3:5 1:32 3:5 1:19
1:0 2:5 3:1 2:5 3:4 1:20 3:5 1:32 3:5 1:19 2:5
2:0 3:1 2:5 3:4 1:20 3:5 1:32 3:5 1:19 2:5 3:1
3:0 2:5 3:4 1:20 3:5 1:32 3:5 1:19 2:5 3:1 2:5
2:0 3:4 1:20 3:5 1:32 3:5 1:19 2:5 3:1 2:5 3:4
3:0 1:20 3:5 1:32 3:5 1:19 2:5 3:1 2:5 3:4 1:20
1:0 3:5 1:32 3:5 1:19 2:5 3:1 2:5 3:4 1:20 3:5
3:0 1:32 3:5 1:19 2:5 3:1 2:5 3:4 1:20 3:5 1:32
1:0 3:5 1:19 2:5 3:1 2:5 3:4 1:20 3:5 1:32 3:5
3:0 1:19 2:5 3:1 2:5 3:4 1:20 3:5 1:32 3:5 1:19
1:0 2:5 3:1 2:5 3:4 1:20 3:5 1:32 3:5 1:19 3:5
2:0 3:1 2:5 3:4 1:20 3:5 1:32 3:5 1:19 3:5 1:19
3:0 2:5 3:4 1:20 3:5 1:32 3:5 1:19 3:5 1:19 3:6
2:0 3:4 1:20 3:5 1:32 3:5 1:19 3:5 1:19 3:6 1:18
3:0 1:20 3:5 1:32 3:5 1:19 3:5 1:19 3:6 1:18 3:6
1:0 3:5 1:32 3:5 1:19 3:5 1:19 3:6 1:18 3:6 2:5
3:0 1:32 3:5 1:19 3:5 1:19 3:6 1:18 3:6 2:5 3:1
1:0 3:5 1:19 3:5 1:19 3:6 1:18 3:6 2:5 3:1 1:23
3:0 1:19 3:5 1:19 3:6 1:18 3:6 2:5 3:1 1:23 3:5
1:0 3:5 1:19 3:6 1:18 3:6 2:5 3:1 1:23 3:5 1:8
3:0 1:19 3:6 1:18 3:6 2:5 3:1 1:23 3:5 1:8 3:6
1:0 3:6 1:18 3:6 2:5 3:1 1:23 3:5 1:8 3:6 2:6
3:0 1:18 3:6 2:5 3:1 1:23 3:5 1:8 3:6 2:6 3:4
1:0 3:6 2:5 3:1 1:23 3:5 1:8 3:6 2:6 3:4 1:9
3:0 2:5 3:1 1:23 3:5 1:8 3:6 2:6 3:4 1:9 3:6
2:0 3:1 1:23 3:5 1:8 3:6 2:6 3:4 1:9 3:6 1:17
3:0 1:23 3:5 1:8 3:6 2:6 3:4 1:9 3:6 1:17 3:5
1:0 3:5 1:8 3:6 2:6 3:4 1:9 3:6 1:17 3:5 2:7
3:0 1:8 3:6 2:6 3:4 1:9 3:6 1:17 3:5 2:7 3:1
1:0 3:6 2:6 3:4 1:9 3:6 1:17 3:5 2:7 3:1 1:23
3:0 2:6 3:4 1:9 3:6 1:17 3:5 2:7 3:1 1:23 3:5
2:0 3:4 1:9 3:6 1:17 3:5 2:7 3:1 1:23 3:5 1:18
3:0 1:9 3:6 1:17 3:5 2:7 3:1 1:23 3:5 1:18 3:6
1:0 3:6 1:17 3:5 2:7 3:1 1:23 3:5 1:18 3:6 1:31
3:0 1:17 3:5 2:7 3:1 1:23 3:5 1:18 3:6 1:31 3:6
1:0 3:5 2:7 3:1 1:23 3:5 1:18 3:6 1:31 3:6 2:6
3:0 2:7 3:1 1:23 3:5 1:18 3:6 1:31 3:6 2:6 3:1
2:0 3:1 1:23 3:5 1:18 3:6 1:31 3:6 2:6 3:1 2:21
3:0 1:23 3:5 1:18 3:6 1:31 3:6 2:6 3:1 2:21 1:1
1:0 3:5 1:18 3:6 1:31 3:6 2:6 3:1 2:21 1:1 2:4
3:0 1:18 3:6 1:31 3:6 2:6 3:1 2:21 1:1 2:4 3:1
1:0 3:6 1:31 3:6 2:6 3:1 2:21 1:1 2:4 3:1 1:8
3:0 1:31 3:6 2:6 3:1 2:21 1:1 2:4 3:1 1:8 2:7
1:0 3:6 2:6 3:1 2:21 1:1 2:4 3:1 1:8 2:7 1:4
3:0 2:6 3:1 2:21 1:1 2:4 3:1 1:8 2:7 1:4 2:1
2:0 3:1 2:21 1:1 2:4 3:1 1:8 2:7 1:4 2:1 3:4
3:0 2:21 1:1 2:4 3:1 1:8 2:7 1:4 2:1 3:4 1:19
2:0 1:1 2:4 3:1 1:8 2:7 1:4 2:1 3:4 1:19 3:5
1:0 2:4 3:1 1:8 2:7 1:4 2:1 3:4 1:19 3:5 2:17
2:0 3:1 1:8 2:7 1:4 2:1 3:4 1:19 3:5 2:17 1:1
3:0 1:8 2:7 1:4 2:1 3:4 1:19 3:5 2:17 1:1 3:6
1:0 2:7 1:4 2:1 3:4 1:19 3:5 2:17 1:1 3:6 1:31
2:0 1:4 2:1 3:4 1:19 3:5 2:17 1:1 3:6 1:31 3:6
1:0 2:1 3:4 1:19 3:5 2:17 1:1 3:6 1:31 3:6 2:18
2:0 3:4 1:19 3:5 2:17 1:1 3:6 1:31 3:6 2:18 1:1
3:0 1:19 3:5 2:17 1:1 3:6 1:31 3:6 2:18 1:1 3:4
1:0 3:5 2:17 1:1 3:6 1:31 3:6 2:18 1:1 3:4 2:30
3:0 2:17 1:1 3:6 1:31 3:6 2:18 1:1 3:4 2:30 1:1
2:0 1:1 3:6 1:31 3:6 2:18 1:1 3:4 2:30 1:1 3:5
1:0 3:6 1:31 3:6 2:18 1:1 3:4 2:30 1:1 3:5 2:31
3:0 1:31 3:6 2:18 1:1 3:4 2:30 1:1 3:5 2:31 1:1
1:0 3:6 2:18 1:1 3:4 2:30 1:1 3:5 2:31 1:1 3:4
3:0 2:18 1:1 3:4 2:30 1:1 3:5 2:31 1:1 3:4 1:20
2:0 1:1 3:4 2:30 1:1 3:5 2:31 1:1 3:4 1:20 3:5
1:0 3:4 2:30 1:1 3:5 2:31 1:1 3:4 1:20 3:5 2:6
3:0 2:30 1:1 3:5 2:31 1:1 3:4 1:20 3:5 2:6 3:4
2:0 1:1 3:5 2:31 1:1 3:4 1:20 3:5 2:6 3:4 1:19
1:0 3:5 2:31 1:1 3:4 1:20 3:5 2:6 3:4 1:19 3:6
3:0 2:31 1:1 3:4 1:20 3:5 2:6 3:4 1:19 3:6 1:18
2:0 1:1 3:4 1:20 3:5 2:6 3:4 1:19 3:6 1:18 3:6
1:0 3:4 1:20 3:5 2:6 3:4 1:19 3:6 1:18 3:6 1:32
3:0 1:20 3:5 2:6 3:4 1:19 3:6 1:18 3:6 1:32 3:5
1:0 3:5 2:6 3:4 1:19 3:6 1:18 3:6 1:32 3:5 2:6
3:0 2:6 3:4 1:19 3:6 1:18 3:6 1:32 3:5 2:6 3:2
2:0 3:4 1:19 3:6 1:18 3:6 1:32 3:5 2:6 3:2 1:12
3:0 1:19 3:6 1:18 3:6 1:32 3:5 2:6 3:2 1:12 3:5
1:0 3:6 1:18 3:6 1:32 3:5 2:6 3:2 1:12 3:5 1:18
3:0 1:18 3:6 1:32 3:5 2:6 3:2 1:12 3:5 1:18 3:5
1:0 3:6 1:32 3:5 2:6 3:2 1:12 3:5 1:18 3:5 2:6
3:0 1:32 3:5 2:6 3:2 1:12 3:5 1:18 3:5 2:6 3:5
1:0 3:5 2:6 3:2 1:12 3:5 1:18 3:5 2:6 3:5 1:19
3:0 2:6 3:2 1:12 3:5 1:18 3:5 2:6 3:5 1:19 3:5
2:0 3:2 1:12 3:5 1:18 3:5 2:6 3:5 1:19 3:5 1:19
3:0 1:12 3:5 1:18 3:5 2:6 3:5 1:19 3:5 1:19 3:5
1:0 3:5 1:18 3:5 2:6 3:5 1:19 3:5 1:19 3:5 1:31
3:0 1:18 3:5 2:6 3:5 1:19 3:5 1:19 3:5 1:31 3:5
1:0 3:5 2:6 3:5 1:19 3:5 1:19 3:5 1:31 3:5 1:20
3:0 2:6 3:5 1:19 3:5 1:19 3:5 1:31 3:5 1:20 3:5
2:0 3:5 1:19 3:5 1:19 3:5 1:31 3:5 1:20 3:5 2:6
3:0 1:19 3:5 1:19 3:5 1:31 3:5 1:20 3:5 2:6 3:2
1:0 3:5 1:19 3:5 1:31 3:5 1:20 3:5 2:6 3:2 1:12
3:0 1:19 3:5 1:31 3:5 1:20 3:5 2:6 3:2 1:12 3:5
1:0 3:5 1:31 3:5 1:20 3:5 2:6 3:2 1:12 3:5 1:18
3:0 1:31 3:5 1:20 3:5 2:6 3:2 1:12 3:5 1:18 2:5
1:0 3:5 1:20 3:5 2:6 3:2 1:12 3:5 1:18 2:5 3:1
3:0 1:20 3:5 2:6 3:2 1:12 3:5 1:18 2:5 3:1 2:5
1:0 3:5 2:6 3:2 1:12 3:5 1:18 2:5 3:1 2:5 3:3
3:0 2:6 3:2 1:12 3:5 1:18 2:5 3:1 2:5 3:3 1:10
2:0 3:2 1:12 3:5 1:18 2:5 3:1 2:5 3:3 1:10 3:7
3:0 1:12 3:5 1:18 2:5 3:1 2:5 3:3 1:10 3:7 1:18
1:0 3:5 1:18 2:5 3:1 2:5 3:3 1:10 3:7 1:18 3:5
3:0 1:18 2:5 3:1 2:5 3:3 1:10 3:7 1:18 3:5 1:18
1:0 2:5 3:1 2:5 3:3 1:10 3:7 1:18 3:5 1:18 3:6
2:0 3:1 2:5 3:3 1:10 3:7 1:18 3:5 1:18 3:6 1:18
3:0 2:5 3:3 1:10 3:7 1:18 3:5 1:18 3:6 1:18 3:3
2:0 3:3 1:10 3:7 1:18 3:5 1:18 3:6 1:18 3:3 1:1
3:0 1:10 3:7 1:18 3:5 1:18 3:6 1:18 3:3 1:1 3:1
1:0 3:7 1:18 3:5 1:18 3:6 1:18 3:3 1:1 3:1 2:6
3:0 1:18 3:5 1:18 3:6 1:18 3:3 1:1 3:1 2:6 3:1
1:0 3:5 1:18 3:6 1:18 3:3 1:1 3:1 2:6 3:1 2:21
3:0 1:18 3:6 1:18 3:3 1:1 3:1 2:6 3:1 2:21 1:2
1:0 3:6 1:18 3:3 1:1 3:1 2:6 3:1 2:21 1:2 2:4
3:0 1:18 3:3 1:1 3:1 2:6 3:1 2:21 1:2 2:4 3:1
1:0 3:3 1:1 3:1 2:6 3:1 2:21 1:2 2:4 3:1 2:32
3:0 1:1 3:1 2:6 3:1 2:21 1:2 2:4 3:1 2:32 1:1
1:0 3:1 2:6 3:1 2:21 1:2 2:4 3:1 2:32 1:1 3:5
3:0 2:6 3:1 2:21 1:2 2:4 3:1 2:32 1:1 3:5 1:18
2:0 3:1 2:21 1:2 2:4 3:1 2:32 1:1 3:5 1:18 3:5
3:0 2:21 1:2 2:4 3:1 2:32 1:1 3:5 1:18 3:5 2:6
2:0 1:2 2:4 3:1 2:32 1:1 3:5 1:18 3:5 2:6 3:1
1:0 2:4 3:1 2:32 1:1 3:5 1:18 3:5 2:6 3:1 1:12
2:0 3:1 2:32 1:1 3:5 1:18 3:5 2:6 3:1 1:12 3:5
3:0 2:32 1:1 3:5 1:18 3:5 2:6 3:1 1:12 3:5 1:19
2:0 1:1 3:5 1:18 3:5 2:6 3:1 1:12 3:5 1:19 3:5
1:0 3:5 1:18 3:5 2:6 3:1 1:12 3:5 1:19 3:5 2:7
3:0 1:18 3:5 2:6 3:1 1:12 3:5 1:19 3:5 2:7 3:3
1:0 3:5 2:6 3:1 1:12 3:5 1:19 3:5 2:7 3:3 1:10
3:0 2:6 3:1 1:12 3:5 1:19 3:5 2:7 3:3 1:10 3:6
2:0 3:1 1:12 3:5 1:19 3:5 2:7 3:3 1:10 3:6 1:17
3:0 1:12 3:5 1:19 3:5 2:7 3:3 1:10 3:6 1:17 3:6
1:0 3:5 1:19 3:5 2:7 3:3 1:10 3:6 1:17 3:6 2:5
3:0 1:19 3:5 2:7 3:3 1:10 3:6 1:17 3:6 2:5 3:2
1:0 3:5 2:7 3:3 1:10 3:6 1:17 3:6 2:5 3:2 1:12
3:0 2:7 3:3 1:10 3:6 1:17 3:6 2:5 3:2 1:12 3:5
2:0 3:3 1:10 3:6 1:17 3:6 2:5 3:2 1:12 3:5 1:18
3:0 1:10 3:6 1:17 3:6 2:5 3:2 1:12 3:5 1:18 3:5
1:0 3:6 1:17 3:6 2:5 3:2 1:12 3:5 1:18 3:5 1:30
3:0 1:17 3:6 2:5 3:2 1:12 3:5 1:18 3:5 1:30 3:5
1:0 3:6 2:5 3:2 1:12 3:5 1:18 3:5 1:30 3:5 1:11
3:0 2:5 3:2 1:12 3:5 1:18 3:5 1:30 3:5 1:11 3:2
2:0 3:2 1:12 3:5 1:18 3:5 1:30 3:5 1:11 3:2 2:1
3:0 1:12 3:5 1:18 3:5 1:30 3:5 1:11 3:2 2:1 1:1
1:0 3:5 1:18 3:5 1:30 3:5 1:11 3:2 2:1 1:1 3:10
3:0 1:18 3:5 1:30 3:5 1:11 3:2 2:1 1:1 3:10 1:31
1:0 3:5 1:30 3:5 1:11 3:2 2:1 1:1 3:10 1:31 3:4
3:0 1:30 3:5 1:11 3:2 2:1 1:1 3:10 1:31 3:4 1:20
1:0 3:5 1:11 3:2 2:1 1:1 3:10 1:31 3:4 1:20 3:5
3:0 1:11 3:2 2:1 1:1 3:10 1:31 3:4 1:20 3:5 2:7
1:0 3:2 2:1 1:1 3:10 1:31 3:4 1:20 3:5 2:7 3:1
3:0 2:1 1:1 3:10 1:31 3:4 1:20 3:5 2:7 3:1 1:12
2:0 1:1 3:10 1:31 3:4 1:20 3:5 2:7 3:1 1:12 3:5
1:0 3:10 1:31 3:4 1:20 3:5 2:7 3:1 1:12 3:5 1:18
3:0 1:31 3:4 1:20 3:5 2:7 3:1 1:12 3:5 1:18 3:5
1:0 3:4 1:20 3:5 2:7 3:1 1:12 3:5 1:18 3:5 2:6
3:0 1:20 3:5 2:7 3:1 1:12 3:5 1:18 3:5 2:6 3:3
1:0 3:5 2:7 3:1 1:12 3:5 1:18 3:5 2:6 3:3 1:10
3:0 2:7 3:1 1:12 3:5 1:18 3:5 2:6 3:3 1:10 3:7
2:0 3:1 1:12 3:5 1:18 3:5 2:6 3:3 1:10 3:7 1:17
3:0 1:12 3:5 1:18 3:5 2:6 3:3 1:10 3:7 1:17 3:5
1:0 3:5 1:18 3:5 2:6 3:3 1:10 3:7 1:17 3:5 2:6
3:0 1:18 3:5 2:6 3:3 1:10 3:7 1:17 3:5 2:6 3:1
1:0 3:5 2:6 3:3 1:10 3:7 1:17 3:5 2:6 3:1 1:22
3:0 2:6 3:3 1:10 3:7 1:17 3:5 2:6 3:1 1:22 3:1
2:0 3:3 1:10 3:7 1:17 3:5 2:6 3:1 1:22 3:1 1:1
3:0 1:10 3:7 1:17 3:5 2:6 3:1 1:22 3:1 1:1 3:4
1:0 3:7 1:17 3:5 2:6 3:1 1:22 3:1 1:1 3:4 1:18
3:0 1:17 3:5 2:6 3:1 1:22 3:1 1:1 3:4 1:18 3:5
1:0 3:5 2:6 3:1 1:22 3:1 1:1 3:4 1:18 3:5 2:33
3:0 2:6 3:1 1:22 3:1 1:1 3:4 1:18 3:5 2:33 1:1
2:0 3:1 1:22 3:1 1:1 3:4 1:18 3:5 2:33 1:1 2:6
3:0 1:22 3:1 1:1 3:4 1:18 3:5 2:33 1:1 2:6 3:9
1:0 3:1 1:1 3:4 1:18 3:5 2:33 1:1 2:6 3:9 1:19
3:0 1:1 3:4 1:18 3:5 2:33 1:1 2:6 3:9 1:19 3:5
1:0 3:4 1:18 3:5 2:33 1:1 2:6 3:9 1:19 3:5 1:20
3:0 1:18 3:5 2:33 1:1 2:6 3:9 1:19 3:5 1:20 3:5
1:0 3:5 2:33 1:1 2:6 3:9 1:19 3:5 1:20 3:5 1:30
3:0 2:33 1:1 2:6 3:9 1:19 3:5 1:20 3:5 1:30 3:6
2:0 1:1 2:6 3:9 1:19 3:5 1:20 3:5 1:30 3:6 2:18
1:0 2:6 3:9 1:19 3:5 1:20 3:5 1:30 3:6 2:18 1:1
2:0 3:9 1:19 3:5 1:20 3:5 1:30 3:6 2:18 1:1 2:5
3:0 1:19 3:5 1:20 3:5 1:30 3:6 2:18 1:1 2:5 3:2
1:0 3:5 1:20 3:5 1:30 3:6 2:18 1:1 2:5 3:2 2:4
3:0 1:20 3:5 1:30 3:6 2:18 1:1 2:5 3:2 2:4 3:5
1:0 3:5 1:30 3:6 2:18 1:1 2:5 3:2 2:4 3:5 2:18
3:0 1:30 3:6 2:18 1:1 2:5 3:2 2:4 3:5 2:18 1:1
1:0 3:6 2:18 1:1 2:5 3:2 2:4 3:5 2:18 1:1 2:4
3:0 2:18 1:1 2:5 3:2 2:4 3:5 2:18 1:1 2:4 3:1
2:0 1:1 2:5 3:2 2:4 3:5 2:18 1:1 2:4 3:1 1:31
1:0 2:5 3:2 2:4 3:5 2:18 1:1 2:4 3:1 1:31 3:4
2:0 3:2 2:4 3:5 2:18 1:1 2:4 3:1 1:31 3:4 2:1
3:0 2:4 3:5 2:18 1:1 2:4 3:1 1:31 3:4 2:1 3:1
2:0 3:5 2:18 1:1 2:4 3:1 1:31 3:4 2:1 3:1 1:19
3:0 2:18 1:1 2:4 3:1 1:31 3:4 2:1 3:1 1:19 3:5
2:0 1:1 2:4 3:1 1:31 3:4 2:1 3:1 1:19 3:5 1:30
1:0 2:4 3:1 1:31 3:4 2:1 3:1 1:19 3:5 1:30 3:5
2:0 3:1 1:31 3:4 2:1 3:1 1:19 3:5 1:30 3:5 1:31
3:0 1:31 3:4 2:1 3:1 1:19 3:5 1:30 3:5 1:31 3:6
1:0 3:4 2:1 3:1 1:19 3:5 1:30 3:5 1:31 3:6 1:18
3:0 2:1 3:1 1:19 3:5 1:30 3:5 1:31 3:6 1:18 3:6
2:0 3:1 1:19 3:5 1:30 3:5 1:31 3:6 1:18 3:6 2:6
3:0 1:19 3:5 1:30 3:5 1:31 3:6 1:18 3:6 2:6 3:1
1:0 3:5 1:30 3:5 1:31 3:6 1:18 3:6 2:6 3:1 1:13
3:0 1:30 3:5 1:31 3:6 1:18 3:6 2:6 3:1 1:13 3:6
1:0 3:5 1:31 3:6 1:18 3:6 2:6 3:1 1:13 3:6 1:17
3:0 1:31 3:6 1:18 3:6 2:6 3:1 1:13 3:6 1:17 2:5
1:0 3:6 1:18 3:6 2:6 3:1 1:13 3:6 1:17 2:5 3:2
3:0 1:18 3:6 2:6 3:1 1:13 3:6 1:17 2:5 3:2 2:4
1:0 3:6 2:6 3:1 1:13 3:6 1:17 2:5 3:2 2:4 3:4
3:0 2:6 3:1 1:13 3:6 1:17 2:5 3:2 2:4 3:4 1:9
2:0 3:1 1:13 3:6 1:17 2:5 3:2 2:4 3:4 1:9 3:6
3:0 1:13 3:6 1:17 2:5 3:2 2:4 3:4 1:9 3:6 1:18
1:0 3:6 1:17 2:5 3:2 2:4 3:4 1:9 3:6 1:18 3:6
3:0 1:17 2:5 3:2 2:4 3:4 1:9 3:6 1:18 3:6 2:5
1:0 2:5 3:2 2:4 3:4 1:9 3:6 1:18 3:6 2:5 3:4
2:0 3:2 2:4 3:4 1:9 3:6 1:18 3:6 2:5 3:4 1:12
3:0 2:4 3:4 1:9 3:6 1:18 3:6 2:5 3:4 1:12 2:12
2:0 3:4 1:9 3:6 1:18 3:6 2:5 3:4 1:12 2:12 3:1
3:0 1:9 3:6 1:18 3:6 2:5 3:4 1:12 2:12 3:1 1:11
1:0 3:6 1:18 3:6 2:5 3:4 1:12 2:12 3:1 1:11 2:2
3:0 1:18 3:6 2:5 3:4 1:12 2:12 3:1 1:11 2:2 1:2
1:0 3:6 2:5 3:4 1:12 2:12 3:1 1:11 2:2 1:2 3:9
3:0 2:5 3:4 1:12 2:12 3:1 1:11 2:2 1:2 3:9 2:32
2:0 3:4 1:12 2:12 3:1 1:11 2:2 1:2 3:9 2:32 1:1
3:0 1:12 2:12 3:1 1:11 2:2 1:2 3:9 2:32 1:1 2:6
1:0 2:12 3:1 1:11 2:2 1:2 3:9 2:32 1:1 2:6 3:4
2:0 3:1 1:11 2:2 1:2 3:9 2:32 1:1 2:6 3:4 2:1
3:0 1:11 2:2 1:2 3:9 2:32 1:1 2:6 3:4 2:1 3:4
1:0 2:2 1:2 3:9 2:32 1:1 2:6 3:4 2:1 3:4 1:19
2:0 1:2 3:9 2:32 1:1 2:6 3:4 2:1 3:4 1:19 3:5
1:0 3:9 2:32 1:1 2:6 3:4 2:1 3:4 1:19 3:5 1:19
3:0 2:32 1:1 2:6 3:4 2:1 3:4 1:19 3:5 1:19 3:6
2:0 1:1 2:6 3:4 2:1 3:4 1:19 3:5 1:19 3:6 2:30
1:0 2:6 3:4 2:1 3:4 1:19 3:5 1:19 3:6 2:30 1:1
2:0 3:4 2:1 3:4 1:19 3:5 1:19 3:6 2:30 1:1 3:5
3:0 2:1 3:4 1:19 3:5 1:19 3:6 2:30 1:1 3:5 1:30
2:0 3:4 1:19 3:5 1:19 3:6 2:30 1:1 3:5 1:30 3:5
3:0 1:19 3:5 1:19 3:6 2:30 1:1 3:5 1:30 3:5 1:19
1:0 3:5 1:19 3:6 2:30 1:1 3:5 1:30 3:5 1:19 3:5
3:0 1:19 3:6 2:30 1:1 3:5 1:30 3:5 1:19 3:5 1:32
1:0 3:6 2:30 1:1 3:5 1:30 3:5 1:19 3:5 1:32 3:5
3:0 2:30 1:1 3:5 1:30 3:5 1:19 3:5 1:32 3:5
2:0 1:1 3:5 1:30 3:5 1:19 3:5 1:32 3:5
1:0 3:5 1:30 3:5 1:19 3:5 1:32 3:5
3:0 1:30 3:5 1:19 3:5 1:32 3:5
1:0 3:5 1:19 3:5 1:32 3:5
3:0 1:19 3:5 1:32 3:5
1:0 3:5 1:32 3:5
3:0 1:32 3:5
1:0 3:5
3:0