S0 -> S1 [label="2 [0, 0, 0, 0, 0, 0, 0, 0, 0, 0, 0, 0, 0, 0, 0, 0, 0, 0, 0, 0, 0, 0, 0, 0, 0, 0, 0, 0, 0, 0, 0, 0, 0, 0, 0, 0, 0, 0, 0, 0, 0, 0, 0, 0, 0, 0, 0, 0, 0, 0, 0, 0, 0, 0, 0, 0, 0, 0, 0, 0, 0, 0, 0, 0, 0, 0, 0, 0, 0, 0, 0, 0, 0, 0, 0, 0, 0, 0, 0, 0, 0, 0, 0, 0, 0, 0, 0, 0, 0, 0, 0, 0, 0, 0, 0, 0, 0, 0, 0, 0, 0, 0, 0, 0, 0, 0, 0, 0, 0, 0, 0, 0, 0, 0, 0, 0, 0, 0, 0, 0, 0, 0, 0, 0, 0, 0, 0, 0, 0, 0, 0, 0, 0, 0, 0, 0, 0, 0, 0, 0, 0, 0, 0, 0, 0, 0, 0, 0, 0, 0, 0, 0, 0, 0, 0, 0, 0, 0, 0, 0, 0, 0, 0, 0, 0, 0, 0, 0, 0, 0, 0, 0, 0, 0, 0, 0, 0, 0, 0, 0, 0, 0, 0, 0, 0, 0, 0, 0, 0, 0, 0, 0, 0, 0, 0, 0, 0, 0, 0, 0, 0, 0, 0, 0, 0, 0, 0, 0, 0, 0, 0, 0, 0, 0, 0, 0, 0, 0, 0, 0, 0, 0, 0, 0, 0, 0, 0, 0, 0, 0, 0, 0, 0, 0, 0, 0, 0, 0, 0, 0, 0, 0, 0, 0, 0, 0, 0, 0, 0, 0, 0, 0, 0, 0, 0, 0, 0, 0, 0, 0, 0, 0, 0, 0, 0, 0, 0, 0, 0, 0, 0, 0, 0, 0, 0, 0, 0, 0] p=0.5"]
S0 -> S2 [label="1 [0, 0, 0, 0, 0, 0, 0, 0, 0, 0, 0, 0, 0, 0, 0, 0, 0, 0, 0, 0, 0, 0, 0, 0, 0, 0, 0, 0, 0, 0, 0, 0, 0, 0, 0, 0, 0, 0, 0, 0, 0, 0, 0, 0, 0, 0, 0, 0, 0, 0, 0, 0, 0, 0, 0, 0, 0, 0, 0, 0, 0, 0, 0, 0, 0, 0, 0, 0, 0, 0, 0, 0, 0, 0, 0, 0, 0, 0, 0, 0, 0, 0, 0, 0, 0, 0, 0, 0, 0, 0, 0, 0, 0, 0, 0, 0, 0, 0, 0, 0, 0, 0, 0, 0, 0, 0, 0, 0, 0, 0, 0, 0, 0, 0, 0, 0, 0, 0, 0, 0, 0, 0, 0, 0, 0, 0, 0, 0, 0, 0, 0, 0, 0, 0, 0, 0, 0, 0, 0, 0, 0, 0, 0, 0, 0, 0, 0, 0, 0, 0, 0, 0, 0, 0, 0, 0, 0, 0, 0, 0, 0, 0, 0, 0, 0, 0, 0, 0, 0, 0, 0, 0, 0, 0, 0, 0, 0, 0, 0, 0, 0, 0, 0, 0, 0, 0, 0, 0, 0, 0, 0, 0, 0, 0, 0, 0, 0, 0, 0, 0, 0, 0, 0, 0, 0, 0, 0, 0, 0, 0, 0, 0, 0, 0, 0, 0, 0, 0, 0, 0, 0, 0, 0, 0, 0, 0, 0, 0, 0, 0, 0, 0, 0, 0, 0, 0, 0, 0, 0, 0, 0, 0, 0, 0, 0, 0, 0, 0, 0, 0, 0, 0, 0, 0, 0, 0, 0, 0, 0, 0, 0, 0, 0, 0, 0, 0, 0, 0, 0, 0, 0, 0, 0, 0, 0, 0, 0] p=0.5"]
S0 -> S23 [label="4 [0] p=0.0"]
S1 -> S2 [label="1 [265, 40, 22, 8, 23, 19, 69, 12, 3, 21, 2, 15, 4, 6, 15, 1, 31, 24, 9, 4, 4, 10, 13, 38, 3, 6, 4, 2, 4, 34, 7, 15, 4, 6, 8, 4, 10, 31, 5, 43, 31, 16, 5, 3, 8, 23, 15, 23, 15, 5, 9, 14, 6, 189, 21, 145, 148, 385, 763, 127, 17, 26, 56, 15, 8, 4, 24, 15, 38, 11, 4, 36, 2, 5, 11, 162, 69, 48, 530, 11, 505, 70, 13, 10, 148, 41, 5, 196, 1908, 77, 21, 49, 20, 108, 319, 135, 89, 1260, 2181, 10, 74908, 74, 8, 6, 44, 119, 19, 15, 38, 39, 31, 3, 7, 6, 11, 10, 4, 26, 16, 11, 19, 7, 7, 24, 5, 14, 4, 3, 19, 5, 5, 6, 2, 9, 3, 5, 6, 11, 11, 6, 26, 4, 5, 7, 12, 10, 24, 9, 12, 4, 4, 5, 13, 27, 53, 11, 17, 5, 5, 4, 10, 3, 13, 3, 3, 7, 3, 20, 7, 3, 16, 6, 8, 21, 19, 7, 9, 3, 7, 5, 55, 9, 41, 10, 13, 8, 39, 69, 9, 8, 3, 72, 3, 44, 20, 8, 32, 17, 25, 53, 47, 10, 132, 147, 55, 41, 6, 20, 11, 40, 42, 8, 33, 12, 6, 4, 13, 4, 66, 4, 9, 6, 2, 7, 62, 28, 9, 78, 38, 164, 23, 14, 100, 8, 35, 35, 8, 5, 3, 7, 14, 7, 7, 8, 5, 8, 6, 3, 24, 6, 6, 9, 8, 6, 11, 7, 25, 5, 16, 28, 19, 10, 8, 6, 5, 11, 6, 11, 6, 1, 5, 2, 14, 8, 5, 3, 2, 40, 22, 8, 23, 19, 69, 12, 3, 21, 2, 15, 4, 6, 15, 1, 31, 24, 9, 4, 4, 10, 13, 38, 3, 6, 4, 2, 4, 34, 7, 15, 4, 6, 8, 4, 10, 31, 5, 43, 31, 16, 5, 3, 8, 23, 15, 23, 15, 5, 9, 14, 6, 189, 21, 145, 148, 385, 763, 127, 17, 26, 56, 15, 8, 4, 24, 15, 38, 11, 4, 36, 2, 5, 11, 162, 69, 48, 530, 11, 505, 70, 13, 10, 148, 41, 5, 196, 1908, 77, 21, 49, 20, 108, 319, 135, 89, 1260, 2181, 10, 74, 8, 6, 44, 119, 19, 15, 38, 39, 31, 3, 7, 6, 11, 10, 4, 26, 16, 11, 19, 7, 7, 24, 5, 14, 4, 3, 19, 5, 5, 6, 2, 9, 3, 5, 6, 11, 11, 6, 26, 4, 5, 7, 12, 10, 24, 9, 12, 4, 4, 5, 13, 27, 53, 11, 17, 5, 5, 4, 10, 3, 13, 3, 3, 7, 3, 20, 7, 3, 16, 6, 8, 21, 19, 7, 9, 3, 7, 5, 55, 9, 41, 10, 13, 8, 39, 69, 9, 8, 3, 72, 3, 44, 20, 8, 32, 17, 25, 53, 47, 10, 132, 147, 55, 41, 6, 20, 11, 40, 42, 8, 33, 12, 6, 4, 13, 4, 66, 4, 9, 6, 2, 7, 62, 28, 9, 78, 38, 164, 23, 14, 100, 8, 35, 35, 8, 5, 3, 7, 14, 7, 7, 8, 5, 8, 6, 3, 24, 6, 6, 9, 8, 6, 11, 7, 25, 5, 16, 28, 19, 10, 8, 6, 5, 11, 6, 11, 6, 1, 5, 2, 14, 8, 5, 3, 2, 40, 22, 8, 23, 19, 69, 12, 3, 21, 2, 15, 4, 6, 15, 1, 31, 24, 9, 4, 4, 10, 13, 38, 3, 6, 4, 2, 4, 34, 7, 15, 4, 6, 8, 4, 10, 31, 5, 43, 31, 16, 5, 3, 8, 23, 15, 23, 15, 5, 9, 14, 6, 189, 21, 145, 148, 385, 763, 127, 17, 26, 56, 15, 8, 4, 24, 15, 38, 11, 4, 36, 2, 5, 11, 162, 69, 48, 530, 11, 505, 70, 13, 10, 148, 41, 5, 196, 1908, 77, 21, 49, 20, 108, 319, 135, 89, 1260, 2181, 10, 74, 8, 6, 44, 119, 19, 15, 38, 39, 31, 3, 7, 6, 11, 10, 4, 26, 16, 11, 19, 7, 7, 24, 5, 14, 4, 3, 19, 5, 5, 6, 2, 9, 3, 5, 6, 11, 11, 6, 26, 4, 5, 7, 12, 10, 24, 9, 12, 4, 4, 5, 13, 27, 53, 11, 17, 5, 5, 4, 10, 3, 13, 3, 3, 7, 3, 20, 7, 3, 16, 6, 8, 21, 19, 7, 9, 3, 7, 5, 55, 9, 41, 10, 13, 8, 39, 69, 9, 8, 3, 72, 3, 44, 20, 8, 32, 17, 25, 53, 47, 10, 132, 147, 55, 41, 6, 20, 11, 40, 42, 8, 33, 12, 6, 4, 13, 4, 66, 4, 9, 6, 2, 7, 62, 28, 9, 78, 38, 164, 23, 14, 100, 8, 35, 35, 8, 5, 3, 7, 14, 7, 7, 8, 5, 8, 6, 3, 24, 6, 6, 9, 8, 6, 11, 7, 25, 5, 16, 28, 19, 10, 8, 6, 5, 11, 6, 11, 6, 1, 5, 2, 14, 8, 5, 3, 2, 22, 8, 23, 19, 69, 12, 3, 21, 2, 15, 4, 6, 15, 1, 31, 24, 9, 4, 4, 10, 13, 38, 3, 6, 4, 2, 4, 34, 7, 15, 4, 6, 8, 4, 10, 31, 5, 43, 31, 16, 5, 3, 8, 23, 15, 23, 15, 5, 9, 14, 6, 189, 21, 145, 148, 385, 763, 127, 17, 26, 56, 15, 8, 4, 24, 15, 38, 11, 4, 36, 2, 5, 11, 162, 69, 48, 530, 11, 505, 70, 13, 10, 148, 41, 5, 196, 1908, 77, 21, 49, 20, 108, 319, 135, 89, 1260, 2181, 10, 8, 6, 44, 119, 19, 15, 38, 39, 31, 3, 7, 6, 11, 10, 4, 26, 16, 11, 19, 7, 7, 24, 5, 14, 4, 3, 19, 5, 5, 6, 2, 9, 3, 5, 6, 11, 11, 6, 26, 4, 5, 7, 12, 10, 24, 9, 12, 4, 4, 5, 13, 27, 53, 11, 17, 5, 5, 4, 10, 3, 13, 3, 3, 7, 3, 20, 7, 3, 16, 6, 8, 21, 19, 7, 9, 3, 7, 5, 55, 9, 41, 10, 13, 8, 39, 69, 9, 8, 3, 72, 3, 44, 20, 8, 32, 17, 25, 53, 47, 10, 132, 147, 55, 41, 6, 20, 11, 40, 42, 8, 33, 12, 6, 4, 13, 4, 66, 4, 9, 6, 2, 7, 62, 28, 9, 78, 38, 164, 23, 14, 100, 8, 35, 35, 8, 5, 3, 7, 14, 7, 7, 8, 5, 8, 6, 3, 24, 6, 6, 9, 8, 6, 11, 7, 25, 5, 16, 28, 19, 10, 8, 6, 5, 11, 6, 11, 6, 1, 5, 2, 14, 8, 5, 3, 2, 22, 8, 23, 19, 69, 12, 3, 21, 2, 15, 4, 6, 15, 1, 31, 24, 9, 4, 4, 10, 13, 38, 3, 6, 4, 2, 4, 34, 7, 15, 4, 6, 8, 4, 10, 31, 5, 43, 31, 16, 5, 3, 8, 23, 15, 23, 15, 5, 9, 14, 6, 189, 21, 145, 148, 385, 763, 127, 17, 26, 56, 15, 8, 4, 24, 15, 38, 11, 4, 36, 2, 5, 11, 162, 69, 48, 530, 11, 505, 70, 13, 10, 148, 41, 5, 196, 1908, 77, 21, 49, 20, 108, 319, 135, 89, 1260, 2181, 10, 8, 6, 44, 119, 19, 15, 38, 39, 31, 3, 7, 6, 11, 10, 4, 26, 16, 11, 19, 7, 7, 24, 5, 14, 4, 3, 19, 5, 5, 6, 2, 9, 3, 5, 6, 11, 11, 6, 26, 4, 5, 7, 12, 10, 24, 9, 12, 4, 4, 5, 13, 27, 53, 11, 17, 5, 5, 4, 10, 3, 13, 3, 3, 7, 3, 20, 7, 3, 16, 6, 8, 21, 19, 7, 9, 3, 7, 5, 55, 9, 41, 10, 13, 8, 39, 69, 9, 8, 3, 72, 3, 44, 20, 8, 32, 17, 25, 53, 47, 10, 132, 147, 55, 41, 6, 20, 11, 40, 42, 8, 33, 12, 6, 4, 13, 4, 66, 4, 9, 6, 2, 7, 62, 28, 9, 78, 38, 164, 23, 14, 100, 8, 35, 35, 8, 5, 3, 7, 14, 7, 7, 8, 5, 8, 6, 3, 24, 6, 6, 9, 8, 6, 11, 7, 25, 5, 16, 28, 19, 10, 8, 6, 5, 11, 6, 11, 6, 1, 5, 2, 14, 8, 5, 3, 2, 8, 23, 19, 69, 12, 3, 21, 2, 15, 4, 6, 15, 1, 31, 24, 9, 4, 4, 10, 13, 38, 3, 6, 4, 2, 4, 34, 7, 15, 4, 6, 8, 4, 10, 31, 5, 43, 31, 16, 5, 3, 8, 23, 15, 23, 15, 5, 9, 14, 6, 189, 21, 145, 148, 385, 763, 127, 17, 26, 56, 15, 8, 4, 24, 15, 38, 11, 4, 36, 2, 5, 11, 162, 69, 48, 530, 11, 505, 70, 13, 10, 148, 41, 5, 196, 1908, 77, 21, 49, 20, 108, 319, 135, 89, 1260, 2181, 10, 6, 44, 119, 19, 15, 38, 39, 31, 3, 7, 6, 11, 10, 4, 26, 16, 11, 19, 7, 7, 24, 5, 14, 4, 3, 19, 5, 5, 6, 2, 9, 3, 5, 6, 11, 11, 6, 26, 4, 5, 7, 12, 10, 24, 9, 12, 4, 4, 5, 13, 27, 53, 11, 17, 5, 5, 4, 10, 3, 13, 3, 3, 7, 3, 20, 7, 3, 16, 6, 8, 21, 19, 7, 9, 3, 7, 5, 55, 9, 41, 10, 13, 8, 39, 69, 9, 8, 3, 72, 3, 44, 20, 8, 32, 17, 25, 53, 47, 10, 132, 147, 55, 41, 6, 20, 11, 40, 42, 8, 33, 12, 6, 4, 13, 4, 66, 4, 9, 6, 2, 7, 62, 28, 9, 78, 38, 164, 23, 14, 100, 8, 35, 35, 8, 5, 3, 7, 14, 7, 7, 8, 5, 8, 6, 3, 24, 6, 6, 9, 8, 6, 11, 7, 25, 5, 16, 28, 19, 10, 8, 6, 5, 11, 6, 11, 6, 1, 5, 2, 14, 8, 5, 3, 2, 8, 23, 19, 69, 12, 3, 21, 2, 15, 4, 6, 15, 1, 31, 24, 9, 4, 4, 10, 13, 38, 3, 6, 4, 2, 4, 34, 7, 15, 4, 6, 8, 4, 10, 31, 5, 43, 31, 16, 5, 3, 8, 23, 15, 23, 15, 5, 9, 14, 6, 189, 21, 145, 148, 385, 763, 127, 17, 26, 56, 15, 8, 4, 24, 15, 38, 11, 4, 36, 2, 5, 11, 162, 69, 48, 530, 11, 505, 70, 13, 10, 148, 41, 5, 196, 1908, 77, 21, 49, 20, 108, 319, 135, 89, 1260, 2181, 10, 6, 44, 119, 19, 15, 38, 39, 31, 3, 7, 6, 11, 10, 4, 26, 16, 11, 19, 7, 7, 24, 5, 14, 4, 3, 19, 5, 5, 6, 2, 9, 3, 5, 6, 11, 11, 6, 26, 4, 5, 7, 12, 10, 24, 9, 12, 4, 4, 5, 13, 27, 53, 11, 17, 5, 5, 4, 10, 3, 13, 3, 3, 7, 3, 20, 7, 3, 16, 6, 8, 21, 19, 7, 9, 3, 7, 5, 55, 9, 41, 10, 13, 8, 39, 69, 9, 8, 3, 72, 3, 44, 20, 8, 32, 17, 25, 53, 47, 10, 132, 147, 55, 41, 6, 20, 11, 40, 42, 8, 33, 12, 6, 4, 13, 4, 66, 4, 9, 6, 2, 7, 62, 28, 9, 78, 38, 164, 23, 14, 100, 8, 35, 35, 8, 5, 3, 7, 14, 7, 7, 8, 5, 8, 6, 3, 24, 6, 6, 9, 8, 6, 11, 7, 25, 5, 16, 28, 19, 10, 8, 6, 5, 11, 6, 11, 6, 1, 5, 2, 14, 8, 5, 3, 2, 23, 19, 69, 12, 3, 21, 2, 15, 4, 6, 15, 1, 31, 24, 9, 4, 4, 10, 13, 38, 3, 6, 4, 2, 4, 34, 7, 15, 4, 6, 8, 4, 10, 31, 5, 43, 31, 16, 5, 3, 8, 23, 15, 23, 15, 5, 9, 14, 6, 189, 21, 145, 148, 385, 763, 127, 17, 26, 56, 15, 8, 4, 24, 15, 38, 11, 4, 36, 2, 5, 11, 162, 69, 48, 530, 11, 505, 70, 13, 10, 148, 41, 5, 196, 1908, 77, 21, 49, 20, 108, 319, 135, 89, 1260, 2181, 10, 44, 119, 19, 15, 38, 39, 31, 3, 7, 6, 11, 10, 4, 26, 16, 11, 19, 7, 7, 24, 5, 14, 4, 3, 19, 5, 5, 6, 2, 9, 3, 5, 6, 11, 11, 6, 26, 4, 5, 7, 12, 10, 24, 9, 12, 4, 4, 5, 13, 27, 53, 11, 17, 5, 5, 4, 10, 3, 13, 3, 3, 7, 3, 20, 7, 3, 16, 6, 8, 21, 19, 7, 9, 3, 7, 5, 55, 9, 41, 10, 13, 8, 39, 69, 9, 8, 3, 72, 3, 44, 20, 8, 32, 17, 25, 53, 47, 10, 132, 147, 55, 41, 6, 20, 11, 40, 42, 8, 33, 12, 6, 4, 13, 4, 66, 4, 9, 6, 2, 7, 62, 28, 9, 78, 38, 164, 23, 14, 100, 8, 35, 35, 8, 5, 3, 7, 14, 7, 7, 8, 5, 8, 6, 3, 24, 6, 6, 9, 8, 6, 11, 7, 25, 5, 16, 28, 19, 10, 8, 6, 5, 11, 6, 11, 6, 1, 5, 2, 14, 8, 5, 3, 2, 23, 19, 69, 12, 3, 21, 2, 15, 4, 6, 15, 1, 31, 24, 9, 4, 4, 10, 13, 38, 3, 6, 4, 2, 4, 34, 7, 15, 4, 6, 8, 4, 10, 31, 5, 43, 31, 16, 5, 3, 8, 23, 15, 23, 15, 5, 9, 14, 6, 189, 21, 145, 148, 385, 763, 127, 17, 26, 56, 15, 8, 4, 24, 15, 38, 11, 4, 36, 2, 5, 11, 162, 69, 48, 530, 11, 505, 70, 13, 10, 148, 41, 5, 196, 1908, 77, 21, 49, 20, 108, 319, 135, 89, 1260, 2181, 10, 44, 119, 19, 15, 38, 39, 31, 3, 7, 6, 11, 10, 4, 26, 16, 11, 19, 7, 7, 24, 5, 14, 4, 3, 19, 5, 5, 6, 2, 9, 3, 5, 6, 11, 11, 6, 26, 4, 5, 7, 12, 10, 24, 9, 12, 4, 4, 5, 13, 27, 53, 11, 17, 5, 5, 4, 10, 3, 13, 3, 3, 7, 3, 20, 7, 3, 16, 6, 8, 21, 19, 7, 9, 3, 7, 5, 55, 9, 41, 10, 13, 8, 39, 69, 9, 8, 3, 72, 3, 44, 20, 8, 32, 17, 25, 53, 47, 10, 132, 147, 55, 41, 6, 20, 11, 40, 42, 8, 33, 12, 6, 4, 13, 4, 66, 4, 9, 6, 2, 7, 62, 28, 9, 78, 38, 164, 23, 14, 100, 8, 35, 35, 8, 5, 3, 7, 14, 7, 7, 8, 5, 8, 6, 3, 24, 6, 6, 9, 8, 6, 11, 7, 25, 5, 16, 28, 19, 10, 8, 6, 5, 11, 6, 11, 6, 1, 5, 2, 14, 8, 5, 3, 2, 19, 69, 12, 3, 21, 2, 15, 4, 6, 15, 1, 31, 24, 9, 4, 4, 10, 13, 38, 3, 6, 4, 2, 4, 34, 7, 15, 4, 6, 8, 4, 10, 31, 5, 43, 31, 16, 5, 3, 8, 23, 15, 23, 15, 5, 9, 14, 6, 189, 21, 145, 148, 385, 763, 127, 17, 26, 56, 15, 8, 4, 24, 15, 38, 11, 4, 36, 2, 5, 11, 162, 69, 48, 530, 11, 505, 70, 13, 10, 148, 41, 5, 196, 1908, 77, 21, 49, 20, 108, 319, 135, 89, 1260, 2181, 10, 119, 19, 15, 38, 39, 31, 3, 7, 6, 11, 10, 4, 26, 16, 11, 19, 7, 7, 24, 5, 14, 4, 3, 19, 5, 5, 6, 2, 9, 3, 5, 6, 11, 11, 6, 26, 4, 5, 7, 12, 10, 24, 9, 12, 4, 4, 5, 13, 27, 53, 11, 17, 5, 5, 4, 10, 3, 13, 3, 3, 7, 3, 20, 7, 3, 16, 6, 8, 21, 19, 7, 9, 3, 7, 5, 55, 9, 41, 10, 13, 8, 39, 69, 9, 8, 3, 72, 3, 44, 20, 8, 32, 17, 25, 53, 47, 10, 132, 147, 55, 41, 6, 20, 11, 40, 42, 8, 33, 12, 6, 4, 13, 4, 66, 4, 9, 6, 2, 7, 62, 28, 9, 78, 38, 164, 23, 14, 100, 8, 35, 35, 8, 5, 3, 7, 14, 7, 7, 8, 5, 8, 6, 3, 24, 6, 6, 9, 8, 6, 11, 7, 25, 5, 16, 28, 19, 10, 8, 6, 5, 11, 6, 11, 6, 1, 5, 2, 14, 8, 5, 3, 2] p=1.0"]
S1 -> S23 [label="4 [52521, 52521, 52521, 52521, 52521, 52521, 52521, 52521, 52521, 52521] p=0.0"]
S2 -> S1 [label="2 [6, 7, 10, 15, 9, 10, 6, 12, 9, 12, 101, 176, 3, 204, 74, 50, 10, 13, 165, 48, 46, 60, 20, 6, 14, 44, 18, 71, 15, 21, 20, 21, 44, 87, 13, 49, 35, 25, 7, 3, 16, 39, 12, 6, 3, 6, 3, 8, 32, 9, 57, 42, 32, 6, 14, 10, 7, 6, 3, 5, 14, 4, 7, 31, 10, 3, 5, 8, 27, 4, 13, 12, 58, 17, 12, 4, 8, 9, 6, 5, 1, 9, 7, 5, 5, 27, 6, 2, 3, 5, 7, 6, 6, 10, 20, 4, 7, 4, 6, 3, 3, 6, 2, 12, 8, 26, 12, 3, 19, 23, 9, 63, 42, 12, 15, 14, 26, 20, 9, 32, 73, 676, 13, 115, 98, 36, 161, 158, 7, 61, 392, 404, 14, 116, 55847, 42, 56, 11, 22, 22, 3340, 119, 41, 22, 40, 16, 24, 165, 4, 61, 50, 12, 117, 5, 7, 22, 2941, 16, 14, 73, 9, 58, 18, 100, 83, 45, 163, 32, 110, 8, 168, 59, 65, 58, 19, 2, 71, 2858, 23, 14, 107, 2, 7, 35, 34, 15, 14, 19, 6, 7, 7, 5, 6, 16, 5, 4, 8, 9, 4, 6, 4, 14, 8, 5, 3, 12, 14, 26, 2, 50, 5, 11, 5, 9, 43, 364, 13, 92, 37, 23, 71, 1843, 599, 14, 11, 7, 4, 5, 6, 5, 8, 10, 11, 6, 8, 18, 13, 51, 19, 10, 1570, 620, 15, 351, 71, 8, 41, 3, 59, 12, 9, 7, 6, 18, 7, 5, 6, 26, 29, 34, 33, 17, 49, 33, 12, 174, 40, 20, 101, 6, 9, 67, 3, 32, 76, 3885, 6, 7, 10, 15, 9, 10, 6, 12, 9, 12, 101, 176, 3, 204, 74, 50, 10, 13, 165, 48, 46, 60, 20, 6, 14, 44, 18, 71, 15, 21, 20, 21, 44, 87, 13, 49, 35, 25, 7, 3, 16, 39, 12, 6, 3, 6, 3, 8, 32, 9, 57, 42, 32, 6, 14, 10, 7, 6, 3, 5, 14, 4, 7, 31, 10, 3, 5, 8, 27, 4, 13, 12, 58, 17, 12, 4, 8, 9, 6, 5, 1, 9, 7, 5, 5, 27, 6, 2, 3, 5, 7, 6, 6, 10, 20, 4, 7, 4, 6, 3, 3, 6, 2, 12, 8, 26, 12, 3, 19, 23, 9, 63, 42, 12, 15, 14, 26, 20, 9, 32, 73, 676, 13, 115, 98, 36, 161, 158, 7, 61, 392, 404, 14, 116, 55847, 42, 56, 11, 22, 22, 3340, 119, 41, 22, 40, 16, 24, 165, 4, 61, 50, 12, 117, 5, 7, 22, 2941, 16, 14, 73, 9, 58, 18, 100, 83, 45, 163, 32, 110, 8, 168, 59, 65, 58, 19, 2, 71, 2858, 23, 14, 107, 2, 7, 35, 34, 15, 14, 19, 6, 7, 7, 5, 6, 16, 5, 4, 8, 9, 4, 6, 4, 14, 8, 5, 3, 12, 14, 26, 2, 50, 5, 11, 5, 9, 43, 364, 13, 92, 37, 23, 71, 1843, 599, 14, 11, 7, 4, 5, 6, 5, 8, 10, 11, 6, 8, 18, 13, 51, 19, 10, 1570, 620, 15, 351, 71, 8, 41, 3, 59, 12, 9, 7, 6, 18, 7, 5, 6, 26, 29, 34, 33, 17, 49, 33, 12, 174, 40, 20, 101, 6, 9, 67, 3, 32, 76, 3885, 7, 10, 15, 9, 10, 6, 12, 9, 12, 101, 176, 3, 204, 74, 50, 10, 13, 165, 48, 46, 60, 20, 6, 14, 44, 18, 71, 15, 21, 20, 21, 44, 87, 13, 49, 35, 25, 7, 3, 16, 39, 12, 6, 3, 6, 3, 8, 32, 9, 57, 42, 32, 6, 14, 10, 7, 6, 3, 5, 14, 4, 7, 31, 10, 3, 5, 8, 27, 4, 13, 12, 58, 17, 12, 4, 8, 9, 6, 5, 1, 9, 7, 5, 5, 27, 6, 2, 3, 5, 7, 6, 6, 10, 20, 4, 7, 4, 6, 3, 6, 2, 12, 8, 26, 12, 3, 19, 23, 9, 63, 42, 12, 15, 14, 26, 20, 9, 32, 73, 676, 13, 115, 98, 36, 161, 158, 7, 61, 392, 404, 14, 116, 55847, 42, 56, 11, 22, 22, 3340, 119, 41, 22, 40, 16, 24, 165, 4, 61, 50, 12, 117, 5, 7, 22, 2941, 16, 14, 73, 9, 58, 18, 100, 83, 45, 163, 32, 110, 8, 168, 59, 65, 58, 19, 2, 71, 2858, 23, 14, 107, 2, 7, 35, 34, 15, 14, 19, 6, 7, 7, 5, 6, 16, 5, 4, 8, 9, 4, 6, 4, 14, 8, 5, 3, 12, 14, 26, 2, 50, 5, 11, 5, 9, 43, 364, 13, 92, 37, 23, 71, 1843, 599, 14, 11, 7, 4, 5, 6, 5, 8, 10, 11, 6, 8, 18, 13, 51, 19, 10, 1570, 620, 15, 351, 71, 8, 41, 3, 59, 12, 9, 7, 6, 18, 7, 5, 6, 26, 29, 34, 33, 17, 49, 33, 12, 174, 40, 20, 101, 6, 9, 67, 3, 32, 76, 3885, 7, 10, 15, 9, 10, 6, 12, 9, 12, 101, 176, 3, 204, 74, 50, 10, 13, 165, 48, 46, 60, 20, 6, 14, 44, 18, 71, 15, 21, 20, 21, 44, 87, 13, 49, 35, 25, 7, 3, 16, 39, 12, 6, 3, 6, 3, 8, 32, 9, 57, 42, 32, 6, 14, 10, 7, 6, 3, 5, 14, 4, 7, 31, 10, 3, 5, 8, 27, 4, 13, 12, 58, 17, 12, 4, 8, 9, 6, 5, 1, 9, 7, 5, 5, 27, 6, 2, 3, 5, 7, 6, 6, 10, 20, 4, 7, 4, 6, 3, 6, 2, 12, 8, 26, 12, 3, 19, 23, 9, 63, 42, 12, 15, 14, 26, 20, 9, 32, 73, 676, 13, 115, 98, 36, 161, 158, 7, 61, 392, 404, 14, 116, 55847, 42, 56, 11, 22, 22, 3340, 119, 41, 22, 40, 16, 24, 165, 4, 61, 50, 12, 117, 5, 7, 22, 2941, 16, 14, 73, 9, 58, 18, 100, 83, 45, 163, 32, 110, 8, 168, 59, 65, 58, 19, 2, 71, 2858, 23, 14, 107, 2, 7, 35, 34, 15, 14, 19, 6, 7, 7, 5, 6, 16, 5, 4, 8, 9, 4, 6, 4, 14, 8, 5, 3, 12, 14, 26, 2, 50, 5, 11, 5, 9, 43, 364, 13, 92, 37, 23, 71, 1843, 599, 14, 11, 7, 4, 5, 6, 5, 8, 10, 11, 6, 8, 18, 13, 51, 19, 10, 1570, 620, 15, 351, 71, 8, 41, 3, 59, 12, 9, 7, 6, 18, 7, 5, 6, 26, 29, 34, 33, 17, 49, 33, 12, 174, 40, 20, 101, 6, 9, 67, 3, 32, 76, 3885, 10, 15, 9, 10, 6, 12, 9, 12, 101, 176, 3, 204, 74, 50, 10, 13, 165, 48, 46, 60, 20, 6, 14, 44, 18, 71, 15, 21, 20, 21, 44, 87, 13, 49, 35, 25, 7, 3, 16, 39, 12, 6, 3, 6, 3, 8, 32, 9, 57, 42, 32, 6, 14, 10, 7, 6, 3, 5, 14, 4, 7, 31, 10, 3, 5, 8, 27, 4, 13, 12, 58, 17, 12, 4, 8, 9, 6, 5, 1, 9, 7, 5, 5, 27, 6, 2, 3, 5, 7, 6, 6, 10, 20, 4, 7, 4, 6, 3, 2, 12, 8, 26, 12, 3, 19, 23, 9, 63, 42, 12, 15, 14, 26, 20, 9, 32, 73, 676, 13, 115, 98, 36, 161, 158, 7, 61, 392, 404, 14, 116, 55847, 42, 56, 11, 22, 22, 3340, 119, 41, 22, 40, 16, 24, 165, 4, 61, 50, 12, 117, 5, 7, 22, 2941, 16, 14, 73, 9, 58, 18, 100, 83, 45, 163, 32, 110, 8, 168, 59, 65, 58, 19, 2, 71, 2858, 23, 14, 107, 2, 7, 35, 34, 15, 14, 19, 6, 7, 7, 5, 6, 16, 5, 4, 8, 9, 4, 6, 4, 14, 8, 5, 3, 12, 14, 26, 2, 50, 5, 11, 5, 9, 43, 364, 13, 92, 37, 23, 71, 1843, 599, 14, 11, 7, 4, 5, 6, 5, 8, 10, 11, 6, 8, 18, 13, 51, 19, 10, 1570, 620, 15, 351, 71, 8, 41, 3, 59, 12, 9, 7, 6, 18, 7, 5, 6, 26, 29, 34, 33, 17, 49, 33, 12, 174, 40, 20, 101, 6, 9, 67, 3, 32, 76, 3885, 10, 15, 9, 10, 6, 12, 9, 12, 101, 176, 3, 204, 74, 50, 10, 13, 165, 48, 46, 60, 20, 6, 14, 44, 18, 71, 15, 21, 20, 21, 44, 87, 13, 49, 35, 25, 7, 3, 16, 39, 12, 6, 3, 6, 3, 8, 32, 9, 57, 42, 32, 6, 14, 10, 7, 6, 3, 5, 14, 4, 7, 31, 10, 3, 5, 8, 27, 4, 13, 12, 58, 17, 12, 4, 8, 9, 6, 5, 1, 9, 7, 5, 5, 27, 6, 2, 3, 5, 7, 6, 6, 10, 20, 4, 7, 4, 6, 3, 2, 12, 8, 26, 12, 3, 19, 23, 9, 63, 42, 12, 15, 14, 26, 20, 9, 32, 73, 676, 13, 115, 98, 36, 161, 158, 7, 61, 392, 404, 14, 116, 55847, 42, 56, 11, 22, 22, 3340, 119, 41, 22, 40, 16, 24, 165, 4, 61, 50, 12, 117, 5, 7, 22, 2941, 16, 14, 73, 9, 58, 18, 100, 83, 45, 163, 32, 110, 8, 168, 59, 65, 58, 19, 2, 71, 2858, 23, 14, 107, 2, 7, 35, 34, 15, 14, 19, 6, 7, 7, 5, 6, 16, 5, 4, 8, 9, 4, 6, 4, 14, 8, 5, 3, 12, 14, 26, 2, 50, 5, 11, 5, 9, 43, 364, 13, 92, 37, 23, 71, 1843, 599, 14, 11, 7, 4, 5, 6, 5, 8, 10, 11, 6, 8, 18, 13, 51, 19, 10, 1570, 620, 15, 351, 71, 8, 41, 3, 59, 12, 9, 7, 6, 18, 7, 5, 6, 26, 29, 34, 33, 17, 49, 33, 12, 174, 40, 20, 101, 6, 9, 67, 3, 32, 76, 3885, 15, 9, 10, 6, 12, 9, 12, 101, 176, 3, 204, 74, 50, 10, 13, 165, 48, 46, 60, 20, 6, 14, 44, 18, 71, 15, 21, 20, 21, 44, 87, 13, 49, 35, 25, 7, 3, 16, 39, 12, 6, 3, 6, 3, 8, 32, 9, 57, 42, 32, 6, 14, 10, 7, 6, 3, 5, 14, 4, 7, 31, 10, 3, 5, 8, 27, 4, 13, 12, 58, 17, 12, 4, 8, 9, 6, 5, 1, 9, 7, 5, 5, 27, 6, 2, 3, 5, 7, 6, 6, 10, 20, 4, 7, 4, 6, 3, 12, 8, 26, 12, 3, 19, 23, 9, 63, 42, 12, 15, 14, 26, 20, 9, 32, 73, 676, 13, 115, 98, 36, 161, 158, 7, 61, 392, 404, 14, 116, 55847, 42, 56, 11, 22, 22, 3340, 119, 41, 22, 40, 16, 24, 165, 4, 61, 50, 12, 117, 5, 7, 22, 2941, 16, 14, 73, 9, 58, 18, 100, 83, 45, 163, 32, 110, 8, 168, 59, 65, 58, 19, 2, 71, 2858, 23, 14, 107, 2, 7, 35, 34, 15, 14, 19, 6, 7, 7, 5, 6, 16, 5, 4, 8, 9, 4, 6, 4, 14, 8, 5, 3, 12, 14, 26, 2, 50, 5, 11, 5, 9, 43, 364, 13, 92, 37, 23, 71, 1843, 599, 14, 11, 7, 4, 5, 6, 5, 8, 10, 11, 6, 8, 18, 13, 51, 19, 10, 1570, 620, 15, 351, 71, 8, 41, 3, 59, 12, 9, 7, 6, 18, 7, 5, 6, 26, 29, 34, 33, 17, 49, 33, 12, 174, 40, 20, 101, 6, 9, 67, 3, 32, 76, 3885, 15, 9, 10, 6, 12, 9, 12, 101, 176, 3, 204, 74, 50, 10, 13, 165, 48, 46, 60, 20, 6, 14, 44, 18, 71, 15, 21, 20, 21, 44, 87, 13, 49, 35, 25, 7, 3, 16, 39, 12, 6, 3, 6, 3, 8, 32, 9, 57, 42, 32, 6, 14, 10, 7, 6, 3, 5, 14, 4, 7, 31, 10, 3, 5, 8, 27, 4, 13, 12, 58, 17, 12, 4, 8, 9, 6, 5, 1, 9, 7, 5, 5, 27, 6, 2, 3, 5, 7, 6, 6, 10, 20, 4, 7, 4, 6, 3, 12, 8, 26, 12, 3, 19, 23, 9, 63, 42, 12, 15, 14, 26, 20, 9, 32, 73, 676, 13, 115, 98, 36, 161, 158, 7, 61, 392, 404, 14, 116, 55847, 42, 56, 11, 22, 22, 3340, 119, 41, 22, 40, 16, 24, 165, 4, 61, 50, 12, 117, 5, 7, 22, 2941, 16, 14, 73, 9, 58, 18, 100, 83, 45, 163, 32, 110, 8, 168, 59, 65, 58, 19, 2, 71, 2858, 23, 14, 107, 2, 7, 35, 34, 15, 14, 19, 6, 7, 7, 5, 6, 16, 5, 4, 8, 9, 4, 6, 4, 14, 8, 5, 3, 12, 14, 26, 2, 50, 5, 11, 5, 9, 43, 364, 13, 92, 37, 23, 71, 1843, 599, 14, 11, 7, 4, 5, 6, 5, 8, 10, 11, 6, 8, 18, 13, 51, 19, 10, 1570, 620, 15, 351, 71, 8, 41, 3, 59, 12, 9, 7, 6, 18, 7, 5, 6, 26, 29, 34, 33, 17, 49, 33, 12, 174, 40, 20, 101, 6, 9, 67, 3, 32, 76, 3885, 9, 10, 6, 12, 9, 12, 101, 176, 3, 204, 74, 50, 10, 13, 165, 48, 46, 60, 20, 6, 14, 44, 18, 71, 15, 21, 20, 21, 44, 87, 13, 49, 35, 25, 7, 3, 16, 39, 12, 6, 3, 6, 3, 8, 32, 9, 57, 42, 32, 6, 14, 10, 7, 6, 3, 5, 14, 4, 7, 31, 10, 3, 5, 8, 27, 4, 13, 12, 58, 17, 12, 4, 8, 9, 6, 5, 1, 9, 7, 5, 5, 27, 6, 2, 3, 5, 7, 6, 6, 10, 20, 4, 7, 4, 6, 3, 8, 26, 12, 3, 19, 23, 9, 63, 42, 12, 15, 14, 26, 20, 9, 32, 73, 676, 13, 115, 98, 36, 161, 158, 7, 61, 392, 404, 14, 116, 55847, 42, 56, 11, 22, 22, 3340, 119, 41, 22, 40, 16, 24, 165, 4, 61, 50, 12, 117, 5, 7, 22, 2941, 16, 14, 73, 9, 58, 18, 100, 83, 45, 163, 32, 110, 8, 168, 59, 65, 58, 19, 2, 71, 2858, 23, 14, 107, 2, 7, 35, 34, 15, 14, 19, 6, 7, 7, 5, 6, 16, 5, 4, 8, 9, 4, 6, 4, 14, 8, 5, 3, 12, 14, 26, 2, 50, 5, 11, 5, 9, 43, 364, 13, 92, 37, 23, 71, 1843, 599, 14, 11, 7, 4, 5, 6, 5, 8, 10, 11, 6, 8, 18, 13, 51, 19, 10, 1570, 620, 15, 351, 71, 8, 41, 3, 59, 12, 9, 7, 6, 18, 7, 5, 6, 26, 29, 34, 33, 17, 49, 33, 12, 174, 40, 20, 101, 6, 9, 67, 3, 32, 76, 3885, 9, 10, 6, 12, 9, 12, 101, 176, 3, 204, 74, 50, 10, 13, 165, 48, 46, 60, 20, 6, 14, 44, 18, 71, 15, 21, 20, 21, 44, 87, 13, 49, 35, 25, 7, 3, 16, 39, 12, 6, 3, 6, 3, 8, 32, 9, 57, 42, 32, 6, 14, 10, 7, 6, 3, 5, 14, 4, 7, 31, 10, 3, 5, 8, 27, 4, 13, 12, 58, 17, 12, 4, 8, 9, 6, 5, 1, 9, 7, 5, 5, 27, 6, 2, 3, 5, 7, 6, 6, 10, 20, 4, 7, 4, 6, 3, 8, 26, 12, 3, 19, 23, 9, 63, 42, 12, 15, 14, 26, 20, 9, 32, 73, 676, 13, 115, 98, 36, 161, 158, 7, 61, 392, 404, 14, 116, 55847, 42, 56, 11, 22, 22, 3340, 119, 41, 22, 40, 16, 24, 165, 4, 61, 50, 12, 117, 5, 7, 22, 2941, 16, 14, 73, 9, 58, 18, 100, 83, 45, 163, 32, 110, 8, 168, 59, 65, 58, 19, 2, 71, 2858, 23, 14, 107, 2, 7, 35, 34, 15, 14, 19, 6, 7, 7, 5, 6, 16, 5, 4, 8, 9, 4, 6, 4, 14, 8, 5, 3, 12, 14, 26, 2, 50, 5, 11, 5, 9, 43, 364, 13, 92, 37, 23, 71, 1843, 599, 14, 11, 7, 4, 5, 6, 5, 8, 10, 11, 6, 8, 18, 13, 51, 19, 10, 1570, 620, 15, 351, 71, 8, 41, 3, 59, 12, 9, 7, 6, 18, 7, 5, 6, 26, 29, 34, 33, 17, 49, 33, 12, 174, 40, 20, 101, 6, 9, 67, 3, 32, 76, 3885] p=1.0"]
S23 -> S25 [label="2 [5, 5, 5, 5, 5, 5, 5, 5, 5, 5, 3, 3, 3, 3, 3, 3, 3, 3, 6, 6, 6, 6, 6, 6, 2, 2, 2, 2, 12, 12] p=1.0"]
S25 -> S23 [label="1 [74908, 74908, 74908, 74908, 74908, 74908, 74908, 74908, 74908, 74, 74, 74, 74, 74, 74, 74, 8, 8, 8, 8, 8, 6, 6, 6, 44] p=1.0"]