3:0 1:2 2:2 4:2 3:1 4:3 2:1 4:1 2:1 1:1 3:5
1:0 2:2 4:2 3:1 4:3 2:1 4:1 2:1 1:1 3:5 4:1
2:0 4:2 3:1 4:3 2:1 4:1 2:1 1:1 3:5 4:1 5:4
4:0 3:1 4:3 2:1 4:1 2:1 1:1 3:5 4:1 5:4 3:1
3:0 4:3 2:1 4:1 2:1 1:1 3:5 4:1 5:4 3:1 1:2
4:0 2:1 4:1 2:1 1:1 3:5 4:1 5:4 3:1 1:2 2:2
2:0 4:1 2:1 1:1 3:5 4:1 5:4 3:1 1:2 2:2 4:2
4:0 2:1 1:1 3:5 4:1 5:4 3:1 1:2 2:2 4:2 3:1
2:0 1:1 3:5 4:1 5:4 3:1 1:2 2:2 4:2 3:1 4:3
1:0 3:5 4:1 5:4 3:1 1:2 2:2 4:2 3:1 4:3 2:1
3:0 4:1 5:4 3:1 1:2 2:2 4:2 3:1 4:3 2:1 4:1
4:0 5:4 3:1 1:2 2:2 4:2 3:1 4:3 2:1 4:1 2:1
5:0 3:1 1:2 2:2 4:2 3:1 4:3 2:1 4:1 2:1 1:1
3:0 1:2 2:2 4:2 3:1 4:3 2:1 4:1 2:1 1:1 3:5
1:0 2:2 4:2 3:1 4:3 2:1 4:1 2:1 1:1 3:5 4:1
2:0 4:2 3:1 4:3 2:1 4:1 2:1 1:1 3:5 4:1 5:4
4:0 3:1 4:3 2:1 4:1 2:1 1:1 3:5 4:1 5:4 3:1
3:0 4:3 2:1 4:1 2:1 1:1 3:5 4:1 5:4 3:1 1:2
4:0 2:1 4:1 2:1 1:1 3:5 4:1 5:4 3:1 1:2 2:2
2:0 4:1 2:1 1:1 3:5 4:1 5:4 3:1 1:2 2:2 4:2
4:0 2:1 1:1 3:5 4:1 5:4 3:1 1:2 2:2 4:2 3:1
2:0 1:1 3:5 4:1 5:4 3:1 1:2 2:2 4:2 3:1 4:3
1:0 3:5 4:1 5:4 3:1 1:2 2:2 4:2 3:1 4:3 2:1
3:0 4:1 5:4 3:1 1:2 2:2 4:2 3:1 4:3 2:1 4:1
4:0 5:4 3:1 1:2 2:2 4:2 3:1 4:3 2:1 4:1 2:1
5:0 3:1 1:2 2:2 4:2 3:1 4:3 2:1 4:1 2:1 1:1
3:0 1:2 2:2 4:2 3:1 4:3 2:1 4:1 2:1 1:1 3:5
1:0 2:2 4:2 3:1 4:3 2:1 4:1 2:1 1:1 3:5 4:1
2:0 4:2 3:1 4:3 2:1 4:1 2:1 1:1 3:5 4:1 5:4
4:0 3:1 4:3 2:1 4:1 2:1 1:1 3:5 4:1 5:4 3:1
3:0 4:3 2:1 4:1 2:1 1:1 3:5 4:1 5:4 3:1 1:2
4:0 2:1 4:1 2:1 1:1 3:5 4:1 5:4 3:1 1:2 2:2
2:0 4:1 2:1 1:1 3:5 4:1 5:4 3:1 1:2 2:2 4:2
4:0 2:1 1:1 3:5 4:1 5:4 3:1 1:2 2:2 4:2 3:1
2:0 1:1 3:5 4:1 5:4 3:1 1:2 2:2 4:2 3:1 4:3
1:0 3:5 4:1 5:4 3:1 1:2 2:2 4:2 3:1 4:3 2:1
3:0 4:1 5:4 3:1 1:2 2:2 4:2 3:1 4:3 2:1 4:1
4:0 5:4 3:1 1:2 2:2 4:2 3:1 4:3 2:1 4:1 2:1
5:0 3:1 1:2 2:2 4:2 3:1 4:3 2:1 4:1 2:1 1:1
3:0 1:2 2:2 4:2 3:1 4:3 2:1 4:1 2:1 1:1 3:5
1:0 2:2 4:2 3:1 4:3 2:1 4:1 2:1 1:1 3:5 4:1
2:0 4:2 3:1 4:3 2:1 4:1 2:1 1:1 3:5 4:1 5:4
4:0 3:1 4:3 2:1 4:1 2:1 1:1 3:5 4:1 5:4 3:1
3:0 4:3 2:1 4:1 2:1 1:1 3:5 4:1 5:4 3:1 1:2
4:0 2:1 4:1 2:1 1:1 3:5 4:1 5:4 3:1 1:2 2:2
2:0 4:1 2:1 1:1 3:5 4:1 5:4 3:1 1:2 2:2 4:2
4:0 2:1 1:1 3:5 4:1 5:4 3:1 1:2 2:2 4:2 3:1
2:0 1:1 3:5 4:1 5:4 3:1 1:2 2:2 4:2 3:1 4:3
1:0 3:5 4:1 5:4 3:1 1:2 2:2 4:2 3:1 4:3 2:1
3:0 4:1 5:4 3:1 1:2 2:2 4:2 3:1 4:3 2:1 4:1
4:0 5:4 3:1 1:2 2:2 4:2 3:1 4:3 2:1 4:1 2:1
5:0 3:1 1:2 2:2 4:2 3:1 4:3 2:1 4:1 2:1 1:1
3:0 1:2 2:2 4:2 3:1 4:3 2:1 4:1 2:1 1:1 3:5
1:0 2:2 4:2 3:1 4:3 2:1 4:1 2:1 1:1 3:5 4:1
2:0 4:2 3:1 4:3 2:1 4:1 2:1 1:1 3:5 4:1 5:4
4:0 3:1 4:3 2:1 4:1 2:1 1:1 3:5 4:1 5:4 3:1
3:0 4:3 2:1 4:1 2:1 1:1 3:5 4:1 5:4 3:1 1:2
4:0 2:1 4:1 2:1 1:1 3:5 4:1 5:4 3:1 1:2 2:2
2:0 4:1 2:1 1:1 3:5 4:1 5:4 3:1 1:2 2:2 4:2
4:0 2:1 1:1 3:5 4:1 5:4 3:1 1:2 2:2 4:2 3:1
2:0 1:1 3:5 4:1 5:4 3:1 1:2 2:2 4:2 3:1 4:3
1:0 3:5 4:1 5:4 3:1 1:2 2:2 4:2 3:1 4:3 2:1
3:0 4:1 5:4 3:1 1:2 2:2 4:2 3:1 4:3 2:1 4:1
4:0 5:4 3:1 1:2 2:2 4:2 3:1 4:3 2:1 4:1 2:1
5:0 3:1 1:2 2:2 4:2 3:1 4:3 2:1 4:1 2:1 1:1
3:0 1:2 2:2 4:2 3:1 4:3 2:1 4:1 2:1 1:1 3:5
1:0 2:2 4:2 3:1 4:3 2:1 4:1 2:1 1:1 3:5 4:1
2:0 4:2 3:1 4:3 2:1 4:1 2:1 1:1 3:5 4:1 5:4
4:0 3:1 4:3 2:1 4:1 2:1 1:1 3:5 4:1 5:4 3:1
3:0 4:3 2:1 4:1 2:1 1:1 3:5 4:1 5:4 3:1 1:2
4:0 2:1 4:1 2:1 1:1 3:5 4:1 5:4 3:1 1:2 2:2
2:0 4:1 2:1 1:1 3:5 4:1 5:4 3:1 1:2 2:2 4:2
4:0 2:1 1:1 3:5 4:1 5:4 3:1 1:2 2:2 4:2 3:1
2:0 1:1 3:5 4:1 5:4 3:1 1:2 2:2 4:2 3:1 4:3
1:0 3:5 4:1 5:4 3:1 1:2 2:2 4:2 3:1 4:3 2:1
3:0 4:1 5:4 3:1 1:2 2:2 4:2 3:1 4:3 2:1 4:1
4:0 5:4 3:1 1:2 2:2 4:2 3:1 4:3 2:1 4:1 2:1
5:0 3:1 1:2 2:2 4:2 3:1 4:3 2:1 4:1 2:1 1:1
3:0 1:2 2:2 4:2 3:1 4:3 2:1 4:1 2:1 1:1 3:5
1:0 2:2 4:2 3:1 4:3 2:1 4:1 2:1 1:1 3:5 4:1
2:0 4:2 3:1 4:3 2:1 4:1 2:1 1:1 3:5 4:1 5:4
4:0 3:1 4:3 2:1 4:1 2:1 1:1 3:5 4:1 5:4 3:1
3:0 4:3 2:1 4:1 2:1 1:1 3:5 4:1 5:4 3:1 1:2
4:0 2:1 4:1 2:1 1:1 3:5 4:1 5:4 3:1 1:2 2:2
2:0 4:1 2:1 1:1 3:5 4:1 5:4 3:1 1:2 2:2 4:2
4:0 2:1 1:1 3:5 4:1 5:4 3:1 1:2 2:2 4:2 3:1
2:0 1:1 3:5 4:1 5:4 3:1 1:2 2:2 4:2 3:1 4:3
1:0 3:5 4:1 5:4 3:1 1:2 2:2 4:2 3:1 4:3 2:1
3:0 4:1 5:4 3:1 1:2 2:2 4:2 3:1 4:3 2:1 4:1
4:0 5:4 3:1 1:2 2:2 4:2 3:1 4:3 2:1 4:1 2:1
5:0 3:1 1:2 2:2 4:2 3:1 4:3 2:1 4:1 2:1 1:1
3:0 1:2 2:2 4:2 3:1 4:3 2:1 4:1 2:1 1:1 3:5
1:0 2:2 4:2 3:1 4:3 2:1 4:1 2:1 1:1 3:5 4:1
2:0 4:2 3:1 4:3 2:1 4:1 2:1 1:1 3:5 4:1 5:4
4:0 3:1 4:3 2:1 4:1 2:1 1:1 3:5 4:1 5:4 3:1
3:0 4:3 2:1 4:1 2:1 1:1 3:5 4:1 5:4 3:1 1:2
4:0 2:1 4:1 2:1 1:1 3:5 4:1 5:4 3:1 1:2 2:2
2:0 4:1 2:1 1:1 3:5 4:1 5:4 3:1 1:2 2:2 4:2
4:0 2:1 1:1 3:5 4:1 5:4 3:1 1:2 2:2 4:2 3:1
2:0 1:1 3:5 4:1 5:4 3:1 1:2 2:2 4:2 3:1 4:3
1:0 3:5 4:1 5:4 3:1 1:2 2:2 4:2 3:1 4:3 2:1
3:0 4:1 5:4 3:1 1:2 2:2 4:2 3:1 4:3 2:1 4:1
4:0 5:4 3:1 1:2 2:2 4:2 3:1 4:3 2:1 4:1 2:1
5:0 3:1 1:2 2:2 4:2 3:1 4:3 2:1 4:1 2:1 1:1
3:0 1:2 2:2 4:2 3:1 4:3 2:1 4:1 2:1 1:1 3:5
1:0 2:2 4:2 3:1 4:3 2:1 4:1 2:1 1:1 3:5 4:1
2:0 4:2 3:1 4:3 2:1 4:1 2:1 1:1 3:5 4:1 5:4
4:0 3:1 4:3 2:1 4:1 2:1 1:1 3:5 4:1 5:4 3:1
3:0 4:3 2:1 4:1 2:1 1:1 3:5 4:1 5:4 3:1 1:2
4:0 2:1 4:1 2:1 1:1 3:5 4:1 5:4 3:1 1:2 2:2
2:0 4:1 2:1 1:1 3:5 4:1 5:4 3:1 1:2 2:2 4:2
4:0 2:1 1:1 3:5 4:1 5:4 3:1 1:2 2:2 4:2 3:1
2:0 1:1 3:5 4:1 5:4 3:1 1:2 2:2 4:2 3:1 4:3
1:0 3:5 4:1 5:4 3:1 1:2 2:2 4:2 3:1 4:3 2:1
3:0 4:1 5:4 3:1 1:2 2:2 4:2 3:1 4:3 2:1 4:1
4:0 5:4 3:1 1:2 2:2 4:2 3:1 4:3 2:1 4:1 2:1
5:0 3:1 1:2 2:2 4:2 3:1 4:3 2:1 4:1 2:1 1:1
3:0 1:2 2:2 4:2 3:1 4:3 2:1 4:1 2:1 1:1 3:5
1:0 2:2 4:2 3:1 4:3 2:1 4:1 2:1 1:1 3:5 4:1
2:0 4:2 3:1 4:3 2:1 4:1 2:1 1:1 3:5 4:1 5:4
4:0 3:1 4:3 2:1 4:1 2:1 1:1 3:5 4:1 5:4 3:1
3:0 4:3 2:1 4:1 2:1 1:1 3:5 4:1 5:4 3:1 1:2
4:0 2:1 4:1 2:1 1:1 3:5 4:1 5:4 3:1 1:2 2:2
2:0 4:1 2:1 1:1 3:5 4:1 5:4 3:1 1:2 2:2 4:2
4:0 2:1 1:1 3:5 4:1 5:4 3:1 1:2 2:2 4:2 3:1
2:0 1:1 3:5 4:1 5:4 3:1 1:2 2:2 4:2 3:1 4:3
1:0 3:5 4:1 5:4 3:1 1:2 2:2 4:2 3:1 4:3 2:1
3:0 4:1 5:4 3:1 1:2 2:2 4:2 3:1 4:3 2:1 4:1
4:0 5:4 3:1 1:2 2:2 4:2 3:1 4:3 2:1 4:1 2:1
5:0 3:1 1:2 2:2 4:2 3:1 4:3 2:1 4:1 2:1 1:1
3:0 1:2 2:2 4:2 3:1 4:3 2:1 4:1 2:1 1:1 3:5
1:0 2:2 4:2 3:1 4:3 2:1 4:1 2:1 1:1 3:5 4:1
2:0 4:2 3:1 4:3 2:1 4:1 2:1 1:1 3:5 4:1 5:4
4:0 3:1 4:3 2:1 4:1 2:1 1:1 3:5 4:1 5:4 3:1
3:0 4:3 2:1 4:1 2:1 1:1 3:5 4:1 5:4 3:1 1:2
4:0 2:1 4:1 2:1 1:1 3:5 4:1 5:4 3:1 1:2 2:2
2:0 4:1 2:1 1:1 3:5 4:1 5:4 3:1 1:2 2:2 4:2
4:0 2:1 1:1 3:5 4:1 5:4 3:1 1:2 2:2 4:2 3:1
2:0 1:1 3:5 4:1 5:4 3:1 1:2 2:2 4:2 3:1 4:3
1:0 3:5 4:1 5:4 3:1 1:2 2:2 4:2 3:1 4:3 2:1
3:0 4:1 5:4 3:1 1:2 2:2 4:2 3:1 4:3 2:1 4:1
4:0 5:4 3:1 1:2 2:2 4:2 3:1 4:3 2:1 4:1 2:1
5:0 3:1 1:2 2:2 4:2 3:1 4:3 2:1 4:1 2:1 1:1
3:0 1:2 2:2 4:2 3:1 4:3 2:1 4:1 2:1 1:1 3:5
1:0 2:2 4:2 3:1 4:3 2:1 4:1 2:1 1:1 3:5 4:1
2:0 4:2 3:1 4:3 2:1 4:1 2:1 1:1 3:5 4:1 5:4
4:0 3:1 4:3 2:1 4:1 2:1 1:1 3:5 4:1 5:4 3:1
3:0 4:3 2:1 4:1 2:1 1:1 3:5 4:1 5:4 3:1 1:2
4:0 2:1 4:1 2:1 1:1 3:5 4:1 5:4 3:1 1:2 2:2
2:0 4:1 2:1 1:1 3:5 4:1 5:4 3:1 1:2 2:2 4:2
4:0 2:1 1:1 3:5 4:1 5:4 3:1 1:2 2:2 4:2 3:1
2:0 1:1 3:5 4:1 5:4 3:1 1:2 2:2 4:2 3:1 4:3
1:0 3:5 4:1 5:4 3:1 1:2 2:2 4:2 3:1 4:3 2:1
3:0 4:1 5:4 3:1 1:2 2:2 4:2 3:1 4:3 2:1 4:1
4:0 5:4 3:1 1:2 2:2 4:2 3:1 4:3 2:1 4:1 2:1
5:0 3:1 1:2 2:2 4:2 3:1 4:3 2:1 4:1 2:1 1:1
3:0 1:2 2:2 4:2 3:1 4:3 2:1 4:1 2:1 1:1 3:5
1:0 2:2 4:2 3:1 4:3 2:1 4:1 2:1 1:1 3:5 4:1
2:0 4:2 3:1 4:3 2:1 4:1 2:1 1:1 3:5 4:1 5:4
4:0 3:1 4:3 2:1 4:1 2:1 1:1 3:5 4:1 5:4 3:1
3:0 4:3 2:1 4:1 2:1 1:1 3:5 4:1 5:4 3:1 1:2
4:0 2:1 4:1 2:1 1:1 3:5 4:1 5:4 3:1 1:2 2:2
2:0 4:1 2:1 1:1 3:5 4:1 5:4 3:1 1:2 2:2 4:2
4:0 2:1 1:1 3:5 4:1 5:4 3:1 1:2 2:2 4:2 3:1
2:0 1:1 3:5 4:1 5:4 3:1 1:2 2:2 4:2 3:1 4:3
1:0 3:5 4:1 5:4 3:1 1:2 2:2 4:2 3:1 4:3 2:1
3:0 4:1 5:4 3:1 1:2 2:2 4:2 3:1 4:3 2:1 4:1
4:0 5:4 3:1 1:2 2:2 4:2 3:1 4:3 2:1 4:1 2:1
5:0 3:1 1:2 2:2 4:2 3:1 4:3 2:1 4:1 2:1 1:1
3:0 1:2 2:2 4:2 3:1 4:3 2:1 4:1 2:1 1:1 3:5
1:0 2:2 4:2 3:1 4:3 2:1 4:1 2:1 1:1 3:5 4:1
2:0 4:2 3:1 4:3 2:1 4:1 2:1 1:1 3:5 4:1 5:4
4:0 3:1 4:3 2:1 4:1 2:1 1:1 3:5 4:1 5:4 3:1
3:0 4:3 2:1 4:1 2:1 1:1 3:5 4:1 5:4 3:1 1:2
4:0 2:1 4:1 2:1 1:1 3:5 4:1 5:4 3:1 1:2 2:2
2:0 4:1 2:1 1:1 3:5 4:1 5:4 3:1 1:2 2:2 4:2
4:0 2:1 1:1 3:5 4:1 5:4 3:1 1:2 2:2 4:2 3:1
2:0 1:1 3:5 4:1 5:4 3:1 1:2 2:2 4:2 3:1 4:3
1:0 3:5 4:1 5:4 3:1 1:2 2:2 4:2 3:1 4:3 2:1
3:0 4:1 5:4 3:1 1:2 2:2 4:2 3:1 4:3 2:1 4:1
4:0 5:4 3:1 1:2 2:2 4:2 3:1 4:3 2:1 4:1 2:1
5:0 3:1 1:2 2:2 4:2 3:1 4:3 2:1 4:1 2:1 1:1
3:0 1:2 2:2 4:2 3:1 4:3 2:1 4:1 2:1 1:1 3:5
1:0 2:2 4:2 3:1 4:3 2:1 4:1 2:1 1:1 3:5 4:1
2:0 4:2 3:1 4:3 2:1 4:1 2:1 1:1 3:5 4:1 5:4
4:0 3:1 4:3 2:1 4:1 2:1 1:1 3:5 4:1 5:4 3:1
3:0 4:3 2:1 4:1 2:1 1:1 3:5 4:1 5:4 3:1 1:2
4:0 2:1 4:1 2:1 1:1 3:5 4:1 5:4 3:1 1:2 2:2
2:0 4:1 2:1 1:1 3:5 4:1 5:4 3:1 1:2 2:2 4:2
4:0 2:1 1:1 3:5 4:1 5:4 3:1 1:2 2:2 4:2 3:1
2:0 1:1 3:5 4:1 5:4 3:1 1:2 2:2 4:2 3:1 4:3
1:0 3:5 4:1 5:4 3:1 1:2 2:2 4:2 3:1 4:3 2:1
3:0 4:1 5:4 3:1 1:2 2:2 4:2 3:1 4:3 2:1 4:1
4:0 5:4 3:1 1:2 2:2 4:2 3:1 4:3 2:1 4:1 2:1
5:0 3:1 1:2 2:2 4:2 3:1 4:3 2:1 4:1 2:1 1:1
3:0 1:2 2:2 4:2 3:1 4:3 2:1 4:1 2:1 1:1 3:5
1:0 2:2 4:2 3:1 4:3 2:1 4:1 2:1 1:1 3:5 4:1
2:0 4:2 3:1 4:3 2:1 4:1 2:1 1:1 3:5 4:1 5:4
4:0 3:1 4:3 2:1 4:1 2:1 1:1 3:5 4:1 5:4 3:1
3:0 4:3 2:1 4:1 2:1 1:1 3:5 4:1 5:4 3:1 1:2
4:0 2:1 4:1 2:1 1:1 3:5 4:1 5:4 3:1 1:2 2:2
2:0 4:1 2:1 1:1 3:5 4:1 5:4 3:1 1:2 2:2 4:2
4:0 2:1 1:1 3:5 4:1 5:4 3:1 1:2 2:2 4:2 3:1
2:0 1:1 3:5 4:1 5:4 3:1 1:2 2:2 4:2 3:1 4:3
1:0 3:5 4:1 5:4 3:1 1:2 2:2 4:2 3:1 4:3 2:1
3:0 4:1 5:4 3:1 1:2 2:2 4:2 3:1 4:3 2:1 4:1
4:0 5:4 3:1 1:2 2:2 4:2 3:1 4:3 2:1 4:1 2:1
5:0 3:1 1:2 2:2 4:2 3:1 4:3 2:1 4:1 2:1 1:1
3:0 1:2 2:2 4:2 3:1 4:3 2:1 4:1 2:1 1:1 3:5
1:0 2:2 4:2 3:1 4:3 2:1 4:1 2:1 1:1 3:5 4:1
2:0 4:2 3:1 4:3 2:1 4:1 2:1 1:1 3:5 4:1 5:4
4:0 3:1 4:3 2:1 4:1 2:1 1:1 3:5 4:1 5:4 3:1
3:0 4:3 2:1 4:1 2:1 1:1 3:5 4:1 5:4 3:1 1:2
4:0 2:1 4:1 2:1 1:1 3:5 4:1 5:4 3:1 1:2 2:2
2:0 4:1 2:1 1:1 3:5 4:1 5:4 3:1 1:2 2:2 4:2
4:0 2:1 1:1 3:5 4:1 5:4 3:1 1:2 2:2 4:2 3:1
2:0 1:1 3:5 4:1 5:4 3:1 1:2 2:2 4:2 3:1 4:3
1:0 3:5 4:1 5:4 3:1 1:2 2:2 4:2 3:1 4:3 2:1
3:0 4:1 5:4 3:1 1:2 2:2 4:2 3:1 4:3 2:1 4:1
4:0 5:4 3:1 1:2 2:2 4:2 3:1 4:3 2:1 4:1 2:1
5:0 3:1 1:2 2:2 4:2 3:1 4:3 2:1 4:1 2:1 1:1
3:0 1:2 2:2 4:2 3:1 4:3 2:1 4:1 2:1 1:1 3:5
1:0 2:2 4:2 3:1 4:3 2:1 4:1 2:1 1:1 3:5 4:1
2:0 4:2 3:1 4:3 2:1 4:1 2:1 1:1 3:5 4:1 5:4
4:0 3:1 4:3 2:1 4:1 2:1 1:1 3:5 4:1 5:4 3:1
3:0 4:3 2:1 4:1 2:1 1:1 3:5 4:1 5:4 3:1 1:2
4:0 2:1 4:1 2:1 1:1 3:5 4:1 5:4 3:1 1:2 2:2
2:0 4:1 2:1 1:1 3:5 4:1 5:4 3:1 1:2 2:2 4:2
4:0 2:1 1:1 3:5 4:1 5:4 3:1 1:2 2:2 4:2 3:1
2:0 1:1 3:5 4:1 5:4 3:1 1:2 2:2 4:2 3:1 4:3
1:0 3:5 4:1 5:4 3:1 1:2 2:2 4:2 3:1 4:3 2:1
3:0 4:1 5:4 3:1 1:2 2:2 4:2 3:1 4:3 2:1 4:1
4:0 5:4 3:1 1:2 2:2 4:2 3:1 4:3 2:1 4:1 2:1
5:0 3:1 1:2 2:2 4:2 3:1 4:3 2:1 4:1 2:1 1:1
3:0 1:2 2:2 4:2 3:1 4:3 2:1 4:1 2:1 1:1 3:5
1:0 2:2 4:2 3:1 4:3 2:1 4:1 2:1 1:1 3:5 4:1
2:0 4:2 3:1 4:3 2:1 4:1 2:1 1:1 3:5 4:1 5:4
4:0 3:1 4:3 2:1 4:1 2:1 1:1 3:5 4:1 5:4 3:1
3:0 4:3 2:1 4:1 2:1 1:1 3:5 4:1 5:4 3:1 1:2
4:0 2:1 4:1 2:1 1:1 3:5 4:1 5:4 3:1 1:2 2:2
2:0 4:1 2:1 1:1 3:5 4:1 5:4 3:1 1:2 2:2 4:2
4:0 2:1 1:1 3:5 4:1 5:4 3:1 1:2 2:2 4:2 3:1
2:0 1:1 3:5 4:1 5:4 3:1 1:2 2:2 4:2 3:1 4:3
1:0 3:5 4:1 5:4 3:1 1:2 2:2 4:2 3:1 4:3 2:1
3:0 4:1 5:4 3:1 1:2 2:2 4:2 3:1 4:3 2:1 4:1
4:0 5:4 3:1 1:2 2:2 4:2 3:1 4:3 2:1 4:1 2:1
5:0 3:1 1:2 2:2 4:2 3:1 4:3 2:1 4:1 2:1 1:1
3:0 1:2 2:2 4:2 3:1 4:3 2:1 4:1 2:1 1:1 3:5
1:0 2:2 4:2 3:1 4:3 2:1 4:1 2:1 1:1 3:5 4:1
2:0 4:2 3:1 4:3 2:1 4:1 2:1 1:1 3:5 4:1 5:4
4:0 3:1 4:3 2:1 4:1 2:1 1:1 3:5 4:1 5:4 3:1
3:0 4:3 2:1 4:1 2:1 1:1 3:5 4:1 5:4 3:1 1:2
4:0 2:1 4:1 2:1 1:1 3:5 4:1 5:4 3:1 1:2 2:2
2:0 4:1 2:1 1:1 3:5 4:1 5:4 3:1 1:2 2:2 4:2
4:0 2:1 1:1 3:5 4:1 5:4 3:1 1:2 2:2 4:2 3:1
2:0 1:1 3:5 4:1 5:4 3:1 1:2 2:2 4:2 3:1 4:3
1:0 3:5 4:1 5:4 3:1 1:2 2:2 4:2 3:1 4:3 2:1
3:0 4:1 5:4 3:1 1:2 2:2 4:2 3:1 4:3 2:1 4:1
4:0 5:4 3:1 1:2 2:2 4:2 3:1 4:3 2:1 4:1 2:1
5:0 3:1 1:2 2:2 4:2 3:1 4:3 2:1 4:1 2:1 1:1
3:0 1:2 2:2 4:2 3:1 4:3 2:1 4:1 2:1 1:1 3:5
1:0 2:2 4:2 3:1 4:3 2:1 4:1 2:1 1:1 3:5 4:1
2:0 4:2 3:1 4:3 2:1 4:1 2:1 1:1 3:5 4:1 5:4
4:0 3:1 4:3 2:1 4:1 2:1 1:1 3:5 4:1 5:4 3:1
3:0 4:3 2:1 4:1 2:1 1:1 3:5 4:1 5:4 3:1 1:2
4:0 2:1 4:1 2:1 1:1 3:5 4:1 5:4 3:1 1:2 2:2
2:0 4:1 2:1 1:1 3:5 4:1 5:4 3:1 1:2 2:2 4:2
4:0 2:1 1:1 3:5 4:1 5:4 3:1 1:2 2:2 4:2 3:1
2:0 1:1 3:5 4:1 5:4 3:1 1:2 2:2 4:2 3:1 4:3
1:0 3:5 4:1 5:4 3:1 1:2 2:2 4:2 3:1 4:3 2:1
3:0 4:1 5:4 3:1 1:2 2:2 4:2 3:1 4:3 2:1 4:1
4:0 5:4 3:1 1:2 2:2 4:2 3:1 4:3 2:1 4:1 2:1
5:0 3:1 1:2 2:2 4:2 3:1 4:3 2:1 4:1 2:1 1:1
3:0 1:2 2:2 4:2 3:1 4:3 2:1 4:1 2:1 1:1 3:5
1:0 2:2 4:2 3:1 4:3 2:1 4:1 2:1 1:1 3:5 4:1
2:0 4:2 3:1 4:3 2:1 4:1 2:1 1:1 3:5 4:1 5:4
4:0 3:1 4:3 2:1 4:1 2:1 1:1 3:5 4:1 5:4 3:1
3:0 4:3 2:1 4:1 2:1 1:1 3:5 4:1 5:4 3:1 1:2
4:0 2:1 4:1 2:1 1:1 3:5 4:1 5:4 3:1 1:2 2:2
2:0 4:1 2:1 1:1 3:5 4:1 5:4 3:1 1:2 2:2 4:2
4:0 2:1 1:1 3:5 4:1 5:4 3:1 1:2 2:2 4:2 3:1
2:0 1:1 3:5 4:1 5:4 3:1 1:2 2:2 4:2 3:1 4:3
1:0 3:5 4:1 5:4 3:1 1:2 2:2 4:2 3:1 4:3 2:1
3:0 4:1 5:4 3:1 1:2 2:2 4:2 3:1 4:3 2:1 4:1
4:0 5:4 3:1 1:2 2:2 4:2 3:1 4:3 2:1 4:1 2:1
5:0 3:1 1:2 2:2 4:2 3:1 4:3 2:1 4:1 2:1 1:1
3:0 1:2 2:2 4:2 3:1 4:3 2:1 4:1 2:1 1:1 3:5
1:0 2:2 4:2 3:1 4:3 2:1 4:1 2:1 1:1 3:5 4:1
2:0 4:2 3:1 4:3 2:1 4:1 2:1 1:1 3:5 4:1 5:4
4:0 3:1 4:3 2:1 4:1 2:1 1:1 3:5 4:1 5:4 3:1
3:0 4:3 2:1 4:1 2:1 1:1 3:5 4:1 5:4 3:1 1:2
4:0 2:1 4:1 2:1 1:1 3:5 4:1 5:4 3:1 1:2 2:2
2:0 4:1 2:1 1:1 3:5 4:1 5:4 3:1 1:2 2:2 4:2
4:0 2:1 1:1 3:5 4:1 5:4 3:1 1:2 2:2 4:2 3:1
2:0 1:1 3:5 4:1 5:4 3:1 1:2 2:2 4:2 3:1 4:3
1:0 3:5 4:1 5:4 3:1 1:2 2:2 4:2 3:1 4:3 2:1
3:0 4:1 5:4 3:1 1:2 2:2 4:2 3:1 4:3 2:1 4:1
4:0 5:4 3:1 1:2 2:2 4:2 3:1 4:3 2:1 4:1 2:1
5:0 3:1 1:2 2:2 4:2 3:1 4:3 2:1 4:1 2:1 1:1
3:0 1:2 2:2 4:2 3:1 4:3 2:1 4:1 2:1 1:1 3:5
1:0 2:2 4:2 3:1 4:3 2:1 4:1 2:1 1:1 3:5 4:1
2:0 4:2 3:1 4:3 2:1 4:1 2:1 1:1 3:5 4:1 5:4
4:0 3:1 4:3 2:1 4:1 2:1 1:1 3:5 4:1 5:4 3:1
3:0 4:3 2:1 4:1 2:1 1:1 3:5 4:1 5:4 3:1 1:2
4:0 2:1 4:1 2:1 1:1 3:5 4:1 5:4 3:1 1:2 2:2
2:0 4:1 2:1 1:1 3:5 4:1 5:4 3:1 1:2 2:2 4:2
4:0 2:1 1:1 3:5 4:1 5:4 3:1 1:2 2:2 4:2 3:1
2:0 1:1 3:5 4:1 5:4 3:1 1:2 2:2 4:2 3:1 4:3
1:0 3:5 4:1 5:4 3:1 1:2 2:2 4:2 3:1 4:3 2:1
3:0 4:1 5:4 3:1 1:2 2:2 4:2 3:1 4:3 2:1 4:1
4:0 5:4 3:1 1:2 2:2 4:2 3:1 4:3 2:1 4:1 2:1
5:0 3:1 1:2 2:2 4:2 3:1 4:3 2:1 4:1 2:1 1:1
3:0 1:2 2:2 4:2 3:1 4:3 2:1 4:1 2:1 1:1 3:5
1:0 2:2 4:2 3:1 4:3 2:1 4:1 2:1 1:1 3:5 4:1
2:0 4:2 3:1 4:3 2:1 4:1 2:1 1:1 3:5 4:1 5:4
4:0 3:1 4:3 2:1 4:1 2:1 1:1 3:5 4:1 5:4 3:1
3:0 4:3 2:1 4:1 2:1 1:1 3:5 4:1 5:4 3:1 1:2
4:0 2:1 4:1 2:1 1:1 3:5 4:1 5:4 3:1 1:2 2:2
2:0 4:1 2:1 1:1 3:5 4:1 5:4 3:1 1:2 2:2 4:2
4:0 2:1 1:1 3:5 4:1 5:4 3:1 1:2 2:2 4:2 3:1
2:0 1:1 3:5 4:1 5:4 3:1 1:2 2:2 4:2 3:1 4:3
1:0 3:5 4:1 5:4 3:1 1:2 2:2 4:2 3:1 4:3 2:1
3:0 4:1 5:4 3:1 1:2 2:2 4:2 3:1 4:3 2:1 4:1
4:0 5:4 3:1 1:2 2:2 4:2 3:1 4:3 2:1 4:1 2:1
5:0 3:1 1:2 2:2 4:2 3:1 4:3 2:1 4:1 2:1 1:1
3:0 1:2 2:2 4:2 3:1 4:3 2:1 4:1 2:1 1:1 3:5
1:0 2:2 4:2 3:1 4:3 2:1 4:1 2:1 1:1 3:5 4:1
2:0 4:2 3:1 4:3 2:1 4:1 2:1 1:1 3:5 4:1 5:4
4:0 3:1 4:3 2:1 4:1 2:1 1:1 3:5 4:1 5:4 3:1
3:0 4:3 2:1 4:1 2:1 1:1 3:5 4:1 5:4 3:1 1:2
4:0 2:1 4:1 2:1 1:1 3:5 4:1 5:4 3:1 1:2 2:2
2:0 4:1 2:1 1:1 3:5 4:1 5:4 3:1 1:2 2:2 4:2
4:0 2:1 1:1 3:5 4:1 5:4 3:1 1:2 2:2 4:2 3:1
2:0 1:1 3:5 4:1 5:4 3:1 1:2 2:2 4:2 3:1 4:3
1:0 3:5 4:1 5:4 3:1 1:2 2:2 4:2 3:1 4:3 2:1
3:0 4:1 5:4 3:1 1:2 2:2 4:2 3:1 4:3 2:1 4:1
4:0 5:4 3:1 1:2 2:2 4:2 3:1 4:3 2:1 4:1 2:1
5:0 3:1 1:2 2:2 4:2 3:1 4:3 2:1 4:1 2:1 1:1
3:0 1:2 2:2 4:2 3:1 4:3 2:1 4:1 2:1 1:1 3:5
1:0 2:2 4:2 3:1 4:3 2:1 4:1 2:1 1:1 3:5 4:1
2:0 4:2 3:1 4:3 2:1 4:1 2:1 1:1 3:5 4:1 5:4
4:0 3:1 4:3 2:1 4:1 2:1 1:1 3:5 4:1 5:4 3:1
3:0 4:3 2:1 4:1 2:1 1:1 3:5 4:1 5:4 3:1 1:2
4:0 2:1 4:1 2:1 1:1 3:5 4:1 5:4 3:1 1:2 2:2
2:0 4:1 2:1 1:1 3:5 4:1 5:4 3:1 1:2 2:2 4:2
4:0 2:1 1:1 3:5 4:1 5:4 3:1 1:2 2:2 4:2 3:1
2:0 1:1 3:5 4:1 5:4 3:1 1:2 2:2 4:2 3:1 4:3
1:0 3:5 4:1 5:4 3:1 1:2 2:2 4:2 3:1 4:3 2:1
3:0 4:1 5:4 3:1 1:2 2:2 4:2 3:1 4:3 2:1 4:1
4:0 5:4 3:1 1:2 2:2 4:2 3:1 4:3 2:1 4:1 2:1
5:0 3:1 1:2 2:2 4:2 3:1 4:3 2:1 4:1 2:1 1:1
3:0 1:2 2:2 4:2 3:1 4:3 2:1 4:1 2:1 1:1 3:5
1:0 2:2 4:2 3:1 4:3 2:1 4:1 2:1 1:1 3:5 4:1
2:0 4:2 3:1 4:3 2:1 4:1 2:1 1:1 3:5 4:1 5:4
4:0 3:1 4:3 2:1 4:1 2:1 1:1 3:5 4:1 5:4 3:1
3:0 4:3 2:1 4:1 2:1 1:1 3:5 4:1 5:4 3:1 1:2
4:0 2:1 4:1 2:1 1:1 3:5 4:1 5:4 3:1 1:2 2:2
2:0 4:1 2:1 1:1 3:5 4:1 5:4 3:1 1:2 2:2 4:2
4:0 2:1 1:1 3:5 4:1 5:4 3:1 1:2 2:2 4:2 3:1
2:0 1:1 3:5 4:1 5:4 3:1 1:2 2:2 4:2 3:1 4:3
1:0 3:5 4:1 5:4 3:1 1:2 2:2 4:2 3:1 4:3 2:1
3:0 4:1 5:4 3:1 1:2 2:2 4:2 3:1 4:3 2:1 4:1
4:0 5:4 3:1 1:2 2:2 4:2 3:1 4:3 2:1 4:1 2:1
5:0 3:1 1:2 2:2 4:2 3:1 4:3 2:1 4:1 2:1 1:1
3:0 1:2 2:2 4:2 3:1 4:3 2:1 4:1 2:1 1:1 3:5
1:0 2:2 4:2 3:1 4:3 2:1 4:1 2:1 1:1 3:5 4:1
2:0 4:2 3:1 4:3 2:1 4:1 2:1 1:1 3:5 4:1 5:4
4:0 3:1 4:3 2:1 4:1 2:1 1:1 3:5 4:1 5:4 3:1
3:0 4:3 2:1 4:1 2:1 1:1 3:5 4:1 5:4 3:1 1:2
4:0 2:1 4:1 2:1 1:1 3:5 4:1 5:4 3:1 1:2 2:2
2:0 4:1 2:1 1:1 3:5 4:1 5:4 3:1 1:2 2:2 4:2
4:0 2:1 1:1 3:5 4:1 5:4 3:1 1:2 2:2 4:2 3:1
2:0 1:1 3:5 4:1 5:4 3:1 1:2 2:2 4:2 3:1 4:3
1:0 3:5 4:1 5:4 3:1 1:2 2:2 4:2 3:1 4:3 2:1
3:0 4:1 5:4 3:1 1:2 2:2 4:2 3:1 4:3 2:1 4:1
4:0 5:4 3:1 1:2 2:2 4:2 3:1 4:3 2:1 4:1 2:1
5:0 3:1 1:2 2:2 4:2 3:1 4:3 2:1 4:1 2:1 1:1
3:0 1:2 2:2 4:2 3:1 4:3 2:1 4:1 2:1 1:1 3:5
1:0 2:2 4:2 3:1 4:3 2:1 4:1 2:1 1:1 3:5 4:1
2:0 4:2 3:1 4:3 2:1 4:1 2:1 1:1 3:5 4:1 5:4
4:0 3:1 4:3 2:1 4:1 2:1 1:1 3:5 4:1 5:4 3:1
3:0 4:3 2:1 4:1 2:1 1:1 3:5 4:1 5:4 3:1 1:2
4:0 2:1 4:1 2:1 1:1 3:5 4:1 5:4 3:1 1:2 2:2
2:0 4:1 2:1 1:1 3:5 4:1 5:4 3:1 1:2 2:2 4:2
4:0 2:1 1:1 3:5 4:1 5:4 3:1 1:2 2:2 4:2 3:1
2:0 1:1 3:5 4:1 5:4 3:1 1:2 2:2 4:2 3:1 4:3
1:0 3:5 4:1 5:4 3:1 1:2 2:2 4:2 3:1 4:3 2:1
3:0 4:1 5:4 3:1 1:2 2:2 4:2 3:1 4:3 2:1 4:1
4:0 5:4 3:1 1:2 2:2 4:2 3:1 4:3 2:1 4:1 2:1
5:0 3:1 1:2 2:2 4:2 3:1 4:3 2:1 4:1 2:1 1:1
3:0 1:2 2:2 4:2 3:1 4:3 2:1 4:1 2:1 1:1 3:5
1:0 2:2 4:2 3:1 4:3 2:1 4:1 2:1 1:1 3:5 4:1
2:0 4:2 3:1 4:3 2:1 4:1 2:1 1:1 3:5 4:1 5:4
4:0 3:1 4:3 2:1 4:1 2:1 1:1 3:5 4:1 5:4 3:1
3:0 4:3 2:1 4:1 2:1 1:1 3:5 4:1 5:4 3:1 1:2
4:0 2:1 4:1 2:1 1:1 3:5 4:1 5:4 3:1 1:2 2:2
2:0 4:1 2:1 1:1 3:5 4:1 5:4 3:1 1:2 2:2 4:2
4:0 2:1 1:1 3:5 4:1 5:4 3:1 1:2 2:2 4:2 3:1
2:0 1:1 3:5 4:1 5:4 3:1 1:2 2:2 4:2 3:1 4:3
1:0 3:5 4:1 5:4 3:1 1:2 2:2 4:2 3:1 4:3 2:1
3:0 4:1 5:4 3:1 1:2 2:2 4:2 3:1 4:3 2:1 4:1
4:0 5:4 3:1 1:2 2:2 4:2 3:1 4:3 2:1 4:1 2:1
5:0 3:1 1:2 2:2 4:2 3:1 4:3 2:1 4:1 2:1 1:1
3:0 1:2 2:2 4:2 3:1 4:3 2:1 4:1 2:1 1:1 3:5
1:0 2:2 4:2 3:1 4:3 2:1 4:1 2:1 1:1 3:5 4:1
2:0 4:2 3:1 4:3 2:1 4:1 2:1 1:1 3:5 4:1 5:4
4:0 3:1 4:3 2:1 4:1 2:1 1:1 3:5 4:1 5:4 3:1
3:0 4:3 2:1 4:1 2:1 1:1 3:5 4:1 5:4 3:1 1:2
4:0 2:1 4:1 2:1 1:1 3:5 4:1 5:4 3:1 1:2 2:2
2:0 4:1 2:1 1:1 3:5 4:1 5:4 3:1 1:2 2:2 4:2
4:0 2:1 1:1 3:5 4:1 5:4 3:1 1:2 2:2 4:2 3:1
2:0 1:1 3:5 4:1 5:4 3:1 1:2 2:2 4:2 3:1 4:3
1:0 3:5 4:1 5:4 3:1 1:2 2:2 4:2 3:1 4:3 2:1
3:0 4:1 5:4 3:1 1:2 2:2 4:2 3:1 4:3 2:1 4:1
4:0 5:4 3:1 1:2 2:2 4:2 3:1 4:3 2:1 4:1 2:1
5:0 3:1 1:2 2:2 4:2 3:1 4:3 2:1 4:1 2:1 1:1
3:0 1:2 2:2 4:2 3:1 4:3 2:1 4:1 2:1 1:1 3:5
1:0 2:2 4:2 3:1 4:3 2:1 4:1 2:1 1:1 3:5 4:1
2:0 4:2 3:1 4:3 2:1 4:1 2:1 1:1 3:5 4:1 5:4
4:0 3:1 4:3 2:1 4:1 2:1 1:1 3:5 4:1 5:4 3:1
3:0 4:3 2:1 4:1 2:1 1:1 3:5 4:1 5:4 3:1 1:2
4:0 2:1 4:1 2:1 1:1 3:5 4:1 5:4 3:1 1:2 2:2
2:0 4:1 2:1 1:1 3:5 4:1 5:4 3:1 1:2 2:2 4:2
4:0 2:1 1:1 3:5 4:1 5:4 3:1 1:2 2:2 4:2 3:1
2:0 1:1 3:5 4:1 5:4 3:1 1:2 2:2 4:2 3:1 4:3
1:0 3:5 4:1 5:4 3:1 1:2 2:2 4:2 3:1 4:3 2:1
3:0 4:1 5:4 3:1 1:2 2:2 4:2 3:1 4:3 2:1 4:1
4:0 5:4 3:1 1:2 2:2 4:2 3:1 4:3 2:1 4:1 2:1
5:0 3:1 1:2 2:2 4:2 3:1 4:3 2:1 4:1 2:1 1:1
3:0 1:2 2:2 4:2 3:1 4:3 2:1 4:1 2:1 1:1 3:5
1:0 2:2 4:2 3:1 4:3 2:1 4:1 2:1 1:1 3:5 4:1
2:0 4:2 3:1 4:3 2:1 4:1 2:1 1:1 3:5 4:1 5:4
4:0 3:1 4:3 2:1 4:1 2:1 1:1 3:5 4:1 5:4 3:1
3:0 4:3 2:1 4:1 2:1 1:1 3:5 4:1 5:4 3:1 1:2
4:0 2:1 4:1 2:1 1:1 3:5 4:1 5:4 3:1 1:2 2:2
2:0 4:1 2:1 1:1 3:5 4:1 5:4 3:1 1:2 2:2 4:2
4:0 2:1 1:1 3:5 4:1 5:4 3:1 1:2 2:2 4:2 3:1
2:0 1:1 3:5 4:1 5:4 3:1 1:2 2:2 4:2 3:1 4:3
1:0 3:5 4:1 5:4 3:1 1:2 2:2 4:2 3:1 4:3 2:1
3:0 4:1 5:4 3:1 1:2 2:2 4:2 3:1 4:3 2:1 4:1
4:0 5:4 3:1 1:2 2:2 4:2 3:1 4:3 2:1 4:1 2:1
5:0 3:1 1:2 2:2 4:2 3:1 4:3 2:1 4:1 2:1 1:1
3:0 1:2 2:2 4:2 3:1 4:3 2:1 4:1 2:1 1:1 3:5
1:0 2:2 4:2 3:1 4:3 2:1 4:1 2:1 1:1 3:5 4:1
2:0 4:2 3:1 4:3 2:1 4:1 2:1 1:1 3:5 4:1 5:4
4:0 3:1 4:3 2:1 4:1 2:1 1:1 3:5 4:1 5:4 3:1
3:0 4:3 2:1 4:1 2:1 1:1 3:5 4:1 5:4 3:1 1:2
4:0 2:1 4:1 2:1 1:1 3:5 4:1 5:4 3:1 1:2 2:2
2:0 4:1 2:1 1:1 3:5 4:1 5:4 3:1 1:2 2:2 4:2
4:0 2:1 1:1 3:5 4:1 5:4 3:1 1:2 2:2 4:2 3:1
2:0 1:1 3:5 4:1 5:4 3:1 1:2 2:2 4:2 3:1 4:3
1:0 3:5 4:1 5:4 3:1 1:2 2:2 4:2 3:1 4:3 2:1
3:0 4:1 5:4 3:1 1:2 2:2 4:2 3:1 4:3 2:1 4:1
4:0 5:4 3:1 1:2 2:2 4:2 3:1 4:3 2:1 4:1 2:1
5:0 3:1 1:2 2:2 4:2 3:1 4:3 2:1 4:1 2:1 1:1
3:0 1:2 2:2 4:2 3:1 4:3 2:1 4:1 2:1 1:1 3:5
1:0 2:2 4:2 3:1 4:3 2:1 4:1 2:1 1:1 3:5 4:1
2:0 4:2 3:1 4:3 2:1 4:1 2:1 1:1 3:5 4:1 5:4
4:0 3:1 4:3 2:1 4:1 2:1 1:1 3:5 4:1 5:4 3:1
3:0 4:3 2:1 4:1 2:1 1:1 3:5 4:1 5:4 3:1 1:2
4:0 2:1 4:1 2:1 1:1 3:5 4:1 5:4 3:1 1:2 2:2
2:0 4:1 2:1 1:1 3:5 4:1 5:4 3:1 1:2 2:2 4:2
4:0 2:1 1:1 3:5 4:1 5:4 3:1 1:2 2:2 4:2 3:1
2:0 1:1 3:5 4:1 5:4 3:1 1:2 2:2 4:2 3:1 4:3
1:0 3:5 4:1 5:4 3:1 1:2 2:2 4:2 3:1 4:3 2:1
3:0 4:1 5:4 3:1 1:2 2:2 4:2 3:1 4:3 2:1 4:1
4:0 5:4 3:1 1:2 2:2 4:2 3:1 4:3 2:1 4:1 2:1
5:0 3:1 1:2 2:2 4:2 3:1 4:3 2:1 4:1 2:1 1:1
3:0 1:2 2:2 4:2 3:1 4:3 2:1 4:1 2:1 1:1 3:5
1:0 2:2 4:2 3:1 4:3 2:1 4:1 2:1 1:1 3:5 4:1
2:0 4:2 3:1 4:3 2:1 4:1 2:1 1:1 3:5 4:1 5:4
4:0 3:1 4:3 2:1 4:1 2:1 1:1 3:5 4:1 5:4 3:1
3:0 4:3 2:1 4:1 2:1 1:1 3:5 4:1 5:4 3:1 1:2
4:0 2:1 4:1 2:1 1:1 3:5 4:1 5:4 3:1 1:2 2:2
2:0 4:1 2:1 1:1 3:5 4:1 5:4 3:1 1:2 2:2 4:2
4:0 2:1 1:1 3:5 4:1 5:4 3:1 1:2 2:2 4:2 3:1
2:0 1:1 3:5 4:1 5:4 3:1 1:2 2:2 4:2 3:1 4:3
1:0 3:5 4:1 5:4 3:1 1:2 2:2 4:2 3:1 4:3 2:1
3:0 4:1 5:4 3:1 1:2 2:2 4:2 3:1 4:3 2:1 4:1
4:0 5:4 3:1 1:2 2:2 4:2 3:1 4:3 2:1 4:1 2:1
5:0 3:1 1:2 2:2 4:2 3:1 4:3 2:1 4:1 2:1 1:1
3:0 1:2 2:2 4:2 3:1 4:3 2:1 4:1 2:1 1:1 3:5
1:0 2:2 4:2 3:1 4:3 2:1 4:1 2:1 1:1 3:5 4:1
2:0 4:2 3:1 4:3 2:1 4:1 2:1 1:1 3:5 4:1 5:4
4:0 3:1 4:3 2:1 4:1 2:1 1:1 3:5 4:1 5:4 3:1
3:0 4:3 2:1 4:1 2:1 1:1 3:5 4:1 5:4 3:1 1:2
4:0 2:1 4:1 2:1 1:1 3:5 4:1 5:4 3:1 1:2 2:2
2:0 4:1 2:1 1:1 3:5 4:1 5:4 3:1 1:2 2:2 4:2
4:0 2:1 1:1 3:5 4:1 5:4 3:1 1:2 2:2 4:2 3:1
2:0 1:1 3:5 4:1 5:4 3:1 1:2 2:2 4:2 3:1 4:3
1:0 3:5 4:1 5:4 3:1 1:2 2:2 4:2 3:1 4:3 2:1
3:0 4:1 5:4 3:1 1:2 2:2 4:2 3:1 4:3 2:1 4:1
4:0 5:4 3:1 1:2 2:2 4:2 3:1 4:3 2:1 4:1 2:1
5:0 3:1 1:2 2:2 4:2 3:1 4:3 2:1 4:1 2:1 1:1
3:0 1:2 2:2 4:2 3:1 4:3 2:1 4:1 2:1 1:1 3:5
1:0 2:2 4:2 3:1 4:3 2:1 4:1 2:1 1:1 3:5 4:1
2:0 4:2 3:1 4:3 2:1 4:1 2:1 1:1 3:5 4:1 5:4
4:0 3:1 4:3 2:1 4:1 2:1 1:1 3:5 4:1 5:4 3:1
3:0 4:3 2:1 4:1 2:1 1:1 3:5 4:1 5:4 3:1 1:2
4:0 2:1 4:1 2:1 1:1 3:5 4:1 5:4 3:1 1:2 2:2
2:0 4:1 2:1 1:1 3:5 4:1 5:4 3:1 1:2 2:2 4:2
4:0 2:1 1:1 3:5 4:1 5:4 3:1 1:2 2:2 4:2 3:1
2:0 1:1 3:5 4:1 5:4 3:1 1:2 2:2 4:2 3:1 4:3
1:0 3:5 4:1 5:4 3:1 1:2 2:2 4:2 3:1 4:3 2:1
3:0 4:1 5:4 3:1 1:2 2:2 4:2 3:1 4:3 2:1 4:1
4:0 5:4 3:1 1:2 2:2 4:2 3:1 4:3 2:1 4:1 2:1
5:0 3:1 1:2 2:2 4:2 3:1 4:3 2:1 4:1 2:1 1:1
3:0 1:2 2:2 4:2 3:1 4:3 2:1 4:1 2:1 1:1 3:5
1:0 2:2 4:2 3:1 4:3 2:1 4:1 2:1 1:1 3:5 4:1
2:0 4:2 3:1 4:3 2:1 4:1 2:1 1:1 3:5 4:1 5:4
4:0 3:1 4:3 2:1 4:1 2:1 1:1 3:5 4:1 5:4
3:0 4:3 2:1 4:1 2:1 1:1 3:5 4:1 5:4
4:0 2:1 4:1 2:1 1:1 3:5 4:1 5:4
2:0 4:1 2:1 1:1 3:5 4:1 5:4
4:0 2:1 1:1 3:5 4:1 5:4
2:0 1:1 3:5 4:1 5:4
1:0 3:5 4:1 5:4
3:0 4:1 5:4
4:0 5:4
5:0
3:0 1:2 2:2 4:2 3:1 4:3 2:1 4:1 2:1 1:1 3:5 4:1 5:4 3:1 1:2 2:2 4:2 3:1 4:3 2:1 4:1 2:1 1:1 3:5 4:1 5:4 3:1 1:2 2:2 4:2 3:1 4:3 2:1 4:1 2:1 1:1 3:5 4:1 5:4 3:1 1:2 2:2 4:2 3:1 4:3 2:1 4:1 2:1 1:1 3:5 4:1 5:4 3:1 1:2 2:2 4:2 3:1 4:3 2:1 4:1 2:1 1:1 3:5 4:1 5:4 3:1 1:2 2:2 4:2 3:1 4:3 2:1 4:1 2:1 1:1 3:5 4:1 5:4 3:1 1:2 2:2 4:2 3:1 4:3 2:1 4:1 2:1 1:1 3:5 4:1 5:4 3:1 1:2 2:2 4:2 3:1 4:3 2:1 4:1 2:1 1:1 3:5 4:1 5:4 3:1 1:2 2:2 4:2 3:1 4:3 2:1 4:1 2:1 1:1 3:5 4:1 5:4 3:1 1:2 2:2 4:2 3:1 4:3 2:1 4:1 2:1 1:1 3:5 4:1 5:4 3:1 1:2 2:2 4:2 3:1 4:3 2:1 4:1 2:1 1:1 3:5 4:1 5:4 3:1 1:2 2:2 4:2 3:1 4:3 2:1 4:1 2:1 1:1 3:5 4:1 5:4 3:1 1:2 2:2 4:2 3:1 4:3 2:1 4:1 2:1 1:1 3:5 4:1 5:4 3:1 1:2 2:2 4:2 3:1 4:3 2:1 4:1 2:1 1:1 3:5 4:1 5:4 3:1 1:2 2:2 4:2 3:1 4:3 2:1 4:1 2:1 1:1 3:5 4:1 5:4 3:1 1:2 2:2 4:2 3:1 4:3 2:1 4:1 2:1 1:1 3:5 4:1 5:4 3:1 1:2 2:2 4:2 3:1 4:3 2:1 4:1 2:1 1:1 3:5 4:1 5:4 3:1 1:2 2:2 4:2 3:1 4:3 2:1 4:1 2:1 1:1 3:5 4:1 5:4 3:1 1:2 2:2 4:2 3:1 4:3 2:1 4:1 2:1 1:1 3:5 4:1 5:4 3:1 1:2 2:2 4:2 3:1 4:3 2:1 4:1 2:1 1:1 3:5 4:1 5:4 3:1 1:2 2:2 4:2 3:1 4:3 2:1 4:1 2:1 1:1 3:5 4:1 5:4 3:1 1:2 2:2 4:2 3:1 4:3 2:1 4:1 2:1 1:1 3:5 4:1 5:4 3:1 1:2 2:2 4:2 3:1 4:3 2:1 4:1 2:1 1:1 3:5 4:1 5:4 3:1 1:2 2:2 4:2 3:1 4:3 2:1 4:1 2:1 1:1 3:5 4:1 5:4 3:1 1:2 2:2 4:2 3:1 4:3 2:1 4:1 2:1 1:1 3:5 4:1 5:4 3:1 1:2 2:2 4:2 3:1 4:3 2:1 4:1 2:1 1:1 3:5 4:1 5:4 3:1 1:2 2:2 4:2 3:1 4:3 2:1 4:1 2:1 1:1 3:5 4:1 5:4 3:1 1:2 2:2 4:2 3:1 4:3 2:1 4:1 2:1 1:1 3:5 4:1 5:4 3:1 1:2 2:2 4:2 3:1 4:3 2:1 4:1 2:1 1:1 3:5 4:1 5:4 3:1 1:2 2:2 4:2 3:1 4:3 2:1 4:1 2:1 1:1 3:5 4:1 5:4 3:1 1:2 2:2 4:2 3:1 4:3 2:1 4:1 2:1 1:1 3:5 4:1 5:4 3:1 1:2 2:2 4:2 3:1 4:3 2:1 4:1 2:1 1:1 3:5 4:1 5:4 3:1 1:2 2:2 4:2 3:1 4:3 2:1 4:1 2:1 1:1 3:5 4:1 5:4 3:1 1:2 2:2 4:2 3:1 4:3 2:1 4:1 2:1 1:1 3:5 4:1 5:4 3:1 1:2 2:2 4:2 3:1 4:3 2:1 4:1 2:1 1:1 3:5 4:1 5:4 3:1 1:2 2:2 4:2 3:1 4:3 2:1 4:1 2:1 1:1 3:5 4:1 5:4 3:1 1:2 2:2 4:2 3:1 4:3 2:1 4:1 2:1 1:1 3:5 4:1 5:4 3:1 1:2 2:2 4:2 3:1 4:3 2:1 4:1 2:1 1:1 3:5 4:1 5:4 3:1 1:2 2:2 4:2 3:1 4:3 2:1 4:1 2:1 1:1 3:5 4:1 5:4 3:1 1:2 2:2 4:2 3:1 4:3 2:1 4:1 2:1 1:1 3:5 4:1 5:4