2:0 3:3 4:4 3:1 5:1 3:1 4:1 2:1 3:1 4:4 2:3
3:0 4:4 3:1 5:1 3:1 4:1 2:1 3:1 4:4 2:3 1:2
4:0 3:1 5:1 3:1 4:1 2:1 3:1 4:4 2:3 1:2 2:3
3:0 5:1 3:1 4:1 2:1 3:1 4:4 2:3 1:2 2:3 3:3
5:0 3:1 4:1 2:1 3:1 4:4 2:3 1:2 2:3 3:3 4:4
3:0 4:1 2:1 3:1 4:4 2:3 1:2 2:3 3:3 4:4 3:1
4:0 2:1 3:1 4:4 2:3 1:2 2:3 3:3 4:4 3:1 5:1
2:0 3:1 4:4 2:3 1:2 2:3 3:3 4:4 3:1 5:1 3:1
3:0 4:4 2:3 1:2 2:3 3:3 4:4 3:1 5:1 3:1 4:1
4:0 2:3 1:2 2:3 3:3 4:4 3:1 5:1 3:1 4:1 2:1
2:0 1:2 2:3 3:3 4:4 3:1 5:1 3:1 4:1 2:1 3:1
1:0 2:3 3:3 4:4 3:1 5:1 3:1 4:1 2:1 3:1 4:4
2:0 3:3 4:4 3:1 5:1 3:1 4:1 2:1 3:1 4:4 2:3
3:0 4:4 3:1 5:1 3:1 4:1 2:1 3:1 4:4 2:3 1:2
4:0 3:1 5:1 3:1 4:1 2:1 3:1 4:4 2:3 1:2 2:3
3:0 5:1 3:1 4:1 2:1 3:1 4:4 2:3 1:2 2:3 3:3
5:0 3:1 4:1 2:1 3:1 4:4 2:3 1:2 2:3 3:3 4:4
3:0 4:1 2:1 3:1 4:4 2:3 1:2 2:3 3:3 4:4 3:1
4:0 2:1 3:1 4:4 2:3 1:2 2:3 3:3 4:4 3:1 5:1
2:0 3:1 4:4 2:3 1:2 2:3 3:3 4:4 3:1 5:1 3:1
3:0 4:4 2:3 1:2 2:3 3:3 4:4 3:1 5:1 3:1 4:1
4:0 2:3 1:2 2:3 3:3 4:4 3:1 5:1 3:1 4:1 2:1
2:0 1:2 2:3 3:3 4:4 3:1 5:1 3:1 4:1 2:1 3:1
1:0 2:3 3:3 4:4 3:1 5:1 3:1 4:1 2:1 3:1 4:4
2:0 3:3 4:4 3:1 5:1 3:1 4:1 2:1 3:1 4:4 2:3
3:0 4:4 3:1 5:1 3:1 4:1 2:1 3:1 4:4 2:3 1:2
4:0 3:1 5:1 3:1 4:1 2:1 3:1 4:4 2:3 1:2 2:3
3:0 5:1 3:1 4:1 2:1 3:1 4:4 2:3 1:2 2:3 3:3
5:0 3:1 4:1 2:1 3:1 4:4 2:3 1:2 2:3 3:3 4:4
3:0 4:1 2:1 3:1 4:4 2:3 1:2 2:3 3:3 4:4 3:1
4:0 2:1 3:1 4:4 2:3 1:2 2:3 3:3 4:4 3:1 5:1
2:0 3:1 4:4 2:3 1:2 2:3 3:3 4:4 3:1 5:1 3:1
3:0 4:4 2:3 1:2 2:3 3:3 4:4 3:1 5:1 3:1 4:1
4:0 2:3 1:2 2:3 3:3 4:4 3:1 5:1 3:1 4:1 2:1
2:0 1:2 2:3 3:3 4:4 3:1 5:1 3:1 4:1 2:1 3:1
1:0 2:3 3:3 4:4 3:1 5:1 3:1 4:1 2:1 3:1 4:4
2:0 3:3 4:4 3:1 5:1 3:1 4:1 2:1 3:1 4:4 2:3
3:0 4:4 3:1 5:1 3:1 4:1 2:1 3:1 4:4 2:3 1:2
4:0 3:1 5:1 3:1 4:1 2:1 3:1 4:4 2:3 1:2 2:3
3:0 5:1 3:1 4:1 2:1 3:1 4:4 2:3 1:2 2:3 3:3
5:0 3:1 4:1 2:1 3:1 4:4 2:3 1:2 2:3 3:3 4:4
3:0 4:1 2:1 3:1 4:4 2:3 1:2 2:3 3:3 4:4 3:1
4:0 2:1 3:1 4:4 2:3 1:2 2:3 3:3 4:4 3:1 5:1
2:0 3:1 4:4 2:3 1:2 2:3 3:3 4:4 3:1 5:1 3:1
3:0 4:4 2:3 1:2 2:3 3:3 4:4 3:1 5:1 3:1 4:1
4:0 2:3 1:2 2:3 3:3 4:4 3:1 5:1 3:1 4:1 2:1
2:0 1:2 2:3 3:3 4:4 3:1 5:1 3:1 4:1 2:1 3:1
1:0 2:3 3:3 4:4 3:1 5:1 3:1 4:1 2:1 3:1 4:4
2:0 3:3 4:4 3:1 5:1 3:1 4:1 2:1 3:1 4:4 2:3
3:0 4:4 3:1 5:1 3:1 4:1 2:1 3:1 4:4 2:3 1:2
4:0 3:1 5:1 3:1 4:1 2:1 3:1 4:4 2:3 1:2 2:3
3:0 5:1 3:1 4:1 2:1 3:1 4:4 2:3 1:2 2:3 3:3
5:0 3:1 4:1 2:1 3:1 4:4 2:3 1:2 2:3 3:3 4:4
3:0 4:1 2:1 3:1 4:4 2:3 1:2 2:3 3:3 4:4 3:1
4:0 2:1 3:1 4:4 2:3 1:2 2:3 3:3 4:4 3:1 5:1
2:0 3:1 4:4 2:3 1:2 2:3 3:3 4:4 3:1 5:1 3:1
3:0 4:4 2:3 1:2 2:3 3:3 4:4 3:1 5:1 3:1 4:1
4:0 2:3 1:2 2:3 3:3 4:4 3:1 5:1 3:1 4:1 2:1
2:0 1:2 2:3 3:3 4:4 3:1 5:1 3:1 4:1 2:1 3:1
1:0 2:3 3:3 4:4 3:1 5:1 3:1 4:1 2:1 3:1 4:4
2:0 3:3 4:4 3:1 5:1 3:1 4:1 2:1 3:1 4:4 2:3
3:0 4:4 3:1 5:1 3:1 4:1 2:1 3:1 4:4 2:3 1:2
4:0 3:1 5:1 3:1 4:1 2:1 3:1 4:4 2:3 1:2 2:3
3:0 5:1 3:1 4:1 2:1 3:1 4:4 2:3 1:2 2:3 3:3
5:0 3:1 4:1 2:1 3:1 4:4 2:3 1:2 2:3 3:3 4:4
3:0 4:1 2:1 3:1 4:4 2:3 1:2 2:3 3:3 4:4 3:1
4:0 2:1 3:1 4:4 2:3 1:2 2:3 3:3 4:4 3:1 5:1
2:0 3:1 4:4 2:3 1:2 2:3 3:3 4:4 3:1 5:1 3:1
3:0 4:4 2:3 1:2 2:3 3:3 4:4 3:1 5:1 3:1 4:1
4:0 2:3 1:2 2:3 3:3 4:4 3:1 5:1 3:1 4:1 2:1
2:0 1:2 2:3 3:3 4:4 3:1 5:1 3:1 4:1 2:1 3:1
1:0 2:3 3:3 4:4 3:1 5:1 3:1 4:1 2:1 3:1 4:4
2:0 3:3 4:4 3:1 5:1 3:1 4:1 2:1 3:1 4:4 2:3
3:0 4:4 3:1 5:1 3:1 4:1 2:1 3:1 4:4 2:3 1:2
4:0 3:1 5:1 3:1 4:1 2:1 3:1 4:4 2:3 1:2 2:3
3:0 5:1 3:1 4:1 2:1 3:1 4:4 2:3 1:2 2:3 3:3
5:0 3:1 4:1 2:1 3:1 4:4 2:3 1:2 2:3 3:3 4:4
3:0 4:1 2:1 3:1 4:4 2:3 1:2 2:3 3:3 4:4 3:1
4:0 2:1 3:1 4:4 2:3 1:2 2:3 3:3 4:4 3:1 5:1
2:0 3:1 4:4 2:3 1:2 2:3 3:3 4:4 3:1 5:1 3:1
3:0 4:4 2:3 1:2 2:3 3:3 4:4 3:1 5:1 3:1 4:1
4:0 2:3 1:2 2:3 3:3 4:4 3:1 5:1 3:1 4:1 2:1
2:0 1:2 2:3 3:3 4:4 3:1 5:1 3:1 4:1 2:1 3:1
1:0 2:3 3:3 4:4 3:1 5:1 3:1 4:1 2:1 3:1 4:4
2:0 3:3 4:4 3:1 5:1 3:1 4:1 2:1 3:1 4:4 2:3
3:0 4:4 3:1 5:1 3:1 4:1 2:1 3:1 4:4 2:3 1:2
4:0 3:1 5:1 3:1 4:1 2:1 3:1 4:4 2:3 1:2 2:3
3:0 5:1 3:1 4:1 2:1 3:1 4:4 2:3 1:2 2:3 3:3
5:0 3:1 4:1 2:1 3:1 4:4 2:3 1:2 2:3 3:3 4:4
3:0 4:1 2:1 3:1 4:4 2:3 1:2 2:3 3:3 4:4 3:1
4:0 2:1 3:1 4:4 2:3 1:2 2:3 3:3 4:4 3:1 5:1
2:0 3:1 4:4 2:3 1:2 2:3 3:3 4:4 3:1 5:1 3:1
3:0 4:4 2:3 1:2 2:3 3:3 4:4 3:1 5:1 3:1 4:1
4:0 2:3 1:2 2:3 3:3 4:4 3:1 5:1 3:1 4:1 2:1
2:0 1:2 2:3 3:3 4:4 3:1 5:1 3:1 4:1 2:1 3:1
1:0 2:3 3:3 4:4 3:1 5:1 3:1 4:1 2:1 3:1 4:4
2:0 3:3 4:4 3:1 5:1 3:1 4:1 2:1 3:1 4:4 2:3
3:0 4:4 3:1 5:1 3:1 4:1 2:1 3:1 4:4 2:3 1:2
4:0 3:1 5:1 3:1 4:1 2:1 3:1 4:4 2:3 1:2 2:3
3:0 5:1 3:1 4:1 2:1 3:1 4:4 2:3 1:2 2:3 3:3
5:0 3:1 4:1 2:1 3:1 4:4 2:3 1:2 2:3 3:3 4:4
3:0 4:1 2:1 3:1 4:4 2:3 1:2 2:3 3:3 4:4 3:1
4:0 2:1 3:1 4:4 2:3 1:2 2:3 3:3 4:4 3:1 5:1
2:0 3:1 4:4 2:3 1:2 2:3 3:3 4:4 3:1 5:1 3:1
3:0 4:4 2:3 1:2 2:3 3:3 4:4 3:1 5:1 3:1 4:1
4:0 2:3 1:2 2:3 3:3 4:4 3:1 5:1 3:1 4:1 2:1
2:0 1:2 2:3 3:3 4:4 3:1 5:1 3:1 4:1 2:1 3:1
1:0 2:3 3:3 4:4 3:1 5:1 3:1 4:1 2:1 3:1 4:4
2:0 3:3 4:4 3:1 5:1 3:1 4:1 2:1 3:1 4:4 2:3
3:0 4:4 3:1 5:1 3:1 4:1 2:1 3:1 4:4 2:3 1:2
4:0 3:1 5:1 3:1 4:1 2:1 3:1 4:4 2:3 1:2 2:3
3:0 5:1 3:1 4:1 2:1 3:1 4:4 2:3 1:2 2:3 3:3
5:0 3:1 4:1 2:1 3:1 4:4 2:3 1:2 2:3 3:3 4:4
3:0 4:1 2:1 3:1 4:4 2:3 1:2 2:3 3:3 4:4 3:1
4:0 2:1 3:1 4:4 2:3 1:2 2:3 3:3 4:4 3:1 5:1
2:0 3:1 4:4 2:3 1:2 2:3 3:3 4:4 3:1 5:1 3:1
3:0 4:4 2:3 1:2 2:3 3:3 4:4 3:1 5:1 3:1 4:1
4:0 2:3 1:2 2:3 3:3 4:4 3:1 5:1 3:1 4:1 2:1
2:0 1:2 2:3 3:3 4:4 3:1 5:1 3:1 4:1 2:1 3:1
1:0 2:3 3:3 4:4 3:1 5:1 3:1 4:1 2:1 3:1 4:4
2:0 3:3 4:4 3:1 5:1 3:1 4:1 2:1 3:1 4:4 2:3
3:0 4:4 3:1 5:1 3:1 4:1 2:1 3:1 4:4 2:3 1:2
4:0 3:1 5:1 3:1 4:1 2:1 3:1 4:4 2:3 1:2 2:3
3:0 5:1 3:1 4:1 2:1 3:1 4:4 2:3 1:2 2:3 3:3
5:0 3:1 4:1 2:1 3:1 4:4 2:3 1:2 2:3 3:3 4:4
3:0 4:1 2:1 3:1 4:4 2:3 1:2 2:3 3:3 4:4 3:1
4:0 2:1 3:1 4:4 2:3 1:2 2:3 3:3 4:4 3:1 5:1
2:0 3:1 4:4 2:3 1:2 2:3 3:3 4:4 3:1 5:1 3:1
3:0 4:4 2:3 1:2 2:3 3:3 4:4 3:1 5:1 3:1 4:1
4:0 2:3 1:2 2:3 3:3 4:4 3:1 5:1 3:1 4:1 2:1
2:0 1:2 2:3 3:3 4:4 3:1 5:1 3:1 4:1 2:1 3:1
1:0 2:3 3:3 4:4 3:1 5:1 3:1 4:1 2:1 3:1 4:4
2:0 3:3 4:4 3:1 5:1 3:1 4:1 2:1 3:1 4:4 2:3
3:0 4:4 3:1 5:1 3:1 4:1 2:1 3:1 4:4 2:3 1:2
4:0 3:1 5:1 3:1 4:1 2:1 3:1 4:4 2:3 1:2 2:3
3:0 5:1 3:1 4:1 2:1 3:1 4:4 2:3 1:2 2:3 3:3
5:0 3:1 4:1 2:1 3:1 4:4 2:3 1:2 2:3 3:3 4:4
3:0 4:1 2:1 3:1 4:4 2:3 1:2 2:3 3:3 4:4 3:1
4:0 2:1 3:1 4:4 2:3 1:2 2:3 3:3 4:4 3:1 5:1
2:0 3:1 4:4 2:3 1:2 2:3 3:3 4:4 3:1 5:1 3:1
3:0 4:4 2:3 1:2 2:3 3:3 4:4 3:1 5:1 3:1 4:1
4:0 2:3 1:2 2:3 3:3 4:4 3:1 5:1 3:1 4:1 2:1
2:0 1:2 2:3 3:3 4:4 3:1 5:1 3:1 4:1 2:1 3:1
1:0 2:3 3:3 4:4 3:1 5:1 3:1 4:1 2:1 3:1 4:4
2:0 3:3 4:4 3:1 5:1 3:1 4:1 2:1 3:1 4:4 2:3
3:0 4:4 3:1 5:1 3:1 4:1 2:1 3:1 4:4 2:3 1:2
4:0 3:1 5:1 3:1 4:1 2:1 3:1 4:4 2:3 1:2 2:3
3:0 5:1 3:1 4:1 2:1 3:1 4:4 2:3 1:2 2:3 3:3
5:0 3:1 4:1 2:1 3:1 4:4 2:3 1:2 2:3 3:3 4:4
3:0 4:1 2:1 3:1 4:4 2:3 1:2 2:3 3:3 4:4 3:1
4:0 2:1 3:1 4:4 2:3 1:2 2:3 3:3 4:4 3:1 5:1
2:0 3:1 4:4 2:3 1:2 2:3 3:3 4:4 3:1 5:1 3:1
3:0 4:4 2:3 1:2 2:3 3:3 4:4 3:1 5:1 3:1 4:1
4:0 2:3 1:2 2:3 3:3 4:4 3:1 5:1 3:1 4:1 2:1
2:0 1:2 2:3 3:3 4:4 3:1 5:1 3:1 4:1 2:1 3:1
1:0 2:3 3:3 4:4 3:1 5:1 3:1 4:1 2:1 3:1 4:4
2:0 3:3 4:4 3:1 5:1 3:1 4:1 2:1 3:1 4:4 2:3
3:0 4:4 3:1 5:1 3:1 4:1 2:1 3:1 4:4 2:3 1:2
4:0 3:1 5:1 3:1 4:1 2:1 3:1 4:4 2:3 1:2 2:3
3:0 5:1 3:1 4:1 2:1 3:1 4:4 2:3 1:2 2:3 3:3
5:0 3:1 4:1 2:1 3:1 4:4 2:3 1:2 2:3 3:3 4:4
3:0 4:1 2:1 3:1 4:4 2:3 1:2 2:3 3:3 4:4 3:1
4:0 2:1 3:1 4:4 2:3 1:2 2:3 3:3 4:4 3:1 5:1
2:0 3:1 4:4 2:3 1:2 2:3 3:3 4:4 3:1 5:1 3:1
3:0 4:4 2:3 1:2 2:3 3:3 4:4 3:1 5:1 3:1 4:1
4:0 2:3 1:2 2:3 3:3 4:4 3:1 5:1 3:1 4:1 2:1
2:0 1:2 2:3 3:3 4:4 3:1 5:1 3:1 4:1 2:1 3:1
1:0 2:3 3:3 4:4 3:1 5:1 3:1 4:1 2:1 3:1 4:4
2:0 3:3 4:4 3:1 5:1 3:1 4:1 2:1 3:1 4:4 2:3
3:0 4:4 3:1 5:1 3:1 4:1 2:1 3:1 4:4 2:3 1:2
4:0 3:1 5:1 3:1 4:1 2:1 3:1 4:4 2:3 1:2 2:3
3:0 5:1 3:1 4:1 2:1 3:1 4:4 2:3 1:2 2:3 3:3
5:0 3:1 4:1 2:1 3:1 4:4 2:3 1:2 2:3 3:3 4:4
3:0 4:1 2:1 3:1 4:4 2:3 1:2 2:3 3:3 4:4 3:1
4:0 2:1 3:1 4:4 2:3 1:2 2:3 3:3 4:4 3:1 5:1
2:0 3:1 4:4 2:3 1:2 2:3 3:3 4:4 3:1 5:1 3:1
3:0 4:4 2:3 1:2 2:3 3:3 4:4 3:1 5:1 3:1 4:1
4:0 2:3 1:2 2:3 3:3 4:4 3:1 5:1 3:1 4:1 2:1
2:0 1:2 2:3 3:3 4:4 3:1 5:1 3:1 4:1 2:1 3:1
1:0 2:3 3:3 4:4 3:1 5:1 3:1 4:1 2:1 3:1 4:4
2:0 3:3 4:4 3:1 5:1 3:1 4:1 2:1 3:1 4:4 2:3
3:0 4:4 3:1 5:1 3:1 4:1 2:1 3:1 4:4 2:3 1:2
4:0 3:1 5:1 3:1 4:1 2:1 3:1 4:4 2:3 1:2 2:3
3:0 5:1 3:1 4:1 2:1 3:1 4:4 2:3 1:2 2:3 3:3
5:0 3:1 4:1 2:1 3:1 4:4 2:3 1:2 2:3 3:3 4:4
3:0 4:1 2:1 3:1 4:4 2:3 1:2 2:3 3:3 4:4 3:1
4:0 2:1 3:1 4:4 2:3 1:2 2:3 3:3 4:4 3:1 5:1
2:0 3:1 4:4 2:3 1:2 2:3 3:3 4:4 3:1 5:1 3:1
3:0 4:4 2:3 1:2 2:3 3:3 4:4 3:1 5:1 3:1 4:1
4:0 2:3 1:2 2:3 3:3 4:4 3:1 5:1 3:1 4:1 2:1
2:0 1:2 2:3 3:3 4:4 3:1 5:1 3:1 4:1 2:1 3:1
1:0 2:3 3:3 4:4 3:1 5:1 3:1 4:1 2:1 3:1 4:4
2:0 3:3 4:4 3:1 5:1 3:1 4:1 2:1 3:1 4:4 2:3
3:0 4:4 3:1 5:1 3:1 4:1 2:1 3:1 4:4 2:3 1:2
4:0 3:1 5:1 3:1 4:1 2:1 3:1 4:4 2:3 1:2 2:3
3:0 5:1 3:1 4:1 2:1 3:1 4:4 2:3 1:2 2:3 3:3
5:0 3:1 4:1 2:1 3:1 4:4 2:3 1:2 2:3 3:3 4:4
3:0 4:1 2:1 3:1 4:4 2:3 1:2 2:3 3:3 4:4 3:1
4:0 2:1 3:1 4:4 2:3 1:2 2:3 3:3 4:4 3:1 5:1
2:0 3:1 4:4 2:3 1:2 2:3 3:3 4:4 3:1 5:1 3:1
3:0 4:4 2:3 1:2 2:3 3:3 4:4 3:1 5:1 3:1 4:1
4:0 2:3 1:2 2:3 3:3 4:4 3:1 5:1 3:1 4:1 2:1
2:0 1:2 2:3 3:3 4:4 3:1 5:1 3:1 4:1 2:1 3:1
1:0 2:3 3:3 4:4 3:1 5:1 3:1 4:1 2:1 3:1 4:4
2:0 3:3 4:4 3:1 5:1 3:1 4:1 2:1 3:1 4:4 2:3
3:0 4:4 3:1 5:1 3:1 4:1 2:1 3:1 4:4 2:3 1:2
4:0 3:1 5:1 3:1 4:1 2:1 3:1 4:4 2:3 1:2 2:3
3:0 5:1 3:1 4:1 2:1 3:1 4:4 2:3 1:2 2:3 3:3
5:0 3:1 4:1 2:1 3:1 4:4 2:3 1:2 2:3 3:3 4:4
3:0 4:1 2:1 3:1 4:4 2:3 1:2 2:3 3:3 4:4 3:1
4:0 2:1 3:1 4:4 2:3 1:2 2:3 3:3 4:4 3:1 5:1
2:0 3:1 4:4 2:3 1:2 2:3 3:3 4:4 3:1 5:1 3:1
3:0 4:4 2:3 1:2 2:3 3:3 4:4 3:1 5:1 3:1 4:1
4:0 2:3 1:2 2:3 3:3 4:4 3:1 5:1 3:1 4:1 2:1
2:0 1:2 2:3 3:3 4:4 3:1 5:1 3:1 4:1 2:1 3:1
1:0 2:3 3:3 4:4 3:1 5:1 3:1 4:1 2:1 3:1 4:4
2:0 3:3 4:4 3:1 5:1 3:1 4:1 2:1 3:1 4:4 2:3
3:0 4:4 3:1 5:1 3:1 4:1 2:1 3:1 4:4 2:3 1:2
4:0 3:1 5:1 3:1 4:1 2:1 3:1 4:4 2:3 1:2 2:3
3:0 5:1 3:1 4:1 2:1 3:1 4:4 2:3 1:2 2:3 3:3
5:0 3:1 4:1 2:1 3:1 4:4 2:3 1:2 2:3 3:3 4:4
3:0 4:1 2:1 3:1 4:4 2:3 1:2 2:3 3:3 4:4 3:1
4:0 2:1 3:1 4:4 2:3 1:2 2:3 3:3 4:4 3:1 5:1
2:0 3:1 4:4 2:3 1:2 2:3 3:3 4:4 3:1 5:1 3:1
3:0 4:4 2:3 1:2 2:3 3:3 4:4 3:1 5:1 3:1 4:1
4:0 2:3 1:2 2:3 3:3 4:4 3:1 5:1 3:1 4:1 2:1
2:0 1:2 2:3 3:3 4:4 3:1 5:1 3:1 4:1 2:1 3:1
1:0 2:3 3:3 4:4 3:1 5:1 3:1 4:1 2:1 3:1 4:4
2:0 3:3 4:4 3:1 5:1 3:1 4:1 2:1 3:1 4:4 2:3
3:0 4:4 3:1 5:1 3:1 4:1 2:1 3:1 4:4 2:3 1:2
4:0 3:1 5:1 3:1 4:1 2:1 3:1 4:4 2:3 1:2 2:3
3:0 5:1 3:1 4:1 2:1 3:1 4:4 2:3 1:2 2:3 3:3
5:0 3:1 4:1 2:1 3:1 4:4 2:3 1:2 2:3 3:3 4:4
3:0 4:1 2:1 3:1 4:4 2:3 1:2 2:3 3:3 4:4 3:1
4:0 2:1 3:1 4:4 2:3 1:2 2:3 3:3 4:4 3:1 5:1
2:0 3:1 4:4 2:3 1:2 2:3 3:3 4:4 3:1 5:1 3:1
3:0 4:4 2:3 1:2 2:3 3:3 4:4 3:1 5:1 3:1 4:1
4:0 2:3 1:2 2:3 3:3 4:4 3:1 5:1 3:1 4:1 2:1
2:0 1:2 2:3 3:3 4:4 3:1 5:1 3:1 4:1 2:1 3:1
1:0 2:3 3:3 4:4 3:1 5:1 3:1 4:1 2:1 3:1 4:4
2:0 3:3 4:4 3:1 5:1 3:1 4:1 2:1 3:1 4:4 2:3
3:0 4:4 3:1 5:1 3:1 4:1 2:1 3:1 4:4 2:3 1:2
4:0 3:1 5:1 3:1 4:1 2:1 3:1 4:4 2:3 1:2 2:3
3:0 5:1 3:1 4:1 2:1 3:1 4:4 2:3 1:2 2:3 3:3
5:0 3:1 4:1 2:1 3:1 4:4 2:3 1:2 2:3 3:3 4:4
3:0 4:1 2:1 3:1 4:4 2:3 1:2 2:3 3:3 4:4 3:1
4:0 2:1 3:1 4:4 2:3 1:2 2:3 3:3 4:4 3:1 5:1
2:0 3:1 4:4 2:3 1:2 2:3 3:3 4:4 3:1 5:1 3:1
3:0 4:4 2:3 1:2 2:3 3:3 4:4 3:1 5:1 3:1 4:1
4:0 2:3 1:2 2:3 3:3 4:4 3:1 5:1 3:1 4:1 2:1
2:0 1:2 2:3 3:3 4:4 3:1 5:1 3:1 4:1 2:1 3:1
1:0 2:3 3:3 4:4 3:1 5:1 3:1 4:1 2:1 3:1 4:4
2:0 3:3 4:4 3:1 5:1 3:1 4:1 2:1 3:1 4:4 2:3
3:0 4:4 3:1 5:1 3:1 4:1 2:1 3:1 4:4 2:3 1:2
4:0 3:1 5:1 3:1 4:1 2:1 3:1 4:4 2:3 1:2 2:3
3:0 5:1 3:1 4:1 2:1 3:1 4:4 2:3 1:2 2:3 3:3
5:0 3:1 4:1 2:1 3:1 4:4 2:3 1:2 2:3 3:3 4:4
3:0 4:1 2:1 3:1 4:4 2:3 1:2 2:3 3:3 4:4 3:1
4:0 2:1 3:1 4:4 2:3 1:2 2:3 3:3 4:4 3:1 5:1
2:0 3:1 4:4 2:3 1:2 2:3 3:3 4:4 3:1 5:1 3:1
3:0 4:4 2:3 1:2 2:3 3:3 4:4 3:1 5:1 3:1 4:1
4:0 2:3 1:2 2:3 3:3 4:4 3:1 5:1 3:1 4:1 2:1
2:0 1:2 2:3 3:3 4:4 3:1 5:1 3:1 4:1 2:1 3:1
1:0 2:3 3:3 4:4 3:1 5:1 3:1 4:1 2:1 3:1 4:4
2:0 3:3 4:4 3:1 5:1 3:1 4:1 2:1 3:1 4:4 2:3
3:0 4:4 3:1 5:1 3:1 4:1 2:1 3:1 4:4 2:3 1:2
4:0 3:1 5:1 3:1 4:1 2:1 3:1 4:4 2:3 1:2 2:3
3:0 5:1 3:1 4:1 2:1 3:1 4:4 2:3 1:2 2:3 3:3
5:0 3:1 4:1 2:1 3:1 4:4 2:3 1:2 2:3 3:3 4:4
3:0 4:1 2:1 3:1 4:4 2:3 1:2 2:3 3:3 4:4 3:1
4:0 2:1 3:1 4:4 2:3 1:2 2:3 3:3 4:4 3:1 5:1
2:0 3:1 4:4 2:3 1:2 2:3 3:3 4:4 3:1 5:1 3:1
3:0 4:4 2:3 1:2 2:3 3:3 4:4 3:1 5:1 3:1 4:1
4:0 2:3 1:2 2:3 3:3 4:4 3:1 5:1 3:1 4:1 2:1
2:0 1:2 2:3 3:3 4:4 3:1 5:1 3:1 4:1 2:1 3:1
1:0 2:3 3:3 4:4 3:1 5:1 3:1 4:1 2:1 3:1 4:4
2:0 3:3 4:4 3:1 5:1 3:1 4:1 2:1 3:1 4:4 2:3
3:0 4:4 3:1 5:1 3:1 4:1 2:1 3:1 4:4 2:3 1:2
4:0 3:1 5:1 3:1 4:1 2:1 3:1 4:4 2:3 1:2 2:3
3:0 5:1 3:1 4:1 2:1 3:1 4:4 2:3 1:2 2:3 3:3
5:0 3:1 4:1 2:1 3:1 4:4 2:3 1:2 2:3 3:3 4:4
3:0 4:1 2:1 3:1 4:4 2:3 1:2 2:3 3:3 4:4 3:1
4:0 2:1 3:1 4:4 2:3 1:2 2:3 3:3 4:4 3:1 5:1
2:0 3:1 4:4 2:3 1:2 2:3 3:3 4:4 3:1 5:1 3:1
3:0 4:4 2:3 1:2 2:3 3:3 4:4 3:1 5:1 3:1 4:1
4:0 2:3 1:2 2:3 3:3 4:4 3:1 5:1 3:1 4:1 2:1
2:0 1:2 2:3 3:3 4:4 3:1 5:1 3:1 4:1 2:1 3:1
1:0 2:3 3:3 4:4 3:1 5:1 3:1 4:1 2:1 3:1 4:4
2:0 3:3 4:4 3:1 5:1 3:1 4:1 2:1 3:1 4:4 2:3
3:0 4:4 3:1 5:1 3:1 4:1 2:1 3:1 4:4 2:3 1:2
4:0 3:1 5:1 3:1 4:1 2:1 3:1 4:4 2:3 1:2 2:3
3:0 5:1 3:1 4:1 2:1 3:1 4:4 2:3 1:2 2:3 3:3
5:0 3:1 4:1 2:1 3:1 4:4 2:3 1:2 2:3 3:3 4:4
3:0 4:1 2:1 3:1 4:4 2:3 1:2 2:3 3:3 4:4 3:1
4:0 2:1 3:1 4:4 2:3 1:2 2:3 3:3 4:4 3:1 5:1
2:0 3:1 4:4 2:3 1:2 2:3 3:3 4:4 3:1 5:1 3:1
3:0 4:4 2:3 1:2 2:3 3:3 4:4 3:1 5:1 3:1 4:1
4:0 2:3 1:2 2:3 3:3 4:4 3:1 5:1 3:1 4:1 2:1
2:0 1:2 2:3 3:3 4:4 3:1 5:1 3:1 4:1 2:1 3:1
1:0 2:3 3:3 4:4 3:1 5:1 3:1 4:1 2:1 3:1 4:4
2:0 3:3 4:4 3:1 5:1 3:1 4:1 2:1 3:1 4:4 2:3
3:0 4:4 3:1 5:1 3:1 4:1 2:1 3:1 4:4 2:3 1:2
4:0 3:1 5:1 3:1 4:1 2:1 3:1 4:4 2:3 1:2 2:3
3:0 5:1 3:1 4:1 2:1 3:1 4:4 2:3 1:2 2:3 3:3
5:0 3:1 4:1 2:1 3:1 4:4 2:3 1:2 2:3 3:3 4:4
3:0 4:1 2:1 3:1 4:4 2:3 1:2 2:3 3:3 4:4 3:1
4:0 2:1 3:1 4:4 2:3 1:2 2:3 3:3 4:4 3:1 5:1
2:0 3:1 4:4 2:3 1:2 2:3 3:3 4:4 3:1 5:1 3:1
3:0 4:4 2:3 1:2 2:3 3:3 4:4 3:1 5:1 3:1 4:1
4:0 2:3 1:2 2:3 3:3 4:4 3:1 5:1 3:1 4:1 2:1
2:0 1:2 2:3 3:3 4:4 3:1 5:1 3:1 4:1 2:1 3:1
1:0 2:3 3:3 4:4 3:1 5:1 3:1 4:1 2:1 3:1 4:4
2:0 3:3 4:4 3:1 5:1 3:1 4:1 2:1 3:1 4:4 2:3
3:0 4:4 3:1 5:1 3:1 4:1 2:1 3:1 4:4 2:3 1:2
4:0 3:1 5:1 3:1 4:1 2:1 3:1 4:4 2:3 1:2 2:3
3:0 5:1 3:1 4:1 2:1 3:1 4:4 2:3 1:2 2:3 3:3
5:0 3:1 4:1 2:1 3:1 4:4 2:3 1:2 2:3 3:3 4:4
3:0 4:1 2:1 3:1 4:4 2:3 1:2 2:3 3:3 4:4 3:1
4:0 2:1 3:1 4:4 2:3 1:2 2:3 3:3 4:4 3:1 5:1
2:0 3:1 4:4 2:3 1:2 2:3 3:3 4:4 3:1 5:1 3:1
3:0 4:4 2:3 1:2 2:3 3:3 4:4 3:1 5:1 3:1 4:1
4:0 2:3 1:2 2:3 3:3 4:4 3:1 5:1 3:1 4:1 2:1
2:0 1:2 2:3 3:3 4:4 3:1 5:1 3:1 4:1 2:1 3:1
1:0 2:3 3:3 4:4 3:1 5:1 3:1 4:1 2:1 3:1 4:4
2:0 3:3 4:4 3:1 5:1 3:1 4:1 2:1 3:1 4:4 2:3
3:0 4:4 3:1 5:1 3:1 4:1 2:1 3:1 4:4 2:3 1:2
4:0 3:1 5:1 3:1 4:1 2:1 3:1 4:4 2:3 1:2 2:3
3:0 5:1 3:1 4:1 2:1 3:1 4:4 2:3 1:2 2:3 3:3
5:0 3:1 4:1 2:1 3:1 4:4 2:3 1:2 2:3 3:3 4:4
3:0 4:1 2:1 3:1 4:4 2:3 1:2 2:3 3:3 4:4 3:1
4:0 2:1 3:1 4:4 2:3 1:2 2:3 3:3 4:4 3:1 5:1
2:0 3:1 4:4 2:3 1:2 2:3 3:3 4:4 3:1 5:1 3:1
3:0 4:4 2:3 1:2 2:3 3:3 4:4 3:1 5:1 3:1 4:1
4:0 2:3 1:2 2:3 3:3 4:4 3:1 5:1 3:1 4:1 2:1
2:0 1:2 2:3 3:3 4:4 3:1 5:1 3:1 4:1 2:1 3:1
1:0 2:3 3:3 4:4 3:1 5:1 3:1 4:1 2:1 3:1 4:4
2:0 3:3 4:4 3:1 5:1 3:1 4:1 2:1 3:1 4:4 2:3
3:0 4:4 3:1 5:1 3:1 4:1 2:1 3:1 4:4 2:3 1:2
4:0 3:1 5:1 3:1 4:1 2:1 3:1 4:4 2:3 1:2 2:3
3:0 5:1 3:1 4:1 2:1 3:1 4:4 2:3 1:2 2:3 3:3
5:0 3:1 4:1 2:1 3:1 4:4 2:3 1:2 2:3 3:3 4:4
3:0 4:1 2:1 3:1 4:4 2:3 1:2 2:3 3:3 4:4 3:1
4:0 2:1 3:1 4:4 2:3 1:2 2:3 3:3 4:4 3:1 5:1
2:0 3:1 4:4 2:3 1:2 2:3 3:3 4:4 3:1 5:1 3:1
3:0 4:4 2:3 1:2 2:3 3:3 4:4 3:1 5:1 3:1 4:1
4:0 2:3 1:2 2:3 3:3 4:4 3:1 5:1 3:1 4:1 2:1
2:0 1:2 2:3 3:3 4:4 3:1 5:1 3:1 4:1 2:1 3:1
1:0 2:3 3:3 4:4 3:1 5:1 3:1 4:1 2:1 3:1 4:4
2:0 3:3 4:4 3:1 5:1 3:1 4:1 2:1 3:1 4:4 2:3
3:0 4:4 3:1 5:1 3:1 4:1 2:1 3:1 4:4 2:3 1:2
4:0 3:1 5:1 3:1 4:1 2:1 3:1 4:4 2:3 1:2 2:3
3:0 5:1 3:1 4:1 2:1 3:1 4:4 2:3 1:2 2:3 3:3
5:0 3:1 4:1 2:1 3:1 4:4 2:3 1:2 2:3 3:3 4:4
3:0 4:1 2:1 3:1 4:4 2:3 1:2 2:3 3:3 4:4 3:1
4:0 2:1 3:1 4:4 2:3 1:2 2:3 3:3 4:4 3:1 5:1
2:0 3:1 4:4 2:3 1:2 2:3 3:3 4:4 3:1 5:1 3:1
3:0 4:4 2:3 1:2 2:3 3:3 4:4 3:1 5:1 3:1 4:1
4:0 2:3 1:2 2:3 3:3 4:4 3:1 5:1 3:1 4:1 2:1
2:0 1:2 2:3 3:3 4:4 3:1 5:1 3:1 4:1 2:1 3:1
1:0 2:3 3:3 4:4 3:1 5:1 3:1 4:1 2:1 3:1 4:4
2:0 3:3 4:4 3:1 5:1 3:1 4:1 2:1 3:1 4:4 2:3
3:0 4:4 3:1 5:1 3:1 4:1 2:1 3:1 4:4 2:3 1:2
4:0 3:1 5:1 3:1 4:1 2:1 3:1 4:4 2:3 1:2 2:3
3:0 5:1 3:1 4:1 2:1 3:1 4:4 2:3 1:2 2:3 3:3
5:0 3:1 4:1 2:1 3:1 4:4 2:3 1:2 2:3 3:3 4:4
3:0 4:1 2:1 3:1 4:4 2:3 1:2 2:3 3:3 4:4 3:1
4:0 2:1 3:1 4:4 2:3 1:2 2:3 3:3 4:4 3:1 5:1
2:0 3:1 4:4 2:3 1:2 2:3 3:3 4:4 3:1 5:1 3:1
3:0 4:4 2:3 1:2 2:3 3:3 4:4 3:1 5:1 3:1 4:1
4:0 2:3 1:2 2:3 3:3 4:4 3:1 5:1 3:1 4:1 2:1
2:0 1:2 2:3 3:3 4:4 3:1 5:1 3:1 4:1 2:1 3:1
1:0 2:3 3:3 4:4 3:1 5:1 3:1 4:1 2:1 3:1 4:4
2:0 3:3 4:4 3:1 5:1 3:1 4:1 2:1 3:1 4:4 2:3
3:0 4:4 3:1 5:1 3:1 4:1 2:1 3:1 4:4 2:3 1:2
4:0 3:1 5:1 3:1 4:1 2:1 3:1 4:4 2:3 1:2 2:3
3:0 5:1 3:1 4:1 2:1 3:1 4:4 2:3 1:2 2:3 3:3
5:0 3:1 4:1 2:1 3:1 4:4 2:3 1:2 2:3 3:3 4:4
3:0 4:1 2:1 3:1 4:4 2:3 1:2 2:3 3:3 4:4 3:1
4:0 2:1 3:1 4:4 2:3 1:2 2:3 3:3 4:4 3:1 5:1
2:0 3:1 4:4 2:3 1:2 2:3 3:3 4:4 3:1 5:1 3:1
3:0 4:4 2:3 1:2 2:3 3:3 4:4 3:1 5:1 3:1 4:1
4:0 2:3 1:2 2:3 3:3 4:4 3:1 5:1 3:1 4:1 2:1
2:0 1:2 2:3 3:3 4:4 3:1 5:1 3:1 4:1 2:1 3:1
1:0 2:3 3:3 4:4 3:1 5:1 3:1 4:1 2:1 3:1 4:4
2:0 3:3 4:4 3:1 5:1 3:1 4:1 2:1 3:1 4:4 2:3
3:0 4:4 3:1 5:1 3:1 4:1 2:1 3:1 4:4 2:3 1:2
4:0 3:1 5:1 3:1 4:1 2:1 3:1 4:4 2:3 1:2 2:3
3:0 5:1 3:1 4:1 2:1 3:1 4:4 2:3 1:2 2:3 3:3
5:0 3:1 4:1 2:1 3:1 4:4 2:3 1:2 2:3 3:3 4:4
3:0 4:1 2:1 3:1 4:4 2:3 1:2 2:3 3:3 4:4 3:1
4:0 2:1 3:1 4:4 2:3 1:2 2:3 3:3 4:4 3:1 5:1
2:0 3:1 4:4 2:3 1:2 2:3 3:3 4:4 3:1 5:1 3:1
3:0 4:4 2:3 1:2 2:3 3:3 4:4 3:1 5:1 3:1 4:1
4:0 2:3 1:2 2:3 3:3 4:4 3:1 5:1 3:1 4:1 2:1
2:0 1:2 2:3 3:3 4:4 3:1 5:1 3:1 4:1 2:1 3:1
1:0 2:3 3:3 4:4 3:1 5:1 3:1 4:1 2:1 3:1 4:4
2:0 3:3 4:4 3:1 5:1 3:1 4:1 2:1 3:1 4:4 2:3
3:0 4:4 3:1 5:1 3:1 4:1 2:1 3:1 4:4 2:3 1:2
4:0 3:1 5:1 3:1 4:1 2:1 3:1 4:4 2:3 1:2 2:3
3:0 5:1 3:1 4:1 2:1 3:1 4:4 2:3 1:2 2:3 3:3
5:0 3:1 4:1 2:1 3:1 4:4 2:3 1:2 2:3 3:3 4:4
3:0 4:1 2:1 3:1 4:4 2:3 1:2 2:3 3:3 4:4 3:1
4:0 2:1 3:1 4:4 2:3 1:2 2:3 3:3 4:4 3:1 5:1
2:0 3:1 4:4 2:3 1:2 2:3 3:3 4:4 3:1 5:1 3:1
3:0 4:4 2:3 1:2 2:3 3:3 4:4 3:1 5:1 3:1 4:1
4:0 2:3 1:2 2:3 3:3 4:4 3:1 5:1 3:1 4:1 2:1
2:0 1:2 2:3 3:3 4:4 3:1 5:1 3:1 4:1 2:1 3:1
1:0 2:3 3:3 4:4 3:1 5:1 3:1 4:1 2:1 3:1 4:4
2:0 3:3 4:4 3:1 5:1 3:1 4:1 2:1 3:1 4:4 2:3
3:0 4:4 3:1 5:1 3:1 4:1 2:1 3:1 4:4 2:3 1:2
4:0 3:1 5:1 3:1 4:1 2:1 3:1 4:4 2:3 1:2 2:3
3:0 5:1 3:1 4:1 2:1 3:1 4:4 2:3 1:2 2:3 3:3
5:0 3:1 4:1 2:1 3:1 4:4 2:3 1:2 2:3 3:3 4:4
3:0 4:1 2:1 3:1 4:4 2:3 1:2 2:3 3:3 4:4 3:1
4:0 2:1 3:1 4:4 2:3 1:2 2:3 3:3 4:4 3:1 5:1
2:0 3:1 4:4 2:3 1:2 2:3 3:3 4:4 3:1 5:1 3:1
3:0 4:4 2:3 1:2 2:3 3:3 4:4 3:1 5:1 3:1 4:1
4:0 2:3 1:2 2:3 3:3 4:4 3:1 5:1 3:1 4:1 2:1
2:0 1:2 2:3 3:3 4:4 3:1 5:1 3:1 4:1 2:1 3:1
1:0 2:3 3:3 4:4 3:1 5:1 3:1 4:1 2:1 3:1 4:4
2:0 3:3 4:4 3:1 5:1 3:1 4:1 2:1 3:1 4:4 2:3
3:0 4:4 3:1 5:1 3:1 4:1 2:1 3:1 4:4 2:3 1:2
4:0 3:1 5:1 3:1 4:1 2:1 3:1 4:4 2:3 1:2 2:3
3:0 5:1 3:1 4:1 2:1 3:1 4:4 2:3 1:2 2:3 3:3
5:0 3:1 4:1 2:1 3:1 4:4 2:3 1:2 2:3 3:3 4:4
3:0 4:1 2:1 3:1 4:4 2:3 1:2 2:3 3:3 4:4 3:1
4:0 2:1 3:1 4:4 2:3 1:2 2:3 3:3 4:4 3:1 5:1
2:0 3:1 4:4 2:3 1:2 2:3 3:3 4:4 3:1 5:1 3:1
3:0 4:4 2:3 1:2 2:3 3:3 4:4 3:1 5:1 3:1 4:1
4:0 2:3 1:2 2:3 3:3 4:4 3:1 5:1 3:1 4:1 2:1
2:0 1:2 2:3 3:3 4:4 3:1 5:1 3:1 4:1 2:1 3:1
1:0 2:3 3:3 4:4 3:1 5:1 3:1 4:1 2:1 3:1 4:4
2:0 3:3 4:4 3:1 5:1 3:1 4:1 2:1 3:1 4:4 2:3
3:0 4:4 3:1 5:1 3:1 4:1 2:1 3:1 4:4 2:3 1:2
4:0 3:1 5:1 3:1 4:1 2:1 3:1 4:4 2:3 1:2 2:3
3:0 5:1 3:1 4:1 2:1 3:1 4:4 2:3 1:2 2:3 3:3
5:0 3:1 4:1 2:1 3:1 4:4 2:3 1:2 2:3 3:3 4:4
3:0 4:1 2:1 3:1 4:4 2:3 1:2 2:3 3:3 4:4 3:1
4:0 2:1 3:1 4:4 2:3 1:2 2:3 3:3 4:4 3:1 5:1
2:0 3:1 4:4 2:3 1:2 2:3 3:3 4:4 3:1 5:1 3:1
3:0 4:4 2:3 1:2 2:3 3:3 4:4 3:1 5:1 3:1 4:1
4:0 2:3 1:2 2:3 3:3 4:4 3:1 5:1 3:1 4:1 2:1
2:0 1:2 2:3 3:3 4:4 3:1 5:1 3:1 4:1 2:1 3:1
1:0 2:3 3:3 4:4 3:1 5:1 3:1 4:1 2:1 3:1 4:4
2:0 3:3 4:4 3:1 5:1 3:1 4:1 2:1 3:1 4:4 2:3
3:0 4:4 3:1 5:1 3:1 4:1 2:1 3:1 4:4 2:3 1:2
4:0 3:1 5:1 3:1 4:1 2:1 3:1 4:4 2:3 1:2 2:3
3:0 5:1 3:1 4:1 2:1 3:1 4:4 2:3 1:2 2:3 3:3
5:0 3:1 4:1 2:1 3:1 4:4 2:3 1:2 2:3 3:3 4:4
3:0 4:1 2:1 3:1 4:4 2:3 1:2 2:3 3:3 4:4 3:1
4:0 2:1 3:1 4:4 2:3 1:2 2:3 3:3 4:4 3:1 5:1
2:0 3:1 4:4 2:3 1:2 2:3 3:3 4:4 3:1 5:1 3:1
3:0 4:4 2:3 1:2 2:3 3:3 4:4 3:1 5:1 3:1 4:1
4:0 2:3 1:2 2:3 3:3 4:4 3:1 5:1 3:1 4:1 2:1
2:0 1:2 2:3 3:3 4:4 3:1 5:1 3:1 4:1 2:1 3:1
1:0 2:3 3:3 4:4 3:1 5:1 3:1 4:1 2:1 3:1 4:4
2:0 3:3 4:4 3:1 5:1 3:1 4:1 2:1 3:1 4:4 2:3
3:0 4:4 3:1 5:1 3:1 4:1 2:1 3:1 4:4 2:3 1:2
4:0 3:1 5:1 3:1 4:1 2:1 3:1 4:4 2:3 1:2 2:3
3:0 5:1 3:1 4:1 2:1 3:1 4:4 2:3 1:2 2:3 3:3
5:0 3:1 4:1 2:1 3:1 4:4 2:3 1:2 2:3 3:3 4:4
3:0 4:1 2:1 3:1 4:4 2:3 1:2 2:3 3:3 4:4 3:1
4:0 2:1 3:1 4:4 2:3 1:2 2:3 3:3 4:4 3:1 5:1
2:0 3:1 4:4 2:3 1:2 2:3 3:3 4:4 3:1 5:1 3:1
3:0 4:4 2:3 1:2 2:3 3:3 4:4 3:1 5:1 3:1 4:1
4:0 2:3 1:2 2:3 3:3 4:4 3:1 5:1 3:1 4:1 2:1
2:0 1:2 2:3 3:3 4:4 3:1 5:1 3:1 4:1 2:1 3:1
1:0 2:3 3:3 4:4 3:1 5:1 3:1 4:1 2:1 3:1 4:4
2:0 3:3 4:4 3:1 5:1 3:1 4:1 2:1 3:1 4:4 2:3
3:0 4:4 3:1 5:1 3:1 4:1 2:1 3:1 4:4 2:3 1:2
4:0 3:1 5:1 3:1 4:1 2:1 3:1 4:4 2:3 1:2
3:0 5:1 3:1 4:1 2:1 3:1 4:4 2:3 1:2
5:0 3:1 4:1 2:1 3:1 4:4 2:3 1:2
3:0 4:1 2:1 3:1 4:4 2:3 1:2
4:0 2:1 3:1 4:4 2:3 1:2
2:0 3:1 4:4 2:3 1:2
3:0 4:4 2:3 1:2
4:0 2:3 1:2
2:0 1:2
1:0
2:0 3:3 4:4 3:1 5:1 3:1 4:1 2:1 3:1 4:4 2:3 1:2 2:3 3:3 4:4 3:1 5:1 3:1 4:1 2:1 3:1 4:4 2:3 1:2 2:3 3:3 4:4 3:1 5:1 3:1 4:1 2:1 3:1 4:4 2:3 1:2 2:3 3:3 4:4 3:1 5:1 3:1 4:1 2:1 3:1 4:4 2:3 1:2 2:3 3:3 4:4 3:1 5:1 3:1 4:1 2:1 3:1 4:4 2:3 1:2 2:3 3:3 4:4 3:1 5:1 3:1 4:1 2:1 3:1 4:4 2:3 1:2 2:3 3:3 4:4 3:1 5:1 3:1 4:1 2:1 3:1 4:4 2:3 1:2 2:3 3:3 4:4 3:1 5:1 3:1 4:1 2:1 3:1 4:4 2:3 1:2 2:3 3:3 4:4 3:1 5:1 3:1 4:1 2:1 3:1 4:4 2:3 1:2 2:3 3:3 4:4 3:1 5:1 3:1 4:1 2:1 3:1 4:4 2:3 1:2 2:3 3:3 4:4 3:1 5:1 3:1 4:1 2:1 3:1 4:4 2:3 1:2 2:3 3:3 4:4 3:1 5:1 3:1 4:1 2:1 3:1 4:4 2:3 1:2 2:3 3:3 4:4 3:1 5:1 3:1 4:1 2:1 3:1 4:4 2:3 1:2 2:3 3:3 4:4 3:1 5:1 3:1 4:1 2:1 3:1 4:4 2:3 1:2 2:3 3:3 4:4 3:1 5:1 3:1 4:1 2:1 3:1 4:4 2:3 1:2 2:3 3:3 4:4 3:1 5:1 3:1 4:1 2:1 3:1 4:4 2:3 1:2 2:3 3:3 4:4 3:1 5:1 3:1 4:1 2:1 3:1 4:4 2:3 1:2 2:3 3:3 4:4 3:1 5:1 3:1 4:1 2:1 3:1 4:4 2:3 1:2 2:3 3:3 4:4 3:1 5:1 3:1 4:1 2:1 3:1 4:4 2:3 1:2 2:3 3:3 4:4 3:1 5:1 3:1 4:1 2:1 3:1 4:4 2:3 1:2 2:3 3:3 4:4 3:1 5:1 3:1 4:1 2:1 3:1 4:4 2:3 1:2 2:3 3:3 4:4 3:1 5:1 3:1 4:1 2:1 3:1 4:4 2:3 1:2 2:3 3:3 4:4 3:1 5:1 3:1 4:1 2:1 3:1 4:4 2:3 1:2 2:3 3:3 4:4 3:1 5:1 3:1 4:1 2:1 3:1 4:4 2:3 1:2 2:3 3:3 4:4 3:1 5:1 3:1 4:1 2:1 3:1 4:4 2:3 1:2 2:3 3:3 4:4 3:1 5:1 3:1 4:1 2:1 3:1 4:4 2:3 1:2 2:3 3:3 4:4 3:1 5:1 3:1 4:1 2:1 3:1 4:4 2:3 1:2 2:3 3:3 4:4 3:1 5:1 3:1 4:1 2:1 3:1 4:4 2:3 1:2 2:3 3:3 4:4 3:1 5:1 3:1 4:1 2:1 3:1 4:4 2:3 1:2 2:3 3:3 4:4 3:1 5:1 3:1 4:1 2:1 3:1 4:4 2:3 1:2 2:3 3:3 4:4 3:1 5:1 3:1 4:1 2:1 3:1 4:4 2:3 1:2 2:3 3:3 4:4 3:1 5:1 3:1 4:1 2:1 3:1 4:4 2:3 1:2 2:3 3:3 4:4 3:1 5:1 3:1 4:1 2:1 3:1 4:4 2:3 1:2 2:3 3:3 4:4 3:1 5:1 3:1 4:1 2:1 3:1 4:4 2:3 1:2 2:3 3:3 4:4 3:1 5:1 3:1 4:1 2:1 3:1 4:4 2:3 1:2 2:3 3:3 4:4 3:1 5:1 3:1 4:1 2:1 3:1 4:4 2:3 1:2 2:3 3:3 4:4 3:1 5:1 3:1 4:1 2:1 3:1 4:4 2:3 1:2 2:3 3:3 4:4 3:1 5:1 3:1 4:1 2:1 3:1 4:4 2:3 1:2 2:3 3:3 4:4 3:1 5:1 3:1 4:1 2:1 3:1 4:4 2:3 1:2 2:3 3:3 4:4 3:1 5:1 3:1 4:1 2:1 3:1 4:4 2:3 1:2