1:0 3:2 2:1 1:2 2:1 3:1 2:3 4:2 5:4 6:2 8:4
3:0 2:1 1:2 2:1 3:1 2:3 4:2 5:4 6:2 8:4 7:1
2:0 1:2 2:1 3:1 2:3 4:2 5:4 6:2 8:4 7:1 1:2
1:0 2:1 3:1 2:3 4:2 5:4 6:2 8:4 7:1 1:2 3:2
2:0 3:1 2:3 4:2 5:4 6:2 8:4 7:1 1:2 3:2 2:1
3:0 2:3 4:2 5:4 6:2 8:4 7:1 1:2 3:2 2:1 1:2
2:0 4:2 5:4 6:2 8:4 7:1 1:2 3:2 2:1 1:2 2:1
4:0 5:4 6:2 8:4 7:1 1:2 3:2 2:1 1:2 2:1 3:1
5:0 6:2 8:4 7:1 1:2 3:2 2:1 1:2 2:1 3:1 2:3
6:0 8:4 7:1 1:2 3:2 2:1 1:2 2:1 3:1 2:3 4:2
8:0 7:1 1:2 3:2 2:1 1:2 2:1 3:1 2:3 4:2 5:4
7:0 1:2 3:2 2:1 1:2 2:1 3:1 2:3 4:2 5:4 6:2
1:0 3:2 2:1 1:2 2:1 3:1 2:3 4:2 5:4 6:2 8:4
3:0 2:1 1:2 2:1 3:1 2:3 4:2 5:4 6:2 8:4 7:1
2:0 1:2 2:1 3:1 2:3 4:2 5:4 6:2 8:4 7:1 1:2
1:0 2:1 3:1 2:3 4:2 5:4 6:2 8:4 7:1 1:2 3:2
2:0 3:1 2:3 4:2 5:4 6:2 8:4 7:1 1:2 3:2 2:1
3:0 2:3 4:2 5:4 6:2 8:4 7:1 1:2 3:2 2:1 1:2
2:0 4:2 5:4 6:2 8:4 7:1 1:2 3:2 2:1 1:2 2:1
4:0 5:4 6:2 8:4 7:1 1:2 3:2 2:1 1:2 2:1 3:1
5:0 6:2 8:4 7:1 1:2 3:2 2:1 1:2 2:1 3:1 2:3
6:0 8:4 7:1 1:2 3:2 2:1 1:2 2:1 3:1 2:3 4:2
8:0 7:1 1:2 3:2 2:1 1:2 2:1 3:1 2:3 4:2 5:4
7:0 1:2 3:2 2:1 1:2 2:1 3:1 2:3 4:2 5:4 6:2
1:0 3:2 2:1 1:2 2:1 3:1 2:3 4:2 5:4 6:2 8:4
3:0 2:1 1:2 2:1 3:1 2:3 4:2 5:4 6:2 8:4 7:1
2:0 1:2 2:1 3:1 2:3 4:2 5:4 6:2 8:4 7:1 1:2
1:0 2:1 3:1 2:3 4:2 5:4 6:2 8:4 7:1 1:2 3:2
2:0 3:1 2:3 4:2 5:4 6:2 8:4 7:1 1:2 3:2 2:1
3:0 2:3 4:2 5:4 6:2 8:4 7:1 1:2 3:2 2:1 1:2
2:0 4:2 5:4 6:2 8:4 7:1 1:2 3:2 2:1 1:2 2:1
4:0 5:4 6:2 8:4 7:1 1:2 3:2 2:1 1:2 2:1 3:1
5:0 6:2 8:4 7:1 1:2 3:2 2:1 1:2 2:1 3:1 2:3
6:0 8:4 7:1 1:2 3:2 2:1 1:2 2:1 3:1 2:3 4:2
8:0 7:1 1:2 3:2 2:1 1:2 2:1 3:1 2:3 4:2 5:4
7:0 1:2 3:2 2:1 1:2 2:1 3:1 2:3 4:2 5:4 6:2
1:0 3:2 2:1 1:2 2:1 3:1 2:3 4:2 5:4 6:2 8:4
3:0 2:1 1:2 2:1 3:1 2:3 4:2 5:4 6:2 8:4 7:1
2:0 1:2 2:1 3:1 2:3 4:2 5:4 6:2 8:4 7:1 1:2
1:0 2:1 3:1 2:3 4:2 5:4 6:2 8:4 7:1 1:2 3:2
2:0 3:1 2:3 4:2 5:4 6:2 8:4 7:1 1:2 3:2 2:1
3:0 2:3 4:2 5:4 6:2 8:4 7:1 1:2 3:2 2:1 1:2
2:0 4:2 5:4 6:2 8:4 7:1 1:2 3:2 2:1 1:2 2:1
4:0 5:4 6:2 8:4 7:1 1:2 3:2 2:1 1:2 2:1 3:1
5:0 6:2 8:4 7:1 1:2 3:2 2:1 1:2 2:1 3:1 2:3
6:0 8:4 7:1 1:2 3:2 2:1 1:2 2:1 3:1 2:3 4:2
8:0 7:1 1:2 3:2 2:1 1:2 2:1 3:1 2:3 4:2 5:4
7:0 1:2 3:2 2:1 1:2 2:1 3:1 2:3 4:2 5:4 6:2
1:0 3:2 2:1 1:2 2:1 3:1 2:3 4:2 5:4 6:2 8:4
3:0 2:1 1:2 2:1 3:1 2:3 4:2 5:4 6:2 8:4 7:1
2:0 1:2 2:1 3:1 2:3 4:2 5:4 6:2 8:4 7:1 1:2
1:0 2:1 3:1 2:3 4:2 5:4 6:2 8:4 7:1 1:2 3:2
2:0 3:1 2:3 4:2 5:4 6:2 8:4 7:1 1:2 3:2 2:1
3:0 2:3 4:2 5:4 6:2 8:4 7:1 1:2 3:2 2:1 1:2
2:0 4:2 5:4 6:2 8:4 7:1 1:2 3:2 2:1 1:2 2:1
4:0 5:4 6:2 8:4 7:1 1:2 3:2 2:1 1:2 2:1 3:1
5:0 6:2 8:4 7:1 1:2 3:2 2:1 1:2 2:1 3:1 2:3
6:0 8:4 7:1 1:2 3:2 2:1 1:2 2:1 3:1 2:3 4:2
8:0 7:1 1:2 3:2 2:1 1:2 2:1 3:1 2:3 4:2 5:4
7:0 1:2 3:2 2:1 1:2 2:1 3:1 2:3 4:2 5:4 6:2
1:0 3:2 2:1 1:2 2:1 3:1 2:3 4:2 5:4 6:2 8:4
3:0 2:1 1:2 2:1 3:1 2:3 4:2 5:4 6:2 8:4 7:1
2:0 1:2 2:1 3:1 2:3 4:2 5:4 6:2 8:4 7:1 1:2
1:0 2:1 3:1 2:3 4:2 5:4 6:2 8:4 7:1 1:2 3:2
2:0 3:1 2:3 4:2 5:4 6:2 8:4 7:1 1:2 3:2 2:1
3:0 2:3 4:2 5:4 6:2 8:4 7:1 1:2 3:2 2:1 1:2
2:0 4:2 5:4 6:2 8:4 7:1 1:2 3:2 2:1 1:2 2:1
4:0 5:4 6:2 8:4 7:1 1:2 3:2 2:1 1:2 2:1 3:1
5:0 6:2 8:4 7:1 1:2 3:2 2:1 1:2 2:1 3:1 2:3
6:0 8:4 7:1 1:2 3:2 2:1 1:2 2:1 3:1 2:3 4:2
8:0 7:1 1:2 3:2 2:1 1:2 2:1 3:1 2:3 4:2 5:4
7:0 1:2 3:2 2:1 1:2 2:1 3:1 2:3 4:2 5:4 6:2
1:0 3:2 2:1 1:2 2:1 3:1 2:3 4:2 5:4 6:2 8:4
3:0 2:1 1:2 2:1 3:1 2:3 4:2 5:4 6:2 8:4 7:1
2:0 1:2 2:1 3:1 2:3 4:2 5:4 6:2 8:4 7:1 1:2
1:0 2:1 3:1 2:3 4:2 5:4 6:2 8:4 7:1 1:2 3:2
2:0 3:1 2:3 4:2 5:4 6:2 8:4 7:1 1:2 3:2 2:1
3:0 2:3 4:2 5:4 6:2 8:4 7:1 1:2 3:2 2:1 1:2
2:0 4:2 5:4 6:2 8:4 7:1 1:2 3:2 2:1 1:2 2:1
4:0 5:4 6:2 8:4 7:1 1:2 3:2 2:1 1:2 2:1 3:1
5:0 6:2 8:4 7:1 1:2 3:2 2:1 1:2 2:1 3:1 2:3
6:0 8:4 7:1 1:2 3:2 2:1 1:2 2:1 3:1 2:3 4:2
8:0 7:1 1:2 3:2 2:1 1:2 2:1 3:1 2:3 4:2 5:4
7:0 1:2 3:2 2:1 1:2 2:1 3:1 2:3 4:2 5:4 6:2
1:0 3:2 2:1 1:2 2:1 3:1 2:3 4:2 5:4 6:2 8:4
3:0 2:1 1:2 2:1 3:1 2:3 4:2 5:4 6:2 8:4 7:1
2:0 1:2 2:1 3:1 2:3 4:2 5:4 6:2 8:4 7:1 1:2
1:0 2:1 3:1 2:3 4:2 5:4 6:2 8:4 7:1 1:2 3:2
2:0 3:1 2:3 4:2 5:4 6:2 8:4 7:1 1:2 3:2 2:1
3:0 2:3 4:2 5:4 6:2 8:4 7:1 1:2 3:2 2:1 1:2
2:0 4:2 5:4 6:2 8:4 7:1 1:2 3:2 2:1 1:2 2:1
4:0 5:4 6:2 8:4 7:1 1:2 3:2 2:1 1:2 2:1 3:1
5:0 6:2 8:4 7:1 1:2 3:2 2:1 1:2 2:1 3:1 2:3
6:0 8:4 7:1 1:2 3:2 2:1 1:2 2:1 3:1 2:3 4:2
8:0 7:1 1:2 3:2 2:1 1:2 2:1 3:1 2:3 4:2 5:4
7:0 1:2 3:2 2:1 1:2 2:1 3:1 2:3 4:2 5:4 6:2
1:0 3:2 2:1 1:2 2:1 3:1 2:3 4:2 5:4 6:2 8:4
3:0 2:1 1:2 2:1 3:1 2:3 4:2 5:4 6:2 8:4 7:1
2:0 1:2 2:1 3:1 2:3 4:2 5:4 6:2 8:4 7:1 1:2
1:0 2:1 3:1 2:3 4:2 5:4 6:2 8:4 7:1 1:2 3:2
2:0 3:1 2:3 4:2 5:4 6:2 8:4 7:1 1:2 3:2 2:1
3:0 2:3 4:2 5:4 6:2 8:4 7:1 1:2 3:2 2:1 1:2
2:0 4:2 5:4 6:2 8:4 7:1 1:2 3:2 2:1 1:2 2:1
4:0 5:4 6:2 8:4 7:1 1:2 3:2 2:1 1:2 2:1 3:1
5:0 6:2 8:4 7:1 1:2 3:2 2:1 1:2 2:1 3:1 2:3
6:0 8:4 7:1 1:2 3:2 2:1 1:2 2:1 3:1 2:3 4:2
8:0 7:1 1:2 3:2 2:1 1:2 2:1 3:1 2:3 4:2 5:4
7:0 1:2 3:2 2:1 1:2 2:1 3:1 2:3 4:2 5:4 6:2
1:0 3:2 2:1 1:2 2:1 3:1 2:3 4:2 5:4 6:2 8:4
3:0 2:1 1:2 2:1 3:1 2:3 4:2 5:4 6:2 8:4 7:1
2:0 1:2 2:1 3:1 2:3 4:2 5:4 6:2 8:4 7:1 1:2
1:0 2:1 3:1 2:3 4:2 5:4 6:2 8:4 7:1 1:2 3:2
2:0 3:1 2:3 4:2 5:4 6:2 8:4 7:1 1:2 3:2 2:1
3:0 2:3 4:2 5:4 6:2 8:4 7:1 1:2 3:2 2:1 1:2
2:0 4:2 5:4 6:2 8:4 7:1 1:2 3:2 2:1 1:2 2:1
4:0 5:4 6:2 8:4 7:1 1:2 3:2 2:1 1:2 2:1 3:1
5:0 6:2 8:4 7:1 1:2 3:2 2:1 1:2 2:1 3:1 2:3
6:0 8:4 7:1 1:2 3:2 2:1 1:2 2:1 3:1 2:3 4:2
8:0 7:1 1:2 3:2 2:1 1:2 2:1 3:1 2:3 4:2 5:4
7:0 1:2 3:2 2:1 1:2 2:1 3:1 2:3 4:2 5:4 6:2
1:0 3:2 2:1 1:2 2:1 3:1 2:3 4:2 5:4 6:2 8:4
3:0 2:1 1:2 2:1 3:1 2:3 4:2 5:4 6:2 8:4 7:1
2:0 1:2 2:1 3:1 2:3 4:2 5:4 6:2 8:4 7:1 1:2
1:0 2:1 3:1 2:3 4:2 5:4 6:2 8:4 7:1 1:2 3:2
2:0 3:1 2:3 4:2 5:4 6:2 8:4 7:1 1:2 3:2 2:1
3:0 2:3 4:2 5:4 6:2 8:4 7:1 1:2 3:2 2:1 1:2
2:0 4:2 5:4 6:2 8:4 7:1 1:2 3:2 2:1 1:2 2:1
4:0 5:4 6:2 8:4 7:1 1:2 3:2 2:1 1:2 2:1 3:1
5:0 6:2 8:4 7:1 1:2 3:2 2:1 1:2 2:1 3:1 2:3
6:0 8:4 7:1 1:2 3:2 2:1 1:2 2:1 3:1 2:3 4:2
8:0 7:1 1:2 3:2 2:1 1:2 2:1 3:1 2:3 4:2 5:4
7:0 1:2 3:2 2:1 1:2 2:1 3:1 2:3 4:2 5:4 6:2
1:0 3:2 2:1 1:2 2:1 3:1 2:3 4:2 5:4 6:2 8:4
3:0 2:1 1:2 2:1 3:1 2:3 4:2 5:4 6:2 8:4 7:1
2:0 1:2 2:1 3:1 2:3 4:2 5:4 6:2 8:4 7:1 1:2
1:0 2:1 3:1 2:3 4:2 5:4 6:2 8:4 7:1 1:2 3:2
2:0 3:1 2:3 4:2 5:4 6:2 8:4 7:1 1:2 3:2 2:1
3:0 2:3 4:2 5:4 6:2 8:4 7:1 1:2 3:2 2:1 1:2
2:0 4:2 5:4 6:2 8:4 7:1 1:2 3:2 2:1 1:2 2:1
4:0 5:4 6:2 8:4 7:1 1:2 3:2 2:1 1:2 2:1 3:1
5:0 6:2 8:4 7:1 1:2 3:2 2:1 1:2 2:1 3:1 2:3
6:0 8:4 7:1 1:2 3:2 2:1 1:2 2:1 3:1 2:3 4:2
8:0 7:1 1:2 3:2 2:1 1:2 2:1 3:1 2:3 4:2 5:4
7:0 1:2 3:2 2:1 1:2 2:1 3:1 2:3 4:2 5:4 6:2
1:0 3:2 2:1 1:2 2:1 3:1 2:3 4:2 5:4 6:2 8:4
3:0 2:1 1:2 2:1 3:1 2:3 4:2 5:4 6:2 8:4 7:1
2:0 1:2 2:1 3:1 2:3 4:2 5:4 6:2 8:4 7:1 1:2
1:0 2:1 3:1 2:3 4:2 5:4 6:2 8:4 7:1 1:2 3:2
2:0 3:1 2:3 4:2 5:4 6:2 8:4 7:1 1:2 3:2 2:1
3:0 2:3 4:2 5:4 6:2 8:4 7:1 1:2 3:2 2:1 1:2
2:0 4:2 5:4 6:2 8:4 7:1 1:2 3:2 2:1 1:2 2:1
4:0 5:4 6:2 8:4 7:1 1:2 3:2 2:1 1:2 2:1 3:1
5:0 6:2 8:4 7:1 1:2 3:2 2:1 1:2 2:1 3:1 2:3
6:0 8:4 7:1 1:2 3:2 2:1 1:2 2:1 3:1 2:3 4:2
8:0 7:1 1:2 3:2 2:1 1:2 2:1 3:1 2:3 4:2 5:4
7:0 1:2 3:2 2:1 1:2 2:1 3:1 2:3 4:2 5:4 6:2
1:0 3:2 2:1 1:2 2:1 3:1 2:3 4:2 5:4 6:2 8:4
3:0 2:1 1:2 2:1 3:1 2:3 4:2 5:4 6:2 8:4 7:1
2:0 1:2 2:1 3:1 2:3 4:2 5:4 6:2 8:4 7:1 1:2
1:0 2:1 3:1 2:3 4:2 5:4 6:2 8:4 7:1 1:2 3:2
2:0 3:1 2:3 4:2 5:4 6:2 8:4 7:1 1:2 3:2 2:1
3:0 2:3 4:2 5:4 6:2 8:4 7:1 1:2 3:2 2:1 1:2
2:0 4:2 5:4 6:2 8:4 7:1 1:2 3:2 2:1 1:2 2:1
4:0 5:4 6:2 8:4 7:1 1:2 3:2 2:1 1:2 2:1 3:1
5:0 6:2 8:4 7:1 1:2 3:2 2:1 1:2 2:1 3:1 2:3
6:0 8:4 7:1 1:2 3:2 2:1 1:2 2:1 3:1 2:3 4:2
8:0 7:1 1:2 3:2 2:1 1:2 2:1 3:1 2:3 4:2 5:4
7:0 1:2 3:2 2:1 1:2 2:1 3:1 2:3 4:2 5:4 6:2
1:0 3:2 2:1 1:2 2:1 3:1 2:3 4:2 5:4 6:2 8:4
3:0 2:1 1:2 2:1 3:1 2:3 4:2 5:4 6:2 8:4 7:1
2:0 1:2 2:1 3:1 2:3 4:2 5:4 6:2 8:4 7:1 1:2
1:0 2:1 3:1 2:3 4:2 5:4 6:2 8:4 7:1 1:2 3:2
2:0 3:1 2:3 4:2 5:4 6:2 8:4 7:1 1:2 3:2 2:1
3:0 2:3 4:2 5:4 6:2 8:4 7:1 1:2 3:2 2:1 1:2
2:0 4:2 5:4 6:2 8:4 7:1 1:2 3:2 2:1 1:2 2:1
4:0 5:4 6:2 8:4 7:1 1:2 3:2 2:1 1:2 2:1 3:1
5:0 6:2 8:4 7:1 1:2 3:2 2:1 1:2 2:1 3:1 2:3
6:0 8:4 7:1 1:2 3:2 2:1 1:2 2:1 3:1 2:3 4:2
8:0 7:1 1:2 3:2 2:1 1:2 2:1 3:1 2:3 4:2 5:4
7:0 1:2 3:2 2:1 1:2 2:1 3:1 2:3 4:2 5:4 6:2
1:0 3:2 2:1 1:2 2:1 3:1 2:3 4:2 5:4 6:2 8:4
3:0 2:1 1:2 2:1 3:1 2:3 4:2 5:4 6:2 8:4 7:1
2:0 1:2 2:1 3:1 2:3 4:2 5:4 6:2 8:4 7:1 1:2
1:0 2:1 3:1 2:3 4:2 5:4 6:2 8:4 7:1 1:2 3:2
2:0 3:1 2:3 4:2 5:4 6:2 8:4 7:1 1:2 3:2 2:1
3:0 2:3 4:2 5:4 6:2 8:4 7:1 1:2 3:2 2:1 1:2
2:0 4:2 5:4 6:2 8:4 7:1 1:2 3:2 2:1 1:2 2:1
4:0 5:4 6:2 8:4 7:1 1:2 3:2 2:1 1:2 2:1 3:1
5:0 6:2 8:4 7:1 1:2 3:2 2:1 1:2 2:1 3:1 2:3
6:0 8:4 7:1 1:2 3:2 2:1 1:2 2:1 3:1 2:3 4:2
8:0 7:1 1:2 3:2 2:1 1:2 2:1 3:1 2:3 4:2 5:4
7:0 1:2 3:2 2:1 1:2 2:1 3:1 2:3 4:2 5:4 6:2
1:0 3:2 2:1 1:2 2:1 3:1 2:3 4:2 5:4 6:2 8:4
3:0 2:1 1:2 2:1 3:1 2:3 4:2 5:4 6:2 8:4 7:1
2:0 1:2 2:1 3:1 2:3 4:2 5:4 6:2 8:4 7:1 1:2
1:0 2:1 3:1 2:3 4:2 5:4 6:2 8:4 7:1 1:2 3:2
2:0 3:1 2:3 4:2 5:4 6:2 8:4 7:1 1:2 3:2 2:1
3:0 2:3 4:2 5:4 6:2 8:4 7:1 1:2 3:2 2:1 1:2
2:0 4:2 5:4 6:2 8:4 7:1 1:2 3:2 2:1 1:2 2:1
4:0 5:4 6:2 8:4 7:1 1:2 3:2 2:1 1:2 2:1 3:1
5:0 6:2 8:4 7:1 1:2 3:2 2:1 1:2 2:1 3:1 2:3
6:0 8:4 7:1 1:2 3:2 2:1 1:2 2:1 3:1 2:3 4:2
8:0 7:1 1:2 3:2 2:1 1:2 2:1 3:1 2:3 4:2 5:4
7:0 1:2 3:2 2:1 1:2 2:1 3:1 2:3 4:2 5:4 6:2
1:0 3:2 2:1 1:2 2:1 3:1 2:3 4:2 5:4 6:2 8:4
3:0 2:1 1:2 2:1 3:1 2:3 4:2 5:4 6:2 8:4 7:1
2:0 1:2 2:1 3:1 2:3 4:2 5:4 6:2 8:4 7:1 1:2
1:0 2:1 3:1 2:3 4:2 5:4 6:2 8:4 7:1 1:2 3:2
2:0 3:1 2:3 4:2 5:4 6:2 8:4 7:1 1:2 3:2 2:1
3:0 2:3 4:2 5:4 6:2 8:4 7:1 1:2 3:2 2:1 1:2
2:0 4:2 5:4 6:2 8:4 7:1 1:2 3:2 2:1 1:2 2:1
4:0 5:4 6:2 8:4 7:1 1:2 3:2 2:1 1:2 2:1 3:1
5:0 6:2 8:4 7:1 1:2 3:2 2:1 1:2 2:1 3:1 2:3
6:0 8:4 7:1 1:2 3:2 2:1 1:2 2:1 3:1 2:3 4:2
8:0 7:1 1:2 3:2 2:1 1:2 2:1 3:1 2:3 4:2 5:4
7:0 1:2 3:2 2:1 1:2 2:1 3:1 2:3 4:2 5:4 6:2
1:0 3:2 2:1 1:2 2:1 3:1 2:3 4:2 5:4 6:2 8:4
3:0 2:1 1:2 2:1 3:1 2:3 4:2 5:4 6:2 8:4 7:1
2:0 1:2 2:1 3:1 2:3 4:2 5:4 6:2 8:4 7:1 1:2
1:0 2:1 3:1 2:3 4:2 5:4 6:2 8:4 7:1 1:2 3:2
2:0 3:1 2:3 4:2 5:4 6:2 8:4 7:1 1:2 3:2 2:1
3:0 2:3 4:2 5:4 6:2 8:4 7:1 1:2 3:2 2:1 1:2
2:0 4:2 5:4 6:2 8:4 7:1 1:2 3:2 2:1 1:2 2:1
4:0 5:4 6:2 8:4 7:1 1:2 3:2 2:1 1:2 2:1 3:1
5:0 6:2 8:4 7:1 1:2 3:2 2:1 1:2 2:1 3:1 2:3
6:0 8:4 7:1 1:2 3:2 2:1 1:2 2:1 3:1 2:3 4:2
8:0 7:1 1:2 3:2 2:1 1:2 2:1 3:1 2:3 4:2 5:4
7:0 1:2 3:2 2:1 1:2 2:1 3:1 2:3 4:2 5:4 6:2
1:0 3:2 2:1 1:2 2:1 3:1 2:3 4:2 5:4 6:2 8:4
3:0 2:1 1:2 2:1 3:1 2:3 4:2 5:4 6:2 8:4 7:1
2:0 1:2 2:1 3:1 2:3 4:2 5:4 6:2 8:4 7:1 1:2
1:0 2:1 3:1 2:3 4:2 5:4 6:2 8:4 7:1 1:2 3:2
2:0 3:1 2:3 4:2 5:4 6:2 8:4 7:1 1:2 3:2 2:1
3:0 2:3 4:2 5:4 6:2 8:4 7:1 1:2 3:2 2:1 1:2
2:0 4:2 5:4 6:2 8:4 7:1 1:2 3:2 2:1 1:2 2:1
4:0 5:4 6:2 8:4 7:1 1:2 3:2 2:1 1:2 2:1 3:1
5:0 6:2 8:4 7:1 1:2 3:2 2:1 1:2 2:1 3:1 2:3
6:0 8:4 7:1 1:2 3:2 2:1 1:2 2:1 3:1 2:3 4:2
8:0 7:1 1:2 3:2 2:1 1:2 2:1 3:1 2:3 4:2 5:4
7:0 1:2 3:2 2:1 1:2 2:1 3:1 2:3 4:2 5:4 6:2
1:0 3:2 2:1 1:2 2:1 3:1 2:3 4:2 5:4 6:2 8:4
3:0 2:1 1:2 2:1 3:1 2:3 4:2 5:4 6:2 8:4 7:1
2:0 1:2 2:1 3:1 2:3 4:2 5:4 6:2 8:4 7:1 1:2
1:0 2:1 3:1 2:3 4:2 5:4 6:2 8:4 7:1 1:2 3:2
2:0 3:1 2:3 4:2 5:4 6:2 8:4 7:1 1:2 3:2 2:1
3:0 2:3 4:2 5:4 6:2 8:4 7:1 1:2 3:2 2:1 1:2
2:0 4:2 5:4 6:2 8:4 7:1 1:2 3:2 2:1 1:2 2:1
4:0 5:4 6:2 8:4 7:1 1:2 3:2 2:1 1:2 2:1 3:1
5:0 6:2 8:4 7:1 1:2 3:2 2:1 1:2 2:1 3:1 2:3
6:0 8:4 7:1 1:2 3:2 2:1 1:2 2:1 3:1 2:3 4:2
8:0 7:1 1:2 3:2 2:1 1:2 2:1 3:1 2:3 4:2 5:4
7:0 1:2 3:2 2:1 1:2 2:1 3:1 2:3 4:2 5:4 6:2
1:0 3:2 2:1 1:2 2:1 3:1 2:3 4:2 5:4 6:2 8:4
3:0 2:1 1:2 2:1 3:1 2:3 4:2 5:4 6:2 8:4 7:1
2:0 1:2 2:1 3:1 2:3 4:2 5:4 6:2 8:4 7:1 1:2
1:0 2:1 3:1 2:3 4:2 5:4 6:2 8:4 7:1 1:2 3:2
2:0 3:1 2:3 4:2 5:4 6:2 8:4 7:1 1:2 3:2 2:1
3:0 2:3 4:2 5:4 6:2 8:4 7:1 1:2 3:2 2:1 1:2
2:0 4:2 5:4 6:2 8:4 7:1 1:2 3:2 2:1 1:2 2:1
4:0 5:4 6:2 8:4 7:1 1:2 3:2 2:1 1:2 2:1 3:1
5:0 6:2 8:4 7:1 1:2 3:2 2:1 1:2 2:1 3:1 2:3
6:0 8:4 7:1 1:2 3:2 2:1 1:2 2:1 3:1 2:3 4:2
8:0 7:1 1:2 3:2 2:1 1:2 2:1 3:1 2:3 4:2 5:4
7:0 1:2 3:2 2:1 1:2 2:1 3:1 2:3 4:2 5:4 6:2
1:0 3:2 2:1 1:2 2:1 3:1 2:3 4:2 5:4 6:2 8:4
3:0 2:1 1:2 2:1 3:1 2:3 4:2 5:4 6:2 8:4 7:1
2:0 1:2 2:1 3:1 2:3 4:2 5:4 6:2 8:4 7:1 1:2
1:0 2:1 3:1 2:3 4:2 5:4 6:2 8:4 7:1 1:2 3:2
2:0 3:1 2:3 4:2 5:4 6:2 8:4 7:1 1:2 3:2 2:1
3:0 2:3 4:2 5:4 6:2 8:4 7:1 1:2 3:2 2:1 1:2
2:0 4:2 5:4 6:2 8:4 7:1 1:2 3:2 2:1 1:2 2:1
4:0 5:4 6:2 8:4 7:1 1:2 3:2 2:1 1:2 2:1 3:1
5:0 6:2 8:4 7:1 1:2 3:2 2:1 1:2 2:1 3:1 2:3
6:0 8:4 7:1 1:2 3:2 2:1 1:2 2:1 3:1 2:3 4:2
8:0 7:1 1:2 3:2 2:1 1:2 2:1 3:1 2:3 4:2 5:4
7:0 1:2 3:2 2:1 1:2 2:1 3:1 2:3 4:2 5:4 6:2
1:0 3:2 2:1 1:2 2:1 3:1 2:3 4:2 5:4 6:2 8:4
3:0 2:1 1:2 2:1 3:1 2:3 4:2 5:4 6:2 8:4 7:1
2:0 1:2 2:1 3:1 2:3 4:2 5:4 6:2 8:4 7:1 1:2
1:0 2:1 3:1 2:3 4:2 5:4 6:2 8:4 7:1 1:2 3:2
2:0 3:1 2:3 4:2 5:4 6:2 8:4 7:1 1:2 3:2 2:1
3:0 2:3 4:2 5:4 6:2 8:4 7:1 1:2 3:2 2:1 1:2
2:0 4:2 5:4 6:2 8:4 7:1 1:2 3:2 2:1 1:2 2:1
4:0 5:4 6:2 8:4 7:1 1:2 3:2 2:1 1:2 2:1 3:1
5:0 6:2 8:4 7:1 1:2 3:2 2:1 1:2 2:1 3:1 2:3
6:0 8:4 7:1 1:2 3:2 2:1 1:2 2:1 3:1 2:3 4:2
8:0 7:1 1:2 3:2 2:1 1:2 2:1 3:1 2:3 4:2 5:4
7:0 1:2 3:2 2:1 1:2 2:1 3:1 2:3 4:2 5:4 6:2
1:0 3:2 2:1 1:2 2:1 3:1 2:3 4:2 5:4 6:2 8:4
3:0 2:1 1:2 2:1 3:1 2:3 4:2 5:4 6:2 8:4 7:1
2:0 1:2 2:1 3:1 2:3 4:2 5:4 6:2 8:4 7:1 1:2
1:0 2:1 3:1 2:3 4:2 5:4 6:2 8:4 7:1 1:2 3:2
2:0 3:1 2:3 4:2 5:4 6:2 8:4 7:1 1:2 3:2 2:1
3:0 2:3 4:2 5:4 6:2 8:4 7:1 1:2 3:2 2:1 1:2
2:0 4:2 5:4 6:2 8:4 7:1 1:2 3:2 2:1 1:2 2:1
4:0 5:4 6:2 8:4 7:1 1:2 3:2 2:1 1:2 2:1 3:1
5:0 6:2 8:4 7:1 1:2 3:2 2:1 1:2 2:1 3:1 2:3
6:0 8:4 7:1 1:2 3:2 2:1 1:2 2:1 3:1 2:3 4:2
8:0 7:1 1:2 3:2 2:1 1:2 2:1 3:1 2:3 4:2 5:4
7:0 1:2 3:2 2:1 1:2 2:1 3:1 2:3 4:2 5:4 6:2
1:0 3:2 2:1 1:2 2:1 3:1 2:3 4:2 5:4 6:2 8:4
3:0 2:1 1:2 2:1 3:1 2:3 4:2 5:4 6:2 8:4 7:1
2:0 1:2 2:1 3:1 2:3 4:2 5:4 6:2 8:4 7:1 1:2
1:0 2:1 3:1 2:3 4:2 5:4 6:2 8:4 7:1 1:2 3:2
2:0 3:1 2:3 4:2 5:4 6:2 8:4 7:1 1:2 3:2 2:1
3:0 2:3 4:2 5:4 6:2 8:4 7:1 1:2 3:2 2:1 1:2
2:0 4:2 5:4 6:2 8:4 7:1 1:2 3:2 2:1 1:2 2:1
4:0 5:4 6:2 8:4 7:1 1:2 3:2 2:1 1:2 2:1 3:1
5:0 6:2 8:4 7:1 1:2 3:2 2:1 1:2 2:1 3:1 2:3
6:0 8:4 7:1 1:2 3:2 2:1 1:2 2:1 3:1 2:3 4:2
8:0 7:1 1:2 3:2 2:1 1:2 2:1 3:1 2:3 4:2 5:4
7:0 1:2 3:2 2:1 1:2 2:1 3:1 2:3 4:2 5:4 6:2
1:0 3:2 2:1 1:2 2:1 3:1 2:3 4:2 5:4 6:2 8:4
3:0 2:1 1:2 2:1 3:1 2:3 4:2 5:4 6:2 8:4 7:1
2:0 1:2 2:1 3:1 2:3 4:2 5:4 6:2 8:4 7:1 1:2
1:0 2:1 3:1 2:3 4:2 5:4 6:2 8:4 7:1 1:2 3:2
2:0 3:1 2:3 4:2 5:4 6:2 8:4 7:1 1:2 3:2 2:1
3:0 2:3 4:2 5:4 6:2 8:4 7:1 1:2 3:2 2:1 1:2
2:0 4:2 5:4 6:2 8:4 7:1 1:2 3:2 2:1 1:2 2:1
4:0 5:4 6:2 8:4 7:1 1:2 3:2 2:1 1:2 2:1 3:1
5:0 6:2 8:4 7:1 1:2 3:2 2:1 1:2 2:1 3:1 2:3
6:0 8:4 7:1 1:2 3:2 2:1 1:2 2:1 3:1 2:3 4:2
8:0 7:1 1:2 3:2 2:1 1:2 2:1 3:1 2:3 4:2 5:4
7:0 1:2 3:2 2:1 1:2 2:1 3:1 2:3 4:2 5:4 6:2
1:0 3:2 2:1 1:2 2:1 3:1 2:3 4:2 5:4 6:2 8:4
3:0 2:1 1:2 2:1 3:1 2:3 4:2 5:4 6:2 8:4 7:1
2:0 1:2 2:1 3:1 2:3 4:2 5:4 6:2 8:4 7:1 1:2
1:0 2:1 3:1 2:3 4:2 5:4 6:2 8:4 7:1 1:2 3:2
2:0 3:1 2:3 4:2 5:4 6:2 8:4 7:1 1:2 3:2 2:1
3:0 2:3 4:2 5:4 6:2 8:4 7:1 1:2 3:2 2:1 1:2
2:0 4:2 5:4 6:2 8:4 7:1 1:2 3:2 2:1 1:2 2:1
4:0 5:4 6:2 8:4 7:1 1:2 3:2 2:1 1:2 2:1 3:1
5:0 6:2 8:4 7:1 1:2 3:2 2:1 1:2 2:1 3:1 2:3
6:0 8:4 7:1 1:2 3:2 2:1 1:2 2:1 3:1 2:3 4:2
8:0 7:1 1:2 3:2 2:1 1:2 2:1 3:1 2:3 4:2 5:4
7:0 1:2 3:2 2:1 1:2 2:1 3:1 2:3 4:2 5:4 6:2
1:0 3:2 2:1 1:2 2:1 3:1 2:3 4:2 5:4 6:2 8:4
3:0 2:1 1:2 2:1 3:1 2:3 4:2 5:4 6:2 8:4 7:1
2:0 1:2 2:1 3:1 2:3 4:2 5:4 6:2 8:4 7:1 1:2
1:0 2:1 3:1 2:3 4:2 5:4 6:2 8:4 7:1 1:2 3:2
2:0 3:1 2:3 4:2 5:4 6:2 8:4 7:1 1:2 3:2 2:1
3:0 2:3 4:2 5:4 6:2 8:4 7:1 1:2 3:2 2:1 1:2
2:0 4:2 5:4 6:2 8:4 7:1 1:2 3:2 2:1 1:2 2:1
4:0 5:4 6:2 8:4 7:1 1:2 3:2 2:1 1:2 2:1 3:1
5:0 6:2 8:4 7:1 1:2 3:2 2:1 1:2 2:1 3:1 2:3
6:0 8:4 7:1 1:2 3:2 2:1 1:2 2:1 3:1 2:3 4:2
8:0 7:1 1:2 3:2 2:1 1:2 2:1 3:1 2:3 4:2 5:4
7:0 1:2 3:2 2:1 1:2 2:1 3:1 2:3 4:2 5:4 6:2
1:0 3:2 2:1 1:2 2:1 3:1 2:3 4:2 5:4 6:2 8:4
3:0 2:1 1:2 2:1 3:1 2:3 4:2 5:4 6:2 8:4 7:1
2:0 1:2 2:1 3:1 2:3 4:2 5:4 6:2 8:4 7:1 1:2
1:0 2:1 3:1 2:3 4:2 5:4 6:2 8:4 7:1 1:2 3:2
2:0 3:1 2:3 4:2 5:4 6:2 8:4 7:1 1:2 3:2 2:1
3:0 2:3 4:2 5:4 6:2 8:4 7:1 1:2 3:2 2:1 1:2
2:0 4:2 5:4 6:2 8:4 7:1 1:2 3:2 2:1 1:2 2:1
4:0 5:4 6:2 8:4 7:1 1:2 3:2 2:1 1:2 2:1 3:1
5:0 6:2 8:4 7:1 1:2 3:2 2:1 1:2 2:1 3:1 2:3
6:0 8:4 7:1 1:2 3:2 2:1 1:2 2:1 3:1 2:3 4:2
8:0 7:1 1:2 3:2 2:1 1:2 2:1 3:1 2:3 4:2 5:4
7:0 1:2 3:2 2:1 1:2 2:1 3:1 2:3 4:2 5:4 6:2
1:0 3:2 2:1 1:2 2:1 3:1 2:3 4:2 5:4 6:2 8:4
3:0 2:1 1:2 2:1 3:1 2:3 4:2 5:4 6:2 8:4 7:1
2:0 1:2 2:1 3:1 2:3 4:2 5:4 6:2 8:4 7:1 1:2
1:0 2:1 3:1 2:3 4:2 5:4 6:2 8:4 7:1 1:2 3:2
2:0 3:1 2:3 4:2 5:4 6:2 8:4 7:1 1:2 3:2 2:1
3:0 2:3 4:2 5:4 6:2 8:4 7:1 1:2 3:2 2:1 1:2
2:0 4:2 5:4 6:2 8:4 7:1 1:2 3:2 2:1 1:2 2:1
4:0 5:4 6:2 8:4 7:1 1:2 3:2 2:1 1:2 2:1 3:1
5:0 6:2 8:4 7:1 1:2 3:2 2:1 1:2 2:1 3:1 2:3
6:0 8:4 7:1 1:2 3:2 2:1 1:2 2:1 3:1 2:3 4:2
8:0 7:1 1:2 3:2 2:1 1:2 2:1 3:1 2:3 4:2 5:4
7:0 1:2 3:2 2:1 1:2 2:1 3:1 2:3 4:2 5:4 6:2
1:0 3:2 2:1 1:2 2:1 3:1 2:3 4:2 5:4 6:2 8:4
3:0 2:1 1:2 2:1 3:1 2:3 4:2 5:4 6:2 8:4 7:1
2:0 1:2 2:1 3:1 2:3 4:2 5:4 6:2 8:4 7:1 1:2
1:0 2:1 3:1 2:3 4:2 5:4 6:2 8:4 7:1 1:2 3:2
2:0 3:1 2:3 4:2 5:4 6:2 8:4 7:1 1:2 3:2 2:1
3:0 2:3 4:2 5:4 6:2 8:4 7:1 1:2 3:2 2:1 1:2
2:0 4:2 5:4 6:2 8:4 7:1 1:2 3:2 2:1 1:2 2:1
4:0 5:4 6:2 8:4 7:1 1:2 3:2 2:1 1:2 2:1 3:1
5:0 6:2 8:4 7:1 1:2 3:2 2:1 1:2 2:1 3:1 2:3
6:0 8:4 7:1 1:2 3:2 2:1 1:2 2:1 3:1 2:3 4:2
8:0 7:1 1:2 3:2 2:1 1:2 2:1 3:1 2:3 4:2 5:4
7:0 1:2 3:2 2:1 1:2 2:1 3:1 2:3 4:2 5:4 6:2
1:0 3:2 2:1 1:2 2:1 3:1 2:3 4:2 5:4 6:2 8:4
3:0 2:1 1:2 2:1 3:1 2:3 4:2 5:4 6:2 8:4 7:1
2:0 1:2 2:1 3:1 2:3 4:2 5:4 6:2 8:4 7:1 1:2
1:0 2:1 3:1 2:3 4:2 5:4 6:2 8:4 7:1 1:2 3:2
2:0 3:1 2:3 4:2 5:4 6:2 8:4 7:1 1:2 3:2 2:1
3:0 2:3 4:2 5:4 6:2 8:4 7:1 1:2 3:2 2:1 1:2
2:0 4:2 5:4 6:2 8:4 7:1 1:2 3:2 2:1 1:2 2:1
4:0 5:4 6:2 8:4 7:1 1:2 3:2 2:1 1:2 2:1 3:1
5:0 6:2 8:4 7:1 1:2 3:2 2:1 1:2 2:1 3:1 2:3
6:0 8:4 7:1 1:2 3:2 2:1 1:2 2:1 3:1 2:3 4:2
8:0 7:1 1:2 3:2 2:1 1:2 2:1 3:1 2:3 4:2 5:4
7:0 1:2 3:2 2:1 1:2 2:1 3:1 2:3 4:2 5:4 6:2
1:0 3:2 2:1 1:2 2:1 3:1 2:3 4:2 5:4 6:2 8:4
3:0 2:1 1:2 2:1 3:1 2:3 4:2 5:4 6:2 8:4 7:1
2:0 1:2 2:1 3:1 2:3 4:2 5:4 6:2 8:4 7:1 1:2
1:0 2:1 3:1 2:3 4:2 5:4 6:2 8:4 7:1 1:2 3:2
2:0 3:1 2:3 4:2 5:4 6:2 8:4 7:1 1:2 3:2 2:1
3:0 2:3 4:2 5:4 6:2 8:4 7:1 1:2 3:2 2:1 1:2
2:0 4:2 5:4 6:2 8:4 7:1 1:2 3:2 2:1 1:2 2:1
4:0 5:4 6:2 8:4 7:1 1:2 3:2 2:1 1:2 2:1 3:1
5:0 6:2 8:4 7:1 1:2 3:2 2:1 1:2 2:1 3:1 2:3
6:0 8:4 7:1 1:2 3:2 2:1 1:2 2:1 3:1 2:3 4:2
8:0 7:1 1:2 3:2 2:1 1:2 2:1 3:1 2:3 4:2 5:4
7:0 1:2 3:2 2:1 1:2 2:1 3:1 2:3 4:2 5:4 6:2
1:0 3:2 2:1 1:2 2:1 3:1 2:3 4:2 5:4 6:2 8:4
3:0 2:1 1:2 2:1 3:1 2:3 4:2 5:4 6:2 8:4 7:1
2:0 1:2 2:1 3:1 2:3 4:2 5:4 6:2 8:4 7:1 1:2
1:0 2:1 3:1 2:3 4:2 5:4 6:2 8:4 7:1 1:2 3:2
2:0 3:1 2:3 4:2 5:4 6:2 8:4 7:1 1:2 3:2 2:1
3:0 2:3 4:2 5:4 6:2 8:4 7:1 1:2 3:2 2:1 1:2
2:0 4:2 5:4 6:2 8:4 7:1 1:2 3:2 2:1 1:2 2:1
4:0 5:4 6:2 8:4 7:1 1:2 3:2 2:1 1:2 2:1 3:1
5:0 6:2 8:4 7:1 1:2 3:2 2:1 1:2 2:1 3:1 2:3
6:0 8:4 7:1 1:2 3:2 2:1 1:2 2:1 3:1 2:3 4:2
8:0 7:1 1:2 3:2 2:1 1:2 2:1 3:1 2:3 4:2 5:4
7:0 1:2 3:2 2:1 1:2 2:1 3:1 2:3 4:2 5:4 6:2
1:0 3:2 2:1 1:2 2:1 3:1 2:3 4:2 5:4 6:2 8:4
3:0 2:1 1:2 2:1 3:1 2:3 4:2 5:4 6:2 8:4 7:1
2:0 1:2 2:1 3:1 2:3 4:2 5:4 6:2 8:4 7:1 1:2
1:0 2:1 3:1 2:3 4:2 5:4 6:2 8:4 7:1 1:2 3:2
2:0 3:1 2:3 4:2 5:4 6:2 8:4 7:1 1:2 3:2 2:1
3:0 2:3 4:2 5:4 6:2 8:4 7:1 1:2 3:2 2:1 1:2
2:0 4:2 5:4 6:2 8:4 7:1 1:2 3:2 2:1 1:2 2:1
4:0 5:4 6:2 8:4 7:1 1:2 3:2 2:1 1:2 2:1 3:1
5:0 6:2 8:4 7:1 1:2 3:2 2:1 1:2 2:1 3:1 2:3
6:0 8:4 7:1 1:2 3:2 2:1 1:2 2:1 3:1 2:3 4:2
8:0 7:1 1:2 3:2 2:1 1:2 2:1 3:1 2:3 4:2 5:4
7:0 1:2 3:2 2:1 1:2 2:1 3:1 2:3 4:2 5:4 6:2
1:0 3:2 2:1 1:2 2:1 3:1 2:3 4:2 5:4 6:2 8:4
3:0 2:1 1:2 2:1 3:1 2:3 4:2 5:4 6:2 8:4 7:1
2:0 1:2 2:1 3:1 2:3 4:2 5:4 6:2 8:4 7:1 1:2
1:0 2:1 3:1 2:3 4:2 5:4 6:2 8:4 7:1 1:2 3:2
2:0 3:1 2:3 4:2 5:4 6:2 8:4 7:1 1:2 3:2 2:1
3:0 2:3 4:2 5:4 6:2 8:4 7:1 1:2 3:2 2:1 1:2
2:0 4:2 5:4 6:2 8:4 7:1 1:2 3:2 2:1 1:2 2:1
4:0 5:4 6:2 8:4 7:1 1:2 3:2 2:1 1:2 2:1 3:1
5:0 6:2 8:4 7:1 1:2 3:2 2:1 1:2 2:1 3:1 2:3
6:0 8:4 7:1 1:2 3:2 2:1 1:2 2:1 3:1 2:3 4:2
8:0 7:1 1:2 3:2 2:1 1:2 2:1 3:1 2:3 4:2 5:4
7:0 1:2 3:2 2:1 1:2 2:1 3:1 2:3 4:2 5:4 6:2
1:0 3:2 2:1 1:2 2:1 3:1 2:3 4:2 5:4 6:2 8:4
3:0 2:1 1:2 2:1 3:1 2:3 4:2 5:4 6:2 8:4 7:1
2:0 1:2 2:1 3:1 2:3 4:2 5:4 6:2 8:4 7:1 1:2
1:0 2:1 3:1 2:3 4:2 5:4 6:2 8:4 7:1 1:2 3:2
2:0 3:1 2:3 4:2 5:4 6:2 8:4 7:1 1:2 3:2 2:1
3:0 2:3 4:2 5:4 6:2 8:4 7:1 1:2 3:2 2:1 1:2
2:0 4:2 5:4 6:2 8:4 7:1 1:2 3:2 2:1 1:2 2:1
4:0 5:4 6:2 8:4 7:1 1:2 3:2 2:1 1:2 2:1 3:1
5:0 6:2 8:4 7:1 1:2 3:2 2:1 1:2 2:1 3:1 2:3
6:0 8:4 7:1 1:2 3:2 2:1 1:2 2:1 3:1 2:3 4:2
8:0 7:1 1:2 3:2 2:1 1:2 2:1 3:1 2:3 4:2 5:4
7:0 1:2 3:2 2:1 1:2 2:1 3:1 2:3 4:2 5:4 6:2
1:0 3:2 2:1 1:2 2:1 3:1 2:3 4:2 5:4 6:2 8:4
3:0 2:1 1:2 2:1 3:1 2:3 4:2 5:4 6:2 8:4 7:1
2:0 1:2 2:1 3:1 2:3 4:2 5:4 6:2 8:4 7:1 1:2
1:0 2:1 3:1 2:3 4:2 5:4 6:2 8:4 7:1 1:2 3:2
2:0 3:1 2:3 4:2 5:4 6:2 8:4 7:1 1:2 3:2 2:1
3:0 2:3 4:2 5:4 6:2 8:4 7:1 1:2 3:2 2:1 1:2
2:0 4:2 5:4 6:2 8:4 7:1 1:2 3:2 2:1 1:2 2:1
4:0 5:4 6:2 8:4 7:1 1:2 3:2 2:1 1:2 2:1 3:1
5:0 6:2 8:4 7:1 1:2 3:2 2:1 1:2 2:1 3:1 2:3
6:0 8:4 7:1 1:2 3:2 2:1 1:2 2:1 3:1 2:3 4:2
8:0 7:1 1:2 3:2 2:1 1:2 2:1 3:1 2:3 4:2 5:4
7:0 1:2 3:2 2:1 1:2 2:1 3:1 2:3 4:2 5:4 6:2
1:0 3:2 2:1 1:2 2:1 3:1 2:3 4:2 5:4 6:2 8:4
3:0 2:1 1:2 2:1 3:1 2:3 4:2 5:4 6:2 8:4 7:1
2:0 1:2 2:1 3:1 2:3 4:2 5:4 6:2 8:4 7:1
1:0 2:1 3:1 2:3 4:2 5:4 6:2 8:4 7:1
2:0 3:1 2:3 4:2 5:4 6:2 8:4 7:1
3:0 2:3 4:2 5:4 6:2 8:4 7:1
2:0 4:2 5:4 6:2 8:4 7:1
4:0 5:4 6:2 8:4 7:1
5:0 6:2 8:4 7:1
6:0 8:4 7:1
8:0 7:1
7:0
1:0 3:2 2:1 1:2 2:1 3:1 2:3 4:2 5:4 6:2 8:4 7:1 1:2 3:2 2:1 1:2 2:1 3:1 2:3 4:2 5:4 6:2 8:4 7:1 1:2 3:2 2:1 1:2 2:1 3:1 2:3 4:2 5:4 6:2 8:4 7:1 1:2 3:2 2:1 1:2 2:1 3:1 2:3 4:2 5:4 6:2 8:4 7:1 1:2 3:2 2:1 1:2 2:1 3:1 2:3 4:2 5:4 6:2 8:4 7:1 1:2 3:2 2:1 1:2 2:1 3:1 2:3 4:2 5:4 6:2 8:4 7:1 1:2 3:2 2:1 1:2 2:1 3:1 2:3 4:2 5:4 6:2 8:4 7:1 1:2 3:2 2:1 1:2 2:1 3:1 2:3 4:2 5:4 6:2 8:4 7:1 1:2 3:2 2:1 1:2 2:1 3:1 2:3 4:2 5:4 6:2 8:4 7:1 1:2 3:2 2:1 1:2 2:1 3:1 2:3 4:2 5:4 6:2 8:4 7:1 1:2 3:2 2:1 1:2 2:1 3:1 2:3 4:2 5:4 6:2 8:4 7:1 1:2 3:2 2:1 1:2 2:1 3:1 2:3 4:2 5:4 6:2 8:4 7:1 1:2 3:2 2:1 1:2 2:1 3:1 2:3 4:2 5:4 6:2 8:4 7:1 1:2 3:2 2:1 1:2 2:1 3:1 2:3 4:2 5:4 6:2 8:4 7:1 1:2 3:2 2:1 1:2 2:1 3:1 2:3 4:2 5:4 6:2 8:4 7:1 1:2 3:2 2:1 1:2 2:1 3:1 2:3 4:2 5:4 6:2 8:4 7:1 1:2 3:2 2:1 1:2 2:1 3:1 2:3 4:2 5:4 6:2 8:4 7:1 1:2 3:2 2:1 1:2 2:1 3:1 2:3 4:2 5:4 6:2 8:4 7:1 1:2 3:2 2:1 1:2 2:1 3:1 2:3 4:2 5:4 6:2 8:4 7:1 1:2 3:2 2:1 1:2 2:1 3:1 2:3 4:2 5:4 6:2 8:4 7:1 1:2 3:2 2:1 1:2 2:1 3:1 2:3 4:2 5:4 6:2 8:4 7:1 1:2 3:2 2:1 1:2 2:1 3:1 2:3 4:2 5:4 6:2 8:4 7:1 1:2 3:2 2:1 1:2 2:1 3:1 2:3 4:2 5:4 6:2 8:4 7:1 1:2 3:2 2:1 1:2 2:1 3:1 2:3 4:2 5:4 6:2 8:4 7:1 1:2 3:2 2:1 1:2 2:1 3:1 2:3 4:2 5:4 6:2 8:4 7:1 1:2 3:2 2:1 1:2 2:1 3:1 2:3 4:2 5:4 6:2 8:4 7:1 1:2 3:2 2:1 1:2 2:1 3:1 2:3 4:2 5:4 6:2 8:4 7:1 1:2 3:2 2:1 1:2 2:1 3:1 2:3 4:2 5:4 6:2 8:4 7:1 1:2 3:2 2:1 1:2 2:1 3:1 2:3 4:2 5:4 6:2 8:4 7:1 1:2 3:2 2:1 1:2 2:1 3:1 2:3 4:2 5:4 6:2 8:4 7:1 1:2 3:2 2:1 1:2 2:1 3:1 2:3 4:2 5:4 6:2 8:4 7:1 1:2 3:2 2:1 1:2 2:1 3:1 2:3 4:2 5:4 6:2 8:4 7:1 1:2 3:2 2:1 1:2 2:1 3:1 2:3 4:2 5:4 6:2 8:4 7:1 1:2 3:2 2:1 1:2 2:1 3:1 2:3 4:2 5:4 6:2 8:4 7:1 1:2 3:2 2:1 1:2 2:1 3:1 2:3 4:2 5:4 6:2 8:4 7:1 1:2 3:2 2:1 1:2 2:1 3:1 2:3 4:2 5:4 6:2 8:4 7:1 1:2 3:2 2:1 1:2 2:1 3:1 2:3 4:2 5:4 6:2 8:4 7:1 1:2 3:2 2:1 1:2 2:1 3:1 2:3 4:2 5:4 6:2 8:4 7:1 1:2 3:2 2:1 1:2 2:1 3:1 2:3 4:2 5:4 6:2 8:4 7:1 1:2 3:2 2:1 1:2 2:1 3:1 2:3 4:2 5:4 6:2 8:4 7:1