2:0 3:3 4:2 3:1 2:3 1:2 2:1 3:2 2:1 1:2 2:5
3:0 4:2 3:1 2:3 1:2 2:1 3:2 2:1 1:2 2:5 3:6
4:0 3:1 2:3 1:2 2:1 3:2 2:1 1:2 2:5 3:6 4:2
3:0 2:3 1:2 2:1 3:2 2:1 1:2 2:5 3:6 4:2 3:1
2:0 1:2 2:1 3:2 2:1 1:2 2:5 3:6 4:2 3:1 2:3
1:0 2:1 3:2 2:1 1:2 2:5 3:6 4:2 3:1 2:3 1:2
2:0 3:2 2:1 1:2 2:5 3:6 4:2 3:1 2:3 1:2 2:1
3:0 2:1 1:2 2:5 3:6 4:2 3:1 2:3 1:2 2:1 3:2
2:0 1:2 2:5 3:6 4:2 3:1 2:3 1:2 2:1 3:2 2:1
1:0 2:5 3:6 4:2 3:1 2:3 1:2 2:1 3:2 2:1 1:2
2:0 3:6 4:2 3:1 2:3 1:2 2:1 3:2 2:1 1:2 2:5
3:0 4:2 3:1 2:3 1:2 2:1 3:2 2:1 1:2 2:5 3:6
4:0 3:1 2:3 1:2 2:1 3:2 2:1 1:2 2:5 3:6 4:2
3:0 2:3 1:2 2:1 3:2 2:1 1:2 2:5 3:6 4:2 3:1
2:0 1:2 2:1 3:2 2:1 1:2 2:5 3:6 4:2 3:1 2:3
1:0 2:1 3:2 2:1 1:2 2:5 3:6 4:2 3:1 2:3 1:2
2:0 3:2 2:1 1:2 2:5 3:6 4:2 3:1 2:3 1:2 2:1
3:0 2:1 1:2 2:5 3:6 4:2 3:1 2:3 1:2 2:1 3:2
2:0 1:2 2:5 3:6 4:2 3:1 2:3 1:2 2:1 3:2 2:1
1:0 2:5 3:6 4:2 3:1 2:3 1:2 2:1 3:2 2:1 1:2
2:0 3:6 4:2 3:1 2:3 1:2 2:1 3:2 2:1 1:2 2:5
3:0 4:2 3:1 2:3 1:2 2:1 3:2 2:1 1:2 2:5 3:6
4:0 3:1 2:3 1:2 2:1 3:2 2:1 1:2 2:5 3:6 4:2
3:0 2:3 1:2 2:1 3:2 2:1 1:2 2:5 3:6 4:2 3:1
2:0 1:2 2:1 3:2 2:1 1:2 2:5 3:6 4:2 3:1 2:3
1:0 2:1 3:2 2:1 1:2 2:5 3:6 4:2 3:1 2:3 1:2
2:0 3:2 2:1 1:2 2:5 3:6 4:2 3:1 2:3 1:2 2:1
3:0 2:1 1:2 2:5 3:6 4:2 3:1 2:3 1:2 2:1 3:2
2:0 1:2 2:5 3:6 4:2 3:1 2:3 1:2 2:1 3:2 2:1
1:0 2:5 3:6 4:2 3:1 2:3 1:2 2:1 3:2 2:1 1:2
2:0 3:6 4:2 3:1 2:3 1:2 2:1 3:2 2:1 1:2 2:5
3:0 4:2 3:1 2:3 1:2 2:1 3:2 2:1 1:2 2:5 3:6
4:0 3:1 2:3 1:2 2:1 3:2 2:1 1:2 2:5 3:6 4:2
3:0 2:3 1:2 2:1 3:2 2:1 1:2 2:5 3:6 4:2 3:1
2:0 1:2 2:1 3:2 2:1 1:2 2:5 3:6 4:2 3:1 2:3
1:0 2:1 3:2 2:1 1:2 2:5 3:6 4:2 3:1 2:3 1:2
2:0 3:2 2:1 1:2 2:5 3:6 4:2 3:1 2:3 1:2 2:1
3:0 2:1 1:2 2:5 3:6 4:2 3:1 2:3 1:2 2:1 3:2
2:0 1:2 2:5 3:6 4:2 3:1 2:3 1:2 2:1 3:2 2:1
1:0 2:5 3:6 4:2 3:1 2:3 1:2 2:1 3:2 2:1 1:2
2:0 3:6 4:2 3:1 2:3 1:2 2:1 3:2 2:1 1:2 2:5
3:0 4:2 3:1 2:3 1:2 2:1 3:2 2:1 1:2 2:5 3:6
4:0 3:1 2:3 1:2 2:1 3:2 2:1 1:2 2:5 3:6 4:2
3:0 2:3 1:2 2:1 3:2 2:1 1:2 2:5 3:6 4:2 3:1
2:0 1:2 2:1 3:2 2:1 1:2 2:5 3:6 4:2 3:1 2:3
1:0 2:1 3:2 2:1 1:2 2:5 3:6 4:2 3:1 2:3 1:2
2:0 3:2 2:1 1:2 2:5 3:6 4:2 3:1 2:3 1:2 2:1
3:0 2:1 1:2 2:5 3:6 4:2 3:1 2:3 1:2 2:1 3:2
2:0 1:2 2:5 3:6 4:2 3:1 2:3 1:2 2:1 3:2 2:1
1:0 2:5 3:6 4:2 3:1 2:3 1:2 2:1 3:2 2:1 1:2
2:0 3:6 4:2 3:1 2:3 1:2 2:1 3:2 2:1 1:2 2:5
3:0 4:2 3:1 2:3 1:2 2:1 3:2 2:1 1:2 2:5 3:6
4:0 3:1 2:3 1:2 2:1 3:2 2:1 1:2 2:5 3:6 4:2
3:0 2:3 1:2 2:1 3:2 2:1 1:2 2:5 3:6 4:2 3:1
2:0 1:2 2:1 3:2 2:1 1:2 2:5 3:6 4:2 3:1 2:3
1:0 2:1 3:2 2:1 1:2 2:5 3:6 4:2 3:1 2:3 1:2
2:0 3:2 2:1 1:2 2:5 3:6 4:2 3:1 2:3 1:2 2:1
3:0 2:1 1:2 2:5 3:6 4:2 3:1 2:3 1:2 2:1 3:2
2:0 1:2 2:5 3:6 4:2 3:1 2:3 1:2 2:1 3:2 2:1
1:0 2:5 3:6 4:2 3:1 2:3 1:2 2:1 3:2 2:1 1:2
2:0 3:6 4:2 3:1 2:3 1:2 2:1 3:2 2:1 1:2 2:5
3:0 4:2 3:1 2:3 1:2 2:1 3:2 2:1 1:2 2:5 3:6
4:0 3:1 2:3 1:2 2:1 3:2 2:1 1:2 2:5 3:6 4:2
3:0 2:3 1:2 2:1 3:2 2:1 1:2 2:5 3:6 4:2 3:1
2:0 1:2 2:1 3:2 2:1 1:2 2:5 3:6 4:2 3:1 2:3
1:0 2:1 3:2 2:1 1:2 2:5 3:6 4:2 3:1 2:3 1:2
2:0 3:2 2:1 1:2 2:5 3:6 4:2 3:1 2:3 1:2 2:1
3:0 2:1 1:2 2:5 3:6 4:2 3:1 2:3 1:2 2:1 3:2
2:0 1:2 2:5 3:6 4:2 3:1 2:3 1:2 2:1 3:2 2:1
1:0 2:5 3:6 4:2 3:1 2:3 1:2 2:1 3:2 2:1 1:2
2:0 3:6 4:2 3:1 2:3 1:2 2:1 3:2 2:1 1:2 2:5
3:0 4:2 3:1 2:3 1:2 2:1 3:2 2:1 1:2 2:5 3:6
4:0 3:1 2:3 1:2 2:1 3:2 2:1 1:2 2:5 3:6 4:2
3:0 2:3 1:2 2:1 3:2 2:1 1:2 2:5 3:6 4:2 3:1
2:0 1:2 2:1 3:2 2:1 1:2 2:5 3:6 4:2 3:1 2:3
1:0 2:1 3:2 2:1 1:2 2:5 3:6 4:2 3:1 2:3 1:2
2:0 3:2 2:1 1:2 2:5 3:6 4:2 3:1 2:3 1:2 2:1
3:0 2:1 1:2 2:5 3:6 4:2 3:1 2:3 1:2 2:1 3:2
2:0 1:2 2:5 3:6 4:2 3:1 2:3 1:2 2:1 3:2 2:1
1:0 2:5 3:6 4:2 3:1 2:3 1:2 2:1 3:2 2:1 1:2
2:0 3:6 4:2 3:1 2:3 1:2 2:1 3:2 2:1 1:2 2:5
3:0 4:2 3:1 2:3 1:2 2:1 3:2 2:1 1:2 2:5 3:6
4:0 3:1 2:3 1:2 2:1 3:2 2:1 1:2 2:5 3:6 4:2
3:0 2:3 1:2 2:1 3:2 2:1 1:2 2:5 3:6 4:2 3:1
2:0 1:2 2:1 3:2 2:1 1:2 2:5 3:6 4:2 3:1 2:3
1:0 2:1 3:2 2:1 1:2 2:5 3:6 4:2 3:1 2:3 1:2
2:0 3:2 2:1 1:2 2:5 3:6 4:2 3:1 2:3 1:2 2:1
3:0 2:1 1:2 2:5 3:6 4:2 3:1 2:3 1:2 2:1 3:2
2:0 1:2 2:5 3:6 4:2 3:1 2:3 1:2 2:1 3:2 2:1
1:0 2:5 3:6 4:2 3:1 2:3 1:2 2:1 3:2 2:1 1:2
2:0 3:6 4:2 3:1 2:3 1:2 2:1 3:2 2:1 1:2 2:5
3:0 4:2 3:1 2:3 1:2 2:1 3:2 2:1 1:2 2:5 3:6
4:0 3:1 2:3 1:2 2:1 3:2 2:1 1:2 2:5 3:6 4:2
3:0 2:3 1:2 2:1 3:2 2:1 1:2 2:5 3:6 4:2 3:1
2:0 1:2 2:1 3:2 2:1 1:2 2:5 3:6 4:2 3:1 2:3
1:0 2:1 3:2 2:1 1:2 2:5 3:6 4:2 3:1 2:3 1:2
2:0 3:2 2:1 1:2 2:5 3:6 4:2 3:1 2:3 1:2 2:1
3:0 2:1 1:2 2:5 3:6 4:2 3:1 2:3 1:2 2:1 3:2
2:0 1:2 2:5 3:6 4:2 3:1 2:3 1:2 2:1 3:2 2:1
1:0 2:5 3:6 4:2 3:1 2:3 1:2 2:1 3:2 2:1 1:2
2:0 3:6 4:2 3:1 2:3 1:2 2:1 3:2 2:1 1:2 2:5
3:0 4:2 3:1 2:3 1:2 2:1 3:2 2:1 1:2 2:5 3:6
4:0 3:1 2:3 1:2 2:1 3:2 2:1 1:2 2:5 3:6 4:2
3:0 2:3 1:2 2:1 3:2 2:1 1:2 2:5 3:6 4:2 3:1
2:0 1:2 2:1 3:2 2:1 1:2 2:5 3:6 4:2 3:1 2:3
1:0 2:1 3:2 2:1 1:2 2:5 3:6 4:2 3:1 2:3 1:2
2:0 3:2 2:1 1:2 2:5 3:6 4:2 3:1 2:3 1:2 2:1
3:0 2:1 1:2 2:5 3:6 4:2 3:1 2:3 1:2 2:1 3:2
2:0 1:2 2:5 3:6 4:2 3:1 2:3 1:2 2:1 3:2 2:1
1:0 2:5 3:6 4:2 3:1 2:3 1:2 2:1 3:2 2:1 1:2
2:0 3:6 4:2 3:1 2:3 1:2 2:1 3:2 2:1 1:2 2:5
3:0 4:2 3:1 2:3 1:2 2:1 3:2 2:1 1:2 2:5 3:6
4:0 3:1 2:3 1:2 2:1 3:2 2:1 1:2 2:5 3:6 4:2
3:0 2:3 1:2 2:1 3:2 2:1 1:2 2:5 3:6 4:2 3:1
2:0 1:2 2:1 3:2 2:1 1:2 2:5 3:6 4:2 3:1 2:3
1:0 2:1 3:2 2:1 1:2 2:5 3:6 4:2 3:1 2:3 1:2
2:0 3:2 2:1 1:2 2:5 3:6 4:2 3:1 2:3 1:2 2:1
3:0 2:1 1:2 2:5 3:6 4:2 3:1 2:3 1:2 2:1 3:2
2:0 1:2 2:5 3:6 4:2 3:1 2:3 1:2 2:1 3:2 2:1
1:0 2:5 3:6 4:2 3:1 2:3 1:2 2:1 3:2 2:1 1:2
2:0 3:6 4:2 3:1 2:3 1:2 2:1 3:2 2:1 1:2 2:5
3:0 4:2 3:1 2:3 1:2 2:1 3:2 2:1 1:2 2:5 3:6
4:0 3:1 2:3 1:2 2:1 3:2 2:1 1:2 2:5 3:6 4:2
3:0 2:3 1:2 2:1 3:2 2:1 1:2 2:5 3:6 4:2 3:1
2:0 1:2 2:1 3:2 2:1 1:2 2:5 3:6 4:2 3:1 2:3
1:0 2:1 3:2 2:1 1:2 2:5 3:6 4:2 3:1 2:3 1:2
2:0 3:2 2:1 1:2 2:5 3:6 4:2 3:1 2:3 1:2 2:1
3:0 2:1 1:2 2:5 3:6 4:2 3:1 2:3 1:2 2:1 3:2
2:0 1:2 2:5 3:6 4:2 3:1 2:3 1:2 2:1 3:2 2:1
1:0 2:5 3:6 4:2 3:1 2:3 1:2 2:1 3:2 2:1 1:2
2:0 3:6 4:2 3:1 2:3 1:2 2:1 3:2 2:1 1:2 2:5
3:0 4:2 3:1 2:3 1:2 2:1 3:2 2:1 1:2 2:5 3:6
4:0 3:1 2:3 1:2 2:1 3:2 2:1 1:2 2:5 3:6 4:2
3:0 2:3 1:2 2:1 3:2 2:1 1:2 2:5 3:6 4:2 3:1
2:0 1:2 2:1 3:2 2:1 1:2 2:5 3:6 4:2 3:1 2:3
1:0 2:1 3:2 2:1 1:2 2:5 3:6 4:2 3:1 2:3 1:2
2:0 3:2 2:1 1:2 2:5 3:6 4:2 3:1 2:3 1:2 2:1
3:0 2:1 1:2 2:5 3:6 4:2 3:1 2:3 1:2 2:1 3:2
2:0 1:2 2:5 3:6 4:2 3:1 2:3 1:2 2:1 3:2 2:1
1:0 2:5 3:6 4:2 3:1 2:3 1:2 2:1 3:2 2:1 1:2
2:0 3:6 4:2 3:1 2:3 1:2 2:1 3:2 2:1 1:2 2:5
3:0 4:2 3:1 2:3 1:2 2:1 3:2 2:1 1:2 2:5 3:6
4:0 3:1 2:3 1:2 2:1 3:2 2:1 1:2 2:5 3:6 4:2
3:0 2:3 1:2 2:1 3:2 2:1 1:2 2:5 3:6 4:2 3:1
2:0 1:2 2:1 3:2 2:1 1:2 2:5 3:6 4:2 3:1 2:3
1:0 2:1 3:2 2:1 1:2 2:5 3:6 4:2 3:1 2:3 1:2
2:0 3:2 2:1 1:2 2:5 3:6 4:2 3:1 2:3 1:2 2:1
3:0 2:1 1:2 2:5 3:6 4:2 3:1 2:3 1:2 2:1 3:2
2:0 1:2 2:5 3:6 4:2 3:1 2:3 1:2 2:1 3:2 2:1
1:0 2:5 3:6 4:2 3:1 2:3 1:2 2:1 3:2 2:1 1:2
2:0 3:6 4:2 3:1 2:3 1:2 2:1 3:2 2:1 1:2 2:5
3:0 4:2 3:1 2:3 1:2 2:1 3:2 2:1 1:2 2:5 3:6
4:0 3:1 2:3 1:2 2:1 3:2 2:1 1:2 2:5 3:6 4:2
3:0 2:3 1:2 2:1 3:2 2:1 1:2 2:5 3:6 4:2 3:1
2:0 1:2 2:1 3:2 2:1 1:2 2:5 3:6 4:2 3:1 2:3
1:0 2:1 3:2 2:1 1:2 2:5 3:6 4:2 3:1 2:3 1:2
2:0 3:2 2:1 1:2 2:5 3:6 4:2 3:1 2:3 1:2 2:1
3:0 2:1 1:2 2:5 3:6 4:2 3:1 2:3 1:2 2:1 3:2
2:0 1:2 2:5 3:6 4:2 3:1 2:3 1:2 2:1 3:2 2:1
1:0 2:5 3:6 4:2 3:1 2:3 1:2 2:1 3:2 2:1 1:2
2:0 3:6 4:2 3:1 2:3 1:2 2:1 3:2 2:1 1:2 2:5
3:0 4:2 3:1 2:3 1:2 2:1 3:2 2:1 1:2 2:5 3:6
4:0 3:1 2:3 1:2 2:1 3:2 2:1 1:2 2:5 3:6 4:2
3:0 2:3 1:2 2:1 3:2 2:1 1:2 2:5 3:6 4:2 3:1
2:0 1:2 2:1 3:2 2:1 1:2 2:5 3:6 4:2 3:1 2:3
1:0 2:1 3:2 2:1 1:2 2:5 3:6 4:2 3:1 2:3 1:2
2:0 3:2 2:1 1:2 2:5 3:6 4:2 3:1 2:3 1:2 2:1
3:0 2:1 1:2 2:5 3:6 4:2 3:1 2:3 1:2 2:1 3:2
2:0 1:2 2:5 3:6 4:2 3:1 2:3 1:2 2:1 3:2 2:1
1:0 2:5 3:6 4:2 3:1 2:3 1:2 2:1 3:2 2:1 1:2
2:0 3:6 4:2 3:1 2:3 1:2 2:1 3:2 2:1 1:2 2:5
3:0 4:2 3:1 2:3 1:2 2:1 3:2 2:1 1:2 2:5 3:6
4:0 3:1 2:3 1:2 2:1 3:2 2:1 1:2 2:5 3:6 4:2
3:0 2:3 1:2 2:1 3:2 2:1 1:2 2:5 3:6 4:2 3:1
2:0 1:2 2:1 3:2 2:1 1:2 2:5 3:6 4:2 3:1 2:3
1:0 2:1 3:2 2:1 1:2 2:5 3:6 4:2 3:1 2:3 1:2
2:0 3:2 2:1 1:2 2:5 3:6 4:2 3:1 2:3 1:2 2:1
3:0 2:1 1:2 2:5 3:6 4:2 3:1 2:3 1:2 2:1 3:2
2:0 1:2 2:5 3:6 4:2 3:1 2:3 1:2 2:1 3:2 2:1
1:0 2:5 3:6 4:2 3:1 2:3 1:2 2:1 3:2 2:1 1:2
2:0 3:6 4:2 3:1 2:3 1:2 2:1 3:2 2:1 1:2 2:5
3:0 4:2 3:1 2:3 1:2 2:1 3:2 2:1 1:2 2:5 3:6
4:0 3:1 2:3 1:2 2:1 3:2 2:1 1:2 2:5 3:6 4:2
3:0 2:3 1:2 2:1 3:2 2:1 1:2 2:5 3:6 4:2 3:1
2:0 1:2 2:1 3:2 2:1 1:2 2:5 3:6 4:2 3:1 2:3
1:0 2:1 3:2 2:1 1:2 2:5 3:6 4:2 3:1 2:3 1:2
2:0 3:2 2:1 1:2 2:5 3:6 4:2 3:1 2:3 1:2 2:1
3:0 2:1 1:2 2:5 3:6 4:2 3:1 2:3 1:2 2:1 3:2
2:0 1:2 2:5 3:6 4:2 3:1 2:3 1:2 2:1 3:2 2:1
1:0 2:5 3:6 4:2 3:1 2:3 1:2 2:1 3:2 2:1 1:2
2:0 3:6 4:2 3:1 2:3 1:2 2:1 3:2 2:1 1:2 2:5
3:0 4:2 3:1 2:3 1:2 2:1 3:2 2:1 1:2 2:5 3:6
4:0 3:1 2:3 1:2 2:1 3:2 2:1 1:2 2:5 3:6 4:2
3:0 2:3 1:2 2:1 3:2 2:1 1:2 2:5 3:6 4:2 3:1
2:0 1:2 2:1 3:2 2:1 1:2 2:5 3:6 4:2 3:1 2:3
1:0 2:1 3:2 2:1 1:2 2:5 3:6 4:2 3:1 2:3 1:2
2:0 3:2 2:1 1:2 2:5 3:6 4:2 3:1 2:3 1:2 2:1
3:0 2:1 1:2 2:5 3:6 4:2 3:1 2:3 1:2 2:1 3:2
2:0 1:2 2:5 3:6 4:2 3:1 2:3 1:2 2:1 3:2 2:1
1:0 2:5 3:6 4:2 3:1 2:3 1:2 2:1 3:2 2:1 1:2
2:0 3:6 4:2 3:1 2:3 1:2 2:1 3:2 2:1 1:2 2:5
3:0 4:2 3:1 2:3 1:2 2:1 3:2 2:1 1:2 2:5 3:6
4:0 3:1 2:3 1:2 2:1 3:2 2:1 1:2 2:5 3:6 4:2
3:0 2:3 1:2 2:1 3:2 2:1 1:2 2:5 3:6 4:2 3:1
2:0 1:2 2:1 3:2 2:1 1:2 2:5 3:6 4:2 3:1 2:3
1:0 2:1 3:2 2:1 1:2 2:5 3:6 4:2 3:1 2:3 1:2
2:0 3:2 2:1 1:2 2:5 3:6 4:2 3:1 2:3 1:2 2:1
3:0 2:1 1:2 2:5 3:6 4:2 3:1 2:3 1:2 2:1 3:2
2:0 1:2 2:5 3:6 4:2 3:1 2:3 1:2 2:1 3:2 2:1
1:0 2:5 3:6 4:2 3:1 2:3 1:2 2:1 3:2 2:1 1:2
2:0 3:6 4:2 3:1 2:3 1:2 2:1 3:2 2:1 1:2 2:5
3:0 4:2 3:1 2:3 1:2 2:1 3:2 2:1 1:2 2:5 3:6
4:0 3:1 2:3 1:2 2:1 3:2 2:1 1:2 2:5 3:6 4:2
3:0 2:3 1:2 2:1 3:2 2:1 1:2 2:5 3:6 4:2 3:1
2:0 1:2 2:1 3:2 2:1 1:2 2:5 3:6 4:2 3:1 2:3
1:0 2:1 3:2 2:1 1:2 2:5 3:6 4:2 3:1 2:3 1:2
2:0 3:2 2:1 1:2 2:5 3:6 4:2 3:1 2:3 1:2 2:1
3:0 2:1 1:2 2:5 3:6 4:2 3:1 2:3 1:2 2:1 3:2
2:0 1:2 2:5 3:6 4:2 3:1 2:3 1:2 2:1 3:2 2:1
1:0 2:5 3:6 4:2 3:1 2:3 1:2 2:1 3:2 2:1 1:2
2:0 3:6 4:2 3:1 2:3 1:2 2:1 3:2 2:1 1:2 2:5
3:0 4:2 3:1 2:3 1:2 2:1 3:2 2:1 1:2 2:5 3:6
4:0 3:1 2:3 1:2 2:1 3:2 2:1 1:2 2:5 3:6 4:2
3:0 2:3 1:2 2:1 3:2 2:1 1:2 2:5 3:6 4:2 3:1
2:0 1:2 2:1 3:2 2:1 1:2 2:5 3:6 4:2 3:1 2:3
1:0 2:1 3:2 2:1 1:2 2:5 3:6 4:2 3:1 2:3 1:2
2:0 3:2 2:1 1:2 2:5 3:6 4:2 3:1 2:3 1:2 2:1
3:0 2:1 1:2 2:5 3:6 4:2 3:1 2:3 1:2 2:1 3:2
2:0 1:2 2:5 3:6 4:2 3:1 2:3 1:2 2:1 3:2 2:1
1:0 2:5 3:6 4:2 3:1 2:3 1:2 2:1 3:2 2:1 1:2
2:0 3:6 4:2 3:1 2:3 1:2 2:1 3:2 2:1 1:2 2:5
3:0 4:2 3:1 2:3 1:2 2:1 3:2 2:1 1:2 2:5 3:6
4:0 3:1 2:3 1:2 2:1 3:2 2:1 1:2 2:5 3:6 4:2
3:0 2:3 1:2 2:1 3:2 2:1 1:2 2:5 3:6 4:2 3:1
2:0 1:2 2:1 3:2 2:1 1:2 2:5 3:6 4:2 3:1 2:3
1:0 2:1 3:2 2:1 1:2 2:5 3:6 4:2 3:1 2:3 1:2
2:0 3:2 2:1 1:2 2:5 3:6 4:2 3:1 2:3 1:2 2:1
3:0 2:1 1:2 2:5 3:6 4:2 3:1 2:3 1:2 2:1 3:2
2:0 1:2 2:5 3:6 4:2 3:1 2:3 1:2 2:1 3:2 2:1
1:0 2:5 3:6 4:2 3:1 2:3 1:2 2:1 3:2 2:1 1:2
2:0 3:6 4:2 3:1 2:3 1:2 2:1 3:2 2:1 1:2 2:5
3:0 4:2 3:1 2:3 1:2 2:1 3:2 2:1 1:2 2:5 3:6
4:0 3:1 2:3 1:2 2:1 3:2 2:1 1:2 2:5 3:6 4:2
3:0 2:3 1:2 2:1 3:2 2:1 1:2 2:5 3:6 4:2 3:1
2:0 1:2 2:1 3:2 2:1 1:2 2:5 3:6 4:2 3:1 2:3
1:0 2:1 3:2 2:1 1:2 2:5 3:6 4:2 3:1 2:3 1:2
2:0 3:2 2:1 1:2 2:5 3:6 4:2 3:1 2:3 1:2 2:1
3:0 2:1 1:2 2:5 3:6 4:2 3:1 2:3 1:2 2:1 3:2
2:0 1:2 2:5 3:6 4:2 3:1 2:3 1:2 2:1 3:2 2:1
1:0 2:5 3:6 4:2 3:1 2:3 1:2 2:1 3:2 2:1 1:2
2:0 3:6 4:2 3:1 2:3 1:2 2:1 3:2 2:1 1:2 2:5
3:0 4:2 3:1 2:3 1:2 2:1 3:2 2:1 1:2 2:5 3:6
4:0 3:1 2:3 1:2 2:1 3:2 2:1 1:2 2:5 3:6 4:2
3:0 2:3 1:2 2:1 3:2 2:1 1:2 2:5 3:6 4:2 3:1
2:0 1:2 2:1 3:2 2:1 1:2 2:5 3:6 4:2 3:1 2:3
1:0 2:1 3:2 2:1 1:2 2:5 3:6 4:2 3:1 2:3 1:2
2:0 3:2 2:1 1:2 2:5 3:6 4:2 3:1 2:3 1:2 2:1
3:0 2:1 1:2 2:5 3:6 4:2 3:1 2:3 1:2 2:1 3:2
2:0 1:2 2:5 3:6 4:2 3:1 2:3 1:2 2:1 3:2 2:1
1:0 2:5 3:6 4:2 3:1 2:3 1:2 2:1 3:2 2:1 1:2
2:0 3:6 4:2 3:1 2:3 1:2 2:1 3:2 2:1 1:2 2:5
3:0 4:2 3:1 2:3 1:2 2:1 3:2 2:1 1:2 2:5 3:6
4:0 3:1 2:3 1:2 2:1 3:2 2:1 1:2 2:5 3:6 4:2
3:0 2:3 1:2 2:1 3:2 2:1 1:2 2:5 3:6 4:2 3:1
2:0 1:2 2:1 3:2 2:1 1:2 2:5 3:6 4:2 3:1 2:3
1:0 2:1 3:2 2:1 1:2 2:5 3:6 4:2 3:1 2:3 1:2
2:0 3:2 2:1 1:2 2:5 3:6 4:2 3:1 2:3 1:2 2:1
3:0 2:1 1:2 2:5 3:6 4:2 3:1 2:3 1:2 2:1 3:2
2:0 1:2 2:5 3:6 4:2 3:1 2:3 1:2 2:1 3:2 2:1
1:0 2:5 3:6 4:2 3:1 2:3 1:2 2:1 3:2 2:1 1:2
2:0 3:6 4:2 3:1 2:3 1:2 2:1 3:2 2:1 1:2 2:5
3:0 4:2 3:1 2:3 1:2 2:1 3:2 2:1 1:2 2:5 3:6
4:0 3:1 2:3 1:2 2:1 3:2 2:1 1:2 2:5 3:6 4:2
3:0 2:3 1:2 2:1 3:2 2:1 1:2 2:5 3:6 4:2 3:1
2:0 1:2 2:1 3:2 2:1 1:2 2:5 3:6 4:2 3:1 2:3
1:0 2:1 3:2 2:1 1:2 2:5 3:6 4:2 3:1 2:3 1:2
2:0 3:2 2:1 1:2 2:5 3:6 4:2 3:1 2:3 1:2 2:1
3:0 2:1 1:2 2:5 3:6 4:2 3:1 2:3 1:2 2:1 3:2
2:0 1:2 2:5 3:6 4:2 3:1 2:3 1:2 2:1 3:2 2:1
1:0 2:5 3:6 4:2 3:1 2:3 1:2 2:1 3:2 2:1 1:2
2:0 3:6 4:2 3:1 2:3 1:2 2:1 3:2 2:1 1:2 2:5
3:0 4:2 3:1 2:3 1:2 2:1 3:2 2:1 1:2 2:5 3:6
4:0 3:1 2:3 1:2 2:1 3:2 2:1 1:2 2:5 3:6 4:2
3:0 2:3 1:2 2:1 3:2 2:1 1:2 2:5 3:6 4:2 3:1
2:0 1:2 2:1 3:2 2:1 1:2 2:5 3:6 4:2 3:1 2:3
1:0 2:1 3:2 2:1 1:2 2:5 3:6 4:2 3:1 2:3 1:2
2:0 3:2 2:1 1:2 2:5 3:6 4:2 3:1 2:3 1:2 2:1
3:0 2:1 1:2 2:5 3:6 4:2 3:1 2:3 1:2 2:1 3:2
2:0 1:2 2:5 3:6 4:2 3:1 2:3 1:2 2:1 3:2 2:1
1:0 2:5 3:6 4:2 3:1 2:3 1:2 2:1 3:2 2:1 1:2
2:0 3:6 4:2 3:1 2:3 1:2 2:1 3:2 2:1 1:2 2:5
3:0 4:2 3:1 2:3 1:2 2:1 3:2 2:1 1:2 2:5 3:6
4:0 3:1 2:3 1:2 2:1 3:2 2:1 1:2 2:5 3:6 4:2
3:0 2:3 1:2 2:1 3:2 2:1 1:2 2:5 3:6 4:2 3:1
2:0 1:2 2:1 3:2 2:1 1:2 2:5 3:6 4:2 3:1 2:3
1:0 2:1 3:2 2:1 1:2 2:5 3:6 4:2 3:1 2:3 1:2
2:0 3:2 2:1 1:2 2:5 3:6 4:2 3:1 2:3 1:2 2:1
3:0 2:1 1:2 2:5 3:6 4:2 3:1 2:3 1:2 2:1 3:2
2:0 1:2 2:5 3:6 4:2 3:1 2:3 1:2 2:1 3:2 2:1
1:0 2:5 3:6 4:2 3:1 2:3 1:2 2:1 3:2 2:1 1:2
2:0 3:6 4:2 3:1 2:3 1:2 2:1 3:2 2:1 1:2 2:5
3:0 4:2 3:1 2:3 1:2 2:1 3:2 2:1 1:2 2:5 3:6
4:0 3:1 2:3 1:2 2:1 3:2 2:1 1:2 2:5 3:6 4:2
3:0 2:3 1:2 2:1 3:2 2:1 1:2 2:5 3:6 4:2 3:1
2:0 1:2 2:1 3:2 2:1 1:2 2:5 3:6 4:2 3:1 2:3
1:0 2:1 3:2 2:1 1:2 2:5 3:6 4:2 3:1 2:3 1:2
2:0 3:2 2:1 1:2 2:5 3:6 4:2 3:1 2:3 1:2 2:1
3:0 2:1 1:2 2:5 3:6 4:2 3:1 2:3 1:2 2:1 3:2
2:0 1:2 2:5 3:6 4:2 3:1 2:3 1:2 2:1 3:2 2:1
1:0 2:5 3:6 4:2 3:1 2:3 1:2 2:1 3:2 2:1 1:2
2:0 3:6 4:2 3:1 2:3 1:2 2:1 3:2 2:1 1:2 2:5
3:0 4:2 3:1 2:3 1:2 2:1 3:2 2:1 1:2 2:5 3:6
4:0 3:1 2:3 1:2 2:1 3:2 2:1 1:2 2:5 3:6 4:2
3:0 2:3 1:2 2:1 3:2 2:1 1:2 2:5 3:6 4:2 3:1
2:0 1:2 2:1 3:2 2:1 1:2 2:5 3:6 4:2 3:1 2:3
1:0 2:1 3:2 2:1 1:2 2:5 3:6 4:2 3:1 2:3 1:2
2:0 3:2 2:1 1:2 2:5 3:6 4:2 3:1 2:3 1:2 2:1
3:0 2:1 1:2 2:5 3:6 4:2 3:1 2:3 1:2 2:1 3:2
2:0 1:2 2:5 3:6 4:2 3:1 2:3 1:2 2:1 3:2 2:1
1:0 2:5 3:6 4:2 3:1 2:3 1:2 2:1 3:2 2:1 1:2
2:0 3:6 4:2 3:1 2:3 1:2 2:1 3:2 2:1 1:2 2:5
3:0 4:2 3:1 2:3 1:2 2:1 3:2 2:1 1:2 2:5 3:6
4:0 3:1 2:3 1:2 2:1 3:2 2:1 1:2 2:5 3:6 4:2
3:0 2:3 1:2 2:1 3:2 2:1 1:2 2:5 3:6 4:2 3:1
2:0 1:2 2:1 3:2 2:1 1:2 2:5 3:6 4:2 3:1 2:3
1:0 2:1 3:2 2:1 1:2 2:5 3:6 4:2 3:1 2:3 1:2
2:0 3:2 2:1 1:2 2:5 3:6 4:2 3:1 2:3 1:2 2:1
3:0 2:1 1:2 2:5 3:6 4:2 3:1 2:3 1:2 2:1 3:2
2:0 1:2 2:5 3:6 4:2 3:1 2:3 1:2 2:1 3:2 2:1
1:0 2:5 3:6 4:2 3:1 2:3 1:2 2:1 3:2 2:1 1:2
2:0 3:6 4:2 3:1 2:3 1:2 2:1 3:2 2:1 1:2 2:5
3:0 4:2 3:1 2:3 1:2 2:1 3:2 2:1 1:2 2:5 3:6
4:0 3:1 2:3 1:2 2:1 3:2 2:1 1:2 2:5 3:6 4:2
3:0 2:3 1:2 2:1 3:2 2:1 1:2 2:5 3:6 4:2 3:1
2:0 1:2 2:1 3:2 2:1 1:2 2:5 3:6 4:2 3:1 2:3
1:0 2:1 3:2 2:1 1:2 2:5 3:6 4:2 3:1 2:3 1:2
2:0 3:2 2:1 1:2 2:5 3:6 4:2 3:1 2:3 1:2 2:1
3:0 2:1 1:2 2:5 3:6 4:2 3:1 2:3 1:2 2:1 3:2
2:0 1:2 2:5 3:6 4:2 3:1 2:3 1:2 2:1 3:2 2:1
1:0 2:5 3:6 4:2 3:1 2:3 1:2 2:1 3:2 2:1 1:2
2:0 3:6 4:2 3:1 2:3 1:2 2:1 3:2 2:1 1:2 2:5
3:0 4:2 3:1 2:3 1:2 2:1 3:2 2:1 1:2 2:5 3:6
4:0 3:1 2:3 1:2 2:1 3:2 2:1 1:2 2:5 3:6 4:2
3:0 2:3 1:2 2:1 3:2 2:1 1:2 2:5 3:6 4:2 3:1
2:0 1:2 2:1 3:2 2:1 1:2 2:5 3:6 4:2 3:1 2:3
1:0 2:1 3:2 2:1 1:2 2:5 3:6 4:2 3:1 2:3 1:2
2:0 3:2 2:1 1:2 2:5 3:6 4:2 3:1 2:3 1:2 2:1
3:0 2:1 1:2 2:5 3:6 4:2 3:1 2:3 1:2 2:1 3:2
2:0 1:2 2:5 3:6 4:2 3:1 2:3 1:2 2:1 3:2 2:1
1:0 2:5 3:6 4:2 3:1 2:3 1:2 2:1 3:2 2:1 1:2
2:0 3:6 4:2 3:1 2:3 1:2 2:1 3:2 2:1 1:2 2:5
3:0 4:2 3:1 2:3 1:2 2:1 3:2 2:1 1:2 2:5 3:6
4:0 3:1 2:3 1:2 2:1 3:2 2:1 1:2 2:5 3:6 4:2
3:0 2:3 1:2 2:1 3:2 2:1 1:2 2:5 3:6 4:2 3:1
2:0 1:2 2:1 3:2 2:1 1:2 2:5 3:6 4:2 3:1 2:3
1:0 2:1 3:2 2:1 1:2 2:5 3:6 4:2 3:1 2:3 1:2
2:0 3:2 2:1 1:2 2:5 3:6 4:2 3:1 2:3 1:2 2:1
3:0 2:1 1:2 2:5 3:6 4:2 3:1 2:3 1:2 2:1 3:2
2:0 1:2 2:5 3:6 4:2 3:1 2:3 1:2 2:1 3:2 2:1
1:0 2:5 3:6 4:2 3:1 2:3 1:2 2:1 3:2 2:1 1:2
2:0 3:6 4:2 3:1 2:3 1:2 2:1 3:2 2:1 1:2 2:5
3:0 4:2 3:1 2:3 1:2 2:1 3:2 2:1 1:2 2:5 3:6
4:0 3:1 2:3 1:2 2:1 3:2 2:1 1:2 2:5 3:6 4:2
3:0 2:3 1:2 2:1 3:2 2:1 1:2 2:5 3:6 4:2 3:1
2:0 1:2 2:1 3:2 2:1 1:2 2:5 3:6 4:2 3:1 2:3
1:0 2:1 3:2 2:1 1:2 2:5 3:6 4:2 3:1 2:3 1:2
2:0 3:2 2:1 1:2 2:5 3:6 4:2 3:1 2:3 1:2 2:1
3:0 2:1 1:2 2:5 3:6 4:2 3:1 2:3 1:2 2:1 3:2
2:0 1:2 2:5 3:6 4:2 3:1 2:3 1:2 2:1 3:2 2:1
1:0 2:5 3:6 4:2 3:1 2:3 1:2 2:1 3:2 2:1 1:2
2:0 3:6 4:2 3:1 2:3 1:2 2:1 3:2 2:1 1:2 2:5
3:0 4:2 3:1 2:3 1:2 2:1 3:2 2:1 1:2 2:5 3:6
4:0 3:1 2:3 1:2 2:1 3:2 2:1 1:2 2:5 3:6 4:2
3:0 2:3 1:2 2:1 3:2 2:1 1:2 2:5 3:6 4:2 3:1
2:0 1:2 2:1 3:2 2:1 1:2 2:5 3:6 4:2 3:1 2:3
1:0 2:1 3:2 2:1 1:2 2:5 3:6 4:2 3:1 2:3 1:2
2:0 3:2 2:1 1:2 2:5 3:6 4:2 3:1 2:3 1:2 2:1
3:0 2:1 1:2 2:5 3:6 4:2 3:1 2:3 1:2 2:1 3:2
2:0 1:2 2:5 3:6 4:2 3:1 2:3 1:2 2:1 3:2 2:1
1:0 2:5 3:6 4:2 3:1 2:3 1:2 2:1 3:2 2:1 1:2
2:0 3:6 4:2 3:1 2:3 1:2 2:1 3:2 2:1 1:2 2:5
3:0 4:2 3:1 2:3 1:2 2:1 3:2 2:1 1:2 2:5 3:6
4:0 3:1 2:3 1:2 2:1 3:2 2:1 1:2 2:5 3:6 4:2
3:0 2:3 1:2 2:1 3:2 2:1 1:2 2:5 3:6 4:2 3:1
2:0 1:2 2:1 3:2 2:1 1:2 2:5 3:6 4:2 3:1 2:3
1:0 2:1 3:2 2:1 1:2 2:5 3:6 4:2 3:1 2:3 1:2
2:0 3:2 2:1 1:2 2:5 3:6 4:2 3:1 2:3 1:2 2:1
3:0 2:1 1:2 2:5 3:6 4:2 3:1 2:3 1:2 2:1 3:2
2:0 1:2 2:5 3:6 4:2 3:1 2:3 1:2 2:1 3:2 2:1
1:0 2:5 3:6 4:2 3:1 2:3 1:2 2:1 3:2 2:1 1:2
2:0 3:6 4:2 3:1 2:3 1:2 2:1 3:2 2:1 1:2 2:5
3:0 4:2 3:1 2:3 1:2 2:1 3:2 2:1 1:2 2:5
4:0 3:1 2:3 1:2 2:1 3:2 2:1 1:2 2:5
3:0 2:3 1:2 2:1 3:2 2:1 1:2 2:5
2:0 1:2 2:1 3:2 2:1 1:2 2:5
1:0 2:1 3:2 2:1 1:2 2:5
2:0 3:2 2:1 1:2 2:5
3:0 2:1 1:2 2:5
2:0 1:2 2:5
1:0 2:5
2:0
2:0 3:3 4:2 3:1 2:3 1:2 2:1 3:2 2:1 1:2 2:5 3:6 4:2 3:1 2:3 1:2 2:1 3:2 2:1 1:2 2:5 3:6 4:2 3:1 2:3 1:2 2:1 3:2 2:1 1:2 2:5 3:6 4:2 3:1 2:3 1:2 2:1 3:2 2:1 1:2 2:5 3:6 4:2 3:1 2:3 1:2 2:1 3:2 2:1 1:2 2:5 3:6 4:2 3:1 2:3 1:2 2:1 3:2 2:1 1:2 2:5 3:6 4:2 3:1 2:3 1:2 2:1 3:2 2:1 1:2 2:5 3:6 4:2 3:1 2:3 1:2 2:1 3:2 2:1 1:2 2:5 3:6 4:2 3:1 2:3 1:2 2:1 3:2 2:1 1:2 2:5 3:6 4:2 3:1 2:3 1:2 2:1 3:2 2:1 1:2 2:5 3:6 4:2 3:1 2:3 1:2 2:1 3:2 2:1 1:2 2:5 3:6 4:2 3:1 2:3 1:2 2:1 3:2 2:1 1:2 2:5 3:6 4:2 3:1 2:3 1:2 2:1 3:2 2:1 1:2 2:5 3:6 4:2 3:1 2:3 1:2 2:1 3:2 2:1 1:2 2:5 3:6 4:2 3:1 2:3 1:2 2:1 3:2 2:1 1:2 2:5 3:6 4:2 3:1 2:3 1:2 2:1 3:2 2:1 1:2 2:5 3:6 4:2 3:1 2:3 1:2 2:1 3:2 2:1 1:2 2:5 3:6 4:2 3:1 2:3 1:2 2:1 3:2 2:1 1:2 2:5 3:6 4:2 3:1 2:3 1:2 2:1 3:2 2:1 1:2 2:5 3:6 4:2 3:1 2:3 1:2 2:1 3:2 2:1 1:2 2:5 3:6 4:2 3:1 2:3 1:2 2:1 3:2 2:1 1:2 2:5 3:6 4:2 3:1 2:3 1:2 2:1 3:2 2:1 1:2 2:5 3:6 4:2 3:1 2:3 1:2 2:1 3:2 2:1 1:2 2:5 3:6 4:2 3:1 2:3 1:2 2:1 3:2 2:1 1:2 2:5 3:6 4:2 3:1 2:3 1:2 2:1 3:2 2:1 1:2 2:5 3:6 4:2 3:1 2:3 1:2 2:1 3:2 2:1 1:2 2:5 3:6 4:2 3:1 2:3 1:2 2:1 3:2 2:1 1:2 2:5 3:6 4:2 3:1 2:3 1:2 2:1 3:2 2:1 1:2 2:5 3:6 4:2 3:1 2:3 1:2 2:1 3:2 2:1 1:2 2:5 3:6 4:2 3:1 2:3 1:2 2:1 3:2 2:1 1:2 2:5 3:6 4:2 3:1 2:3 1:2 2:1 3:2 2:1 1:2 2:5 3:6 4:2 3:1 2:3 1:2 2:1 3:2 2:1 1:2 2:5 3:6 4:2 3:1 2:3 1:2 2:1 3:2 2:1 1:2 2:5 3:6 4:2 3:1 2:3 1:2 2:1 3:2 2:1 1:2 2:5 3:6 4:2 3:1 2:3 1:2 2:1 3:2 2:1 1:2 2:5 3:6 4:2 3:1 2:3 1:2 2:1 3:2 2:1 1:2 2:5 3:6 4:2 3:1 2:3 1:2 2:1 3:2 2:1 1:2 2:5 3:6 4:2 3:1 2:3 1:2 2:1 3:2 2:1 1:2 2:5 3:6 4:2 3:1 2:3 1:2 2:1 3:2 2:1 1:2 2:5 3:6 4:2 3:1 2:3 1:2 2:1 3:2 2:1 1:2 2:5