S0 -> S1 [label="2 [0, 0, 0, 0, 0, 0, 0, 0, 0, 0, 0, 0, 0, 0, 0, 0, 0, 0, 0, 0, 0, 0, 0, 0, 0, 0, 0, 0, 0, 0, 0, 0, 0, 0, 0] p=0.03"]
S0 -> S2 [label="1 [0, 0, 0, 0, 0, 0, 0, 0, 0, 0, 0, 0, 0, 0, 0] p=0.01"]
S0 -> S10 [label="3 [0, 0, 0, 0, 0, 0, 0, 0, 0, 0, 0, 0, 0, 0, 0, 0, 0, 0, 0, 0, 0, 0, 0, 0, 0, 0, 0, 0, 0, 0, 0, 0, 0, 0, 0, 0, 0, 0, 0, 0, 0, 0, 0, 0, 0, 0, 0] p=0.04"]
S0 -> S11 [label="4 [0, 0, 0, 0, 0, 0, 0, 0, 0, 0, 0, 0, 0, 0, 0, 0, 0, 0, 0, 0, 0, 0, 0, 0, 0, 0, 0, 0, 0, 0, 0, 0, 0, 0, 0, 0, 0, 0, 0, 0, 0] p=0.03"]
S0 -> S227 [label="5 [0, 0, 0, 0, 0, 0, 0, 0, 0, 0, 0, 0, 0, 0, 0, 0, 0, 0, 0, 0, 0, 0, 0, 0, 0, 0, 0, 0, 0, 0, 0, 0, 0, 0, 0, 0, 0, 0, 0, 0, 0, 0, 0, 0, 0, 0, 0, 0, 0, 0, 0] p=0.04"]
S0 -> S413 [label="6 [0, 0, 0, 0, 0, 0, 0, 0, 0, 0, 0, 0, 0, 0, 0, 0, 0, 0, 0, 0, 0, 0, 0, 0, 0, 0, 0, 0, 0, 0, 0, 0, 0, 0, 0, 0, 0, 0, 0, 0, 0, 0, 0, 0, 0, 0, 0, 0, 0, 0, 0, 0, 0, 0, 0, 0, 0, 0, 0, 0, 0, 0, 0, 0, 0, 0, 0, 0, 0, 0, 0, 0, 0, 0, 0, 0, 0, 0, 0, 0, 0, 0, 0, 0, 0, 0, 0, 0, 0, 0, 0, 0, 0, 0, 0, 0, 0, 0, 0, 0, 0, 0, 0, 0, 0, 0, 0, 0, 0, 0, 0, 0, 0, 0, 0, 0, 0, 0, 0, 0, 0, 0, 0, 0, 0, 0, 0, 0, 0, 0, 0, 0, 0, 0, 0, 0, 0, 0, 0, 0, 0, 0, 0, 0, 0, 0, 0, 0, 0, 0, 0, 0, 0, 0, 0, 0, 0, 0, 0, 0, 0, 0, 0, 0, 0, 0, 0, 0, 0, 0, 0, 0, 0] p=0.13"]
S0 -> S556 [label="7 [0, 0, 0, 0, 0, 0, 0, 0, 0, 0, 0, 0, 0, 0, 0, 0, 0, 0, 0, 0, 0, 0, 0, 0, 0, 0, 0, 0, 0, 0, 0, 0, 0, 0, 0, 0, 0, 0, 0, 0, 0, 0, 0, 0, 0, 0, 0, 0, 0, 0, 0, 0, 0, 0, 0, 0, 0, 0, 0, 0, 0, 0, 0, 0, 0, 0, 0, 0, 0, 0, 0, 0, 0, 0, 0, 0, 0, 0, 0, 0, 0, 0, 0, 0, 0, 0, 0, 0, 0, 0, 0, 0, 0, 0, 0, 0, 0, 0, 0, 0, 0, 0, 0, 0, 0, 0, 0, 0, 0, 0, 0, 0, 0, 0, 0, 0, 0, 0, 0, 0, 0, 0, 0, 0, 0, 0, 0, 0, 0, 0, 0, 0, 0, 0, 0, 0, 0, 0, 0, 0, 0, 0, 0, 0, 0, 0, 0, 0, 0, 0, 0, 0, 0, 0, 0, 0, 0, 0, 0, 0, 0, 0, 0, 0, 0, 0, 0, 0, 0, 0, 0, 0, 0, 0, 0, 0, 0, 0, 0, 0, 0, 0, 0, 0, 0, 0, 0, 0, 0, 0, 0, 0, 0, 0, 0, 0, 0, 0, 0, 0, 0, 0, 0, 0, 0, 0, 0, 0, 0, 0, 0, 0, 0, 0, 0, 0, 0, 0, 0, 0, 0, 0, 0, 0, 0, 0, 0, 0, 0, 0, 0, 0, 0, 0, 0, 0, 0, 0, 0, 0, 0, 0, 0, 0, 0, 0, 0, 0, 0, 0, 0, 0, 0, 0, 0, 0, 0, 0, 0, 0, 0, 0, 0, 0, 0, 0, 0, 0, 0, 0, 0, 0, 0, 0, 0, 0, 0, 0, 0, 0, 0, 0, 0, 0, 0, 0, 0, 0, 0, 0, 0, 0, 0, 0, 0, 0, 0, 0, 0, 0, 0, 0, 0, 0, 0, 0, 0, 0] p=0.24"]
S0 -> S640 [label="8 [0, 0, 0, 0, 0, 0, 0, 0, 0, 0, 0, 0, 0, 0, 0, 0, 0, 0, 0, 0, 0, 0, 0, 0, 0, 0, 0, 0, 0, 0, 0, 0, 0, 0, 0, 0, 0, 0, 0, 0, 0, 0, 0, 0, 0, 0, 0, 0, 0, 0, 0, 0, 0, 0, 0, 0, 0, 0, 0, 0, 0, 0, 0, 0, 0, 0, 0, 0, 0, 0, 0, 0, 0, 0, 0, 0, 0, 0, 0, 0, 0, 0, 0, 0, 0, 0, 0, 0, 0, 0, 0, 0, 0, 0, 0, 0, 0, 0, 0, 0, 0, 0, 0, 0, 0, 0, 0, 0, 0, 0, 0, 0, 0, 0, 0, 0, 0, 0, 0, 0, 0, 0, 0, 0, 0, 0, 0, 0, 0, 0, 0, 0, 0, 0, 0, 0, 0, 0, 0, 0, 0, 0, 0, 0, 0, 0, 0, 0, 0, 0, 0, 0, 0, 0, 0, 0, 0, 0, 0, 0, 0, 0, 0, 0, 0, 0, 0, 0, 0, 0, 0, 0, 0, 0, 0, 0, 0, 0, 0, 0, 0, 0, 0, 0, 0, 0, 0, 0, 0, 0, 0, 0, 0, 0, 0, 0, 0, 0, 0, 0, 0, 0, 0, 0, 0, 0, 0, 0, 0, 0, 0, 0, 0, 0, 0, 0, 0, 0, 0, 0, 0, 0, 0, 0, 0, 0, 0, 0, 0, 0, 0, 0, 0, 0, 0, 0, 0, 0, 0, 0, 0, 0, 0, 0, 0, 0, 0, 0, 0, 0, 0, 0, 0, 0, 0, 0, 0, 0, 0, 0, 0, 0, 0, 0, 0, 0, 0, 0, 0, 0, 0, 0, 0, 0, 0, 0, 0, 0, 0, 0, 0, 0, 0, 0, 0, 0, 0, 0, 0, 0, 0, 0, 0, 0, 0, 0, 0, 0, 0, 0, 0, 0, 0, 0, 0, 0, 0, 0, 0, 0, 0, 0, 0, 0, 0, 0, 0, 0, 0, 0, 0, 0, 0, 0, 0, 0, 0, 0, 0, 0, 0, 0, 0, 0, 0, 0, 0, 0] p=0.26"]
S0 -> S813 [label="9 [0, 0, 0, 0, 0, 0, 0, 0, 0, 0, 0, 0, 0, 0, 0, 0, 0, 0, 0, 0, 0, 0, 0, 0, 0, 0, 0, 0, 0, 0, 0, 0, 0, 0, 0, 0, 0, 0, 0, 0, 0, 0, 0, 0, 0, 0, 0, 0, 0, 0, 0, 0, 0, 0, 0, 0, 0, 0, 0, 0, 0, 0, 0, 0, 0, 0, 0, 0, 0, 0, 0, 0, 0, 0, 0, 0, 0, 0, 0, 0, 0, 0, 0, 0, 0, 0, 0, 0, 0, 0, 0, 0, 0, 0, 0, 0, 0, 0, 0, 0, 0, 0, 0, 0, 0, 0, 0, 0, 0, 0, 0, 0, 0, 0, 0, 0, 0, 0, 0, 0, 0, 0, 0, 0, 0, 0, 0, 0, 0, 0, 0, 0, 0, 0, 0, 0, 0, 0, 0, 0, 0, 0, 0, 0, 0, 0, 0, 0, 0, 0, 0, 0, 0, 0, 0, 0, 0, 0, 0, 0, 0, 0, 0, 0, 0, 0, 0, 0, 0, 0, 0, 0, 0, 0, 0, 0, 0, 0, 0, 0, 0, 0, 0, 0, 0, 0, 0, 0, 0, 0, 0, 0, 0, 0, 0, 0, 0, 0, 0, 0, 0, 0, 0, 0, 0, 0, 0, 0, 0, 0, 0, 0, 0, 0, 0, 0, 0, 0, 0, 0, 0, 0, 0, 0, 0, 0, 0] p=0.17"]
S0 -> S974 [label="10 [0, 0, 0, 0, 0, 0, 0, 0, 0, 0, 0, 0, 0, 0, 0, 0, 0, 0, 0, 0, 0, 0, 0, 0, 0, 0, 0, 0, 0, 0, 0, 0, 0, 0, 0, 0, 0, 0, 0, 0, 0, 0, 0, 0, 0, 0, 0, 0, 0, 0, 0, 0, 0, 0, 0, 0, 0, 0, 0, 0, 0, 0] p=0.05"]
S0 -> S1762 [label="11 [0, 0] p=0.0"]
S0 -> S1709 [label="12 [0] p=0.0"]
S1 -> S2 [label="1 [932, 19, 34, 11, 1679, 64, 1720, 17, 33, 1846, 6, 1743, 16, 13, 6, 1679, 1720, 1846, 1743, 1679, 1720, 1846, 1743, 1679, 1720, 1846, 1743, 1720, 1846, 1720, 1846, 1679, 1743, 1720, 1846, 1679, 1743, 1720, 1846, 1679, 1743, 1720, 19, 34, 11, 64, 17, 33, 6, 16, 13, 6, 64, 17, 6, 16, 64, 17, 6, 16, 64, 17, 6, 16, 17, 6, 17, 6, 64, 16, 17, 6, 64, 16, 17, 6, 19, 34, 11, 64, 17, 33, 6, 16, 13, 6, 64, 16, 34, 11, 33, 13, 6, 33, 13, 33, 13, 33, 13, 33, 33, 13, 13, 34, 11, 33, 13, 6, 11, 6, 6, 6, 6, 11, 6, 1679, 1743, 1679, 1743, 1679, 1743, 64, 16, 1720, 1846, 1846] p=0.47"]
S1 -> S10 [label="3 [9, 8, 8, 9, 8, 9, 10, 8, 10, 10, 10, 9, 10, 8, 9, 9, 10, 10, 8, 9, 10, 9, 10, 9, 10, 10, 10, 9, 9, 9, 9, 10, 10, 8, 9, 9, 10, 10, 8, 9, 9, 10, 10, 8, 9, 10, 9, 3, 10, 10, 13, 13, 10, 10, 8, 5, 2936, 6, 12, 29, 7, 1497, 182, 950, 10, 3, 10, 13, 13, 10, 5, 2936, 6, 12, 29, 7, 1497, 182, 950, 10, 13, 2936, 12, 29, 7, 1497, 950, 10, 13, 2936, 12, 29, 7, 1497, 950, 29, 7, 1497, 29, 7, 1497, 7, 1497, 7, 1497, 1497, 1497, 10, 13, 2936, 12, 950, 29, 7, 10, 13, 12, 950, 29, 7, 10, 2936, 2936, 2936, 2936, 10, 10, 10, 2936, 13, 13, 13, 12, 950, 13, 12, 950, 29, 29, 12, 12, 950, 950] p=0.53"]
S1762 -> S1709 [label="12 [1] p=0.5"]
S1762 -> S1716 [label="10 [1] p=0.5"]
S2 -> S1 [label="2 [5, 4, 40, 40, 58, 17, 2, 58, 5, 4, 40, 40, 17, 2, 5, 4, 40, 58, 58, 58, 4, 19, 13, 1753, 7, 1797, 4, 4, 1759, 45, 1587, 7, 10, 169, 1307, 7, 4, 45, 7, 7, 4, 45, 7, 7, 4, 45, 7, 4, 45, 4, 45, 7, 7, 4, 45, 7, 7, 4, 45, 4, 19, 13, 1753, 7, 1797, 4, 4, 1759, 45, 1587, 7, 10, 169, 1307, 7, 7, 4, 19, 13, 1753, 1797, 4, 1759, 1587, 10, 169, 1307, 1797, 4, 1587, 10, 1797, 4, 1587, 10, 1797, 4, 1587, 10, 4, 1587, 4, 1587, 1797, 10, 4, 1587, 1797, 10, 19, 13, 1753, 1797, 4, 1759, 1587, 10, 169, 1307, 1797, 10, 13, 1753, 1759, 169, 1307, 1759, 169, 1759, 169, 1759, 169, 1759, 169, 13, 1753, 1759, 169, 1307, 1753, 1307, 1307, 1307, 1753, 1307, 5, 4, 40, 5, 4, 40, 5, 4, 40, 5, 4, 40, 58, 58, 7, 7, 7, 7, 40, 40, 40, 40, 17, 2, 40, 17, 2, 45, 17, 17, 17, 2, 2, 2] p=1.0"]
S556 -> S640 [label="8 [7, 7, 4, 9, 4, 9, 7, 4, 5, 5, 9, 7, 7, 8, 5, 5, 5, 7, 7, 8, 5, 4, 9, 4, 9, 9, 4, 4, 4, 7, 7, 4, 5, 7, 11, 24, 9, 8, 6, 7, 9, 10, 11, 10, 8, 5, 7, 7, 10, 9, 8, 7, 8, 8, 7, 8, 8, 8, 10, 8, 9, 12, 95, 9, 14, 7, 5, 9, 7, 7, 8, 5, 6, 7, 11, 24, 9, 8, 6, 7, 9, 10, 11, 10, 8, 5, 7, 7, 10, 9, 8, 7, 8, 8, 7, 8, 8, 8, 10, 8, 9, 12, 95, 9, 14, 7, 6, 5, 5, 7, 8, 5, 5, 5, 7, 8, 5, 5, 5, 7, 8, 5, 5, 7, 8, 5, 8, 5, 7, 5, 5, 7, 5, 9, 9, 8, 95, 9, 7, 8, 7, 4, 5, 7, 5, 11, 31, 1495, 8, 119, 1128, 45, 24, 11, 9, 8, 2, 8, 44, 6, 3, 7, 6, 9, 27, 10, 6, 5, 11, 2, 17, 75, 27, 7, 18, 185, 326, 10, 5, 3, 4, 2, 47, 31, 27, 30, 89, 195, 223, 8, 6, 47, 313, 148, 5, 2, 10, 38, 7, 8, 10, 4, 19, 7, 3, 5, 5, 10, 9, 9, 2, 8, 26, 7, 11, 8, 17, 8, 7, 24, 7, 3, 9, 4, 8, 7, 8, 6, 8, 7, 16, 10, 8, 14, 15, 25, 18, 25, 16, 27, 14, 5, 15, 4, 5, 9, 3, 4, 7, 12, 32, 20, 1548, 3, 4, 27, 4, 1076, 5, 3, 4, 6, 10, 17, 49, 891, 2, 4, 22, 7, 7, 16, 12, 36, 253, 9, 9, 2, 8, 34, 7, 5, 10, 7, 488, 8, 22, 13, 5, 40, 95, 7, 451, 9, 7, 10, 14, 7, 5, 50, 9, 7, 3, 23, 5, 7, 17, 8, 3, 5, 6, 23, 5, 31, 1495, 8, 119, 1128, 45, 11, 2, 8, 44, 3, 6, 27, 6, 5, 2, 17, 75, 27, 7, 18, 185, 326, 5, 3, 4, 2, 47, 31, 27, 30, 89, 195, 223, 6, 47, 313, 148, 2, 10, 38, 8, 10, 4, 19, 3, 5, 5, 9, 2, 26, 11, 17, 7, 24, 3, 9, 4, 7, 6, 7, 16, 14, 15, 25, 18, 25, 16, 27, 14, 5, 15, 4, 5, 3, 4, 7, 32, 20, 1548, 3, 4, 27, 4, 1076, 5, 3, 4, 6, 10, 17, 49, 891, 2, 4, 22, 7, 7, 16, 12, 36, 253, 9, 9, 2, 8, 34, 7, 5, 10, 7, 488, 8, 22, 13, 5, 40, 7, 451, 7, 10, 50, 3, 23, 5, 17, 3, 23, 7, 11, 24, 9, 6, 7, 9, 10, 11, 10, 8, 5, 7, 7, 10, 9, 8, 7, 8, 8, 7, 8, 8, 8, 10, 8, 9, 12, 14, 7, 6, 7, 11, 24, 9, 6, 7, 9, 10, 11, 10, 8, 5, 7, 7, 10, 9, 8, 7, 8, 8, 7, 8, 8, 8, 10, 8, 9, 12, 14, 7, 6, 7, 11, 7, 8, 8, 8, 8, 10, 14, 7, 7, 9, 10, 10, 8, 10, 7, 12, 7, 11, 24, 9, 6, 9, 10, 10, 8, 5, 7, 10, 9, 7, 8, 7, 8, 8, 9, 12, 6, 7, 11, 24, 9, 6, 9, 10, 10, 8, 5, 7, 10, 9, 7, 8, 7, 8, 8, 9, 12, 6, 5, 5, 5, 11, 24, 6, 9, 5, 7, 9, 7, 8, 8, 8, 9, 6, 11, 24, 6, 9, 5, 7, 9, 7, 8, 8, 8, 9, 6, 6, 9, 7, 7, 11, 24, 5, 9, 8, 8, 8, 9, 6, 5, 31, 8, 45, 11, 2, 3, 6, 27, 6, 2, 5, 6, 2, 8, 3, 9, 2, 26, 11, 17, 7, 3, 7, 6, 7, 14, 3, 32, 3, 5, 2, 9, 2, 5, 8, 40, 7, 7, 50, 3, 17, 3, 23, 8, 9, 7, 7, 7, 1495, 119, 8, 5, 17, 3, 47, 10, 10, 5, 24, 9, 16, 15, 4, 20, 4, 3, 4, 9, 8, 10, 22, 451, 10, 23, 1495, 119, 1128, 8, 44, 5, 17, 75, 27, 7, 18, 185, 326, 3, 4, 2, 47, 31, 27, 30, 89, 195, 223, 47, 313, 148, 10, 38, 10, 4, 19, 5, 5, 24, 9, 4, 16, 15, 25, 18, 25, 16, 27, 14, 5, 15, 4, 5, 4, 7, 20, 1548, 4, 27, 4, 1076, 3, 4, 6, 10, 17, 49, 891, 4, 22, 7, 7, 16, 12, 36, 253, 9, 8, 34, 7, 10, 7, 488, 22, 13, 5, 451, 10, 23, 5, 1495, 119, 1128, 8, 44, 5, 17, 75, 27, 7, 18, 185, 326, 3, 4, 2, 47, 31, 27, 30, 89, 195, 223, 47, 313, 148, 10, 38, 10, 4, 19, 5, 5, 24, 9, 4, 16, 15, 25, 18, 25, 16, 27, 14, 5, 15, 4, 5, 4, 7, 20, 1548, 4, 27, 4, 1076, 3, 4, 6, 10, 17, 49, 891, 4, 22, 7, 7, 16, 12, 36, 253, 9, 8, 34, 7, 10, 7, 488, 22, 13, 5, 451, 10, 23, 5, 1128, 44, 75, 4, 313, 38, 4, 5, 4, 25, 7, 1548, 27, 4, 22, 34, 7, 13, 5, 1128, 44, 75, 27, 7, 18, 185, 326, 4, 2, 47, 31, 27, 30, 89, 195, 223, 313, 148, 38, 4, 19, 5, 4, 25, 18, 25, 16, 27, 14, 5, 15, 4, 5, 7, 1548, 27, 4, 1076, 4, 6, 10, 17, 49, 891, 22, 7, 7, 16, 12, 36, 253, 34, 7, 7, 488, 13, 5, 5, 1128, 44, 75, 27, 7, 18, 185, 326, 4, 2, 47, 31, 27, 30, 89, 195, 223, 313, 148, 38, 4, 19, 5, 4, 25, 18, 25, 16, 27, 14, 5, 15, 4, 5, 7, 1548, 27, 4, 1076, 4, 6, 10, 17, 49, 891, 22, 7, 7, 16, 12, 36, 253, 34, 7, 7, 488, 13, 5, 5, 95, 95, 95, 27, 2, 148, 19, 18, 4, 6, 7, 7, 488, 5, 27, 7, 18, 185, 326, 2, 47, 31, 27, 30, 89, 195, 223, 148, 19, 18, 25, 16, 27, 14, 5, 15, 4, 5, 4, 1076, 6, 10, 17, 49, 891, 7, 7, 16, 12, 36, 253, 7, 488, 5, 27, 7, 18, 185, 326, 2, 47, 31, 27, 30, 89, 195, 223, 148, 19, 18, 25, 16, 27, 14, 5, 15, 4, 5, 4, 1076, 6, 10, 17, 49, 891, 7, 7, 16, 12, 36, 253, 7, 488, 5, 7, 8, 8, 8, 7, 11, 7, 8, 8, 8, 8, 10, 14, 7, 11, 7, 8, 8, 8, 8, 10, 14, 7, 18, 185, 326, 47, 31, 27, 30, 89, 195, 223, 25, 16, 27, 14, 5, 15, 4, 5, 1076, 10, 17, 49, 891, 7, 16, 12, 36, 253, 7, 18, 185, 326, 47, 31, 27, 30, 89, 195, 223, 25, 16, 27, 14, 5, 15, 4, 5, 1076, 10, 17, 49, 891, 7, 16, 12, 36, 253, 11, 7, 8, 10, 14, 11, 7, 8, 10, 14, 9, 10, 10, 8, 10, 7, 12, 9, 10, 10, 8, 10, 7, 12, 5, 31, 8, 45, 11, 2, 3, 6, 27, 2, 5, 6, 2, 8, 3, 2, 17, 7, 6, 7, 14, 3, 3, 5, 2, 9, 2, 5, 8, 40, 7, 17, 23, 5, 31, 8, 45, 11, 2, 3, 6, 27, 2, 5, 6, 2, 8, 3, 9, 2, 26, 11, 17, 7, 6, 7, 14, 3, 3, 5, 2, 9, 2, 5, 8, 40, 7, 3, 17, 3, 23, 9, 11, 9, 26, 11, 9, 26, 11, 26, 9, 26, 11, 9, 26, 11, 3, 3, 3, 3, 3, 3, 3, 3, 3, 3, 9, 26, 11, 3, 3, 31, 45, 2, 3, 6, 8, 7, 14, 3, 5, 2, 8, 40, 7, 23, 31, 45, 2, 3, 27, 2, 6, 8, 2, 7, 14, 3, 5, 2, 8, 40, 7, 17, 23, 27, 2, 2, 27, 2, 2, 27, 2, 2, 17, 17, 17, 27, 2, 2, 17, 1495, 119, 8, 17, 3, 47, 10, 10, 5, 24, 16, 15, 4, 4, 3, 4, 9, 8, 10, 22, 451, 1495, 119, 8, 17, 3, 47, 10, 10, 5, 24, 16, 15, 4, 4, 3, 4, 9, 8, 10, 22, 451, 23, 23, 23, 23, 23, 8, 8, 1495, 8, 47, 10, 24, 15, 4, 3, 4, 22, 451, 1495, 8, 17, 47, 10, 24, 15, 4, 3, 4, 22, 451, 17, 17, 8, 8, 95, 95, 95, 1128, 44, 75, 4, 313, 38, 4, 5, 25, 7, 27, 4, 22, 34, 7, 13, 1128, 44, 75, 4, 313, 38, 4, 5, 25, 7, 27, 4, 22, 34, 7, 13, 5, 5, 5, 45, 6, 14, 3, 5, 2, 23, 45, 6, 7, 14, 3, 5, 2, 23, 7, 7, 44, 75, 313, 4, 25, 27, 4, 22, 13, 5, 2, 23, 7, 7, 7, 27, 2, 148, 19, 18, 4, 6, 7, 7, 488, 5, 7, 8, 8, 7, 8, 47, 24, 15, 4, 3, 4, 5, 11, 6, 5, 2, 3, 17, 6, 7, 3, 5, 8, 11, 6, 5, 2, 3, 17, 6, 7, 3, 9, 8, 9, 5, 8, 11, 6, 5, 2, 3, 17, 6, 7, 3, 9, 5, 8, 11, 6, 5, 2, 3, 17, 6, 7, 3, 9, 2, 5, 5, 8, 11, 6, 5, 2, 3, 17, 6, 7, 3, 9, 2, 5, 31, 2, 3, 8, 40, 7, 31, 2, 3, 8, 8, 40, 7, 31, 2, 3, 8, 8, 40, 7, 119, 3, 10, 5, 16, 4, 9, 119, 3, 10, 5, 16, 4, 9, 8, 10, 119, 3, 10, 5, 16, 4, 9, 8, 10, 1495, 8, 10, 22, 451, 1128, 4, 38, 5, 7, 34, 7, 45, 6, 14, 3, 6, 3, 7, 32, 6, 3, 7, 32, 7, 6, 3, 7, 32, 7, 50, 50, 50, 7, 6, 3, 7, 32, 7, 50, 6, 3, 7, 32, 7, 50, 6, 3, 7, 32, 7, 50, 6, 3, 7, 32, 7, 50, 8, 5, 9, 20, 10, 5, 9, 20, 10, 5, 9, 20, 10, 5, 9, 20, 10, 5, 9, 20, 10, 9, 9, 9, 9, 9, 4, 1548, 4, 1548, 4, 1548, 7, 7, 7, 8] p=0.56"]
S556 -> S413 [label="6 [23, 16, 75, 211, 3, 9, 776, 2, 5, 1930, 78, 12, 9, 6, 3, 1115, 11, 5, 21, 51, 805, 65, 3, 1500, 1423, 38, 3, 5, 1525, 4, 1542, 36, 14, 5, 1565, 39, 5, 1653, 4, 859, 23, 80, 926, 5, 13, 1087, 19, 50, 6, 5, 7, 1440, 116, 5, 5, 1614, 6, 1486, 42, 39, 1498, 21, 23, 9, 15, 1556, 6, 1405, 100, 16, 4, 1391, 3, 79, 3, 9, 1457, 39, 1561, 8, 9, 1601, 17, 1572, 6, 1599, 47, 9, 30, 2, 1580, 3, 1694, 6, 47, 4, 4, 963, 190, 64, 25, 17, 1328, 6, 3, 791, 589, 576, 22, 512, 7, 592, 29, 466, 55, 14, 13, 613, 531, 18, 85, 4, 722, 764, 763, 99, 11, 10, 166, 129, 351, 4, 20, 6, 5, 16, 211, 776, 1930, 1115, 805, 1500, 1423, 1525, 1542, 1565, 1653, 859, 926, 1087, 1440, 1614, 1486, 1498, 1556, 1405, 1391, 1457, 1561, 1601, 1572, 1599, 1580, 1694, 963, 1328, 791, 589, 576, 512, 592, 466, 613, 531, 722, 764, 763, 23, 23, 75, 75, 75, 23, 75, 23, 75, 3, 9, 2, 5, 78, 12, 9, 6, 3, 11, 5, 21, 51, 65, 3, 38, 3, 5, 4, 36, 14, 5, 39, 5, 4, 23, 80, 5, 13, 19, 50, 6, 5, 7, 116, 5, 5, 6, 42, 39, 21, 23, 9, 15, 6, 100, 16, 4, 3, 79, 3, 9, 39, 8, 9, 17, 6, 47, 9, 30, 2, 3, 6, 47, 4, 4, 190, 64, 25, 17, 6, 3, 22, 7, 29, 55, 14, 13, 18, 85, 4, 99, 11, 10, 166, 129, 351, 4, 20, 6, 5, 3, 9, 2, 5, 78, 12, 9, 6, 3, 11, 5, 21, 51, 65, 3, 38, 3, 5, 4, 36, 14, 5, 39, 5, 4, 23, 80, 5, 13, 19, 50, 6, 5, 7, 116, 5, 5, 6, 42, 39, 21, 23, 9, 15, 6, 100, 16, 4, 3, 79, 3, 9, 39, 8, 9, 17, 6, 47, 9, 30, 2, 3, 6, 47, 4, 4, 190, 64, 25, 17, 6, 3, 22, 7, 29, 55, 14, 13, 18, 85, 4, 99, 11, 10, 166, 129, 351, 4, 20, 6, 5, 75, 75, 75, 75, 3, 2, 78, 11, 65, 38, 4, 36, 39, 4, 23, 5, 19, 116, 6, 42, 21, 6, 100, 3, 39, 8, 17, 6, 47, 3, 6, 190, 6, 22, 7, 29, 55, 18, 99, 9, 5, 12, 5, 3, 3, 14, 5, 80, 13, 50, 5, 39, 23, 16, 79, 9, 9, 47, 64, 3, 14, 85, 11, 9, 5, 12, 9, 6, 3, 5, 21, 51, 3, 3, 5, 14, 5, 5, 80, 13, 50, 6, 5, 7, 5, 5, 39, 23, 9, 15, 16, 4, 79, 3, 9, 9, 9, 30, 2, 47, 4, 4, 64, 25, 17, 3, 14, 13, 85, 4, 11, 10, 166, 129, 351, 4, 20, 6, 5, 9, 5, 12, 9, 6, 3, 5, 21, 51, 3, 3, 5, 14, 5, 5, 80, 13, 50, 6, 5, 7, 5, 5, 39, 23, 9, 15, 16, 4, 79, 3, 9, 9, 9, 30, 2, 47, 4, 4, 64, 25, 17, 3, 14, 13, 85, 4, 11, 10, 166, 129, 351, 4, 20, 6, 5, 9, 21, 5, 5, 6, 5, 9, 4, 3, 30, 4, 25, 13, 4, 10, 9, 6, 3, 21, 51, 5, 5, 6, 5, 7, 5, 9, 15, 4, 3, 9, 30, 2, 4, 4, 25, 17, 13, 4, 10, 166, 129, 351, 4, 20, 6, 5, 9, 6, 3, 21, 51, 5, 5, 6, 5, 7, 5, 9, 15, 4, 3, 9, 30, 2, 4, 4, 25, 17, 13, 4, 10, 166, 129, 351, 4, 20, 6, 5, 6, 51, 5, 15, 9, 2, 4, 17, 166, 6, 3, 51, 5, 7, 15, 9, 2, 4, 17, 166, 129, 351, 4, 20, 6, 5, 6, 3, 51, 5, 7, 15, 9, 2, 4, 17, 166, 129, 351, 4, 20, 6, 5, 3, 7, 129, 351, 4, 20, 6, 5, 211, 776, 1500, 1694, 589, 512, 592, 613, 763, 3, 2, 6, 7, 29, 99, 9, 5, 47, 11, 4, 10, 16, 16, 16, 16, 16, 1930, 1115, 805, 1423, 1525, 1542, 1565, 1653, 859, 926, 1087, 1440, 1614, 1486, 1498, 1556, 1405, 1391, 1457, 1561, 1601, 1572, 1599, 1580, 963, 1328, 791, 576, 466, 531, 722, 764, 1930, 1115, 805, 1423, 1525, 1542, 1565, 1653, 859, 926, 1087, 1440, 1614, 1486, 1498, 1556, 1405, 1391, 1457, 1561, 1601, 1572, 1599, 1580, 963, 1328, 791, 576, 466, 531, 722, 764, 1930, 1115, 805, 1525, 1542, 1565, 1498, 1556, 1405, 1391, 1457, 1572, 1599, 791, 466, 722, 764, 1423, 1653, 859, 926, 1087, 1440, 1614, 1486, 1561, 1601, 1580, 963, 1328, 576, 531, 1423, 1653, 859, 926, 1087, 1440, 1614, 1486, 1561, 1601, 1580, 963, 1328, 576, 531, 1653, 1561, 1580, 576, 78, 11, 65, 4, 36, 39, 21, 6, 100, 3, 39, 6, 47, 55, 78, 11, 65, 38, 4, 36, 39, 4, 23, 5, 19, 116, 6, 42, 21, 6, 100, 3, 39, 8, 17, 6, 47, 3, 190, 6, 22, 55, 18, 78, 11, 65, 38, 4, 36, 39, 4, 23, 5, 19, 116, 6, 42, 21, 6, 100, 3, 39, 8, 17, 6, 47, 3, 190, 6, 22, 55, 18, 1423, 1440, 1486, 1601, 1328, 531, 1423, 859, 926, 1087, 1440, 1614, 1486, 1601, 963, 1328, 531, 1423, 859, 926, 1087, 1440, 1614, 1486, 1601, 963, 1328, 531, 38, 4, 23, 5, 19, 116, 6, 42, 8, 17, 3, 190, 6, 22, 18, 38, 4, 23, 5, 19, 116, 6, 42, 8, 17, 3, 190, 6, 22, 18, 4, 8, 3, 22, 12, 5, 3, 14, 5, 23, 16, 79, 9, 14, 12, 5, 3, 3, 14, 5, 80, 13, 50, 5, 39, 23, 16, 79, 9, 9, 64, 3, 14, 85, 12, 5, 3, 3, 14, 5, 80, 13, 50, 5, 39, 23, 16, 79, 9, 9, 64, 3, 14, 85, 38, 23, 5, 19, 116, 6, 42, 17, 190, 6, 18, 38, 23, 5, 19, 116, 6, 42, 17, 190, 6, 18, 859, 926, 1087, 1614, 963, 859, 926, 1087, 1614, 963, 3, 80, 13, 50, 5, 39, 9, 64, 3, 85, 3, 80, 13, 50, 5, 39, 9, 64, 3, 85, 9, 21, 5, 5, 6, 5, 9, 4, 3, 30, 25, 13, 4, 9, 21, 5, 5, 6, 5, 9, 4, 3, 30, 25, 13, 4, 211, 613, 211, 613, 211, 613, 211, 776, 613, 776, 211, 776, 613, 776, 776, 211, 776, 613, 211, 776, 1500, 592, 613, 763, 1500, 592, 763, 1500, 592, 1500, 592, 1930, 1115, 805, 1525, 1542, 1565, 1556, 1457, 1599, 791, 722, 1930, 1115, 805, 1525, 1542, 1565, 1498, 1556, 1405, 1391, 1457, 1599, 791, 722, 764, 1498, 1405, 1391, 1498, 1405, 1391, 1498, 1405, 1391, 764, 764, 764, 1498, 1405, 1391, 764, 3, 3, 2, 2, 3, 2, 3, 2, 3, 2, 29, 99, 29, 99, 1115, 1525, 791, 1115, 1525, 1565, 1556, 791, 722, 1565, 1556, 722, 1565, 1556, 722, 29, 29, 78, 11, 65, 4, 36, 39, 6, 39, 47, 78, 11, 65, 4, 36, 39, 21, 6, 100, 3, 39, 47, 21, 100, 3, 21, 100, 3, 9, 5, 9, 5, 9, 5, 11, 11, 11, 4, 39, 6, 1561, 1580, 1561, 1580, 1500, 1500, 1561, 1423, 1440, 1486, 1328, 531, 12, 5, 3, 14, 5, 23, 16, 79, 9, 10, 8, 3, 1115, 763, 763, 763, 763, 763, 592, 592, 592, 1930, 805, 1542, 1457, 1599, 1930, 805, 1542, 1457, 1599, 1930, 805, 1542, 1457, 1599, 99, 99, 99, 29, 78, 65, 36, 39, 47, 11, 1525, 791, 1580, 1500, 1694, 512, 1694, 512, 1694, 512, 1694, 589, 512, 589, 1694, 589, 512, 589, 589, 1694, 589, 512, 1694, 589, 512, 1572, 466, 1572, 466, 1572, 466, 1572, 466, 1572, 466, 6, 7, 6, 7, 6, 7, 6, 7, 6, 7, 1653, 576, 1653, 576, 1653, 576, 6, 55, 6, 55, 6, 55, 47, 47, 47, 4, 22, 1601, 14, 4] p=0.44"]
S640 -> S813 [label="9 [8, 8, 8, 6, 8, 6, 6, 8, 6, 8, 6, 8, 7, 5, 6, 7, 5, 6, 4, 7, 5, 7, 5, 6, 4, 7, 8, 7, 5, 7, 4, 8, 4, 7, 6, 5, 5, 8, 4, 6, 5, 6, 7, 8, 9, 7, 7, 5, 8, 4, 4, 5, 5, 5, 7, 5, 5, 7, 6, 6, 5, 5, 6, 7, 5, 6, 4, 6, 5, 7, 4, 8, 4, 7, 6, 5, 5, 8, 4, 6, 5, 6, 7, 8, 9, 7, 7, 5, 8, 4, 4, 5, 5, 5, 7, 5, 5, 7, 6, 6, 5, 6, 7, 5, 5, 6, 4, 7, 5, 5, 6, 4, 5, 7, 5, 6, 4, 7, 5, 6, 4, 6, 7, 5, 4, 6, 4, 7, 6, 7, 8, 7, 5, 7, 6, 9, 4, 8, 4, 7, 6, 5, 5, 8, 4, 6, 5, 6, 7, 8, 9, 7, 7, 5, 8, 4, 4, 5, 5, 5, 7, 5, 5, 5, 8, 7, 15, 108, 19, 8, 41, 7, 11, 6, 6, 5, 5, 6, 7, 5, 6, 4, 6, 6, 9, 5, 8, 7, 15, 108, 19, 8, 41, 11, 5, 7, 4, 8, 7, 6, 5, 5, 8, 4, 6, 5, 6, 7, 8, 9, 7, 7, 5, 8, 4, 4, 5, 5, 5, 7, 5, 5, 6, 5, 6, 5, 7, 4, 8, 7, 6, 5, 5, 8, 4, 6, 5, 6, 7, 8, 9, 7, 7, 5, 8, 4, 4, 5, 5, 5, 7, 5, 5, 6, 5, 6, 6, 8, 7, 7, 8, 4, 5, 5, 6, 5, 5, 8, 5, 4, 6, 8, 4, 5, 5, 7, 4, 8, 7, 5, 5, 4, 6, 5, 6, 8, 9, 7, 5, 4, 5, 7, 5, 5, 6, 5, 7, 4, 8, 7, 5, 5, 4, 6, 5, 6, 8, 9, 7, 5, 4, 5, 7, 5, 5, 6, 5, 5, 7, 4, 7, 5, 5, 6, 9, 7, 5, 5, 7, 5, 6, 7, 4, 7, 5, 5, 6, 9, 7, 5, 5, 7, 5, 6, 4, 6, 5, 7, 5, 8, 7, 5, 3, 7, 8, 27, 6, 720, 9, 2, 8, 6, 4, 7, 8, 6, 3, 4, 4, 4, 14, 7, 4, 16, 6, 2, 5, 34, 5, 8, 7, 4, 5, 6, 8, 4, 5, 5, 4, 6, 6, 1, 7, 18, 8, 9, 83, 7, 7, 5, 10, 8, 9, 5, 4, 4, 5, 14, 5, 8, 5, 7, 30, 4, 11, 5, 9, 5, 5, 3, 17, 45, 8, 28, 3, 37, 12, 126, 8, 2, 9, 6, 56, 19, 86, 12, 6, 7, 3, 8, 9, 8, 11, 15, 37, 108, 8, 8, 18, 1250, 23, 3, 109, 991, 17, 12, 936, 4, 9, 9, 7, 23, 16, 23, 6, 754, 10, 9, 14, 85, 642, 13, 9, 9, 4, 7, 4, 21, 151, 550, 12, 17, 650, 3, 19, 2, 3, 3, 8, 3, 29, 41, 6, 2, 7, 8, 5, 11, 6, 6, 5, 18, 9, 5, 6, 7, 5, 6, 6, 4, 37, 6, 4, 11, 12, 3, 8, 27, 720, 2, 8, 6, 7, 6, 3, 4, 4, 14, 4, 16, 2, 34, 7, 5, 8, 4, 5, 4, 6, 1, 18, 83, 10, 9, 5, 14, 8, 30, 4, 11, 9, 3, 17, 45, 28, 3, 37, 12, 126, 8, 2, 9, 6, 56, 19, 86, 12, 6, 3, 8, 9, 8, 11, 37, 8, 8, 18, 1250, 23, 3, 109, 991, 17, 12, 936, 4, 9, 9, 7, 23, 16, 23, 6, 754, 10, 9, 14, 85, 642, 13, 9, 9, 4, 7, 4, 21, 151, 550, 12, 17, 650, 3, 2, 3, 3, 3, 29, 6, 2, 8, 5, 18, 9, 6, 37, 4, 11, 12, 6, 108, 11, 6, 9, 5, 8, 7, 15, 108, 19, 8, 41, 11, 6, 9, 5, 8, 7, 15, 108, 19, 8, 41, 11, 9, 5, 9, 5, 8, 7, 15, 19, 8, 41, 9, 5, 8, 7, 15, 19, 8, 41, 7, 7, 7, 8, 7, 15, 19, 8, 41, 8, 7, 15, 19, 8, 41, 19, 8, 41, 6, 7, 8, 5, 6, 8, 7, 7, 8, 4, 5, 5, 6, 6, 8, 7, 7, 8, 4, 5, 5, 6, 8, 7, 15, 8, 7, 4, 5, 6, 8, 5, 4, 6, 8, 4, 5, 27, 8, 6, 3, 4, 14, 16, 4, 5, 1, 5, 4, 11, 17, 45, 3, 37, 12, 126, 8, 2, 9, 6, 56, 19, 86, 12, 6, 8, 9, 8, 11, 8, 18, 1250, 3, 109, 991, 12, 936, 9, 9, 7, 23, 16, 23, 6, 754, 9, 14, 85, 642, 9, 9, 4, 7, 4, 21, 151, 550, 17, 650, 3, 29, 2, 5, 9, 11, 12, 27, 8, 6, 3, 4, 14, 16, 34, 7, 4, 5, 1, 83, 9, 5, 4, 11, 17, 45, 3, 37, 12, 126, 8, 2, 9, 6, 56, 19, 86, 12, 6, 8, 9, 8, 11, 8, 18, 1250, 3, 109, 991, 12, 936, 9, 9, 7, 23, 16, 23, 6, 754, 9, 14, 85, 642, 9, 9, 4, 7, 4, 21, 151, 550, 17, 650, 3, 29, 2, 5, 9, 6, 4, 11, 12, 34, 83, 4, 34, 83, 4, 34, 7, 83, 9, 4, 34, 7, 83, 9, 4, 7, 9, 34, 7, 83, 9, 4, 34, 7, 83, 9, 6, 4, 6, 6, 6, 6, 6, 34, 7, 83, 9, 6, 4, 7, 9, 6, 4, 5, 11, 45, 37, 12, 126, 8, 2, 9, 6, 56, 19, 86, 12, 6, 9, 8, 11, 18, 1250, 109, 991, 936, 9, 7, 23, 16, 23, 6, 754, 14, 85, 642, 9, 4, 7, 4, 21, 151, 550, 650, 12, 6, 4, 5, 5, 11, 45, 37, 12, 126, 8, 2, 9, 6, 56, 19, 86, 12, 6, 9, 8, 11, 18, 1250, 109, 991, 936, 9, 7, 23, 16, 23, 6, 754, 14, 85, 642, 9, 4, 7, 4, 21, 151, 550, 650, 11, 12, 5, 11, 5, 11, 5, 11, 5, 11, 5, 11, 6, 108, 11, 6, 108, 11, 4, 4, 12, 126, 8, 2, 9, 6, 56, 19, 86, 12, 6, 8, 11, 1250, 991, 7, 23, 16, 23, 6, 754, 85, 642, 4, 7, 4, 21, 151, 550, 12, 126, 8, 2, 9, 6, 56, 19, 86, 12, 6, 8, 11, 1250, 991, 7, 23, 16, 23, 6, 754, 85, 642, 4, 7, 4, 21, 151, 550, 12, 12, 12, 12, 6, 11, 6, 11, 126, 8, 2, 9, 6, 56, 19, 86, 12, 6, 11, 23, 16, 23, 6, 754, 642, 7, 4, 21, 151, 550, 126, 8, 2, 9, 6, 56, 19, 86, 12, 6, 11, 23, 16, 23, 6, 754, 642, 7, 4, 21, 151, 550, 4, 4, 7, 7, 9, 9, 7, 7, 27, 3, 14, 16, 4, 1, 4, 5, 9, 27, 3, 14, 16, 4, 1, 4, 5, 9, 27, 8, 3, 14, 16, 4, 1, 4, 17, 3, 8, 2, 5, 9, 8, 17, 3, 8, 2, 27, 8, 3, 14, 16, 4, 1, 4, 17, 3, 8, 3, 12, 9, 2, 5, 9, 3, 12, 9, 8, 17, 3, 8, 2, 27, 8, 3, 14, 16, 4, 1, 4, 17, 3, 8, 8, 3, 12, 9, 9, 9, 17, 3, 29, 2, 5, 9, 3, 12, 9, 3, 12, 9, 27, 8, 3, 14, 16, 4, 1, 4, 17, 3, 8, 8, 3, 12, 9, 9, 9, 17, 3, 29, 2, 5, 9, 6, 4, 5, 11, 45, 37, 9, 6, 4, 5, 11, 45, 37, 9, 109, 936, 14, 109, 936, 14, 6, 4, 5, 11, 45, 37, 9, 18, 109, 936, 9, 14, 9, 650, 6, 4, 5, 11, 45, 37, 9, 18, 109, 936, 9, 14, 9, 650, 108, 108, 12, 8, 1250, 991, 7, 85, 4, 12, 8, 1250, 991, 7, 85, 4, 3, 8, 7, 6, 4, 2, 5, 8, 4, 6, 18, 10, 14, 8, 30, 9, 18, 3, 8, 7, 6, 4, 2, 5, 8, 4, 6, 18, 10, 14, 8, 30, 9, 18, 3, 8, 7, 6, 4, 4, 2, 5, 8, 4, 6, 18, 10, 14, 8, 30, 9, 8, 18, 3, 8, 7, 6, 4, 4, 2, 5, 8, 4, 6, 18, 10, 14, 8, 30, 9, 8, 18, 37, 37, 37, 37, 4, 8, 3, 8, 720, 2, 7, 6, 4, 4, 2, 5, 8, 4, 6, 18, 10, 14, 8, 30, 9, 3, 28, 3, 37, 6, 8, 18, 37, 720, 2, 3, 28, 3, 37, 6, 4, 3, 8, 720, 2, 7, 6, 4, 4, 2, 5, 8, 4, 6, 18, 10, 14, 8, 30, 9, 3, 28, 3, 37, 23, 17, 10, 6, 8, 18, 37, 23, 17, 10, 720, 720, 2, 3, 28, 3, 37, 6, 720, 2, 3, 28, 3, 37, 6, 2, 3, 28, 3, 37, 6, 8, 3, 8, 720, 2, 7, 6, 4, 4, 2, 5, 8, 4, 6, 18, 10, 14, 8, 30, 9, 3, 28, 3, 37, 8, 23, 17, 4, 10, 13, 12, 3, 2, 3, 3, 6, 8, 18, 37, 23, 17, 10, 23, 17, 10, 23, 17, 10, 23, 17, 10, 3, 8, 720, 2, 7, 6, 4, 4, 2, 5, 8, 4, 6, 18, 10, 14, 8, 30, 9, 3, 28, 3, 37, 8, 23, 17, 4, 10, 13, 12, 3, 2, 3, 3, 6, 8, 18, 37, 18, 9, 9, 650, 18, 9, 9, 650, 6, 6, 6, 6, 5, 5, 5, 5] p=0.48"]
S640 -> S556 [label="7 [32, 24, 99, 765, 33, 1467, 59, 659, 28, 6, 1333, 2, 1282, 7, 578, 492, 64, 6, 3, 478, 46, 570, 7, 659, 13, 707, 3, 4, 549, 111, 21, 9, 4, 5, 14, 30, 12, 624, 11, 7, 21, 16, 6, 5, 13, 4, 9, 24, 4, 699, 8, 7, 3, 6, 661, 42, 42, 4, 532, 66, 11, 9, 18, 682, 3, 8, 5, 583, 44, 480, 100, 635, 5, 591, 24, 587, 50, 648, 6, 6, 576, 66, 5, 4, 619, 3, 697, 11, 600, 74, 27, 718, 739, 36, 24, 19, 71, 12, 16, 6, 20, 19, 22, 8, 266, 1304, 5, 79, 2, 1525, 5, 8, 1527, 4, 52, 4, 6, 791, 4, 102, 61, 5, 13, 9, 8, 924, 234, 4, 11, 20, 4, 19, 6, 27, 1314, 21, 858, 272, 17, 99, 506, 86, 10, 4, 597, 37, 32, 4, 511, 8, 481, 19, 375, 330, 30, 30, 1000, 328, 175, 9, 98, 150, 18, 4, 5, 357, 4, 504, 24, 538, 579, 3, 24, 99, 765, 1467, 659, 1333, 1282, 578, 492, 478, 570, 659, 707, 549, 624, 699, 661, 532, 682, 583, 480, 635, 591, 587, 648, 576, 619, 697, 600, 718, 739, 1304, 1525, 1527, 791, 924, 1314, 858, 506, 597, 511, 481, 375, 330, 1000, 328, 175, 98, 150, 357, 504, 538, 579, 32, 32, 32, 32, 32, 33, 59, 28, 6, 2, 7, 64, 6, 3, 46, 7, 13, 3, 4, 111, 21, 9, 4, 5, 14, 30, 12, 11, 7, 21, 16, 6, 5, 13, 4, 9, 24, 4, 8, 7, 3, 6, 42, 42, 4, 66, 11, 9, 18, 3, 8, 5, 44, 100, 5, 24, 50, 6, 6, 66, 5, 4, 3, 11, 74, 27, 36, 24, 19, 71, 12, 16, 6, 20, 19, 22, 8, 266, 5, 79, 2, 5, 8, 4, 52, 4, 6, 4, 102, 61, 5, 13, 9, 8, 234, 4, 11, 20, 4, 19, 6, 27, 21, 272, 17, 99, 86, 10, 4, 37, 32, 4, 8, 19, 30, 30, 9, 18, 4, 5, 4, 24, 3, 33, 59, 28, 6, 2, 7, 64, 6, 3, 46, 7, 13, 3, 4, 111, 21, 9, 4, 5, 14, 30, 12, 11, 7, 21, 16, 6, 5, 13, 4, 9, 24, 4, 8, 7, 3, 6, 42, 42, 4, 66, 11, 9, 18, 3, 8, 5, 44, 100, 5, 24, 50, 6, 6, 66, 5, 4, 3, 11, 74, 27, 36, 24, 19, 71, 12, 16, 6, 20, 19, 22, 8, 266, 5, 79, 2, 5, 8, 4, 52, 4, 6, 4, 102, 61, 5, 13, 9, 8, 234, 4, 11, 20, 4, 19, 6, 27, 21, 272, 17, 99, 86, 10, 4, 37, 32, 4, 8, 19, 30, 30, 9, 18, 4, 5, 4, 24, 3, 33, 59, 28, 2, 7, 64, 46, 7, 13, 3, 111, 11, 8, 42, 66, 3, 44, 100, 5, 24, 50, 6, 66, 3, 11, 74, 36, 5, 5, 4, 4, 234, 21, 272, 86, 37, 8, 19, 30, 9, 18, 4, 24, 3, 6, 6, 4, 21, 7, 7, 42, 11, 8, 6, 5, 27, 24, 79, 8, 52, 102, 4, 17, 10, 32, 30, 4, 6, 6, 3, 4, 21, 9, 4, 5, 14, 30, 12, 7, 21, 16, 6, 5, 13, 4, 9, 24, 4, 7, 3, 6, 42, 4, 11, 9, 18, 8, 5, 6, 5, 4, 27, 24, 19, 71, 12, 16, 6, 20, 19, 22, 8, 266, 79, 2, 8, 52, 4, 6, 102, 61, 5, 13, 9, 8, 4, 11, 20, 4, 19, 6, 27, 17, 99, 10, 4, 32, 4, 30, 4, 5, 6, 6, 3, 4, 21, 9, 4, 5, 14, 30, 12, 7, 21, 16, 6, 5, 13, 4, 9, 24, 4, 7, 3, 6, 42, 4, 11, 9, 18, 8, 5, 6, 5, 4, 27, 24, 19, 71, 12, 16, 6, 20, 19, 22, 8, 266, 79, 2, 8, 52, 4, 6, 102, 61, 5, 13, 9, 8, 4, 11, 20, 4, 19, 6, 27, 17, 99, 10, 4, 32, 4, 30, 4, 5, 3, 9, 21, 3, 4, 9, 5, 4, 19, 2, 4, 61, 11, 99, 4, 4, 5, 3, 9, 4, 5, 14, 30, 12, 21, 16, 6, 5, 13, 4, 9, 24, 4, 3, 6, 4, 9, 18, 5, 4, 19, 71, 12, 16, 6, 20, 19, 22, 8, 266, 2, 4, 6, 61, 5, 13, 9, 8, 11, 20, 4, 19, 6, 27, 99, 4, 4, 5, 3, 9, 4, 5, 14, 30, 12, 21, 16, 6, 5, 13, 4, 9, 24, 4, 3, 6, 4, 9, 18, 5, 4, 19, 71, 12, 16, 6, 20, 19, 22, 8, 266, 2, 4, 6, 61, 5, 13, 9, 8, 11, 20, 4, 19, 6, 27, 99, 4, 4, 5, 4, 16, 6, 18, 71, 6, 5, 20, 4, 5, 14, 30, 12, 16, 6, 5, 13, 4, 9, 24, 4, 6, 18, 71, 12, 16, 6, 20, 19, 22, 8, 266, 6, 5, 13, 9, 8, 20, 4, 19, 6, 27, 4, 5, 14, 30, 12, 16, 6, 5, 13, 4, 9, 24, 4, 6, 18, 71, 12, 16, 6, 20, 19, 22, 8, 266, 6, 5, 13, 9, 8, 20, 4, 19, 6, 27, 5, 14, 30, 12, 6, 5, 13, 4, 9, 24, 4, 12, 16, 6, 20, 19, 22, 8, 266, 13, 9, 8, 4, 19, 6, 27, 24, 98, 24, 98, 24, 98, 24, 98, 24, 99, 98, 150, 504, 99, 150, 504, 150, 24, 99, 583, 635, 591, 98, 150, 504, 583, 635, 591, 99, 504, 99, 504, 99, 504, 150, 24, 99, 583, 635, 591, 98, 150, 504, 583, 635, 591, 583, 635, 591, 635, 583, 591, 583, 591, 150, 24, 99, 765, 1467, 659, 1333, 1282, 578, 492, 478, 570, 659, 549, 624, 699, 661, 532, 682, 583, 480, 635, 591, 587, 648, 697, 600, 739, 1304, 1527, 791, 924, 1314, 858, 506, 597, 511, 481, 328, 98, 150, 357, 504, 538, 579, 765, 1467, 659, 1333, 1282, 578, 492, 478, 570, 659, 549, 624, 699, 661, 532, 682, 480, 587, 648, 697, 600, 739, 1304, 1527, 791, 924, 1314, 858, 506, 597, 511, 481, 328, 357, 538, 579, 635, 1467, 1333, 578, 492, 478, 699, 532, 648, 739, 1527, 791, 924, 597, 511, 481, 328, 579, 1467, 1333, 578, 492, 478, 659, 549, 699, 532, 480, 648, 739, 1527, 791, 924, 597, 511, 481, 328, 357, 579, 659, 549, 480, 659, 549, 480, 659, 549, 480, 659, 549, 480, 357, 357, 357, 357, 659, 549, 480, 357, 33, 59, 28, 2, 7, 64, 46, 7, 13, 111, 11, 8, 42, 66, 3, 100, 50, 6, 11, 74, 36, 5, 4, 4, 234, 21, 272, 86, 37, 8, 19, 4, 3, 33, 59, 28, 2, 7, 64, 46, 7, 13, 111, 11, 8, 42, 66, 3, 44, 100, 5, 24, 50, 6, 11, 74, 36, 5, 4, 4, 234, 21, 272, 86, 37, 8, 19, 18, 4, 24, 3, 44, 5, 24, 44, 5, 24, 44, 5, 24, 44, 5, 24, 18, 24, 18, 18, 24, 18, 24, 24, 44, 5, 24, 18, 24, 59, 2, 64, 46, 8, 66, 6, 36, 4, 4, 234, 37, 8, 19, 3, 59, 2, 64, 46, 13, 111, 8, 66, 100, 6, 36, 4, 4, 234, 37, 8, 19, 4, 3, 13, 111, 100, 13, 111, 100, 4, 4, 13, 111, 100, 4, 6, 6, 21, 7, 7, 42, 11, 8, 6, 27, 24, 79, 52, 102, 4, 17, 10, 32, 6, 6, 21, 7, 7, 42, 11, 8, 6, 27, 24, 79, 52, 102, 4, 17, 10, 32, 4, 4, 4, 4, 1333, 578, 699, 739, 1527, 791, 924, 579, 1333, 578, 699, 648, 739, 1527, 791, 924, 579, 648, 648, 648, 6, 7, 11, 6, 24, 52, 102, 4, 32, 6, 21, 7, 11, 6, 24, 52, 102, 4, 32, 21, 791, 924, 791, 924, 579, 579, 3, 9, 21, 3, 4, 9, 5, 19, 2, 4, 61, 11, 99, 4, 4, 3, 9, 21, 3, 4, 9, 5, 19, 2, 4, 61, 11, 99, 4, 4, 5, 5, 2, 8, 36, 4, 4, 234, 3, 2, 8, 6, 36, 4, 4, 234, 3, 6, 765, 1282, 570, 624, 661, 682, 587, 697, 600, 1304, 765, 1282, 570, 624, 661, 682, 587, 697, 600, 1304, 538, 538, 765, 659, 1282, 570, 624, 661, 682, 587, 697, 600, 1304, 1314, 538, 659, 1314, 765, 659, 1282, 570, 624, 661, 682, 587, 697, 600, 1304, 1314, 538, 659, 1314, 765, 659, 1282, 570, 624, 661, 682, 587, 697, 600, 1304, 1314, 858, 506, 538, 765, 659, 1282, 570, 624, 661, 682, 587, 697, 600, 1304, 1314, 858, 506, 538, 1467, 492, 478, 532, 511, 481, 328, 1467, 492, 478, 532, 511, 481, 328, 1467, 492, 478, 532, 597, 511, 481, 328, 1467, 492, 478, 532, 597, 511, 481, 328, 33, 28, 7, 7, 11, 42, 3, 50, 11, 74, 5, 21, 33, 28, 7, 7, 11, 42, 3, 50, 11, 74, 5, 21, 33, 28, 7, 7, 11, 42, 3, 50, 11, 74, 5, 21, 272, 86, 33, 28, 7, 7, 11, 42, 3, 50, 11, 74, 5, 21, 272, 86, 59, 64, 46, 66, 37, 8, 19, 59, 64, 46, 66, 37, 8, 19, 6, 7, 42, 8, 27, 79, 17, 10, 6, 7, 42, 8, 27, 79, 17, 10, 1333, 578, 699, 739, 1527, 1333, 578, 699, 739, 1527, 707, 576, 619, 718, 1525, 1000, 707, 576, 619, 718, 1525, 1000, 707, 576, 619, 718, 1525, 330, 1000, 707, 576, 619, 718, 1525, 330, 1000, 175, 175, 175, 175, 330, 707, 576, 619, 718, 1525, 375, 330, 1000, 175, 375, 330, 707, 576, 619, 718, 1525, 375, 330, 1000, 175, 375, 375, 375, 707, 576, 619, 718, 1525, 375, 330, 1000, 175, 707, 576, 619, 718, 1525, 375, 330, 1000, 175, 597, 597, 3, 66, 3, 5, 30, 3, 66, 3, 5, 30, 9, 9, 3, 66, 3, 5, 30, 9, 3, 66, 3, 5, 30, 9, 3, 66, 3, 5, 30, 9, 3, 66, 3, 5, 30, 9, 4, 5, 8, 30, 4, 5, 8, 30, 4, 5, 8, 30, 4, 5, 8, 30, 4, 4] p=0.52"]
S813 -> S974 [label="10 [31, 21, 22, 14, 13, 18, 16, 31, 11, 14, 21, 14, 22, 14, 13, 13, 15, 18, 18, 15, 16, 15, 16, 31, 11, 14, 21, 14, 22, 14, 13, 13, 15, 18, 18, 15, 16, 15, 16, 31, 11, 14, 21, 14, 20, 22, 14, 13, 13, 15, 14, 18, 18, 17, 15, 15, 16, 16, 15, 16, 30, 16, 31, 11, 14, 21, 14, 20, 22, 14, 13, 13, 15, 14, 18, 18, 17, 15, 15, 16, 16, 15, 16, 30, 16, 20, 14, 17, 15, 16, 30, 16, 31, 11, 14, 21, 25, 14, 20, 22, 14, 13, 13, 15, 14, 18, 18, 17, 15, 15, 16, 16, 15, 16, 17, 19, 30, 16, 31, 11, 14, 21, 25, 14, 20, 22, 14, 13, 13, 15, 14, 18, 18, 17, 15, 15, 16, 16, 15, 16, 17, 19, 30, 16, 15, 13, 15, 13, 15, 13, 15, 15, 13, 15, 13, 13, 13, 25, 17, 19, 31, 11, 14, 14, 14, 21, 25, 14, 20, 22, 14, 13, 13, 15, 14, 18, 18, 17, 15, 15, 16, 16, 15, 16, 14, 12, 13, 12, 18, 13, 13, 17, 17, 15, 19, 30, 16, 15, 13, 14, 14, 14, 12, 13, 12, 18, 13, 13, 17, 15, 15, 11, 14, 14, 13, 15, 18, 15, 16, 15, 25, 19, 16, 31, 11, 14, 14, 14, 21, 25, 14, 20, 22, 14, 13, 13, 15, 14, 18, 18, 17, 15, 15, 16, 16, 15, 16, 14, 12, 13, 12, 18, 16, 16, 17, 18, 18, 20, 18, 13, 56, 13, 17, 17, 15, 19, 30, 16, 15, 13, 16, 16, 17, 18, 18, 20, 18, 56, 14, 18, 15, 14, 14, 14, 12, 13, 12, 18, 13, 13, 17, 15, 14, 14, 14, 12, 13, 12, 18, 13, 13, 17, 15, 14, 14, 14, 14, 12, 13, 12, 13, 13, 17, 14, 14, 12, 13, 12, 13, 13, 17, 17, 17, 17, 12, 13, 12, 13, 13, 17, 12, 13, 12, 13, 13, 17, 20, 14, 17, 15, 16, 30, 20, 14, 17, 15, 16, 30, 31, 11, 14, 14, 14, 21, 25, 14, 20, 22, 14, 13, 13, 15, 14, 18, 18, 17, 15, 15, 16, 16, 15, 16, 14, 12, 13, 12, 18, 10, 16, 16, 17, 21, 18, 18, 4, 7, 10, 20, 66, 18, 7, 7, 1196, 5, 1677, 13, 6, 56, 4, 13, 8, 17, 17, 15, 19, 30, 16, 15, 13, 16, 16, 17, 18, 18, 20, 18, 56, 16, 16, 17, 18, 18, 20, 18, 56, 16, 16, 17, 18, 18, 20, 18, 16, 16, 17, 18, 18, 20, 18, 14, 18, 15, 14, 18, 15, 25, 25, 16, 16, 18, 18, 20, 16, 16, 18, 18, 20, 14, 15, 18, 18, 20, 25, 17, 14, 56, 56, 17, 17, 18, 17, 18, 18, 16, 16, 18, 19, 19, 19, 14, 16] p=0.29"]
S813 -> S640 [label="8 [26, 89, 316, 61, 900, 2, 7, 1237, 7, 1174, 10, 33, 4, 884, 14, 527, 48, 16, 17, 438, 5, 8, 285, 60, 19, 346, 20, 557, 8, 559, 680, 77, 669, 67, 627, 6, 6, 3, 578, 10, 614, 7, 14, 498, 43, 598, 561, 6, 565, 459, 420, 18, 491, 4, 8, 548, 561, 529, 3, 626, 20, 708, 799, 7, 5, 4, 871, 87, 929, 1257, 21, 18, 4, 1463, 16, 3, 55, 4, 16, 4, 18, 7, 25, 26, 6, 8, 49, 7, 2246, 19, 7, 87, 8, 19, 2399, 14, 2532, 10, 18, 2, 2513, 52, 33, 4, 2581, 110, 8, 2708, 14, 31, 4, 5, 29, 4, 24, 4, 2710, 26, 39, 35, 4, 2717, 10, 55, 16, 3, 6, 12, 19, 4, 2811, 30, 65, 2249, 5, 1464, 41, 1644, 59, 925, 9, 10, 1577, 5, 6, 812, 19, 3, 1529, 488, 520, 270, 4, 5, 61, 77, 54, 89, 10, 119, 200, 2, 433, 14, 13, 4, 26, 26, 77, 26, 77, 77, 26, 77, 26, 77, 26, 89, 77, 54, 89, 119, 89, 54, 89, 119, 54, 26, 89, 557, 680, 598, 561, 565, 459, 491, 77, 54, 89, 119, 433, 557, 680, 598, 561, 565, 459, 491, 433, 89, 89, 119, 89, 89, 119, 89, 89, 119, 89, 89, 119, 54, 26, 89, 557, 680, 598, 561, 565, 459, 491, 77, 54, 89, 119, 433, 557, 680, 598, 561, 565, 459, 491, 433, 557, 680, 598, 561, 565, 459, 491, 433, 680, 565, 491, 557, 598, 561, 459, 433, 557, 598, 561, 459, 433, 598, 557, 561, 459, 433, 54, 26, 89, 61, 2, 7, 7, 10, 33, 4, 14, 48, 16, 17, 5, 8, 60, 19, 20, 557, 8, 680, 77, 67, 6, 6, 3, 10, 7, 14, 43, 598, 561, 6, 565, 459, 18, 491, 4, 8, 3, 20, 7, 5, 4, 87, 21, 18, 4, 16, 3, 55, 4, 16, 4, 18, 7, 25, 26, 6, 8, 49, 7, 19, 7, 87, 8, 19, 14, 10, 18, 2, 52, 33, 4, 110, 8, 14, 31, 4, 5, 29, 4, 24, 4, 26, 39, 35, 4, 10, 55, 16, 3, 6, 12, 19, 4, 30, 65, 5, 41, 59, 9, 10, 5, 6, 19, 3, 4, 5, 77, 54, 89, 10, 119, 2, 433, 14, 13, 4, 61, 2, 7, 7, 10, 33, 4, 14, 48, 16, 17, 5, 8, 60, 19, 20, 8, 77, 67, 6, 6, 3, 10, 7, 14, 43, 6, 18, 4, 8, 3, 20, 7, 5, 4, 87, 21, 18, 4, 16, 3, 55, 4, 16, 4, 18, 7, 25, 26, 6, 8, 49, 7, 19, 7, 87, 8, 19, 14, 10, 18, 2, 52, 33, 4, 110, 8, 14, 31, 4, 5, 29, 4, 24, 4, 26, 39, 35, 4, 10, 55, 16, 3, 6, 12, 19, 4, 30, 65, 5, 41, 59, 9, 10, 5, 6, 19, 3, 4, 5, 10, 2, 14, 13, 4, 680, 565, 491, 680, 565, 491, 7, 33, 4, 16, 17, 8, 19, 6, 3, 14, 8, 5, 4, 18, 4, 3, 55, 4, 16, 4, 18, 7, 25, 26, 6, 8, 49, 7, 7, 87, 8, 19, 18, 2, 33, 4, 8, 31, 4, 5, 29, 4, 24, 4, 39, 35, 4, 55, 16, 3, 6, 12, 19, 4, 65, 10, 6, 3, 5, 13, 4, 7, 33, 4, 16, 17, 8, 19, 8, 77, 6, 3, 14, 6, 4, 8, 5, 4, 18, 4, 3, 55, 4, 16, 4, 18, 7, 25, 26, 6, 8, 49, 7, 7, 87, 8, 19, 18, 2, 33, 4, 8, 31, 4, 5, 29, 4, 24, 4, 39, 35, 4, 55, 16, 3, 6, 12, 19, 4, 65, 10, 6, 3, 5, 10, 14, 13, 4, 8, 6, 14, 8, 77, 6, 4, 14, 8, 77, 6, 4, 14, 77, 4, 8, 77, 6, 4, 14, 8, 77, 6, 4, 10, 14, 10, 10, 10, 10, 8, 77, 6, 4, 10, 14, 4, 17, 3, 4, 4, 55, 4, 16, 4, 18, 7, 25, 26, 6, 8, 49, 7, 87, 8, 19, 2, 4, 4, 5, 29, 4, 24, 4, 35, 4, 16, 3, 6, 12, 19, 4, 4, 4, 17, 3, 8, 4, 4, 55, 4, 16, 4, 18, 7, 25, 26, 6, 8, 49, 7, 87, 8, 19, 2, 4, 4, 5, 29, 4, 24, 4, 35, 4, 16, 3, 6, 12, 19, 4, 13, 4, 8, 13, 8, 13, 8, 13, 8, 13, 4, 16, 4, 18, 7, 25, 26, 6, 8, 49, 7, 8, 19, 5, 29, 4, 24, 4, 4, 3, 6, 12, 19, 4, 4, 16, 4, 18, 7, 25, 26, 6, 8, 49, 7, 8, 19, 5, 29, 4, 24, 4, 4, 3, 6, 12, 19, 4, 4, 4, 4, 16, 4, 18, 7, 25, 26, 6, 8, 49, 7, 19, 29, 4, 24, 4, 6, 12, 19, 4, 54, 7, 16, 8, 19, 6, 14, 5, 3, 5, 7, 33, 16, 8, 19, 6, 14, 5, 18, 3, 7, 6, 3, 5, 33, 18, 3, 7, 6, 7, 33, 16, 8, 19, 6, 14, 5, 18, 3, 7, 33, 8, 39, 6, 3, 5, 33, 8, 39, 7, 33, 16, 8, 19, 6, 14, 5, 18, 3, 7, 18, 33, 8, 31, 39, 55, 65, 10, 6, 3, 5, 33, 8, 39, 7, 33, 16, 8, 19, 6, 14, 5, 18, 3, 7, 18, 33, 8, 31, 39, 55, 65, 10, 6, 3, 5, 4, 17, 3, 4, 4, 55, 87, 4, 35, 4, 17, 3, 4, 4, 55, 87, 2, 4, 4, 35, 16, 4, 17, 3, 4, 4, 55, 87, 2, 4, 4, 35, 16, 4, 8, 5, 4, 3, 61, 2, 14, 48, 60, 20, 67, 6, 10, 7, 43, 18, 3, 20, 7, 87, 4, 61, 2, 14, 48, 5, 60, 20, 67, 6, 10, 7, 43, 18, 3, 20, 7, 87, 19, 4, 61, 2, 14, 48, 5, 60, 20, 67, 6, 10, 7, 43, 18, 3, 20, 7, 87, 19, 4, 2, 2, 2, 5, 19, 61, 2, 7, 10, 14, 48, 5, 60, 20, 67, 6, 10, 7, 43, 18, 3, 20, 7, 87, 21, 16, 19, 14, 5, 19, 4, 2, 7, 10, 21, 16, 19, 14, 5, 61, 2, 7, 10, 14, 48, 5, 60, 20, 67, 6, 10, 7, 43, 18, 3, 20, 7, 87, 21, 16, 19, 14, 52, 110, 26, 5, 19, 4, 2, 52, 110, 26, 7, 10, 21, 16, 19, 14, 5, 7, 10, 21, 16, 19, 14, 5, 61, 2, 7, 10, 14, 48, 5, 60, 20, 67, 6, 10, 7, 43, 18, 3, 20, 7, 87, 21, 16, 19, 14, 10, 52, 110, 14, 26, 10, 30, 5, 41, 59, 9, 5, 19, 4, 2, 52, 110, 26, 52, 110, 26, 52, 110, 26, 61, 2, 7, 10, 14, 48, 5, 60, 20, 67, 6, 10, 7, 43, 18, 3, 20, 7, 87, 21, 16, 19, 14, 10, 52, 110, 14, 26, 10, 30, 5, 41, 59, 9, 5, 19, 4, 2, 2, 4, 16] p=0.71"]
S974 -> S979 [label="9 [16, 61, 59, 27, 35, 30, 55, 83, 61, 46, 26, 37, 75, 48, 52, 114, 16, 61, 59, 27, 35, 30, 55, 83, 61, 46, 26, 37, 75, 48, 52, 114, 16, 61, 59, 27, 35, 24, 30, 55, 83, 61, 46, 63, 26, 37, 28, 60, 75, 37, 48, 52, 114, 28, 26, 16, 61, 59, 27, 35, 24, 30, 55, 83, 61, 46, 63, 26, 37, 28, 60, 75, 37, 48, 52, 114, 28, 26, 24, 63, 28, 60, 37, 28, 26, 16, 61, 59, 27, 11, 35, 24, 30, 55, 83, 61, 46, 63, 26, 37, 28, 60, 75, 37, 48, 52, 114, 93, 15, 28, 26, 16, 61, 59, 27, 11, 35, 24, 30, 55, 83, 61, 46, 63, 26, 37, 28, 60, 75, 37, 48, 52, 114, 93, 15, 28, 26, 24, 41, 24, 41, 24, 41, 24, 24, 41, 24, 41, 41, 11, 93, 15, 16, 61, 89, 122, 59, 27, 11, 35, 24, 30, 55, 83, 61, 46, 63, 26, 37, 28, 60, 75, 37, 48, 52, 114, 105, 146, 137, 278, 324, 348, 163, 191, 93, 55, 15, 28, 26, 24, 41, 89, 122, 105, 146, 137, 278, 324, 348, 163, 191, 55, 11, 15, 26, 16, 61, 89, 122, 59, 27, 11, 35, 24, 30, 55, 83, 61, 46, 63, 26, 37, 28, 60, 75, 37, 48, 52, 114, 105, 146, 137, 278, 324, 445, 525, 536, 604, 574, 641, 348, 507, 163, 191, 93, 55, 15, 28, 26, 24, 41, 445, 525, 536, 604, 574, 641, 507, 89, 324, 55, 89, 122, 105, 146, 137, 278, 324, 348, 163, 191, 55, 89, 122, 105, 146, 137, 278, 324, 348, 163, 191, 55, 122, 105, 122, 105, 146, 137, 278, 348, 163, 191, 122, 105, 146, 137, 278, 348, 163, 191, 93, 93, 93, 146, 137, 278, 348, 163, 191, 24, 63, 28, 60, 37, 28, 16, 61, 89, 122, 59, 27, 11, 35, 24, 30, 55, 83, 61, 46, 63, 26, 37, 28, 60, 75, 37, 48, 52, 114, 105, 146, 137, 278, 324, 4, 445, 525, 536, 11, 604, 574, 3, 4, 31, 641, 3, 42, 9, 1597, 20, 800, 348, 4, 507, 5, 163, 6, 191, 93, 55, 15, 28, 26, 24, 41, 445, 525, 536, 604, 574, 641, 507, 445, 525, 536, 604, 574, 641, 507, 445, 525, 536, 604, 574, 641, 445, 525, 536, 604, 574, 641, 89, 324, 55, 89, 324, 55, 11, 11, 445, 525, 604, 574, 641, 445, 525, 604, 574, 641, 16, 61, 89, 122, 59, 27, 11, 35, 24, 30, 55, 83, 61, 46, 63, 26, 37, 28, 60, 75, 37, 48, 52, 114, 105, 146, 137, 278, 324, 4, 445, 525, 536, 11, 604, 574, 3, 4, 31, 641, 3, 626, 42, 9, 1597, 20, 800, 348, 4, 507, 5, 163, 6, 191, 93, 55, 15, 28, 26, 24, 41, 507, 507, 536, 536, 15, 15] p=0.98"]
S974 -> S1707 [label="11 [27, 27, 27, 27, 27, 27, 27, 27, 27, 27] p=0.02"]
S10 -> S11 [label="4 [9, 9, 9, 9, 9, 9, 9, 9, 9, 9, 9, 9, 9, 11, 9, 12, 9, 11, 12, 11, 12, 11, 12, 12, 11, 9, 11, 9, 12, 9, 9, 11, 9, 12, 9, 9, 11, 9, 12, 9, 9, 11, 9, 12, 9, 12, 11, 16, 12, 11, 16, 12, 11, 16, 12, 11, 16, 11, 11, 11, 11, 11, 12, 16, 16, 9, 11, 9, 2, 12, 9, 12, 4, 82, 11, 6, 33, 3, 16, 2, 15, 5, 12, 2777, 1641, 2, 5, 5, 22, 62, 95, 42, 393, 12, 12, 12, 12, 16, 16, 16] p=0.56"]
S10 -> S1 [label="2 [525, 5, 472, 4, 97, 531, 40, 4, 681, 40, 1005, 58, 1970, 17, 37, 3, 4, 2168, 2, 5, 4, 97, 40, 4, 40, 58, 17, 37, 3, 4, 2, 5, 4, 97, 40, 4, 40, 58, 17, 37, 3, 4, 2, 97, 4, 37, 3, 4, 97, 4, 37, 3, 4, 3, 4, 3, 4, 4, 4, 97, 4, 37, 3, 4, 97, 4, 37, 3, 97, 97, 97, 4, 4, 37, 4, 37, 3, 37] p=0.44"]
S11 -> S22 [label="3 [92, 92, 86, 86, 92, 86, 92, 56, 86, 112, 56, 112, 56, 112, 56, 112, 92, 56, 86, 112, 92, 56, 86, 112, 92, 56, 86, 112, 92, 56, 86, 112, 92, 56, 86, 6, 112, 14, 5, 43, 5, 6, 44, 76, 8, 13, 99, 121, 3, 10, 4, 4, 3, 92, 56, 86, 6, 112, 77, 390, 14, 5, 673, 43, 5, 6, 1054, 44, 76, 8, 13, 2150, 2601, 99, 121, 3, 10, 4, 4, 3, 77, 390, 673, 1054, 2150, 2601, 1054, 2150, 77, 390, 673, 390, 673, 390, 673, 390, 673, 673, 673, 390, 77, 390, 673, 390, 77, 390, 673, 2601, 2601, 2601, 2601, 1054, 1054, 1054, 1054, 1054, 2150, 1054, 2150, 1054, 2150, 2601, 2601, 2601, 2601, 77, 77, 77, 77, 77] p=0.53"]
S11 -> S227 [label="5 [13, 13, 13, 13, 13, 13, 13, 13, 14, 13, 13, 14, 13, 13, 14, 13, 13, 14, 13, 13, 13, 13, 13, 13, 14, 13, 13, 13, 14, 13, 13, 14, 13, 15, 14, 13, 14, 13, 13, 14, 13, 6, 15, 2810, 6, 15, 1659, 2, 3, 6, 2810, 6, 15, 1659, 2, 3, 6, 2810, 6, 2, 15, 3, 15, 1659, 3, 15, 1659, 3, 14, 14, 1659, 1659, 1659, 6, 2810, 6, 2, 2810, 6, 2, 6, 2810, 2, 2810, 2, 2, 15, 15, 3, 15, 3, 2810, 2810, 3, 3, 3, 1659, 1659, 1659, 2810, 6, 6, 6, 6, 6, 6, 6, 6, 15, 15, 2, 2, 13, 13] p=0.47"]
S227 -> S11 [label="4 [36, 32, 44, 81, 284, 455, 58, 917, 1640, 56, 8, 1336, 107, 81, 284, 455, 917, 1640, 1336, 36, 32, 44, 32, 44, 32, 44, 32, 44, 44, 44, 44, 32, 36, 32, 44, 32, 36, 32, 44, 58, 56, 8, 107, 58, 56, 8, 107, 58, 56, 107, 8, 8, 8, 32, 455, 58, 81, 81, 81, 81, 81, 81, 284, 81, 284, 81, 284, 917, 1640, 1336, 917, 1640, 1336, 1640, 917, 1336, 917, 1336, 1336, 56, 56, 107, 56, 107, 917, 917, 107, 107, 107, 8, 8, 8, 917, 917, 455, 455, 455, 455, 1640, 1640, 1640, 1640, 1640, 58, 58, 58, 58, 56, 56, 56, 8, 1336, 1336, 1336, 107, 36, 36, 36, 36, 36, 36] p=0.25"]
S227 -> S413 [label="6 [12, 12, 12, 12, 12, 12, 12, 12, 11, 8, 7, 12, 11, 8, 7, 9, 8, 124, 9, 8, 124, 9, 12, 11, 8, 7, 9, 5, 7, 24, 16, 9, 15, 8, 4, 4, 19, 3, 4, 32, 1726, 8, 1203, 6, 23, 124, 1620, 4, 10, 20, 1283, 21, 46, 684, 3, 41, 10, 70, 86, 22, 9, 5, 7, 24, 16, 15, 4, 4, 19, 3, 4, 32, 1726, 8, 1203, 6, 23, 1620, 4, 10, 20, 1283, 21, 46, 684, 3, 41, 10, 70, 86, 22, 8, 124, 8, 124, 124, 8, 8, 8, 9, 15, 4, 8, 6, 1620, 4, 21, 3, 5, 4, 1203, 23, 10, 46, 41, 5, 7, 24, 16, 4, 19, 3, 4, 32, 1726, 1203, 23, 10, 20, 1283, 46, 684, 41, 10, 70, 86, 22, 5, 7, 24, 16, 4, 19, 3, 4, 32, 1726, 1203, 23, 10, 20, 1283, 46, 684, 41, 10, 70, 86, 22, 7, 19, 20, 684, 10, 7, 24, 16, 19, 3, 4, 32, 1726, 20, 1283, 684, 10, 70, 86, 22, 7, 24, 16, 19, 3, 4, 32, 1726, 20, 1283, 684, 10, 70, 86, 22, 9, 9, 24, 3, 1283, 70, 24, 16, 3, 4, 32, 1726, 1283, 70, 86, 22, 24, 16, 3, 4, 32, 1726, 1283, 70, 86, 22, 9, 9, 124, 124, 9, 9, 16, 4, 32, 1726, 86, 22, 16, 4, 32, 1726, 86, 22, 124, 124, 8, 8, 9, 1620, 21, 3, 5, 46, 41, 7, 684, 10, 24, 70, 15, 15, 15, 15, 15, 15, 15, 4, 8, 6, 4, 4, 8, 6, 4, 8, 4, 4, 6, 4, 4, 6, 4, 4, 1203, 23, 10, 4, 1203, 23, 10, 1203, 4, 4, 23, 10, 4, 23, 10, 19, 20, 19, 20, 6, 4, 6, 4, 6, 4, 19, 20, 3, 1283, 23, 10, 1620, 8, 4, 1203, 9, 9, 9, 9, 9, 21, 3, 21, 3, 21, 3, 5, 5, 5, 5, 46, 41, 46, 41, 46, 41, 7, 7, 684, 10, 684, 10, 1620, 1620, 1620, 1620, 1620, 21, 21, 3, 3, 3, 8, 8, 21, 8, 4, 46, 41, 1203] p=0.75"]
S1709 -> S1712 [label="11 [7, 7, 7, 7, 7, 7, 7, 7, 7, 7] p=1.0"]
S413 -> S556 [label="7 [14, 8, 14, 8, 11, 11, 11, 11, 11, 11, 11, 14, 8, 11, 11, 10, 9, 11, 10, 10, 13, 15, 10, 9, 10, 10, 13, 15, 11, 11, 11, 11, 11, 11, 11, 11, 10, 14, 8, 11, 11, 4, 12, 10, 43, 4, 3105, 5, 44, 7, 8, 34, 749, 8, 3, 7, 6, 8, 4, 50, 926, 1379, 20, 14, 17, 1485, 11, 1631, 8, 43, 13, 1531, 3, 141, 1073, 19, 1111, 25, 5, 887, 16, 23, 937, 4, 4, 11, 56, 27, 915, 3, 4, 3, 1094, 5, 1122, 14, 15, 1187, 4, 10, 7, 12, 1235, 71, 1254, 8, 9, 46, 1310, 6, 5, 9, 9, 1519, 7, 1546, 18, 3, 1431, 31, 1392, 8, 1483, 9, 11, 5, 28, 1234, 135, 1060, 11, 8, 9, 7, 975, 3, 9, 6, 27, 635, 72, 110, 222, 105, 724, 18, 370, 7, 1166, 7, 9, 6, 5, 26, 11, 10, 3, 3, 6, 10, 13, 15, 2, 7, 6, 3, 4, 3, 7, 8, 8, 18, 1795, 4, 12, 43, 4, 3105, 5, 44, 7, 8, 34, 749, 8, 3, 7, 6, 8, 4, 50, 926, 1379, 20, 14, 17, 1485, 11, 1631, 8, 43, 13, 1531, 3, 141, 1073, 19, 1111, 25, 5, 887, 16, 23, 937, 4, 4, 11, 56, 27, 915, 3, 4, 3, 1094, 5, 1122, 14, 15, 1187, 4, 10, 7, 12, 1235, 71, 1254, 8, 9, 46, 1310, 6, 5, 9, 9, 1519, 7, 1546, 18, 3, 1431, 31, 1392, 8, 1483, 9, 11, 5, 28, 1234, 135, 1060, 11, 8, 9, 7, 975, 3, 9, 6, 27, 635, 72, 110, 222, 105, 724, 18, 370, 7, 1166, 7, 6, 5, 26, 3, 3, 6, 2, 7, 6, 3, 4, 3, 7, 8, 8, 18, 1795, 10, 9, 10, 13, 15, 10, 9, 10, 13, 15, 9, 10, 10, 13, 15, 10, 10, 13, 15, 13, 11, 11, 10, 10, 15, 10, 10, 15, 10, 11, 11, 11, 11, 11, 10, 15, 11, 11, 4, 43, 5, 8, 4, 1379, 20, 11, 8, 3, 19, 25, 16, 4, 3, 5, 14, 4, 71, 8, 6, 7, 18, 31, 8, 9, 135, 11, 3, 72, 105, 724, 18, 7, 7, 6, 3, 2, 10, 13, 12, 4, 44, 3, 50, 14, 1631, 43, 141, 1111, 5, 23, 4, 4, 1122, 15, 10, 1254, 9, 5, 1546, 3, 1392, 1483, 11, 1060, 8, 9, 110, 370, 1166, 5, 3, 7, 12, 4, 3105, 44, 7, 8, 34, 749, 3, 7, 6, 8, 50, 926, 14, 17, 1485, 1631, 43, 13, 1531, 141, 1073, 1111, 5, 887, 23, 937, 4, 11, 56, 27, 915, 4, 3, 1094, 1122, 15, 1187, 10, 7, 12, 1235, 1254, 9, 46, 1310, 5, 9, 9, 1519, 1546, 3, 1431, 1392, 1483, 11, 5, 28, 1234, 1060, 8, 9, 7, 975, 9, 6, 27, 635, 110, 222, 370, 1166, 5, 26, 3, 6, 7, 6, 3, 4, 3, 7, 8, 8, 18, 1795, 12, 4, 3105, 44, 7, 8, 34, 749, 3, 7, 6, 8, 50, 926, 14, 17, 1485, 1631, 43, 13, 1531, 141, 1073, 1111, 5, 887, 23, 937, 4, 11, 56, 27, 915, 4, 3, 1094, 1122, 15, 1187, 10, 7, 12, 1235, 1254, 9, 46, 1310, 5, 9, 9, 1519, 1546, 3, 1431, 1392, 1483, 11, 5, 28, 1234, 1060, 8, 9, 7, 975, 9, 6, 27, 635, 110, 222, 370, 1166, 5, 26, 3, 6, 7, 6, 3, 4, 3, 7, 8, 8, 18, 1795, 3105, 7, 7, 926, 17, 13, 1073, 887, 937, 11, 3, 1187, 7, 46, 9, 1431, 5, 9, 6, 222, 26, 6, 6, 3105, 7, 8, 34, 749, 7, 6, 8, 926, 17, 1485, 13, 1531, 1073, 887, 937, 11, 56, 27, 915, 3, 1094, 1187, 7, 12, 1235, 46, 1310, 9, 9, 1519, 1431, 5, 28, 1234, 9, 7, 975, 6, 27, 635, 222, 26, 6, 6, 3, 4, 3, 7, 8, 8, 18, 1795, 3105, 7, 8, 34, 749, 7, 6, 8, 926, 17, 1485, 13, 1531, 1073, 887, 937, 11, 56, 27, 915, 3, 1094, 1187, 7, 12, 1235, 46, 1310, 9, 9, 1519, 1431, 5, 28, 1234, 9, 7, 975, 6, 27, 635, 222, 26, 6, 6, 3, 4, 3, 7, 8, 8, 18, 1795, 9, 9, 9, 8, 6, 1485, 1531, 56, 1094, 12, 1310, 9, 28, 7, 27, 3, 8, 34, 749, 6, 8, 1485, 1531, 56, 27, 915, 1094, 12, 1235, 1310, 9, 1519, 28, 1234, 7, 975, 27, 635, 3, 4, 3, 7, 8, 8, 18, 1795, 8, 34, 749, 6, 8, 1485, 1531, 56, 27, 915, 1094, 12, 1235, 1310, 9, 1519, 28, 1234, 7, 975, 27, 635, 3, 4, 3, 7, 8, 8, 18, 1795, 34, 749, 8, 27, 915, 1235, 1519, 1234, 975, 635, 4, 3, 7, 8, 8, 18, 1795, 34, 749, 8, 27, 915, 1235, 1519, 1234, 975, 635, 4, 3, 7, 8, 8, 18, 1795, 4, 43, 1379, 11, 724, 7, 7, 2, 12, 4, 8, 1166, 7, 10, 3105, 9, 6, 7, 3, 9, 5, 8, 4, 11, 8, 3, 4, 71, 8, 6, 7, 8, 9, 105, 6, 5, 8, 4, 20, 11, 8, 3, 19, 25, 16, 4, 3, 5, 14, 4, 71, 8, 6, 7, 18, 31, 8, 9, 135, 3, 72, 105, 18, 6, 3, 5, 8, 4, 20, 11, 8, 3, 19, 25, 16, 4, 3, 5, 14, 4, 71, 8, 6, 7, 18, 31, 8, 9, 135, 3, 72, 105, 18, 6, 3, 20, 19, 25, 16, 4, 3, 5, 14, 18, 31, 135, 3, 72, 18, 3, 20, 19, 25, 16, 4, 3, 5, 14, 18, 31, 135, 3, 72, 18, 3, 19, 18, 135, 18, 44, 3, 50, 1631, 43, 141, 10, 1254, 9, 5, 1546, 1483, 11, 5, 44, 3, 50, 14, 1631, 43, 141, 1111, 5, 23, 4, 4, 1122, 15, 10, 1254, 9, 5, 1546, 3, 1392, 1483, 11, 1060, 9, 110, 370, 5, 3, 44, 3, 50, 14, 1631, 43, 141, 1111, 5, 23, 4, 4, 1122, 15, 10, 1254, 9, 5, 1546, 3, 1392, 1483, 11, 1060, 9, 110, 370, 5, 3, 20, 3, 14, 31, 72, 3, 20, 25, 16, 4, 3, 5, 14, 31, 3, 72, 3, 20, 25, 16, 4, 3, 5, 14, 31, 3, 72, 3, 14, 1111, 5, 23, 4, 4, 1122, 15, 3, 1392, 1060, 9, 110, 370, 3, 14, 1111, 5, 23, 4, 4, 1122, 15, 3, 1392, 1060, 9, 110, 370, 3, 1111, 3, 1060, 370, 7, 7, 926, 13, 1073, 7, 46, 9, 5, 26, 7, 7, 926, 17, 13, 1073, 887, 937, 11, 3, 1187, 7, 46, 9, 1431, 5, 6, 222, 26, 6, 7, 7, 926, 17, 13, 1073, 887, 937, 11, 3, 1187, 7, 46, 9, 1431, 5, 6, 222, 26, 6, 14, 5, 23, 4, 4, 1122, 15, 1392, 9, 110, 3, 25, 16, 4, 5, 3, 17, 887, 937, 11, 3, 1187, 1431, 6, 222, 6, 8, 6, 1485, 1531, 56, 1094, 12, 1310, 9, 28, 27, 13, 4, 4, 4, 43, 43, 4, 43, 43, 4, 43, 4, 43, 1379, 7, 2, 1379, 7, 2, 1379, 7, 1379, 7, 5, 8, 4, 11, 8, 3, 71, 7, 9, 105, 5, 8, 4, 11, 8, 3, 4, 71, 8, 6, 7, 9, 105, 4, 8, 6, 4, 8, 6, 4, 8, 6, 12, 4, 12, 4, 12, 4, 12, 4, 7, 7, 8, 11, 105, 8, 11, 3, 71, 105, 3, 71, 10, 10, 10, 10, 44, 3, 50, 1631, 43, 141, 1254, 1546, 11, 44, 3, 50, 1631, 43, 141, 10, 1254, 9, 5, 1546, 11, 10, 9, 5, 3105, 3105, 6, 6, 18, 135, 18, 135, 1379, 1379, 2, 2, 2, 2, 7, 7, 5, 4, 8, 7, 9, 5, 4, 8, 7, 9, 7, 7, 11, 7, 11, 7, 11, 724, 7, 724, 11, 724, 7, 724, 11, 724, 7, 11, 724, 7, 8, 6, 8, 6, 8, 6, 8, 6, 8, 1166, 8, 1166, 8, 1166, 8, 1166, 19, 18, 19, 18, 1483, 5, 1483, 5, 9, 9] p=0.79"]
S413 -> S227 [label="5 [20, 37, 80, 144, 5, 23, 22, 23, 13, 614, 22, 1257, 643, 104, 4, 11, 7, 5, 1665, 64, 1761, 28, 3, 1883, 1996, 32, 15, 20, 2290, 39, 9, 2475, 63, 7, 16, 12, 6, 80, 144, 614, 1257, 1665, 1761, 1883, 1996, 2290, 2475, 20, 20, 20, 20, 20, 20, 20, 37, 20, 37, 20, 37, 5, 23, 22, 23, 13, 22, 643, 104, 4, 11, 7, 5, 64, 28, 3, 32, 15, 20, 39, 9, 63, 7, 16, 12, 6, 5, 23, 22, 23, 13, 22, 643, 104, 4, 11, 7, 5, 64, 28, 3, 32, 15, 20, 39, 9, 63, 7, 16, 12, 6, 5, 22, 643, 64, 28, 32, 39, 63, 23, 104, 3, 15, 9, 7, 23, 22, 23, 13, 104, 4, 11, 7, 5, 3, 15, 20, 9, 7, 16, 12, 6, 23, 22, 23, 13, 104, 4, 11, 7, 5, 3, 15, 20, 9, 7, 16, 12, 6, 22, 4, 20, 16, 22, 23, 13, 4, 11, 7, 5, 20, 16, 12, 6, 22, 23, 13, 4, 11, 7, 5, 20, 16, 12, 6, 23, 11, 12, 23, 13, 11, 7, 5, 12, 6, 23, 13, 11, 7, 5, 12, 6, 13, 7, 5, 6, 144, 1883, 2290, 2475, 5, 39, 63, 23, 9, 7, 22, 16, 80, 80, 614, 614, 614, 80, 614, 80, 614, 1257, 1665, 1761, 1996, 1257, 1665, 1761, 1996, 614, 614, 614, 1665, 1257, 1257, 1761, 1996, 1257, 1761, 1996, 22, 22, 22, 22, 22, 22, 643, 64, 28, 32, 643, 64, 28, 32, 64, 643, 643, 28, 32, 643, 28, 32, 104, 3, 15, 104, 3, 15, 1761, 1996, 1761, 1996, 1761, 1996, 104, 3, 15, 104, 3, 15, 4, 20, 4, 20, 28, 32, 28, 32, 1883, 1665, 1257, 64, 643, 144, 144, 144, 144, 144, 2290, 2475, 2290, 2475, 2290, 2475, 1761, 1996, 5, 5, 5, 5, 5, 39, 63, 39, 63, 39, 63, 23, 23, 23, 9, 7, 9, 7, 9, 7, 22, 16, 1883, 1883, 1883, 1883, 1883, 1883, 2290, 2290, 2475, 2475, 2475, 2475, 1665, 1665, 2290, 2290, 1665, 1665, 1257, 1257, 39, 39, 63, 63, 64, 64] p=0.21"]
S979 -> S640 [label="8 [316, 900, 884, 527, 285, 559, 669, 627, 578, 614, 420, 548, 626, 799, 871, 929, 316, 900, 884, 527, 285, 346, 559, 669, 627, 578, 614, 498, 420, 548, 561, 529, 626, 708, 799, 871, 929, 520, 270, 316, 900, 884, 527, 285, 346, 559, 669, 627, 578, 614, 498, 420, 548, 561, 529, 626, 708, 799, 871, 929, 520, 270, 346, 498, 561, 529, 708, 520, 270, 316, 900, 884, 527, 438, 285, 346, 559, 669, 627, 578, 614, 498, 420, 548, 561, 529, 626, 708, 799, 871, 929, 812, 488, 520, 270, 316, 900, 884, 527, 438, 285, 346, 559, 669, 627, 578, 614, 498, 420, 548, 561, 529, 626, 708, 799, 871, 929, 812, 488, 520, 270, 61, 200, 61, 200, 61, 200, 61, 200, 61, 200, 438, 812, 488, 316, 900, 1237, 1174, 884, 527, 438, 285, 346, 559, 669, 627, 578, 614, 498, 420, 548, 561, 529, 626, 708, 799, 871, 929, 1257, 1463, 2246, 2399, 1577, 812, 1529, 488, 520, 270, 61, 200, 1237, 1174, 1257, 1463, 2246, 2399, 1577, 1529, 438, 488, 316, 900, 1237, 1174, 884, 527, 438, 285, 346, 559, 669, 627, 578, 614, 498, 420, 548, 561, 529, 626, 708, 799, 871, 929, 1257, 1463, 2246, 2399, 2513, 2581, 2710, 1577, 812, 1529, 488, 520, 270, 61, 200, 2513, 2581, 2710, 1237, 1529, 1237, 1174, 1257, 1463, 2246, 2399, 1577, 1529, 1237, 1174, 1257, 1463, 2246, 2399, 1577, 1529, 1174, 1257, 1463, 2246, 2399, 1577, 1174, 1257, 1463, 2246, 2399, 1577, 812, 812, 316, 900, 1237, 1174, 884, 527, 438, 285, 346, 559, 669, 627, 578, 614, 498, 420, 548, 561, 529, 626, 708, 799, 871, 929, 1257, 1463, 2246, 2399, 2532, 2513, 2581, 2708, 2710, 2717, 2811, 2249, 1464, 1644, 925, 1577, 812, 1529, 488, 520, 270, 61, 200, 2513, 2581, 2710, 2513, 2581, 2710, 2513, 2581, 2710, 2513, 2581, 2710, 1237, 1529, 438, 2513, 2581, 2710, 316, 900, 1237, 1174, 884, 527, 438, 285, 346, 559, 669, 627, 578, 614, 498, 420, 548, 561, 529, 626, 708, 799, 871, 929, 1257, 1463, 2246, 2399, 2532, 2513, 2581, 2708, 2710, 2717, 2811, 2249, 1464, 1644, 925, 1577, 812, 1529, 488, 520, 270, 61, 200, 18, 31, 65, 10, 18, 31, 55, 65, 10, 18, 31, 55, 65, 10, 488, 55] p=0.83"]
S979 -> S1560 [label="10 [10, 10, 10, 6, 8, 10, 6, 8, 10, 6, 8, 10, 6, 8, 10, 21, 4, 66, 6, 4, 8, 21, 4, 66, 4, 6, 8, 6, 8, 10, 21, 4, 7, 10, 66, 7, 1196, 5, 1677, 6, 4, 8, 21, 4, 66, 4, 21, 4, 66, 4, 21, 4, 66, 21, 4, 66, 4, 66, 10, 21, 4, 7, 10, 66, 7, 7, 1196, 5, 1677, 6, 4, 8, 4, 4, 21, 56, 56, 56] p=0.17"]
S22 -> S26 [label="2 [525, 525, 525, 472, 681, 472, 681, 472, 681, 525, 472, 681, 525, 472, 681, 525, 472, 681, 525, 472, 681, 525, 472, 531, 681, 1970, 2168, 525, 472, 531, 681, 1005, 1970, 2168, 1005, 1005, 1005, 1005, 1005, 1005, 1005, 1005, 531, 531, 531, 531, 531, 531, 1970, 2168, 531, 1970, 2168, 1970, 1970, 1970, 1970, 1970, 2168, 2168, 2168, 2168, 2168] p=0.26"]
S22 -> S170 [label="4 [2777, 2777, 2777, 2777, 2777, 2777, 2777, 2777, 2777] p=0.04"]
S22 -> S3 [label="4 [2, 2, 2, 2, 2, 2, 2, 2, 82, 33, 3, 15, 5, 12, 5, 5, 22, 62, 95, 42, 2, 4, 82, 6, 33, 3, 2, 15, 5, 12, 2, 5, 5, 22, 62, 95, 42, 4, 6, 2, 2, 2, 4, 4, 6, 4, 6, 4, 6, 4, 6, 6, 4, 6, 4, 6, 2, 2, 2, 2, 2, 2, 2, 2, 2, 2, 2, 2, 2, 82, 33, 82, 33, 82, 33, 82, 33, 82, 33, 5, 5, 5, 82, 33, 15, 5, 82, 33, 3, 15, 5, 12, 5, 5, 22, 62, 95, 42, 3, 5, 12, 5, 22, 62, 95, 42, 15, 5, 15, 15, 15, 15, 5, 3, 3, 3, 5, 5, 5, 3, 5, 5, 3, 5, 12, 5, 22, 62, 95, 42, 12, 22, 62, 95, 42, 5, 5, 5, 12, 12, 22, 12, 22, 62, 95, 42, 62, 95, 42, 22, 62, 95, 42] p=0.64"]
S22 -> S9 [label="4 [393, 393, 393, 393, 393, 393, 393, 393, 393] p=0.04"]
S22 -> S12 [label="4 [1641, 1641, 1641, 1641, 1641, 1641] p=0.03"]
S1707 -> S1709 [label="12 [1, 1, 1, 1, 1, 1, 1, 1, 1] p=1.0"]
S1712 -> S1716 [label="10 [1, 1, 1, 1, 1, 1, 1, 1, 1, 7, 7, 7, 7, 7, 7, 7, 7, 7, 7, 7, 7, 7, 7, 1196, 1196, 1196, 1196, 5, 5] p=1.0"]
S1716 -> S1712 [label="9 [626, 626, 626, 626, 626, 626, 626, 626, 626, 42, 42, 42, 42, 42, 42, 42, 9, 9, 9, 9, 9, 1597, 1597, 1597, 20] p=1.0"]
S1560 -> S1562 [label="9 [4, 4, 4, 6, 4, 4, 6, 4, 4, 6, 4, 4, 6, 4, 11, 3, 3, 4, 5, 6, 11, 3, 3, 5, 4, 6, 4, 11, 3, 4, 31, 3, 9, 1597, 20, 800, 4, 5, 6, 11, 3, 3, 5, 11, 3, 3, 5, 11, 3, 3, 11, 3, 3, 4, 11, 3, 4, 31, 3, 42, 9, 1597, 20, 800, 4, 5, 6, 5, 5, 507, 507, 4, 4, 4, 4, 4, 31, 1597, 20, 800, 4, 31, 9, 1597, 20, 800, 31, 31, 31, 20, 800, 31, 1597, 20, 800, 20, 800, 800] p=1.0"]
S26 -> S2 [label="3 [10, 3, 10, 10, 3, 13, 10, 6, 182, 10, 3, 13, 10, 5, 6, 182, 5, 5, 5, 5, 10, 10, 3, 10, 3, 10, 10, 3, 10, 10, 3, 10, 10, 3, 10, 5, 5, 5, 13, 13, 13, 13, 13, 6, 182, 13, 6, 182, 6, 6, 6, 6, 182, 182, 182, 182] p=1.0"]
S170 -> S8 [label="5 [14, 14, 14, 14, 14, 14, 14, 14] p=1.0"]
S3 -> S22 [label="3 [6, 6, 6, 6, 6, 6, 6, 5, 5, 6, 76, 8, 13, 121, 3, 10, 4, 4, 3, 6, 14, 5, 43, 5, 6, 44, 76, 8, 13, 99, 121, 3, 10, 4, 4, 3, 14, 43, 44, 99, 44, 14, 43, 14, 43, 14, 43, 14, 43, 14, 43, 14, 43, 99, 99, 99, 99, 44, 44, 44, 44, 44, 99, 99, 5, 5, 5, 5, 5, 5, 5, 5, 121, 121, 121, 5, 5, 76, 121, 5, 5, 6, 76, 8, 13, 121, 3, 10, 4, 4, 3, 6, 8, 13, 3, 10, 4, 4, 3, 76, 121, 76, 76, 76, 6, 6, 3, 3, 6, 8, 3, 6, 8, 13, 3, 10, 4, 4, 3, 13, 10, 4, 4, 3, 8, 8, 13, 10, 13, 10, 4, 4, 3, 4, 4, 3] p=1.0"]
S9 -> S489 [label="5 [15, 15, 15, 15, 15, 15, 15, 15] p=1.0"]
S12 -> S7 [label="5 [13, 13, 13, 13, 13, 13] p=1.0"]
S1562 -> S1565 [label="8 [2532, 1464, 925, 2532, 1464, 925, 2532, 1464, 925, 2532, 1464, 925, 2532, 2708, 2811, 1464, 1644, 925, 2708, 2811, 1644, 2532, 2708, 2717, 2811, 2249, 1464, 1644, 925, 2708, 2811, 1644, 2708, 2811, 1644, 2708, 2811, 2532, 2708, 2717, 2811, 2249, 1464, 1644, 925, 1644, 2717, 2249, 2717, 2249, 2717, 2717, 2249, 2717, 2249, 2249] p=0.64"]
S1562 -> S1560 [label="10 [7, 7, 7, 7, 7, 7, 10, 1196, 5, 1677, 7, 10, 7, 1196, 5, 1677, 4, 10, 10, 10, 10, 5, 1677, 10, 1196, 5, 1677, 5, 1677, 1677, 1677] p=0.36"]
S489 -> S6 [label="6 [7, 7, 7, 7, 7, 7, 7] p=1.0"]
S7 -> S491 [label="6 [8, 8, 8, 8, 8, 8] p=1.0"]
S8 -> S4 [label="6 [11, 11, 11, 11, 11, 11, 11] p=1.0"]
S1565 -> S1569 [label="9 [8, 2, 3, 8, 2, 3, 8, 2, 3, 8, 4, 12, 2, 3, 3, 4, 12, 3, 8, 4, 13, 12, 3, 2, 3, 3, 4, 12, 3, 4, 12, 3, 8, 4, 13, 12, 3, 2, 3, 3, 13, 3, 13, 3, 13, 3, 13, 3] p=1.0"]
S491 -> S5 [label="7 [14, 14, 14, 14, 14, 14] p=1.0"]
S4 -> S494 [label="5 [37, 37, 37, 37, 37, 37] p=1.0"]
S6 -> S527 [label="7 [8, 8, 8, 8, 8, 8] p=1.0"]
S527 -> S622 [label="8 [7, 7, 7, 7, 7] p=1.0"]
S1569 -> S1574 [label="8 [10, 41, 9, 10, 41, 9, 10, 14, 30, 41, 59, 9, 14, 30, 59, 10, 14, 10, 30, 5, 41, 59, 9, 14, 30, 59, 10, 14, 10, 30, 5, 41, 59, 9, 10, 5, 10, 5, 10, 5] p=1.0"]
S494 -> S498 [label="4 [284, 284, 284, 284, 284] p=1.0"]
S5 -> S509 [label="6 [23, 23, 23, 23, 23] p=1.0"]
S1574 -> S979 [label="9 [8, 3, 29, 8, 9, 17, 3, 29, 9, 17, 8, 9, 9, 17, 3, 29, 8, 9, 9, 17, 3, 29, 9, 9] p=0.75"]
S1574 -> S1800 [label="7 [858, 858, 858, 506, 506, 506, 858, 506] p=0.25"]
S498 -> S503 [label="3 [2150, 2150, 2150, 2150] p=1.0"]
S622 -> S625 [label="7 [32, 32, 32, 32] p=1.0"]
S509 -> S503 [label="5 [80, 80, 80, 80, 6, 6, 13, 13] p=1.0"]
S503 -> S509 [label="4 [1641, 1641, 1641, 455, 455, 455, 58] p=0.88"]
S503 -> S524 [label="6 [8] p=0.12"]
S625 -> S629 [label="6 [16, 16, 16] p=1.0"]
S1800 -> S1802 [label="8 [2, 2, 5, 5, 2, 5] p=1.0"]
S629 -> S634 [label="5 [144, 144] p=1.0"]
S1802 -> S1805 [label="7 [272, 86, 272, 86] p=1.0"]
S634 -> S639 [label="6 [9] p=1.0"]
S1805 -> S1809 [label="8 [8, 10] p=1.0"]