S0 -> S1 [label="3 [0, 0, 0, 0, 0, 0, 0, 0, 0, 0, 0, 0, 0, 0, 0, 0, 0, 0, 0, 0, 0, 0, 0, 0, 0, 0, 0, 0, 0, 0, 0, 0, 0, 0, 0, 0, 0, 0, 0, 0, 0, 0, 0, 0, 0, 0, 0, 0, 0, 0, 0, 0, 0, 0, 0, 0, 0, 0, 0, 0, 0, 0, 0, 0, 0, 0, 0, 0, 0, 0, 0, 0, 0, 0, 0, 0] p=0.5"]
S0 -> S2 [label="1 [0, 0, 0, 0, 0, 0, 0, 0, 0, 0, 0, 0, 0, 0, 0, 0, 0, 0, 0, 0, 0, 0, 0, 0, 0, 0, 0, 0, 0, 0, 0, 0, 0, 0, 0, 0, 0, 0, 0, 0, 0, 0, 0, 0, 0, 0, 0, 0, 0, 0, 0, 0, 0, 0, 0, 0, 0, 0, 0, 0, 0, 0, 0, 0, 0, 0, 0, 0, 0, 0, 0, 0, 0, 0, 0, 0] p=0.5"]
S1 -> S2 [label="1 [120, 3124, 3134, 3116, 3099, 3103, 3070, 3055, 3067, 3024, 3053, 3019, 3043, 3075, 3071, 3040, 2940, 2955, 2967, 3015, 3057, 3073, 3045, 3047, 3056, 3050, 3025, 3036, 3092, 3054, 3029, 3024, 3025, 3030, 3031, 3088, 3121, 3168, 3237, 3206, 3206, 3196, 3167, 3182, 3131, 3117, 3127, 3122, 3123, 3123, 3114, 3131, 3119, 3128, 3132, 3180, 3217, 3264, 666, 3272, 3307, 721, 3270, 726, 3253, 674, 3251, 651, 3213, 3209, 3227, 3203, 3225, 3195, 3186, 3194, 3124, 3134, 3116, 3099, 3103, 3070, 3055, 3067, 3024, 3053, 3019, 3043, 3075, 3071, 3040, 2940, 2955, 2967, 3015, 3057, 3073, 3045, 3047, 3056, 3050, 3025, 3036, 3092, 3054, 3029, 3024, 3025, 3030, 3031, 3088, 3121, 3168, 3237, 3206, 3206, 3196, 3167, 3182, 3131, 3117, 3127, 3122, 3123, 3123, 3114, 3131, 3119, 3128, 3132, 3180, 3217, 3264, 666, 3272, 3307, 721, 3270, 726, 3253, 674, 3251, 651, 3213, 3209, 3227, 3203, 3225, 3195, 3186, 3194, 3124, 3134, 3116, 3099, 3103, 3070, 3055, 3067, 3024, 3053, 3019, 3043, 3075, 3071, 3040, 2940, 2955, 2967, 3015, 3057, 3073, 3045, 3047, 3056, 3050, 3025, 3036, 3092, 3054, 3029, 3024, 3025, 3030, 3031, 3088, 3121, 3168, 3237, 3206, 3206, 3196, 3167, 3182, 3131, 3117, 3127, 3122, 3123, 3123, 3114, 3131, 3119, 3128, 3132, 3180, 3217, 3264, 666, 3272, 3307, 721, 3270, 726, 3253, 674, 3251, 651, 3213, 3209, 3227, 3203, 3225, 3195, 3186, 3194, 3134, 3116, 3099, 3103, 3070, 3055, 3067, 3024, 3053, 3019, 3043, 3075, 3071, 3040, 2940, 2955, 2967, 3015, 3057, 3073, 3045, 3047, 3056, 3050, 3025, 3036, 3092, 3054, 3029, 3024, 3025, 3030, 3031, 3088, 3121, 3168, 3237, 3206, 3206, 3196, 3167, 3182, 3131, 3117, 3127, 3122, 3123, 3123, 3114, 3131, 3119, 3128, 3132, 3180, 3217, 3264, 666, 3272, 3307, 721, 3270, 726, 3253, 674, 3251, 651, 3213, 3209, 3227, 3203, 3225, 3195, 3186, 3194, 3134, 3116, 3099, 3103, 3070, 3055, 3067, 3024, 3053, 3019, 3043, 3075, 3071, 3040, 2940, 2955, 2967, 3015, 3057, 3073, 3045, 3047, 3056, 3050, 3025, 3036, 3092, 3054, 3029, 3024, 3025, 3030, 3031, 3088, 3121, 3168, 3237, 3206, 3206, 3196, 3167, 3182, 3131, 3117, 3127, 3122, 3123, 3123, 3114, 3131, 3119, 3128, 3132, 3180, 3217, 3264, 666, 3272, 3307, 721, 3270, 726, 3253, 674, 3251, 651, 3213, 3209, 3227, 3203, 3225, 3195, 3186, 3194, 3116, 3099, 3103, 3070, 3055, 3067, 3024, 3053, 3019, 3043, 3075, 3071, 3040, 2940, 2955, 2967, 3015, 3057, 3073, 3045, 3047, 3056, 3050, 3025, 3036, 3092, 3054, 3029, 3024, 3025, 3030, 3031, 3088, 3121, 3168, 3237, 3206, 3206, 3196, 3167, 3182, 3131, 3117, 3127, 3122, 3123, 3123, 3114, 3131, 3119, 3128, 3132, 3180, 3217, 3264, 666, 3272, 3307, 721, 3270, 726, 3253, 674, 3251, 651, 3213, 3209, 3227, 3203, 3225, 3195, 3186, 3194, 3116, 3099, 3103, 3070, 3055, 3067, 3024, 3053, 3019, 3043, 3075, 3071, 3040, 2940, 2955, 2967, 3015, 3057, 3073, 3045, 3047, 3056, 3050, 3025, 3036, 3092, 3054, 3029, 3024, 3025, 3030, 3031, 3088, 3121, 3168, 3237, 3206, 3206, 3196, 3167, 3182, 3131, 3117, 3127, 3122, 3123, 3123, 3114, 3131, 3119, 3128, 3132, 3180, 3217, 3264, 666, 3272, 3307, 721, 3270, 726, 3253, 674, 3251, 651, 3213, 3209, 3227, 3203, 3225, 3195, 3186, 3194, 3099, 3103, 3070, 3055, 3067, 3024, 3053, 3019, 3043, 3075, 3071, 3040, 2940, 2955, 2967, 3015, 3057, 3073, 3045, 3047, 3056, 3050, 3025, 3036, 3092, 3054, 3029, 3024, 3025, 3030, 3031, 3088, 3121, 3168, 3237, 3206, 3206, 3196, 3167, 3182, 3131, 3117, 3127, 3122, 3123, 3123, 3114, 3131, 3119, 3128, 3132, 3180, 3217, 3264, 666, 3272, 3307, 721, 3270, 726, 3253, 674, 3251, 651, 3213, 3209, 3227, 3203, 3225, 3195, 3186, 3194, 3099, 3103, 3070, 3055, 3067, 3024, 3053, 3019, 3043, 3075, 3071, 3040, 2940, 2955, 2967, 3015, 3057, 3073, 3045, 3047, 3056, 3050, 3025, 3036, 3092, 3054, 3029, 3024, 3025, 3030, 3031, 3088, 3121, 3168, 3237, 3206, 3206, 3196, 3167, 3182, 3131, 3117, 3127, 3122, 3123, 3123, 3114, 3131, 3119, 3128, 3132, 3180, 3217, 3264, 666, 3272, 3307, 721, 3270, 726, 3253, 674, 3251, 651, 3213, 3209, 3227, 3203, 3225, 3195, 3186, 3194, 3103, 3070, 3055, 3067, 3024, 3053, 3019, 3043, 3075, 3071, 3040, 2940, 2955, 2967, 3015, 3057, 3073, 3045, 3047, 3056, 3050, 3025, 3036, 3092, 3054, 3029, 3024, 3025, 3030, 3031, 3088, 3121, 3168, 3237, 3206, 3206, 3196, 3167, 3182, 3131, 3117, 3127, 3122, 3123, 3123, 3114, 3131, 3119, 3128, 3132, 3180, 3217, 3264, 666, 3272, 3307, 721, 3270, 726, 3253, 674, 3251, 651, 3213, 3209, 3227, 3203, 3225, 3195, 3186, 3194] p=1.0"]
S2 -> S1 [label="3 [1080, 1080, 1069, 1062, 1063, 1061, 1059, 1079, 1091, 1081, 1084, 1076, 1083, 1090, 1093, 1093, 1087, 1084, 1089, 1091, 1091, 1100, 1095, 1097, 1093, 1100, 1084, 1097, 1091, 1103, 1097, 1098, 1094, 1093, 1085, 1098, 1085, 1083, 1096, 1093, 1099, 1093, 1097, 1091, 1087, 1093, 1086, 1095, 1088, 1090, 1079, 1089, 1086, 1093, 1094, 1099, 1085, 576, 706, 1091, 556, 712, 578, 728, 568, 720, 583, 704, 1089, 1092, 1110, 1089, 1092, 1090, 1096, 1080, 1080, 1069, 1062, 1063, 1061, 1059, 1079, 1091, 1081, 1084, 1076, 1083, 1090, 1093, 1093, 1087, 1084, 1089, 1091, 1091, 1100, 1095, 1097, 1093, 1100, 1084, 1097, 1091, 1103, 1097, 1098, 1094, 1093, 1085, 1098, 1085, 1083, 1096, 1093, 1099, 1093, 1097, 1091, 1087, 1093, 1086, 1095, 1088, 1090, 1079, 1089, 1086, 1093, 1094, 1099, 1085, 576, 706, 1091, 556, 712, 578, 728, 568, 720, 583, 704, 1089, 1092, 1110, 1089, 1092, 1090, 1096, 1080, 1069, 1062, 1063, 1061, 1059, 1079, 1091, 1081, 1084, 1076, 1083, 1090, 1093, 1093, 1087, 1084, 1089, 1091, 1091, 1100, 1095, 1097, 1093, 1100, 1084, 1097, 1091, 1103, 1097, 1098, 1094, 1093, 1085, 1098, 1085, 1083, 1096, 1093, 1099, 1093, 1097, 1091, 1087, 1093, 1086, 1095, 1088, 1090, 1079, 1089, 1086, 1093, 1094, 1099, 1085, 576, 706, 1091, 556, 712, 578, 728, 568, 720, 583, 704, 1089, 1092, 1110, 1089, 1092, 1090, 1096, 1080, 1069, 1062, 1063, 1061, 1059, 1079, 1091, 1081, 1084, 1076, 1083, 1090, 1093, 1093, 1087, 1084, 1089, 1091, 1091, 1100, 1095, 1097, 1093, 1100, 1084, 1097, 1091, 1103, 1097, 1098, 1094, 1093, 1085, 1098, 1085, 1083, 1096, 1093, 1099, 1093, 1097, 1091, 1087, 1093, 1086, 1095, 1088, 1090, 1079, 1089, 1086, 1093, 1094, 1099, 1085, 576, 706, 1091, 556, 712, 578, 728, 568, 720, 583, 704, 1089, 1092, 1110, 1089, 1092, 1090, 1096, 1069, 1062, 1063, 1061, 1059, 1079, 1091, 1081, 1084, 1076, 1083, 1090, 1093, 1093, 1087, 1084, 1089, 1091, 1091, 1100, 1095, 1097, 1093, 1100, 1084, 1097, 1091, 1103, 1097, 1098, 1094, 1093, 1085, 1098, 1085, 1083, 1096, 1093, 1099, 1093, 1097, 1091, 1087, 1093, 1086, 1095, 1088, 1090, 1079, 1089, 1086, 1093, 1094, 1099, 1085, 576, 706, 1091, 556, 712, 578, 728, 568, 720, 583, 704, 1089, 1092, 1110, 1089, 1092, 1090, 1096, 1069, 1062, 1063, 1061, 1059, 1079, 1091, 1081, 1084, 1076, 1083, 1090, 1093, 1093, 1087, 1084, 1089, 1091, 1091, 1100, 1095, 1097, 1093, 1100, 1084, 1097, 1091, 1103, 1097, 1098, 1094, 1093, 1085, 1098, 1085, 1083, 1096, 1093, 1099, 1093, 1097, 1091, 1087, 1093, 1086, 1095, 1088, 1090, 1079, 1089, 1086, 1093, 1094, 1099, 1085, 576, 706, 1091, 556, 712, 578, 728, 568, 720, 583, 704, 1089, 1092, 1110, 1089, 1092, 1090, 1096, 1062, 1063, 1061, 1059, 1079, 1091, 1081, 1084, 1076, 1083, 1090, 1093, 1093, 1087, 1084, 1089, 1091, 1091, 1100, 1095, 1097, 1093, 1100, 1084, 1097, 1091, 1103, 1097, 1098, 1094, 1093, 1085, 1098, 1085, 1083, 1096, 1093, 1099, 1093, 1097, 1091, 1087, 1093, 1086, 1095, 1088, 1090, 1079, 1089, 1086, 1093, 1094, 1099, 1085, 576, 706, 1091, 556, 712, 578, 728, 568, 720, 583, 704, 1089, 1092, 1110, 1089, 1092, 1090, 1096, 1062, 1063, 1061, 1059, 1079, 1091, 1081, 1084, 1076, 1083, 1090, 1093, 1093, 1087, 1084, 1089, 1091, 1091, 1100, 1095, 1097, 1093, 1100, 1084, 1097, 1091, 1103, 1097, 1098, 1094, 1093, 1085, 1098, 1085, 1083, 1096, 1093, 1099, 1093, 1097, 1091, 1087, 1093, 1086, 1095, 1088, 1090, 1079, 1089, 1086, 1093, 1094, 1099, 1085, 576, 706, 1091, 556, 712, 578, 728, 568, 720, 583, 704, 1089, 1092, 1110, 1089, 1092, 1090, 1096, 1063, 1061, 1059, 1079, 1091, 1081, 1084, 1076, 1083, 1090, 1093, 1093, 1087, 1084, 1089, 1091, 1091, 1100, 1095, 1097, 1093, 1100, 1084, 1097, 1091, 1103, 1097, 1098, 1094, 1093, 1085, 1098, 1085, 1083, 1096, 1093, 1099, 1093, 1097, 1091, 1087, 1093, 1086, 1095, 1088, 1090, 1079, 1089, 1086, 1093, 1094, 1099, 1085, 576, 706, 1091, 556, 712, 578, 728, 568, 720, 583, 704, 1089, 1092, 1110, 1089, 1092, 1090, 1096, 1063, 1061, 1059, 1079, 1091, 1081, 1084, 1076, 1083, 1090, 1093, 1093, 1087, 1084, 1089, 1091, 1091, 1100, 1095, 1097, 1093, 1100, 1084, 1097, 1091, 1103, 1097, 1098, 1094, 1093, 1085, 1098, 1085, 1083, 1096, 1093, 1099, 1093, 1097, 1091, 1087, 1093, 1086, 1095, 1088, 1090, 1079, 1089, 1086, 1093, 1094, 1099, 1085, 576, 706, 1091, 556, 712, 578, 728, 568, 720, 583, 704, 1089, 1092, 1110, 1089, 1092, 1090, 1096] p=1.0"]