2:0 3:5 2:15 1:3 2:4 3:2 2:12 1:4 2:5 3:1 2:1
3:0 2:15 1:3 2:4 3:2 2:12 1:4 2:5 3:1 2:1 3:3
2:0 1:3 2:4 3:2 2:12 1:4 2:5 3:1 2:1 3:3 2:1
1:0 2:4 3:2 2:12 1:4 2:5 3:1 2:1 3:3 2:1 3:6
2:0 3:2 2:12 1:4 2:5 3:1 2:1 3:3 2:1 3:6 2:1
3:0 2:12 1:4 2:5 3:1 2:1 3:3 2:1 3:6 2:1 3:1
2:0 1:4 2:5 3:1 2:1 3:3 2:1 3:6 2:1 3:1 2:13
1:0 2:5 3:1 2:1 3:3 2:1 3:6 2:1 3:1 2:13 3:2
2:0 3:1 2:1 3:3 2:1 3:6 2:1 3:1 2:13 3:2 2:1
3:0 2:1 3:3 2:1 3:6 2:1 3:1 2:13 3:2 2:1 1:3
2:0 3:3 2:1 3:6 2:1 3:1 2:13 3:2 2:1 1:3 2:5
3:0 2:1 3:6 2:1 3:1 2:13 3:2 2:1 1:3 2:5 3:2
2:0 3:6 2:1 3:1 2:13 3:2 2:1 1:3 2:5 3:2 2:1
3:0 2:1 3:1 2:13 3:2 2:1 1:3 2:5 3:2 2:1 3:9
2:0 3:1 2:13 3:2 2:1 1:3 2:5 3:2 2:1 3:9 2:14
3:0 2:13 3:2 2:1 1:3 2:5 3:2 2:1 3:9 2:14 1:3
2:0 3:2 2:1 1:3 2:5 3:2 2:1 3:9 2:14 1:3 2:4
3:0 2:1 1:3 2:5 3:2 2:1 3:9 2:14 1:3 2:4 3:2
2:0 1:3 2:5 3:2 2:1 3:9 2:14 1:3 2:4 3:2 2:1
1:0 2:5 3:2 2:1 3:9 2:14 1:3 2:4 3:2 2:1 3:1
2:0 3:2 2:1 3:9 2:14 1:3 2:4 3:2 2:1 3:1 2:12
3:0 2:1 3:9 2:14 1:3 2:4 3:2 2:1 3:1 2:12 1:4
2:0 3:9 2:14 1:3 2:4 3:2 2:1 3:1 2:12 1:4 3:6
3:0 2:14 1:3 2:4 3:2 2:1 3:1 2:12 1:4 3:6 2:2
2:0 1:3 2:4 3:2 2:1 3:1 2:12 1:4 3:6 2:2 3:2
1:0 2:4 3:2 2:1 3:1 2:12 1:4 3:6 2:2 3:2 2:2
2:0 3:2 2:1 3:1 2:12 1:4 3:6 2:2 3:2 2:2 3:12
3:0 2:1 3:1 2:12 1:4 3:6 2:2 3:2 2:2 3:12 2:1
2:0 3:1 2:12 1:4 3:6 2:2 3:2 2:2 3:12 2:1 3:5
3:0 2:12 1:4 3:6 2:2 3:2 2:2 3:12 2:1 3:5 2:4
2:0 1:4 3:6 2:2 3:2 2:2 3:12 2:1 3:5 2:4 3:2
1:0 3:6 2:2 3:2 2:2 3:12 2:1 3:5 2:4 3:2 2:1
3:0 2:2 3:2 2:2 3:12 2:1 3:5 2:4 3:2 2:1 1:1
2:0 3:2 2:2 3:12 2:1 3:5 2:4 3:2 2:1 1:1 2:5
3:0 2:2 3:12 2:1 3:5 2:4 3:2 2:1 1:1 2:5 3:11
2:0 3:12 2:1 3:5 2:4 3:2 2:1 1:1 2:5 3:11 2:4
3:0 2:1 3:5 2:4 3:2 2:1 1:1 2:5 3:11 2:4 1:4
2:0 3:5 2:4 3:2 2:1 1:1 2:5 3:11 2:4 1:4 2:5
3:0 2:4 3:2 2:1 1:1 2:5 3:11 2:4 1:4 2:5 3:2
2:0 3:2 2:1 1:1 2:5 3:11 2:4 1:4 2:5 3:2 2:1
3:0 2:1 1:1 2:5 3:11 2:4 1:4 2:5 3:2 2:1 3:10
2:0 1:1 2:5 3:11 2:4 1:4 2:5 3:2 2:1 3:10 1:8
1:0 2:5 3:11 2:4 1:4 2:5 3:2 2:1 3:10 1:8 2:8
2:0 3:11 2:4 1:4 2:5 3:2 2:1 3:10 1:8 2:8 1:1
3:0 2:4 1:4 2:5 3:2 2:1 3:10 1:8 2:8 1:1 2:5
2:0 1:4 2:5 3:2 2:1 3:10 1:8 2:8 1:1 2:5 3:3
1:0 2:5 3:2 2:1 3:10 1:8 2:8 1:1 2:5 3:3 2:2
2:0 3:2 2:1 3:10 1:8 2:8 1:1 2:5 3:3 2:2 3:2
3:0 2:1 3:10 1:8 2:8 1:1 2:5 3:3 2:2 3:2 2:1
2:0 3:10 1:8 2:8 1:1 2:5 3:3 2:2 3:2 2:1 3:3
3:0 1:8 2:8 1:1 2:5 3:3 2:2 3:2 2:1 3:3 2:9
1:0 2:8 1:1 2:5 3:3 2:2 3:2 2:1 3:3 2:9 3:3
2:0 1:1 2:5 3:3 2:2 3:2 2:1 3:3 2:9 3:3 2:4
1:0 2:5 3:3 2:2 3:2 2:1 3:3 2:9 3:3 2:4 3:2
2:0 3:3 2:2 3:2 2:1 3:3 2:9 3:3 2:4 3:2 2:1
3:0 2:2 3:2 2:1 3:3 2:9 3:3 2:4 3:2 2:1 1:2
2:0 3:2 2:1 3:3 2:9 3:3 2:4 3:2 2:1 1:2 2:5
3:0 2:1 3:3 2:9 3:3 2:4 3:2 2:1 1:2 2:5 3:12
2:0 3:3 2:9 3:3 2:4 3:2 2:1 1:2 2:5 3:12 2:13
3:0 2:9 3:3 2:4 3:2 2:1 1:2 2:5 3:12 2:13 1:4
2:0 3:3 2:4 3:2 2:1 1:2 2:5 3:12 2:13 1:4 2:3
3:0 2:4 3:2 2:1 1:2 2:5 3:12 2:13 1:4 2:3 3:4
2:0 3:2 2:1 1:2 2:5 3:12 2:13 1:4 2:3 3:4 2:7
3:0 2:1 1:2 2:5 3:12 2:13 1:4 2:3 3:4 2:7 1:1
2:0 1:2 2:5 3:12 2:13 1:4 2:3 3:4 2:7 1:1 2:7
1:0 2:5 3:12 2:13 1:4 2:3 3:4 2:7 1:1 2:7 3:9
2:0 3:12 2:13 1:4 2:3 3:4 2:7 1:1 2:7 3:9 2:14
3:0 2:13 1:4 2:3 3:4 2:7 1:1 2:7 3:9 2:14 1:3
2:0 1:4 2:3 3:4 2:7 1:1 2:7 3:9 2:14 1:3 2:4
1:0 2:3 3:4 2:7 1:1 2:7 3:9 2:14 1:3 2:4 3:4
2:0 3:4 2:7 1:1 2:7 3:9 2:14 1:3 2:4 3:4 2:12
3:0 2:7 1:1 2:7 3:9 2:14 1:3 2:4 3:4 2:12 1:4
2:0 1:1 2:7 3:9 2:14 1:3 2:4 3:4 2:12 1:4 2:6
1:0 2:7 3:9 2:14 1:3 2:4 3:4 2:12 1:4 2:6 3:1
2:0 3:9 2:14 1:3 2:4 3:4 2:12 1:4 2:6 3:1 2:2
3:0 2:14 1:3 2:4 3:4 2:12 1:4 2:6 3:1 2:2 3:6
2:0 1:3 2:4 3:4 2:12 1:4 2:6 3:1 2:2 3:6 2:1
1:0 2:4 3:4 2:12 1:4 2:6 3:1 2:2 3:6 2:1 3:3
2:0 3:4 2:12 1:4 2:6 3:1 2:2 3:6 2:1 3:3 2:7
3:0 2:12 1:4 2:6 3:1 2:2 3:6 2:1 3:3 2:7 3:4
2:0 1:4 2:6 3:1 2:2 3:6 2:1 3:3 2:7 3:4 2:3
1:0 2:6 3:1 2:2 3:6 2:1 3:3 2:7 3:4 2:3 3:1
2:0 3:1 2:2 3:6 2:1 3:3 2:7 3:4 2:3 3:1 2:1
3:0 2:2 3:6 2:1 3:3 2:7 3:4 2:3 3:1 2:1 1:3
2:0 3:6 2:1 3:3 2:7 3:4 2:3 3:1 2:1 1:3 2:3
3:0 2:1 3:3 2:7 3:4 2:3 3:1 2:1 1:3 2:3 3:3
2:0 3:3 2:7 3:4 2:3 3:1 2:1 1:3 2:3 3:3 2:13
3:0 2:7 3:4 2:3 3:1 2:1 1:3 2:3 3:3 2:13 1:5
2:0 3:4 2:3 3:1 2:1 1:3 2:3 3:3 2:13 1:5 2:5
3:0 2:3 3:1 2:1 1:3 2:3 3:3 2:13 1:5 2:5 3:11
2:0 3:1 2:1 1:3 2:3 3:3 2:13 1:5 2:5 3:11 2:1
3:0 2:1 1:3 2:3 3:3 2:13 1:5 2:5 3:11 2:1 3:1
2:0 1:3 2:3 3:3 2:13 1:5 2:5 3:11 2:1 3:1 2:11
1:0 2:3 3:3 2:13 1:5 2:5 3:11 2:1 3:1 2:11 1:5
2:0 3:3 2:13 1:5 2:5 3:11 2:1 3:1 2:11 1:5 2:3
3:0 2:13 1:5 2:5 3:11 2:1 3:1 2:11 1:5 2:3 3:4
2:0 1:5 2:5 3:11 2:1 3:1 2:11 1:5 2:3 3:4 2:10
1:0 2:5 3:11 2:1 3:1 2:11 1:5 2:3 3:4 2:10 3:4
2:0 3:11 2:1 3:1 2:11 1:5 2:3 3:4 2:10 3:4 2:4
3:0 2:1 3:1 2:11 1:5 2:3 3:4 2:10 3:4 2:4 3:5
2:0 3:1 2:11 1:5 2:3 3:4 2:10 3:4 2:4 3:5 2:3
3:0 2:11 1:5 2:3 3:4 2:10 3:4 2:4 3:5 2:3 3:2
2:0 1:5 2:3 3:4 2:10 3:4 2:4 3:5 2:3 3:2 2:1
1:0 2:3 3:4 2:10 3:4 2:4 3:5 2:3 3:2 2:1 1:2
2:0 3:4 2:10 3:4 2:4 3:5 2:3 3:2 2:1 1:2 2:5
3:0 2:10 3:4 2:4 3:5 2:3 3:2 2:1 1:2 2:5 3:11
2:0 3:4 2:4 3:5 2:3 3:2 2:1 1:2 2:5 3:11 2:16
3:0 2:4 3:5 2:3 3:2 2:1 1:2 2:5 3:11 2:16 1:3
2:0 3:5 2:3 3:2 2:1 1:2 2:5 3:11 2:16 1:3 2:5
3:0 2:3 3:2 2:1 1:2 2:5 3:11 2:16 1:3 2:5 3:2
2:0 3:2 2:1 1:2 2:5 3:11 2:16 1:3 2:5 3:2 2:12
3:0 2:1 1:2 2:5 3:11 2:16 1:3 2:5 3:2 2:12 1:4
2:0 1:2 2:5 3:11 2:16 1:3 2:5 3:2 2:12 1:4 3:6
1:0 2:5 3:11 2:16 1:3 2:5 3:2 2:12 1:4 3:6 2:2
2:0 3:11 2:16 1:3 2:5 3:2 2:12 1:4 3:6 2:2 3:3
3:0 2:16 1:3 2:5 3:2 2:12 1:4 3:6 2:2 3:3 2:1
2:0 1:3 2:5 3:2 2:12 1:4 3:6 2:2 3:3 2:1 3:9
1:0 2:5 3:2 2:12 1:4 3:6 2:2 3:3 2:1 3:9 2:6
2:0 3:2 2:12 1:4 3:6 2:2 3:3 2:1 3:9 2:6 3:3
3:0 2:12 1:4 3:6 2:2 3:3 2:1 3:9 2:6 3:3 2:3
2:0 1:4 3:6 2:2 3:3 2:1 3:9 2:6 3:3 2:3 3:1
1:0 3:6 2:2 3:3 2:1 3:9 2:6 3:3 2:3 3:1 2:2
3:0 2:2 3:3 2:1 3:9 2:6 3:3 2:3 3:1 2:2 1:2
2:0 3:3 2:1 3:9 2:6 3:3 2:3 3:1 2:2 1:2 2:4
3:0 2:1 3:9 2:6 3:3 2:3 3:1 2:2 1:2 2:4 3:5
2:0 3:9 2:6 3:3 2:3 3:1 2:2 1:2 2:4 3:5 2:3
3:0 2:6 3:3 2:3 3:1 2:2 1:2 2:4 3:5 2:3 3:2
2:0 3:3 2:3 3:1 2:2 1:2 2:4 3:5 2:3 3:2 2:5
3:0 2:3 3:1 2:2 1:2 2:4 3:5 2:3 3:2 2:5 1:5
2:0 3:1 2:2 1:2 2:4 3:5 2:3 3:2 2:5 1:5 2:5
3:0 2:2 1:2 2:4 3:5 2:3 3:2 2:5 1:5 2:5 3:11
2:0 1:2 2:4 3:5 2:3 3:2 2:5 1:5 2:5 3:11 2:6
1:0 2:4 3:5 2:3 3:2 2:5 1:5 2:5 3:11 2:6 1:3
2:0 3:5 2:3 3:2 2:5 1:5 2:5 3:11 2:6 1:3 2:6
3:0 2:3 3:2 2:5 1:5 2:5 3:11 2:6 1:3 2:6 3:10
2:0 3:2 2:5 1:5 2:5 3:11 2:6 1:3 2:6 3:10 2:4
3:0 2:5 1:5 2:5 3:11 2:6 1:3 2:6 3:10 2:4 1:4
2:0 1:5 2:5 3:11 2:6 1:3 2:6 3:10 2:4 1:4 2:5
1:0 2:5 3:11 2:6 1:3 2:6 3:10 2:4 1:4 2:5 3:11
2:0 3:11 2:6 1:3 2:6 3:10 2:4 1:4 2:5 3:11 1:9
3:0 2:6 1:3 2:6 3:10 2:4 1:4 2:5 3:11 1:9 2:8
2:0 1:3 2:6 3:10 2:4 1:4 2:5 3:11 1:9 2:8 3:6
1:0 2:6 3:10 2:4 1:4 2:5 3:11 1:9 2:8 3:6 2:6
2:0 3:10 2:4 1:4 2:5 3:11 1:9 2:8 3:6 2:6 1:2
3:0 2:4 1:4 2:5 3:11 1:9 2:8 3:6 2:6 1:2 2:5
2:0 1:4 2:5 3:11 1:9 2:8 3:6 2:6 1:2 2:5 3:1
1:0 2:5 3:11 1:9 2:8 3:6 2:6 1:2 2:5 3:1 2:1
2:0 3:11 1:9 2:8 3:6 2:6 1:2 2:5 3:1 2:1 3:11
3:0 1:9 2:8 3:6 2:6 1:2 2:5 3:1 2:1 3:11 2:15
1:0 2:8 3:6 2:6 1:2 2:5 3:1 2:1 3:11 2:15 1:2
2:0 3:6 2:6 1:2 2:5 3:1 2:1 3:11 2:15 1:2 2:5
3:0 2:6 1:2 2:5 3:1 2:1 3:11 2:15 1:2 2:5 3:2
2:0 1:2 2:5 3:1 2:1 3:11 2:15 1:2 2:5 3:2 2:12
1:0 2:5 3:1 2:1 3:11 2:15 1:2 2:5 3:2 2:12 1:4
2:0 3:1 2:1 3:11 2:15 1:2 2:5 3:2 2:12 1:4 3:5
3:0 2:1 3:11 2:15 1:2 2:5 3:2 2:12 1:4 3:5 2:2
2:0 3:11 2:15 1:2 2:5 3:2 2:12 1:4 3:5 2:2 3:2
3:0 2:15 1:2 2:5 3:2 2:12 1:4 3:5 2:2 3:2 2:2
2:0 1:2 2:5 3:2 2:12 1:4 3:5 2:2 3:2 2:2 3:8
1:0 2:5 3:2 2:12 1:4 3:5 2:2 3:2 2:2 3:8 2:13
2:0 3:2 2:12 1:4 3:5 2:2 3:2 2:2 3:8 2:13 3:2
3:0 2:12 1:4 3:5 2:2 3:2 2:2 3:8 2:13 3:2 2:2
2:0 1:4 3:5 2:2 3:2 2:2 3:8 2:13 3:2 2:2 1:2
1:0 3:5 2:2 3:2 2:2 3:8 2:13 3:2 2:2 1:2 2:7
3:0 2:2 3:2 2:2 3:8 2:13 3:2 2:2 1:2 2:7 3:11
2:0 3:2 2:2 3:8 2:13 3:2 2:2 1:2 2:7 3:11 2:16
3:0 2:2 3:8 2:13 3:2 2:2 1:2 2:7 3:11 2:16 1:1
2:0 3:8 2:13 3:2 2:2 1:2 2:7 3:11 2:16 1:1 2:6
3:0 2:13 3:2 2:2 1:2 2:7 3:11 2:16 1:1 2:6 3:1
2:0 3:2 2:2 1:2 2:7 3:11 2:16 1:1 2:6 3:1 2:13
3:0 2:2 1:2 2:7 3:11 2:16 1:1 2:6 3:1 2:13 3:1
2:0 1:2 2:7 3:11 2:16 1:1 2:6 3:1 2:13 3:1 2:1
1:0 2:7 3:11 2:16 1:1 2:6 3:1 2:13 3:1 2:1 1:2
2:0 3:11 2:16 1:1 2:6 3:1 2:13 3:1 2:1 1:2 2:6
3:0 2:16 1:1 2:6 3:1 2:13 3:1 2:1 1:2 2:6 3:1
2:0 1:1 2:6 3:1 2:13 3:1 2:1 1:2 2:6 3:1 2:1
1:0 2:6 3:1 2:13 3:1 2:1 1:2 2:6 3:1 2:1 3:13
2:0 3:1 2:13 3:1 2:1 1:2 2:6 3:1 2:1 3:13 2:4
3:0 2:13 3:1 2:1 1:2 2:6 3:1 2:1 3:13 2:4 3:3
2:0 3:1 2:1 1:2 2:6 3:1 2:1 3:13 2:4 3:3 2:4
3:0 2:1 1:2 2:6 3:1 2:1 3:13 2:4 3:3 2:4 1:5
2:0 1:2 2:6 3:1 2:1 3:13 2:4 3:3 2:4 1:5 2:5
1:0 2:6 3:1 2:1 3:13 2:4 3:3 2:4 1:5 2:5 3:2
2:0 3:1 2:1 3:13 2:4 3:3 2:4 1:5 2:5 3:2 2:2
3:0 2:1 3:13 2:4 3:3 2:4 1:5 2:5 3:2 2:2 3:9
2:0 3:13 2:4 3:3 2:4 1:5 2:5 3:2 2:2 3:9 1:8
3:0 2:4 3:3 2:4 1:5 2:5 3:2 2:2 3:9 1:8 2:7
2:0 3:3 2:4 1:5 2:5 3:2 2:2 3:9 1:8 2:7 3:8
3:0 2:4 1:5 2:5 3:2 2:2 3:9 1:8 2:7 3:8 1:7
2:0 1:5 2:5 3:2 2:2 3:9 1:8 2:7 3:8 1:7 2:7
1:0 2:5 3:2 2:2 3:9 1:8 2:7 3:8 1:7 2:7 3:1
2:0 3:2 2:2 3:9 1:8 2:7 3:8 1:7 2:7 3:1 2:1
3:0 2:2 3:9 1:8 2:7 3:8 1:7 2:7 3:1 2:1 3:8
2:0 3:9 1:8 2:7 3:8 1:7 2:7 3:1 2:1 3:8 2:6
3:0 1:8 2:7 3:8 1:7 2:7 3:1 2:1 3:8 2:6 1:2
1:0 2:7 3:8 1:7 2:7 3:1 2:1 3:8 2:6 1:2 2:6
2:0 3:8 1:7 2:7 3:1 2:1 3:8 2:6 1:2 2:6 3:10
3:0 1:7 2:7 3:1 2:1 3:8 2:6 1:2 2:6 3:10 2:6
1:0 2:7 3:1 2:1 3:8 2:6 1:2 2:6 3:10 2:6 1:2
2:0 3:1 2:1 3:8 2:6 1:2 2:6 3:10 2:6 1:2 2:5
3:0 2:1 3:8 2:6 1:2 2:6 3:10 2:6 1:2 2:5 3:1
2:0 3:8 2:6 1:2 2:6 3:10 2:6 1:2 2:5 3:1 2:1
3:0 2:6 1:2 2:6 3:10 2:6 1:2 2:5 3:1 2:1 3:9
2:0 1:2 2:6 3:10 2:6 1:2 2:5 3:1 2:1 3:9 2:17
1:0 2:6 3:10 2:6 1:2 2:5 3:1 2:1 3:9 2:17 1:1
2:0 3:10 2:6 1:2 2:5 3:1 2:1 3:9 2:17 1:1 2:5
3:0 2:6 1:2 2:5 3:1 2:1 3:9 2:17 1:1 2:5 3:1
2:0 1:2 2:5 3:1 2:1 3:9 2:17 1:1 2:5 3:1 2:14
1:0 2:5 3:1 2:1 3:9 2:17 1:1 2:5 3:1 2:14 1:4
2:0 3:1 2:1 3:9 2:17 1:1 2:5 3:1 2:14 1:4 2:5
3:0 2:1 3:9 2:17 1:1 2:5 3:1 2:14 1:4 2:5 3:2
2:0 3:9 2:17 1:1 2:5 3:1 2:14 1:4 2:5 3:2 2:2
3:0 2:17 1:1 2:5 3:1 2:14 1:4 2:5 3:2 2:2 3:6
2:0 1:1 2:5 3:1 2:14 1:4 2:5 3:2 2:2 3:6 2:1
1:0 2:5 3:1 2:14 1:4 2:5 3:2 2:2 3:6 2:1 3:2
2:0 3:1 2:14 1:4 2:5 3:2 2:2 3:6 2:1 3:2 2:7
3:0 2:14 1:4 2:5 3:2 2:2 3:6 2:1 3:2 2:7 3:3
2:0 1:4 2:5 3:2 2:2 3:6 2:1 3:2 2:7 3:3 2:3
1:0 2:5 3:2 2:2 3:6 2:1 3:2 2:7 3:3 2:3 1:5
2:0 3:2 2:2 3:6 2:1 3:2 2:7 3:3 2:3 1:5 2:6
3:0 2:2 3:6 2:1 3:2 2:7 3:3 2:3 1:5 2:6 3:1
2:0 3:6 2:1 3:2 2:7 3:3 2:3 1:5 2:6 3:1 2:2
3:0 2:1 3:2 2:7 3:3 2:3 1:5 2:6 3:1 2:2 3:9
2:0 3:2 2:7 3:3 2:3 1:5 2:6 3:1 2:2 3:9 2:6
3:0 2:7 3:3 2:3 1:5 2:6 3:1 2:2 3:9 2:6 1:1
2:0 3:3 2:3 1:5 2:6 3:1 2:2 3:9 2:6 1:1 2:5
3:0 2:3 1:5 2:6 3:1 2:2 3:9 2:6 1:1 2:5 3:3
2:0 1:5 2:6 3:1 2:2 3:9 2:6 1:1 2:5 3:3 2:1
1:0 2:6 3:1 2:2 3:9 2:6 1:1 2:5 3:3 2:1 3:7
2:0 3:1 2:2 3:9 2:6 1:1 2:5 3:3 2:1 3:7 2:3
3:0 2:2 3:9 2:6 1:1 2:5 3:3 2:1 3:7 2:3 3:2
2:0 3:9 2:6 1:1 2:5 3:3 2:1 3:7 2:3 3:2 2:1
3:0 2:6 1:1 2:5 3:3 2:1 3:7 2:3 3:2 2:1 1:3
2:0 1:1 2:5 3:3 2:1 3:7 2:3 3:2 2:1 1:3 2:6
1:0 2:5 3:3 2:1 3:7 2:3 3:2 2:1 1:3 2:6 3:10
2:0 3:3 2:1 3:7 2:3 3:2 2:1 1:3 2:6 3:10 2:15
3:0 2:1 3:7 2:3 3:2 2:1 1:3 2:6 3:10 2:15 1:3
2:0 3:7 2:3 3:2 2:1 1:3 2:6 3:10 2:15 1:3 2:4
3:0 2:3 3:2 2:1 1:3 2:6 3:10 2:15 1:3 2:4 3:2
2:0 3:2 2:1 1:3 2:6 3:10 2:15 1:3 2:4 3:2 2:13
3:0 2:1 1:3 2:6 3:10 2:15 1:3 2:4 3:2 2:13 1:4
2:0 1:3 2:6 3:10 2:15 1:3 2:4 3:2 2:13 1:4 2:6
1:0 2:6 3:10 2:15 1:3 2:4 3:2 2:13 1:4 2:6 3:2
2:0 3:10 2:15 1:3 2:4 3:2 2:13 1:4 2:6 3:2 2:2
3:0 2:15 1:3 2:4 3:2 2:13 1:4 2:6 3:2 2:2 3:8
2:0 1:3 2:4 3:2 2:13 1:4 2:6 3:2 2:2 3:8 2:7
1:0 2:4 3:2 2:13 1:4 2:6 3:2 2:2 3:8 2:7 3:5
2:0 3:2 2:13 1:4 2:6 3:2 2:2 3:8 2:7 3:5 2:3
3:0 2:13 1:4 2:6 3:2 2:2 3:8 2:7 3:5 2:3 3:1
2:0 1:4 2:6 3:2 2:2 3:8 2:7 3:5 2:3 3:1 2:2
1:0 2:6 3:2 2:2 3:8 2:7 3:5 2:3 3:1 2:2 1:2
2:0 3:2 2:2 3:8 2:7 3:5 2:3 3:1 2:2 1:2 2:6
3:0 2:2 3:8 2:7 3:5 2:3 3:1 2:2 1:2 2:6 3:11
2:0 3:8 2:7 3:5 2:3 3:1 2:2 1:2 2:6 3:11 1:9
3:0 2:7 3:5 2:3 3:1 2:2 1:2 2:6 3:11 1:9 2:7
2:0 3:5 2:3 3:1 2:2 1:2 2:6 3:11 1:9 2:7 1:3
3:0 2:3 3:1 2:2 1:2 2:6 3:11 1:9 2:7 1:3 2:2
2:0 3:1 2:2 1:2 2:6 3:11 1:9 2:7 1:3 2:2 3:4
3:0 2:2 1:2 2:6 3:11 1:9 2:7 1:3 2:2 3:4 2:1
2:0 1:2 2:6 3:11 1:9 2:7 1:3 2:2 3:4 2:1 3:3
1:0 2:6 3:11 1:9 2:7 1:3 2:2 3:4 2:1 3:3 2:3
2:0 3:11 1:9 2:7 1:3 2:2 3:4 2:1 3:3 2:3 3:4
3:0 1:9 2:7 1:3 2:2 3:4 2:1 3:3 2:3 3:4 2:14
1:0 2:7 1:3 2:2 3:4 2:1 3:3 2:3 3:4 2:14 3:2
2:0 1:3 2:2 3:4 2:1 3:3 2:3 3:4 2:14 3:2 2:1
1:0 2:2 3:4 2:1 3:3 2:3 3:4 2:14 3:2 2:1 1:2
2:0 3:4 2:1 3:3 2:3 3:4 2:14 3:2 2:1 1:2 2:6
3:0 2:1 3:3 2:3 3:4 2:14 3:2 2:1 1:2 2:6 3:12
2:0 3:3 2:3 3:4 2:14 3:2 2:1 1:2 2:6 3:12 2:15
3:0 2:3 3:4 2:14 3:2 2:1 1:2 2:6 3:12 2:15 1:2
2:0 3:4 2:14 3:2 2:1 1:2 2:6 3:12 2:15 1:2 2:4
3:0 2:14 3:2 2:1 1:2 2:6 3:12 2:15 1:2 2:4 3:3
2:0 3:2 2:1 1:2 2:6 3:12 2:15 1:2 2:4 3:3 2:12
3:0 2:1 1:2 2:6 3:12 2:15 1:2 2:4 3:3 2:12 1:4
2:0 1:2 2:6 3:12 2:15 1:2 2:4 3:3 2:12 1:4 2:6
1:0 2:6 3:12 2:15 1:2 2:4 3:3 2:12 1:4 2:6 3:1
2:0 3:12 2:15 1:2 2:4 3:3 2:12 1:4 2:6 3:1 2:2
3:0 2:15 1:2 2:4 3:3 2:12 1:4 2:6 3:1 2:2 3:11
2:0 1:2 2:4 3:3 2:12 1:4 2:6 3:1 2:2 3:11 2:6
1:0 2:4 3:3 2:12 1:4 2:6 3:1 2:2 3:11 2:6 3:3
2:0 3:3 2:12 1:4 2:6 3:1 2:2 3:11 2:6 3:3 2:4
3:0 2:12 1:4 2:6 3:1 2:2 3:11 2:6 3:3 2:4 1:4
2:0 1:4 2:6 3:1 2:2 3:11 2:6 3:3 2:4 1:4 2:4
1:0 2:6 3:1 2:2 3:11 2:6 3:3 2:4 1:4 2:4 3:4
2:0 3:1 2:2 3:11 2:6 3:3 2:4 1:4 2:4 3:4 2:4
3:0 2:2 3:11 2:6 3:3 2:4 1:4 2:4 3:4 2:4 3:4
2:0 3:11 2:6 3:3 2:4 1:4 2:4 3:4 2:4 3:4 2:3
3:0 2:6 3:3 2:4 1:4 2:4 3:4 2:4 3:4 2:3 3:2
2:0 3:3 2:4 1:4 2:4 3:4 2:4 3:4 2:3 3:2 2:1
3:0 2:4 1:4 2:4 3:4 2:4 3:4 2:3 3:2 2:1 1:3
2:0 1:4 2:4 3:4 2:4 3:4 2:3 3:2 2:1 1:3 2:5
1:0 2:4 3:4 2:4 3:4 2:3 3:2 2:1 1:3 2:5 3:3
2:0 3:4 2:4 3:4 2:3 3:2 2:1 1:3 2:5 3:3 2:1
3:0 2:4 3:4 2:3 3:2 2:1 1:3 2:5 3:3 2:1 3:8
2:0 3:4 2:3 3:2 2:1 1:3 2:5 3:3 2:1 3:8 1:6
3:0 2:3 3:2 2:1 1:3 2:5 3:3 2:1 3:8 1:6 2:6
2:0 3:2 2:1 1:3 2:5 3:3 2:1 3:8 1:6 2:6 3:3
3:0 2:1 1:3 2:5 3:3 2:1 3:8 1:6 2:6 3:3 2:1
2:0 1:3 2:5 3:3 2:1 3:8 1:6 2:6 3:3 2:1 3:7
1:0 2:5 3:3 2:1 3:8 1:6 2:6 3:3 2:1 3:7 2:3
2:0 3:3 2:1 3:8 1:6 2:6 3:3 2:1 3:7 2:3 3:2
3:0 2:1 3:8 1:6 2:6 3:3 2:1 3:7 2:3 3:2 2:2
2:0 3:8 1:6 2:6 3:3 2:1 3:7 2:3 3:2 2:2 1:1
3:0 1:6 2:6 3:3 2:1 3:7 2:3 3:2 2:2 1:1 2:6
1:0 2:6 3:3 2:1 3:7 2:3 3:2 2:2 1:1 2:6 3:10
2:0 3:3 2:1 3:7 2:3 3:2 2:2 1:1 2:6 3:10 2:14
3:0 2:1 3:7 2:3 3:2 2:2 1:1 2:6 3:10 2:14 1:4
2:0 3:7 2:3 3:2 2:2 1:1 2:6 3:10 2:14 1:4 2:4
3:0 2:3 3:2 2:2 1:1 2:6 3:10 2:14 1:4 2:4 3:3
2:0 3:2 2:2 1:1 2:6 3:10 2:14 1:4 2:4 3:3 1:11
3:0 2:2 1:1 2:6 3:10 2:14 1:4 2:4 3:3 1:11 2:1
2:0 1:1 2:6 3:10 2:14 1:4 2:4 3:3 1:11 2:1 1:2
1:0 2:6 3:10 2:14 1:4 2:4 3:3 1:11 2:1 1:2 2:8
2:0 3:10 2:14 1:4 2:4 3:3 1:11 2:1 1:2 2:8 3:4
3:0 2:14 1:4 2:4 3:3 1:11 2:1 1:2 2:8 3:4 2:2
2:0 1:4 2:4 3:3 1:11 2:1 1:2 2:8 3:4 2:2 3:9
1:0 2:4 3:3 1:11 2:1 1:2 2:8 3:4 2:2 3:9 2:7
2:0 3:3 1:11 2:1 1:2 2:8 3:4 2:2 3:9 2:7 3:3
3:0 1:11 2:1 1:2 2:8 3:4 2:2 3:9 2:7 3:3 2:5
1:0 2:1 1:2 2:8 3:4 2:2 3:9 2:7 3:3 2:5 1:3
2:0 1:2 2:8 3:4 2:2 3:9 2:7 3:3 2:5 1:3 2:3
1:0 2:8 3:4 2:2 3:9 2:7 3:3 2:5 1:3 2:3 3:6
2:0 3:4 2:2 3:9 2:7 3:3 2:5 1:3 2:3 3:6 2:2
3:0 2:2 3:9 2:7 3:3 2:5 1:3 2:3 3:6 2:2 3:5
2:0 3:9 2:7 3:3 2:5 1:3 2:3 3:6 2:2 3:5 2:4
3:0 2:7 3:3 2:5 1:3 2:3 3:6 2:2 3:5 2:4 1:4
2:0 3:3 2:5 1:3 2:3 3:6 2:2 3:5 2:4 1:4 2:5
3:0 2:5 1:3 2:3 3:6 2:2 3:5 2:4 1:4 2:5 3:11
2:0 1:3 2:3 3:6 2:2 3:5 2:4 1:4 2:5 3:11 2:1
1:0 2:3 3:6 2:2 3:5 2:4 1:4 2:5 3:11 2:1 3:1
2:0 3:6 2:2 3:5 2:4 1:4 2:5 3:11 2:1 3:1 2:12
3:0 2:2 3:5 2:4 1:4 2:5 3:11 2:1 3:1 2:12 1:5
2:0 3:5 2:4 1:4 2:5 3:11 2:1 3:1 2:12 1:5 2:4
3:0 2:4 1:4 2:5 3:11 2:1 3:1 2:12 1:5 2:4 3:2
2:0 1:4 2:5 3:11 2:1 3:1 2:12 1:5 2:4 3:2 2:9
1:0 2:5 3:11 2:1 3:1 2:12 1:5 2:4 3:2 2:9 3:8
2:0 3:11 2:1 3:1 2:12 1:5 2:4 3:2 2:9 3:8 2:2
3:0 2:1 3:1 2:12 1:5 2:4 3:2 2:9 3:8 2:2 3:4
2:0 3:1 2:12 1:5 2:4 3:2 2:9 3:8 2:2 3:4 2:5
3:0 2:12 1:5 2:4 3:2 2:9 3:8 2:2 3:4 2:5 1:3
2:0 1:5 2:4 3:2 2:9 3:8 2:2 3:4 2:5 1:3 2:1
1:0 2:4 3:2 2:9 3:8 2:2 3:4 2:5 1:3 2:1 1:1
2:0 3:2 2:9 3:8 2:2 3:4 2:5 1:3 2:1 1:1 2:3
3:0 2:9 3:8 2:2 3:4 2:5 1:3 2:1 1:1 2:3 3:11
2:0 3:8 2:2 3:4 2:5 1:3 2:1 1:1 2:3 3:11 2:5
3:0 2:2 3:4 2:5 1:3 2:1 1:1 2:3 3:11 2:5 1:3
2:0 3:4 2:5 1:3 2:1 1:1 2:3 3:11 2:5 1:3 2:5
3:0 2:5 1:3 2:1 1:1 2:3 3:11 2:5 1:3 2:5 3:12
2:0 1:3 2:1 1:1 2:3 3:11 2:5 1:3 2:5 3:12 2:14
1:0 2:1 1:1 2:3 3:11 2:5 1:3 2:5 3:12 2:14 1:4
2:0 1:1 2:3 3:11 2:5 1:3 2:5 3:12 2:14 1:4 2:4
1:0 2:3 3:11 2:5 1:3 2:5 3:12 2:14 1:4 2:4 3:2
2:0 3:11 2:5 1:3 2:5 3:12 2:14 1:4 2:4 3:2 2:13
3:0 2:5 1:3 2:5 3:12 2:14 1:4 2:4 3:2 2:13 3:1
2:0 1:3 2:5 3:12 2:14 1:4 2:4 3:2 2:13 3:1 2:1
1:0 2:5 3:12 2:14 1:4 2:4 3:2 2:13 3:1 2:1 1:3
2:0 3:12 2:14 1:4 2:4 3:2 2:13 3:1 2:1 1:3 2:5
3:0 2:14 1:4 2:4 3:2 2:13 3:1 2:1 1:3 2:5 3:3
2:0 1:4 2:4 3:2 2:13 3:1 2:1 1:3 2:5 3:3 2:1
1:0 2:4 3:2 2:13 3:1 2:1 1:3 2:5 3:3 2:1 3:8
2:0 3:2 2:13 3:1 2:1 1:3 2:5 3:3 2:1 3:8 2:1
3:0 2:13 3:1 2:1 1:3 2:5 3:3 2:1 3:8 2:1 3:2
2:0 3:1 2:1 1:3 2:5 3:3 2:1 3:8 2:1 3:2 2:5
3:0 2:1 1:3 2:5 3:3 2:1 3:8 2:1 3:2 2:5 3:3
2:0 1:3 2:5 3:3 2:1 3:8 2:1 3:2 2:5 3:3 2:4
1:0 2:5 3:3 2:1 3:8 2:1 3:2 2:5 3:3 2:4 3:1
2:0 3:3 2:1 3:8 2:1 3:2 2:5 3:3 2:4 3:1 2:1
3:0 2:1 3:8 2:1 3:2 2:5 3:3 2:4 3:1 2:1 1:3
2:0 3:8 2:1 3:2 2:5 3:3 2:4 3:1 2:1 1:3 2:4
3:0 2:1 3:2 2:5 3:3 2:4 3:1 2:1 1:3 2:4 3:2
2:0 3:2 2:5 3:3 2:4 3:1 2:1 1:3 2:4 3:2 2:1
3:0 2:5 3:3 2:4 3:1 2:1 1:3 2:4 3:2 2:1 3:9
2:0 3:3 2:4 3:1 2:1 1:3 2:4 3:2 2:1 3:9 2:6
3:0 2:4 3:1 2:1 1:3 2:4 3:2 2:1 3:9 2:6 1:3
2:0 3:1 2:1 1:3 2:4 3:2 2:1 3:9 2:6 1:3 2:5
3:0 2:1 1:3 2:4 3:2 2:1 3:9 2:6 1:3 2:5 3:10
2:0 1:3 2:4 3:2 2:1 3:9 2:6 1:3 2:5 3:10 2:4
1:0 2:4 3:2 2:1 3:9 2:6 1:3 2:5 3:10 2:4 1:4
2:0 3:2 2:1 3:9 2:6 1:3 2:5 3:10 2:4 1:4 2:6
3:0 2:1 3:9 2:6 1:3 2:5 3:10 2:4 1:4 2:6 3:11
2:0 3:9 2:6 1:3 2:5 3:10 2:4 1:4 2:6 3:11 2:16
3:0 2:6 1:3 2:5 3:10 2:4 1:4 2:6 3:11 2:16 1:2
2:0 1:3 2:5 3:10 2:4 1:4 2:6 3:11 2:16 1:2 2:5
1:0 2:5 3:10 2:4 1:4 2:6 3:11 2:16 1:2 2:5 3:1
2:0 3:10 2:4 1:4 2:6 3:11 2:16 1:2 2:5 3:1 2:13
3:0 2:4 1:4 2:6 3:11 2:16 1:2 2:5 3:1 2:13 1:5
2:0 1:4 2:6 3:11 2:16 1:2 2:5 3:1 2:13 1:5 2:5
1:0 2:6 3:11 2:16 1:2 2:5 3:1 2:13 1:5 2:5 3:1
2:0 3:11 2:16 1:2 2:5 3:1 2:13 1:5 2:5 3:1 2:2
3:0 2:16 1:2 2:5 3:1 2:13 1:5 2:5 3:1 2:2 3:6
2:0 1:2 2:5 3:1 2:13 1:5 2:5 3:1 2:2 3:6 2:1
1:0 2:5 3:1 2:13 1:5 2:5 3:1 2:2 3:6 2:1 3:4
2:0 3:1 2:13 1:5 2:5 3:1 2:2 3:6 2:1 3:4 2:5
3:0 2:13 1:5 2:5 3:1 2:2 3:6 2:1 3:4 2:5 3:4
2:0 1:5 2:5 3:1 2:2 3:6 2:1 3:4 2:5 3:4 2:4
1:0 2:5 3:1 2:2 3:6 2:1 3:4 2:5 3:4 2:4 1:4
2:0 3:1 2:2 3:6 2:1 3:4 2:5 3:4 2:4 1:4 2:4
3:0 2:2 3:6 2:1 3:4 2:5 3:4 2:4 1:4 2:4 3:5
2:0 3:6 2:1 3:4 2:5 3:4 2:4 1:4 2:4 3:5 2:3
3:0 2:1 3:4 2:5 3:4 2:4 1:4 2:4 3:5 2:3 3:4
2:0 3:4 2:5 3:4 2:4 1:4 2:4 3:5 2:3 3:4 2:4
3:0 2:5 3:4 2:4 1:4 2:4 3:5 2:3 3:4 2:4 1:5
2:0 3:4 2:4 1:4 2:4 3:5 2:3 3:4 2:4 1:5 2:5
3:0 2:4 1:4 2:4 3:5 2:3 3:4 2:4 1:5 2:5 3:12
2:0 1:4 2:4 3:5 2:3 3:4 2:4 1:5 2:5 3:12 2:6
1:0 2:4 3:5 2:3 3:4 2:4 1:5 2:5 3:12 2:6 1:2
2:0 3:5 2:3 3:4 2:4 1:5 2:5 3:12 2:6 1:2 2:5
3:0 2:3 3:4 2:4 1:5 2:5 3:12 2:6 1:2 2:5 3:11
2:0 3:4 2:4 1:5 2:5 3:12 2:6 1:2 2:5 3:11 2:4
3:0 2:4 1:5 2:5 3:12 2:6 1:2 2:5 3:11 2:4 1:3
2:0 1:5 2:5 3:12 2:6 1:2 2:5 3:11 2:4 1:3 2:1
1:0 2:5 3:12 2:6 1:2 2:5 3:11 2:4 1:3 2:1 1:1
2:0 3:12 2:6 1:2 2:5 3:11 2:4 1:3 2:1 1:1 2:3
3:0 2:6 1:2 2:5 3:11 2:4 1:3 2:1 1:1 2:3 3:11
2:0 1:2 2:5 3:11 2:4 1:3 2:1 1:1 2:3 3:11 2:18
1:0 2:5 3:11 2:4 1:3 2:1 1:1 2:3 3:11 2:18 1:1
2:0 3:11 2:4 1:3 2:1 1:1 2:3 3:11 2:18 1:1 2:5
3:0 2:4 1:3 2:1 1:1 2:3 3:11 2:18 1:1 2:5 3:2
2:0 1:3 2:1 1:1 2:3 3:11 2:18 1:1 2:5 3:2 2:12
1:0 2:1 1:1 2:3 3:11 2:18 1:1 2:5 3:2 2:12 1:5
2:0 1:1 2:3 3:11 2:18 1:1 2:5 3:2 2:12 1:5 2:5
1:0 2:3 3:11 2:18 1:1 2:5 3:2 2:12 1:5 2:5 3:1
2:0 3:11 2:18 1:1 2:5 3:2 2:12 1:5 2:5 3:1 2:2
3:0 2:18 1:1 2:5 3:2 2:12 1:5 2:5 3:1 2:2 3:1
2:0 1:1 2:5 3:2 2:12 1:5 2:5 3:1 2:2 3:1 2:2
1:0 2:5 3:2 2:12 1:5 2:5 3:1 2:2 3:1 2:2 3:5
2:0 3:2 2:12 1:5 2:5 3:1 2:2 3:1 2:2 3:5 2:1
3:0 2:12 1:5 2:5 3:1 2:2 3:1 2:2 3:5 2:1 3:2
2:0 1:5 2:5 3:1 2:2 3:1 2:2 3:5 2:1 3:2 2:12
1:0 2:5 3:1 2:2 3:1 2:2 3:5 2:1 3:2 2:12 1:6
2:0 3:1 2:2 3:1 2:2 3:5 2:1 3:2 2:12 1:6 2:5
3:0 2:2 3:1 2:2 3:5 2:1 3:2 2:12 1:6 2:5 3:11
2:0 3:1 2:2 3:5 2:1 3:2 2:12 1:6 2:5 3:11 2:15
3:0 2:2 3:5 2:1 3:2 2:12 1:6 2:5 3:11 2:15 1:4
2:0 3:5 2:1 3:2 2:12 1:6 2:5 3:11 2:15 1:4 2:3
3:0 2:1 3:2 2:12 1:6 2:5 3:11 2:15 1:4 2:3 3:2
2:0 3:2 2:12 1:6 2:5 3:11 2:15 1:4 2:3 3:2 2:9
3:0 2:12 1:6 2:5 3:11 2:15 1:4 2:3 3:2 2:9 3:7
2:0 1:6 2:5 3:11 2:15 1:4 2:3 3:2 2:9 3:7 2:3
1:0 2:5 3:11 2:15 1:4 2:3 3:2 2:9 3:7 2:3 3:4
2:0 3:11 2:15 1:4 2:3 3:2 2:9 3:7 2:3 3:4 2:5
3:0 2:15 1:4 2:3 3:2 2:9 3:7 2:3 3:4 2:5 1:4
2:0 1:4 2:3 3:2 2:9 3:7 2:3 3:4 2:5 1:4 2:4
1:0 2:3 3:2 2:9 3:7 2:3 3:4 2:5 1:4 2:4 3:4
2:0 3:2 2:9 3:7 2:3 3:4 2:5 1:4 2:4 3:4 2:4
3:0 2:9 3:7 2:3 3:4 2:5 1:4 2:4 3:4 2:4 3:5
2:0 3:7 2:3 3:4 2:5 1:4 2:4 3:4 2:4 3:5 2:2
3:0 2:3 3:4 2:5 1:4 2:4 3:4 2:4 3:5 2:2 3:2
2:0 3:4 2:5 1:4 2:4 3:4 2:4 3:5 2:2 3:2 2:1
3:0 2:5 1:4 2:4 3:4 2:4 3:5 2:2 3:2 2:1 1:3
2:0 1:4 2:4 3:4 2:4 3:5 2:2 3:2 2:1 1:3 2:5
1:0 2:4 3:4 2:4 3:5 2:2 3:2 2:1 1:3 2:5 3:11
2:0 3:4 2:4 3:5 2:2 3:2 2:1 1:3 2:5 3:11 2:6
3:0 2:4 3:5 2:2 3:2 2:1 1:3 2:5 3:11 2:6 1:1
2:0 3:5 2:2 3:2 2:1 1:3 2:5 3:11 2:6 1:1 2:5
3:0 2:2 3:2 2:1 1:3 2:5 3:11 2:6 1:1 2:5 3:4
2:0 3:2 2:1 1:3 2:5 3:11 2:6 1:1 2:5 3:4 2:1
3:0 2:1 1:3 2:5 3:11 2:6 1:1 2:5 3:4 2:1 3:1
2:0 1:3 2:5 3:11 2:6 1:1 2:5 3:4 2:1 3:1 2:1
1:0 2:5 3:11 2:6 1:1 2:5 3:4 2:1 3:1 2:1 3:5
2:0 3:11 2:6 1:1 2:5 3:4 2:1 3:1 2:1 3:5 2:2
3:0 2:6 1:1 2:5 3:4 2:1 3:1 2:1 3:5 2:2 1:4
2:0 1:1 2:5 3:4 2:1 3:1 2:1 3:5 2:2 1:4 3:6
1:0 2:5 3:4 2:1 3:1 2:1 3:5 2:2 1:4 3:6 2:1
2:0 3:4 2:1 3:1 2:1 3:5 2:2 1:4 3:6 2:1 3:10
3:0 2:1 3:1 2:1 3:5 2:2 1:4 3:6 2:1 3:10 2:7
2:0 3:1 2:1 3:5 2:2 1:4 3:6 2:1 3:10 2:7 1:1
3:0 2:1 3:5 2:2 1:4 3:6 2:1 3:10 2:7 1:1 2:6
2:0 3:5 2:2 1:4 3:6 2:1 3:10 2:7 1:1 2:6 3:2
3:0 2:2 1:4 3:6 2:1 3:10 2:7 1:1 2:6 3:2 2:1
2:0 1:4 3:6 2:1 3:10 2:7 1:1 2:6 3:2 2:1 3:7
1:0 3:6 2:1 3:10 2:7 1:1 2:6 3:2 2:1 3:7 2:5
3:0 2:1 3:10 2:7 1:1 2:6 3:2 2:1 3:7 2:5 1:3
2:0 3:10 2:7 1:1 2:6 3:2 2:1 3:7 2:5 1:3 2:5
3:0 2:7 1:1 2:6 3:2 2:1 3:7 2:5 1:3 2:5 3:1
2:0 1:1 2:6 3:2 2:1 3:7 2:5 1:3 2:5 3:1 2:1
1:0 2:6 3:2 2:1 3:7 2:5 1:3 2:5 3:1 2:1 3:10
2:0 3:2 2:1 3:7 2:5 1:3 2:5 3:1 2:1 3:10 2:6
3:0 2:1 3:7 2:5 1:3 2:5 3:1 2:1 3:10 2:6 1:2
2:0 3:7 2:5 1:3 2:5 3:1 2:1 3:10 2:6 1:2 2:5
3:0 2:5 1:3 2:5 3:1 2:1 3:10 2:6 1:2 2:5 3:9
2:0 1:3 2:5 3:1 2:1 3:10 2:6 1:2 2:5 3:9 2:5
1:0 2:5 3:1 2:1 3:10 2:6 1:2 2:5 3:9 2:5 1:4
2:0 3:1 2:1 3:10 2:6 1:2 2:5 3:9 2:5 1:4 2:6
3:0 2:1 3:10 2:6 1:2 2:5 3:9 2:5 1:4 2:6 3:2
2:0 3:10 2:6 1:2 2:5 3:9 2:5 1:4 2:6 3:2 2:1
3:0 2:6 1:2 2:5 3:9 2:5 1:4 2:6 3:2 2:1 3:9
2:0 1:2 2:5 3:9 2:5 1:4 2:6 3:2 2:1 3:9 2:13
1:0 2:5 3:9 2:5 1:4 2:6 3:2 2:1 3:9 2:13 1:3
2:0 3:9 2:5 1:4 2:6 3:2 2:1 3:9 2:13 1:3 2:4
3:0 2:5 1:4 2:6 3:2 2:1 3:9 2:13 1:3 2:4 3:3
2:0 1:4 2:6 3:2 2:1 3:9 2:13 1:3 2:4 3:3 2:12
1:0 2:6 3:2 2:1 3:9 2:13 1:3 2:4 3:3 2:12 1:5
2:0 3:2 2:1 3:9 2:13 1:3 2:4 3:3 2:12 1:5 3:6
3:0 2:1 3:9 2:13 1:3 2:4 3:3 2:12 1:5 3:6 2:2
2:0 3:9 2:13 1:3 2:4 3:3 2:12 1:5 3:6 2:2 3:2
3:0 2:13 1:3 2:4 3:3 2:12 1:5 3:6 2:2 3:2 2:1
2:0 1:3 2:4 3:3 2:12 1:5 3:6 2:2 3:2 2:1 3:2
1:0 2:4 3:3 2:12 1:5 3:6 2:2 3:2 2:1 3:2 2:1
2:0 3:3 2:12 1:5 3:6 2:2 3:2 2:1 3:2 2:1 3:6
3:0 2:12 1:5 3:6 2:2 3:2 2:1 3:2 2:1 3:6 2:13
2:0 1:5 3:6 2:2 3:2 2:1 3:2 2:1 3:6 2:13 1:4
1:0 3:6 2:2 3:2 2:1 3:2 2:1 3:6 2:13 1:4 2:4
3:0 2:2 3:2 2:1 3:2 2:1 3:6 2:13 1:4 2:4 3:13
2:0 3:2 2:1 3:2 2:1 3:6 2:13 1:4 2:4 3:13 2:7
3:0 2:1 3:2 2:1 3:6 2:13 1:4 2:4 3:13 2:7 1:1
2:0 3:2 2:1 3:6 2:13 1:4 2:4 3:13 2:7 1:1 2:6
3:0 2:1 3:6 2:13 1:4 2:4 3:13 2:7 1:1 2:6 3:10
2:0 3:6 2:13 1:4 2:4 3:13 2:7 1:1 2:6 3:10 2:5
3:0 2:13 1:4 2:4 3:13 2:7 1:1 2:6 3:10 2:5 1:4
2:0 1:4 2:4 3:13 2:7 1:1 2:6 3:10 2:5 1:4 2:5
1:0 2:4 3:13 2:7 1:1 2:6 3:10 2:5 1:4 2:5 3:10
2:0 3:13 2:7 1:1 2:6 3:10 2:5 1:4 2:5 3:10 2:16
3:0 2:7 1:1 2:6 3:10 2:5 1:4 2:5 3:10 2:16 1:3
2:0 1:1 2:6 3:10 2:5 1:4 2:5 3:10 2:16 1:3 2:4
1:0 2:6 3:10 2:5 1:4 2:5 3:10 2:16 1:3 2:4 3:2
2:0 3:10 2:5 1:4 2:5 3:10 2:16 1:3 2:4 3:2 2:13
3:0 2:5 1:4 2:5 3:10 2:16 1:3 2:4 3:2 2:13 1:5
2:0 1:4 2:5 3:10 2:16 1:3 2:4 3:2 2:13 1:5 2:5
1:0 2:5 3:10 2:16 1:3 2:4 3:2 2:13 1:5 2:5 3:1
2:0 3:10 2:16 1:3 2:4 3:2 2:13 1:5 2:5 3:1 2:2
3:0 2:16 1:3 2:4 3:2 2:13 1:5 2:5 3:1 2:2 3:7
2:0 1:3 2:4 3:2 2:13 1:5 2:5 3:1 2:2 3:7 2:1
1:0 2:4 3:2 2:13 1:5 2:5 3:1 2:2 3:7 2:1 3:4
2:0 3:2 2:13 1:5 2:5 3:1 2:2 3:7 2:1 3:4 2:4
3:0 2:13 1:5 2:5 3:1 2:2 3:7 2:1 3:4 2:4 3:4
2:0 1:5 2:5 3:1 2:2 3:7 2:1 3:4 2:4 3:4 2:6
1:0 2:5 3:1 2:2 3:7 2:1 3:4 2:4 3:4 2:6 1:3
2:0 3:1 2:2 3:7 2:1 3:4 2:4 3:4 2:6 1:3 2:4
3:0 2:2 3:7 2:1 3:4 2:4 3:4 2:6 1:3 2:4 3:1
2:0 3:7 2:1 3:4 2:4 3:4 2:6 1:3 2:4 3:1 2:1
3:0 2:1 3:4 2:4 3:4 2:6 1:3 2:4 3:1 2:1 3:4
2:0 3:4 2:4 3:4 2:6 1:3 2:4 3:1 2:1 3:4 2:1
3:0 2:4 3:4 2:6 1:3 2:4 3:1 2:1 3:4 2:1 3:5
2:0 3:4 2:6 1:3 2:4 3:1 2:1 3:4 2:1 3:5 2:5
3:0 2:6 1:3 2:4 3:1 2:1 3:4 2:1 3:5 2:5 1:3
2:0 1:3 2:4 3:1 2:1 3:4 2:1 3:5 2:5 1:3 2:4
1:0 2:4 3:1 2:1 3:4 2:1 3:5 2:5 1:3 2:4 3:12
2:0 3:1 2:1 3:4 2:1 3:5 2:5 1:3 2:4 3:12 2:7
3:0 2:1 3:4 2:1 3:5 2:5 1:3 2:4 3:12 2:7 1:1
2:0 3:4 2:1 3:5 2:5 1:3 2:4 3:12 2:7 1:1 2:5
3:0 2:1 3:5 2:5 1:3 2:4 3:12 2:7 1:1 2:5 3:3
2:0 3:5 2:5 1:3 2:4 3:12 2:7 1:1 2:5 3:3 2:1
3:0 2:5 1:3 2:4 3:12 2:7 1:1 2:5 3:3 2:1 3:7
2:0 1:3 2:4 3:12 2:7 1:1 2:5 3:3 2:1 3:7 2:3
1:0 2:4 3:12 2:7 1:1 2:5 3:3 2:1 3:7 2:3 3:2
2:0 3:12 2:7 1:1 2:5 3:3 2:1 3:7 2:3 3:2 2:2
3:0 2:7 1:1 2:5 3:3 2:1 3:7 2:3 3:2 2:2 1:2
2:0 1:1 2:5 3:3 2:1 3:7 2:3 3:2 2:2 1:2 2:7
1:0 2:5 3:3 2:1 3:7 2:3 3:2 2:2 1:2 2:7 3:10
2:0 3:3 2:1 3:7 2:3 3:2 2:2 1:2 2:7 3:10 2:15
3:0 2:1 3:7 2:3 3:2 2:2 1:2 2:7 3:10 2:15 1:3
2:0 3:7 2:3 3:2 2:2 1:2 2:7 3:10 2:15 1:3 2:4
3:0 2:3 3:2 2:2 1:2 2:7 3:10 2:15 1:3 2:4 3:2
2:0 3:2 2:2 1:2 2:7 3:10 2:15 1:3 2:4 3:2 2:14
3:0 2:2 1:2 2:7 3:10 2:15 1:3 2:4 3:2 2:14 1:3
2:0 1:2 2:7 3:10 2:15 1:3 2:4 3:2 2:14 1:3 3:6
1:0 2:7 3:10 2:15 1:3 2:4 3:2 2:14 1:3 3:6 2:2
2:0 3:10 2:15 1:3 2:4 3:2 2:14 1:3 3:6 2:2 3:3
3:0 2:15 1:3 2:4 3:2 2:14 1:3 3:6 2:2 3:3 2:1
2:0 1:3 2:4 3:2 2:14 1:3 3:6 2:2 3:3 2:1 3:10
1:0 2:4 3:2 2:14 1:3 3:6 2:2 3:3 2:1 3:10 2:3
2:0 3:2 2:14 1:3 3:6 2:2 3:3 2:1 3:10 2:3 3:4
3:0 2:14 1:3 3:6 2:2 3:3 2:1 3:10 2:3 3:4 2:3
2:0 1:3 3:6 2:2 3:3 2:1 3:10 2:3 3:4 2:3 1:5
1:0 3:6 2:2 3:3 2:1 3:10 2:3 3:4 2:3 1:5 2:4
3:0 2:2 3:3 2:1 3:10 2:3 3:4 2:3 1:5 2:4 3:4
2:0 3:3 2:1 3:10 2:3 3:4 2:3 1:5 2:4 3:4 2:3
3:0 2:1 3:10 2:3 3:4 2:3 1:5 2:4 3:4 2:3 3:5
2:0 3:10 2:3 3:4 2:3 1:5 2:4 3:4 2:3 3:5 2:3
3:0 2:3 3:4 2:3 1:5 2:4 3:4 2:3 3:5 2:3 1:5
2:0 3:4 2:3 1:5 2:4 3:4 2:3 3:5 2:3 1:5 2:5
3:0 2:3 1:5 2:4 3:4 2:3 3:5 2:3 1:5 2:5 3:11
2:0 1:5 2:4 3:4 2:3 3:5 2:3 1:5 2:5 3:11 2:7
1:0 2:4 3:4 2:3 3:5 2:3 1:5 2:5 3:11 2:7 1:1
2:0 3:4 2:3 3:5 2:3 1:5 2:5 3:11 2:7 1:1 2:5
3:0 2:3 3:5 2:3 1:5 2:5 3:11 2:7 1:1 2:5 3:5
2:0 3:5 2:3 1:5 2:5 3:11 2:7 1:1 2:5 3:5 2:2
3:0 2:3 1:5 2:5 3:11 2:7 1:1 2:5 3:5 2:2 3:4
2:0 1:5 2:5 3:11 2:7 1:1 2:5 3:5 2:2 3:4 5:2
1:0 2:5 3:11 2:7 1:1 2:5 3:5 2:2 3:4 5:2 2:1
2:0 3:11 2:7 1:1 2:5 3:5 2:2 3:4 5:2 2:1 3:2
3:0 2:7 1:1 2:5 3:5 2:2 3:4 5:2 2:1 3:2 2:1
2:0 1:1 2:5 3:5 2:2 3:4 5:2 2:1 3:2 2:1 1:3
1:0 2:5 3:5 2:2 3:4 5:2 2:1 3:2 2:1 1:3 2:5
2:0 3:5 2:2 3:4 5:2 2:1 3:2 2:1 1:3 2:5 3:11
3:0 2:2 3:4 5:2 2:1 3:2 2:1 1:3 2:5 3:11 2:16
2:0 3:4 5:2 2:1 3:2 2:1 1:3 2:5 3:11 2:16 1:2
3:0 5:2 2:1 3:2 2:1 1:3 2:5 3:11 2:16 1:2 2:4
5:0 2:1 3:2 2:1 1:3 2:5 3:11 2:16 1:2 2:4 3:2
2:0 3:2 2:1 1:3 2:5 3:11 2:16 1:2 2:4 3:2 1:9
3:0 2:1 1:3 2:5 3:11 2:16 1:2 2:4 3:2 1:9 2:7
2:0 1:3 2:5 3:11 2:16 1:2 2:4 3:2 1:9 2:7 3:8
1:0 2:5 3:11 2:16 1:2 2:4 3:2 1:9 2:7 3:8 2:16
2:0 3:11 2:16 1:2 2:4 3:2 1:9 2:7 3:8 2:16 1:3
3:0 2:16 1:2 2:4 3:2 1:9 2:7 3:8 2:16 1:3 2:4
2:0 1:2 2:4 3:2 1:9 2:7 3:8 2:16 1:3 2:4 3:2
1:0 2:4 3:2 1:9 2:7 3:8 2:16 1:3 2:4 3:2 2:13
2:0 3:2 1:9 2:7 3:8 2:16 1:3 2:4 3:2 2:13 1:4
3:0 1:9 2:7 3:8 2:16 1:3 2:4 3:2 2:13 1:4 3:6
1:0 2:7 3:8 2:16 1:3 2:4 3:2 2:13 1:4 3:6 2:2
2:0 3:8 2:16 1:3 2:4 3:2 2:13 1:4 3:6 2:2 3:10
3:0 2:16 1:3 2:4 3:2 2:13 1:4 3:6 2:2 3:10 2:7
2:0 1:3 2:4 3:2 2:13 1:4 3:6 2:2 3:10 2:7 3:4
1:0 2:4 3:2 2:13 1:4 3:6 2:2 3:10 2:7 3:4 2:5
2:0 3:2 2:13 1:4 3:6 2:2 3:10 2:7 3:4 2:5 1:3
3:0 2:13 1:4 3:6 2:2 3:10 2:7 3:4 2:5 1:3 2:5
2:0 1:4 3:6 2:2 3:10 2:7 3:4 2:5 1:3 2:5 3:1
1:0 3:6 2:2 3:10 2:7 3:4 2:5 1:3 2:5 3:1 2:1
3:0 2:2 3:10 2:7 3:4 2:5 1:3 2:5 3:1 2:1 3:10
2:0 3:10 2:7 3:4 2:5 1:3 2:5 3:1 2:1 3:10 2:5
3:0 2:7 3:4 2:5 1:3 2:5 3:1 2:1 3:10 2:5 1:3
2:0 3:4 2:5 1:3 2:5 3:1 2:1 3:10 2:5 1:3 2:6
3:0 2:5 1:3 2:5 3:1 2:1 3:10 2:5 1:3 2:6 3:10
2:0 1:3 2:5 3:1 2:1 3:10 2:5 1:3 2:6 3:10 2:5
1:0 2:5 3:1 2:1 3:10 2:5 1:3 2:6 3:10 2:5 1:2
2:0 3:1 2:1 3:10 2:5 1:3 2:6 3:10 2:5 1:2 2:5
3:0 2:1 3:10 2:5 1:3 2:6 3:10 2:5 1:2 2:5 3:12
2:0 3:10 2:5 1:3 2:6 3:10 2:5 1:2 2:5 3:12 1:7
3:0 2:5 1:3 2:6 3:10 2:5 1:2 2:5 3:12 1:7 2:6
2:0 1:3 2:6 3:10 2:5 1:2 2:5 3:12 1:7 2:6 3:10
1:0 2:6 3:10 2:5 1:2 2:5 3:12 1:7 2:6 3:10 2:6
2:0 3:10 2:5 1:2 2:5 3:12 1:7 2:6 3:10 2:6 1:3
3:0 2:5 1:2 2:5 3:12 1:7 2:6 3:10 2:6 1:3 2:5
2:0 1:2 2:5 3:12 1:7 2:6 3:10 2:6 1:3 2:5 3:1
1:0 2:5 3:12 1:7 2:6 3:10 2:6 1:3 2:5 3:1 2:1
2:0 3:12 1:7 2:6 3:10 2:6 1:3 2:5 3:1 2:1 3:10
3:0 1:7 2:6 3:10 2:6 1:3 2:5 3:1 2:1 3:10 1:7
1:0 2:6 3:10 2:6 1:3 2:5 3:1 2:1 3:10 1:7 2:6
2:0 3:10 2:6 1:3 2:5 3:1 2:1 3:10 1:7 2:6 3:9
3:0 2:6 1:3 2:5 3:1 2:1 3:10 1:7 2:6 3:9 2:5
2:0 1:3 2:5 3:1 2:1 3:10 1:7 2:6 3:9 2:5 1:3
1:0 2:5 3:1 2:1 3:10 1:7 2:6 3:9 2:5 1:3 2:6
2:0 3:1 2:1 3:10 1:7 2:6 3:9 2:5 1:3 2:6 3:10
3:0 2:1 3:10 1:7 2:6 3:9 2:5 1:3 2:6 3:10 2:15
2:0 3:10 1:7 2:6 3:9 2:5 1:3 2:6 3:10 2:15 1:4
3:0 1:7 2:6 3:9 2:5 1:3 2:6 3:10 2:15 1:4 2:3
1:0 2:6 3:9 2:5 1:3 2:6 3:10 2:15 1:4 2:3 3:3
2:0 3:9 2:5 1:3 2:6 3:10 2:15 1:4 2:3 3:3 2:9
3:0 2:5 1:3 2:6 3:10 2:15 1:4 2:3 3:3 2:9 3:6
2:0 1:3 2:6 3:10 2:15 1:4 2:3 3:3 2:9 3:6 2:3
1:0 2:6 3:10 2:15 1:4 2:3 3:3 2:9 3:6 2:3 3:5
2:0 3:10 2:15 1:4 2:3 3:3 2:9 3:6 2:3 3:5 2:4
3:0 2:15 1:4 2:3 3:3 2:9 3:6 2:3 3:5 2:4 1:4
2:0 1:4 2:3 3:3 2:9 3:6 2:3 3:5 2:4 1:4 2:4
1:0 2:3 3:3 2:9 3:6 2:3 3:5 2:4 1:4 2:4 3:12
2:0 3:3 2:9 3:6 2:3 3:5 2:4 1:4 2:4 3:12 2:5
3:0 2:9 3:6 2:3 3:5 2:4 1:4 2:4 3:12 2:5 1:3
2:0 3:6 2:3 3:5 2:4 1:4 2:4 3:12 2:5 1:3 2:5
3:0 2:3 3:5 2:4 1:4 2:4 3:12 2:5 1:3 2:5 3:2
2:0 3:5 2:4 1:4 2:4 3:12 2:5 1:3 2:5 3:2 2:2
3:0 2:4 1:4 2:4 3:12 2:5 1:3 2:5 3:2 2:2 3:9
2:0 1:4 2:4 3:12 2:5 1:3 2:5 3:2 2:2 3:9 2:14
1:0 2:4 3:12 2:5 1:3 2:5 3:2 2:2 3:9 2:14 1:3
2:0 3:12 2:5 1:3 2:5 3:2 2:2 3:9 2:14 1:3 2:4
3:0 2:5 1:3 2:5 3:2 2:2 3:9 2:14 1:3 2:4 3:2
2:0 1:3 2:5 3:2 2:2 3:9 2:14 1:3 2:4 3:2 2:15
1:0 2:5 3:2 2:2 3:9 2:14 1:3 2:4 3:2 2:15 1:3
2:0 3:2 2:2 3:9 2:14 1:3 2:4 3:2 2:15 1:3 2:5
3:0 2:2 3:9 2:14 1:3 2:4 3:2 2:15 1:3 2:5 3:1
2:0 3:9 2:14 1:3 2:4 3:2 2:15 1:3 2:5 3:1 2:1
3:0 2:14 1:3 2:4 3:2 2:15 1:3 2:5 3:1 2:1 3:3
2:0 1:3 2:4 3:2 2:15 1:3 2:5 3:1 2:1 3:3 2:2
1:0 2:4 3:2 2:15 1:3 2:5 3:1 2:1 3:3 2:2 3:8
2:0 3:2 2:15 1:3 2:5 3:1 2:1 3:3 2:2 3:8 2:8
3:0 2:15 1:3 2:5 3:1 2:1 3:3 2:2 3:8 2:8 3:1
2:0 1:3 2:5 3:1 2:1 3:3 2:2 3:8 2:8 3:1 2:3
1:0 2:5 3:1 2:1 3:3 2:2 3:8 2:8 3:1 2:3 1:5
2:0 3:1 2:1 3:3 2:2 3:8 2:8 3:1 2:3 1:5 2:5
3:0 2:1 3:3 2:2 3:8 2:8 3:1 2:3 1:5 2:5 3:11
2:0 3:3 2:2 3:8 2:8 3:1 2:3 1:5 2:5 3:11 2:6
3:0 2:2 3:8 2:8 3:1 2:3 1:5 2:5 3:11 2:6 3:1
2:0 3:8 2:8 3:1 2:3 1:5 2:5 3:11 2:6 3:1 2:1
3:0 2:8 3:1 2:3 1:5 2:5 3:11 2:6 3:1 2:1 1:1
2:0 3:1 2:3 1:5 2:5 3:11 2:6 3:1 2:1 1:1 2:6
3:0 2:3 1:5 2:5 3:11 2:6 3:1 2:1 1:1 2:6 3:9
2:0 1:5 2:5 3:11 2:6 3:1 2:1 1:1 2:6 3:9 2:5
1:0 2:5 3:11 2:6 3:1 2:1 1:1 2:6 3:9 2:5 1:3
2:0 3:11 2:6 3:1 2:1 1:1 2:6 3:9 2:5 1:3 2:6
3:0 2:6 3:1 2:1 1:1 2:6 3:9 2:5 1:3 2:6 3:2
2:0 3:1 2:1 1:1 2:6 3:9 2:5 1:3 2:6 3:2 2:1
3:0 2:1 1:1 2:6 3:9 2:5 1:3 2:6 3:2 2:1 3:8
2:0 1:1 2:6 3:9 2:5 1:3 2:6 3:2 2:1 3:8 2:16
1:0 2:6 3:9 2:5 1:3 2:6 3:2 2:1 3:8 2:16 1:1
2:0 3:9 2:5 1:3 2:6 3:2 2:1 3:8 2:16 1:1 2:6
3:0 2:5 1:3 2:6 3:2 2:1 3:8 2:16 1:1 2:6 3:1
2:0 1:3 2:6 3:2 2:1 3:8 2:16 1:1 2:6 3:1 2:13
1:0 2:6 3:2 2:1 3:8 2:16 1:1 2:6 3:1 2:13 3:1
2:0 3:2 2:1 3:8 2:16 1:1 2:6 3:1 2:13 3:1 2:1
3:0 2:1 3:8 2:16 1:1 2:6 3:1 2:13 3:1 2:1 1:3
2:0 3:8 2:16 1:1 2:6 3:1 2:13 3:1 2:1 1:3 2:5
3:0 2:16 1:1 2:6 3:1 2:13 3:1 2:1 1:3 2:5 3:2
2:0 1:1 2:6 3:1 2:13 3:1 2:1 1:3 2:5 3:2 2:2
1:0 2:6 3:1 2:13 3:1 2:1 1:3 2:5 3:2 2:2 3:9
2:0 3:1 2:13 3:1 2:1 1:3 2:5 3:2 2:2 3:9 2:9
3:0 2:13 3:1 2:1 1:3 2:5 3:2 2:2 3:9 2:9 3:2
2:0 3:1 2:1 1:3 2:5 3:2 2:2 3:9 2:9 3:2 2:3
3:0 2:1 1:3 2:5 3:2 2:2 3:9 2:9 3:2 2:3 1:5
2:0 1:3 2:5 3:2 2:2 3:9 2:9 3:2 2:3 1:5 2:5
1:0 2:5 3:2 2:2 3:9 2:9 3:2 2:3 1:5 2:5 3:11
2:0 3:2 2:2 3:9 2:9 3:2 2:3 1:5 2:5 3:11 2:15
3:0 2:2 3:9 2:9 3:2 2:3 1:5 2:5 3:11 2:15 1:4
2:0 3:9 2:9 3:2 2:3 1:5 2:5 3:11 2:15 1:4 2:3
3:0 2:9 3:2 2:3 1:5 2:5 3:11 2:15 1:4 2:3 3:3
2:0 3:2 2:3 1:5 2:5 3:11 2:15 1:4 2:3 3:3 2:10
3:0 2:3 1:5 2:5 3:11 2:15 1:4 2:3 3:3 2:10 3:7
2:0 1:5 2:5 3:11 2:15 1:4 2:3 3:3 2:10 3:7 2:1
1:0 2:5 3:11 2:15 1:4 2:3 3:3 2:10 3:7 2:1 3:5
2:0 3:11 2:15 1:4 2:3 3:3 2:10 3:7 2:1 3:5 2:5
3:0 2:15 1:4 2:3 3:3 2:10 3:7 2:1 3:5 2:5 1:3
2:0 1:4 2:3 3:3 2:10 3:7 2:1 3:5 2:5 1:3 2:4
1:0 2:3 3:3 2:10 3:7 2:1 3:5 2:5 1:3 2:4 3:7
2:0 3:3 2:10 3:7 2:1 3:5 2:5 1:3 2:4 3:7 2:1
3:0 2:10 3:7 2:1 3:5 2:5 1:3 2:4 3:7 2:1 3:4
2:0 3:7 2:1 3:5 2:5 1:3 2:4 3:7 2:1 3:4 2:5
3:0 2:1 3:5 2:5 1:3 2:4 3:7 2:1 3:4 2:5 1:3
2:0 3:5 2:5 1:3 2:4 3:7 2:1 3:4 2:5 1:3 2:5
3:0 2:5 1:3 2:4 3:7 2:1 3:4 2:5 1:3 2:5 3:1
2:0 1:3 2:4 3:7 2:1 3:4 2:5 1:3 2:5 3:1 2:1
1:0 2:4 3:7 2:1 3:4 2:5 1:3 2:5 3:1 2:1 3:10
2:0 3:7 2:1 3:4 2:5 1:3 2:5 3:1 2:1 3:10 2:15
3:0 2:1 3:4 2:5 1:3 2:5 3:1 2:1 3:10 2:15 1:3
2:0 3:4 2:5 1:3 2:5 3:1 2:1 3:10 2:15 1:3 2:4
3:0 2:5 1:3 2:5 3:1 2:1 3:10 2:15 1:3 2:4 3:2
2:0 1:3 2:5 3:1 2:1 3:10 2:15 1:3 2:4 3:2 2:2
1:0 2:5 3:1 2:1 3:10 2:15 1:3 2:4 3:2 2:2 3:2
2:0 3:1 2:1 3:10 2:15 1:3 2:4 3:2 2:2 3:2 2:2
3:0 2:1 3:10 2:15 1:3 2:4 3:2 2:2 3:2 2:2 3:7
2:0 3:10 2:15 1:3 2:4 3:2 2:2 3:2 2:2 3:7 2:6
3:0 2:15 1:3 2:4 3:2 2:2 3:2 2:2 3:7 2:6 3:2
2:0 1:3 2:4 3:2 2:2 3:2 2:2 3:7 2:6 3:2 2:5
1:0 2:4 3:2 2:2 3:2 2:2 3:7 2:6 3:2 2:5 1:4
2:0 3:2 2:2 3:2 2:2 3:7 2:6 3:2 2:5 1:4 2:4
3:0 2:2 3:2 2:2 3:7 2:6 3:2 2:5 1:4 2:4 3:3
2:0 3:2 2:2 3:7 2:6 3:2 2:5 1:4 2:4 3:3 2:4
3:0 2:2 3:7 2:6 3:2 2:5 1:4 2:4 3:3 2:4 3:6
2:0 3:7 2:6 3:2 2:5 1:4 2:4 3:3 2:4 3:6 2:3
3:0 2:6 3:2 2:5 1:4 2:4 3:3 2:4 3:6 2:3 1:5
2:0 3:2 2:5 1:4 2:4 3:3 2:4 3:6 2:3 1:5 2:4
3:0 2:5 1:4 2:4 3:3 2:4 3:6 2:3 1:5 2:4 3:12
2:0 1:4 2:4 3:3 2:4 3:6 2:3 1:5 2:4 3:12 2:5
1:0 2:4 3:3 2:4 3:6 2:3 1:5 2:4 3:12 2:5 1:4
2:0 3:3 2:4 3:6 2:3 1:5 2:4 3:12 2:5 1:4 2:4
3:0 2:4 3:6 2:3 1:5 2:4 3:12 2:5 1:4 2:4 3:11
2:0 3:6 2:3 1:5 2:4 3:12 2:5 1:4 2:4 3:11 2:5
3:0 2:3 1:5 2:4 3:12 2:5 1:4 2:4 3:11 2:5 1:3
2:0 1:5 2:4 3:12 2:5 1:4 2:4 3:11 2:5 1:3 2:5
1:0 2:4 3:12 2:5 1:4 2:4 3:11 2:5 1:3 2:5 3:3
2:0 3:12 2:5 1:4 2:4 3:11 2:5 1:3 2:5 3:3 2:1
3:0 2:5 1:4 2:4 3:11 2:5 1:3 2:5 3:3 2:1 3:8
2:0 1:4 2:4 3:11 2:5 1:3 2:5 3:3 2:1 3:8 2:7
1:0 2:4 3:11 2:5 1:3 2:5 3:3 2:1 3:8 2:7 1:1
2:0 3:11 2:5 1:3 2:5 3:3 2:1 3:8 2:7 1:1 2:5
3:0 2:5 1:3 2:5 3:3 2:1 3:8 2:7 1:1 2:5 3:2
2:0 1:3 2:5 3:3 2:1 3:8 2:7 1:1 2:5 3:2 2:1
1:0 2:5 3:3 2:1 3:8 2:7 1:1 2:5 3:2 2:1 3:8
2:0 3:3 2:1 3:8 2:7 1:1 2:5 3:2 2:1 3:8 2:3
3:0 2:1 3:8 2:7 1:1 2:5 3:2 2:1 3:8 2:3 3:1
2:0 3:8 2:7 1:1 2:5 3:2 2:1 3:8 2:3 3:1 2:1
3:0 2:7 1:1 2:5 3:2 2:1 3:8 2:3 3:1 2:1 1:2
2:0 1:1 2:5 3:2 2:1 3:8 2:3 3:1 2:1 1:2 2:5
1:0 2:5 3:2 2:1 3:8 2:3 3:1 2:1 1:2 2:5 3:11
2:0 3:2 2:1 3:8 2:3 3:1 2:1 1:2 2:5 3:11 2:13
3:0 2:1 3:8 2:3 3:1 2:1 1:2 2:5 3:11 2:13 1:3
2:0 3:8 2:3 3:1 2:1 1:2 2:5 3:11 2:13 1:3 2:5
3:0 2:3 3:1 2:1 1:2 2:5 3:11 2:13 1:3 2:5 3:3
2:0 3:1 2:1 1:2 2:5 3:11 2:13 1:3 2:5 3:3 2:10
3:0 2:1 1:2 2:5 3:11 2:13 1:3 2:5 3:3 2:10 3:3
2:0 1:2 2:5 3:11 2:13 1:3 2:5 3:3 2:10 3:3 2:7
1:0 2:5 3:11 2:13 1:3 2:5 3:3 2:10 3:3 2:7 3:4
2:0 3:11 2:13 1:3 2:5 3:3 2:10 3:3 2:7 3:4 2:3
3:0 2:13 1:3 2:5 3:3 2:10 3:3 2:7 3:4 2:3 3:1
2:0 1:3 2:5 3:3 2:10 3:3 2:7 3:4 2:3 3:1 2:2
1:0 2:5 3:3 2:10 3:3 2:7 3:4 2:3 3:1 2:2 1:2
2:0 3:3 2:10 3:3 2:7 3:4 2:3 3:1 2:2 1:2 2:4
3:0 2:10 3:3 2:7 3:4 2:3 3:1 2:2 1:2 2:4 3:5
2:0 3:3 2:7 3:4 2:3 3:1 2:2 1:2 2:4 3:5 2:2
3:0 2:7 3:4 2:3 3:1 2:2 1:2 2:4 3:5 2:2 3:5
2:0 3:4 2:3 3:1 2:2 1:2 2:4 3:5 2:2 3:5 2:3
3:0 2:3 3:1 2:2 1:2 2:4 3:5 2:2 3:5 2:3 1:5
2:0 3:1 2:2 1:2 2:4 3:5 2:2 3:5 2:3 1:5 2:8
3:0 2:2 1:2 2:4 3:5 2:2 3:5 2:3 1:5 2:8 1:2
2:0 1:2 2:4 3:5 2:2 3:5 2:3 1:5 2:8 1:2 2:1
1:0 2:4 3:5 2:2 3:5 2:3 1:5 2:8 1:2 2:1 3:5
2:0 3:5 2:2 3:5 2:3 1:5 2:8 1:2 2:1 3:5 2:2
3:0 2:2 3:5 2:3 1:5 2:8 1:2 2:1 3:5 2:2 3:1
2:0 3:5 2:3 1:5 2:8 1:2 2:1 3:5 2:2 3:1 2:13
3:0 2:3 1:5 2:8 1:2 2:1 3:5 2:2 3:1 2:13 1:3
2:0 1:5 2:8 1:2 2:1 3:5 2:2 3:1 2:13 1:3 2:4
1:0 2:8 1:2 2:1 3:5 2:2 3:1 2:13 1:3 2:4 3:2
2:0 1:2 2:1 3:5 2:2 3:1 2:13 1:3 2:4 3:2 2:7
1:0 2:1 3:5 2:2 3:1 2:13 1:3 2:4 3:2 2:7 3:4
2:0 3:5 2:2 3:1 2:13 1:3 2:4 3:2 2:7 3:4 2:8
3:0 2:2 3:1 2:13 1:3 2:4 3:2 2:7 3:4 2:8 3:4
2:0 3:1 2:13 1:3 2:4 3:2 2:7 3:4 2:8 3:4 2:3
3:0 2:13 1:3 2:4 3:2 2:7 3:4 2:8 3:4 2:3 3:1
2:0 1:3 2:4 3:2 2:7 3:4 2:8 3:4 2:3 3:1 2:1
1:0 2:4 3:2 2:7 3:4 2:8 3:4 2:3 3:1 2:1 1:3
2:0 3:2 2:7 3:4 2:8 3:4 2:3 3:1 2:1 1:3 2:4
3:0 2:7 3:4 2:8 3:4 2:3 3:1 2:1 1:3 2:4 3:6
2:0 3:4 2:8 3:4 2:3 3:1 2:1 1:3 2:4 3:6 2:1
3:0 2:8 3:4 2:3 3:1 2:1 1:3 2:4 3:6 2:1 3:4
2:0 3:4 2:3 3:1 2:1 1:3 2:4 3:6 2:1 3:4 2:6
3:0 2:3 3:1 2:1 1:3 2:4 3:6 2:1 3:4 2:6 1:3
2:0 3:1 2:1 1:3 2:4 3:6 2:1 3:4 2:6 1:3 2:6
3:0 2:1 1:3 2:4 3:6 2:1 3:4 2:6 1:3 2:6 3:10
2:0 1:3 2:4 3:6 2:1 3:4 2:6 1:3 2:6 3:10 2:14
1:0 2:4 3:6 2:1 3:4 2:6 1:3 2:6 3:10 2:14 1:4
2:0 3:6 2:1 3:4 2:6 1:3 2:6 3:10 2:14 1:4 2:4
3:0 2:1 3:4 2:6 1:3 2:6 3:10 2:14 1:4 2:4 3:1
2:0 3:4 2:6 1:3 2:6 3:10 2:14 1:4 2:4 3:1 2:14
3:0 2:6 1:3 2:6 3:10 2:14 1:4 2:4 3:1 2:14 1:5
2:0 1:3 2:6 3:10 2:14 1:4 2:4 3:1 2:14 1:5 2:6
1:0 2:6 3:10 2:14 1:4 2:4 3:1 2:14 1:5 2:6 3:1
2:0 3:10 2:14 1:4 2:4 3:1 2:14 1:5 2:6 3:1 2:2
3:0 2:14 1:4 2:4 3:1 2:14 1:5 2:6 3:1 2:2 3:2
2:0 1:4 2:4 3:1 2:14 1:5 2:6 3:1 2:2 3:2 2:3
1:0 2:4 3:1 2:14 1:5 2:6 3:1 2:2 3:2 2:3 3:9
2:0 3:1 2:14 1:5 2:6 3:1 2:2 3:2 2:3 3:9 2:1
3:0 2:14 1:5 2:6 3:1 2:2 3:2 2:3 3:9 2:1 3:6
2:0 1:5 2:6 3:1 2:2 3:2 2:3 3:9 2:1 3:6 2:4
1:0 2:6 3:1 2:2 3:2 2:3 3:9 2:1 3:6 2:4 3:1
2:0 3:1 2:2 3:2 2:3 3:9 2:1 3:6 2:4 3:1 2:1
3:0 2:2 3:2 2:3 3:9 2:1 3:6 2:4 3:1 2:1 1:1
2:0 3:2 2:3 3:9 2:1 3:6 2:4 3:1 2:1 1:1 2:5
3:0 2:3 3:9 2:1 3:6 2:4 3:1 2:1 1:1 2:5 3:11
2:0 3:9 2:1 3:6 2:4 3:1 2:1 1:1 2:5 3:11 2:4
3:0 2:1 3:6 2:4 3:1 2:1 1:1 2:5 3:11 2:4 3:1
2:0 3:6 2:4 3:1 2:1 1:1 2:5 3:11 2:4 3:1 2:1
3:0 2:4 3:1 2:1 1:1 2:5 3:11 2:4 3:1 2:1 1:2
2:0 3:1 2:1 1:1 2:5 3:11 2:4 3:1 2:1 1:2 2:6
3:0 2:1 1:1 2:5 3:11 2:4 3:1 2:1 1:2 2:6 3:11
2:0 1:1 2:5 3:11 2:4 3:1 2:1 1:2 2:6 3:11 2:7
1:0 2:5 3:11 2:4 3:1 2:1 1:2 2:6 3:11 2:7 1:1
2:0 3:11 2:4 3:1 2:1 1:2 2:6 3:11 2:7 1:1 2:5
3:0 2:4 3:1 2:1 1:2 2:6 3:11 2:7 1:1 2:5 3:11
2:0 3:1 2:1 1:2 2:6 3:11 2:7 1:1 2:5 3:11 2:5
3:0 2:1 1:2 2:6 3:11 2:7 1:1 2:5 3:11 2:5 1:3
2:0 1:2 2:6 3:11 2:7 1:1 2:5 3:11 2:5 1:3 2:5
1:0 2:6 3:11 2:7 1:1 2:5 3:11 2:5 1:3 2:5 3:13
2:0 3:11 2:7 1:1 2:5 3:11 2:5 1:3 2:5 3:13 2:12
3:0 2:7 1:1 2:5 3:11 2:5 1:3 2:5 3:13 2:12 1:4
2:0 1:1 2:5 3:11 2:5 1:3 2:5 3:13 2:12 1:4 2:4
1:0 2:5 3:11 2:5 1:3 2:5 3:13 2:12 1:4 2:4 3:2
2:0 3:11 2:5 1:3 2:5 3:13 2:12 1:4 2:4 3:2 2:9
3:0 2:5 1:3 2:5 3:13 2:12 1:4 2:4 3:2 2:9 3:5
2:0 1:3 2:5 3:13 2:12 1:4 2:4 3:2 2:9 3:5 2:6
1:0 2:5 3:13 2:12 1:4 2:4 3:2 2:9 3:5 2:6 3:3
2:0 3:13 2:12 1:4 2:4 3:2 2:9 3:5 2:6 3:3 2:3
3:0 2:12 1:4 2:4 3:2 2:9 3:5 2:6 3:3 2:3 3:1
2:0 1:4 2:4 3:2 2:9 3:5 2:6 3:3 2:3 3:1 2:2
1:0 2:4 3:2 2:9 3:5 2:6 3:3 2:3 3:1 2:2 1:4
2:0 3:2 2:9 3:5 2:6 3:3 2:3 3:1 2:2 1:4 2:5
3:0 2:9 3:5 2:6 3:3 2:3 3:1 2:2 1:4 2:5 3:11
2:0 3:5 2:6 3:3 2:3 3:1 2:2 1:4 2:5 3:11 2:14
3:0 2:6 3:3 2:3 3:1 2:2 1:4 2:5 3:11 2:14 1:4
2:0 3:3 2:3 3:1 2:2 1:4 2:5 3:11 2:14 1:4 2:4
3:0 2:3 3:1 2:2 1:4 2:5 3:11 2:14 1:4 2:4 3:2
2:0 3:1 2:2 1:4 2:5 3:11 2:14 1:4 2:4 3:2 1:9
3:0 2:2 1:4 2:5 3:11 2:14 1:4 2:4 3:2 1:9 2:7
2:0 1:4 2:5 3:11 2:14 1:4 2:4 3:2 1:9 2:7 1:2
1:0 2:5 3:11 2:14 1:4 2:4 3:2 1:9 2:7 1:2 2:5
2:0 3:11 2:14 1:4 2:4 3:2 1:9 2:7 1:2 2:5 3:1
3:0 2:14 1:4 2:4 3:2 1:9 2:7 1:2 2:5 3:1 2:2
2:0 1:4 2:4 3:2 1:9 2:7 1:2 2:5 3:1 2:2 3:6
1:0 2:4 3:2 1:9 2:7 1:2 2:5 3:1 2:2 3:6 2:1
2:0 3:2 1:9 2:7 1:2 2:5 3:1 2:2 3:6 2:1 3:3
3:0 1:9 2:7 1:2 2:5 3:1 2:2 3:6 2:1 3:3 2:8
1:0 2:7 1:2 2:5 3:1 2:2 3:6 2:1 3:3 2:8 3:1
2:0 1:2 2:5 3:1 2:2 3:6 2:1 3:3 2:8 3:1 2:6
1:0 2:5 3:1 2:2 3:6 2:1 3:3 2:8 3:1 2:6 1:4
2:0 3:1 2:2 3:6 2:1 3:3 2:8 3:1 2:6 1:4 2:5
3:0 2:2 3:6 2:1 3:3 2:8 3:1 2:6 1:4 2:5 3:2
2:0 3:6 2:1 3:3 2:8 3:1 2:6 1:4 2:5 3:2 2:1
3:0 2:1 3:3 2:8 3:1 2:6 1:4 2:5 3:2 2:1 3:8
2:0 3:3 2:8 3:1 2:6 1:4 2:5 3:2 2:1 3:8 2:7
3:0 2:8 3:1 2:6 1:4 2:5 3:2 2:1 3:8 2:7 1:1
2:0 3:1 2:6 1:4 2:5 3:2 2:1 3:8 2:7 1:1 2:5
3:0 2:6 1:4 2:5 3:2 2:1 3:8 2:7 1:1 2:5 3:10
2:0 1:4 2:5 3:2 2:1 3:8 2:7 1:1 2:5 3:10 2:6
1:0 2:5 3:2 2:1 3:8 2:7 1:1 2:5 3:10 2:6 1:3
2:0 3:2 2:1 3:8 2:7 1:1 2:5 3:10 2:6 1:3 3:6
3:0 2:1 3:8 2:7 1:1 2:5 3:10 2:6 1:3 3:6 2:1
2:0 3:8 2:7 1:1 2:5 3:10 2:6 1:3 3:6 2:1 3:10
3:0 2:7 1:1 2:5 3:10 2:6 1:3 3:6 2:1 3:10 2:5
2:0 1:1 2:5 3:10 2:6 1:3 3:6 2:1 3:10 2:5 1:3
1:0 2:5 3:10 2:6 1:3 3:6 2:1 3:10 2:5 1:3 2:6
2:0 3:10 2:6 1:3 3:6 2:1 3:10 2:5 1:3 2:6 3:10
3:0 2:6 1:3 3:6 2:1 3:10 2:5 1:3 2:6 3:10 2:6
2:0 1:3 3:6 2:1 3:10 2:5 1:3 2:6 3:10 2:6 1:1
1:0 3:6 2:1 3:10 2:5 1:3 2:6 3:10 2:6 1:1 2:6
3:0 2:1 3:10 2:5 1:3 2:6 3:10 2:6 1:1 2:6 3:10
2:0 3:10 2:5 1:3 2:6 3:10 2:6 1:1 2:6 3:10 1:8
3:0 2:5 1:3 2:6 3:10 2:6 1:1 2:6 3:10 1:8 2:6
2:0 1:3 2:6 3:10 2:6 1:1 2:6 3:10 1:8 2:6 3:5
1:0 2:6 3:10 2:6 1:1 2:6 3:10 1:8 2:6 3:5 2:1
2:0 3:10 2:6 1:1 2:6 3:10 1:8 2:6 3:5 2:1 3:4
3:0 2:6 1:1 2:6 3:10 1:8 2:6 3:5 2:1 3:4 2:4
2:0 1:1 2:6 3:10 1:8 2:6 3:5 2:1 3:4 2:4 1:4
1:0 2:6 3:10 1:8 2:6 3:5 2:1 3:4 2:4 1:4 2:6
2:0 3:10 1:8 2:6 3:5 2:1 3:4 2:4 1:4 2:6 3:10
3:0 1:8 2:6 3:5 2:1 3:4 2:4 1:4 2:6 3:10 2:17
1:0 2:6 3:5 2:1 3:4 2:4 1:4 2:6 3:10 2:17 1:1
2:0 3:5 2:1 3:4 2:4 1:4 2:6 3:10 2:17 1:1 2:5
3:0 2:1 3:4 2:4 1:4 2:6 3:10 2:17 1:1 2:5 3:2
2:0 3:4 2:4 1:4 2:6 3:10 2:17 1:1 2:5 3:2 2:12
3:0 2:4 1:4 2:6 3:10 2:17 1:1 2:5 3:2 2:12 1:5
2:0 1:4 2:6 3:10 2:17 1:1 2:5 3:2 2:12 1:5 3:6
1:0 2:6 3:10 2:17 1:1 2:5 3:2 2:12 1:5 3:6 2:2
2:0 3:10 2:17 1:1 2:5 3:2 2:12 1:5 3:6 2:2 3:3
3:0 2:17 1:1 2:5 3:2 2:12 1:5 3:6 2:2 3:3 2:1
2:0 1:1 2:5 3:2 2:12 1:5 3:6 2:2 3:3 2:1 3:8
1:0 2:5 3:2 2:12 1:5 3:6 2:2 3:3 2:1 3:8 2:12
2:0 3:2 2:12 1:5 3:6 2:2 3:3 2:1 3:8 2:12 3:1
3:0 2:12 1:5 3:6 2:2 3:3 2:1 3:8 2:12 3:1 2:2
2:0 1:5 3:6 2:2 3:3 2:1 3:8 2:12 3:1 2:2 1:3
1:0 3:6 2:2 3:3 2:1 3:8 2:12 3:1 2:2 1:3 2:8
3:0 2:2 3:3 2:1 3:8 2:12 3:1 2:2 1:3 2:8 3:8
2:0 3:3 2:1 3:8 2:12 3:1 2:2 1:3 2:8 3:8 2:15
3:0 2:1 3:8 2:12 3:1 2:2 1:3 2:8 3:8 2:15 1:4
2:0 3:8 2:12 3:1 2:2 1:3 2:8 3:8 2:15 1:4 2:4
3:0 2:12 3:1 2:2 1:3 2:8 3:8 2:15 1:4 2:4 3:2
2:0 3:1 2:2 1:3 2:8 3:8 2:15 1:4 2:4 3:2 2:12
3:0 2:2 1:3 2:8 3:8 2:15 1:4 2:4 3:2 2:12 1:5
2:0 1:3 2:8 3:8 2:15 1:4 2:4 3:2 2:12 1:5 2:6
1:0 2:8 3:8 2:15 1:4 2:4 3:2 2:12 1:5 2:6 3:1
2:0 3:8 2:15 1:4 2:4 3:2 2:12 1:5 2:6 3:1 2:2
3:0 2:15 1:4 2:4 3:2 2:12 1:5 2:6 3:1 2:2 3:9
2:0 1:4 2:4 3:2 2:12 1:5 2:6 3:1 2:2 3:9 2:9
1:0 2:4 3:2 2:12 1:5 2:6 3:1 2:2 3:9 2:9 3:3
2:0 3:2 2:12 1:5 2:6 3:1 2:2 3:9 2:9 3:3 2:3
3:0 2:12 1:5 2:6 3:1 2:2 3:9 2:9 3:3 2:3 3:1
2:0 1:5 2:6 3:1 2:2 3:9 2:9 3:3 2:3 3:1 2:1
1:0 2:6 3:1 2:2 3:9 2:9 3:3 2:3 3:1 2:1 1:3
2:0 3:1 2:2 3:9 2:9 3:3 2:3 3:1 2:1 1:3 2:4
3:0 2:2 3:9 2:9 3:3 2:3 3:1 2:1 1:3 2:4 3:12
2:0 3:9 2:9 3:3 2:3 3:1 2:1 1:3 2:4 3:12 2:3
3:0 2:9 3:3 2:3 3:1 2:1 1:3 2:4 3:12 2:3 3:1
2:0 3:3 2:3 3:1 2:1 1:3 2:4 3:12 2:3 3:1 2:1
3:0 2:3 3:1 2:1 1:3 2:4 3:12 2:3 3:1 2:1 1:3
2:0 3:1 2:1 1:3 2:4 3:12 2:3 3:1 2:1 1:3 2:6
3:0 2:1 1:3 2:4 3:12 2:3 3:1 2:1 1:3 2:6 3:11
2:0 1:3 2:4 3:12 2:3 3:1 2:1 1:3 2:6 3:11 2:5
1:0 2:4 3:12 2:3 3:1 2:1 1:3 2:6 3:11 2:5 1:2
2:0 3:12 2:3 3:1 2:1 1:3 2:6 3:11 2:5 1:2 2:5
3:0 2:3 3:1 2:1 1:3 2:6 3:11 2:5 1:2 2:5 3:11
2:0 3:1 2:1 1:3 2:6 3:11 2:5 1:2 2:5 3:11 2:5
3:0 2:1 1:3 2:6 3:11 2:5 1:2 2:5 3:11 2:5 1:4
2:0 1:3 2:6 3:11 2:5 1:2 2:5 3:11 2:5 1:4 2:5
1:0 2:6 3:11 2:5 1:2 2:5 3:11 2:5 1:4 2:5 3:11
2:0 3:11 2:5 1:2 2:5 3:11 2:5 1:4 2:5 3:11 2:15
3:0 2:5 1:2 2:5 3:11 2:5 1:4 2:5 3:11 2:15 3:2
2:0 1:2 2:5 3:11 2:5 1:4 2:5 3:11 2:15 3:2 1:1
1:0 2:5 3:11 2:5 1:4 2:5 3:11 2:15 3:2 1:1 2:5
2:0 3:11 2:5 1:4 2:5 3:11 2:15 3:2 1:1 2:5 3:1
3:0 2:5 1:4 2:5 3:11 2:15 3:2 1:1 2:5 3:1 2:12
2:0 1:4 2:5 3:11 2:15 3:2 1:1 2:5 3:1 2:12 1:5
1:0 2:5 3:11 2:15 3:2 1:1 2:5 3:1 2:12 1:5 3:6
2:0 3:11 2:15 3:2 1:1 2:5 3:1 2:12 1:5 3:6 2:2
3:0 2:15 3:2 1:1 2:5 3:1 2:12 1:5 3:6 2:2 3:2
2:0 3:2 1:1 2:5 3:1 2:12 1:5 3:6 2:2 3:2 2:1
3:0 1:1 2:5 3:1 2:12 1:5 3:6 2:2 3:2 2:1 3:6
1:0 2:5 3:1 2:12 1:5 3:6 2:2 3:2 2:1 3:6 2:10
2:0 3:1 2:12 1:5 3:6 2:2 3:2 2:1 3:6 2:10 3:2
3:0 2:12 1:5 3:6 2:2 3:2 2:1 3:6 2:10 3:2 2:3
2:0 1:5 3:6 2:2 3:2 2:1 3:6 2:10 3:2 2:3 3:1
1:0 3:6 2:2 3:2 2:1 3:6 2:10 3:2 2:3 3:1 2:2
3:0 2:2 3:2 2:1 3:6 2:10 3:2 2:3 3:1 2:2 1:3
2:0 3:2 2:1 3:6 2:10 3:2 2:3 3:1 2:2 1:3 2:5
3:0 2:1 3:6 2:10 3:2 2:3 3:1 2:2 1:3 2:5 3:4
2:0 3:6 2:10 3:2 2:3 3:1 2:2 1:3 2:5 3:4 2:1
3:0 2:10 3:2 2:3 3:1 2:2 1:3 2:5 3:4 2:1 3:8
2:0 3:2 2:3 3:1 2:2 1:3 2:5 3:4 2:1 3:8 2:5
3:0 2:3 3:1 2:2 1:3 2:5 3:4 2:1 3:8 2:5 1:1
2:0 3:1 2:2 1:3 2:5 3:4 2:1 3:8 2:5 1:1 2:5
3:0 2:2 1:3 2:5 3:4 2:1 3:8 2:5 1:1 2:5 3:3
2:0 1:3 2:5 3:4 2:1 3:8 2:5 1:1 2:5 3:3 2:1
1:0 2:5 3:4 2:1 3:8 2:5 1:1 2:5 3:3 2:1 3:7
2:0 3:4 2:1 3:8 2:5 1:1 2:5 3:3 2:1 3:7 2:4
3:0 2:1 3:8 2:5 1:1 2:5 3:3 2:1 3:7 2:4 1:4
2:0 3:8 2:5 1:1 2:5 3:3 2:1 3:7 2:4 1:4 2:5
3:0 2:5 1:1 2:5 3:3 2:1 3:7 2:4 1:4 2:5 3:11
2:0 1:1 2:5 3:3 2:1 3:7 2:4 1:4 2:5 3:11 2:6
1:0 2:5 3:3 2:1 3:7 2:4 1:4 2:5 3:11 2:6 1:3
2:0 3:3 2:1 3:7 2:4 1:4 2:5 3:11 2:6 1:3 2:4
3:0 2:1 3:7 2:4 1:4 2:5 3:11 2:6 1:3 2:4 3:11
2:0 3:7 2:4 1:4 2:5 3:11 2:6 1:3 2:4 3:11 2:4
3:0 2:4 1:4 2:5 3:11 2:6 1:3 2:4 3:11 2:4 1:5
2:0 1:4 2:5 3:11 2:6 1:3 2:4 3:11 2:4 1:5 2:4
1:0 2:5 3:11 2:6 1:3 2:4 3:11 2:4 1:5 2:4 3:1
2:0 3:11 2:6 1:3 2:4 3:11 2:4 1:5 2:4 3:1 2:1
3:0 2:6 1:3 2:4 3:11 2:4 1:5 2:4 3:1 2:1 3:9
2:0 1:3 2:4 3:11 2:4 1:5 2:4 3:1 2:1 3:9 2:16
1:0 2:4 3:11 2:4 1:5 2:4 3:1 2:1 3:9 2:16 1:2
2:0 3:11 2:4 1:5 2:4 3:1 2:1 3:9 2:16 1:2 2:5
3:0 2:4 1:5 2:4 3:1 2:1 3:9 2:16 1:2 2:5 3:3
2:0 1:5 2:4 3:1 2:1 3:9 2:16 1:2 2:5 3:3 2:11
1:0 2:4 3:1 2:1 3:9 2:16 1:2 2:5 3:3 2:11 1:4
2:0 3:1 2:1 3:9 2:16 1:2 2:5 3:3 2:11 1:4 2:7
3:0 2:1 3:9 2:16 1:2 2:5 3:3 2:11 1:4 2:7 3:2
2:0 3:9 2:16 1:2 2:5 3:3 2:11 1:4 2:7 3:2 2:2
3:0 2:16 1:2 2:5 3:3 2:11 1:4 2:7 3:2 2:2 3:6
2:0 1:2 2:5 3:3 2:11 1:4 2:7 3:2 2:2 3:6 2:1
1:0 2:5 3:3 2:11 1:4 2:7 3:2 2:2 3:6 2:1 3:3
2:0 3:3 2:11 1:4 2:7 3:2 2:2 3:6 2:1 3:3 2:7
3:0 2:11 1:4 2:7 3:2 2:2 3:6 2:1 3:3 2:7 3:3
2:0 1:4 2:7 3:2 2:2 3:6 2:1 3:3 2:7 3:3 2:3
1:0 2:7 3:2 2:2 3:6 2:1 3:3 2:7 3:3 2:3 1:5
2:0 3:2 2:2 3:6 2:1 3:3 2:7 3:3 2:3 1:5 2:5
3:0 2:2 3:6 2:1 3:3 2:7 3:3 2:3 1:5 2:5 3:5
2:0 3:6 2:1 3:3 2:7 3:3 2:3 1:5 2:5 3:5 2:1
3:0 2:1 3:3 2:7 3:3 2:3 1:5 2:5 3:5 2:1 3:6
2:0 3:3 2:7 3:3 2:3 1:5 2:5 3:5 2:1 3:6 1:7
3:0 2:7 3:3 2:3 1:5 2:5 3:5 2:1 3:6 1:7 2:6
2:0 3:3 2:3 1:5 2:5 3:5 2:1 3:6 1:7 2:6 3:2
3:0 2:3 1:5 2:5 3:5 2:1 3:6 1:7 2:6 3:2 2:1
2:0 1:5 2:5 3:5 2:1 3:6 1:7 2:6 3:2 2:1 3:7
1:0 2:5 3:5 2:1 3:6 1:7 2:6 3:2 2:1 3:7 2:3
2:0 3:5 2:1 3:6 1:7 2:6 3:2 2:1 3:7 2:3 3:2
3:0 2:1 3:6 1:7 2:6 3:2 2:1 3:7 2:3 3:2 2:2
2:0 3:6 1:7 2:6 3:2 2:1 3:7 2:3 3:2 2:2 1:2
3:0 1:7 2:6 3:2 2:1 3:7 2:3 3:2 2:2 1:2 2:5
1:0 2:6 3:2 2:1 3:7 2:3 3:2 2:2 1:2 2:5 3:11
2:0 3:2 2:1 3:7 2:3 3:2 2:2 1:2 2:5 3:11 2:15
3:0 2:1 3:7 2:3 3:2 2:2 1:2 2:5 3:11 2:15 1:3
2:0 3:7 2:3 3:2 2:2 1:2 2:5 3:11 2:15 1:3 2:4
3:0 2:3 3:2 2:2 1:2 2:5 3:11 2:15 1:3 2:4 3:2
2:0 3:2 2:2 1:2 2:5 3:11 2:15 1:3 2:4 3:2 2:12
3:0 2:2 1:2 2:5 3:11 2:15 1:3 2:4 3:2 2:12 1:5
2:0 1:2 2:5 3:11 2:15 1:3 2:4 3:2 2:12 1:5 2:6
1:0 2:5 3:11 2:15 1:3 2:4 3:2 2:12 1:5 2:6 3:1
2:0 3:11 2:15 1:3 2:4 3:2 2:12 1:5 2:6 3:1 2:3
3:0 2:15 1:3 2:4 3:2 2:12 1:5 2:6 3:1 2:3 3:6
2:0 1:3 2:4 3:2 2:12 1:5 2:6 3:1 2:3 3:6 2:1
1:0 2:4 3:2 2:12 1:5 2:6 3:1 2:3 3:6 2:1 3:2
2:0 3:2 2:12 1:5 2:6 3:1 2:3 3:6 2:1 3:2 2:8
3:0 2:12 1:5 2:6 3:1 2:3 3:6 2:1 3:2 2:8 3:2
2:0 1:5 2:6 3:1 2:3 3:6 2:1 3:2 2:8 3:2 2:4
1:0 2:6 3:1 2:3 3:6 2:1 3:2 2:8 3:2 2:4 1:6
2:0 3:1 2:3 3:6 2:1 3:2 2:8 3:2 2:4 1:6 2:3
3:0 2:3 3:6 2:1 3:2 2:8 3:2 2:4 1:6 2:3 3:5
2:0 3:6 2:1 3:2 2:8 3:2 2:4 1:6 2:3 3:5 2:2
3:0 2:1 3:2 2:8 3:2 2:4 1:6 2:3 3:5 2:2 3:3
2:0 3:2 2:8 3:2 2:4 1:6 2:3 3:5 2:2 3:3 2:6
3:0 2:8 3:2 2:4 1:6 2:3 3:5 2:2 3:3 2:6 1:4
2:0 3:2 2:4 1:6 2:3 3:5 2:2 3:3 2:6 1:4 2:6
3:0 2:4 1:6 2:3 3:5 2:2 3:3 2:6 1:4 2:6 3:10
2:0 1:6 2:3 3:5 2:2 3:3 2:6 1:4 2:6 3:10 2:1
1:0 2:3 3:5 2:2 3:3 2:6 1:4 2:6 3:10 2:1 3:1
2:0 3:5 2:2 3:3 2:6 1:4 2:6 3:10 2:1 3:1 2:16
3:0 2:2 3:3 2:6 1:4 2:6 3:10 2:1 3:1 2:16 1:1
2:0 3:3 2:6 1:4 2:6 3:10 2:1 3:1 2:16 1:1 2:5
3:0 2:6 1:4 2:6 3:10 2:1 3:1 2:16 1:1 2:5 3:1
2:0 1:4 2:6 3:10 2:1 3:1 2:16 1:1 2:5 3:1 2:8
1:0 2:6 3:10 2:1 3:1 2:16 1:1 2:5 3:1 2:8 3:8
2:0 3:10 2:1 3:1 2:16 1:1 2:5 3:1 2:8 3:8 2:2
3:0 2:1 3:1 2:16 1:1 2:5 3:1 2:8 3:8 2:2 3:5
2:0 3:1 2:16 1:1 2:5 3:1 2:8 3:8 2:2 3:5 2:5
3:0 2:16 1:1 2:5 3:1 2:8 3:8 2:2 3:5 2:5 3:1
2:0 1:1 2:5 3:1 2:8 3:8 2:2 3:5 2:5 3:1 2:1
1:0 2:5 3:1 2:8 3:8 2:2 3:5 2:5 3:1 2:1 1:1
2:0 3:1 2:8 3:8 2:2 3:5 2:5 3:1 2:1 1:1 2:5
3:0 2:8 3:8 2:2 3:5 2:5 3:1 2:1 1:1 2:5 3:3
2:0 3:8 2:2 3:5 2:5 3:1 2:1 1:1 2:5 3:3 2:1
3:0 2:2 3:5 2:5 3:1 2:1 1:1 2:5 3:3 2:1 3:1
2:0 3:5 2:5 3:1 2:1 1:1 2:5 3:3 2:1 3:1 2:1
3:0 2:5 3:1 2:1 1:1 2:5 3:3 2:1 3:1 2:1 3:5
2:0 3:1 2:1 1:1 2:5 3:3 2:1 3:1 2:1 3:5 2:3
3:0 2:1 1:1 2:5 3:3 2:1 3:1 2:1 3:5 2:3 1:5
2:0 1:1 2:5 3:3 2:1 3:1 2:1 3:5 2:3 1:5 2:5
1:0 2:5 3:3 2:1 3:1 2:1 3:5 2:3 1:5 2:5 3:13
2:0 3:3 2:1 3:1 2:1 3:5 2:3 1:5 2:5 3:13 2:14
3:0 2:1 3:1 2:1 3:5 2:3 1:5 2:5 3:13 2:14 1:3
2:0 3:1 2:1 3:5 2:3 1:5 2:5 3:13 2:14 1:3 2:4
3:0 2:1 3:5 2:3 1:5 2:5 3:13 2:14 1:3 2:4 3:2
2:0 3:5 2:3 1:5 2:5 3:13 2:14 1:3 2:4 3:2 2:8
3:0 2:3 1:5 2:5 3:13 2:14 1:3 2:4 3:2 2:8 3:2
2:0 1:5 2:5 3:13 2:14 1:3 2:4 3:2 2:8 3:2 2:1
1:0 2:5 3:13 2:14 1:3 2:4 3:2 2:8 3:2 2:1 3:2
2:0 3:13 2:14 1:3 2:4 3:2 2:8 3:2 2:1 3:2 2:6
3:0 2:14 1:3 2:4 3:2 2:8 3:2 2:1 3:2 2:6 3:4
2:0 1:3 2:4 3:2 2:8 3:2 2:1 3:2 2:6 3:4 2:5
1:0 2:4 3:2 2:8 3:2 2:1 3:2 2:6 3:4 2:5 1:3
2:0 3:2 2:8 3:2 2:1 3:2 2:6 3:4 2:5 1:3 2:4
3:0 2:8 3:2 2:1 3:2 2:6 3:4 2:5 1:3 2:4 3:3
2:0 3:2 2:1 3:2 2:6 3:4 2:5 1:3 2:4 3:3 2:1
3:0 2:1 3:2 2:6 3:4 2:5 1:3 2:4 3:3 2:1 3:1
2:0 3:2 2:6 3:4 2:5 1:3 2:4 3:3 2:1 3:1 2:2
3:0 2:6 3:4 2:5 1:3 2:4 3:3 2:1 3:1 2:2 3:5
2:0 3:4 2:5 1:3 2:4 3:3 2:1 3:1 2:2 3:5 2:3
3:0 2:5 1:3 2:4 3:3 2:1 3:1 2:2 3:5 2:3 1:5
2:0 1:3 2:4 3:3 2:1 3:1 2:2 3:5 2:3 1:5 2:6
1:0 2:4 3:3 2:1 3:1 2:2 3:5 2:3 1:5 2:6 3:11
2:0 3:3 2:1 3:1 2:2 3:5 2:3 1:5 2:6 3:11 2:5
3:0 2:1 3:1 2:2 3:5 2:3 1:5 2:6 3:11 2:5 1:3
2:0 3:1 2:2 3:5 2:3 1:5 2:6 3:11 2:5 1:3 2:6
3:0 2:2 3:5 2:3 1:5 2:6 3:11 2:5 1:3 2:6 3:10
2:0 3:5 2:3 1:5 2:6 3:11 2:5 1:3 2:6 3:10 2:4
3:0 2:3 1:5 2:6 3:11 2:5 1:3 2:6 3:10 2:4 1:3
2:0 1:5 2:6 3:11 2:5 1:3 2:6 3:10 2:4 1:3 2:6
1:0 2:6 3:11 2:5 1:3 2:6 3:10 2:4 1:3 2:6 3:1
2:0 3:11 2:5 1:3 2:6 3:10 2:4 1:3 2:6 3:1 2:1
3:0 2:5 1:3 2:6 3:10 2:4 1:3 2:6 3:1 2:1 3:9
2:0 1:3 2:6 3:10 2:4 1:3 2:6 3:1 2:1 3:9 1:7
1:0 2:6 3:10 2:4 1:3 2:6 3:1 2:1 3:9 1:7 2:6
2:0 3:10 2:4 1:3 2:6 3:1 2:1 3:9 1:7 2:6 3:9
3:0 2:4 1:3 2:6 3:1 2:1 3:9 1:7 2:6 3:9 2:5
2:0 1:3 2:6 3:1 2:1 3:9 1:7 2:6 3:9 2:5 1:4
1:0 2:6 3:1 2:1 3:9 1:7 2:6 3:9 2:5 1:4 2:1
2:0 3:1 2:1 3:9 1:7 2:6 3:9 2:5 1:4 2:1 1:1
3:0 2:1 3:9 1:7 2:6 3:9 2:5 1:4 2:1 1:1 2:3
2:0 3:9 1:7 2:6 3:9 2:5 1:4 2:1 1:1 2:3 3:12
3:0 1:7 2:6 3:9 2:5 1:4 2:1 1:1 2:3 3:12 2:14
1:0 2:6 3:9 2:5 1:4 2:1 1:1 2:3 3:12 2:14 1:3
2:0 3:9 2:5 1:4 2:1 1:1 2:3 3:12 2:14 1:3 2:5
3:0 2:5 1:4 2:1 1:1 2:3 3:12 2:14 1:3 2:5 3:2
2:0 1:4 2:1 1:1 2:3 3:12 2:14 1:3 2:5 3:2 1:10
1:0 2:1 1:1 2:3 3:12 2:14 1:3 2:5 3:2 1:10 2:1
2:0 1:1 2:3 3:12 2:14 1:3 2:5 3:2 1:10 2:1 1:2
1:0 2:3 3:12 2:14 1:3 2:5 3:2 1:10 2:1 1:2 2:10
2:0 3:12 2:14 1:3 2:5 3:2 1:10 2:1 1:2 2:10 3:1
3:0 2:14 1:3 2:5 3:2 1:10 2:1 1:2 2:10 3:1 2:2
2:0 1:3 2:5 3:2 1:10 2:1 1:2 2:10 3:1 2:2 3:9
1:0 2:5 3:2 1:10 2:1 1:2 2:10 3:1 2:2 3:9 2:14
2:0 3:2 1:10 2:1 1:2 2:10 3:1 2:2 3:9 2:14 3:2
3:0 1:10 2:1 1:2 2:10 3:1 2:2 3:9 2:14 3:2 2:1
1:0 2:1 1:2 2:10 3:1 2:2 3:9 2:14 3:2 2:1 1:3
2:0 1:2 2:10 3:1 2:2 3:9 2:14 3:2 2:1 1:3 2:8
1:0 2:10 3:1 2:2 3:9 2:14 3:2 2:1 1:3 2:8 3:9
2:0 3:1 2:2 3:9 2:14 3:2 2:1 1:3 2:8 3:9 1:18
3:0 2:2 3:9 2:14 3:2 2:1 1:3 2:8 3:9 1:18 2:8
2:0 3:9 2:14 3:2 2:1 1:3 2:8 3:9 1:18 2:8 3:1
3:0 2:14 3:2 2:1 1:3 2:8 3:9 1:18 2:8 3:1 2:1
2:0 3:2 2:1 1:3 2:8 3:9 1:18 2:8 3:1 2:1 3:20
3:0 2:1 1:3 2:8 3:9 1:18 2:8 3:1 2:1 3:20 2:5
2:0 1:3 2:8 3:9 1:18 2:8 3:1 2:1 3:20 2:5 3:1
1:0 2:8 3:9 1:18 2:8 3:1 2:1 3:20 2:5 3:1 1:1
2:0 3:9 1:18 2:8 3:1 2:1 3:20 2:5 3:1 1:1 2:6
3:0 1:18 2:8 3:1 2:1 3:20 2:5 3:1 1:1 2:6 3:1
1:0 2:8 3:1 2:1 3:20 2:5 3:1 1:1 2:6 3:1 2:1
2:0 3:1 2:1 3:20 2:5 3:1 1:1 2:6 3:1 2:1 3:3
3:0 2:1 3:20 2:5 3:1 1:1 2:6 3:1 2:1 3:3 2:1
2:0 3:20 2:5 3:1 1:1 2:6 3:1 2:1 3:3 2:1 3:4
3:0 2:5 3:1 1:1 2:6 3:1 2:1 3:3 2:1 3:4 2:4
2:0 3:1 1:1 2:6 3:1 2:1 3:3 2:1 3:4 2:4 1:4
3:0 1:1 2:6 3:1 2:1 3:3 2:1 3:4 2:4 1:4 2:4
1:0 2:6 3:1 2:1 3:3 2:1 3:4 2:4 1:4 2:4 3:2
2:0 3:1 2:1 3:3 2:1 3:4 2:4 1:4 2:4 3:2 2:1
3:0 2:1 3:3 2:1 3:4 2:4 1:4 2:4 3:2 2:1 3:10
2:0 3:3 2:1 3:4 2:4 1:4 2:4 3:2 2:1 3:10 2:14
3:0 2:1 3:4 2:4 1:4 2:4 3:2 2:1 3:10 2:14 1:4
2:0 3:4 2:4 1:4 2:4 3:2 2:1 3:10 2:14 1:4 2:4
3:0 2:4 1:4 2:4 3:2 2:1 3:10 2:14 1:4 2:4 3:2
2:0 1:4 2:4 3:2 2:1 3:10 2:14 1:4 2:4 3:2 2:14
1:0 2:4 3:2 2:1 3:10 2:14 1:4 2:4 3:2 2:14 1:4
2:0 3:2 2:1 3:10 2:14 1:4 2:4 3:2 2:14 1:4 2:5
3:0 2:1 3:10 2:14 1:4 2:4 3:2 2:14 1:4 2:5 3:1
2:0 3:10 2:14 1:4 2:4 3:2 2:14 1:4 2:5 3:1 2:2
3:0 2:14 1:4 2:4 3:2 2:14 1:4 2:5 3:1 2:2 3:3
2:0 1:4 2:4 3:2 2:14 1:4 2:5 3:1 2:2 3:3 2:3
1:0 2:4 3:2 2:14 1:4 2:5 3:1 2:2 3:3 2:3 3:8
2:0 3:2 2:14 1:4 2:5 3:1 2:2 3:3 2:3 3:8 2:2
3:0 2:14 1:4 2:5 3:1 2:2 3:3 2:3 3:8 2:2 3:5
2:0 1:4 2:5 3:1 2:2 3:3 2:3 3:8 2:2 3:5 2:4
1:0 2:5 3:1 2:2 3:3 2:3 3:8 2:2 3:5 2:4 1:4
2:0 3:1 2:2 3:3 2:3 3:8 2:2 3:5 2:4 1:4 2:4
3:0 2:2 3:3 2:3 3:8 2:2 3:5 2:4 1:4 2:4 3:3
2:0 3:3 2:3 3:8 2:2 3:5 2:4 1:4 2:4 3:3 2:2
3:0 2:3 3:8 2:2 3:5 2:4 1:4 2:4 3:3 2:2 3:1
2:0 3:8 2:2 3:5 2:4 1:4 2:4 3:3 2:2 3:1 2:1
3:0 2:2 3:5 2:4 1:4 2:4 3:3 2:2 3:1 2:1 3:5
2:0 3:5 2:4 1:4 2:4 3:3 2:2 3:1 2:1 3:5 2:3
3:0 2:4 1:4 2:4 3:3 2:2 3:1 2:1 3:5 2:3 1:5
2:0 1:4 2:4 3:3 2:2 3:1 2:1 3:5 2:3 1:5 2:5
1:0 2:4 3:3 2:2 3:1 2:1 3:5 2:3 1:5 2:5 3:3
2:0 3:3 2:2 3:1 2:1 3:5 2:3 1:5 2:5 3:3 2:1
3:0 2:2 3:1 2:1 3:5 2:3 1:5 2:5 3:3 2:1 3:9
2:0 3:1 2:1 3:5 2:3 1:5 2:5 3:3 2:1 3:9 2:5
3:0 2:1 3:5 2:3 1:5 2:5 3:3 2:1 3:9 2:5 1:1
2:0 3:5 2:3 1:5 2:5 3:3 2:1 3:9 2:5 1:1 2:5
3:0 2:3 1:5 2:5 3:3 2:1 3:9 2:5 1:1 2:5 3:4
2:0 1:5 2:5 3:3 2:1 3:9 2:5 1:1 2:5 3:4 2:1
1:0 2:5 3:3 2:1 3:9 2:5 1:1 2:5 3:4 2:1 3:6
2:0 3:3 2:1 3:9 2:5 1:1 2:5 3:4 2:1 3:6 2:4
3:0 2:1 3:9 2:5 1:1 2:5 3:4 2:1 3:6 2:4 1:4
2:0 3:9 2:5 1:1 2:5 3:4 2:1 3:6 2:4 1:4 2:5
3:0 2:5 1:1 2:5 3:4 2:1 3:6 2:4 1:4 2:5 3:11
2:0 1:1 2:5 3:4 2:1 3:6 2:4 1:4 2:5 3:11 2:1
1:0 2:5 3:4 2:1 3:6 2:4 1:4 2:5 3:11 2:1 3:1
2:0 3:4 2:1 3:6 2:4 1:4 2:5 3:11 2:1 3:1 1:6
3:0 2:1 3:6 2:4 1:4 2:5 3:11 2:1 3:1 1:6 2:6
2:0 3:6 2:4 1:4 2:5 3:11 2:1 3:1 1:6 2:6 3:3
3:0 2:4 1:4 2:5 3:11 2:1 3:1 1:6 2:6 3:3 2:1
2:0 1:4 2:5 3:11 2:1 3:1 1:6 2:6 3:3 2:1 3:6
1:0 2:5 3:11 2:1 3:1 1:6 2:6 3:3 2:1 3:6 2:4
2:0 3:11 2:1 3:1 1:6 2:6 3:3 2:1 3:6 2:4 1:4
3:0 2:1 3:1 1:6 2:6 3:3 2:1 3:6 2:4 1:4 2:5
2:0 3:1 1:6 2:6 3:3 2:1 3:6 2:4 1:4 2:5 3:4
3:0 1:6 2:6 3:3 2:1 3:6 2:4 1:4 2:5 3:4 2:1
1:0 2:6 3:3 2:1 3:6 2:4 1:4 2:5 3:4 2:1 3:7
2:0 3:3 2:1 3:6 2:4 1:4 2:5 3:4 2:1 3:7 2:6
3:0 2:1 3:6 2:4 1:4 2:5 3:4 2:1 3:7 2:6 1:2
2:0 3:6 2:4 1:4 2:5 3:4 2:1 3:7 2:6 1:2 2:5
3:0 2:4 1:4 2:5 3:4 2:1 3:7 2:6 1:2 2:5 3:11
2:0 1:4 2:5 3:4 2:1 3:7 2:6 1:2 2:5 3:11 2:4
1:0 2:5 3:4 2:1 3:7 2:6 1:2 2:5 3:11 2:4 1:4
2:0 3:4 2:1 3:7 2:6 1:2 2:5 3:11 2:4 1:4 2:5
3:0 2:1 3:7 2:6 1:2 2:5 3:11 2:4 1:4 2:5 3:1
2:0 3:7 2:6 1:2 2:5 3:11 2:4 1:4 2:5 3:1 2:1
3:0 2:6 1:2 2:5 3:11 2:4 1:4 2:5 3:1 2:1 3:10
2:0 1:2 2:5 3:11 2:4 1:4 2:5 3:1 2:1 3:10 2:14
1:0 2:5 3:11 2:4 1:4 2:5 3:1 2:1 3:10 2:14 3:2
2:0 3:11 2:4 1:4 2:5 3:1 2:1 3:10 2:14 3:2 2:1
3:0 2:4 1:4 2:5 3:1 2:1 3:10 2:14 3:2 2:1 1:1
2:0 1:4 2:5 3:1 2:1 3:10 2:14 3:2 2:1 1:1 2:4
1:0 2:5 3:1 2:1 3:10 2:14 3:2 2:1 1:1 2:4 3:2
2:0 3:1 2:1 3:10 2:14 3:2 2:1 1:1 2:4 3:2 2:2
3:0 2:1 3:10 2:14 3:2 2:1 1:1 2:4 3:2 2:2 3:4
2:0 3:10 2:14 3:2 2:1 1:1 2:4 3:2 2:2 3:4 2:1
3:0 2:14 3:2 2:1 1:1 2:4 3:2 2:2 3:4 2:1 3:5
2:0 3:2 2:1 1:1 2:4 3:2 2:2 3:4 2:1 3:5 2:8
3:0 2:1 1:1 2:4 3:2 2:2 3:4 2:1 3:5 2:8 3:2
2:0 1:1 2:4 3:2 2:2 3:4 2:1 3:5 2:8 3:2 2:3
1:0 2:4 3:2 2:2 3:4 2:1 3:5 2:8 3:2 2:3 3:1
2:0 3:2 2:2 3:4 2:1 3:5 2:8 3:2 2:3 3:1 2:2
3:0 2:2 3:4 2:1 3:5 2:8 3:2 2:3 3:1 2:2 1:2
2:0 3:4 2:1 3:5 2:8 3:2 2:3 3:1 2:2 1:2 2:6
3:0 2:1 3:5 2:8 3:2 2:3 3:1 2:2 1:2 2:6 3:10
2:0 3:5 2:8 3:2 2:3 3:1 2:2 1:2 2:6 3:10 2:14
3:0 2:8 3:2 2:3 3:1 2:2 1:2 2:6 3:10 2:14 1:5
2:0 3:2 2:3 3:1 2:2 1:2 2:6 3:10 2:14 1:5 2:3
3:0 2:3 3:1 2:2 1:2 2:6 3:10 2:14 1:5 2:3 3:2
2:0 3:1 2:2 1:2 2:6 3:10 2:14 1:5 2:3 3:2 2:16
3:0 2:2 1:2 2:6 3:10 2:14 1:5 2:3 3:2 2:16 1:3
2:0 1:2 2:6 3:10 2:14 1:5 2:3 3:2 2:16 1:3 2:5
1:0 2:6 3:10 2:14 1:5 2:3 3:2 2:16 1:3 2:5 3:1
2:0 3:10 2:14 1:5 2:3 3:2 2:16 1:3 2:5 3:1 2:2
3:0 2:14 1:5 2:3 3:2 2:16 1:3 2:5 3:1 2:2 3:2
2:0 1:5 2:3 3:2 2:16 1:3 2:5 3:1 2:2 3:2 2:4
1:0 2:3 3:2 2:16 1:3 2:5 3:1 2:2 3:2 2:4 3:9
2:0 3:2 2:16 1:3 2:5 3:1 2:2 3:2 2:4 3:9 2:1
3:0 2:16 1:3 2:5 3:1 2:2 3:2 2:4 3:9 2:1 3:4
2:0 1:3 2:5 3:1 2:2 3:2 2:4 3:9 2:1 3:4 2:5
1:0 2:5 3:1 2:2 3:2 2:4 3:9 2:1 3:4 2:5 1:4
2:0 3:1 2:2 3:2 2:4 3:9 2:1 3:4 2:5 1:4 2:4
3:0 2:2 3:2 2:4 3:9 2:1 3:4 2:5 1:4 2:4 3:3
2:0 3:2 2:4 3:9 2:1 3:4 2:5 1:4 2:4 3:3 2:2
3:0 2:4 3:9 2:1 3:4 2:5 1:4 2:4 3:3 2:2 3:1
2:0 3:9 2:1 3:4 2:5 1:4 2:4 3:3 2:2 3:1 2:1
3:0 2:1 3:4 2:5 1:4 2:4 3:3 2:2 3:1 2:1 3:5
2:0 3:4 2:5 1:4 2:4 3:3 2:2 3:1 2:1 3:5 2:3
3:0 2:5 1:4 2:4 3:3 2:2 3:1 2:1 3:5 2:3 1:5
2:0 1:4 2:4 3:3 2:2 3:1 2:1 3:5 2:3 1:5 2:6
1:0 2:4 3:3 2:2 3:1 2:1 3:5 2:3 1:5 2:6 3:11
2:0 3:3 2:2 3:1 2:1 3:5 2:3 1:5 2:6 3:11 2:14
3:0 2:2 3:1 2:1 3:5 2:3 1:5 2:6 3:11 2:14 1:4
2:0 3:1 2:1 3:5 2:3 1:5 2:6 3:11 2:14 1:4 2:4
3:0 2:1 3:5 2:3 1:5 2:6 3:11 2:14 1:4 2:4 3:2
2:0 3:5 2:3 1:5 2:6 3:11 2:14 1:4 2:4 3:2 2:7
3:0 2:3 1:5 2:6 3:11 2:14 1:4 2:4 3:2 2:7 3:6
2:0 1:5 2:6 3:11 2:14 1:4 2:4 3:2 2:7 3:6 2:6
1:0 2:6 3:11 2:14 1:4 2:4 3:2 2:7 3:6 2:6 3:4
2:0 3:11 2:14 1:4 2:4 3:2 2:7 3:6 2:6 3:4 2:3
3:0 2:14 1:4 2:4 3:2 2:7 3:6 2:6 3:4 2:3 1:4
2:0 1:4 2:4 3:2 2:7 3:6 2:6 3:4 2:3 1:4 2:4
1:0 2:4 3:2 2:7 3:6 2:6 3:4 2:3 1:4 2:4 3:7
2:0 3:2 2:7 3:6 2:6 3:4 2:3 1:4 2:4 3:7 2:1
3:0 2:7 3:6 2:6 3:4 2:3 1:4 2:4 3:7 2:1 3:4
2:0 3:6 2:6 3:4 2:3 1:4 2:4 3:7 2:1 3:4 2:5
3:0 2:6 3:4 2:3 1:4 2:4 3:7 2:1 3:4 2:5 1:4
2:0 3:4 2:3 1:4 2:4 3:7 2:1 3:4 2:5 1:4 2:4
3:0 2:3 1:4 2:4 3:7 2:1 3:4 2:5 1:4 2:4 3:12
2:0 1:4 2:4 3:7 2:1 3:4 2:5 1:4 2:4 3:12 2:5
1:0 2:4 3:7 2:1 3:4 2:5 1:4 2:4 3:12 2:5 1:4
2:0 3:7 2:1 3:4 2:5 1:4 2:4 3:12 2:5 1:4 2:4
3:0 2:1 3:4 2:5 1:4 2:4 3:12 2:5 1:4 2:4 3:11
2:0 3:4 2:5 1:4 2:4 3:12 2:5 1:4 2:4 3:11 2:6
3:0 2:5 1:4 2:4 3:12 2:5 1:4 2:4 3:11 2:6 1:2
2:0 1:4 2:4 3:12 2:5 1:4 2:4 3:11 2:6 1:2 2:5
1:0 2:4 3:12 2:5 1:4 2:4 3:11 2:6 1:2 2:5 3:11
2:0 3:12 2:5 1:4 2:4 3:11 2:6 1:2 2:5 3:11 2:16
3:0 2:5 1:4 2:4 3:11 2:6 1:2 2:5 3:11 2:16 1:3
2:0 1:4 2:4 3:11 2:6 1:2 2:5 3:11 2:16 1:3 2:4
1:0 2:4 3:11 2:6 1:2 2:5 3:11 2:16 1:3 2:4 3:2
2:0 3:11 2:6 1:2 2:5 3:11 2:16 1:3 2:4 3:2 2:12
3:0 2:6 1:2 2:5 3:11 2:16 1:3 2:4 3:2 2:12 1:6
2:0 1:2 2:5 3:11 2:16 1:3 2:4 3:2 2:12 1:6 2:5
1:0 2:5 3:11 2:16 1:3 2:4 3:2 2:12 1:6 2:5 3:2
2:0 3:11 2:16 1:3 2:4 3:2 2:12 1:6 2:5 3:2 2:2
3:0 2:16 1:3 2:4 3:2 2:12 1:6 2:5 3:2 2:2 3:12
2:0 1:3 2:4 3:2 2:12 1:6 2:5 3:2 2:2 3:12 2:4
1:0 2:4 3:2 2:12 1:6 2:5 3:2 2:2 3:12 2:4 3:3
2:0 3:2 2:12 1:6 2:5 3:2 2:2 3:12 2:4 3:3 2:5
3:0 2:12 1:6 2:5 3:2 2:2 3:12 2:4 3:3 2:5 1:4
2:0 1:6 2:5 3:2 2:2 3:12 2:4 3:3 2:5 1:4 2:3
1:0 2:5 3:2 2:2 3:12 2:4 3:3 2:5 1:4 2:3 3:3
2:0 3:2 2:2 3:12 2:4 3:3 2:5 1:4 2:3 3:3 2:1
3:0 2:2 3:12 2:4 3:3 2:5 1:4 2:3 3:3 2:1 3:1
2:0 3:12 2:4 3:3 2:5 1:4 2:3 3:3 2:1 3:1 2:3
3:0 2:4 3:3 2:5 1:4 2:3 3:3 2:1 3:1 2:3 3:5
2:0 3:3 2:5 1:4 2:3 3:3 2:1 3:1 2:3 3:5 2:3
3:0 2:5 1:4 2:3 3:3 2:1 3:1 2:3 3:5 2:3 1:5
2:0 1:4 2:3 3:3 2:1 3:1 2:3 3:5 2:3 1:5 2:5
1:0 2:3 3:3 2:1 3:1 2:3 3:5 2:3 1:5 2:5 3:2
2:0 3:3 2:1 3:1 2:3 3:5 2:3 1:5 2:5 3:2 2:2
3:0 2:1 3:1 2:3 3:5 2:3 1:5 2:5 3:2 2:2 3:8
2:0 3:1 2:3 3:5 2:3 1:5 2:5 3:2 2:2 3:8 2:6
3:0 2:3 3:5 2:3 1:5 2:5 3:2 2:2 3:8 2:6 1:2
2:0 3:5 2:3 1:5 2:5 3:2 2:2 3:8 2:6 1:2 2:6
3:0 2:3 1:5 2:5 3:2 2:2 3:8 2:6 1:2 2:6 3:10
2:0 1:5 2:5 3:2 2:2 3:8 2:6 1:2 2:6 3:10 2:5
1:0 2:5 3:2 2:2 3:8 2:6 1:2 2:6 3:10 2:5 1:2
2:0 3:2 2:2 3:8 2:6 1:2 2:6 3:10 2:5 1:2 2:5
3:0 2:2 3:8 2:6 1:2 2:6 3:10 2:5 1:2 2:5 3:11
2:0 3:8 2:6 1:2 2:6 3:10 2:5 1:2 2:5 3:11 2:16
3:0 2:6 1:2 2:6 3:10 2:5 1:2 2:5 3:11 2:16 1:3
2:0 1:2 2:6 3:10 2:5 1:2 2:5 3:11 2:16 1:3 2:4
1:0 2:6 3:10 2:5 1:2 2:5 3:11 2:16 1:3 2:4 3:3
2:0 3:10 2:5 1:2 2:5 3:11 2:16 1:3 2:4 3:3 2:6
3:0 2:5 1:2 2:5 3:11 2:16 1:3 2:4 3:3 2:6 3:7
2:0 1:2 2:5 3:11 2:16 1:3 2:4 3:3 2:6 3:7 2:5
1:0 2:5 3:11 2:16 1:3 2:4 3:3 2:6 3:7 2:5 3:4
2:0 3:11 2:16 1:3 2:4 3:3 2:6 3:7 2:5 3:4 2:4
3:0 2:16 1:3 2:4 3:3 2:6 3:7 2:5 3:4 2:4 1:4
2:0 1:3 2:4 3:3 2:6 3:7 2:5 3:4 2:4 1:4 2:4
1:0 2:4 3:3 2:6 3:7 2:5 3:4 2:4 1:4 2:4 3:12
2:0 3:3 2:6 3:7 2:5 3:4 2:4 1:4 2:4 3:12 2:4
3:0 2:6 3:7 2:5 3:4 2:4 1:4 2:4 3:12 2:4 3:1
2:0 3:7 2:5 3:4 2:4 1:4 2:4 3:12 2:4 3:1 2:1
3:0 2:5 3:4 2:4 1:4 2:4 3:12 2:4 3:1 2:1 1:2
2:0 3:4 2:4 1:4 2:4 3:12 2:4 3:1 2:1 1:2 2:5
3:0 2:4 1:4 2:4 3:12 2:4 3:1 2:1 1:2 2:5 3:1
2:0 1:4 2:4 3:12 2:4 3:1 2:1 1:2 2:5 3:1 2:1
1:0 2:4 3:12 2:4 3:1 2:1 1:2 2:5 3:1 2:1 3:9
2:0 3:12 2:4 3:1 2:1 1:2 2:5 3:1 2:1 3:9 2:15
3:0 2:4 3:1 2:1 1:2 2:5 3:1 2:1 3:9 2:15 1:4
2:0 3:1 2:1 1:2 2:5 3:1 2:1 3:9 2:15 1:4 2:4
3:0 2:1 1:2 2:5 3:1 2:1 3:9 2:15 1:4 2:4 3:2
2:0 1:2 2:5 3:1 2:1 3:9 2:15 1:4 2:4 3:2 2:8
1:0 2:5 3:1 2:1 3:9 2:15 1:4 2:4 3:2 2:8 3:7
2:0 3:1 2:1 3:9 2:15 1:4 2:4 3:2 2:8 3:7 2:3
3:0 2:1 3:9 2:15 1:4 2:4 3:2 2:8 3:7 2:3 3:5
2:0 3:9 2:15 1:4 2:4 3:2 2:8 3:7 2:3 3:5 2:4
3:0 2:15 1:4 2:4 3:2 2:8 3:7 2:3 3:5 2:4 1:4
2:0 1:4 2:4 3:2 2:8 3:7 2:3 3:5 2:4 1:4 3:5
1:0 2:4 3:2 2:8 3:7 2:3 3:5 2:4 1:4 3:5 2:1
2:0 3:2 2:8 3:7 2:3 3:5 2:4 1:4 3:5 2:1 3:3
3:0 2:8 3:7 2:3 3:5 2:4 1:4 3:5 2:1 3:3 2:2
2:0 3:7 2:3 3:5 2:4 1:4 3:5 2:1 3:3 2:2 3:5
3:0 2:3 3:5 2:4 1:4 3:5 2:1 3:3 2:2 3:5 2:3
2:0 3:5 2:4 1:4 3:5 2:1 3:3 2:2 3:5 2:3 3:2
3:0 2:4 1:4 3:5 2:1 3:3 2:2 3:5 2:3 3:2 2:1
2:0 1:4 3:5 2:1 3:3 2:2 3:5 2:3 3:2 2:1 1:2
1:0 3:5 2:1 3:3 2:2 3:5 2:3 3:2 2:1 1:2 2:5
3:0 2:1 3:3 2:2 3:5 2:3 3:2 2:1 1:2 2:5 3:4
2:0 3:3 2:2 3:5 2:3 3:2 2:1 1:2 2:5 3:4 2:1
3:0 2:2 3:5 2:3 3:2 2:1 1:2 2:5 3:4 2:1 3:7
2:0 3:5 2:3 3:2 2:1 1:2 2:5 3:4 2:1 3:7 1:7
3:0 2:3 3:2 2:1 1:2 2:5 3:4 2:1 3:7 1:7 2:6
2:0 3:2 2:1 1:2 2:5 3:4 2:1 3:7 1:7 2:6 3:4
3:0 2:1 1:2 2:5 3:4 2:1 3:7 1:7 2:6 3:4 2:1
2:0 1:2 2:5 3:4 2:1 3:7 1:7 2:6 3:4 2:1 3:5
1:0 2:5 3:4 2:1 3:7 1:7 2:6 3:4 2:1 3:5 2:4
2:0 3:4 2:1 3:7 1:7 2:6 3:4 2:1 3:5 2:4 3:1
3:0 2:1 3:7 1:7 2:6 3:4 2:1 3:5 2:4 3:1 2:1
2:0 3:7 1:7 2:6 3:4 2:1 3:5 2:4 3:1 2:1 1:2
3:0 1:7 2:6 3:4 2:1 3:5 2:4 3:1 2:1 1:2 2:6
1:0 2:6 3:4 2:1 3:5 2:4 3:1 2:1 1:2 2:6 3:2
2:0 3:4 2:1 3:5 2:4 3:1 2:1 1:2 2:6 3:2 2:1
3:0 2:1 3:5 2:4 3:1 2:1 1:2 2:6 3:2 2:1 3:8
2:0 3:5 2:4 3:1 2:1 1:2 2:6 3:2 2:1 3:8 2:14
3:0 2:4 3:1 2:1 1:2 2:6 3:2 2:1 3:8 2:14 1:4
2:0 3:1 2:1 1:2 2:6 3:2 2:1 3:8 2:14 1:4 2:3
3:0 2:1 1:2 2:6 3:2 2:1 3:8 2:14 1:4 2:3 3:3
2:0 1:2 2:6 3:2 2:1 3:8 2:14 1:4 2:3 3:3 1:7
1:0 2:6 3:2 2:1 3:8 2:14 1:4 2:3 3:3 1:7 2:6
2:0 3:2 2:1 3:8 2:14 1:4 2:3 3:3 1:7 2:6 3:10
3:0 2:1 3:8 2:14 1:4 2:3 3:3 1:7 2:6 3:10 2:6
2:0 3:8 2:14 1:4 2:3 3:3 1:7 2:6 3:10 2:6 1:3
3:0 2:14 1:4 2:3 3:3 1:7 2:6 3:10 2:6 1:3 2:5
2:0 1:4 2:3 3:3 1:7 2:6 3:10 2:6 1:3 2:5 3:11
1:0 2:3 3:3 1:7 2:6 3:10 2:6 1:3 2:5 3:11 2:4
2:0 3:3 1:7 2:6 3:10 2:6 1:3 2:5 3:11 2:4 1:3
3:0 1:7 2:6 3:10 2:6 1:3 2:5 3:11 2:4 1:3 2:5
1:0 2:6 3:10 2:6 1:3 2:5 3:11 2:4 1:3 2:5 3:12
2:0 3:10 2:6 1:3 2:5 3:11 2:4 1:3 2:5 3:12 2:15
3:0 2:6 1:3 2:5 3:11 2:4 1:3 2:5 3:12 2:15 3:1
2:0 1:3 2:5 3:11 2:4 1:3 2:5 3:12 2:15 3:1 2:2
1:0 2:5 3:11 2:4 1:3 2:5 3:12 2:15 3:1 2:2 1:1
2:0 3:11 2:4 1:3 2:5 3:12 2:15 3:1 2:2 1:1 2:4
3:0 2:4 1:3 2:5 3:12 2:15 3:1 2:2 1:1 2:4 3:2
2:0 1:3 2:5 3:12 2:15 3:1 2:2 1:1 2:4 3:2 2:13
1:0 2:5 3:12 2:15 3:1 2:2 1:1 2:4 3:2 2:13 1:4
2:0 3:12 2:15 3:1 2:2 1:1 2:4 3:2 2:13 1:4 3:6
3:0 2:15 3:1 2:2 1:1 2:4 3:2 2:13 1:4 3:6 2:2
2:0 3:1 2:2 1:1 2:4 3:2 2:13 1:4 3:6 2:2 3:2
3:0 2:2 1:1 2:4 3:2 2:13 1:4 3:6 2:2 3:2 2:1
2:0 1:1 2:4 3:2 2:13 1:4 3:6 2:2 3:2 2:1 3:8
1:0 2:4 3:2 2:13 1:4 3:6 2:2 3:2 2:1 3:8 2:13
2:0 3:2 2:13 1:4 3:6 2:2 3:2 2:1 3:8 2:13 1:5
3:0 2:13 1:4 3:6 2:2 3:2 2:1 3:8 2:13 1:5 2:6
2:0 1:4 3:6 2:2 3:2 2:1 3:8 2:13 1:5 2:6 3:3
1:0 3:6 2:2 3:2 2:1 3:8 2:13 1:5 2:6 3:3 2:1
3:0 2:2 3:2 2:1 3:8 2:13 1:5 2:6 3:3 2:1 3:7
2:0 3:2 2:1 3:8 2:13 1:5 2:6 3:3 2:1 3:7 2:13
3:0 2:1 3:8 2:13 1:5 2:6 3:3 2:1 3:7 2:13 1:4
2:0 3:8 2:13 1:5 2:6 3:3 2:1 3:7 2:13 1:4 2:4
3:0 2:13 1:5 2:6 3:3 2:1 3:7 2:13 1:4 2:4 3:3
2:0 1:5 2:6 3:3 2:1 3:7 2:13 1:4 2:4 3:3 2:6
1:0 2:6 3:3 2:1 3:7 2:13 1:4 2:4 3:3 2:6 1:1
2:0 3:3 2:1 3:7 2:13 1:4 2:4 3:3 2:6 1:1 2:7
3:0 2:1 3:7 2:13 1:4 2:4 3:3 2:6 1:1 2:7 3:10
2:0 3:7 2:13 1:4 2:4 3:3 2:6 1:1 2:7 3:10 2:15
3:0 2:13 1:4 2:4 3:3 2:6 1:1 2:7 3:10 2:15 1:3
2:0 1:4 2:4 3:3 2:6 1:1 2:7 3:10 2:15 1:3 2:4
1:0 2:4 3:3 2:6 1:1 2:7 3:10 2:15 1:3 2:4 3:3
2:0 3:3 2:6 1:1 2:7 3:10 2:15 1:3 2:4 3:3 2:11
3:0 2:6 1:1 2:7 3:10 2:15 1:3 2:4 3:3 2:11 1:5
2:0 1:1 2:7 3:10 2:15 1:3 2:4 3:3 2:11 1:5 3:6
1:0 2:7 3:10 2:15 1:3 2:4 3:3 2:11 1:5 3:6 2:2
2:0 3:10 2:15 1:3 2:4 3:3 2:11 1:5 3:6 2:2 3:1
3:0 2:15 1:3 2:4 3:3 2:11 1:5 3:6 2:2 3:1 2:2
2:0 1:3 2:4 3:3 2:11 1:5 3:6 2:2 3:1 2:2 3:9
1:0 2:4 3:3 2:11 1:5 3:6 2:2 3:1 2:2 3:9 2:4
2:0 3:3 2:11 1:5 3:6 2:2 3:1 2:2 3:9 2:4 3:5
3:0 2:11 1:5 3:6 2:2 3:1 2:2 3:9 2:4 3:5 2:6
2:0 1:5 3:6 2:2 3:1 2:2 3:9 2:4 3:5 2:6 1:2
1:0 3:6 2:2 3:1 2:2 3:9 2:4 3:5 2:6 1:2 2:5
3:0 2:2 3:1 2:2 3:9 2:4 3:5 2:6 1:2 2:5 3:6
2:0 3:1 2:2 3:9 2:4 3:5 2:6 1:2 2:5 3:6 2:1
3:0 2:2 3:9 2:4 3:5 2:6 1:2 2:5 3:6 2:1 3:5
2:0 3:9 2:4 3:5 2:6 1:2 2:5 3:6 2:1 3:5 2:3
3:0 2:4 3:5 2:6 1:2 2:5 3:6 2:1 3:5 2:3 1:5
2:0 3:5 2:6 1:2 2:5 3:6 2:1 3:5 2:3 1:5 2:4
3:0 2:6 1:2 2:5 3:6 2:1 3:5 2:3 1:5 2:4 3:12
2:0 1:2 2:5 3:6 2:1 3:5 2:3 1:5 2:4 3:12 2:15
1:0 2:5 3:6 2:1 3:5 2:3 1:5 2:4 3:12 2:15 1:4
2:0 3:6 2:1 3:5 2:3 1:5 2:4 3:12 2:15 1:4 2:3
3:0 2:1 3:5 2:3 1:5 2:4 3:12 2:15 1:4 2:3 3:3
2:0 3:5 2:3 1:5 2:4 3:12 2:15 1:4 2:3 3:3 2:10
3:0 2:3 1:5 2:4 3:12 2:15 1:4 2:3 3:3 2:10 3:5
2:0 1:5 2:4 3:12 2:15 1:4 2:3 3:3 2:10 3:5 2:4
1:0 2:4 3:12 2:15 1:4 2:3 3:3 2:10 3:5 2:4 3:4
2:0 3:12 2:15 1:4 2:3 3:3 2:10 3:5 2:4 3:4 2:4
3:0 2:15 1:4 2:3 3:3 2:10 3:5 2:4 3:4 2:4 1:4
2:0 1:4 2:3 3:3 2:10 3:5 2:4 3:4 2:4 1:4 2:3
1:0 2:3 3:3 2:10 3:5 2:4 3:4 2:4 1:4 2:3 3:2
2:0 3:3 2:10 3:5 2:4 3:4 2:4 1:4 2:3 3:2 2:1
3:0 2:10 3:5 2:4 3:4 2:4 1:4 2:3 3:2 2:1 3:2
2:0 3:5 2:4 3:4 2:4 1:4 2:3 3:2 2:1 3:2 2:3
3:0 2:4 3:4 2:4 1:4 2:3 3:2 2:1 3:2 2:3 3:5
2:0 3:4 2:4 1:4 2:3 3:2 2:1 3:2 2:3 3:5 2:2
3:0 2:4 1:4 2:3 3:2 2:1 3:2 2:3 3:5 2:2 3:2
2:0 1:4 2:3 3:2 2:1 3:2 2:3 3:5 2:2 3:2 2:1
1:0 2:3 3:2 2:1 3:2 2:3 3:5 2:2 3:2 2:1 1:3
2:0 3:2 2:1 3:2 2:3 3:5 2:2 3:2 2:1 1:3 2:5
3:0 2:1 3:2 2:3 3:5 2:2 3:2 2:1 1:3 2:5 3:11
2:0 3:2 2:3 3:5 2:2 3:2 2:1 1:3 2:5 3:11 2:15
3:0 2:3 3:5 2:2 3:2 2:1 1:3 2:5 3:11 2:15 1:3
2:0 3:5 2:2 3:2 2:1 1:3 2:5 3:11 2:15 1:3 2:5
3:0 2:2 3:2 2:1 1:3 2:5 3:11 2:15 1:3 2:5 3:3
2:0 3:2 2:1 1:3 2:5 3:11 2:15 1:3 2:5 3:3 2:12
3:0 2:1 1:3 2:5 3:11 2:15 1:3 2:5 3:3 2:12 1:4
2:0 1:3 2:5 3:11 2:15 1:3 2:5 3:3 2:12 1:4 3:6
1:0 2:5 3:11 2:15 1:3 2:5 3:3 2:12 1:4 3:6 2:2
2:0 3:11 2:15 1:3 2:5 3:3 2:12 1:4 3:6 2:2 3:2
3:0 2:15 1:3 2:5 3:3 2:12 1:4 3:6 2:2 3:2 2:2
2:0 1:3 2:5 3:3 2:12 1:4 3:6 2:2 3:2 2:2 3:8
1:0 2:5 3:3 2:12 1:4 3:6 2:2 3:2 2:2 3:8 2:13
2:0 3:3 2:12 1:4 3:6 2:2 3:2 2:2 3:8 2:13 1:5
3:0 2:12 1:4 3:6 2:2 3:2 2:2 3:8 2:13 1:5 2:5
2:0 1:4 3:6 2:2 3:2 2:2 3:8 2:13 1:5 2:5 3:2
1:0 3:6 2:2 3:2 2:2 3:8 2:13 1:5 2:5 3:2 2:2
3:0 2:2 3:2 2:2 3:8 2:13 1:5 2:5 3:2 2:2 3:8
2:0 3:2 2:2 3:8 2:13 1:5 2:5 3:2 2:2 3:8 2:5
3:0 2:2 3:8 2:13 1:5 2:5 3:2 2:2 3:8 2:5 1:3
2:0 3:8 2:13 1:5 2:5 3:2 2:2 3:8 2:5 1:3 2:5
3:0 2:13 1:5 2:5 3:2 2:2 3:8 2:5 1:3 2:5 3:10
2:0 1:5 2:5 3:2 2:2 3:8 2:5 1:3 2:5 3:10 2:5
1:0 2:5 3:2 2:2 3:8 2:5 1:3 2:5 3:10 2:5 1:3
2:0 3:2 2:2 3:8 2:5 1:3 2:5 3:10 2:5 1:3 2:5
3:0 2:2 3:8 2:5 1:3 2:5 3:10 2:5 1:3 2:5 3:12
2:0 3:8 2:5 1:3 2:5 3:10 2:5 1:3 2:5 3:12 2:16
3:0 2:5 1:3 2:5 3:10 2:5 1:3 2:5 3:12 2:16 1:2
2:0 1:3 2:5 3:10 2:5 1:3 2:5 3:12 2:16 1:2 2:5
1:0 2:5 3:10 2:5 1:3 2:5 3:12 2:16 1:2 2:5 3:1
2:0 3:10 2:5 1:3 2:5 3:12 2:16 1:2 2:5 3:1 2:14
3:0 2:5 1:3 2:5 3:12 2:16 1:2 2:5 3:1 2:14 3:2
2:0 1:3 2:5 3:12 2:16 1:2 2:5 3:1 2:14 3:2 2:1
1:0 2:5 3:12 2:16 1:2 2:5 3:1 2:14 3:2 2:1 1:1
2:0 3:12 2:16 1:2 2:5 3:1 2:14 3:2 2:1 1:1 2:5
3:0 2:16 1:2 2:5 3:1 2:14 3:2 2:1 1:1 2:5 3:2
2:0 1:2 2:5 3:1 2:14 3:2 2:1 1:1 2:5 3:2 2:2
1:0 2:5 3:1 2:14 3:2 2:1 1:1 2:5 3:2 2:2 3:6
2:0 3:1 2:14 3:2 2:1 1:1 2:5 3:2 2:2 3:6 2:2
3:0 2:14 3:2 2:1 1:1 2:5 3:2 2:2 3:6 2:2 3:1
2:0 3:2 2:1 1:1 2:5 3:2 2:2 3:6 2:2 3:1 2:9
3:0 2:1 1:1 2:5 3:2 2:2 3:6 2:2 3:1 2:9 3:2
2:0 1:1 2:5 3:2 2:2 3:6 2:2 3:1 2:9 3:2 2:2
1:0 2:5 3:2 2:2 3:6 2:2 3:1 2:9 3:2 2:2 1:5
2:0 3:2 2:2 3:6 2:2 3:1 2:9 3:2 2:2 1:5 2:4
3:0 2:2 3:6 2:2 3:1 2:9 3:2 2:2 1:5 2:4 3:6
2:0 3:6 2:2 3:1 2:9 3:2 2:2 1:5 2:4 3:6 2:2
3:0 2:2 3:1 2:9 3:2 2:2 1:5 2:4 3:6 2:2 3:4
2:0 3:1 2:9 3:2 2:2 1:5 2:4 3:6 2:2 3:4 2:5
3:0 2:9 3:2 2:2 1:5 2:4 3:6 2:2 3:4 2:5 1:4
2:0 3:2 2:2 1:5 2:4 3:6 2:2 3:4 2:5 1:4 2:5
3:0 2:2 1:5 2:4 3:6 2:2 3:4 2:5 1:4 2:5 3:1
2:0 1:5 2:4 3:6 2:2 3:4 2:5 1:4 2:5 3:1 2:1
1:0 2:4 3:6 2:2 3:4 2:5 1:4 2:5 3:1 2:1 3:9
2:0 3:6 2:2 3:4 2:5 1:4 2:5 3:1 2:1 3:9 2:6
3:0 2:2 3:4 2:5 1:4 2:5 3:1 2:1 3:9 2:6 1:3
2:0 3:4 2:5 1:4 2:5 3:1 2:1 3:9 2:6 1:3 2:5
3:0 2:5 1:4 2:5 3:1 2:1 3:9 2:6 1:3 2:5 3:10
2:0 1:4 2:5 3:1 2:1 3:9 2:6 1:3 2:5 3:10 2:5
1:0 2:5 3:1 2:1 3:9 2:6 1:3 2:5 3:10 2:5 1:3
2:0 3:1 2:1 3:9 2:6 1:3 2:5 3:10 2:5 1:3 2:5
3:0 2:1 3:9 2:6 1:3 2:5 3:10 2:5 1:3 2:5 3:11
2:0 3:9 2:6 1:3 2:5 3:10 2:5 1:3 2:5 3:11 2:1
3:0 2:6 1:3 2:5 3:10 2:5 1:3 2:5 3:11 2:1 3:1
2:0 1:3 2:5 3:10 2:5 1:3 2:5 3:11 2:1 3:1 1:6
1:0 2:5 3:10 2:5 1:3 2:5 3:11 2:1 3:1 1:6 2:7
2:0 3:10 2:5 1:3 2:5 3:11 2:1 3:1 1:6 2:7 3:8
3:0 2:5 1:3 2:5 3:11 2:1 3:1 1:6 2:7 3:8 2:5
2:0 1:3 2:5 3:11 2:1 3:1 1:6 2:7 3:8 2:5 1:5
1:0 2:5 3:11 2:1 3:1 1:6 2:7 3:8 2:5 1:5 2:5
2:0 3:11 2:1 3:1 1:6 2:7 3:8 2:5 1:5 2:5 3:1
3:0 2:1 3:1 1:6 2:7 3:8 2:5 1:5 2:5 3:1 2:1
2:0 3:1 1:6 2:7 3:8 2:5 1:5 2:5 3:1 2:1 3:9
3:0 1:6 2:7 3:8 2:5 1:5 2:5 3:1 2:1 3:9 1:7
1:0 2:7 3:8 2:5 1:5 2:5 3:1 2:1 3:9 1:7 2:6
2:0 3:8 2:5 1:5 2:5 3:1 2:1 3:9 1:7 2:6 3:10
3:0 2:5 1:5 2:5 3:1 2:1 3:9 1:7 2:6 3:10 2:4
2:0 1:5 2:5 3:1 2:1 3:9 1:7 2:6 3:10 2:4 1:4
1:0 2:5 3:1 2:1 3:9 1:7 2:6 3:10 2:4 1:4 2:3
2:0 3:1 2:1 3:9 1:7 2:6 3:10 2:4 1:4 2:3 3:13
3:0 2:1 3:9 1:7 2:6 3:10 2:4 1:4 2:3 3:13 2:14
2:0 3:9 1:7 2:6 3:10 2:4 1:4 2:3 3:13 2:14 1:4
3:0 1:7 2:6 3:10 2:4 1:4 2:3 3:13 2:14 1:4 2:4
1:0 2:6 3:10 2:4 1:4 2:3 3:13 2:14 1:4 2:4 3:2
2:0 3:10 2:4 1:4 2:3 3:13 2:14 1:4 2:4 3:2 2:10
3:0 2:4 1:4 2:3 3:13 2:14 1:4 2:4 3:2 2:10 3:6
2:0 1:4 2:3 3:13 2:14 1:4 2:4 3:2 2:10 3:6 2:3
1:0 2:3 3:13 2:14 1:4 2:4 3:2 2:10 3:6 2:3 3:4
2:0 3:13 2:14 1:4 2:4 3:2 2:10 3:6 2:3 3:4 2:5
3:0 2:14 1:4 2:4 3:2 2:10 3:6 2:3 3:4 2:5 1:4
2:0 1:4 2:4 3:2 2:10 3:6 2:3 3:4 2:5 1:4 2:4
1:0 2:4 3:2 2:10 3:6 2:3 3:4 2:5 1:4 2:4 3:4
2:0 3:2 2:10 3:6 2:3 3:4 2:5 1:4 2:4 3:4 2:4
3:0 2:10 3:6 2:3 3:4 2:5 1:4 2:4 3:4 2:4 3:3
2:0 3:6 2:3 3:4 2:5 1:4 2:4 3:4 2:4 3:3 2:4
3:0 2:3 3:4 2:5 1:4 2:4 3:4 2:4 3:3 2:4 1:5
2:0 3:4 2:5 1:4 2:4 3:4 2:4 3:3 2:4 1:5 2:5
3:0 2:5 1:4 2:4 3:4 2:4 3:3 2:4 1:5 2:5 3:12
2:0 1:4 2:4 3:4 2:4 3:3 2:4 1:5 2:5 3:12 2:6
1:0 2:4 3:4 2:4 3:3 2:4 1:5 2:5 3:12 2:6 1:1
2:0 3:4 2:4 3:3 2:4 1:5 2:5 3:12 2:6 1:1 2:5
3:0 2:4 3:3 2:4 1:5 2:5 3:12 2:6 1:1 2:5 3:11
2:0 3:3 2:4 1:5 2:5 3:12 2:6 1:1 2:5 3:11 2:4
3:0 2:4 1:5 2:5 3:12 2:6 1:1 2:5 3:11 2:4 1:4
2:0 1:5 2:5 3:12 2:6 1:1 2:5 3:11 2:4 1:4 2:5
1:0 2:5 3:12 2:6 1:1 2:5 3:11 2:4 1:4 2:5 3:12
2:0 3:12 2:6 1:1 2:5 3:11 2:4 1:4 2:5 3:12 1:8
3:0 2:6 1:1 2:5 3:11 2:4 1:4 2:5 3:12 1:8 2:6
2:0 1:1 2:5 3:11 2:4 1:4 2:5 3:12 1:8 2:6 3:9
1:0 2:5 3:11 2:4 1:4 2:5 3:12 1:8 2:6 3:9 2:5
2:0 3:11 2:4 1:4 2:5 3:12 1:8 2:6 3:9 2:5 1:3
3:0 2:4 1:4 2:5 3:12 1:8 2:6 3:9 2:5 1:3 2:6
2:0 1:4 2:5 3:12 1:8 2:6 3:9 2:5 1:3 2:6 3:2
1:0 2:5 3:12 1:8 2:6 3:9 2:5 1:3 2:6 3:2 2:1
2:0 3:12 1:8 2:6 3:9 2:5 1:3 2:6 3:2 2:1 3:8
3:0 1:8 2:6 3:9 2:5 1:3 2:6 3:2 2:1 3:8 2:6
1:0 2:6 3:9 2:5 1:3 2:6 3:2 2:1 3:8 2:6 1:2
2:0 3:9 2:5 1:3 2:6 3:2 2:1 3:8 2:6 1:2 2:5
3:0 2:5 1:3 2:6 3:2 2:1 3:8 2:6 1:2 2:5 3:10
2:0 1:3 2:6 3:2 2:1 3:8 2:6 1:2 2:5 3:10 2:4
1:0 2:6 3:2 2:1 3:8 2:6 1:2 2:5 3:10 2:4 1:4
2:0 3:2 2:1 3:8 2:6 1:2 2:5 3:10 2:4 1:4 2:5
3:0 2:1 3:8 2:6 1:2 2:5 3:10 2:4 1:4 2:5 3:3
2:0 3:8 2:6 1:2 2:5 3:10 2:4 1:4 2:5 3:3 2:1
3:0 2:6 1:2 2:5 3:10 2:4 1:4 2:5 3:3 2:1 3:9
2:0 1:2 2:5 3:10 2:4 1:4 2:5 3:3 2:1 3:9 2:14
1:0 2:5 3:10 2:4 1:4 2:5 3:3 2:1 3:9 2:14 1:3
2:0 3:10 2:4 1:4 2:5 3:3 2:1 3:9 2:14 1:3 2:4
3:0 2:4 1:4 2:5 3:3 2:1 3:9 2:14 1:3 2:4 3:2
2:0 1:4 2:5 3:3 2:1 3:9 2:14 1:3 2:4 3:2 1:10
1:0 2:5 3:3 2:1 3:9 2:14 1:3 2:4 3:2 1:10 2:2
2:0 3:3 2:1 3:9 2:14 1:3 2:4 3:2 1:10 2:2 1:2
3:0 2:1 3:9 2:14 1:3 2:4 3:2 1:10 2:2 1:2 3:10
2:0 3:9 2:14 1:3 2:4 3:2 1:10 2:2 1:2 3:10 2:1
3:0 2:14 1:3 2:4 3:2 1:10 2:2 1:2 3:10 2:1 3:3
2:0 1:3 2:4 3:2 1:10 2:2 1:2 3:10 2:1 3:3 2:1
1:0 2:4 3:2 1:10 2:2 1:2 3:10 2:1 3:3 2:1 3:9
2:0 3:2 1:10 2:2 1:2 3:10 2:1 3:3 2:1 3:9 2:4
3:0 1:10 2:2 1:2 3:10 2:1 3:3 2:1 3:9 2:4 3:4
1:0 2:2 1:2 3:10 2:1 3:3 2:1 3:9 2:4 3:4 2:6
2:0 1:2 3:10 2:1 3:3 2:1 3:9 2:4 3:4 2:6 1:3
1:0 3:10 2:1 3:3 2:1 3:9 2:4 3:4 2:6 1:3 2:4
3:0 2:1 3:3 2:1 3:9 2:4 3:4 2:6 1:3 2:4 3:6
2:0 3:3 2:1 3:9 2:4 3:4 2:6 1:3 2:4 3:6 2:1
3:0 2:1 3:9 2:4 3:4 2:6 1:3 2:4 3:6 2:1 3:5
2:0 3:9 2:4 3:4 2:6 1:3 2:4 3:6 2:1 3:5 2:3
3:0 2:4 3:4 2:6 1:3 2:4 3:6 2:1 3:5 2:3 3:1
2:0 3:4 2:6 1:3 2:4 3:6 2:1 3:5 2:3 3:1 2:1
3:0 2:6 1:3 2:4 3:6 2:1 3:5 2:3 3:1 2:1 1:3
2:0 1:3 2:4 3:6 2:1 3:5 2:3 3:1 2:1 1:3 2:5
1:0 2:4 3:6 2:1 3:5 2:3 3:1 2:1 1:3 2:5 3:1
2:0 3:6 2:1 3:5 2:3 3:1 2:1 1:3 2:5 3:1 2:1
3:0 2:1 3:5 2:3 3:1 2:1 1:3 2:5 3:1 2:1 3:9
2:0 3:5 2:3 3:1 2:1 1:3 2:5 3:1 2:1 3:9 2:5
3:0 2:3 3:1 2:1 1:3 2:5 3:1 2:1 3:9 2:5 1:4
2:0 3:1 2:1 1:3 2:5 3:1 2:1 3:9 2:5 1:4 2:5
3:0 2:1 1:3 2:5 3:1 2:1 3:9 2:5 1:4 2:5 3:10
2:0 1:3 2:5 3:1 2:1 3:9 2:5 1:4 2:5 3:10 2:5
1:0 2:5 3:1 2:1 3:9 2:5 1:4 2:5 3:10 2:5 1:3
2:0 3:1 2:1 3:9 2:5 1:4 2:5 3:10 2:5 1:3 2:5
3:0 2:1 3:9 2:5 1:4 2:5 3:10 2:5 1:3 2:5 3:2
2:0 3:9 2:5 1:4 2:5 3:10 2:5 1:3 2:5 3:2 2:1
3:0 2:5 1:4 2:5 3:10 2:5 1:3 2:5 3:2 2:1 3:8
2:0 1:4 2:5 3:10 2:5 1:3 2:5 3:2 2:1 3:8 1:8
1:0 2:5 3:10 2:5 1:3 2:5 3:2 2:1 3:8 1:8 2:7
2:0 3:10 2:5 1:3 2:5 3:2 2:1 3:8 1:8 2:7 3:9
3:0 2:5 1:3 2:5 3:2 2:1 3:8 1:8 2:7 3:9 2:5
2:0 1:3 2:5 3:2 2:1 3:8 1:8 2:7 3:9 2:5 1:3
1:0 2:5 3:2 2:1 3:8 1:8 2:7 3:9 2:5 1:3 3:5
2:0 3:2 2:1 3:8 1:8 2:7 3:9 2:5 1:3 3:5 2:1
3:0 2:1 3:8 1:8 2:7 3:9 2:5 1:3 3:5 2:1 3:11
2:0 3:8 1:8 2:7 3:9 2:5 1:3 3:5 2:1 3:11 2:16
3:0 1:8 2:7 3:9 2:5 1:3 3:5 2:1 3:11 2:16 1:1
1:0 2:7 3:9 2:5 1:3 3:5 2:1 3:11 2:16 1:1 2:1
2:0 3:9 2:5 1:3 3:5 2:1 3:11 2:16 1:1 2:1 1:1
3:0 2:5 1:3 3:5 2:1 3:11 2:16 1:1 2:1 1:1 2:4
2:0 1:3 3:5 2:1 3:11 2:16 1:1 2:1 1:1 2:4 3:1
1:0 3:5 2:1 3:11 2:16 1:1 2:1 1:1 2:4 3:1 2:13
3:0 2:1 3:11 2:16 1:1 2:1 1:1 2:4 3:1 2:13 1:4
2:0 3:11 2:16 1:1 2:1 1:1 2:4 3:1 2:13 1:4 2:5
3:0 2:16 1:1 2:1 1:1 2:4 3:1 2:13 1:4 2:5 3:1
2:0 1:1 2:1 1:1 2:4 3:1 2:13 1:4 2:5 3:1 2:1
1:0 2:1 1:1 2:4 3:1 2:13 1:4 2:5 3:1 2:1 3:2
2:0 1:1 2:4 3:1 2:13 1:4 2:5 3:1 2:1 3:2 2:2
1:0 2:4 3:1 2:13 1:4 2:5 3:1 2:1 3:2 2:2 3:9
2:0 3:1 2:13 1:4 2:5 3:1 2:1 3:2 2:2 3:9 2:8
3:0 2:13 1:4 2:5 3:1 2:1 3:2 2:2 3:9 2:8 3:2
2:0 1:4 2:5 3:1 2:1 3:2 2:2 3:9 2:8 3:2 2:2
1:0 2:5 3:1 2:1 3:2 2:2 3:9 2:8 3:2 2:2 3:2
2:0 3:1 2:1 3:2 2:2 3:9 2:8 3:2 2:2 3:2 2:1
3:0 2:1 3:2 2:2 3:9 2:8 3:2 2:2 3:2 2:1 1:3
2:0 3:2 2:2 3:9 2:8 3:2 2:2 3:2 2:1 1:3 2:7
3:0 2:2 3:9 2:8 3:2 2:2 3:2 2:1 1:3 2:7 3:11
2:0 3:9 2:8 3:2 2:2 3:2 2:1 1:3 2:7 3:11 2:16
3:0 2:8 3:2 2:2 3:2 2:1 1:3 2:7 3:11 2:16 1:1
2:0 3:2 2:2 3:2 2:1 1:3 2:7 3:11 2:16 1:1 2:5
3:0 2:2 3:2 2:1 1:3 2:7 3:11 2:16 1:1 2:5 3:1
2:0 3:2 2:1 1:3 2:7 3:11 2:16 1:1 2:5 3:1 2:1
3:0 2:1 1:3 2:7 3:11 2:16 1:1 2:5 3:1 2:1 3:1
2:0 1:3 2:7 3:11 2:16 1:1 2:5 3:1 2:1 3:1 2:13
1:0 2:7 3:11 2:16 1:1 2:5 3:1 2:1 3:1 2:13 3:1
2:0 3:11 2:16 1:1 2:5 3:1 2:1 3:1 2:13 3:1 2:1
3:0 2:16 1:1 2:5 3:1 2:1 3:1 2:13 3:1 2:1 1:2
2:0 1:1 2:5 3:1 2:1 3:1 2:13 3:1 2:1 1:2 3:5
1:0 2:5 3:1 2:1 3:1 2:13 3:1 2:1 1:2 3:5 2:2
2:0 3:1 2:1 3:1 2:13 3:1 2:1 1:2 3:5 2:2 3:3
3:0 2:1 3:1 2:13 3:1 2:1 1:2 3:5 2:2 3:3 2:1
2:0 3:1 2:13 3:1 2:1 1:2 3:5 2:2 3:3 2:1 3:8
3:0 2:13 3:1 2:1 1:2 3:5 2:2 3:3 2:1 3:8 2:4
2:0 3:1 2:1 1:2 3:5 2:2 3:3 2:1 3:8 2:4 3:5
3:0 2:1 1:2 3:5 2:2 3:3 2:1 3:8 2:4 3:5 2:5
2:0 1:2 3:5 2:2 3:3 2:1 3:8 2:4 3:5 2:5 1:2
1:0 3:5 2:2 3:3 2:1 3:8 2:4 3:5 2:5 1:2 2:5
3:0 2:2 3:3 2:1 3:8 2:4 3:5 2:5 1:2 2:5 3:5
2:0 3:3 2:1 3:8 2:4 3:5 2:5 1:2 2:5 3:5 2:2
3:0 2:1 3:8 2:4 3:5 2:5 1:2 2:5 3:5 2:2 3:5
2:0 3:8 2:4 3:5 2:5 1:2 2:5 3:5 2:2 3:5 2:3
3:0 2:4 3:5 2:5 1:2 2:5 3:5 2:2 3:5 2:3 1:5
2:0 3:5 2:5 1:2 2:5 3:5 2:2 3:5 2:3 1:5 2:5
3:0 2:5 1:2 2:5 3:5 2:2 3:5 2:3 1:5 2:5 3:11
2:0 1:2 2:5 3:5 2:2 3:5 2:3 1:5 2:5 3:11 2:1
1:0 2:5 3:5 2:2 3:5 2:3 1:5 2:5 3:11 2:1 3:1
2:0 3:5 2:2 3:5 2:3 1:5 2:5 3:11 2:1 3:1 2:12
3:0 2:2 3:5 2:3 1:5 2:5 3:11 2:1 3:1 2:12 1:4
2:0 3:5 2:3 1:5 2:5 3:11 2:1 3:1 2:12 1:4 2:4
3:0 2:3 1:5 2:5 3:11 2:1 3:1 2:12 1:4 2:4 3:2
2:0 1:5 2:5 3:11 2:1 3:1 2:12 1:4 2:4 3:2 2:11
1:0 2:5 3:11 2:1 3:1 2:12 1:4 2:4 3:2 2:11 3:5
2:0 3:11 2:1 3:1 2:12 1:4 2:4 3:2 2:11 3:5 2:3
3:0 2:1 3:1 2:12 1:4 2:4 3:2 2:11 3:5 2:3 3:4
2:0 3:1 2:12 1:4 2:4 3:2 2:11 3:5 2:3 3:4 2:4
3:0 2:12 1:4 2:4 3:2 2:11 3:5 2:3 3:4 2:4 1:4
2:0 1:4 2:4 3:2 2:11 3:5 2:3 3:4 2:4 1:4 2:4
1:0 2:4 3:2 2:11 3:5 2:3 3:4 2:4 1:4 2:4 3:6
2:0 3:2 2:11 3:5 2:3 3:4 2:4 1:4 2:4 3:6 2:2
3:0 2:11 3:5 2:3 3:4 2:4 1:4 2:4 3:6 2:2 3:3
2:0 3:5 2:3 3:4 2:4 1:4 2:4 3:6 2:2 3:3 2:6
3:0 2:3 3:4 2:4 1:4 2:4 3:6 2:2 3:3 2:6 1:4
2:0 3:4 2:4 1:4 2:4 3:6 2:2 3:3 2:6 1:4 2:5
3:0 2:4 1:4 2:4 3:6 2:2 3:3 2:6 1:4 2:5 3:11
2:0 1:4 2:4 3:6 2:2 3:3 2:6 1:4 2:5 3:11 2:17
1:0 2:4 3:6 2:2 3:3 2:6 1:4 2:5 3:11 2:17 1:2
2:0 3:6 2:2 3:3 2:6 1:4 2:5 3:11 2:17 1:2 2:5
3:0 2:2 3:3 2:6 1:4 2:5 3:11 2:17 1:2 2:5 3:1
2:0 3:3 2:6 1:4 2:5 3:11 2:17 1:2 2:5 3:1 2:2
3:0 2:6 1:4 2:5 3:11 2:17 1:2 2:5 3:1 2:2 3:3
2:0 1:4 2:5 3:11 2:17 1:2 2:5 3:1 2:2 3:3 2:2
1:0 2:5 3:11 2:17 1:2 2:5 3:1 2:2 3:3 2:2 3:9
2:0 3:11 2:17 1:2 2:5 3:1 2:2 3:3 2:2 3:9 2:3
3:0 2:17 1:2 2:5 3:1 2:2 3:3 2:2 3:9 2:3 3:4
2:0 1:2 2:5 3:1 2:2 3:3 2:2 3:9 2:3 3:4 2:6
1:0 2:5 3:1 2:2 3:3 2:2 3:9 2:3 3:4 2:6 1:1
2:0 3:1 2:2 3:3 2:2 3:9 2:3 3:4 2:6 1:1 2:6
3:0 2:2 3:3 2:2 3:9 2:3 3:4 2:6 1:1 2:6 3:2
2:0 3:3 2:2 3:9 2:3 3:4 2:6 1:1 2:6 3:2 2:3
3:0 2:2 3:9 2:3 3:4 2:6 1:1 2:6 3:2 2:3 3:5
2:0 3:9 2:3 3:4 2:6 1:1 2:6 3:2 2:3 3:5 2:4
3:0 2:3 3:4 2:6 1:1 2:6 3:2 2:3 3:5 2:4 3:2
2:0 3:4 2:6 1:1 2:6 3:2 2:3 3:5 2:4 3:2 2:1
3:0 2:6 1:1 2:6 3:2 2:3 3:5 2:4 3:2 2:1 1:1
2:0 1:1 2:6 3:2 2:3 3:5 2:4 3:2 2:1 1:1 2:6
1:0 2:6 3:2 2:3 3:5 2:4 3:2 2:1 1:1 2:6 3:12
2:0 3:2 2:3 3:5 2:4 3:2 2:1 1:1 2:6 3:12 2:5
3:0 2:3 3:5 2:4 3:2 2:1 1:1 2:6 3:12 2:5 1:3
2:0 3:5 2:4 3:2 2:1 1:1 2:6 3:12 2:5 1:3 2:6
3:0 2:4 3:2 2:1 1:1 2:6 3:12 2:5 1:3 2:6 3:10
2:0 3:2 2:1 1:1 2:6 3:12 2:5 1:3 2:6 3:10 2:5
3:0 2:1 1:1 2:6 3:12 2:5 1:3 2:6 3:10 2:5 1:2
2:0 1:1 2:6 3:12 2:5 1:3 2:6 3:10 2:5 1:2 2:5
1:0 2:6 3:12 2:5 1:3 2:6 3:10 2:5 1:2 2:5 3:12
2:0 3:12 2:5 1:3 2:6 3:10 2:5 1:2 2:5 3:12 1:7
3:0 2:5 1:3 2:6 3:10 2:5 1:2 2:5 3:12 1:7 3:6
2:0 1:3 2:6 3:10 2:5 1:2 2:5 3:12 1:7 3:6 2:1
1:0 2:6 3:10 2:5 1:2 2:5 3:12 1:7 3:6 2:1 3:9
2:0 3:10 2:5 1:2 2:5 3:12 1:7 3:6 2:1 3:9 2:4
3:0 2:5 1:2 2:5 3:12 1:7 3:6 2:1 3:9 2:4 1:4
2:0 1:2 2:5 3:12 1:7 3:6 2:1 3:9 2:4 1:4 2:6
1:0 2:5 3:12 1:7 3:6 2:1 3:9 2:4 1:4 2:6 3:10
2:0 3:12 1:7 3:6 2:1 3:9 2:4 1:4 2:6 3:10 1:11
3:0 1:7 3:6 2:1 3:9 2:4 1:4 2:6 3:10 1:11 2:10
1:0 3:6 2:1 3:9 2:4 1:4 2:6 3:10 1:11 2:10 3:4
3:0 2:1 3:9 2:4 1:4 2:6 3:10 1:11 2:10 3:4 1:10
2:0 3:9 2:4 1:4 2:6 3:10 1:11 2:10 3:4 1:10 2:2
3:0 2:4 1:4 2:6 3:10 1:11 2:10 3:4 1:10 2:2 1:1
2:0 1:4 2:6 3:10 1:11 2:10 3:4 1:10 2:2 1:1 3:10
1:0 2:6 3:10 1:11 2:10 3:4 1:10 2:2 1:1 3:10 2:2
2:0 3:10 1:11 2:10 3:4 1:10 2:2 1:1 3:10 2:2 3:2
3:0 1:11 2:10 3:4 1:10 2:2 1:1 3:10 2:2 3:2 2:2
1:0 2:10 3:4 1:10 2:2 1:1 3:10 2:2 3:2 2:2 3:8
2:0 3:4 1:10 2:2 1:1 3:10 2:2 3:2 2:2 3:8 2:13
3:0 1:10 2:2 1:1 3:10 2:2 3:2 2:2 3:8 2:13 3:2
1:0 2:2 1:1 3:10 2:2 3:2 2:2 3:8 2:13 3:2 2:2
2:0 1:1 3:10 2:2 3:2 2:2 3:8 2:13 3:2 2:2 1:2
1:0 3:10 2:2 3:2 2:2 3:8 2:13 3:2 2:2 1:2 2:6
3:0 2:2 3:2 2:2 3:8 2:13 3:2 2:2 1:2 2:6 3:10
2:0 3:2 2:2 3:8 2:13 3:2 2:2 1:2 2:6 3:10 2:14
3:0 2:2 3:8 2:13 3:2 2:2 1:2 2:6 3:10 2:14 1:4
2:0 3:8 2:13 3:2 2:2 1:2 2:6 3:10 2:14 1:4 2:4
3:0 2:13 3:2 2:2 1:2 2:6 3:10 2:14 1:4 2:4 3:2
2:0 3:2 2:2 1:2 2:6 3:10 2:14 1:4 2:4 3:2 2:14
3:0 2:2 1:2 2:6 3:10 2:14 1:4 2:4 3:2 2:14 3:1
2:0 1:2 2:6 3:10 2:14 1:4 2:4 3:2 2:14 3:1 2:1
1:0 2:6 3:10 2:14 1:4 2:4 3:2 2:14 3:1 2:1 1:2
2:0 3:10 2:14 1:4 2:4 3:2 2:14 3:1 2:1 1:2 2:6
3:0 2:14 1:4 2:4 3:2 2:14 3:1 2:1 1:2 2:6 3:1
2:0 1:4 2:4 3:2 2:14 3:1 2:1 1:2 2:6 3:1 2:1
1:0 2:4 3:2 2:14 3:1 2:1 1:2 2:6 3:1 2:1 3:9
2:0 3:2 2:14 3:1 2:1 1:2 2:6 3:1 2:1 3:9 2:1
3:0 2:14 3:1 2:1 1:2 2:6 3:1 2:1 3:9 2:1 3:2
2:0 3:1 2:1 1:2 2:6 3:1 2:1 3:9 2:1 3:2 2:5
3:0 2:1 1:2 2:6 3:1 2:1 3:9 2:1 3:2 2:5 3:4
2:0 1:2 2:6 3:1 2:1 3:9 2:1 3:2 2:5 3:4 2:3
1:0 2:6 3:1 2:1 3:9 2:1 3:2 2:5 3:4 2:3 1:4
2:0 3:1 2:1 3:9 2:1 3:2 2:5 3:4 2:3 1:4 2:6
3:0 2:1 3:9 2:1 3:2 2:5 3:4 2:3 1:4 2:6 3:3
2:0 3:9 2:1 3:2 2:5 3:4 2:3 1:4 2:6 3:3 2:1
3:0 2:1 3:2 2:5 3:4 2:3 1:4 2:6 3:3 2:1 3:9
2:0 3:2 2:5 3:4 2:3 1:4 2:6 3:3 2:1 3:9 2:14
3:0 2:5 3:4 2:3 1:4 2:6 3:3 2:1 3:9 2:14 1:3
2:0 3:4 2:3 1:4 2:6 3:3 2:1 3:9 2:14 1:3 2:4
3:0 2:3 1:4 2:6 3:3 2:1 3:9 2:14 1:3 2:4 3:3
2:0 1:4 2:6 3:3 2:1 3:9 2:14 1:3 2:4 3:3 2:14
1:0 2:6 3:3 2:1 3:9 2:14 1:3 2:4 3:3 2:14 1:3
2:0 3:3 2:1 3:9 2:14 1:3 2:4 3:3 2:14 1:3 2:4
3:0 2:1 3:9 2:14 1:3 2:4 3:3 2:14 1:3 2:4 3:1
2:0 3:9 2:14 1:3 2:4 3:3 2:14 1:3 2:4 3:1 2:2
3:0 2:14 1:3 2:4 3:3 2:14 1:3 2:4 3:1 2:2 3:2
2:0 1:3 2:4 3:3 2:14 1:3 2:4 3:1 2:2 3:2 2:5
1:0 2:4 3:3 2:14 1:3 2:4 3:1 2:2 3:2 2:5 3:9
2:0 3:3 2:14 1:3 2:4 3:1 2:2 3:2 2:5 3:9 2:2
3:0 2:14 1:3 2:4 3:1 2:2 3:2 2:5 3:9 2:2 3:3
2:0 1:3 2:4 3:1 2:2 3:2 2:5 3:9 2:2 3:3 2:5
1:0 2:4 3:1 2:2 3:2 2:5 3:9 2:2 3:3 2:5 1:4
2:0 3:1 2:2 3:2 2:5 3:9 2:2 3:3 2:5 1:4 2:4
3:0 2:2 3:2 2:5 3:9 2:2 3:3 2:5 1:4 2:4 3:3
2:0 3:2 2:5 3:9 2:2 3:3 2:5 1:4 2:4 3:3 2:1
3:0 2:5 3:9 2:2 3:3 2:5 1:4 2:4 3:3 2:1 3:1
2:0 3:9 2:2 3:3 2:5 1:4 2:4 3:3 2:1 3:1 2:2
3:0 2:2 3:3 2:5 1:4 2:4 3:3 2:1 3:1 2:2
2:0 3:3 2:5 1:4 2:4 3:3 2:1 3:1 2:2
3:0 2:5 1:4 2:4 3:3 2:1 3:1 2:2
2:0 1:4 2:4 3:3 2:1 3:1 2:2
1:0 2:4 3:3 2:1 3:1 2:2
2:0 3:3 2:1 3:1 2:2
3:0 2:1 3:1 2:2
2:0 3:1 2:2
3:0 2:2
2:0