2:0 4:3 3:6 2:1 3:1 2:2 3:1 4:1 3:5 4:4 3:9
4:0 3:6 2:1 3:1 2:2 3:1 4:1 3:5 4:4 3:9 4:4
3:0 2:1 3:1 2:2 3:1 4:1 3:5 4:4 3:9 4:4 3:12
2:0 3:1 2:2 3:1 4:1 3:5 4:4 3:9 4:4 3:12 4:4
3:0 2:2 3:1 4:1 3:5 4:4 3:9 4:4 3:12 4:4 2:4
2:0 3:1 4:1 3:5 4:4 3:9 4:4 3:12 4:4 2:4 4:7
3:0 4:1 3:5 4:4 3:9 4:4 3:12 4:4 2:4 4:7 2:4
4:0 3:5 4:4 3:9 4:4 3:12 4:4 2:4 4:7 2:4 3:4
3:0 4:4 3:9 4:4 3:12 4:4 2:4 4:7 2:4 3:4 4:3
4:0 3:9 4:4 3:12 4:4 2:4 4:7 2:4 3:4 4:3 3:14
3:0 4:4 3:12 4:4 2:4 4:7 2:4 3:4 4:3 3:14 2:2
4:0 3:12 4:4 2:4 4:7 2:4 3:4 4:3 3:14 2:2 4:6
3:0 4:4 2:4 4:7 2:4 3:4 4:3 3:14 2:2 4:6 3:6
4:0 2:4 4:7 2:4 3:4 4:3 3:14 2:2 4:6 3:6 4:2
2:0 4:7 2:4 3:4 4:3 3:14 2:2 4:6 3:6 4:2 2:1
4:0 2:4 3:4 4:3 3:14 2:2 4:6 3:6 4:2 2:1 3:1
2:0 3:4 4:3 3:14 2:2 4:6 3:6 4:2 2:1 3:1 4:1
3:0 4:3 3:14 2:2 4:6 3:6 4:2 2:1 3:1 4:1 3:4
4:0 3:14 2:2 4:6 3:6 4:2 2:1 3:1 4:1 3:4 4:2
3:0 2:2 4:6 3:6 4:2 2:1 3:1 4:1 3:4 4:2 3:1
2:0 4:6 3:6 4:2 2:1 3:1 4:1 3:4 4:2 3:1 4:1
4:0 3:6 4:2 2:1 3:1 4:1 3:4 4:2 3:1 4:1 3:1
3:0 4:2 2:1 3:1 4:1 3:4 4:2 3:1 4:1 3:1 4:1
4:0 2:1 3:1 4:1 3:4 4:2 3:1 4:1 3:1 4:1 3:12
2:0 3:1 4:1 3:4 4:2 3:1 4:1 3:1 4:1 3:12 4:1
3:0 4:1 3:4 4:2 3:1 4:1 3:1 4:1 3:12 4:1 3:1
4:0 3:4 4:2 3:1 4:1 3:1 4:1 3:12 4:1 3:1 4:1
3:0 4:2 3:1 4:1 3:1 4:1 3:12 4:1 3:1 4:1 3:8
4:0 3:1 4:1 3:1 4:1 3:12 4:1 3:1 4:1 3:8 4:3
3:0 4:1 3:1 4:1 3:12 4:1 3:1 4:1 3:8 4:3 3:1
4:0 3:1 4:1 3:12 4:1 3:1 4:1 3:8 4:3 3:1 4:1
3:0 4:1 3:12 4:1 3:1 4:1 3:8 4:3 3:1 4:1 3:6
4:0 3:12 4:1 3:1 4:1 3:8 4:3 3:1 4:1 3:6 2:1
3:0 4:1 3:1 4:1 3:8 4:3 3:1 4:1 3:6 2:1 4:1
4:0 3:1 4:1 3:8 4:3 3:1 4:1 3:6 2:1 4:1 2:2
3:0 4:1 3:8 4:3 3:1 4:1 3:6 2:1 4:1 2:2 4:3
4:0 3:8 4:3 3:1 4:1 3:6 2:1 4:1 2:2 4:3 2:3
3:0 4:3 3:1 4:1 3:6 2:1 4:1 2:2 4:3 2:3 4:8
4:0 3:1 4:1 3:6 2:1 4:1 2:2 4:3 2:3 4:8 3:6
3:0 4:1 3:6 2:1 4:1 2:2 4:3 2:3 4:8 3:6 4:2
4:0 3:6 2:1 4:1 2:2 4:3 2:3 4:8 3:6 4:2 3:7
3:0 2:1 4:1 2:2 4:3 2:3 4:8 3:6 4:2 3:7 4:4
2:0 4:1 2:2 4:3 2:3 4:8 3:6 4:2 3:7 4:4 3:1
4:0 2:2 4:3 2:3 4:8 3:6 4:2 3:7 4:4 3:1 4:3
2:0 4:3 2:3 4:8 3:6 4:2 3:7 4:4 3:1 4:3 3:15
4:0 2:3 4:8 3:6 4:2 3:7 4:4 3:1 4:3 3:15 2:3
2:0 4:8 3:6 4:2 3:7 4:4 3:1 4:3 3:15 2:3 4:5
4:0 3:6 4:2 3:7 4:4 3:1 4:3 3:15 2:3 4:5 3:6
3:0 4:2 3:7 4:4 3:1 4:3 3:15 2:3 4:5 3:6 4:2
4:0 3:7 4:4 3:1 4:3 3:15 2:3 4:5 3:6 4:2 3:3
3:0 4:4 3:1 4:3 3:15 2:3 4:5 3:6 4:2 3:3 4:3
4:0 3:1 4:3 3:15 2:3 4:5 3:6 4:2 3:3 4:3 2:7
3:0 4:3 3:15 2:3 4:5 3:6 4:2 3:3 4:3 2:7 3:6
4:0 3:15 2:3 4:5 3:6 4:2 3:3 4:3 2:7 3:6 4:1
3:0 2:3 4:5 3:6 4:2 3:3 4:3 2:7 3:6 4:1 2:6
2:0 4:5 3:6 4:2 3:3 4:3 2:7 3:6 4:1 2:6 4:5
4:0 3:6 4:2 3:3 4:3 2:7 3:6 4:1 2:6 4:5 2:5
3:0 4:2 3:3 4:3 2:7 3:6 4:1 2:6 4:5 2:5 3:5
4:0 3:3 4:3 2:7 3:6 4:1 2:6 4:5 2:5 3:5 4:1
3:0 4:3 2:7 3:6 4:1 2:6 4:5 2:5 3:5 4:1 2:15
4:0 2:7 3:6 4:1 2:6 4:5 2:5 3:5 4:1 2:15 3:8
2:0 3:6 4:1 2:6 4:5 2:5 3:5 4:1 2:15 3:8 4:1
3:0 4:1 2:6 4:5 2:5 3:5 4:1 2:15 3:8 4:1 3:5
4:0 2:6 4:5 2:5 3:5 4:1 2:15 3:8 4:1 3:5 4:1
2:0 4:5 2:5 3:5 4:1 2:15 3:8 4:1 3:5 4:1 3:1
4:0 2:5 3:5 4:1 2:15 3:8 4:1 3:5 4:1 3:1 4:4
2:0 3:5 4:1 2:15 3:8 4:1 3:5 4:1 3:1 4:4 3:3
3:0 4:1 2:15 3:8 4:1 3:5 4:1 3:1 4:4 3:3 4:1
4:0 2:15 3:8 4:1 3:5 4:1 3:1 4:4 3:3 4:1 3:3
2:0 3:8 4:1 3:5 4:1 3:1 4:4 3:3 4:1 3:3 4:3
3:0 4:1 3:5 4:1 3:1 4:4 3:3 4:1 3:3 4:3 3:11
4:0 3:5 4:1 3:1 4:4 3:3 4:1 3:3 4:3 3:11 2:7
3:0 4:1 3:1 4:4 3:3 4:1 3:3 4:3 3:11 2:7 4:1
4:0 3:1 4:4 3:3 4:1 3:3 4:3 3:11 2:7 4:1 2:3
3:0 4:4 3:3 4:1 3:3 4:3 3:11 2:7 4:1 2:3 3:5
4:0 3:3 4:1 3:3 4:3 3:11 2:7 4:1 2:3 3:5 4:1
3:0 4:1 3:3 4:3 3:11 2:7 4:1 2:3 3:5 4:1 3:5
4:0 3:3 4:3 3:11 2:7 4:1 2:3 3:5 4:1 3:5 4:3
3:0 4:3 3:11 2:7 4:1 2:3 3:5 4:1 3:5 4:3 3:1
4:0 3:11 2:7 4:1 2:3 3:5 4:1 3:5 4:3 3:1 4:2
3:0 2:7 4:1 2:3 3:5 4:1 3:5 4:3 3:1 4:2 3:4
2:0 4:1 2:3 3:5 4:1 3:5 4:3 3:1 4:2 3:4 4:1
4:0 2:3 3:5 4:1 3:5 4:3 3:1 4:2 3:4 4:1 3:2
2:0 3:5 4:1 3:5 4:3 3:1 4:2 3:4 4:1 3:2 4:1
3:0 4:1 3:5 4:3 3:1 4:2 3:4 4:1 3:2 4:1 2:27
4:0 3:5 4:3 3:1 4:2 3:4 4:1 3:2 4:1 2:27 3:1
3:0 4:3 3:1 4:2 3:4 4:1 3:2 4:1 2:27 3:1 4:2
4:0 3:1 4:2 3:4 4:1 3:2 4:1 2:27 3:1 4:2 2:5
3:0 4:2 3:4 4:1 3:2 4:1 2:27 3:1 4:2 2:5 3:3
4:0 3:4 4:1 3:2 4:1 2:27 3:1 4:2 2:5 3:3 4:1
3:0 4:1 3:2 4:1 2:27 3:1 4:2 2:5 3:3 4:1 2:2
4:0 3:2 4:1 2:27 3:1 4:2 2:5 3:3 4:1 2:2 4:1
3:0 4:1 2:27 3:1 4:2 2:5 3:3 4:1 2:2 4:1 2:3
4:0 2:27 3:1 4:2 2:5 3:3 4:1 2:2 4:1 2:3 3:6
2:0 3:1 4:2 2:5 3:3 4:1 2:2 4:1 2:3 3:6 4:1
3:0 4:2 2:5 3:3 4:1 2:2 4:1 2:3 3:6 4:1 3:17
4:0 2:5 3:3 4:1 2:2 4:1 2:3 3:6 4:1 3:17 4:6
2:0 3:3 4:1 2:2 4:1 2:3 3:6 4:1 3:17 4:6 3:13
3:0 4:1 2:2 4:1 2:3 3:6 4:1 3:17 4:6 3:13 2:1
4:0 2:2 4:1 2:3 3:6 4:1 3:17 4:6 3:13 2:1 4:7
2:0 4:1 2:3 3:6 4:1 3:17 4:6 3:13 2:1 4:7 3:3
4:0 2:3 3:6 4:1 3:17 4:6 3:13 2:1 4:7 3:3 4:3
2:0 3:6 4:1 3:17 4:6 3:13 2:1 4:7 3:3 4:3 3:5
3:0 4:1 3:17 4:6 3:13 2:1 4:7 3:3 4:3 3:5 4:1
4:0 3:17 4:6 3:13 2:1 4:7 3:3 4:3 3:5 4:1 3:1
3:0 4:6 3:13 2:1 4:7 3:3 4:3 3:5 4:1 3:1 4:4
4:0 3:13 2:1 4:7 3:3 4:3 3:5 4:1 3:1 4:4 3:19
3:0 2:1 4:7 3:3 4:3 3:5 4:1 3:1 4:4 3:19 2:1
2:0 4:7 3:3 4:3 3:5 4:1 3:1 4:4 3:19 2:1 4:2
4:0 3:3 4:3 3:5 4:1 3:1 4:4 3:19 2:1 4:2 2:3
3:0 4:3 3:5 4:1 3:1 4:4 3:19 2:1 4:2 2:3 4:9
4:0 3:5 4:1 3:1 4:4 3:19 2:1 4:2 2:3 4:9 2:14
3:0 4:1 3:1 4:4 3:19 2:1 4:2 2:3 4:9 2:14 4:4
4:0 3:1 4:4 3:19 2:1 4:2 2:3 4:9 2:14 4:4 2:3
3:0 4:4 3:19 2:1 4:2 2:3 4:9 2:14 4:4 2:3 4:3
4:0 3:19 2:1 4:2 2:3 4:9 2:14 4:4 2:3 4:3 3:2
3:0 2:1 4:2 2:3 4:9 2:14 4:4 2:3 4:3 3:2 4:1
2:0 4:2 2:3 4:9 2:14 4:4 2:3 4:3 3:2 4:1 2:5
4:0 2:3 4:9 2:14 4:4 2:3 4:3 3:2 4:1 2:5 3:1
2:0 4:9 2:14 4:4 2:3 4:3 3:2 4:1 2:5 3:1 4:6
4:0 2:14 4:4 2:3 4:3 3:2 4:1 2:5 3:1 4:6 3:4
2:0 4:4 2:3 4:3 3:2 4:1 2:5 3:1 4:6 3:4 4:3
4:0 2:3 4:3 3:2 4:1 2:5 3:1 4:6 3:4 4:3 3:9
2:0 4:3 3:2 4:1 2:5 3:1 4:6 3:4 4:3 3:9 4:6
4:0 3:2 4:1 2:5 3:1 4:6 3:4 4:3 3:9 4:6 3:8
3:0 4:1 2:5 3:1 4:6 3:4 4:3 3:9 4:6 3:8 4:1
4:0 2:5 3:1 4:6 3:4 4:3 3:9 4:6 3:8 4:1 2:8
2:0 3:1 4:6 3:4 4:3 3:9 4:6 3:8 4:1 2:8 4:3
3:0 4:6 3:4 4:3 3:9 4:6 3:8 4:1 2:8 4:3 3:3
4:0 3:4 4:3 3:9 4:6 3:8 4:1 2:8 4:3 3:3 2:1
3:0 4:3 3:9 4:6 3:8 4:1 2:8 4:3 3:3 2:1 4:1
4:0 3:9 4:6 3:8 4:1 2:8 4:3 3:3 2:1 4:1 2:1
3:0 4:6 3:8 4:1 2:8 4:3 3:3 2:1 4:1 2:1 4:3
4:0 3:8 4:1 2:8 4:3 3:3 2:1 4:1 2:1 4:3 2:3
3:0 4:1 2:8 4:3 3:3 2:1 4:1 2:1 4:3 2:3 3:3
4:0 2:8 4:3 3:3 2:1 4:1 2:1 4:3 2:3 3:3 4:2
2:0 4:3 3:3 2:1 4:1 2:1 4:3 2:3 3:3 4:2 3:18
4:0 3:3 2:1 4:1 2:1 4:3 2:3 3:3 4:2 3:18 4:4
3:0 2:1 4:1 2:1 4:3 2:3 3:3 4:2 3:18 4:4 3:14
2:0 4:1 2:1 4:3 2:3 3:3 4:2 3:18 4:4 3:14 4:2
4:0 2:1 4:3 2:3 3:3 4:2 3:18 4:4 3:14 4:2 2:1
2:0 4:3 2:3 3:3 4:2 3:18 4:4 3:14 4:2 2:1 4:2
4:0 2:3 3:3 4:2 3:18 4:4 3:14 4:2 2:1 4:2 2:3
2:0 3:3 4:2 3:18 4:4 3:14 4:2 2:1 4:2 2:3 3:2
3:0 4:2 3:18 4:4 3:14 4:2 2:1 4:2 2:3 3:2 4:2
4:0 3:18 4:4 3:14 4:2 2:1 4:2 2:3 3:2 4:2 3:7
3:0 4:4 3:14 4:2 2:1 4:2 2:3 3:2 4:2 3:7 4:3
4:0 3:14 4:2 2:1 4:2 2:3 3:2 4:2 3:7 4:3 3:3
3:0 4:2 2:1 4:2 2:3 3:2 4:2 3:7 4:3 3:3 4:1
4:0 2:1 4:2 2:3 3:2 4:2 3:7 4:3 3:3 4:1 3:3
2:0 4:2 2:3 3:2 4:2 3:7 4:3 3:3 4:1 3:3 4:7
4:0 2:3 3:2 4:2 3:7 4:3 3:3 4:1 3:3 4:7 2:16
2:0 3:2 4:2 3:7 4:3 3:3 4:1 3:3 4:7 2:16 3:6
3:0 4:2 3:7 4:3 3:3 4:1 3:3 4:7 2:16 3:6 4:1
4:0 3:7 4:3 3:3 4:1 3:3 4:7 2:16 3:6 4:1 3:5
3:0 4:3 3:3 4:1 3:3 4:7 2:16 3:6 4:1 3:5 4:4
4:0 3:3 4:1 3:3 4:7 2:16 3:6 4:1 3:5 4:4 3:10
3:0 4:1 3:3 4:7 2:16 3:6 4:1 3:5 4:4 3:10 4:2
4:0 3:3 4:7 2:16 3:6 4:1 3:5 4:4 3:10 4:2 2:21
3:0 4:7 2:16 3:6 4:1 3:5 4:4 3:10 4:2 2:21 3:5
4:0 2:16 3:6 4:1 3:5 4:4 3:10 4:2 2:21 3:5 4:2
2:0 3:6 4:1 3:5 4:4 3:10 4:2 2:21 3:5 4:2 3:5
3:0 4:1 3:5 4:4 3:10 4:2 2:21 3:5 4:2 3:5 4:4
4:0 3:5 4:4 3:10 4:2 2:21 3:5 4:2 3:5 4:4 2:1
3:0 4:4 3:10 4:2 2:21 3:5 4:2 3:5 4:4 2:1 4:1
4:0 3:10 4:2 2:21 3:5 4:2 3:5 4:4 2:1 4:1 3:3
3:0 4:2 2:21 3:5 4:2 3:5 4:4 2:1 4:1 3:3 4:7
4:0 2:21 3:5 4:2 3:5 4:4 2:1 4:1 3:3 4:7 3:22
2:0 3:5 4:2 3:5 4:4 2:1 4:1 3:3 4:7 3:22 4:1
3:0 4:2 3:5 4:4 2:1 4:1 3:3 4:7 3:22 4:1 2:1
4:0 3:5 4:4 2:1 4:1 3:3 4:7 3:22 4:1 2:1 3:1
3:0 4:4 2:1 4:1 3:3 4:7 3:22 4:1 2:1 3:1 4:2
4:0 2:1 4:1 3:3 4:7 3:22 4:1 2:1 3:1 4:2 2:6
2:0 4:1 3:3 4:7 3:22 4:1 2:1 3:1 4:2 2:6 4:6
4:0 3:3 4:7 3:22 4:1 2:1 3:1 4:2 2:6 4:6 2:5
3:0 4:7 3:22 4:1 2:1 3:1 4:2 2:6 4:6 2:5 3:4
4:0 3:22 4:1 2:1 3:1 4:2 2:6 4:6 2:5 3:4 4:2
3:0 4:1 2:1 3:1 4:2 2:6 4:6 2:5 3:4 4:2 3:11
4:0 2:1 3:1 4:2 2:6 4:6 2:5 3:4 4:2 3:11 4:1
2:0 3:1 4:2 2:6 4:6 2:5 3:4 4:2 3:11 4:1 2:4
3:0 4:2 2:6 4:6 2:5 3:4 4:2 3:11 4:1 2:4 4:8
4:0 2:6 4:6 2:5 3:4 4:2 3:11 4:1 2:4 4:8 3:6
2:0 4:6 2:5 3:4 4:2 3:11 4:1 2:4 4:8 3:6 2:1
4:0 2:5 3:4 4:2 3:11 4:1 2:4 4:8 3:6 2:1 3:1
2:0 3:4 4:2 3:11 4:1 2:4 4:8 3:6 2:1 3:1 4:3
3:0 4:2 3:11 4:1 2:4 4:8 3:6 2:1 3:1 4:3 3:3
4:0 3:11 4:1 2:4 4:8 3:6 2:1 3:1 4:3 3:3 4:8
3:0 4:1 2:4 4:8 3:6 2:1 3:1 4:3 3:3 4:8 3:12
4:0 2:4 4:8 3:6 2:1 3:1 4:3 3:3 4:8 3:12 4:6
2:0 4:8 3:6 2:1 3:1 4:3 3:3 4:8 3:12 4:6 3:4
4:0 3:6 2:1 3:1 4:3 3:3 4:8 3:12 4:6 3:4 4:2
3:0 2:1 3:1 4:3 3:3 4:8 3:12 4:6 3:4 4:2 3:2
2:0 3:1 4:3 3:3 4:8 3:12 4:6 3:4 4:2 3:2 4:2
3:0 4:3 3:3 4:8 3:12 4:6 3:4 4:2 3:2 4:2 2:5
4:0 3:3 4:8 3:12 4:6 3:4 4:2 3:2 4:2 2:5 4:4
3:0 4:8 3:12 4:6 3:4 4:2 3:2 4:2 2:5 4:4 2:1
4:0 3:12 4:6 3:4 4:2 3:2 4:2 2:5 4:4 2:1 4:2
3:0 4:6 3:4 4:2 3:2 4:2 2:5 4:4 2:1 4:2 2:4
4:0 3:4 4:2 3:2 4:2 2:5 4:4 2:1 4:2 2:4 3:4
3:0 4:2 3:2 4:2 2:5 4:4 2:1 4:2 2:4 3:4 2:1
4:0 3:2 4:2 2:5 4:4 2:1 4:2 2:4 3:4 2:1 4:1
3:0 4:2 2:5 4:4 2:1 4:2 2:4 3:4 2:1 4:1 2:15
4:0 2:5 4:4 2:1 4:2 2:4 3:4 2:1 4:1 2:15 4:7
2:0 4:4 2:1 4:2 2:4 3:4 2:1 4:1 2:15 4:7 3:3
4:0 2:1 4:2 2:4 3:4 2:1 4:1 2:15 4:7 3:3 4:2
2:0 4:2 2:4 3:4 2:1 4:1 2:15 4:7 3:3 4:2 3:6
4:0 2:4 3:4 2:1 4:1 2:15 4:7 3:3 4:2 3:6 4:2
2:0 3:4 2:1 4:1 2:15 4:7 3:3 4:2 3:6 4:2 3:1
3:0 2:1 4:1 2:15 4:7 3:3 4:2 3:6 4:2 3:1 4:1
2:0 4:1 2:15 4:7 3:3 4:2 3:6 4:2 3:1 4:1 3:6
4:0 2:15 4:7 3:3 4:2 3:6 4:2 3:1 4:1 3:6 4:5
2:0 4:7 3:3 4:2 3:6 4:2 3:1 4:1 3:6 4:5 3:7
4:0 3:3 4:2 3:6 4:2 3:1 4:1 3:6 4:5 3:7 4:1
3:0 4:2 3:6 4:2 3:1 4:1 3:6 4:5 3:7 4:1 3:8
4:0 3:6 4:2 3:1 4:1 3:6 4:5 3:7 4:1 3:8 2:1
3:0 4:2 3:1 4:1 3:6 4:5 3:7 4:1 3:8 2:1 4:7
4:0 3:1 4:1 3:6 4:5 3:7 4:1 3:8 2:1 4:7 3:8
3:0 4:1 3:6 4:5 3:7 4:1 3:8 2:1 4:7 3:8 4:3
4:0 3:6 4:5 3:7 4:1 3:8 2:1 4:7 3:8 4:3 3:5
3:0 4:5 3:7 4:1 3:8 2:1 4:7 3:8 4:3 3:5 4:7
4:0 3:7 4:1 3:8 2:1 4:7 3:8 4:3 3:5 4:7 2:16
3:0 4:1 3:8 2:1 4:7 3:8 4:3 3:5 4:7 2:16 3:1
4:0 3:8 2:1 4:7 3:8 4:3 3:5 4:7 2:16 3:1 4:1
3:0 2:1 4:7 3:8 4:3 3:5 4:7 2:16 3:1 4:1 2:4
2:0 4:7 3:8 4:3 3:5 4:7 2:16 3:1 4:1 2:4 3:2
4:0 3:8 4:3 3:5 4:7 2:16 3:1 4:1 2:4 3:2 4:3
3:0 4:3 3:5 4:7 2:16 3:1 4:1 2:4 3:2 4:3 3:5
4:0 3:5 4:7 2:16 3:1 4:1 2:4 3:2 4:3 3:5 4:2
3:0 4:7 2:16 3:1 4:1 2:4 3:2 4:3 3:5 4:2 3:2
4:0 2:16 3:1 4:1 2:4 3:2 4:3 3:5 4:2 3:2 4:2
2:0 3:1 4:1 2:4 3:2 4:3 3:5 4:2 3:2 4:2 3:5
3:0 4:1 2:4 3:2 4:3 3:5 4:2 3:2 4:2 3:5 4:5
4:0 2:4 3:2 4:3 3:5 4:2 3:2 4:2 3:5 4:5 3:7
2:0 3:2 4:3 3:5 4:2 3:2 4:2 3:5 4:5 3:7 4:5
3:0 4:3 3:5 4:2 3:2 4:2 3:5 4:5 3:7 4:5 3:9
4:0 3:5 4:2 3:2 4:2 3:5 4:5 3:7 4:5 3:9 4:2
3:0 4:2 3:2 4:2 3:5 4:5 3:7 4:5 3:9 4:2 3:6
4:0 3:2 4:2 3:5 4:5 3:7 4:5 3:9 4:2 3:6 4:1
3:0 4:2 3:5 4:5 3:7 4:5 3:9 4:2 3:6 4:1 2:2
4:0 3:5 4:5 3:7 4:5 3:9 4:2 3:6 4:1 2:2 4:2
3:0 4:5 3:7 4:5 3:9 4:2 3:6 4:1 2:2 4:2 2:3
4:0 3:7 4:5 3:9 4:2 3:6 4:1 2:2 4:2 2:3 3:1
3:0 4:5 3:9 4:2 3:6 4:1 2:2 4:2 2:3 3:1 4:1
4:0 3:9 4:2 3:6 4:1 2:2 4:2 2:3 3:1 4:1 2:1
3:0 4:2 3:6 4:1 2:2 4:2 2:3 3:1 4:1 2:1 4:4
4:0 3:6 4:1 2:2 4:2 2:3 3:1 4:1 2:1 4:4 2:3
3:0 4:1 2:2 4:2 2:3 3:1 4:1 2:1 4:4 2:3 3:1
4:0 2:2 4:2 2:3 3:1 4:1 2:1 4:4 2:3 3:1 4:3
2:0 4:2 2:3 3:1 4:1 2:1 4:4 2:3 3:1 4:3 3:10
4:0 2:3 3:1 4:1 2:1 4:4 2:3 3:1 4:3 3:10 4:1
2:0 3:1 4:1 2:1 4:4 2:3 3:1 4:3 3:10 4:1 2:5
3:0 4:1 2:1 4:4 2:3 3:1 4:3 3:10 4:1 2:5 3:5
4:0 2:1 4:4 2:3 3:1 4:3 3:10 4:1 2:5 3:5 4:1
2:0 4:4 2:3 3:1 4:3 3:10 4:1 2:5 3:5 4:1 3:5
4:0 2:3 3:1 4:3 3:10 4:1 2:5 3:5 4:1 3:5 4:6
2:0 3:1 4:3 3:10 4:1 2:5 3:5 4:1 3:5 4:6 3:4
3:0 4:3 3:10 4:1 2:5 3:5 4:1 3:5 4:6 3:4 4:8
4:0 3:10 4:1 2:5 3:5 4:1 3:5 4:6 3:4 4:8 2:14
3:0 4:1 2:5 3:5 4:1 3:5 4:6 3:4 4:8 2:14 4:10
4:0 2:5 3:5 4:1 3:5 4:6 3:4 4:8 2:14 4:10 3:4
2:0 3:5 4:1 3:5 4:6 3:4 4:8 2:14 4:10 3:4 4:3
3:0 4:1 3:5 4:6 3:4 4:8 2:14 4:10 3:4 4:3 3:5
4:0 3:5 4:6 3:4 4:8 2:14 4:10 3:4 4:3 3:5 4:5
3:0 4:6 3:4 4:8 2:14 4:10 3:4 4:3 3:5 4:5 3:20
4:0 3:4 4:8 2:14 4:10 3:4 4:3 3:5 4:5 3:20 4:1
3:0 4:8 2:14 4:10 3:4 4:3 3:5 4:5 3:20 4:1 3:5
4:0 2:14 4:10 3:4 4:3 3:5 4:5 3:20 4:1 3:5 2:4
2:0 4:10 3:4 4:3 3:5 4:5 3:20 4:1 3:5 2:4 4:2
4:0 3:4 4:3 3:5 4:5 3:20 4:1 3:5 2:4 4:2 2:5
3:0 4:3 3:5 4:5 3:20 4:1 3:5 2:4 4:2 2:5 4:6
4:0 3:5 4:5 3:20 4:1 3:5 2:4 4:2 2:5 4:6 3:5
3:0 4:5 3:20 4:1 3:5 2:4 4:2 2:5 4:6 3:5 2:1
4:0 3:20 4:1 3:5 2:4 4:2 2:5 4:6 3:5 2:1 3:6
3:0 4:1 3:5 2:4 4:2 2:5 4:6 3:5 2:1 3:6 4:1
4:0 3:5 2:4 4:2 2:5 4:6 3:5 2:1 3:6 4:1 3:7
3:0 2:4 4:2 2:5 4:6 3:5 2:1 3:6 4:1 3:7 4:2
2:0 4:2 2:5 4:6 3:5 2:1 3:6 4:1 3:7 4:2 2:5
4:0 2:5 4:6 3:5 2:1 3:6 4:1 3:7 4:2 2:5 4:6
2:0 4:6 3:5 2:1 3:6 4:1 3:7 4:2 2:5 4:6 3:6
4:0 3:5 2:1 3:6 4:1 3:7 4:2 2:5 4:6 3:6 4:1
3:0 2:1 3:6 4:1 3:7 4:2 2:5 4:6 3:6 4:1 3:5
2:0 3:6 4:1 3:7 4:2 2:5 4:6 3:6 4:1 3:5 4:3
3:0 4:1 3:7 4:2 2:5 4:6 3:6 4:1 3:5 4:3 2:7
4:0 3:7 4:2 2:5 4:6 3:6 4:1 3:5 4:3 2:7 3:5
3:0 4:2 2:5 4:6 3:6 4:1 3:5 4:3 2:7 3:5 4:1
4:0 2:5 4:6 3:6 4:1 3:5 4:3 2:7 3:5 4:1 2:6
2:0 4:6 3:6 4:1 3:5 4:3 2:7 3:5 4:1 2:6 4:5
4:0 3:6 4:1 3:5 4:3 2:7 3:5 4:1 2:6 4:5 3:5
3:0 4:1 3:5 4:3 2:7 3:5 4:1 2:6 4:5 3:5 2:1
4:0 3:5 4:3 2:7 3:5 4:1 2:6 4:5 3:5 2:1 3:5
3:0 4:3 2:7 3:5 4:1 2:6 4:5 3:5 2:1 3:5 4:1
4:0 2:7 3:5 4:1 2:6 4:5 3:5 2:1 3:5 4:1 2:14
2:0 3:5 4:1 2:6 4:5 3:5 2:1 3:5 4:1 2:14 4:9
3:0 4:1 2:6 4:5 3:5 2:1 3:5 4:1 2:14 4:9 3:3
4:0 2:6 4:5 3:5 2:1 3:5 4:1 2:14 4:9 3:3 4:1
2:0 4:5 3:5 2:1 3:5 4:1 2:14 4:9 3:3 4:1 3:2
4:0 3:5 2:1 3:5 4:1 2:14 4:9 3:3 4:1 3:2 4:1
3:0 2:1 3:5 4:1 2:14 4:9 3:3 4:1 3:2 4:1 3:4
2:0 3:5 4:1 2:14 4:9 3:3 4:1 3:2 4:1 3:4 4:2
3:0 4:1 2:14 4:9 3:3 4:1 3:2 4:1 3:4 4:2 3:1
4:0 2:14 4:9 3:3 4:1 3:2 4:1 3:4 4:2 3:1 4:2
2:0 4:9 3:3 4:1 3:2 4:1 3:4 4:2 3:1 4:2 3:4
4:0 3:3 4:1 3:2 4:1 3:4 4:2 3:1 4:2 3:4 4:4
3:0 4:1 3:2 4:1 3:4 4:2 3:1 4:2 3:4 4:4 3:11
4:0 3:2 4:1 3:4 4:2 3:1 4:2 3:4 4:4 3:11 4:1
3:0 4:1 3:4 4:2 3:1 4:2 3:4 4:4 3:11 4:1 2:12
4:0 3:4 4:2 3:1 4:2 3:4 4:4 3:11 4:1 2:12 3:1
3:0 4:2 3:1 4:2 3:4 4:4 3:11 4:1 2:12 3:1 4:4
4:0 3:1 4:2 3:4 4:4 3:11 4:1 2:12 3:1 4:4 2:4
3:0 4:2 3:4 4:4 3:11 4:1 2:12 3:1 4:4 2:4 4:7
4:0 3:4 4:4 3:11 4:1 2:12 3:1 4:4 2:4 4:7 2:4
3:0 4:4 3:11 4:1 2:12 3:1 4:4 2:4 4:7 2:4 4:6
4:0 3:11 4:1 2:12 3:1 4:4 2:4 4:7 2:4 4:6 3:6
3:0 4:1 2:12 3:1 4:4 2:4 4:7 2:4 4:6 3:6 4:2
4:0 2:12 3:1 4:4 2:4 4:7 2:4 4:6 3:6 4:2 3:9
2:0 3:1 4:4 2:4 4:7 2:4 4:6 3:6 4:2 3:9 4:4
3:0 4:4 2:4 4:7 2:4 4:6 3:6 4:2 3:9 4:4 2:20
4:0 2:4 4:7 2:4 4:6 3:6 4:2 3:9 4:4 2:20 3:6
2:0 4:7 2:4 4:6 3:6 4:2 3:9 4:4 2:20 3:6 4:1
4:0 2:4 4:6 3:6 4:2 3:9 4:4 2:20 3:6 4:1 3:5
2:0 4:6 3:6 4:2 3:9 4:4 2:20 3:6 4:1 3:5 4:1
4:0 3:6 4:2 3:9 4:4 2:20 3:6 4:1 3:5 4:1 3:1
3:0 4:2 3:9 4:4 2:20 3:6 4:1 3:5 4:1 3:1 4:4
4:0 3:9 4:4 2:20 3:6 4:1 3:5 4:1 3:1 4:4 3:5
3:0 4:4 2:20 3:6 4:1 3:5 4:1 3:1 4:4 3:5 4:7
4:0 2:20 3:6 4:1 3:5 4:1 3:1 4:4 3:5 4:7 2:14
2:0 3:6 4:1 3:5 4:1 3:1 4:4 3:5 4:7 2:14 4:9
3:0 4:1 3:5 4:1 3:1 4:4 3:5 4:7 2:14 4:9 3:6
4:0 3:5 4:1 3:1 4:4 3:5 4:7 2:14 4:9 3:6 4:2
3:0 4:1 3:1 4:4 3:5 4:7 2:14 4:9 3:6 4:2 3:3
4:0 3:1 4:4 3:5 4:7 2:14 4:9 3:6 4:2 3:3 4:3
3:0 4:4 3:5 4:7 2:14 4:9 3:6 4:2 3:3 4:3 3:2
4:0 3:5 4:7 2:14 4:9 3:6 4:2 3:3 4:3 3:2 4:1
3:0 4:7 2:14 4:9 3:6 4:2 3:3 4:3 3:2 4:1 3:5
4:0 2:14 4:9 3:6 4:2 3:3 4:3 3:2 4:1 3:5 4:1
2:0 4:9 3:6 4:2 3:3 4:3 3:2 4:1 3:5 4:1 3:2
4:0 3:6 4:2 3:3 4:3 3:2 4:1 3:5 4:1 3:2 4:1
3:0 4:2 3:3 4:3 3:2 4:1 3:5 4:1 3:2 4:1 3:8
4:0 3:3 4:3 3:2 4:1 3:5 4:1 3:2 4:1 3:8 4:1
3:0 4:3 3:2 4:1 3:5 4:1 3:2 4:1 3:8 4:1 3:1
4:0 3:2 4:1 3:5 4:1 3:2 4:1 3:8 4:1 3:1 4:2
3:0 4:1 3:5 4:1 3:2 4:1 3:8 4:1 3:1 4:2 3:7
4:0 3:5 4:1 3:2 4:1 3:8 4:1 3:1 4:2 3:7 2:2
3:0 4:1 3:2 4:1 3:8 4:1 3:1 4:2 3:7 2:2 4:3
4:0 3:2 4:1 3:8 4:1 3:1 4:2 3:7 2:2 4:3 2:6
3:0 4:1 3:8 4:1 3:1 4:2 3:7 2:2 4:3 2:6 3:5
4:0 3:8 4:1 3:1 4:2 3:7 2:2 4:3 2:6 3:5 4:1
3:0 4:1 3:1 4:2 3:7 2:2 4:3 2:6 3:5 4:1 2:4
4:0 3:1 4:2 3:7 2:2 4:3 2:6 3:5 4:1 2:4 3:7
3:0 4:2 3:7 2:2 4:3 2:6 3:5 4:1 2:4 3:7 4:1
4:0 3:7 2:2 4:3 2:6 3:5 4:1 2:4 3:7 4:1 3:19
3:0 2:2 4:3 2:6 3:5 4:1 2:4 3:7 4:1 3:19 4:3
2:0 4:3 2:6 3:5 4:1 2:4 3:7 4:1 3:19 4:3 2:15
4:0 2:6 3:5 4:1 2:4 3:7 4:1 3:19 4:3 2:15 4:3
2:0 3:5 4:1 2:4 3:7 4:1 3:19 4:3 2:15 4:3 2:3
3:0 4:1 2:4 3:7 4:1 3:19 4:3 2:15 4:3 2:3 3:5
4:0 2:4 3:7 4:1 3:19 4:3 2:15 4:3 2:3 3:5 4:2
2:0 3:7 4:1 3:19 4:3 2:15 4:3 2:3 3:5 4:2 3:5
3:0 4:1 3:19 4:3 2:15 4:3 2:3 3:5 4:2 3:5 4:5
4:0 3:19 4:3 2:15 4:3 2:3 3:5 4:2 3:5 4:5 3:7
3:0 4:3 2:15 4:3 2:3 3:5 4:2 3:5 4:5 3:7 4:2
4:0 2:15 4:3 2:3 3:5 4:2 3:5 4:5 3:7 4:2 3:9
2:0 4:3 2:3 3:5 4:2 3:5 4:5 3:7 4:2 3:9 2:3
4:0 2:3 3:5 4:2 3:5 4:5 3:7 4:2 3:9 2:3 4:4
2:0 3:5 4:2 3:5 4:5 3:7 4:2 3:9 2:3 4:4 2:3
3:0 4:2 3:5 4:5 3:7 4:2 3:9 2:3 4:4 2:3 4:8
4:0 3:5 4:5 3:7 4:2 3:9 2:3 4:4 2:3 4:8 3:5
3:0 4:5 3:7 4:2 3:9 2:3 4:4 2:3 4:8 3:5 4:2
4:0 3:7 4:2 3:9 2:3 4:4 2:3 4:8 3:5 4:2 3:1
3:0 4:2 3:9 2:3 4:4 2:3 4:8 3:5 4:2 3:1 4:2
4:0 3:9 2:3 4:4 2:3 4:8 3:5 4:2 3:1 4:2 3:4
3:0 2:3 4:4 2:3 4:8 3:5 4:2 3:1 4:2 3:4 4:2
2:0 4:4 2:3 4:8 3:5 4:2 3:1 4:2 3:4 4:2 3:1
4:0 2:3 4:8 3:5 4:2 3:1 4:2 3:4 4:2 3:1 4:4
2:0 4:8 3:5 4:2 3:1 4:2 3:4 4:2 3:1 4:4 3:3
4:0 3:5 4:2 3:1 4:2 3:4 4:2 3:1 4:4 3:3 4:1
3:0 4:2 3:1 4:2 3:4 4:2 3:1 4:4 3:3 4:1 2:17
4:0 3:1 4:2 3:4 4:2 3:1 4:4 3:3 4:1 2:17 3:5
3:0 4:2 3:4 4:2 3:1 4:4 3:3 4:1 2:17 3:5 4:3
4:0 3:4 4:2 3:1 4:4 3:3 4:1 2:17 3:5 4:3 3:5
3:0 4:2 3:1 4:4 3:3 4:1 2:17 3:5 4:3 3:5 4:6
4:0 3:1 4:4 3:3 4:1 2:17 3:5 4:3 3:5 4:6 3:3
3:0 4:4 3:3 4:1 2:17 3:5 4:3 3:5 4:6 3:3 4:6
4:0 3:3 4:1 2:17 3:5 4:3 3:5 4:6 3:3 4:6 3:9
3:0 4:1 2:17 3:5 4:3 3:5 4:6 3:3 4:6 3:9 4:1
4:0 2:17 3:5 4:3 3:5 4:6 3:3 4:6 3:9 4:1 2:15
2:0 3:5 4:3 3:5 4:6 3:3 4:6 3:9 4:1 2:15 3:1
3:0 4:3 3:5 4:6 3:3 4:6 3:9 4:1 2:15 3:1 4:1
4:0 3:5 4:6 3:3 4:6 3:9 4:1 2:15 3:1 4:1 2:7
3:0 4:6 3:3 4:6 3:9 4:1 2:15 3:1 4:1 2:7 4:6
4:0 3:3 4:6 3:9 4:1 2:15 3:1 4:1 2:7 4:6 2:4
3:0 4:6 3:9 4:1 2:15 3:1 4:1 2:7 4:6 2:4 4:5
4:0 3:9 4:1 2:15 3:1 4:1 2:7 4:6 2:4 4:5 3:16
3:0 4:1 2:15 3:1 4:1 2:7 4:6 2:4 4:5 3:16 2:2
4:0 2:15 3:1 4:1 2:7 4:6 2:4 4:5 3:16 2:2 4:4
2:0 3:1 4:1 2:7 4:6 2:4 4:5 3:16 2:2 4:4 3:17
3:0 4:1 2:7 4:6 2:4 4:5 3:16 2:2 4:4 3:17 4:2
4:0 2:7 4:6 2:4 4:5 3:16 2:2 4:4 3:17 4:2 3:3
2:0 4:6 2:4 4:5 3:16 2:2 4:4 3:17 4:2 3:3 4:6
4:0 2:4 4:5 3:16 2:2 4:4 3:17 4:2 3:3 4:6 2:15
2:0 4:5 3:16 2:2 4:4 3:17 4:2 3:3 4:6 2:15 4:8
4:0 3:16 2:2 4:4 3:17 4:2 3:3 4:6 2:15 4:8 3:7
3:0 2:2 4:4 3:17 4:2 3:3 4:6 2:15 4:8 3:7 4:5
2:0 4:4 3:17 4:2 3:3 4:6 2:15 4:8 3:7 4:5 3:4
4:0 3:17 4:2 3:3 4:6 2:15 4:8 3:7 4:5 3:4 4:6
3:0 4:2 3:3 4:6 2:15 4:8 3:7 4:5 3:4 4:6 3:20
4:0 3:3 4:6 2:15 4:8 3:7 4:5 3:4 4:6 3:20 4:4
3:0 4:6 2:15 4:8 3:7 4:5 3:4 4:6 3:20 4:4 2:1
4:0 2:15 4:8 3:7 4:5 3:4 4:6 3:20 4:4 2:1 3:1
2:0 4:8 3:7 4:5 3:4 4:6 3:20 4:4 2:1 3:1 4:1
4:0 3:7 4:5 3:4 4:6 3:20 4:4 2:1 3:1 4:1 2:5
3:0 4:5 3:4 4:6 3:20 4:4 2:1 3:1 4:1 2:5 4:7
4:0 3:4 4:6 3:20 4:4 2:1 3:1 4:1 2:5 4:7 2:4
3:0 4:6 3:20 4:4 2:1 3:1 4:1 2:5 4:7 2:4 4:7
4:0 3:20 4:4 2:1 3:1 4:1 2:5 4:7 2:4 4:7 3:7
3:0 4:4 2:1 3:1 4:1 2:5 4:7 2:4 4:7 3:7 4:1
4:0 2:1 3:1 4:1 2:5 4:7 2:4 4:7 3:7 4:1 3:8
2:0 3:1 4:1 2:5 4:7 2:4 4:7 3:7 4:1 3:8 4:1
3:0 4:1 2:5 4:7 2:4 4:7 3:7 4:1 3:8 4:1 3:1
4:0 2:5 4:7 2:4 4:7 3:7 4:1 3:8 4:1 3:1 4:4
2:0 4:7 2:4 4:7 3:7 4:1 3:8 4:1 3:1 4:4 3:15
4:0 2:4 4:7 3:7 4:1 3:8 4:1 3:1 4:4 3:15 4:1
2:0 4:7 3:7 4:1 3:8 4:1 3:1 4:4 3:15 4:1 2:5
4:0 3:7 4:1 3:8 4:1 3:1 4:4 3:15 4:1 2:5 3:4
3:0 4:1 3:8 4:1 3:1 4:4 3:15 4:1 2:5 3:4 4:2
4:0 3:8 4:1 3:1 4:4 3:15 4:1 2:5 3:4 4:2 3:8
3:0 4:1 3:1 4:4 3:15 4:1 2:5 3:4 4:2 3:8 4:2
4:0 3:1 4:4 3:15 4:1 2:5 3:4 4:2 3:8 4:2 3:6
3:0 4:4 3:15 4:1 2:5 3:4 4:2 3:8 4:2 3:6 4:7
4:0 3:15 4:1 2:5 3:4 4:2 3:8 4:2 3:6 4:7 2:15
3:0 4:1 2:5 3:4 4:2 3:8 4:2 3:6 4:7 2:15 4:8
4:0 2:5 3:4 4:2 3:8 4:2 3:6 4:7 2:15 4:8 3:5
2:0 3:4 4:2 3:8 4:2 3:6 4:7 2:15 4:8 3:5 4:2
3:0 4:2 3:8 4:2 3:6 4:7 2:15 4:8 3:5 4:2 3:5
4:0 3:8 4:2 3:6 4:7 2:15 4:8 3:5 4:2 3:5 4:6
3:0 4:2 3:6 4:7 2:15 4:8 3:5 4:2 3:5 4:6 3:3
4:0 3:6 4:7 2:15 4:8 3:5 4:2 3:5 4:6 3:3 4:2
3:0 4:7 2:15 4:8 3:5 4:2 3:5 4:6 3:3 4:2 3:10
4:0 2:15 4:8 3:5 4:2 3:5 4:6 3:3 4:2 3:10 4:2
2:0 4:8 3:5 4:2 3:5 4:6 3:3 4:2 3:10 4:2 3:1
4:0 3:5 4:2 3:5 4:6 3:3 4:2 3:10 4:2 3:1 4:1
3:0 4:2 3:5 4:6 3:3 4:2 3:10 4:2 3:1 4:1 3:1
4:0 3:5 4:6 3:3 4:2 3:10 4:2 3:1 4:1 3:1 4:1
3:0 4:6 3:3 4:2 3:10 4:2 3:1 4:1 3:1 4:1 3:4
4:0 3:3 4:2 3:10 4:2 3:1 4:1 3:1 4:1 3:4 4:5
3:0 4:2 3:10 4:2 3:1 4:1 3:1 4:1 3:4 4:5 3:6
4:0 3:10 4:2 3:1 4:1 3:1 4:1 3:4 4:5 3:6 2:1
3:0 4:2 3:1 4:1 3:1 4:1 3:4 4:5 3:6 2:1 4:2
4:0 3:1 4:1 3:1 4:1 3:4 4:5 3:6 2:1 4:2 2:1
3:0 4:1 3:1 4:1 3:4 4:5 3:6 2:1 4:2 2:1 4:2
4:0 3:1 4:1 3:4 4:5 3:6 2:1 4:2 2:1 4:2 2:4
3:0 4:1 3:4 4:5 3:6 2:1 4:2 2:1 4:2 2:4 4:8
4:0 3:4 4:5 3:6 2:1 4:2 2:1 4:2 2:4 4:8 3:8
3:0 4:5 3:6 2:1 4:2 2:1 4:2 2:4 4:8 3:8 4:1
4:0 3:6 2:1 4:2 2:1 4:2 2:4 4:8 3:8 4:1 2:4
3:0 2:1 4:2 2:1 4:2 2:4 4:8 3:8 4:1 2:4 4:2
2:0 4:2 2:1 4:2 2:4 4:8 3:8 4:1 2:4 4:2 2:1
4:0 2:1 4:2 2:4 4:8 3:8 4:1 2:4 4:2 2:1 4:2
2:0 4:2 2:4 4:8 3:8 4:1 2:4 4:2 2:1 4:2 2:3
4:0 2:4 4:8 3:8 4:1 2:4 4:2 2:1 4:2 2:3 3:3
2:0 4:8 3:8 4:1 2:4 4:2 2:1 4:2 2:3 3:3 4:2
4:0 3:8 4:1 2:4 4:2 2:1 4:2 2:3 3:3 4:2 3:7
3:0 4:1 2:4 4:2 2:1 4:2 2:3 3:3 4:2 3:7 4:5
4:0 2:4 4:2 2:1 4:2 2:3 3:3 4:2 3:7 4:5 3:4
2:0 4:2 2:1 4:2 2:3 3:3 4:2 3:7 4:5 3:4 4:5
4:0 2:1 4:2 2:3 3:3 4:2 3:7 4:5 3:4 4:5 3:8
2:0 4:2 2:3 3:3 4:2 3:7 4:5 3:4 4:5 3:8 4:2
4:0 2:3 3:3 4:2 3:7 4:5 3:4 4:5 3:8 4:2 2:1
2:0 3:3 4:2 3:7 4:5 3:4 4:5 3:8 4:2 2:1 4:4
3:0 4:2 3:7 4:5 3:4 4:5 3:8 4:2 2:1 4:4 2:3
4:0 3:7 4:5 3:4 4:5 3:8 4:2 2:1 4:4 2:3 4:8
3:0 4:5 3:4 4:5 3:8 4:2 2:1 4:4 2:3 4:8 3:6
4:0 3:4 4:5 3:8 4:2 2:1 4:4 2:3 4:8 3:6 4:2
3:0 4:5 3:8 4:2 2:1 4:4 2:3 4:8 3:6 4:2 3:9
4:0 3:8 4:2 2:1 4:4 2:3 4:8 3:6 4:2 3:9 4:6
3:0 4:2 2:1 4:4 2:3 4:8 3:6 4:2 3:9 4:6 2:14
4:0 2:1 4:4 2:3 4:8 3:6 4:2 3:9 4:6 2:14 3:2
2:0 4:4 2:3 4:8 3:6 4:2 3:9 4:6 2:14 3:2 2:1
4:0 2:3 4:8 3:6 4:2 3:9 4:6 2:14 3:2 2:1 4:3
2:0 4:8 3:6 4:2 3:9 4:6 2:14 3:2 2:1 4:3 3:4
4:0 3:6 4:2 3:9 4:6 2:14 3:2 2:1 4:3 3:4 4:3
3:0 4:2 3:9 4:6 2:14 3:2 2:1 4:3 3:4 4:3 3:6
4:0 3:9 4:6 2:14 3:2 2:1 4:3 3:4 4:3 3:6 4:2
3:0 4:6 2:14 3:2 2:1 4:3 3:4 4:3 3:6 4:2 3:7
4:0 2:14 3:2 2:1 4:3 3:4 4:3 3:6 4:2 3:7 4:7
2:0 3:2 2:1 4:3 3:4 4:3 3:6 4:2 3:7 4:7 3:7
3:0 2:1 4:3 3:4 4:3 3:6 4:2 3:7 4:7 3:7 4:1
2:0 4:3 3:4 4:3 3:6 4:2 3:7 4:7 3:7 4:1 2:7
4:0 3:4 4:3 3:6 4:2 3:7 4:7 3:7 4:1 2:7 4:1
3:0 4:3 3:6 4:2 3:7 4:7 3:7 4:1 2:7 4:1 2:2
4:0 3:6 4:2 3:7 4:7 3:7 4:1 2:7 4:1 2:2 4:3
3:0 4:2 3:7 4:7 3:7 4:1 2:7 4:1 2:2 4:3 3:3
4:0 3:7 4:7 3:7 4:1 2:7 4:1 2:2 4:3 3:3 4:2
3:0 4:7 3:7 4:1 2:7 4:1 2:2 4:3 3:3 4:2 3:6
4:0 3:7 4:1 2:7 4:1 2:2 4:3 3:3 4:2 3:6 4:2
3:0 4:1 2:7 4:1 2:2 4:3 3:3 4:2 3:6 4:2 3:9
4:0 2:7 4:1 2:2 4:3 3:3 4:2 3:6 4:2 3:9 4:5
2:0 4:1 2:2 4:3 3:3 4:2 3:6 4:2 3:9 4:5 3:16
4:0 2:2 4:3 3:3 4:2 3:6 4:2 3:9 4:5 3:16 2:1
2:0 4:3 3:3 4:2 3:6 4:2 3:9 4:5 3:16 2:1 3:5
4:0 3:3 4:2 3:6 4:2 3:9 4:5 3:16 2:1 3:5 4:1
3:0 4:2 3:6 4:2 3:9 4:5 3:16 2:1 3:5 4:1 3:15
4:0 3:6 4:2 3:9 4:5 3:16 2:1 3:5 4:1 3:15 4:9
3:0 4:2 3:9 4:5 3:16 2:1 3:5 4:1 3:15 4:9 2:14
4:0 3:9 4:5 3:16 2:1 3:5 4:1 3:15 4:9 2:14 4:4
3:0 4:5 3:16 2:1 3:5 4:1 3:15 4:9 2:14 4:4 2:4
4:0 3:16 2:1 3:5 4:1 3:15 4:9 2:14 4:4 2:4 3:2
3:0 2:1 3:5 4:1 3:15 4:9 2:14 4:4 2:4 3:2 4:2
2:0 3:5 4:1 3:15 4:9 2:14 4:4 2:4 3:2 4:2 3:6
3:0 4:1 3:15 4:9 2:14 4:4 2:4 3:2 4:2 3:6 4:7
4:0 3:15 4:9 2:14 4:4 2:4 3:2 4:2 3:6 4:7 3:4
3:0 4:9 2:14 4:4 2:4 3:2 4:2 3:6 4:7 3:4 4:2
4:0 2:14 4:4 2:4 3:2 4:2 3:6 4:7 3:4 4:2 3:14
2:0 4:4 2:4 3:2 4:2 3:6 4:7 3:4 4:2 3:14 4:2
4:0 2:4 3:2 4:2 3:6 4:7 3:4 4:2 3:14 4:2 3:6
2:0 3:2 4:2 3:6 4:7 3:4 4:2 3:14 4:2 3:6 2:4
3:0 4:2 3:6 4:7 3:4 4:2 3:14 4:2 3:6 2:4 4:1
4:0 3:6 4:7 3:4 4:2 3:14 4:2 3:6 2:4 4:1 2:6
3:0 4:7 3:4 4:2 3:14 4:2 3:6 2:4 4:1 2:6 4:3
4:0 3:4 4:2 3:14 4:2 3:6 2:4 4:1 2:6 4:3 2:4
3:0 4:2 3:14 4:2 3:6 2:4 4:1 2:6 4:3 2:4 3:1
4:0 3:14 4:2 3:6 2:4 4:1 2:6 4:3 2:4 3:1 4:1
3:0 4:2 3:6 2:4 4:1 2:6 4:3 2:4 3:1 4:1 3:2
4:0 3:6 2:4 4:1 2:6 4:3 2:4 3:1 4:1 3:2 2:1
3:0 2:4 4:1 2:6 4:3 2:4 3:1 4:1 3:2 2:1 4:2
2:0 4:1 2:6 4:3 2:4 3:1 4:1 3:2 2:1 4:2 2:3
4:0 2:6 4:3 2:4 3:1 4:1 3:2 2:1 4:2 2:3 3:1
2:0 4:3 2:4 3:1 4:1 3:2 2:1 4:2 2:3 3:1 4:2
4:0 2:4 3:1 4:1 3:2 2:1 4:2 2:3 3:1 4:2 3:11
2:0 3:1 4:1 3:2 2:1 4:2 2:3 3:1 4:2 3:11 4:2
3:0 4:1 3:2 2:1 4:2 2:3 3:1 4:2 3:11 4:2 2:4
4:0 3:2 2:1 4:2 2:3 3:1 4:2 3:11 4:2 2:4 3:5
3:0 2:1 4:2 2:3 3:1 4:2 3:11 4:2 2:4 3:5 4:2
2:0 4:2 2:3 3:1 4:2 3:11 4:2 2:4 3:5 4:2 3:6
4:0 2:3 3:1 4:2 3:11 4:2 2:4 3:5 4:2 3:6 4:3
2:0 3:1 4:2 3:11 4:2 2:4 3:5 4:2 3:6 4:3 3:7
3:0 4:2 3:11 4:2 2:4 3:5 4:2 3:6 4:3 3:7 4:6
4:0 3:11 4:2 2:4 3:5 4:2 3:6 4:3 3:7 4:6 2:16
3:0 4:2 2:4 3:5 4:2 3:6 4:3 3:7 4:6 2:16 4:9
4:0 2:4 3:5 4:2 3:6 4:3 3:7 4:6 2:16 4:9 3:5
2:0 3:5 4:2 3:6 4:3 3:7 4:6 2:16 4:9 3:5 4:7
3:0 4:2 3:6 4:3 3:7 4:6 2:16 4:9 3:5 4:7 3:3
4:0 3:6 4:3 3:7 4:6 2:16 4:9 3:5 4:7 3:3 4:6
3:0 4:3 3:7 4:6 2:16 4:9 3:5 4:7 3:3 4:6 3:10
4:0 3:7 4:6 2:16 4:9 3:5 4:7 3:3 4:6 3:10 4:1
3:0 4:6 2:16 4:9 3:5 4:7 3:3 4:6 3:10 4:1 3:12
4:0 2:16 4:9 3:5 4:7 3:3 4:6 3:10 4:1 3:12 4:2
2:0 4:9 3:5 4:7 3:3 4:6 3:10 4:1 3:12 4:2 3:1
4:0 3:5 4:7 3:3 4:6 3:10 4:1 3:12 4:2 3:1 4:1
3:0 4:7 3:3 4:6 3:10 4:1 3:12 4:2 3:1 4:1 2:7
4:0 3:3 4:6 3:10 4:1 3:12 4:2 3:1 4:1 2:7 4:8
3:0 4:6 3:10 4:1 3:12 4:2 3:1 4:1 2:7 4:8 2:4
4:0 3:10 4:1 3:12 4:2 3:1 4:1 2:7 4:8 2:4 3:5
3:0 4:1 3:12 4:2 3:1 4:1 2:7 4:8 2:4 3:5 4:1
4:0 3:12 4:2 3:1 4:1 2:7 4:8 2:4 3:5 4:1 3:16
3:0 4:2 3:1 4:1 2:7 4:8 2:4 3:5 4:1 3:16 4:6
4:0 3:1 4:1 2:7 4:8 2:4 3:5 4:1 3:16 4:6 3:14
3:0 4:1 2:7 4:8 2:4 3:5 4:1 3:16 4:6 3:14 4:3
4:0 2:7 4:8 2:4 3:5 4:1 3:16 4:6 3:14 4:3 2:2
2:0 4:8 2:4 3:5 4:1 3:16 4:6 3:14 4:3 2:2 4:1
4:0 2:4 3:5 4:1 3:16 4:6 3:14 4:3 2:2 4:1 2:3
2:0 3:5 4:1 3:16 4:6 3:14 4:3 2:2 4:1 2:3 3:1
3:0 4:1 3:16 4:6 3:14 4:3 2:2 4:1 2:3 3:1 4:3
4:0 3:16 4:6 3:14 4:3 2:2 4:1 2:3 3:1 4:3 3:6
3:0 4:6 3:14 4:3 2:2 4:1 2:3 3:1 4:3 3:6 4:2
4:0 3:14 4:3 2:2 4:1 2:3 3:1 4:3 3:6 4:2 3:7
3:0 4:3 2:2 4:1 2:3 3:1 4:3 3:6 4:2 3:7 4:7
4:0 2:2 4:1 2:3 3:1 4:3 3:6 4:2 3:7 4:7 2:15
2:0 4:1 2:3 3:1 4:3 3:6 4:2 3:7 4:7 2:15 4:9
4:0 2:3 3:1 4:3 3:6 4:2 3:7 4:7 2:15 4:9 3:5
2:0 3:1 4:3 3:6 4:2 3:7 4:7 2:15 4:9 3:5 2:5
3:0 4:3 3:6 4:2 3:7 4:7 2:15 4:9 3:5 2:5 3:1
4:0 3:6 4:2 3:7 4:7 2:15 4:9 3:5 2:5 3:1 4:1
3:0 4:2 3:7 4:7 2:15 4:9 3:5 2:5 3:1 4:1 3:3
4:0 3:7 4:7 2:15 4:9 3:5 2:5 3:1 4:1 3:3 4:7
3:0 4:7 2:15 4:9 3:5 2:5 3:1 4:1 3:3 4:7 3:14
4:0 2:15 4:9 3:5 2:5 3:1 4:1 3:3 4:7 3:14 4:1
2:0 4:9 3:5 2:5 3:1 4:1 3:3 4:7 3:14 4:1 3:7
4:0 3:5 2:5 3:1 4:1 3:3 4:7 3:14 4:1 3:7 4:2
3:0 2:5 3:1 4:1 3:3 4:7 3:14 4:1 3:7 4:2 3:2
2:0 3:1 4:1 3:3 4:7 3:14 4:1 3:7 4:2 3:2 4:2
3:0 4:1 3:3 4:7 3:14 4:1 3:7 4:2 3:2 4:2 2:5
4:0 3:3 4:7 3:14 4:1 3:7 4:2 3:2 4:2 2:5 4:6
3:0 4:7 3:14 4:1 3:7 4:2 3:2 4:2 2:5 4:6 2:4
4:0 3:14 4:1 3:7 4:2 3:2 4:2 2:5 4:6 2:4 3:7
3:0 4:1 3:7 4:2 3:2 4:2 2:5 4:6 2:4 3:7 4:1
4:0 3:7 4:2 3:2 4:2 2:5 4:6 2:4 3:7 4:1 3:6
3:0 4:2 3:2 4:2 2:5 4:6 2:4 3:7 4:1 3:6 4:1
4:0 3:2 4:2 2:5 4:6 2:4 3:7 4:1 3:6 4:1 3:8
3:0 4:2 2:5 4:6 2:4 3:7 4:1 3:6 4:1 3:8 4:7
4:0 2:5 4:6 2:4 3:7 4:1 3:6 4:1 3:8 4:7 3:13
2:0 4:6 2:4 3:7 4:1 3:6 4:1 3:8 4:7 3:13 4:1
4:0 2:4 3:7 4:1 3:6 4:1 3:8 4:7 3:13 4:1 2:1
2:0 3:7 4:1 3:6 4:1 3:8 4:7 3:13 4:1 2:1 4:2
3:0 4:1 3:6 4:1 3:8 4:7 3:13 4:1 2:1 4:2 2:4
4:0 3:6 4:1 3:8 4:7 3:13 4:1 2:1 4:2 2:4 3:3
3:0 4:1 3:8 4:7 3:13 4:1 2:1 4:2 2:4 3:3 4:2
4:0 3:8 4:7 3:13 4:1 2:1 4:2 2:4 3:3 4:2 3:8
3:0 4:7 3:13 4:1 2:1 4:2 2:4 3:3 4:2 3:8 4:2
4:0 3:13 4:1 2:1 4:2 2:4 3:3 4:2 3:8 4:2 3:7
3:0 4:1 2:1 4:2 2:4 3:3 4:2 3:8 4:2 3:7 4:6
4:0 2:1 4:2 2:4 3:3 4:2 3:8 4:2 3:7 4:6 2:15
2:0 4:2 2:4 3:3 4:2 3:8 4:2 3:7 4:6 2:15 4:8
4:0 2:4 3:3 4:2 3:8 4:2 3:7 4:6 2:15 4:8 3:6
2:0 3:3 4:2 3:8 4:2 3:7 4:6 2:15 4:8 3:6 4:6
3:0 4:2 3:8 4:2 3:7 4:6 2:15 4:8 3:6 4:6 3:4
4:0 3:8 4:2 3:7 4:6 2:15 4:8 3:6 4:6 3:4 4:7
3:0 4:2 3:7 4:6 2:15 4:8 3:6 4:6 3:4 4:7 3:9
4:0 3:7 4:6 2:15 4:8 3:6 4:6 3:4 4:7 3:9 4:1
3:0 4:6 2:15 4:8 3:6 4:6 3:4 4:7 3:9 4:1 2:12
4:0 2:15 4:8 3:6 4:6 3:4 4:7 3:9 4:1 2:12 3:5
2:0 4:8 3:6 4:6 3:4 4:7 3:9 4:1 2:12 3:5 4:1
4:0 3:6 4:6 3:4 4:7 3:9 4:1 2:12 3:5 4:1 3:5
3:0 4:6 3:4 4:7 3:9 4:1 2:12 3:5 4:1 3:5 4:5
4:0 3:4 4:7 3:9 4:1 2:12 3:5 4:1 3:5 4:5 3:4
3:0 4:7 3:9 4:1 2:12 3:5 4:1 3:5 4:5 3:4 4:2
4:0 3:9 4:1 2:12 3:5 4:1 3:5 4:5 3:4 4:2 3:1
3:0 4:1 2:12 3:5 4:1 3:5 4:5 3:4 4:2 3:1 4:3
4:0 2:12 3:5 4:1 3:5 4:5 3:4 4:2 3:1 4:3 3:8
2:0 3:5 4:1 3:5 4:5 3:4 4:2 3:1 4:3 3:8 4:1
3:0 4:1 3:5 4:5 3:4 4:2 3:1 4:3 3:8 4:1 3:1
4:0 3:5 4:5 3:4 4:2 3:1 4:3 3:8 4:1 3:1 4:1
3:0 4:5 3:4 4:2 3:1 4:3 3:8 4:1 3:1 4:1 3:1
4:0 3:4 4:2 3:1 4:3 3:8 4:1 3:1 4:1 3:1 4:1
3:0 4:2 3:1 4:3 3:8 4:1 3:1 4:1 3:1 4:1 3:4
4:0 3:1 4:3 3:8 4:1 3:1 4:1 3:1 4:1 3:4 4:1
3:0 4:3 3:8 4:1 3:1 4:1 3:1 4:1 3:4 4:1 3:9
4:0 3:8 4:1 3:1 4:1 3:1 4:1 3:4 4:1 3:9 4:2
3:0 4:1 3:1 4:1 3:1 4:1 3:4 4:1 3:9 4:2 2:4
4:0 3:1 4:1 3:1 4:1 3:4 4:1 3:9 4:2 2:4 4:7
3:0 4:1 3:1 4:1 3:4 4:1 3:9 4:2 2:4 4:7 2:3
4:0 3:1 4:1 3:4 4:1 3:9 4:2 2:4 4:7 2:3 3:5
3:0 4:1 3:4 4:1 3:9 4:2 2:4 4:7 2:3 3:5 4:2
4:0 3:4 4:1 3:9 4:2 2:4 4:7 2:3 3:5 4:2 2:16
3:0 4:1 3:9 4:2 2:4 4:7 2:3 3:5 4:2 2:16 1:6
4:0 3:9 4:2 2:4 4:7 2:3 3:5 4:2 2:16 1:6 4:1
3:0 4:2 2:4 4:7 2:3 3:5 4:2 2:16 1:6 4:1 3:9
4:0 2:4 4:7 2:3 3:5 4:2 2:16 1:6 4:1 3:9 4:2
2:0 4:7 2:3 3:5 4:2 2:16 1:6 4:1 3:9 4:2 3:5
4:0 2:3 3:5 4:2 2:16 1:6 4:1 3:9 4:2 3:5 4:7
2:0 3:5 4:2 2:16 1:6 4:1 3:9 4:2 3:5 4:7 3:8
3:0 4:2 2:16 1:6 4:1 3:9 4:2 3:5 4:7 3:8 4:1
4:0 2:16 1:6 4:1 3:9 4:2 3:5 4:7 3:8 4:1 3:4
2:0 1:6 4:1 3:9 4:2 3:5 4:7 3:8 4:1 3:4 4:1
1:0 4:1 3:9 4:2 3:5 4:7 3:8 4:1 3:4 4:1 2:2
4:0 3:9 4:2 3:5 4:7 3:8 4:1 3:4 4:1 2:2 3:2
3:0 4:2 3:5 4:7 3:8 4:1 3:4 4:1 2:2 3:2 4:1
4:0 3:5 4:7 3:8 4:1 3:4 4:1 2:2 3:2 4:1 2:3
3:0 4:7 3:8 4:1 3:4 4:1 2:2 3:2 4:1 2:3 3:3
4:0 3:8 4:1 3:4 4:1 2:2 3:2 4:1 2:3 3:3 4:2
3:0 4:1 3:4 4:1 2:2 3:2 4:1 2:3 3:3 4:2 3:6
4:0 3:4 4:1 2:2 3:2 4:1 2:3 3:3 4:2 3:6 4:3
3:0 4:1 2:2 3:2 4:1 2:3 3:3 4:2 3:6 4:3 3:1
4:0 2:2 3:2 4:1 2:3 3:3 4:2 3:6 4:3 3:1 4:1
2:0 3:2 4:1 2:3 3:3 4:2 3:6 4:3 3:1 4:1 3:5
3:0 4:1 2:3 3:3 4:2 3:6 4:3 3:1 4:1 3:5 4:7
4:0 2:3 3:3 4:2 3:6 4:3 3:1 4:1 3:5 4:7 3:16
2:0 3:3 4:2 3:6 4:3 3:1 4:1 3:5 4:7 3:16 2:1
3:0 4:2 3:6 4:3 3:1 4:1 3:5 4:7 3:16 2:1 4:2
4:0 3:6 4:3 3:1 4:1 3:5 4:7 3:16 2:1 4:2 2:3
3:0 4:3 3:1 4:1 3:5 4:7 3:16 2:1 4:2 2:3 3:1
4:0 3:1 4:1 3:5 4:7 3:16 2:1 4:2 2:3 3:1 4:3
3:0 4:1 3:5 4:7 3:16 2:1 4:2 2:3 3:1 4:3 3:7
4:0 3:5 4:7 3:16 2:1 4:2 2:3 3:1 4:3 3:7 4:2
3:0 4:7 3:16 2:1 4:2 2:3 3:1 4:3 3:7 4:2 3:1
4:0 3:16 2:1 4:2 2:3 3:1 4:3 3:7 4:2 3:1 4:1
3:0 2:1 4:2 2:3 3:1 4:3 3:7 4:2 3:1 4:1 3:5
2:0 4:2 2:3 3:1 4:3 3:7 4:2 3:1 4:1 3:5 4:6
4:0 2:3 3:1 4:3 3:7 4:2 3:1 4:1 3:5 4:6 2:15
2:0 3:1 4:3 3:7 4:2 3:1 4:1 3:5 4:6 2:15 4:7
3:0 4:3 3:7 4:2 3:1 4:1 3:5 4:6 2:15 4:7 3:5
4:0 3:7 4:2 3:1 4:1 3:5 4:6 2:15 4:7 3:5 4:4
3:0 4:2 3:1 4:1 3:5 4:6 2:15 4:7 3:5 4:4 3:4
4:0 3:1 4:1 3:5 4:6 2:15 4:7 3:5 4:4 3:4 4:5
3:0 4:1 3:5 4:6 2:15 4:7 3:5 4:4 3:4 4:5 3:4
4:0 3:5 4:6 2:15 4:7 3:5 4:4 3:4 4:5 3:4 4:1
3:0 4:6 2:15 4:7 3:5 4:4 3:4 4:5 3:4 4:1 3:10
4:0 2:15 4:7 3:5 4:4 3:4 4:5 3:4 4:1 3:10 4:2
2:0 4:7 3:5 4:4 3:4 4:5 3:4 4:1 3:10 4:2 2:1
4:0 3:5 4:4 3:4 4:5 3:4 4:1 3:10 4:2 2:1 4:4
3:0 4:4 3:4 4:5 3:4 4:1 3:10 4:2 2:1 4:4 2:3
4:0 3:4 4:5 3:4 4:1 3:10 4:2 2:1 4:4 2:3 3:7
3:0 4:5 3:4 4:1 3:10 4:2 2:1 4:4 2:3 3:7 4:1
4:0 3:4 4:1 3:10 4:2 2:1 4:4 2:3 3:7 4:1 3:6
3:0 4:1 3:10 4:2 2:1 4:4 2:3 3:7 4:1 3:6 4:1
4:0 3:10 4:2 2:1 4:4 2:3 3:7 4:1 3:6 4:1 3:9
3:0 4:2 2:1 4:4 2:3 3:7 4:1 3:6 4:1 3:9 4:5
4:0 2:1 4:4 2:3 3:7 4:1 3:6 4:1 3:9 4:5 2:16
2:0 4:4 2:3 3:7 4:1 3:6 4:1 3:9 4:5 2:16 4:1
4:0 2:3 3:7 4:1 3:6 4:1 3:9 4:5 2:16 4:1 2:3
2:0 3:7 4:1 3:6 4:1 3:9 4:5 2:16 4:1 2:3 3:6
3:0 4:1 3:6 4:1 3:9 4:5 2:16 4:1 2:3 3:6 4:1
4:0 3:6 4:1 3:9 4:5 2:16 4:1 2:3 3:6 4:1 3:6
3:0 4:1 3:9 4:5 2:16 4:1 2:3 3:6 4:1 3:6 4:3
4:0 3:9 4:5 2:16 4:1 2:3 3:6 4:1 3:6 4:3 3:1
3:0 4:5 2:16 4:1 2:3 3:6 4:1 3:6 4:3 3:1 4:3
4:0 2:16 4:1 2:3 3:6 4:1 3:6 4:3 3:1 4:3 3:4
2:0 4:1 2:3 3:6 4:1 3:6 4:3 3:1 4:3 3:4 4:4
4:0 2:3 3:6 4:1 3:6 4:3 3:1 4:3 3:4 4:4 3:10
2:0 3:6 4:1 3:6 4:3 3:1 4:3 3:4 4:4 3:10 4:1
3:0 4:1 3:6 4:3 3:1 4:3 3:4 4:4 3:10 4:1 3:6
4:0 3:6 4:3 3:1 4:3 3:4 4:4 3:10 4:1 3:6 4:1
3:0 4:3 3:1 4:3 3:4 4:4 3:10 4:1 3:6 4:1 3:4
4:0 3:1 4:3 3:4 4:4 3:10 4:1 3:6 4:1 3:4 4:1
3:0 4:3 3:4 4:4 3:10 4:1 3:6 4:1 3:4 4:1 3:7
4:0 3:4 4:4 3:10 4:1 3:6 4:1 3:4 4:1 3:7 2:1
3:0 4:4 3:10 4:1 3:6 4:1 3:4 4:1 3:7 2:1 3:1
4:0 3:10 4:1 3:6 4:1 3:4 4:1 3:7 2:1 3:1 4:1
3:0 4:1 3:6 4:1 3:4 4:1 3:7 2:1 3:1 4:1 2:1
4:0 3:6 4:1 3:4 4:1 3:7 2:1 3:1 4:1 2:1 4:2
3:0 4:1 3:4 4:1 3:7 2:1 3:1 4:1 2:1 4:2 2:3
4:0 3:4 4:1 3:7 2:1 3:1 4:1 2:1 4:2 2:3 4:2
3:0 4:1 3:7 2:1 3:1 4:1 2:1 4:2 2:3 4:2 2:2
4:0 3:7 2:1 3:1 4:1 2:1 4:2 2:3 4:2 2:2 4:2
3:0 2:1 3:1 4:1 2:1 4:2 2:3 4:2 2:2 4:2 2:3
2:0 3:1 4:1 2:1 4:2 2:3 4:2 2:2 4:2 2:3 3:1
3:0 4:1 2:1 4:2 2:3 4:2 2:2 4:2 2:3 3:1 4:4
4:0 2:1 4:2 2:3 4:2 2:2 4:2 2:3 3:1 4:4 3:9
2:0 4:2 2:3 4:2 2:2 4:2 2:3 3:1 4:4 3:9 4:2
4:0 2:3 4:2 2:2 4:2 2:3 3:1 4:4 3:9 4:2 2:5
2:0 4:2 2:2 4:2 2:3 3:1 4:4 3:9 4:2 2:5 1:3
4:0 2:2 4:2 2:3 3:1 4:4 3:9 4:2 2:5 1:3 2:1
2:0 4:2 2:3 3:1 4:4 3:9 4:2 2:5 1:3 2:1 3:1
4:0 2:3 3:1 4:4 3:9 4:2 2:5 1:3 2:1 3:1 4:1
2:0 3:1 4:4 3:9 4:2 2:5 1:3 2:1 3:1 4:1 3:7
3:0 4:4 3:9 4:2 2:5 1:3 2:1 3:1 4:1 3:7 4:3
4:0 3:9 4:2 2:5 1:3 2:1 3:1 4:1 3:7 4:3 3:5
3:0 4:2 2:5 1:3 2:1 3:1 4:1 3:7 4:3 3:5 4:8
4:0 2:5 1:3 2:1 3:1 4:1 3:7 4:3 3:5 4:8 2:14
2:0 1:3 2:1 3:1 4:1 3:7 4:3 3:5 4:8 2:14 4:3
1:0 2:1 3:1 4:1 3:7 4:3 3:5 4:8 2:14 4:3 2:1
2:0 3:1 4:1 3:7 4:3 3:5 4:8 2:14 4:3 2:1 4:3
3:0 4:1 3:7 4:3 3:5 4:8 2:14 4:3 2:1 4:3 2:3
4:0 3:7 4:3 3:5 4:8 2:14 4:3 2:1 4:3 2:3 3:1
3:0 4:3 3:5 4:8 2:14 4:3 2:1 4:3 2:3 3:1 4:2
4:0 3:5 4:8 2:14 4:3 2:1 4:3 2:3 3:1 4:2 3:5
3:0 4:8 2:14 4:3 2:1 4:3 2:3 3:1 4:2 3:5 4:7
4:0 2:14 4:3 2:1 4:3 2:3 3:1 4:2 3:5 4:7 3:3
2:0 4:3 2:1 4:3 2:3 3:1 4:2 3:5 4:7 3:3 4:4
4:0 2:1 4:3 2:3 3:1 4:2 3:5 4:7 3:3 4:4 3:23
2:0 4:3 2:3 3:1 4:2 3:5 4:7 3:3 4:4 3:23 4:1
4:0 2:3 3:1 4:2 3:5 4:7 3:3 4:4 3:23 4:1 2:8
2:0 3:1 4:2 3:5 4:7 3:3 4:4 3:23 4:1 2:8 4:5
3:0 4:2 3:5 4:7 3:3 4:4 3:23 4:1 2:8 4:5 3:5
4:0 3:5 4:7 3:3 4:4 3:23 4:1 2:8 4:5 3:5 2:1
3:0 4:7 3:3 4:4 3:23 4:1 2:8 4:5 3:5 2:1 4:4
4:0 3:3 4:4 3:23 4:1 2:8 4:5 3:5 2:1 4:4 3:3
3:0 4:4 3:23 4:1 2:8 4:5 3:5 2:1 4:4 3:3 4:2
4:0 3:23 4:1 2:8 4:5 3:5 2:1 4:4 3:3 4:2 2:10
3:0 4:1 2:8 4:5 3:5 2:1 4:4 3:3 4:2 2:10 4:3
4:0 2:8 4:5 3:5 2:1 4:4 3:3 4:2 2:10 4:3 2:4
2:0 4:5 3:5 2:1 4:4 3:3 4:2 2:10 4:3 2:4 3:4
4:0 3:5 2:1 4:4 3:3 4:2 2:10 4:3 2:4 3:4 4:2
3:0 2:1 4:4 3:3 4:2 2:10 4:3 2:4 3:4 4:2 3:5
2:0 4:4 3:3 4:2 2:10 4:3 2:4 3:4 4:2 3:5 4:4
4:0 3:3 4:2 2:10 4:3 2:4 3:4 4:2 3:5 4:4 3:1
3:0 4:2 2:10 4:3 2:4 3:4 4:2 3:5 4:4 3:1 4:2
4:0 2:10 4:3 2:4 3:4 4:2 3:5 4:4 3:1 4:2 3:5
2:0 4:3 2:4 3:4 4:2 3:5 4:4 3:1 4:2 3:5 4:3
4:0 2:4 3:4 4:2 3:5 4:4 3:1 4:2 3:5 4:3 3:8
2:0 3:4 4:2 3:5 4:4 3:1 4:2 3:5 4:3 3:8 2:4
3:0 4:2 3:5 4:4 3:1 4:2 3:5 4:3 3:8 2:4 3:1
4:0 3:5 4:4 3:1 4:2 3:5 4:3 3:8 2:4 3:1 4:1
3:0 4:4 3:1 4:2 3:5 4:3 3:8 2:4 3:1 4:1 2:4
4:0 3:1 4:2 3:5 4:3 3:8 2:4 3:1 4:1 2:4 4:9
3:0 4:2 3:5 4:3 3:8 2:4 3:1 4:1 2:4 4:9 3:6
4:0 3:5 4:3 3:8 2:4 3:1 4:1 2:4 4:9 3:6 4:1
3:0 4:3 3:8 2:4 3:1 4:1 2:4 4:9 3:6 4:1 3:1
4:0 3:8 2:4 3:1 4:1 2:4 4:9 3:6 4:1 3:1 4:1
3:0 2:4 3:1 4:1 2:4 4:9 3:6 4:1 3:1 4:1 3:6
2:0 3:1 4:1 2:4 4:9 3:6 4:1 3:1 4:1 3:6 4:3
3:0 4:1 2:4 4:9 3:6 4:1 3:1 4:1 3:6 4:3 3:1
4:0 2:4 4:9 3:6 4:1 3:1 4:1 3:6 4:3 3:1 4:2
2:0 4:9 3:6 4:1 3:1 4:1 3:6 4:3 3:1 4:2 2:16
4:0 3:6 4:1 3:1 4:1 3:6 4:3 3:1 4:2 2:16 4:2
3:0 4:1 3:1 4:1 3:6 4:3 3:1 4:2 2:16 4:2 2:3
4:0 3:1 4:1 3:6 4:3 3:1 4:2 2:16 4:2 2:3 3:5
3:0 4:1 3:6 4:3 3:1 4:2 2:16 4:2 2:3 3:5 4:1
4:0 3:6 4:3 3:1 4:2 2:16 4:2 2:3 3:5 4:1 3:6
3:0 4:3 3:1 4:2 2:16 4:2 2:3 3:5 4:1 3:6 4:6
4:0 3:1 4:2 2:16 4:2 2:3 3:5 4:1 3:6 4:6 3:4
3:0 4:2 2:16 4:2 2:3 3:5 4:1 3:6 4:6 3:4 4:2
4:0 2:16 4:2 2:3 3:5 4:1 3:6 4:6 3:4 4:2 3:2
2:0 4:2 2:3 3:5 4:1 3:6 4:6 3:4 4:2 3:2 4:1
4:0 2:3 3:5 4:1 3:6 4:6 3:4 4:2 3:2 4:1 3:7
2:0 3:5 4:1 3:6 4:6 3:4 4:2 3:2 4:1 3:7 4:3
3:0 4:1 3:6 4:6 3:4 4:2 3:2 4:1 3:7 4:3 2:5
4:0 3:6 4:6 3:4 4:2 3:2 4:1 3:7 4:3 2:5 3:3
3:0 4:6 3:4 4:2 3:2 4:1 3:7 4:3 2:5 3:3 2:1
4:0 3:4 4:2 3:2 4:1 3:7 4:3 2:5 3:3 2:1 4:1
3:0 4:2 3:2 4:1 3:7 4:3 2:5 3:3 2:1 4:1 2:3
4:0 3:2 4:1 3:7 4:3 2:5 3:3 2:1 4:1 2:3 4:3
3:0 4:1 3:7 4:3 2:5 3:3 2:1 4:1 2:3 4:3 3:1
4:0 3:7 4:3 2:5 3:3 2:1 4:1 2:3 4:3 3:1 4:2
3:0 4:3 2:5 3:3 2:1 4:1 2:3 4:3 3:1 4:2 3:15
4:0 2:5 3:3 2:1 4:1 2:3 4:3 3:1 4:2 3:15 4:6
2:0 3:3 2:1 4:1 2:3 4:3 3:1 4:2 3:15 4:6 3:9
3:0 2:1 4:1 2:3 4:3 3:1 4:2 3:15 4:6 3:9 4:1
2:0 4:1 2:3 4:3 3:1 4:2 3:15 4:6 3:9 4:1 2:8
4:0 2:3 4:3 3:1 4:2 3:15 4:6 3:9 4:1 2:8 4:6
2:0 4:3 3:1 4:2 3:15 4:6 3:9 4:1 2:8 4:6 3:11
4:0 3:1 4:2 3:15 4:6 3:9 4:1 2:8 4:6 3:11 4:1
3:0 4:2 3:15 4:6 3:9 4:1 2:8 4:6 3:11 4:1 3:4
4:0 3:15 4:6 3:9 4:1 2:8 4:6 3:11 4:1 3:4 4:8
3:0 4:6 3:9 4:1 2:8 4:6 3:11 4:1 3:4 4:8 3:14
4:0 3:9 4:1 2:8 4:6 3:11 4:1 3:4 4:8 3:14 4:1
3:0 4:1 2:8 4:6 3:11 4:1 3:4 4:8 3:14 4:1 2:1
4:0 2:8 4:6 3:11 4:1 3:4 4:8 3:14 4:1 2:1 4:1
2:0 4:6 3:11 4:1 3:4 4:8 3:14 4:1 2:1 4:1 2:3
4:0 3:11 4:1 3:4 4:8 3:14 4:1 2:1 4:1 2:3 3:4
3:0 4:1 3:4 4:8 3:14 4:1 2:1 4:1 2:3 3:4 4:2
4:0 3:4 4:8 3:14 4:1 2:1 4:1 2:3 3:4 4:2 3:6
3:0 4:8 3:14 4:1 2:1 4:1 2:3 3:4 4:2 3:6 4:4
4:0 3:14 4:1 2:1 4:1 2:3 3:4 4:2 3:6 4:4 3:7
3:0 4:1 2:1 4:1 2:3 3:4 4:2 3:6 4:4 3:7 4:7
4:0 2:1 4:1 2:3 3:4 4:2 3:6 4:4 3:7 4:7 2:14
2:0 4:1 2:3 3:4 4:2 3:6 4:4 3:7 4:7 2:14 4:2
4:0 2:3 3:4 4:2 3:6 4:4 3:7 4:7 2:14 4:2 2:1
2:0 3:4 4:2 3:6 4:4 3:7 4:7 2:14 4:2 2:1 4:6
3:0 4:2 3:6 4:4 3:7 4:7 2:14 4:2 2:1 4:6 3:5
4:0 3:6 4:4 3:7 4:7 2:14 4:2 2:1 4:6 3:5 4:5
3:0 4:4 3:7 4:7 2:14 4:2 2:1 4:6 3:5 4:5 3:3
4:0 3:7 4:7 2:14 4:2 2:1 4:6 3:5 4:5 3:3 4:1
3:0 4:7 2:14 4:2 2:1 4:6 3:5 4:5 3:3 4:1 3:8
4:0 2:14 4:2 2:1 4:6 3:5 4:5 3:3 4:1 3:8 4:1
2:0 4:2 2:1 4:6 3:5 4:5 3:3 4:1 3:8 4:1 3:9
4:0 2:1 4:6 3:5 4:5 3:3 4:1 3:8 4:1 3:9 2:1
2:0 4:6 3:5 4:5 3:3 4:1 3:8 4:1 3:9 2:1 3:1
4:0 3:5 4:5 3:3 4:1 3:8 4:1 3:9 2:1 3:1 2:1
3:0 4:5 3:3 4:1 3:8 4:1 3:9 2:1 3:1 2:1 4:3
4:0 3:3 4:1 3:8 4:1 3:9 2:1 3:1 2:1 4:3 2:3
3:0 4:1 3:8 4:1 3:9 2:1 3:1 2:1 4:3 2:3 3:6
4:0 3:8 4:1 3:9 2:1 3:1 2:1 4:3 2:3 3:6 4:2
3:0 4:1 3:9 2:1 3:1 2:1 4:3 2:3 3:6 4:2 3:6
4:0 3:9 2:1 3:1 2:1 4:3 2:3 3:6 4:2 3:6 4:2
3:0 2:1 3:1 2:1 4:3 2:3 3:6 4:2 3:6 4:2 3:7
2:0 3:1 2:1 4:3 2:3 3:6 4:2 3:6 4:2 3:7 4:6
3:0 2:1 4:3 2:3 3:6 4:2 3:6 4:2 3:7 4:6 2:15
2:0 4:3 2:3 3:6 4:2 3:6 4:2 3:7 4:6 2:15 4:7
4:0 2:3 3:6 4:2 3:6 4:2 3:7 4:6 2:15 4:7 2:3
2:0 3:6 4:2 3:6 4:2 3:7 4:6 2:15 4:7 2:3 3:1
3:0 4:2 3:6 4:2 3:7 4:6 2:15 4:7 2:3 3:1 4:1
4:0 3:6 4:2 3:7 4:6 2:15 4:7 2:3 3:1 4:1 3:6
3:0 4:2 3:7 4:6 2:15 4:7 2:3 3:1 4:1 3:6 4:7
4:0 3:7 4:6 2:15 4:7 2:3 3:1 4:1 3:6 4:7 3:4
3:0 4:6 2:15 4:7 2:3 3:1 4:1 3:6 4:7 3:4 4:3
4:0 2:15 4:7 2:3 3:1 4:1 3:6 4:7 3:4 4:3 3:9
2:0 4:7 2:3 3:1 4:1 3:6 4:7 3:4 4:3 3:9 2:3
4:0 2:3 3:1 4:1 3:6 4:7 3:4 4:3 3:9 2:3 3:1
2:0 3:1 4:1 3:6 4:7 3:4 4:3 3:9 2:3 3:1 4:2
3:0 4:1 3:6 4:7 3:4 4:3 3:9 2:3 3:1 4:2 2:4
4:0 3:6 4:7 3:4 4:3 3:9 2:3 3:1 4:2 2:4 4:7
3:0 4:7 3:4 4:3 3:9 2:3 3:1 4:2 2:4 4:7 3:7
4:0 3:4 4:3 3:9 2:3 3:1 4:2 2:4 4:7 3:7 4:2
3:0 4:3 3:9 2:3 3:1 4:2 2:4 4:7 3:7 4:2 3:4
4:0 3:9 2:3 3:1 4:2 2:4 4:7 3:7 4:2 3:4 4:1
3:0 2:3 3:1 4:2 2:4 4:7 3:7 4:2 3:4 4:1 3:2
2:0 3:1 4:2 2:4 4:7 3:7 4:2 3:4 4:1 3:2 4:1
3:0 4:2 2:4 4:7 3:7 4:2 3:4 4:1 3:2 4:1 3:1
4:0 2:4 4:7 3:7 4:2 3:4 4:1 3:2 4:1 3:1 4:1
2:0 4:7 3:7 4:2 3:4 4:1 3:2 4:1 3:1 4:1 3:3
4:0 3:7 4:2 3:4 4:1 3:2 4:1 3:1 4:1 3:3 4:3
3:0 4:2 3:4 4:1 3:2 4:1 3:1 4:1 3:3 4:3 3:7
4:0 3:4 4:1 3:2 4:1 3:1 4:1 3:3 4:3 3:7 4:1
3:0 4:1 3:2 4:1 3:1 4:1 3:3 4:3 3:7 4:1 3:3
4:0 3:2 4:1 3:1 4:1 3:3 4:3 3:7 4:1 3:3 4:2
3:0 4:1 3:1 4:1 3:3 4:3 3:7 4:1 3:3 4:2 2:4
4:0 3:1 4:1 3:3 4:3 3:7 4:1 3:3 4:2 2:4 4:2
3:0 4:1 3:3 4:3 3:7 4:1 3:3 4:2 2:4 4:2 2:1
4:0 3:3 4:3 3:7 4:1 3:3 4:2 2:4 4:2 2:1 4:4
3:0 4:3 3:7 4:1 3:3 4:2 2:4 4:2 2:1 4:4 3:6
4:0 3:7 4:1 3:3 4:2 2:4 4:2 2:1 4:4 3:6 4:5
3:0 4:1 3:3 4:2 2:4 4:2 2:1 4:4 3:6 4:5 3:4
4:0 3:3 4:2 2:4 4:2 2:1 4:4 3:6 4:5 3:4 4:1
3:0 4:2 2:4 4:2 2:1 4:4 3:6 4:5 3:4 4:1 3:27
4:0 2:4 4:2 2:1 4:4 3:6 4:5 3:4 4:1 3:27 4:6
2:0 4:2 2:1 4:4 3:6 4:5 3:4 4:1 3:27 4:6 2:8
4:0 2:1 4:4 3:6 4:5 3:4 4:1 3:27 4:6 2:8 4:5
2:0 4:4 3:6 4:5 3:4 4:1 3:27 4:6 2:8 4:5 2:3
4:0 3:6 4:5 3:4 4:1 3:27 4:6 2:8 4:5 2:3 4:7
3:0 4:5 3:4 4:1 3:27 4:6 2:8 4:5 2:3 4:7 3:6
4:0 3:4 4:1 3:27 4:6 2:8 4:5 2:3 4:7 3:6 4:2
3:0 4:1 3:27 4:6 2:8 4:5 2:3 4:7 3:6 4:2 3:8
4:0 3:27 4:6 2:8 4:5 2:3 4:7 3:6 4:2 3:8 4:8
3:0 4:6 2:8 4:5 2:3 4:7 3:6 4:2 3:8 4:8 2:14
4:0 2:8 4:5 2:3 4:7 3:6 4:2 3:8 4:8 2:14 4:2
2:0 4:5 2:3 4:7 3:6 4:2 3:8 4:8 2:14 4:2 2:1
4:0 2:3 4:7 3:6 4:2 3:8 4:8 2:14 4:2 2:1 4:3
2:0 4:7 3:6 4:2 3:8 4:8 2:14 4:2 2:1 4:3 3:4
4:0 3:6 4:2 3:8 4:8 2:14 4:2 2:1 4:3 3:4 4:3
3:0 4:2 3:8 4:8 2:14 4:2 2:1 4:3 3:4 4:3 3:5
4:0 3:8 4:8 2:14 4:2 2:1 4:3 3:4 4:3 3:5 4:1
3:0 4:8 2:14 4:2 2:1 4:3 3:4 4:3 3:5 4:1 3:8
4:0 2:14 4:2 2:1 4:3 3:4 4:3 3:5 4:1 3:8 4:1
2:0 4:2 2:1 4:3 3:4 4:3 3:5 4:1 3:8 4:1 3:1
4:0 2:1 4:3 3:4 4:3 3:5 4:1 3:8 4:1 3:1 4:5
2:0 4:3 3:4 4:3 3:5 4:1 3:8 4:1 3:1 4:5 2:15
4:0 3:4 4:3 3:5 4:1 3:8 4:1 3:1 4:5 2:15 4:7
3:0 4:3 3:5 4:1 3:8 4:1 3:1 4:5 2:15 4:7 3:5
4:0 3:5 4:1 3:8 4:1 3:1 4:5 2:15 4:7 3:5 4:2
3:0 4:1 3:8 4:1 3:1 4:5 2:15 4:7 3:5 4:2 3:1
4:0 3:8 4:1 3:1 4:5 2:15 4:7 3:5 4:2 3:1 4:2
3:0 4:1 3:1 4:5 2:15 4:7 3:5 4:2 3:1 4:2 3:3
4:0 3:1 4:5 2:15 4:7 3:5 4:2 3:1 4:2 3:3 4:4
3:0 4:5 2:15 4:7 3:5 4:2 3:1 4:2 3:3 4:4 3:15
4:0 2:15 4:7 3:5 4:2 3:1 4:2 3:3 4:4 3:15 2:2
2:0 4:7 3:5 4:2 3:1 4:2 3:3 4:4 3:15 2:2 4:3
4:0 3:5 4:2 3:1 4:2 3:3 4:4 3:15 2:2 4:3 2:1
3:0 4:2 3:1 4:2 3:3 4:4 3:15 2:2 4:3 2:1 4:1
4:0 3:1 4:2 3:3 4:4 3:15 2:2 4:3 2:1 4:1 2:4
3:0 4:2 3:3 4:4 3:15 2:2 4:3 2:1 4:1 2:4 4:1
4:0 3:3 4:4 3:15 2:2 4:3 2:1 4:1 2:4 4:1 2:1
3:0 4:4 3:15 2:2 4:3 2:1 4:1 2:4 4:1 2:1 3:4
4:0 3:15 2:2 4:3 2:1 4:1 2:4 4:1 2:1 3:4 4:1
3:0 2:2 4:3 2:1 4:1 2:4 4:1 2:1 3:4 4:1 2:15
2:0 4:3 2:1 4:1 2:4 4:1 2:1 3:4 4:1 2:15 4:8
4:0 2:1 4:1 2:4 4:1 2:1 3:4 4:1 2:15 4:8 3:6
2:0 4:1 2:4 4:1 2:1 3:4 4:1 2:15 4:8 3:6 4:4
4:0 2:4 4:1 2:1 3:4 4:1 2:15 4:8 3:6 4:4 3:1
2:0 4:1 2:1 3:4 4:1 2:15 4:8 3:6 4:4 3:1 4:1
4:0 2:1 3:4 4:1 2:15 4:8 3:6 4:4 3:1 4:1 3:3
2:0 3:4 4:1 2:15 4:8 3:6 4:4 3:1 4:1 3:3 4:2
3:0 4:1 2:15 4:8 3:6 4:4 3:1 4:1 3:3 4:2 3:2
4:0 2:15 4:8 3:6 4:4 3:1 4:1 3:3 4:2 3:2 4:2
2:0 4:8 3:6 4:4 3:1 4:1 3:3 4:2 3:2 4:2 3:12
4:0 3:6 4:4 3:1 4:1 3:3 4:2 3:2 4:2 3:12 4:1
3:0 4:4 3:1 4:1 3:3 4:2 3:2 4:2 3:12 4:1 2:9
4:0 3:1 4:1 3:3 4:2 3:2 4:2 3:12 4:1 2:9 4:6
3:0 4:1 3:3 4:2 3:2 4:2 3:12 4:1 2:9 4:6 2:5
4:0 3:3 4:2 3:2 4:2 3:12 4:1 2:9 4:6 2:5 3:6
3:0 4:2 3:2 4:2 3:12 4:1 2:9 4:6 2:5 3:6 4:1
4:0 3:2 4:2 3:12 4:1 2:9 4:6 2:5 3:6 4:1 2:4
3:0 4:2 3:12 4:1 2:9 4:6 2:5 3:6 4:1 2:4 4:7
4:0 3:12 4:1 2:9 4:6 2:5 3:6 4:1 2:4 4:7 2:15
3:0 4:1 2:9 4:6 2:5 3:6 4:1 2:4 4:7 2:15 4:2
4:0 2:9 4:6 2:5 3:6 4:1 2:4 4:7 2:15 4:2 2:2
2:0 4:6 2:5 3:6 4:1 2:4 4:7 2:15 4:2 2:2 4:2
4:0 2:5 3:6 4:1 2:4 4:7 2:15 4:2 2:2 4:2 3:4
2:0 3:6 4:1 2:4 4:7 2:15 4:2 2:2 4:2 3:4 4:2
3:0 4:1 2:4 4:7 2:15 4:2 2:2 4:2 3:4 4:2 3:6
4:0 2:4 4:7 2:15 4:2 2:2 4:2 3:4 4:2 3:6 4:1
2:0 4:7 2:15 4:2 2:2 4:2 3:4 4:2 3:6 4:1 3:2
4:0 2:15 4:2 2:2 4:2 3:4 4:2 3:6 4:1 3:2 4:1
2:0 4:2 2:2 4:2 3:4 4:2 3:6 4:1 3:2 4:1 3:6
4:0 2:2 4:2 3:4 4:2 3:6 4:1 3:2 4:1 3:6 4:7
2:0 4:2 3:4 4:2 3:6 4:1 3:2 4:1 3:6 4:7 2:15
4:0 3:4 4:2 3:6 4:1 3:2 4:1 3:6 4:7 2:15 3:7
3:0 4:2 3:6 4:1 3:2 4:1 3:6 4:7 2:15 3:7 4:1
4:0 3:6 4:1 3:2 4:1 3:6 4:7 2:15 3:7 4:1 3:6
3:0 4:1 3:2 4:1 3:6 4:7 2:15 3:7 4:1 3:6 4:1
4:0 3:2 4:1 3:6 4:7 2:15 3:7 4:1 3:6 4:1 3:1
3:0 4:1 3:6 4:7 2:15 3:7 4:1 3:6 4:1 3:1 4:2
4:0 3:6 4:7 2:15 3:7 4:1 3:6 4:1 3:1 4:2 3:5
3:0 4:7 2:15 3:7 4:1 3:6 4:1 3:1 4:2 3:5 4:8
4:0 2:15 3:7 4:1 3:6 4:1 3:1 4:2 3:5 4:8 3:7
2:0 3:7 4:1 3:6 4:1 3:1 4:2 3:5 4:8 3:7 4:1
3:0 4:1 3:6 4:1 3:1 4:2 3:5 4:8 3:7 4:1 3:7
4:0 3:6 4:1 3:1 4:2 3:5 4:8 3:7 4:1 3:7 2:1
3:0 4:1 3:1 4:2 3:5 4:8 3:7 4:1 3:7 2:1 4:3
4:0 3:1 4:2 3:5 4:8 3:7 4:1 3:7 2:1 4:3 2:3
3:0 4:2 3:5 4:8 3:7 4:1 3:7 2:1 4:3 2:3 3:2
4:0 3:5 4:8 3:7 4:1 3:7 2:1 4:3 2:3 3:2 4:2
3:0 4:8 3:7 4:1 3:7 2:1 4:3 2:3 3:2 4:2 3:6
4:0 3:7 4:1 3:7 2:1 4:3 2:3 3:2 4:2 3:6 4:2
3:0 4:1 3:7 2:1 4:3 2:3 3:2 4:2 3:6 4:2 3:7
4:0 3:7 2:1 4:3 2:3 3:2 4:2 3:6 4:2 3:7 4:6
3:0 2:1 4:3 2:3 3:2 4:2 3:6 4:2 3:7 4:6 2:15
2:0 4:3 2:3 3:2 4:2 3:6 4:2 3:7 4:6 2:15 4:2
4:0 2:3 3:2 4:2 3:6 4:2 3:7 4:6 2:15 4:2 2:4
2:0 3:2 4:2 3:6 4:2 3:7 4:6 2:15 4:2 2:4 3:5
3:0 4:2 3:6 4:2 3:7 4:6 2:15 4:2 2:4 3:5 4:1
4:0 3:6 4:2 3:7 4:6 2:15 4:2 2:4 3:5 4:1 3:6
3:0 4:2 3:7 4:6 2:15 4:2 2:4 3:5 4:1 3:6 4:7
4:0 3:7 4:6 2:15 4:2 2:4 3:5 4:1 3:6 4:7 3:3
3:0 4:6 2:15 4:2 2:4 3:5 4:1 3:6 4:7 3:3 4:5
4:0 2:15 4:2 2:4 3:5 4:1 3:6 4:7 3:3 4:5 3:9
2:0 4:2 2:4 3:5 4:1 3:6 4:7 3:3 4:5 3:9 4:1
4:0 2:4 3:5 4:1 3:6 4:7 3:3 4:5 3:9 4:1 3:10
2:0 3:5 4:1 3:6 4:7 3:3 4:5 3:9 4:1 3:10 4:1
3:0 4:1 3:6 4:7 3:3 4:5 3:9 4:1 3:10 4:1 2:3
4:0 3:6 4:7 3:3 4:5 3:9 4:1 3:10 4:1 2:3 3:1
3:0 4:7 3:3 4:5 3:9 4:1 3:10 4:1 2:3 3:1 4:2
4:0 3:3 4:5 3:9 4:1 3:10 4:1 2:3 3:1 4:2 2:7
3:0 4:5 3:9 4:1 3:10 4:1 2:3 3:1 4:2 2:7 3:4
4:0 3:9 4:1 3:10 4:1 2:3 3:1 4:2 2:7 3:4 2:1
3:0 4:1 3:10 4:1 2:3 3:1 4:2 2:7 3:4 2:1 4:1
4:0 3:10 4:1 2:3 3:1 4:2 2:7 3:4 2:1 4:1 2:4
3:0 4:1 2:3 3:1 4:2 2:7 3:4 2:1 4:1 2:4 3:5
4:0 2:3 3:1 4:2 2:7 3:4 2:1 4:1 2:4 3:5 4:1
2:0 3:1 4:2 2:7 3:4 2:1 4:1 2:4 3:5 4:1 2:16
3:0 4:2 2:7 3:4 2:1 4:1 2:4 3:5 4:1 2:16 4:8
4:0 2:7 3:4 2:1 4:1 2:4 3:5 4:1 2:16 4:8 3:7
2:0 3:4 2:1 4:1 2:4 3:5 4:1 2:16 4:8 3:7 4:4
3:0 2:1 4:1 2:4 3:5 4:1 2:16 4:8 3:7 4:4 3:4
2:0 4:1 2:4 3:5 4:1 2:16 4:8 3:7 4:4 3:4 4:2
4:0 2:4 3:5 4:1 2:16 4:8 3:7 4:4 3:4 4:2 3:1
2:0 3:5 4:1 2:16 4:8 3:7 4:4 3:4 4:2 3:1 4:3
3:0 4:1 2:16 4:8 3:7 4:4 3:4 4:2 3:1 4:3 3:15
4:0 2:16 4:8 3:7 4:4 3:4 4:2 3:1 4:3 3:15 4:1
2:0 4:8 3:7 4:4 3:4 4:2 3:1 4:3 3:15 4:1 3:6
4:0 3:7 4:4 3:4 4:2 3:1 4:3 3:15 4:1 3:6 4:2
3:0 4:4 3:4 4:2 3:1 4:3 3:15 4:1 3:6 4:2 3:1
4:0 3:4 4:2 3:1 4:3 3:15 4:1 3:6 4:2 3:1 2:1
3:0 4:2 3:1 4:3 3:15 4:1 3:6 4:2 3:1 2:1 4:1
4:0 3:1 4:3 3:15 4:1 3:6 4:2 3:1 2:1 4:1 2:7
3:0 4:3 3:15 4:1 3:6 4:2 3:1 2:1 4:1 2:7 3:3
4:0 3:15 4:1 3:6 4:2 3:1 2:1 4:1 2:7 3:3 2:1
3:0 4:1 3:6 4:2 3:1 2:1 4:1 2:7 3:3 2:1 4:2
4:0 3:6 4:2 3:1 2:1 4:1 2:7 3:3 2:1 4:2 2:3
3:0 4:2 3:1 2:1 4:1 2:7 3:3 2:1 4:2 2:3 3:8
4:0 3:1 2:1 4:1 2:7 3:3 2:1 4:2 2:3 3:8 4:1
3:0 2:1 4:1 2:7 3:3 2:1 4:2 2:3 3:8 4:1 3:6
2:0 4:1 2:7 3:3 2:1 4:2 2:3 3:8 4:1 3:6 4:1
4:0 2:7 3:3 2:1 4:2 2:3 3:8 4:1 3:6 4:1 3:9
2:0 3:3 2:1 4:2 2:3 3:8 4:1 3:6 4:1 3:9 4:6
3:0 2:1 4:2 2:3 3:8 4:1 3:6 4:1 3:9 4:6 2:14
2:0 4:2 2:3 3:8 4:1 3:6 4:1 3:9 4:6 2:14 3:1
4:0 2:3 3:8 4:1 3:6 4:1 3:9 4:6 2:14 3:1 4:1
2:0 3:8 4:1 3:6 4:1 3:9 4:6 2:14 3:1 4:1 2:2
3:0 4:1 3:6 4:1 3:9 4:6 2:14 3:1 4:1 2:2 4:2
4:0 3:6 4:1 3:9 4:6 2:14 3:1 4:1 2:2 4:2 2:3
3:0 4:1 3:9 4:6 2:14 3:1 4:1 2:2 4:2 2:3 3:1
4:0 3:9 4:6 2:14 3:1 4:1 2:2 4:2 2:3 3:1 4:2
3:0 4:6 2:14 3:1 4:1 2:2 4:2 2:3 3:1 4:2 3:6
4:0 2:14 3:1 4:1 2:2 4:2 2:3 3:1 4:2 3:6 4:4
2:0 3:1 4:1 2:2 4:2 2:3 3:1 4:2 3:6 4:4 3:6
3:0 4:1 2:2 4:2 2:3 3:1 4:2 3:6 4:4 3:6 4:8
4:0 2:2 4:2 2:3 3:1 4:2 3:6 4:4 3:6 4:8 2:15
2:0 4:2 2:3 3:1 4:2 3:6 4:4 3:6 4:8 2:15 4:8
4:0 2:3 3:1 4:2 3:6 4:4 3:6 4:8 2:15 4:8 3:7
2:0 3:1 4:2 3:6 4:4 3:6 4:8 2:15 4:8 3:7 4:4
3:0 4:2 3:6 4:4 3:6 4:8 2:15 4:8 3:7 4:4 3:5
4:0 3:6 4:4 3:6 4:8 2:15 4:8 3:7 4:4 3:5 4:4
3:0 4:4 3:6 4:8 2:15 4:8 3:7 4:4 3:5 4:4 3:23
4:0 3:6 4:8 2:15 4:8 3:7 4:4 3:5 4:4 3:23 4:1
3:0 4:8 2:15 4:8 3:7 4:4 3:5 4:4 3:23 4:1 3:1
4:0 2:15 4:8 3:7 4:4 3:5 4:4 3:23 4:1 3:1 2:1
2:0 4:8 3:7 4:4 3:5 4:4 3:23 4:1 3:1 2:1 3:2
4:0 3:7 4:4 3:5 4:4 3:23 4:1 3:1 2:1 3:2 4:1
3:0 4:4 3:5 4:4 3:23 4:1 3:1 2:1 3:2 4:1 2:5
4:0 3:5 4:4 3:23 4:1 3:1 2:1 3:2 4:1 2:5 4:6
3:0 4:4 3:23 4:1 3:1 2:1 3:2 4:1 2:5 4:6 2:4
4:0 3:23 4:1 3:1 2:1 3:2 4:1 2:5 4:6 2:4 4:7
3:0 4:1 3:1 2:1 3:2 4:1 2:5 4:6 2:4 4:7 3:15
4:0 3:1 2:1 3:2 4:1 2:5 4:6 2:4 4:7 3:15 2:1
3:0 2:1 3:2 4:1 2:5 4:6 2:4 4:7 3:15 2:1 4:1
2:0 3:2 4:1 2:5 4:6 2:4 4:7 3:15 2:1 4:1 2:1
3:0 4:1 2:5 4:6 2:4 4:7 3:15 2:1 4:1 2:1 4:2
4:0 2:5 4:6 2:4 4:7 3:15 2:1 4:1 2:1 4:2 2:3
2:0 4:6 2:4 4:7 3:15 2:1 4:1 2:1 4:2 2:3 3:1
4:0 2:4 4:7 3:15 2:1 4:1 2:1 4:2 2:3 3:1 4:3
2:0 4:7 3:15 2:1 4:1 2:1 4:2 2:3 3:1 4:3 3:5
4:0 3:15 2:1 4:1 2:1 4:2 2:3 3:1 4:3 3:5 4:5
3:0 2:1 4:1 2:1 4:2 2:3 3:1 4:3 3:5 4:5 3:5
2:0 4:1 2:1 4:2 2:3 3:1 4:3 3:5 4:5 3:5 4:7
4:0 2:1 4:2 2:3 3:1 4:3 3:5 4:5 3:5 4:7 2:15
2:0 4:2 2:3 3:1 4:3 3:5 4:5 3:5 4:7 2:15 3:7
4:0 2:3 3:1 4:3 3:5 4:5 3:5 4:7 2:15 3:7 4:1
2:0 3:1 4:3 3:5 4:5 3:5 4:7 2:15 3:7 4:1 3:15
3:0 4:3 3:5 4:5 3:5 4:7 2:15 3:7 4:1 3:15 4:7
4:0 3:5 4:5 3:5 4:7 2:15 3:7 4:1 3:15 4:7 3:16
3:0 4:5 3:5 4:7 2:15 3:7 4:1 3:15 4:7 3:16 2:1
4:0 3:5 4:7 2:15 3:7 4:1 3:15 4:7 3:16 2:1 4:1
3:0 4:7 2:15 3:7 4:1 3:15 4:7 3:16 2:1 4:1 2:3
4:0 2:15 3:7 4:1 3:15 4:7 3:16 2:1 4:1 2:3 3:6
2:0 3:7 4:1 3:15 4:7 3:16 2:1 4:1 2:3 3:6 4:1
3:0 4:1 3:15 4:7 3:16 2:1 4:1 2:3 3:6 4:1 2:7
4:0 3:15 4:7 3:16 2:1 4:1 2:3 3:6 4:1 2:7 3:1
3:0 4:7 3:16 2:1 4:1 2:3 3:6 4:1 2:7 3:1 4:3
4:0 3:16 2:1 4:1 2:3 3:6 4:1 2:7 3:1 4:3 3:3
3:0 2:1 4:1 2:3 3:6 4:1 2:7 3:1 4:3 3:3 4:6
2:0 4:1 2:3 3:6 4:1 2:7 3:1 4:3 3:3 4:6 3:10
4:0 2:3 3:6 4:1 2:7 3:1 4:3 3:3 4:6 3:10 4:1
2:0 3:6 4:1 2:7 3:1 4:3 3:3 4:6 3:10 4:1 3:10
3:0 4:1 2:7 3:1 4:3 3:3 4:6 3:10 4:1 3:10 4:2
4:0 2:7 3:1 4:3 3:3 4:6 3:10 4:1 3:10 4:2 3:3
2:0 3:1 4:3 3:3 4:6 3:10 4:1 3:10 4:2 3:3 4:4
3:0 4:3 3:3 4:6 3:10 4:1 3:10 4:2 3:3 4:4 2:4
4:0 3:3 4:6 3:10 4:1 3:10 4:2 3:3 4:4 2:4 3:5
3:0 4:6 3:10 4:1 3:10 4:2 3:3 4:4 2:4 3:5 4:1
4:0 3:10 4:1 3:10 4:2 3:3 4:4 2:4 3:5 4:1 2:4
3:0 4:1 3:10 4:2 3:3 4:4 2:4 3:5 4:1 2:4 3:6
4:0 3:10 4:2 3:3 4:4 2:4 3:5 4:1 2:4 3:6 4:1
3:0 4:2 3:3 4:4 2:4 3:5 4:1 2:4 3:6 4:1 2:15
4:0 3:3 4:4 2:4 3:5 4:1 2:4 3:6 4:1 2:15 3:8
3:0 4:4 2:4 3:5 4:1 2:4 3:6 4:1 2:15 3:8 4:1
4:0 2:4 3:5 4:1 2:4 3:6 4:1 2:15 3:8 4:1 3:6
2:0 3:5 4:1 2:4 3:6 4:1 2:15 3:8 4:1 3:6 4:4
3:0 4:1 2:4 3:6 4:1 2:15 3:8 4:1 3:6 4:4 3:5
4:0 2:4 3:6 4:1 2:15 3:8 4:1 3:6 4:4 3:5 4:4
2:0 3:6 4:1 2:15 3:8 4:1 3:6 4:4 3:5 4:4 3:3
3:0 4:1 2:15 3:8 4:1 3:6 4:4 3:5 4:4 3:3 4:1
4:0 2:15 3:8 4:1 3:6 4:4 3:5 4:4 3:3 4:1 2:14
2:0 3:8 4:1 3:6 4:4 3:5 4:4 3:3 4:1 2:14 4:2
3:0 4:1 3:6 4:4 3:5 4:4 3:3 4:1 2:14 4:2 2:3
4:0 3:6 4:4 3:5 4:4 3:3 4:1 2:14 4:2 2:3 3:5
3:0 4:4 3:5 4:4 3:3 4:1 2:14 4:2 2:3 3:5 4:2
4:0 3:5 4:4 3:3 4:1 2:14 4:2 2:3 3:5 4:2 3:6
3:0 4:4 3:3 4:1 2:14 4:2 2:3 3:5 4:2 3:6 4:5
4:0 3:3 4:1 2:14 4:2 2:3 3:5 4:2 3:6 4:5 3:3
3:0 4:1 2:14 4:2 2:3 3:5 4:2 3:6 4:5 3:3 4:7
4:0 2:14 4:2 2:3 3:5 4:2 3:6 4:5 3:3 4:7 2:25
2:0 4:2 2:3 3:5 4:2 3:6 4:5 3:3 4:7 2:25 3:1
4:0 2:3 3:5 4:2 3:6 4:5 3:3 4:7 2:25 3:1 4:1
2:0 3:5 4:2 3:6 4:5 3:3 4:7 2:25 3:1 4:1 2:7
3:0 4:2 3:6 4:5 3:3 4:7 2:25 3:1 4:1 2:7 4:4
4:0 3:6 4:5 3:3 4:7 2:25 3:1 4:1 2:7 4:4 2:6
3:0 4:5 3:3 4:7 2:25 3:1 4:1 2:7 4:4 2:6 3:6
4:0 3:3 4:7 2:25 3:1 4:1 2:7 4:4 2:6 3:6 4:1
3:0 4:7 2:25 3:1 4:1 2:7 4:4 2:6 3:6 4:1 3:15
4:0 2:25 3:1 4:1 2:7 4:4 2:6 3:6 4:1 3:15 4:7
2:0 3:1 4:1 2:7 4:4 2:6 3:6 4:1 3:15 4:7 3:14
3:0 4:1 2:7 4:4 2:6 3:6 4:1 3:15 4:7 3:14 2:1
4:0 2:7 4:4 2:6 3:6 4:1 3:15 4:7 3:14 2:1 4:2
2:0 4:4 2:6 3:6 4:1 3:15 4:7 3:14 2:1 4:2 2:1
4:0 2:6 3:6 4:1 3:15 4:7 3:14 2:1 4:2 2:1 4:2
2:0 3:6 4:1 3:15 4:7 3:14 2:1 4:2 2:1 4:2 2:2
3:0 4:1 3:15 4:7 3:14 2:1 4:2 2:1 4:2 2:2 3:2
4:0 3:15 4:7 3:14 2:1 4:2 2:1 4:2 2:2 3:2 4:3
3:0 4:7 3:14 2:1 4:2 2:1 4:2 2:2 3:2 4:3 3:5
4:0 3:14 2:1 4:2 2:1 4:2 2:2 3:2 4:3 3:5 4:4
3:0 2:1 4:2 2:1 4:2 2:2 3:2 4:3 3:5 4:4 3:1
2:0 4:2 2:1 4:2 2:2 3:2 4:3 3:5 4:4 3:1 4:1
4:0 2:1 4:2 2:2 3:2 4:3 3:5 4:4 3:1 4:1 3:5
2:0 4:2 2:2 3:2 4:3 3:5 4:4 3:1 4:1 3:5 4:4
4:0 2:2 3:2 4:3 3:5 4:4 3:1 4:1 3:5 4:4 3:8
2:0 3:2 4:3 3:5 4:4 3:1 4:1 3:5 4:4 3:8 2:4
3:0 4:3 3:5 4:4 3:1 4:1 3:5 4:4 3:8 2:4 4:1
4:0 3:5 4:4 3:1 4:1 3:5 4:4 3:8 2:4 4:1 2:4
3:0 4:4 3:1 4:1 3:5 4:4 3:8 2:4 4:1 2:4 4:9
4:0 3:1 4:1 3:5 4:4 3:8 2:4 4:1 2:4 4:9 3:5
3:0 4:1 3:5 4:4 3:8 2:4 4:1 2:4 4:9 3:5 4:4
4:0 3:5 4:4 3:8 2:4 4:1 2:4 4:9 3:5 4:4 3:4
3:0 4:4 3:8 2:4 4:1 2:4 4:9 3:5 4:4 3:4 4:6
4:0 3:8 2:4 4:1 2:4 4:9 3:5 4:4 3:4 4:6 3:3
3:0 2:4 4:1 2:4 4:9 3:5 4:4 3:4 4:6 3:3 4:3
2:0 4:1 2:4 4:9 3:5 4:4 3:4 4:6 3:3 4:3 2:16
4:0 2:4 4:9 3:5 4:4 3:4 4:6 3:3 4:3 2:16 3:7
2:0 4:9 3:5 4:4 3:4 4:6 3:3 4:3 2:16 3:7 4:1
4:0 3:5 4:4 3:4 4:6 3:3 4:3 2:16 3:7 4:1 3:5
3:0 4:4 3:4 4:6 3:3 4:3 2:16 3:7 4:1 3:5 4:6
4:0 3:4 4:6 3:3 4:3 2:16 3:7 4:1 3:5 4:6 3:3
3:0 4:6 3:3 4:3 2:16 3:7 4:1 3:5 4:6 3:3 4:4
4:0 3:3 4:3 2:16 3:7 4:1 3:5 4:6 3:3 4:4 2:14
3:0 4:3 2:16 3:7 4:1 3:5 4:6 3:3 4:4 2:14 3:2
4:0 2:16 3:7 4:1 3:5 4:6 3:3 4:4 2:14 3:2 2:1
2:0 3:7 4:1 3:5 4:6 3:3 4:4 2:14 3:2 2:1 4:3
3:0 4:1 3:5 4:6 3:3 4:4 2:14 3:2 2:1 4:3 2:4
4:0 3:5 4:6 3:3 4:4 2:14 3:2 2:1 4:3 2:4 3:5
3:0 4:6 3:3 4:4 2:14 3:2 2:1 4:3 2:4 3:5 4:1
4:0 3:3 4:4 2:14 3:2 2:1 4:3 2:4 3:5 4:1 3:6
3:0 4:4 2:14 3:2 2:1 4:3 2:4 3:5 4:1 3:6 4:1
4:0 2:14 3:2 2:1 4:3 2:4 3:5 4:1 3:6 4:1 3:9
2:0 3:2 2:1 4:3 2:4 3:5 4:1 3:6 4:1 3:9 4:1
3:0 2:1 4:3 2:4 3:5 4:1 3:6 4:1 3:9 4:1 3:1
2:0 4:3 2:4 3:5 4:1 3:6 4:1 3:9 4:1 3:1 4:4
4:0 2:4 3:5 4:1 3:6 4:1 3:9 4:1 3:1 4:4 3:14
2:0 3:5 4:1 3:6 4:1 3:9 4:1 3:1 4:4 3:14 4:1
3:0 4:1 3:6 4:1 3:9 4:1 3:1 4:4 3:14 4:1 2:2
4:0 3:6 4:1 3:9 4:1 3:1 4:4 3:14 4:1 2:2 4:3
3:0 4:1 3:9 4:1 3:1 4:4 3:14 4:1 2:2 4:3 3:3
4:0 3:9 4:1 3:1 4:4 3:14 4:1 2:2 4:3 3:3 4:4
3:0 4:1 3:1 4:4 3:14 4:1 2:2 4:3 3:3 4:4 3:15
4:0 3:1 4:4 3:14 4:1 2:2 4:3 3:3 4:4 3:15 4:7
3:0 4:4 3:14 4:1 2:2 4:3 3:3 4:4 3:15 4:7 2:15
4:0 3:14 4:1 2:2 4:3 3:3 4:4 3:15 4:7 2:15 4:1
3:0 4:1 2:2 4:3 3:3 4:4 3:15 4:7 2:15 4:1 2:1
4:0 2:2 4:3 3:3 4:4 3:15 4:7 2:15 4:1 2:1 4:5
2:0 4:3 3:3 4:4 3:15 4:7 2:15 4:1 2:1 4:5 3:3
4:0 3:3 4:4 3:15 4:7 2:15 4:1 2:1 4:5 3:3 4:2
3:0 4:4 3:15 4:7 2:15 4:1 2:1 4:5 3:3 4:2 3:15
4:0 3:15 4:7 2:15 4:1 2:1 4:5 3:3 4:2 3:15 4:6
3:0 4:7 2:15 4:1 2:1 4:5 3:3 4:2 3:15 4:6 2:16
4:0 2:15 4:1 2:1 4:5 3:3 4:2 3:15 4:6 2:16 4:7
2:0 4:1 2:1 4:5 3:3 4:2 3:15 4:6 2:16 4:7 3:7
4:0 2:1 4:5 3:3 4:2 3:15 4:6 2:16 4:7 3:7 4:4
2:0 4:5 3:3 4:2 3:15 4:6 2:16 4:7 3:7 4:4 3:4
4:0 3:3 4:2 3:15 4:6 2:16 4:7 3:7 4:4 3:4 4:2
3:0 4:2 3:15 4:6 2:16 4:7 3:7 4:4 3:4 4:2 3:2
4:0 3:15 4:6 2:16 4:7 3:7 4:4 3:4 4:2 3:2 4:1
3:0 4:6 2:16 4:7 3:7 4:4 3:4 4:2 3:2 4:1 3:4
4:0 2:16 4:7 3:7 4:4 3:4 4:2 3:2 4:1 3:4 4:1
2:0 4:7 3:7 4:4 3:4 4:2 3:2 4:1 3:4 4:1 2:20
4:0 3:7 4:4 3:4 4:2 3:2 4:1 3:4 4:1 2:20 3:3
3:0 4:4 3:4 4:2 3:2 4:1 3:4 4:1 2:20 3:3 4:1
4:0 3:4 4:2 3:2 4:1 3:4 4:1 2:20 3:3 4:1 2:5
3:0 4:2 3:2 4:1 3:4 4:1 2:20 3:3 4:1 2:5 4:5
4:0 3:2 4:1 3:4 4:1 2:20 3:3 4:1 2:5 4:5 3:4
3:0 4:1 3:4 4:1 2:20 3:3 4:1 2:5 4:5 3:4 4:3
4:0 3:4 4:1 2:20 3:3 4:1 2:5 4:5 3:4 4:3 2:1
3:0 4:1 2:20 3:3 4:1 2:5 4:5 3:4 4:3 2:1 4:2
4:0 2:20 3:3 4:1 2:5 4:5 3:4 4:3 2:1 4:2 3:4
2:0 3:3 4:1 2:5 4:5 3:4 4:3 2:1 4:2 3:4 4:1
3:0 4:1 2:5 4:5 3:4 4:3 2:1 4:2 3:4 4:1 3:9
4:0 2:5 4:5 3:4 4:3 2:1 4:2 3:4 4:1 3:9 2:2
2:0 4:5 3:4 4:3 2:1 4:2 3:4 4:1 3:9 2:2 4:5
4:0 3:4 4:3 2:1 4:2 3:4 4:1 3:9 2:2 4:5 2:3
3:0 4:3 2:1 4:2 3:4 4:1 3:9 2:2 4:5 2:3 3:5
4:0 2:1 4:2 3:4 4:1 3:9 2:2 4:5 2:3 3:5 4:1
2:0 4:2 3:4 4:1 3:9 2:2 4:5 2:3 3:5 4:1 3:5
4:0 3:4 4:1 3:9 2:2 4:5 2:3 3:5 4:1 3:5 4:2
3:0 4:1 3:9 2:2 4:5 2:3 3:5 4:1 3:5 4:2 3:1
4:0 3:9 2:2 4:5 2:3 3:5 4:1 3:5 4:2 3:1 4:4
3:0 2:2 4:5 2:3 3:5 4:1 3:5 4:2 3:1 4:4 3:3
2:0 4:5 2:3 3:5 4:1 3:5 4:2 3:1 4:4 3:3 4:1
4:0 2:3 3:5 4:1 3:5 4:2 3:1 4:4 3:3 4:1 2:1
2:0 3:5 4:1 3:5 4:2 3:1 4:4 3:3 4:1 2:1 3:1
3:0 4:1 3:5 4:2 3:1 4:4 3:3 4:1 2:1 3:1 4:3
4:0 3:5 4:2 3:1 4:4 3:3 4:1 2:1 3:1 4:3 5:4
3:0 4:2 3:1 4:4 3:3 4:1 2:1 3:1 4:3 5:4 4:1
4:0 3:1 4:4 3:3 4:1 2:1 3:1 4:3 5:4 4:1 3:1
3:0 4:4 3:3 4:1 2:1 3:1 4:3 5:4 4:1 3:1 2:2
4:0 3:3 4:1 2:1 3:1 4:3 5:4 4:1 3:1 2:2 4:4
3:0 4:1 2:1 3:1 4:3 5:4 4:1 3:1 2:2 4:4 2:4
4:0 2:1 3:1 4:3 5:4 4:1 3:1 2:2 4:4 2:4 4:6
2:0 3:1 4:3 5:4 4:1 3:1 2:2 4:4 2:4 4:6 3:7
3:0 4:3 5:4 4:1 3:1 2:2 4:4 2:4 4:6 3:7 4:1
4:0 5:4 4:1 3:1 2:2 4:4 2:4 4:6 3:7 4:1 3:3
5:0 4:1 3:1 2:2 4:4 2:4 4:6 3:7 4:1 3:3 4:2
4:0 3:1 2:2 4:4 2:4 4:6 3:7 4:1 3:3 4:2 3:4
3:0 2:2 4:4 2:4 4:6 3:7 4:1 3:3 4:2 3:4 4:1
2:0 4:4 2:4 4:6 3:7 4:1 3:3 4:2 3:4 4:1 3:4
4:0 2:4 4:6 3:7 4:1 3:3 4:2 3:4 4:1 3:4 4:6
2:0 4:6 3:7 4:1 3:3 4:2 3:4 4:1 3:4 4:6 2:13
4:0 3:7 4:1 3:3 4:2 3:4 4:1 3:4 4:6 2:13 3:1
3:0 4:1 3:3 4:2 3:4 4:1 3:4 4:6 2:13 3:1 2:1
4:0 3:3 4:2 3:4 4:1 3:4 4:6 2:13 3:1 2:1 4:5
3:0 4:2 3:4 4:1 3:4 4:6 2:13 3:1 2:1 4:5 3:5
4:0 3:4 4:1 3:4 4:6 2:13 3:1 2:1 4:5 3:5 4:2
3:0 4:1 3:4 4:6 2:13 3:1 2:1 4:5 3:5 4:2 3:5
4:0 3:4 4:6 2:13 3:1 2:1 4:5 3:5 4:2 3:5 4:7
3:0 4:6 2:13 3:1 2:1 4:5 3:5 4:2 3:5 4:7 3:3
4:0 2:13 3:1 2:1 4:5 3:5 4:2 3:5 4:7 3:3 4:2
2:0 3:1 2:1 4:5 3:5 4:2 3:5 4:7 3:3 4:2 3:11
3:0 2:1 4:5 3:5 4:2 3:5 4:7 3:3 4:2 3:11 4:1
2:0 4:5 3:5 4:2 3:5 4:7 3:3 4:2 3:11 4:1 3:12
4:0 3:5 4:2 3:5 4:7 3:3 4:2 3:11 4:1 3:12 4:1
3:0 4:2 3:5 4:7 3:3 4:2 3:11 4:1 3:12 4:1 3:1
4:0 3:5 4:7 3:3 4:2 3:11 4:1 3:12 4:1 3:1 4:1
3:0 4:7 3:3 4:2 3:11 4:1 3:12 4:1 3:1 4:1 3:5
4:0 3:3 4:2 3:11 4:1 3:12 4:1 3:1 4:1 3:5 4:3
3:0 4:2 3:11 4:1 3:12 4:1 3:1 4:1 3:5 4:3 2:1
4:0 3:11 4:1 3:12 4:1 3:1 4:1 3:5 4:3 2:1 4:2
3:0 4:1 3:12 4:1 3:1 4:1 3:5 4:3 2:1 4:2 2:3
4:0 3:12 4:1 3:1 4:1 3:5 4:3 2:1 4:2 2:3 4:9
3:0 4:1 3:1 4:1 3:5 4:3 2:1 4:2 2:3 4:9 3:8
4:0 3:1 4:1 3:5 4:3 2:1 4:2 2:3 4:9 3:8 4:1
3:0 4:1 3:5 4:3 2:1 4:2 2:3 4:9 3:8 4:1 3:10
4:0 3:5 4:3 2:1 4:2 2:3 4:9 3:8 4:1 3:10 4:1
3:0 4:3 2:1 4:2 2:3 4:9 3:8 4:1 3:10 4:1 3:3
4:0 2:1 4:2 2:3 4:9 3:8 4:1 3:10 4:1 3:3 4:3
2:0 4:2 2:3 4:9 3:8 4:1 3:10 4:1 3:3 4:3 3:11
4:0 2:3 4:9 3:8 4:1 3:10 4:1 3:3 4:3 3:11 4:1
2:0 4:9 3:8 4:1 3:10 4:1 3:3 4:3 3:11 4:1 2:3
4:0 3:8 4:1 3:10 4:1 3:3 4:3 3:11 4:1 2:3 4:8
3:0 4:1 3:10 4:1 3:3 4:3 3:11 4:1 2:3 4:8 3:5
4:0 3:10 4:1 3:3 4:3 3:11 4:1 2:3 4:8 3:5 4:5
3:0 4:1 3:3 4:3 3:11 4:1 2:3 4:8 3:5 4:5 3:5
4:0 3:3 4:3 3:11 4:1 2:3 4:8 3:5 4:5 3:5 4:7
3:0 4:3 3:11 4:1 2:3 4:8 3:5 4:5 3:5 4:7 3:15
4:0 3:11 4:1 2:3 4:8 3:5 4:5 3:5 4:7 3:15 4:2
3:0 4:1 2:3 4:8 3:5 4:5 3:5 4:7 3:15 4:2 2:4
4:0 2:3 4:8 3:5 4:5 3:5 4:7 3:15 4:2 2:4 3:5
2:0 4:8 3:5 4:5 3:5 4:7 3:15 4:2 2:4 3:5 4:2
4:0 3:5 4:5 3:5 4:7 3:15 4:2 2:4 3:5 4:2 3:5
3:0 4:5 3:5 4:7 3:15 4:2 2:4 3:5 4:2 3:5 4:3
4:0 3:5 4:7 3:15 4:2 2:4 3:5 4:2 3:5 4:3 3:2
3:0 4:7 3:15 4:2 2:4 3:5 4:2 3:5 4:3 3:2 4:1
4:0 3:15 4:2 2:4 3:5 4:2 3:5 4:3 3:2 4:1 3:4
3:0 4:2 2:4 3:5 4:2 3:5 4:3 3:2 4:1 3:4 4:7
4:0 2:4 3:5 4:2 3:5 4:3 3:2 4:1 3:4 4:7 2:14
2:0 3:5 4:2 3:5 4:3 3:2 4:1 3:4 4:7 2:14 4:2
3:0 4:2 3:5 4:3 3:2 4:1 3:4 4:7 2:14 4:2 2:1
4:0 3:5 4:3 3:2 4:1 3:4 4:7 2:14 4:2 2:1 4:3
3:0 4:3 3:2 4:1 3:4 4:7 2:14 4:2 2:1 4:3 3:3
4:0 3:2 4:1 3:4 4:7 2:14 4:2 2:1 4:3 3:3 4:3
3:0 4:1 3:4 4:7 2:14 4:2 2:1 4:3 3:3 4:3 3:12
4:0 3:4 4:7 2:14 4:2 2:1 4:3 3:3 4:3 3:12 4:2
3:0 4:7 2:14 4:2 2:1 4:3 3:3 4:3 3:12 4:2 3:3
4:0 2:14 4:2 2:1 4:3 3:3 4:3 3:12 4:2 3:3 4:6
2:0 4:2 2:1 4:3 3:3 4:3 3:12 4:2 3:3 4:6 2:16
4:0 2:1 4:3 3:3 4:3 3:12 4:2 3:3 4:6 2:16 4:7
2:0 4:3 3:3 4:3 3:12 4:2 3:3 4:6 2:16 4:7 3:6
4:0 3:3 4:3 3:12 4:2 3:3 4:6 2:16 4:7 3:6 4:6
3:0 4:3 3:12 4:2 3:3 4:6 2:16 4:7 3:6 4:6 3:4
4:0 3:12 4:2 3:3 4:6 2:16 4:7 3:6 4:6 3:4 4:6
3:0 4:2 3:3 4:6 2:16 4:7 3:6 4:6 3:4 4:6 3:8
4:0 3:3 4:6 2:16 4:7 3:6 4:6 3:4 4:6 3:8 2:1
3:0 4:6 2:16 4:7 3:6 4:6 3:4 4:6 3:8 2:1 4:1
4:0 2:16 4:7 3:6 4:6 3:4 4:6 3:8 2:1 4:1 2:4
2:0 4:7 3:6 4:6 3:4 4:6 3:8 2:1 4:1 2:4 4:4
4:0 3:6 4:6 3:4 4:6 3:8 2:1 4:1 2:4 4:4 2:4
3:0 4:6 3:4 4:6 3:8 2:1 4:1 2:4 4:4 2:4 3:2
4:0 3:4 4:6 3:8 2:1 4:1 2:4 4:4 2:4 3:2 4:4
3:0 4:6 3:8 2:1 4:1 2:4 4:4 2:4 3:2 4:4 2:11
4:0 3:8 2:1 4:1 2:4 4:4 2:4 3:2 4:4 2:11 4:1
3:0 2:1 4:1 2:4 4:4 2:4 3:2 4:4 2:11 4:1 2:3
2:0 4:1 2:4 4:4 2:4 3:2 4:4 2:11 4:1 2:3 3:7
4:0 2:4 4:4 2:4 3:2 4:4 2:11 4:1 2:3 3:7 4:1
2:0 4:4 2:4 3:2 4:4 2:11 4:1 2:3 3:7 4:1 3:5
4:0 2:4 3:2 4:4 2:11 4:1 2:3 3:7 4:1 3:5 4:1
2:0 3:2 4:4 2:11 4:1 2:3 3:7 4:1 3:5 4:1 3:1
3:0 4:4 2:11 4:1 2:3 3:7 4:1 3:5 4:1 3:1 4:4
4:0 2:11 4:1 2:3 3:7 4:1 3:5 4:1 3:1 4:4 3:5
2:0 4:1 2:3 3:7 4:1 3:5 4:1 3:1 4:4 3:5 4:1
4:0 2:3 3:7 4:1 3:5 4:1 3:1 4:4 3:5 4:1 3:2
2:0 3:7 4:1 3:5 4:1 3:1 4:4 3:5 4:1 3:2 4:1
3:0 4:1 3:5 4:1 3:1 4:4 3:5 4:1 3:2 4:1 3:22
4:0 3:5 4:1 3:1 4:4 3:5 4:1 3:2 4:1 3:22 4:3
3:0 4:1 3:1 4:4 3:5 4:1 3:2 4:1 3:22 4:3 3:1
4:0 3:1 4:4 3:5 4:1 3:2 4:1 3:22 4:3 3:1 4:2
3:0 4:4 3:5 4:1 3:2 4:1 3:22 4:3 3:1 4:2 3:6
4:0 3:5 4:1 3:2 4:1 3:22 4:3 3:1 4:2 3:6 4:1
3:0 4:1 3:2 4:1 3:22 4:3 3:1 4:2 3:6 4:1 2:1
4:0 3:2 4:1 3:22 4:3 3:1 4:2 3:6 4:1 2:1 4:5
3:0 4:1 3:22 4:3 3:1 4:2 3:6 4:1 2:1 4:5 2:3
4:0 3:22 4:3 3:1 4:2 3:6 4:1 2:1 4:5 2:3 4:8
3:0 4:3 3:1 4:2 3:6 4:1 2:1 4:5 2:3 4:8 3:5
4:0 3:1 4:2 3:6 4:1 2:1 4:5 2:3 4:8 3:5 4:2
3:0 4:2 3:6 4:1 2:1 4:5 2:3 4:8 3:5 4:2 3:7
4:0 3:6 4:1 2:1 4:5 2:3 4:8 3:5 4:2 3:7 4:8
3:0 4:1 2:1 4:5 2:3 4:8 3:5 4:2 3:7 4:8 3:14
4:0 2:1 4:5 2:3 4:8 3:5 4:2 3:7 4:8 3:14 2:1
2:0 4:5 2:3 4:8 3:5 4:2 3:7 4:8 3:14 2:1 4:2
4:0 2:3 4:8 3:5 4:2 3:7 4:8 3:14 2:1 4:2 2:4
2:0 4:8 3:5 4:2 3:7 4:8 3:14 2:1 4:2 2:4 3:4
4:0 3:5 4:2 3:7 4:8 3:14 2:1 4:2 2:4 3:4 4:2
3:0 4:2 3:7 4:8 3:14 2:1 4:2 2:4 3:4 4:2 3:5
4:0 3:7 4:8 3:14 2:1 4:2 2:4 3:4 4:2 3:5 4:4
3:0 4:8 3:14 2:1 4:2 2:4 3:4 4:2 3:5 4:4 3:2
4:0 3:14 2:1 4:2 2:4 3:4 4:2 3:5 4:4 3:2 4:2
3:0 2:1 4:2 2:4 3:4 4:2 3:5 4:4 3:2 4:2 3:15
2:0 4:2 2:4 3:4 4:2 3:5 4:4 3:2 4:2 3:15 2:2
4:0 2:4 3:4 4:2 3:5 4:4 3:2 4:2 3:15 2:2 4:5
2:0 3:4 4:2 3:5 4:4 3:2 4:2 3:15 2:2 4:5 2:5
3:0 4:2 3:5 4:4 3:2 4:2 3:15 2:2 4:5 2:5 3:5
4:0 3:5 4:4 3:2 4:2 3:15 2:2 4:5 2:5 3:5 4:1
3:0 4:4 3:2 4:2 3:15 2:2 4:5 2:5 3:5 4:1 3:6
4:0 3:2 4:2 3:15 2:2 4:5 2:5 3:5 4:1 3:6 4:1
3:0 4:2 3:15 2:2 4:5 2:5 3:5 4:1 3:6 4:1 3:7
4:0 3:15 2:2 4:5 2:5 3:5 4:1 3:6 4:1 3:7 4:7
3:0 2:2 4:5 2:5 3:5 4:1 3:6 4:1 3:7 4:7 3:16
2:0 4:5 2:5 3:5 4:1 3:6 4:1 3:7 4:7 3:16 4:1
4:0 2:5 3:5 4:1 3:6 4:1 3:7 4:7 3:16 4:1 2:4
2:0 3:5 4:1 3:6 4:1 3:7 4:7 3:16 4:1 2:4 3:5
3:0 4:1 3:6 4:1 3:7 4:7 3:16 4:1 2:4 3:5 4:2
4:0 3:6 4:1 3:7 4:7 3:16 4:1 2:4 3:5 4:2 3:15
3:0 4:1 3:7 4:7 3:16 4:1 2:4 3:5 4:2 3:15 4:8
4:0 3:7 4:7 3:16 4:1 2:4 3:5 4:2 3:15 4:8 2:16
3:0 4:7 3:16 4:1 2:4 3:5 4:2 3:15 4:8 2:16 4:7
4:0 3:16 4:1 2:4 3:5 4:2 3:15 4:8 2:16 4:7 3:6
3:0 4:1 2:4 3:5 4:2 3:15 4:8 2:16 4:7 3:6 4:5
4:0 2:4 3:5 4:2 3:15 4:8 2:16 4:7 3:6 4:5 3:4
2:0 3:5 4:2 3:15 4:8 2:16 4:7 3:6 4:5 3:4 4:4
3:0 4:2 3:15 4:8 2:16 4:7 3:6 4:5 3:4 4:4 3:1
4:0 3:15 4:8 2:16 4:7 3:6 4:5 3:4 4:4 3:1 4:1
3:0 4:8 2:16 4:7 3:6 4:5 3:4 4:4 3:1 4:1 3:11
4:0 2:16 4:7 3:6 4:5 3:4 4:4 3:1 4:1 3:11 4:1
2:0 4:7 3:6 4:5 3:4 4:4 3:1 4:1 3:11 4:1 3:3
4:0 3:6 4:5 3:4 4:4 3:1 4:1 3:11 4:1 3:3 4:2
3:0 4:5 3:4 4:4 3:1 4:1 3:11 4:1 3:3 4:2 3:5
4:0 3:4 4:4 3:1 4:1 3:11 4:1 3:3 4:2 3:5 4:2
3:0 4:4 3:1 4:1 3:11 4:1 3:3 4:2 3:5 4:2 3:1
4:0 3:1 4:1 3:11 4:1 3:3 4:2 3:5 4:2 3:1 4:1
3:0 4:1 3:11 4:1 3:3 4:2 3:5 4:2 3:1 4:1 3:1
4:0 3:11 4:1 3:3 4:2 3:5 4:2 3:1 4:1 3:1 4:2
3:0 4:1 3:3 4:2 3:5 4:2 3:1 4:1 3:1 4:2 2:5
4:0 3:3 4:2 3:5 4:2 3:1 4:1 3:1 4:2 2:5 4:7
3:0 4:2 3:5 4:2 3:1 4:1 3:1 4:2 2:5 4:7 2:3
4:0 3:5 4:2 3:1 4:1 3:1 4:2 2:5 4:7 2:3 3:7
3:0 4:2 3:1 4:1 3:1 4:2 2:5 4:7 2:3 3:7 4:1
4:0 3:1 4:1 3:1 4:2 2:5 4:7 2:3 3:7 4:1 3:7
3:0 4:1 3:1 4:2 2:5 4:7 2:3 3:7 4:1 3:7 4:1
4:0 3:1 4:2 2:5 4:7 2:3 3:7 4:1 3:7 4:1 3:6
3:0 4:2 2:5 4:7 2:3 3:7 4:1 3:7 4:1 3:6 4:1
4:0 2:5 4:7 2:3 3:7 4:1 3:7 4:1 3:6 4:1 3:2
2:0 4:7 2:3 3:7 4:1 3:7 4:1 3:6 4:1 3:2 4:3
4:0 2:3 3:7 4:1 3:7 4:1 3:6 4:1 3:2 4:3 3:16
2:0 3:7 4:1 3:7 4:1 3:6 4:1 3:2 4:3 3:16 2:1
3:0 4:1 3:7 4:1 3:6 4:1 3:2 4:3 3:16 2:1 4:1
4:0 3:7 4:1 3:6 4:1 3:2 4:3 3:16 2:1 4:1 2:4
3:0 4:1 3:6 4:1 3:2 4:3 3:16 2:1 4:1 2:4 3:6
4:0 3:6 4:1 3:2 4:3 3:16 2:1 4:1 2:4 3:6 4:1
3:0 4:1 3:2 4:3 3:16 2:1 4:1 2:4 3:6 4:1 3:7
4:0 3:2 4:3 3:16 2:1 4:1 2:4 3:6 4:1 3:7 4:1
3:0 4:3 3:16 2:1 4:1 2:4 3:6 4:1 3:7 4:1 3:7
4:0 3:16 2:1 4:1 2:4 3:6 4:1 3:7 4:1 3:7 4:8
3:0 2:1 4:1 2:4 3:6 4:1 3:7 4:1 3:7 4:8 3:14
2:0 4:1 2:4 3:6 4:1 3:7 4:1 3:7 4:8 3:14 4:1
4:0 2:4 3:6 4:1 3:7 4:1 3:7 4:8 3:14 4:1 2:2
2:0 3:6 4:1 3:7 4:1 3:7 4:8 3:14 4:1 2:2 4:4
3:0 4:1 3:7 4:1 3:7 4:8 3:14 4:1 2:2 4:4 3:6
4:0 3:7 4:1 3:7 4:8 3:14 4:1 2:2 4:4 3:6 4:2
3:0 4:1 3:7 4:8 3:14 4:1 2:2 4:4 3:6 4:2 3:4
4:0 3:7 4:8 3:14 4:1 2:2 4:4 3:6 4:2 3:4 4:6
3:0 4:8 3:14 4:1 2:2 4:4 3:6 4:2 3:4 4:6 3:4
4:0 3:14 4:1 2:2 4:4 3:6 4:2 3:4 4:6 3:4 4:1
3:0 4:1 2:2 4:4 3:6 4:2 3:4 4:6 3:4 4:1 2:12
4:0 2:2 4:4 3:6 4:2 3:4 4:6 3:4 4:1 2:12 4:5
2:0 4:4 3:6 4:2 3:4 4:6 3:4 4:1 2:12 4:5 2:5
4:0 3:6 4:2 3:4 4:6 3:4 4:1 2:12 4:5 2:5 4:6
3:0 4:2 3:4 4:6 3:4 4:1 2:12 4:5 2:5 4:6 3:15
4:0 3:4 4:6 3:4 4:1 2:12 4:5 2:5 4:6 3:15 4:5
3:0 4:6 3:4 4:1 2:12 4:5 2:5 4:6 3:15 4:5 3:4
4:0 3:4 4:1 2:12 4:5 2:5 4:6 3:15 4:5 3:4 4:1
3:0 4:1 2:12 4:5 2:5 4:6 3:15 4:5 3:4 4:1 3:9
4:0 2:12 4:5 2:5 4:6 3:15 4:5 3:4 4:1 3:9 4:1
2:0 4:5 2:5 4:6 3:15 4:5 3:4 4:1 3:9 4:1 2:3
4:0 2:5 4:6 3:15 4:5 3:4 4:1 3:9 4:1 2:3 4:1
2:0 4:6 3:15 4:5 3:4 4:1 3:9 4:1 2:3 4:1 2:3
4:0 3:15 4:5 3:4 4:1 3:9 4:1 2:3 4:1 2:3 3:6
3:0 4:5 3:4 4:1 3:9 4:1 2:3 4:1 2:3 3:6 4:1
4:0 3:4 4:1 3:9 4:1 2:3 4:1 2:3 3:6 4:1 3:5
3:0 4:1 3:9 4:1 2:3 4:1 2:3 3:6 4:1 3:5 4:6
4:0 3:9 4:1 2:3 4:1 2:3 3:6 4:1 3:5 4:6 3:4
3:0 4:1 2:3 4:1 2:3 3:6 4:1 3:5 4:6 3:4 4:6
4:0 2:3 4:1 2:3 3:6 4:1 3:5 4:6 3:4 4:6 3:8
2:0 4:1 2:3 3:6 4:1 3:5 4:6 3:4 4:6 3:8 2:3
4:0 2:3 3:6 4:1 3:5 4:6 3:4 4:6 3:8 2:3 4:2
2:0 3:6 4:1 3:5 4:6 3:4 4:6 3:8 2:3 4:2 2:3
3:0 4:1 3:5 4:6 3:4 4:6 3:8 2:3 4:2 2:3 4:9
4:0 3:5 4:6 3:4 4:6 3:8 2:3 4:2 2:3 4:9 3:4
3:0 4:6 3:4 4:6 3:8 2:3 4:2 2:3 4:9 3:4 4:2
4:0 3:4 4:6 3:8 2:3 4:2 2:3 4:9 3:4 4:2 3:2
3:0 4:6 3:8 2:3 4:2 2:3 4:9 3:4 4:2 3:2 4:1
4:0 3:8 2:3 4:2 2:3 4:9 3:4 4:2 3:2 4:1 3:11
3:0 2:3 4:2 2:3 4:9 3:4 4:2 3:2 4:1 3:11 4:6
2:0 4:2 2:3 4:9 3:4 4:2 3:2 4:1 3:11 4:6 2:14
4:0 2:3 4:9 3:4 4:2 3:2 4:1 3:11 4:6 2:14 4:8
2:0 4:9 3:4 4:2 3:2 4:1 3:11 4:6 2:14 4:8 3:7
4:0 3:4 4:2 3:2 4:1 3:11 4:6 2:14 4:8 3:7 4:4
3:0 4:2 3:2 4:1 3:11 4:6 2:14 4:8 3:7 4:4 3:5
4:0 3:2 4:1 3:11 4:6 2:14 4:8 3:7 4:4 3:5 4:4
3:0 4:1 3:11 4:6 2:14 4:8 3:7 4:4 3:5 4:4 3:3
4:0 3:11 4:6 2:14 4:8 3:7 4:4 3:5 4:4 3:3 4:3
3:0 4:6 2:14 4:8 3:7 4:4 3:5 4:4 3:3 4:3 3:12
4:0 2:14 4:8 3:7 4:4 3:5 4:4 3:3 4:3 3:12 4:1
2:0 4:8 3:7 4:4 3:5 4:4 3:3 4:3 3:12 4:1 2:4
4:0 3:7 4:4 3:5 4:4 3:3 4:3 3:12 4:1 2:4 3:6
3:0 4:4 3:5 4:4 3:3 4:3 3:12 4:1 2:4 3:6 4:1
4:0 3:5 4:4 3:3 4:3 3:12 4:1 2:4 3:6 4:1 3:5
3:0 4:4 3:3 4:3 3:12 4:1 2:4 3:6 4:1 3:5 4:6
4:0 3:3 4:3 3:12 4:1 2:4 3:6 4:1 3:5 4:6 3:4
3:0 4:3 3:12 4:1 2:4 3:6 4:1 3:5 4:6 3:4 4:1
4:0 3:12 4:1 2:4 3:6 4:1 3:5 4:6 3:4 4:1 3:2
3:0 4:1 2:4 3:6 4:1 3:5 4:6 3:4 4:1 3:2 4:1
4:0 2:4 3:6 4:1 3:5 4:6 3:4 4:1 3:2 4:1 3:19
2:0 3:6 4:1 3:5 4:6 3:4 4:1 3:2 4:1 3:19 4:1
3:0 4:1 3:5 4:6 3:4 4:1 3:2 4:1 3:19 4:1 2:5
4:0 3:5 4:6 3:4 4:1 3:2 4:1 3:19 4:1 2:5 3:3
3:0 4:6 3:4 4:1 3:2 4:1 3:19 4:1 2:5 3:3 4:2
4:0 3:4 4:1 3:2 4:1 3:19 4:1 2:5 3:3 4:2 3:12
3:0 4:1 3:2 4:1 3:19 4:1 2:5 3:3 4:2 3:12 4:1
4:0 3:2 4:1 3:19 4:1 2:5 3:3 4:2 3:12 4:1 3:3
3:0 4:1 3:19 4:1 2:5 3:3 4:2 3:12 4:1 3:3 4:7
4:0 3:19 4:1 2:5 3:3 4:2 3:12 4:1 3:3 4:7 2:16
3:0 4:1 2:5 3:3 4:2 3:12 4:1 3:3 4:7 2:16 3:6
4:0 2:5 3:3 4:2 3:12 4:1 3:3 4:7 2:16 3:6 4:2
2:0 3:3 4:2 3:12 4:1 3:3 4:7 2:16 3:6 4:2 3:5
3:0 4:2 3:12 4:1 3:3 4:7 2:16 3:6 4:2 3:5 4:6
4:0 3:12 4:1 3:3 4:7 2:16 3:6 4:2 3:5 4:6 3:4
3:0 4:1 3:3 4:7 2:16 3:6 4:2 3:5 4:6 3:4 4:5
4:0 3:3 4:7 2:16 3:6 4:2 3:5 4:6 3:4 4:5 3:9
3:0 4:7 2:16 3:6 4:2 3:5 4:6 3:4 4:5 3:9 4:2
4:0 2:16 3:6 4:2 3:5 4:6 3:4 4:5 3:9 4:2 3:5
2:0 3:6 4:2 3:5 4:6 3:4 4:5 3:9 4:2 3:5 4:1
3:0 4:2 3:5 4:6 3:4 4:5 3:9 4:2 3:5 4:1 3:12
4:0 3:5 4:6 3:4 4:5 3:9 4:2 3:5 4:1 3:12 4:1
3:0 4:6 3:4 4:5 3:9 4:2 3:5 4:1 3:12 4:1 2:4
4:0 3:4 4:5 3:9 4:2 3:5 4:1 3:12 4:1 2:4 4:7
3:0 4:5 3:9 4:2 3:5 4:1 3:12 4:1 2:4 4:7 2:4
4:0 3:9 4:2 3:5 4:1 3:12 4:1 2:4 4:7 2:4 3:4
3:0 4:2 3:5 4:1 3:12 4:1 2:4 4:7 2:4 3:4 4:2
4:0 3:5 4:1 3:12 4:1 2:4 4:7 2:4 3:4 4:2 2:16
3:0 4:1 3:12 4:1 2:4 4:7 2:4 3:4 4:2 2:16 4:1
4:0 3:12 4:1 2:4 4:7 2:4 3:4 4:2 2:16 4:1 2:1
3:0 4:1 2:4 4:7 2:4 3:4 4:2 2:16 4:1 2:1 3:5
4:0 2:4 4:7 2:4 3:4 4:2 2:16 4:1 2:1 3:5 4:1
2:0 4:7 2:4 3:4 4:2 2:16 4:1 2:1 3:5 4:1 3:5
4:0 2:4 3:4 4:2 2:16 4:1 2:1 3:5 4:1 3:5 4:6
2:0 3:4 4:2 2:16 4:1 2:1 3:5 4:1 3:5 4:6 3:4
3:0 4:2 2:16 4:1 2:1 3:5 4:1 3:5 4:6 3:4 4:1
4:0 2:16 4:1 2:1 3:5 4:1 3:5 4:6 3:4 4:1 3:3
2:0 4:1 2:1 3:5 4:1 3:5 4:6 3:4 4:1 3:3 4:2
4:0 2:1 3:5 4:1 3:5 4:6 3:4 4:1 3:3 4:2 3:15
2:0 3:5 4:1 3:5 4:6 3:4 4:1 3:3 4:2 3:15 2:2
3:0 4:1 3:5 4:6 3:4 4:1 3:3 4:2 3:15 2:2 4:6
4:0 3:5 4:6 3:4 4:1 3:3 4:2 3:15 2:2 4:6 3:4
3:0 4:6 3:4 4:1 3:3 4:2 3:15 2:2 4:6 3:4 4:1
4:0 3:4 4:1 3:3 4:2 3:15 2:2 4:6 3:4 4:1 3:7
3:0 4:1 3:3 4:2 3:15 2:2 4:6 3:4 4:1 3:7 4:6
4:0 3:3 4:2 3:15 2:2 4:6 3:4 4:1 3:7 4:6 3:4
3:0 4:2 3:15 2:2 4:6 3:4 4:1 3:7 4:6 3:4 4:4
4:0 3:15 2:2 4:6 3:4 4:1 3:7 4:6 3:4 4:4 3:9
3:0 2:2 4:6 3:4 4:1 3:7 4:6 3:4 4:4 3:9 4:1
2:0 4:6 3:4 4:1 3:7 4:6 3:4 4:4 3:9 4:1 3:3
4:0 3:4 4:1 3:7 4:6 3:4 4:4 3:9 4:1 3:3 4:1
3:0 4:1 3:7 4:6 3:4 4:4 3:9 4:1 3:3 4:1 3:6
4:0 3:7 4:6 3:4 4:4 3:9 4:1 3:3 4:1 3:6 4:1
3:0 4:6 3:4 4:4 3:9 4:1 3:3 4:1 3:6 4:1 3:1
4:0 3:4 4:4 3:9 4:1 3:3 4:1 3:6 4:1 3:1 4:2
3:0 4:4 3:9 4:1 3:3 4:1 3:6 4:1 3:1 4:2 3:6
4:0 3:9 4:1 3:3 4:1 3:6 4:1 3:1 4:2 3:6 4:2
3:0 4:1 3:3 4:1 3:6 4:1 3:1 4:2 3:6 4:2 2:3
4:0 3:3 4:1 3:6 4:1 3:1 4:2 3:6 4:2 2:3 4:3
3:0 4:1 3:6 4:1 3:1 4:2 3:6 4:2 2:3 4:3 2:1
4:0 3:6 4:1 3:1 4:2 3:6 4:2 2:3 4:3 2:1 4:3
3:0 4:1 3:1 4:2 3:6 4:2 2:3 4:3 2:1 4:3 2:3
4:0 3:1 4:2 3:6 4:2 2:3 4:3 2:1 4:3 2:3 3:4
3:0 4:2 3:6 4:2 2:3 4:3 2:1 4:3 2:3 3:4 4:2
4:0 3:6 4:2 2:3 4:3 2:1 4:3 2:3 3:4 4:2 3:6
3:0 4:2 2:3 4:3 2:1 4:3 2:3 3:4 4:2 3:6 4:1
4:0 2:3 4:3 2:1 4:3 2:3 3:4 4:2 3:6 4:1 3:9
2:0 4:3 2:1 4:3 2:3 3:4 4:2 3:6 4:1 3:9 4:6
4:0 2:1 4:3 2:3 3:4 4:2 3:6 4:1 3:9 4:6 2:16
2:0 4:3 2:3 3:4 4:2 3:6 4:1 3:9 4:6 2:16 4:8
4:0 2:3 3:4 4:2 3:6 4:1 3:9 4:6 2:16 4:8 3:5
2:0 3:4 4:2 3:6 4:1 3:9 4:6 2:16 4:8 3:5 4:2
3:0 4:2 3:6 4:1 3:9 4:6 2:16 4:8 3:5 4:2 3:6
4:0 3:6 4:1 3:9 4:6 2:16 4:8 3:5 4:2 3:6 4:4
3:0 4:1 3:9 4:6 2:16 4:8 3:5 4:2 3:6 4:4 3:4
4:0 3:9 4:6 2:16 4:8 3:5 4:2 3:6 4:4 3:4 4:1
3:0 4:6 2:16 4:8 3:5 4:2 3:6 4:4 3:4 4:1 3:11
4:0 2:16 4:8 3:5 4:2 3:6 4:4 3:4 4:1 3:11 2:2
2:0 4:8 3:5 4:2 3:6 4:4 3:4 4:1 3:11 2:2 4:5
4:0 3:5 4:2 3:6 4:4 3:4 4:1 3:11 2:2 4:5 2:3
3:0 4:2 3:6 4:4 3:4 4:1 3:11 2:2 4:5 2:3 3:6
4:0 3:6 4:4 3:4 4:1 3:11 2:2 4:5 2:3 3:6 4:1
3:0 4:4 3:4 4:1 3:11 2:2 4:5 2:3 3:6 4:1 3:15
4:0 3:4 4:1 3:11 2:2 4:5 2:3 3:6 4:1 3:15 4:7
3:0 4:1 3:11 2:2 4:5 2:3 3:6 4:1 3:15 4:7 2:15
4:0 3:11 2:2 4:5 2:3 3:6 4:1 3:15 4:7 2:15 4:9
3:0 2:2 4:5 2:3 3:6 4:1 3:15 4:7 2:15 4:9 3:6
2:0 4:5 2:3 3:6 4:1 3:15 4:7 2:15 4:9 3:6 4:4
4:0 2:3 3:6 4:1 3:15 4:7 2:15 4:9 3:6 4:4 3:4
2:0 3:6 4:1 3:15 4:7 2:15 4:9 3:6 4:4 3:4 4:3
3:0 4:1 3:15 4:7 2:15 4:9 3:6 4:4 3:4 4:3 3:1
4:0 3:15 4:7 2:15 4:9 3:6 4:4 3:4 4:3 3:1 4:1
3:0 4:7 2:15 4:9 3:6 4:4 3:4 4:3 3:1 4:1 3:1
4:0 2:15 4:9 3:6 4:4 3:4 4:3 3:1 4:1 3:1 4:1
2:0 4:9 3:6 4:4 3:4 4:3 3:1 4:1 3:1 4:1 3:3
4:0 3:6 4:4 3:4 4:3 3:1 4:1 3:1 4:1 3:3 4:1
3:0 4:4 3:4 4:3 3:1 4:1 3:1 4:1 3:3 4:1 3:7
4:0 3:4 4:3 3:1 4:1 3:1 4:1 3:3 4:1 3:7 4:6
3:0 4:3 3:1 4:1 3:1 4:1 3:3 4:1 3:7 4:6 3:7
4:0 3:1 4:1 3:1 4:1 3:3 4:1 3:7 4:6 3:7 2:2
3:0 4:1 3:1 4:1 3:3 4:1 3:7 4:6 3:7 2:2 4:1
4:0 3:1 4:1 3:3 4:1 3:7 4:6 3:7 2:2 4:1 2:5
3:0 4:1 3:3 4:1 3:7 4:6 3:7 2:2 4:1 2:5 3:2
4:0 3:3 4:1 3:7 4:6 3:7 2:2 4:1 2:5 3:2 2:1
3:0 4:1 3:7 4:6 3:7 2:2 4:1 2:5 3:2 2:1 4:2
4:0 3:7 4:6 3:7 2:2 4:1 2:5 3:2 2:1 4:2 2:4
3:0 4:6 3:7 2:2 4:1 2:5 3:2 2:1 4:2 2:4 3:3
4:0 3:7 2:2 4:1 2:5 3:2 2:1 4:2 2:4 3:3 2:1
3:0 2:2 4:1 2:5 3:2 2:1 4:2 2:4 3:3 2:1 4:3
2:0 4:1 2:5 3:2 2:1 4:2 2:4 3:3 2:1 4:3 3:3
4:0 2:5 3:2 2:1 4:2 2:4 3:3 2:1 4:3 3:3 4:2
2:0 3:2 2:1 4:2 2:4 3:3 2:1 4:3 3:3 4:2 3:1
3:0 2:1 4:2 2:4 3:3 2:1 4:3 3:3 4:2 3:1 4:1
2:0 4:2 2:4 3:3 2:1 4:3 3:3 4:2 3:1 4:1 2:14
4:0 2:4 3:3 2:1 4:3 3:3 4:2 3:1 4:1 2:14 3:5
2:0 3:3 2:1 4:3 3:3 4:2 3:1 4:1 2:14 3:5 4:3
3:0 2:1 4:3 3:3 4:2 3:1 4:1 2:14 3:5 4:3 3:16
2:0 4:3 3:3 4:2 3:1 4:1 2:14 3:5 4:3 3:16 4:7
4:0 3:3 4:2 3:1 4:1 2:14 3:5 4:3 3:16 4:7 3:15
3:0 4:2 3:1 4:1 2:14 3:5 4:3 3:16 4:7 3:15 2:3
4:0 3:1 4:1 2:14 3:5 4:3 3:16 4:7 3:15 2:3 4:2
3:0 4:1 2:14 3:5 4:3 3:16 4:7 3:15 2:3 4:2 3:4
4:0 2:14 3:5 4:3 3:16 4:7 3:15 2:3 4:2 3:4 4:2
2:0 3:5 4:3 3:16 4:7 3:15 2:3 4:2 3:4 4:2 3:6
3:0 4:3 3:16 4:7 3:15 2:3 4:2 3:4 4:2 3:6 4:3
4:0 3:16 4:7 3:15 2:3 4:2 3:4 4:2 3:6 4:3 3:1
3:0 4:7 3:15 2:3 4:2 3:4 4:2 3:6 4:3 3:1 4:3
4:0 3:15 2:3 4:2 3:4 4:2 3:6 4:3 3:1 4:3 3:4
3:0 2:3 4:2 3:4 4:2 3:6 4:3 3:1 4:3 3:4 4:3
2:0 4:2 3:4 4:2 3:6 4:3 3:1 4:3 3:4 4:3 3:9
4:0 3:4 4:2 3:6 4:3 3:1 4:3 3:4 4:3 3:9 4:5
3:0 4:2 3:6 4:3 3:1 4:3 3:4 4:3 3:9 4:5 3:9
4:0 3:6 4:3 3:1 4:3 3:4 4:3 3:9 4:5 3:9 4:1
3:0 4:3 3:1 4:3 3:4 4:3 3:9 4:5 3:9 4:1 2:7
4:0 3:1 4:3 3:4 4:3 3:9 4:5 3:9 4:1 2:7 4:7
3:0 4:3 3:4 4:3 3:9 4:5 3:9 4:1 2:7 4:7 2:4
4:0 3:4 4:3 3:9 4:5 3:9 4:1 2:7 4:7 2:4 4:8
3:0 4:3 3:9 4:5 3:9 4:1 2:7 4:7 2:4 4:8 3:16
4:0 3:9 4:5 3:9 4:1 2:7 4:7 2:4 4:8 3:16 4:6
3:0 4:5 3:9 4:1 2:7 4:7 2:4 4:8 3:16 4:6 3:14
4:0 3:9 4:1 2:7 4:7 2:4 4:8 3:16 4:6 3:14 4:2
3:0 4:1 2:7 4:7 2:4 4:8 3:16 4:6 3:14 4:2 2:6
4:0 2:7 4:7 2:4 4:8 3:16 4:6 3:14 4:2 2:6 3:3
2:0 4:7 2:4 4:8 3:16 4:6 3:14 4:2 2:6 3:3 4:2
4:0 2:4 4:8 3:16 4:6 3:14 4:2 2:6 3:3 4:2 3:16
2:0 4:8 3:16 4:6 3:14 4:2 2:6 3:3 4:2 3:16 4:6
4:0 3:16 4:6 3:14 4:2 2:6 3:3 4:2 3:16 4:6 3:14
3:0 4:6 3:14 4:2 2:6 3:3 4:2 3:16 4:6 3:14 4:2
4:0 3:14 4:2 2:6 3:3 4:2 3:16 4:6 3:14 4:2 2:1
3:0 4:2 2:6 3:3 4:2 3:16 4:6 3:14 4:2 2:1 4:3
4:0 2:6 3:3 4:2 3:16 4:6 3:14 4:2 2:1 4:3 2:3
2:0 3:3 4:2 3:16 4:6 3:14 4:2 2:1 4:3 2:3 3:1
3:0 4:2 3:16 4:6 3:14 4:2 2:1 4:3 2:3 3:1 4:3
4:0 3:16 4:6 3:14 4:2 2:1 4:3 2:3 3:1 4:3 3:6
3:0 4:6 3:14 4:2 2:1 4:3 2:3 3:1 4:3 3:6 4:2
4:0 3:14 4:2 2:1 4:3 2:3 3:1 4:3 3:6 4:2 3:8
3:0 4:2 2:1 4:3 2:3 3:1 4:3 3:6 4:2 3:8 4:6
4:0 2:1 4:3 2:3 3:1 4:3 3:6 4:2 3:8 4:6 2:15
2:0 4:3 2:3 3:1 4:3 3:6 4:2 3:8 4:6 2:15 3:1
4:0 2:3 3:1 4:3 3:6 4:2 3:8 4:6 2:15 3:1 2:1
2:0 3:1 4:3 3:6 4:2 3:8 4:6 2:15 3:1 2:1 4:1
3:0 4:3 3:6 4:2 3:8 4:6 2:15 3:1 2:1 4:1 2:1
4:0 3:6 4:2 3:8 4:6 2:15 3:1 2:1 4:1 2:1 4:3
3:0 4:2 3:8 4:6 2:15 3:1 2:1 4:1 2:1 4:3 3:3
4:0 3:8 4:6 2:15 3:1 2:1 4:1 2:1 4:3 3:3 4:1
3:0 4:6 2:15 3:1 2:1 4:1 2:1 4:3 3:3 4:1 3:6
4:0 2:15 3:1 2:1 4:1 2:1 4:3 3:3 4:1 3:6 4:2
2:0 3:1 2:1 4:1 2:1 4:3 3:3 4:1 3:6 4:2 3:8
3:0 2:1 4:1 2:1 4:3 3:3 4:1 3:6 4:2 3:8 4:5
2:0 4:1 2:1 4:3 3:3 4:1 3:6 4:2 3:8 4:5 2:17
4:0 2:1 4:3 3:3 4:1 3:6 4:2 3:8 4:5 2:17 3:7
2:0 4:3 3:3 4:1 3:6 4:2 3:8 4:5 2:17 3:7 4:1
4:0 3:3 4:1 3:6 4:2 3:8 4:5 2:17 3:7 4:1 3:5
3:0 4:1 3:6 4:2 3:8 4:5 2:17 3:7 4:1 3:5 4:2
4:0 3:6 4:2 3:8 4:5 2:17 3:7 4:1 3:5 4:2 3:2
3:0 4:2 3:8 4:5 2:17 3:7 4:1 3:5 4:2 3:2 4:1
4:0 3:8 4:5 2:17 3:7 4:1 3:5 4:2 3:2 4:1 3:4
3:0 4:5 2:17 3:7 4:1 3:5 4:2 3:2 4:1 3:4 4:1
4:0 2:17 3:7 4:1 3:5 4:2 3:2 4:1 3:4 4:1 3:2
2:0 3:7 4:1 3:5 4:2 3:2 4:1 3:4 4:1 3:2 4:1
3:0 4:1 3:5 4:2 3:2 4:1 3:4 4:1 3:2 4:1 3:14
4:0 3:5 4:2 3:2 4:1 3:4 4:1 3:2 4:1 3:14 2:2
3:0 4:2 3:2 4:1 3:4 4:1 3:2 4:1 3:14 2:2 4:5
4:0 3:2 4:1 3:4 4:1 3:2 4:1 3:14 2:2 4:5 2:3
3:0 4:1 3:4 4:1 3:2 4:1 3:14 2:2 4:5 2:3 3:5
4:0 3:4 4:1 3:2 4:1 3:14 2:2 4:5 2:3 3:5 4:1
3:0 4:1 3:2 4:1 3:14 2:2 4:5 2:3 3:5 4:1 3:6
4:0 3:2 4:1 3:14 2:2 4:5 2:3 3:5 4:1 3:6 4:1
3:0 4:1 3:14 2:2 4:5 2:3 3:5 4:1 3:6 4:1 3:10
4:0 3:14 2:2 4:5 2:3 3:5 4:1 3:6 4:1 3:10 4:4
3:0 2:2 4:5 2:3 3:5 4:1 3:6 4:1 3:10 4:4 2:16
2:0 4:5 2:3 3:5 4:1 3:6 4:1 3:10 4:4 2:16 4:1
4:0 2:3 3:5 4:1 3:6 4:1 3:10 4:4 2:16 4:1 2:3
2:0 3:5 4:1 3:6 4:1 3:10 4:4 2:16 4:1 2:3 4:8
3:0 4:1 3:6 4:1 3:10 4:4 2:16 4:1 2:3 4:8 3:5
4:0 3:6 4:1 3:10 4:4 2:16 4:1 2:3 4:8 3:5 4:4
3:0 4:1 3:10 4:4 2:16 4:1 2:3 4:8 3:5 4:4 3:6
4:0 3:10 4:4 2:16 4:1 2:3 4:8 3:5 4:4 3:6 4:7
3:0 4:4 2:16 4:1 2:3 4:8 3:5 4:4 3:6 4:7 2:14
4:0 2:16 4:1 2:3 4:8 3:5 4:4 3:6 4:7 2:14 3:1
2:0 4:1 2:3 4:8 3:5 4:4 3:6 4:7 2:14 3:1 4:1
4:0 2:3 4:8 3:5 4:4 3:6 4:7 2:14 3:1 4:1 2:2
2:0 4:8 3:5 4:4 3:6 4:7 2:14 3:1 4:1 2:2 4:1
4:0 3:5 4:4 3:6 4:7 2:14 3:1 4:1 2:2 4:1 2:3
3:0 4:4 3:6 4:7 2:14 3:1 4:1 2:2 4:1 2:3 3:2
4:0 3:6 4:7 2:14 3:1 4:1 2:2 4:1 2:3 3:2 4:3
3:0 4:7 2:14 3:1 4:1 2:2 4:1 2:3 3:2 4:3 3:5
4:0 2:14 3:1 4:1 2:2 4:1 2:3 3:2 4:3 3:5 4:6
2:0 3:1 4:1 2:2 4:1 2:3 3:2 4:3 3:5 4:6 3:5
3:0 4:1 2:2 4:1 2:3 3:2 4:3 3:5 4:6 3:5 4:7
4:0 2:2 4:1 2:3 3:2 4:3 3:5 4:6 3:5 4:7 2:15
2:0 4:1 2:3 3:2 4:3 3:5 4:6 3:5 4:7 2:15 4:7
4:0 2:3 3:2 4:3 3:5 4:6 3:5 4:7 2:15 4:7 3:6
2:0 3:2 4:3 3:5 4:6 3:5 4:7 2:15 4:7 3:6 4:2
3:0 4:3 3:5 4:6 3:5 4:7 2:15 4:7 3:6 4:2 3:7
4:0 3:5 4:6 3:5 4:7 2:15 4:7 3:6 4:2 3:7 4:7
3:0 4:6 3:5 4:7 2:15 4:7 3:6 4:2 3:7 4:7 2:21
4:0 3:5 4:7 2:15 4:7 3:6 4:2 3:7 4:7 2:21 3:5
3:0 4:7 2:15 4:7 3:6 4:2 3:7 4:7 2:21 3:5 4:1
4:0 2:15 4:7 3:6 4:2 3:7 4:7 2:21 3:5 4:1 3:7
2:0 4:7 3:6 4:2 3:7 4:7 2:21 3:5 4:1 3:7 2:4
4:0 3:6 4:2 3:7 4:7 2:21 3:5 4:1 3:7 2:4 3:1
3:0 4:2 3:7 4:7 2:21 3:5 4:1 3:7 2:4 3:1 4:1
4:0 3:7 4:7 2:21 3:5 4:1 3:7 2:4 3:1 4:1 3:4
3:0 4:7 2:21 3:5 4:1 3:7 2:4 3:1 4:1 3:4 4:4
4:0 2:21 3:5 4:1 3:7 2:4 3:1 4:1 3:4 4:4 3:23
2:0 3:5 4:1 3:7 2:4 3:1 4:1 3:4 4:4 3:23 2:1
3:0 4:1 3:7 2:4 3:1 4:1 3:4 4:4 3:23 2:1 4:4
4:0 3:7 2:4 3:1 4:1 3:4 4:4 3:23 2:1 4:4 2:7
3:0 2:4 3:1 4:1 3:4 4:4 3:23 2:1 4:4 2:7 4:5
2:0 3:1 4:1 3:4 4:4 3:23 2:1 4:4 2:7 4:5 2:4
3:0 4:1 3:4 4:4 3:23 2:1 4:4 2:7 4:5 2:4 4:3
4:0 3:4 4:4 3:23 2:1 4:4 2:7 4:5 2:4 4:3 2:2
3:0 4:4 3:23 2:1 4:4 2:7 4:5 2:4 4:3 2:2 3:2
4:0 3:23 2:1 4:4 2:7 4:5 2:4 4:3 2:2 3:2 4:1
3:0 2:1 4:4 2:7 4:5 2:4 4:3 2:2 3:2 4:1 3:5
2:0 4:4 2:7 4:5 2:4 4:3 2:2 3:2 4:1 3:5 4:3
4:0 2:7 4:5 2:4 4:3 2:2 3:2 4:1 3:5 4:3 3:6
2:0 4:5 2:4 4:3 2:2 3:2 4:1 3:5 4:3 3:6 4:6
4:0 2:4 4:3 2:2 3:2 4:1 3:5 4:3 3:6 4:6 2:16
2:0 4:3 2:2 3:2 4:1 3:5 4:3 3:6 4:6 2:16 3:1
4:0 2:2 3:2 4:1 3:5 4:3 3:6 4:6 2:16 3:1 4:1
2:0 3:2 4:1 3:5 4:3 3:6 4:6 2:16 3:1 4:1 2:3
3:0 4:1 3:5 4:3 3:6 4:6 2:16 3:1 4:1 2:3 3:5
4:0 3:5 4:3 3:6 4:6 2:16 3:1 4:1 2:3 3:5 4:2
3:0 4:3 3:6 4:6 2:16 3:1 4:1 2:3 3:5 4:2 3:15
4:0 3:6 4:6 2:16 3:1 4:1 2:3 3:5 4:2 3:15 4:8
3:0 4:6 2:16 3:1 4:1 2:3 3:5 4:2 3:15 4:8 3:15
4:0 2:16 3:1 4:1 2:3 3:5 4:2 3:15 4:8 3:15 2:2
2:0 3:1 4:1 2:3 3:5 4:2 3:15 4:8 3:15 2:2 4:6
3:0 4:1 2:3 3:5 4:2 3:15 4:8 3:15 2:2 4:6 3:6
4:0 2:3 3:5 4:2 3:15 4:8 3:15 2:2 4:6 3:6 4:5
2:0 3:5 4:2 3:15 4:8 3:15 2:2 4:6 3:6 4:5 3:6
3:0 4:2 3:15 4:8 3:15 2:2 4:6 3:6 4:5 3:6 4:3
4:0 3:15 4:8 3:15 2:2 4:6 3:6 4:5 3:6 4:3 3:3
3:0 4:8 3:15 2:2 4:6 3:6 4:5 3:6 4:3 3:3 4:2
4:0 3:15 2:2 4:6 3:6 4:5 3:6 4:3 3:3 4:2 2:13
3:0 2:2 4:6 3:6 4:5 3:6 4:3 3:3 4:2 2:13 4:1
2:0 4:6 3:6 4:5 3:6 4:3 3:3 4:2 2:13 4:1 2:3
4:0 3:6 4:5 3:6 4:3 3:3 4:2 2:13 4:1 2:3 3:7
3:0 4:5 3:6 4:3 3:3 4:2 2:13 4:1 2:3 3:7 4:1
4:0 3:6 4:3 3:3 4:2 2:13 4:1 2:3 3:7 4:1 3:6
3:0 4:3 3:3 4:2 2:13 4:1 2:3 3:7 4:1 3:6 4:6
4:0 3:3 4:2 2:13 4:1 2:3 3:7 4:1 3:6 4:6 3:4
3:0 4:2 2:13 4:1 2:3 3:7 4:1 3:6 4:6 3:4 4:4
4:0 2:13 4:1 2:3 3:7 4:1 3:6 4:6 3:4 4:4 3:9
2:0 4:1 2:3 3:7 4:1 3:6 4:6 3:4 4:4 3:9 4:4
4:0 2:3 3:7 4:1 3:6 4:6 3:4 4:4 3:9 4:4 3:4
2:0 3:7 4:1 3:6 4:6 3:4 4:4 3:9 4:4 3:4 4:1
3:0 4:1 3:6 4:6 3:4 4:4 3:9 4:4 3:4 4:1 3:8
4:0 3:6 4:6 3:4 4:4 3:9 4:4 3:4 4:1 3:8 4:2
3:0 4:6 3:4 4:4 3:9 4:4 3:4 4:1 3:8 4:2 2:7
4:0 3:4 4:4 3:9 4:4 3:4 4:1 3:8 4:2 2:7 4:6
3:0 4:4 3:9 4:4 3:4 4:1 3:8 4:2 2:7 4:6 2:4
4:0 3:9 4:4 3:4 4:1 3:8 4:2 2:7 4:6 2:4 3:4
3:0 4:4 3:4 4:1 3:8 4:2 2:7 4:6 2:4 3:4 4:2
4:0 3:4 4:1 3:8 4:2 2:7 4:6 2:4 3:4 4:2 3:11
3:0 4:1 3:8 4:2 2:7 4:6 2:4 3:4 4:2 3:11 4:1
4:0 3:8 4:2 2:7 4:6 2:4 3:4 4:2 3:11 4:1 2:4
3:0 4:2 2:7 4:6 2:4 3:4 4:2 3:11 4:1 2:4 4:7
4:0 2:7 4:6 2:4 3:4 4:2 3:11 4:1 2:4 4:7 3:7
2:0 4:6 2:4 3:4 4:2 3:11 4:1 2:4 4:7 3:7 4:6
4:0 2:4 3:4 4:2 3:11 4:1 2:4 4:7 3:7 4:6 3:3
2:0 3:4 4:2 3:11 4:1 2:4 4:7 3:7 4:6 3:3 4:1
3:0 4:2 3:11 4:1 2:4 4:7 3:7 4:6 3:3 4:1 2:1
4:0 3:11 4:1 2:4 4:7 3:7 4:6 3:3 4:1 2:1 3:2
3:0 4:1 2:4 4:7 3:7 4:6 3:3 4:1 2:1 3:2 4:3
4:0 2:4 4:7 3:7 4:6 3:3 4:1 2:1 3:2 4:3 3:13
2:0 4:7 3:7 4:6 3:3 4:1 2:1 3:2 4:3 3:13 4:3
4:0 3:7 4:6 3:3 4:1 2:1 3:2 4:3 3:13 4:3 2:17
3:0 4:6 3:3 4:1 2:1 3:2 4:3 3:13 4:3 2:17 4:1
4:0 3:3 4:1 2:1 3:2 4:3 3:13 4:3 2:17 4:1 2:1
3:0 4:1 2:1 3:2 4:3 3:13 4:3 2:17 4:1 2:1 4:5
4:0 2:1 3:2 4:3 3:13 4:3 2:17 4:1 2:1 4:5 2:4
2:0 3:2 4:3 3:13 4:3 2:17 4:1 2:1 4:5 2:4 3:5
3:0 4:3 3:13 4:3 2:17 4:1 2:1 4:5 2:4 3:5 4:1
4:0 3:13 4:3 2:17 4:1 2:1 4:5 2:4 3:5 4:1 3:6
3:0 4:3 2:17 4:1 2:1 4:5 2:4 3:5 4:1 3:6 4:2
4:0 2:17 4:1 2:1 4:5 2:4 3:5 4:1 3:6 4:2 3:8
2:0 4:1 2:1 4:5 2:4 3:5 4:1 3:6 4:2 3:8 4:2
4:0 2:1 4:5 2:4 3:5 4:1 3:6 4:2 3:8 4:2 3:1
2:0 4:5 2:4 3:5 4:1 3:6 4:2 3:8 4:2 3:1 4:4
4:0 2:4 3:5 4:1 3:6 4:2 3:8 4:2 3:1 4:4 2:14
2:0 3:5 4:1 3:6 4:2 3:8 4:2 3:1 4:4 2:14 4:4
3:0 4:1 3:6 4:2 3:8 4:2 3:1 4:4 2:14 4:4 2:3
4:0 3:6 4:2 3:8 4:2 3:1 4:4 2:14 4:4 2:3 3:4
3:0 4:2 3:8 4:2 3:1 4:4 2:14 4:4 2:3 3:4 4:2
4:0 3:8 4:2 3:1 4:4 2:14 4:4 2:3 3:4 4:2 3:5
3:0 4:2 3:1 4:4 2:14 4:4 2:3 3:4 4:2 3:5 4:5
4:0 3:1 4:4 2:14 4:4 2:3 3:4 4:2 3:5 4:5 3:8
3:0 4:4 2:14 4:4 2:3 3:4 4:2 3:5 4:5 3:8 4:1
4:0 2:14 4:4 2:3 3:4 4:2 3:5 4:5 3:8 4:1 3:10
2:0 4:4 2:3 3:4 4:2 3:5 4:5 3:8 4:1 3:10 2:4
4:0 2:3 3:4 4:2 3:5 4:5 3:8 4:1 3:10 2:4 4:2
2:0 3:4 4:2 3:5 4:5 3:8 4:1 3:10 2:4 4:2 2:3
3:0 4:2 3:5 4:5 3:8 4:1 3:10 2:4 4:2 2:3 3:7
4:0 3:5 4:5 3:8 4:1 3:10 2:4 4:2 2:3 3:7 4:1
3:0 4:5 3:8 4:1 3:10 2:4 4:2 2:3 3:7 4:1 3:7
4:0 3:8 4:1 3:10 2:4 4:2 2:3 3:7 4:1 3:7 4:1
3:0 4:1 3:10 2:4 4:2 2:3 3:7 4:1 3:7 4:1 3:6
4:0 3:10 2:4 4:2 2:3 3:7 4:1 3:7 4:1 3:6 4:6
3:0 2:4 4:2 2:3 3:7 4:1 3:7 4:1 3:6 4:6 2:17
2:0 4:2 2:3 3:7 4:1 3:7 4:1 3:6 4:6 2:17 4:1
4:0 2:3 3:7 4:1 3:7 4:1 3:6 4:6 2:17 4:1 2:4
2:0 3:7 4:1 3:7 4:1 3:6 4:6 2:17 4:1 2:4 3:6
3:0 4:1 3:7 4:1 3:6 4:6 2:17 4:1 2:4 3:6 4:1
4:0 3:7 4:1 3:6 4:6 2:17 4:1 2:4 3:6 4:1 3:5
3:0 4:1 3:6 4:6 2:17 4:1 2:4 3:6 4:1 3:5 4:6
4:0 3:6 4:6 2:17 4:1 2:4 3:6 4:1 3:5 4:6 3:4
3:0 4:6 2:17 4:1 2:4 3:6 4:1 3:5 4:6 3:4 4:5
4:0 2:17 4:1 2:4 3:6 4:1 3:5 4:6 3:4 4:5 3:7
2:0 4:1 2:4 3:6 4:1 3:5 4:6 3:4 4:5 3:7 2:3
4:0 2:4 3:6 4:1 3:5 4:6 3:4 4:5 3:7 2:3 4:1
2:0 3:6 4:1 3:5 4:6 3:4 4:5 3:7 2:3 4:1 2:4
3:0 4:1 3:5 4:6 3:4 4:5 3:7 2:3 4:1 2:4 4:6
4:0 3:5 4:6 3:4 4:5 3:7 2:3 4:1 2:4 4:6 2:4
3:0 4:6 3:4 4:5 3:7 2:3 4:1 2:4 4:6 2:4 3:1
4:0 3:4 4:5 3:7 2:3 4:1 2:4 4:6 2:4 3:1 4:2
3:0 4:5 3:7 2:3 4:1 2:4 4:6 2:4 3:1 4:2 3:7
4:0 3:7 2:3 4:1 2:4 4:6 2:4 3:1 4:2 3:7 4:1
3:0 2:3 4:1 2:4 4:6 2:4 3:1 4:2 3:7 4:1 3:4
2:0 4:1 2:4 4:6 2:4 3:1 4:2 3:7 4:1 3:4 4:2
4:0 2:4 4:6 2:4 3:1 4:2 3:7 4:1 3:4 4:2 3:4
2:0 4:6 2:4 3:1 4:2 3:7 4:1 3:4 4:2 3:4 4:4
4:0 2:4 3:1 4:2 3:7 4:1 3:4 4:2 3:4 4:4 2:17
2:0 3:1 4:2 3:7 4:1 3:4 4:2 3:4 4:4 2:17 4:1
3:0 4:2 3:7 4:1 3:4 4:2 3:4 4:4 2:17 4:1 2:2
4:0 3:7 4:1 3:4 4:2 3:4 4:4 2:17 4:1 2:2 4:4
3:0 4:1 3:4 4:2 3:4 4:4 2:17 4:1 2:2 4:4 3:6
4:0 3:4 4:2 3:4 4:4 2:17 4:1 2:2 4:4 3:6 4:2
3:0 4:2 3:4 4:4 2:17 4:1 2:2 4:4 3:6 4:2 3:1
4:0 3:4 4:4 2:17 4:1 2:2 4:4 3:6 4:2 3:1 4:1
3:0 4:4 2:17 4:1 2:2 4:4 3:6 4:2 3:1 4:1 3:5
4:0 2:17 4:1 2:2 4:4 3:6 4:2 3:1 4:1 3:5 4:8
2:0 4:1 2:2 4:4 3:6 4:2 3:1 4:1 3:5 4:8 3:5
4:0 2:2 4:4 3:6 4:2 3:1 4:1 3:5 4:8 3:5 4:2
2:0 4:4 3:6 4:2 3:1 4:1 3:5 4:8 3:5 4:2 3:9
4:0 3:6 4:2 3:1 4:1 3:5 4:8 3:5 4:2 3:9 2:1
3:0 4:2 3:1 4:1 3:5 4:8 3:5 4:2 3:9 2:1 4:1
4:0 3:1 4:1 3:5 4:8 3:5 4:2 3:9 2:1 4:1 2:3
3:0 4:1 3:5 4:8 3:5 4:2 3:9 2:1 4:1 2:3 3:5
4:0 3:5 4:8 3:5 4:2 3:9 2:1 4:1 2:3 3:5 4:2
3:0 4:8 3:5 4:2 3:9 2:1 4:1 2:3 3:5 4:2 3:7
4:0 3:5 4:2 3:9 2:1 4:1 2:3 3:5 4:2 3:7 4:1
3:0 4:2 3:9 2:1 4:1 2:3 3:5 4:2 3:7 4:1 3:1
4:0 3:9 2:1 4:1 2:3 3:5 4:2 3:7 4:1 3:1 4:2
3:0 2:1 4:1 2:3 3:5 4:2 3:7 4:1 3:1 4:2 3:4
2:0 4:1 2:3 3:5 4:2 3:7 4:1 3:1 4:2 3:4 4:6
4:0 2:3 3:5 4:2 3:7 4:1 3:1 4:2 3:4 4:6 3:14
2:0 3:5 4:2 3:7 4:1 3:1 4:2 3:4 4:6 3:14 2:1
3:0 4:2 3:7 4:1 3:1 4:2 3:4 4:6 3:14 2:1 4:5
4:0 3:7 4:1 3:1 4:2 3:4 4:6 3:14 2:1 4:5 2:3
3:0 4:1 3:1 4:2 3:4 4:6 3:14 2:1 4:5 2:3 3:1
4:0 3:1 4:2 3:4 4:6 3:14 2:1 4:5 2:3 3:1 4:2
3:0 4:2 3:4 4:6 3:14 2:1 4:5 2:3 3:1 4:2 3:6
4:0 3:4 4:6 3:14 2:1 4:5 2:3 3:1 4:2 3:6 4:5
3:0 4:6 3:14 2:1 4:5 2:3 3:1 4:2 3:6 4:5 3:8
4:0 3:14 2:1 4:5 2:3 3:1 4:2 3:6 4:5 3:8 4:3
3:0 2:1 4:5 2:3 3:1 4:2 3:6 4:5 3:8 4:3 3:8
2:0 4:5 2:3 3:1 4:2 3:6 4:5 3:8 4:3 3:8 4:4
4:0 2:3 3:1 4:2 3:6 4:5 3:8 4:3 3:8 4:4 3:7
2:0 3:1 4:2 3:6 4:5 3:8 4:3 3:8 4:4 3:7 2:2
3:0 4:2 3:6 4:5 3:8 4:3 3:8 4:4 3:7 2:2 4:2
4:0 3:6 4:5 3:8 4:3 3:8 4:4 3:7 2:2 4:2 3:4
3:0 4:5 3:8 4:3 3:8 4:4 3:7 2:2 4:2 3:4 2:1
4:0 3:8 4:3 3:8 4:4 3:7 2:2 4:2 3:4 2:1 4:1
3:0 4:3 3:8 4:4 3:7 2:2 4:2 3:4 2:1 4:1 2:6
4:0 3:8 4:4 3:7 2:2 4:2 3:4 2:1 4:1 2:6 3:2
3:0 4:4 3:7 2:2 4:2 3:4 2:1 4:1 2:6 3:2 2:1
4:0 3:7 2:2 4:2 3:4 2:1 4:1 2:6 3:2 2:1 4:2
3:0 2:2 4:2 3:4 2:1 4:1 2:6 3:2 2:1 4:2 2:4
2:0 4:2 3:4 2:1 4:1 2:6 3:2 2:1 4:2 2:4 3:3
4:0 3:4 2:1 4:1 2:6 3:2 2:1 4:2 2:4 3:3 4:3
3:0 2:1 4:1 2:6 3:2 2:1 4:2 2:4 3:3 4:3 2:12
2:0 4:1 2:6 3:2 2:1 4:2 2:4 3:3 4:3 2:12 4:1
4:0 2:6 3:2 2:1 4:2 2:4 3:3 4:3 2:12 4:1 2:3
2:0 3:2 2:1 4:2 2:4 3:3 4:3 2:12 4:1 2:3 4:7
3:0 2:1 4:2 2:4 3:3 4:3 2:12 4:1 2:3 4:7 3:6
2:0 4:2 2:4 3:3 4:3 2:12 4:1 2:3 4:7 3:6 4:4
4:0 2:4 3:3 4:3 2:12 4:1 2:3 4:7 3:6 4:4 3:4
2:0 3:3 4:3 2:12 4:1 2:3 4:7 3:6 4:4 3:4 4:3
3:0 4:3 2:12 4:1 2:3 4:7 3:6 4:4 3:4 4:3 3:1
4:0 2:12 4:1 2:3 4:7 3:6 4:4 3:4 4:3 3:1 4:2
2:0 4:1 2:3 4:7 3:6 4:4 3:4 4:3 3:1 4:2 3:11
4:0 2:3 4:7 3:6 4:4 3:4 4:3 3:1 4:2 3:11 4:2
2:0 4:7 3:6 4:4 3:4 4:3 3:1 4:2 3:11 4:2 3:2
4:0 3:6 4:4 3:4 4:3 3:1 4:2 3:11 4:2 3:2 4:1
3:0 4:4 3:4 4:3 3:1 4:2 3:11 4:2 3:2 4:1 3:8
4:0 3:4 4:3 3:1 4:2 3:11 4:2 3:2 4:1 3:8 4:2
3:0 4:3 3:1 4:2 3:11 4:2 3:2 4:1 3:8 4:2 2:8
4:0 3:1 4:2 3:11 4:2 3:2 4:1 3:8 4:2 2:8 3:4
3:0 4:2 3:11 4:2 3:2 4:1 3:8 4:2 2:8 3:4 4:2
4:0 3:11 4:2 3:2 4:1 3:8 4:2 2:8 3:4 4:2 2:5
3:0 4:2 3:2 4:1 3:8 4:2 2:8 3:4 4:2 2:5 3:5
4:0 3:2 4:1 3:8 4:2 2:8 3:4 4:2 2:5 3:5 4:2
3:0 4:1 3:8 4:2 2:8 3:4 4:2 2:5 3:5 4:2 2:15
4:0 3:8 4:2 2:8 3:4 4:2 2:5 3:5 4:2 2:15 4:7
3:0 4:2 2:8 3:4 4:2 2:5 3:5 4:2 2:15 4:7 3:6
4:0 2:8 3:4 4:2 2:5 3:5 4:2 2:15 4:7 3:6 4:2
2:0 3:4 4:2 2:5 3:5 4:2 2:15 4:7 3:6 4:2 3:3
3:0 4:2 2:5 3:5 4:2 2:15 4:7 3:6 4:2 3:3 4:6
4:0 2:5 3:5 4:2 2:15 4:7 3:6 4:2 3:3 4:6 3:4
2:0 3:5 4:2 2:15 4:7 3:6 4:2 3:3 4:6 3:4 4:2
3:0 4:2 2:15 4:7 3:6 4:2 3:3 4:6 3:4 4:2 3:23
4:0 2:15 4:7 3:6 4:2 3:3 4:6 3:4 4:2 3:23 4:1
2:0 4:7 3:6 4:2 3:3 4:6 3:4 4:2 3:23 4:1 3:6
4:0 3:6 4:2 3:3 4:6 3:4 4:2 3:23 4:1 3:6 4:1
3:0 4:2 3:3 4:6 3:4 4:2 3:23 4:1 3:6 4:1 2:5
4:0 3:3 4:6 3:4 4:2 3:23 4:1 3:6 4:1 2:5 4:9
3:0 4:6 3:4 4:2 3:23 4:1 3:6 4:1 2:5 4:9 2:3
4:0 3:4 4:2 3:23 4:1 3:6 4:1 2:5 4:9 2:3 3:4
3:0 4:2 3:23 4:1 3:6 4:1 2:5 4:9 2:3 3:4 4:1
4:0 3:23 4:1 3:6 4:1 2:5 4:9 2:3 3:4 4:1 3:5
3:0 4:1 3:6 4:1 2:5 4:9 2:3 3:4 4:1 3:5 4:2
4:0 3:6 4:1 2:5 4:9 2:3 3:4 4:1 3:5 4:2 3:3
3:0 4:1 2:5 4:9 2:3 3:4 4:1 3:5 4:2 3:3 4:1
4:0 2:5 4:9 2:3 3:4 4:1 3:5 4:2 3:3 4:1 3:4
2:0 4:9 2:3 3:4 4:1 3:5 4:2 3:3 4:1 3:4 4:2
4:0 2:3 3:4 4:1 3:5 4:2 3:3 4:1 3:4 4:2 3:1
2:0 3:4 4:1 3:5 4:2 3:3 4:1 3:4 4:2 3:1
3:0 4:1 3:5 4:2 3:3 4:1 3:4 4:2 3:1
4:0 3:5 4:2 3:3 4:1 3:4 4:2 3:1
3:0 4:2 3:3 4:1 3:4 4:2 3:1
4:0 3:3 4:1 3:4 4:2 3:1
3:0 4:1 3:4 4:2 3:1
4:0 3:4 4:2 3:1
3:0 4:2 3:1
4:0 3:1
3:0