3:0 4:5 3:15 2:3 3:4 4:2 3:12 2:5 3:3 4:2 3:1
4:0 3:15 2:3 3:4 4:2 3:12 2:5 3:3 4:2 3:1 4:3
3:0 2:3 3:4 4:2 3:12 2:5 3:3 4:2 3:1 4:3 3:1
2:0 3:4 4:2 3:12 2:5 3:3 4:2 3:1 4:3 3:1 4:6
3:0 4:2 3:12 2:5 3:3 4:2 3:1 4:3 3:1 4:6 3:1
4:0 3:12 2:5 3:3 4:2 3:1 4:3 3:1 4:6 3:1 4:1
3:0 2:5 3:3 4:2 3:1 4:3 3:1 4:6 3:1 4:1 3:9
2:0 3:3 4:2 3:1 4:3 3:1 4:6 3:1 4:1 3:9 4:2
3:0 4:2 3:1 4:3 3:1 4:6 3:1 4:1 3:9 4:2 3:2
4:0 3:1 4:3 3:1 4:6 3:1 4:1 3:9 4:2 3:2 4:2
3:0 4:3 3:1 4:6 3:1 4:1 3:9 4:2 3:2 4:2 3:1
4:0 3:1 4:6 3:1 4:1 3:9 4:2 3:2 4:2 3:1 2:3
3:0 4:6 3:1 4:1 3:9 4:2 3:2 4:2 3:1 2:3 3:3
4:0 3:1 4:1 3:9 4:2 3:2 4:2 3:1 2:3 3:3 4:4
3:0 4:1 3:9 4:2 3:2 4:2 3:1 2:3 3:3 4:4 3:1
4:0 3:9 4:2 3:2 4:2 3:1 2:3 3:3 4:4 3:1 4:9
3:0 4:2 3:2 4:2 3:1 2:3 3:3 4:4 3:1 4:9 3:14
4:0 3:2 4:2 3:1 2:3 3:3 4:4 3:1 4:9 3:14 2:3
3:0 4:2 3:1 2:3 3:3 4:4 3:1 4:9 3:14 2:3 3:4
4:0 3:1 2:3 3:3 4:4 3:1 4:9 3:14 2:3 3:4 4:2
3:0 2:3 3:3 4:4 3:1 4:9 3:14 2:3 3:4 4:2 3:1
2:0 3:3 4:4 3:1 4:9 3:14 2:3 3:4 4:2 3:1 4:1
3:0 4:4 3:1 4:9 3:14 2:3 3:4 4:2 3:1 4:1 3:12
4:0 3:1 4:9 3:14 2:3 3:4 4:2 3:1 4:1 3:12 2:5
3:0 4:9 3:14 2:3 3:4 4:2 3:1 4:1 3:12 2:5 3:3
4:0 3:14 2:3 3:4 4:2 3:1 4:1 3:12 2:5 3:3 4:2
3:0 2:3 3:4 4:2 3:1 4:1 3:12 2:5 3:3 4:2 3:2
2:0 3:4 4:2 3:1 4:1 3:12 2:5 3:3 4:2 3:2 4:2
3:0 4:2 3:1 4:1 3:12 2:5 3:3 4:2 3:2 4:2 3:5
4:0 3:1 4:1 3:12 2:5 3:3 4:2 3:2 4:2 3:5 4:8
3:0 4:1 3:12 2:5 3:3 4:2 3:2 4:2 3:5 4:8 3:2
4:0 3:12 2:5 3:3 4:2 3:2 4:2 3:5 4:8 3:2 4:5
3:0 2:5 3:3 4:2 3:2 4:2 3:5 4:8 3:2 4:5 3:4
2:0 3:3 4:2 3:2 4:2 3:5 4:8 3:2 4:5 3:4 4:2
3:0 4:2 3:2 4:2 3:5 4:8 3:2 4:5 3:4 4:2 3:1
4:0 3:2 4:2 3:5 4:8 3:2 4:5 3:4 4:2 3:1 2:1
3:0 4:2 3:5 4:8 3:2 4:5 3:4 4:2 3:1 2:1 3:4
4:0 3:5 4:8 3:2 4:5 3:4 4:2 3:1 2:1 3:4 4:12
3:0 4:8 3:2 4:5 3:4 4:2 3:1 2:1 3:4 4:12 3:4
4:0 3:2 4:5 3:4 4:2 3:1 2:1 3:4 4:12 3:4 4:2
3:0 4:5 3:4 4:2 3:1 2:1 3:4 4:12 3:4 4:2 3:1
4:0 3:4 4:2 3:1 2:1 3:4 4:12 3:4 4:2 3:1 2:1
3:0 4:2 3:1 2:1 3:4 4:12 3:4 4:2 3:1 2:1 3:4
4:0 3:1 2:1 3:4 4:12 3:4 4:2 3:1 2:1 3:4 4:3
3:0 2:1 3:4 4:12 3:4 4:2 3:1 2:1 3:4 4:3 3:1
2:0 3:4 4:12 3:4 4:2 3:1 2:1 3:4 4:3 3:1 4:10
3:0 4:12 3:4 4:2 3:1 2:1 3:4 4:3 3:1 4:10 3:8
4:0 3:4 4:2 3:1 2:1 3:4 4:3 3:1 4:10 3:8 2:1
3:0 4:2 3:1 2:1 3:4 4:3 3:1 4:10 3:8 2:1 3:2
4:0 3:1 2:1 3:4 4:3 3:1 4:10 3:8 2:1 3:2 2:2
3:0 2:1 3:4 4:3 3:1 4:10 3:8 2:1 3:2 2:2 3:3
2:0 3:4 4:3 3:1 4:10 3:8 2:1 3:2 2:2 3:3 4:6
3:0 4:3 3:1 4:10 3:8 2:1 3:2 2:2 3:3 4:6 3:1
4:0 3:1 4:10 3:8 2:1 3:2 2:2 3:3 4:6 3:1 4:2
3:0 4:10 3:8 2:1 3:2 2:2 3:3 4:6 3:1 4:2 3:2
4:0 3:8 2:1 3:2 2:2 3:3 4:6 3:1 4:2 3:2 4:1
3:0 2:1 3:2 2:2 3:3 4:6 3:1 4:2 3:2 4:1 3:2
2:0 3:2 2:2 3:3 4:6 3:1 4:2 3:2 4:1 3:2 4:3
3:0 2:2 3:3 4:6 3:1 4:2 3:2 4:1 3:2 4:3 3:8
2:0 3:3 4:6 3:1 4:2 3:2 4:1 3:2 4:3 3:8 4:4
3:0 4:6 3:1 4:2 3:2 4:1 3:2 4:3 3:8 4:4 3:4
4:0 3:1 4:2 3:2 4:1 3:2 4:3 3:8 4:4 3:4 4:2
3:0 4:2 3:2 4:1 3:2 4:3 3:8 4:4 3:4 4:2 3:1
4:0 3:2 4:1 3:2 4:3 3:8 4:4 3:4 4:2 3:1 2:2
3:0 4:1 3:2 4:3 3:8 4:4 3:4 4:2 3:1 2:2 3:3
4:0 3:2 4:3 3:8 4:4 3:4 4:2 3:1 2:2 3:3 4:12
3:0 4:3 3:8 4:4 3:4 4:2 3:1 2:2 3:3 4:12 3:1
4:0 3:8 4:4 3:4 4:2 3:1 2:2 3:3 4:12 3:1 4:1
3:0 4:4 3:4 4:2 3:1 2:2 3:3 4:12 3:1 4:1 3:13
4:0 3:4 4:2 3:1 2:2 3:3 4:12 3:1 4:1 3:13 2:5
3:0 4:2 3:1 2:2 3:3 4:12 3:1 4:1 3:13 2:5 3:2
4:0 3:1 2:2 3:3 4:12 3:1 4:1 3:13 2:5 3:2 4:4
3:0 2:2 3:3 4:12 3:1 4:1 3:13 2:5 3:2 4:4 3:7
2:0 3:3 4:12 3:1 4:1 3:13 2:5 3:2 4:4 3:7 2:1
3:0 4:12 3:1 4:1 3:13 2:5 3:2 4:4 3:7 2:1 3:6
4:0 3:1 4:1 3:13 2:5 3:2 4:4 3:7 2:1 3:6 4:10
3:0 4:1 3:13 2:5 3:2 4:4 3:7 2:1 3:6 4:10 3:14
4:0 3:13 2:5 3:2 4:4 3:7 2:1 3:6 4:10 3:14 2:3
3:0 2:5 3:2 4:4 3:7 2:1 3:6 4:10 3:14 2:3 3:4
2:0 3:2 4:4 3:7 2:1 3:6 4:10 3:14 2:3 3:4 4:4
3:0 4:4 3:7 2:1 3:6 4:10 3:14 2:3 3:4 4:4 3:12
4:0 3:7 2:1 3:6 4:10 3:14 2:3 3:4 4:4 3:12 2:5
3:0 2:1 3:6 4:10 3:14 2:3 3:4 4:4 3:12 2:5 3:3
2:0 3:6 4:10 3:14 2:3 3:4 4:4 3:12 2:5 3:3 4:3
3:0 4:10 3:14 2:3 3:4 4:4 3:12 2:5 3:3 4:3 3:2
4:0 3:14 2:3 3:4 4:4 3:12 2:5 3:3 4:3 3:2 4:6
3:0 2:3 3:4 4:4 3:12 2:5 3:3 4:3 3:2 4:6 3:1
2:0 3:4 4:4 3:12 2:5 3:3 4:3 3:2 4:6 3:1 4:3
3:0 4:4 3:12 2:5 3:3 4:3 3:2 4:6 3:1 4:3 3:6
4:0 3:12 2:5 3:3 4:3 3:2 4:6 3:1 4:3 3:6 4:5
3:0 2:5 3:3 4:3 3:2 4:6 3:1 4:3 3:6 4:5 3:3
2:0 3:3 4:3 3:2 4:6 3:1 4:3 3:6 4:5 3:3 4:1
3:0 4:3 3:2 4:6 3:1 4:3 3:6 4:5 3:3 4:1 3:1
4:0 3:2 4:6 3:1 4:3 3:6 4:5 3:3 4:1 3:1 2:3
3:0 4:6 3:1 4:3 3:6 4:5 3:3 4:1 3:1 2:3 3:3
4:0 3:1 4:3 3:6 4:5 3:3 4:1 3:1 2:3 3:3 4:3
3:0 4:3 3:6 4:5 3:3 4:1 3:1 2:3 3:3 4:3 3:5
4:0 3:6 4:5 3:3 4:1 3:1 2:3 3:3 4:3 3:5 4:5
3:0 4:5 3:3 4:1 3:1 2:3 3:3 4:3 3:5 4:5 3:3
4:0 3:3 4:1 3:1 2:3 3:3 4:3 3:5 4:5 3:3 2:5
3:0 4:1 3:1 2:3 3:3 4:3 3:5 4:5 3:3 2:5 3:3
4:0 3:1 2:3 3:3 4:3 3:5 4:5 3:3 2:5 3:3 4:13
3:0 2:3 3:3 4:3 3:5 4:5 3:3 2:5 3:3 4:13 3:1
2:0 3:3 4:3 3:5 4:5 3:3 2:5 3:3 4:13 3:1 4:1
3:0 4:3 3:5 4:5 3:3 2:5 3:3 4:13 3:1 4:1 3:11
4:0 3:5 4:5 3:3 2:5 3:3 4:13 3:1 4:1 3:11 2:6
3:0 4:5 3:3 2:5 3:3 4:13 3:1 4:1 3:11 2:6 3:2
4:0 3:3 2:5 3:3 4:13 3:1 4:1 3:11 2:6 3:2 4:4
3:0 2:5 3:3 4:13 3:1 4:1 3:11 2:6 3:2 4:4 3:9
2:0 3:3 4:13 3:1 4:1 3:11 2:6 3:2 4:4 3:9 4:5
3:0 4:13 3:1 4:1 3:11 2:6 3:2 4:4 3:9 4:5 3:4
4:0 3:1 4:1 3:11 2:6 3:2 4:4 3:9 4:5 3:4 4:5
3:0 4:1 3:11 2:6 3:2 4:4 3:9 4:5 3:4 4:5 3:3
4:0 3:11 2:6 3:2 4:4 3:9 4:5 3:4 4:5 3:3 4:2
3:0 2:6 3:2 4:4 3:9 4:5 3:4 4:5 3:3 4:2 3:1
2:0 3:2 4:4 3:9 4:5 3:4 4:5 3:3 4:2 3:1 2:2
3:0 4:4 3:9 4:5 3:4 4:5 3:3 4:2 3:1 2:2 3:4
4:0 3:9 4:5 3:4 4:5 3:3 4:2 3:1 2:2 3:4 4:12
3:0 4:5 3:4 4:5 3:3 4:2 3:1 2:2 3:4 4:12 3:16
4:0 3:4 4:5 3:3 4:2 3:1 2:2 3:4 4:12 3:16 2:3
3:0 4:5 3:3 4:2 3:1 2:2 3:4 4:12 3:16 2:3 3:4
4:0 3:3 4:2 3:1 2:2 3:4 4:12 3:16 2:3 3:4 4:3
3:0 4:2 3:1 2:2 3:4 4:12 3:16 2:3 3:4 4:3 3:12
4:0 3:1 2:2 3:4 4:12 3:16 2:3 3:4 4:3 3:12 2:4
3:0 2:2 3:4 4:12 3:16 2:3 3:4 4:3 3:12 2:4 3:4
2:0 3:4 4:12 3:16 2:3 3:4 4:3 3:12 2:4 3:4 4:2
3:0 4:12 3:16 2:3 3:4 4:3 3:12 2:4 3:4 4:2 3:2
4:0 3:16 2:3 3:4 4:3 3:12 2:4 3:4 4:2 3:2 4:3
3:0 2:3 3:4 4:3 3:12 2:4 3:4 4:2 3:2 4:3 3:1
2:0 3:4 4:3 3:12 2:4 3:4 4:2 3:2 4:3 3:1 4:1
3:0 4:3 3:12 2:4 3:4 4:2 3:2 4:3 3:1 4:1 3:1
4:0 3:12 2:4 3:4 4:2 3:2 4:3 3:1 4:1 3:1 4:6
3:0 2:4 3:4 4:2 3:2 4:3 3:1 4:1 3:1 4:6 3:5
2:0 3:4 4:2 3:2 4:3 3:1 4:1 3:1 4:6 3:5 4:5
3:0 4:2 3:2 4:3 3:1 4:1 3:1 4:6 3:5 4:5 3:3
4:0 3:2 4:3 3:1 4:1 3:1 4:6 3:5 4:5 3:3 4:1
3:0 4:3 3:1 4:1 3:1 4:6 3:5 4:5 3:3 4:1 3:2
4:0 3:1 4:1 3:1 4:6 3:5 4:5 3:3 4:1 3:2 2:2
3:0 4:1 3:1 4:6 3:5 4:5 3:3 4:1 3:2 2:2 3:3
4:0 3:1 4:6 3:5 4:5 3:3 4:1 3:2 2:2 3:3 4:6
3:0 4:6 3:5 4:5 3:3 4:1 3:2 2:2 3:3 4:6 3:3
4:0 3:5 4:5 3:3 4:1 3:2 2:2 3:3 4:6 3:3 4:4
3:0 4:5 3:3 4:1 3:2 2:2 3:3 4:6 3:3 4:4 3:3
4:0 3:3 4:1 3:2 2:2 3:3 4:6 3:3 4:4 3:3 2:5
3:0 4:1 3:2 2:2 3:3 4:6 3:3 4:4 3:3 2:5 3:3
4:0 3:2 2:2 3:3 4:6 3:3 4:4 3:3 2:5 3:3 4:13
3:0 2:2 3:3 4:6 3:3 4:4 3:3 2:5 3:3 4:13 3:6
2:0 3:3 4:6 3:3 4:4 3:3 2:5 3:3 4:13 3:6 2:3
3:0 4:6 3:3 4:4 3:3 2:5 3:3 4:13 3:6 2:3 3:4
4:0 3:3 4:4 3:3 2:5 3:3 4:13 3:6 2:3 3:4 4:12
3:0 4:4 3:3 2:5 3:3 4:13 3:6 2:3 3:4 4:12 3:4
4:0 3:3 2:5 3:3 4:13 3:6 2:3 3:4 4:12 3:4 2:4
3:0 2:5 3:3 4:13 3:6 2:3 3:4 4:12 3:4 2:4 3:1
2:0 3:3 4:13 3:6 2:3 3:4 4:12 3:4 2:4 3:1 2:1
3:0 4:13 3:6 2:3 3:4 4:12 3:4 2:4 3:1 2:1 3:2
4:0 3:6 2:3 3:4 4:12 3:4 2:4 3:1 2:1 3:2 4:5
3:0 2:3 3:4 4:12 3:4 2:4 3:1 2:1 3:2 4:5 3:1
2:0 3:4 4:12 3:4 2:4 3:1 2:1 3:2 4:5 3:1 4:6
3:0 4:12 3:4 2:4 3:1 2:1 3:2 4:5 3:1 4:6 3:9
4:0 3:4 2:4 3:1 2:1 3:2 4:5 3:1 4:6 3:9 2:1
3:0 2:4 3:1 2:1 3:2 4:5 3:1 4:6 3:9 2:1 3:2
2:0 3:1 2:1 3:2 4:5 3:1 4:6 3:9 2:1 3:2 2:2
3:0 2:1 3:2 4:5 3:1 4:6 3:9 2:1 3:2 2:2 3:3
2:0 3:2 4:5 3:1 4:6 3:9 2:1 3:2 2:2 3:3 4:6
3:0 4:5 3:1 4:6 3:9 2:1 3:2 2:2 3:3 4:6 3:6
4:0 3:1 4:6 3:9 2:1 3:2 2:2 3:3 4:6 3:6 2:2
3:0 4:6 3:9 2:1 3:2 2:2 3:3 4:6 3:6 2:2 3:5
4:0 3:9 2:1 3:2 2:2 3:3 4:6 3:6 2:2 3:5 4:1
3:0 2:1 3:2 2:2 3:3 4:6 3:6 2:2 3:5 4:1 3:1
2:0 3:2 2:2 3:3 4:6 3:6 2:2 3:5 4:1 3:1 4:11
3:0 2:2 3:3 4:6 3:6 2:2 3:5 4:1 3:1 4:11 3:15
2:0 3:3 4:6 3:6 2:2 3:5 4:1 3:1 4:11 3:15 2:2
3:0 4:6 3:6 2:2 3:5 4:1 3:1 4:11 3:15 2:2 3:5
4:0 3:6 2:2 3:5 4:1 3:1 4:11 3:15 2:2 3:5 4:2
3:0 2:2 3:5 4:1 3:1 4:11 3:15 2:2 3:5 4:2 3:12
2:0 3:5 4:1 3:1 4:11 3:15 2:2 3:5 4:2 3:12 2:4
3:0 4:1 3:1 4:11 3:15 2:2 3:5 4:2 3:12 2:4 3:3
4:0 3:1 4:11 3:15 2:2 3:5 4:2 3:12 2:4 3:3 4:2
3:0 4:11 3:15 2:2 3:5 4:2 3:12 2:4 3:3 4:2 3:2
4:0 3:15 2:2 3:5 4:2 3:12 2:4 3:3 4:2 3:2 4:2
3:0 2:2 3:5 4:2 3:12 2:4 3:3 4:2 3:2 4:2 3:3
2:0 3:5 4:2 3:12 2:4 3:3 4:2 3:2 4:2 3:3 4:7
3:0 4:2 3:12 2:4 3:3 4:2 3:2 4:2 3:3 4:7 3:6
4:0 3:12 2:4 3:3 4:2 3:2 4:2 3:3 4:7 3:6 4:5
3:0 2:4 3:3 4:2 3:2 4:2 3:3 4:7 3:6 4:5 3:2
2:0 3:3 4:2 3:2 4:2 3:3 4:7 3:6 4:5 3:2 4:2
3:0 4:2 3:2 4:2 3:3 4:7 3:6 4:5 3:2 4:2 3:2
4:0 3:2 4:2 3:3 4:7 3:6 4:5 3:2 4:2 3:2 2:3
3:0 4:2 3:3 4:7 3:6 4:5 3:2 4:2 3:2 2:3 3:3
4:0 3:3 4:7 3:6 4:5 3:2 4:2 3:2 2:3 3:3 4:14
3:0 4:7 3:6 4:5 3:2 4:2 3:2 2:3 3:3 4:14 3:16
4:0 3:6 4:5 3:2 4:2 3:2 2:3 3:3 4:14 3:16 2:1
3:0 4:5 3:2 4:2 3:2 2:3 3:3 4:14 3:16 2:1 3:6
4:0 3:2 4:2 3:2 2:3 3:3 4:14 3:16 2:1 3:6 4:1
3:0 4:2 3:2 2:3 3:3 4:14 3:16 2:1 3:6 4:1 3:13
4:0 3:2 2:3 3:3 4:14 3:16 2:1 3:6 4:1 3:13 4:1
3:0 2:3 3:3 4:14 3:16 2:1 3:6 4:1 3:13 4:1 3:1
2:0 3:3 4:14 3:16 2:1 3:6 4:1 3:13 4:1 3:1 2:2
3:0 4:14 3:16 2:1 3:6 4:1 3:13 4:1 3:1 2:2 3:4
4:0 3:16 2:1 3:6 4:1 3:13 4:1 3:1 2:2 3:4 4:3
3:0 2:1 3:6 4:1 3:13 4:1 3:1 2:2 3:4 4:3 3:1
2:0 3:6 4:1 3:13 4:1 3:1 2:2 3:4 4:3 3:1 4:12
3:0 4:1 3:13 4:1 3:1 2:2 3:4 4:3 3:1 4:12 3:3
4:0 3:13 4:1 3:1 2:2 3:4 4:3 3:1 4:12 3:3 4:5
3:0 4:1 3:1 2:2 3:4 4:3 3:1 4:12 3:3 4:5 3:4
4:0 3:1 2:2 3:4 4:3 3:1 4:12 3:3 4:5 3:4 4:2
3:0 2:2 3:4 4:3 3:1 4:12 3:3 4:5 3:4 4:2 3:1
2:0 3:4 4:3 3:1 4:12 3:3 4:5 3:4 4:2 3:1 2:2
3:0 4:3 3:1 4:12 3:3 4:5 3:4 4:2 3:1 2:2 3:3
4:0 3:1 4:12 3:3 4:5 3:4 4:2 3:1 2:2 3:3 4:4
3:0 4:12 3:3 4:5 3:4 4:2 3:1 2:2 3:3 4:4 3:2
4:0 3:3 4:5 3:4 4:2 3:1 2:2 3:3 4:4 3:2 4:9
3:0 4:5 3:4 4:2 3:1 2:2 3:3 4:4 3:2 4:9 2:8
4:0 3:4 4:2 3:1 2:2 3:3 4:4 3:2 4:9 2:8 3:6
3:0 4:2 3:1 2:2 3:3 4:4 3:2 4:9 2:8 3:6 4:9
4:0 3:1 2:2 3:3 4:4 3:2 4:9 2:8 3:6 4:9 3:7
3:0 2:2 3:3 4:4 3:2 4:9 2:8 3:6 4:9 3:7 2:1
2:0 3:3 4:4 3:2 4:9 2:8 3:6 4:9 3:7 2:1 3:6
3:0 4:4 3:2 4:9 2:8 3:6 4:9 3:7 2:1 3:6 4:1
4:0 3:2 4:9 2:8 3:6 4:9 3:7 2:1 3:6 4:1 3:1
3:0 4:9 2:8 3:6 4:9 3:7 2:1 3:6 4:1 3:1 4:8
4:0 2:8 3:6 4:9 3:7 2:1 3:6 4:1 3:1 4:8 3:6
2:0 3:6 4:9 3:7 2:1 3:6 4:1 3:1 4:8 3:6 2:2
3:0 4:9 3:7 2:1 3:6 4:1 3:1 4:8 3:6 2:2 1:4
4:0 3:7 2:1 3:6 4:1 3:1 4:8 3:6 2:2 1:4 3:1
3:0 2:1 3:6 4:1 3:1 4:8 3:6 2:2 1:4 3:1 4:11
2:0 3:6 4:1 3:1 4:8 3:6 2:2 1:4 3:1 4:11 3:6
3:0 4:1 3:1 4:8 3:6 2:2 1:4 3:1 4:11 3:6 2:2
4:0 3:1 4:8 3:6 2:2 1:4 3:1 4:11 3:6 2:2 3:4
3:0 4:8 3:6 2:2 1:4 3:1 4:11 3:6 2:2 3:4 4:2
4:0 3:6 2:2 1:4 3:1 4:11 3:6 2:2 3:4 4:2 3:1
3:0 2:2 1:4 3:1 4:11 3:6 2:2 3:4 4:2 3:1 4:9
2:0 1:4 3:1 4:11 3:6 2:2 3:4 4:2 3:1 4:9 3:17
1:0 3:1 4:11 3:6 2:2 3:4 4:2 3:1 4:9 3:17 2:1
3:0 4:11 3:6 2:2 3:4 4:2 3:1 4:9 3:17 2:1 3:5
4:0 3:6 2:2 3:4 4:2 3:1 4:9 3:17 2:1 3:5 4:1
3:0 2:2 3:4 4:2 3:1 4:9 3:17 2:1 3:5 4:1 3:14
2:0 3:4 4:2 3:1 4:9 3:17 2:1 3:5 4:1 3:14 2:4
3:0 4:2 3:1 4:9 3:17 2:1 3:5 4:1 3:14 2:4 3:3
4:0 3:1 4:9 3:17 2:1 3:5 4:1 3:14 2:4 3:3 4:4
3:0 4:9 3:17 2:1 3:5 4:1 3:14 2:4 3:3 4:4 3:2
4:0 3:17 2:1 3:5 4:1 3:14 2:4 3:3 4:4 3:2 4:6
3:0 2:1 3:5 4:1 3:14 2:4 3:3 4:4 3:2 4:6 3:1
2:0 3:5 4:1 3:14 2:4 3:3 4:4 3:2 4:6 3:1 4:2
3:0 4:1 3:14 2:4 3:3 4:4 3:2 4:6 3:1 4:2 3:5
4:0 3:14 2:4 3:3 4:4 3:2 4:6 3:1 4:2 3:5 4:5
3:0 2:4 3:3 4:4 3:2 4:6 3:1 4:2 3:5 4:5 3:3
2:0 3:3 4:4 3:2 4:6 3:1 4:2 3:5 4:5 3:3 4:3
3:0 4:4 3:2 4:6 3:1 4:2 3:5 4:5 3:3 4:3 3:1
4:0 3:2 4:6 3:1 4:2 3:5 4:5 3:3 4:3 3:1 2:1
3:0 4:6 3:1 4:2 3:5 4:5 3:3 4:3 3:1 2:1 3:4
4:0 3:1 4:2 3:5 4:5 3:3 4:3 3:1 2:1 3:4 4:3
3:0 4:2 3:5 4:5 3:3 4:3 3:1 2:1 3:4 4:3 3:2
4:0 3:5 4:5 3:3 4:3 3:1 2:1 3:4 4:3 3:2 4:9
3:0 4:5 3:3 4:3 3:1 2:1 3:4 4:3 3:2 4:9 3:6
4:0 3:3 4:3 3:1 2:1 3:4 4:3 3:2 4:9 3:6 2:1
3:0 4:3 3:1 2:1 3:4 4:3 3:2 4:9 3:6 2:1 3:5
4:0 3:1 2:1 3:4 4:3 3:2 4:9 3:6 2:1 3:5 4:3
3:0 2:1 3:4 4:3 3:2 4:9 3:6 2:1 3:5 4:3 3:1
2:0 3:4 4:3 3:2 4:9 3:6 2:1 3:5 4:3 3:1 4:7
3:0 4:3 3:2 4:9 3:6 2:1 3:5 4:3 3:1 4:7 3:3
4:0 3:2 4:9 3:6 2:1 3:5 4:3 3:1 4:7 3:3 4:2
3:0 4:9 3:6 2:1 3:5 4:3 3:1 4:7 3:3 4:2 3:1
4:0 3:6 2:1 3:5 4:3 3:1 4:7 3:3 4:2 3:1 2:3
3:0 2:1 3:5 4:3 3:1 4:7 3:3 4:2 3:1 2:3 3:3
2:0 3:5 4:3 3:1 4:7 3:3 4:2 3:1 2:3 3:3 4:13
3:0 4:3 3:1 4:7 3:3 4:2 3:1 2:3 3:3 4:13 3:15
4:0 3:1 4:7 3:3 4:2 3:1 2:3 3:3 4:13 3:15 2:3
3:0 4:7 3:3 4:2 3:1 2:3 3:3 4:13 3:15 2:3 3:4
4:0 3:3 4:2 3:1 2:3 3:3 4:13 3:15 2:3 3:4 4:2
3:0 4:2 3:1 2:3 3:3 4:13 3:15 2:3 3:4 4:2 3:13
4:0 3:1 2:3 3:3 4:13 3:15 2:3 3:4 4:2 3:13 2:5
3:0 2:3 3:3 4:13 3:15 2:3 3:4 4:2 3:13 2:5 3:2
2:0 3:3 4:13 3:15 2:3 3:4 4:2 3:13 2:5 3:2 4:5
3:0 4:13 3:15 2:3 3:4 4:2 3:13 2:5 3:2 4:5 3:2
4:0 3:15 2:3 3:4 4:2 3:13 2:5 3:2 4:5 3:2 4:8
3:0 2:3 3:4 4:2 3:13 2:5 3:2 4:5 3:2 4:8 3:7
2:0 3:4 4:2 3:13 2:5 3:2 4:5 3:2 4:8 3:7 4:5
3:0 4:2 3:13 2:5 3:2 4:5 3:2 4:8 3:7 4:5 3:3
4:0 3:13 2:5 3:2 4:5 3:2 4:8 3:7 4:5 3:3 4:1
3:0 2:5 3:2 4:5 3:2 4:8 3:7 4:5 3:3 4:1 3:2
2:0 3:2 4:5 3:2 4:8 3:7 4:5 3:3 4:1 3:2 2:2
3:0 4:5 3:2 4:8 3:7 4:5 3:3 4:1 3:2 2:2 3:4
4:0 3:2 4:8 3:7 4:5 3:3 4:1 3:2 2:2 3:4 4:5
3:0 4:8 3:7 4:5 3:3 4:1 3:2 2:2 3:4 4:5 3:1
4:0 3:7 4:5 3:3 4:1 3:2 2:2 3:4 4:5 3:1 4:7
3:0 4:5 3:3 4:1 3:2 2:2 3:4 4:5 3:1 4:7 2:9
4:0 3:3 4:1 3:2 2:2 3:4 4:5 3:1 4:7 2:9 3:4
3:0 4:1 3:2 2:2 3:4 4:5 3:1 4:7 2:9 3:4 2:1
4:0 3:2 2:2 3:4 4:5 3:1 4:7 2:9 3:4 2:1 3:2
3:0 2:2 3:4 4:5 3:1 4:7 2:9 3:4 2:1 3:2 4:9
2:0 3:4 4:5 3:1 4:7 2:9 3:4 2:1 3:2 4:9 3:1
3:0 4:5 3:1 4:7 2:9 3:4 2:1 3:2 4:9 3:1 4:3
4:0 3:1 4:7 2:9 3:4 2:1 3:2 4:9 3:1 4:3 3:2
3:0 4:7 2:9 3:4 2:1 3:2 4:9 3:1 4:3 3:2 4:5
4:0 2:9 3:4 2:1 3:2 4:9 3:1 4:3 3:2 4:5 3:14
2:0 3:4 2:1 3:2 4:9 3:1 4:3 3:2 4:5 3:14 4:2
3:0 2:1 3:2 4:9 3:1 4:3 3:2 4:5 3:14 4:2 3:1
2:0 3:2 4:9 3:1 4:3 3:2 4:5 3:14 4:2 3:1 2:3
3:0 4:9 3:1 4:3 3:2 4:5 3:14 4:2 3:1 2:3 3:3
4:0 3:1 4:3 3:2 4:5 3:14 4:2 3:1 2:3 3:3 4:14
3:0 4:3 3:2 4:5 3:14 4:2 3:1 2:3 3:3 4:14 3:8
4:0 3:2 4:5 3:14 4:2 3:1 2:3 3:3 4:14 3:8 4:3
3:0 4:5 3:14 4:2 3:1 2:3 3:3 4:14 3:8 4:3 3:4
4:0 3:14 4:2 3:1 2:3 3:3 4:14 3:8 4:3 3:4 2:2
3:0 4:2 3:1 2:3 3:3 4:14 3:8 4:3 3:4 2:2 3:4
4:0 3:1 2:3 3:3 4:14 3:8 4:3 3:4 2:2 3:4 4:3
3:0 2:3 3:3 4:14 3:8 4:3 3:4 2:2 3:4 4:3 3:12
2:0 3:3 4:14 3:8 4:3 3:4 2:2 3:4 4:3 3:12 2:4
3:0 4:14 3:8 4:3 3:4 2:2 3:4 4:3 3:12 2:4 3:3
4:0 3:8 4:3 3:4 2:2 3:4 4:3 3:12 2:4 3:3 4:4
3:0 4:3 3:4 2:2 3:4 4:3 3:12 2:4 3:3 4:4 3:2
4:0 3:4 2:2 3:4 4:3 3:12 2:4 3:3 4:4 3:2 4:11
3:0 2:2 3:4 4:3 3:12 2:4 3:3 4:4 3:2 4:11 3:5
2:0 3:4 4:3 3:12 2:4 3:3 4:4 3:2 4:11 3:5 4:4
3:0 4:3 3:12 2:4 3:3 4:4 3:2 4:11 3:5 4:4 3:4
4:0 3:12 2:4 3:3 4:4 3:2 4:11 3:5 4:4 3:4 4:2
3:0 2:4 3:3 4:4 3:2 4:11 3:5 4:4 3:4 4:2 3:1
2:0 3:3 4:4 3:2 4:11 3:5 4:4 3:4 4:2 3:1 2:1
3:0 4:4 3:2 4:11 3:5 4:4 3:4 4:2 3:1 2:1 3:4
4:0 3:2 4:11 3:5 4:4 3:4 4:2 3:1 2:1 3:4 4:4
3:0 4:11 3:5 4:4 3:4 4:2 3:1 2:1 3:4 4:4 3:4
4:0 3:5 4:4 3:4 4:2 3:1 2:1 3:4 4:4 3:4 4:5
3:0 4:4 3:4 4:2 3:1 2:1 3:4 4:4 3:4 4:5 3:2
4:0 3:4 4:2 3:1 2:1 3:4 4:4 3:4 4:5 3:2 4:2
3:0 4:2 3:1 2:1 3:4 4:4 3:4 4:5 3:2 4:2 3:1
4:0 3:1 2:1 3:4 4:4 3:4 4:5 3:2 4:2 3:1 2:3
3:0 2:1 3:4 4:4 3:4 4:5 3:2 4:2 3:1 2:3 3:3
2:0 3:4 4:4 3:4 4:5 3:2 4:2 3:1 2:3 3:3 4:5
3:0 4:4 3:4 4:5 3:2 4:2 3:1 2:3 3:3 4:5 3:1
4:0 3:4 4:5 3:2 4:2 3:1 2:3 3:3 4:5 3:1 4:8
3:0 4:5 3:2 4:2 3:1 2:3 3:3 4:5 3:1 4:8 2:6
4:0 3:2 4:2 3:1 2:3 3:3 4:5 3:1 4:8 2:6 3:6
3:0 4:2 3:1 2:3 3:3 4:5 3:1 4:8 2:6 3:6 4:3
4:0 3:1 2:3 3:3 4:5 3:1 4:8 2:6 3:6 4:3 3:1
3:0 2:3 3:3 4:5 3:1 4:8 2:6 3:6 4:3 3:1 4:7
2:0 3:3 4:5 3:1 4:8 2:6 3:6 4:3 3:1 4:7 3:3
3:0 4:5 3:1 4:8 2:6 3:6 4:3 3:1 4:7 3:3 4:2
4:0 3:1 4:8 2:6 3:6 4:3 3:1 4:7 3:3 4:2 3:2
3:0 4:8 2:6 3:6 4:3 3:1 4:7 3:3 4:2 3:2 2:1
4:0 2:6 3:6 4:3 3:1 4:7 3:3 4:2 3:2 2:1 3:4
2:0 3:6 4:3 3:1 4:7 3:3 4:2 3:2 2:1 3:4 4:12
3:0 4:3 3:1 4:7 3:3 4:2 3:2 2:1 3:4 4:12 3:14
4:0 3:1 4:7 3:3 4:2 3:2 2:1 3:4 4:12 3:14 2:4
3:0 4:7 3:3 4:2 3:2 2:1 3:4 4:12 3:14 2:4 3:4
4:0 3:3 4:2 3:2 2:1 3:4 4:12 3:14 2:4 3:4 4:3
3:0 4:2 3:2 2:1 3:4 4:12 3:14 2:4 3:4 4:3 3:11
4:0 3:2 2:1 3:4 4:12 3:14 2:4 3:4 4:3 3:11 2:6
3:0 2:1 3:4 4:12 3:14 2:4 3:4 4:3 3:11 2:6 3:4
2:0 3:4 4:12 3:14 2:4 3:4 4:3 3:11 2:6 3:4 4:5
3:0 4:12 3:14 2:4 3:4 4:3 3:11 2:6 3:4 4:5 3:2
4:0 3:14 2:4 3:4 4:3 3:11 2:6 3:4 4:5 3:2 4:3
3:0 2:4 3:4 4:3 3:11 2:6 3:4 4:5 3:2 4:3 3:1
2:0 3:4 4:3 3:11 2:6 3:4 4:5 3:2 4:3 3:1 4:5
3:0 4:3 3:11 2:6 3:4 4:5 3:2 4:3 3:1 4:5 3:7
4:0 3:11 2:6 3:4 4:5 3:2 4:3 3:1 4:5 3:7 4:3
3:0 2:6 3:4 4:5 3:2 4:3 3:1 4:5 3:7 4:3 3:5
2:0 3:4 4:5 3:2 4:3 3:1 4:5 3:7 4:3 3:5 2:3
3:0 4:5 3:2 4:3 3:1 4:5 3:7 4:3 3:5 2:3 3:3
4:0 3:2 4:3 3:1 4:5 3:7 4:3 3:5 2:3 3:3 4:6
3:0 4:3 3:1 4:5 3:7 4:3 3:5 2:3 3:3 4:6 3:2
4:0 3:1 4:5 3:7 4:3 3:5 2:3 3:3 4:6 3:2 4:5
3:0 4:5 3:7 4:3 3:5 2:3 3:3 4:6 3:2 4:5 3:4
4:0 3:7 4:3 3:5 2:3 3:3 4:6 3:2 4:5 3:4 2:4
3:0 4:3 3:5 2:3 3:3 4:6 3:2 4:5 3:4 2:4 3:4
4:0 3:5 2:3 3:3 4:6 3:2 4:5 3:4 2:4 3:4 4:12
3:0 2:3 3:3 4:6 3:2 4:5 3:4 2:4 3:4 4:12 3:14
2:0 3:3 4:6 3:2 4:5 3:4 2:4 3:4 4:12 3:14 2:5
3:0 4:6 3:2 4:5 3:4 2:4 3:4 4:12 3:14 2:5 3:4
4:0 3:2 4:5 3:4 2:4 3:4 4:12 3:14 2:5 3:4 4:2
3:0 4:5 3:4 2:4 3:4 4:12 3:14 2:5 3:4 4:2 3:9
4:0 3:4 2:4 3:4 4:12 3:14 2:5 3:4 4:2 3:9 4:6
3:0 2:4 3:4 4:12 3:14 2:5 3:4 4:2 3:9 4:6 3:4
2:0 3:4 4:12 3:14 2:5 3:4 4:2 3:9 4:6 3:4 4:4
3:0 4:12 3:14 2:5 3:4 4:2 3:9 4:6 3:4 4:4 3:5
4:0 3:14 2:5 3:4 4:2 3:9 4:6 3:4 4:4 3:5 2:3
3:0 2:5 3:4 4:2 3:9 4:6 3:4 4:4 3:5 2:3 3:1
2:0 3:4 4:2 3:9 4:6 3:4 4:4 3:5 2:3 3:1 2:1
3:0 4:2 3:9 4:6 3:4 4:4 3:5 2:3 3:1 2:1 3:3
4:0 3:9 4:6 3:4 4:4 3:5 2:3 3:1 2:1 3:3 4:11
3:0 4:6 3:4 4:4 3:5 2:3 3:1 2:1 3:3 4:11 3:5
4:0 3:4 4:4 3:5 2:3 3:1 2:1 3:3 4:11 3:5 2:3
3:0 4:4 3:5 2:3 3:1 2:1 3:3 4:11 3:5 2:3 3:4
4:0 3:5 2:3 3:1 2:1 3:3 4:11 3:5 2:3 3:4 4:13
3:0 2:3 3:1 2:1 3:3 4:11 3:5 2:3 3:4 4:13 3:14
2:0 3:1 2:1 3:3 4:11 3:5 2:3 3:4 4:13 3:14 2:4
3:0 2:1 3:3 4:11 3:5 2:3 3:4 4:13 3:14 2:4 3:4
2:0 3:3 4:11 3:5 2:3 3:4 4:13 3:14 2:4 3:4 4:2
3:0 4:11 3:5 2:3 3:4 4:13 3:14 2:4 3:4 4:2 3:13
4:0 3:5 2:3 3:4 4:13 3:14 2:4 3:4 4:2 3:13 4:1
3:0 2:3 3:4 4:13 3:14 2:4 3:4 4:2 3:13 4:1 3:1
2:0 3:4 4:13 3:14 2:4 3:4 4:2 3:13 4:1 3:1 2:3
3:0 4:13 3:14 2:4 3:4 4:2 3:13 4:1 3:1 2:3 3:3
4:0 3:14 2:4 3:4 4:2 3:13 4:1 3:1 2:3 3:3 4:5
3:0 2:4 3:4 4:2 3:13 4:1 3:1 2:3 3:3 4:5 3:1
2:0 3:4 4:2 3:13 4:1 3:1 2:3 3:3 4:5 3:1 4:7
3:0 4:2 3:13 4:1 3:1 2:3 3:3 4:5 3:1 4:7 3:2
4:0 3:13 4:1 3:1 2:3 3:3 4:5 3:1 4:7 3:2 4:1
3:0 4:1 3:1 2:3 3:3 4:5 3:1 4:7 3:2 4:1 3:5
4:0 3:1 2:3 3:3 4:5 3:1 4:7 3:2 4:1 3:5 4:4
3:0 2:3 3:3 4:5 3:1 4:7 3:2 4:1 3:5 4:4 3:4
2:0 3:3 4:5 3:1 4:7 3:2 4:1 3:5 4:4 3:4 4:1
3:0 4:5 3:1 4:7 3:2 4:1 3:5 4:4 3:4 4:1 3:1
4:0 3:1 4:7 3:2 4:1 3:5 4:4 3:4 4:1 3:1 2:3
3:0 4:7 3:2 4:1 3:5 4:4 3:4 4:1 3:1 2:3 3:4
4:0 3:2 4:1 3:5 4:4 3:4 4:1 3:1 2:3 3:4 4:2
3:0 4:1 3:5 4:4 3:4 4:1 3:1 2:3 3:4 4:2 3:1
4:0 3:5 4:4 3:4 4:1 3:1 2:3 3:4 4:2 3:1 4:9
3:0 4:4 3:4 4:1 3:1 2:3 3:4 4:2 3:1 4:9 3:6
4:0 3:4 4:1 3:1 2:3 3:4 4:2 3:1 4:9 3:6 2:3
3:0 4:1 3:1 2:3 3:4 4:2 3:1 4:9 3:6 2:3 3:4
4:0 3:1 2:3 3:4 4:2 3:1 4:9 3:6 2:3 3:4 4:11
3:0 2:3 3:4 4:2 3:1 4:9 3:6 2:3 3:4 4:11 3:4
2:0 3:4 4:2 3:1 4:9 3:6 2:3 3:4 4:11 3:4 2:4
3:0 4:2 3:1 4:9 3:6 2:3 3:4 4:11 3:4 2:4 3:4
4:0 3:1 4:9 3:6 2:3 3:4 4:11 3:4 2:4 3:4 4:5
3:0 4:9 3:6 2:3 3:4 4:11 3:4 2:4 3:4 4:5 3:1
4:0 3:6 2:3 3:4 4:11 3:4 2:4 3:4 4:5 3:1 4:7
3:0 2:3 3:4 4:11 3:4 2:4 3:4 4:5 3:1 4:7 3:16
2:0 3:4 4:11 3:4 2:4 3:4 4:5 3:1 4:7 3:16 2:2
3:0 4:11 3:4 2:4 3:4 4:5 3:1 4:7 3:16 2:2 3:5
4:0 3:4 2:4 3:4 4:5 3:1 4:7 3:16 2:2 3:5 4:1
3:0 2:4 3:4 4:5 3:1 4:7 3:16 2:2 3:5 4:1 3:13
2:0 3:4 4:5 3:1 4:7 3:16 2:2 3:5 4:1 3:13 2:5
3:0 4:5 3:1 4:7 3:16 2:2 3:5 4:1 3:13 2:5 3:3
4:0 3:1 4:7 3:16 2:2 3:5 4:1 3:13 2:5 3:3 4:3
3:0 4:7 3:16 2:2 3:5 4:1 3:13 2:5 3:3 4:3 3:2
4:0 3:16 2:2 3:5 4:1 3:13 2:5 3:3 4:3 3:2 4:6
3:0 2:2 3:5 4:1 3:13 2:5 3:3 4:3 3:2 4:6 3:1
2:0 3:5 4:1 3:13 2:5 3:3 4:3 3:2 4:6 3:1 4:4
3:0 4:1 3:13 2:5 3:3 4:3 3:2 4:6 3:1 4:4 3:5
4:0 3:13 2:5 3:3 4:3 3:2 4:6 3:1 4:4 3:5 4:4
3:0 2:5 3:3 4:3 3:2 4:6 3:1 4:4 3:5 4:4 3:4
2:0 3:3 4:3 3:2 4:6 3:1 4:4 3:5 4:4 3:4 2:4
3:0 4:3 3:2 4:6 3:1 4:4 3:5 4:4 3:4 2:4 3:4
4:0 3:2 4:6 3:1 4:4 3:5 4:4 3:4 2:4 3:4 4:5
3:0 4:6 3:1 4:4 3:5 4:4 3:4 2:4 3:4 4:5 3:3
4:0 3:1 4:4 3:5 4:4 3:4 2:4 3:4 4:5 3:3 4:5
3:0 4:4 3:5 4:4 3:4 2:4 3:4 4:5 3:3 4:5 3:3
4:0 3:5 4:4 3:4 2:4 3:4 4:5 3:3 4:5 3:3 2:5
3:0 4:4 3:4 2:4 3:4 4:5 3:3 4:5 3:3 2:5 3:2
4:0 3:4 2:4 3:4 4:5 3:3 4:5 3:3 2:5 3:2 2:1
3:0 2:4 3:4 4:5 3:3 4:5 3:3 2:5 3:2 2:1 3:1
2:0 3:4 4:5 3:3 4:5 3:3 2:5 3:2 2:1 3:1 4:13
3:0 4:5 3:3 4:5 3:3 2:5 3:2 2:1 3:1 4:13 3:6
4:0 3:3 4:5 3:3 2:5 3:2 2:1 3:1 4:13 3:6 2:2
3:0 4:5 3:3 2:5 3:2 2:1 3:1 4:13 3:6 2:2 3:4
4:0 3:3 2:5 3:2 2:1 3:1 4:13 3:6 2:2 3:4 4:12
3:0 2:5 3:2 2:1 3:1 4:13 3:6 2:2 3:4 4:12 3:4
2:0 3:2 2:1 3:1 4:13 3:6 2:2 3:4 4:12 3:4 2:3
3:0 2:1 3:1 4:13 3:6 2:2 3:4 4:12 3:4 2:3 3:1
2:0 3:1 4:13 3:6 2:2 3:4 4:12 3:4 2:3 3:1 2:1
3:0 4:13 3:6 2:2 3:4 4:12 3:4 2:3 3:1 2:1 3:3
4:0 3:6 2:2 3:4 4:12 3:4 2:3 3:1 2:1 3:3 4:11
3:0 2:2 3:4 4:12 3:4 2:3 3:1 2:1 3:3 4:11 3:18
2:0 3:4 4:12 3:4 2:3 3:1 2:1 3:3 4:11 3:18 2:1
3:0 4:12 3:4 2:3 3:1 2:1 3:3 4:11 3:18 2:1 3:5
4:0 3:4 2:3 3:1 2:1 3:3 4:11 3:18 2:1 3:5 4:2
3:0 2:3 3:1 2:1 3:3 4:11 3:18 2:1 3:5 4:2 3:12
2:0 3:1 2:1 3:3 4:11 3:18 2:1 3:5 4:2 3:12 4:3
3:0 2:1 3:3 4:11 3:18 2:1 3:5 4:2 3:12 4:3 3:1
2:0 3:3 4:11 3:18 2:1 3:5 4:2 3:12 4:3 3:1 2:1
3:0 4:11 3:18 2:1 3:5 4:2 3:12 4:3 3:1 2:1 3:4
4:0 3:18 2:1 3:5 4:2 3:12 4:3 3:1 2:1 3:4 4:2
3:0 2:1 3:5 4:2 3:12 4:3 3:1 2:1 3:4 4:2 3:2
2:0 3:5 4:2 3:12 4:3 3:1 2:1 3:4 4:2 3:2 4:1
3:0 4:2 3:12 4:3 3:1 2:1 3:4 4:2 3:2 4:1 3:2
4:0 3:12 4:3 3:1 2:1 3:4 4:2 3:2 4:1 3:2 4:5
3:0 4:3 3:1 2:1 3:4 4:2 3:2 4:1 3:2 4:5 3:1
4:0 3:1 2:1 3:4 4:2 3:2 4:1 3:2 4:5 3:1 4:1
3:0 2:1 3:4 4:2 3:2 4:1 3:2 4:5 3:1 4:1 3:8
2:0 3:4 4:2 3:2 4:1 3:2 4:5 3:1 4:1 3:8 4:3
3:0 4:2 3:2 4:1 3:2 4:5 3:1 4:1 3:8 4:3 3:2
4:0 3:2 4:1 3:2 4:5 3:1 4:1 3:8 4:3 3:2 4:3
3:0 4:1 3:2 4:5 3:1 4:1 3:8 4:3 3:2 4:3 3:1
4:0 3:2 4:5 3:1 4:1 3:8 4:3 3:2 4:3 3:1 2:2
3:0 4:5 3:1 4:1 3:8 4:3 3:2 4:3 3:1 2:2 3:3
4:0 3:1 4:1 3:8 4:3 3:2 4:3 3:1 2:2 3:3 4:3
3:0 4:1 3:8 4:3 3:2 4:3 3:1 2:2 3:3 4:3 3:1
4:0 3:8 4:3 3:2 4:3 3:1 2:2 3:3 4:3 3:1 4:9
3:0 4:3 3:2 4:3 3:1 2:2 3:3 4:3 3:1 4:9 3:15
4:0 3:2 4:3 3:1 2:2 3:3 4:3 3:1 4:9 3:15 2:4
3:0 4:3 3:1 2:2 3:3 4:3 3:1 4:9 3:15 2:4 3:3
4:0 3:1 2:2 3:3 4:3 3:1 4:9 3:15 2:4 3:3 4:2
3:0 2:2 3:3 4:3 3:1 4:9 3:15 2:4 3:3 4:2 3:9
2:0 3:3 4:3 3:1 4:9 3:15 2:4 3:3 4:2 3:9 4:6
3:0 4:3 3:1 4:9 3:15 2:4 3:3 4:2 3:9 4:6 3:4
4:0 3:1 4:9 3:15 2:4 3:3 4:2 3:9 4:6 3:4 4:4
3:0 4:9 3:15 2:4 3:3 4:2 3:9 4:6 3:4 4:4 3:5
4:0 3:15 2:4 3:3 4:2 3:9 4:6 3:4 4:4 3:5 2:4
3:0 2:4 3:3 4:2 3:9 4:6 3:4 4:4 3:5 2:4 3:1
2:0 3:3 4:2 3:9 4:6 3:4 4:4 3:5 2:4 3:1 2:1
3:0 4:2 3:9 4:6 3:4 4:4 3:5 2:4 3:1 2:1 3:2
4:0 3:9 4:6 3:4 4:4 3:5 2:4 3:1 2:1 3:2 4:4
3:0 4:6 3:4 4:4 3:5 2:4 3:1 2:1 3:2 4:4 3:4
4:0 3:4 4:4 3:5 2:4 3:1 2:1 3:2 4:4 3:4 4:5
3:0 4:4 3:5 2:4 3:1 2:1 3:2 4:4 3:4 4:5 3:2
4:0 3:5 2:4 3:1 2:1 3:2 4:4 3:4 4:5 3:2 4:2
3:0 2:4 3:1 2:1 3:2 4:4 3:4 4:5 3:2 4:2 3:1
2:0 3:1 2:1 3:2 4:4 3:4 4:5 3:2 4:2 3:1 2:3
3:0 2:1 3:2 4:4 3:4 4:5 3:2 4:2 3:1 2:3 3:3
2:0 3:2 4:4 3:4 4:5 3:2 4:2 3:1 2:3 3:3 4:3
3:0 4:4 3:4 4:5 3:2 4:2 3:1 2:3 3:3 4:3 3:1
4:0 3:4 4:5 3:2 4:2 3:1 2:3 3:3 4:3 3:1 4:8
3:0 4:5 3:2 4:2 3:1 2:3 3:3 4:3 3:1 4:8 3:7
4:0 3:2 4:2 3:1 2:3 3:3 4:3 3:1 4:8 3:7 2:1
3:0 4:2 3:1 2:3 3:3 4:3 3:1 4:8 3:7 2:1 3:5
4:0 3:1 2:3 3:3 4:3 3:1 4:8 3:7 2:1 3:5 4:4
3:0 2:3 3:3 4:3 3:1 4:8 3:7 2:1 3:5 4:4 3:1
2:0 3:3 4:3 3:1 4:8 3:7 2:1 3:5 4:4 3:1 4:1
3:0 4:3 3:1 4:8 3:7 2:1 3:5 4:4 3:1 4:1 3:1
4:0 3:1 4:8 3:7 2:1 3:5 4:4 3:1 4:1 3:1 4:5
3:0 4:8 3:7 2:1 3:5 4:4 3:1 4:1 3:1 4:5 3:2
4:0 3:7 2:1 3:5 4:4 3:1 4:1 3:1 4:5 3:2 2:4
3:0 2:1 3:5 4:4 3:1 4:1 3:1 4:5 3:2 2:4 3:4
2:0 3:5 4:4 3:1 4:1 3:1 4:5 3:2 2:4 3:4 4:2
3:0 4:4 3:1 4:1 3:1 4:5 3:2 2:4 3:4 4:2 3:1
4:0 3:1 4:1 3:1 4:5 3:2 2:4 3:4 4:2 3:1 4:10
3:0 4:1 3:1 4:5 3:2 2:4 3:4 4:2 3:1 4:10 3:7
4:0 3:1 4:5 3:2 2:4 3:4 4:2 3:1 4:10 3:7 2:1
3:0 4:5 3:2 2:4 3:4 4:2 3:1 4:10 3:7 2:1 3:5
4:0 3:2 2:4 3:4 4:2 3:1 4:10 3:7 2:1 3:5 4:3
3:0 2:4 3:4 4:2 3:1 4:10 3:7 2:1 3:5 4:3 3:1
2:0 3:4 4:2 3:1 4:10 3:7 2:1 3:5 4:3 3:1 4:7
3:0 4:2 3:1 4:10 3:7 2:1 3:5 4:3 3:1 4:7 3:5
4:0 3:1 4:10 3:7 2:1 3:5 4:3 3:1 4:7 3:5 2:3
3:0 4:10 3:7 2:1 3:5 4:3 3:1 4:7 3:5 2:3 3:4
4:0 3:7 2:1 3:5 4:3 3:1 4:7 3:5 2:3 3:4 4:2
3:0 2:1 3:5 4:3 3:1 4:7 3:5 2:3 3:4 4:2 3:1
2:0 3:5 4:3 3:1 4:7 3:5 2:3 3:4 4:2 3:1 4:10
3:0 4:3 3:1 4:7 3:5 2:3 3:4 4:2 3:1 4:10 3:6
4:0 3:1 4:7 3:5 2:3 3:4 4:2 3:1 4:10 3:6 2:2
3:0 4:7 3:5 2:3 3:4 4:2 3:1 4:10 3:6 2:2 3:4
4:0 3:5 2:3 3:4 4:2 3:1 4:10 3:6 2:2 3:4 4:10
3:0 2:3 3:4 4:2 3:1 4:10 3:6 2:2 3:4 4:10 3:5
2:0 3:4 4:2 3:1 4:10 3:6 2:2 3:4 4:10 3:5 2:4
3:0 4:2 3:1 4:10 3:6 2:2 3:4 4:10 3:5 2:4 3:4
4:0 3:1 4:10 3:6 2:2 3:4 4:10 3:5 2:4 3:4 4:4
3:0 4:10 3:6 2:2 3:4 4:10 3:5 2:4 3:4 4:4 3:1
4:0 3:6 2:2 3:4 4:10 3:5 2:4 3:4 4:4 3:1 4:9
3:0 2:2 3:4 4:10 3:5 2:4 3:4 4:4 3:1 4:9 3:13
2:0 3:4 4:10 3:5 2:4 3:4 4:4 3:1 4:9 3:13 2:3
3:0 4:10 3:5 2:4 3:4 4:4 3:1 4:9 3:13 2:3 3:4
4:0 3:5 2:4 3:4 4:4 3:1 4:9 3:13 2:3 3:4 4:3
3:0 2:4 3:4 4:4 3:1 4:9 3:13 2:3 3:4 4:3 3:12
2:0 3:4 4:4 3:1 4:9 3:13 2:3 3:4 4:3 3:12 2:5
3:0 4:4 3:1 4:9 3:13 2:3 3:4 4:3 3:12 2:5 3:3
4:0 3:1 4:9 3:13 2:3 3:4 4:3 3:12 2:5 3:3 4:3
3:0 4:9 3:13 2:3 3:4 4:3 3:12 2:5 3:3 4:3 3:2
4:0 3:13 2:3 3:4 4:3 3:12 2:5 3:3 4:3 3:2 4:2
3:0 2:3 3:4 4:3 3:12 2:5 3:3 4:3 3:2 4:2 3:1
2:0 3:4 4:3 3:12 2:5 3:3 4:3 3:2 4:2 3:1 4:2
3:0 4:3 3:12 2:5 3:3 4:3 3:2 4:2 3:1 4:2 3:1
4:0 3:12 2:5 3:3 4:3 3:2 4:2 3:1 4:2 3:1 4:6
3:0 2:5 3:3 4:3 3:2 4:2 3:1 4:2 3:1 4:6 3:7
2:0 3:3 4:3 3:2 4:2 3:1 4:2 3:1 4:6 3:7 4:3
3:0 4:3 3:2 4:2 3:1 4:2 3:1 4:6 3:7 4:3 3:3
4:0 3:2 4:2 3:1 4:2 3:1 4:6 3:7 4:3 3:3 2:5
3:0 4:2 3:1 4:2 3:1 4:6 3:7 4:3 3:3 2:5 3:3
4:0 3:1 4:2 3:1 4:6 3:7 4:3 3:3 2:5 3:3 4:12
3:0 4:2 3:1 4:6 3:7 4:3 3:3 2:5 3:3 4:12 3:8
4:0 3:1 4:6 3:7 4:3 3:3 2:5 3:3 4:12 3:8 2:1
3:0 4:6 3:7 4:3 3:3 2:5 3:3 4:12 3:8 2:1 3:4
4:0 3:7 4:3 3:3 2:5 3:3 4:12 3:8 2:1 3:4 2:1
3:0 4:3 3:3 2:5 3:3 4:12 3:8 2:1 3:4 2:1 3:1
4:0 3:3 2:5 3:3 4:12 3:8 2:1 3:4 2:1 3:1 4:10
3:0 2:5 3:3 4:12 3:8 2:1 3:4 2:1 3:1 4:10 3:5
2:0 3:3 4:12 3:8 2:1 3:4 2:1 3:1 4:10 3:5 2:4
3:0 4:12 3:8 2:1 3:4 2:1 3:1 4:10 3:5 2:4 3:3
4:0 3:8 2:1 3:4 2:1 3:1 4:10 3:5 2:4 3:3 4:12
3:0 2:1 3:4 2:1 3:1 4:10 3:5 2:4 3:3 4:12 3:16
2:0 3:4 2:1 3:1 4:10 3:5 2:4 3:3 4:12 3:16 2:3
3:0 2:1 3:1 4:10 3:5 2:4 3:3 4:12 3:16 2:3 3:4
2:0 3:1 4:10 3:5 2:4 3:3 4:12 3:16 2:3 3:4 4:2
3:0 4:10 3:5 2:4 3:3 4:12 3:16 2:3 3:4 4:2 3:13
4:0 3:5 2:4 3:3 4:12 3:16 2:3 3:4 4:2 3:13 2:5
3:0 2:4 3:3 4:12 3:16 2:3 3:4 4:2 3:13 2:5 3:3
2:0 3:3 4:12 3:16 2:3 3:4 4:2 3:13 2:5 3:3 4:3
3:0 4:12 3:16 2:3 3:4 4:2 3:13 2:5 3:3 4:3 3:2
4:0 3:16 2:3 3:4 4:2 3:13 2:5 3:3 4:3 3:2 4:7
3:0 2:3 3:4 4:2 3:13 2:5 3:3 4:3 3:2 4:7 3:1
2:0 3:4 4:2 3:13 2:5 3:3 4:3 3:2 4:7 3:1 4:4
3:0 4:2 3:13 2:5 3:3 4:3 3:2 4:7 3:1 4:4 3:4
4:0 3:13 2:5 3:3 4:3 3:2 4:7 3:1 4:4 3:4 4:4
3:0 2:5 3:3 4:3 3:2 4:7 3:1 4:4 3:4 4:4 3:6
2:0 3:3 4:3 3:2 4:7 3:1 4:4 3:4 4:4 3:6 2:3
3:0 4:3 3:2 4:7 3:1 4:4 3:4 4:4 3:6 2:3 3:4
4:0 3:2 4:7 3:1 4:4 3:4 4:4 3:6 2:3 3:4 4:1
3:0 4:7 3:1 4:4 3:4 4:4 3:6 2:3 3:4 4:1 3:1
4:0 3:1 4:4 3:4 4:4 3:6 2:3 3:4 4:1 3:1 4:4
3:0 4:4 3:4 4:4 3:6 2:3 3:4 4:1 3:1 4:4 3:1
4:0 3:4 4:4 3:6 2:3 3:4 4:1 3:1 4:4 3:1 4:5
3:0 4:4 3:6 2:3 3:4 4:1 3:1 4:4 3:1 4:5 3:5
4:0 3:6 2:3 3:4 4:1 3:1 4:4 3:1 4:5 3:5 2:3
3:0 2:3 3:4 4:1 3:1 4:4 3:1 4:5 3:5 2:3 3:4
2:0 3:4 4:1 3:1 4:4 3:1 4:5 3:5 2:3 3:4 4:12
3:0 4:1 3:1 4:4 3:1 4:5 3:5 2:3 3:4 4:12 3:7
4:0 3:1 4:4 3:1 4:5 3:5 2:3 3:4 4:12 3:7 2:1
3:0 4:4 3:1 4:5 3:5 2:3 3:4 4:12 3:7 2:1 3:5
4:0 3:1 4:5 3:5 2:3 3:4 4:12 3:7 2:1 3:5 4:3
3:0 4:5 3:5 2:3 3:4 4:12 3:7 2:1 3:5 4:3 3:1
4:0 3:5 2:3 3:4 4:12 3:7 2:1 3:5 4:3 3:1 4:7
3:0 2:3 3:4 4:12 3:7 2:1 3:5 4:3 3:1 4:7 3:3
2:0 3:4 4:12 3:7 2:1 3:5 4:3 3:1 4:7 3:3 4:2
3:0 4:12 3:7 2:1 3:5 4:3 3:1 4:7 3:3 4:2 3:2
4:0 3:7 2:1 3:5 4:3 3:1 4:7 3:3 4:2 3:2 2:2
3:0 2:1 3:5 4:3 3:1 4:7 3:3 4:2 3:2 2:2 3:3
2:0 3:5 4:3 3:1 4:7 3:3 4:2 3:2 2:2 3:3 4:14
3:0 4:3 3:1 4:7 3:3 4:2 3:2 2:2 3:3 4:14 3:15
4:0 3:1 4:7 3:3 4:2 3:2 2:2 3:3 4:14 3:15 2:3
3:0 4:7 3:3 4:2 3:2 2:2 3:3 4:14 3:15 2:3 3:4
4:0 3:3 4:2 3:2 2:2 3:3 4:14 3:15 2:3 3:4 4:2
3:0 4:2 3:2 2:2 3:3 4:14 3:15 2:3 3:4 4:2 3:14
4:0 3:2 2:2 3:3 4:14 3:15 2:3 3:4 4:2 3:14 2:3
3:0 2:2 3:3 4:14 3:15 2:3 3:4 4:2 3:14 2:3 3:4
2:0 3:3 4:14 3:15 2:3 3:4 4:2 3:14 2:3 3:4 4:2
3:0 4:14 3:15 2:3 3:4 4:2 3:14 2:3 3:4 4:2 3:2
4:0 3:15 2:3 3:4 4:2 3:14 2:3 3:4 4:2 3:2 4:3
3:0 2:3 3:4 4:2 3:14 2:3 3:4 4:2 3:2 4:3 3:1
2:0 3:4 4:2 3:14 2:3 3:4 4:2 3:2 4:3 3:1 4:9
3:0 4:2 3:14 2:3 3:4 4:2 3:2 4:3 3:1 4:9 3:3
4:0 3:14 2:3 3:4 4:2 3:2 4:3 3:1 4:9 3:3 4:5
3:0 2:3 3:4 4:2 3:2 4:3 3:1 4:9 3:3 4:5 3:3
2:0 3:4 4:2 3:2 4:3 3:1 4:9 3:3 4:5 3:3 4:3
3:0 4:2 3:2 4:3 3:1 4:9 3:3 4:5 3:3 4:3 3:1
4:0 3:2 4:3 3:1 4:9 3:3 4:5 3:3 4:3 3:1 2:1
3:0 4:3 3:1 4:9 3:3 4:5 3:3 4:3 3:1 2:1 3:4
4:0 3:1 4:9 3:3 4:5 3:3 4:3 3:1 2:1 3:4 4:4
3:0 4:9 3:3 4:5 3:3 4:3 3:1 2:1 3:4 4:4 3:3
4:0 3:3 4:5 3:3 4:3 3:1 2:1 3:4 4:4 3:3 4:5
3:0 4:5 3:3 4:3 3:1 2:1 3:4 4:4 3:3 4:5 3:3
4:0 3:3 4:3 3:1 2:1 3:4 4:4 3:3 4:5 3:3 2:5
3:0 4:3 3:1 2:1 3:4 4:4 3:3 4:5 3:3 2:5 3:3
4:0 3:1 2:1 3:4 4:4 3:3 4:5 3:3 2:5 3:3 4:13
3:0 2:1 3:4 4:4 3:3 4:5 3:3 2:5 3:3 4:13 3:7
2:0 3:4 4:4 3:3 4:5 3:3 2:5 3:3 4:13 3:7 2:1
3:0 4:4 3:3 4:5 3:3 2:5 3:3 4:13 3:7 2:1 3:5
4:0 3:3 4:5 3:3 2:5 3:3 4:13 3:7 2:1 3:5 4:5
3:0 4:5 3:3 2:5 3:3 4:13 3:7 2:1 3:5 4:5 3:2
4:0 3:3 2:5 3:3 4:13 3:7 2:1 3:5 4:5 3:2 4:4
3:0 2:5 3:3 4:13 3:7 2:1 3:5 4:5 3:2 4:4 5:2
2:0 3:3 4:13 3:7 2:1 3:5 4:5 3:2 4:4 5:2 3:1
3:0 4:13 3:7 2:1 3:5 4:5 3:2 4:4 5:2 3:1 4:2
4:0 3:7 2:1 3:5 4:5 3:2 4:4 5:2 3:1 4:2 3:1
3:0 2:1 3:5 4:5 3:2 4:4 5:2 3:1 4:2 3:1 2:3
2:0 3:5 4:5 3:2 4:4 5:2 3:1 4:2 3:1 2:3 3:3
3:0 4:5 3:2 4:4 5:2 3:1 4:2 3:1 2:3 3:3 4:13
4:0 3:2 4:4 5:2 3:1 4:2 3:1 2:3 3:3 4:13 3:16
3:0 4:4 5:2 3:1 4:2 3:1 2:3 3:3 4:13 3:16 2:2
4:0 5:2 3:1 4:2 3:1 2:3 3:3 4:13 3:16 2:2 3:4
5:0 3:1 4:2 3:1 2:3 3:3 4:13 3:16 2:2 3:4 4:2
3:0 4:2 3:1 2:3 3:3 4:13 3:16 2:2 3:4 4:2 2:9
4:0 3:1 2:3 3:3 4:13 3:16 2:2 3:4 4:2 2:9 3:7
3:0 2:3 3:3 4:13 3:16 2:2 3:4 4:2 2:9 3:7 4:8
2:0 3:3 4:13 3:16 2:2 3:4 4:2 2:9 3:7 4:8 3:16
3:0 4:13 3:16 2:2 3:4 4:2 2:9 3:7 4:8 3:16 2:3
4:0 3:16 2:2 3:4 4:2 2:9 3:7 4:8 3:16 2:3 3:4
3:0 2:2 3:4 4:2 2:9 3:7 4:8 3:16 2:3 3:4 4:2
2:0 3:4 4:2 2:9 3:7 4:8 3:16 2:3 3:4 4:2 3:13
3:0 4:2 2:9 3:7 4:8 3:16 2:3 3:4 4:2 3:13 2:5
4:0 2:9 3:7 4:8 3:16 2:3 3:4 4:2 3:13 2:5 3:3
2:0 3:7 4:8 3:16 2:3 3:4 4:2 3:13 2:5 3:3 4:2
3:0 4:8 3:16 2:3 3:4 4:2 3:13 2:5 3:3 4:2 3:2
4:0 3:16 2:3 3:4 4:2 3:13 2:5 3:3 4:2 3:2 4:9
3:0 2:3 3:4 4:2 3:13 2:5 3:3 4:2 3:2 4:9 3:7
2:0 3:4 4:2 3:13 2:5 3:3 4:2 3:2 4:9 3:7 4:5
3:0 4:2 3:13 2:5 3:3 4:2 3:2 4:9 3:7 4:5 3:5
4:0 3:13 2:5 3:3 4:2 3:2 4:9 3:7 4:5 3:5 2:3
3:0 2:5 3:3 4:2 3:2 4:9 3:7 4:5 3:5 2:3 3:4
2:0 3:3 4:2 3:2 4:9 3:7 4:5 3:5 2:3 3:4 4:2
3:0 4:2 3:2 4:9 3:7 4:5 3:5 2:3 3:4 4:2 3:1
4:0 3:2 4:9 3:7 4:5 3:5 2:3 3:4 4:2 3:1 4:10
3:0 4:9 3:7 4:5 3:5 2:3 3:4 4:2 3:1 4:10 3:5
4:0 3:7 4:5 3:5 2:3 3:4 4:2 3:1 4:10 3:5 2:3
3:0 4:5 3:5 2:3 3:4 4:2 3:1 4:10 3:5 2:3 3:4
4:0 3:5 2:3 3:4 4:2 3:1 4:10 3:5 2:3 3:4 4:12
3:0 2:3 3:4 4:2 3:1 4:10 3:5 2:3 3:4 4:12 3:5
2:0 3:4 4:2 3:1 4:10 3:5 2:3 3:4 4:12 3:5 2:2
3:0 4:2 3:1 4:10 3:5 2:3 3:4 4:12 3:5 2:2 3:5
4:0 3:1 4:10 3:5 2:3 3:4 4:12 3:5 2:2 3:5 4:2
3:0 4:10 3:5 2:3 3:4 4:12 3:5 2:2 3:5 4:2 3:1
4:0 3:5 2:3 3:4 4:12 3:5 2:2 3:5 4:2 3:1 4:9
3:0 2:3 3:4 4:12 3:5 2:2 3:5 4:2 3:1 4:9 2:7
2:0 3:4 4:12 3:5 2:2 3:5 4:2 3:1 4:9 2:7 3:6
3:0 4:12 3:5 2:2 3:5 4:2 3:1 4:9 2:7 3:6 4:10
4:0 3:5 2:2 3:5 4:2 3:1 4:9 2:7 3:6 4:10 3:6
3:0 2:2 3:5 4:2 3:1 4:9 2:7 3:6 4:10 3:6 2:3
2:0 3:5 4:2 3:1 4:9 2:7 3:6 4:10 3:6 2:3 3:4
3:0 4:2 3:1 4:9 2:7 3:6 4:10 3:6 2:3 3:4 4:2
4:0 3:1 4:9 2:7 3:6 4:10 3:6 2:3 3:4 4:2 3:1
3:0 4:9 2:7 3:6 4:10 3:6 2:3 3:4 4:2 3:1 4:10
4:0 2:7 3:6 4:10 3:6 2:3 3:4 4:2 3:1 4:10 3:7
2:0 3:6 4:10 3:6 2:3 3:4 4:2 3:1 4:10 3:7 2:1
3:0 4:10 3:6 2:3 3:4 4:2 3:1 4:10 3:7 2:1 3:5
4:0 3:6 2:3 3:4 4:2 3:1 4:10 3:7 2:1 3:5 4:9
3:0 2:3 3:4 4:2 3:1 4:10 3:7 2:1 3:5 4:9 3:5
2:0 3:4 4:2 3:1 4:10 3:7 2:1 3:5 4:9 3:5 2:3
3:0 4:2 3:1 4:10 3:7 2:1 3:5 4:9 3:5 2:3 3:4
4:0 3:1 4:10 3:7 2:1 3:5 4:9 3:5 2:3 3:4 4:12
3:0 4:10 3:7 2:1 3:5 4:9 3:5 2:3 3:4 4:12 3:15
4:0 3:7 2:1 3:5 4:9 3:5 2:3 3:4 4:12 3:15 2:4
3:0 2:1 3:5 4:9 3:5 2:3 3:4 4:12 3:15 2:4 3:3
2:0 3:5 4:9 3:5 2:3 3:4 4:12 3:15 2:4 3:3 4:3
3:0 4:9 3:5 2:3 3:4 4:12 3:15 2:4 3:3 4:3 3:9
4:0 3:5 2:3 3:4 4:12 3:15 2:4 3:3 4:3 3:9 4:5
3:0 2:3 3:4 4:12 3:15 2:4 3:3 4:3 3:9 4:5 3:4
2:0 3:4 4:12 3:15 2:4 3:3 4:3 3:9 4:5 3:4 4:5
3:0 4:12 3:15 2:4 3:3 4:3 3:9 4:5 3:4 4:5 3:4
4:0 3:15 2:4 3:3 4:3 3:9 4:5 3:4 4:5 3:4 4:2
3:0 2:4 3:3 4:3 3:9 4:5 3:4 4:5 3:4 4:2 3:1
2:0 3:3 4:3 3:9 4:5 3:4 4:5 3:4 4:2 3:1 2:1
3:0 4:3 3:9 4:5 3:4 4:5 3:4 4:2 3:1 2:1 3:4
4:0 3:9 4:5 3:4 4:5 3:4 4:2 3:1 2:1 3:4 4:6
3:0 4:5 3:4 4:5 3:4 4:2 3:1 2:1 3:4 4:6 3:1
4:0 3:4 4:5 3:4 4:2 3:1 2:1 3:4 4:6 3:1 4:5
3:0 4:5 3:4 4:2 3:1 2:1 3:4 4:6 3:1 4:5 3:5
4:0 3:4 4:2 3:1 2:1 3:4 4:6 3:1 4:5 3:5 2:3
3:0 4:2 3:1 2:1 3:4 4:6 3:1 4:5 3:5 2:3 3:4
4:0 3:1 2:1 3:4 4:6 3:1 4:5 3:5 2:3 3:4 4:3
3:0 2:1 3:4 4:6 3:1 4:5 3:5 2:3 3:4 4:3 3:2
2:0 3:4 4:6 3:1 4:5 3:5 2:3 3:4 4:3 3:2 4:9
3:0 4:6 3:1 4:5 3:5 2:3 3:4 4:3 3:2 4:9 3:14
4:0 3:1 4:5 3:5 2:3 3:4 4:3 3:2 4:9 3:14 2:3
3:0 4:5 3:5 2:3 3:4 4:3 3:2 4:9 3:14 2:3 3:4
4:0 3:5 2:3 3:4 4:3 3:2 4:9 3:14 2:3 3:4 4:2
3:0 2:3 3:4 4:3 3:2 4:9 3:14 2:3 3:4 4:2 3:15
2:0 3:4 4:3 3:2 4:9 3:14 2:3 3:4 4:2 3:15 2:3
3:0 4:3 3:2 4:9 3:14 2:3 3:4 4:2 3:15 2:3 3:4
4:0 3:2 4:9 3:14 2:3 3:4 4:2 3:15 2:3 3:4 4:2
3:0 4:9 3:14 2:3 3:4 4:2 3:15 2:3 3:4 4:2 3:1
4:0 3:14 2:3 3:4 4:2 3:15 2:3 3:4 4:2 3:1 4:3
3:0 2:3 3:4 4:2 3:15 2:3 3:4 4:2 3:1 4:3 3:3
2:0 3:4 4:2 3:15 2:3 3:4 4:2 3:1 4:3 3:3 4:6
3:0 4:2 3:15 2:3 3:4 4:2 3:1 4:3 3:3 4:6 3:6
4:0 3:15 2:3 3:4 4:2 3:1 4:3 3:3 4:6 3:6 4:4
3:0 2:3 3:4 4:2 3:1 4:3 3:3 4:6 3:6 4:4 3:3
2:0 3:4 4:2 3:1 4:3 3:3 4:6 3:6 4:4 3:3 4:2
3:0 4:2 3:1 4:3 3:3 4:6 3:6 4:4 3:3 4:2 3:1
4:0 3:1 4:3 3:3 4:6 3:6 4:4 3:3 4:2 3:1 2:2
3:0 4:3 3:3 4:6 3:6 4:4 3:3 4:2 3:1 2:2 3:3
4:0 3:3 4:6 3:6 4:4 3:3 4:2 3:1 2:2 3:3 4:13
3:0 4:6 3:6 4:4 3:3 4:2 3:1 2:2 3:3 4:13 3:6
4:0 3:6 4:4 3:3 4:2 3:1 2:2 3:3 4:13 3:6 4:1
3:0 4:4 3:3 4:2 3:1 2:2 3:3 4:13 3:6 4:1 3:1
4:0 3:3 4:2 3:1 2:2 3:3 4:13 3:6 4:1 3:1 2:1
3:0 4:2 3:1 2:2 3:3 4:13 3:6 4:1 3:1 2:1 3:5
4:0 3:1 2:2 3:3 4:13 3:6 4:1 3:1 2:1 3:5 4:10
3:0 2:2 3:3 4:13 3:6 4:1 3:1 2:1 3:5 4:10 3:5
2:0 3:3 4:13 3:6 4:1 3:1 2:1 3:5 4:10 3:5 2:3
3:0 4:13 3:6 4:1 3:1 2:1 3:5 4:10 3:5 2:3 3:4
4:0 3:6 4:1 3:1 2:1 3:5 4:10 3:5 2:3 3:4 4:4
3:0 4:1 3:1 2:1 3:5 4:10 3:5 2:3 3:4 4:4 3:1
4:0 3:1 2:1 3:5 4:10 3:5 2:3 3:4 4:4 3:1 4:8
3:0 2:1 3:5 4:10 3:5 2:3 3:4 4:4 3:1 4:8 3:16
2:0 3:5 4:10 3:5 2:3 3:4 4:4 3:1 4:8 3:16 2:1
3:0 4:10 3:5 2:3 3:4 4:4 3:1 4:8 3:16 2:1 3:6
4:0 3:5 2:3 3:4 4:4 3:1 4:8 3:16 2:1 3:6 4:1
3:0 2:3 3:4 4:4 3:1 4:8 3:16 2:1 3:6 4:1 3:13
2:0 3:4 4:4 3:1 4:8 3:16 2:1 3:6 4:1 3:13 4:1
3:0 4:4 3:1 4:8 3:16 2:1 3:6 4:1 3:13 4:1 3:1
4:0 3:1 4:8 3:16 2:1 3:6 4:1 3:13 4:1 3:1 2:3
3:0 4:8 3:16 2:1 3:6 4:1 3:13 4:1 3:1 2:3 3:4
4:0 3:16 2:1 3:6 4:1 3:13 4:1 3:1 2:3 3:4 4:3
3:0 2:1 3:6 4:1 3:13 4:1 3:1 2:3 3:4 4:3 3:2
2:0 3:6 4:1 3:13 4:1 3:1 2:3 3:4 4:3 3:2 4:9
3:0 4:1 3:13 4:1 3:1 2:3 3:4 4:3 3:2 4:9 3:7
4:0 3:13 4:1 3:1 2:3 3:4 4:3 3:2 4:9 3:7 4:4
3:0 4:1 3:1 2:3 3:4 4:3 3:2 4:9 3:7 4:4 3:3
4:0 3:1 2:3 3:4 4:3 3:2 4:9 3:7 4:4 3:3 4:2
3:0 2:3 3:4 4:3 3:2 4:9 3:7 4:4 3:3 4:2 3:1
2:0 3:4 4:3 3:2 4:9 3:7 4:4 3:3 4:2 3:1 2:2
3:0 4:3 3:2 4:9 3:7 4:4 3:3 4:2 3:1 2:2 3:3
4:0 3:2 4:9 3:7 4:4 3:3 4:2 3:1 2:2 3:3 4:13
3:0 4:9 3:7 4:4 3:3 4:2 3:1 2:2 3:3 4:13 3:15
4:0 3:7 4:4 3:3 4:2 3:1 2:2 3:3 4:13 3:15 2:4
3:0 4:4 3:3 4:2 3:1 2:2 3:3 4:13 3:15 2:4 3:3
4:0 3:3 4:2 3:1 2:2 3:3 4:13 3:15 2:4 3:3 4:3
3:0 4:2 3:1 2:2 3:3 4:13 3:15 2:4 3:3 4:3 3:8
4:0 3:1 2:2 3:3 4:13 3:15 2:4 3:3 4:3 3:8 4:7
3:0 2:2 3:3 4:13 3:15 2:4 3:3 4:3 3:8 4:7 3:3
2:0 3:3 4:13 3:15 2:4 3:3 4:3 3:8 4:7 3:3 4:5
3:0 4:13 3:15 2:4 3:3 4:3 3:8 4:7 3:3 4:5 3:5
4:0 3:15 2:4 3:3 4:3 3:8 4:7 3:3 4:5 3:5 2:3
3:0 2:4 3:3 4:3 3:8 4:7 3:3 4:5 3:5 2:3 3:4
2:0 3:3 4:3 3:8 4:7 3:3 4:5 3:5 2:3 3:4 4:7
3:0 4:3 3:8 4:7 3:3 4:5 3:5 2:3 3:4 4:7 3:1
4:0 3:8 4:7 3:3 4:5 3:5 2:3 3:4 4:7 3:1 4:4
3:0 4:7 3:3 4:5 3:5 2:3 3:4 4:7 3:1 4:4 3:5
4:0 3:3 4:5 3:5 2:3 3:4 4:7 3:1 4:4 3:5 2:3
3:0 4:5 3:5 2:3 3:4 4:7 3:1 4:4 3:5 2:3 3:4
4:0 3:5 2:3 3:4 4:7 3:1 4:4 3:5 2:3 3:4 4:2
3:0 2:3 3:4 4:7 3:1 4:4 3:5 2:3 3:4 4:2 3:1
2:0 3:4 4:7 3:1 4:4 3:5 2:3 3:4 4:2 3:1 4:10
3:0 4:7 3:1 4:4 3:5 2:3 3:4 4:2 3:1 4:10 3:15
4:0 3:1 4:4 3:5 2:3 3:4 4:2 3:1 4:10 3:15 4:2
3:0 4:4 3:5 2:3 3:4 4:2 3:1 4:10 3:15 4:2 2:1
4:0 3:5 2:3 3:4 4:2 3:1 4:10 3:15 4:2 2:1 3:4
3:0 2:3 3:4 4:2 3:1 4:10 3:15 4:2 2:1 3:4 4:2
2:0 3:4 4:2 3:1 4:10 3:15 4:2 2:1 3:4 4:2 3:2
3:0 4:2 3:1 4:10 3:15 4:2 2:1 3:4 4:2 3:2 4:1
4:0 3:1 4:10 3:15 4:2 2:1 3:4 4:2 3:2 4:1 3:3
3:0 4:10 3:15 4:2 2:1 3:4 4:2 3:2 4:1 3:3 4:4
4:0 3:15 4:2 2:1 3:4 4:2 3:2 4:1 3:3 4:4 3:1
3:0 4:2 2:1 3:4 4:2 3:2 4:1 3:3 4:4 3:1 4:2
4:0 2:1 3:4 4:2 3:2 4:1 3:3 4:4 3:1 4:2 3:4
2:0 3:4 4:2 3:2 4:1 3:3 4:4 3:1 4:2 3:4 4:4
3:0 4:2 3:2 4:1 3:3 4:4 3:1 4:2 3:4 4:4 3:5
4:0 3:2 4:1 3:3 4:4 3:1 4:2 3:4 4:4 3:5 2:4
3:0 4:1 3:3 4:4 3:1 4:2 3:4 4:4 3:5 2:4 3:4
4:0 3:3 4:4 3:1 4:2 3:4 4:4 3:5 2:4 3:4 4:3
3:0 4:4 3:1 4:2 3:4 4:4 3:5 2:4 3:4 4:3 3:4
4:0 3:1 4:2 3:4 4:4 3:5 2:4 3:4 4:3 3:4 4:6
3:0 4:2 3:4 4:4 3:5 2:4 3:4 4:3 3:4 4:6 3:3
4:0 3:4 4:4 3:5 2:4 3:4 4:3 3:4 4:6 3:3 2:5
3:0 4:4 3:5 2:4 3:4 4:3 3:4 4:6 3:3 2:5 3:3
4:0 3:5 2:4 3:4 4:3 3:4 4:6 3:3 2:5 3:3 4:12
3:0 2:4 3:4 4:3 3:4 4:6 3:3 2:5 3:3 4:12 3:6
2:0 3:4 4:3 3:4 4:6 3:3 2:5 3:3 4:12 3:6 2:4
3:0 4:3 3:4 4:6 3:3 2:5 3:3 4:12 3:6 2:4 3:3
4:0 3:4 4:6 3:3 2:5 3:3 4:12 3:6 2:4 3:3 4:12
3:0 4:6 3:3 2:5 3:3 4:12 3:6 2:4 3:3 4:12 3:5
4:0 3:3 2:5 3:3 4:12 3:6 2:4 3:3 4:12 3:5 2:3
3:0 2:5 3:3 4:12 3:6 2:4 3:3 4:12 3:5 2:3 3:4
2:0 3:3 4:12 3:6 2:4 3:3 4:12 3:5 2:3 3:4 4:4
3:0 4:12 3:6 2:4 3:3 4:12 3:5 2:3 3:4 4:4 3:1
4:0 3:6 2:4 3:3 4:12 3:5 2:3 3:4 4:4 3:1 4:8
3:0 2:4 3:3 4:12 3:5 2:3 3:4 4:4 3:1 4:8 3:7
2:0 3:3 4:12 3:5 2:3 3:4 4:4 3:1 4:8 3:7 2:1
3:0 4:12 3:5 2:3 3:4 4:4 3:1 4:8 3:7 2:1 3:5
4:0 3:5 2:3 3:4 4:4 3:1 4:8 3:7 2:1 3:5 4:2
3:0 2:3 3:4 4:4 3:1 4:8 3:7 2:1 3:5 4:2 3:1
2:0 3:4 4:4 3:1 4:8 3:7 2:1 3:5 4:2 3:1 4:2
3:0 4:4 3:1 4:8 3:7 2:1 3:5 4:2 3:1 4:2 3:1
4:0 3:1 4:8 3:7 2:1 3:5 4:2 3:1 4:2 3:1 4:5
3:0 4:8 3:7 2:1 3:5 4:2 3:1 4:2 3:1 4:5 3:3
4:0 3:7 2:1 3:5 4:2 3:1 4:2 3:1 4:5 3:3 4:1
3:0 2:1 3:5 4:2 3:1 4:2 3:1 4:5 3:3 4:1 3:1
2:0 3:5 4:2 3:1 4:2 3:1 4:5 3:3 4:1 3:1 2:2
3:0 4:2 3:1 4:2 3:1 4:5 3:3 4:1 3:1 2:2 3:4
4:0 3:1 4:2 3:1 4:5 3:3 4:1 3:1 2:2 3:4 4:12
3:0 4:2 3:1 4:5 3:3 4:1 3:1 2:2 3:4 4:12 3:13
4:0 3:1 4:5 3:3 4:1 3:1 2:2 3:4 4:12 3:13 2:6
3:0 4:5 3:3 4:1 3:1 2:2 3:4 4:12 3:13 2:6 3:2
4:0 3:3 4:1 3:1 2:2 3:4 4:12 3:13 2:6 3:2 4:3
3:0 4:1 3:1 2:2 3:4 4:12 3:13 2:6 3:2 4:3 3:10
4:0 3:1 2:2 3:4 4:12 3:13 2:6 3:2 4:3 3:10 4:3
3:0 2:2 3:4 4:12 3:13 2:6 3:2 4:3 3:10 4:3 3:6
2:0 3:4 4:12 3:13 2:6 3:2 4:3 3:10 4:3 3:6 4:5
3:0 4:12 3:13 2:6 3:2 4:3 3:10 4:3 3:6 4:5 3:3
4:0 3:13 2:6 3:2 4:3 3:10 4:3 3:6 4:5 3:3 4:1
3:0 2:6 3:2 4:3 3:10 4:3 3:6 4:5 3:3 4:1 3:2
2:0 3:2 4:3 3:10 4:3 3:6 4:5 3:3 4:1 3:2 2:2
3:0 4:3 3:10 4:3 3:6 4:5 3:3 4:1 3:2 2:2 3:4
4:0 3:10 4:3 3:6 4:5 3:3 4:1 3:2 2:2 3:4 4:5
3:0 4:3 3:6 4:5 3:3 4:1 3:2 2:2 3:4 4:5 3:2
4:0 3:6 4:5 3:3 4:1 3:2 2:2 3:4 4:5 3:2 4:5
3:0 4:5 3:3 4:1 3:2 2:2 3:4 4:5 3:2 4:5 3:3
4:0 3:3 4:1 3:2 2:2 3:4 4:5 3:2 4:5 3:3 4:2
3:0 4:1 3:2 2:2 3:4 4:5 3:2 4:5 3:3 4:2 3:2
4:0 3:2 2:2 3:4 4:5 3:2 4:5 3:3 4:2 3:2 2:1
3:0 2:2 3:4 4:5 3:2 4:5 3:3 4:2 3:2 2:1 3:4
2:0 3:4 4:5 3:2 4:5 3:3 4:2 3:2 2:1 3:4 4:12
3:0 4:5 3:2 4:5 3:3 4:2 3:2 2:1 3:4 4:12 3:2
4:0 3:2 4:5 3:3 4:2 3:2 2:1 3:4 4:12 3:2 4:1
3:0 4:5 3:3 4:2 3:2 2:1 3:4 4:12 3:2 4:1 3:9
4:0 3:3 4:2 3:2 2:1 3:4 4:12 3:2 4:1 3:9 4:1
3:0 4:2 3:2 2:1 3:4 4:12 3:2 4:1 3:9 4:1 3:3
4:0 3:2 2:1 3:4 4:12 3:2 4:1 3:9 4:1 3:3 2:3
3:0 2:1 3:4 4:12 3:2 4:1 3:9 4:1 3:3 2:3 3:4
2:0 3:4 4:12 3:2 4:1 3:9 4:1 3:3 2:3 3:4 4:2
3:0 4:12 3:2 4:1 3:9 4:1 3:3 2:3 3:4 4:2 3:7
4:0 3:2 4:1 3:9 4:1 3:3 2:3 3:4 4:2 3:7 4:4
3:0 4:1 3:9 4:1 3:3 2:3 3:4 4:2 3:7 4:4 3:7
4:0 3:9 4:1 3:3 2:3 3:4 4:2 3:7 4:4 3:7 4:5
3:0 4:1 3:3 2:3 3:4 4:2 3:7 4:4 3:7 4:5 3:3
4:0 3:3 2:3 3:4 4:2 3:7 4:4 3:7 4:5 3:3 4:1
3:0 2:3 3:4 4:2 3:7 4:4 3:7 4:5 3:3 4:1 3:1
2:0 3:4 4:2 3:7 4:4 3:7 4:5 3:3 4:1 3:1 2:3
3:0 4:2 3:7 4:4 3:7 4:5 3:3 4:1 3:1 2:3 3:3
4:0 3:7 4:4 3:7 4:5 3:3 4:1 3:1 2:3 3:3 4:7
3:0 4:4 3:7 4:5 3:3 4:1 3:1 2:3 3:3 4:7 3:1
4:0 3:7 4:5 3:3 4:1 3:1 2:3 3:3 4:7 3:1 4:4
3:0 4:5 3:3 4:1 3:1 2:3 3:3 4:7 3:1 4:4 3:6
4:0 3:3 4:1 3:1 2:3 3:3 4:7 3:1 4:4 3:6 2:3
3:0 4:1 3:1 2:3 3:3 4:7 3:1 4:4 3:6 2:3 3:3
4:0 3:1 2:3 3:3 4:7 3:1 4:4 3:6 2:3 3:3 2:1
3:0 2:3 3:3 4:7 3:1 4:4 3:6 2:3 3:3 2:1 3:1
2:0 3:3 4:7 3:1 4:4 3:6 2:3 3:3 2:1 3:1 4:11
3:0 4:7 3:1 4:4 3:6 2:3 3:3 2:1 3:1 4:11 3:14
4:0 3:1 4:4 3:6 2:3 3:3 2:1 3:1 4:11 3:14 2:4
3:0 4:4 3:6 2:3 3:3 2:1 3:1 4:11 3:14 2:4 3:3
4:0 3:6 2:3 3:3 2:1 3:1 4:11 3:14 2:4 3:3 4:2
3:0 2:3 3:3 2:1 3:1 4:11 3:14 2:4 3:3 4:2 3:14
2:0 3:3 2:1 3:1 4:11 3:14 2:4 3:3 4:2 3:14 2:5
3:0 2:1 3:1 4:11 3:14 2:4 3:3 4:2 3:14 2:5 3:3
2:0 3:1 4:11 3:14 2:4 3:3 4:2 3:14 2:5 3:3 4:4
3:0 4:11 3:14 2:4 3:3 4:2 3:14 2:5 3:3 4:4 3:2
4:0 3:14 2:4 3:3 4:2 3:14 2:5 3:3 4:4 3:2 4:2
3:0 2:4 3:3 4:2 3:14 2:5 3:3 4:4 3:2 4:2 3:3
2:0 3:3 4:2 3:14 2:5 3:3 4:4 3:2 4:2 3:3 4:8
3:0 4:2 3:14 2:5 3:3 4:4 3:2 4:2 3:3 4:8 3:2
4:0 3:14 2:5 3:3 4:4 3:2 4:2 3:3 4:8 3:2 4:6
3:0 2:5 3:3 4:4 3:2 4:2 3:3 4:8 3:2 4:6 3:4
2:0 3:3 4:4 3:2 4:2 3:3 4:8 3:2 4:6 3:4 4:1
3:0 4:4 3:2 4:2 3:3 4:8 3:2 4:6 3:4 4:1 3:1
4:0 3:2 4:2 3:3 4:8 3:2 4:6 3:4 4:1 3:1 2:1
3:0 4:2 3:3 4:8 3:2 4:6 3:4 4:1 3:1 2:1 3:5
4:0 3:3 4:8 3:2 4:6 3:4 4:1 3:1 2:1 3:5 4:11
3:0 4:8 3:2 4:6 3:4 4:1 3:1 2:1 3:5 4:11 3:4
4:0 3:2 4:6 3:4 4:1 3:1 2:1 3:5 4:11 3:4 4:1
3:0 4:6 3:4 4:1 3:1 2:1 3:5 4:11 3:4 4:1 3:1
4:0 3:4 4:1 3:1 2:1 3:5 4:11 3:4 4:1 3:1 2:2
3:0 4:1 3:1 2:1 3:5 4:11 3:4 4:1 3:1 2:2 3:5
4:0 3:1 2:1 3:5 4:11 3:4 4:1 3:1 2:2 3:5 4:12
3:0 2:1 3:5 4:11 3:4 4:1 3:1 2:2 3:5 4:12 3:7
2:0 3:5 4:11 3:4 4:1 3:1 2:2 3:5 4:12 3:7 2:1
3:0 4:11 3:4 4:1 3:1 2:2 3:5 4:12 3:7 2:1 3:5
4:0 3:4 4:1 3:1 2:2 3:5 4:12 3:7 2:1 3:5 4:11
3:0 4:1 3:1 2:2 3:5 4:12 3:7 2:1 3:5 4:11 3:5
4:0 3:1 2:2 3:5 4:12 3:7 2:1 3:5 4:11 3:5 2:3
3:0 2:2 3:5 4:12 3:7 2:1 3:5 4:11 3:5 2:3 3:4
2:0 3:5 4:12 3:7 2:1 3:5 4:11 3:5 2:3 3:4 4:4
3:0 4:12 3:7 2:1 3:5 4:11 3:5 2:3 3:4 4:4 3:1
4:0 3:7 2:1 3:5 4:11 3:5 2:3 3:4 4:4 3:1 4:9
3:0 2:1 3:5 4:11 3:5 2:3 3:4 4:4 3:1 4:9 3:12
2:0 3:5 4:11 3:5 2:3 3:4 4:4 3:1 4:9 3:12 2:4
3:0 4:11 3:5 2:3 3:4 4:4 3:1 4:9 3:12 2:4 3:4
4:0 3:5 2:3 3:4 4:4 3:1 4:9 3:12 2:4 3:4 4:2
3:0 2:3 3:4 4:4 3:1 4:9 3:12 2:4 3:4 4:2 3:8
2:0 3:4 4:4 3:1 4:9 3:12 2:4 3:4 4:2 3:8 4:5
3:0 4:4 3:1 4:9 3:12 2:4 3:4 4:2 3:8 4:5 3:6
4:0 3:1 4:9 3:12 2:4 3:4 4:2 3:8 4:5 3:6 4:4
3:0 4:9 3:12 2:4 3:4 4:2 3:8 4:5 3:6 4:4 3:3
4:0 3:12 2:4 3:4 4:2 3:8 4:5 3:6 4:4 3:3 4:1
3:0 2:4 3:4 4:2 3:8 4:5 3:6 4:4 3:3 4:1 3:2
2:0 3:4 4:2 3:8 4:5 3:6 4:4 3:3 4:1 3:2 2:4
3:0 4:2 3:8 4:5 3:6 4:4 3:3 4:1 3:2 2:4 3:3
4:0 3:8 4:5 3:6 4:4 3:3 4:1 3:2 2:4 3:3 4:13
3:0 4:5 3:6 4:4 3:3 4:1 3:2 2:4 3:3 4:13 3:14
4:0 3:6 4:4 3:3 4:1 3:2 2:4 3:3 4:13 3:14 2:4
3:0 4:4 3:3 4:1 3:2 2:4 3:3 4:13 3:14 2:4 3:4
4:0 3:3 4:1 3:2 2:4 3:3 4:13 3:14 2:4 3:4 4:2
3:0 4:1 3:2 2:4 3:3 4:13 3:14 2:4 3:4 4:2 2:9
4:0 3:2 2:4 3:3 4:13 3:14 2:4 3:4 4:2 2:9 3:3
3:0 2:4 3:3 4:13 3:14 2:4 3:4 4:2 2:9 3:3 2:1
2:0 3:3 4:13 3:14 2:4 3:4 4:2 2:9 3:3 2:1 3:3
3:0 4:13 3:14 2:4 3:4 4:2 2:9 3:3 2:1 3:3 4:8
4:0 3:14 2:4 3:4 4:2 2:9 3:3 2:1 3:3 4:8 3:2
3:0 2:4 3:4 4:2 2:9 3:3 2:1 3:3 4:8 3:2 4:6
2:0 3:4 4:2 2:9 3:3 2:1 3:3 4:8 3:2 4:6 3:1
3:0 4:2 2:9 3:3 2:1 3:3 4:8 3:2 4:6 3:1 4:3
4:0 2:9 3:3 2:1 3:3 4:8 3:2 4:6 3:1 4:3 3:6
2:0 3:3 2:1 3:3 4:8 3:2 4:6 3:1 4:3 3:6 4:3
3:0 2:1 3:3 4:8 3:2 4:6 3:1 4:3 3:6 4:3 3:6
2:0 3:3 4:8 3:2 4:6 3:1 4:3 3:6 4:3 3:6 2:4
3:0 4:8 3:2 4:6 3:1 4:3 3:6 4:3 3:6 2:4 3:3
4:0 3:2 4:6 3:1 4:3 3:6 4:3 3:6 2:4 3:3 4:4
3:0 4:6 3:1 4:3 3:6 4:3 3:6 2:4 3:3 4:4 3:1
4:0 3:1 4:3 3:6 4:3 3:6 2:4 3:3 4:4 3:1 4:8
3:0 4:3 3:6 4:3 3:6 2:4 3:3 4:4 3:1 4:8 3:7
4:0 3:6 4:3 3:6 2:4 3:3 4:4 3:1 4:8 3:7 2:1
3:0 4:3 3:6 2:4 3:3 4:4 3:1 4:8 3:7 2:1 3:5
4:0 3:6 2:4 3:3 4:4 3:1 4:8 3:7 2:1 3:5 4:10
3:0 2:4 3:3 4:4 3:1 4:8 3:7 2:1 3:5 4:10 3:6
2:0 3:3 4:4 3:1 4:8 3:7 2:1 3:5 4:10 3:6 2:3
3:0 4:4 3:1 4:8 3:7 2:1 3:5 4:10 3:6 2:3 3:4
4:0 3:1 4:8 3:7 2:1 3:5 4:10 3:6 2:3 3:4 4:2
3:0 4:8 3:7 2:1 3:5 4:10 3:6 2:3 3:4 4:2 3:1
4:0 3:7 2:1 3:5 4:10 3:6 2:3 3:4 4:2 3:1 4:10
3:0 2:1 3:5 4:10 3:6 2:3 3:4 4:2 3:1 4:10 3:5
2:0 3:5 4:10 3:6 2:3 3:4 4:2 3:1 4:10 3:5 2:3
3:0 4:10 3:6 2:3 3:4 4:2 3:1 4:10 3:5 2:3 3:4
4:0 3:6 2:3 3:4 4:2 3:1 4:10 3:5 2:3 3:4 4:12
3:0 2:3 3:4 4:2 3:1 4:10 3:5 2:3 3:4 4:12 3:6
2:0 3:4 4:2 3:1 4:10 3:5 2:3 3:4 4:12 3:6 2:1
3:0 4:2 3:1 4:10 3:5 2:3 3:4 4:12 3:6 2:1 3:5
4:0 3:1 4:10 3:5 2:3 3:4 4:12 3:6 2:1 3:5 4:11
3:0 4:10 3:5 2:3 3:4 4:12 3:6 2:1 3:5 4:11 3:8
4:0 3:5 2:3 3:4 4:12 3:6 2:1 3:5 4:11 3:8 2:1
3:0 2:3 3:4 4:12 3:6 2:1 3:5 4:11 3:8 2:1 3:5
2:0 3:4 4:12 3:6 2:1 3:5 4:11 3:8 2:1 3:5 4:5
3:0 4:12 3:6 2:1 3:5 4:11 3:8 2:1 3:5 4:5 3:1
4:0 3:6 2:1 3:5 4:11 3:8 2:1 3:5 4:5 3:1 4:4
3:0 2:1 3:5 4:11 3:8 2:1 3:5 4:5 3:1 4:4 3:4
2:0 3:5 4:11 3:8 2:1 3:5 4:5 3:1 4:4 3:4 2:4
3:0 4:11 3:8 2:1 3:5 4:5 3:1 4:4 3:4 2:4 3:1
4:0 3:8 2:1 3:5 4:5 3:1 4:4 3:4 2:4 3:1 2:1
3:0 2:1 3:5 4:5 3:1 4:4 3:4 2:4 3:1 2:1 3:2
2:0 3:5 4:5 3:1 4:4 3:4 2:4 3:1 2:1 3:2 4:12
3:0 4:5 3:1 4:4 3:4 2:4 3:1 2:1 3:2 4:12 3:17
4:0 3:1 4:4 3:4 2:4 3:1 2:1 3:2 4:12 3:17 2:1
3:0 4:4 3:4 2:4 3:1 2:1 3:2 4:12 3:17 2:1 3:5
4:0 3:4 2:4 3:1 2:1 3:2 4:12 3:17 2:1 3:5 4:2
3:0 2:4 3:1 2:1 3:2 4:12 3:17 2:1 3:5 4:2 3:12
2:0 3:1 2:1 3:2 4:12 3:17 2:1 3:5 4:2 3:12 2:6
3:0 2:1 3:2 4:12 3:17 2:1 3:5 4:2 3:12 2:6 3:2
2:0 3:2 4:12 3:17 2:1 3:5 4:2 3:12 2:6 3:2 4:3
3:0 4:12 3:17 2:1 3:5 4:2 3:12 2:6 3:2 4:3 3:2
4:0 3:17 2:1 3:5 4:2 3:12 2:6 3:2 4:3 3:2 4:3
3:0 2:1 3:5 4:2 3:12 2:6 3:2 4:3 3:2 4:3 3:1
2:0 3:5 4:2 3:12 2:6 3:2 4:3 3:2 4:3 3:1 4:8
3:0 4:2 3:12 2:6 3:2 4:3 3:2 4:3 3:1 4:8 3:6
4:0 3:12 2:6 3:2 4:3 3:2 4:3 3:1 4:8 3:6 4:3
3:0 2:6 3:2 4:3 3:2 4:3 3:1 4:8 3:6 4:3 3:3
2:0 3:2 4:3 3:2 4:3 3:1 4:8 3:6 4:3 3:3 4:1
3:0 4:3 3:2 4:3 3:1 4:8 3:6 4:3 3:3 4:1 3:2
4:0 3:2 4:3 3:1 4:8 3:6 4:3 3:3 4:1 3:2 2:4
3:0 4:3 3:1 4:8 3:6 4:3 3:3 4:1 3:2 2:4 3:3
4:0 3:1 4:8 3:6 4:3 3:3 4:1 3:2 2:4 3:3 4:12
3:0 4:8 3:6 4:3 3:3 4:1 3:2 2:4 3:3 4:12 3:15
4:0 3:6 4:3 3:3 4:1 3:2 2:4 3:3 4:12 3:15 2:4
3:0 4:3 3:3 4:1 3:2 2:4 3:3 4:12 3:15 2:4 3:4
4:0 3:3 4:1 3:2 2:4 3:3 4:12 3:15 2:4 3:4 4:2
3:0 4:1 3:2 2:4 3:3 4:12 3:15 2:4 3:4 4:2 3:12
4:0 3:2 2:4 3:3 4:12 3:15 2:4 3:4 4:2 3:12 2:6
3:0 2:4 3:3 4:12 3:15 2:4 3:4 4:2 3:12 2:6 3:2
2:0 3:3 4:12 3:15 2:4 3:4 4:2 3:12 2:6 3:2 4:4
3:0 4:12 3:15 2:4 3:4 4:2 3:12 2:6 3:2 4:4 3:2
4:0 3:15 2:4 3:4 4:2 3:12 2:6 3:2 4:4 3:2 4:9
3:0 2:4 3:4 4:2 3:12 2:6 3:2 4:4 3:2 4:9 3:7
2:0 3:4 4:2 3:12 2:6 3:2 4:4 3:2 4:9 3:7 4:5
3:0 4:2 3:12 2:6 3:2 4:4 3:2 4:9 3:7 4:5 3:3
4:0 3:12 2:6 3:2 4:4 3:2 4:9 3:7 4:5 3:3 4:1
3:0 2:6 3:2 4:4 3:2 4:9 3:7 4:5 3:3 4:1 3:1
2:0 3:2 4:4 3:2 4:9 3:7 4:5 3:3 4:1 3:1 2:3
3:0 4:4 3:2 4:9 3:7 4:5 3:3 4:1 3:1 2:3 3:4
4:0 3:2 4:9 3:7 4:5 3:3 4:1 3:1 2:3 3:4 4:6
3:0 4:9 3:7 4:5 3:3 4:1 3:1 2:3 3:4 4:6 3:1
4:0 3:7 4:5 3:3 4:1 3:1 2:3 3:4 4:6 3:1 4:5
3:0 4:5 3:3 4:1 3:1 2:3 3:4 4:6 3:1 4:5 3:3
4:0 3:3 4:1 3:1 2:3 3:4 4:6 3:1 4:5 3:3 4:1
3:0 4:1 3:1 2:3 3:4 4:6 3:1 4:5 3:3 4:1 3:1
4:0 3:1 2:3 3:4 4:6 3:1 4:5 3:3 4:1 3:1 2:3
3:0 2:3 3:4 4:6 3:1 4:5 3:3 4:1 3:1 2:3 3:4
2:0 3:4 4:6 3:1 4:5 3:3 4:1 3:1 2:3 3:4 4:5
3:0 4:6 3:1 4:5 3:3 4:1 3:1 2:3 3:4 4:5 3:1
4:0 3:1 4:5 3:3 4:1 3:1 2:3 3:4 4:5 3:1 4:7
3:0 4:5 3:3 4:1 3:1 2:3 3:4 4:5 3:1 4:7 3:5
4:0 3:3 4:1 3:1 2:3 3:4 4:5 3:1 4:7 3:5 2:2
3:0 4:1 3:1 2:3 3:4 4:5 3:1 4:7 3:5 2:2 3:5
4:0 3:1 2:3 3:4 4:5 3:1 4:7 3:5 2:2 3:5 4:11
3:0 2:3 3:4 4:5 3:1 4:7 3:5 2:2 3:5 4:11 3:5
2:0 3:4 4:5 3:1 4:7 3:5 2:2 3:5 4:11 3:5 2:4
3:0 4:5 3:1 4:7 3:5 2:2 3:5 4:11 3:5 2:4 3:3
4:0 3:1 4:7 3:5 2:2 3:5 4:11 3:5 2:4 3:3 4:13
3:0 4:7 3:5 2:2 3:5 4:11 3:5 2:4 3:3 4:13 3:15
4:0 3:5 2:2 3:5 4:11 3:5 2:4 3:3 4:13 3:15 4:2
3:0 2:2 3:5 4:11 3:5 2:4 3:3 4:13 3:15 4:2 2:1
2:0 3:5 4:11 3:5 2:4 3:3 4:13 3:15 4:2 2:1 3:5
3:0 4:11 3:5 2:4 3:3 4:13 3:15 4:2 2:1 3:5 4:1
4:0 3:5 2:4 3:3 4:13 3:15 4:2 2:1 3:5 4:1 3:12
3:0 2:4 3:3 4:13 3:15 4:2 2:1 3:5 4:1 3:12 2:6
2:0 3:3 4:13 3:15 4:2 2:1 3:5 4:1 3:12 2:6 3:2
3:0 4:13 3:15 4:2 2:1 3:5 4:1 3:12 2:6 3:2 4:3
4:0 3:15 4:2 2:1 3:5 4:1 3:12 2:6 3:2 4:3 3:2
3:0 4:2 2:1 3:5 4:1 3:12 2:6 3:2 4:3 3:2 4:2
4:0 2:1 3:5 4:1 3:12 2:6 3:2 4:3 3:2 4:2 3:1
2:0 3:5 4:1 3:12 2:6 3:2 4:3 3:2 4:2 3:1 4:6
3:0 4:1 3:12 2:6 3:2 4:3 3:2 4:2 3:1 4:6 3:9
4:0 3:12 2:6 3:2 4:3 3:2 4:2 3:1 4:6 3:9 4:3
3:0 2:6 3:2 4:3 3:2 4:2 3:1 4:6 3:9 4:3 3:3
2:0 3:2 4:3 3:2 4:2 3:1 4:6 3:9 4:3 3:3 4:1
3:0 4:3 3:2 4:2 3:1 4:6 3:9 4:3 3:3 4:1 3:2
4:0 3:2 4:2 3:1 4:6 3:9 4:3 3:3 4:1 3:2 2:3
3:0 4:2 3:1 4:6 3:9 4:3 3:3 4:1 3:2 2:3 3:3
4:0 3:1 4:6 3:9 4:3 3:3 4:1 3:2 2:3 3:3 4:6
3:0 4:6 3:9 4:3 3:3 4:1 3:2 2:3 3:3 4:6 3:1
4:0 3:9 4:3 3:3 4:1 3:2 2:3 3:3 4:6 3:1 4:8
3:0 4:3 3:3 4:1 3:2 2:3 3:3 4:6 3:1 4:8 3:5
4:0 3:3 4:1 3:2 2:3 3:3 4:6 3:1 4:8 3:5 2:1
3:0 4:1 3:2 2:3 3:3 4:6 3:1 4:8 3:5 2:1 3:5
4:0 3:2 2:3 3:3 4:6 3:1 4:8 3:5 2:1 3:5 4:3
3:0 2:3 3:3 4:6 3:1 4:8 3:5 2:1 3:5 4:3 3:1
2:0 3:3 4:6 3:1 4:8 3:5 2:1 3:5 4:3 3:1 4:7
3:0 4:6 3:1 4:8 3:5 2:1 3:5 4:3 3:1 4:7 3:4
4:0 3:1 4:8 3:5 2:1 3:5 4:3 3:1 4:7 3:4 4:3
3:0 4:8 3:5 2:1 3:5 4:3 3:1 4:7 3:4 4:3 2:1
4:0 3:5 2:1 3:5 4:3 3:1 4:7 3:4 4:3 2:1 3:4
3:0 2:1 3:5 4:3 3:1 4:7 3:4 4:3 2:1 3:4 4:12
2:0 3:5 4:3 3:1 4:7 3:4 4:3 2:1 3:4 4:12 3:6
3:0 4:3 3:1 4:7 3:4 4:3 2:1 3:4 4:12 3:6 2:3
4:0 3:1 4:7 3:4 4:3 2:1 3:4 4:12 3:6 2:3 3:4
3:0 4:7 3:4 4:3 2:1 3:4 4:12 3:6 2:3 3:4 4:11
4:0 3:4 4:3 2:1 3:4 4:12 3:6 2:3 3:4 4:11 3:4
3:0 4:3 2:1 3:4 4:12 3:6 2:3 3:4 4:11 3:4 2:5
4:0 2:1 3:4 4:12 3:6 2:3 3:4 4:11 3:4 2:5 3:3
2:0 3:4 4:12 3:6 2:3 3:4 4:11 3:4 2:5 3:3 4:2
3:0 4:12 3:6 2:3 3:4 4:11 3:4 2:5 3:3 4:2 3:1
4:0 3:6 2:3 3:4 4:11 3:4 2:5 3:3 4:2 3:1 4:9
3:0 2:3 3:4 4:11 3:4 2:5 3:3 4:2 3:1 4:9 3:16
2:0 3:4 4:11 3:4 2:5 3:3 4:2 3:1 4:9 3:16 2:2
3:0 4:11 3:4 2:5 3:3 4:2 3:1 4:9 3:16 2:2 3:5
4:0 3:4 2:5 3:3 4:2 3:1 4:9 3:16 2:2 3:5 4:3
3:0 2:5 3:3 4:2 3:1 4:9 3:16 2:2 3:5 4:3 3:11
2:0 3:3 4:2 3:1 4:9 3:16 2:2 3:5 4:3 3:11 2:6
3:0 4:2 3:1 4:9 3:16 2:2 3:5 4:3 3:11 2:6 3:2
4:0 3:1 4:9 3:16 2:2 3:5 4:3 3:11 2:6 3:2 4:5
3:0 4:9 3:16 2:2 3:5 4:3 3:11 2:6 3:2 4:5 3:2
4:0 3:16 2:2 3:5 4:3 3:11 2:6 3:2 4:5 3:2 4:5
3:0 2:2 3:5 4:3 3:11 2:6 3:2 4:5 3:2 4:5 3:2
2:0 3:5 4:3 3:11 2:6 3:2 4:5 3:2 4:5 3:2 4:3
3:0 4:3 3:11 2:6 3:2 4:5 3:2 4:5 3:2 4:3 3:5
4:0 3:11 2:6 3:2 4:5 3:2 4:5 3:2 4:3 3:5 4:5
3:0 2:6 3:2 4:5 3:2 4:5 3:2 4:3 3:5 4:5 3:3
2:0 3:2 4:5 3:2 4:5 3:2 4:3 3:5 4:5 3:3 2:5
3:0 4:5 3:2 4:5 3:2 4:3 3:5 4:5 3:3 2:5 3:3
4:0 3:2 4:5 3:2 4:3 3:5 4:5 3:3 2:5 3:3 4:7
3:0 4:5 3:2 4:3 3:5 4:5 3:3 2:5 3:3 4:7 3:1
4:0 3:2 4:3 3:5 4:5 3:3 2:5 3:3 4:7 3:1 4:6
3:0 4:3 3:5 4:5 3:3 2:5 3:3 4:7 3:1 4:6 3:7
4:0 3:5 4:5 3:3 2:5 3:3 4:7 3:1 4:6 3:7 2:1
3:0 4:5 3:3 2:5 3:3 4:7 3:1 4:6 3:7 2:1 3:5
4:0 3:3 2:5 3:3 4:7 3:1 4:6 3:7 2:1 3:5 4:2
3:0 2:5 3:3 4:7 3:1 4:6 3:7 2:1 3:5 4:2 3:1
2:0 3:3 4:7 3:1 4:6 3:7 2:1 3:5 4:2 3:1 4:7
3:0 4:7 3:1 4:6 3:7 2:1 3:5 4:2 3:1 4:7 3:3
4:0 3:1 4:6 3:7 2:1 3:5 4:2 3:1 4:7 3:3 4:2
3:0 4:6 3:7 2:1 3:5 4:2 3:1 4:7 3:3 4:2 3:2
4:0 3:7 2:1 3:5 4:2 3:1 4:7 3:3 4:2 3:2 2:2
3:0 2:1 3:5 4:2 3:1 4:7 3:3 4:2 3:2 2:2 3:3
2:0 3:5 4:2 3:1 4:7 3:3 4:2 3:2 2:2 3:3 4:13
3:0 4:2 3:1 4:7 3:3 4:2 3:2 2:2 3:3 4:13 3:15
4:0 3:1 4:7 3:3 4:2 3:2 2:2 3:3 4:13 3:15 2:3
3:0 4:7 3:3 4:2 3:2 2:2 3:3 4:13 3:15 2:3 3:4
4:0 3:3 4:2 3:2 2:2 3:3 4:13 3:15 2:3 3:4 4:2
3:0 4:2 3:2 2:2 3:3 4:13 3:15 2:3 3:4 4:2 3:12
4:0 3:2 2:2 3:3 4:13 3:15 2:3 3:4 4:2 3:12 2:5
3:0 2:2 3:3 4:13 3:15 2:3 3:4 4:2 3:12 2:5 3:4
2:0 3:3 4:13 3:15 2:3 3:4 4:2 3:12 2:5 3:4 4:3
3:0 4:13 3:15 2:3 3:4 4:2 3:12 2:5 3:4 4:3 3:3
4:0 3:15 2:3 3:4 4:2 3:12 2:5 3:4 4:3 3:3 4:6
3:0 2:3 3:4 4:2 3:12 2:5 3:4 4:3 3:3 4:6 3:1
2:0 3:4 4:2 3:12 2:5 3:4 4:3 3:3 4:6 3:1 4:2
3:0 4:2 3:12 2:5 3:4 4:3 3:3 4:6 3:1 4:2 3:6
4:0 3:12 2:5 3:4 4:3 3:3 4:6 3:1 4:2 3:6 4:4
3:0 2:5 3:4 4:3 3:3 4:6 3:1 4:2 3:6 4:4 3:4
2:0 3:4 4:3 3:3 4:6 3:1 4:2 3:6 4:4 3:4 2:6
3:0 4:3 3:3 4:6 3:1 4:2 3:6 4:4 3:4 2:6 3:2
4:0 3:3 4:6 3:1 4:2 3:6 4:4 3:4 2:6 3:2 4:6
3:0 4:6 3:1 4:2 3:6 4:4 3:4 2:6 3:2 4:6 3:2
4:0 3:1 4:2 3:6 4:4 3:4 2:6 3:2 4:6 3:2 4:3
3:0 4:2 3:6 4:4 3:4 2:6 3:2 4:6 3:2 4:3 3:1
4:0 3:6 4:4 3:4 2:6 3:2 4:6 3:2 4:3 3:1 4:1
3:0 4:4 3:4 2:6 3:2 4:6 3:2 4:3 3:1 4:1 3:4
4:0 3:4 2:6 3:2 4:6 3:2 4:3 3:1 4:1 3:4 4:2
3:0 2:6 3:2 4:6 3:2 4:3 3:1 4:1 3:4 4:2 3:1
2:0 3:2 4:6 3:2 4:3 3:1 4:1 3:4 4:2 3:1 2:1
3:0 4:6 3:2 4:3 3:1 4:1 3:4 4:2 3:1 2:1 3:4
4:0 3:2 4:3 3:1 4:1 3:4 4:2 3:1 2:1 3:4 4:12
3:0 4:3 3:1 4:1 3:4 4:2 3:1 2:1 3:4 4:12 3:1
4:0 3:1 4:1 3:4 4:2 3:1 2:1 3:4 4:12 3:1 4:1
3:0 4:1 3:4 4:2 3:1 2:1 3:4 4:12 3:1 4:1 3:16
4:0 3:4 4:2 3:1 2:1 3:4 4:12 3:1 4:1 3:16 2:1
3:0 4:2 3:1 2:1 3:4 4:12 3:1 4:1 3:16 2:1 3:5
4:0 3:1 2:1 3:4 4:12 3:1 4:1 3:16 2:1 3:5 4:1
3:0 2:1 3:4 4:12 3:1 4:1 3:16 2:1 3:5 4:1 3:8
2:0 3:4 4:12 3:1 4:1 3:16 2:1 3:5 4:1 3:8 4:7
3:0 4:12 3:1 4:1 3:16 2:1 3:5 4:1 3:8 4:7 3:3
4:0 3:1 4:1 3:16 2:1 3:5 4:1 3:8 4:7 3:3 4:5
3:0 4:1 3:16 2:1 3:5 4:1 3:8 4:7 3:3 4:5 3:5
4:0 3:16 2:1 3:5 4:1 3:8 4:7 3:3 4:5 3:5 4:1
3:0 2:1 3:5 4:1 3:8 4:7 3:3 4:5 3:5 4:1 3:1
2:0 3:5 4:1 3:8 4:7 3:3 4:5 3:5 4:1 3:1 2:1
3:0 4:1 3:8 4:7 3:3 4:5 3:5 4:1 3:1 2:1 3:4
4:0 3:8 4:7 3:3 4:5 3:5 4:1 3:1 2:1 3:4 4:4
3:0 4:7 3:3 4:5 3:5 4:1 3:1 2:1 3:4 4:4 3:1
4:0 3:3 4:5 3:5 4:1 3:1 2:1 3:4 4:4 3:1 4:1
3:0 4:5 3:5 4:1 3:1 2:1 3:4 4:4 3:1 4:1 3:1
4:0 3:5 4:1 3:1 2:1 3:4 4:4 3:1 4:1 3:1 4:5
3:0 4:1 3:1 2:1 3:4 4:4 3:1 4:1 3:1 4:5 3:3
4:0 3:1 2:1 3:4 4:4 3:1 4:1 3:1 4:5 3:3 4:3
3:0 2:1 3:4 4:4 3:1 4:1 3:1 4:5 3:3 4:3 3:1
2:0 3:4 4:4 3:1 4:1 3:1 4:5 3:3 4:3 3:1 2:1
3:0 4:4 3:1 4:1 3:1 4:5 3:3 4:3 3:1 2:1 3:4
4:0 3:1 4:1 3:1 4:5 3:3 4:3 3:1 2:1 3:4 4:4
3:0 4:1 3:1 4:5 3:3 4:3 3:1 2:1 3:4 4:4 3:1
4:0 3:1 4:5 3:3 4:3 3:1 2:1 3:4 4:4 3:1 4:9
3:0 4:5 3:3 4:3 3:1 2:1 3:4 4:4 3:1 4:9 3:14
4:0 3:3 4:3 3:1 2:1 3:4 4:4 3:1 4:9 3:14 2:3
3:0 4:3 3:1 2:1 3:4 4:4 3:1 4:9 3:14 2:3 3:4
4:0 3:1 2:1 3:4 4:4 3:1 4:9 3:14 2:3 3:4 4:2
3:0 2:1 3:4 4:4 3:1 4:9 3:14 2:3 3:4 4:2 3:7
2:0 3:4 4:4 3:1 4:9 3:14 2:3 3:4 4:2 3:7 4:3
3:0 4:4 3:1 4:9 3:14 2:3 3:4 4:2 3:7 4:3 3:1
4:0 3:1 4:9 3:14 2:3 3:4 4:2 3:7 4:3 3:1 4:1
3:0 4:9 3:14 2:3 3:4 4:2 3:7 4:3 3:1 4:1 3:6
4:0 3:14 2:3 3:4 4:2 3:7 4:3 3:1 4:1 3:6 4:5
3:0 2:3 3:4 4:2 3:7 4:3 3:1 4:1 3:6 4:5 3:5
2:0 3:4 4:2 3:7 4:3 3:1 4:1 3:6 4:5 3:5 2:3
3:0 4:2 3:7 4:3 3:1 4:1 3:6 4:5 3:5 2:3 3:4
4:0 3:7 4:3 3:1 4:1 3:6 4:5 3:5 2:3 3:4 4:3
3:0 4:3 3:1 4:1 3:6 4:5 3:5 2:3 3:4 4:3 3:1
4:0 3:1 4:1 3:6 4:5 3:5 2:3 3:4 4:3 3:1 4:1
3:0 4:1 3:6 4:5 3:5 2:3 3:4 4:3 3:1 4:1 3:2
4:0 3:6 4:5 3:5 2:3 3:4 4:3 3:1 4:1 3:2 4:5
3:0 4:5 3:5 2:3 3:4 4:3 3:1 4:1 3:2 4:5 3:3
4:0 3:5 2:3 3:4 4:3 3:1 4:1 3:2 4:5 3:3 4:2
3:0 2:3 3:4 4:3 3:1 4:1 3:2 4:5 3:3 4:2 3:1
2:0 3:4 4:3 3:1 4:1 3:2 4:5 3:3 4:2 3:1 2:2
3:0 4:3 3:1 4:1 3:2 4:5 3:3 4:2 3:1 2:2 3:3
4:0 3:1 4:1 3:2 4:5 3:3 4:2 3:1 2:2 3:3 4:5
3:0 4:1 3:2 4:5 3:3 4:2 3:1 2:2 3:3 4:5 3:1
4:0 3:2 4:5 3:3 4:2 3:1 2:2 3:3 4:5 3:1 4:8
3:0 4:5 3:3 4:2 3:1 2:2 3:3 4:5 3:1 4:8 3:5
4:0 3:3 4:2 3:1 2:2 3:3 4:5 3:1 4:8 3:5 2:3
3:0 4:2 3:1 2:2 3:3 4:5 3:1 4:8 3:5 2:3 3:4
4:0 3:1 2:2 3:3 4:5 3:1 4:8 3:5 2:3 3:4 4:12
3:0 2:2 3:3 4:5 3:1 4:8 3:5 2:3 3:4 4:12 3:4
2:0 3:3 4:5 3:1 4:8 3:5 2:3 3:4 4:12 3:4 2:3
3:0 4:5 3:1 4:8 3:5 2:3 3:4 4:12 3:4 2:3 3:4
4:0 3:1 4:8 3:5 2:3 3:4 4:12 3:4 2:3 3:4 4:3
3:0 4:8 3:5 2:3 3:4 4:12 3:4 2:3 3:4 4:3 3:1
4:0 3:5 2:3 3:4 4:12 3:4 2:3 3:4 4:3 3:1 4:9
3:0 2:3 3:4 4:12 3:4 2:3 3:4 4:3 3:1 4:9 3:7
2:0 3:4 4:12 3:4 2:3 3:4 4:3 3:1 4:9 3:7 2:1
3:0 4:12 3:4 2:3 3:4 4:3 3:1 4:9 3:7 2:1 3:5
4:0 3:4 2:3 3:4 4:3 3:1 4:9 3:7 2:1 3:5 4:9
3:0 2:3 3:4 4:3 3:1 4:9 3:7 2:1 3:5 4:9 3:5
2:0 3:4 4:3 3:1 4:9 3:7 2:1 3:5 4:9 3:5 2:4
3:0 4:3 3:1 4:9 3:7 2:1 3:5 4:9 3:5 2:4 3:1
4:0 3:1 4:9 3:7 2:1 3:5 4:9 3:5 2:4 3:1 2:1
3:0 4:9 3:7 2:1 3:5 4:9 3:5 2:4 3:1 2:1 3:2
4:0 3:7 2:1 3:5 4:9 3:5 2:4 3:1 2:1 3:2 4:6
3:0 2:1 3:5 4:9 3:5 2:4 3:1 2:1 3:2 4:6 3:1
2:0 3:5 4:9 3:5 2:4 3:1 2:1 3:2 4:6 3:1 4:6
3:0 4:9 3:5 2:4 3:1 2:1 3:2 4:6 3:1 4:6 3:14
4:0 3:5 2:4 3:1 2:1 3:2 4:6 3:1 4:6 3:14 2:3
3:0 2:4 3:1 2:1 3:2 4:6 3:1 4:6 3:14 2:3 3:4
2:0 3:1 2:1 3:2 4:6 3:1 4:6 3:14 2:3 3:4 4:3
3:0 2:1 3:2 4:6 3:1 4:6 3:14 2:3 3:4 4:3 2:10
2:0 3:2 4:6 3:1 4:6 3:14 2:3 3:4 4:3 2:10 3:1
3:0 4:6 3:1 4:6 3:14 2:3 3:4 4:3 2:10 3:1 2:5
4:0 3:1 4:6 3:14 2:3 3:4 4:3 2:10 3:1 2:5 3:2
3:0 4:6 3:14 2:3 3:4 4:3 2:10 3:1 2:5 3:2 4:6
4:0 3:14 2:3 3:4 4:3 2:10 3:1 2:5 3:2 4:6 3:2
3:0 2:3 3:4 4:3 2:10 3:1 2:5 3:2 4:6 3:2 4:9
2:0 3:4 4:3 2:10 3:1 2:5 3:2 4:6 3:2 4:9 3:8
3:0 4:3 2:10 3:1 2:5 3:2 4:6 3:2 4:9 3:8 4:4
4:0 2:10 3:1 2:5 3:2 4:6 3:2 4:9 3:8 4:4 3:2
2:0 3:1 2:5 3:2 4:6 3:2 4:9 3:8 4:4 3:2 4:2
3:0 2:5 3:2 4:6 3:2 4:9 3:8 4:4 3:2 4:2 3:1
2:0 3:2 4:6 3:2 4:9 3:8 4:4 3:2 4:2 3:1 2:3
3:0 4:6 3:2 4:9 3:8 4:4 3:2 4:2 3:1 2:3 3:3
4:0 3:2 4:9 3:8 4:4 3:2 4:2 3:1 2:3 3:3 4:14
3:0 4:9 3:8 4:4 3:2 4:2 3:1 2:3 3:3 4:14 2:18
4:0 3:8 4:4 3:2 4:2 3:1 2:3 3:3 4:14 2:18 3:5
3:0 4:4 3:2 4:2 3:1 2:3 3:3 4:14 2:18 3:5 2:1
4:0 3:2 4:2 3:1 2:3 3:3 4:14 2:18 3:5 2:1 3:2
3:0 4:2 3:1 2:3 3:3 4:14 2:18 3:5 2:1 3:2 4:1
4:0 3:1 2:3 3:3 4:14 2:18 3:5 2:1 3:2 4:1 3:1
3:0 2:3 3:3 4:14 2:18 3:5 2:1 3:2 4:1 3:1 4:19
2:0 3:3 4:14 2:18 3:5 2:1 3:2 4:1 3:1 4:19 3:6
3:0 4:14 2:18 3:5 2:1 3:2 4:1 3:1 4:19 3:6 4:1
4:0 2:18 3:5 2:1 3:2 4:1 3:1 4:19 3:6 4:1 2:1
2:0 3:5 2:1 3:2 4:1 3:1 4:19 3:6 4:1 2:1 3:5
3:0 2:1 3:2 4:1 3:1 4:19 3:6 4:1 2:1 3:5 4:2
2:0 3:2 4:1 3:1 4:19 3:6 4:1 2:1 3:5 4:2 3:1
3:0 4:1 3:1 4:19 3:6 4:1 2:1 3:5 4:2 3:1 4:3
4:0 3:1 4:19 3:6 4:1 2:1 3:5 4:2 3:1 4:3 3:1
3:0 4:19 3:6 4:1 2:1 3:5 4:2 3:1 4:3 3:1 4:4
4:0 3:6 4:1 2:1 3:5 4:2 3:1 4:3 3:1 4:4 3:4
3:0 4:1 2:1 3:5 4:2 3:1 4:3 3:1 4:4 3:4 2:4
4:0 2:1 3:5 4:2 3:1 4:3 3:1 4:4 3:4 2:4 3:3
2:0 3:5 4:2 3:1 4:3 3:1 4:4 3:4 2:4 3:3 4:3
3:0 4:2 3:1 4:3 3:1 4:4 3:4 2:4 3:3 4:3 3:1
4:0 3:1 4:3 3:1 4:4 3:4 2:4 3:3 4:3 3:1 4:10
3:0 4:3 3:1 4:4 3:4 2:4 3:3 4:3 3:1 4:10 3:14
4:0 3:1 4:4 3:4 2:4 3:3 4:3 3:1 4:10 3:14 2:4
3:0 4:4 3:4 2:4 3:3 4:3 3:1 4:10 3:14 2:4 3:4
4:0 3:4 2:4 3:3 4:3 3:1 4:10 3:14 2:4 3:4 4:2
3:0 2:4 3:3 4:3 3:1 4:10 3:14 2:4 3:4 4:2 3:14
2:0 3:3 4:3 3:1 4:10 3:14 2:4 3:4 4:2 3:14 2:4
3:0 4:3 3:1 4:10 3:14 2:4 3:4 4:2 3:14 2:4 3:3
4:0 3:1 4:10 3:14 2:4 3:4 4:2 3:14 2:4 3:3 4:3
3:0 4:10 3:14 2:4 3:4 4:2 3:14 2:4 3:3 4:3 3:2
4:0 3:14 2:4 3:4 4:2 3:14 2:4 3:3 4:3 3:2 4:3
3:0 2:4 3:4 4:2 3:14 2:4 3:3 4:3 3:2 4:3 3:3
2:0 3:4 4:2 3:14 2:4 3:3 4:3 3:2 4:3 3:3 4:7
3:0 4:2 3:14 2:4 3:3 4:3 3:2 4:3 3:3 4:7 3:3
4:0 3:14 2:4 3:3 4:3 3:2 4:3 3:3 4:7 3:3 4:5
3:0 2:4 3:3 4:3 3:2 4:3 3:3 4:7 3:3 4:5 3:4
2:0 3:3 4:3 3:2 4:3 3:3 4:7 3:3 4:5 3:4 2:4
3:0 4:3 3:2 4:3 3:3 4:7 3:3 4:5 3:4 2:4 3:4
4:0 3:2 4:3 3:3 4:7 3:3 4:5 3:4 2:4 3:4 4:3
3:0 4:3 3:3 4:7 3:3 4:5 3:4 2:4 3:4 4:3 3:2
4:0 3:3 4:7 3:3 4:5 3:4 2:4 3:4 4:3 3:2 4:1
3:0 4:7 3:3 4:5 3:4 2:4 3:4 4:3 3:2 4:1 3:1
4:0 3:3 4:5 3:4 2:4 3:4 4:3 3:2 4:1 3:1 4:5
3:0 4:5 3:4 2:4 3:4 4:3 3:2 4:1 3:1 4:5 3:3
4:0 3:4 2:4 3:4 4:3 3:2 4:1 3:1 4:5 3:3 2:5
3:0 2:4 3:4 4:3 3:2 4:1 3:1 4:5 3:3 2:5 3:3
2:0 3:4 4:3 3:2 4:1 3:1 4:5 3:3 2:5 3:3 4:5
3:0 4:3 3:2 4:1 3:1 4:5 3:3 2:5 3:3 4:5 3:1
4:0 3:2 4:1 3:1 4:5 3:3 2:5 3:3 4:5 3:1 4:9
3:0 4:1 3:1 4:5 3:3 2:5 3:3 4:5 3:1 4:9 3:5
4:0 3:1 4:5 3:3 2:5 3:3 4:5 3:1 4:9 3:5 2:1
3:0 4:5 3:3 2:5 3:3 4:5 3:1 4:9 3:5 2:1 3:5
4:0 3:3 2:5 3:3 4:5 3:1 4:9 3:5 2:1 3:5 4:4
3:0 2:5 3:3 4:5 3:1 4:9 3:5 2:1 3:5 4:4 3:2
2:0 3:3 4:5 3:1 4:9 3:5 2:1 3:5 4:4 3:2 4:5
3:0 4:5 3:1 4:9 3:5 2:1 3:5 4:4 3:2 4:5 3:4
4:0 3:1 4:9 3:5 2:1 3:5 4:4 3:2 4:5 3:4 2:4
3:0 4:9 3:5 2:1 3:5 4:4 3:2 4:5 3:4 2:4 3:4
4:0 3:5 2:1 3:5 4:4 3:2 4:5 3:4 2:4 3:4 4:12
3:0 2:1 3:5 4:4 3:2 4:5 3:4 2:4 3:4 4:12 2:8
2:0 3:5 4:4 3:2 4:5 3:4 2:4 3:4 4:12 2:8 3:6
3:0 4:4 3:2 4:5 3:4 2:4 3:4 4:12 2:8 3:6 4:3
4:0 3:2 4:5 3:4 2:4 3:4 4:12 2:8 3:6 4:3 3:1
3:0 4:5 3:4 2:4 3:4 4:12 2:8 3:6 4:3 3:1 4:6
4:0 3:4 2:4 3:4 4:12 2:8 3:6 4:3 3:1 4:6 3:4
3:0 2:4 3:4 4:12 2:8 3:6 4:3 3:1 4:6 3:4 4:2
2:0 3:4 4:12 2:8 3:6 4:3 3:1 4:6 3:4 4:2 3:1
3:0 4:12 2:8 3:6 4:3 3:1 4:6 3:4 4:2 3:1 2:1
4:0 2:8 3:6 4:3 3:1 4:6 3:4 4:2 3:1 2:1 3:4
2:0 3:6 4:3 3:1 4:6 3:4 4:2 3:1 2:1 3:4 4:5
3:0 4:3 3:1 4:6 3:4 4:2 3:1 2:1 3:4 4:5 3:1
4:0 3:1 4:6 3:4 4:2 3:1 2:1 3:4 4:5 3:1 4:7
3:0 4:6 3:4 4:2 3:1 2:1 3:4 4:5 3:1 4:7 3:6
4:0 3:4 4:2 3:1 2:1 3:4 4:5 3:1 4:7 3:6 2:2
3:0 4:2 3:1 2:1 3:4 4:5 3:1 4:7 3:6 2:2 3:4
4:0 3:1 2:1 3:4 4:5 3:1 4:7 3:6 2:2 3:4 4:12
3:0 2:1 3:4 4:5 3:1 4:7 3:6 2:2 3:4 4:12 3:4
2:0 3:4 4:5 3:1 4:7 3:6 2:2 3:4 4:12 3:4 2:4
3:0 4:5 3:1 4:7 3:6 2:2 3:4 4:12 3:4 2:4 3:3
4:0 3:1 4:7 3:6 2:2 3:4 4:12 3:4 2:4 3:3 4:3
3:0 4:7 3:6 2:2 3:4 4:12 3:4 2:4 3:3 4:3 3:1
4:0 3:6 2:2 3:4 4:12 3:4 2:4 3:3 4:3 3:1 4:10
3:0 2:2 3:4 4:12 3:4 2:4 3:3 4:3 3:1 4:10 3:14
2:0 3:4 4:12 3:4 2:4 3:3 4:3 3:1 4:10 3:14 4:2
3:0 4:12 3:4 2:4 3:3 4:3 3:1 4:10 3:14 4:2 3:1
4:0 3:4 2:4 3:3 4:3 3:1 4:10 3:14 4:2 3:1 2:1
3:0 2:4 3:3 4:3 3:1 4:10 3:14 4:2 3:1 2:1 3:4
2:0 3:3 4:3 3:1 4:10 3:14 4:2 3:1 2:1 3:4 4:2
3:0 4:3 3:1 4:10 3:14 4:2 3:1 2:1 3:4 4:2 3:2
4:0 3:1 4:10 3:14 4:2 3:1 2:1 3:4 4:2 3:2 4:3
3:0 4:10 3:14 4:2 3:1 2:1 3:4 4:2 3:2 4:3 3:2
4:0 3:14 4:2 3:1 2:1 3:4 4:2 3:2 4:3 3:2 4:5
3:0 4:2 3:1 2:1 3:4 4:2 3:2 4:3 3:2 4:5 3:6
4:0 3:1 2:1 3:4 4:2 3:2 4:3 3:2 4:5 3:6 4:4
3:0 2:1 3:4 4:2 3:2 4:3 3:2 4:5 3:6 4:4 3:3
2:0 3:4 4:2 3:2 4:3 3:2 4:5 3:6 4:4 3:3 4:1
3:0 4:2 3:2 4:3 3:2 4:5 3:6 4:4 3:3 4:1 3:2
4:0 3:2 4:3 3:2 4:5 3:6 4:4 3:3 4:1 3:2 2:2
3:0 4:3 3:2 4:5 3:6 4:4 3:3 4:1 3:2 2:2 3:4
4:0 3:2 4:5 3:6 4:4 3:3 4:1 3:2 2:2 3:4 4:12
3:0 4:5 3:6 4:4 3:3 4:1 3:2 2:2 3:4 4:12 3:14
4:0 3:6 4:4 3:3 4:1 3:2 2:2 3:4 4:12 3:14 2:5
3:0 4:4 3:3 4:1 3:2 2:2 3:4 4:12 3:14 2:5 3:3
4:0 3:3 4:1 3:2 2:2 3:4 4:12 3:14 2:5 3:3 4:2
3:0 4:1 3:2 2:2 3:4 4:12 3:14 2:5 3:3 4:2 3:16
4:0 3:2 2:2 3:4 4:12 3:14 2:5 3:3 4:2 3:16 2:3
3:0 2:2 3:4 4:12 3:14 2:5 3:3 4:2 3:16 2:3 3:3
2:0 3:4 4:12 3:14 2:5 3:3 4:2 3:16 2:3 3:3 4:3
3:0 4:12 3:14 2:5 3:3 4:2 3:16 2:3 3:3 4:3 3:2
4:0 3:14 2:5 3:3 4:2 3:16 2:3 3:3 4:3 3:2 4:2
3:0 2:5 3:3 4:2 3:16 2:3 3:3 4:3 3:2 4:2 3:4
2:0 3:3 4:2 3:16 2:3 3:3 4:3 3:2 4:2 3:4 4:7
3:0 4:2 3:16 2:3 3:3 4:3 3:2 4:2 3:4 4:7 3:3
4:0 3:16 2:3 3:3 4:3 3:2 4:2 3:4 4:7 3:3 4:4
3:0 2:3 3:3 4:3 3:2 4:2 3:4 4:7 3:3 4:4 3:5
2:0 3:3 4:3 3:2 4:2 3:4 4:7 3:3 4:4 3:5 2:4
3:0 4:3 3:2 4:2 3:4 4:7 3:3 4:4 3:5 2:4 3:4
4:0 3:2 4:2 3:4 4:7 3:3 4:4 3:5 2:4 3:4 4:3
3:0 4:2 3:4 4:7 3:3 4:4 3:5 2:4 3:4 4:3 3:2
4:0 3:4 4:7 3:3 4:4 3:5 2:4 3:4 4:3 3:2 4:1
3:0 4:7 3:3 4:4 3:5 2:4 3:4 4:3 3:2 4:1 3:1
4:0 3:3 4:4 3:5 2:4 3:4 4:3 3:2 4:1 3:1 4:5
3:0 4:4 3:5 2:4 3:4 4:3 3:2 4:1 3:1 4:5 3:3
4:0 3:5 2:4 3:4 4:3 3:2 4:1 3:1 4:5 3:3 2:7
3:0 2:4 3:4 4:3 3:2 4:1 3:1 4:5 3:3 2:7 3:2
2:0 3:4 4:3 3:2 4:1 3:1 4:5 3:3 2:7 3:2 4:13
3:0 4:3 3:2 4:1 3:1 4:5 3:3 2:7 3:2 4:13 3:14
4:0 3:2 4:1 3:1 4:5 3:3 2:7 3:2 4:13 3:14 2:4
3:0 4:1 3:1 4:5 3:3 2:7 3:2 4:13 3:14 2:4 3:3
4:0 3:1 4:5 3:3 2:7 3:2 4:13 3:14 2:4 3:3 4:3
3:0 4:5 3:3 2:7 3:2 4:13 3:14 2:4 3:3 4:3 3:7
4:0 3:3 2:7 3:2 4:13 3:14 2:4 3:3 4:3 3:7 4:6
3:0 2:7 3:2 4:13 3:14 2:4 3:3 4:3 3:7 4:6 3:5
2:0 3:2 4:13 3:14 2:4 3:3 4:3 3:7 4:6 3:5 4:5
3:0 4:13 3:14 2:4 3:3 4:3 3:7 4:6 3:5 4:5 3:3
4:0 3:14 2:4 3:3 4:3 3:7 4:6 3:5 4:5 3:3 4:2
3:0 2:4 3:3 4:3 3:7 4:6 3:5 4:5 3:3 4:2 3:1
2:0 3:3 4:3 3:7 4:6 3:5 4:5 3:3 4:2 3:1 2:1
3:0 4:3 3:7 4:6 3:5 4:5 3:3 4:2 3:1 2:1 3:4
4:0 3:7 4:6 3:5 4:5 3:3 4:2 3:1 2:1 3:4 4:7
3:0 4:6 3:5 4:5 3:3 4:2 3:1 2:1 3:4 4:7 3:1
4:0 3:5 4:5 3:3 4:2 3:1 2:1 3:4 4:7 3:1 4:4
3:0 4:5 3:3 4:2 3:1 2:1 3:4 4:7 3:1 4:4 3:5
4:0 3:3 4:2 3:1 2:1 3:4 4:7 3:1 4:4 3:5 2:4
3:0 4:2 3:1 2:1 3:4 4:7 3:1 4:4 3:5 2:4 3:4
4:0 3:1 2:1 3:4 4:7 3:1 4:4 3:5 2:4 3:4 4:12
3:0 2:1 3:4 4:7 3:1 4:4 3:5 2:4 3:4 4:12 3:5
2:0 3:4 4:7 3:1 4:4 3:5 2:4 3:4 4:12 3:5 2:4
3:0 4:7 3:1 4:4 3:5 2:4 3:4 4:12 3:5 2:4 3:4
4:0 3:1 4:4 3:5 2:4 3:4 4:12 3:5 2:4 3:4 4:11
3:0 4:4 3:5 2:4 3:4 4:12 3:5 2:4 3:4 4:11 3:6
4:0 3:5 2:4 3:4 4:12 3:5 2:4 3:4 4:11 3:6 2:2
3:0 2:4 3:4 4:12 3:5 2:4 3:4 4:11 3:6 2:2 3:4
2:0 3:4 4:12 3:5 2:4 3:4 4:11 3:6 2:2 3:4 4:12
3:0 4:12 3:5 2:4 3:4 4:11 3:6 2:2 3:4 4:12 3:16
4:0 3:5 2:4 3:4 4:11 3:6 2:2 3:4 4:12 3:16 2:3
3:0 2:4 3:4 4:11 3:6 2:2 3:4 4:12 3:16 2:3 3:4
2:0 3:4 4:11 3:6 2:2 3:4 4:12 3:16 2:3 3:4 4:2
3:0 4:11 3:6 2:2 3:4 4:12 3:16 2:3 3:4 4:2 3:12
4:0 3:6 2:2 3:4 4:12 3:16 2:3 3:4 4:2 3:12 2:6
3:0 2:2 3:4 4:12 3:16 2:3 3:4 4:2 3:12 2:6 3:3
2:0 3:4 4:12 3:16 2:3 3:4 4:2 3:12 2:6 3:3 4:4
3:0 4:12 3:16 2:3 3:4 4:2 3:12 2:6 3:3 4:4 3:2
4:0 3:16 2:3 3:4 4:2 3:12 2:6 3:3 4:4 3:2 4:7
3:0 2:3 3:4 4:2 3:12 2:6 3:3 4:4 3:2 4:7 3:1
2:0 3:4 4:2 3:12 2:6 3:3 4:4 3:2 4:7 3:1 4:3
3:0 4:2 3:12 2:6 3:3 4:4 3:2 4:7 3:1 4:3 3:5
4:0 3:12 2:6 3:3 4:4 3:2 4:7 3:1 4:3 3:5 4:3
3:0 2:6 3:3 4:4 3:2 4:7 3:1 4:3 3:5 4:3 3:5
2:0 3:3 4:4 3:2 4:7 3:1 4:3 3:5 4:3 3:5 2:4
3:0 4:4 3:2 4:7 3:1 4:3 3:5 4:3 3:5 2:4 3:3
4:0 3:2 4:7 3:1 4:3 3:5 4:3 3:5 2:4 3:3 4:3
3:0 4:7 3:1 4:3 3:5 4:3 3:5 2:4 3:3 4:3 3:1
4:0 3:1 4:3 3:5 4:3 3:5 2:4 3:3 4:3 3:1 4:1
3:0 4:3 3:5 4:3 3:5 2:4 3:3 4:3 3:1 4:1 3:3
4:0 3:5 4:3 3:5 2:4 3:3 4:3 3:1 4:1 3:3 4:5
3:0 4:3 3:5 2:4 3:3 4:3 3:1 4:1 3:3 4:5 3:3
4:0 3:5 2:4 3:3 4:3 3:1 4:1 3:3 4:5 3:3 4:2
3:0 2:4 3:3 4:3 3:1 4:1 3:3 4:5 3:3 4:2 3:2
2:0 3:3 4:3 3:1 4:1 3:3 4:5 3:3 4:2 3:2 2:1
3:0 4:3 3:1 4:1 3:3 4:5 3:3 4:2 3:2 2:1 3:3
4:0 3:1 4:1 3:3 4:5 3:3 4:2 3:2 2:1 3:3 4:4
3:0 4:1 3:3 4:5 3:3 4:2 3:2 2:1 3:3 4:4 3:2
4:0 3:3 4:5 3:3 4:2 3:2 2:1 3:3 4:4 3:2 4:8
3:0 4:5 3:3 4:2 3:2 2:1 3:3 4:4 3:2 4:8 3:6
4:0 3:3 4:2 3:2 2:1 3:3 4:4 3:2 4:8 3:6 2:2
3:0 4:2 3:2 2:1 3:3 4:4 3:2 4:8 3:6 2:2 3:5
4:0 3:2 2:1 3:3 4:4 3:2 4:8 3:6 2:2 3:5 4:11
3:0 2:1 3:3 4:4 3:2 4:8 3:6 2:2 3:5 4:11 3:5
2:0 3:3 4:4 3:2 4:8 3:6 2:2 3:5 4:11 3:5 2:2
3:0 4:4 3:2 4:8 3:6 2:2 3:5 4:11 3:5 2:2 3:5
4:0 3:2 4:8 3:6 2:2 3:5 4:11 3:5 2:2 3:5 4:11
3:0 4:8 3:6 2:2 3:5 4:11 3:5 2:2 3:5 4:11 3:16
4:0 3:6 2:2 3:5 4:11 3:5 2:2 3:5 4:11 3:16 2:3
3:0 2:2 3:5 4:11 3:5 2:2 3:5 4:11 3:16 2:3 3:4
2:0 3:5 4:11 3:5 2:2 3:5 4:11 3:16 2:3 3:4 4:3
3:0 4:11 3:5 2:2 3:5 4:11 3:16 2:3 3:4 4:3 3:6
4:0 3:5 2:2 3:5 4:11 3:16 2:3 3:4 4:3 3:6 4:7
3:0 2:2 3:5 4:11 3:16 2:3 3:4 4:3 3:6 4:7 3:4
2:0 3:5 4:11 3:16 2:3 3:4 4:3 3:6 4:7 3:4 4:5
3:0 4:11 3:16 2:3 3:4 4:3 3:6 4:7 3:4 4:5 3:4
4:0 3:16 2:3 3:4 4:3 3:6 4:7 3:4 4:5 3:4 2:4
3:0 2:3 3:4 4:3 3:6 4:7 3:4 4:5 3:4 2:4 3:1
2:0 3:4 4:3 3:6 4:7 3:4 4:5 3:4 2:4 3:1 2:1
3:0 4:3 3:6 4:7 3:4 4:5 3:4 2:4 3:1 2:1 3:2
4:0 3:6 4:7 3:4 4:5 3:4 2:4 3:1 2:1 3:2 4:12
3:0 4:7 3:4 4:5 3:4 2:4 3:1 2:1 3:2 4:12 3:4
4:0 3:4 4:5 3:4 2:4 3:1 2:1 3:2 4:12 3:4 4:1
3:0 4:5 3:4 2:4 3:1 2:1 3:2 4:12 3:4 4:1 3:1
4:0 3:4 2:4 3:1 2:1 3:2 4:12 3:4 4:1 3:1 2:2
3:0 2:4 3:1 2:1 3:2 4:12 3:4 4:1 3:1 2:2 3:4
2:0 3:1 2:1 3:2 4:12 3:4 4:1 3:1 2:2 3:4 4:2
3:0 2:1 3:2 4:12 3:4 4:1 3:1 2:2 3:4 4:2 3:1
2:0 3:2 4:12 3:4 4:1 3:1 2:2 3:4 4:2 3:1 4:9
3:0 4:12 3:4 4:1 3:1 2:2 3:4 4:2 3:1 4:9 3:15
4:0 3:4 4:1 3:1 2:2 3:4 4:2 3:1 4:9 3:15 2:4
3:0 4:1 3:1 2:2 3:4 4:2 3:1 4:9 3:15 2:4 3:4
4:0 3:1 2:2 3:4 4:2 3:1 4:9 3:15 2:4 3:4 4:2
3:0 2:2 3:4 4:2 3:1 4:9 3:15 2:4 3:4 4:2 3:8
2:0 3:4 4:2 3:1 4:9 3:15 2:4 3:4 4:2 3:8 4:6
3:0 4:2 3:1 4:9 3:15 2:4 3:4 4:2 3:8 4:6 3:4
4:0 3:1 4:9 3:15 2:4 3:4 4:2 3:8 4:6 3:4 4:5
3:0 4:9 3:15 2:4 3:4 4:2 3:8 4:6 3:4 4:5 3:4
4:0 3:15 2:4 3:4 4:2 3:8 4:6 3:4 4:5 3:4 4:2
3:0 2:4 3:4 4:2 3:8 4:6 3:4 4:5 3:4 4:2 3:1
2:0 3:4 4:2 3:8 4:6 3:4 4:5 3:4 4:2 3:1 2:1
3:0 4:2 3:8 4:6 3:4 4:5 3:4 4:2 3:1 2:1 3:4
4:0 3:8 4:6 3:4 4:5 3:4 4:2 3:1 2:1 3:4 4:1
3:0 4:6 3:4 4:5 3:4 4:2 3:1 2:1 3:4 4:1 3:1
4:0 3:4 4:5 3:4 4:2 3:1 2:1 3:4 4:1 3:1 4:3
3:0 4:5 3:4 4:2 3:1 2:1 3:4 4:1 3:1 4:3 3:2
4:0 3:4 4:2 3:1 2:1 3:4 4:1 3:1 4:3 3:2 4:5
3:0 4:2 3:1 2:1 3:4 4:1 3:1 4:3 3:2 4:5 3:3
4:0 3:1 2:1 3:4 4:1 3:1 4:3 3:2 4:5 3:3 4:2
3:0 2:1 3:4 4:1 3:1 4:3 3:2 4:5 3:3 4:2 3:1
2:0 3:4 4:1 3:1 4:3 3:2 4:5 3:3 4:2 3:1 2:2
3:0 4:1 3:1 4:3 3:2 4:5 3:3 4:2 3:1 2:2 3:4
4:0 3:1 4:3 3:2 4:5 3:3 4:2 3:1 2:2 3:4 4:5
3:0 4:3 3:2 4:5 3:3 4:2 3:1 2:2 3:4 4:5 3:1
4:0 3:2 4:5 3:3 4:2 3:1 2:2 3:4 4:5 3:1 4:7
3:0 4:5 3:3 4:2 3:1 2:2 3:4 4:5 3:1 4:7 2:7
4:0 3:3 4:2 3:1 2:2 3:4 4:5 3:1 4:7 2:7 3:6
3:0 4:2 3:1 2:2 3:4 4:5 3:1 4:7 2:7 3:6 4:4
4:0 3:1 2:2 3:4 4:5 3:1 4:7 2:7 3:6 4:4 3:1
3:0 2:2 3:4 4:5 3:1 4:7 2:7 3:6 4:4 3:1 4:5
2:0 3:4 4:5 3:1 4:7 2:7 3:6 4:4 3:1 4:5 3:4
3:0 4:5 3:1 4:7 2:7 3:6 4:4 3:1 4:5 3:4 4:1
4:0 3:1 4:7 2:7 3:6 4:4 3:1 4:5 3:4 4:1 3:1
3:0 4:7 2:7 3:6 4:4 3:1 4:5 3:4 4:1 3:1 2:2
4:0 2:7 3:6 4:4 3:1 4:5 3:4 4:1 3:1 2:2 3:4
2:0 3:6 4:4 3:1 4:5 3:4 4:1 3:1 2:2 3:4 4:4
3:0 4:4 3:1 4:5 3:4 4:1 3:1 2:2 3:4 4:4 3:1
4:0 3:1 4:5 3:4 4:1 3:1 2:2 3:4 4:4 3:1 4:8
3:0 4:5 3:4 4:1 3:1 2:2 3:4 4:4 3:1 4:8 3:14
4:0 3:4 4:1 3:1 2:2 3:4 4:4 3:1 4:8 3:14 2:4
3:0 4:1 3:1 2:2 3:4 4:4 3:1 4:8 3:14 2:4 3:3
4:0 3:1 2:2 3:4 4:4 3:1 4:8 3:14 2:4 3:3 4:3
3:0 2:2 3:4 4:4 3:1 4:8 3:14 2:4 3:3 4:3 2:7
2:0 3:4 4:4 3:1 4:8 3:14 2:4 3:3 4:3 2:7 3:6
3:0 4:4 3:1 4:8 3:14 2:4 3:3 4:3 2:7 3:6 4:10
4:0 3:1 4:8 3:14 2:4 3:3 4:3 2:7 3:6 4:10 3:6
3:0 4:8 3:14 2:4 3:3 4:3 2:7 3:6 4:10 3:6 2:3
4:0 3:14 2:4 3:3 4:3 2:7 3:6 4:10 3:6 2:3 3:4
3:0 2:4 3:3 4:3 2:7 3:6 4:10 3:6 2:3 3:4 4:12
2:0 3:3 4:3 2:7 3:6 4:10 3:6 2:3 3:4 4:12 3:4
3:0 4:3 2:7 3:6 4:10 3:6 2:3 3:4 4:12 3:4 2:3
4:0 2:7 3:6 4:10 3:6 2:3 3:4 4:12 3:4 2:3 3:4
2:0 3:6 4:10 3:6 2:3 3:4 4:12 3:4 2:3 3:4 4:13
3:0 4:10 3:6 2:3 3:4 4:12 3:4 2:3 3:4 4:13 3:15
4:0 3:6 2:3 3:4 4:12 3:4 2:3 3:4 4:13 3:15 4:1
3:0 2:3 3:4 4:12 3:4 2:3 3:4 4:13 3:15 4:1 3:2
2:0 3:4 4:12 3:4 2:3 3:4 4:13 3:15 4:1 3:2 2:1
3:0 4:12 3:4 2:3 3:4 4:13 3:15 4:1 3:2 2:1 3:4
4:0 3:4 2:3 3:4 4:13 3:15 4:1 3:2 2:1 3:4 4:2
3:0 2:3 3:4 4:13 3:15 4:1 3:2 2:1 3:4 4:2 3:13
2:0 3:4 4:13 3:15 4:1 3:2 2:1 3:4 4:2 3:13 2:4
3:0 4:13 3:15 4:1 3:2 2:1 3:4 4:2 3:13 2:4 3:4
4:0 3:15 4:1 3:2 2:1 3:4 4:2 3:13 2:4 3:4 4:2
3:0 4:1 3:2 2:1 3:4 4:2 3:13 2:4 3:4 4:2 3:2
4:0 3:2 2:1 3:4 4:2 3:13 2:4 3:4 4:2 3:2 4:2
3:0 2:1 3:4 4:2 3:13 2:4 3:4 4:2 3:2 4:2 3:1
2:0 3:4 4:2 3:13 2:4 3:4 4:2 3:2 4:2 3:1 4:8
3:0 4:2 3:13 2:4 3:4 4:2 3:2 4:2 3:1 4:8 3:7
4:0 3:13 2:4 3:4 4:2 3:2 4:2 3:1 4:8 3:7 4:3
3:0 2:4 3:4 4:2 3:2 4:2 3:1 4:8 3:7 4:3 3:3
2:0 3:4 4:2 3:2 4:2 3:1 4:8 3:7 4:3 3:3 4:2
3:0 4:2 3:2 4:2 3:1 4:8 3:7 4:3 3:3 4:2 3:1
4:0 3:2 4:2 3:1 4:8 3:7 4:3 3:3 4:2 3:1 2:2
3:0 4:2 3:1 4:8 3:7 4:3 3:3 4:2 3:1 2:2 3:3
4:0 3:1 4:8 3:7 4:3 3:3 4:2 3:1 2:2 3:3 4:6
3:0 4:8 3:7 4:3 3:3 4:2 3:1 2:2 3:3 4:6 3:1
4:0 3:7 4:3 3:3 4:2 3:1 2:2 3:3 4:6 3:1 4:7
3:0 4:3 3:3 4:2 3:1 2:2 3:3 4:6 3:1 4:7 3:13
4:0 3:3 4:2 3:1 2:2 3:3 4:6 3:1 4:7 3:13 2:5
3:0 4:2 3:1 2:2 3:3 4:6 3:1 4:7 3:13 2:5 3:3
4:0 3:1 2:2 3:3 4:6 3:1 4:7 3:13 2:5 3:3 4:3
3:0 2:2 3:3 4:6 3:1 4:7 3:13 2:5 3:3 4:3 3:6
2:0 3:3 4:6 3:1 4:7 3:13 2:5 3:3 4:3 3:6 2:1
3:0 4:6 3:1 4:7 3:13 2:5 3:3 4:3 3:6 2:1 3:6
4:0 3:1 4:7 3:13 2:5 3:3 4:3 3:6 2:1 3:6 4:11
3:0 4:7 3:13 2:5 3:3 4:3 3:6 2:1 3:6 4:11 3:11
4:0 3:13 2:5 3:3 4:3 3:6 2:1 3:6 4:11 3:11 4:1
3:0 2:5 3:3 4:3 3:6 2:1 3:6 4:11 3:11 4:1 3:3
2:0 3:3 4:3 3:6 2:1 3:6 4:11 3:11 4:1 3:3 2:3
3:0 4:3 3:6 2:1 3:6 4:11 3:11 4:1 3:3 2:3 3:4
4:0 3:6 2:1 3:6 4:11 3:11 4:1 3:3 2:3 3:4 4:3
3:0 2:1 3:6 4:11 3:11 4:1 3:3 2:3 3:4 4:3 3:11
2:0 3:6 4:11 3:11 4:1 3:3 2:3 3:4 4:3 3:11 2:5
3:0 4:11 3:11 4:1 3:3 2:3 3:4 4:3 3:11 2:5 3:3
4:0 3:11 4:1 3:3 2:3 3:4 4:3 3:11 2:5 3:3 4:3
3:0 4:1 3:3 2:3 3:4 4:3 3:11 2:5 3:3 4:3 3:2
4:0 3:3 2:3 3:4 4:3 3:11 2:5 3:3 4:3 3:2 4:1
3:0 2:3 3:4 4:3 3:11 2:5 3:3 4:3 3:2 4:1 3:2
2:0 3:4 4:3 3:11 2:5 3:3 4:3 3:2 4:1 3:2 4:1
3:0 4:3 3:11 2:5 3:3 4:3 3:2 4:1 3:2 4:1 3:1
4:0 3:11 2:5 3:3 4:3 3:2 4:1 3:2 4:1 3:1 4:6
3:0 2:5 3:3 4:3 3:2 4:1 3:2 4:1 3:1 4:6 3:5
2:0 3:3 4:3 3:2 4:1 3:2 4:1 3:1 4:6 3:5 4:5
3:0 4:3 3:2 4:1 3:2 4:1 3:1 4:6 3:5 4:5 3:6
4:0 3:2 4:1 3:2 4:1 3:1 4:6 3:5 4:5 3:6 2:2
3:0 4:1 3:2 4:1 3:1 4:6 3:5 4:5 3:6 2:2 3:5
4:0 3:2 4:1 3:1 4:6 3:5 4:5 3:6 2:2 3:5 4:5
3:0 4:1 3:1 4:6 3:5 4:5 3:6 2:2 3:5 4:5 3:2
4:0 3:1 4:6 3:5 4:5 3:6 2:2 3:5 4:5 3:2 4:5
3:0 4:6 3:5 4:5 3:6 2:2 3:5 4:5 3:2 4:5 3:3
4:0 3:5 4:5 3:6 2:2 3:5 4:5 3:2 4:5 3:3 2:5
3:0 4:5 3:6 2:2 3:5 4:5 3:2 4:5 3:3 2:5 3:3
4:0 3:6 2:2 3:5 4:5 3:2 4:5 3:3 2:5 3:3 4:13
3:0 2:2 3:5 4:5 3:2 4:5 3:3 2:5 3:3 4:13 3:15
2:0 3:5 4:5 3:2 4:5 3:3 2:5 3:3 4:13 3:15 2:4
3:0 4:5 3:2 4:5 3:3 2:5 3:3 4:13 3:15 2:4 3:3
4:0 3:2 4:5 3:3 2:5 3:3 4:13 3:15 2:4 3:3 4:3
3:0 4:5 3:3 2:5 3:3 4:13 3:15 2:4 3:3 4:3 3:10
4:0 3:3 2:5 3:3 4:13 3:15 2:4 3:3 4:3 3:10 4:5
3:0 2:5 3:3 4:13 3:15 2:4 3:3 4:3 3:10 4:5 3:4
2:0 3:3 4:13 3:15 2:4 3:3 4:3 3:10 4:5 3:4 4:4
3:0 4:13 3:15 2:4 3:3 4:3 3:10 4:5 3:4 4:4 3:4
4:0 3:15 2:4 3:3 4:3 3:10 4:5 3:4 4:4 3:4 2:4
3:0 2:4 3:3 4:3 3:10 4:5 3:4 4:4 3:4 2:4 3:3
2:0 3:3 4:3 3:10 4:5 3:4 4:4 3:4 2:4 3:3 4:2
3:0 4:3 3:10 4:5 3:4 4:4 3:4 2:4 3:3 4:2 3:1
4:0 3:10 4:5 3:4 4:4 3:4 2:4 3:3 4:2 3:1 4:2
3:0 4:5 3:4 4:4 3:4 2:4 3:3 4:2 3:1 4:2 3:3
4:0 3:4 4:4 3:4 2:4 3:3 4:2 3:1 4:2 3:3 4:5
3:0 4:4 3:4 2:4 3:3 4:2 3:1 4:2 3:3 4:5 3:2
4:0 3:4 2:4 3:3 4:2 3:1 4:2 3:3 4:5 3:2 4:2
3:0 2:4 3:3 4:2 3:1 4:2 3:3 4:5 3:2 4:2 3:1
2:0 3:3 4:2 3:1 4:2 3:3 4:5 3:2 4:2 3:1 2:3
3:0 4:2 3:1 4:2 3:3 4:5 3:2 4:2 3:1 2:3 3:3
4:0 3:1 4:2 3:3 4:5 3:2 4:2 3:1 2:3 3:3 4:12
3:0 4:2 3:3 4:5 3:2 4:2 3:1 2:3 3:3 4:12 3:16
4:0 3:3 4:5 3:2 4:2 3:1 2:3 3:3 4:12 3:16 2:3
3:0 4:5 3:2 4:2 3:1 2:3 3:3 4:12 3:16 2:3 3:4
4:0 3:2 4:2 3:1 2:3 3:3 4:12 3:16 2:3 3:4 4:4
3:0 4:2 3:1 2:3 3:3 4:12 3:16 2:3 3:4 4:4 3:12
4:0 3:1 2:3 3:3 4:12 3:16 2:3 3:4 4:4 3:12 2:4
3:0 2:3 3:3 4:12 3:16 2:3 3:4 4:4 3:12 2:4 3:4
2:0 3:3 4:12 3:16 2:3 3:4 4:4 3:12 2:4 3:4 4:2
3:0 4:12 3:16 2:3 3:4 4:4 3:12 2:4 3:4 4:2 3:2
4:0 3:16 2:3 3:4 4:4 3:12 2:4 3:4 4:2 3:2 4:2
3:0 2:3 3:4 4:4 3:12 2:4 3:4 4:2 3:2 4:2 3:2
2:0 3:4 4:4 3:12 2:4 3:4 4:2 3:2 4:2 3:2 4:8
3:0 4:4 3:12 2:4 3:4 4:2 3:2 4:2 3:2 4:8 3:8
4:0 3:12 2:4 3:4 4:2 3:2 4:2 3:2 4:8 3:8 4:2
3:0 2:4 3:4 4:2 3:2 4:2 3:2 4:8 3:8 4:2 3:3
2:0 3:4 4:2 3:2 4:2 3:2 4:8 3:8 4:2 3:3 2:5
3:0 4:2 3:2 4:2 3:2 4:8 3:8 4:2 3:3 2:5 3:4
4:0 3:2 4:2 3:2 4:8 3:8 4:2 3:3 2:5 3:4 4:3
3:0 4:2 3:2 4:8 3:8 4:2 3:3 2:5 3:4 4:3 3:2
4:0 3:2 4:8 3:8 4:2 3:3 2:5 3:4 4:3 3:2 4:8
3:0 4:8 3:8 4:2 3:3 2:5 3:4 4:3 3:2 4:8 3:5
4:0 3:8 4:2 3:3 2:5 3:4 4:3 3:2 4:8 3:5 2:3
3:0 4:2 3:3 2:5 3:4 4:3 3:2 4:8 3:5 2:3 3:4
4:0 3:3 2:5 3:4 4:3 3:2 4:8 3:5 2:3 3:4 4:11
3:0 2:5 3:4 4:3 3:2 4:8 3:5 2:3 3:4 4:11 3:5
2:0 3:4 4:3 3:2 4:8 3:5 2:3 3:4 4:11 3:5 2:3
3:0 4:3 3:2 4:8 3:5 2:3 3:4 4:11 3:5 2:3 3:3
4:0 3:2 4:8 3:5 2:3 3:4 4:11 3:5 2:3 3:3 2:1
3:0 4:8 3:5 2:3 3:4 4:11 3:5 2:3 3:3 2:1 3:1
4:0 3:5 2:3 3:4 4:11 3:5 2:3 3:3 2:1 3:1 4:12
3:0 2:3 3:4 4:11 3:5 2:3 3:3 2:1 3:1 4:12 3:16
2:0 3:4 4:11 3:5 2:3 3:3 2:1 3:1 4:12 3:16 2:2
3:0 4:11 3:5 2:3 3:3 2:1 3:1 4:12 3:16 2:2 3:4
4:0 3:5 2:3 3:3 2:1 3:1 4:12 3:16 2:2 3:4 4:2
3:0 2:3 3:3 2:1 3:1 4:12 3:16 2:2 3:4 4:2 3:14
2:0 3:3 2:1 3:1 4:12 3:16 2:2 3:4 4:2 3:14 4:2
3:0 2:1 3:1 4:12 3:16 2:2 3:4 4:2 3:14 4:2 3:1
2:0 3:1 4:12 3:16 2:2 3:4 4:2 3:14 4:2 3:1 2:1
3:0 4:12 3:16 2:2 3:4 4:2 3:14 4:2 3:1 2:1 3:4
4:0 3:16 2:2 3:4 4:2 3:14 4:2 3:1 2:1 3:4 4:3
3:0 2:2 3:4 4:2 3:14 4:2 3:1 2:1 3:4 4:3 3:2
2:0 3:4 4:2 3:14 4:2 3:1 2:1 3:4 4:3 3:2 4:6
3:0 4:2 3:14 4:2 3:1 2:1 3:4 4:3 3:2 4:6 3:2
4:0 3:14 4:2 3:1 2:1 3:4 4:3 3:2 4:6 3:2 4:1
3:0 4:2 3:1 2:1 3:4 4:3 3:2 4:6 3:2 4:1 3:7
4:0 3:1 2:1 3:4 4:3 3:2 4:6 3:2 4:1 3:7 4:4
3:0 2:1 3:4 4:3 3:2 4:6 3:2 4:1 3:7 4:4 3:2
2:0 3:4 4:3 3:2 4:6 3:2 4:1 3:7 4:4 3:2 4:4
3:0 4:3 3:2 4:6 3:2 4:1 3:7 4:4 3:2 4:4 2:1
4:0 3:2 4:6 3:2 4:1 3:7 4:4 3:2 4:4 2:1 3:4
3:0 4:6 3:2 4:1 3:7 4:4 3:2 4:4 2:1 3:4 4:6
4:0 3:2 4:1 3:7 4:4 3:2 4:4 2:1 3:4 4:6 3:2
3:0 4:1 3:7 4:4 3:2 4:4 2:1 3:4 4:6 3:2 4:4
4:0 3:7 4:4 3:2 4:4 2:1 3:4 4:6 3:2 4:4 3:5
3:0 4:4 3:2 4:4 2:1 3:4 4:6 3:2 4:4 3:5 2:4
4:0 3:2 4:4 2:1 3:4 4:6 3:2 4:4 3:5 2:4 3:3
3:0 4:4 2:1 3:4 4:6 3:2 4:4 3:5 2:4 3:3 4:3
4:0 2:1 3:4 4:6 3:2 4:4 3:5 2:4 3:3 4:3 3:1
2:0 3:4 4:6 3:2 4:4 3:5 2:4 3:3 4:3 3:1 4:9
3:0 4:6 3:2 4:4 3:5 2:4 3:3 4:3 3:1 4:9 3:6
4:0 3:2 4:4 3:5 2:4 3:3 4:3 3:1 4:9 3:6 2:3
3:0 4:4 3:5 2:4 3:3 4:3 3:1 4:9 3:6 2:3 3:4
4:0 3:5 2:4 3:3 4:3 3:1 4:9 3:6 2:3 3:4 4:11
3:0 2:4 3:3 4:3 3:1 4:9 3:6 2:3 3:4 4:11 3:5
2:0 3:3 4:3 3:1 4:9 3:6 2:3 3:4 4:11 3:5 2:3
3:0 4:3 3:1 4:9 3:6 2:3 3:4 4:11 3:5 2:3 3:4
4:0 3:1 4:9 3:6 2:3 3:4 4:11 3:5 2:3 3:4 4:12
3:0 4:9 3:6 2:3 3:4 4:11 3:5 2:3 3:4 4:12 3:1
4:0 3:6 2:3 3:4 4:11 3:5 2:3 3:4 4:12 3:1 4:1
3:0 2:3 3:4 4:11 3:5 2:3 3:4 4:12 3:1 4:1 2:6
2:0 3:4 4:11 3:5 2:3 3:4 4:12 3:1 4:1 2:6 3:5
3:0 4:11 3:5 2:3 3:4 4:12 3:1 4:1 2:6 3:5 2:1
4:0 3:5 2:3 3:4 4:12 3:1 4:1 2:6 3:5 2:1 3:1
3:0 2:3 3:4 4:12 3:1 4:1 2:6 3:5 2:1 3:1 4:8
2:0 3:4 4:12 3:1 4:1 2:6 3:5 2:1 3:1 4:8 3:5
3:0 4:12 3:1 4:1 2:6 3:5 2:1 3:1 4:8 3:5 2:5
4:0 3:1 4:1 2:6 3:5 2:1 3:1 4:8 3:5 2:5 3:3
3:0 4:1 2:6 3:5 2:1 3:1 4:8 3:5 2:5 3:3 4:3
4:0 2:6 3:5 2:1 3:1 4:8 3:5 2:5 3:3 4:3 3:1
2:0 3:5 2:1 3:1 4:8 3:5 2:5 3:3 4:3 3:1 4:9
3:0 2:1 3:1 4:8 3:5 2:5 3:3 4:3 3:1 4:9 3:7
2:0 3:1 4:8 3:5 2:5 3:3 4:3 3:1 4:9 3:7 2:1
3:0 4:8 3:5 2:5 3:3 4:3 3:1 4:9 3:7 2:1 3:5
4:0 3:5 2:5 3:3 4:3 3:1 4:9 3:7 2:1 3:5 4:10
3:0 2:5 3:3 4:3 3:1 4:9 3:7 2:1 3:5 4:10 3:4
2:0 3:3 4:3 3:1 4:9 3:7 2:1 3:5 4:10 3:4 2:4
3:0 4:3 3:1 4:9 3:7 2:1 3:5 4:10 3:4 2:4 3:3
4:0 3:1 4:9 3:7 2:1 3:5 4:10 3:4 2:4 3:3 4:13
3:0 4:9 3:7 2:1 3:5 4:10 3:4 2:4 3:3 4:13 3:14
4:0 3:7 2:1 3:5 4:10 3:4 2:4 3:3 4:13 3:14 2:5
3:0 2:1 3:5 4:10 3:4 2:4 3:3 4:13 3:14 2:5 3:3
2:0 3:5 4:10 3:4 2:4 3:3 4:13 3:14 2:5 3:3 4:2
3:0 4:10 3:4 2:4 3:3 4:13 3:14 2:5 3:3 4:2 3:10
4:0 3:4 2:4 3:3 4:13 3:14 2:5 3:3 4:2 3:10 4:5
3:0 2:4 3:3 4:13 3:14 2:5 3:3 4:2 3:10 4:5 3:4
2:0 3:3 4:13 3:14 2:5 3:3 4:2 3:10 4:5 3:4 4:4
3:0 4:13 3:14 2:5 3:3 4:2 3:10 4:5 3:4 4:4 3:5
4:0 3:14 2:5 3:3 4:2 3:10 4:5 3:4 4:4 3:5 2:5
3:0 2:5 3:3 4:2 3:10 4:5 3:4 4:4 3:5 2:5 3:3
2:0 3:3 4:2 3:10 4:5 3:4 4:4 3:5 2:5 3:3 4:4
3:0 4:2 3:10 4:5 3:4 4:4 3:5 2:5 3:3 4:4 3:4
4:0 3:10 4:5 3:4 4:4 3:5 2:5 3:3 4:4 3:4 4:4
3:0 4:5 3:4 4:4 3:5 2:5 3:3 4:4 3:4 4:4 3:3
4:0 3:4 4:4 3:5 2:5 3:3 4:4 3:4 4:4 3:3 4:2
3:0 4:4 3:5 2:5 3:3 4:4 3:4 4:4 3:3 4:2 3:1
4:0 3:5 2:5 3:3 4:4 3:4 4:4 3:3 4:2 3:1 2:2
3:0 2:5 3:3 4:4 3:4 4:4 3:3 4:2 3:1 2:2 3:3
2:0 3:3 4:4 3:4 4:4 3:3 4:2 3:1 2:2 3:3 4:7
3:0 4:4 3:4 4:4 3:3 4:2 3:1 2:2 3:3 4:7 3:1
4:0 3:4 4:4 3:3 4:2 3:1 2:2 3:3 4:7 3:1 4:6
3:0 4:4 3:3 4:2 3:1 2:2 3:3 4:7 3:1 4:6 3:6
4:0 3:3 4:2 3:1 2:2 3:3 4:7 3:1 4:6 3:6 2:1
3:0 4:2 3:1 2:2 3:3 4:7 3:1 4:6 3:6 2:1 3:5
4:0 3:1 2:2 3:3 4:7 3:1 4:6 3:6 2:1 3:5 4:11
3:0 2:2 3:3 4:7 3:1 4:6 3:6 2:1 3:5 4:11 3:4
2:0 3:3 4:7 3:1 4:6 3:6 2:1 3:5 4:11 3:4 2:4
3:0 4:7 3:1 4:6 3:6 2:1 3:5 4:11 3:4 2:4 3:4
4:0 3:1 4:6 3:6 2:1 3:5 4:11 3:4 2:4 3:4 4:13
3:0 4:6 3:6 2:1 3:5 4:11 3:4 2:4 3:4 4:13 2:8
4:0 3:6 2:1 3:5 4:11 3:4 2:4 3:4 4:13 2:8 3:6
3:0 2:1 3:5 4:11 3:4 2:4 3:4 4:13 2:8 3:6 4:9
2:0 3:5 4:11 3:4 2:4 3:4 4:13 2:8 3:6 4:9 3:5
3:0 4:11 3:4 2:4 3:4 4:13 2:8 3:6 4:9 3:5 2:3
4:0 3:4 2:4 3:4 4:13 2:8 3:6 4:9 3:5 2:3 3:4
3:0 2:4 3:4 4:13 2:8 3:6 4:9 3:5 2:3 3:4 4:4
2:0 3:4 4:13 2:8 3:6 4:9 3:5 2:3 3:4 4:4 3:1
3:0 4:13 2:8 3:6 4:9 3:5 2:3 3:4 4:4 3:1 4:8
4:0 2:8 3:6 4:9 3:5 2:3 3:4 4:4 3:1 4:8 3:6
2:0 3:6 4:9 3:5 2:3 3:4 4:4 3:1 4:8 3:6 2:2
3:0 4:9 3:5 2:3 3:4 4:4 3:1 4:8 3:6 2:2 3:4
4:0 3:5 2:3 3:4 4:4 3:1 4:8 3:6 2:2 3:4 4:11
3:0 2:3 3:4 4:4 3:1 4:8 3:6 2:2 3:4 4:11 3:4
2:0 3:4 4:4 3:1 4:8 3:6 2:2 3:4 4:11 3:4 2:4
3:0 4:4 3:1 4:8 3:6 2:2 3:4 4:11 3:4 2:4 3:3
4:0 3:1 4:8 3:6 2:2 3:4 4:11 3:4 2:4 3:3 4:5
3:0 4:8 3:6 2:2 3:4 4:11 3:4 2:4 3:3 4:5 3:1
4:0 3:6 2:2 3:4 4:11 3:4 2:4 3:3 4:5 3:1 4:9
3:0 2:2 3:4 4:11 3:4 2:4 3:3 4:5 3:1 4:9 3:14
2:0 3:4 4:11 3:4 2:4 3:3 4:5 3:1 4:9 3:14 2:3
3:0 4:11 3:4 2:4 3:3 4:5 3:1 4:9 3:14 2:3 3:4
4:0 3:4 2:4 3:3 4:5 3:1 4:9 3:14 2:3 3:4 4:2
3:0 2:4 3:3 4:5 3:1 4:9 3:14 2:3 3:4 4:2 3:10
2:0 3:3 4:5 3:1 4:9 3:14 2:3 3:4 4:2 3:10 2:1
3:0 4:5 3:1 4:9 3:14 2:3 3:4 4:2 3:10 2:1 3:1
4:0 3:1 4:9 3:14 2:3 3:4 4:2 3:10 2:1 3:1 2:4
3:0 4:9 3:14 2:3 3:4 4:2 3:10 2:1 3:1 2:4 3:3
4:0 3:14 2:3 3:4 4:2 3:10 2:1 3:1 2:4 3:3 4:5
3:0 2:3 3:4 4:2 3:10 2:1 3:1 2:4 3:3 4:5 3:1
2:0 3:4 4:2 3:10 2:1 3:1 2:4 3:3 4:5 3:1 4:3
3:0 4:2 3:10 2:1 3:1 2:4 3:3 4:5 3:1 4:3 3:1
4:0 3:10 2:1 3:1 2:4 3:3 4:5 3:1 4:3 3:1 4:9
3:0 2:1 3:1 2:4 3:3 4:5 3:1 4:3 3:1 4:9 3:4
2:0 3:1 2:4 3:3 4:5 3:1 4:3 3:1 4:9 3:4 4:4
3:0 2:4 3:3 4:5 3:1 4:3 3:1 4:9 3:4 4:4 3:6
2:0 3:3 4:5 3:1 4:3 3:1 4:9 3:4 4:4 3:6 2:3
3:0 4:5 3:1 4:3 3:1 4:9 3:4 4:4 3:6 2:3 3:4
4:0 3:1 4:3 3:1 4:9 3:4 4:4 3:6 2:3 3:4 4:6
3:0 4:3 3:1 4:9 3:4 4:4 3:6 2:3 3:4 4:6 3:1
4:0 3:1 4:9 3:4 4:4 3:6 2:3 3:4 4:6 3:1 4:5
3:0 4:9 3:4 4:4 3:6 2:3 3:4 4:6 3:1 4:5 3:3
4:0 3:4 4:4 3:6 2:3 3:4 4:6 3:1 4:5 3:3 4:1
3:0 4:4 3:6 2:3 3:4 4:6 3:1 4:5 3:3 4:1 3:1
4:0 3:6 2:3 3:4 4:6 3:1 4:5 3:3 4:1 3:1 2:3
3:0 2:3 3:4 4:6 3:1 4:5 3:3 4:1 3:1 2:3 3:4
2:0 3:4 4:6 3:1 4:5 3:3 4:1 3:1 2:3 3:4 4:2
3:0 4:6 3:1 4:5 3:3 4:1 3:1 2:3 3:4 4:2 3:1
4:0 3:1 4:5 3:3 4:1 3:1 2:3 3:4 4:2 3:1 4:9
3:0 4:5 3:3 4:1 3:1 2:3 3:4 4:2 3:1 4:9 3:5
4:0 3:3 4:1 3:1 2:3 3:4 4:2 3:1 4:9 3:5 2:4
3:0 4:1 3:1 2:3 3:4 4:2 3:1 4:9 3:5 2:4 3:4
4:0 3:1 2:3 3:4 4:2 3:1 4:9 3:5 2:4 3:4 4:11
3:0 2:3 3:4 4:2 3:1 4:9 3:5 2:4 3:4 4:11 3:5
2:0 3:4 4:2 3:1 4:9 3:5 2:4 3:4 4:11 3:5 2:3
3:0 4:2 3:1 4:9 3:5 2:4 3:4 4:11 3:5 2:3 3:4
4:0 3:1 4:9 3:5 2:4 3:4 4:11 3:5 2:3 3:4 4:3
3:0 4:9 3:5 2:4 3:4 4:11 3:5 2:3 3:4 4:3 3:1
4:0 3:5 2:4 3:4 4:11 3:5 2:3 3:4 4:3 3:1 4:8
3:0 2:4 3:4 4:11 3:5 2:3 3:4 4:3 3:1 4:8 2:8
2:0 3:4 4:11 3:5 2:3 3:4 4:3 3:1 4:8 2:8 3:4
3:0 4:11 3:5 2:3 3:4 4:3 3:1 4:8 2:8 3:4 2:1
4:0 3:5 2:3 3:4 4:3 3:1 4:8 2:8 3:4 2:1 3:2
3:0 2:3 3:4 4:3 3:1 4:8 2:8 3:4 2:1 3:2 4:9
2:0 3:4 4:3 3:1 4:8 2:8 3:4 2:1 3:2 4:9 3:5
3:0 4:3 3:1 4:8 2:8 3:4 2:1 3:2 4:9 3:5 2:3
4:0 3:1 4:8 2:8 3:4 2:1 3:2 4:9 3:5 2:3 3:4
3:0 4:8 2:8 3:4 2:1 3:2 4:9 3:5 2:3 3:4 4:1
4:0 2:8 3:4 2:1 3:2 4:9 3:5 2:3 3:4 4:1 3:1
2:0 3:4 2:1 3:2 4:9 3:5 2:3 3:4 4:1 3:1 4:11
3:0 2:1 3:2 4:9 3:5 2:3 3:4 4:1 3:1 4:11 3:16
2:0 3:2 4:9 3:5 2:3 3:4 4:1 3:1 4:11 3:16 2:1
3:0 4:9 3:5 2:3 3:4 4:1 3:1 4:11 3:16 2:1 3:1
4:0 3:5 2:3 3:4 4:1 3:1 4:11 3:16 2:1 3:1 2:1
3:0 2:3 3:4 4:1 3:1 4:11 3:16 2:1 3:1 2:1 3:4
2:0 3:4 4:1 3:1 4:11 3:16 2:1 3:1 2:1 3:4 4:1
3:0 4:1 3:1 4:11 3:16 2:1 3:1 2:1 3:4 4:1 3:13
4:0 3:1 4:11 3:16 2:1 3:1 2:1 3:4 4:1 3:13 2:4
3:0 4:11 3:16 2:1 3:1 2:1 3:4 4:1 3:13 2:4 3:4
4:0 3:16 2:1 3:1 2:1 3:4 4:1 3:13 2:4 3:4 4:2
3:0 2:1 3:1 2:1 3:4 4:1 3:13 2:4 3:4 4:2 3:1
2:0 3:1 2:1 3:4 4:1 3:13 2:4 3:4 4:2 3:1 4:2
3:0 2:1 3:4 4:1 3:13 2:4 3:4 4:2 3:1 4:2 3:2
2:0 3:4 4:1 3:13 2:4 3:4 4:2 3:1 4:2 3:2 4:9
3:0 4:1 3:13 2:4 3:4 4:2 3:1 4:2 3:2 4:9 3:5
4:0 3:13 2:4 3:4 4:2 3:1 4:2 3:2 4:9 3:5 4:5
3:0 2:4 3:4 4:2 3:1 4:2 3:2 4:9 3:5 4:5 3:2
2:0 3:4 4:2 3:1 4:2 3:2 4:9 3:5 4:5 3:2 4:2
3:0 4:2 3:1 4:2 3:2 4:9 3:5 4:5 3:2 4:2 3:1
4:0 3:1 4:2 3:2 4:9 3:5 4:5 3:2 4:2 3:1 2:4
3:0 4:2 3:2 4:9 3:5 4:5 3:2 4:2 3:1 2:4 3:3
4:0 3:2 4:9 3:5 4:5 3:2 4:2 3:1 2:4 3:3 4:14
3:0 4:9 3:5 4:5 3:2 4:2 3:1 2:4 3:3 4:14 3:16
4:0 3:5 4:5 3:2 4:2 3:1 2:4 3:3 4:14 3:16 2:1
3:0 4:5 3:2 4:2 3:1 2:4 3:3 4:14 3:16 2:1 3:5
4:0 3:2 4:2 3:1 2:4 3:3 4:14 3:16 2:1 3:5 4:1
3:0 4:2 3:1 2:4 3:3 4:14 3:16 2:1 3:5 4:1 3:1
4:0 3:1 2:4 3:3 4:14 3:16 2:1 3:5 4:1 3:1 4:1
3:0 2:4 3:3 4:14 3:16 2:1 3:5 4:1 3:1 4:1 3:13
2:0 3:3 4:14 3:16 2:1 3:5 4:1 3:1 4:1 3:13 4:1
3:0 4:14 3:16 2:1 3:5 4:1 3:1 4:1 3:13 4:1 3:1
4:0 3:16 2:1 3:5 4:1 3:1 4:1 3:13 4:1 3:1 2:2
3:0 2:1 3:5 4:1 3:1 4:1 3:13 4:1 3:1 2:2 3:4
2:0 3:5 4:1 3:1 4:1 3:13 4:1 3:1 2:2 3:4 4:1
3:0 4:1 3:1 4:1 3:13 4:1 3:1 2:2 3:4 4:1 3:2
4:0 3:1 4:1 3:13 4:1 3:1 2:2 3:4 4:1 3:2 4:3
3:0 4:1 3:13 4:1 3:1 2:2 3:4 4:1 3:2 4:3 3:2
4:0 3:13 4:1 3:1 2:2 3:4 4:1 3:2 4:3 3:2 4:7
3:0 4:1 3:1 2:2 3:4 4:1 3:2 4:3 3:2 4:7 3:4
4:0 3:1 2:2 3:4 4:1 3:2 4:3 3:2 4:7 3:4 4:5
3:0 2:2 3:4 4:1 3:2 4:3 3:2 4:7 3:4 4:5 3:5
2:0 3:4 4:1 3:2 4:3 3:2 4:7 3:4 4:5 3:5 2:2
3:0 4:1 3:2 4:3 3:2 4:7 3:4 4:5 3:5 2:2 3:5
4:0 3:2 4:3 3:2 4:7 3:4 4:5 3:5 2:2 3:5 4:5
3:0 4:3 3:2 4:7 3:4 4:5 3:5 2:2 3:5 4:5 3:2
4:0 3:2 4:7 3:4 4:5 3:5 2:2 3:5 4:5 3:2 4:5
3:0 4:7 3:4 4:5 3:5 2:2 3:5 4:5 3:2 4:5 3:3
4:0 3:4 4:5 3:5 2:2 3:5 4:5 3:2 4:5 3:3 2:5
3:0 4:5 3:5 2:2 3:5 4:5 3:2 4:5 3:3 2:5 3:1
4:0 3:5 2:2 3:5 4:5 3:2 4:5 3:3 2:5 3:1 2:1
3:0 2:2 3:5 4:5 3:2 4:5 3:3 2:5 3:1 2:1 3:2
2:0 3:5 4:5 3:2 4:5 3:3 2:5 3:1 2:1 3:2 4:12
3:0 4:5 3:2 4:5 3:3 2:5 3:1 2:1 3:2 4:12 3:1
4:0 3:2 4:5 3:3 2:5 3:1 2:1 3:2 4:12 3:1 4:1
3:0 4:5 3:3 2:5 3:1 2:1 3:2 4:12 3:1 4:1 3:12
4:0 3:3 2:5 3:1 2:1 3:2 4:12 3:1 4:1 3:12 2:5
3:0 2:5 3:1 2:1 3:2 4:12 3:1 4:1 3:12 2:5 3:3
2:0 3:1 2:1 3:2 4:12 3:1 4:1 3:12 2:5 3:3 4:2
3:0 2:1 3:2 4:12 3:1 4:1 3:12 2:5 3:3 4:2 3:10
2:0 3:2 4:12 3:1 4:1 3:12 2:5 3:3 4:2 3:10 4:4
3:0 4:12 3:1 4:1 3:12 2:5 3:3 4:2 3:10 4:4 3:1
4:0 3:1 4:1 3:12 2:5 3:3 4:2 3:10 4:4 3:1 4:1
3:0 4:1 3:12 2:5 3:3 4:2 3:10 4:4 3:1 4:1 3:3
4:0 3:12 2:5 3:3 4:2 3:10 4:4 3:1 4:1 3:3 4:4
3:0 2:5 3:3 4:2 3:10 4:4 3:1 4:1 3:3 4:4 3:4
2:0 3:3 4:2 3:10 4:4 3:1 4:1 3:3 4:4 3:4 2:4
3:0 4:2 3:10 4:4 3:1 4:1 3:3 4:4 3:4 2:4 3:4
4:0 3:10 4:4 3:1 4:1 3:3 4:4 3:4 2:4 3:4 4:6
3:0 4:4 3:1 4:1 3:3 4:4 3:4 2:4 3:4 4:6 3:2
4:0 3:1 4:1 3:3 4:4 3:4 2:4 3:4 4:6 3:2 4:3
3:0 4:1 3:3 4:4 3:4 2:4 3:4 4:6 3:2 4:3 3:6
4:0 3:3 4:4 3:4 2:4 3:4 4:6 3:2 4:3 3:6 2:4
3:0 4:4 3:4 2:4 3:4 4:6 3:2 4:3 3:6 2:4 3:4
4:0 3:4 2:4 3:4 4:6 3:2 4:3 3:6 2:4 3:4 4:12
3:0 2:4 3:4 4:6 3:2 4:3 3:6 2:4 3:4 4:12 3:17
2:0 3:4 4:6 3:2 4:3 3:6 2:4 3:4 4:12 3:17 2:2
3:0 4:6 3:2 4:3 3:6 2:4 3:4 4:12 3:17 2:2 3:5
4:0 3:2 4:3 3:6 2:4 3:4 4:12 3:17 2:2 3:5 4:1
3:0 4:3 3:6 2:4 3:4 4:12 3:17 2:2 3:5 4:1 3:2
4:0 3:6 2:4 3:4 4:12 3:17 2:2 3:5 4:1 3:2 4:3
3:0 2:4 3:4 4:12 3:17 2:2 3:5 4:1 3:2 4:3 3:2
2:0 3:4 4:12 3:17 2:2 3:5 4:1 3:2 4:3 3:2 4:8
3:0 4:12 3:17 2:2 3:5 4:1 3:2 4:3 3:2 4:8 3:4
4:0 3:17 2:2 3:5 4:1 3:2 4:3 3:2 4:8 3:4 4:4
3:0 2:2 3:5 4:1 3:2 4:3 3:2 4:8 3:4 4:4 3:6
2:0 3:5 4:1 3:2 4:3 3:2 4:8 3:4 4:4 3:6 2:1
3:0 4:1 3:2 4:3 3:2 4:8 3:4 4:4 3:6 2:1 3:5
4:0 3:2 4:3 3:2 4:8 3:4 4:4 3:6 2:1 3:5 4:3
3:0 4:3 3:2 4:8 3:4 4:4 3:6 2:1 3:5 4:3 3:3
4:0 3:2 4:8 3:4 4:4 3:6 2:1 3:5 4:3 3:3 4:5
3:0 4:8 3:4 4:4 3:6 2:1 3:5 4:3 3:3 4:5 3:4
4:0 3:4 4:4 3:6 2:1 3:5 4:3 3:3 4:5 3:4 4:2
3:0 4:4 3:6 2:1 3:5 4:3 3:3 4:5 3:4 4:2 3:1
4:0 3:6 2:1 3:5 4:3 3:3 4:5 3:4 4:2 3:1 2:1
3:0 2:1 3:5 4:3 3:3 4:5 3:4 4:2 3:1 2:1 3:4
2:0 3:5 4:3 3:3 4:5 3:4 4:2 3:1 2:1 3:4 4:7
3:0 4:3 3:3 4:5 3:4 4:2 3:1 2:1 3:4 4:7 3:1
4:0 3:3 4:5 3:4 4:2 3:1 2:1 3:4 4:7 3:1 4:6
3:0 4:5 3:4 4:2 3:1 2:1 3:4 4:7 3:1 4:6 3:5
4:0 3:4 4:2 3:1 2:1 3:4 4:7 3:1 4:6 3:5 2:3
3:0 4:2 3:1 2:1 3:4 4:7 3:1 4:6 3:5 2:3 3:4
4:0 3:1 2:1 3:4 4:7 3:1 4:6 3:5 2:3 3:4 4:12
3:0 2:1 3:4 4:7 3:1 4:6 3:5 2:3 3:4 4:12 3:5
2:0 3:4 4:7 3:1 4:6 3:5 2:3 3:4 4:12 3:5 2:2
3:0 4:7 3:1 4:6 3:5 2:3 3:4 4:12 3:5 2:2 3:5
4:0 3:1 4:6 3:5 2:3 3:4 4:12 3:5 2:2 3:5 4:12
3:0 4:6 3:5 2:3 3:4 4:12 3:5 2:2 3:5 4:12 3:7
4:0 3:5 2:3 3:4 4:12 3:5 2:2 3:5 4:12 3:7 2:1
3:0 2:3 3:4 4:12 3:5 2:2 3:5 4:12 3:7 2:1 4:5
2:0 3:4 4:12 3:5 2:2 3:5 4:12 3:7 2:1 4:5 3:1
3:0 4:12 3:5 2:2 3:5 4:12 3:7 2:1 4:5 3:1 4:9
4:0 3:5 2:2 3:5 4:12 3:7 2:1 4:5 3:1 4:9 3:4
3:0 2:2 3:5 4:12 3:7 2:1 4:5 3:1 4:9 3:4 2:4
2:0 3:5 4:12 3:7 2:1 4:5 3:1 4:9 3:4 2:4 3:4
3:0 4:12 3:7 2:1 4:5 3:1 4:9 3:4 2:4 3:4 4:12
4:0 3:7 2:1 4:5 3:1 4:9 3:4 2:4 3:4 4:12 3:11
3:0 2:1 4:5 3:1 4:9 3:4 2:4 3:4 4:12 3:11 2:1
2:0 4:5 3:1 4:9 3:4 2:4 3:4 4:12 3:11 2:1 3:2
4:0 3:1 4:9 3:4 2:4 3:4 4:12 3:11 2:1 3:2 2:3
3:0 4:9 3:4 2:4 3:4 4:12 3:11 2:1 3:2 2:3 3:2
4:0 3:4 2:4 3:4 4:12 3:11 2:1 3:2 2:3 3:2 4:7
3:0 2:4 3:4 4:12 3:11 2:1 3:2 2:3 3:2 4:7 3:9
2:0 3:4 4:12 3:11 2:1 3:2 2:3 3:2 4:7 3:9 2:1
3:0 4:12 3:11 2:1 3:2 2:3 3:2 4:7 3:9 2:1 3:1
4:0 3:11 2:1 3:2 2:3 3:2 4:7 3:9 2:1 3:1 2:4
3:0 2:1 3:2 2:3 3:2 4:7 3:9 2:1 3:1 2:4 3:4
2:0 3:2 2:3 3:2 4:7 3:9 2:1 3:1 2:4 3:4 4:3
3:0 2:3 3:2 4:7 3:9 2:1 3:1 2:4 3:4 4:3 3:2
2:0 3:2 4:7 3:9 2:1 3:1 2:4 3:4 4:3 3:2 4:2
3:0 4:7 3:9 2:1 3:1 2:4 3:4 4:3 3:2 4:2 3:2
4:0 3:9 2:1 3:1 2:4 3:4 4:3 3:2 4:2 3:2 4:8
3:0 2:1 3:1 2:4 3:4 4:3 3:2 4:2 3:2 4:8 3:6
2:0 3:1 2:4 3:4 4:3 3:2 4:2 3:2 4:8 3:6 4:4
3:0 2:4 3:4 4:3 3:2 4:2 3:2 4:8 3:6 4:4 3:3
2:0 3:4 4:3 3:2 4:2 3:2 4:8 3:6 4:4 3:3 4:2
3:0 4:3 3:2 4:2 3:2 4:8 3:6 4:4 3:3 4:2 3:2
4:0 3:2 4:2 3:2 4:8 3:6 4:4 3:3 4:2 3:2 2:2
3:0 4:2 3:2 4:8 3:6 4:4 3:3 4:2 3:2 2:2 3:3
4:0 3:2 4:8 3:6 4:4 3:3 4:2 3:2 2:2 3:3 4:13
3:0 4:8 3:6 4:4 3:3 4:2 3:2 2:2 3:3 4:13 3:14
4:0 3:6 4:4 3:3 4:2 3:2 2:2 3:3 4:13 3:14 2:4
3:0 4:4 3:3 4:2 3:2 2:2 3:3 4:13 3:14 2:4 3:4
4:0 3:3 4:2 3:2 2:2 3:3 4:13 3:14 2:4 3:4 4:2
3:0 4:2 3:2 2:2 3:3 4:13 3:14 2:4 3:4 4:2 3:14
4:0 3:2 2:2 3:3 4:13 3:14 2:4 3:4 4:2 3:14 4:1
3:0 2:2 3:3 4:13 3:14 2:4 3:4 4:2 3:14 4:1 3:1
2:0 3:3 4:13 3:14 2:4 3:4 4:2 3:14 4:1 3:1 2:2
3:0 4:13 3:14 2:4 3:4 4:2 3:14 4:1 3:1 2:2 3:4
4:0 3:14 2:4 3:4 4:2 3:14 4:1 3:1 2:2 3:4 4:3
3:0 2:4 3:4 4:2 3:14 4:1 3:1 2:2 3:4 4:3 3:1
2:0 3:4 4:2 3:14 4:1 3:1 2:2 3:4 4:3 3:1 4:8
3:0 4:2 3:14 4:1 3:1 2:2 3:4 4:3 3:1 4:8 3:2
4:0 3:14 4:1 3:1 2:2 3:4 4:3 3:1 4:8 3:2 4:1
3:0 4:1 3:1 2:2 3:4 4:3 3:1 4:8 3:2 4:1 3:5
4:0 3:1 2:2 3:4 4:3 3:1 4:8 3:2 4:1 3:5 4:5
3:0 2:2 3:4 4:3 3:1 4:8 3:2 4:1 3:5 4:5 3:3
2:0 3:4 4:3 3:1 4:8 3:2 4:1 3:5 4:5 3:3 2:5
3:0 4:3 3:1 4:8 3:2 4:1 3:5 4:5 3:3 2:5 3:1
4:0 3:1 4:8 3:2 4:1 3:5 4:5 3:3 2:5 3:1 2:1
3:0 4:8 3:2 4:1 3:5 4:5 3:3 2:5 3:1 2:1 3:1
4:0 3:2 4:1 3:5 4:5 3:3 2:5 3:1 2:1 3:1 4:5
3:0 4:1 3:5 4:5 3:3 2:5 3:1 2:1 3:1 4:5 3:1
4:0 3:5 4:5 3:3 2:5 3:1 2:1 3:1 4:5 3:1 4:9
3:0 4:5 3:3 2:5 3:1 2:1 3:1 4:5 3:1 4:9 3:14
4:0 3:3 2:5 3:1 2:1 3:1 4:5 3:1 4:9 3:14 2:3
3:0 2:5 3:1 2:1 3:1 4:5 3:1 4:9 3:14 2:3 3:4
2:0 3:1 2:1 3:1 4:5 3:1 4:9 3:14 2:3 3:4 4:3
3:0 2:1 3:1 4:5 3:1 4:9 3:14 2:3 3:4 4:3 3:14
2:0 3:1 4:5 3:1 4:9 3:14 2:3 3:4 4:3 3:14 2:3
3:0 4:5 3:1 4:9 3:14 2:3 3:4 4:3 3:14 2:3 3:4
4:0 3:1 4:9 3:14 2:3 3:4 4:3 3:14 2:3 3:4 4:1
3:0 4:9 3:14 2:3 3:4 4:3 3:14 2:3 3:4 4:1 3:2
4:0 3:14 2:3 3:4 4:3 3:14 2:3 3:4 4:1 3:2 4:2
3:0 2:3 3:4 4:3 3:14 2:3 3:4 4:1 3:2 4:2 3:5
2:0 3:4 4:3 3:14 2:3 3:4 4:1 3:2 4:2 3:5 4:8
3:0 4:3 3:14 2:3 3:4 4:1 3:2 4:2 3:5 4:8 3:3
4:0 3:14 2:3 3:4 4:1 3:2 4:2 3:5 4:8 3:3 4:3
3:0 2:3 3:4 4:1 3:2 4:2 3:5 4:8 3:3 4:3 3:5
2:0 3:4 4:1 3:2 4:2 3:5 4:8 3:3 4:3 3:5 2:4
3:0 4:1 3:2 4:2 3:5 4:8 3:3 4:3 3:5 2:4 3:3
4:0 3:2 4:2 3:5 4:8 3:3 4:3 3:5 2:4 3:3 4:4
3:0 4:2 3:5 4:8 3:3 4:3 3:5 2:4 3:3 4:4 3:1
4:0 3:5 4:8 3:3 4:3 3:5 2:4 3:3 4:4 3:1 4:1
3:0 4:8 3:3 4:3 3:5 2:4 3:3 4:4 3:1 4:1 3:2
4:0 3:3 4:3 3:5 2:4 3:3 4:4 3:1 4:1 3:2
3:0 4:3 3:5 2:4 3:3 4:4 3:1 4:1 3:2
4:0 3:5 2:4 3:3 4:4 3:1 4:1 3:2
3:0 2:4 3:3 4:4 3:1 4:1 3:2
2:0 3:3 4:4 3:1 4:1 3:2
3:0 4:4 3:1 4:1 3:2
4:0 3:1 4:1 3:2
3:0 4:1 3:2
4:0 3:2
3:0