1:0 18:2348 15:1 14:1 1:1 15:503 13:1 1:1 13:167 14:1 1:1
18:0 15:1 14:1 1:1 15:503 13:1 1:1 13:167 14:1 1:1 21:331
15:0 14:1 1:1 15:503 13:1 1:1 13:167 14:1 1:1 21:331 18:1
14:0 1:1 15:503 13:1 1:1 13:167 14:1 1:1 21:331 18:1 14:1
1:0 15:503 13:1 1:1 13:167 14:1 1:1 21:331 18:1 14:1 1:1
15:0 13:1 1:1 13:167 14:1 1:1 21:331 18:1 14:1 1:1 14:502
13:0 1:1 13:167 14:1 1:1 21:331 18:1 14:1 1:1 14:502 1:2
1:0 13:167 14:1 1:1 21:331 18:1 14:1 1:1 14:502 1:2 14:502
13:0 14:1 1:1 21:331 18:1 14:1 1:1 14:502 1:2 14:502 15:1
14:0 1:1 21:331 18:1 14:1 1:1 14:502 1:2 14:502 15:1 1:1
1:0 21:331 18:1 14:1 1:1 14:502 1:2 14:502 15:1 1:1 15:2855
21:0 18:1 14:1 1:1 14:502 1:2 14:502 15:1 1:1 15:2855 14:1
18:0 14:1 1:1 14:502 1:2 14:502 15:1 1:1 15:2855 14:1 1:1
14:0 1:1 14:502 1:2 14:502 15:1 1:1 15:2855 14:1 1:1
1:0 14:502 1:2 14:502 15:1 1:1 15:2855 14:1 1:1
14:0 1:2 14:502 15:1 1:1 15:2855 14:1 1:1
1:0 14:502 15:1 1:1 15:2855 14:1 1:1
14:0 15:1 1:1 15:2855 14:1 1:1
15:0 1:1 15:2855 14:1 1:1
1:0 15:2855 14:1 1:1
15:0 14:1 1:1
14:0 1:1
1:0