1:0 3:5 2:2 3:1 2:8 3:1 4:3 5:4 1:3 2:1 3:1
3:0 2:2 3:1 2:8 3:1 4:3 5:4 1:3 2:1 3:1 5:12
2:0 3:1 2:8 3:1 4:3 5:4 1:3 2:1 3:1 5:12 4:3
3:0 2:8 3:1 4:3 5:4 1:3 2:1 3:1 5:12 4:3 1:5
2:0 3:1 4:3 5:4 1:3 2:1 3:1 5:12 4:3 1:5 3:2
3:0 4:3 5:4 1:3 2:1 3:1 5:12 4:3 1:5 3:2 1:1
4:0 5:4 1:3 2:1 3:1 5:12 4:3 1:5 3:2 1:1 2:1
5:0 1:3 2:1 3:1 5:12 4:3 1:5 3:2 1:1 2:1 3:2
1:0 2:1 3:1 5:12 4:3 1:5 3:2 1:1 2:1 3:2 2:1
2:0 3:1 5:12 4:3 1:5 3:2 1:1 2:1 3:2 2:1 3:9
3:0 5:12 4:3 1:5 3:2 1:1 2:1 3:2 2:1 3:9 2:7
5:0 4:3 1:5 3:2 1:1 2:1 3:2 2:1 3:9 2:7 3:3
4:0 1:5 3:2 1:1 2:1 3:2 2:1 3:9 2:7 3:3 5:2
1:0 3:2 1:1 2:1 3:2 2:1 3:9 2:7 3:3 5:2 1:9
3:0 1:1 2:1 3:2 2:1 3:9 2:7 3:3 5:2 1:9 3:4
1:0 2:1 3:2 2:1 3:9 2:7 3:3 5:2 1:9 3:4 1:1
2:0 3:2 2:1 3:9 2:7 3:3 5:2 1:9 3:4 1:1 2:8
3:0 2:1 3:9 2:7 3:3 5:2 1:9 3:4 1:1 2:8 3:1
2:0 3:9 2:7 3:3 5:2 1:9 3:4 1:1 2:8 3:1 5:14
3:0 2:7 3:3 5:2 1:9 3:4 1:1 2:8 3:1 5:14 4:1
2:0 3:3 5:2 1:9 3:4 1:1 2:8 3:1 5:14 4:1 5:1
3:0 5:2 1:9 3:4 1:1 2:8 3:1 5:14 4:1 5:1 4:1
5:0 1:9 3:4 1:1 2:8 3:1 5:14 4:1 5:1 4:1 5:1
1:0 3:4 1:1 2:8 3:1 5:14 4:1 5:1 4:1 5:1 1:3
3:0 1:1 2:8 3:1 5:14 4:1 5:1 4:1 5:1 1:3 2:1
1:0 2:8 3:1 5:14 4:1 5:1 4:1 5:1 1:3 2:1 3:1
2:0 3:1 5:14 4:1 5:1 4:1 5:1 1:3 2:1 3:1 2:1
3:0 5:14 4:1 5:1 4:1 5:1 1:3 2:1 3:1 2:1 3:1
5:0 4:1 5:1 4:1 5:1 1:3 2:1 3:1 2:1 3:1 5:11
4:0 5:1 4:1 5:1 1:3 2:1 3:1 2:1 3:1 5:11 4:2
5:0 4:1 5:1 1:3 2:1 3:1 2:1 3:1 5:11 4:2 1:7
4:0 5:1 1:3 2:1 3:1 2:1 3:1 5:11 4:2 1:7 3:2
5:0 1:3 2:1 3:1 2:1 3:1 5:11 4:2 1:7 3:2 2:2
1:0 2:1 3:1 2:1 3:1 5:11 4:2 1:7 3:2 2:2 3:2
2:0 3:1 2:1 3:1 5:11 4:2 1:7 3:2 2:2 3:2 2:2
3:0 2:1 3:1 5:11 4:2 1:7 3:2 2:2 3:2 2:2 3:19
2:0 3:1 5:11 4:2 1:7 3:2 2:2 3:2 2:2 3:19 5:3
3:0 5:11 4:2 1:7 3:2 2:2 3:2 2:2 3:19 5:3 4:2
5:0 4:2 1:7 3:2 2:2 3:2 2:2 3:19 5:3 4:2 5:1
4:0 1:7 3:2 2:2 3:2 2:2 3:19 5:3 4:2 5:1 1:5
1:0 3:2 2:2 3:2 2:2 3:19 5:3 4:2 5:1 1:5 2:3
3:0 2:2 3:2 2:2 3:19 5:3 4:2 5:1 1:5 2:3 3:9
2:0 3:2 2:2 3:19 5:3 4:2 5:1 1:5 2:3 3:9 5:4
3:0 2:2 3:19 5:3 4:2 5:1 1:5 2:3 3:9 5:4 4:4
2:0 3:19 5:3 4:2 5:1 1:5 2:3 3:9 5:4 4:4 5:3
3:0 5:3 4:2 5:1 1:5 2:3 3:9 5:4 4:4 5:3 1:1
5:0 4:2 5:1 1:5 2:3 3:9 5:4 4:4 5:3 1:1 3:3
4:0 5:1 1:5 2:3 3:9 5:4 4:4 5:3 1:1 3:3 1:1
5:0 1:5 2:3 3:9 5:4 4:4 5:3 1:1 3:3 1:1 2:8
1:0 2:3 3:9 5:4 4:4 5:3 1:1 3:3 1:1 2:8 3:2
2:0 3:9 5:4 4:4 5:3 1:1 3:3 1:1 2:8 3:2 4:8
3:0 5:4 4:4 5:3 1:1 3:3 1:1 2:8 3:2 4:8 5:1
5:0 4:4 5:3 1:1 3:3 1:1 2:8 3:2 4:8 5:1 4:6
4:0 5:3 1:1 3:3 1:1 2:8 3:2 4:8 5:1 4:6 1:1
5:0 1:1 3:3 1:1 2:8 3:2 4:8 5:1 4:6 1:1 2:6
1:0 3:3 1:1 2:8 3:2 4:8 5:1 4:6 1:1 2:6 1:1
3:0 1:1 2:8 3:2 4:8 5:1 4:6 1:1 2:6 1:1 3:2
1:0 2:8 3:2 4:8 5:1 4:6 1:1 2:6 1:1 3:2 2:2
2:0 3:2 4:8 5:1 4:6 1:1 2:6 1:1 3:2 2:2 3:8
3:0 4:8 5:1 4:6 1:1 2:6 1:1 3:2 2:2 3:8 2:6
4:0 5:1 4:6 1:1 2:6 1:1 3:2 2:2 3:8 2:6 3:4
5:0 4:6 1:1 2:6 1:1 3:2 2:2 3:8 2:6 3:4 5:3
4:0 1:1 2:6 1:1 3:2 2:2 3:8 2:6 3:4 5:3 1:9
1:0 2:6 1:1 3:2 2:2 3:8 2:6 3:4 5:3 1:9 2:12
2:0 1:1 3:2 2:2 3:8 2:6 3:4 5:3 1:9 2:12 3:2
1:0 3:2 2:2 3:8 2:6 3:4 5:3 1:9 2:12 3:2 5:13
3:0 2:2 3:8 2:6 3:4 5:3 1:9 2:12 3:2 5:13 1:7
2:0 3:8 2:6 3:4 5:3 1:9 2:12 3:2 5:13 1:7 2:3
3:0 2:6 3:4 5:3 1:9 2:12 3:2 5:13 1:7 2:3 3:1
2:0 3:4 5:3 1:9 2:12 3:2 5:13 1:7 2:3 3:1 4:7
3:0 5:3 1:9 2:12 3:2 5:13 1:7 2:3 3:1 4:7 1:6
5:0 1:9 2:12 3:2 5:13 1:7 2:3 3:1 4:7 1:6 3:11
1:0 2:12 3:2 5:13 1:7 2:3 3:1 4:7 1:6 3:11 2:2
2:0 3:2 5:13 1:7 2:3 3:1 4:7 1:6 3:11 2:2 3:1
3:0 5:13 1:7 2:3 3:1 4:7 1:6 3:11 2:2 3:1 4:11
5:0 1:7 2:3 3:1 4:7 1:6 3:11 2:2 3:1 4:11 5:1
1:0 2:3 3:1 4:7 1:6 3:11 2:2 3:1 4:11 5:1 4:2
2:0 3:1 4:7 1:6 3:11 2:2 3:1 4:11 5:1 4:2 5:1
3:0 4:7 1:6 3:11 2:2 3:1 4:11 5:1 4:2 5:1 1:3
4:0 1:6 3:11 2:2 3:1 4:11 5:1 4:2 5:1 1:3 2:2
1:0 3:11 2:2 3:1 4:11 5:1 4:2 5:1 1:3 2:2 3:2
3:0 2:2 3:1 4:11 5:1 4:2 5:1 1:3 2:2 3:2 5:12
2:0 3:1 4:11 5:1 4:2 5:1 1:3 2:2 3:2 5:12 4:1
3:0 4:11 5:1 4:2 5:1 1:3 2:2 3:2 5:12 4:1 1:7
4:0 5:1 4:2 5:1 1:3 2:2 3:2 5:12 4:1 1:7 3:3
5:0 4:2 5:1 1:3 2:2 3:2 5:12 4:1 1:7 3:3 2:2
4:0 5:1 1:3 2:2 3:2 5:12 4:1 1:7 3:3 2:2 3:12
5:0 1:3 2:2 3:2 5:12 4:1 1:7 3:3 2:2 3:12 2:4
1:0 2:2 3:2 5:12 4:1 1:7 3:3 2:2 3:12 2:4 3:5
2:0 3:2 5:12 4:1 1:7 3:3 2:2 3:12 2:4 3:5 5:3
3:0 5:12 4:1 1:7 3:3 2:2 3:12 2:4 3:5 5:3 1:8
5:0 4:1 1:7 3:3 2:2 3:12 2:4 3:5 5:3 1:8 2:2
4:0 1:7 3:3 2:2 3:12 2:4 3:5 5:3 1:8 2:2 3:1
1:0 3:3 2:2 3:12 2:4 3:5 5:3 1:8 2:2 3:1 2:1
3:0 2:2 3:12 2:4 3:5 5:3 1:8 2:2 3:1 2:1 3:2
2:0 3:12 2:4 3:5 5:3 1:8 2:2 3:1 2:1 3:2 2:2
3:0 2:4 3:5 5:3 1:8 2:2 3:1 2:1 3:2 2:2 3:5
2:0 3:5 5:3 1:8 2:2 3:1 2:1 3:2 2:2 3:5 5:2
3:0 5:3 1:8 2:2 3:1 2:1 3:2 2:2 3:5 5:2 4:2
5:0 1:8 2:2 3:1 2:1 3:2 2:2 3:5 5:2 4:2 5:5
1:0 2:2 3:1 2:1 3:2 2:2 3:5 5:2 4:2 5:5 1:2
2:0 3:1 2:1 3:2 2:2 3:5 5:2 4:2 5:5 1:2 3:13
3:0 2:1 3:2 2:2 3:5 5:2 4:2 5:5 1:2 3:13 2:1
2:0 3:2 2:2 3:5 5:2 4:2 5:5 1:2 3:13 2:1 3:1
3:0 2:2 3:5 5:2 4:2 5:5 1:2 3:13 2:1 3:1 5:11
2:0 3:5 5:2 4:2 5:5 1:2 3:13 2:1 3:1 5:11 1:8
3:0 5:2 4:2 5:5 1:2 3:13 2:1 3:1 5:11 1:8 2:3
5:0 4:2 5:5 1:2 3:13 2:1 3:1 5:11 1:8 2:3 3:1
4:0 5:5 1:2 3:13 2:1 3:1 5:11 1:8 2:3 3:1 2:8
5:0 1:2 3:13 2:1 3:1 5:11 1:8 2:3 3:1 2:8 3:8
1:0 3:13 2:1 3:1 5:11 1:8 2:3 3:1 2:8 3:8 2:2
3:0 2:1 3:1 5:11 1:8 2:3 3:1 2:8 3:8 2:2 3:5
2:0 3:1 5:11 1:8 2:3 3:1 2:8 3:8 2:2 3:5 5:3
3:0 5:11 1:8 2:3 3:1 2:8 3:8 2:2 3:5 5:3 4:3
5:0 1:8 2:3 3:1 2:8 3:8 2:2 3:5 5:3 4:3 5:1
1:0 2:3 3:1 2:8 3:8 2:2 3:5 5:3 4:3 5:1 4:4
2:0 3:1 2:8 3:8 2:2 3:5 5:3 4:3 5:1 4:4 1:1
3:0 2:8 3:8 2:2 3:5 5:3 4:3 5:1 4:4 1:1 3:12
2:0 3:8 2:2 3:5 5:3 4:3 5:1 4:4 1:1 3:12 2:2
3:0 2:2 3:5 5:3 4:3 5:1 4:4 1:1 3:12 2:2 3:1
2:0 3:5 5:3 4:3 5:1 4:4 1:1 3:12 2:2 3:1 5:13
3:0 5:3 4:3 5:1 4:4 1:1 3:12 2:2 3:1 5:13 4:1
5:0 4:3 5:1 4:4 1:1 3:12 2:2 3:1 5:13 4:1 5:3
4:0 5:1 4:4 1:1 3:12 2:2 3:1 5:13 4:1 5:3 1:3
5:0 4:4 1:1 3:12 2:2 3:1 5:13 4:1 5:3 1:3 2:1
4:0 1:1 3:12 2:2 3:1 5:13 4:1 5:3 1:3 2:1 3:2
1:0 3:12 2:2 3:1 5:13 4:1 5:3 1:3 2:1 3:2 5:12
3:0 2:2 3:1 5:13 4:1 5:3 1:3 2:1 3:2 5:12 4:4
2:0 3:1 5:13 4:1 5:3 1:3 2:1 3:2 5:12 4:4 1:4
3:0 5:13 4:1 5:3 1:3 2:1 3:2 5:12 4:4 1:4 3:2
5:0 4:1 5:3 1:3 2:1 3:2 5:12 4:4 1:4 3:2 2:2
4:0 5:3 1:3 2:1 3:2 5:12 4:4 1:4 3:2 2:2 3:3
5:0 1:3 2:1 3:2 5:12 4:4 1:4 3:2 2:2 3:3 2:1
1:0 2:1 3:2 5:12 4:4 1:4 3:2 2:2 3:3 2:1 3:9
2:0 3:2 5:12 4:4 1:4 3:2 2:2 3:3 2:1 3:9 2:4
3:0 5:12 4:4 1:4 3:2 2:2 3:3 2:1 3:9 2:4 3:5
5:0 4:4 1:4 3:2 2:2 3:3 2:1 3:9 2:4 3:5 5:3
4:0 1:4 3:2 2:2 3:3 2:1 3:9 2:4 3:5 5:3 1:8
1:0 3:2 2:2 3:3 2:1 3:9 2:4 3:5 5:3 1:8 2:2
3:0 2:2 3:3 2:1 3:9 2:4 3:5 5:3 1:8 2:2 3:4
2:0 3:3 2:1 3:9 2:4 3:5 5:3 1:8 2:2 3:4 2:3
3:0 2:1 3:9 2:4 3:5 5:3 1:8 2:2 3:4 2:3 3:4
2:0 3:9 2:4 3:5 5:3 1:8 2:2 3:4 2:3 3:4 5:3
3:0 2:4 3:5 5:3 1:8 2:2 3:4 2:3 3:4 5:3 4:1
2:0 3:5 5:3 1:8 2:2 3:4 2:3 3:4 5:3 4:1 1:7
3:0 5:3 1:8 2:2 3:4 2:3 3:4 5:3 4:1 1:7 3:13
5:0 1:8 2:2 3:4 2:3 3:4 5:3 4:1 1:7 3:13 5:6
1:0 2:2 3:4 2:3 3:4 5:3 4:1 1:7 3:13 5:6 1:7
2:0 3:4 2:3 3:4 5:3 4:1 1:7 3:13 5:6 1:7 2:3
3:0 2:3 3:4 5:3 4:1 1:7 3:13 5:6 1:7 2:3 3:9
2:0 3:4 5:3 4:1 1:7 3:13 5:6 1:7 2:3 3:9 5:4
3:0 5:3 4:1 1:7 3:13 5:6 1:7 2:3 3:9 5:4 4:5
5:0 4:1 1:7 3:13 5:6 1:7 2:3 3:9 5:4 4:5 1:3
4:0 1:7 3:13 5:6 1:7 2:3 3:9 5:4 4:5 1:3 2:5
1:0 3:13 5:6 1:7 2:3 3:9 5:4 4:5 1:3 2:5 1:1
3:0 5:6 1:7 2:3 3:9 5:4 4:5 1:3 2:5 1:1 3:6
5:0 1:7 2:3 3:9 5:4 4:5 1:3 2:5 1:1 3:6 5:9
1:0 2:3 3:9 5:4 4:5 1:3 2:5 1:1 3:6 5:9 1:8
2:0 3:9 5:4 4:5 1:3 2:5 1:1 3:6 5:9 1:8 3:6
3:0 5:4 4:5 1:3 2:5 1:1 3:6 5:9 1:8 3:6 5:6
5:0 4:5 1:3 2:5 1:1 3:6 5:9 1:8 3:6 5:6 4:2
4:0 1:3 2:5 1:1 3:6 5:9 1:8 3:6 5:6 4:2 1:5
1:0 2:5 1:1 3:6 5:9 1:8 3:6 5:6 4:2 1:5 3:1
2:0 1:1 3:6 5:9 1:8 3:6 5:6 4:2 1:5 3:1 1:1
1:0 3:6 5:9 1:8 3:6 5:6 4:2 1:5 3:1 1:1 2:1
3:0 5:9 1:8 3:6 5:6 4:2 1:5 3:1 1:1 2:1 1:1
5:0 1:8 3:6 5:6 4:2 1:5 3:1 1:1 2:1 1:1 2:7
1:0 3:6 5:6 4:2 1:5 3:1 1:1 2:1 1:1 2:7 3:2
3:0 5:6 4:2 1:5 3:1 1:1 2:1 1:1 2:7 3:2 4:14
5:0 4:2 1:5 3:1 1:1 2:1 1:1 2:7 3:2 4:14 5:5
4:0 1:5 3:1 1:1 2:1 1:1 2:7 3:2 4:14 5:5 2:3
1:0 3:1 1:1 2:1 1:1 2:7 3:2 4:14 5:5 2:3 3:2
3:0 1:1 2:1 1:1 2:7 3:2 4:14 5:5 2:3 3:2 5:12
1:0 2:1 1:1 2:7 3:2 4:14 5:5 2:3 3:2 5:12 4:3
2:0 1:1 2:7 3:2 4:14 5:5 2:3 3:2 5:12 4:3 1:4
1:0 2:7 3:2 4:14 5:5 2:3 3:2 5:12 4:3 1:4 2:2
2:0 3:2 4:14 5:5 2:3 3:2 5:12 4:3 1:4 2:2 3:1
3:0 4:14 5:5 2:3 3:2 5:12 4:3 1:4 2:2 3:1 2:1
4:0 5:5 2:3 3:2 5:12 4:3 1:4 2:2 3:1 2:1 3:2
5:0 2:3 3:2 5:12 4:3 1:4 2:2 3:1 2:1 3:2 2:2
2:0 3:2 5:12 4:3 1:4 2:2 3:1 2:1 3:2 2:2 3:8
3:0 5:12 4:3 1:4 2:2 3:1 2:1 3:2 2:2 3:8 2:6
5:0 4:3 1:4 2:2 3:1 2:1 3:2 2:2 3:8 2:6 3:5
4:0 1:4 2:2 3:1 2:1 3:2 2:2 3:8 2:6 3:5 5:2
1:0 2:2 3:1 2:1 3:2 2:2 3:8 2:6 3:5 5:2 4:6
2:0 3:1 2:1 3:2 2:2 3:8 2:6 3:5 5:2 4:6 1:4
3:0 2:1 3:2 2:2 3:8 2:6 3:5 5:2 4:6 1:4 2:13
2:0 3:2 2:2 3:8 2:6 3:5 5:2 4:6 1:4 2:13 3:1
3:0 2:2 3:8 2:6 3:5 5:2 4:6 1:4 2:13 3:1 2:1
2:0 3:8 2:6 3:5 5:2 4:6 1:4 2:13 3:1 2:1 3:1
3:0 2:6 3:5 5:2 4:6 1:4 2:13 3:1 2:1 3:1 4:14
2:0 3:5 5:2 4:6 1:4 2:13 3:1 2:1 3:1 4:14 5:3
3:0 5:2 4:6 1:4 2:13 3:1 2:1 3:1 4:14 5:3 2:4
5:0 4:6 1:4 2:13 3:1 2:1 3:1 4:14 5:3 2:4 3:1
4:0 1:4 2:13 3:1 2:1 3:1 4:14 5:3 2:4 3:1 2:1
1:0 2:13 3:1 2:1 3:1 4:14 5:3 2:4 3:1 2:1 3:2
2:0 3:1 2:1 3:1 4:14 5:3 2:4 3:1 2:1 3:2 5:10
3:0 2:1 3:1 4:14 5:3 2:4 3:1 2:1 3:2 5:10 4:4
2:0 3:1 4:14 5:3 2:4 3:1 2:1 3:2 5:10 4:4 1:4
3:0 4:14 5:3 2:4 3:1 2:1 3:2 5:10 4:4 1:4 3:3
4:0 5:3 2:4 3:1 2:1 3:2 5:10 4:4 1:4 3:3 2:1
5:0 2:4 3:1 2:1 3:2 5:10 4:4 1:4 3:3 2:1 1:5
2:0 3:1 2:1 3:2 5:10 4:4 1:4 3:3 2:1 1:5 2:5
3:0 2:1 3:2 5:10 4:4 1:4 3:3 2:1 1:5 2:5 3:3
2:0 3:2 5:10 4:4 1:4 3:3 2:1 1:5 2:5 3:3 2:2
3:0 5:10 4:4 1:4 3:3 2:1 1:5 2:5 3:3 2:2 3:6
5:0 4:4 1:4 3:3 2:1 1:5 2:5 3:3 2:2 3:6 5:3
4:0 1:4 3:3 2:1 1:5 2:5 3:3 2:2 3:6 5:3 1:8
1:0 3:3 2:1 1:5 2:5 3:3 2:2 3:6 5:3 1:8 2:4
3:0 2:1 1:5 2:5 3:3 2:2 3:6 5:3 1:8 2:4 3:1
2:0 1:5 2:5 3:3 2:2 3:6 5:3 1:8 2:4 3:1 1:1
1:0 2:5 3:3 2:2 3:6 5:3 1:8 2:4 3:1 1:1 2:8
2:0 3:3 2:2 3:6 5:3 1:8 2:4 3:1 1:1 2:8 3:1
3:0 2:2 3:6 5:3 1:8 2:4 3:1 1:1 2:8 3:1 4:7
2:0 3:6 5:3 1:8 2:4 3:1 1:1 2:8 3:1 4:7 5:3
3:0 5:3 1:8 2:4 3:1 1:1 2:8 3:1 4:7 5:3 1:5
5:0 1:8 2:4 3:1 1:1 2:8 3:1 4:7 5:3 1:5 2:7
1:0 2:4 3:1 1:1 2:8 3:1 4:7 5:3 1:5 2:7 3:2
2:0 3:1 1:1 2:8 3:1 4:7 5:3 1:5 2:7 3:2 5:5
3:0 1:1 2:8 3:1 4:7 5:3 1:5 2:7 3:2 5:5 4:5
1:0 2:8 3:1 4:7 5:3 1:5 2:7 3:2 5:5 4:5 5:2
2:0 3:1 4:7 5:3 1:5 2:7 3:2 5:5 4:5 5:2 1:1
3:0 4:7 5:3 1:5 2:7 3:2 5:5 4:5 5:2 1:1 2:1
4:0 5:3 1:5 2:7 3:2 5:5 4:5 5:2 1:1 2:1 1:1
5:0 1:5 2:7 3:2 5:5 4:5 5:2 1:1 2:1 1:1 2:7
1:0 2:7 3:2 5:5 4:5 5:2 1:1 2:1 1:1 2:7 3:1
2:0 3:2 5:5 4:5 5:2 1:1 2:1 1:1 2:7 3:1 4:6
3:0 5:5 4:5 5:2 1:1 2:1 1:1 2:7 3:1 4:6 5:1
5:0 4:5 5:2 1:1 2:1 1:1 2:7 3:1 4:6 5:1 1:6
4:0 5:2 1:1 2:1 1:1 2:7 3:1 4:6 5:1 1:6 2:3
5:0 1:1 2:1 1:1 2:7 3:1 4:6 5:1 1:6 2:3 1:3
1:0 2:1 1:1 2:7 3:1 4:6 5:1 1:6 2:3 1:3 2:1
2:0 1:1 2:7 3:1 4:6 5:1 1:6 2:3 1:3 2:1 3:4
1:0 2:7 3:1 4:6 5:1 1:6 2:3 1:3 2:1 3:4 5:4
2:0 3:1 4:6 5:1 1:6 2:3 1:3 2:1 3:4 5:4 4:4
3:0 4:6 5:1 1:6 2:3 1:3 2:1 3:4 5:4 4:4 1:4
4:0 5:1 1:6 2:3 1:3 2:1 3:4 5:4 4:4 1:4 2:2
5:0 1:6 2:3 1:3 2:1 3:4 5:4 4:4 1:4 2:2 1:1
1:0 2:3 1:3 2:1 3:4 5:4 4:4 1:4 2:2 1:1 3:9
2:0 1:3 2:1 3:4 5:4 4:4 1:4 2:2 1:1 3:9 4:16
1:0 2:1 3:4 5:4 4:4 1:4 2:2 1:1 3:9 4:16 5:3
2:0 3:4 5:4 4:4 1:4 2:2 1:1 3:9 4:16 5:3 4:1
3:0 5:4 4:4 1:4 2:2 1:1 3:9 4:16 5:3 4:1 5:1
5:0 4:4 1:4 2:2 1:1 3:9 4:16 5:3 4:1 5:1 1:2
4:0 1:4 2:2 1:1 3:9 4:16 5:3 4:1 5:1 1:2 3:1
1:0 2:2 1:1 3:9 4:16 5:3 4:1 5:1 1:2 3:1 5:13
2:0 1:1 3:9 4:16 5:3 4:1 5:1 1:2 3:1 5:13 4:4
1:0 3:9 4:16 5:3 4:1 5:1 1:2 3:1 5:13 4:4 1:4
3:0 4:16 5:3 4:1 5:1 1:2 3:1 5:13 4:4 1:4 2:3
4:0 5:3 4:1 5:1 1:2 3:1 5:13 4:4 1:4 2:3 3:1
5:0 4:1 5:1 1:2 3:1 5:13 4:4 1:4 2:3 3:1 2:2
4:0 5:1 1:2 3:1 5:13 4:4 1:4 2:3 3:1 2:2 1:4
5:0 1:2 3:1 5:13 4:4 1:4 2:3 3:1 2:2 1:4 2:1
1:0 3:1 5:13 4:4 1:4 2:3 3:1 2:2 1:4 2:1 3:6
3:0 5:13 4:4 1:4 2:3 3:1 2:2 1:4 2:1 3:6 2:3
5:0 4:4 1:4 2:3 3:1 2:2 1:4 2:1 3:6 2:3 3:5
4:0 1:4 2:3 3:1 2:2 1:4 2:1 3:6 2:3 3:5 5:3
1:0 2:3 3:1 2:2 1:4 2:1 3:6 2:3 3:5 5:3 4:8
2:0 3:1 2:2 1:4 2:1 3:6 2:3 3:5 5:3 4:8 1:1
3:0 2:2 1:4 2:1 3:6 2:3 3:5 5:3 4:8 1:1 3:3
2:0 1:4 2:1 3:6 2:3 3:5 5:3 4:8 1:1 3:3 2:2
1:0 2:1 3:6 2:3 3:5 5:3 4:8 1:1 3:3 2:2 1:1
2:0 3:6 2:3 3:5 5:3 4:8 1:1 3:3 2:2 1:1 2:7
3:0 2:3 3:5 5:3 4:8 1:1 3:3 2:2 1:1 2:7 3:1
2:0 3:5 5:3 4:8 1:1 3:3 2:2 1:1 2:7 3:1 4:6
3:0 5:3 4:8 1:1 3:3 2:2 1:1 2:7 3:1 4:6 5:2
5:0 4:8 1:1 3:3 2:2 1:1 2:7 3:1 4:6 5:2 1:4
4:0 1:1 3:3 2:2 1:1 2:7 3:1 4:6 5:2 1:4 2:2
1:0 3:3 2:2 1:1 2:7 3:1 4:6 5:2 1:4 2:2 3:1
3:0 2:2 1:1 2:7 3:1 4:6 5:2 1:4 2:2 3:1 2:1
2:0 1:1 2:7 3:1 4:6 5:2 1:4 2:2 3:1 2:1 3:7
1:0 2:7 3:1 4:6 5:2 1:4 2:2 3:1 2:1 3:7 5:3
2:0 3:1 4:6 5:2 1:4 2:2 3:1 2:1 3:7 5:3 4:3
3:0 4:6 5:2 1:4 2:2 3:1 2:1 3:7 5:3 4:3 1:6
4:0 5:2 1:4 2:2 3:1 2:1 3:7 5:3 4:3 1:6 3:13
5:0 1:4 2:2 3:1 2:1 3:7 5:3 4:3 1:6 3:13 2:2
1:0 2:2 3:1 2:1 3:7 5:3 4:3 1:6 3:13 2:2 3:1
2:0 3:1 2:1 3:7 5:3 4:3 1:6 3:13 2:2 3:1 5:12
3:0 2:1 3:7 5:3 4:3 1:6 3:13 2:2 3:1 5:12 1:7
2:0 3:7 5:3 4:3 1:6 3:13 2:2 3:1 5:12 1:7 2:1
3:0 5:3 4:3 1:6 3:13 2:2 3:1 5:12 1:7 2:1 3:1
5:0 4:3 1:6 3:13 2:2 3:1 5:12 1:7 2:1 3:1 5:12
4:0 1:6 3:13 2:2 3:1 5:12 1:7 2:1 3:1 5:12 4:2
1:0 3:13 2:2 3:1 5:12 1:7 2:1 3:1 5:12 4:2 1:6
3:0 2:2 3:1 5:12 1:7 2:1 3:1 5:12 4:2 1:6 3:5
2:0 3:1 5:12 1:7 2:1 3:1 5:12 4:2 1:6 3:5 2:2
3:0 5:12 1:7 2:1 3:1 5:12 4:2 1:6 3:5 2:2 1:3
5:0 1:7 2:1 3:1 5:12 4:2 1:6 3:5 2:2 1:3 2:1
1:0 2:1 3:1 5:12 4:2 1:6 3:5 2:2 1:3 2:1 3:4
2:0 3:1 5:12 4:2 1:6 3:5 2:2 1:3 2:1 3:4 2:1
3:0 5:12 4:2 1:6 3:5 2:2 1:3 2:1 3:4 2:1 3:2
5:0 4:2 1:6 3:5 2:2 1:3 2:1 3:4 2:1 3:2 2:4
4:0 1:6 3:5 2:2 1:3 2:1 3:4 2:1 3:2 2:4 3:5
1:0 3:5 2:2 1:3 2:1 3:4 2:1 3:2 2:4 3:5 5:3
3:0 2:2 1:3 2:1 3:4 2:1 3:2 2:4 3:5 5:3 1:9
2:0 1:3 2:1 3:4 2:1 3:2 2:4 3:5 5:3 1:9 2:5
1:0 2:1 3:4 2:1 3:2 2:4 3:5 5:3 1:9 2:5 1:1
2:0 3:4 2:1 3:2 2:4 3:5 5:3 1:9 2:5 1:1 2:6
3:0 2:1 3:2 2:4 3:5 5:3 1:9 2:5 1:1 2:6 3:1
2:0 3:2 2:4 3:5 5:3 1:9 2:5 1:1 2:6 3:1 5:9
3:0 2:4 3:5 5:3 1:9 2:5 1:1 2:6 3:1 5:9 1:7
2:0 3:5 5:3 1:9 2:5 1:1 2:6 3:1 5:9 1:7 2:6
3:0 5:3 1:9 2:5 1:1 2:6 3:1 5:9 1:7 2:6 1:1
5:0 1:9 2:5 1:1 2:6 3:1 5:9 1:7 2:6 1:1 3:2
1:0 2:5 1:1 2:6 3:1 5:9 1:7 2:6 1:1 3:2 2:1
2:0 1:1 2:6 3:1 5:9 1:7 2:6 1:1 3:2 2:1 3:3
1:0 2:6 3:1 5:9 1:7 2:6 1:1 3:2 2:1 3:3 2:2
2:0 3:1 5:9 1:7 2:6 1:1 3:2 2:1 3:3 2:2 3:5
3:0 5:9 1:7 2:6 1:1 3:2 2:1 3:3 2:2 3:5 2:7
5:0 1:7 2:6 1:1 3:2 2:1 3:3 2:2 3:5 2:7 3:2
1:0 2:6 1:1 3:2 2:1 3:3 2:2 3:5 2:7 3:2 2:1
2:0 1:1 3:2 2:1 3:3 2:2 3:5 2:7 3:2 2:1 3:1
1:0 3:2 2:1 3:3 2:2 3:5 2:7 3:2 2:1 3:1 5:2
3:0 2:1 3:3 2:2 3:5 2:7 3:2 2:1 3:1 5:2 4:7
2:0 3:3 2:2 3:5 2:7 3:2 2:1 3:1 5:2 4:7 1:3
3:0 2:2 3:5 2:7 3:2 2:1 3:1 5:2 4:7 1:3 2:12
2:0 3:5 2:7 3:2 2:1 3:1 5:2 4:7 1:3 2:12 3:2
3:0 2:7 3:2 2:1 3:1 5:2 4:7 1:3 2:12 3:2 2:8
2:0 3:2 2:1 3:1 5:2 4:7 1:3 2:12 3:2 2:8 3:3
3:0 2:1 3:1 5:2 4:7 1:3 2:12 3:2 2:8 3:3 4:4
2:0 3:1 5:2 4:7 1:3 2:12 3:2 2:8 3:3 4:4 5:3
3:0 5:2 4:7 1:3 2:12 3:2 2:8 3:3 4:4 5:3 1:3
5:0 4:7 1:3 2:12 3:2 2:8 3:3 4:4 5:3 1:3 2:1
4:0 1:3 2:12 3:2 2:8 3:3 4:4 5:3 1:3 2:1 3:2
1:0 2:12 3:2 2:8 3:3 4:4 5:3 1:3 2:1 3:2 5:12
2:0 3:2 2:8 3:3 4:4 5:3 1:3 2:1 3:2 5:12 4:3
3:0 2:8 3:3 4:4 5:3 1:3 2:1 3:2 5:12 4:3 1:4
2:0 3:3 4:4 5:3 1:3 2:1 3:2 5:12 4:3 1:4 3:4
3:0 4:4 5:3 1:3 2:1 3:2 5:12 4:3 1:4 3:4 2:2
4:0 5:3 1:3 2:1 3:2 5:12 4:3 1:4 3:4 2:2 1:5
5:0 1:3 2:1 3:2 5:12 4:3 1:4 3:4 2:2 1:5 2:1
1:0 2:1 3:2 5:12 4:3 1:4 3:4 2:2 1:5 2:1 3:7
2:0 3:2 5:12 4:3 1:4 3:4 2:2 1:5 2:1 3:7 2:3
3:0 5:12 4:3 1:4 3:4 2:2 1:5 2:1 3:7 2:3 3:4
5:0 4:3 1:4 3:4 2:2 1:5 2:1 3:7 2:3 3:4 5:4
4:0 1:4 3:4 2:2 1:5 2:1 3:7 2:3 3:4 5:4 4:3
1:0 3:4 2:2 1:5 2:1 3:7 2:3 3:4 5:4 4:3 5:1
3:0 2:2 1:5 2:1 3:7 2:3 3:4 5:4 4:3 5:1 1:4
2:0 1:5 2:1 3:7 2:3 3:4 5:4 4:3 5:1 1:4 2:1
1:0 2:1 3:7 2:3 3:4 5:4 4:3 5:1 1:4 2:1 3:3
2:0 3:7 2:3 3:4 5:4 4:3 5:1 1:4 2:1 3:3 2:1
3:0 2:3 3:4 5:4 4:3 5:1 1:4 2:1 3:3 2:1 3:1
2:0 3:4 5:4 4:3 5:1 1:4 2:1 3:3 2:1 3:1 2:2
3:0 5:4 4:3 5:1 1:4 2:1 3:3 2:1 3:1 2:2 3:5
5:0 4:3 5:1 1:4 2:1 3:3 2:1 3:1 2:2 3:5 5:2
4:0 5:1 1:4 2:1 3:3 2:1 3:1 2:2 3:5 5:2 4:3
5:0 1:4 2:1 3:3 2:1 3:1 2:2 3:5 5:2 4:3 1:6
1:0 2:1 3:3 2:1 3:1 2:2 3:5 5:2 4:3 1:6 2:5
2:0 3:3 2:1 3:1 2:2 3:5 5:2 4:3 1:6 2:5 1:1
3:0 2:1 3:1 2:2 3:5 5:2 4:3 1:6 2:5 1:1 2:7
2:0 3:1 2:2 3:5 5:2 4:3 1:6 2:5 1:1 2:7 3:1
3:0 2:2 3:5 5:2 4:3 1:6 2:5 1:1 2:7 3:1 4:6
2:0 3:5 5:2 4:3 1:6 2:5 1:1 2:7 3:1 4:6 5:3
3:0 5:2 4:3 1:6 2:5 1:1 2:7 3:1 4:6 5:3 1:3
5:0 4:3 1:6 2:5 1:1 2:7 3:1 4:6 5:3 1:3 2:1
4:0 1:6 2:5 1:1 2:7 3:1 4:6 5:3 1:3 2:1 3:2
1:0 2:5 1:1 2:7 3:1 4:6 5:3 1:3 2:1 3:2 2:1
2:0 1:1 2:7 3:1 4:6 5:3 1:3 2:1 3:2 2:1 3:7
1:0 2:7 3:1 4:6 5:3 1:3 2:1 3:2 2:1 3:7 5:3
2:0 3:1 4:6 5:3 1:3 2:1 3:2 2:1 3:7 5:3 4:2
3:0 4:6 5:3 1:3 2:1 3:2 2:1 3:7 5:3 4:2 1:7
4:0 5:3 1:3 2:1 3:2 2:1 3:7 5:3 4:2 1:7 3:12
5:0 1:3 2:1 3:2 2:1 3:7 5:3 4:2 1:7 3:12 2:2
1:0 2:1 3:2 2:1 3:7 5:3 4:2 1:7 3:12 2:2 3:2
2:0 3:2 2:1 3:7 5:3 4:2 1:7 3:12 2:2 3:2 5:10
3:0 2:1 3:7 5:3 4:2 1:7 3:12 2:2 3:2 5:10 1:8
2:0 3:7 5:3 4:2 1:7 3:12 2:2 3:2 5:10 1:8 2:2
3:0 5:3 4:2 1:7 3:12 2:2 3:2 5:10 1:8 2:2 3:1
5:0 4:2 1:7 3:12 2:2 3:2 5:10 1:8 2:2 3:1 5:11
4:0 1:7 3:12 2:2 3:2 5:10 1:8 2:2 3:1 5:11 4:2
1:0 3:12 2:2 3:2 5:10 1:8 2:2 3:1 5:11 4:2 1:6
3:0 2:2 3:2 5:10 1:8 2:2 3:1 5:11 4:2 1:6 2:4
2:0 3:2 5:10 1:8 2:2 3:1 5:11 4:2 1:6 2:4 1:1
3:0 5:10 1:8 2:2 3:1 5:11 4:2 1:6 2:4 1:1 3:2
5:0 1:8 2:2 3:1 5:11 4:2 1:6 2:4 1:1 3:2 2:2
1:0 2:2 3:1 5:11 4:2 1:6 2:4 1:1 3:2 2:2 3:9
2:0 3:1 5:11 4:2 1:6 2:4 1:1 3:2 2:2 3:9 2:6
3:0 5:11 4:2 1:6 2:4 1:1 3:2 2:2 3:9 2:6 3:4
5:0 4:2 1:6 2:4 1:1 3:2 2:2 3:9 2:6 3:4 5:3
4:0 1:6 2:4 1:1 3:2 2:2 3:9 2:6 3:4 5:3 1:8
1:0 2:4 1:1 3:2 2:2 3:9 2:6 3:4 5:3 1:8 2:2
2:0 1:1 3:2 2:2 3:9 2:6 3:4 5:3 1:8 2:2 3:4
1:0 3:2 2:2 3:9 2:6 3:4 5:3 1:8 2:2 3:4 2:2
3:0 2:2 3:9 2:6 3:4 5:3 1:8 2:2 3:4 2:2 3:5
2:0 3:9 2:6 3:4 5:3 1:8 2:2 3:4 2:2 3:5 5:3
3:0 2:6 3:4 5:3 1:8 2:2 3:4 2:2 3:5 5:3 4:2
2:0 3:4 5:3 1:8 2:2 3:4 2:2 3:5 5:3 4:2 1:7
3:0 5:3 1:8 2:2 3:4 2:2 3:5 5:3 4:2 1:7 3:12
5:0 1:8 2:2 3:4 2:2 3:5 5:3 4:2 1:7 3:12 2:1
1:0 2:2 3:4 2:2 3:5 5:3 4:2 1:7 3:12 2:1 3:2
2:0 3:4 2:2 3:5 5:3 4:2 1:7 3:12 2:1 3:2 5:11
3:0 2:2 3:5 5:3 4:2 1:7 3:12 2:1 3:2 5:11 1:9
2:0 3:5 5:3 4:2 1:7 3:12 2:1 3:2 5:11 1:9 2:1
3:0 5:3 4:2 1:7 3:12 2:1 3:2 5:11 1:9 2:1 3:1
5:0 4:2 1:7 3:12 2:1 3:2 5:11 1:9 2:1 3:1 2:9
4:0 1:7 3:12 2:1 3:2 5:11 1:9 2:1 3:1 2:9 3:15
1:0 3:12 2:1 3:2 5:11 1:9 2:1 3:1 2:9 3:15 4:4
3:0 2:1 3:2 5:11 1:9 2:1 3:1 2:9 3:15 4:4 5:3
2:0 3:2 5:11 1:9 2:1 3:1 2:9 3:15 4:4 5:3 1:5
3:0 5:11 1:9 2:1 3:1 2:9 3:15 4:4 5:3 1:5 2:2
5:0 1:9 2:1 3:1 2:9 3:15 4:4 5:3 1:5 2:2 3:9
1:0 2:1 3:1 2:9 3:15 4:4 5:3 1:5 2:2 3:9 5:4
2:0 3:1 2:9 3:15 4:4 5:3 1:5 2:2 3:9 5:4 4:5
3:0 2:9 3:15 4:4 5:3 1:5 2:2 3:9 5:4 4:5 1:3
2:0 3:15 4:4 5:3 1:5 2:2 3:9 5:4 4:5 1:3 2:12
3:0 4:4 5:3 1:5 2:2 3:9 5:4 4:5 1:3 2:12 3:1
4:0 5:3 1:5 2:2 3:9 5:4 4:5 1:3 2:12 3:1 2:1
5:0 1:5 2:2 3:9 5:4 4:5 1:3 2:12 3:1 2:1 3:1
1:0 2:2 3:9 5:4 4:5 1:3 2:12 3:1 2:1 3:1 5:12
2:0 3:9 5:4 4:5 1:3 2:12 3:1 2:1 3:1 5:12 4:1
3:0 5:4 4:5 1:3 2:12 3:1 2:1 3:1 5:12 4:1 5:1
5:0 4:5 1:3 2:12 3:1 2:1 3:1 5:12 4:1 5:1 4:1
4:0 1:3 2:12 3:1 2:1 3:1 5:12 4:1 5:1 4:1 5:2
1:0 2:12 3:1 2:1 3:1 5:12 4:1 5:1 4:1 5:2 1:3
2:0 3:1 2:1 3:1 5:12 4:1 5:1 4:1 5:2 1:3 2:1
3:0 2:1 3:1 5:12 4:1 5:1 4:1 5:2 1:3 2:1 3:1
2:0 3:1 5:12 4:1 5:1 4:1 5:2 1:3 2:1 3:1 5:13
3:0 5:12 4:1 5:1 4:1 5:2 1:3 2:1 3:1 5:13 4:3
5:0 4:1 5:1 4:1 5:2 1:3 2:1 3:1 5:13 4:3 1:5
4:0 5:1 4:1 5:2 1:3 2:1 3:1 5:13 4:3 1:5 2:4
5:0 4:1 5:2 1:3 2:1 3:1 5:13 4:3 1:5 2:4 3:1
4:0 5:2 1:3 2:1 3:1 5:13 4:3 1:5 2:4 3:1 2:1
5:0 1:3 2:1 3:1 5:13 4:3 1:5 2:4 3:1 2:1 1:5
1:0 2:1 3:1 5:13 4:3 1:5 2:4 3:1 2:1 1:5 2:1
2:0 3:1 5:13 4:3 1:5 2:4 3:1 2:1 1:5 2:1 3:6
3:0 5:13 4:3 1:5 2:4 3:1 2:1 1:5 2:1 3:6 2:3
5:0 4:3 1:5 2:4 3:1 2:1 1:5 2:1 3:6 2:3 3:4
4:0 1:5 2:4 3:1 2:1 1:5 2:1 3:6 2:3 3:4 5:4
1:0 2:4 3:1 2:1 1:5 2:1 3:6 2:3 3:4 5:4 1:9
2:0 3:1 2:1 1:5 2:1 3:6 2:3 3:4 5:4 1:9 3:2
3:0 2:1 1:5 2:1 3:6 2:3 3:4 5:4 1:9 3:2 1:1
2:0 1:5 2:1 3:6 2:3 3:4 5:4 1:9 3:2 1:1 3:9
1:0 2:1 3:6 2:3 3:4 5:4 1:9 3:2 1:1 3:9 5:6
2:0 3:6 2:3 3:4 5:4 1:9 3:2 1:1 3:9 5:6 1:7
3:0 2:3 3:4 5:4 1:9 3:2 1:1 3:9 5:6 1:7 2:2
2:0 3:4 5:4 1:9 3:2 1:1 3:9 5:6 1:7 2:2 3:9
3:0 5:4 1:9 3:2 1:1 3:9 5:6 1:7 2:2 3:9 5:4
5:0 1:9 3:2 1:1 3:9 5:6 1:7 2:2 3:9 5:4 4:4
1:0 3:2 1:1 3:9 5:6 1:7 2:2 3:9 5:4 4:4 1:4
3:0 1:1 3:9 5:6 1:7 2:2 3:9 5:4 4:4 1:4 2:5
1:0 3:9 5:6 1:7 2:2 3:9 5:4 4:4 1:4 2:5 1:1
3:0 5:6 1:7 2:2 3:9 5:4 4:4 1:4 2:5 1:1 3:7
5:0 1:7 2:2 3:9 5:4 4:4 1:4 2:5 1:1 3:7 4:15
1:0 2:2 3:9 5:4 4:4 1:4 2:5 1:1 3:7 4:15 5:4
2:0 3:9 5:4 4:4 1:4 2:5 1:1 3:7 4:15 5:4 2:4
3:0 5:4 4:4 1:4 2:5 1:1 3:7 4:15 5:4 2:4 3:1
5:0 4:4 1:4 2:5 1:1 3:7 4:15 5:4 2:4 3:1 5:13
4:0 1:4 2:5 1:1 3:7 4:15 5:4 2:4 3:1 5:13 4:2
1:0 2:5 1:1 3:7 4:15 5:4 2:4 3:1 5:13 4:2 1:6
2:0 1:1 3:7 4:15 5:4 2:4 3:1 5:13 4:2 1:6 3:3
1:0 3:7 4:15 5:4 2:4 3:1 5:13 4:2 1:6 3:3 2:2
3:0 4:15 5:4 2:4 3:1 5:13 4:2 1:6 3:3 2:2 1:5
4:0 5:4 2:4 3:1 5:13 4:2 1:6 3:3 2:2 1:5 2:1
5:0 2:4 3:1 5:13 4:2 1:6 3:3 2:2 1:5 2:1 3:6
2:0 3:1 5:13 4:2 1:6 3:3 2:2 1:5 2:1 3:6 2:4
3:0 5:13 4:2 1:6 3:3 2:2 1:5 2:1 3:6 2:4 3:4
5:0 4:2 1:6 3:3 2:2 1:5 2:1 3:6 2:4 3:4 5:4
4:0 1:6 3:3 2:2 1:5 2:1 3:6 2:4 3:4 5:4 1:8
1:0 3:3 2:2 1:5 2:1 3:6 2:4 3:4 5:4 1:8 2:2
3:0 2:2 1:5 2:1 3:6 2:4 3:4 5:4 1:8 2:2 3:3
2:0 1:5 2:1 3:6 2:4 3:4 5:4 1:8 2:2 3:3 2:3
1:0 2:1 3:6 2:4 3:4 5:4 1:8 2:2 3:3 2:3 3:5
2:0 3:6 2:4 3:4 5:4 1:8 2:2 3:3 2:3 3:5 5:3
3:0 2:4 3:4 5:4 1:8 2:2 3:3 2:3 3:5 5:3 4:2
2:0 3:4 5:4 1:8 2:2 3:3 2:3 3:5 5:3 4:2 1:7
3:0 5:4 1:8 2:2 3:3 2:3 3:5 5:3 4:2 1:7 2:12
5:0 1:8 2:2 3:3 2:3 3:5 5:3 4:2 1:7 2:12 3:1
1:0 2:2 3:3 2:3 3:5 5:3 4:2 1:7 2:12 3:1 5:5
2:0 3:3 2:3 3:5 5:3 4:2 1:7 2:12 3:1 5:5 1:7
3:0 2:3 3:5 5:3 4:2 1:7 2:12 3:1 5:5 1:7 2:3
2:0 3:5 5:3 4:2 1:7 2:12 3:1 5:5 1:7 2:3 3:9
3:0 5:3 4:2 1:7 2:12 3:1 5:5 1:7 2:3 3:9 5:4
5:0 4:2 1:7 2:12 3:1 5:5 1:7 2:3 3:9 5:4 4:4
4:0 1:7 2:12 3:1 5:5 1:7 2:3 3:9 5:4 4:4 1:4
1:0 2:12 3:1 5:5 1:7 2:3 3:9 5:4 4:4 1:4 2:10
2:0 3:1 5:5 1:7 2:3 3:9 5:4 4:4 1:4 2:10 3:1
3:0 5:5 1:7 2:3 3:9 5:4 4:4 1:4 2:10 3:1 2:1
5:0 1:7 2:3 3:9 5:4 4:4 1:4 2:10 3:1 2:1 3:2
1:0 2:3 3:9 5:4 4:4 1:4 2:10 3:1 2:1 3:2 5:14
2:0 3:9 5:4 4:4 1:4 2:10 3:1 2:1 3:2 5:14 4:2
3:0 5:4 4:4 1:4 2:10 3:1 2:1 3:2 5:14 4:2 5:2
5:0 4:4 1:4 2:10 3:1 2:1 3:2 5:14 4:2 5:2 1:3
4:0 1:4 2:10 3:1 2:1 3:2 5:14 4:2 5:2 1:3 2:1
1:0 2:10 3:1 2:1 3:2 5:14 4:2 5:2 1:3 2:1 3:1
2:0 3:1 2:1 3:2 5:14 4:2 5:2 1:3 2:1 3:1 5:12
3:0 2:1 3:2 5:14 4:2 5:2 1:3 2:1 3:1 5:12 4:2
2:0 3:2 5:14 4:2 5:2 1:3 2:1 3:1 5:12 4:2 1:7
3:0 5:14 4:2 5:2 1:3 2:1 3:1 5:12 4:2 1:7 3:2
5:0 4:2 5:2 1:3 2:1 3:1 5:12 4:2 1:7 3:2 2:2
4:0 5:2 1:3 2:1 3:1 5:12 4:2 1:7 3:2 2:2 3:1
5:0 1:3 2:1 3:1 5:12 4:2 1:7 3:2 2:2 3:1 2:2
1:0 2:1 3:1 5:12 4:2 1:7 3:2 2:2 3:1 2:2 3:10
2:0 3:1 5:12 4:2 1:7 3:2 2:2 3:1 2:2 3:10 2:4
3:0 5:12 4:2 1:7 3:2 2:2 3:1 2:2 3:10 2:4 3:4
5:0 4:2 1:7 3:2 2:2 3:1 2:2 3:10 2:4 3:4 5:2
4:0 1:7 3:2 2:2 3:1 2:2 3:10 2:4 3:4 5:2 1:9
1:0 3:2 2:2 3:1 2:2 3:10 2:4 3:4 5:2 1:9 2:3
3:0 2:2 3:1 2:2 3:10 2:4 3:4 5:2 1:9 2:3 1:1
2:0 3:1 2:2 3:10 2:4 3:4 5:2 1:9 2:3 1:1 2:8
3:0 2:2 3:10 2:4 3:4 5:2 1:9 2:3 1:1 2:8 3:1
2:0 3:10 2:4 3:4 5:2 1:9 2:3 1:1 2:8 3:1 2:1
3:0 2:4 3:4 5:2 1:9 2:3 1:1 2:8 3:1 2:1 3:1
2:0 3:4 5:2 1:9 2:3 1:1 2:8 3:1 2:1 3:1 5:13
3:0 5:2 1:9 2:3 1:1 2:8 3:1 2:1 3:1 5:13 4:3
5:0 1:9 2:3 1:1 2:8 3:1 2:1 3:1 5:13 4:3 5:1
1:0 2:3 1:1 2:8 3:1 2:1 3:1 5:13 4:3 5:1 1:3
2:0 1:1 2:8 3:1 2:1 3:1 5:13 4:3 5:1 1:3 3:2
1:0 2:8 3:1 2:1 3:1 5:13 4:3 5:1 1:3 3:2 2:9
2:0 3:1 2:1 3:1 5:13 4:3 5:1 1:3 3:2 2:9 3:9
3:0 2:1 3:1 5:13 4:3 5:1 1:3 3:2 2:9 3:9 2:1
2:0 3:1 5:13 4:3 5:1 1:3 3:2 2:9 3:9 2:1 3:4
3:0 5:13 4:3 5:1 1:3 3:2 2:9 3:9 2:1 3:4 5:4
5:0 4:3 5:1 1:3 3:2 2:9 3:9 2:1 3:4 5:4 4:2
4:0 5:1 1:3 3:2 2:9 3:9 2:1 3:4 5:4 4:2 5:2
5:0 1:3 3:2 2:9 3:9 2:1 3:4 5:4 4:2 5:2 1:5
1:0 3:2 2:9 3:9 2:1 3:4 5:4 4:2 5:2 1:5 2:2
3:0 2:9 3:9 2:1 3:4 5:4 4:2 5:2 1:5 2:2 3:2
2:0 3:9 2:1 3:4 5:4 4:2 5:2 1:5 2:2 3:2 2:1
3:0 2:1 3:4 5:4 4:2 5:2 1:5 2:2 3:2 2:1 3:2
2:0 3:4 5:4 4:2 5:2 1:5 2:2 3:2 2:1 3:2 2:1
3:0 5:4 4:2 5:2 1:5 2:2 3:2 2:1 3:2 2:1 3:5
5:0 4:2 5:2 1:5 2:2 3:2 2:1 3:2 2:1 3:5 5:2
4:0 5:2 1:5 2:2 3:2 2:1 3:2 2:1 3:5 5:2 4:2
5:0 1:5 2:2 3:2 2:1 3:2 2:1 3:5 5:2 4:2 1:7
1:0 2:2 3:2 2:1 3:2 2:1 3:5 5:2 4:2 1:7 2:3
2:0 3:2 2:1 3:2 2:1 3:5 5:2 4:2 1:7 2:3 1:1
3:0 2:1 3:2 2:1 3:5 5:2 4:2 1:7 2:3 1:1 2:8
2:0 3:2 2:1 3:5 5:2 4:2 1:7 2:3 1:1 2:8 3:2
3:0 2:1 3:5 5:2 4:2 1:7 2:3 1:1 2:8 3:2 4:5
2:0 3:5 5:2 4:2 1:7 2:3 1:1 2:8 3:2 4:5 5:2
3:0 5:2 4:2 1:7 2:3 1:1 2:8 3:2 4:5 5:2 1:4
5:0 4:2 1:7 2:3 1:1 2:8 3:2 4:5 5:2 1:4 2:1
4:0 1:7 2:3 1:1 2:8 3:2 4:5 5:2 1:4 2:1 3:3
1:0 2:3 1:1 2:8 3:2 4:5 5:2 1:4 2:1 3:3 2:1
2:0 1:1 2:8 3:2 4:5 5:2 1:4 2:1 3:3 2:1 3:7
1:0 2:8 3:2 4:5 5:2 1:4 2:1 3:3 2:1 3:7 5:2
2:0 3:2 4:5 5:2 1:4 2:1 3:3 2:1 3:7 5:2 4:3
3:0 4:5 5:2 1:4 2:1 3:3 2:1 3:7 5:2 4:3 1:5
4:0 5:2 1:4 2:1 3:3 2:1 3:7 5:2 4:3 1:5 3:2
5:0 1:4 2:1 3:3 2:1 3:7 5:2 4:3 1:5 3:2 1:1
1:0 2:1 3:3 2:1 3:7 5:2 4:3 1:5 3:2 1:1 3:10
2:0 3:3 2:1 3:7 5:2 4:3 1:5 3:2 1:1 3:10 4:7
3:0 2:1 3:7 5:2 4:3 1:5 3:2 1:1 3:10 4:7 5:2
2:0 3:7 5:2 4:3 1:5 3:2 1:1 3:10 4:7 5:2 1:4
3:0 5:2 4:3 1:5 3:2 1:1 3:10 4:7 5:2 1:4 2:2
5:0 4:3 1:5 3:2 1:1 3:10 4:7 5:2 1:4 2:2 3:1
4:0 1:5 3:2 1:1 3:10 4:7 5:2 1:4 2:2 3:1 2:1
1:0 3:2 1:1 3:10 4:7 5:2 1:4 2:2 3:1 2:1 3:7
3:0 1:1 3:10 4:7 5:2 1:4 2:2 3:1 2:1 3:7 5:4
1:0 3:10 4:7 5:2 1:4 2:2 3:1 2:1 3:7 5:4 4:3
3:0 4:7 5:2 1:4 2:2 3:1 2:1 3:7 5:4 4:3 1:5
4:0 5:2 1:4 2:2 3:1 2:1 3:7 5:4 4:3 1:5 3:2
5:0 1:4 2:2 3:1 2:1 3:7 5:4 4:3 1:5 3:2 1:1
1:0 2:2 3:1 2:1 3:7 5:4 4:3 1:5 3:2 1:1 2:9
2:0 3:1 2:1 3:7 5:4 4:3 1:5 3:2 1:1 2:9 3:1
3:0 2:1 3:7 5:4 4:3 1:5 3:2 1:1 2:9 3:1 5:5
2:0 3:7 5:4 4:3 1:5 3:2 1:1 2:9 3:1 5:5 1:7
3:0 5:4 4:3 1:5 3:2 1:1 2:9 3:1 5:5 1:7 2:3
5:0 4:3 1:5 3:2 1:1 2:9 3:1 5:5 1:7 2:3 1:1
4:0 1:5 3:2 1:1 2:9 3:1 5:5 1:7 2:3 1:1 2:5
1:0 3:2 1:1 2:9 3:1 5:5 1:7 2:3 1:1 2:5 3:1
3:0 1:1 2:9 3:1 5:5 1:7 2:3 1:1 2:5 3:1 5:5
1:0 2:9 3:1 5:5 1:7 2:3 1:1 2:5 3:1 5:5 4:4
2:0 3:1 5:5 1:7 2:3 1:1 2:5 3:1 5:5 4:4 5:1
3:0 5:5 1:7 2:3 1:1 2:5 3:1 5:5 4:4 5:1 4:1
5:0 1:7 2:3 1:1 2:5 3:1 5:5 4:4 5:1 4:1 1:2
1:0 2:3 1:1 2:5 3:1 5:5 4:4 5:1 4:1 1:2 2:4
2:0 1:1 2:5 3:1 5:5 4:4 5:1 4:1 1:2 2:4 1:1
1:0 2:5 3:1 5:5 4:4 5:1 4:1 1:2 2:4 1:1 2:2
2:0 3:1 5:5 4:4 5:1 4:1 1:2 2:4 1:1 2:2 1:1
3:0 5:5 4:4 5:1 4:1 1:2 2:4 1:1 2:2 1:1 2:4
5:0 4:4 5:1 4:1 1:2 2:4 1:1 2:2 1:1 2:4 3:2
4:0 5:1 4:1 1:2 2:4 1:1 2:2 1:1 2:4 3:2 5:13
5:0 4:1 1:2 2:4 1:1 2:2 1:1 2:4 3:2 5:13 4:3
4:0 1:2 2:4 1:1 2:2 1:1 2:4 3:2 5:13 4:3 5:1
1:0 2:4 1:1 2:2 1:1 2:4 3:2 5:13 4:3 5:1 1:3
2:0 1:1 2:2 1:1 2:4 3:2 5:13 4:3 5:1 1:3 2:2
1:0 2:2 1:1 2:4 3:2 5:13 4:3 5:1 1:3 2:2 3:1
2:0 1:1 2:4 3:2 5:13 4:3 5:1 1:3 2:2 3:1 5:12
1:0 2:4 3:2 5:13 4:3 5:1 1:3 2:2 3:1 5:12 4:2
2:0 3:2 5:13 4:3 5:1 1:3 2:2 3:1 5:12 4:2 1:6
3:0 5:13 4:3 5:1 1:3 2:2 3:1 5:12 4:2 1:6 3:3
5:0 4:3 5:1 1:3 2:2 3:1 5:12 4:2 1:6 3:3 2:2
4:0 5:1 1:3 2:2 3:1 5:12 4:2 1:6 3:3 2:2 3:2
5:0 1:3 2:2 3:1 5:12 4:2 1:6 3:3 2:2 3:2 2:1
1:0 2:2 3:1 5:12 4:2 1:6 3:3 2:2 3:2 2:1 3:10
2:0 3:1 5:12 4:2 1:6 3:3 2:2 3:2 2:1 3:10 2:5
3:0 5:12 4:2 1:6 3:3 2:2 3:2 2:1 3:10 2:5 3:4
5:0 4:2 1:6 3:3 2:2 3:2 2:1 3:10 2:5 3:4 5:3
4:0 1:6 3:3 2:2 3:2 2:1 3:10 2:5 3:4 5:3 4:7
1:0 3:3 2:2 3:2 2:1 3:10 2:5 3:4 5:3 4:7 1:1
3:0 2:2 3:2 2:1 3:10 2:5 3:4 5:3 4:7 1:1 2:12
2:0 3:2 2:1 3:10 2:5 3:4 5:3 4:7 1:1 2:12 3:2
3:0 2:1 3:10 2:5 3:4 5:3 4:7 1:1 2:12 3:2 4:6
2:0 3:10 2:5 3:4 5:3 4:7 1:1 2:12 3:2 4:6 5:1
3:0 2:5 3:4 5:3 4:7 1:1 2:12 3:2 4:6 5:1 1:6
2:0 3:4 5:3 4:7 1:1 2:12 3:2 4:6 5:1 1:6 2:1
3:0 5:3 4:7 1:1 2:12 3:2 4:6 5:1 1:6 2:1 3:9
5:0 4:7 1:1 2:12 3:2 4:6 5:1 1:6 2:1 3:9 5:4
4:0 1:1 2:12 3:2 4:6 5:1 1:6 2:1 3:9 5:4 4:1
1:0 2:12 3:2 4:6 5:1 1:6 2:1 3:9 5:4 4:1 1:7
2:0 3:2 4:6 5:1 1:6 2:1 3:9 5:4 4:1 1:7 3:12
3:0 4:6 5:1 1:6 2:1 3:9 5:4 4:1 1:7 3:12 2:2
4:0 5:1 1:6 2:1 3:9 5:4 4:1 1:7 3:12 2:2 3:1
5:0 1:6 2:1 3:9 5:4 4:1 1:7 3:12 2:2 3:1 4:13
1:0 2:1 3:9 5:4 4:1 1:7 3:12 2:2 3:1 4:13 5:4
2:0 3:9 5:4 4:1 1:7 3:12 2:2 3:1 4:13 5:4 1:3
3:0 5:4 4:1 1:7 3:12 2:2 3:1 4:13 5:4 1:3 3:2
5:0 4:1 1:7 3:12 2:2 3:1 4:13 5:4 1:3 3:2 5:13
4:0 1:7 3:12 2:2 3:1 4:13 5:4 1:3 3:2 5:13 4:3
1:0 3:12 2:2 3:1 4:13 5:4 1:3 3:2 5:13 4:3 1:5
3:0 2:2 3:1 4:13 5:4 1:3 3:2 5:13 4:3 1:5 3:3
2:0 3:1 4:13 5:4 1:3 3:2 5:13 4:3 1:5 3:3 2:2
3:0 4:13 5:4 1:3 3:2 5:13 4:3 1:5 3:3 2:2 3:13
4:0 5:4 1:3 3:2 5:13 4:3 1:5 3:3 2:2 3:13 2:3
5:0 1:3 3:2 5:13 4:3 1:5 3:3 2:2 3:13 2:3 3:4
1:0 3:2 5:13 4:3 1:5 3:3 2:2 3:13 2:3 3:4 5:5
3:0 5:13 4:3 1:5 3:3 2:2 3:13 2:3 3:4 5:5 1:8
5:0 4:3 1:5 3:3 2:2 3:13 2:3 3:4 5:5 1:8 3:1
4:0 1:5 3:3 2:2 3:13 2:3 3:4 5:5 1:8 3:1 2:1
1:0 3:3 2:2 3:13 2:3 3:4 5:5 1:8 3:1 2:1 3:10
3:0 2:2 3:13 2:3 3:4 5:5 1:8 3:1 2:1 3:10 5:3
2:0 3:13 2:3 3:4 5:5 1:8 3:1 2:1 3:10 5:3 4:2
3:0 2:3 3:4 5:5 1:8 3:1 2:1 3:10 5:3 4:2 1:7
2:0 3:4 5:5 1:8 3:1 2:1 3:10 5:3 4:2 1:7 3:12
3:0 5:5 1:8 3:1 2:1 3:10 5:3 4:2 1:7 3:12 2:1
5:0 1:8 3:1 2:1 3:10 5:3 4:2 1:7 3:12 2:1 3:1
1:0 3:1 2:1 3:10 5:3 4:2 1:7 3:12 2:1 3:1 4:5
3:0 2:1 3:10 5:3 4:2 1:7 3:12 2:1 3:1 4:5 5:2
2:0 3:10 5:3 4:2 1:7 3:12 2:1 3:1 4:5 5:2 1:4
3:0 5:3 4:2 1:7 3:12 2:1 3:1 4:5 5:2 1:4 2:2
5:0 4:2 1:7 3:12 2:1 3:1 4:5 5:2 1:4 2:2 3:1
4:0 1:7 3:12 2:1 3:1 4:5 5:2 1:4 2:2 3:1 2:1
1:0 3:12 2:1 3:1 4:5 5:2 1:4 2:2 3:1 2:1 3:7
3:0 2:1 3:1 4:5 5:2 1:4 2:2 3:1 2:1 3:7 5:3
2:0 3:1 4:5 5:2 1:4 2:2 3:1 2:1 3:7 5:3 4:2
3:0 4:5 5:2 1:4 2:2 3:1 2:1 3:7 5:3 4:2 1:7
4:0 5:2 1:4 2:2 3:1 2:1 3:7 5:3 4:2 1:7 2:13
5:0 1:4 2:2 3:1 2:1 3:7 5:3 4:2 1:7 2:13 3:1
1:0 2:2 3:1 2:1 3:7 5:3 4:2 1:7 2:13 3:1 2:1
2:0 3:1 2:1 3:7 5:3 4:2 1:7 2:13 3:1 2:1 3:2
3:0 2:1 3:7 5:3 4:2 1:7 2:13 3:1 2:1 3:2 4:12
2:0 3:7 5:3 4:2 1:7 2:13 3:1 2:1 3:2 4:12 5:4
3:0 5:3 4:2 1:7 2:13 3:1 2:1 3:2 4:12 5:4 1:3
5:0 4:2 1:7 2:13 3:1 2:1 3:2 4:12 5:4 1:3 2:1
4:0 1:7 2:13 3:1 2:1 3:2 4:12 5:4 1:3 2:1 3:1
1:0 2:13 3:1 2:1 3:2 4:12 5:4 1:3 2:1 3:1 2:1
2:0 3:1 2:1 3:2 4:12 5:4 1:3 2:1 3:1 2:1 3:2
3:0 2:1 3:2 4:12 5:4 1:3 2:1 3:1 2:1 3:2 5:10
2:0 3:2 4:12 5:4 1:3 2:1 3:1 2:1 3:2 5:10 4:3
3:0 4:12 5:4 1:3 2:1 3:1 2:1 3:2 5:10 4:3 1:5
4:0 5:4 1:3 2:1 3:1 2:1 3:2 5:10 4:3 1:5 3:2
5:0 1:3 2:1 3:1 2:1 3:2 5:10 4:3 1:5 3:2 2:2
1:0 2:1 3:1 2:1 3:2 5:10 4:3 1:5 3:2 2:2 3:3
2:0 3:1 2:1 3:2 5:10 4:3 1:5 3:2 2:2 3:3 2:1
3:0 2:1 3:2 5:10 4:3 1:5 3:2 2:2 3:3 2:1 1:2
2:0 3:2 5:10 4:3 1:5 3:2 2:2 3:3 2:1 1:2 2:1
3:0 5:10 4:3 1:5 3:2 2:2 3:3 2:1 1:2 2:1 3:8
5:0 4:3 1:5 3:2 2:2 3:3 2:1 1:2 2:1 3:8 2:1
4:0 1:5 3:2 2:2 3:3 2:1 1:2 2:1 3:8 2:1 3:5
1:0 3:2 2:2 3:3 2:1 1:2 2:1 3:8 2:1 3:5 5:3
3:0 2:2 3:3 2:1 1:2 2:1 3:8 2:1 3:5 5:3 4:3
2:0 3:3 2:1 1:2 2:1 3:8 2:1 3:5 5:3 4:3 5:1
3:0 2:1 1:2 2:1 3:8 2:1 3:5 5:3 4:3 5:1 1:5
2:0 1:2 2:1 3:8 2:1 3:5 5:3 4:3 5:1 1:5 2:1
1:0 2:1 3:8 2:1 3:5 5:3 4:3 5:1 1:5 2:1 3:3
2:0 3:8 2:1 3:5 5:3 4:3 5:1 1:5 2:1 3:3 2:1
3:0 2:1 3:5 5:3 4:3 5:1 1:5 2:1 3:3 2:1 3:1
2:0 3:5 5:3 4:3 5:1 1:5 2:1 3:3 2:1 3:1 2:1
3:0 5:3 4:3 5:1 1:5 2:1 3:3 2:1 3:1 2:1 3:5
5:0 4:3 5:1 1:5 2:1 3:3 2:1 3:1 2:1 3:5 5:3
4:0 5:1 1:5 2:1 3:3 2:1 3:1 2:1 3:5 5:3 4:3
5:0 1:5 2:1 3:3 2:1 3:1 2:1 3:5 5:3 4:3 1:5
1:0 2:1 3:3 2:1 3:1 2:1 3:5 5:3 4:3 1:5 3:13
2:0 3:3 2:1 3:1 2:1 3:5 5:3 4:3 1:5 3:13 5:7
3:0 2:1 3:1 2:1 3:5 5:3 4:3 1:5 3:13 5:7 4:1
2:0 3:1 2:1 3:5 5:3 4:3 1:5 3:13 5:7 4:1 5:1
3:0 2:1 3:5 5:3 4:3 1:5 3:13 5:7 4:1 5:1 1:4
2:0 3:5 5:3 4:3 1:5 3:13 5:7 4:1 5:1 1:4 2:2
3:0 5:3 4:3 1:5 3:13 5:7 4:1 5:1 1:4 2:2 3:3
5:0 4:3 1:5 3:13 5:7 4:1 5:1 1:4 2:2 3:3 2:1
4:0 1:5 3:13 5:7 4:1 5:1 1:4 2:2 3:3 2:1 3:5
1:0 3:13 5:7 4:1 5:1 1:4 2:2 3:3 2:1 3:5 6:3
3:0 5:7 4:1 5:1 1:4 2:2 3:3 2:1 3:5 6:3 5:1
5:0 4:1 5:1 1:4 2:2 3:3 2:1 3:5 6:3 5:1 4:1
4:0 5:1 1:4 2:2 3:3 2:1 3:5 6:3 5:1 4:1 1:7
5:0 1:4 2:2 3:3 2:1 3:5 6:3 5:1 4:1 1:7 3:13
1:0 2:2 3:3 2:1 3:5 6:3 5:1 4:1 1:7 3:13 4:15
2:0 3:3 2:1 3:5 6:3 5:1 4:1 1:7 3:13 4:15 5:4
3:0 2:1 3:5 6:3 5:1 4:1 1:7 3:13 4:15 5:4 1:3
2:0 3:5 6:3 5:1 4:1 1:7 3:13 4:15 5:4 1:3 2:1
3:0 6:3 5:1 4:1 1:7 3:13 4:15 5:4 1:3 2:1 3:1
6:0 5:1 4:1 1:7 3:13 4:15 5:4 1:3 2:1 3:1 5:8
5:0 4:1 1:7 3:13 4:15 5:4 1:3 2:1 3:1 5:8 4:2
4:0 1:7 3:13 4:15 5:4 1:3 2:1 3:1 5:8 4:2 1:6
1:0 3:13 4:15 5:4 1:3 2:1 3:1 5:8 4:2 1:6 3:8
3:0 4:15 5:4 1:3 2:1 3:1 5:8 4:2 1:6 3:8 2:3
4:0 5:4 1:3 2:1 3:1 5:8 4:2 1:6 3:8 2:3 3:1
5:0 1:3 2:1 3:1 5:8 4:2 1:6 3:8 2:3 3:1 5:12
1:0 2:1 3:1 5:8 4:2 1:6 3:8 2:3 3:1 5:12 4:1
2:0 3:1 5:8 4:2 1:6 3:8 2:3 3:1 5:12 4:1 5:3
3:0 5:8 4:2 1:6 3:8 2:3 3:1 5:12 4:1 5:3 1:3
5:0 4:2 1:6 3:8 2:3 3:1 5:12 4:1 5:3 1:3 2:1
4:0 1:6 3:8 2:3 3:1 5:12 4:1 5:3 1:3 2:1 3:1
1:0 3:8 2:3 3:1 5:12 4:1 5:3 1:3 2:1 3:1 5:13
3:0 2:3 3:1 5:12 4:1 5:3 1:3 2:1 3:1 5:13 4:3
2:0 3:1 5:12 4:1 5:3 1:3 2:1 3:1 5:13 4:3 1:5
3:0 5:12 4:1 5:3 1:3 2:1 3:1 5:13 4:3 1:5 3:2
5:0 4:1 5:3 1:3 2:1 3:1 5:13 4:3 1:5 3:2 2:2
4:0 5:3 1:3 2:1 3:1 5:13 4:3 1:5 3:2 2:2 1:6
5:0 1:3 2:1 3:1 5:13 4:3 1:5 3:2 2:2 1:6 2:1
1:0 2:1 3:1 5:13 4:3 1:5 3:2 2:2 1:6 2:1 3:3
2:0 3:1 5:13 4:3 1:5 3:2 2:2 1:6 2:1 3:3 2:1
3:0 5:13 4:3 1:5 3:2 2:2 1:6 2:1 3:3 2:1 3:1
5:0 4:3 1:5 3:2 2:2 1:6 2:1 3:3 2:1 3:1 2:4
4:0 1:5 3:2 2:2 1:6 2:1 3:3 2:1 3:1 2:4 3:5
1:0 3:2 2:2 1:6 2:1 3:3 2:1 3:1 2:4 3:5 5:3
3:0 2:2 1:6 2:1 3:3 2:1 3:1 2:4 3:5 5:3 1:9
2:0 1:6 2:1 3:3 2:1 3:1 2:4 3:5 5:3 1:9 3:2
1:0 2:1 3:3 2:1 3:1 2:4 3:5 5:3 1:9 3:2 1:1
2:0 3:3 2:1 3:1 2:4 3:5 5:3 1:9 3:2 1:1 2:9
3:0 2:1 3:1 2:4 3:5 5:3 1:9 3:2 1:1 2:9 3:1
2:0 3:1 2:4 3:5 5:3 1:9 3:2 1:1 2:9 3:1 5:5
3:0 2:4 3:5 5:3 1:9 3:2 1:1 2:9 3:1 5:5 1:7
2:0 3:5 5:3 1:9 3:2 1:1 2:9 3:1 5:5 1:7 2:4
3:0 5:3 1:9 3:2 1:1 2:9 3:1 5:5 1:7 2:4 1:3
5:0 1:9 3:2 1:1 2:9 3:1 5:5 1:7 2:4 1:3 2:4
1:0 3:2 1:1 2:9 3:1 5:5 1:7 2:4 1:3 2:4 3:1
3:0 1:1 2:9 3:1 5:5 1:7 2:4 1:3 2:4 3:1 4:4
1:0 2:9 3:1 5:5 1:7 2:4 1:3 2:4 3:1 4:4 5:1
2:0 3:1 5:5 1:7 2:4 1:3 2:4 3:1 4:4 5:1 4:3
3:0 5:5 1:7 2:4 1:3 2:4 3:1 4:4 5:1 4:3 1:4
5:0 1:7 2:4 1:3 2:4 3:1 4:4 5:1 4:3 1:4 2:2
1:0 2:4 1:3 2:4 3:1 4:4 5:1 4:3 1:4 2:2 1:1
2:0 1:3 2:4 3:1 4:4 5:1 4:3 1:4 2:2 1:1 2:8
1:0 2:4 3:1 4:4 5:1 4:3 1:4 2:2 1:1 2:8 3:1
2:0 3:1 4:4 5:1 4:3 1:4 2:2 1:1 2:8 3:1 4:7
3:0 4:4 5:1 4:3 1:4 2:2 1:1 2:8 3:1 4:7 5:1
4:0 5:1 4:3 1:4 2:2 1:1 2:8 3:1 4:7 5:1 4:1
5:0 4:3 1:4 2:2 1:1 2:8 3:1 4:7 5:1 4:1 5:1
4:0 1:4 2:2 1:1 2:8 3:1 4:7 5:1 4:1 5:1 1:3
1:0 2:2 1:1 2:8 3:1 4:7 5:1 4:1 5:1 1:3 2:1
2:0 1:1 2:8 3:1 4:7 5:1 4:1 5:1 1:3 2:1 3:9
1:0 2:8 3:1 4:7 5:1 4:1 5:1 1:3 2:1 3:9 5:5
2:0 3:1 4:7 5:1 4:1 5:1 1:3 2:1 3:9 5:5 4:4
3:0 4:7 5:1 4:1 5:1 1:3 2:1 3:9 5:5 4:4 1:4
4:0 5:1 4:1 5:1 1:3 2:1 3:9 5:5 4:4 1:4 2:2
5:0 4:1 5:1 1:3 2:1 3:9 5:5 4:4 1:4 2:2 1:1
4:0 5:1 1:3 2:1 3:9 5:5 4:4 1:4 2:2 1:1 2:9
5:0 1:3 2:1 3:9 5:5 4:4 1:4 2:2 1:1 2:9 3:1
1:0 2:1 3:9 5:5 4:4 1:4 2:2 1:1 2:9 3:1 4:7
2:0 3:9 5:5 4:4 1:4 2:2 1:1 2:9 3:1 4:7 5:1
3:0 5:5 4:4 1:4 2:2 1:1 2:9 3:1 4:7 5:1 1:5
5:0 4:4 1:4 2:2 1:1 2:9 3:1 4:7 5:1 1:5 2:1
4:0 1:4 2:2 1:1 2:9 3:1 4:7 5:1 1:5 2:1 1:4
1:0 2:2 1:1 2:9 3:1 4:7 5:1 1:5 2:1 1:4 2:3
2:0 1:1 2:9 3:1 4:7 5:1 1:5 2:1 1:4 2:3 3:1
1:0 2:9 3:1 4:7 5:1 1:5 2:1 1:4 2:3 3:1 5:5
2:0 3:1 4:7 5:1 1:5 2:1 1:4 2:3 3:1 5:5 4:4
3:0 4:7 5:1 1:5 2:1 1:4 2:3 3:1 5:5 4:4 1:3
4:0 5:1 1:5 2:1 1:4 2:3 3:1 5:5 4:4 1:3 3:12
5:0 1:5 2:1 1:4 2:3 3:1 5:5 4:4 1:3 3:12 2:2
1:0 2:1 1:4 2:3 3:1 5:5 4:4 1:3 3:12 2:2 3:1
2:0 1:4 2:3 3:1 5:5 4:4 1:3 3:12 2:2 3:1 5:12
1:0 2:3 3:1 5:5 4:4 1:3 3:12 2:2 3:1 5:12 1:7
2:0 3:1 5:5 4:4 1:3 3:12 2:2 3:1 5:12 1:7 3:3
3:0 5:5 4:4 1:3 3:12 2:2 3:1 5:12 1:7 3:3 2:8
5:0 4:4 1:3 3:12 2:2 3:1 5:12 1:7 3:3 2:8 3:9
4:0 1:3 3:12 2:2 3:1 5:12 1:7 3:3 2:8 3:9 2:1
1:0 3:12 2:2 3:1 5:12 1:7 3:3 2:8 3:9 2:1 3:5
3:0 2:2 3:1 5:12 1:7 3:3 2:8 3:9 2:1 3:5 5:4
2:0 3:1 5:12 1:7 3:3 2:8 3:9 2:1 3:5 5:4 1:8
3:0 5:12 1:7 3:3 2:8 3:9 2:1 3:5 5:4 1:8 2:1
5:0 1:7 3:3 2:8 3:9 2:1 3:5 5:4 1:8 2:1 3:11
1:0 3:3 2:8 3:9 2:1 3:5 5:4 1:8 2:1 3:11 5:4
3:0 2:8 3:9 2:1 3:5 5:4 1:8 2:1 3:11 5:4 4:2
2:0 3:9 2:1 3:5 5:4 1:8 2:1 3:11 5:4 4:2 1:6
3:0 2:1 3:5 5:4 1:8 2:1 3:11 5:4 4:2 1:6 3:3
2:0 3:5 5:4 1:8 2:1 3:11 5:4 4:2 1:6 3:3 1:2
3:0 5:4 1:8 2:1 3:11 5:4 4:2 1:6 3:3 1:2 2:7
5:0 1:8 2:1 3:11 5:4 4:2 1:6 3:3 1:2 2:7 3:3
1:0 2:1 3:11 5:4 4:2 1:6 3:3 1:2 2:7 3:3 5:13
2:0 3:11 5:4 4:2 1:6 3:3 1:2 2:7 3:3 5:13 4:1
3:0 5:4 4:2 1:6 3:3 1:2 2:7 3:3 5:13 4:1 5:2
5:0 4:2 1:6 3:3 1:2 2:7 3:3 5:13 4:1 5:2 1:4
4:0 1:6 3:3 1:2 2:7 3:3 5:13 4:1 5:2 1:4 2:1
1:0 3:3 1:2 2:7 3:3 5:13 4:1 5:2 1:4 2:1 3:1
3:0 1:2 2:7 3:3 5:13 4:1 5:2 1:4 2:1 3:1 5:14
1:0 2:7 3:3 5:13 4:1 5:2 1:4 2:1 3:1 5:14 4:4
2:0 3:3 5:13 4:1 5:2 1:4 2:1 3:1 5:14 4:4 1:4
3:0 5:13 4:1 5:2 1:4 2:1 3:1 5:14 4:4 1:4 3:2
5:0 4:1 5:2 1:4 2:1 3:1 5:14 4:4 1:4 3:2 2:1
4:0 5:2 1:4 2:1 3:1 5:14 4:4 1:4 3:2 2:1 3:3
5:0 1:4 2:1 3:1 5:14 4:4 1:4 3:2 2:1 3:3 2:2
1:0 2:1 3:1 5:14 4:4 1:4 3:2 2:1 3:3 2:2 3:8
2:0 3:1 5:14 4:4 1:4 3:2 2:1 3:3 2:2 3:8 2:5
3:0 5:14 4:4 1:4 3:2 2:1 3:3 2:2 3:8 2:5 3:4
5:0 4:4 1:4 3:2 2:1 3:3 2:2 3:8 2:5 3:4 5:3
4:0 1:4 3:2 2:1 3:3 2:2 3:8 2:5 3:4 5:3 1:8
1:0 3:2 2:1 3:3 2:2 3:8 2:5 3:4 5:3 1:8 2:12
3:0 2:1 3:3 2:2 3:8 2:5 3:4 5:3 1:8 2:12 3:1
2:0 3:3 2:2 3:8 2:5 3:4 5:3 1:8 2:12 3:1 2:1
3:0 2:2 3:8 2:5 3:4 5:3 1:8 2:12 3:1 2:1 3:1
2:0 3:8 2:5 3:4 5:3 1:8 2:12 3:1 2:1 3:1 5:4
3:0 2:5 3:4 5:3 1:8 2:12 3:1 2:1 3:1 5:4 4:1
2:0 3:4 5:3 1:8 2:12 3:1 2:1 3:1 5:4 4:1 5:1
3:0 5:3 1:8 2:12 3:1 2:1 3:1 5:4 4:1 5:1 4:1
5:0 1:8 2:12 3:1 2:1 3:1 5:4 4:1 5:1 4:1 5:1
1:0 2:12 3:1 2:1 3:1 5:4 4:1 5:1 4:1 5:1 1:4
2:0 3:1 2:1 3:1 5:4 4:1 5:1 4:1 5:1 1:4 3:10
3:0 2:1 3:1 5:4 4:1 5:1 4:1 5:1 1:4 3:10 5:5
2:0 3:1 5:4 4:1 5:1 4:1 5:1 1:4 3:10 5:5 4:4
3:0 5:4 4:1 5:1 4:1 5:1 1:4 3:10 5:5 4:4 1:3
5:0 4:1 5:1 4:1 5:1 1:4 3:10 5:5 4:4 1:3 3:4
4:0 5:1 4:1 5:1 1:4 3:10 5:5 4:4 1:3 3:4 1:1
5:0 4:1 5:1 1:4 3:10 5:5 4:4 1:3 3:4 1:1 2:7
4:0 5:1 1:4 3:10 5:5 4:4 1:3 3:4 1:1 2:7 3:1
5:0 1:4 3:10 5:5 4:4 1:3 3:4 1:1 2:7 3:1 5:15
1:0 3:10 5:5 4:4 1:3 3:4 1:1 2:7 3:1 5:15 4:1
3:0 5:5 4:4 1:3 3:4 1:1 2:7 3:1 5:15 4:1 5:4
5:0 4:4 1:3 3:4 1:1 2:7 3:1 5:15 4:1 5:4 1:3
4:0 1:3 3:4 1:1 2:7 3:1 5:15 4:1 5:4 1:3 3:1
1:0 3:4 1:1 2:7 3:1 5:15 4:1 5:4 1:3 3:1 5:13
3:0 1:1 2:7 3:1 5:15 4:1 5:4 1:3 3:1 5:13 4:4
1:0 2:7 3:1 5:15 4:1 5:4 1:3 3:1 5:13 4:4 1:5
2:0 3:1 5:15 4:1 5:4 1:3 3:1 5:13 4:4 1:5 3:3
3:0 5:15 4:1 5:4 1:3 3:1 5:13 4:4 1:5 3:3 2:2
5:0 4:1 5:4 1:3 3:1 5:13 4:4 1:5 3:3 2:2 1:4
4:0 5:4 1:3 3:1 5:13 4:4 1:5 3:3 2:2 1:4 2:1
5:0 1:3 3:1 5:13 4:4 1:5 3:3 2:2 1:4 2:1 3:4
1:0 3:1 5:13 4:4 1:5 3:3 2:2 1:4 2:1 3:4 2:6
3:0 5:13 4:4 1:5 3:3 2:2 1:4 2:1 3:4 2:6 3:5
5:0 4:4 1:5 3:3 2:2 1:4 2:1 3:4 2:6 3:5 5:3
4:0 1:5 3:3 2:2 1:4 2:1 3:4 2:6 3:5 5:3 4:7
1:0 3:3 2:2 1:4 2:1 3:4 2:6 3:5 5:3 4:7 1:1
3:0 2:2 1:4 2:1 3:4 2:6 3:5 5:3 4:7 1:1 2:12
2:0 1:4 2:1 3:4 2:6 3:5 5:3 4:7 1:1 2:12 3:1
1:0 2:1 3:4 2:6 3:5 5:3 4:7 1:1 2:12 3:1 2:1
2:0 3:4 2:6 3:5 5:3 4:7 1:1 2:12 3:1 2:1 3:1
3:0 2:6 3:5 5:3 4:7 1:1 2:12 3:1 2:1 3:1 5:13
2:0 3:5 5:3 4:7 1:1 2:12 3:1 2:1 3:1 5:13 4:3
3:0 5:3 4:7 1:1 2:12 3:1 2:1 3:1 5:13 4:3 5:1
5:0 4:7 1:1 2:12 3:1 2:1 3:1 5:13 4:3 5:1 1:3
4:0 1:1 2:12 3:1 2:1 3:1 5:13 4:3 5:1 1:3 2:2
1:0 2:12 3:1 2:1 3:1 5:13 4:3 5:1 1:3 2:2 3:1
2:0 3:1 2:1 3:1 5:13 4:3 5:1 1:3 2:2 3:1 2:3
3:0 2:1 3:1 5:13 4:3 5:1 1:3 2:2 3:1 2:3 3:1
2:0 3:1 5:13 4:3 5:1 1:3 2:2 3:1 2:3 3:1 2:4
3:0 5:13 4:3 5:1 1:3 2:2 3:1 2:3 3:1 2:4 1:5
5:0 4:3 5:1 1:3 2:2 3:1 2:3 3:1 2:4 1:5 2:1
4:0 5:1 1:3 2:2 3:1 2:3 3:1 2:4 1:5 2:1 3:9
5:0 1:3 2:2 3:1 2:3 3:1 2:4 1:5 2:1 3:9 5:4
1:0 2:2 3:1 2:3 3:1 2:4 1:5 2:1 3:9 5:4 4:1
2:0 3:1 2:3 3:1 2:4 1:5 2:1 3:9 5:4 4:1 5:1
3:0 2:3 3:1 2:4 1:5 2:1 3:9 5:4 4:1 5:1 1:6
2:0 3:1 2:4 1:5 2:1 3:9 5:4 4:1 5:1 1:6 2:2
3:0 2:4 1:5 2:1 3:9 5:4 4:1 5:1 1:6 2:2 3:10
2:0 1:5 2:1 3:9 5:4 4:1 5:1 1:6 2:2 3:10 5:4
1:0 2:1 3:9 5:4 4:1 5:1 1:6 2:2 3:10 5:4 4:2
2:0 3:9 5:4 4:1 5:1 1:6 2:2 3:10 5:4 4:2 1:6
3:0 5:4 4:1 5:1 1:6 2:2 3:10 5:4 4:2 1:6 3:2
5:0 4:1 5:1 1:6 2:2 3:10 5:4 4:2 1:6 3:2 1:1
4:0 5:1 1:6 2:2 3:10 5:4 4:2 1:6 3:2 1:1 2:9
5:0 1:6 2:2 3:10 5:4 4:2 1:6 3:2 1:1 2:9 3:1
1:0 2:2 3:10 5:4 4:2 1:6 3:2 1:1 2:9 3:1 4:15
2:0 3:10 5:4 4:2 1:6 3:2 1:1 2:9 3:1 4:15 5:1
3:0 5:4 4:2 1:6 3:2 1:1 2:9 3:1 4:15 5:1 1:6
5:0 4:2 1:6 3:2 1:1 2:9 3:1 4:15 5:1 1:6 2:1
4:0 1:6 3:2 1:1 2:9 3:1 4:15 5:1 1:6 2:1 3:1
1:0 3:2 1:1 2:9 3:1 4:15 5:1 1:6 2:1 3:1 2:2
3:0 1:1 2:9 3:1 4:15 5:1 1:6 2:1 3:1 2:2 3:13
1:0 2:9 3:1 4:15 5:1 1:6 2:1 3:1 2:2 3:13 2:2
2:0 3:1 4:15 5:1 1:6 2:1 3:1 2:2 3:13 2:2 3:4
3:0 4:15 5:1 1:6 2:1 3:1 2:2 3:13 2:2 3:4 5:4
4:0 5:1 1:6 2:1 3:1 2:2 3:13 2:2 3:4 5:4 1:9
5:0 1:6 2:1 3:1 2:2 3:13 2:2 3:4 5:4 1:9 2:2
1:0 2:1 3:1 2:2 3:13 2:2 3:4 5:4 1:9 2:2 3:1
2:0 3:1 2:2 3:13 2:2 3:4 5:4 1:9 2:2 3:1 2:2
3:0 2:2 3:13 2:2 3:4 5:4 1:9 2:2 3:1 2:2 3:1
2:0 3:13 2:2 3:4 5:4 1:9 2:2 3:1 2:2 3:1 2:1
3:0 2:2 3:4 5:4 1:9 2:2 3:1 2:2 3:1 2:1 3:6
2:0 3:4 5:4 1:9 2:2 3:1 2:2 3:1 2:1 3:6 5:3
3:0 5:4 1:9 2:2 3:1 2:2 3:1 2:1 3:6 5:3 4:2
5:0 1:9 2:2 3:1 2:2 3:1 2:1 3:6 5:3 4:2 1:6
1:0 2:2 3:1 2:2 3:1 2:1 3:6 5:3 4:2 1:6 2:12
2:0 3:1 2:2 3:1 2:1 3:6 5:3 4:2 1:6 2:12 3:1
3:0 2:2 3:1 2:1 3:6 5:3 4:2 1:6 2:12 3:1 5:5
2:0 3:1 2:1 3:6 5:3 4:2 1:6 2:12 3:1 5:5 1:7
3:0 2:1 3:6 5:3 4:2 1:6 2:12 3:1 5:5 1:7 2:4
2:0 3:6 5:3 4:2 1:6 2:12 3:1 5:5 1:7 2:4 3:8
3:0 5:3 4:2 1:6 2:12 3:1 5:5 1:7 2:4 3:8 5:5
5:0 4:2 1:6 2:12 3:1 5:5 1:7 2:4 3:8 5:5 4:4
4:0 1:6 2:12 3:1 5:5 1:7 2:4 3:8 5:5 4:4 1:3
1:0 2:12 3:1 5:5 1:7 2:4 3:8 5:5 4:4 1:3 3:4
2:0 3:1 5:5 1:7 2:4 3:8 5:5 4:4 1:3 3:4 1:1
3:0 5:5 1:7 2:4 3:8 5:5 4:4 1:3 3:4 1:1 2:7
5:0 1:7 2:4 3:8 5:5 4:4 1:3 3:4 1:1 2:7 3:1
1:0 2:4 3:8 5:5 4:4 1:3 3:4 1:1 2:7 3:1 4:7
2:0 3:8 5:5 4:4 1:3 3:4 1:1 2:7 3:1 4:7 5:2
3:0 5:5 4:4 1:3 3:4 1:1 2:7 3:1 4:7 5:2 1:4
5:0 4:4 1:3 3:4 1:1 2:7 3:1 4:7 5:2 1:4 2:1
4:0 1:3 3:4 1:1 2:7 3:1 4:7 5:2 1:4 2:1 3:1
1:0 3:4 1:1 2:7 3:1 4:7 5:2 1:4 2:1 3:1 2:1
3:0 1:1 2:7 3:1 4:7 5:2 1:4 2:1 3:1 2:1 3:8
1:0 2:7 3:1 4:7 5:2 1:4 2:1 3:1 2:1 3:8 5:3
2:0 3:1 4:7 5:2 1:4 2:1 3:1 2:1 3:8 5:3 4:3
3:0 4:7 5:2 1:4 2:1 3:1 2:1 3:8 5:3 4:3 1:5
4:0 5:2 1:4 2:1 3:1 2:1 3:8 5:3 4:3 1:5 3:12
5:0 1:4 2:1 3:1 2:1 3:8 5:3 4:3 1:5 3:12 2:1
1:0 2:1 3:1 2:1 3:8 5:3 4:3 1:5 3:12 2:1 3:1
2:0 3:1 2:1 3:8 5:3 4:3 1:5 3:12 2:1 3:1 5:11
3:0 2:1 3:8 5:3 4:3 1:5 3:12 2:1 3:1 5:11 1:8
2:0 3:8 5:3 4:3 1:5 3:12 2:1 3:1 5:11 1:8 2:3
3:0 5:3 4:3 1:5 3:12 2:1 3:1 5:11 1:8 2:3 3:1
5:0 4:3 1:5 3:12 2:1 3:1 5:11 1:8 2:3 3:1 2:9
4:0 1:5 3:12 2:1 3:1 5:11 1:8 2:3 3:1 2:9 3:7
1:0 3:12 2:1 3:1 5:11 1:8 2:3 3:1 2:9 3:7 2:2
3:0 2:1 3:1 5:11 1:8 2:3 3:1 2:9 3:7 2:2 3:5
2:0 3:1 5:11 1:8 2:3 3:1 2:9 3:7 2:2 3:5 5:3
3:0 5:11 1:8 2:3 3:1 2:9 3:7 2:2 3:5 5:3 4:3
5:0 1:8 2:3 3:1 2:9 3:7 2:2 3:5 5:3 4:3 5:1
1:0 2:3 3:1 2:9 3:7 2:2 3:5 5:3 4:3 5:1 1:5
2:0 3:1 2:9 3:7 2:2 3:5 5:3 4:3 5:1 1:5 2:1
3:0 2:9 3:7 2:2 3:5 5:3 4:3 5:1 1:5 2:1 3:4
2:0 3:7 2:2 3:5 5:3 4:3 5:1 1:5 2:1 3:4 2:1
3:0 2:2 3:5 5:3 4:3 5:1 1:5 2:1 3:4 2:1 3:6
2:0 3:5 5:3 4:3 5:1 1:5 2:1 3:4 2:1 3:6 5:2
3:0 5:3 4:3 5:1 1:5 2:1 3:4 2:1 3:6 5:2 4:2
5:0 4:3 5:1 1:5 2:1 3:4 2:1 3:6 5:2 4:2 1:8
4:0 5:1 1:5 2:1 3:4 2:1 3:6 5:2 4:2 1:8 3:12
5:0 1:5 2:1 3:4 2:1 3:6 5:2 4:2 1:8 3:12 2:2
1:0 2:1 3:4 2:1 3:6 5:2 4:2 1:8 3:12 2:2 3:1
2:0 3:4 2:1 3:6 5:2 4:2 1:8 3:12 2:2 3:1 2:9
3:0 2:1 3:6 5:2 4:2 1:8 3:12 2:2 3:1 2:9 3:1
2:0 3:6 5:2 4:2 1:8 3:12 2:2 3:1 2:9 3:1 5:3
3:0 5:2 4:2 1:8 3:12 2:2 3:1 2:9 3:1 5:3 4:3
5:0 4:2 1:8 3:12 2:2 3:1 2:9 3:1 5:3 4:3 5:1
4:0 1:8 3:12 2:2 3:1 2:9 3:1 5:3 4:3 5:1 1:3
1:0 3:12 2:2 3:1 2:9 3:1 5:3 4:3 5:1 1:3 2:1
3:0 2:2 3:1 2:9 3:1 5:3 4:3 5:1 1:3 2:1 3:1
2:0 3:1 2:9 3:1 5:3 4:3 5:1 1:3 2:1 3:1 2:7
3:0 2:9 3:1 5:3 4:3 5:1 1:3 2:1 3:1 2:7 3:4
2:0 3:1 5:3 4:3 5:1 1:3 2:1 3:1 2:7 3:4 2:1
3:0 5:3 4:3 5:1 1:3 2:1 3:1 2:7 3:4 2:1 3:1
5:0 4:3 5:1 1:3 2:1 3:1 2:7 3:4 2:1 3:1 2:1
4:0 5:1 1:3 2:1 3:1 2:7 3:4 2:1 3:1 2:1 3:1
5:0 1:3 2:1 3:1 2:7 3:4 2:1 3:1 2:1 3:1 2:3
1:0 2:1 3:1 2:7 3:4 2:1 3:1 2:1 3:1 2:3 3:5
2:0 3:1 2:7 3:4 2:1 3:1 2:1 3:1 2:3 3:5 5:3
3:0 2:7 3:4 2:1 3:1 2:1 3:1 2:3 3:5 5:3 4:2
2:0 3:4 2:1 3:1 2:1 3:1 2:3 3:5 5:3 4:2 5:1
3:0 2:1 3:1 2:1 3:1 2:3 3:5 5:3 4:2 5:1 1:5
2:0 3:1 2:1 3:1 2:3 3:5 5:3 4:2 5:1 1:5 2:3
3:0 2:1 3:1 2:3 3:5 5:3 4:2 5:1 1:5 2:3 3:9
2:0 3:1 2:3 3:5 5:3 4:2 5:1 1:5 2:3 3:9 5:5
3:0 2:3 3:5 5:3 4:2 5:1 1:5 2:3 3:9 5:5 4:2
2:0 3:5 5:3 4:2 5:1 1:5 2:3 3:9 5:5 4:2 1:7
3:0 5:3 4:2 5:1 1:5 2:3 3:9 5:5 4:2 1:7 3:11
5:0 4:2 5:1 1:5 2:3 3:9 5:5 4:2 1:7 3:11 2:1
4:0 5:1 1:5 2:3 3:9 5:5 4:2 1:7 3:11 2:1 3:1
5:0 1:5 2:3 3:9 5:5 4:2 1:7 3:11 2:1 3:1 5:12
1:0 2:3 3:9 5:5 4:2 1:7 3:11 2:1 3:1 5:12 1:7
2:0 3:9 5:5 4:2 1:7 3:11 2:1 3:1 5:12 1:7 2:2
3:0 5:5 4:2 1:7 3:11 2:1 3:1 5:12 1:7 2:2 3:1
5:0 4:2 1:7 3:11 2:1 3:1 5:12 1:7 2:2 3:1 2:1
4:0 1:7 3:11 2:1 3:1 5:12 1:7 2:2 3:1 2:1 3:1
1:0 3:11 2:1 3:1 5:12 1:7 2:2 3:1 2:1 3:1 5:11
3:0 2:1 3:1 5:12 1:7 2:2 3:1 2:1 3:1 5:11 4:2
2:0 3:1 5:12 1:7 2:2 3:1 2:1 3:1 5:11 4:2 1:6
3:0 5:12 1:7 2:2 3:1 2:1 3:1 5:11 4:2 1:6 3:4
5:0 1:7 2:2 3:1 2:1 3:1 5:11 4:2 1:6 3:4 2:2
1:0 2:2 3:1 2:1 3:1 5:11 4:2 1:6 3:4 2:2 3:2
2:0 3:1 2:1 3:1 5:11 4:2 1:6 3:4 2:2 3:2 2:1
3:0 2:1 3:1 5:11 4:2 1:6 3:4 2:2 3:2 2:1 3:19
2:0 3:1 5:11 4:2 1:6 3:4 2:2 3:2 2:1 3:19 5:3
3:0 5:11 4:2 1:6 3:4 2:2 3:2 2:1 3:19 5:3 4:2
5:0 4:2 1:6 3:4 2:2 3:2 2:1 3:19 5:3 4:2 5:1
4:0 1:6 3:4 2:2 3:2 2:1 3:19 5:3 4:2 5:1 1:5
1:0 3:4 2:2 3:2 2:1 3:19 5:3 4:2 5:1 1:5 2:1
3:0 2:2 3:2 2:1 3:19 5:3 4:2 5:1 1:5 2:1 3:10
2:0 3:2 2:1 3:19 5:3 4:2 5:1 1:5 2:1 3:10 5:4
3:0 2:1 3:19 5:3 4:2 5:1 1:5 2:1 3:10 5:4 4:4
2:0 3:19 5:3 4:2 5:1 1:5 2:1 3:10 5:4 4:4 1:5
3:0 5:3 4:2 5:1 1:5 2:1 3:10 5:4 4:4 1:5 2:11
5:0 4:2 5:1 1:5 2:1 3:10 5:4 4:4 1:5 2:11 3:1
4:0 5:1 1:5 2:1 3:10 5:4 4:4 1:5 2:11 3:1 4:7
5:0 1:5 2:1 3:10 5:4 4:4 1:5 2:11 3:1 4:7 5:1
1:0 2:1 3:10 5:4 4:4 1:5 2:11 3:1 4:7 5:1 1:5
2:0 3:10 5:4 4:4 1:5 2:11 3:1 4:7 5:1 1:5 2:1
3:0 5:4 4:4 1:5 2:11 3:1 4:7 5:1 1:5 2:1 3:10
5:0 4:4 1:5 2:11 3:1 4:7 5:1 1:5 2:1 3:10 5:3
4:0 1:5 2:11 3:1 4:7 5:1 1:5 2:1 3:10 5:3 4:5
1:0 2:11 3:1 4:7 5:1 1:5 2:1 3:10 5:3 4:5 1:4
2:0 3:1 4:7 5:1 1:5 2:1 3:10 5:3 4:5 1:4 2:4
3:0 4:7 5:1 1:5 2:1 3:10 5:3 4:5 1:4 2:4 1:1
4:0 5:1 1:5 2:1 3:10 5:3 4:5 1:4 2:4 1:1 2:7
5:0 1:5 2:1 3:10 5:3 4:5 1:4 2:4 1:1 2:7 3:2
1:0 2:1 3:10 5:3 4:5 1:4 2:4 1:1 2:7 3:2 5:12
2:0 3:10 5:3 4:5 1:4 2:4 1:1 2:7 3:2 5:12 1:8
3:0 5:3 4:5 1:4 2:4 1:1 2:7 3:2 5:12 1:8 3:2
5:0 4:5 1:4 2:4 1:1 2:7 3:2 5:12 1:8 3:2 2:8
4:0 1:4 2:4 1:1 2:7 3:2 5:12 1:8 3:2 2:8 3:6
1:0 2:4 1:1 2:7 3:2 5:12 1:8 3:2 2:8 3:6 2:5
2:0 1:1 2:7 3:2 5:12 1:8 3:2 2:8 3:6 2:5 3:4
1:0 2:7 3:2 5:12 1:8 3:2 2:8 3:6 2:5 3:4 5:3
2:0 3:2 5:12 1:8 3:2 2:8 3:6 2:5 3:4 5:3 4:9
3:0 5:12 1:8 3:2 2:8 3:6 2:5 3:4 5:3 4:9 1:1
5:0 1:8 3:2 2:8 3:6 2:5 3:4 5:3 4:9 1:1 3:13
1:0 3:2 2:8 3:6 2:5 3:4 5:3 4:9 1:1 3:13 5:14
3:0 2:8 3:6 2:5 3:4 5:3 4:9 1:1 3:13 5:14 4:2
2:0 3:6 2:5 3:4 5:3 4:9 1:1 3:13 5:14 4:2 5:2
3:0 2:5 3:4 5:3 4:9 1:1 3:13 5:14 4:2 5:2 1:4
2:0 3:4 5:3 4:9 1:1 3:13 5:14 4:2 5:2 1:4 2:1
3:0 5:3 4:9 1:1 3:13 5:14 4:2 5:2 1:4 2:1 3:1
5:0 4:9 1:1 3:13 5:14 4:2 5:2 1:4 2:1 3:1 5:8
4:0 1:1 3:13 5:14 4:2 5:2 1:4 2:1 3:1 5:8 4:3
1:0 3:13 5:14 4:2 5:2 1:4 2:1 3:1 5:8 4:3 5:3
3:0 5:14 4:2 5:2 1:4 2:1 3:1 5:8 4:3 5:3 4:1
5:0 4:2 5:2 1:4 2:1 3:1 5:8 4:3 5:3 4:1 1:1
4:0 5:2 1:4 2:1 3:1 5:8 4:3 5:3 4:1 1:1 3:8
5:0 1:4 2:1 3:1 5:8 4:3 5:3 4:1 1:1 3:8 2:2
1:0 2:1 3:1 5:8 4:3 5:3 4:1 1:1 3:8 2:2 3:6
2:0 3:1 5:8 4:3 5:3 4:1 1:1 3:8 2:2 3:6 2:1
3:0 5:8 4:3 5:3 4:1 1:1 3:8 2:2 3:6 2:1 3:5
5:0 4:3 5:3 4:1 1:1 3:8 2:2 3:6 2:1 3:5 2:4
4:0 5:3 4:1 1:1 3:8 2:2 3:6 2:1 3:5 2:4 3:3
5:0 4:1 1:1 3:8 2:2 3:6 2:1 3:5 2:4 3:3 5:4
4:0 1:1 3:8 2:2 3:6 2:1 3:5 2:4 3:3 5:4 1:9
1:0 3:8 2:2 3:6 2:1 3:5 2:4 3:3 5:4 1:9 2:4
3:0 2:2 3:6 2:1 3:5 2:4 3:3 5:4 1:9 2:4 1:1
2:0 3:6 2:1 3:5 2:4 3:3 5:4 1:9 2:4 1:1 3:8
3:0 2:1 3:5 2:4 3:3 5:4 1:9 2:4 1:1 3:8 4:7
2:0 3:5 2:4 3:3 5:4 1:9 2:4 1:1 3:8 4:7 5:1
3:0 2:4 3:3 5:4 1:9 2:4 1:1 3:8 4:7 5:1 4:2
2:0 3:3 5:4 1:9 2:4 1:1 3:8 4:7 5:1 4:2 5:1
3:0 5:4 1:9 2:4 1:1 3:8 4:7 5:1 4:2 5:1 1:2
5:0 1:9 2:4 1:1 3:8 4:7 5:1 4:2 5:1 1:2 2:1
1:0 2:4 1:1 3:8 4:7 5:1 4:2 5:1 1:2 2:1 3:9
2:0 1:1 3:8 4:7 5:1 4:2 5:1 1:2 2:1 3:9 5:5
1:0 3:8 4:7 5:1 4:2 5:1 1:2 2:1 3:9 5:5 4:3
3:0 4:7 5:1 4:2 5:1 1:2 2:1 3:9 5:5 4:3 1:5
4:0 5:1 4:2 5:1 1:2 2:1 3:9 5:5 4:3 1:5 3:2
5:0 4:2 5:1 1:2 2:1 3:9 5:5 4:3 1:5 3:2 1:1
4:0 5:1 1:2 2:1 3:9 5:5 4:3 1:5 3:2 1:1 3:10
5:0 1:2 2:1 3:9 5:5 4:3 1:5 3:2 1:1 3:10 5:5
1:0 2:1 3:9 5:5 4:3 1:5 3:2 1:1 3:10 5:5 1:7
2:0 3:9 5:5 4:3 1:5 3:2 1:1 3:10 5:5 1:7 2:4
3:0 5:5 4:3 1:5 3:2 1:1 3:10 5:5 1:7 2:4 1:1
5:0 4:3 1:5 3:2 1:1 3:10 5:5 1:7 2:4 1:1 2:5
4:0 1:5 3:2 1:1 3:10 5:5 1:7 2:4 1:1 2:5 3:2
1:0 3:2 1:1 3:10 5:5 1:7 2:4 1:1 2:5 3:2 5:5
3:0 1:1 3:10 5:5 1:7 2:4 1:1 2:5 3:2 5:5 4:4
1:0 3:10 5:5 1:7 2:4 1:1 2:5 3:2 5:5 4:4 1:3
3:0 5:5 1:7 2:4 1:1 2:5 3:2 5:5 4:4 1:3 2:10
5:0 1:7 2:4 1:1 2:5 3:2 5:5 4:4 1:3 2:10 3:4
1:0 2:4 1:1 2:5 3:2 5:5 4:4 1:3 2:10 3:4 5:5
2:0 1:1 2:5 3:2 5:5 4:4 1:3 2:10 3:4 5:5 1:6
1:0 2:5 3:2 5:5 4:4 1:3 2:10 3:4 5:5 1:6 2:1
2:0 3:2 5:5 4:4 1:3 2:10 3:4 5:5 1:6 2:1 1:1
3:0 5:5 4:4 1:3 2:10 3:4 5:5 1:6 2:1 1:1 2:1
5:0 4:4 1:3 2:10 3:4 5:5 1:6 2:1 1:1 2:1 3:2
4:0 1:3 2:10 3:4 5:5 1:6 2:1 1:1 2:1 3:2 2:1
1:0 2:10 3:4 5:5 1:6 2:1 1:1 2:1 3:2 2:1 3:4
2:0 3:4 5:5 1:6 2:1 1:1 2:1 3:2 2:1 3:4 5:4
3:0 5:5 1:6 2:1 1:1 2:1 3:2 2:1 3:4 5:4 4:2
5:0 1:6 2:1 1:1 2:1 3:2 2:1 3:4 5:4 4:2 1:6
1:0 2:1 1:1 2:1 3:2 2:1 3:4 5:4 4:2 1:6 3:12
2:0 1:1 2:1 3:2 2:1 3:4 5:4 4:2 1:6 3:12 4:16
1:0 2:1 3:2 2:1 3:4 5:4 4:2 1:6 3:12 4:16 5:3
2:0 3:2 2:1 3:4 5:4 4:2 1:6 3:12 4:16 5:3 1:4
3:0 2:1 3:4 5:4 4:2 1:6 3:12 4:16 5:3 1:4 2:1
2:0 3:4 5:4 4:2 1:6 3:12 4:16 5:3 1:4 2:1 3:1
3:0 5:4 4:2 1:6 3:12 4:16 5:3 1:4 2:1 3:1 5:12
5:0 4:2 1:6 3:12 4:16 5:3 1:4 2:1 3:1 5:12 4:3
4:0 1:6 3:12 4:16 5:3 1:4 2:1 3:1 5:12 4:3 1:5
1:0 3:12 4:16 5:3 1:4 2:1 3:1 5:12 4:3 1:5 3:3
3:0 4:16 5:3 1:4 2:1 3:1 5:12 4:3 1:5 3:3 2:2
4:0 5:3 1:4 2:1 3:1 5:12 4:3 1:5 3:3 2:2 3:3
5:0 1:4 2:1 3:1 5:12 4:3 1:5 3:3 2:2 3:3 2:1
1:0 2:1 3:1 5:12 4:3 1:5 3:3 2:2 3:3 2:1 3:8
2:0 3:1 5:12 4:3 1:5 3:3 2:2 3:3 2:1 3:8 2:5
3:0 5:12 4:3 1:5 3:3 2:2 3:3 2:1 3:8 2:5 3:4
5:0 4:3 1:5 3:3 2:2 3:3 2:1 3:8 2:5 3:4 5:3
4:0 1:5 3:3 2:2 3:3 2:1 3:8 2:5 3:4 5:3 4:7
1:0 3:3 2:2 3:3 2:1 3:8 2:5 3:4 5:3 4:7 1:3
3:0 2:2 3:3 2:1 3:8 2:5 3:4 5:3 4:7 1:3 2:11
2:0 3:3 2:1 3:8 2:5 3:4 5:3 4:7 1:3 2:11 3:3
3:0 2:1 3:8 2:5 3:4 5:3 4:7 1:3 2:11 3:3 4:13
2:0 3:8 2:5 3:4 5:3 4:7 1:3 2:11 3:3 4:13 5:1
3:0 2:5 3:4 5:3 4:7 1:3 2:11 3:3 4:13 5:1 4:1
2:0 3:4 5:3 4:7 1:3 2:11 3:3 4:13 5:1 4:1 5:1
3:0 5:3 4:7 1:3 2:11 3:3 4:13 5:1 4:1 5:1 4:1
5:0 4:7 1:3 2:11 3:3 4:13 5:1 4:1 5:1 4:1 5:1
4:0 1:3 2:11 3:3 4:13 5:1 4:1 5:1 4:1 5:1 1:3
1:0 2:11 3:3 4:13 5:1 4:1 5:1 4:1 5:1 1:3 2:1
2:0 3:3 4:13 5:1 4:1 5:1 4:1 5:1 1:3 2:1 3:1
3:0 4:13 5:1 4:1 5:1 4:1 5:1 1:3 2:1 3:1 5:12
4:0 5:1 4:1 5:1 4:1 5:1 1:3 2:1 3:1 5:12 4:3
5:0 4:1 5:1 4:1 5:1 1:3 2:1 3:1 5:12 4:3 1:5
4:0 5:1 4:1 5:1 1:3 2:1 3:1 5:12 4:3 1:5 3:4
5:0 4:1 5:1 1:3 2:1 3:1 5:12 4:3 1:5 3:4 2:2
4:0 5:1 1:3 2:1 3:1 5:12 4:3 1:5 3:4 2:2 3:11
5:0 1:3 2:1 3:1 5:12 4:3 1:5 3:4 2:2 3:11 2:5
1:0 2:1 3:1 5:12 4:3 1:5 3:4 2:2 3:11 2:5 3:5
2:0 3:1 5:12 4:3 1:5 3:4 2:2 3:11 2:5 3:5 5:3
3:0 5:12 4:3 1:5 3:4 2:2 3:11 2:5 3:5 5:3 4:3
5:0 4:3 1:5 3:4 2:2 3:11 2:5 3:5 5:3 4:3 5:1
4:0 1:5 3:4 2:2 3:11 2:5 3:5 5:3 4:3 5:1 1:5
1:0 3:4 2:2 3:11 2:5 3:5 5:3 4:3 5:1 1:5 2:1
3:0 2:2 3:11 2:5 3:5 5:3 4:3 5:1 1:5 2:1 3:11
2:0 3:11 2:5 3:5 5:3 4:3 5:1 1:5 2:1 3:11 5:3
3:0 2:5 3:5 5:3 4:3 5:1 1:5 2:1 3:11 5:3 4:3
2:0 3:5 5:3 4:3 5:1 1:5 2:1 3:11 5:3 4:3 1:6
3:0 5:3 4:3 5:1 1:5 2:1 3:11 5:3 4:3 1:6 2:5
5:0 4:3 5:1 1:5 2:1 3:11 5:3 4:3 1:6 2:5 1:1
4:0 5:1 1:5 2:1 3:11 5:3 4:3 1:6 2:5 1:1 2:6
5:0 1:5 2:1 3:11 5:3 4:3 1:6 2:5 1:1 2:6 3:1
1:0 2:1 3:11 5:3 4:3 1:6 2:5 1:1 2:6 3:1 5:5
2:0 3:11 5:3 4:3 1:6 2:5 1:1 2:6 3:1 5:5 4:1
3:0 5:3 4:3 1:6 2:5 1:1 2:6 3:1 5:5 4:1 5:1
5:0 4:3 1:6 2:5 1:1 2:6 3:1 5:5 4:1 5:1 1:5
4:0 1:6 2:5 1:1 2:6 3:1 5:5 4:1 5:1 1:5 2:1
1:0 2:5 1:1 2:6 3:1 5:5 4:1 5:1 1:5 2:1 3:10
2:0 1:1 2:6 3:1 5:5 4:1 5:1 1:5 2:1 3:10 5:3
1:0 2:6 3:1 5:5 4:1 5:1 1:5 2:1 3:10 5:3 4:3
2:0 3:1 5:5 4:1 5:1 1:5 2:1 3:10 5:3 4:3 1:6
3:0 5:5 4:1 5:1 1:5 2:1 3:10 5:3 4:3 1:6 2:12
5:0 4:1 5:1 1:5 2:1 3:10 5:3 4:3 1:6 2:12 3:1
4:0 5:1 1:5 2:1 3:10 5:3 4:3 1:6 2:12 3:1 4:15
5:0 1:5 2:1 3:10 5:3 4:3 1:6 2:12 3:1 4:15 5:3
1:0 2:1 3:10 5:3 4:3 1:6 2:12 3:1 4:15 5:3 2:5
2:0 3:10 5:3 4:3 1:6 2:12 3:1 4:15 5:3 2:5 3:1
3:0 5:3 4:3 1:6 2:12 3:1 4:15 5:3 2:5 3:1 5:12
5:0 4:3 1:6 2:12 3:1 4:15 5:3 2:5 3:1 5:12 4:2
4:0 1:6 2:12 3:1 4:15 5:3 2:5 3:1 5:12 4:2 1:6
1:0 2:12 3:1 4:15 5:3 2:5 3:1 5:12 4:2 1:6 3:3
2:0 3:1 4:15 5:3 2:5 3:1 5:12 4:2 1:6 3:3 2:2
3:0 4:15 5:3 2:5 3:1 5:12 4:2 1:6 3:3 2:2 3:2
4:0 5:3 2:5 3:1 5:12 4:2 1:6 3:3 2:2 3:2 2:1
5:0 2:5 3:1 5:12 4:2 1:6 3:3 2:2 3:2 2:1 3:7
2:0 3:1 5:12 4:2 1:6 3:3 2:2 3:2 2:1 3:7 2:7
3:0 5:12 4:2 1:6 3:3 2:2 3:2 2:1 3:7 2:7 3:4
5:0 4:2 1:6 3:3 2:2 3:2 2:1 3:7 2:7 3:4 5:3
4:0 1:6 3:3 2:2 3:2 2:1 3:7 2:7 3:4 5:3 4:8
1:0 3:3 2:2 3:2 2:1 3:7 2:7 3:4 5:3 4:8 1:1
3:0 2:2 3:2 2:1 3:7 2:7 3:4 5:3 4:8 1:1 2:6
2:0 3:2 2:1 3:7 2:7 3:4 5:3 4:8 1:1 2:6 1:1
3:0 2:1 3:7 2:7 3:4 5:3 4:8 1:1 2:6 1:1 2:6
2:0 3:7 2:7 3:4 5:3 4:8 1:1 2:6 1:1 2:6 3:2
3:0 2:7 3:4 5:3 4:8 1:1 2:6 1:1 2:6 3:2 4:5
2:0 3:4 5:3 4:8 1:1 2:6 1:1 2:6 3:2 4:5 5:5
3:0 5:3 4:8 1:1 2:6 1:1 2:6 3:2 4:5 5:5 1:1
5:0 4:8 1:1 2:6 1:1 2:6 3:2 4:5 5:5 1:1 2:1
4:0 1:1 2:6 1:1 2:6 3:2 4:5 5:5 1:1 2:1 3:2
1:0 2:6 1:1 2:6 3:2 4:5 5:5 1:1 2:1 3:2 2:1
2:0 1:1 2:6 3:2 4:5 5:5 1:1 2:1 3:2 2:1 3:7
1:0 2:6 3:2 4:5 5:5 1:1 2:1 3:2 2:1 3:7 5:4
2:0 3:2 4:5 5:5 1:1 2:1 3:2 2:1 3:7 5:4 4:5
3:0 4:5 5:5 1:1 2:1 3:2 2:1 3:7 5:4 4:5 1:3
4:0 5:5 1:1 2:1 3:2 2:1 3:7 5:4 4:5 1:3 3:12
5:0 1:1 2:1 3:2 2:1 3:7 5:4 4:5 1:3 3:12 5:6
1:0 2:1 3:2 2:1 3:7 5:4 4:5 1:3 3:12 5:6 1:7
2:0 3:2 2:1 3:7 5:4 4:5 1:3 3:12 5:6 1:7 2:3
3:0 2:1 3:7 5:4 4:5 1:3 3:12 5:6 1:7 2:3 3:8
2:0 3:7 5:4 4:5 1:3 3:12 5:6 1:7 2:3 3:8 5:4
3:0 5:4 4:5 1:3 3:12 5:6 1:7 2:3 3:8 5:4 4:3
5:0 4:5 1:3 3:12 5:6 1:7 2:3 3:8 5:4 4:3 1:5
4:0 1:3 3:12 5:6 1:7 2:3 3:8 5:4 4:3 1:5 2:2
1:0 3:12 5:6 1:7 2:3 3:8 5:4 4:3 1:5 2:2 1:1
3:0 5:6 1:7 2:3 3:8 5:4 4:3 1:5 2:2 1:1 3:9
5:0 1:7 2:3 3:8 5:4 4:3 1:5 2:2 1:1 3:9 5:15
1:0 2:3 3:8 5:4 4:3 1:5 2:2 1:1 3:9 5:15 4:1
2:0 3:8 5:4 4:3 1:5 2:2 1:1 3:9 5:15 4:1 5:4
3:0 5:4 4:3 1:5 2:2 1:1 3:9 5:15 4:1 5:4 1:3
5:0 4:3 1:5 2:2 1:1 3:9 5:15 4:1 5:4 1:3 2:1
4:0 1:5 2:2 1:1 3:9 5:15 4:1 5:4 1:3 2:1 3:2
1:0 2:2 1:1 3:9 5:15 4:1 5:4 1:3 2:1 3:2 5:11
2:0 1:1 3:9 5:15 4:1 5:4 1:3 2:1 3:2 5:11 4:2
1:0 3:9 5:15 4:1 5:4 1:3 2:1 3:2 5:11 4:2 1:6
3:0 5:15 4:1 5:4 1:3 2:1 3:2 5:11 4:2 1:6 3:5
5:0 4:1 5:4 1:3 2:1 3:2 5:11 4:2 1:6 3:5 2:2
4:0 5:4 1:3 2:1 3:2 5:11 4:2 1:6 3:5 2:2 3:12
5:0 1:3 2:1 3:2 5:11 4:2 1:6 3:5 2:2 3:12 2:3
1:0 2:1 3:2 5:11 4:2 1:6 3:5 2:2 3:12 2:3 3:5
2:0 3:2 5:11 4:2 1:6 3:5 2:2 3:12 2:3 3:5 5:3
3:0 5:11 4:2 1:6 3:5 2:2 3:12 2:3 3:5 5:3 1:8
5:0 4:2 1:6 3:5 2:2 3:12 2:3 3:5 5:3 1:8 2:7
4:0 1:6 3:5 2:2 3:12 2:3 3:5 5:3 1:8 2:7 1:1
1:0 3:5 2:2 3:12 2:3 3:5 5:3 1:8 2:7 1:1 2:5
3:0 2:2 3:12 2:3 3:5 5:3 1:8 2:7 1:1 2:5 3:1
2:0 3:12 2:3 3:5 5:3 1:8 2:7 1:1 2:5 3:1 4:7
3:0 2:3 3:5 5:3 1:8 2:7 1:1 2:5 3:1 4:7 5:1
2:0 3:5 5:3 1:8 2:7 1:1 2:5 3:1 4:7 5:1 1:5
3:0 5:3 1:8 2:7 1:1 2:5 3:1 4:7 5:1 1:5 3:2
5:0 1:8 2:7 1:1 2:5 3:1 4:7 5:1 1:5 3:2 2:1
1:0 2:7 1:1 2:5 3:1 4:7 5:1 1:5 3:2 2:1 3:7
2:0 1:1 2:5 3:1 4:7 5:1 1:5 3:2 2:1 3:7 5:3
1:0 2:5 3:1 4:7 5:1 1:5 3:2 2:1 3:7 5:3 4:4
2:0 3:1 4:7 5:1 1:5 3:2 2:1 3:7 5:3 4:4 1:5
3:0 4:7 5:1 1:5 3:2 2:1 3:7 5:3 4:4 1:5 3:13
4:0 5:1 1:5 3:2 2:1 3:7 5:3 4:4 1:5 3:13 5:15
5:0 1:5 3:2 2:1 3:7 5:3 4:4 1:5 3:13 5:15 4:1
1:0 3:2 2:1 3:7 5:3 4:4 1:5 3:13 5:15 4:1 5:3
3:0 2:1 3:7 5:3 4:4 1:5 3:13 5:15 4:1 5:3 1:3
2:0 3:7 5:3 4:4 1:5 3:13 5:15 4:1 5:3 1:3 2:1
3:0 5:3 4:4 1:5 3:13 5:15 4:1 5:3 1:3 2:1 3:1
5:0 4:4 1:5 3:13 5:15 4:1 5:3 1:3 2:1 3:1 5:12
4:0 1:5 3:13 5:15 4:1 5:3 1:3 2:1 3:1 5:12 4:3
1:0 3:13 5:15 4:1 5:3 1:3 2:1 3:1 5:12 4:3 1:6
3:0 5:15 4:1 5:3 1:3 2:1 3:1 5:12 4:3 1:6 3:3
5:0 4:1 5:3 1:3 2:1 3:1 5:12 4:3 1:6 3:3 2:3
4:0 5:3 1:3 2:1 3:1 5:12 4:3 1:6 3:3 2:3 1:4
5:0 1:3 2:1 3:1 5:12 4:3 1:6 3:3 2:3 1:4 2:1
1:0 2:1 3:1 5:12 4:3 1:6 3:3 2:3 1:4 2:1 3:6
2:0 3:1 5:12 4:3 1:6 3:3 2:3 1:4 2:1 3:6 2:4
3:0 5:12 4:3 1:6 3:3 2:3 1:4 2:1 3:6 2:4 3:5
5:0 4:3 1:6 3:3 2:3 1:4 2:1 3:6 2:4 3:5 5:3
4:0 1:6 3:3 2:3 1:4 2:1 3:6 2:4 3:5 5:3 1:8
1:0 3:3 2:3 1:4 2:1 3:6 2:4 3:5 5:3 1:8 2:2
3:0 2:3 1:4 2:1 3:6 2:4 3:5 5:3 1:8 2:2 3:9
2:0 1:4 2:1 3:6 2:4 3:5 5:3 1:8 2:2 3:9 2:1
1:0 2:1 3:6 2:4 3:5 5:3 1:8 2:2 3:9 2:1 3:1
2:0 3:6 2:4 3:5 5:3 1:8 2:2 3:9 2:1 3:1 5:3
3:0 2:4 3:5 5:3 1:8 2:2 3:9 2:1 3:1 5:3 4:2
2:0 3:5 5:3 1:8 2:2 3:9 2:1 3:1 5:3 4:2 1:7
3:0 5:3 1:8 2:2 3:9 2:1 3:1 5:3 4:2 1:7 2:11
5:0 1:8 2:2 3:9 2:1 3:1 5:3 4:2 1:7 2:11 3:1
1:0 2:2 3:9 2:1 3:1 5:3 4:2 1:7 2:11 3:1 2:1
2:0 3:9 2:1 3:1 5:3 4:2 1:7 2:11 3:1 2:1 3:2
3:0 2:1 3:1 5:3 4:2 1:7 2:11 3:1 2:1 3:2 5:13
2:0 3:1 5:3 4:2 1:7 2:11 3:1 2:1 3:2 5:13 4:1
3:0 5:3 4:2 1:7 2:11 3:1 2:1 3:2 5:13 4:1 5:4
5:0 4:2 1:7 2:11 3:1 2:1 3:2 5:13 4:1 5:4 2:3
4:0 1:7 2:11 3:1 2:1 3:2 5:13 4:1 5:4 2:3 3:1
1:0 2:11 3:1 2:1 3:2 5:13 4:1 5:4 2:3 3:1 2:4
2:0 3:1 2:1 3:2 5:13 4:1 5:4 2:3 3:1 2:4 3:1
3:0 2:1 3:2 5:13 4:1 5:4 2:3 3:1 2:4 3:1 2:3
2:0 3:2 5:13 4:1 5:4 2:3 3:1 2:4 3:1 2:3 3:16
3:0 5:13 4:1 5:4 2:3 3:1 2:4 3:1 2:3 3:16 4:4
5:0 4:1 5:4 2:3 3:1 2:4 3:1 2:3 3:16 4:4 5:3
4:0 5:4 2:3 3:1 2:4 3:1 2:3 3:16 4:4 5:3 1:4
5:0 2:3 3:1 2:4 3:1 2:3 3:16 4:4 5:3 1:4 2:2
2:0 3:1 2:4 3:1 2:3 3:16 4:4 5:3 1:4 2:2 3:2
3:0 2:4 3:1 2:3 3:16 4:4 5:3 1:4 2:2 3:2 2:1
2:0 3:1 2:3 3:16 4:4 5:3 1:4 2:2 3:2 2:1 3:7
3:0 2:3 3:16 4:4 5:3 1:4 2:2 3:2 2:1 3:7 5:3
2:0 3:16 4:4 5:3 1:4 2:2 3:2 2:1 3:7 5:3 4:3
3:0 4:4 5:3 1:4 2:2 3:2 2:1 3:7 5:3 4:3 1:6
4:0 5:3 1:4 2:2 3:2 2:1 3:7 5:3 4:3 1:6 2:4
5:0 1:4 2:2 3:2 2:1 3:7 5:3 4:3 1:6 2:4 1:1
1:0 2:2 3:2 2:1 3:7 5:3 4:3 1:6 2:4 1:1 2:7
2:0 3:2 2:1 3:7 5:3 4:3 1:6 2:4 1:1 2:7 3:2
3:0 2:1 3:7 5:3 4:3 1:6 2:4 1:1 2:7 3:2 5:14
2:0 3:7 5:3 4:3 1:6 2:4 1:1 2:7 3:2 5:14 4:1
3:0 5:3 4:3 1:6 2:4 1:1 2:7 3:2 5:14 4:1 5:1
5:0 4:3 1:6 2:4 1:1 2:7 3:2 5:14 4:1 5:1 1:5
4:0 1:6 2:4 1:1 2:7 3:2 5:14 4:1 5:1 1:5 2:1
1:0 2:4 1:1 2:7 3:2 5:14 4:1 5:1 1:5 2:1 3:1
2:0 1:1 2:7 3:2 5:14 4:1 5:1 1:5 2:1 3:1 2:7
1:0 2:7 3:2 5:14 4:1 5:1 1:5 2:1 3:1 2:7 3:3
2:0 3:2 5:14 4:1 5:1 1:5 2:1 3:1 2:7 3:3 2:1
3:0 5:14 4:1 5:1 1:5 2:1 3:1 2:7 3:3 2:1 3:5
5:0 4:1 5:1 1:5 2:1 3:1 2:7 3:3 2:1 3:5 2:2
4:0 5:1 1:5 2:1 3:1 2:7 3:3 2:1 3:5 2:2 3:5
5:0 1:5 2:1 3:1 2:7 3:3 2:1 3:5 2:2 3:5 5:4
1:0 2:1 3:1 2:7 3:3 2:1 3:5 2:2 3:5 5:4 1:8
2:0 3:1 2:7 3:3 2:1 3:5 2:2 3:5 5:4 1:8 2:2
3:0 2:7 3:3 2:1 3:5 2:2 3:5 5:4 1:8 2:2 3:1
2:0 3:3 2:1 3:5 2:2 3:5 5:4 1:8 2:2 3:1 2:1
3:0 2:1 3:5 2:2 3:5 5:4 1:8 2:2 3:1 2:1 3:8
2:0 3:5 2:2 3:5 5:4 1:8 2:2 3:1 2:1 3:8 5:3
3:0 2:2 3:5 5:4 1:8 2:2 3:1 2:1 3:8 5:3 4:2
2:0 3:5 5:4 1:8 2:2 3:1 2:1 3:8 5:3 4:2 1:6
3:0 5:4 1:8 2:2 3:1 2:1 3:8 5:3 4:2 1:6 2:5
5:0 1:8 2:2 3:1 2:1 3:8 5:3 4:2 1:6 2:5 1:1
1:0 2:2 3:1 2:1 3:8 5:3 4:2 1:6 2:5 1:1 2:7
2:0 3:1 2:1 3:8 5:3 4:2 1:6 2:5 1:1 2:7 3:1
3:0 2:1 3:8 5:3 4:2 1:6 2:5 1:1 2:7 3:1 5:5
2:0 3:8 5:3 4:2 1:6 2:5 1:1 2:7 3:1 5:5 1:7
3:0 5:3 4:2 1:6 2:5 1:1 2:7 3:1 5:5 1:7 2:5
5:0 4:2 1:6 2:5 1:1 2:7 3:1 5:5 1:7 2:5 3:7
4:0 1:6 2:5 1:1 2:7 3:1 5:5 1:7 2:5 3:7 5:4
1:0 2:5 1:1 2:7 3:1 5:5 1:7 2:5 3:7 5:4 4:4
2:0 1:1 2:7 3:1 5:5 1:7 2:5 3:7 5:4 4:4 1:3
1:0 2:7 3:1 5:5 1:7 2:5 3:7 5:4 4:4 1:3 3:3
2:0 3:1 5:5 1:7 2:5 3:7 5:4 4:4 1:3 3:3 1:1
3:0 5:5 1:7 2:5 3:7 5:4 4:4 1:3 3:3 1:1 2:8
5:0 1:7 2:5 3:7 5:4 4:4 1:3 3:3 1:1 2:8 3:1
1:0 2:5 3:7 5:4 4:4 1:3 3:3 1:1 2:8 3:1 5:7
2:0 3:7 5:4 4:4 1:3 3:3 1:1 2:8 3:1 5:7 1:6
3:0 5:4 4:4 1:3 3:3 1:1 2:8 3:1 5:7 1:6 2:2
5:0 4:4 1:3 3:3 1:1 2:8 3:1 5:7 1:6 2:2 1:4
4:0 1:3 3:3 1:1 2:8 3:1 5:7 1:6 2:2 1:4 2:1
1:0 3:3 1:1 2:8 3:1 5:7 1:6 2:2 1:4 2:1 3:2
3:0 1:1 2:8 3:1 5:7 1:6 2:2 1:4 2:1 3:2 5:5
1:0 2:8 3:1 5:7 1:6 2:2 1:4 2:1 3:2 5:5 4:2
2:0 3:1 5:7 1:6 2:2 1:4 2:1 3:2 5:5 4:2 1:6
3:0 5:7 1:6 2:2 1:4 2:1 3:2 5:5 4:2 1:6 2:6
5:0 1:6 2:2 1:4 2:1 3:2 5:5 4:2 1:6 2:6 1:1
1:0 2:2 1:4 2:1 3:2 5:5 4:2 1:6 2:6 1:1 2:5
2:0 1:4 2:1 3:2 5:5 4:2 1:6 2:6 1:1 2:5 3:1
1:0 2:1 3:2 5:5 4:2 1:6 2:6 1:1 2:5 3:1 5:14
2:0 3:2 5:5 4:2 1:6 2:6 1:1 2:5 3:1 5:14 1:7
3:0 5:5 4:2 1:6 2:6 1:1 2:5 3:1 5:14 1:7 2:2
5:0 4:2 1:6 2:6 1:1 2:5 3:1 5:14 1:7 2:2 3:1
4:0 1:6 2:6 1:1 2:5 3:1 5:14 1:7 2:2 3:1 5:9
1:0 2:6 1:1 2:5 3:1 5:14 1:7 2:2 3:1 5:9 4:3
2:0 1:1 2:5 3:1 5:14 1:7 2:2 3:1 5:9 4:3 5:1
1:0 2:5 3:1 5:14 1:7 2:2 3:1 5:9 4:3 5:1 4:1
2:0 3:1 5:14 1:7 2:2 3:1 5:9 4:3 5:1 4:1 1:4
3:0 5:14 1:7 2:2 3:1 5:9 4:3 5:1 4:1 1:4 3:6
5:0 1:7 2:2 3:1 5:9 4:3 5:1 4:1 1:4 3:6 2:2
1:0 2:2 3:1 5:9 4:3 5:1 4:1 1:4 3:6 2:2 3:9
2:0 3:1 5:9 4:3 5:1 4:1 1:4 3:6 2:2 3:9 2:1
3:0 5:9 4:3 5:1 4:1 1:4 3:6 2:2 3:9 2:1 3:1
5:0 4:3 5:1 4:1 1:4 3:6 2:2 3:9 2:1 3:1 2:5
4:0 5:1 4:1 1:4 3:6 2:2 3:9 2:1 3:1 2:5 3:5
5:0 4:1 1:4 3:6 2:2 3:9 2:1 3:1 2:5 3:5 5:2
4:0 1:4 3:6 2:2 3:9 2:1 3:1 2:5 3:5 5:2 4:5
1:0 3:6 2:2 3:9 2:1 3:1 2:5 3:5 5:2 4:5 1:4
3:0 2:2 3:9 2:1 3:1 2:5 3:5 5:2 4:5 1:4 3:14
2:0 3:9 2:1 3:1 2:5 3:5 5:2 4:5 1:4 3:14 4:18
3:0 2:1 3:1 2:5 3:5 5:2 4:5 1:4 3:14 4:18 5:2
2:0 3:1 2:5 3:5 5:2 4:5 1:4 3:14 4:18 5:2 7:5
3:0 2:5 3:5 5:2 4:5 1:4 3:14 4:18 5:2 7:5 1:1
2:0 3:5 5:2 4:5 1:4 3:14 4:18 5:2 7:5 1:1 3:1
3:0 5:2 4:5 1:4 3:14 4:18 5:2 7:5 1:1 3:1 1:1
5:0 4:5 1:4 3:14 4:18 5:2 7:5 1:1 3:1 1:1 2:1
4:0 1:4 3:14 4:18 5:2 7:5 1:1 3:1 1:1 2:1 1:1
1:0 3:14 4:18 5:2 7:5 1:1 3:1 1:1 2:1 1:1 2:6
3:0 4:18 5:2 7:5 1:1 3:1 1:1 2:1 1:1 2:6 3:12
4:0 5:2 7:5 1:1 3:1 1:1 2:1 1:1 2:6 3:12 5:5
5:0 7:5 1:1 3:1 1:1 2:1 1:1 2:6 3:12 5:5 4:1
7:0 1:1 3:1 1:1 2:1 1:1 2:6 3:12 5:5 4:1 5:1
1:0 3:1 1:1 2:1 1:1 2:6 3:12 5:5 4:1 5:1 1:5
3:0 1:1 2:1 1:1 2:6 3:12 5:5 4:1 5:1 1:5 3:2
1:0 2:1 1:1 2:6 3:12 5:5 4:1 5:1 1:5 3:2 2:1
2:0 1:1 2:6 3:12 5:5 4:1 5:1 1:5 3:2 2:1 3:8
1:0 2:6 3:12 5:5 4:1 5:1 1:5 3:2 2:1 3:8 5:3
2:0 3:12 5:5 4:1 5:1 1:5 3:2 2:1 3:8 5:3 4:4
3:0 5:5 4:1 5:1 1:5 3:2 2:1 3:8 5:3 4:4 1:4
5:0 4:1 5:1 1:5 3:2 2:1 3:8 5:3 4:4 1:4 3:3
4:0 5:1 1:5 3:2 2:1 3:8 5:3 4:4 1:4 3:3 1:1
5:0 1:5 3:2 2:1 3:8 5:3 4:4 1:4 3:3 1:1 2:9
1:0 3:2 2:1 3:8 5:3 4:4 1:4 3:3 1:1 2:9 3:1
3:0 2:1 3:8 5:3 4:4 1:4 3:3 1:1 2:9 3:1 5:14
2:0 3:8 5:3 4:4 1:4 3:3 1:1 2:9 3:1 5:14 1:8
3:0 5:3 4:4 1:4 3:3 1:1 2:9 3:1 5:14 1:8 2:1
5:0 4:4 1:4 3:3 1:1 2:9 3:1 5:14 1:8 2:1 3:1
4:0 1:4 3:3 1:1 2:9 3:1 5:14 1:8 2:1 3:1 2:1
1:0 3:3 1:1 2:9 3:1 5:14 1:8 2:1 3:1 2:1 3:1
3:0 1:1 2:9 3:1 5:14 1:8 2:1 3:1 2:1 3:1 5:11
1:0 2:9 3:1 5:14 1:8 2:1 3:1 2:1 3:1 5:11 4:2
2:0 3:1 5:14 1:8 2:1 3:1 2:1 3:1 5:11 4:2 1:6
3:0 5:14 1:8 2:1 3:1 2:1 3:1 5:11 4:2 1:6 3:3
5:0 1:8 2:1 3:1 2:1 3:1 5:11 4:2 1:6 3:3 2:2
1:0 2:1 3:1 2:1 3:1 5:11 4:2 1:6 3:3 2:2 3:3
2:0 3:1 2:1 3:1 5:11 4:2 1:6 3:3 2:2 3:3 2:1
3:0 2:1 3:1 5:11 4:2 1:6 3:3 2:2 3:3 2:1 3:17
2:0 3:1 5:11 4:2 1:6 3:3 2:2 3:3 2:1 3:17 5:4
3:0 5:11 4:2 1:6 3:3 2:2 3:3 2:1 3:17 5:4 1:8
5:0 4:2 1:6 3:3 2:2 3:3 2:1 3:17 5:4 1:8 2:2
4:0 1:6 3:3 2:2 3:3 2:1 3:17 5:4 1:8 2:2 3:1
1:0 3:3 2:2 3:3 2:1 3:17 5:4 1:8 2:2 3:1 2:2
3:0 2:2 3:3 2:1 3:17 5:4 1:8 2:2 3:1 2:2 3:1
2:0 3:3 2:1 3:17 5:4 1:8 2:2 3:1 2:2 3:1 2:1
3:0 2:1 3:17 5:4 1:8 2:2 3:1 2:2 3:1 2:1 3:5
2:0 3:17 5:4 1:8 2:2 3:1 2:2 3:1 2:1 3:5 5:3
3:0 5:4 1:8 2:2 3:1 2:2 3:1 2:1 3:5 5:3 4:3
5:0 1:8 2:2 3:1 2:2 3:1 2:1 3:5 5:3 4:3 1:5
1:0 2:2 3:1 2:2 3:1 2:1 3:5 5:3 4:3 1:5 2:5
2:0 3:1 2:2 3:1 2:1 3:5 5:3 4:3 1:5 2:5 1:1
3:0 2:2 3:1 2:1 3:5 5:3 4:3 1:5 2:5 1:1 2:7
2:0 3:1 2:1 3:5 5:3 4:3 1:5 2:5 1:1 2:7 3:2
3:0 2:1 3:5 5:3 4:3 1:5 2:5 1:1 2:7 3:2 4:5
2:0 3:5 5:3 4:3 1:5 2:5 1:1 2:7 3:2 4:5 5:1
3:0 5:3 4:3 1:5 2:5 1:1 2:7 3:2 4:5 5:1 1:5
5:0 4:3 1:5 2:5 1:1 2:7 3:2 4:5 5:1 1:5 2:2
4:0 1:5 2:5 1:1 2:7 3:2 4:5 5:1 1:5 2:2 3:2
1:0 2:5 1:1 2:7 3:2 4:5 5:1 1:5 2:2 3:2 2:1
2:0 1:1 2:7 3:2 4:5 5:1 1:5 2:2 3:2 2:1 3:6
1:0 2:7 3:2 4:5 5:1 1:5 2:2 3:2 2:1 3:6 5:4
2:0 3:2 4:5 5:1 1:5 2:2 3:2 2:1 3:6 5:4 4:3
3:0 4:5 5:1 1:5 2:2 3:2 2:1 3:6 5:4 4:3 1:5
4:0 5:1 1:5 2:2 3:2 2:1 3:6 5:4 4:3 1:5 2:11
5:0 1:5 2:2 3:2 2:1 3:6 5:4 4:3 1:5 2:11 3:1
1:0 2:2 3:2 2:1 3:6 5:4 4:3 1:5 2:11 3:1 2:1
2:0 3:2 2:1 3:6 5:4 4:3 1:5 2:11 3:1 2:1 3:1
3:0 2:1 3:6 5:4 4:3 1:5 2:11 3:1 2:1 3:1 4:6
2:0 3:6 5:4 4:3 1:5 2:11 3:1 2:1 3:1 4:6 5:1
3:0 5:4 4:3 1:5 2:11 3:1 2:1 3:1 4:6 5:1 1:5
5:0 4:3 1:5 2:11 3:1 2:1 3:1 4:6 5:1 1:5 2:1
4:0 1:5 2:11 3:1 2:1 3:1 4:6 5:1 1:5 2:1 3:2
1:0 2:11 3:1 2:1 3:1 4:6 5:1 1:5 2:1 3:2 2:1
2:0 3:1 2:1 3:1 4:6 5:1 1:5 2:1 3:2 2:1 3:6
3:0 2:1 3:1 4:6 5:1 1:5 2:1 3:2 2:1 3:6 5:4
2:0 3:1 4:6 5:1 1:5 2:1 3:2 2:1 3:6 5:4 4:4
3:0 4:6 5:1 1:5 2:1 3:2 2:1 3:6 5:4 4:4 1:4
4:0 5:1 1:5 2:1 3:2 2:1 3:6 5:4 4:4 1:4 3:5
5:0 1:5 2:1 3:2 2:1 3:6 5:4 4:4 1:4 3:5 1:1
1:0 2:1 3:2 2:1 3:6 5:4 4:4 1:4 3:5 1:1 2:6
2:0 3:2 2:1 3:6 5:4 4:4 1:4 3:5 1:1 2:6 3:1
3:0 2:1 3:6 5:4 4:4 1:4 3:5 1:1 2:6 3:1 5:5
2:0 3:6 5:4 4:4 1:4 3:5 1:1 2:6 3:1 5:5 1:7
3:0 5:4 4:4 1:4 3:5 1:1 2:6 3:1 5:5 1:7 2:3
5:0 4:4 1:4 3:5 1:1 2:6 3:1 5:5 1:7 2:3 3:9
4:0 1:4 3:5 1:1 2:6 3:1 5:5 1:7 2:3 3:9 5:4
1:0 3:5 1:1 2:6 3:1 5:5 1:7 2:3 3:9 5:4 4:4
3:0 1:1 2:6 3:1 5:5 1:7 2:3 3:9 5:4 4:4 1:3
1:0 2:6 3:1 5:5 1:7 2:3 3:9 5:4 4:4 1:3 3:3
2:0 3:1 5:5 1:7 2:3 3:9 5:4 4:4 1:3 3:3 1:1
3:0 5:5 1:7 2:3 3:9 5:4 4:4 1:3 3:3 1:1 2:9
5:0 1:7 2:3 3:9 5:4 4:4 1:3 3:3 1:1 2:9 3:1
1:0 2:3 3:9 5:4 4:4 1:3 3:3 1:1 2:9 3:1 4:14
2:0 3:9 5:4 4:4 1:3 3:3 1:1 2:9 3:1 4:14 5:2
3:0 5:4 4:4 1:3 3:3 1:1 2:9 3:1 4:14 5:2 4:2
5:0 4:4 1:3 3:3 1:1 2:9 3:1 4:14 5:2 4:2 5:1
4:0 1:3 3:3 1:1 2:9 3:1 4:14 5:2 4:2 5:1 1:3
1:0 3:3 1:1 2:9 3:1 4:14 5:2 4:2 5:1 1:3 2:1
3:0 1:1 2:9 3:1 4:14 5:2 4:2 5:1 1:3 2:1 3:1
1:0 2:9 3:1 4:14 5:2 4:2 5:1 1:3 2:1 3:1 2:2
2:0 3:1 4:14 5:2 4:2 5:1 1:3 2:1 3:1 2:2 3:10
3:0 4:14 5:2 4:2 5:1 1:3 2:1 3:1 2:2 3:10 2:1
4:0 5:2 4:2 5:1 1:3 2:1 3:1 2:2 3:10 2:1 3:2
5:0 4:2 5:1 1:3 2:1 3:1 2:2 3:10 2:1 3:2 2:3
4:0 5:1 1:3 2:1 3:1 2:2 3:10 2:1 3:2 2:3 3:4
5:0 1:3 2:1 3:1 2:2 3:10 2:1 3:2 2:3 3:4 5:3
1:0 2:1 3:1 2:2 3:10 2:1 3:2 2:3 3:4 5:3 4:7
2:0 3:1 2:2 3:10 2:1 3:2 2:3 3:4 5:3 4:7 1:2
3:0 2:2 3:10 2:1 3:2 2:3 3:4 5:3 4:7 1:2 3:12
2:0 3:10 2:1 3:2 2:3 3:4 5:3 4:7 1:2 3:12 2:1
3:0 2:1 3:2 2:3 3:4 5:3 4:7 1:2 3:12 2:1 3:1
2:0 3:2 2:3 3:4 5:3 4:7 1:2 3:12 2:1 3:1 5:12
3:0 2:3 3:4 5:3 4:7 1:2 3:12 2:1 3:1 5:12 4:2
2:0 3:4 5:3 4:7 1:2 3:12 2:1 3:1 5:12 4:2 5:1
3:0 5:3 4:7 1:2 3:12 2:1 3:1 5:12 4:2 5:1 4:2
5:0 4:7 1:2 3:12 2:1 3:1 5:12 4:2 5:1 4:2 5:1
4:0 1:2 3:12 2:1 3:1 5:12 4:2 5:1 4:2 5:1 1:2
1:0 3:12 2:1 3:1 5:12 4:2 5:1 4:2 5:1 1:2 3:2
3:0 2:1 3:1 5:12 4:2 5:1 4:2 5:1 1:2 3:2 5:14
2:0 3:1 5:12 4:2 5:1 4:2 5:1 1:2 3:2 5:14 4:2
3:0 5:12 4:2 5:1 4:2 5:1 1:2 3:2 5:14 4:2 1:6
5:0 4:2 5:1 4:2 5:1 1:2 3:2 5:14 4:2 1:6 3:3
4:0 5:1 4:2 5:1 1:2 3:2 5:14 4:2 1:6 3:3 2:2
5:0 4:2 5:1 1:2 3:2 5:14 4:2 1:6 3:3 2:2 3:2
4:0 5:1 1:2 3:2 5:14 4:2 1:6 3:3 2:2 3:2 2:2
5:0 1:2 3:2 5:14 4:2 1:6 3:3 2:2 3:2 2:2 1:3
1:0 3:2 5:14 4:2 1:6 3:3 2:2 3:2 2:2 1:3 2:1
3:0 5:14 4:2 1:6 3:3 2:2 3:2 2:2 1:3 2:1 3:12
5:0 4:2 1:6 3:3 2:2 3:2 2:2 1:3 2:1 3:12 5:5
4:0 1:6 3:3 2:2 3:2 2:2 1:3 2:1 3:12 5:5 4:1
1:0 3:3 2:2 3:2 2:2 1:3 2:1 3:12 5:5 4:1 5:2
3:0 2:2 3:2 2:2 1:3 2:1 3:12 5:5 4:1 5:2 1:5
2:0 3:2 2:2 1:3 2:1 3:12 5:5 4:1 5:2 1:5 2:2
3:0 2:2 1:3 2:1 3:12 5:5 4:1 5:2 1:5 2:2 3:1
2:0 1:3 2:1 3:12 5:5 4:1 5:2 1:5 2:2 3:1 2:2
1:0 2:1 3:12 5:5 4:1 5:2 1:5 2:2 3:1 2:2 3:7
2:0 3:12 5:5 4:1 5:2 1:5 2:2 3:1 2:2 3:7 5:3
3:0 5:5 4:1 5:2 1:5 2:2 3:1 2:2 3:7 5:3 4:4
5:0 4:1 5:2 1:5 2:2 3:1 2:2 3:7 5:3 4:4 1:5
4:0 5:2 1:5 2:2 3:1 2:2 3:7 5:3 4:4 1:5 2:12
5:0 1:5 2:2 3:1 2:2 3:7 5:3 4:4 1:5 2:12 3:1
1:0 2:2 3:1 2:2 3:7 5:3 4:4 1:5 2:12 3:1 5:14
2:0 3:1 2:2 3:7 5:3 4:4 1:5 2:12 3:1 5:14 1:7
3:0 2:2 3:7 5:3 4:4 1:5 2:12 3:1 5:14 1:7 3:3
2:0 3:7 5:3 4:4 1:5 2:12 3:1 5:14 1:7 3:3 2:7
3:0 5:3 4:4 1:5 2:12 3:1 5:14 1:7 3:3 2:7 3:6
5:0 4:4 1:5 2:12 3:1 5:14 1:7 3:3 2:7 3:6 2:5
4:0 1:5 2:12 3:1 5:14 1:7 3:3 2:7 3:6 2:5 3:5
1:0 2:12 3:1 5:14 1:7 3:3 2:7 3:6 2:5 3:5 5:3
2:0 3:1 5:14 1:7 3:3 2:7 3:6 2:5 3:5 5:3 4:2
3:0 5:14 1:7 3:3 2:7 3:6 2:5 3:5 5:3 4:2 5:2
5:0 1:7 3:3 2:7 3:6 2:5 3:5 5:3 4:2 5:2 1:4
1:0 3:3 2:7 3:6 2:5 3:5 5:3 4:2 5:2 1:4 2:2
3:0 2:7 3:6 2:5 3:5 5:3 4:2 5:2 1:4 2:2 3:10
2:0 3:6 2:5 3:5 5:3 4:2 5:2 1:4 2:2 3:10 5:4
3:0 2:5 3:5 5:3 4:2 5:2 1:4 2:2 3:10 5:4 4:2
2:0 3:5 5:3 4:2 5:2 1:4 2:2 3:10 5:4 4:2 1:7
3:0 5:3 4:2 5:2 1:4 2:2 3:10 5:4 4:2 1:7 3:12
5:0 4:2 5:2 1:4 2:2 3:10 5:4 4:2 1:7 3:12 5:5
4:0 5:2 1:4 2:2 3:10 5:4 4:2 1:7 3:12 5:5 1:8
5:0 1:4 2:2 3:10 5:4 4:2 1:7 3:12 5:5 1:8 2:3
1:0 2:2 3:10 5:4 4:2 1:7 3:12 5:5 1:8 2:3 3:8
2:0 3:10 5:4 4:2 1:7 3:12 5:5 1:8 2:3 3:8 5:4
3:0 5:4 4:2 1:7 3:12 5:5 1:8 2:3 3:8 5:4 4:5
5:0 4:2 1:7 3:12 5:5 1:8 2:3 3:8 5:4 4:5 1:3
4:0 1:7 3:12 5:5 1:8 2:3 3:8 5:4 4:5 1:3 3:12
1:0 3:12 5:5 1:8 2:3 3:8 5:4 4:5 1:3 3:12 2:1
3:0 5:5 1:8 2:3 3:8 5:4 4:5 1:3 3:12 2:1 3:1
5:0 1:8 2:3 3:8 5:4 4:5 1:3 3:12 2:1 3:1 4:14
1:0 2:3 3:8 5:4 4:5 1:3 3:12 2:1 3:1 4:14 5:1
2:0 3:8 5:4 4:5 1:3 3:12 2:1 3:1 4:14 5:1 4:1
3:0 5:4 4:5 1:3 3:12 2:1 3:1 4:14 5:1 4:1 5:1
5:0 4:5 1:3 3:12 2:1 3:1 4:14 5:1 4:1 5:1 1:4
4:0 1:3 3:12 2:1 3:1 4:14 5:1 4:1 5:1 1:4 2:1
1:0 3:12 2:1 3:1 4:14 5:1 4:1 5:1 1:4 2:1 3:1
3:0 2:1 3:1 4:14 5:1 4:1 5:1 1:4 2:1 3:1 5:12
2:0 3:1 4:14 5:1 4:1 5:1 1:4 2:1 3:1 5:12 4:2
3:0 4:14 5:1 4:1 5:1 1:4 2:1 3:1 5:12 4:2 1:7
4:0 5:1 4:1 5:1 1:4 2:1 3:1 5:12 4:2 1:7 3:4
5:0 4:1 5:1 1:4 2:1 3:1 5:12 4:2 1:7 3:4 2:2
4:0 5:1 1:4 2:1 3:1 5:12 4:2 1:7 3:4 2:2 1:2
5:0 1:4 2:1 3:1 5:12 4:2 1:7 3:4 2:2 1:2 2:1
1:0 2:1 3:1 5:12 4:2 1:7 3:4 2:2 1:2 2:1 3:11
2:0 3:1 5:12 4:2 1:7 3:4 2:2 1:2 2:1 3:11 2:2
3:0 5:12 4:2 1:7 3:4 2:2 1:2 2:1 3:11 2:2 3:3
5:0 4:2 1:7 3:4 2:2 1:2 2:1 3:11 2:2 3:3 5:4
4:0 1:7 3:4 2:2 1:2 2:1 3:11 2:2 3:3 5:4 1:8
1:0 3:4 2:2 1:2 2:1 3:11 2:2 3:3 5:4 1:8 2:2
3:0 2:2 1:2 2:1 3:11 2:2 3:3 5:4 1:8 2:2 3:1
2:0 1:2 2:1 3:11 2:2 3:3 5:4 1:8 2:2 3:1 2:1
1:0 2:1 3:11 2:2 3:3 5:4 1:8 2:2 3:1 2:1 3:3
2:0 3:11 2:2 3:3 5:4 1:8 2:2 3:1 2:1 3:3 2:1
3:0 2:2 3:3 5:4 1:8 2:2 3:1 2:1 3:3 2:1 3:5
2:0 3:3 5:4 1:8 2:2 3:1 2:1 3:3 2:1 3:5 5:3
3:0 5:4 1:8 2:2 3:1 2:1 3:3 2:1 3:5 5:3 4:2
5:0 1:8 2:2 3:1 2:1 3:3 2:1 3:5 5:3 4:2 1:6
1:0 2:2 3:1 2:1 3:3 2:1 3:5 5:3 4:2 1:6 3:4
2:0 3:1 2:1 3:3 2:1 3:5 5:3 4:2 1:6 3:4 1:2
3:0 2:1 3:3 2:1 3:5 5:3 4:2 1:6 3:4 1:2 3:8
2:0 3:3 2:1 3:5 5:3 4:2 1:6 3:4 1:2 3:8 5:5
3:0 2:1 3:5 5:3 4:2 1:6 3:4 1:2 3:8 5:5 4:1
2:0 3:5 5:3 4:2 1:6 3:4 1:2 3:8 5:5 4:1 5:1
3:0 5:3 4:2 1:6 3:4 1:2 3:8 5:5 4:1 5:1 1:6
5:0 4:2 1:6 3:4 1:2 3:8 5:5 4:1 5:1 1:6 2:3
4:0 1:6 3:4 1:2 3:8 5:5 4:1 5:1 1:6 2:3 3:8
1:0 3:4 1:2 3:8 5:5 4:1 5:1 1:6 2:3 3:8 5:4
3:0 1:2 3:8 5:5 4:1 5:1 1:6 2:3 3:8 5:4 4:4
1:0 3:8 5:5 4:1 5:1 1:6 2:3 3:8 5:4 4:4 1:4
3:0 5:5 4:1 5:1 1:6 2:3 3:8 5:4 4:4 1:4 3:11
5:0 4:1 5:1 1:6 2:3 3:8 5:4 4:4 1:4 3:11 2:2
4:0 5:1 1:6 2:3 3:8 5:4 4:4 1:4 3:11 2:2 3:2
5:0 1:6 2:3 3:8 5:4 4:4 1:4 3:11 2:2 3:2 5:12
1:0 2:3 3:8 5:4 4:4 1:4 3:11 2:2 3:2 5:12 1:7
2:0 3:8 5:4 4:4 1:4 3:11 2:2 3:2 5:12 1:7 2:1
3:0 5:4 4:4 1:4 3:11 2:2 3:2 5:12 1:7 2:1 3:2
5:0 4:4 1:4 3:11 2:2 3:2 5:12 1:7 2:1 3:2 2:6
4:0 1:4 3:11 2:2 3:2 5:12 1:7 2:1 3:2 2:6 3:8
1:0 3:11 2:2 3:2 5:12 1:7 2:1 3:2 2:6 3:8 2:3
3:0 2:2 3:2 5:12 1:7 2:1 3:2 2:6 3:8 2:3 3:5
2:0 3:2 5:12 1:7 2:1 3:2 2:6 3:8 2:3 3:5 5:3
3:0 5:12 1:7 2:1 3:2 2:6 3:8 2:3 3:5 5:3 4:2
5:0 1:7 2:1 3:2 2:6 3:8 2:3 3:5 5:3 4:2 5:1
1:0 2:1 3:2 2:6 3:8 2:3 3:5 5:3 4:2 5:1 1:6
2:0 3:2 2:6 3:8 2:3 3:5 5:3 4:2 5:1 1:6 2:2
3:0 2:6 3:8 2:3 3:5 5:3 4:2 5:1 1:6 2:2 3:10
2:0 3:8 2:3 3:5 5:3 4:2 5:1 1:6 2:2 3:10 5:4
3:0 2:3 3:5 5:3 4:2 5:1 1:6 2:2 3:10 5:4 4:2
2:0 3:5 5:3 4:2 5:1 1:6 2:2 3:10 5:4 4:2 1:6
3:0 5:3 4:2 5:1 1:6 2:2 3:10 5:4 4:2 1:6 3:2
5:0 4:2 5:1 1:6 2:2 3:10 5:4 4:2 1:6 3:2 1:1
4:0 5:1 1:6 2:2 3:10 5:4 4:2 1:6 3:2 1:1 3:9
5:0 1:6 2:2 3:10 5:4 4:2 1:6 3:2 1:1 3:9 4:15
1:0 2:2 3:10 5:4 4:2 1:6 3:2 1:1 3:9 4:15 5:1
2:0 3:10 5:4 4:2 1:6 3:2 1:1 3:9 4:15 5:1 4:1
3:0 5:4 4:2 1:6 3:2 1:1 3:9 4:15 5:1 4:1 5:4
5:0 4:2 1:6 3:2 1:1 3:9 4:15 5:1 4:1 5:4 1:2
4:0 1:6 3:2 1:1 3:9 4:15 5:1 4:1 5:4 1:2 2:1
1:0 3:2 1:1 3:9 4:15 5:1 4:1 5:4 1:2 2:1 3:1
3:0 1:1 3:9 4:15 5:1 4:1 5:4 1:2 2:1 3:1 2:8
1:0 3:9 4:15 5:1 4:1 5:4 1:2 2:1 3:1 2:8 3:15
3:0 4:15 5:1 4:1 5:4 1:2 2:1 3:1 2:8 3:15 5:4
4:0 5:1 4:1 5:4 1:2 2:1 3:1 2:8 3:15 5:4 4:2
5:0 4:1 5:4 1:2 2:1 3:1 2:8 3:15 5:4 4:2 5:1
4:0 5:4 1:2 2:1 3:1 2:8 3:15 5:4 4:2 5:1 1:5
5:0 1:2 2:1 3:1 2:8 3:15 5:4 4:2 5:1 1:5 3:1
1:0 2:1 3:1 2:8 3:15 5:4 4:2 5:1 1:5 3:1 2:1
2:0 3:1 2:8 3:15 5:4 4:2 5:1 1:5 3:1 2:1 3:10
3:0 2:8 3:15 5:4 4:2 5:1 1:5 3:1 2:1 3:10 5:3
2:0 3:15 5:4 4:2 5:1 1:5 3:1 2:1 3:10 5:3 4:1
3:0 5:4 4:2 5:1 1:5 3:1 2:1 3:10 5:3 4:1 1:8
5:0 4:2 5:1 1:5 3:1 2:1 3:10 5:3 4:1 1:8 2:5
4:0 5:1 1:5 3:1 2:1 3:10 5:3 4:1 1:8 2:5 1:1
5:0 1:5 3:1 2:1 3:10 5:3 4:1 1:8 2:5 1:1 2:6
1:0 3:1 2:1 3:10 5:3 4:1 1:8 2:5 1:1 2:6 3:1
3:0 2:1 3:10 5:3 4:1 1:8 2:5 1:1 2:6 3:1 4:7
2:0 3:10 5:3 4:1 1:8 2:5 1:1 2:6 3:1 4:7 5:1
3:0 5:3 4:1 1:8 2:5 1:1 2:6 3:1 4:7 5:1 1:5
5:0 4:1 1:8 2:5 1:1 2:6 3:1 4:7 5:1 1:5 2:2
4:0 1:8 2:5 1:1 2:6 3:1 4:7 5:1 1:5 2:2 3:2
1:0 2:5 1:1 2:6 3:1 4:7 5:1 1:5 2:2 3:2 2:1
2:0 1:1 2:6 3:1 4:7 5:1 1:5 2:2 3:2 2:1 3:5
1:0 2:6 3:1 4:7 5:1 1:5 2:2 3:2 2:1 3:5 5:4
2:0 3:1 4:7 5:1 1:5 2:2 3:2 2:1 3:5 5:4 4:3
3:0 4:7 5:1 1:5 2:2 3:2 2:1 3:5 5:4 4:3 1:5
4:0 5:1 1:5 2:2 3:2 2:1 3:5 5:4 4:3 1:5 3:4
5:0 1:5 2:2 3:2 2:1 3:5 5:4 4:3 1:5 3:4 1:1
1:0 2:2 3:2 2:1 3:5 5:4 4:3 1:5 3:4 1:1 2:7
2:0 3:2 2:1 3:5 5:4 4:3 1:5 3:4 1:1 2:7 3:1
3:0 2:1 3:5 5:4 4:3 1:5 3:4 1:1 2:7 3:1 4:14
2:0 3:5 5:4 4:3 1:5 3:4 1:1 2:7 3:1 4:14 5:1
3:0 5:4 4:3 1:5 3:4 1:1 2:7 3:1 4:14 5:1 4:2
5:0 4:3 1:5 3:4 1:1 2:7 3:1 4:14 5:1 4:2 5:1
4:0 1:5 3:4 1:1 2:7 3:1 4:14 5:1 4:2 5:1 1:3
1:0 3:4 1:1 2:7 3:1 4:14 5:1 4:2 5:1 1:3 2:2
3:0 1:1 2:7 3:1 4:14 5:1 4:2 5:1 1:3 2:2 3:1
1:0 2:7 3:1 4:14 5:1 4:2 5:1 1:3 2:2 3:1 5:7
2:0 3:1 4:14 5:1 4:2 5:1 1:3 2:2 3:1 5:7 4:1
3:0 4:14 5:1 4:2 5:1 1:3 2:2 3:1 5:7 4:1 1:5
4:0 5:1 4:2 5:1 1:3 2:2 3:1 5:7 4:1 1:5 3:10
5:0 4:2 5:1 1:3 2:2 3:1 5:7 4:1 1:5 3:10 5:6
4:0 5:1 1:3 2:2 3:1 5:7 4:1 1:5 3:10 5:6 1:7
5:0 1:3 2:2 3:1 5:7 4:1 1:5 3:10 5:6 1:7 2:3
1:0 2:2 3:1 5:7 4:1 1:5 3:10 5:6 1:7 2:3 3:9
2:0 3:1 5:7 4:1 1:5 3:10 5:6 1:7 2:3 3:9 5:4
3:0 5:7 4:1 1:5 3:10 5:6 1:7 2:3 3:9 5:4 4:2
5:0 4:1 1:5 3:10 5:6 1:7 2:3 3:9 5:4 4:2 1:5
4:0 1:5 3:10 5:6 1:7 2:3 3:9 5:4 4:2 1:5 2:12
1:0 3:10 5:6 1:7 2:3 3:9 5:4 4:2 1:5 2:12 3:1
3:0 5:6 1:7 2:3 3:9 5:4 4:2 1:5 2:12 3:1 4:15
5:0 1:7 2:3 3:9 5:4 4:2 1:5 2:12 3:1 4:15 5:3
1:0 2:3 3:9 5:4 4:2 1:5 2:12 3:1 4:15 5:3 1:5
2:0 3:9 5:4 4:2 1:5 2:12 3:1 4:15 5:3 1:5 2:1
3:0 5:4 4:2 1:5 2:12 3:1 4:15 5:3 1:5 2:1 3:1
5:0 4:2 1:5 2:12 3:1 4:15 5:3 1:5 2:1 3:1 5:13
4:0 1:5 2:12 3:1 4:15 5:3 1:5 2:1 3:1 5:13 4:3
1:0 2:12 3:1 4:15 5:3 1:5 2:1 3:1 5:13 4:3 1:5
2:0 3:1 4:15 5:3 1:5 2:1 3:1 5:13 4:3 1:5 3:2
3:0 4:15 5:3 1:5 2:1 3:1 5:13 4:3 1:5 3:2 2:2
4:0 5:3 1:5 2:1 3:1 5:13 4:3 1:5 3:2 2:2 3:2
5:0 1:5 2:1 3:1 5:13 4:3 1:5 3:2 2:2 3:2 2:1
1:0 2:1 3:1 5:13 4:3 1:5 3:2 2:2 3:2 2:1 1:4
2:0 3:1 5:13 4:3 1:5 3:2 2:2 3:2 2:1 1:4 2:1
3:0 5:13 4:3 1:5 3:2 2:2 3:2 2:1 1:4 2:1 3:3
5:0 4:3 1:5 3:2 2:2 3:2 2:1 1:4 2:1 3:3 2:7
4:0 1:5 3:2 2:2 3:2 2:1 1:4 2:1 3:3 2:7 3:3
1:0 3:2 2:2 3:2 2:1 1:4 2:1 3:3 2:7 3:3 5:2
3:0 2:2 3:2 2:1 1:4 2:1 3:3 2:7 3:3 5:2 1:9
2:0 3:2 2:1 1:4 2:1 3:3 2:7 3:3 5:2 1:9 2:6
3:0 2:1 1:4 2:1 3:3 2:7 3:3 5:2 1:9 2:6 1:1
2:0 1:4 2:1 3:3 2:7 3:3 5:2 1:9 2:6 1:1 2:6
1:0 2:1 3:3 2:7 3:3 5:2 1:9 2:6 1:1 2:6 3:2
2:0 3:3 2:7 3:3 5:2 1:9 2:6 1:1 2:6 3:2 5:12
3:0 2:7 3:3 5:2 1:9 2:6 1:1 2:6 3:2 5:12 1:8
2:0 3:3 5:2 1:9 2:6 1:1 2:6 3:2 5:12 1:8 2:2
3:0 5:2 1:9 2:6 1:1 2:6 3:2 5:12 1:8 2:2 3:1
5:0 1:9 2:6 1:1 2:6 3:2 5:12 1:8 2:2 3:1 4:6
1:0 2:6 1:1 2:6 3:2 5:12 1:8 2:2 3:1 4:6 1:6
2:0 1:1 2:6 3:2 5:12 1:8 2:2 3:1 4:6 1:6 2:11
1:0 2:6 3:2 5:12 1:8 2:2 3:1 4:6 1:6 2:11 3:1
2:0 3:2 5:12 1:8 2:2 3:1 4:6 1:6 2:11 3:1 2:2
3:0 5:12 1:8 2:2 3:1 4:6 1:6 2:11 3:1 2:2 3:1
5:0 1:8 2:2 3:1 4:6 1:6 2:11 3:1 2:2 3:1 2:8
1:0 2:2 3:1 4:6 1:6 2:11 3:1 2:2 3:1 2:8 3:1
2:0 3:1 4:6 1:6 2:11 3:1 2:2 3:1 2:8 3:1 5:3
3:0 4:6 1:6 2:11 3:1 2:2 3:1 2:8 3:1 5:3 4:2
4:0 1:6 2:11 3:1 2:2 3:1 2:8 3:1 5:3 4:2 5:3
1:0 2:11 3:1 2:2 3:1 2:8 3:1 5:3 4:2 5:3 1:2
2:0 3:1 2:2 3:1 2:8 3:1 5:3 4:2 5:3 1:2 2:1
3:0 2:2 3:1 2:8 3:1 5:3 4:2 5:3 1:2 2:1 3:2
2:0 3:1 2:8 3:1 5:3 4:2 5:3 1:2 2:1 3:2 5:11
3:0 2:8 3:1 5:3 4:2 5:3 1:2 2:1 3:2 5:11 4:3
2:0 3:1 5:3 4:2 5:3 1:2 2:1 3:2 5:11 4:3 1:5
3:0 5:3 4:2 5:3 1:2 2:1 3:2 5:11 4:3 1:5 3:3
5:0 4:2 5:3 1:2 2:1 3:2 5:11 4:3 1:5 3:3 2:2
4:0 5:3 1:2 2:1 3:2 5:11 4:3 1:5 3:3 2:2 3:1
5:0 1:2 2:1 3:2 5:11 4:3 1:5 3:3 2:2 3:1 2:2
1:0 2:1 3:2 5:11 4:3 1:5 3:3 2:2 3:1 2:2 3:10
2:0 3:2 5:11 4:3 1:5 3:3 2:2 3:1 2:2 3:10 2:3
3:0 5:11 4:3 1:5 3:3 2:2 3:1 2:2 3:10 2:3 3:6
5:0 4:3 1:5 3:3 2:2 3:1 2:2 3:10 2:3 3:6 5:3
4:0 1:5 3:3 2:2 3:1 2:2 3:10 2:3 3:6 5:3 1:9
1:0 3:3 2:2 3:1 2:2 3:10 2:3 3:6 5:3 1:9 2:1
3:0 2:2 3:1 2:2 3:10 2:3 3:6 5:3 1:9 2:1 3:5
2:0 3:1 2:2 3:10 2:3 3:6 5:3 1:9 2:1 3:5 2:1
3:0 2:2 3:10 2:3 3:6 5:3 1:9 2:1 3:5 2:1 3:5
2:0 3:10 2:3 3:6 5:3 1:9 2:1 3:5 2:1 3:5 6:2
3:0 2:3 3:6 5:3 1:9 2:1 3:5 2:1 3:5 6:2 5:1
2:0 3:6 5:3 1:9 2:1 3:5 2:1 3:5 6:2 5:1 4:1
3:0 5:3 1:9 2:1 3:5 2:1 3:5 6:2 5:1 4:1 1:7
5:0 1:9 2:1 3:5 2:1 3:5 6:2 5:1 4:1 1:7 2:1
1:0 2:1 3:5 2:1 3:5 6:2 5:1 4:1 1:7 2:1 1:1
2:0 3:5 2:1 3:5 6:2 5:1 4:1 1:7 2:1 1:1 3:11
3:0 2:1 3:5 6:2 5:1 4:1 1:7 2:1 1:1 3:11 5:15
2:0 3:5 6:2 5:1 4:1 1:7 2:1 1:1 3:11 5:15 4:4
3:0 6:2 5:1 4:1 1:7 2:1 1:1 3:11 5:15 4:4 5:1
6:0 5:1 4:1 1:7 2:1 1:1 3:11 5:15 4:4 5:1 1:2
5:0 4:1 1:7 2:1 1:1 3:11 5:15 4:4 5:1 1:2 2:2
4:0 1:7 2:1 1:1 3:11 5:15 4:4 5:1 1:2 2:2 3:1
1:0 2:1 1:1 3:11 5:15 4:4 5:1 1:2 2:2 3:1 2:9
2:0 1:1 3:11 5:15 4:4 5:1 1:2 2:2 3:1 2:9 3:7
1:0 3:11 5:15 4:4 5:1 1:2 2:2 3:1 2:9 3:7 2:3
3:0 5:15 4:4 5:1 1:2 2:2 3:1 2:9 3:7 2:3 3:4
5:0 4:4 5:1 1:2 2:2 3:1 2:9 3:7 2:3 3:4 5:3
4:0 5:1 1:2 2:2 3:1 2:9 3:7 2:3 3:4 5:3 1:8
5:0 1:2 2:2 3:1 2:9 3:7 2:3 3:4 5:3 1:8 2:1
1:0 2:2 3:1 2:9 3:7 2:3 3:4 5:3 1:8 2:1 3:1
2:0 3:1 2:9 3:7 2:3 3:4 5:3 1:8 2:1 3:1 2:1
3:0 2:9 3:7 2:3 3:4 5:3 1:8 2:1 3:1 2:1 3:3
2:0 3:7 2:3 3:4 5:3 1:8 2:1 3:1 2:1 3:3 2:2
3:0 2:3 3:4 5:3 1:8 2:1 3:1 2:1 3:3 2:2 3:5
2:0 3:4 5:3 1:8 2:1 3:1 2:1 3:3 2:2 3:5 5:2
3:0 5:3 1:8 2:1 3:1 2:1 3:3 2:2 3:5 5:2 4:2
5:0 1:8 2:1 3:1 2:1 3:3 2:2 3:5 5:2 4:2 1:7
1:0 2:1 3:1 2:1 3:3 2:2 3:5 5:2 4:2 1:7 2:12
2:0 3:1 2:1 3:3 2:2 3:5 5:2 4:2 1:7 2:12 3:1
3:0 2:1 3:3 2:2 3:5 5:2 4:2 1:7 2:12 3:1 2:1
2:0 3:3 2:2 3:5 5:2 4:2 1:7 2:12 3:1 2:1 3:1
3:0 2:2 3:5 5:2 4:2 1:7 2:12 3:1 2:1 3:1 5:13
2:0 3:5 5:2 4:2 1:7 2:12 3:1 2:1 3:1 5:13 4:1
3:0 5:2 4:2 1:7 2:12 3:1 2:1 3:1 5:13 4:1 5:1
5:0 4:2 1:7 2:12 3:1 2:1 3:1 5:13 4:1 5:1 1:5
4:0 1:7 2:12 3:1 2:1 3:1 5:13 4:1 5:1 1:5 2:2
1:0 2:12 3:1 2:1 3:1 5:13 4:1 5:1 1:5 2:2 3:2
2:0 3:1 2:1 3:1 5:13 4:1 5:1 1:5 2:2 3:2 5:12
3:0 2:1 3:1 5:13 4:1 5:1 1:5 2:2 3:2 5:12 4:3
2:0 3:1 5:13 4:1 5:1 1:5 2:2 3:2 5:12 4:3 1:4
3:0 5:13 4:1 5:1 1:5 2:2 3:2 5:12 4:3 1:4 3:3
5:0 4:1 5:1 1:5 2:2 3:2 5:12 4:3 1:4 3:3 2:2
4:0 5:1 1:5 2:2 3:2 5:12 4:3 1:4 3:3 2:2 3:2
5:0 1:5 2:2 3:2 5:12 4:3 1:4 3:3 2:2 3:2 2:2
1:0 2:2 3:2 5:12 4:3 1:4 3:3 2:2 3:2 2:2 3:9
2:0 3:2 5:12 4:3 1:4 3:3 2:2 3:2 2:2 3:9 2:5
3:0 5:12 4:3 1:4 3:3 2:2 3:2 2:2 3:9 2:5 3:4
5:0 4:3 1:4 3:3 2:2 3:2 2:2 3:9 2:5 3:4 5:3
4:0 1:4 3:3 2:2 3:2 2:2 3:9 2:5 3:4 5:3 4:8
1:0 3:3 2:2 3:2 2:2 3:9 2:5 3:4 5:3 4:8 1:1
3:0 2:2 3:2 2:2 3:9 2:5 3:4 5:3 4:8 1:1 3:3
2:0 3:2 2:2 3:9 2:5 3:4 5:3 4:8 1:1 3:3 1:2
3:0 2:2 3:9 2:5 3:4 5:3 4:8 1:1 3:3 1:2 2:7
2:0 3:9 2:5 3:4 5:3 4:8 1:1 3:3 1:2 2:7 3:1
3:0 2:5 3:4 5:3 4:8 1:1 3:3 1:2 2:7 3:1 5:5
2:0 3:4 5:3 4:8 1:1 3:3 1:2 2:7 3:1 5:5 1:7
3:0 5:3 4:8 1:1 3:3 1:2 2:7 3:1 5:5 1:7 2:2
5:0 4:8 1:1 3:3 1:2 2:7 3:1 5:5 1:7 2:2 1:5
4:0 1:1 3:3 1:2 2:7 3:1 5:5 1:7 2:2 1:5 2:3
1:0 3:3 1:2 2:7 3:1 5:5 1:7 2:2 1:5 2:3 3:1
3:0 1:2 2:7 3:1 5:5 1:7 2:2 1:5 2:3 3:1 5:4
1:0 2:7 3:1 5:5 1:7 2:2 1:5 2:3 3:1 5:4 4:6
2:0 3:1 5:5 1:7 2:2 1:5 2:3 3:1 5:4 4:6 1:3
3:0 5:5 1:7 2:2 1:5 2:3 3:1 5:4 4:6 1:3 2:11
5:0 1:7 2:2 1:5 2:3 3:1 5:4 4:6 1:3 2:11 3:1
1:0 2:2 1:5 2:3 3:1 5:4 4:6 1:3 2:11 3:1 2:1
2:0 1:5 2:3 3:1 5:4 4:6 1:3 2:11 3:1 2:1 3:1
1:0 2:3 3:1 5:4 4:6 1:3 2:11 3:1 2:1 3:1 5:13
2:0 3:1 5:4 4:6 1:3 2:11 3:1 2:1 3:1 5:13 4:2
3:0 5:4 4:6 1:3 2:11 3:1 2:1 3:1 5:13 4:2 5:3
5:0 4:6 1:3 2:11 3:1 2:1 3:1 5:13 4:2 5:3 1:2
4:0 1:3 2:11 3:1 2:1 3:1 5:13 4:2 5:3 1:2 3:2
1:0 2:11 3:1 2:1 3:1 5:13 4:2 5:3 1:2 3:2 5:14
2:0 3:1 2:1 3:1 5:13 4:2 5:3 1:2 3:2 5:14 4:4
3:0 2:1 3:1 5:13 4:2 5:3 1:2 3:2 5:14 4:4 1:4
2:0 3:1 5:13 4:2 5:3 1:2 3:2 5:14 4:4 1:4 3:3
3:0 5:13 4:2 5:3 1:2 3:2 5:14 4:4 1:4 3:3 2:2
5:0 4:2 5:3 1:2 3:2 5:14 4:4 1:4 3:3 2:2 1:4
4:0 5:3 1:2 3:2 5:14 4:4 1:4 3:3 2:2 1:4 2:1
5:0 1:2 3:2 5:14 4:4 1:4 3:3 2:2 1:4 2:1 3:2
1:0 3:2 5:14 4:4 1:4 3:3 2:2 1:4 2:1 3:2 2:1
3:0 5:14 4:4 1:4 3:3 2:2 1:4 2:1 3:2 2:1 3:2
5:0 4:4 1:4 3:3 2:2 1:4 2:1 3:2 2:1 3:2 2:6
4:0 1:4 3:3 2:2 1:4 2:1 3:2 2:1 3:2 2:6 3:4
1:0 3:3 2:2 1:4 2:1 3:2 2:1 3:2 2:6 3:4 5:2
3:0 2:2 1:4 2:1 3:2 2:1 3:2 2:6 3:4 5:2 1:9
2:0 1:4 2:1 3:2 2:1 3:2 2:6 3:4 5:2 1:9 2:2
1:0 2:1 3:2 2:1 3:2 2:6 3:4 5:2 1:9 2:2 3:10
2:0 3:2 2:1 3:2 2:6 3:4 5:2 1:9 2:2 3:10 5:4
3:0 2:1 3:2 2:6 3:4 5:2 1:9 2:2 3:10 5:4 4:3
2:0 3:2 2:6 3:4 5:2 1:9 2:2 3:10 5:4 4:3 1:5
3:0 2:6 3:4 5:2 1:9 2:2 3:10 5:4 4:3 1:5 3:3
2:0 3:4 5:2 1:9 2:2 3:10 5:4 4:3 1:5 3:3 1:1
3:0 5:2 1:9 2:2 3:10 5:4 4:3 1:5 3:3 1:1 2:2
5:0 1:9 2:2 3:10 5:4 4:3 1:5 3:3 1:1 2:2 1:2
1:0 2:2 3:10 5:4 4:3 1:5 3:3 1:1 2:2 1:2 3:5
2:0 3:10 5:4 4:3 1:5 3:3 1:1 2:2 1:2 3:5 5:5
3:0 5:4 4:3 1:5 3:3 1:1 2:2 1:2 3:5 5:5 1:8
5:0 4:3 1:5 3:3 1:1 2:2 1:2 3:5 5:5 1:8 2:2
4:0 1:5 3:3 1:1 2:2 1:2 3:5 5:5 1:8 2:2 3:9
1:0 3:3 1:1 2:2 1:2 3:5 5:5 1:8 2:2 3:9 5:4
3:0 1:1 2:2 1:2 3:5 5:5 1:8 2:2 3:9 5:4 4:4
1:0 2:2 1:2 3:5 5:5 1:8 2:2 3:9 5:4 4:4 1:4
2:0 1:2 3:5 5:5 1:8 2:2 3:9 5:4 4:4 1:4 2:11
1:0 3:5 5:5 1:8 2:2 3:9 5:4 4:4 1:4 2:11 3:1
3:0 5:5 1:8 2:2 3:9 5:4 4:4 1:4 2:11 3:1 2:1
5:0 1:8 2:2 3:9 5:4 4:4 1:4 2:11 3:1 2:1 3:1
1:0 2:2 3:9 5:4 4:4 1:4 2:11 3:1 2:1 3:1 5:6
2:0 3:9 5:4 4:4 1:4 2:11 3:1 2:1 3:1 5:6 2:7
3:0 5:4 4:4 1:4 2:11 3:1 2:1 3:1 5:6 2:7 1:4
5:0 4:4 1:4 2:11 3:1 2:1 3:1 5:6 2:7 1:4 2:2
4:0 1:4 2:11 3:1 2:1 3:1 5:6 2:7 1:4 2:2 3:2
1:0 2:11 3:1 2:1 3:1 5:6 2:7 1:4 2:2 3:2 5:5
2:0 3:1 2:1 3:1 5:6 2:7 1:4 2:2 3:2 5:5 4:2
3:0 2:1 3:1 5:6 2:7 1:4 2:2 3:2 5:5 4:2 1:6
2:0 3:1 5:6 2:7 1:4 2:2 3:2 5:5 4:2 1:6 2:3
3:0 5:6 2:7 1:4 2:2 3:2 5:5 4:2 1:6 2:3 1:1
5:0 2:7 1:4 2:2 3:2 5:5 4:2 1:6 2:3 1:1 3:9
2:0 1:4 2:2 3:2 5:5 4:2 1:6 2:3 1:1 3:9 5:7
1:0 2:2 3:2 5:5 4:2 1:6 2:3 1:1 3:9 5:7 1:6
2:0 3:2 5:5 4:2 1:6 2:3 1:1 3:9 5:7 1:6 2:1
3:0 5:5 4:2 1:6 2:3 1:1 3:9 5:7 1:6 2:1 1:4
5:0 4:2 1:6 2:3 1:1 3:9 5:7 1:6 2:1 1:4 2:3
4:0 1:6 2:3 1:1 3:9 5:7 1:6 2:1 1:4 2:3 3:2
1:0 2:3 1:1 3:9 5:7 1:6 2:1 1:4 2:3 3:2 5:4
2:0 1:1 3:9 5:7 1:6 2:1 1:4 2:3 3:2 5:4 4:4
1:0 3:9 5:7 1:6 2:1 1:4 2:3 3:2 5:4 4:4 1:3
3:0 5:7 1:6 2:1 1:4 2:3 3:2 5:4 4:4 1:3 3:13
5:0 1:6 2:1 1:4 2:3 3:2 5:4 4:4 1:3 3:13 5:14
1:0 2:1 1:4 2:3 3:2 5:4 4:4 1:3 3:13 5:14 1:8
2:0 1:4 2:3 3:2 5:4 4:4 1:3 3:13 5:14 1:8 3:2
1:0 2:3 3:2 5:4 4:4 1:3 3:13 5:14 1:8 3:2 2:10
2:0 3:2 5:4 4:4 1:3 3:13 5:14 1:8 3:2 2:10 3:8
3:0 5:4 4:4 1:3 3:13 5:14 1:8 3:2 2:10 3:8 2:1
5:0 4:4 1:3 3:13 5:14 1:8 3:2 2:10 3:8 2:1 3:4
4:0 1:3 3:13 5:14 1:8 3:2 2:10 3:8 2:1 3:4 5:4
1:0 3:13 5:14 1:8 3:2 2:10 3:8 2:1 3:4 5:4 6:7
3:0 5:14 1:8 3:2 2:10 3:8 2:1 3:4 5:4 6:7 5:1
5:0 1:8 3:2 2:10 3:8 2:1 3:4 5:4 6:7 5:1 1:1
1:0 3:2 2:10 3:8 2:1 3:4 5:4 6:7 5:1 1:1 2:2
3:0 2:10 3:8 2:1 3:4 5:4 6:7 5:1 1:1 2:2 3:2
2:0 3:8 2:1 3:4 5:4 6:7 5:1 1:1 2:2 3:2 2:1
3:0 2:1 3:4 5:4 6:7 5:1 1:1 2:2 3:2 2:1 3:2
2:0 3:4 5:4 6:7 5:1 1:1 2:2 3:2 2:1 3:2 2:1
3:0 5:4 6:7 5:1 1:1 2:2 3:2 2:1 3:2 2:1 3:4
5:0 6:7 5:1 1:1 2:2 3:2 2:1 3:2 2:1 3:4 5:3
6:0 5:1 1:1 2:2 3:2 2:1 3:2 2:1 3:4 5:3 4:2
5:0 1:1 2:2 3:2 2:1 3:2 2:1 3:4 5:3 4:2 1:6
1:0 2:2 3:2 2:1 3:2 2:1 3:4 5:3 4:2 1:6 2:7
2:0 3:2 2:1 3:2 2:1 3:4 5:3 4:2 1:6 2:7 1:1
3:0 2:1 3:2 2:1 3:4 5:3 4:2 1:6 2:7 1:1 2:5
2:0 3:2 2:1 3:4 5:3 4:2 1:6 2:7 1:1 2:5 3:1
3:0 2:1 3:4 5:3 4:2 1:6 2:7 1:1 2:5 3:1 4:6
2:0 3:4 5:3 4:2 1:6 2:7 1:1 2:5 3:1 4:6 5:2
3:0 5:3 4:2 1:6 2:7 1:1 2:5 3:1 4:6 5:2 1:4
5:0 4:2 1:6 2:7 1:1 2:5 3:1 4:6 5:2 1:4 2:1
4:0 1:6 2:7 1:1 2:5 3:1 4:6 5:2 1:4 2:1 3:10
1:0 2:7 1:1 2:5 3:1 4:6 5:2 1:4 2:1 3:10 5:4
2:0 1:1 2:5 3:1 4:6 5:2 1:4 2:1 3:10 5:4 4:4
1:0 2:5 3:1 4:6 5:2 1:4 2:1 3:10 5:4 4:4 5:1
2:0 3:1 4:6 5:2 1:4 2:1 3:10 5:4 4:4 5:1 4:1
3:0 4:6 5:2 1:4 2:1 3:10 5:4 4:4 5:1 4:1 1:2
4:0 5:2 1:4 2:1 3:10 5:4 4:4 5:1 4:1 1:2 2:12
5:0 1:4 2:1 3:10 5:4 4:4 5:1 4:1 1:2 2:12 3:1
1:0 2:1 3:10 5:4 4:4 5:1 4:1 1:2 2:12 3:1 4:8
2:0 3:10 5:4 4:4 5:1 4:1 1:2 2:12 3:1 4:8 5:3
3:0 5:4 4:4 5:1 4:1 1:2 2:12 3:1 4:8 5:3 1:3
5:0 4:4 5:1 4:1 1:2 2:12 3:1 4:8 5:3 1:3 2:1
4:0 5:1 4:1 1:2 2:12 3:1 4:8 5:3 1:3 2:1 1:4
5:0 4:1 1:2 2:12 3:1 4:8 5:3 1:3 2:1 1:4 2:3
4:0 1:2 2:12 3:1 4:8 5:3 1:3 2:1 1:4 2:3 3:1
1:0 2:12 3:1 4:8 5:3 1:3 2:1 1:4 2:3 3:1 5:5
2:0 3:1 4:8 5:3 1:3 2:1 1:4 2:3 3:1 5:5 4:4
3:0 4:8 5:3 1:3 2:1 1:4 2:3 3:1 5:5 4:4 1:3
4:0 5:3 1:3 2:1 1:4 2:3 3:1 5:5 4:4 1:3 2:4
5:0 1:3 2:1 1:4 2:3 3:1 5:5 4:4 1:3 2:4 1:1
1:0 2:1 1:4 2:3 3:1 5:5 4:4 1:3 2:4 1:1 2:7
2:0 1:4 2:3 3:1 5:5 4:4 1:3 2:4 1:1 2:7 3:1
1:0 2:3 3:1 5:5 4:4 1:3 2:4 1:1 2:7 3:1 5:5
2:0 3:1 5:5 4:4 1:3 2:4 1:1 2:7 3:1 5:5 1:7
3:0 5:5 4:4 1:3 2:4 1:1 2:7 3:1 5:5 1:7 2:4
5:0 4:4 1:3 2:4 1:1 2:7 3:1 5:5 1:7 2:4 3:8
4:0 1:3 2:4 1:1 2:7 3:1 5:5 1:7 2:4 3:8 5:3
1:0 2:4 1:1 2:7 3:1 5:5 1:7 2:4 3:8 5:3 4:4
2:0 1:1 2:7 3:1 5:5 1:7 2:4 3:8 5:3 4:4 1:3
1:0 2:7 3:1 5:5 1:7 2:4 3:8 5:3 4:4 1:3 3:5
2:0 3:1 5:5 1:7 2:4 3:8 5:3 4:4 1:3 3:5 1:1
3:0 5:5 1:7 2:4 3:8 5:3 4:4 1:3 3:5 1:1 2:8
5:0 1:7 2:4 3:8 5:3 4:4 1:3 3:5 1:1 2:8 3:1
1:0 2:4 3:8 5:3 4:4 1:3 3:5 1:1 2:8 3:1 5:13
2:0 3:8 5:3 4:4 1:3 3:5 1:1 2:8 3:1 5:13 4:1
3:0 5:3 4:4 1:3 3:5 1:1 2:8 3:1 5:13 4:1 5:4
5:0 4:4 1:3 3:5 1:1 2:8 3:1 5:13 4:1 5:4 1:3
4:0 1:3 3:5 1:1 2:8 3:1 5:13 4:1 5:4 1:3 2:1
1:0 3:5 1:1 2:8 3:1 5:13 4:1 5:4 1:3 2:1 3:1
3:0 1:1 2:8 3:1 5:13 4:1 5:4 1:3 2:1 3:1 5:10
1:0 2:8 3:1 5:13 4:1 5:4 1:3 2:1 3:1 5:10 4:3
2:0 3:1 5:13 4:1 5:4 1:3 2:1 3:1 5:10 4:3 1:6
3:0 5:13 4:1 5:4 1:3 2:1 3:1 5:10 4:3 1:6 3:5
5:0 4:1 5:4 1:3 2:1 3:1 5:10 4:3 1:6 3:5 2:1
4:0 5:4 1:3 2:1 3:1 5:10 4:3 1:6 3:5 2:1 3:3
5:0 1:3 2:1 3:1 5:10 4:3 1:6 3:5 2:1 3:3 2:1
1:0 2:1 3:1 5:10 4:3 1:6 3:5 2:1 3:3 2:1 3:12
2:0 3:1 5:10 4:3 1:6 3:5 2:1 3:3 2:1 3:12 2:1
3:0 5:10 4:3 1:6 3:5 2:1 3:3 2:1 3:12 2:1 3:4
5:0 4:3 1:6 3:5 2:1 3:3 2:1 3:12 2:1 3:4 5:4
4:0 1:6 3:5 2:1 3:3 2:1 3:12 2:1 3:4 5:4 4:3
1:0 3:5 2:1 3:3 2:1 3:12 2:1 3:4 5:4 4:3 5:1
3:0 2:1 3:3 2:1 3:12 2:1 3:4 5:4 4:3 5:1 2:5
2:0 3:3 2:1 3:12 2:1 3:4 5:4 4:3 5:1 2:5 3:12
3:0 2:1 3:12 2:1 3:4 5:4 4:3 5:1 2:5 3:12 5:3
2:0 3:12 2:1 3:4 5:4 4:3 5:1 2:5 3:12 5:3 4:3
3:0 2:1 3:4 5:4 4:3 5:1 2:5 3:12 5:3 4:3 1:6
2:0 3:4 5:4 4:3 5:1 2:5 3:12 5:3 4:3 1:6 3:2
3:0 5:4 4:3 5:1 2:5 3:12 5:3 4:3 1:6 3:2 2:1
5:0 4:3 5:1 2:5 3:12 5:3 4:3 1:6 3:2 2:1 1:1
4:0 5:1 2:5 3:12 5:3 4:3 1:6 3:2 2:1 1:1 3:8
5:0 2:5 3:12 5:3 4:3 1:6 3:2 2:1 1:1 3:8 5:5
2:0 3:12 5:3 4:3 1:6 3:2 2:1 1:1 3:8 5:5 1:8
3:0 5:3 4:3 1:6 3:2 2:1 1:1 3:8 5:5 1:8 2:3
5:0 4:3 1:6 3:2 2:1 1:1 3:8 5:5 1:8 2:3 3:8
4:0 1:6 3:2 2:1 1:1 3:8 5:5 1:8 2:3 3:8 5:4
1:0 3:2 2:1 1:1 3:8 5:5 1:8 2:3 3:8 5:4 4:5
3:0 2:1 1:1 3:8 5:5 1:8 2:3 3:8 5:4 4:5 1:3
2:0 1:1 3:8 5:5 1:8 2:3 3:8 5:4 4:5 1:3 2:3
1:0 3:8 5:5 1:8 2:3 3:8 5:4 4:5 1:3 2:3 1:1
3:0 5:5 1:8 2:3 3:8 5:4 4:5 1:3 2:3 1:1 3:8
5:0 1:8 2:3 3:8 5:4 4:5 1:3 2:3 1:1 3:8 5:8
1:0 2:3 3:8 5:4 4:5 1:3 2:3 1:1 3:8 5:8 1:7
2:0 3:8 5:4 4:5 1:3 2:3 1:1 3:8 5:8 1:7 2:2
3:0 5:4 4:5 1:3 2:3 1:1 3:8 5:8 1:7 2:2 1:3
5:0 4:5 1:3 2:3 1:1 3:8 5:8 1:7 2:2 1:3 2:1
4:0 1:3 2:3 1:1 3:8 5:8 1:7 2:2 1:3 2:1 3:3
1:0 2:3 1:1 3:8 5:8 1:7 2:2 1:3 2:1 3:3 5:5
2:0 1:1 3:8 5:8 1:7 2:2 1:3 2:1 3:3 5:5 4:1
1:0 3:8 5:8 1:7 2:2 1:3 2:1 3:3 5:5 4:1 1:6
3:0 5:8 1:7 2:2 1:3 2:1 3:3 5:5 4:1 1:6 3:1
5:0 1:7 2:2 1:3 2:1 3:3 5:5 4:1 1:6 3:1 1:1
1:0 2:2 1:3 2:1 3:3 5:5 4:1 1:6 3:1 1:1 3:11
2:0 1:3 2:1 3:3 5:5 4:1 1:6 3:1 1:1 3:11 4:16
1:0 2:1 3:3 5:5 4:1 1:6 3:1 1:1 3:11 4:16 5:3
2:0 3:3 5:5 4:1 1:6 3:1 1:1 3:11 4:16 5:3 2:4
3:0 5:5 4:1 1:6 3:1 1:1 3:11 4:16 5:3 2:4 3:1
5:0 4:1 1:6 3:1 1:1 3:11 4:16 5:3 2:4 3:1 5:13
4:0 1:6 3:1 1:1 3:11 4:16 5:3 2:4 3:1 5:13 4:5
1:0 3:1 1:1 3:11 4:16 5:3 2:4 3:1 5:13 4:5 1:3
3:0 1:1 3:11 4:16 5:3 2:4 3:1 5:13 4:5 1:3 3:2
1:0 3:11 4:16 5:3 2:4 3:1 5:13 4:5 1:3 3:2 2:1
3:0 4:16 5:3 2:4 3:1 5:13 4:5 1:3 3:2 2:1 3:2
4:0 5:3 2:4 3:1 5:13 4:5 1:3 3:2 2:1 3:2 2:2
5:0 2:4 3:1 5:13 4:5 1:3 3:2 2:1 3:2 2:2 3:9
2:0 3:1 5:13 4:5 1:3 3:2 2:1 3:2 2:2 3:9 2:5
3:0 5:13 4:5 1:3 3:2 2:1 3:2 2:2 3:9 2:5 3:5
5:0 4:5 1:3 3:2 2:1 3:2 2:2 3:9 2:5 3:5 5:2
4:0 1:3 3:2 2:1 3:2 2:2 3:9 2:5 3:5 5:2 4:6
1:0 3:2 2:1 3:2 2:2 3:9 2:5 3:5 5:2 4:6 1:4
3:0 2:1 3:2 2:2 3:9 2:5 3:5 5:2 4:6 1:4 2:12
2:0 3:2 2:2 3:9 2:5 3:5 5:2 4:6 1:4 2:12 3:2
3:0 2:2 3:9 2:5 3:5 5:2 4:6 1:4 2:12 3:2 4:16
2:0 3:9 2:5 3:5 5:2 4:6 1:4 2:12 3:2 4:16 5:3
3:0 2:5 3:5 5:2 4:6 1:4 2:12 3:2 4:16 5:3 2:3
2:0 3:5 5:2 4:6 1:4 2:12 3:2 4:16 5:3 2:3 3:1
3:0 5:2 4:6 1:4 2:12 3:2 4:16 5:3 2:3 3:1 2:1
5:0 4:6 1:4 2:12 3:2 4:16 5:3 2:3 3:1 2:1 3:2
4:0 1:4 2:12 3:2 4:16 5:3 2:3 3:1 2:1 3:2 5:12
1:0 2:12 3:2 4:16 5:3 2:3 3:1 2:1 3:2 5:12 4:5
2:0 3:2 4:16 5:3 2:3 3:1 2:1 3:2 5:12 4:5 1:3
3:0 4:16 5:3 2:3 3:1 2:1 3:2 5:12 4:5 1:3 3:1
4:0 5:3 2:3 3:1 2:1 3:2 5:12 4:5 1:3 3:1 2:2
5:0 2:3 3:1 2:1 3:2 5:12 4:5 1:3 3:1 2:2 3:3
2:0 3:1 2:1 3:2 5:12 4:5 1:3 3:1 2:2 3:3 2:1
3:0 2:1 3:2 5:12 4:5 1:3 3:1 2:2 3:3 2:1 1:4
2:0 3:2 5:12 4:5 1:3 3:1 2:2 3:3 2:1 1:4 2:1
3:0 5:12 4:5 1:3 3:1 2:2 3:3 2:1 1:4 2:1 3:12
5:0 4:5 1:3 3:1 2:2 3:3 2:1 1:4 2:1 3:12 5:4
4:0 1:3 3:1 2:2 3:3 2:1 1:4 2:1 3:12 5:4 4:1
1:0 3:1 2:2 3:3 2:1 1:4 2:1 3:12 5:4 4:1 5:1
3:0 2:2 3:3 2:1 1:4 2:1 3:12 5:4 4:1 5:1 1:6
2:0 3:3 2:1 1:4 2:1 3:12 5:4 4:1 5:1 1:6 2:1
3:0 2:1 1:4 2:1 3:12 5:4 4:1 5:1 1:6 2:1 3:4
2:0 1:4 2:1 3:12 5:4 4:1 5:1 1:6 2:1 3:4 2:2
1:0 2:1 3:12 5:4 4:1 5:1 1:6 2:1 3:4 2:2 3:5
2:0 3:12 5:4 4:1 5:1 1:6 2:1 3:4 2:2 3:5 5:3
3:0 5:4 4:1 5:1 1:6 2:1 3:4 2:2 3:5 5:3 4:2
5:0 4:1 5:1 1:6 2:1 3:4 2:2 3:5 5:3 4:2 1:7
4:0 5:1 1:6 2:1 3:4 2:2 3:5 5:3 4:2 1:7 3:12
5:0 1:6 2:1 3:4 2:2 3:5 5:3 4:2 1:7 3:12 2:1
1:0 2:1 3:4 2:2 3:5 5:3 4:2 1:7 3:12 2:1 3:2
2:0 3:4 2:2 3:5 5:3 4:2 1:7 3:12 2:1 3:2 5:11
3:0 2:2 3:5 5:3 4:2 1:7 3:12 2:1 3:2 5:11 1:8
2:0 3:5 5:3 4:2 1:7 3:12 2:1 3:2 5:11 1:8 3:2
3:0 5:3 4:2 1:7 3:12 2:1 3:2 5:11 1:8 3:2 2:10
5:0 4:2 1:7 3:12 2:1 3:2 5:11 1:8 3:2 2:10 3:7
4:0 1:7 3:12 2:1 3:2 5:11 1:8 3:2 2:10 3:7 2:2
1:0 3:12 2:1 3:2 5:11 1:8 3:2 2:10 3:7 2:2 3:4
3:0 2:1 3:2 5:11 1:8 3:2 2:10 3:7 2:2 3:4 5:4
2:0 3:2 5:11 1:8 3:2 2:10 3:7 2:2 3:4 5:4 2:8
3:0 5:11 1:8 3:2 2:10 3:7 2:2 3:4 5:4 2:8 1:1
5:0 1:8 3:2 2:10 3:7 2:2 3:4 5:4 2:8 1:1 2:1
1:0 3:2 2:10 3:7 2:2 3:4 5:4 2:8 1:1 2:1 3:9
3:0 2:10 3:7 2:2 3:4 5:4 2:8 1:1 2:1 3:9 5:5
2:0 3:7 2:2 3:4 5:4 2:8 1:1 2:1 3:9 5:5 4:2
3:0 2:2 3:4 5:4 2:8 1:1 2:1 3:9 5:5 4:2 1:7
2:0 3:4 5:4 2:8 1:1 2:1 3:9 5:5 4:2 1:7 3:12
3:0 5:4 2:8 1:1 2:1 3:9 5:5 4:2 1:7 3:12 4:16
5:0 2:8 1:1 2:1 3:9 5:5 4:2 1:7 3:12 4:16 5:1
2:0 1:1 2:1 3:9 5:5 4:2 1:7 3:12 4:16 5:1 4:1
1:0 2:1 3:9 5:5 4:2 1:7 3:12 4:16 5:1 4:1 5:2
2:0 3:9 5:5 4:2 1:7 3:12 4:16 5:1 4:1 5:2 2:4
3:0 5:5 4:2 1:7 3:12 4:16 5:1 4:1 5:2 2:4 3:1
5:0 4:2 1:7 3:12 4:16 5:1 4:1 5:2 2:4 3:1 2:2
4:0 1:7 3:12 4:16 5:1 4:1 5:2 2:4 3:1 2:2 3:3
1:0 3:12 4:16 5:1 4:1 5:2 2:4 3:1 2:2 3:3 2:1
3:0 4:16 5:1 4:1 5:2 2:4 3:1 2:2 3:3 2:1 3:11
4:0 5:1 4:1 5:2 2:4 3:1 2:2 3:3 2:1 3:11 2:2
5:0 4:1 5:2 2:4 3:1 2:2 3:3 2:1 3:11 2:2 3:4
4:0 5:2 2:4 3:1 2:2 3:3 2:1 3:11 2:2 3:4 5:4
5:0 2:4 3:1 2:2 3:3 2:1 3:11 2:2 3:4 5:4 1:8
2:0 3:1 2:2 3:3 2:1 3:11 2:2 3:4 5:4 1:8 2:2
3:0 2:2 3:3 2:1 3:11 2:2 3:4 5:4 1:8 2:2 3:1
2:0 3:3 2:1 3:11 2:2 3:4 5:4 1:8 2:2 3:1 2:1
3:0 2:1 3:11 2:2 3:4 5:4 1:8 2:2 3:1 2:1 3:7
2:0 3:11 2:2 3:4 5:4 1:8 2:2 3:1 2:1 3:7 5:4
3:0 2:2 3:4 5:4 1:8 2:2 3:1 2:1 3:7 5:4 4:2
2:0 3:4 5:4 1:8 2:2 3:1 2:1 3:7 5:4 4:2 1:6
3:0 5:4 1:8 2:2 3:1 2:1 3:7 5:4 4:2 1:6 2:7
5:0 1:8 2:2 3:1 2:1 3:7 5:4 4:2 1:6 2:7 1:1
1:0 2:2 3:1 2:1 3:7 5:4 4:2 1:6 2:7 1:1 2:5
2:0 3:1 2:1 3:7 5:4 4:2 1:6 2:7 1:1 2:5 3:1
3:0 2:1 3:7 5:4 4:2 1:6 2:7 1:1 2:5 3:1 5:5
2:0 3:7 5:4 4:2 1:6 2:7 1:1 2:5 3:1 5:5 4:1
3:0 5:4 4:2 1:6 2:7 1:1 2:5 3:1 5:5 4:1 5:1
5:0 4:2 1:6 2:7 1:1 2:5 3:1 5:5 4:1 5:1 1:5
4:0 1:6 2:7 1:1 2:5 3:1 5:5 4:1 5:1 1:5 2:4
1:0 2:7 1:1 2:5 3:1 5:5 4:1 5:1 1:5 2:4 3:8
2:0 1:1 2:5 3:1 5:5 4:1 5:1 1:5 2:4 3:8 5:4
1:0 2:5 3:1 5:5 4:1 5:1 1:5 2:4 3:8 5:4 4:5
2:0 3:1 5:5 4:1 5:1 1:5 2:4 3:8 5:4 4:5 1:3
3:0 5:5 4:1 5:1 1:5 2:4 3:8 5:4 4:5 1:3 2:10
5:0 4:1 5:1 1:5 2:4 3:8 5:4 4:5 1:3 2:10 3:3
4:0 5:1 1:5 2:4 3:8 5:4 4:5 1:3 2:10 3:3 4:6
5:0 1:5 2:4 3:8 5:4 4:5 1:3 2:10 3:3 4:6 5:1
1:0 2:4 3:8 5:4 4:5 1:3 2:10 3:3 4:6 5:1 4:1
2:0 3:8 5:4 4:5 1:3 2:10 3:3 4:6 5:1 4:1 5:2
3:0 5:4 4:5 1:3 2:10 3:3 4:6 5:1 4:1 5:2 3:2
5:0 4:5 1:3 2:10 3:3 4:6 5:1 4:1 5:2 3:2 2:1
4:0 1:3 2:10 3:3 4:6 5:1 4:1 5:2 3:2 2:1 3:9
1:0 2:10 3:3 4:6 5:1 4:1 5:2 3:2 2:1 3:9 5:4
2:0 3:3 4:6 5:1 4:1 5:2 3:2 2:1 3:9 5:4 4:3
3:0 4:6 5:1 4:1 5:2 3:2 2:1 3:9 5:4 4:3 5:3
4:0 5:1 4:1 5:2 3:2 2:1 3:9 5:4 4:3 5:3 4:1
5:0 4:1 5:2 3:2 2:1 3:9 5:4 4:3 5:3 4:1 1:1
4:0 5:2 3:2 2:1 3:9 5:4 4:3 5:3 4:1 1:1 2:11
5:0 3:2 2:1 3:9 5:4 4:3 5:3 4:1 1:1 2:11 3:1
3:0 2:1 3:9 5:4 4:3 5:3 4:1 1:1 2:11 3:1 2:1
2:0 3:9 5:4 4:3 5:3 4:1 1:1 2:11 3:1 2:1 3:2
3:0 5:4 4:3 5:3 4:1 1:1 2:11 3:1 2:1 3:2 5:8
5:0 4:3 5:3 4:1 1:1 2:11 3:1 2:1 3:2 5:8 1:8
4:0 5:3 4:1 1:1 2:11 3:1 2:1 3:2 5:8 1:8 2:5
5:0 4:1 1:1 2:11 3:1 2:1 3:2 5:8 1:8 2:5 3:2
4:0 1:1 2:11 3:1 2:1 3:2 5:8 1:8 2:5 3:2 5:8
1:0 2:11 3:1 2:1 3:2 5:8 1:8 2:5 3:2 5:8 4:3
2:0 3:1 2:1 3:2 5:8 1:8 2:5 3:2 5:8 4:3 1:6
3:0 2:1 3:2 5:8 1:8 2:5 3:2 5:8 4:3 1:6 3:5
2:0 3:2 5:8 1:8 2:5 3:2 5:8 4:3 1:6 3:5 1:2
3:0 5:8 1:8 2:5 3:2 5:8 4:3 1:6 3:5 1:2 3:2
5:0 1:8 2:5 3:2 5:8 4:3 1:6 3:5 1:2 3:2 2:2
1:0 2:5 3:2 5:8 4:3 1:6 3:5 1:2 3:2 2:2 3:9
2:0 3:2 5:8 4:3 1:6 3:5 1:2 3:2 2:2 3:9 2:5
3:0 5:8 4:3 1:6 3:5 1:2 3:2 2:2 3:9 2:5 3:4
5:0 4:3 1:6 3:5 1:2 3:2 2:2 3:9 2:5 3:4 5:2
4:0 1:6 3:5 1:2 3:2 2:2 3:9 2:5 3:4 5:2 4:7
1:0 3:5 1:2 3:2 2:2 3:9 2:5 3:4 5:2 4:7 1:3
3:0 1:2 3:2 2:2 3:9 2:5 3:4 5:2 4:7 1:3 3:13
1:0 3:2 2:2 3:9 2:5 3:4 5:2 4:7 1:3 3:13 2:2
3:0 2:2 3:9 2:5 3:4 5:2 4:7 1:3 3:13 2:2 3:1
2:0 3:9 2:5 3:4 5:2 4:7 1:3 3:13 2:2 3:1 5:11
3:0 2:5 3:4 5:2 4:7 1:3 3:13 2:2 3:1 5:11 4:1
2:0 3:4 5:2 4:7 1:3 3:13 2:2 3:1 5:11 4:1 5:3
3:0 5:2 4:7 1:3 3:13 2:2 3:1 5:11 4:1 5:3 1:4
5:0 4:7 1:3 3:13 2:2 3:1 5:11 4:1 5:3 1:4 2:1
4:0 1:3 3:13 2:2 3:1 5:11 4:1 5:3 1:4 2:1 3:1
1:0 3:13 2:2 3:1 5:11 4:1 5:3 1:4 2:1 3:1 5:14
3:0 2:2 3:1 5:11 4:1 5:3 1:4 2:1 3:1 5:14 4:2
2:0 3:1 5:11 4:1 5:3 1:4 2:1 3:1 5:14 4:2 1:6
3:0 5:11 4:1 5:3 1:4 2:1 3:1 5:14 4:2 1:6 3:3
5:0 4:1 5:3 1:4 2:1 3:1 5:14 4:2 1:6 3:3 2:1
4:0 5:3 1:4 2:1 3:1 5:14 4:2 1:6 3:3 2:1 3:9
5:0 1:4 2:1 3:1 5:14 4:2 1:6 3:3 2:1 3:9 2:1
1:0 2:1 3:1 5:14 4:2 1:6 3:3 2:1 3:9 2:1 3:4
2:0 3:1 5:14 4:2 1:6 3:3 2:1 3:9 2:1 3:4 2:2
3:0 5:14 4:2 1:6 3:3 2:1 3:9 2:1 3:4 2:2 3:5
5:0 4:2 1:6 3:3 2:1 3:9 2:1 3:4 2:2 3:5 5:3
4:0 1:6 3:3 2:1 3:9 2:1 3:4 2:2 3:5 5:3 4:7
1:0 3:3 2:1 3:9 2:1 3:4 2:2 3:5 5:3 4:7 1:1
3:0 2:1 3:9 2:1 3:4 2:2 3:5 5:3 4:7 1:1 2:5
2:0 3:9 2:1 3:4 2:2 3:5 5:3 4:7 1:1 2:5 1:1
3:0 2:1 3:4 2:2 3:5 5:3 4:7 1:1 2:5 1:1 2:7
2:0 3:4 2:2 3:5 5:3 4:7 1:1 2:5 1:1 2:7 3:2
3:0 2:2 3:5 5:3 4:7 1:1 2:5 1:1 2:7 3:2 5:13
2:0 3:5 5:3 4:7 1:1 2:5 1:1 2:7 3:2 5:13 1:8
3:0 5:3 4:7 1:1 2:5 1:1 2:7 3:2 5:13 1:8 2:1
5:0 4:7 1:1 2:5 1:1 2:7 3:2 5:13 1:8 2:1 3:2
4:0 1:1 2:5 1:1 2:7 3:2 5:13 1:8 2:1 3:2 5:12
1:0 2:5 1:1 2:7 3:2 5:13 1:8 2:1 3:2 5:12 4:3
2:0 1:1 2:7 3:2 5:13 1:8 2:1 3:2 5:12 4:3 1:6
1:0 2:7 3:2 5:13 1:8 2:1 3:2 5:12 4:3 1:6 3:1
2:0 3:2 5:13 1:8 2:1 3:2 5:12 4:3 1:6 3:1 2:2
3:0 5:13 1:8 2:1 3:2 5:12 4:3 1:6 3:1 2:2 3:2
5:0 1:8 2:1 3:2 5:12 4:3 1:6 3:1 2:2 3:2 2:5
1:0 2:1 3:2 5:12 4:3 1:6 3:1 2:2 3:2 2:5 3:10
2:0 3:2 5:12 4:3 1:6 3:1 2:2 3:2 2:5 3:10 2:1
3:0 5:12 4:3 1:6 3:1 2:2 3:2 2:5 3:10 2:1 3:3
5:0 4:3 1:6 3:1 2:2 3:2 2:5 3:10 2:1 3:3 5:5
4:0 1:6 3:1 2:2 3:2 2:5 3:10 2:1 3:3 5:5 1:7
1:0 3:1 2:2 3:2 2:5 3:10 2:1 3:3 5:5 1:7 2:3
3:0 2:2 3:2 2:5 3:10 2:1 3:3 5:5 1:7 2:3 3:1
2:0 3:2 2:5 3:10 2:1 3:3 5:5 1:7 2:3 3:1 2:1
3:0 2:5 3:10 2:1 3:3 5:5 1:7 2:3 3:1 2:1 3:2
2:0 3:10 2:1 3:3 5:5 1:7 2:3 3:1 2:1 3:2 2:1
3:0 2:1 3:3 5:5 1:7 2:3 3:1 2:1 3:2 2:1
2:0 3:3 5:5 1:7 2:3 3:1 2:1 3:2 2:1
3:0 5:5 1:7 2:3 3:1 2:1 3:2 2:1
5:0 1:7 2:3 3:1 2:1 3:2 2:1
1:0 2:3 3:1 2:1 3:2 2:1
2:0 3:1 2:1 3:2 2:1
3:0 2:1 3:2 2:1
2:0 3:2 2:1
3:0 2:1
2:0