3:0 1:5 3:2 1:11 3:2 1:8 3:2 1:2 3:1 1:9 3:2
1:0 3:2 1:11 3:2 1:8 3:2 1:2 3:1 1:9 3:2 1:9
3:0 1:11 3:2 1:8 3:2 1:2 3:1 1:9 3:2 1:9 3:3
1:0 3:2 1:8 3:2 1:2 3:1 1:9 3:2 1:9 3:3 1:9
3:0 1:8 3:2 1:2 3:1 1:9 3:2 1:9 3:3 1:9 3:1
1:0 3:2 1:2 3:1 1:9 3:2 1:9 3:3 1:9 3:1 1:10
3:0 1:2 3:1 1:9 3:2 1:9 3:3 1:9 3:1 1:10 3:2
1:0 3:1 1:9 3:2 1:9 3:3 1:9 3:1 1:10 3:2 1:6
3:0 1:9 3:2 1:9 3:3 1:9 3:1 1:10 3:2 1:6 3:2
1:0 3:2 1:9 3:3 1:9 3:1 1:10 3:2 1:6 3:2 1:13
3:0 1:9 3:3 1:9 3:1 1:10 3:2 1:6 3:2 1:13 3:2
1:0 3:3 1:9 3:1 1:10 3:2 1:6 3:2 1:13 3:2 1:4
3:0 1:9 3:1 1:10 3:2 1:6 3:2 1:13 3:2 1:4 3:1
1:0 3:1 1:10 3:2 1:6 3:2 1:13 3:2 1:4 3:1 1:8
3:0 1:10 3:2 1:6 3:2 1:13 3:2 1:4 3:1 1:8 3:1
1:0 3:2 1:6 3:2 1:13 3:2 1:4 3:1 1:8 3:1 1:9
3:0 1:6 3:2 1:13 3:2 1:4 3:1 1:8 3:1 1:9 3:2
1:0 3:2 1:13 3:2 1:4 3:1 1:8 3:1 1:9 3:2 1:2
3:0 1:13 3:2 1:4 3:1 1:8 3:1 1:9 3:2 1:2 3:2
1:0 3:2 1:4 3:1 1:8 3:1 1:9 3:2 1:2 3:2 1:7
3:0 1:4 3:1 1:8 3:1 1:9 3:2 1:2 3:2 1:7 3:2
1:0 3:1 1:8 3:1 1:9 3:2 1:2 3:2 1:7 3:2 1:9
3:0 1:8 3:1 1:9 3:2 1:2 3:2 1:7 3:2 1:9 3:2
1:0 3:1 1:9 3:2 1:2 3:2 1:7 3:2 1:9 3:2 1:4
3:0 1:9 3:2 1:2 3:2 1:7 3:2 1:9 3:2 1:4 3:2
1:0 3:2 1:2 3:2 1:7 3:2 1:9 3:2 1:4 3:2 1:16
3:0 1:2 3:2 1:7 3:2 1:9 3:2 1:4 3:2 1:16 3:3
1:0 3:2 1:7 3:2 1:9 3:2 1:4 3:2 1:16 3:3 1:4
3:0 1:7 3:2 1:9 3:2 1:4 3:2 1:16 3:3 1:4 3:1
1:0 3:2 1:9 3:2 1:4 3:2 1:16 3:3 1:4 3:1 1:9
3:0 1:9 3:2 1:4 3:2 1:16 3:3 1:4 3:1 1:9 3:1
1:0 3:2 1:4 3:2 1:16 3:3 1:4 3:1 1:9 3:1 1:7
3:0 1:4 3:2 1:16 3:3 1:4 3:1 1:9 3:1 1:7 3:2
1:0 3:2 1:16 3:3 1:4 3:1 1:9 3:1 1:7 3:2 1:7
3:0 1:16 3:3 1:4 3:1 1:9 3:1 1:7 3:2 1:7 3:2
1:0 3:3 1:4 3:1 1:9 3:1 1:7 3:2 1:7 3:2 1:12
3:0 1:4 3:1 1:9 3:1 1:7 3:2 1:7 3:2 1:12 3:2
1:0 3:1 1:9 3:1 1:7 3:2 1:7 3:2 1:12 3:2 1:3
3:0 1:9 3:1 1:7 3:2 1:7 3:2 1:12 3:2 1:3 3:1
1:0 3:1 1:7 3:2 1:7 3:2 1:12 3:2 1:3 3:1 1:9
3:0 1:7 3:2 1:7 3:2 1:12 3:2 1:3 3:1 1:9 3:1
1:0 3:2 1:7 3:2 1:12 3:2 1:3 3:1 1:9 3:1 1:8
3:0 1:7 3:2 1:12 3:2 1:3 3:1 1:9 3:1 1:8 3:2
1:0 3:2 1:12 3:2 1:3 3:1 1:9 3:1 1:8 3:2 1:3
3:0 1:12 3:2 1:3 3:1 1:9 3:1 1:8 3:2 1:3 3:1
1:0 3:2 1:3 3:1 1:9 3:1 1:8 3:2 1:3 3:1 1:9
3:0 1:3 3:1 1:9 3:1 1:8 3:2 1:3 3:1 1:9 3:1
1:0 3:1 1:9 3:1 1:8 3:2 1:3 3:1 1:9 3:1 1:8
3:0 1:9 3:1 1:8 3:2 1:3 3:1 1:9 3:1 1:8 3:2
1:0 3:1 1:8 3:2 1:3 3:1 1:9 3:1 1:8 3:2 1:8
3:0 1:8 3:2 1:3 3:1 1:9 3:1 1:8 3:2 1:8 3:1
1:0 3:2 1:3 3:1 1:9 3:1 1:8 3:2 1:8 3:1 1:12
3:0 1:3 3:1 1:9 3:1 1:8 3:2 1:8 3:1 1:12 3:2
1:0 3:1 1:9 3:1 1:8 3:2 1:8 3:1 1:12 3:2 1:3
3:0 1:9 3:1 1:8 3:2 1:8 3:1 1:12 3:2 1:3 3:1
1:0 3:1 1:8 3:2 1:8 3:1 1:12 3:2 1:3 3:1 1:8
3:0 1:8 3:2 1:8 3:1 1:12 3:2 1:3 3:1 1:8 3:1
1:0 3:2 1:8 3:1 1:12 3:2 1:3 3:1 1:8 3:1 1:10
3:0 1:8 3:1 1:12 3:2 1:3 3:1 1:8 3:1 1:10 3:2
1:0 3:1 1:12 3:2 1:3 3:1 1:8 3:1 1:10 3:2 1:3
3:0 1:12 3:2 1:3 3:1 1:8 3:1 1:10 3:2 1:3 3:1
1:0 3:2 1:3 3:1 1:8 3:1 1:10 3:2 1:3 3:1 1:18
3:0 1:3 3:1 1:8 3:1 1:10 3:2 1:3 3:1 1:18 3:2
1:0 3:1 1:8 3:1 1:10 3:2 1:3 3:1 1:18 3:2 1:5
3:0 1:8 3:1 1:10 3:2 1:3 3:1 1:18 3:2 1:5 3:1
1:0 3:1 1:10 3:2 1:3 3:1 1:18 3:2 1:5 3:1 1:7
3:0 1:10 3:2 1:3 3:1 1:18 3:2 1:5 3:1 1:7 3:2
1:0 3:2 1:3 3:1 1:18 3:2 1:5 3:1 1:7 3:2 1:7
3:0 1:3 3:1 1:18 3:2 1:5 3:1 1:7 3:2 1:7 3:2
1:0 3:1 1:18 3:2 1:5 3:1 1:7 3:2 1:7 3:2 1:7
3:0 1:18 3:2 1:5 3:1 1:7 3:2 1:7 3:2 1:7 3:2
1:0 3:2 1:5 3:1 1:7 3:2 1:7 3:2 1:7 3:2 1:13
3:0 1:5 3:1 1:7 3:2 1:7 3:2 1:7 3:2 1:13 3:2
1:0 3:1 1:7 3:2 1:7 3:2 1:7 3:2 1:13 3:2 1:7
3:0 1:7 3:2 1:7 3:2 1:7 3:2 1:13 3:2 1:7 3:2
1:0 3:2 1:7 3:2 1:7 3:2 1:13 3:2 1:7 3:2 1:12
3:0 1:7 3:2 1:7 3:2 1:13 3:2 1:7 3:2 1:12 3:3
1:0 3:2 1:7 3:2 1:13 3:2 1:7 3:2 1:12 3:3 1:4
3:0 1:7 3:2 1:13 3:2 1:7 3:2 1:12 3:3 1:4 3:1
1:0 3:2 1:13 3:2 1:7 3:2 1:12 3:3 1:4 3:1 1:6
3:0 1:13 3:2 1:7 3:2 1:12 3:3 1:4 3:1 1:6 3:2
1:0 3:2 1:7 3:2 1:12 3:3 1:4 3:1 1:6 3:2 1:9
3:0 1:7 3:2 1:12 3:3 1:4 3:1 1:6 3:2 1:9 3:2
1:0 3:2 1:12 3:3 1:4 3:1 1:6 3:2 1:9 3:2 1:6
3:0 1:12 3:3 1:4 3:1 1:6 3:2 1:9 3:2 1:6 3:2
1:0 3:3 1:4 3:1 1:6 3:2 1:9 3:2 1:6 3:2 1:14
3:0 1:4 3:1 1:6 3:2 1:9 3:2 1:6 3:2 1:14 3:2
1:0 3:1 1:6 3:2 1:9 3:2 1:6 3:2 1:14 3:2 1:4
3:0 1:6 3:2 1:9 3:2 1:6 3:2 1:14 3:2 1:4 3:1
1:0 3:2 1:9 3:2 1:6 3:2 1:14 3:2 1:4 3:1 1:6
3:0 1:9 3:2 1:6 3:2 1:14 3:2 1:4 3:1 1:6 3:2
1:0 3:2 1:6 3:2 1:14 3:2 1:4 3:1 1:6 3:2 1:8
3:0 1:6 3:2 1:14 3:2 1:4 3:1 1:6 3:2 1:8 3:3
1:0 3:2 1:14 3:2 1:4 3:1 1:6 3:2 1:8 3:3 1:2
3:0 1:14 3:2 1:4 3:1 1:6 3:2 1:8 3:3 1:2 3:2
1:0 3:2 1:4 3:1 1:6 3:2 1:8 3:3 1:2 3:2 1:18
3:0 1:4 3:1 1:6 3:2 1:8 3:3 1:2 3:2 1:18 3:2
1:0 3:1 1:6 3:2 1:8 3:3 1:2 3:2 1:18 3:2 1:6
3:0 1:6 3:2 1:8 3:3 1:2 3:2 1:18 3:2 1:6 3:1
1:0 3:2 1:8 3:3 1:2 3:2 1:18 3:2 1:6 3:1 1:12
3:0 1:8 3:3 1:2 3:2 1:18 3:2 1:6 3:1 1:12 3:2
1:0 3:3 1:2 3:2 1:18 3:2 1:6 3:1 1:12 3:2 1:3
3:0 1:2 3:2 1:18 3:2 1:6 3:1 1:12 3:2 1:3 3:2
1:0 3:2 1:18 3:2 1:6 3:1 1:12 3:2 1:3 3:2 1:11
3:0 1:18 3:2 1:6 3:1 1:12 3:2 1:3 3:2 1:11 3:1
1:0 3:2 1:6 3:1 1:12 3:2 1:3 3:2 1:11 3:1 1:9
3:0 1:6 3:1 1:12 3:2 1:3 3:2 1:11 3:1 1:9 3:2
1:0 3:1 1:12 3:2 1:3 3:2 1:11 3:1 1:9 3:2 1:10
3:0 1:12 3:2 1:3 3:2 1:11 3:1 1:9 3:2 1:10 3:1
1:0 3:2 1:3 3:2 1:11 3:1 1:9 3:2 1:10 3:1 1:10
3:0 1:3 3:2 1:11 3:1 1:9 3:2 1:10 3:1 1:10 3:3
1:0 3:2 1:11 3:1 1:9 3:2 1:10 3:1 1:10 3:3 1:8
3:0 1:11 3:1 1:9 3:2 1:10 3:1 1:10 3:3 1:8 3:1
1:0 3:1 1:9 3:2 1:10 3:1 1:10 3:3 1:8 3:1 1:13
3:0 1:9 3:2 1:10 3:1 1:10 3:3 1:8 3:1 1:13 3:2
1:0 3:2 1:10 3:1 1:10 3:3 1:8 3:1 1:13 3:2 1:7
3:0 1:10 3:1 1:10 3:3 1:8 3:1 1:13 3:2 1:7 3:2
1:0 3:1 1:10 3:3 1:8 3:1 1:13 3:2 1:7 3:2 1:10
3:0 1:10 3:3 1:8 3:1 1:13 3:2 1:7 3:2 1:10 3:2
1:0 3:3 1:8 3:1 1:13 3:2 1:7 3:2 1:10 3:2 1:2
3:0 1:8 3:1 1:13 3:2 1:7 3:2 1:10 3:2 1:2 3:2
1:0 3:1 1:13 3:2 1:7 3:2 1:10 3:2 1:2 3:2 1:9
3:0 1:13 3:2 1:7 3:2 1:10 3:2 1:2 3:2 1:9 3:1
1:0 3:2 1:7 3:2 1:10 3:2 1:2 3:2 1:9 3:1 1:9
3:0 1:7 3:2 1:10 3:2 1:2 3:2 1:9 3:1 1:9 3:3
1:0 3:2 1:10 3:2 1:2 3:2 1:9 3:1 1:9 3:3 1:2
3:0 1:10 3:2 1:2 3:2 1:9 3:1 1:9 3:3 1:2 3:2
1:0 3:2 1:2 3:2 1:9 3:1 1:9 3:3 1:2 3:2 1:17
3:0 1:2 3:2 1:9 3:1 1:9 3:3 1:2 3:2 1:17 3:2
1:0 3:2 1:9 3:1 1:9 3:3 1:2 3:2 1:17 3:2 1:4
3:0 1:9 3:1 1:9 3:3 1:2 3:2 1:17 3:2 1:4 3:1
1:0 3:1 1:9 3:3 1:2 3:2 1:17 3:2 1:4 3:1 1:8
3:0 1:9 3:3 1:2 3:2 1:17 3:2 1:4 3:1 1:8 3:1
1:0 3:3 1:2 3:2 1:17 3:2 1:4 3:1 1:8 3:1 1:9
3:0 1:2 3:2 1:17 3:2 1:4 3:1 1:8 3:1 1:9 3:2
1:0 3:2 1:17 3:2 1:4 3:1 1:8 3:1 1:9 3:2 1:5
3:0 1:17 3:2 1:4 3:1 1:8 3:1 1:9 3:2 1:5 3:2
1:0 3:2 1:4 3:1 1:8 3:1 1:9 3:2 1:5 3:2 1:3
3:0 1:4 3:1 1:8 3:1 1:9 3:2 1:5 3:2 1:3 3:1
1:0 3:1 1:8 3:1 1:9 3:2 1:5 3:2 1:3 3:1 1:10
3:0 1:8 3:1 1:9 3:2 1:5 3:2 1:3 3:1 1:10 3:2
1:0 3:1 1:9 3:2 1:5 3:2 1:3 3:1 1:10 3:2 1:3
3:0 1:9 3:2 1:5 3:2 1:3 3:1 1:10 3:2 1:3 3:2
1:0 3:2 1:5 3:2 1:3 3:1 1:10 3:2 1:3 3:2 1:5
3:0 1:5 3:2 1:3 3:1 1:10 3:2 1:3 3:2 1:5 3:1
1:0 3:2 1:3 3:1 1:10 3:2 1:3 3:2 1:5 3:1 1:12
3:0 1:3 3:1 1:10 3:2 1:3 3:2 1:5 3:1 1:12 3:2
1:0 3:1 1:10 3:2 1:3 3:2 1:5 3:1 1:12 3:2 1:6
3:0 1:10 3:2 1:3 3:2 1:5 3:1 1:12 3:2 1:6 3:1
1:0 3:2 1:3 3:2 1:5 3:1 1:12 3:2 1:6 3:1 1:13
3:0 1:3 3:2 1:5 3:1 1:12 3:2 1:6 3:1 1:13 3:2
1:0 3:2 1:5 3:1 1:12 3:2 1:6 3:1 1:13 3:2 1:2
3:0 1:5 3:1 1:12 3:2 1:6 3:1 1:13 3:2 1:2 3:2
1:0 3:1 1:12 3:2 1:6 3:1 1:13 3:2 1:2 3:2 1:7
3:0 1:12 3:2 1:6 3:1 1:13 3:2 1:2 3:2 1:7 3:1
1:0 3:2 1:6 3:1 1:13 3:2 1:2 3:2 1:7 3:1 1:11
3:0 1:6 3:1 1:13 3:2 1:2 3:2 1:7 3:1 1:11 3:3
1:0 3:1 1:13 3:2 1:2 3:2 1:7 3:1 1:11 3:3 1:9
3:0 1:13 3:2 1:2 3:2 1:7 3:1 1:11 3:3 1:9 3:1
1:0 3:2 1:2 3:2 1:7 3:1 1:11 3:3 1:9 3:1 1:11
3:0 1:2 3:2 1:7 3:1 1:11 3:3 1:9 3:1 1:11 3:2
1:0 3:2 1:7 3:1 1:11 3:3 1:9 3:1 1:11 3:2 1:2
3:0 1:7 3:1 1:11 3:3 1:9 3:1 1:11 3:2 1:2 3:2
1:0 3:1 1:11 3:3 1:9 3:1 1:11 3:2 1:2 3:2 1:17
3:0 1:11 3:3 1:9 3:1 1:11 3:2 1:2 3:2 1:17 3:2
1:0 3:3 1:9 3:1 1:11 3:2 1:2 3:2 1:17 3:2 1:3
3:0 1:9 3:1 1:11 3:2 1:2 3:2 1:17 3:2 1:3 3:1
1:0 3:1 1:11 3:2 1:2 3:2 1:17 3:2 1:3 3:1 1:17
3:0 1:11 3:2 1:2 3:2 1:17 3:2 1:3 3:1 1:17 3:1
1:0 3:2 1:2 3:2 1:17 3:2 1:3 3:1 1:17 3:1 1:3
3:0 1:2 3:2 1:17 3:2 1:3 3:1 1:17 3:1 1:3 3:2
1:0 3:2 1:17 3:2 1:3 3:1 1:17 3:1 1:3 3:2 1:4
3:0 1:17 3:2 1:3 3:1 1:17 3:1 1:3 3:2 1:4 3:1
1:0 3:2 1:3 3:1 1:17 3:1 1:3 3:2 1:4 3:1 1:8
3:0 1:3 3:1 1:17 3:1 1:3 3:2 1:4 3:1 1:8 3:1
1:0 3:1 1:17 3:1 1:3 3:2 1:4 3:1 1:8 3:1 1:7
3:0 1:17 3:1 1:3 3:2 1:4 3:1 1:8 3:1 1:7 3:2
1:0 3:1 1:3 3:2 1:4 3:1 1:8 3:1 1:7 3:2 1:7
3:0 1:3 3:2 1:4 3:1 1:8 3:1 1:7 3:2 1:7 3:1
1:0 3:2 1:4 3:1 1:8 3:1 1:7 3:2 1:7 3:1 1:13
3:0 1:4 3:1 1:8 3:1 1:7 3:2 1:7 3:1 1:13 3:2
1:0 3:1 1:8 3:1 1:7 3:2 1:7 3:1 1:13 3:2 1:3
3:0 1:8 3:1 1:7 3:2 1:7 3:1 1:13 3:2 1:3 3:2
1:0 3:1 1:7 3:2 1:7 3:1 1:13 3:2 1:3 3:2 1:6
3:0 1:7 3:2 1:7 3:1 1:13 3:2 1:3 3:2 1:6 3:1
1:0 3:2 1:7 3:1 1:13 3:2 1:3 3:2 1:6 3:1 1:12
3:0 1:7 3:1 1:13 3:2 1:3 3:2 1:6 3:1 1:12 3:2
1:0 3:1 1:13 3:2 1:3 3:2 1:6 3:1 1:12 3:2 1:6
3:0 1:13 3:2 1:3 3:2 1:6 3:1 1:12 3:2 1:6 3:1
1:0 3:2 1:3 3:2 1:6 3:1 1:12 3:2 1:6 3:1 1:12
3:0 1:3 3:2 1:6 3:1 1:12 3:2 1:6 3:1 1:12 3:2
1:0 3:2 1:6 3:1 1:12 3:2 1:6 3:1 1:12 3:2 1:3
3:0 1:6 3:1 1:12 3:2 1:6 3:1 1:12 3:2 1:3 3:1
1:0 3:1 1:12 3:2 1:6 3:1 1:12 3:2 1:3 3:1 1:8
3:0 1:12 3:2 1:6 3:1 1:12 3:2 1:3 3:1 1:8 3:2
1:0 3:2 1:6 3:1 1:12 3:2 1:3 3:1 1:8 3:2 1:9
3:0 1:6 3:1 1:12 3:2 1:3 3:1 1:8 3:2 1:9 3:3
1:0 3:1 1:12 3:2 1:3 3:1 1:8 3:2 1:9 3:3 1:2
3:0 1:12 3:2 1:3 3:1 1:8 3:2 1:9 3:3 1:2 3:2
1:0 3:2 1:3 3:1 1:8 3:2 1:9 3:3 1:2 3:2 1:17
3:0 1:3 3:1 1:8 3:2 1:9 3:3 1:2 3:2 1:17 3:1
1:0 3:1 1:8 3:2 1:9 3:3 1:2 3:2 1:17 3:1 1:3
3:0 1:8 3:2 1:9 3:3 1:2 3:2 1:17 3:1 1:3 3:1
1:0 3:2 1:9 3:3 1:2 3:2 1:17 3:1 1:3 3:1 1:8
3:0 1:9 3:3 1:2 3:2 1:17 3:1 1:3 3:1 1:8 3:1
1:0 3:3 1:2 3:2 1:17 3:1 1:3 3:1 1:8 3:1 1:12
3:0 1:2 3:2 1:17 3:1 1:3 3:1 1:8 3:1 1:12 3:2
1:0 3:2 1:17 3:1 1:3 3:1 1:8 3:1 1:12 3:2 1:4
3:0 1:17 3:1 1:3 3:1 1:8 3:1 1:12 3:2 1:4 3:2
1:0 3:1 1:3 3:1 1:8 3:1 1:12 3:2 1:4 3:2 1:5
3:0 1:3 3:1 1:8 3:1 1:12 3:2 1:4 3:2 1:5 3:2
1:0 3:1 1:8 3:1 1:12 3:2 1:4 3:2 1:5 3:2 1:9
3:0 1:8 3:1 1:12 3:2 1:4 3:2 1:5 3:2 1:9 3:2
1:0 3:1 1:12 3:2 1:4 3:2 1:5 3:2 1:9 3:2 1:10
3:0 1:12 3:2 1:4 3:2 1:5 3:2 1:9 3:2 1:10 3:1
1:0 3:2 1:4 3:2 1:5 3:2 1:9 3:2 1:10 3:1 1:9
3:0 1:4 3:2 1:5 3:2 1:9 3:2 1:10 3:1 1:9 3:2
1:0 3:2 1:5 3:2 1:9 3:2 1:10 3:1 1:9 3:2 1:2
3:0 1:5 3:2 1:9 3:2 1:10 3:1 1:9 3:2 1:2 3:2
1:0 3:2 1:9 3:2 1:10 3:1 1:9 3:2 1:2 3:2 1:7
3:0 1:9 3:2 1:10 3:1 1:9 3:2 1:2 3:2 1:7 3:1
1:0 3:2 1:10 3:1 1:9 3:2 1:2 3:2 1:7 3:1 1:11
3:0 1:10 3:1 1:9 3:2 1:2 3:2 1:7 3:1 1:11 3:2
1:0 3:1 1:9 3:2 1:2 3:2 1:7 3:1 1:11 3:2 1:2
3:0 1:9 3:2 1:2 3:2 1:7 3:1 1:11 3:2 1:2 3:1
1:0 3:2 1:2 3:2 1:7 3:1 1:11 3:2 1:2 3:1 1:10
3:0 1:2 3:2 1:7 3:1 1:11 3:2 1:2 3:1 1:10 3:1
1:0 3:2 1:7 3:1 1:11 3:2 1:2 3:1 1:10 3:1 1:8
3:0 1:7 3:1 1:11 3:2 1:2 3:1 1:10 3:1 1:8 3:2
1:0 3:1 1:11 3:2 1:2 3:1 1:10 3:1 1:8 3:2 1:9
3:0 1:11 3:2 1:2 3:1 1:10 3:1 1:8 3:2 1:9 3:2
1:0 3:2 1:2 3:1 1:10 3:1 1:8 3:2 1:9 3:2 1:10
3:0 1:2 3:1 1:10 3:1 1:8 3:2 1:9 3:2 1:10 3:3
1:0 3:1 1:10 3:1 1:8 3:2 1:9 3:2 1:10 3:3 1:2
3:0 1:10 3:1 1:8 3:2 1:9 3:2 1:10 3:3 1:2 3:1
1:0 3:1 1:8 3:2 1:9 3:2 1:10 3:3 1:2 3:1 1:18
3:0 1:8 3:2 1:9 3:2 1:10 3:3 1:2 3:1 1:18 3:2
1:0 3:2 1:9 3:2 1:10 3:3 1:2 3:1 1:18 3:2 1:3
3:0 1:9 3:2 1:10 3:3 1:2 3:1 1:18 3:2 1:3 3:2
1:0 3:2 1:10 3:3 1:2 3:1 1:18 3:2 1:3 3:2 1:8
3:0 1:10 3:3 1:2 3:1 1:18 3:2 1:3 3:2 1:8 3:2
1:0 3:3 1:2 3:1 1:18 3:2 1:3 3:2 1:8 3:2 1:9
3:0 1:2 3:1 1:18 3:2 1:3 3:2 1:8 3:2 1:9 3:2
1:0 3:1 1:18 3:2 1:3 3:2 1:8 3:2 1:9 3:2 1:6
3:0 1:18 3:2 1:3 3:2 1:8 3:2 1:9 3:2 1:6 3:1
1:0 3:2 1:3 3:2 1:8 3:2 1:9 3:2 1:6 3:1 1:13
3:0 1:3 3:2 1:8 3:2 1:9 3:2 1:6 3:1 1:13 3:3
1:0 3:2 1:8 3:2 1:9 3:2 1:6 3:1 1:13 3:3 1:7
3:0 1:8 3:2 1:9 3:2 1:6 3:1 1:13 3:3 1:7 3:2
1:0 3:2 1:9 3:2 1:6 3:1 1:13 3:3 1:7 3:2 1:12
3:0 1:9 3:2 1:6 3:1 1:13 3:3 1:7 3:2 1:12 3:2
1:0 3:2 1:6 3:1 1:13 3:3 1:7 3:2 1:12 3:2 1:2
3:0 1:6 3:1 1:13 3:3 1:7 3:2 1:12 3:2 1:2 3:2
1:0 3:1 1:13 3:3 1:7 3:2 1:12 3:2 1:2 3:2 1:17
3:0 1:13 3:3 1:7 3:2 1:12 3:2 1:2 3:2 1:17 3:2
1:0 3:3 1:7 3:2 1:12 3:2 1:2 3:2 1:17 3:2 1:2
3:0 1:7 3:2 1:12 3:2 1:2 3:2 1:17 3:2 1:2 3:2
1:0 3:2 1:12 3:2 1:2 3:2 1:17 3:2 1:2 3:2 1:5
3:0 1:12 3:2 1:2 3:2 1:17 3:2 1:2 3:2 1:5 3:2
1:0 3:2 1:2 3:2 1:17 3:2 1:2 3:2 1:5 3:2 1:11
3:0 1:2 3:2 1:17 3:2 1:2 3:2 1:5 3:2 1:11 3:2
1:0 3:2 1:17 3:2 1:2 3:2 1:5 3:2 1:11 3:2 1:2
3:0 1:17 3:2 1:2 3:2 1:5 3:2 1:11 3:2 1:2 3:2
1:0 3:2 1:2 3:2 1:5 3:2 1:11 3:2 1:2 3:2 1:8
3:0 1:2 3:2 1:5 3:2 1:11 3:2 1:2 3:2 1:8 3:2
1:0 3:2 1:5 3:2 1:11 3:2 1:2 3:2 1:8 3:2 1:9
3:0 1:5 3:2 1:11 3:2 1:2 3:2 1:8 3:2 1:9 3:2
1:0 3:2 1:11 3:2 1:2 3:2 1:8 3:2 1:9 3:2 1:3
3:0 1:11 3:2 1:2 3:2 1:8 3:2 1:9 3:2 1:3 3:1
1:0 3:2 1:2 3:2 1:8 3:2 1:9 3:2 1:3 3:1 1:19
3:0 1:2 3:2 1:8 3:2 1:9 3:2 1:3 3:1 1:19 3:2
1:0 3:2 1:8 3:2 1:9 3:2 1:3 3:1 1:19 3:2 1:7
3:0 1:8 3:2 1:9 3:2 1:3 3:1 1:19 3:2 1:7 3:1
1:0 3:2 1:9 3:2 1:3 3:1 1:19 3:2 1:7 3:1 1:13
3:0 1:9 3:2 1:3 3:1 1:19 3:2 1:7 3:1 1:13 3:3
1:0 3:2 1:3 3:1 1:19 3:2 1:7 3:1 1:13 3:3 1:2
3:0 1:3 3:1 1:19 3:2 1:7 3:1 1:13 3:3 1:2 3:2
1:0 3:1 1:19 3:2 1:7 3:1 1:13 3:3 1:2 3:2 1:8
3:0 1:19 3:2 1:7 3:1 1:13 3:3 1:2 3:2 1:8 3:1
1:0 3:2 1:7 3:1 1:13 3:3 1:2 3:2 1:8 3:1 1:10
3:0 1:7 3:1 1:13 3:3 1:2 3:2 1:8 3:1 1:10 3:3
1:0 3:1 1:13 3:3 1:2 3:2 1:8 3:1 1:10 3:3 1:11
3:0 1:13 3:3 1:2 3:2 1:8 3:1 1:10 3:3 1:11 3:1
1:0 3:3 1:2 3:2 1:8 3:1 1:10 3:3 1:11 3:1 1:9
3:0 1:2 3:2 1:8 3:1 1:10 3:3 1:11 3:1 1:9 3:3
1:0 3:2 1:8 3:1 1:10 3:3 1:11 3:1 1:9 3:3 1:9
3:0 1:8 3:1 1:10 3:3 1:11 3:1 1:9 3:3 1:9 3:1
1:0 3:1 1:10 3:3 1:11 3:1 1:9 3:3 1:9 3:1 1:9
3:0 1:10 3:3 1:11 3:1 1:9 3:3 1:9 3:1 1:9 3:3
1:0 3:3 1:11 3:1 1:9 3:3 1:9 3:1 1:9 3:3 1:7
3:0 1:11 3:1 1:9 3:3 1:9 3:1 1:9 3:3 1:7 3:2
1:0 3:1 1:9 3:3 1:9 3:1 1:9 3:3 1:7 3:2 1:12
3:0 1:9 3:3 1:9 3:1 1:9 3:3 1:7 3:2 1:12 3:2
1:0 3:3 1:9 3:1 1:9 3:3 1:7 3:2 1:12 3:2 1:3
3:0 1:9 3:1 1:9 3:3 1:7 3:2 1:12 3:2 1:3 3:1
1:0 3:1 1:9 3:3 1:7 3:2 1:12 3:2 1:3 3:1 1:8
3:0 1:9 3:3 1:7 3:2 1:12 3:2 1:3 3:1 1:8 3:1
1:0 3:3 1:7 3:2 1:12 3:2 1:3 3:1 1:8 3:1 1:9
3:0 1:7 3:2 1:12 3:2 1:3 3:1 1:8 3:1 1:9 3:3
1:0 3:2 1:12 3:2 1:3 3:1 1:8 3:1 1:9 3:3 1:2
3:0 1:12 3:2 1:3 3:1 1:8 3:1 1:9 3:3 1:2 3:2
1:0 3:2 1:3 3:1 1:8 3:1 1:9 3:3 1:2 3:2 1:17
3:0 1:3 3:1 1:8 3:1 1:9 3:3 1:2 3:2 1:17 3:3
1:0 3:1 1:8 3:1 1:9 3:3 1:2 3:2 1:17 3:3 1:3
3:0 1:8 3:1 1:9 3:3 1:2 3:2 1:17 3:3 1:3 3:1
1:0 3:1 1:9 3:3 1:2 3:2 1:17 3:3 1:3 3:1 1:4
3:0 1:9 3:3 1:2 3:2 1:17 3:3 1:3 3:1 1:4 3:2
1:0 3:3 1:2 3:2 1:17 3:3 1:3 3:1 1:4 3:2 1:10
3:0 1:2 3:2 1:17 3:3 1:3 3:1 1:4 3:2 1:10 3:1
1:0 3:2 1:17 3:3 1:3 3:1 1:4 3:2 1:10 3:1 1:2
3:0 1:17 3:3 1:3 3:1 1:4 3:2 1:10 3:1 1:2 3:3
1:0 3:3 1:3 3:1 1:4 3:2 1:10 3:1 1:2 3:3 1:7
3:0 1:3 3:1 1:4 3:2 1:10 3:1 1:2 3:3 1:7 3:1
1:0 3:1 1:4 3:2 1:10 3:1 1:2 3:3 1:7 3:1 1:10
3:0 1:4 3:2 1:10 3:1 1:2 3:3 1:7 3:1 1:10 3:2
1:0 3:2 1:10 3:1 1:2 3:3 1:7 3:1 1:10 3:2 1:2
3:0 1:10 3:1 1:2 3:3 1:7 3:1 1:10 3:2 1:2 3:2
1:0 3:1 1:2 3:3 1:7 3:1 1:10 3:2 1:2 3:2 1:7
3:0 1:2 3:3 1:7 3:1 1:10 3:2 1:2 3:2 1:7 3:1
1:0 3:3 1:7 3:1 1:10 3:2 1:2 3:2 1:7 3:1 1:12
3:0 1:7 3:1 1:10 3:2 1:2 3:2 1:7 3:1 1:12 3:2
1:0 3:1 1:10 3:2 1:2 3:2 1:7 3:1 1:12 3:2 1:3
3:0 1:10 3:2 1:2 3:2 1:7 3:1 1:12 3:2 1:3 3:2
1:0 3:2 1:2 3:2 1:7 3:1 1:12 3:2 1:3 3:2 1:8
3:0 1:2 3:2 1:7 3:1 1:12 3:2 1:3 3:2 1:8 3:2
1:0 3:2 1:7 3:1 1:12 3:2 1:3 3:2 1:8 3:2 1:7
3:0 1:7 3:1 1:12 3:2 1:3 3:2 1:8 3:2 1:7 3:2
1:0 3:1 1:12 3:2 1:3 3:2 1:8 3:2 1:7 3:2 1:6
3:0 1:12 3:2 1:3 3:2 1:8 3:2 1:7 3:2 1:6 3:1
1:0 3:2 1:3 3:2 1:8 3:2 1:7 3:2 1:6 3:1 1:7
3:0 1:3 3:2 1:8 3:2 1:7 3:2 1:6 3:1 1:7 3:1
1:0 3:2 1:8 3:2 1:7 3:2 1:6 3:1 1:7 3:1 1:7
3:0 1:8 3:2 1:7 3:2 1:6 3:1 1:7 3:1 1:7 3:2
1:0 3:2 1:7 3:2 1:6 3:1 1:7 3:1 1:7 3:2 1:8
3:0 1:7 3:2 1:6 3:1 1:7 3:1 1:7 3:2 1:8 3:2
1:0 3:2 1:6 3:1 1:7 3:1 1:7 3:2 1:8 3:2 1:10
3:0 1:6 3:1 1:7 3:1 1:7 3:2 1:8 3:2 1:10 3:2
1:0 3:1 1:7 3:1 1:7 3:2 1:8 3:2 1:10 3:2 1:2
3:0 1:7 3:1 1:7 3:2 1:8 3:2 1:10 3:2 1:2 3:2
1:0 3:1 1:7 3:2 1:8 3:2 1:10 3:2 1:2 3:2 1:19
3:0 1:7 3:2 1:8 3:2 1:10 3:2 1:2 3:2 1:19 3:2
1:0 3:2 1:8 3:2 1:10 3:2 1:2 3:2 1:19 3:2 1:4
3:0 1:8 3:2 1:10 3:2 1:2 3:2 1:19 3:2 1:4 3:1
1:0 3:2 1:10 3:2 1:2 3:2 1:19 3:2 1:4 3:1 1:8
3:0 1:10 3:2 1:2 3:2 1:19 3:2 1:4 3:1 1:8 3:1
1:0 3:2 1:2 3:2 1:19 3:2 1:4 3:1 1:8 3:1 1:9
3:0 1:2 3:2 1:19 3:2 1:4 3:1 1:8 3:1 1:9 3:3
1:0 3:2 1:19 3:2 1:4 3:1 1:8 3:1 1:9 3:3 1:8
3:0 1:19 3:2 1:4 3:1 1:8 3:1 1:9 3:3 1:8 3:2
1:0 3:2 1:4 3:1 1:8 3:1 1:9 3:3 1:8 3:2 1:11
3:0 1:4 3:1 1:8 3:1 1:9 3:3 1:8 3:2 1:11 3:3
1:0 3:1 1:8 3:1 1:9 3:3 1:8 3:2 1:11 3:3 1:9
3:0 1:8 3:1 1:9 3:3 1:8 3:2 1:11 3:3 1:9 3:2
1:0 3:1 1:9 3:3 1:8 3:2 1:11 3:3 1:9 3:2 1:9
3:0 1:9 3:3 1:8 3:2 1:11 3:3 1:9 3:2 1:9 3:2
1:0 3:3 1:8 3:2 1:11 3:3 1:9 3:2 1:9 3:2 1:2
3:0 1:8 3:2 1:11 3:3 1:9 3:2 1:9 3:2 1:2 3:2
1:0 3:2 1:11 3:3 1:9 3:2 1:9 3:2 1:2 3:2 1:8
3:0 1:11 3:3 1:9 3:2 1:9 3:2 1:2 3:2 1:8 3:1
1:0 3:3 1:9 3:2 1:9 3:2 1:2 3:2 1:8 3:1 1:9
3:0 1:9 3:2 1:9 3:2 1:2 3:2 1:8 3:1 1:9 3:3
1:0 3:2 1:9 3:2 1:2 3:2 1:8 3:1 1:9 3:3 1:2
3:0 1:9 3:2 1:2 3:2 1:8 3:1 1:9 3:3 1:2 3:2
1:0 3:2 1:2 3:2 1:8 3:1 1:9 3:3 1:2 3:2 1:15
3:0 1:2 3:2 1:8 3:1 1:9 3:3 1:2 3:2 1:15 3:2
1:0 3:2 1:8 3:1 1:9 3:3 1:2 3:2 1:15 3:2 1:3
3:0 1:8 3:1 1:9 3:3 1:2 3:2 1:15 3:2 1:3 3:2
1:0 3:1 1:9 3:3 1:2 3:2 1:15 3:2 1:3 3:2 1:7
3:0 1:9 3:3 1:2 3:2 1:15 3:2 1:3 3:2 1:7 3:2
1:0 3:3 1:2 3:2 1:15 3:2 1:3 3:2 1:7 3:2 1:10
3:0 1:2 3:2 1:15 3:2 1:3 3:2 1:7 3:2 1:10 3:3
1:0 3:2 1:15 3:2 1:3 3:2 1:7 3:2 1:10 3:3 1:3
3:0 1:15 3:2 1:3 3:2 1:7 3:2 1:10 3:3 1:3 3:1
1:0 3:2 1:3 3:2 1:7 3:2 1:10 3:3 1:3 3:1 1:18
3:0 1:3 3:2 1:7 3:2 1:10 3:3 1:3 3:1 1:18 3:2
1:0 3:2 1:7 3:2 1:10 3:3 1:3 3:1 1:18 3:2 1:6
3:0 1:7 3:2 1:10 3:3 1:3 3:1 1:18 3:2 1:6 3:1
1:0 3:2 1:10 3:3 1:3 3:1 1:18 3:2 1:6 3:1 1:14
3:0 1:10 3:3 1:3 3:1 1:18 3:2 1:6 3:1 1:14 3:2
1:0 3:3 1:3 3:1 1:18 3:2 1:6 3:1 1:14 3:2 1:2
3:0 1:3 3:1 1:18 3:2 1:6 3:1 1:14 3:2 1:2 3:2
1:0 3:1 1:18 3:2 1:6 3:1 1:14 3:2 1:2 3:2 1:7
3:0 1:18 3:2 1:6 3:1 1:14 3:2 1:2 3:2 1:7 3:2
1:0 3:2 1:6 3:1 1:14 3:2 1:2 3:2 1:7 3:2 1:10
3:0 1:6 3:1 1:14 3:2 1:2 3:2 1:7 3:2 1:10 3:3
1:0 3:1 1:14 3:2 1:2 3:2 1:7 3:2 1:10 3:3 1:9
3:0 1:14 3:2 1:2 3:2 1:7 3:2 1:10 3:3 1:9 3:1
1:0 3:2 1:2 3:2 1:7 3:2 1:10 3:3 1:9 3:1 1:10
3:0 1:2 3:2 1:7 3:2 1:10 3:3 1:9 3:1 1:10 3:3
1:0 3:2 1:7 3:2 1:10 3:3 1:9 3:1 1:10 3:3 1:12
3:0 1:7 3:2 1:10 3:3 1:9 3:1 1:10 3:3 1:12 3:1
1:0 3:2 1:10 3:3 1:9 3:1 1:10 3:3 1:12 3:1 1:9
3:0 1:10 3:3 1:9 3:1 1:10 3:3 1:12 3:1 1:9 3:3
1:0 3:3 1:9 3:1 1:10 3:3 1:12 3:1 1:9 3:3 1:7
3:0 1:9 3:1 1:10 3:3 1:12 3:1 1:9 3:3 1:7 3:1
1:0 3:1 1:10 3:3 1:12 3:1 1:9 3:3 1:7 3:1 1:11
3:0 1:10 3:3 1:12 3:1 1:9 3:3 1:7 3:1 1:11 3:2
1:0 3:3 1:12 3:1 1:9 3:3 1:7 3:1 1:11 3:2 1:2
3:0 1:12 3:1 1:9 3:3 1:7 3:1 1:11 3:2 1:2 3:2
1:0 3:1 1:9 3:3 1:7 3:1 1:11 3:2 1:2 3:2 1:8
3:0 1:9 3:3 1:7 3:1 1:11 3:2 1:2 3:2 1:8 3:2
1:0 3:3 1:7 3:1 1:11 3:2 1:2 3:2 1:8 3:2 1:9
3:0 1:7 3:1 1:11 3:2 1:2 3:2 1:8 3:2 1:9 3:3
1:0 3:1 1:11 3:2 1:2 3:2 1:8 3:2 1:9 3:3 1:2
3:0 1:11 3:2 1:2 3:2 1:8 3:2 1:9 3:3 1:2 3:2
1:0 3:2 1:2 3:2 1:8 3:2 1:9 3:3 1:2 3:2 1:17
3:0 1:2 3:2 1:8 3:2 1:9 3:3 1:2 3:2 1:17 3:2
1:0 3:2 1:8 3:2 1:9 3:3 1:2 3:2 1:17 3:2 1:2
3:0 1:8 3:2 1:9 3:3 1:2 3:2 1:17 3:2 1:2 3:1
1:0 3:2 1:9 3:3 1:2 3:2 1:17 3:2 1:2 3:1 1:6
3:0 1:9 3:3 1:2 3:2 1:17 3:2 1:2 3:1 1:6 3:1
1:0 3:3 1:2 3:2 1:17 3:2 1:2 3:1 1:6 3:1 1:12
3:0 1:2 3:2 1:17 3:2 1:2 3:1 1:6 3:1 1:12 3:3
1:0 3:2 1:17 3:2 1:2 3:1 1:6 3:1 1:12 3:3 1:2
3:0 1:17 3:2 1:2 3:1 1:6 3:1 1:12 3:3 1:2 3:2
1:0 3:2 1:2 3:1 1:6 3:1 1:12 3:3 1:2 3:2 1:17
3:0 1:2 3:1 1:6 3:1 1:12 3:3 1:2 3:2 1:17 3:2
1:0 3:1 1:6 3:1 1:12 3:3 1:2 3:2 1:17 3:2 1:3
3:0 1:6 3:1 1:12 3:3 1:2 3:2 1:17 3:2 1:3 3:2
1:0 3:1 1:12 3:3 1:2 3:2 1:17 3:2 1:3 3:2 1:6
3:0 1:12 3:3 1:2 3:2 1:17 3:2 1:3 3:2 1:6 3:2
1:0 3:3 1:2 3:2 1:17 3:2 1:3 3:2 1:6 3:2 1:9
3:0 1:2 3:2 1:17 3:2 1:3 3:2 1:6 3:2 1:9 3:3
1:0 3:2 1:17 3:2 1:3 3:2 1:6 3:2 1:9 3:3 1:4
3:0 1:17 3:2 1:3 3:2 1:6 3:2 1:9 3:3 1:4 3:1
1:0 3:2 1:3 3:2 1:6 3:2 1:9 3:3 1:4 3:1 1:16
3:0 1:3 3:2 1:6 3:2 1:9 3:3 1:4 3:1 1:16 3:2
1:0 3:2 1:6 3:2 1:9 3:3 1:4 3:1 1:16 3:2 1:2
3:0 1:6 3:2 1:9 3:3 1:4 3:1 1:16 3:2 1:2 3:2
1:0 3:2 1:9 3:3 1:4 3:1 1:16 3:2 1:2 3:2 1:7
3:0 1:9 3:3 1:4 3:1 1:16 3:2 1:2 3:2 1:7 3:1
1:0 3:3 1:4 3:1 1:16 3:2 1:2 3:2 1:7 3:1 1:10
3:0 1:4 3:1 1:16 3:2 1:2 3:2 1:7 3:1 1:10 3:3
1:0 3:1 1:16 3:2 1:2 3:2 1:7 3:1 1:10 3:3 1:2
3:0 1:16 3:2 1:2 3:2 1:7 3:1 1:10 3:3 1:2 3:2
1:0 3:2 1:2 3:2 1:7 3:1 1:10 3:3 1:2 3:2 1:8
3:0 1:2 3:2 1:7 3:1 1:10 3:3 1:2 3:2 1:8 3:1
1:0 3:2 1:7 3:1 1:10 3:3 1:2 3:2 1:8 3:1 1:9
3:0 1:7 3:1 1:10 3:3 1:2 3:2 1:8 3:1 1:9 3:2
1:0 3:1 1:10 3:3 1:2 3:2 1:8 3:1 1:9 3:2 1:4
3:0 1:10 3:3 1:2 3:2 1:8 3:1 1:9 3:2 1:4 3:1
1:0 3:3 1:2 3:2 1:8 3:1 1:9 3:2 1:4 3:1 1:17
3:0 1:2 3:2 1:8 3:1 1:9 3:2 1:4 3:1 1:17 3:3
1:0 3:2 1:8 3:1 1:9 3:2 1:4 3:1 1:17 3:3 1:5
3:0 1:8 3:1 1:9 3:2 1:4 3:1 1:17 3:3 1:5 3:1
1:0 3:1 1:9 3:2 1:4 3:1 1:17 3:3 1:5 3:1 1:5
3:0 1:9 3:2 1:4 3:1 1:17 3:3 1:5 3:1 1:5 3:1
1:0 3:2 1:4 3:1 1:17 3:3 1:5 3:1 1:5 3:1 1:9
3:0 1:4 3:1 1:17 3:3 1:5 3:1 1:5 3:1 1:9 3:2
1:0 3:1 1:17 3:3 1:5 3:1 1:5 3:1 1:9 3:2 1:5
3:0 1:17 3:3 1:5 3:1 1:5 3:1 1:9 3:2 1:5 3:1
1:0 3:3 1:5 3:1 1:5 3:1 1:9 3:2 1:5 3:1 1:16
3:0 1:5 3:1 1:5 3:1 1:9 3:2 1:5 3:1 1:16 3:2
1:0 3:1 1:5 3:1 1:9 3:2 1:5 3:1 1:16 3:2 1:3
3:0 1:5 3:1 1:9 3:2 1:5 3:1 1:16 3:2 1:3 3:1
1:0 3:1 1:9 3:2 1:5 3:1 1:16 3:2 1:3 3:1 1:6
3:0 1:9 3:2 1:5 3:1 1:16 3:2 1:3 3:1 1:6 3:2
1:0 3:2 1:5 3:1 1:16 3:2 1:3 3:1 1:6 3:2 1:9
3:0 1:5 3:1 1:16 3:2 1:3 3:1 1:6 3:2 1:9 3:2
1:0 3:1 1:16 3:2 1:3 3:1 1:6 3:2 1:9 3:2 1:2
3:0 1:16 3:2 1:3 3:1 1:6 3:2 1:9 3:2 1:2 3:2
1:0 3:2 1:3 3:1 1:6 3:2 1:9 3:2 1:2 3:2 1:9
3:0 1:3 3:1 1:6 3:2 1:9 3:2 1:2 3:2 1:9 3:2
1:0 3:1 1:6 3:2 1:9 3:2 1:2 3:2 1:9 3:2 1:8
3:0 1:6 3:2 1:9 3:2 1:2 3:2 1:9 3:2 1:8 3:3
1:0 3:2 1:9 3:2 1:2 3:2 1:9 3:2 1:8 3:3 1:7
3:0 1:9 3:2 1:2 3:2 1:9 3:2 1:8 3:3 1:7 3:1
1:0 3:2 1:2 3:2 1:9 3:2 1:8 3:3 1:7 3:1 1:5
3:0 1:2 3:2 1:9 3:2 1:8 3:3 1:7 3:1 1:5 3:1
1:0 3:2 1:9 3:2 1:8 3:3 1:7 3:1 1:5 3:1 1:8
3:0 1:9 3:2 1:8 3:3 1:7 3:1 1:5 3:1 1:8 3:2
1:0 3:2 1:8 3:3 1:7 3:1 1:5 3:1 1:8 3:2 1:8
3:0 1:8 3:3 1:7 3:1 1:5 3:1 1:8 3:2 1:8 3:2
1:0 3:3 1:7 3:1 1:5 3:1 1:8 3:2 1:8 3:2 1:10
3:0 1:7 3:1 1:5 3:1 1:8 3:2 1:8 3:2 1:10 3:2
1:0 3:1 1:5 3:1 1:8 3:2 1:8 3:2 1:10 3:2 1:2
3:0 1:5 3:1 1:8 3:2 1:8 3:2 1:10 3:2 1:2 3:2
1:0 3:1 1:8 3:2 1:8 3:2 1:10 3:2 1:2 3:2 1:16
3:0 1:8 3:2 1:8 3:2 1:10 3:2 1:2 3:2 1:16 3:2
1:0 3:2 1:8 3:2 1:10 3:2 1:2 3:2 1:16 3:2 1:2
3:0 1:8 3:2 1:10 3:2 1:2 3:2 1:16 3:2 1:2 3:2
1:0 3:2 1:10 3:2 1:2 3:2 1:16 3:2 1:2 3:2 1:5
3:0 1:10 3:2 1:2 3:2 1:16 3:2 1:2 3:2 1:5 3:1
1:0 3:2 1:2 3:2 1:16 3:2 1:2 3:2 1:5 3:1 1:14
3:0 1:2 3:2 1:16 3:2 1:2 3:2 1:5 3:1 1:14 3:2
1:0 3:2 1:16 3:2 1:2 3:2 1:5 3:1 1:14 3:2 1:2
3:0 1:16 3:2 1:2 3:2 1:5 3:1 1:14 3:2 1:2 3:2
1:0 3:2 1:2 3:2 1:5 3:1 1:14 3:2 1:2 3:2 1:9
3:0 1:2 3:2 1:5 3:1 1:14 3:2 1:2 3:2 1:9 3:1
1:0 3:2 1:5 3:1 1:14 3:2 1:2 3:2 1:9 3:1 1:9
3:0 1:5 3:1 1:14 3:2 1:2 3:2 1:9 3:1 1:9 3:2
1:0 3:1 1:14 3:2 1:2 3:2 1:9 3:1 1:9 3:2 1:3
3:0 1:14 3:2 1:2 3:2 1:9 3:1 1:9 3:2 1:3 3:1
1:0 3:2 1:2 3:2 1:9 3:1 1:9 3:2 1:3 3:1 1:8
3:0 1:2 3:2 1:9 3:1 1:9 3:2 1:3 3:1 1:8 3:1
1:0 3:2 1:9 3:1 1:9 3:2 1:3 3:1 1:8 3:1 1:9
3:0 1:9 3:1 1:9 3:2 1:3 3:1 1:8 3:1 1:9 3:3
1:0 3:1 1:9 3:2 1:3 3:1 1:8 3:1 1:9 3:3 1:9
3:0 1:9 3:2 1:3 3:1 1:8 3:1 1:9 3:3 1:9 3:2
1:0 3:2 1:3 3:1 1:8 3:1 1:9 3:3 1:9 3:2 1:9
3:0 1:3 3:1 1:8 3:1 1:9 3:3 1:9 3:2 1:9 3:2
1:0 3:1 1:8 3:1 1:9 3:3 1:9 3:2 1:9 3:2 1:3
3:0 1:8 3:1 1:9 3:3 1:9 3:2 1:9 3:2 1:3 3:2
1:0 3:1 1:9 3:3 1:9 3:2 1:9 3:2 1:3 3:2 1:7
3:0 1:9 3:3 1:9 3:2 1:9 3:2 1:3 3:2 1:7 3:1
1:0 3:3 1:9 3:2 1:9 3:2 1:3 3:2 1:7 3:1 1:9
3:0 1:9 3:2 1:9 3:2 1:3 3:2 1:7 3:1 1:9 3:2
1:0 3:2 1:9 3:2 1:3 3:2 1:7 3:1 1:9 3:2 1:2
3:0 1:9 3:2 1:3 3:2 1:7 3:1 1:9 3:2 1:2 3:2
1:0 3:2 1:3 3:2 1:7 3:1 1:9 3:2 1:2 3:2 1:7
3:0 1:3 3:2 1:7 3:1 1:9 3:2 1:2 3:2 1:7 3:2
1:0 3:2 1:7 3:1 1:9 3:2 1:2 3:2 1:7 3:2 1:9
3:0 1:7 3:1 1:9 3:2 1:2 3:2 1:7 3:2 1:9 3:3
1:0 3:1 1:9 3:2 1:2 3:2 1:7 3:2 1:9 3:3 1:2
3:0 1:9 3:2 1:2 3:2 1:7 3:2 1:9 3:3 1:2 3:2
1:0 3:2 1:2 3:2 1:7 3:2 1:9 3:3 1:2 3:2 1:18
3:0 1:2 3:2 1:7 3:2 1:9 3:3 1:2 3:2 1:18 3:3
1:0 3:2 1:7 3:2 1:9 3:3 1:2 3:2 1:18 3:3 1:7
3:0 1:7 3:2 1:9 3:3 1:2 3:2 1:18 3:3 1:7 3:2
1:0 3:2 1:9 3:3 1:2 3:2 1:18 3:3 1:7 3:2 1:11
3:0 1:9 3:3 1:2 3:2 1:18 3:3 1:7 3:2 1:11 3:1
1:0 3:3 1:2 3:2 1:18 3:3 1:7 3:2 1:11 3:1 1:3
3:0 1:2 3:2 1:18 3:3 1:7 3:2 1:11 3:1 1:3 3:2
1:0 3:2 1:18 3:3 1:7 3:2 1:11 3:1 1:3 3:2 1:8
3:0 1:18 3:3 1:7 3:2 1:11 3:1 1:3 3:2 1:8 3:1
1:0 3:3 1:7 3:2 1:11 3:1 1:3 3:2 1:8 3:1 1:8
3:0 1:7 3:2 1:11 3:1 1:3 3:2 1:8 3:1 1:8 3:2
1:0 3:2 1:11 3:1 1:3 3:2 1:8 3:1 1:8 3:2 1:3
3:0 1:11 3:1 1:3 3:2 1:8 3:1 1:8 3:2 1:3 3:1
1:0 3:1 1:3 3:2 1:8 3:1 1:8 3:2 1:3 3:1 1:19
3:0 1:3 3:2 1:8 3:1 1:8 3:2 1:3 3:1 1:19 3:2
1:0 3:2 1:8 3:1 1:8 3:2 1:3 3:1 1:19 3:2 1:2
3:0 1:8 3:1 1:8 3:2 1:3 3:1 1:19 3:2 1:2 3:2
1:0 3:1 1:8 3:2 1:3 3:1 1:19 3:2 1:2 3:2 1:5
3:0 1:8 3:2 1:3 3:1 1:19 3:2 1:2 3:2 1:5 3:1
1:0 3:2 1:3 3:1 1:19 3:2 1:2 3:2 1:5 3:1 1:12
3:0 1:3 3:1 1:19 3:2 1:2 3:2 1:5 3:1 1:12 3:2
1:0 3:1 1:19 3:2 1:2 3:2 1:5 3:1 1:12 3:2 1:2
3:0 1:19 3:2 1:2 3:2 1:5 3:1 1:12 3:2 1:2 3:2
1:0 3:2 1:2 3:2 1:5 3:1 1:12 3:2 1:2 3:2 1:9
3:0 1:2 3:2 1:5 3:1 1:12 3:2 1:2 3:2 1:9 3:2
1:0 3:2 1:5 3:1 1:12 3:2 1:2 3:2 1:9 3:2 1:8
3:0 1:5 3:1 1:12 3:2 1:2 3:2 1:9 3:2 1:8 3:2
1:0 3:1 1:12 3:2 1:2 3:2 1:9 3:2 1:8 3:2 1:3
3:0 1:12 3:2 1:2 3:2 1:9 3:2 1:8 3:2 1:3 3:1
1:0 3:2 1:2 3:2 1:9 3:2 1:8 3:2 1:3 3:1 1:8
3:0 1:2 3:2 1:9 3:2 1:8 3:2 1:3 3:1 1:8 3:1
1:0 3:2 1:9 3:2 1:8 3:2 1:3 3:1 1:8 3:1 1:9
3:0 1:9 3:2 1:8 3:2 1:3 3:1 1:8 3:1 1:9 3:2
1:0 3:2 1:8 3:2 1:3 3:1 1:8 3:1 1:9 3:2 1:3
3:0 1:8 3:2 1:3 3:1 1:8 3:1 1:9 3:2 1:3 3:1
1:0 3:2 1:3 3:1 1:8 3:1 1:9 3:2 1:3 3:1 1:18
3:0 1:3 3:1 1:8 3:1 1:9 3:2 1:3 3:1 1:18 3:2
1:0 3:1 1:8 3:1 1:9 3:2 1:3 3:1 1:18 3:2 1:8
3:0 1:8 3:1 1:9 3:2 1:3 3:1 1:18 3:2 1:8 3:2
1:0 3:1 1:9 3:2 1:3 3:1 1:18 3:2 1:8 3:2 1:12
3:0 1:9 3:2 1:3 3:1 1:18 3:2 1:8 3:2 1:12 3:2
1:0 3:2 1:3 3:1 1:18 3:2 1:8 3:2 1:12 3:2 1:6
3:0 1:3 3:1 1:18 3:2 1:8 3:2 1:12 3:2 1:6 3:1
1:0 3:1 1:18 3:2 1:8 3:2 1:12 3:2 1:6 3:1 1:7
3:0 1:18 3:2 1:8 3:2 1:12 3:2 1:6 3:1 1:7 3:1
1:0 3:2 1:8 3:2 1:12 3:2 1:6 3:1 1:7 3:1 1:7
3:0 1:8 3:2 1:12 3:2 1:6 3:1 1:7 3:1 1:7 3:2
1:0 3:2 1:12 3:2 1:6 3:1 1:7 3:1 1:7 3:2 1:9
3:0 1:12 3:2 1:6 3:1 1:7 3:1 1:7 3:2 1:9 3:1
1:0 3:2 1:6 3:1 1:7 3:1 1:7 3:2 1:9 3:1 1:12
3:0 1:6 3:1 1:7 3:1 1:7 3:2 1:9 3:1 1:12 3:2
1:0 3:1 1:7 3:1 1:7 3:2 1:9 3:1 1:12 3:2 1:8
3:0 1:7 3:1 1:7 3:2 1:9 3:1 1:12 3:2 1:8 3:2
1:0 3:1 1:7 3:2 1:9 3:1 1:12 3:2 1:8 3:2 1:11
3:0 1:7 3:2 1:9 3:1 1:12 3:2 1:8 3:2 1:11 3:2
1:0 3:2 1:9 3:1 1:12 3:2 1:8 3:2 1:11 3:2 1:3
3:0 1:9 3:1 1:12 3:2 1:8 3:2 1:11 3:2 1:3 3:1
1:0 3:1 1:12 3:2 1:8 3:2 1:11 3:2 1:3 3:1 1:6
3:0 1:12 3:2 1:8 3:2 1:11 3:2 1:3 3:1 1:6 3:1
1:0 3:2 1:8 3:2 1:11 3:2 1:3 3:1 1:6 3:1 1:11
3:0 1:8 3:2 1:11 3:2 1:3 3:1 1:6 3:1 1:11 3:2
1:0 3:2 1:11 3:2 1:3 3:1 1:6 3:1 1:11 3:2 1:4
3:0 1:11 3:2 1:3 3:1 1:6 3:1 1:11 3:2 1:4 3:2
1:0 3:2 1:3 3:1 1:6 3:1 1:11 3:2 1:4 3:2 1:8
3:0 1:3 3:1 1:6 3:1 1:11 3:2 1:4 3:2 1:8 3:1
1:0 3:1 1:6 3:1 1:11 3:2 1:4 3:2 1:8 3:1 1:8
3:0 1:6 3:1 1:11 3:2 1:4 3:2 1:8 3:1 1:8 3:3
1:0 3:1 1:11 3:2 1:4 3:2 1:8 3:1 1:8 3:3 1:6
3:0 1:11 3:2 1:4 3:2 1:8 3:1 1:8 3:3 1:6 3:1
1:0 3:2 1:4 3:2 1:8 3:1 1:8 3:3 1:6 3:1 1:14
3:0 1:4 3:2 1:8 3:1 1:8 3:3 1:6 3:1 1:14 3:3
1:0 3:2 1:8 3:1 1:8 3:3 1:6 3:1 1:14 3:3 1:8
3:0 1:8 3:1 1:8 3:3 1:6 3:1 1:14 3:3 1:8 3:2
1:0 3:1 1:8 3:3 1:6 3:1 1:14 3:3 1:8 3:2 1:10
3:0 1:8 3:3 1:6 3:1 1:14 3:3 1:8 3:2 1:10 3:2
1:0 3:3 1:6 3:1 1:14 3:3 1:8 3:2 1:10 3:2 1:6
3:0 1:6 3:1 1:14 3:3 1:8 3:2 1:10 3:2 1:6 3:1
1:0 3:1 1:14 3:3 1:8 3:2 1:10 3:2 1:6 3:1 1:6
3:0 1:14 3:3 1:8 3:2 1:10 3:2 1:6 3:1 1:6 3:2
1:0 3:3 1:8 3:2 1:10 3:2 1:6 3:1 1:6 3:2 1:9
3:0 1:8 3:2 1:10 3:2 1:6 3:1 1:6 3:2 1:9 3:2
1:0 3:2 1:10 3:2 1:6 3:1 1:6 3:2 1:9 3:2 1:7
3:0 1:10 3:2 1:6 3:1 1:6 3:2 1:9 3:2 1:7 3:1
1:0 3:2 1:6 3:1 1:6 3:2 1:9 3:2 1:7 3:1 1:5
3:0 1:6 3:1 1:6 3:2 1:9 3:2 1:7 3:1 1:5 3:1
1:0 3:1 1:6 3:2 1:9 3:2 1:7 3:1 1:5 3:1 1:8
3:0 1:6 3:2 1:9 3:2 1:7 3:1 1:5 3:1 1:8 3:2
1:0 3:2 1:9 3:2 1:7 3:1 1:5 3:1 1:8 3:2 1:7
3:0 1:9 3:2 1:7 3:1 1:5 3:1 1:8 3:2 1:7 3:1
1:0 3:2 1:7 3:1 1:5 3:1 1:8 3:2 1:7 3:1 1:10
3:0 1:7 3:1 1:5 3:1 1:8 3:2 1:7 3:1 1:10 3:2
1:0 3:1 1:5 3:1 1:8 3:2 1:7 3:1 1:10 3:2 1:3
3:0 1:5 3:1 1:8 3:2 1:7 3:1 1:10 3:2 1:3 3:2
1:0 3:1 1:8 3:2 1:7 3:1 1:10 3:2 1:3 3:2 1:9
3:0 1:8 3:2 1:7 3:1 1:10 3:2 1:3 3:2 1:9 3:2
1:0 3:2 1:7 3:1 1:10 3:2 1:3 3:2 1:9 3:2 1:8
3:0 1:7 3:1 1:10 3:2 1:3 3:2 1:9 3:2 1:8 3:2
1:0 3:1 1:10 3:2 1:3 3:2 1:9 3:2 1:8 3:2 1:2
3:0 1:10 3:2 1:3 3:2 1:9 3:2 1:8 3:2 1:2 3:2
1:0 3:2 1:3 3:2 1:9 3:2 1:8 3:2 1:2 3:2 1:8
3:0 1:3 3:2 1:9 3:2 1:8 3:2 1:2 3:2 1:8 3:1
1:0 3:2 1:9 3:2 1:8 3:2 1:2 3:2 1:8 3:1 2:6
3:0 1:9 3:2 1:8 3:2 1:2 3:2 1:8 3:1 2:6 3:2
1:0 3:2 1:8 3:2 1:2 3:2 1:8 3:1 2:6 3:2 1:1
3:0 1:8 3:2 1:2 3:2 1:8 3:1 2:6 3:2 1:1 3:3
1:0 3:2 1:2 3:2 1:8 3:1 2:6 3:2 1:1 3:3 1:2
3:0 1:2 3:2 1:8 3:1 2:6 3:2 1:1 3:3 1:2 3:2
1:0 3:2 1:8 3:1 2:6 3:2 1:1 3:3 1:2 3:2 1:17
3:0 1:8 3:1 2:6 3:2 1:1 3:3 1:2 3:2 1:17 3:2
1:0 3:1 2:6 3:2 1:1 3:3 1:2 3:2 1:17 3:2 1:5
3:0 2:6 3:2 1:1 3:3 1:2 3:2 1:17 3:2 1:5 3:1
2:0 3:2 1:1 3:3 1:2 3:2 1:17 3:2 1:5 3:1 1:16
3:0 1:1 3:3 1:2 3:2 1:17 3:2 1:5 3:1 1:16 3:2
1:0 3:3 1:2 3:2 1:17 3:2 1:5 3:1 1:16 3:2 1:2
3:0 1:2 3:2 1:17 3:2 1:5 3:1 1:16 3:2 1:2 3:1
1:0 3:2 1:17 3:2 1:5 3:1 1:16 3:2 1:2 3:1 1:8
3:0 1:17 3:2 1:5 3:1 1:16 3:2 1:2 3:1 1:8 3:1
1:0 3:2 1:5 3:1 1:16 3:2 1:2 3:1 1:8 3:1 1:10
3:0 1:5 3:1 1:16 3:2 1:2 3:1 1:8 3:1 1:10 3:2
1:0 3:1 1:16 3:2 1:2 3:1 1:8 3:1 1:10 3:2 1:2
3:0 1:16 3:2 1:2 3:1 1:8 3:1 1:10 3:2 1:2 3:2
1:0 3:2 1:2 3:1 1:8 3:1 1:10 3:2 1:2 3:2 1:7
3:0 1:2 3:1 1:8 3:1 1:10 3:2 1:2 3:2 1:7 3:2
1:0 3:1 1:8 3:1 1:10 3:2 1:2 3:2 1:7 3:2 1:10
3:0 1:8 3:1 1:10 3:2 1:2 3:2 1:7 3:2 1:10 3:2
1:0 3:1 1:10 3:2 1:2 3:2 1:7 3:2 1:10 3:2 1:4
3:0 1:10 3:2 1:2 3:2 1:7 3:2 1:10 3:2 1:4 3:1
1:0 3:2 1:2 3:2 1:7 3:2 1:10 3:2 1:4 3:1 1:8
3:0 1:2 3:2 1:7 3:2 1:10 3:2 1:4 3:1 1:8 3:1
1:0 3:2 1:7 3:2 1:10 3:2 1:4 3:1 1:8 3:1 1:8
3:0 1:7 3:2 1:10 3:2 1:4 3:1 1:8 3:1 1:8 3:2
1:0 3:2 1:10 3:2 1:4 3:1 1:8 3:1 1:8 3:2 1:10
3:0 1:10 3:2 1:4 3:1 1:8 3:1 1:8 3:2 1:10 3:1
1:0 3:2 1:4 3:1 1:8 3:1 1:8 3:2 1:10 3:1 1:10
3:0 1:4 3:1 1:8 3:1 1:8 3:2 1:10 3:1 1:10 3:2
1:0 3:1 1:8 3:1 1:8 3:2 1:10 3:1 1:10 3:2 1:4
3:0 1:8 3:1 1:8 3:2 1:10 3:1 1:10 3:2 1:4 3:1
1:0 3:1 1:8 3:2 1:10 3:1 1:10 3:2 1:4 3:1 1:8
3:0 1:8 3:2 1:10 3:1 1:10 3:2 1:4 3:1 1:8 3:1
1:0 3:2 1:10 3:1 1:10 3:2 1:4 3:1 1:8 3:1 1:9
3:0 1:10 3:1 1:10 3:2 1:4 3:1 1:8 3:1 1:9 3:3
1:0 3:1 1:10 3:2 1:4 3:1 1:8 3:1 1:9 3:3 1:4
3:0 1:10 3:2 1:4 3:1 1:8 3:1 1:9 3:3 1:4 3:1
1:0 3:2 1:4 3:1 1:8 3:1 1:9 3:3 1:4 3:1 1:17
3:0 1:4 3:1 1:8 3:1 1:9 3:3 1:4 3:1 1:17 3:2
1:0 3:1 1:8 3:1 1:9 3:3 1:4 3:1 1:17 3:2 1:3
3:0 1:8 3:1 1:9 3:3 1:4 3:1 1:17 3:2 1:3 3:1
1:0 3:1 1:9 3:3 1:4 3:1 1:17 3:2 1:3 3:1 1:7
3:0 1:9 3:3 1:4 3:1 1:17 3:2 1:3 3:1 1:7 3:1
1:0 3:3 1:4 3:1 1:17 3:2 1:3 3:1 1:7 3:1 1:9
3:0 1:4 3:1 1:17 3:2 1:3 3:1 1:7 3:1 1:9 3:3
1:0 3:1 1:17 3:2 1:3 3:1 1:7 3:1 1:9 3:3 1:7
3:0 1:17 3:2 1:3 3:1 1:7 3:1 1:9 3:3 1:7 3:2
1:0 3:2 1:3 3:1 1:7 3:1 1:9 3:3 1:7 3:2 1:12
3:0 1:3 3:1 1:7 3:1 1:9 3:3 1:7 3:2 1:12 3:2
1:0 3:1 1:7 3:1 1:9 3:3 1:7 3:2 1:12 3:2 1:6
3:0 1:7 3:1 1:9 3:3 1:7 3:2 1:12 3:2 1:6 3:1
1:0 3:1 1:9 3:3 1:7 3:2 1:12 3:2 1:6 3:1 1:6
3:0 1:9 3:3 1:7 3:2 1:12 3:2 1:6 3:1 1:6 3:1
1:0 3:3 1:7 3:2 1:12 3:2 1:6 3:1 1:6 3:1 1:9
3:0 1:7 3:2 1:12 3:2 1:6 3:1 1:6 3:1 1:9 3:2
1:0 3:2 1:12 3:2 1:6 3:1 1:6 3:1 1:9 3:2 1:8
3:0 1:12 3:2 1:6 3:1 1:6 3:1 1:9 3:2 1:8 3:1
1:0 3:2 1:6 3:1 1:6 3:1 1:9 3:2 1:8 3:1 1:11
3:0 1:6 3:1 1:6 3:1 1:9 3:2 1:8 3:1 1:11 3:2
1:0 3:1 1:6 3:1 1:9 3:2 1:8 3:1 1:11 3:2 1:4
3:0 1:6 3:1 1:9 3:2 1:8 3:1 1:11 3:2 1:4 3:1
1:0 3:1 1:9 3:2 1:8 3:1 1:11 3:2 1:4 3:1 1:7
3:0 1:9 3:2 1:8 3:1 1:11 3:2 1:4 3:1 1:7 3:2
1:0 3:2 1:8 3:1 1:11 3:2 1:4 3:1 1:7 3:2 1:10
3:0 1:8 3:1 1:11 3:2 1:4 3:1 1:7 3:2 1:10 3:2
1:0 3:1 1:11 3:2 1:4 3:1 1:7 3:2 1:10 3:2 1:5
3:0 1:11 3:2 1:4 3:1 1:7 3:2 1:10 3:2 1:5 3:1
1:0 3:2 1:4 3:1 1:7 3:2 1:10 3:2 1:5 3:1 1:6
3:0 1:4 3:1 1:7 3:2 1:10 3:2 1:5 3:1 1:6 3:2
1:0 3:1 1:7 3:2 1:10 3:2 1:5 3:1 1:6 3:2 2:3
3:0 1:7 3:2 1:10 3:2 1:5 3:1 1:6 3:2 2:3 3:2
1:0 3:2 1:10 3:2 1:5 3:1 1:6 3:2 2:3 3:2 1:1
3:0 1:10 3:2 1:5 3:1 1:6 3:2 2:3 3:2 1:1 3:3
1:0 3:2 1:5 3:1 1:6 3:2 2:3 3:2 1:1 3:3 1:3
3:0 1:5 3:1 1:6 3:2 2:3 3:2 1:1 3:3 1:3 3:1
1:0 3:1 1:6 3:2 2:3 3:2 1:1 3:3 1:3 3:1 1:17
3:0 1:6 3:2 2:3 3:2 1:1 3:3 1:3 3:1 1:17 3:2
1:0 3:2 2:3 3:2 1:1 3:3 1:3 3:1 1:17 3:2 1:5
3:0 2:3 3:2 1:1 3:3 1:3 3:1 1:17 3:2 1:5 3:1
2:0 3:2 1:1 3:3 1:3 3:1 1:17 3:2 1:5 3:1 1:8
3:0 1:1 3:3 1:3 3:1 1:17 3:2 1:5 3:1 1:8 3:1
1:0 3:3 1:3 3:1 1:17 3:2 1:5 3:1 1:8 3:1 1:9
3:0 1:3 3:1 1:17 3:2 1:5 3:1 1:8 3:1 1:9 3:2
1:0 3:1 1:17 3:2 1:5 3:1 1:8 3:1 1:9 3:2 1:12
3:0 1:17 3:2 1:5 3:1 1:8 3:1 1:9 3:2 1:12 3:1
1:0 3:2 1:5 3:1 1:8 3:1 1:9 3:2 1:12 3:1 1:8
3:0 1:5 3:1 1:8 3:1 1:9 3:2 1:12 3:1 1:8 3:3
1:0 3:1 1:8 3:1 1:9 3:2 1:12 3:1 1:8 3:3 1:6
3:0 1:8 3:1 1:9 3:2 1:12 3:1 1:8 3:3 1:6 3:1
1:0 3:1 1:9 3:2 1:12 3:1 1:8 3:3 1:6 3:1 1:13
3:0 1:9 3:2 1:12 3:1 1:8 3:3 1:6 3:1 1:13 3:1
1:0 3:2 1:12 3:1 1:8 3:3 1:6 3:1 1:13 3:1 1:2
3:0 1:12 3:1 1:8 3:3 1:6 3:1 1:13 3:1 1:2 3:2
1:0 3:1 1:8 3:3 1:6 3:1 1:13 3:1 1:2 3:2 1:9
3:0 1:8 3:3 1:6 3:1 1:13 3:1 1:2 3:2 1:9 3:1
1:0 3:3 1:6 3:1 1:13 3:1 1:2 3:2 1:9 3:1 1:10
3:0 1:6 3:1 1:13 3:1 1:2 3:2 1:9 3:1 1:10 3:2
1:0 3:1 1:13 3:1 1:2 3:2 1:9 3:1 1:10 3:2 1:4
3:0 1:13 3:1 1:2 3:2 1:9 3:1 1:10 3:2 1:4 3:1
1:0 3:1 1:2 3:2 1:9 3:1 1:10 3:2 1:4 3:1 1:9
3:0 1:2 3:2 1:9 3:1 1:10 3:2 1:4 3:1 1:9 3:1
1:0 3:2 1:9 3:1 1:10 3:2 1:4 3:1 1:9 3:1 1:7
3:0 1:9 3:1 1:10 3:2 1:4 3:1 1:9 3:1 1:7 3:2
1:0 3:1 1:10 3:2 1:4 3:1 1:9 3:1 1:7 3:2 1:6
3:0 1:10 3:2 1:4 3:1 1:9 3:1 1:7 3:2 1:6 3:1
1:0 3:2 1:4 3:1 1:9 3:1 1:7 3:2 1:6 3:1 1:5
3:0 1:4 3:1 1:9 3:1 1:7 3:2 1:6 3:1 1:5 3:2
1:0 3:1 1:9 3:1 1:7 3:2 1:6 3:1 1:5 3:2 1:8
3:0 1:9 3:1 1:7 3:2 1:6 3:1 1:5 3:2 1:8 3:2
1:0 3:1 1:7 3:2 1:6 3:1 1:5 3:2 1:8 3:2 1:7
3:0 1:7 3:2 1:6 3:1 1:5 3:2 1:8 3:2 1:7 3:1
1:0 3:2 1:6 3:1 1:5 3:2 1:8 3:2 1:7 3:1 1:14
3:0 1:6 3:1 1:5 3:2 1:8 3:2 1:7 3:1 1:14 3:2
1:0 3:1 1:5 3:2 1:8 3:2 1:7 3:1 1:14 3:2 1:3
3:0 1:5 3:2 1:8 3:2 1:7 3:1 1:14 3:2 1:3 3:1
1:0 3:2 1:8 3:2 1:7 3:1 1:14 3:2 1:3 3:1 1:10
3:0 1:8 3:2 1:7 3:1 1:14 3:2 1:3 3:1 1:10 3:1
1:0 3:2 1:7 3:1 1:14 3:2 1:3 3:1 1:10 3:1 1:7
3:0 1:7 3:1 1:14 3:2 1:3 3:1 1:10 3:1 1:7 3:2
1:0 3:1 1:14 3:2 1:3 3:1 1:10 3:1 1:7 3:2 1:5
3:0 1:14 3:2 1:3 3:1 1:10 3:1 1:7 3:2 1:5 3:2
1:0 3:2 1:3 3:1 1:10 3:1 1:7 3:2 1:5 3:2 1:13
3:0 1:3 3:1 1:10 3:1 1:7 3:2 1:5 3:2 1:13 3:2
1:0 3:1 1:10 3:1 1:7 3:2 1:5 3:2 1:13 3:2 1:2
3:0 1:10 3:1 1:7 3:2 1:5 3:2 1:13 3:2 1:2 3:2
1:0 3:1 1:7 3:2 1:5 3:2 1:13 3:2 1:2 3:2 1:12
3:0 1:7 3:2 1:5 3:2 1:13 3:2 1:2 3:2 1:12 3:2
1:0 3:2 1:5 3:2 1:13 3:2 1:2 3:2 1:12 3:2 1:6
3:0 1:5 3:2 1:13 3:2 1:2 3:2 1:12 3:2 1:6 3:2
1:0 3:2 1:13 3:2 1:2 3:2 1:12 3:2 1:6 3:2 1:7
3:0 1:13 3:2 1:2 3:2 1:12 3:2 1:6 3:2 1:7 3:1
1:0 3:2 1:2 3:2 1:12 3:2 1:6 3:2 1:7 3:1 1:11
3:0 1:2 3:2 1:12 3:2 1:6 3:2 1:7 3:1 1:11 3:1
1:0 3:2 1:12 3:2 1:6 3:2 1:7 3:1 1:11 3:1 1:3
3:0 1:12 3:2 1:6 3:2 1:7 3:1 1:11 3:1 1:3 3:3
1:0 3:2 1:6 3:2 1:7 3:1 1:11 3:1 1:3 3:3 1:5
3:0 1:6 3:2 1:7 3:1 1:11 3:1 1:3 3:3 1:5 3:2
1:0 3:2 1:7 3:1 1:11 3:1 1:3 3:3 1:5 3:2 1:11
3:0 1:7 3:1 1:11 3:1 1:3 3:3 1:5 3:2 1:11 3:2
1:0 3:1 1:11 3:1 1:3 3:3 1:5 3:2 1:11 3:2 1:3
3:0 1:11 3:1 1:3 3:3 1:5 3:2 1:11 3:2 1:3 3:2
1:0 3:1 1:3 3:3 1:5 3:2 1:11 3:2 1:3 3:2 1:8
3:0 1:3 3:3 1:5 3:2 1:11 3:2 1:3 3:2 1:8 3:2
1:0 3:3 1:5 3:2 1:11 3:2 1:3 3:2 1:8 3:2 1:9
3:0 1:5 3:2 1:11 3:2 1:3 3:2 1:8 3:2 1:9 3:2
1:0 3:2 1:11 3:2 1:3 3:2 1:8 3:2 1:9 3:2 1:3
3:0 1:11 3:2 1:3 3:2 1:8 3:2 1:9 3:2 1:3 3:2
1:0 3:2 1:3 3:2 1:8 3:2 1:9 3:2 1:3 3:2 1:16
3:0 1:3 3:2 1:8 3:2 1:9 3:2 1:3 3:2 1:16 3:2
1:0 3:2 1:8 3:2 1:9 3:2 1:3 3:2 1:16 3:2 1:2
3:0 1:8 3:2 1:9 3:2 1:3 3:2 1:16 3:2 1:2 3:2
1:0 3:2 1:9 3:2 1:3 3:2 1:16 3:2 1:2 3:2 1:7
3:0 1:9 3:2 1:3 3:2 1:16 3:2 1:2 3:2 1:7 3:1
1:0 3:2 1:3 3:2 1:16 3:2 1:2 3:2 1:7 3:1 1:10
3:0 1:3 3:2 1:16 3:2 1:2 3:2 1:7 3:1 1:10 3:3
1:0 3:2 1:16 3:2 1:2 3:2 1:7 3:1 1:10 3:3 1:2
3:0 1:16 3:2 1:2 3:2 1:7 3:1 1:10 3:3 1:2 3:1
1:0 3:2 1:2 3:2 1:7 3:1 1:10 3:3 1:2 3:1 1:9
3:0 1:2 3:2 1:7 3:1 1:10 3:3 1:2 3:1 1:9 3:2
1:0 3:2 1:7 3:1 1:10 3:3 1:2 3:1 1:9 3:2 1:8
3:0 1:7 3:1 1:10 3:3 1:2 3:1 1:9 3:2 1:8 3:2
1:0 3:1 1:10 3:3 1:2 3:1 1:9 3:2 1:8 3:2 1:5
3:0 1:10 3:3 1:2 3:1 1:9 3:2 1:8 3:2 1:5 3:1
1:0 3:3 1:2 3:1 1:9 3:2 1:8 3:2 1:5 3:1 1:7
3:0 1:2 3:1 1:9 3:2 1:8 3:2 1:5 3:1 1:7 3:1
1:0 3:1 1:9 3:2 1:8 3:2 1:5 3:1 1:7 3:1 1:8
3:0 1:9 3:2 1:8 3:2 1:5 3:1 1:7 3:1 1:8 3:3
1:0 3:2 1:8 3:2 1:5 3:1 1:7 3:1 1:8 3:3 1:11
3:0 1:8 3:2 1:5 3:1 1:7 3:1 1:8 3:3 1:11 3:1
1:0 3:2 1:5 3:1 1:7 3:1 1:8 3:3 1:11 3:1 1:8
3:0 1:5 3:1 1:7 3:1 1:8 3:3 1:11 3:1 1:8 3:3
1:0 3:1 1:7 3:1 1:8 3:3 1:11 3:1 1:8 3:3 1:3
3:0 1:7 3:1 1:8 3:3 1:11 3:1 1:8 3:3 1:3 3:1
1:0 3:1 1:8 3:3 1:11 3:1 1:8 3:3 1:3 3:1 1:17
3:0 1:8 3:3 1:11 3:1 1:8 3:3 1:3 3:1 1:17 3:2
1:0 3:3 1:11 3:1 1:8 3:3 1:3 3:1 1:17 3:2 1:2
3:0 1:11 3:1 1:8 3:3 1:3 3:1 1:17 3:2 1:2 3:2
1:0 3:1 1:8 3:3 1:3 3:1 1:17 3:2 1:2 3:2 1:7
3:0 1:8 3:3 1:3 3:1 1:17 3:2 1:2 3:2 1:7 3:1
1:0 3:3 1:3 3:1 1:17 3:2 1:2 3:2 1:7 3:1 1:10
3:0 1:3 3:1 1:17 3:2 1:2 3:2 1:7 3:1 1:10 3:2
1:0 3:1 1:17 3:2 1:2 3:2 1:7 3:1 1:10 3:2 1:2
3:0 1:17 3:2 1:2 3:2 1:7 3:1 1:10 3:2 1:2 3:2
1:0 3:2 1:2 3:2 1:7 3:1 1:10 3:2 1:2 3:2 1:18
3:0 1:2 3:2 1:7 3:1 1:10 3:2 1:2 3:2 1:18 3:2
1:0 3:2 1:7 3:1 1:10 3:2 1:2 3:2 1:18 3:2 1:2
3:0 1:7 3:1 1:10 3:2 1:2 3:2 1:18 3:2 1:2 3:2
1:0 3:1 1:10 3:2 1:2 3:2 1:18 3:2 1:2 3:2 1:7
3:0 1:10 3:2 1:2 3:2 1:18 3:2 1:2 3:2 1:7 3:1
1:0 3:2 1:2 3:2 1:18 3:2 1:2 3:2 1:7 3:1 1:9
3:0 1:2 3:2 1:18 3:2 1:2 3:2 1:7 3:1 1:9 3:3
1:0 3:2 1:18 3:2 1:2 3:2 1:7 3:1 1:9 3:3 1:2
3:0 1:18 3:2 1:2 3:2 1:7 3:1 1:9 3:3 1:2 3:1
1:0 3:2 1:2 3:2 1:7 3:1 1:9 3:3 1:2 3:1 1:18
3:0 1:2 3:2 1:7 3:1 1:9 3:3 1:2 3:1 1:18 3:2
1:0 3:2 1:7 3:1 1:9 3:3 1:2 3:1 1:18 3:2 1:2
3:0 1:7 3:1 1:9 3:3 1:2 3:1 1:18 3:2 1:2 3:2
1:0 3:1 1:9 3:3 1:2 3:1 1:18 3:2 1:2 3:2 1:10
3:0 1:9 3:3 1:2 3:1 1:18 3:2 1:2 3:2 1:10 3:1
1:0 3:3 1:2 3:1 1:18 3:2 1:2 3:2 1:10 3:1 1:8
3:0 1:2 3:1 1:18 3:2 1:2 3:2 1:10 3:1 1:8 3:3
1:0 3:1 1:18 3:2 1:2 3:2 1:10 3:1 1:8 3:3 1:6
3:0 1:18 3:2 1:2 3:2 1:10 3:1 1:8 3:3 1:6 3:1
1:0 3:2 1:2 3:2 1:10 3:1 1:8 3:3 1:6 3:1 1:8
3:0 1:2 3:2 1:10 3:1 1:8 3:3 1:6 3:1 1:8 3:1
1:0 3:2 1:10 3:1 1:8 3:3 1:6 3:1 1:8 3:1 1:6
3:0 1:10 3:1 1:8 3:3 1:6 3:1 1:8 3:1 1:6 3:3
1:0 3:1 1:8 3:3 1:6 3:1 1:8 3:1 1:6 3:3 1:6
3:0 1:8 3:3 1:6 3:1 1:8 3:1 1:6 3:3 1:6 3:2
1:0 3:3 1:6 3:1 1:8 3:1 1:6 3:3 1:6 3:2 1:10
3:0 1:6 3:1 1:8 3:1 1:6 3:3 1:6 3:2 1:10 3:2
1:0 3:1 1:8 3:1 1:6 3:3 1:6 3:2 1:10 3:2 1:2
3:0 1:8 3:1 1:6 3:3 1:6 3:2 1:10 3:2 1:2 3:2
1:0 3:1 1:6 3:3 1:6 3:2 1:10 3:2 1:2 3:2 1:7
3:0 1:6 3:3 1:6 3:2 1:10 3:2 1:2 3:2 1:7 3:1
1:0 3:3 1:6 3:2 1:10 3:2 1:2 3:2 1:7 3:1 1:4
3:0 1:6 3:2 1:10 3:2 1:2 3:2 1:7 3:1 1:4 3:2
1:0 3:2 1:10 3:2 1:2 3:2 1:7 3:1 1:4 3:2 1:7
3:0 1:10 3:2 1:2 3:2 1:7 3:1 1:4 3:2 1:7 3:2
1:0 3:2 1:2 3:2 1:7 3:1 1:4 3:2 1:7 3:2 1:3
3:0 1:2 3:2 1:7 3:1 1:4 3:2 1:7 3:2 1:3 3:2
1:0 3:2 1:7 3:1 1:4 3:2 1:7 3:2 1:3 3:2 1:17
3:0 1:7 3:1 1:4 3:2 1:7 3:2 1:3 3:2 1:17 3:3
1:0 3:1 1:4 3:2 1:7 3:2 1:3 3:2 1:17 3:3 1:10
3:0 1:4 3:2 1:7 3:2 1:3 3:2 1:17 3:3 1:10 3:1
1:0 3:2 1:7 3:2 1:3 3:2 1:17 3:3 1:10 3:1 1:10
3:0 1:7 3:2 1:3 3:2 1:17 3:3 1:10 3:1 1:10 3:2
1:0 3:2 1:3 3:2 1:17 3:3 1:10 3:1 1:10 3:2 1:3
3:0 1:3 3:2 1:17 3:3 1:10 3:1 1:10 3:2 1:3 3:2
1:0 3:2 1:17 3:3 1:10 3:1 1:10 3:2 1:3 3:2 1:7
3:0 1:17 3:3 1:10 3:1 1:10 3:2 1:3 3:2 1:7 3:1
1:0 3:3 1:10 3:1 1:10 3:2 1:3 3:2 1:7 3:1 1:10
3:0 1:10 3:1 1:10 3:2 1:3 3:2 1:7 3:1 1:10 3:2
1:0 3:1 1:10 3:2 1:3 3:2 1:7 3:1 1:10 3:2 1:6
3:0 1:10 3:2 1:3 3:2 1:7 3:1 1:10 3:2 1:6 3:1
1:0 3:2 1:3 3:2 1:7 3:1 1:10 3:2 1:6 3:1 1:6
3:0 1:3 3:2 1:7 3:1 1:10 3:2 1:6 3:1 1:6 3:1
1:0 3:2 1:7 3:1 1:10 3:2 1:6 3:1 1:6 3:1 1:7
3:0 1:7 3:1 1:10 3:2 1:6 3:1 1:6 3:1 1:7 3:3
1:0 3:1 1:10 3:2 1:6 3:1 1:6 3:1 1:7 3:3 1:7
3:0 1:10 3:2 1:6 3:1 1:6 3:1 1:7 3:3 1:7 3:1
1:0 3:2 1:6 3:1 1:6 3:1 1:7 3:3 1:7 3:1 1:11
3:0 1:6 3:1 1:6 3:1 1:7 3:3 1:7 3:1 1:11 3:2
1:0 3:1 1:6 3:1 1:7 3:3 1:7 3:1 1:11 3:2 1:3
3:0 1:6 3:1 1:7 3:3 1:7 3:1 1:11 3:2 1:3 3:1
1:0 3:1 1:7 3:3 1:7 3:1 1:11 3:2 1:3 3:1 1:10
3:0 1:7 3:3 1:7 3:1 1:11 3:2 1:3 3:1 1:10 3:1
1:0 3:3 1:7 3:1 1:11 3:2 1:3 3:1 1:10 3:1 1:9
3:0 1:7 3:1 1:11 3:2 1:3 3:1 1:10 3:1 1:9 3:2
1:0 3:1 1:11 3:2 1:3 3:1 1:10 3:1 1:9 3:2 1:7
3:0 1:11 3:2 1:3 3:1 1:10 3:1 1:9 3:2 1:7 3:1
1:0 3:2 1:3 3:1 1:10 3:1 1:9 3:2 1:7 3:1 1:6
3:0 1:3 3:1 1:10 3:1 1:9 3:2 1:7 3:1 1:6 3:1
1:0 3:1 1:10 3:1 1:9 3:2 1:7 3:1 1:6 3:1 1:7
3:0 1:10 3:1 1:9 3:2 1:7 3:1 1:6 3:1 1:7 3:2
1:0 3:1 1:9 3:2 1:7 3:1 1:6 3:1 1:7 3:2 1:3
3:0 1:9 3:2 1:7 3:1 1:6 3:1 1:7 3:2 1:3 3:2
1:0 3:2 1:7 3:1 1:6 3:1 1:7 3:2 1:3 3:2 1:17
3:0 1:7 3:1 1:6 3:1 1:7 3:2 1:3 3:2 1:17 3:2
1:0 3:1 1:6 3:1 1:7 3:2 1:3 3:2 1:17 3:2 1:5
3:0 1:6 3:1 1:7 3:2 1:3 3:2 1:17 3:2 1:5 3:1
1:0 3:1 1:7 3:2 1:3 3:2 1:17 3:2 1:5 3:1 1:6
3:0 1:7 3:2 1:3 3:2 1:17 3:2 1:5 3:1 1:6 3:2
1:0 3:2 1:3 3:2 1:17 3:2 1:5 3:1 1:6 3:2 1:8
3:0 1:3 3:2 1:17 3:2 1:5 3:1 1:6 3:2 1:8 3:2
1:0 3:2 1:17 3:2 1:5 3:1 1:6 3:2 1:8 3:2 1:3
3:0 1:17 3:2 1:5 3:1 1:6 3:2 1:8 3:2 1:3 3:1
1:0 3:2 1:5 3:1 1:6 3:2 1:8 3:2 1:3 3:1 1:8
3:0 1:5 3:1 1:6 3:2 1:8 3:2 1:3 3:1 1:8 3:2
1:0 3:1 1:6 3:2 1:8 3:2 1:3 3:1 1:8 3:2 1:9
3:0 1:6 3:2 1:8 3:2 1:3 3:1 1:8 3:2 1:9 3:2
1:0 3:2 1:8 3:2 1:3 3:1 1:8 3:2 1:9 3:2 1:8
3:0 1:8 3:2 1:3 3:1 1:8 3:2 1:9 3:2 1:8 3:2
1:0 3:2 1:3 3:1 1:8 3:2 1:9 3:2 1:8 3:2 1:10
3:0 1:3 3:1 1:8 3:2 1:9 3:2 1:8 3:2 1:10 3:2
1:0 3:1 1:8 3:2 1:9 3:2 1:8 3:2 1:10 3:2 1:2
3:0 1:8 3:2 1:9 3:2 1:8 3:2 1:10 3:2 1:2 3:2
1:0 3:2 1:9 3:2 1:8 3:2 1:10 3:2 1:2 3:2 1:9
3:0 1:9 3:2 1:8 3:2 1:10 3:2 1:2 3:2 1:9 3:2
1:0 3:2 1:8 3:2 1:10 3:2 1:2 3:2 1:9 3:2 1:8
3:0 1:8 3:2 1:10 3:2 1:2 3:2 1:9 3:2 1:8 3:2
1:0 3:2 1:10 3:2 1:2 3:2 1:9 3:2 1:8 3:2 1:9
3:0 1:10 3:2 1:2 3:2 1:9 3:2 1:8 3:2 1:9 3:2
1:0 3:2 1:2 3:2 1:9 3:2 1:8 3:2 1:9 3:2 1:10
3:0 1:2 3:2 1:9 3:2 1:8 3:2 1:9 3:2 1:10 3:2
1:0 3:2 1:9 3:2 1:8 3:2 1:9 3:2 1:10 3:2 1:3
3:0 1:9 3:2 1:8 3:2 1:9 3:2 1:10 3:2 1:3 3:1
1:0 3:2 1:8 3:2 1:9 3:2 1:10 3:2 1:3 3:1 1:6
3:0 1:8 3:2 1:9 3:2 1:10 3:2 1:3 3:1 1:6 3:2
1:0 3:2 1:9 3:2 1:10 3:2 1:3 3:1 1:6 3:2 1:11
3:0 1:9 3:2 1:10 3:2 1:3 3:1 1:6 3:2 1:11 3:2
1:0 3:2 1:10 3:2 1:3 3:1 1:6 3:2 1:11 3:2 1:3
3:0 1:10 3:2 1:3 3:1 1:6 3:2 1:11 3:2 1:3 3:1
1:0 3:2 1:3 3:1 1:6 3:2 1:11 3:2 1:3 3:1 1:16
3:0 1:3 3:1 1:6 3:2 1:11 3:2 1:3 3:1 1:16 3:2
1:0 3:1 1:6 3:2 1:11 3:2 1:3 3:1 1:16 3:2 1:2
3:0 1:6 3:2 1:11 3:2 1:3 3:1 1:16 3:2 1:2 3:2
1:0 3:2 1:11 3:2 1:3 3:1 1:16 3:2 1:2 3:2 1:6
3:0 1:11 3:2 1:3 3:1 1:16 3:2 1:2 3:2 1:6 3:2
1:0 3:2 1:3 3:1 1:16 3:2 1:2 3:2 1:6 3:2 1:11
3:0 1:3 3:1 1:16 3:2 1:2 3:2 1:6 3:2 1:11 3:2
1:0 3:1 1:16 3:2 1:2 3:2 1:6 3:2 1:11 3:2 1:2
3:0 1:16 3:2 1:2 3:2 1:6 3:2 1:11 3:2 1:2 3:2
1:0 3:2 1:2 3:2 1:6 3:2 1:11 3:2 1:2 3:2 1:6
3:0 1:2 3:2 1:6 3:2 1:11 3:2 1:2 3:2 1:6 3:2
1:0 3:2 1:6 3:2 1:11 3:2 1:2 3:2 1:6 3:2 1:8
3:0 1:6 3:2 1:11 3:2 1:2 3:2 1:6 3:2 1:8 3:2
1:0 3:2 1:11 3:2 1:2 3:2 1:6 3:2 1:8 3:2 1:2
3:0 1:11 3:2 1:2 3:2 1:6 3:2 1:8 3:2 1:2 3:3
1:0 3:2 1:2 3:2 1:6 3:2 1:8 3:2 1:2 3:3 1:4
3:0 1:2 3:2 1:6 3:2 1:8 3:2 1:2 3:3 1:4 3:2
1:0 3:2 1:6 3:2 1:8 3:2 1:2 3:3 1:4 3:2 1:6
3:0 1:6 3:2 1:8 3:2 1:2 3:3 1:4 3:2 1:6 3:1
1:0 3:2 1:8 3:2 1:2 3:3 1:4 3:2 1:6 3:1 1:8
3:0 1:8 3:2 1:2 3:3 1:4 3:2 1:6 3:1 1:8 3:2
1:0 3:2 1:2 3:3 1:4 3:2 1:6 3:1 1:8 3:2 1:9
3:0 1:2 3:3 1:4 3:2 1:6 3:1 1:8 3:2 1:9 3:1
1:0 3:3 1:4 3:2 1:6 3:1 1:8 3:2 1:9 3:1 1:11
3:0 1:4 3:2 1:6 3:1 1:8 3:2 1:9 3:1 1:11 3:3
1:0 3:2 1:6 3:1 1:8 3:2 1:9 3:1 1:11 3:3 1:9
3:0 1:6 3:1 1:8 3:2 1:9 3:1 1:11 3:3 1:9 3:2
1:0 3:1 1:8 3:2 1:9 3:1 1:11 3:3 1:9 3:2 1:9
3:0 1:8 3:2 1:9 3:1 1:11 3:3 1:9 3:2 1:9 3:2
1:0 3:2 1:9 3:1 1:11 3:3 1:9 3:2 1:9 3:2 1:4
3:0 1:9 3:1 1:11 3:3 1:9 3:2 1:9 3:2 1:4 3:1
1:0 3:1 1:11 3:3 1:9 3:2 1:9 3:2 1:4 3:1 1:9
3:0 1:11 3:3 1:9 3:2 1:9 3:2 1:4 3:1 1:9 3:1
1:0 3:3 1:9 3:2 1:9 3:2 1:4 3:1 1:9 3:1 1:8
3:0 1:9 3:2 1:9 3:2 1:4 3:1 1:9 3:1 1:8 3:2
1:0 3:2 1:9 3:2 1:4 3:1 1:9 3:1 1:8 3:2 1:3
3:0 1:9 3:2 1:4 3:1 1:9 3:1 1:8 3:2 1:3 3:1
1:0 3:2 1:4 3:1 1:9 3:1 1:8 3:2 1:3 3:1 1:17
3:0 1:4 3:1 1:9 3:1 1:8 3:2 1:3 3:1 1:17 3:2
1:0 3:1 1:9 3:1 1:8 3:2 1:3 3:1 1:17 3:2 1:2
3:0 1:9 3:1 1:8 3:2 1:3 3:1 1:17 3:2 1:2 3:2
1:0 3:1 1:8 3:2 1:3 3:1 1:17 3:2 1:2 3:2 1:10
3:0 1:8 3:2 1:3 3:1 1:17 3:2 1:2 3:2 1:10 3:1
1:0 3:2 1:3 3:1 1:17 3:2 1:2 3:2 1:10 3:1 1:9
3:0 1:3 3:1 1:17 3:2 1:2 3:2 1:10 3:1 1:9 3:2
1:0 3:1 1:17 3:2 1:2 3:2 1:10 3:1 1:9 3:2 1:8
3:0 1:17 3:2 1:2 3:2 1:10 3:1 1:9 3:2 1:8 3:2
1:0 3:2 1:2 3:2 1:10 3:1 1:9 3:2 1:8 3:2 1:9
3:0 1:2 3:2 1:10 3:1 1:9 3:2 1:8 3:2 1:9 3:2
1:0 3:2 1:10 3:1 1:9 3:2 1:8 3:2 1:9 3:2 1:2
3:0 1:10 3:1 1:9 3:2 1:8 3:2 1:9 3:2 1:2 3:2
1:0 3:1 1:9 3:2 1:8 3:2 1:9 3:2 1:2 3:2 1:8
3:0 1:9 3:2 1:8 3:2 1:9 3:2 1:2 3:2 1:8 3:2
1:0 3:2 1:8 3:2 1:9 3:2 1:2 3:2 1:8 3:2 1:10
3:0 1:8 3:2 1:9 3:2 1:2 3:2 1:8 3:2 1:10 3:3
1:0 3:2 1:9 3:2 1:2 3:2 1:8 3:2 1:10 3:3 1:8
3:0 1:9 3:2 1:2 3:2 1:8 3:2 1:10 3:3 1:8 3:2
1:0 3:2 1:2 3:2 1:8 3:2 1:10 3:3 1:8 3:2 1:9
3:0 1:2 3:2 1:8 3:2 1:10 3:3 1:8 3:2 1:9 3:2
1:0 3:2 1:8 3:2 1:10 3:3 1:8 3:2 1:9 3:2 1:3
3:0 1:8 3:2 1:10 3:3 1:8 3:2 1:9 3:2 1:3 3:1
1:0 3:2 1:10 3:3 1:8 3:2 1:9 3:2 1:3 3:1 1:9
3:0 1:10 3:3 1:8 3:2 1:9 3:2 1:3 3:1 1:9 3:2
1:0 3:3 1:8 3:2 1:9 3:2 1:3 3:1 1:9 3:2 1:8
3:0 1:8 3:2 1:9 3:2 1:3 3:1 1:9 3:2 1:8 3:2
1:0 3:2 1:9 3:2 1:3 3:1 1:9 3:2 1:8 3:2 1:2
3:0 1:9 3:2 1:3 3:1 1:9 3:2 1:8 3:2 1:2 3:2
1:0 3:2 1:3 3:1 1:9 3:2 1:8 3:2 1:2 3:2 1:8
3:0 1:3 3:1 1:9 3:2 1:8 3:2 1:2 3:2 1:8 3:1
1:0 3:1 1:9 3:2 1:8 3:2 1:2 3:2 1:8 3:1 1:9
3:0 1:9 3:2 1:8 3:2 1:2 3:2 1:8 3:1 1:9 3:2
1:0 3:2 1:8 3:2 1:2 3:2 1:8 3:1 1:9 3:2 1:2
3:0 1:8 3:2 1:2 3:2 1:8 3:1 1:9 3:2 1:2 3:2
1:0 3:2 1:2 3:2 1:8 3:1 1:9 3:2 1:2 3:2 1:18
3:0 1:2 3:2 1:8 3:1 1:9 3:2 1:2 3:2 1:18 3:2
1:0 3:2 1:8 3:1 1:9 3:2 1:2 3:2 1:18 3:2 1:2
3:0 1:8 3:1 1:9 3:2 1:2 3:2 1:18 3:2 1:2 3:2
1:0 3:1 1:9 3:2 1:2 3:2 1:18 3:2 1:2 3:2 1:7
3:0 1:9 3:2 1:2 3:2 1:18 3:2 1:2 3:2 1:7 3:2
1:0 3:2 1:2 3:2 1:18 3:2 1:2 3:2 1:7 3:2 1:10
3:0 1:2 3:2 1:18 3:2 1:2 3:2 1:7 3:2 1:10 3:3
1:0 3:2 1:18 3:2 1:2 3:2 1:7 3:2 1:10 3:3 1:6
3:0 1:18 3:2 1:2 3:2 1:7 3:2 1:10 3:3 1:6 3:1
1:0 3:2 1:2 3:2 1:7 3:2 1:10 3:3 1:6 3:1 1:5
3:0 1:2 3:2 1:7 3:2 1:10 3:3 1:6 3:1 1:5 3:2
1:0 3:2 1:7 3:2 1:10 3:3 1:6 3:1 1:5 3:2 1:7
3:0 1:7 3:2 1:10 3:3 1:6 3:1 1:5 3:2 1:7 3:2
1:0 3:2 1:10 3:3 1:6 3:1 1:5 3:2 1:7 3:2 1:10
3:0 1:10 3:3 1:6 3:1 1:5 3:2 1:7 3:2 1:10 3:2
1:0 3:3 1:6 3:1 1:5 3:2 1:7 3:2 1:10 3:2 1:9
3:0 1:6 3:1 1:5 3:2 1:7 3:2 1:10 3:2 1:9 3:2
1:0 3:1 1:5 3:2 1:7 3:2 1:10 3:2 1:9 3:2 1:6
3:0 1:5 3:2 1:7 3:2 1:10 3:2 1:9 3:2 1:6 3:1
1:0 3:2 1:7 3:2 1:10 3:2 1:9 3:2 1:6 3:1 1:6
3:0 1:7 3:2 1:10 3:2 1:9 3:2 1:6 3:1 1:6 3:1
1:0 3:2 1:10 3:2 1:9 3:2 1:6 3:1 1:6 3:1 1:9
3:0 1:10 3:2 1:9 3:2 1:6 3:1 1:6 3:1 1:9 3:2
1:0 3:2 1:9 3:2 1:6 3:1 1:6 3:1 1:9 3:2 1:10
3:0 1:9 3:2 1:6 3:1 1:6 3:1 1:9 3:2 1:10 3:2
1:0 3:2 1:6 3:1 1:6 3:1 1:9 3:2 1:10 3:2 1:10
3:0 1:6 3:1 1:6 3:1 1:9 3:2 1:10 3:2 1:10 3:2
1:0 3:1 1:6 3:1 1:9 3:2 1:10 3:2 1:10 3:2 1:6
3:0 1:6 3:1 1:9 3:2 1:10 3:2 1:10 3:2 1:6 3:2
1:0 3:1 1:9 3:2 1:10 3:2 1:10 3:2 1:6 3:2 1:13
3:0 1:9 3:2 1:10 3:2 1:10 3:2 1:6 3:2 1:13 3:2
1:0 3:2 1:10 3:2 1:10 3:2 1:6 3:2 1:13 3:2 1:2
3:0 1:10 3:2 1:10 3:2 1:6 3:2 1:13 3:2 1:2 3:2
1:0 3:2 1:10 3:2 1:6 3:2 1:13 3:2 1:2 3:2 1:6
3:0 1:10 3:2 1:6 3:2 1:13 3:2 1:2 3:2 1:6 3:1
1:0 3:2 1:6 3:2 1:13 3:2 1:2 3:2 1:6 3:1 1:13
3:0 1:6 3:2 1:13 3:2 1:2 3:2 1:6 3:1 1:13 3:2
1:0 3:2 1:13 3:2 1:2 3:2 1:6 3:1 1:13 3:2 1:7
3:0 1:13 3:2 1:2 3:2 1:6 3:1 1:13 3:2 1:7 3:1
1:0 3:2 1:2 3:2 1:6 3:1 1:13 3:2 1:7 3:1 1:12
3:0 1:2 3:2 1:6 3:1 1:13 3:2 1:7 3:1 1:12 3:2
1:0 3:2 1:6 3:1 1:13 3:2 1:7 3:1 1:12 3:2 1:3
3:0 1:6 3:1 1:13 3:2 1:7 3:1 1:12 3:2 1:3 3:2
1:0 3:1 1:13 3:2 1:7 3:1 1:12 3:2 1:3 3:2 1:16
3:0 1:13 3:2 1:7 3:1 1:12 3:2 1:3 3:2 1:16 3:2
1:0 3:2 1:7 3:1 1:12 3:2 1:3 3:2 1:16 3:2 1:2
3:0 1:7 3:1 1:12 3:2 1:3 3:2 1:16 3:2 1:2 3:2
1:0 3:1 1:12 3:2 1:3 3:2 1:16 3:2 1:2 3:2 1:9
3:0 1:12 3:2 1:3 3:2 1:16 3:2 1:2 3:2 1:9 3:1
1:0 3:2 1:3 3:2 1:16 3:2 1:2 3:2 1:9 3:1 1:11
3:0 1:3 3:2 1:16 3:2 1:2 3:2 1:9 3:1 1:11 3:1
1:0 3:2 1:16 3:2 1:2 3:2 1:9 3:1 1:11 3:1 1:9
3:0 1:16 3:2 1:2 3:2 1:9 3:1 1:11 3:1 1:9 3:1
1:0 3:2 1:2 3:2 1:9 3:1 1:11 3:1 1:9 3:1 1:10
3:0 1:2 3:2 1:9 3:1 1:11 3:1 1:9 3:1 1:10 3:2
1:0 3:2 1:9 3:1 1:11 3:1 1:9 3:1 1:10 3:2 1:2
3:0 1:9 3:1 1:11 3:1 1:9 3:1 1:10 3:2 1:2 3:2
1:0 3:1 1:11 3:1 1:9 3:1 1:10 3:2 1:2 3:2 1:7
3:0 1:11 3:1 1:9 3:1 1:10 3:2 1:2 3:2 1:7 3:1
1:0 3:1 1:9 3:1 1:10 3:2 1:2 3:2 1:7 3:1 1:10
3:0 1:9 3:1 1:10 3:2 1:2 3:2 1:7 3:1 1:10 3:2
1:0 3:1 1:10 3:2 1:2 3:2 1:7 3:1 1:10 3:2 1:3
3:0 1:10 3:2 1:2 3:2 1:7 3:1 1:10 3:2 1:3 3:1
1:0 3:2 1:2 3:2 1:7 3:1 1:10 3:2 1:3 3:1 1:8
3:0 1:2 3:2 1:7 3:1 1:10 3:2 1:3 3:1 1:8 3:1
1:0 3:2 1:7 3:1 1:10 3:2 1:3 3:1 1:8 3:1 1:10
3:0 1:7 3:1 1:10 3:2 1:3 3:1 1:8 3:1 1:10 3:3
1:0 3:1 1:10 3:2 1:3 3:1 1:8 3:1 1:10 3:3 1:2
3:0 1:10 3:2 1:3 3:1 1:8 3:1 1:10 3:3 1:2 3:2
1:0 3:2 1:3 3:1 1:8 3:1 1:10 3:3 1:2 3:2 1:17
3:0 1:3 3:1 1:8 3:1 1:10 3:3 1:2 3:2 1:17 3:2
1:0 3:1 1:8 3:1 1:10 3:3 1:2 3:2 1:17 3:2 1:2
3:0 1:8 3:1 1:10 3:3 1:2 3:2 1:17 3:2 1:2 3:2
1:0 3:1 1:10 3:3 1:2 3:2 1:17 3:2 1:2 3:2 1:5
3:0 1:10 3:3 1:2 3:2 1:17 3:2 1:2 3:2 1:5 3:2
1:0 3:3 1:2 3:2 1:17 3:2 1:2 3:2 1:5 3:2 1:11
3:0 1:2 3:2 1:17 3:2 1:2 3:2 1:5 3:2 1:11 3:3
1:0 3:2 1:17 3:2 1:2 3:2 1:5 3:2 1:11 3:3 1:6
3:0 1:17 3:2 1:2 3:2 1:5 3:2 1:11 3:3 1:6 3:1
1:0 3:2 1:2 3:2 1:5 3:2 1:11 3:3 1:6 3:1 1:14
3:0 1:2 3:2 1:5 3:2 1:11 3:3 1:6 3:1 1:14 3:3
1:0 3:2 1:5 3:2 1:11 3:3 1:6 3:1 1:14 3:3 1:8
3:0 1:5 3:2 1:11 3:3 1:6 3:1 1:14 3:3 1:8 3:2
1:0 3:2 1:11 3:3 1:6 3:1 1:14 3:3 1:8 3:2 1:11
3:0 1:11 3:3 1:6 3:1 1:14 3:3 1:8 3:2 1:11 3:3
1:0 3:3 1:6 3:1 1:14 3:3 1:8 3:2 1:11 3:3 1:2
3:0 1:6 3:1 1:14 3:3 1:8 3:2 1:11 3:3 1:2 3:2
1:0 3:1 1:14 3:3 1:8 3:2 1:11 3:3 1:2 3:2 1:7
3:0 1:14 3:3 1:8 3:2 1:11 3:3 1:2 3:2 1:7 3:1
1:0 3:3 1:8 3:2 1:11 3:3 1:2 3:2 1:7 3:1 1:10
3:0 1:8 3:2 1:11 3:3 1:2 3:2 1:7 3:1 1:10 3:1
1:0 3:2 1:11 3:3 1:2 3:2 1:7 3:1 1:10 3:1 1:3
3:0 1:11 3:3 1:2 3:2 1:7 3:1 1:10 3:1 1:3 3:1
1:0 3:3 1:2 3:2 1:7 3:1 1:10 3:1 1:3 3:1 1:9
3:0 1:2 3:2 1:7 3:1 1:10 3:1 1:3 3:1 1:9 3:1
1:0 3:2 1:7 3:1 1:10 3:1 1:3 3:1 1:9 3:1 1:9
3:0 1:7 3:1 1:10 3:1 1:3 3:1 1:9 3:1 1:9 3:2
1:0 3:1 1:10 3:1 1:3 3:1 1:9 3:1 1:9 3:2 1:7
3:0 1:10 3:1 1:3 3:1 1:9 3:1 1:9 3:2 1:7 3:1
1:0 3:1 1:3 3:1 1:9 3:1 1:9 3:2 1:7 3:1 1:5
3:0 1:3 3:1 1:9 3:1 1:9 3:2 1:7 3:1 1:5 3:1
1:0 3:1 1:9 3:1 1:9 3:2 1:7 3:1 1:5 3:1 1:8
3:0 1:9 3:1 1:9 3:2 1:7 3:1 1:5 3:1 1:8 3:3
1:0 3:1 1:9 3:2 1:7 3:1 1:5 3:1 1:8 3:3 1:6
3:0 1:9 3:2 1:7 3:1 1:5 3:1 1:8 3:3 1:6 3:1
1:0 3:2 1:7 3:1 1:5 3:1 1:8 3:3 1:6 3:1 1:14
3:0 1:7 3:1 1:5 3:1 1:8 3:3 1:6 3:1 1:14 3:2
1:0 3:1 1:5 3:1 1:8 3:3 1:6 3:1 1:14 3:2 1:6
3:0 1:5 3:1 1:8 3:3 1:6 3:1 1:14 3:2 1:6 3:2
1:0 3:1 1:8 3:3 1:6 3:1 1:14 3:2 1:6 3:2 1:7
3:0 1:8 3:3 1:6 3:1 1:14 3:2 1:6 3:2 1:7 3:1
1:0 3:3 1:6 3:1 1:14 3:2 1:6 3:2 1:7 3:1 1:7
3:0 1:6 3:1 1:14 3:2 1:6 3:2 1:7 3:1 1:7 3:2
1:0 3:1 1:14 3:2 1:6 3:2 1:7 3:1 1:7 3:2 1:7
3:0 1:14 3:2 1:6 3:2 1:7 3:1 1:7 3:2 1:7 3:2
1:0 3:2 1:6 3:2 1:7 3:1 1:7 3:2 1:7 3:2 1:11
3:0 1:6 3:2 1:7 3:1 1:7 3:2 1:7 3:2 1:11 3:3
1:0 3:2 1:7 3:1 1:7 3:2 1:7 3:2 1:11 3:3 1:9
3:0 1:7 3:1 1:7 3:2 1:7 3:2 1:11 3:3 1:9 3:1
1:0 3:1 1:7 3:2 1:7 3:2 1:11 3:3 1:9 3:1 1:11
3:0 1:7 3:2 1:7 3:2 1:11 3:3 1:9 3:1 1:11 3:2
1:0 3:2 1:7 3:2 1:11 3:3 1:9 3:1 1:11 3:2 1:2
3:0 1:7 3:2 1:11 3:3 1:9 3:1 1:11 3:2 1:2 3:2
1:0 3:2 1:11 3:3 1:9 3:1 1:11 3:2 1:2 3:2 1:11
3:0 1:11 3:3 1:9 3:1 1:11 3:2 1:2 3:2 1:11 3:1
1:0 3:3 1:9 3:1 1:11 3:2 1:2 3:2 1:11 3:1 1:7
3:0 1:9 3:1 1:11 3:2 1:2 3:2 1:11 3:1 1:7 3:3
1:0 3:1 1:11 3:2 1:2 3:2 1:11 3:1 1:7 3:3 1:5
3:0 1:11 3:2 1:2 3:2 1:11 3:1 1:7 3:3 1:5 3:2
1:0 3:2 1:2 3:2 1:11 3:1 1:7 3:3 1:5 3:2 1:6
3:0 1:2 3:2 1:11 3:1 1:7 3:3 1:5 3:2 1:6 3:1
1:0 3:2 1:11 3:1 1:7 3:3 1:5 3:2 1:6 3:1 1:7
3:0 1:11 3:1 1:7 3:3 1:5 3:2 1:6 3:1 1:7 3:2
1:0 3:1 1:7 3:3 1:5 3:2 1:6 3:1 1:7 3:2 1:4
3:0 1:7 3:3 1:5 3:2 1:6 3:1 1:7 3:2 1:4 3:1
1:0 3:3 1:5 3:2 1:6 3:1 1:7 3:2 1:4 3:1 1:5
3:0 1:5 3:2 1:6 3:1 1:7 3:2 1:4 3:1 1:5 3:2
1:0 3:2 1:6 3:1 1:7 3:2 1:4 3:1 1:5 3:2 1:10
3:0 1:6 3:1 1:7 3:2 1:4 3:1 1:5 3:2 1:10 3:2
1:0 3:1 1:7 3:2 1:4 3:1 1:5 3:2 1:10 3:2 1:3
3:0 1:7 3:2 1:4 3:1 1:5 3:2 1:10 3:2 1:3 3:2
1:0 3:2 1:4 3:1 1:5 3:2 1:10 3:2 1:3 3:2 1:16
3:0 1:4 3:1 1:5 3:2 1:10 3:2 1:3 3:2 1:16 3:3
1:0 3:1 1:5 3:2 1:10 3:2 1:3 3:2 1:16 3:3 1:2
3:0 1:5 3:2 1:10 3:2 1:3 3:2 1:16 3:3 1:2 3:2
1:0 3:2 1:10 3:2 1:3 3:2 1:16 3:3 1:2 3:2 1:8
3:0 1:10 3:2 1:3 3:2 1:16 3:3 1:2 3:2 1:8 3:1
1:0 3:2 1:3 3:2 1:16 3:3 1:2 3:2 1:8 3:1 1:10
3:0 1:3 3:2 1:16 3:3 1:2 3:2 1:8 3:1 1:10 3:2
1:0 3:2 1:16 3:3 1:2 3:2 1:8 3:1 1:10 3:2 1:6
3:0 1:16 3:3 1:2 3:2 1:8 3:1 1:10 3:2 1:6 3:1
1:0 3:3 1:2 3:2 1:8 3:1 1:10 3:2 1:6 3:1 1:12
3:0 1:2 3:2 1:8 3:1 1:10 3:2 1:6 3:1 1:12 3:2
1:0 3:2 1:8 3:1 1:10 3:2 1:6 3:1 1:12 3:2 1:3
3:0 1:8 3:1 1:10 3:2 1:6 3:1 1:12 3:2 1:3 3:1
1:0 3:1 1:10 3:2 1:6 3:1 1:12 3:2 1:3 3:1 1:6
3:0 1:10 3:2 1:6 3:1 1:12 3:2 1:3 3:1 1:6 3:1
1:0 3:2 1:6 3:1 1:12 3:2 1:3 3:1 1:6 3:1 1:11
3:0 1:6 3:1 1:12 3:2 1:3 3:1 1:6 3:1 1:11 3:2
1:0 3:1 1:12 3:2 1:3 3:1 1:6 3:1 1:11 3:2 1:2
3:0 1:12 3:2 1:3 3:1 1:6 3:1 1:11 3:2 1:2 3:2
1:0 3:2 1:3 3:1 1:6 3:1 1:11 3:2 1:2 3:2 1:10
3:0 1:3 3:1 1:6 3:1 1:11 3:2 1:2 3:2 1:10 3:2
1:0 3:1 1:6 3:1 1:11 3:2 1:2 3:2 1:10 3:2 1:8
3:0 1:6 3:1 1:11 3:2 1:2 3:2 1:10 3:2 1:8 3:2
1:0 3:1 1:11 3:2 1:2 3:2 1:10 3:2 1:8 3:2 1:3
3:0 1:11 3:2 1:2 3:2 1:10 3:2 1:8 3:2 1:3 3:2
1:0 3:2 1:2 3:2 1:10 3:2 1:8 3:2 1:3 3:2 1:5
3:0 1:2 3:2 1:10 3:2 1:8 3:2 1:3 3:2 1:5 3:2
1:0 3:2 1:10 3:2 1:8 3:2 1:3 3:2 1:5 3:2 1:9
3:0 1:10 3:2 1:8 3:2 1:3 3:2 1:5 3:2 1:9 3:3
1:0 3:2 1:8 3:2 1:3 3:2 1:5 3:2 1:9 3:3 1:6
3:0 1:8 3:2 1:3 3:2 1:5 3:2 1:9 3:3 1:6 3:1
1:0 3:2 1:3 3:2 1:5 3:2 1:9 3:3 1:6 3:1 1:6
3:0 1:3 3:2 1:5 3:2 1:9 3:3 1:6 3:1 1:6 3:1
1:0 3:2 1:5 3:2 1:9 3:3 1:6 3:1 1:6 3:1 1:7
3:0 1:5 3:2 1:9 3:3 1:6 3:1 1:6 3:1 1:7 3:3
1:0 3:2 1:9 3:3 1:6 3:1 1:6 3:1 1:7 3:3 1:3
3:0 1:9 3:3 1:6 3:1 1:6 3:1 1:7 3:3 1:3 3:1
1:0 3:3 1:6 3:1 1:6 3:1 1:7 3:3 1:3 3:1 1:18
3:0 1:6 3:1 1:6 3:1 1:7 3:3 1:3 3:1 1:18 3:2
1:0 3:1 1:6 3:1 1:7 3:3 1:3 3:1 1:18 3:2 1:5
3:0 1:6 3:1 1:7 3:3 1:3 3:1 1:18 3:2 1:5 3:1
1:0 3:1 1:7 3:3 1:3 3:1 1:18 3:2 1:5 3:1 1:8
3:0 1:7 3:3 1:3 3:1 1:18 3:2 1:5 3:1 1:8 3:1
1:0 3:3 1:3 3:1 1:18 3:2 1:5 3:1 1:8 3:1 1:8
3:0 1:3 3:1 1:18 3:2 1:5 3:1 1:8 3:1 1:8 3:2
1:0 3:1 1:18 3:2 1:5 3:1 1:8 3:1 1:8 3:2 1:8
3:0 1:18 3:2 1:5 3:1 1:8 3:1 1:8 3:2 1:8 3:2
1:0 3:2 1:5 3:1 1:8 3:1 1:8 3:2 1:8 3:2 1:10
3:0 1:5 3:1 1:8 3:1 1:8 3:2 1:8 3:2 1:10 3:3
1:0 3:1 1:8 3:1 1:8 3:2 1:8 3:2 1:10 3:3 1:2
3:0 1:8 3:1 1:8 3:2 1:8 3:2 1:10 3:3 1:2 3:1
1:0 3:1 1:8 3:2 1:8 3:2 1:10 3:3 1:2 3:1 1:11
3:0 1:8 3:2 1:8 3:2 1:10 3:3 1:2 3:1 1:11 3:1
1:0 3:2 1:8 3:2 1:10 3:3 1:2 3:1 1:11 3:1 1:7
3:0 1:8 3:2 1:10 3:3 1:2 3:1 1:11 3:1 1:7 3:2
1:0 3:2 1:10 3:3 1:2 3:1 1:11 3:1 1:7 3:2 1:8
3:0 1:10 3:3 1:2 3:1 1:11 3:1 1:7 3:2 1:8 3:2
1:0 3:3 1:2 3:1 1:11 3:1 1:7 3:2 1:8 3:2 1:10
3:0 1:2 3:1 1:11 3:1 1:7 3:2 1:8 3:2 1:10 3:2
1:0 3:1 1:11 3:1 1:7 3:2 1:8 3:2 1:10 3:2 1:2
3:0 1:11 3:1 1:7 3:2 1:8 3:2 1:10 3:2 1:2 3:2
1:0 3:1 1:7 3:2 1:8 3:2 1:10 3:2 1:2 3:2 1:10
3:0 1:7 3:2 1:8 3:2 1:10 3:2 1:2 3:2 1:10 3:2
1:0 3:2 1:8 3:2 1:10 3:2 1:2 3:2 1:10 3:2 1:8
3:0 1:8 3:2 1:10 3:2 1:2 3:2 1:10 3:2 1:8 3:2
1:0 3:2 1:10 3:2 1:2 3:2 1:10 3:2 1:8 3:2 1:8
3:0 1:10 3:2 1:2 3:2 1:10 3:2 1:8 3:2 1:8 3:1
1:0 3:2 1:2 3:2 1:10 3:2 1:8 3:2 1:8 3:1 1:7
3:0 1:2 3:2 1:10 3:2 1:8 3:2 1:8 3:1 1:7 3:1
1:0 3:2 1:10 3:2 1:8 3:2 1:8 3:1 1:7 3:1 1:5
3:0 1:10 3:2 1:8 3:2 1:8 3:1 1:7 3:1 1:5 3:2
1:0 3:2 1:8 3:2 1:8 3:1 1:7 3:1 1:5 3:2 1:4
3:0 1:8 3:2 1:8 3:1 1:7 3:1 1:5 3:2 1:4 3:1
1:0 3:2 1:8 3:1 1:7 3:1 1:5 3:2 1:4 3:1 1:15
3:0 1:8 3:1 1:7 3:1 1:5 3:2 1:4 3:1 1:15 3:2
1:0 3:1 1:7 3:1 1:5 3:2 1:4 3:1 1:15 3:2 1:2
3:0 1:7 3:1 1:5 3:2 1:4 3:1 1:15 3:2 1:2 3:3
1:0 3:1 1:5 3:2 1:4 3:1 1:15 3:2 1:2 3:3 1:6
3:0 1:5 3:2 1:4 3:1 1:15 3:2 1:2 3:3 1:6 3:1
1:0 3:2 1:4 3:1 1:15 3:2 1:2 3:3 1:6 3:1 1:11
3:0 1:4 3:1 1:15 3:2 1:2 3:3 1:6 3:1 1:11 3:2
1:0 3:1 1:15 3:2 1:2 3:3 1:6 3:1 1:11 3:2 1:4
3:0 1:15 3:2 1:2 3:3 1:6 3:1 1:11 3:2 1:4 3:1
1:0 3:2 1:2 3:3 1:6 3:1 1:11 3:2 1:4 3:1 1:6
3:0 1:2 3:3 1:6 3:1 1:11 3:2 1:4 3:1 1:6 3:2
1:0 3:3 1:6 3:1 1:11 3:2 1:4 3:1 1:6 3:2 1:10
3:0 1:6 3:1 1:11 3:2 1:4 3:1 1:6 3:2 1:10 3:3
1:0 3:1 1:11 3:2 1:4 3:1 1:6 3:2 1:10 3:3 1:6
3:0 1:11 3:2 1:4 3:1 1:6 3:2 1:10 3:3 1:6 3:2
1:0 3:2 1:4 3:1 1:6 3:2 1:10 3:3 1:6 3:2 1:11
3:0 1:4 3:1 1:6 3:2 1:10 3:3 1:6 3:2 1:11 3:2
1:0 3:1 1:6 3:2 1:10 3:3 1:6 3:2 1:11 3:2 1:3
3:0 1:6 3:2 1:10 3:3 1:6 3:2 1:11 3:2 1:3 3:1
1:0 3:2 1:10 3:3 1:6 3:2 1:11 3:2 1:3 3:1 1:9
3:0 1:10 3:3 1:6 3:2 1:11 3:2 1:3 3:1 1:9 3:2
1:0 3:3 1:6 3:2 1:11 3:2 1:3 3:1 1:9 3:2 1:10
3:0 1:6 3:2 1:11 3:2 1:3 3:1 1:9 3:2 1:10 3:2
1:0 3:2 1:11 3:2 1:3 3:1 1:9 3:2 1:10 3:2 1:6
3:0 1:11 3:2 1:3 3:1 1:9 3:2 1:10 3:2 1:6 3:1
1:0 3:2 1:3 3:1 1:9 3:2 1:10 3:2 1:6 3:1 1:13
3:0 1:3 3:1 1:9 3:2 1:10 3:2 1:6 3:1 1:13 3:1
1:0 3:1 1:9 3:2 1:10 3:2 1:6 3:1 1:13 3:1 1:3
3:0 1:9 3:2 1:10 3:2 1:6 3:1 1:13 3:1 1:3 3:1
1:0 3:2 1:10 3:2 1:6 3:1 1:13 3:1 1:3 3:1 1:10
3:0 1:10 3:2 1:6 3:1 1:13 3:1 1:3 3:1 1:10 3:1
1:0 3:2 1:6 3:1 1:13 3:1 1:3 3:1 1:10 3:1 1:9
3:0 1:6 3:1 1:13 3:1 1:3 3:1 1:10 3:1 1:9 3:3
1:0 3:1 1:13 3:1 1:3 3:1 1:10 3:1 1:9 3:3 1:3
3:0 1:13 3:1 1:3 3:1 1:10 3:1 1:9 3:3 1:3 3:2
1:0 3:1 1:3 3:1 1:10 3:1 1:9 3:3 1:3 3:2 1:15
3:0 1:3 3:1 1:10 3:1 1:9 3:3 1:3 3:2 1:15 3:3
1:0 3:1 1:10 3:1 1:9 3:3 1:3 3:2 1:15 3:3 1:2
3:0 1:10 3:1 1:9 3:3 1:3 3:2 1:15 3:3 1:2 3:2
1:0 3:1 1:9 3:3 1:3 3:2 1:15 3:3 1:2 3:2 1:8
3:0 1:9 3:3 1:3 3:2 1:15 3:3 1:2 3:2 1:8 3:1
1:0 3:3 1:3 3:2 1:15 3:3 1:2 3:2 1:8 3:1 1:10
3:0 1:3 3:2 1:15 3:3 1:2 3:2 1:8 3:1 1:10 3:2
1:0 3:2 1:15 3:3 1:2 3:2 1:8 3:1 1:10 3:2 1:9
3:0 1:15 3:3 1:2 3:2 1:8 3:1 1:10 3:2 1:9 3:1
1:0 3:3 1:2 3:2 1:8 3:1 1:10 3:2 1:9 3:1 1:10
3:0 1:2 3:2 1:8 3:1 1:10 3:2 1:9 3:1 1:10 3:2
1:0 3:2 1:8 3:1 1:10 3:2 1:9 3:1 1:10 3:2 1:1
3:0 1:8 3:1 1:10 3:2 1:9 3:1 1:10 3:2 1:1 3:2
1:0 3:1 1:10 3:2 1:9 3:1 1:10 3:2 1:1 3:2 1:10
3:0 1:10 3:2 1:9 3:1 1:10 3:2 1:1 3:2 1:10 3:2
1:0 3:2 1:9 3:1 1:10 3:2 1:1 3:2 1:10 3:2 1:8
3:0 1:9 3:1 1:10 3:2 1:1 3:2 1:10 3:2 1:8 3:3
1:0 3:1 1:10 3:2 1:1 3:2 1:10 3:2 1:8 3:3 1:6
3:0 1:10 3:2 1:1 3:2 1:10 3:2 1:8 3:3 1:6 3:1
1:0 3:2 1:1 3:2 1:10 3:2 1:8 3:3 1:6 3:1 1:13
3:0 1:1 3:2 1:10 3:2 1:8 3:3 1:6 3:1 1:13 3:3
1:0 3:2 1:10 3:2 1:8 3:3 1:6 3:1 1:13 3:3 1:3
3:0 1:10 3:2 1:8 3:3 1:6 3:1 1:13 3:3 1:3 3:1
1:0 3:2 1:8 3:3 1:6 3:1 1:13 3:3 1:3 3:1 1:7
3:0 1:8 3:3 1:6 3:1 1:13 3:3 1:3 3:1 1:7 3:1
1:0 3:3 1:6 3:1 1:13 3:3 1:3 3:1 1:7 3:1 1:9
3:0 1:6 3:1 1:13 3:3 1:3 3:1 1:7 3:1 1:9 3:2
1:0 3:1 1:13 3:3 1:3 3:1 1:7 3:1 1:9 3:2 1:2
3:0 1:13 3:3 1:3 3:1 1:7 3:1 1:9 3:2 1:2 3:2
1:0 3:3 1:3 3:1 1:7 3:1 1:9 3:2 1:2 3:2 1:9
3:0 1:3 3:1 1:7 3:1 1:9 3:2 1:2 3:2 1:9 3:1
1:0 3:1 1:7 3:1 1:9 3:2 1:2 3:2 1:9 3:1 1:9
3:0 1:7 3:1 1:9 3:2 1:2 3:2 1:9 3:1 1:9 3:2
1:0 3:1 1:9 3:2 1:2 3:2 1:9 3:1 1:9 3:2 1:4
3:0 1:9 3:2 1:2 3:2 1:9 3:1 1:9 3:2 1:4 3:1
1:0 3:2 1:2 3:2 1:9 3:1 1:9 3:2 1:4 3:1 1:17
3:0 1:2 3:2 1:9 3:1 1:9 3:2 1:4 3:1 1:17 3:2
1:0 3:2 1:9 3:1 1:9 3:2 1:4 3:1 1:17 3:2 1:8
3:0 1:9 3:1 1:9 3:2 1:4 3:1 1:17 3:2 1:8 3:1
1:0 3:1 1:9 3:2 1:4 3:1 1:17 3:2 1:8 3:1 1:11
3:0 1:9 3:2 1:4 3:1 1:17 3:2 1:8 3:1 1:11 3:1
1:0 3:2 1:4 3:1 1:17 3:2 1:8 3:1 1:11 3:1 1:3
3:0 1:4 3:1 1:17 3:2 1:8 3:1 1:11 3:1 1:3 3:2
1:0 3:1 1:17 3:2 1:8 3:1 1:11 3:1 1:3 3:2 1:5
3:0 1:17 3:2 1:8 3:1 1:11 3:1 1:3 3:2 1:5 3:2
1:0 3:2 1:8 3:1 1:11 3:1 1:3 3:2 1:5 3:2 1:13
3:0 1:8 3:1 1:11 3:1 1:3 3:2 1:5 3:2 1:13 3:2
1:0 3:1 1:11 3:1 1:3 3:2 1:5 3:2 1:13 3:2 1:7
3:0 1:11 3:1 1:3 3:2 1:5 3:2 1:13 3:2 1:7 3:2
1:0 3:1 1:3 3:2 1:5 3:2 1:13 3:2 1:7 3:2 1:6
3:0 1:3 3:2 1:5 3:2 1:13 3:2 1:7 3:2 1:6 3:1
1:0 3:2 1:5 3:2 1:13 3:2 1:7 3:2 1:6 3:1 1:7
3:0 1:5 3:2 1:13 3:2 1:7 3:2 1:6 3:1 1:7 3:2
1:0 3:2 1:13 3:2 1:7 3:2 1:6 3:1 1:7 3:2 1:11
3:0 1:13 3:2 1:7 3:2 1:6 3:1 1:7 3:2 1:11 3:2
1:0 3:2 1:7 3:2 1:6 3:1 1:7 3:2 1:11 3:2 1:8
3:0 1:7 3:2 1:6 3:1 1:7 3:2 1:11 3:2 1:8 3:3
1:0 3:2 1:6 3:1 1:7 3:2 1:11 3:2 1:8 3:3 1:4
3:0 1:6 3:1 1:7 3:2 1:11 3:2 1:8 3:3 1:4 3:1
1:0 3:1 1:7 3:2 1:11 3:2 1:8 3:3 1:4 3:1 4:1
3:0 1:7 3:2 1:11 3:2 1:8 3:3 1:4 3:1 4:1 3:1
1:0 3:2 1:11 3:2 1:8 3:3 1:4 3:1 4:1 3:1 1:12
3:0 1:11 3:2 1:8 3:3 1:4 3:1 4:1 3:1 1:12 3:1
1:0 3:2 1:8 3:3 1:4 3:1 4:1 3:1 1:12 3:1 1:3
3:0 1:8 3:3 1:4 3:1 4:1 3:1 1:12 3:1 1:3 3:2
1:0 3:3 1:4 3:1 4:1 3:1 1:12 3:1 1:3 3:2 1:8
3:0 1:4 3:1 4:1 3:1 1:12 3:1 1:3 3:2 1:8 3:1
1:0 3:1 4:1 3:1 1:12 3:1 1:3 3:2 1:8 3:1 1:10
3:0 4:1 3:1 1:12 3:1 1:3 3:2 1:8 3:1 1:10 3:2
4:0 3:1 1:12 3:1 1:3 3:2 1:8 3:1 1:10 3:2 1:2
3:0 1:12 3:1 1:3 3:2 1:8 3:1 1:10 3:2 1:2 3:2
1:0 3:1 1:3 3:2 1:8 3:1 1:10 3:2 1:2 3:2 1:19
3:0 1:3 3:2 1:8 3:1 1:10 3:2 1:2 3:2 1:19 3:2
1:0 3:2 1:8 3:1 1:10 3:2 1:2 3:2 1:19 3:2 1:7
3:0 1:8 3:1 1:10 3:2 1:2 3:2 1:19 3:2 1:7 3:2
1:0 3:1 1:10 3:2 1:2 3:2 1:19 3:2 1:7 3:2 1:12
3:0 1:10 3:2 1:2 3:2 1:19 3:2 1:7 3:2 1:12 3:3
1:0 3:2 1:2 3:2 1:19 3:2 1:7 3:2 1:12 3:3 1:6
3:0 1:2 3:2 1:19 3:2 1:7 3:2 1:12 3:3 1:6 3:2
1:0 3:2 1:19 3:2 1:7 3:2 1:12 3:3 1:6 3:2 1:6
3:0 1:19 3:2 1:7 3:2 1:12 3:3 1:6 3:2 1:6 3:1
1:0 3:2 1:7 3:2 1:12 3:3 1:6 3:2 1:6 3:1 1:7
3:0 1:7 3:2 1:12 3:3 1:6 3:2 1:6 3:1 1:7 3:2
1:0 3:2 1:12 3:3 1:6 3:2 1:6 3:1 1:7 3:2 1:4
3:0 1:12 3:3 1:6 3:2 1:6 3:1 1:7 3:2 1:4 3:1
1:0 3:3 1:6 3:2 1:6 3:1 1:7 3:2 1:4 3:1 1:6
3:0 1:6 3:2 1:6 3:1 1:7 3:2 1:4 3:1 1:6 3:1
1:0 3:2 1:6 3:1 1:7 3:2 1:4 3:1 1:6 3:1 1:10
3:0 1:6 3:1 1:7 3:2 1:4 3:1 1:6 3:1 1:10 3:2
1:0 3:1 1:7 3:2 1:4 3:1 1:6 3:1 1:10 3:2 1:11
3:0 1:7 3:2 1:4 3:1 1:6 3:1 1:10 3:2 1:11 3:1
1:0 3:2 1:4 3:1 1:6 3:1 1:10 3:2 1:11 3:1 1:10
3:0 1:4 3:1 1:6 3:1 1:10 3:2 1:11 3:1 1:10 3:2
1:0 3:1 1:6 3:1 1:10 3:2 1:11 3:1 1:10 3:2 1:2
3:0 1:6 3:1 1:10 3:2 1:11 3:1 1:10 3:2 1:2 3:1
1:0 3:1 1:10 3:2 1:11 3:1 1:10 3:2 1:2 3:1 1:8
3:0 1:10 3:2 1:11 3:1 1:10 3:2 1:2 3:1 1:8 3:1
1:0 3:2 1:11 3:1 1:10 3:2 1:2 3:1 1:8 3:1 1:10
3:0 1:11 3:1 1:10 3:2 1:2 3:1 1:8 3:1 1:10 3:2
1:0 3:1 1:10 3:2 1:2 3:1 1:8 3:1 1:10 3:2 1:3
3:0 1:10 3:2 1:2 3:1 1:8 3:1 1:10 3:2 1:3 3:1
1:0 3:2 1:2 3:1 1:8 3:1 1:10 3:2 1:3 3:1 1:9
3:0 1:2 3:1 1:8 3:1 1:10 3:2 1:3 3:1 1:9 3:1
1:0 3:1 1:8 3:1 1:10 3:2 1:3 3:1 1:9 3:1 1:8
3:0 1:8 3:1 1:10 3:2 1:3 3:1 1:9 3:1 1:8 3:3
1:0 3:1 1:10 3:2 1:3 3:1 1:9 3:1 1:8 3:3 1:4
3:0 1:10 3:2 1:3 3:1 1:9 3:1 1:8 3:3 1:4 3:2
1:0 3:2 1:3 3:1 1:9 3:1 1:8 3:3 1:4 3:2 1:13
3:0 1:3 3:1 1:9 3:1 1:8 3:3 1:4 3:2 1:13 3:2
1:0 3:1 1:9 3:1 1:8 3:3 1:4 3:2 1:13 3:2 1:3
3:0 1:9 3:1 1:8 3:3 1:4 3:2 1:13 3:2 1:3 3:1
1:0 3:1 1:8 3:3 1:4 3:2 1:13 3:2 1:3 3:1 1:9
3:0 1:8 3:3 1:4 3:2 1:13 3:2 1:3 3:1 1:9 3:2
1:0 3:3 1:4 3:2 1:13 3:2 1:3 3:1 1:9 3:2 1:8
3:0 1:4 3:2 1:13 3:2 1:3 3:1 1:9 3:2 1:8 3:2
1:0 3:2 1:13 3:2 1:3 3:1 1:9 3:2 1:8 3:2 1:3
3:0 1:13 3:2 1:3 3:1 1:9 3:2 1:8 3:2 1:3 3:1
1:0 3:2 1:3 3:1 1:9 3:2 1:8 3:2 1:3 3:1 1:8
3:0 1:3 3:1 1:9 3:2 1:8 3:2 1:3 3:1 1:8 3:2
1:0 3:1 1:9 3:2 1:8 3:2 1:3 3:1 1:8 3:2 1:8
3:0 1:9 3:2 1:8 3:2 1:3 3:1 1:8 3:2 1:8 3:3
1:0 3:2 1:8 3:2 1:3 3:1 1:8 3:2 1:8 3:3 1:2
3:0 1:8 3:2 1:3 3:1 1:8 3:2 1:8 3:3 1:2 3:2
1:0 3:2 1:3 3:1 1:8 3:2 1:8 3:3 1:2 3:2 1:8
3:0 1:3 3:1 1:8 3:2 1:8 3:3 1:2 3:2 1:8 3:2
1:0 3:1 1:8 3:2 1:8 3:3 1:2 3:2 1:8 3:2 1:8
3:0 1:8 3:2 1:8 3:3 1:2 3:2 1:8 3:2 1:8 3:2
1:0 3:2 1:8 3:3 1:2 3:2 1:8 3:2 1:8 3:2 1:5
3:0 1:8 3:3 1:2 3:2 1:8 3:2 1:8 3:2 1:5 3:2
1:0 3:3 1:2 3:2 1:8 3:2 1:8 3:2 1:5 3:2 1:12
3:0 1:2 3:2 1:8 3:2 1:8 3:2 1:5 3:2 1:12 3:1
1:0 3:2 1:8 3:2 1:8 3:2 1:5 3:2 1:12 3:1 1:3
3:0 1:8 3:2 1:8 3:2 1:5 3:2 1:12 3:1 1:3 3:3
1:0 3:2 1:8 3:2 1:5 3:2 1:12 3:1 1:3 3:3 1:7
3:0 1:8 3:2 1:5 3:2 1:12 3:1 1:3 3:3 1:7 3:1
1:0 3:2 1:5 3:2 1:12 3:1 1:3 3:3 1:7 3:1 1:13
3:0 1:5 3:2 1:12 3:1 1:3 3:3 1:7 3:1 1:13 3:2
1:0 3:2 1:12 3:1 1:3 3:3 1:7 3:1 1:13 3:2 1:8
3:0 1:12 3:1 1:3 3:3 1:7 3:1 1:13 3:2 1:8 3:1
1:0 3:1 1:3 3:3 1:7 3:1 1:13 3:2 1:8 3:1 1:10
3:0 1:3 3:3 1:7 3:1 1:13 3:2 1:8 3:1 1:10 3:2
1:0 3:3 1:7 3:1 1:13 3:2 1:8 3:1 1:10 3:2 1:2
3:0 1:7 3:1 1:13 3:2 1:8 3:1 1:10 3:2 1:2 3:2
1:0 3:1 1:13 3:2 1:8 3:1 1:10 3:2 1:2 3:2 1:19
3:0 1:13 3:2 1:8 3:1 1:10 3:2 1:2 3:2 1:19 3:2
1:0 3:2 1:8 3:1 1:10 3:2 1:2 3:2 1:19 3:2 1:2
3:0 1:8 3:1 1:10 3:2 1:2 3:2 1:19 3:2 1:2 3:2
1:0 3:1 1:10 3:2 1:2 3:2 1:19 3:2 1:2 3:2 1:8
3:0 1:10 3:2 1:2 3:2 1:19 3:2 1:2 3:2 1:8 3:2
1:0 3:2 1:2 3:2 1:19 3:2 1:2 3:2 1:8 3:2 1:9
3:0 1:2 3:2 1:19 3:2 1:2 3:2 1:8 3:2 1:9 3:2
1:0 3:2 1:19 3:2 1:2 3:2 1:8 3:2 1:9 3:2 1:6
3:0 1:19 3:2 1:2 3:2 1:8 3:2 1:9 3:2 1:6 3:1
1:0 3:2 1:2 3:2 1:8 3:2 1:9 3:2 1:6 3:1 1:13
3:0 1:2 3:2 1:8 3:2 1:9 3:2 1:6 3:1 1:13 3:2
1:0 3:2 1:8 3:2 1:9 3:2 1:6 3:1 1:13 3:2 1:2
3:0 1:8 3:2 1:9 3:2 1:6 3:1 1:13 3:2 1:2 3:2
1:0 3:2 1:9 3:2 1:6 3:1 1:13 3:2 1:2 3:2 1:6
3:0 1:9 3:2 1:6 3:1 1:13 3:2 1:2 3:2 1:6 3:1
1:0 3:2 1:6 3:1 1:13 3:2 1:2 3:2 1:6 3:1 1:12
3:0 1:6 3:1 1:13 3:2 1:2 3:2 1:6 3:1 1:12 3:2
1:0 3:1 1:13 3:2 1:2 3:2 1:6 3:1 1:12 3:2 1:3
3:0 1:13 3:2 1:2 3:2 1:6 3:1 1:12 3:2 1:3 3:1
1:0 3:2 1:2 3:2 1:6 3:1 1:12 3:2 1:3 3:1 1:7
3:0 1:2 3:2 1:6 3:1 1:12 3:2 1:3 3:1 1:7 3:1
1:0 3:2 1:6 3:1 1:12 3:2 1:3 3:1 1:7 3:1 1:12
3:0 1:6 3:1 1:12 3:2 1:3 3:1 1:7 3:1 1:12 3:2
1:0 3:1 1:12 3:2 1:3 3:1 1:7 3:1 1:12 3:2 1:8
3:0 1:12 3:2 1:3 3:1 1:7 3:1 1:12 3:2 1:8 3:2
1:0 3:2 1:3 3:1 1:7 3:1 1:12 3:2 1:8 3:2 1:10
3:0 1:3 3:1 1:7 3:1 1:12 3:2 1:8 3:2 1:10 3:2
1:0 3:1 1:7 3:1 1:12 3:2 1:8 3:2 1:10 3:2 1:4
3:0 1:7 3:1 1:12 3:2 1:8 3:2 1:10 3:2 1:4 3:1
1:0 3:1 1:12 3:2 1:8 3:2 1:10 3:2 1:4 3:1 1:8
3:0 1:12 3:2 1:8 3:2 1:10 3:2 1:4 3:1 1:8 3:2
1:0 3:2 1:8 3:2 1:10 3:2 1:4 3:1 1:8 3:2 1:8
3:0 1:8 3:2 1:10 3:2 1:4 3:1 1:8 3:2 1:8 3:3
1:0 3:2 1:10 3:2 1:4 3:1 1:8 3:2 1:8 3:3 1:3
3:0 1:10 3:2 1:4 3:1 1:8 3:2 1:8 3:3 1:3 3:1
1:0 3:2 1:4 3:1 1:8 3:2 1:8 3:3 1:3 3:1 1:16
3:0 1:4 3:1 1:8 3:2 1:8 3:3 1:3 3:1 1:16 3:1
1:0 3:1 1:8 3:2 1:8 3:3 1:3 3:1 1:16 3:1 1:2
3:0 1:8 3:2 1:8 3:3 1:3 3:1 1:16 3:1 1:2 3:2
1:0 3:2 1:8 3:3 1:3 3:1 1:16 3:1 1:2 3:2 1:8
3:0 1:8 3:3 1:3 3:1 1:16 3:1 1:2 3:2 1:8 3:2
1:0 3:3 1:3 3:1 1:16 3:1 1:2 3:2 1:8 3:2 1:10
3:0 1:3 3:1 1:16 3:1 1:2 3:2 1:8 3:2 1:10 3:3
1:0 3:1 1:16 3:1 1:2 3:2 1:8 3:2 1:10 3:3 1:10
3:0 1:16 3:1 1:2 3:2 1:8 3:2 1:10 3:3 1:10 3:1
1:0 3:1 1:2 3:2 1:8 3:2 1:10 3:3 1:10 3:1 1:10
3:0 1:2 3:2 1:8 3:2 1:10 3:3 1:10 3:1 1:10 3:3
1:0 3:2 1:8 3:2 1:10 3:3 1:10 3:1 1:10 3:3 1:9
3:0 1:8 3:2 1:10 3:3 1:10 3:1 1:10 3:3 1:9 3:2
1:0 3:2 1:10 3:3 1:10 3:1 1:10 3:3 1:9 3:2 1:8
3:0 1:10 3:3 1:10 3:1 1:10 3:3 1:9 3:2 1:8 3:2
1:0 3:3 1:10 3:1 1:10 3:3 1:9 3:2 1:8 3:2 1:3
3:0 1:10 3:1 1:10 3:3 1:9 3:2 1:8 3:2 1:3 3:1
1:0 3:1 1:10 3:3 1:9 3:2 1:8 3:2 1:3 3:1 1:10
3:0 1:10 3:3 1:9 3:2 1:8 3:2 1:3 3:1 1:10 3:2
1:0 3:3 1:9 3:2 1:8 3:2 1:3 3:1 1:10 3:2 1:7
3:0 1:9 3:2 1:8 3:2 1:3 3:1 1:10 3:2 1:7 3:3
1:0 3:2 1:8 3:2 1:3 3:1 1:10 3:2 1:7 3:3 1:3
3:0 1:8 3:2 1:3 3:1 1:10 3:2 1:7 3:3 1:3 3:2
1:0 3:2 1:3 3:1 1:10 3:2 1:7 3:3 1:3 3:2 1:8
3:0 1:3 3:1 1:10 3:2 1:7 3:3 1:3 3:2 1:8 3:1
1:0 3:1 1:10 3:2 1:7 3:3 1:3 3:2 1:8 3:1 1:8
3:0 1:10 3:2 1:7 3:3 1:3 3:2 1:8 3:1 1:8 3:2
1:0 3:2 1:7 3:3 1:3 3:2 1:8 3:1 1:8 3:2 1:9
3:0 1:7 3:3 1:3 3:2 1:8 3:1 1:8 3:2 1:9 3:1
1:0 3:3 1:3 3:2 1:8 3:1 1:8 3:2 1:9 3:1 1:11
3:0 1:3 3:2 1:8 3:1 1:8 3:2 1:9 3:1 1:11 3:2
1:0 3:2 1:8 3:1 1:8 3:2 1:9 3:1 1:11 3:2 1:3
3:0 1:8 3:1 1:8 3:2 1:9 3:1 1:11 3:2 1:3 3:2
1:0 3:1 1:8 3:2 1:9 3:1 1:11 3:2 1:3 3:2 1:17
3:0 1:8 3:2 1:9 3:1 1:11 3:2 1:3 3:2 1:17 3:2
1:0 3:2 1:9 3:1 1:11 3:2 1:3 3:2 1:17 3:2 1:3
3:0 1:9 3:1 1:11 3:2 1:3 3:2 1:17 3:2 1:3 3:2
1:0 3:1 1:11 3:2 1:3 3:2 1:17 3:2 1:3 3:2 1:8
3:0 1:11 3:2 1:3 3:2 1:17 3:2 1:3 3:2 1:8 3:2
1:0 3:2 1:3 3:2 1:17 3:2 1:3 3:2 1:8 3:2 1:8
3:0 1:3 3:2 1:17 3:2 1:3 3:2 1:8 3:2 1:8 3:2
1:0 3:2 1:17 3:2 1:3 3:2 1:8 3:2 1:8 3:2 1:6
3:0 1:17 3:2 1:3 3:2 1:8 3:2 1:8 3:2 1:6 3:1
1:0 3:2 1:3 3:2 1:8 3:2 1:8 3:2 1:6 3:1 1:6
3:0 1:3 3:2 1:8 3:2 1:8 3:2 1:6 3:1 1:6 3:1
1:0 3:2 1:8 3:2 1:8 3:2 1:6 3:1 1:6 3:1 1:8
3:0 1:8 3:2 1:8 3:2 1:6 3:1 1:6 3:1 1:8 3:2
1:0 3:2 1:8 3:2 1:6 3:1 1:6 3:1 1:8 3:2 1:8
3:0 1:8 3:2 1:6 3:1 1:6 3:1 1:8 3:2 1:8 3:1
1:0 3:2 1:6 3:1 1:6 3:1 1:8 3:2 1:8 3:1 1:12
3:0 1:6 3:1 1:6 3:1 1:8 3:2 1:8 3:1 1:12 3:2
1:0 3:1 1:6 3:1 1:8 3:2 1:8 3:1 1:12 3:2 1:2
3:0 1:6 3:1 1:8 3:2 1:8 3:1 1:12 3:2 1:2 3:2
1:0 3:1 1:8 3:2 1:8 3:1 1:12 3:2 1:2 3:2 1:6
3:0 1:8 3:2 1:8 3:1 1:12 3:2 1:2 3:2 1:6 3:1
1:0 3:2 1:8 3:1 1:12 3:2 1:2 3:2 1:6 3:1 1:12
3:0 1:8 3:1 1:12 3:2 1:2 3:2 1:6 3:1 1:12 3:2
1:0 3:1 1:12 3:2 1:2 3:2 1:6 3:1 1:12 3:2 1:8
3:0 1:12 3:2 1:2 3:2 1:6 3:1 1:12 3:2 1:8 3:2
1:0 3:2 1:2 3:2 1:6 3:1 1:12 3:2 1:8 3:2 1:11
3:0 1:2 3:2 1:6 3:1 1:12 3:2 1:8 3:2 1:11 3:2
1:0 3:2 1:6 3:1 1:12 3:2 1:8 3:2 1:11 3:2 1:3
3:0 1:6 3:1 1:12 3:2 1:8 3:2 1:11 3:2 1:3 3:2
1:0 3:1 1:12 3:2 1:8 3:2 1:11 3:2 1:3 3:2 1:8
3:0 1:12 3:2 1:8 3:2 1:11 3:2 1:3 3:2 1:8 3:1
1:0 3:2 1:8 3:2 1:11 3:2 1:3 3:2 1:8 3:1 1:8
3:0 1:8 3:2 1:11 3:2 1:3 3:2 1:8 3:1 1:8 3:3
1:0 3:2 1:11 3:2 1:3 3:2 1:8 3:1 1:8 3:3 1:3
3:0 1:11 3:2 1:3 3:2 1:8 3:1 1:8 3:3 1:3 3:1
1:0 3:2 1:3 3:2 1:8 3:1 1:8 3:3 1:3 3:1 1:18
3:0 1:3 3:2 1:8 3:1 1:8 3:3 1:3 3:1 1:18 3:2
1:0 3:2 1:8 3:1 1:8 3:3 1:3 3:1 1:18 3:2 1:3
3:0 1:8 3:1 1:8 3:3 1:3 3:1 1:18 3:2 1:3 3:1
1:0 3:1 1:8 3:3 1:3 3:1 1:18 3:2 1:3 3:1 1:6
3:0 1:8 3:3 1:3 3:1 1:18 3:2 1:3 3:1 1:6 3:2
1:0 3:3 1:3 3:1 1:18 3:2 1:3 3:1 1:6 3:2 1:9
3:0 1:3 3:1 1:18 3:2 1:3 3:1 1:6 3:2 1:9 3:2
1:0 3:1 1:18 3:2 1:3 3:1 1:6 3:2 1:9 3:2 1:3
3:0 1:18 3:2 1:3 3:1 1:6 3:2 1:9 3:2 1:3 3:2
1:0 3:2 1:3 3:1 1:6 3:2 1:9 3:2 1:3 3:2 1:15
3:0 1:3 3:1 1:6 3:2 1:9 3:2 1:3 3:2 1:15 3:2
1:0 3:1 1:6 3:2 1:9 3:2 1:3 3:2 1:15 3:2 1:2
3:0 1:6 3:2 1:9 3:2 1:3 3:2 1:15 3:2 1:2 3:2
1:0 3:2 1:9 3:2 1:3 3:2 1:15 3:2 1:2 3:2 1:6
3:0 1:9 3:2 1:3 3:2 1:15 3:2 1:2 3:2 1:6 3:1
1:0 3:2 1:3 3:2 1:15 3:2 1:2 3:2 1:6 3:1 1:13
3:0 1:3 3:2 1:15 3:2 1:2 3:2 1:6 3:1 1:13 3:2
1:0 3:2 1:15 3:2 1:2 3:2 1:6 3:1 1:13 3:2 1:2
3:0 1:15 3:2 1:2 3:2 1:6 3:1 1:13 3:2 1:2 3:2
1:0 3:2 1:2 3:2 1:6 3:1 1:13 3:2 1:2 3:2 1:10
3:0 1:2 3:2 1:6 3:1 1:13 3:2 1:2 3:2 1:10 3:1
1:0 3:2 1:6 3:1 1:13 3:2 1:2 3:2 1:10 3:1 1:9
3:0 1:6 3:1 1:13 3:2 1:2 3:2 1:10 3:1 1:9 3:1
1:0 3:1 1:13 3:2 1:2 3:2 1:10 3:1 1:9 3:1 1:7
3:0 1:13 3:2 1:2 3:2 1:10 3:1 1:9 3:1 1:7 3:2
1:0 3:2 1:2 3:2 1:10 3:1 1:9 3:1 1:7 3:2 1:12
3:0 1:2 3:2 1:10 3:1 1:9 3:1 1:7 3:2 1:12 3:1
1:0 3:2 1:10 3:1 1:9 3:1 1:7 3:2 1:12 3:1 1:3
3:0 1:10 3:1 1:9 3:1 1:7 3:2 1:12 3:1 1:3 3:1
1:0 3:1 1:9 3:1 1:7 3:2 1:12 3:1 1:3 3:1 1:8
3:0 1:9 3:1 1:7 3:2 1:12 3:1 1:3 3:1 1:8 3:1
1:0 3:1 1:7 3:2 1:12 3:1 1:3 3:1 1:8 3:1 1:11
3:0 1:7 3:2 1:12 3:1 1:3 3:1 1:8 3:1 1:11 3:2
1:0 3:2 1:12 3:1 1:3 3:1 1:8 3:1 1:11 3:2 1:4
3:0 1:12 3:1 1:3 3:1 1:8 3:1 1:11 3:2 1:4 3:2
1:0 3:1 1:3 3:1 1:8 3:1 1:11 3:2 1:4 3:2 1:16
3:0 1:3 3:1 1:8 3:1 1:11 3:2 1:4 3:2 1:16 3:2
1:0 3:1 1:8 3:1 1:11 3:2 1:4 3:2 1:16 3:2 1:7
3:0 1:8 3:1 1:11 3:2 1:4 3:2 1:16 3:2 1:7 3:2
1:0 3:1 1:11 3:2 1:4 3:2 1:16 3:2 1:7 3:2 1:7
3:0 1:11 3:2 1:4 3:2 1:16 3:2 1:7 3:2 1:7 3:2
1:0 3:2 1:4 3:2 1:16 3:2 1:7 3:2 1:7 3:2 1:4
3:0 1:4 3:2 1:16 3:2 1:7 3:2 1:7 3:2 1:4 3:2
1:0 3:2 1:16 3:2 1:7 3:2 1:7 3:2 1:4 3:2 1:7
3:0 1:16 3:2 1:7 3:2 1:7 3:2 1:4 3:2 1:7 3:1
1:0 3:2 1:7 3:2 1:7 3:2 1:4 3:2 1:7 3:1 1:12
3:0 1:7 3:2 1:7 3:2 1:4 3:2 1:7 3:1 1:12 3:1
1:0 3:2 1:7 3:2 1:4 3:2 1:7 3:1 1:12 3:1 1:3
3:0 1:7 3:2 1:4 3:2 1:7 3:1 1:12 3:1 1:3 3:2
1:0 3:2 1:4 3:2 1:7 3:1 1:12 3:1 1:3 3:2 1:8
3:0 1:4 3:2 1:7 3:1 1:12 3:1 1:3 3:2 1:8 3:2
1:0 3:2 1:7 3:1 1:12 3:1 1:3 3:2 1:8 3:2 1:9
3:0 1:7 3:1 1:12 3:1 1:3 3:2 1:8 3:2 1:9 3:3
1:0 3:1 1:12 3:1 1:3 3:2 1:8 3:2 1:9 3:3 1:11
3:0 1:12 3:1 1:3 3:2 1:8 3:2 1:9 3:3 1:11 3:1
1:0 3:1 1:3 3:2 1:8 3:2 1:9 3:3 1:11 3:1 1:10
3:0 1:3 3:2 1:8 3:2 1:9 3:3 1:11 3:1 1:10 3:3
1:0 3:2 1:8 3:2 1:9 3:3 1:11 3:1 1:10 3:3 1:4
3:0 1:8 3:2 1:9 3:3 1:11 3:1 1:10 3:3 1:4 3:2
1:0 3:2 1:9 3:3 1:11 3:1 1:10 3:3 1:4 3:2 1:13
3:0 1:9 3:3 1:11 3:1 1:10 3:3 1:4 3:2 1:13 3:2
1:0 3:3 1:11 3:1 1:10 3:3 1:4 3:2 1:13 3:2 1:2
3:0 1:11 3:1 1:10 3:3 1:4 3:2 1:13 3:2 1:2 3:2
1:0 3:1 1:10 3:3 1:4 3:2 1:13 3:2 1:2 3:2 1:8
3:0 1:10 3:3 1:4 3:2 1:13 3:2 1:2 3:2 1:8 3:2
1:0 3:3 1:4 3:2 1:13 3:2 1:2 3:2 1:8 3:2 1:9
3:0 1:4 3:2 1:13 3:2 1:2 3:2 1:8 3:2 1:9 3:3
1:0 3:2 1:13 3:2 1:2 3:2 1:8 3:2 1:9 3:3 1:2
3:0 1:13 3:2 1:2 3:2 1:8 3:2 1:9 3:3 1:2 3:2
1:0 3:2 1:2 3:2 1:8 3:2 1:9 3:3 1:2 3:2 1:16
3:0 1:2 3:2 1:8 3:2 1:9 3:3 1:2 3:2 1:16 3:2
1:0 3:2 1:8 3:2 1:9 3:3 1:2 3:2 1:16 3:2 1:4
3:0 1:8 3:2 1:9 3:3 1:2 3:2 1:16 3:2 1:4 3:1
1:0 3:2 1:9 3:3 1:2 3:2 1:16 3:2 1:4 3:1 1:8
3:0 1:9 3:3 1:2 3:2 1:16 3:2 1:4 3:1 1:8 3:1
1:0 3:3 1:2 3:2 1:16 3:2 1:4 3:1 1:8 3:1 1:10
3:0 1:2 3:2 1:16 3:2 1:4 3:1 1:8 3:1 1:10 3:3
1:0 3:2 1:16 3:2 1:4 3:1 1:8 3:1 1:10 3:3 1:6
3:0 1:16 3:2 1:4 3:1 1:8 3:1 1:10 3:3 1:6 3:1
1:0 3:2 1:4 3:1 1:8 3:1 1:10 3:3 1:6 3:1 1:5
3:0 1:4 3:1 1:8 3:1 1:10 3:3 1:6 3:1 1:5 3:1
1:0 3:1 1:8 3:1 1:10 3:3 1:6 3:1 1:5 3:1 1:8
3:0 1:8 3:1 1:10 3:3 1:6 3:1 1:5 3:1 1:8 3:2
1:0 3:1 1:10 3:3 1:6 3:1 1:5 3:1 1:8 3:2 1:2
3:0 1:10 3:3 1:6 3:1 1:5 3:1 1:8 3:2 1:2 3:2
1:0 3:3 1:6 3:1 1:5 3:1 1:8 3:2 1:2 3:2 1:10
3:0 1:6 3:1 1:5 3:1 1:8 3:2 1:2 3:2 1:10 3:1
1:0 3:1 1:5 3:1 1:8 3:2 1:2 3:2 1:10 3:1 1:7
3:0 1:5 3:1 1:8 3:2 1:2 3:2 1:10 3:1 1:7 3:2
1:0 3:1 1:8 3:2 1:2 3:2 1:10 3:1 1:7 3:2 1:8
3:0 1:8 3:2 1:2 3:2 1:10 3:1 1:7 3:2 1:8 3:1
1:0 3:2 1:2 3:2 1:10 3:1 1:7 3:2 1:8 3:1 1:10
3:0 1:2 3:2 1:10 3:1 1:7 3:2 1:8 3:1 1:10 3:2
1:0 3:2 1:10 3:1 1:7 3:2 1:8 3:1 1:10 3:2 1:2
3:0 1:10 3:1 1:7 3:2 1:8 3:1 1:10 3:2 1:2 3:2
1:0 3:1 1:7 3:2 1:8 3:1 1:10 3:2 1:2 3:2 1:8
3:0 1:7 3:2 1:8 3:1 1:10 3:2 1:2 3:2 1:8 3:2
1:0 3:2 1:8 3:1 1:10 3:2 1:2 3:2 1:8 3:2 1:10
3:0 1:8 3:1 1:10 3:2 1:2 3:2 1:8 3:2 1:10 3:2
1:0 3:1 1:10 3:2 1:2 3:2 1:8 3:2 1:10 3:2 1:4
3:0 1:10 3:2 1:2 3:2 1:8 3:2 1:10 3:2 1:4 3:2
1:0 3:2 1:2 3:2 1:8 3:2 1:10 3:2 1:4 3:2 1:6
3:0 1:2 3:2 1:8 3:2 1:10 3:2 1:4 3:2 1:6 3:1
1:0 3:2 1:8 3:2 1:10 3:2 1:4 3:2 1:6 3:1 1:9
3:0 1:8 3:2 1:10 3:2 1:4 3:2 1:6 3:1 1:9 3:3
1:0 3:2 1:10 3:2 1:4 3:2 1:6 3:1 1:9 3:3 1:2
3:0 1:10 3:2 1:4 3:2 1:6 3:1 1:9 3:3 1:2 3:2
1:0 3:2 1:4 3:2 1:6 3:1 1:9 3:3 1:2 3:2 1:18
3:0 1:4 3:2 1:6 3:1 1:9 3:3 1:2 3:2 1:18 3:3
1:0 3:2 1:6 3:1 1:9 3:3 1:2 3:2 1:18 3:3 1:6
3:0 1:6 3:1 1:9 3:3 1:2 3:2 1:18 3:3 1:6 3:1
1:0 3:1 1:9 3:3 1:2 3:2 1:18 3:3 1:6 3:1 1:11
3:0 1:9 3:3 1:2 3:2 1:18 3:3 1:6 3:1 1:11 3:1
1:0 3:3 1:2 3:2 1:18 3:3 1:6 3:1 1:11 3:1 1:3
3:0 1:2 3:2 1:18 3:3 1:6 3:1 1:11 3:1 1:3 3:2
1:0 3:2 1:18 3:3 1:6 3:1 1:11 3:1 1:3 3:2 1:7
3:0 1:18 3:3 1:6 3:1 1:11 3:1 1:3 3:2 1:7 3:1
1:0 3:3 1:6 3:1 1:11 3:1 1:3 3:2 1:7 3:1 1:13
3:0 1:6 3:1 1:11 3:1 1:3 3:2 1:7 3:1 1:13 3:2
1:0 3:1 1:11 3:1 1:3 3:2 1:7 3:1 1:13 3:2 1:7
3:0 1:11 3:1 1:3 3:2 1:7 3:1 1:13 3:2 1:7 3:1
1:0 3:1 1:3 3:2 1:7 3:1 1:13 3:2 1:7 3:1 1:12
3:0 1:3 3:2 1:7 3:1 1:13 3:2 1:7 3:1 1:12 3:2
1:0 3:2 1:7 3:1 1:13 3:2 1:7 3:1 1:12 3:2 1:2
3:0 1:7 3:1 1:13 3:2 1:7 3:1 1:12 3:2 1:2 3:3
1:0 3:1 1:13 3:2 1:7 3:1 1:12 3:2 1:2 3:3 1:8
3:0 1:13 3:2 1:7 3:1 1:12 3:2 1:2 3:3 1:8 3:2
1:0 3:2 1:7 3:1 1:12 3:2 1:2 3:3 1:8 3:2 1:9
3:0 1:7 3:1 1:12 3:2 1:2 3:3 1:8 3:2 1:9 3:3
1:0 3:1 1:12 3:2 1:2 3:3 1:8 3:2 1:9 3:3 1:10
3:0 1:12 3:2 1:2 3:3 1:8 3:2 1:9 3:3 1:10 3:2
1:0 3:2 1:2 3:3 1:8 3:2 1:9 3:3 1:10 3:2 1:8
3:0 1:2 3:3 1:8 3:2 1:9 3:3 1:10 3:2 1:8 3:2
1:0 3:3 1:8 3:2 1:9 3:3 1:10 3:2 1:8 3:2 1:3
3:0 1:8 3:2 1:9 3:3 1:10 3:2 1:8 3:2 1:3 3:2
1:0 3:2 1:9 3:3 1:10 3:2 1:8 3:2 1:3 3:2 1:7
3:0 1:9 3:3 1:10 3:2 1:8 3:2 1:3 3:2 1:7 3:1
1:0 3:3 1:10 3:2 1:8 3:2 1:3 3:2 1:7 3:1 1:10
3:0 1:10 3:2 1:8 3:2 1:3 3:2 1:7 3:1 1:10 3:2
1:0 3:2 1:8 3:2 1:3 3:2 1:7 3:1 1:10 3:2 1:4
3:0 1:8 3:2 1:3 3:2 1:7 3:1 1:10 3:2 1:4 3:1
1:0 3:2 1:3 3:2 1:7 3:1 1:10 3:2 1:4 3:1 1:17
3:0 1:3 3:2 1:7 3:1 1:10 3:2 1:4 3:1 1:17 3:3
1:0 3:2 1:7 3:1 1:10 3:2 1:4 3:1 1:17 3:3 1:7
3:0 1:7 3:1 1:10 3:2 1:4 3:1 1:17 3:3 1:7 3:2
1:0 3:1 1:10 3:2 1:4 3:1 1:17 3:3 1:7 3:2 1:10
3:0 1:10 3:2 1:4 3:1 1:17 3:3 1:7 3:2 1:10 3:2
1:0 3:2 1:4 3:1 1:17 3:3 1:7 3:2 1:10 3:2 1:3
3:0 1:4 3:1 1:17 3:3 1:7 3:2 1:10 3:2 1:3 3:2
1:0 3:1 1:17 3:3 1:7 3:2 1:10 3:2 1:3 3:2 1:17
3:0 1:17 3:3 1:7 3:2 1:10 3:2 1:3 3:2 1:17 3:2
1:0 3:3 1:7 3:2 1:10 3:2 1:3 3:2 1:17 3:2 1:2
3:0 1:7 3:2 1:10 3:2 1:3 3:2 1:17 3:2 1:2 3:2
1:0 3:2 1:10 3:2 1:3 3:2 1:17 3:2 1:2 3:2 1:8
3:0 1:10 3:2 1:3 3:2 1:17 3:2 1:2 3:2 1:8 3:2
1:0 3:2 1:3 3:2 1:17 3:2 1:2 3:2 1:8 3:2 1:9
3:0 1:3 3:2 1:17 3:2 1:2 3:2 1:8 3:2 1:9 3:3
1:0 3:2 1:17 3:2 1:2 3:2 1:8 3:2 1:9 3:3 1:2
3:0 1:17 3:2 1:2 3:2 1:8 3:2 1:9 3:3 1:2 3:2
1:0 3:2 1:2 3:2 1:8 3:2 1:9 3:3 1:2 3:2 1:12
3:0 1:2 3:2 1:8 3:2 1:9 3:3 1:2 3:2 1:12 3:2
1:0 3:2 1:8 3:2 1:9 3:3 1:2 3:2 1:12 3:2 1:4
3:0 1:8 3:2 1:9 3:3 1:2 3:2 1:12 3:2 1:4 3:3
1:0 3:2 1:9 3:3 1:2 3:2 1:12 3:2 1:4 3:3 1:7
3:0 1:9 3:3 1:2 3:2 1:12 3:2 1:4 3:3 1:7 3:2
1:0 3:3 1:2 3:2 1:12 3:2 1:4 3:3 1:7 3:2 1:10
3:0 1:2 3:2 1:12 3:2 1:4 3:3 1:7 3:2 1:10 3:2
1:0 3:2 1:12 3:2 1:4 3:3 1:7 3:2 1:10 3:2 1:3
3:0 1:12 3:2 1:4 3:3 1:7 3:2 1:10 3:2 1:3 3:2
1:0 3:2 1:4 3:3 1:7 3:2 1:10 3:2 1:3 3:2 1:9
3:0 1:4 3:3 1:7 3:2 1:10 3:2 1:3 3:2 1:9 3:1
1:0 3:3 1:7 3:2 1:10 3:2 1:3 3:2 1:9 3:1 1:9
3:0 1:7 3:2 1:10 3:2 1:3 3:2 1:9 3:1 1:9 3:3
1:0 3:2 1:10 3:2 1:3 3:2 1:9 3:1 1:9 3:3 1:3
3:0 1:10 3:2 1:3 3:2 1:9 3:1 1:9 3:3 1:3 3:1
1:0 3:2 1:3 3:2 1:9 3:1 1:9 3:3 1:3 3:1 1:17
3:0 1:3 3:2 1:9 3:1 1:9 3:3 1:3 3:1 1:17 3:2
1:0 3:2 1:9 3:1 1:9 3:3 1:3 3:1 1:17 3:2 1:6
3:0 1:9 3:1 1:9 3:3 1:3 3:1 1:17 3:2 1:6 3:2
1:0 3:1 1:9 3:3 1:3 3:1 1:17 3:2 1:6 3:2 1:12
3:0 1:9 3:3 1:3 3:1 1:17 3:2 1:6 3:2 1:12 3:1
1:0 3:3 1:3 3:1 1:17 3:2 1:6 3:2 1:12 3:1 1:3
3:0 1:3 3:1 1:17 3:2 1:6 3:2 1:12 3:1 1:3 3:1
1:0 3:1 1:17 3:2 1:6 3:2 1:12 3:1 1:3 3:1 1:9
3:0 1:17 3:2 1:6 3:2 1:12 3:1 1:3 3:1 1:9 3:2
1:0 3:2 1:6 3:2 1:12 3:1 1:3 3:1 1:9 3:2 1:9
3:0 1:6 3:2 1:12 3:1 1:3 3:1 1:9 3:2 1:9 3:2
1:0 3:2 1:12 3:1 1:3 3:1 1:9 3:2 1:9 3:2 1:3
3:0 1:12 3:1 1:3 3:1 1:9 3:2 1:9 3:2 1:3 3:1
1:0 3:1 1:3 3:1 1:9 3:2 1:9 3:2 1:3 3:1 1:18
3:0 1:3 3:1 1:9 3:2 1:9 3:2 1:3 3:1 1:18 3:3
1:0 3:1 1:9 3:2 1:9 3:2 1:3 3:1 1:18 3:3 1:2
3:0 1:9 3:2 1:9 3:2 1:3 3:1 1:18 3:3 1:2 3:1
1:0 3:2 1:9 3:2 1:3 3:1 1:18 3:3 1:2 3:1 1:17
3:0 1:9 3:2 1:3 3:1 1:18 3:3 1:2 3:1 1:17 3:2
1:0 3:2 1:3 3:1 1:18 3:3 1:2 3:1 1:17 3:2 1:2
3:0 1:3 3:1 1:18 3:3 1:2 3:1 1:17 3:2 1:2 3:2
1:0 3:1 1:18 3:3 1:2 3:1 1:17 3:2 1:2 3:2 1:11
3:0 1:18 3:3 1:2 3:1 1:17 3:2 1:2 3:2 1:11 3:1
1:0 3:3 1:2 3:1 1:17 3:2 1:2 3:2 1:11 3:1 1:7
3:0 1:2 3:1 1:17 3:2 1:2 3:2 1:11 3:1 1:7 3:3
1:0 3:1 1:17 3:2 1:2 3:2 1:11 3:1 1:7 3:3 1:3
3:0 1:17 3:2 1:2 3:2 1:11 3:1 1:7 3:3 1:3 3:1
1:0 3:2 1:2 3:2 1:11 3:1 1:7 3:3 1:3 3:1 1:16
3:0 1:2 3:2 1:11 3:1 1:7 3:3 1:3 3:1 1:16 3:3
1:0 3:2 1:11 3:1 1:7 3:3 1:3 3:1 1:16 3:3 1:2
3:0 1:11 3:1 1:7 3:3 1:3 3:1 1:16 3:3 1:2 3:2
1:0 3:1 1:7 3:3 1:3 3:1 1:16 3:3 1:2 3:2 1:16
3:0 1:7 3:3 1:3 3:1 1:16 3:3 1:2 3:2 1:16 3:2
1:0 3:3 1:3 3:1 1:16 3:3 1:2 3:2 1:16 3:2 1:3
3:0 1:3 3:1 1:16 3:3 1:2 3:2 1:16 3:2 1:3 3:2
1:0 3:1 1:16 3:3 1:2 3:2 1:16 3:2 1:3 3:2 1:10
3:0 1:16 3:3 1:2 3:2 1:16 3:2 1:3 3:2 1:10 3:1
1:0 3:3 1:2 3:2 1:16 3:2 1:3 3:2 1:10 3:1 1:9
3:0 1:2 3:2 1:16 3:2 1:3 3:2 1:10 3:1 1:9 3:2
1:0 3:2 1:16 3:2 1:3 3:2 1:10 3:1 1:9 3:2 1:6
3:0 1:16 3:2 1:3 3:2 1:10 3:1 1:9 3:2 1:6 3:1
1:0 3:2 1:3 3:2 1:10 3:1 1:9 3:2 1:6 3:1 1:5
3:0 1:3 3:2 1:10 3:1 1:9 3:2 1:6 3:1 1:5 3:1
1:0 3:2 1:10 3:1 1:9 3:2 1:6 3:1 1:5 3:1 1:9
3:0 1:10 3:1 1:9 3:2 1:6 3:1 1:5 3:1 1:9 3:2
1:0 3:1 1:9 3:2 1:6 3:1 1:5 3:1 1:9 3:2 1:4
3:0 1:9 3:2 1:6 3:1 1:5 3:1 1:9 3:2 1:4 3:1
1:0 3:2 1:6 3:1 1:5 3:1 1:9 3:2 1:4 3:1 1:7
3:0 1:6 3:1 1:5 3:1 1:9 3:2 1:4 3:1 1:7 3:1
1:0 3:1 1:5 3:1 1:9 3:2 1:4 3:1 1:7 3:1 1:10
3:0 1:5 3:1 1:9 3:2 1:4 3:1 1:7 3:1 1:10 3:2
1:0 3:1 1:9 3:2 1:4 3:1 1:7 3:1 1:10 3:2 1:8
3:0 1:9 3:2 1:4 3:1 1:7 3:1 1:10 3:2 1:8 3:1
1:0 3:2 1:4 3:1 1:7 3:1 1:10 3:2 1:8 3:1 1:10
3:0 1:4 3:1 1:7 3:1 1:10 3:2 1:8 3:1 1:10 3:2
1:0 3:1 1:7 3:1 1:10 3:2 1:8 3:1 1:10 3:2 1:3
3:0 1:7 3:1 1:10 3:2 1:8 3:1 1:10 3:2 1:3 3:1
1:0 3:1 1:10 3:2 1:8 3:1 1:10 3:2 1:3 3:1 1:11
3:0 1:10 3:2 1:8 3:1 1:10 3:2 1:3 3:1 1:11 3:1
1:0 3:2 1:8 3:1 1:10 3:2 1:3 3:1 1:11 3:1 1:9
3:0 1:8 3:1 1:10 3:2 1:3 3:1 1:11 3:1 1:9 3:2
1:0 3:1 1:10 3:2 1:3 3:1 1:11 3:1 1:9 3:2 1:7
3:0 1:10 3:2 1:3 3:1 1:11 3:1 1:9 3:2 1:7 3:2
1:0 3:2 1:3 3:1 1:11 3:1 1:9 3:2 1:7 3:2 1:10
3:0 1:3 3:1 1:11 3:1 1:9 3:2 1:7 3:2 1:10 3:3
1:0 3:1 1:11 3:1 1:9 3:2 1:7 3:2 1:10 3:3 1:2
3:0 1:11 3:1 1:9 3:2 1:7 3:2 1:10 3:3 1:2 3:2
1:0 3:1 1:9 3:2 1:7 3:2 1:10 3:3 1:2 3:2 1:17
3:0 1:9 3:2 1:7 3:2 1:10 3:3 1:2 3:2 1:17 3:2
1:0 3:2 1:7 3:2 1:10 3:3 1:2 3:2 1:17 3:2 1:3
3:0 1:7 3:2 1:10 3:3 1:2 3:2 1:17 3:2 1:3 3:2
1:0 3:2 1:10 3:3 1:2 3:2 1:17 3:2 1:3 3:2 1:5
3:0 1:10 3:3 1:2 3:2 1:17 3:2 1:3 3:2 1:5 3:2
1:0 3:3 1:2 3:2 1:17 3:2 1:3 3:2 1:5 3:2 1:10
3:0 1:2 3:2 1:17 3:2 1:3 3:2 1:5 3:2 1:10 3:2
1:0 3:2 1:17 3:2 1:3 3:2 1:5 3:2 1:10 3:2 1:2
3:0 1:17 3:2 1:3 3:2 1:5 3:2 1:10 3:2 1:2 3:2
1:0 3:2 1:3 3:2 1:5 3:2 1:10 3:2 1:2 3:2 1:10
3:0 1:3 3:2 1:5 3:2 1:10 3:2 1:2 3:2 1:10 3:1
1:0 3:2 1:5 3:2 1:10 3:2 1:2 3:2 1:10 3:1 1:9
3:0 1:5 3:2 1:10 3:2 1:2 3:2 1:10 3:1 1:9 3:3
1:0 3:2 1:10 3:2 1:2 3:2 1:10 3:1 1:9 3:3 1:8
3:0 1:10 3:2 1:2 3:2 1:10 3:1 1:9 3:3 1:8 3:2
1:0 3:2 1:2 3:2 1:10 3:1 1:9 3:3 1:8 3:2 1:10
3:0 1:2 3:2 1:10 3:1 1:9 3:3 1:8 3:2 1:10 3:3
1:0 3:2 1:10 3:1 1:9 3:3 1:8 3:2 1:10 3:3 1:6
3:0 1:10 3:1 1:9 3:3 1:8 3:2 1:10 3:3 1:6 3:1
1:0 3:1 1:9 3:3 1:8 3:2 1:10 3:3 1:6 3:1 1:14
3:0 1:9 3:3 1:8 3:2 1:10 3:3 1:6 3:1 1:14 3:2
1:0 3:3 1:8 3:2 1:10 3:3 1:6 3:1 1:14 3:2 1:2
3:0 1:8 3:2 1:10 3:3 1:6 3:1 1:14 3:2 1:2 3:2
1:0 3:2 1:10 3:3 1:6 3:1 1:14 3:2 1:2 3:2 1:10
3:0 1:10 3:3 1:6 3:1 1:14 3:2 1:2 3:2 1:10 3:2
1:0 3:3 1:6 3:1 1:14 3:2 1:2 3:2 1:10 3:2 1:7
3:0 1:6 3:1 1:14 3:2 1:2 3:2 1:10 3:2 1:7 3:2
1:0 3:1 1:14 3:2 1:2 3:2 1:10 3:2 1:7 3:2 1:7
3:0 1:14 3:2 1:2 3:2 1:10 3:2 1:7 3:2 1:7 3:1
1:0 3:2 1:2 3:2 1:10 3:2 1:7 3:2 1:7 3:1 1:5
3:0 1:2 3:2 1:10 3:2 1:7 3:2 1:7 3:1 1:5 3:2
1:0 3:2 1:10 3:2 1:7 3:2 1:7 3:1 1:5 3:2 1:7
3:0 1:10 3:2 1:7 3:2 1:7 3:1 1:5 3:2 1:7 3:3
1:0 3:2 1:7 3:2 1:7 3:1 1:5 3:2 1:7 3:3 1:4
3:0 1:7 3:2 1:7 3:1 1:5 3:2 1:7 3:3 1:4 3:1
1:0 3:2 1:7 3:1 1:5 3:2 1:7 3:3 1:4 3:1 1:15
3:0 1:7 3:1 1:5 3:2 1:7 3:3 1:4 3:1 1:15 3:2
1:0 3:1 1:5 3:2 1:7 3:3 1:4 3:1 1:15 3:2 1:3
3:0 1:5 3:2 1:7 3:3 1:4 3:1 1:15 3:2 1:3 3:2
1:0 3:2 1:7 3:3 1:4 3:1 1:15 3:2 1:3 3:2 1:18
3:0 1:7 3:3 1:4 3:1 1:15 3:2 1:3 3:2 1:18 3:2
1:0 3:3 1:4 3:1 1:15 3:2 1:3 3:2 1:18 3:2 1:3
3:0 1:4 3:1 1:15 3:2 1:3 3:2 1:18 3:2 1:3 3:2
1:0 3:1 1:15 3:2 1:3 3:2 1:18 3:2 1:3 3:2 1:6
3:0 1:15 3:2 1:3 3:2 1:18 3:2 1:3 3:2 1:6 3:2
1:0 3:2 1:3 3:2 1:18 3:2 1:3 3:2 1:6 3:2 1:9
3:0 1:3 3:2 1:18 3:2 1:3 3:2 1:6 3:2 1:9 3:3
1:0 3:2 1:18 3:2 1:3 3:2 1:6 3:2 1:9 3:3 1:6
3:0 1:18 3:2 1:3 3:2 1:6 3:2 1:9 3:3 1:6 3:2
1:0 3:2 1:3 3:2 1:6 3:2 1:9 3:3 1:6 3:2 1:12
3:0 1:3 3:2 1:6 3:2 1:9 3:3 1:6 3:2 1:12 3:2
1:0 3:2 1:6 3:2 1:9 3:3 1:6 3:2 1:12 3:2 1:3
3:0 1:6 3:2 1:9 3:3 1:6 3:2 1:12 3:2 1:3 3:1
1:0 3:2 1:9 3:3 1:6 3:2 1:12 3:2 1:3 3:1 1:9
3:0 1:9 3:3 1:6 3:2 1:12 3:2 1:3 3:1 1:9 3:1
1:0 3:3 1:6 3:2 1:12 3:2 1:3 3:1 1:9 3:1 1:9
3:0 1:6 3:2 1:12 3:2 1:3 3:1 1:9 3:1 1:9 3:2
1:0 3:2 1:12 3:2 1:3 3:1 1:9 3:1 1:9 3:2 1:7
3:0 1:12 3:2 1:3 3:1 1:9 3:1 1:9 3:2 1:7 3:2
1:0 3:2 1:3 3:1 1:9 3:1 1:9 3:2 1:7 3:2 1:11
3:0 1:3 3:1 1:9 3:1 1:9 3:2 1:7 3:2 1:11 3:2
1:0 3:1 1:9 3:1 1:9 3:2 1:7 3:2 1:11 3:2 1:2
3:0 1:9 3:1 1:9 3:2 1:7 3:2 1:11 3:2 1:2 3:2
1:0 3:1 1:9 3:2 1:7 3:2 1:11 3:2 1:2 3:2 1:9
3:0 1:9 3:2 1:7 3:2 1:11 3:2 1:2 3:2 1:9 3:1
1:0 3:2 1:7 3:2 1:11 3:2 1:2 3:2 1:9 3:1 1:10
3:0 1:7 3:2 1:11 3:2 1:2 3:2 1:9 3:1 1:10 3:2
1:0 3:2 1:11 3:2 1:2 3:2 1:9 3:1 1:10 3:2 1:2
3:0 1:11 3:2 1:2 3:2 1:9 3:1 1:10 3:2 1:2 3:2
1:0 3:2 1:2 3:2 1:9 3:1 1:10 3:2 1:2 3:2 1:17
3:0 1:2 3:2 1:9 3:1 1:10 3:2 1:2 3:2 1:17 3:2
1:0 3:2 1:9 3:1 1:10 3:2 1:2 3:2 1:17 3:2 1:2
3:0 1:9 3:1 1:10 3:2 1:2 3:2 1:17 3:2 1:2 3:1
1:0 3:1 1:10 3:2 1:2 3:2 1:17 3:2 1:2 3:1 1:11
3:0 1:10 3:2 1:2 3:2 1:17 3:2 1:2 3:1 1:11 3:1
1:0 3:2 1:2 3:2 1:17 3:2 1:2 3:1 1:11 3:1 1:7
3:0 1:2 3:2 1:17 3:2 1:2 3:1 1:11 3:1 1:7 3:2
1:0 3:2 1:17 3:2 1:2 3:1 1:11 3:1 1:7 3:2 1:3
3:0 1:17 3:2 1:2 3:1 1:11 3:1 1:7 3:2 1:3 3:1
1:0 3:2 1:2 3:1 1:11 3:1 1:7 3:2 1:3 3:1 1:8
3:0 1:2 3:1 1:11 3:1 1:7 3:2 1:3 3:1 1:8 3:1
1:0 3:1 1:11 3:1 1:7 3:2 1:3 3:1 1:8 3:1 1:10
3:0 1:11 3:1 1:7 3:2 1:3 3:1 1:8 3:1 1:10 3:2
1:0 3:1 1:7 3:2 1:3 3:1 1:8 3:1 1:10 3:2 1:8
3:0 1:7 3:2 1:3 3:1 1:8 3:1 1:10 3:2 1:8 3:1
1:0 3:2 1:3 3:1 1:8 3:1 1:10 3:2 1:8 3:1 1:12
3:0 1:3 3:1 1:8 3:1 1:10 3:2 1:8 3:1 1:12 3:2
1:0 3:1 1:8 3:1 1:10 3:2 1:8 3:1 1:12 3:2 1:2
3:0 1:8 3:1 1:10 3:2 1:8 3:1 1:12 3:2 1:2 3:1
1:0 3:1 1:10 3:2 1:8 3:1 1:12 3:2 1:2 3:1 1:8
3:0 1:10 3:2 1:8 3:1 1:12 3:2 1:2 3:1 1:8 3:1
1:0 3:2 1:8 3:1 1:12 3:2 1:2 3:1 1:8 3:1 1:11
3:0 1:8 3:1 1:12 3:2 1:2 3:1 1:8 3:1 1:11 3:2
1:0 3:1 1:12 3:2 1:2 3:1 1:8 3:1 1:11 3:2 1:3
3:0 1:12 3:2 1:2 3:1 1:8 3:1 1:11 3:2 1:3 3:1
1:0 3:2 1:2 3:1 1:8 3:1 1:11 3:2 1:3 3:1 1:10
3:0 1:2 3:1 1:8 3:1 1:11 3:2 1:3 3:1 1:10 3:1
1:0 3:1 1:8 3:1 1:11 3:2 1:3 3:1 1:10 3:1 1:7
3:0 1:8 3:1 1:11 3:2 1:3 3:1 1:10 3:1 1:7 3:2
1:0 3:1 1:11 3:2 1:3 3:1 1:10 3:1 1:7 3:2 1:6
3:0 1:11 3:2 1:3 3:1 1:10 3:1 1:7 3:2 1:6 3:2
1:0 3:2 1:3 3:1 1:10 3:1 1:7 3:2 1:6 3:2 1:12
3:0 1:3 3:1 1:10 3:1 1:7 3:2 1:6 3:2 1:12 3:2
1:0 3:1 1:10 3:1 1:7 3:2 1:6 3:2 1:12 3:2 1:2
3:0 1:10 3:1 1:7 3:2 1:6 3:2 1:12 3:2 1:2 3:3
1:0 3:1 1:7 3:2 1:6 3:2 1:12 3:2 1:2 3:3 1:19
3:0 1:7 3:2 1:6 3:2 1:12 3:2 1:2 3:3 1:19 3:2
1:0 3:2 1:6 3:2 1:12 3:2 1:2 3:3 1:19 3:2 1:7
3:0 1:6 3:2 1:12 3:2 1:2 3:3 1:19 3:2 1:7 3:1
1:0 3:2 1:12 3:2 1:2 3:3 1:19 3:2 1:7 3:1 1:7
3:0 1:12 3:2 1:2 3:3 1:19 3:2 1:7 3:1 1:7 3:1
1:0 3:2 1:2 3:3 1:19 3:2 1:7 3:1 1:7 3:1
3:0 1:2 3:3 1:19 3:2 1:7 3:1 1:7 3:1
1:0 3:3 1:19 3:2 1:7 3:1 1:7 3:1
3:0 1:19 3:2 1:7 3:1 1:7 3:1
1:0 3:2 1:7 3:1 1:7 3:1
3:0 1:7 3:1 1:7 3:1
1:0 3:1 1:7 3:1
3:0 1:7 3:1
1:0 3:1
3:0