2:0 3:20 2:7 3:14 2:8 3:28 2:9 3:28 2:7 3:15 1:9
3:0 2:7 3:14 2:8 3:28 2:9 3:28 2:7 3:15 1:9 2:1
2:0 3:14 2:8 3:28 2:9 3:28 2:7 3:15 1:9 2:1 3:29
3:0 2:8 3:28 2:9 3:28 2:7 3:15 1:9 2:1 3:29 2:8
2:0 3:28 2:9 3:28 2:7 3:15 1:9 2:1 3:29 2:8 3:16
3:0 2:9 3:28 2:7 3:15 1:9 2:1 3:29 2:8 3:16 2:8
2:0 3:28 2:7 3:15 1:9 2:1 3:29 2:8 3:16 2:8 3:22
3:0 2:7 3:15 1:9 2:1 3:29 2:8 3:16 2:8 3:22 2:8
2:0 3:15 1:9 2:1 3:29 2:8 3:16 2:8 3:22 2:8 3:32
3:0 1:9 2:1 3:29 2:8 3:16 2:8 3:22 2:8 3:32 2:9
1:0 2:1 3:29 2:8 3:16 2:8 3:22 2:8 3:32 2:9 3:27
2:0 3:29 2:8 3:16 2:8 3:22 2:8 3:32 2:9 3:27 2:7
3:0 2:8 3:16 2:8 3:22 2:8 3:32 2:9 3:27 2:7 3:11
2:0 3:16 2:8 3:22 2:8 3:32 2:9 3:27 2:7 3:11 1:6
3:0 2:8 3:22 2:8 3:32 2:9 3:27 2:7 3:11 1:6 2:1
2:0 3:22 2:8 3:32 2:9 3:27 2:7 3:11 1:6 2:1 3:24
3:0 2:8 3:32 2:9 3:27 2:7 3:11 1:6 2:1 3:24 2:7
2:0 3:32 2:9 3:27 2:7 3:11 1:6 2:1 3:24 2:7 3:16
3:0 2:9 3:27 2:7 3:11 1:6 2:1 3:24 2:7 3:16 1:8
2:0 3:27 2:7 3:11 1:6 2:1 3:24 2:7 3:16 1:8 2:1
3:0 2:7 3:11 1:6 2:1 3:24 2:7 3:16 1:8 2:1 3:28
2:0 3:11 1:6 2:1 3:24 2:7 3:16 1:8 2:1 3:28 2:8
3:0 1:6 2:1 3:24 2:7 3:16 1:8 2:1 3:28 2:8 3:14
1:0 2:1 3:24 2:7 3:16 1:8 2:1 3:28 2:8 3:14 2:10
2:0 3:24 2:7 3:16 1:8 2:1 3:28 2:8 3:14 2:10 3:26
3:0 2:7 3:16 1:8 2:1 3:28 2:8 3:14 2:10 3:26 2:8
2:0 3:16 1:8 2:1 3:28 2:8 3:14 2:10 3:26 2:8 3:30
3:0 1:8 2:1 3:28 2:8 3:14 2:10 3:26 2:8 3:30 1:9
1:0 2:1 3:28 2:8 3:14 2:10 3:26 2:8 3:30 1:9 2:1
2:0 3:28 2:8 3:14 2:10 3:26 2:8 3:30 1:9 2:1 3:27
3:0 2:8 3:14 2:10 3:26 2:8 3:30 1:9 2:1 3:27 2:7
2:0 3:14 2:10 3:26 2:8 3:30 1:9 2:1 3:27 2:7 3:15
3:0 2:10 3:26 2:8 3:30 1:9 2:1 3:27 2:7 3:15 2:8
2:0 3:26 2:8 3:30 1:9 2:1 3:27 2:7 3:15 2:8 3:29
3:0 2:8 3:30 1:9 2:1 3:27 2:7 3:15 2:8 3:29 2:8
2:0 3:30 1:9 2:1 3:27 2:7 3:15 2:8 3:29 2:8 3:16
3:0 1:9 2:1 3:27 2:7 3:15 2:8 3:29 2:8 3:16 2:8
1:0 2:1 3:27 2:7 3:15 2:8 3:29 2:8 3:16 2:8 1:1
2:0 3:27 2:7 3:15 2:8 3:29 2:8 3:16 2:8 1:1 2:1
3:0 2:7 3:15 2:8 3:29 2:8 3:16 2:8 1:1 2:1 3:17
2:0 3:15 2:8 3:29 2:8 3:16 2:8 1:1 2:1 3:17 2:7
3:0 2:8 3:29 2:8 3:16 2:8 1:1 2:1 3:17 2:7 3:16
2:0 3:29 2:8 3:16 2:8 1:1 2:1 3:17 2:7 3:16 2:8
3:0 2:8 3:16 2:8 1:1 2:1 3:17 2:7 3:16 2:8 3:21
2:0 3:16 2:8 1:1 2:1 3:17 2:7 3:16 2:8 3:21 2:8
3:0 2:8 1:1 2:1 3:17 2:7 3:16 2:8 3:21 2:8 3:12
2:0 1:1 2:1 3:17 2:7 3:16 2:8 3:21 2:8 3:12 2:7
1:0 2:1 3:17 2:7 3:16 2:8 3:21 2:8 3:12 2:7 3:27
2:0 3:17 2:7 3:16 2:8 3:21 2:8 3:12 2:7 3:27 2:8
3:0 2:7 3:16 2:8 3:21 2:8 3:12 2:7 3:27 2:8 3:14
2:0 3:16 2:8 3:21 2:8 3:12 2:7 3:27 2:8 3:14 1:7
3:0 2:8 3:21 2:8 3:12 2:7 3:27 2:8 3:14 1:7 2:1
2:0 3:21 2:8 3:12 2:7 3:27 2:8 3:14 1:7 2:1 3:28
3:0 2:8 3:12 2:7 3:27 2:8 3:14 1:7 2:1 3:28 2:10
2:0 3:12 2:7 3:27 2:8 3:14 1:7 2:1 3:28 2:10 3:30
3:0 2:7 3:27 2:8 3:14 1:7 2:1 3:28 2:10 3:30 2:7
2:0 3:27 2:8 3:14 1:7 2:1 3:28 2:10 3:30 2:7 3:14
3:0 2:8 3:14 1:7 2:1 3:28 2:10 3:30 2:7 3:14 1:8
2:0 3:14 1:7 2:1 3:28 2:10 3:30 2:7 3:14 1:8 2:1
3:0 1:7 2:1 3:28 2:10 3:30 2:7 3:14 1:8 2:1 3:27
1:0 2:1 3:28 2:10 3:30 2:7 3:14 1:8 2:1 3:27 2:8
2:0 3:28 2:10 3:30 2:7 3:14 1:8 2:1 3:27 2:8 3:22
3:0 2:10 3:30 2:7 3:14 1:8 2:1 3:27 2:8 3:22 2:8
2:0 3:30 2:7 3:14 1:8 2:1 3:27 2:8 3:22 2:8 3:14
3:0 2:7 3:14 1:8 2:1 3:27 2:8 3:22 2:8 3:14 2:8
2:0 3:14 1:8 2:1 3:27 2:8 3:22 2:8 3:14 2:8 3:16
3:0 1:8 2:1 3:27 2:8 3:22 2:8 3:14 2:8 3:16 2:7
1:0 2:1 3:27 2:8 3:22 2:8 3:14 2:8 3:16 2:7 3:15
2:0 3:27 2:8 3:22 2:8 3:14 2:8 3:16 2:7 3:15 1:8
3:0 2:8 3:22 2:8 3:14 2:8 3:16 2:7 3:15 1:8 2:1
2:0 3:22 2:8 3:14 2:8 3:16 2:7 3:15 1:8 2:1 3:27
3:0 2:8 3:14 2:8 3:16 2:7 3:15 1:8 2:1 3:27 2:7
2:0 3:14 2:8 3:16 2:7 3:15 1:8 2:1 3:27 2:7 3:14
3:0 2:8 3:16 2:7 3:15 1:8 2:1 3:27 2:7 3:14 2:8
2:0 3:16 2:7 3:15 1:8 2:1 3:27 2:7 3:14 2:8 3:28
3:0 2:7 3:15 1:8 2:1 3:27 2:7 3:14 2:8 3:28 1:9
2:0 3:15 1:8 2:1 3:27 2:7 3:14 2:8 3:28 1:9 2:1
3:0 1:8 2:1 3:27 2:7 3:14 2:8 3:28 1:9 2:1 3:19
1:0 2:1 3:27 2:7 3:14 2:8 3:28 1:9 2:1 3:19 2:6
2:0 3:27 2:7 3:14 2:8 3:28 1:9 2:1 3:19 2:6 3:13
3:0 2:7 3:14 2:8 3:28 1:9 2:1 3:19 2:6 3:13 1:10
2:0 3:14 2:8 3:28 1:9 2:1 3:19 2:6 3:13 1:10 2:2
3:0 2:8 3:28 1:9 2:1 3:19 2:6 3:13 1:10 2:2 3:26
2:0 3:28 1:9 2:1 3:19 2:6 3:13 1:10 2:2 3:26 2:7
3:0 1:9 2:1 3:19 2:6 3:13 1:10 2:2 3:26 2:7 3:14
1:0 2:1 3:19 2:6 3:13 1:10 2:2 3:26 2:7 3:14 1:8
2:0 3:19 2:6 3:13 1:10 2:2 3:26 2:7 3:14 1:8 2:2
3:0 2:6 3:13 1:10 2:2 3:26 2:7 3:14 1:8 2:2 3:28
2:0 3:13 1:10 2:2 3:26 2:7 3:14 1:8 2:2 3:28 2:9
3:0 1:10 2:2 3:26 2:7 3:14 1:8 2:2 3:28 2:9 3:22
1:0 2:2 3:26 2:7 3:14 1:8 2:2 3:28 2:9 3:22 2:7
2:0 3:26 2:7 3:14 1:8 2:2 3:28 2:9 3:22 2:7 3:33
3:0 2:7 3:14 1:8 2:2 3:28 2:9 3:22 2:7 3:33 1:10
2:0 3:14 1:8 2:2 3:28 2:9 3:22 2:7 3:33 1:10 2:2
3:0 1:8 2:2 3:28 2:9 3:22 2:7 3:33 1:10 2:2 3:27
1:0 2:2 3:28 2:9 3:22 2:7 3:33 1:10 2:2 3:27 2:6
2:0 3:28 2:9 3:22 2:7 3:33 1:10 2:2 3:27 2:6 3:15
3:0 2:9 3:22 2:7 3:33 1:10 2:2 3:27 2:6 3:15 1:7
2:0 3:22 2:7 3:33 1:10 2:2 3:27 2:6 3:15 1:7 2:1
3:0 2:7 3:33 1:10 2:2 3:27 2:6 3:15 1:7 2:1 3:29
2:0 3:33 1:10 2:2 3:27 2:6 3:15 1:7 2:1 3:29 2:8
3:0 1:10 2:2 3:27 2:6 3:15 1:7 2:1 3:29 2:8 3:15
1:0 2:2 3:27 2:6 3:15 1:7 2:1 3:29 2:8 3:15 1:9
2:0 3:27 2:6 3:15 1:7 2:1 3:29 2:8 3:15 1:9 2:2
3:0 2:6 3:15 1:7 2:1 3:29 2:8 3:15 1:9 2:2 3:18
2:0 3:15 1:7 2:1 3:29 2:8 3:15 1:9 2:2 3:18 2:6
3:0 1:7 2:1 3:29 2:8 3:15 1:9 2:2 3:18 2:6 3:13
1:0 2:1 3:29 2:8 3:15 1:9 2:2 3:18 2:6 3:13 1:10
2:0 3:29 2:8 3:15 1:9 2:2 3:18 2:6 3:13 1:10 2:2
3:0 2:8 3:15 1:9 2:2 3:18 2:6 3:13 1:10 2:2 3:24
2:0 3:15 1:9 2:2 3:18 2:6 3:13 1:10 2:2 3:24 2:8
3:0 1:9 2:2 3:18 2:6 3:13 1:10 2:2 3:24 2:8 3:14
1:0 2:2 3:18 2:6 3:13 1:10 2:2 3:24 2:8 3:14 1:8
2:0 3:18 2:6 3:13 1:10 2:2 3:24 2:8 3:14 1:8 2:3
3:0 2:6 3:13 1:10 2:2 3:24 2:8 3:14 1:8 2:3 3:28
2:0 3:13 1:10 2:2 3:24 2:8 3:14 1:8 2:3 3:28 2:8
3:0 1:10 2:2 3:24 2:8 3:14 1:8 2:3 3:28 2:8 3:16
1:0 2:2 3:24 2:8 3:14 1:8 2:3 3:28 2:8 3:16 1:9
2:0 3:24 2:8 3:14 1:8 2:3 3:28 2:8 3:16 1:9 2:1
3:0 2:8 3:14 1:8 2:3 3:28 2:8 3:16 1:9 2:1 3:25
2:0 3:14 1:8 2:3 3:28 2:8 3:16 1:9 2:1 3:25 2:9
3:0 1:8 2:3 3:28 2:8 3:16 1:9 2:1 3:25 2:9 3:30
1:0 2:3 3:28 2:8 3:16 1:9 2:1 3:25 2:9 3:30 2:8
2:0 3:28 2:8 3:16 1:9 2:1 3:25 2:9 3:30 2:8 3:15
3:0 2:8 3:16 1:9 2:1 3:25 2:9 3:30 2:8 3:15 1:8
2:0 3:16 1:9 2:1 3:25 2:9 3:30 2:8 3:15 1:8 2:1
3:0 1:9 2:1 3:25 2:9 3:30 2:8 3:15 1:8 2:1 3:26
1:0 2:1 3:25 2:9 3:30 2:8 3:15 1:8 2:1 3:26 2:8
2:0 3:25 2:9 3:30 2:8 3:15 1:8 2:1 3:26 2:8 3:15
3:0 2:9 3:30 2:8 3:15 1:8 2:1 3:26 2:8 3:15 1:8
2:0 3:30 2:8 3:15 1:8 2:1 3:26 2:8 3:15 1:8 2:1
3:0 2:8 3:15 1:8 2:1 3:26 2:8 3:15 1:8 2:1 3:28
2:0 3:15 1:8 2:1 3:26 2:8 3:15 1:8 2:1 3:28 2:9
3:0 1:8 2:1 3:26 2:8 3:15 1:8 2:1 3:28 2:9 3:18
1:0 2:1 3:26 2:8 3:15 1:8 2:1 3:28 2:9 3:18 2:7
2:0 3:26 2:8 3:15 1:8 2:1 3:28 2:9 3:18 2:7 3:15
3:0 2:8 3:15 1:8 2:1 3:28 2:9 3:18 2:7 3:15 2:8
2:0 3:15 1:8 2:1 3:28 2:9 3:18 2:7 3:15 2:8 3:28
3:0 1:8 2:1 3:28 2:9 3:18 2:7 3:15 2:8 3:28 2:8
1:0 2:1 3:28 2:9 3:18 2:7 3:15 2:8 3:28 2:8 3:14
2:0 3:28 2:9 3:18 2:7 3:15 2:8 3:28 2:8 3:14 1:8
3:0 2:9 3:18 2:7 3:15 2:8 3:28 2:8 3:14 1:8 2:2
2:0 3:18 2:7 3:15 2:8 3:28 2:8 3:14 1:8 2:2 3:27
3:0 2:7 3:15 2:8 3:28 2:8 3:14 1:8 2:2 3:27 2:8
2:0 3:15 2:8 3:28 2:8 3:14 1:8 2:2 3:27 2:8 3:16
3:0 2:8 3:28 2:8 3:14 1:8 2:2 3:27 2:8 3:16 1:9
2:0 3:28 2:8 3:14 1:8 2:2 3:27 2:8 3:16 1:9 2:1
3:0 2:8 3:14 1:8 2:2 3:27 2:8 3:16 1:9 2:1 3:17
2:0 3:14 1:8 2:2 3:27 2:8 3:16 1:9 2:1 3:17 2:7
3:0 1:8 2:2 3:27 2:8 3:16 1:9 2:1 3:17 2:7 3:16
1:0 2:2 3:27 2:8 3:16 1:9 2:1 3:17 2:7 3:16 2:8
2:0 3:27 2:8 3:16 1:9 2:1 3:17 2:7 3:16 2:8 3:28
3:0 2:8 3:16 1:9 2:1 3:17 2:7 3:16 2:8 3:28 2:7
2:0 3:16 1:9 2:1 3:17 2:7 3:16 2:8 3:28 2:7 3:14
3:0 1:9 2:1 3:17 2:7 3:16 2:8 3:28 2:7 3:14 2:9
1:0 2:1 3:17 2:7 3:16 2:8 3:28 2:7 3:14 2:9 3:27
2:0 3:17 2:7 3:16 2:8 3:28 2:7 3:14 2:9 3:27 1:9
3:0 2:7 3:16 2:8 3:28 2:7 3:14 2:9 3:27 1:9 2:2
2:0 3:16 2:8 3:28 2:7 3:14 2:9 3:27 1:9 2:2 3:26
3:0 2:8 3:28 2:7 3:14 2:9 3:27 1:9 2:2 3:26 2:7
2:0 3:28 2:7 3:14 2:9 3:27 1:9 2:2 3:26 2:7 3:29
3:0 2:7 3:14 2:9 3:27 1:9 2:2 3:26 2:7 3:29 2:9
2:0 3:14 2:9 3:27 1:9 2:2 3:26 2:7 3:29 2:9 3:15
3:0 2:9 3:27 1:9 2:2 3:26 2:7 3:29 2:9 3:15 1:9
2:0 3:27 1:9 2:2 3:26 2:7 3:29 2:9 3:15 1:9 2:2
3:0 1:9 2:2 3:26 2:7 3:29 2:9 3:15 1:9 2:2 3:17
1:0 2:2 3:26 2:7 3:29 2:9 3:15 1:9 2:2 3:17 2:6
2:0 3:26 2:7 3:29 2:9 3:15 1:9 2:2 3:17 2:6 3:14
3:0 2:7 3:29 2:9 3:15 1:9 2:2 3:17 2:6 3:14 2:8
2:0 3:29 2:9 3:15 1:9 2:2 3:17 2:6 3:14 2:8 3:20
3:0 2:9 3:15 1:9 2:2 3:17 2:6 3:14 2:8 3:20 2:6
2:0 3:15 1:9 2:2 3:17 2:6 3:14 2:8 3:20 2:6 3:15
3:0 1:9 2:2 3:17 2:6 3:14 2:8 3:20 2:6 3:15 2:8
1:0 2:2 3:17 2:6 3:14 2:8 3:20 2:6 3:15 2:8 3:18
2:0 3:17 2:6 3:14 2:8 3:20 2:6 3:15 2:8 3:18 2:7
3:0 2:6 3:14 2:8 3:20 2:6 3:15 2:8 3:18 2:7 3:15
2:0 3:14 2:8 3:20 2:6 3:15 2:8 3:18 2:7 3:15 1:8
3:0 2:8 3:20 2:6 3:15 2:8 3:18 2:7 3:15 1:8 2:1
2:0 3:20 2:6 3:15 2:8 3:18 2:7 3:15 1:8 2:1 3:26
3:0 2:6 3:15 2:8 3:18 2:7 3:15 1:8 2:1 3:26 2:7
2:0 3:15 2:8 3:18 2:7 3:15 1:8 2:1 3:26 2:7 3:15
3:0 2:8 3:18 2:7 3:15 1:8 2:1 3:26 2:7 3:15 1:8
2:0 3:18 2:7 3:15 1:8 2:1 3:26 2:7 3:15 1:8 2:1
3:0 2:7 3:15 1:8 2:1 3:26 2:7 3:15 1:8 2:1 3:29
2:0 3:15 1:8 2:1 3:26 2:7 3:15 1:8 2:1 3:29 2:8
3:0 1:8 2:1 3:26 2:7 3:15 1:8 2:1 3:29 2:8 3:20
1:0 2:1 3:26 2:7 3:15 1:8 2:1 3:29 2:8 3:20 2:7
2:0 3:26 2:7 3:15 1:8 2:1 3:29 2:8 3:20 2:7 3:14
3:0 2:7 3:15 1:8 2:1 3:29 2:8 3:20 2:7 3:14 2:8
2:0 3:15 1:8 2:1 3:29 2:8 3:20 2:7 3:14 2:8 3:28
3:0 1:8 2:1 3:29 2:8 3:20 2:7 3:14 2:8 3:28 2:7
1:0 2:1 3:29 2:8 3:20 2:7 3:14 2:8 3:28 2:7 3:15
2:0 3:29 2:8 3:20 2:7 3:14 2:8 3:28 2:7 3:15 1:8
3:0 2:8 3:20 2:7 3:14 2:8 3:28 2:7 3:15 1:8 2:1
2:0 3:20 2:7 3:14 2:8 3:28 2:7 3:15 1:8 2:1 3:29
3:0 2:7 3:14 2:8 3:28 2:7 3:15 1:8 2:1 3:29 2:8
2:0 3:14 2:8 3:28 2:7 3:15 1:8 2:1 3:29 2:8 3:15
3:0 2:8 3:28 2:7 3:15 1:8 2:1 3:29 2:8 3:15 2:9
2:0 3:28 2:7 3:15 1:8 2:1 3:29 2:8 3:15 2:9 3:19
3:0 2:7 3:15 1:8 2:1 3:29 2:8 3:15 2:9 3:19 2:6
2:0 3:15 1:8 2:1 3:29 2:8 3:15 2:9 3:19 2:6 3:13
3:0 1:8 2:1 3:29 2:8 3:15 2:9 3:19 2:6 3:13 1:10
1:0 2:1 3:29 2:8 3:15 2:9 3:19 2:6 3:13 1:10 2:3
2:0 3:29 2:8 3:15 2:9 3:19 2:6 3:13 1:10 2:3 3:26
3:0 2:8 3:15 2:9 3:19 2:6 3:13 1:10 2:3 3:26 2:7
2:0 3:15 2:9 3:19 2:6 3:13 1:10 2:3 3:26 2:7 3:15
3:0 2:9 3:19 2:6 3:13 1:10 2:3 3:26 2:7 3:15 2:8
2:0 3:19 2:6 3:13 1:10 2:3 3:26 2:7 3:15 2:8 3:28
3:0 2:6 3:13 1:10 2:3 3:26 2:7 3:15 2:8 3:28 2:9
2:0 3:13 1:10 2:3 3:26 2:7 3:15 2:8 3:28 2:9 3:15
3:0 1:10 2:3 3:26 2:7 3:15 2:8 3:28 2:9 3:15 1:8
1:0 2:3 3:26 2:7 3:15 2:8 3:28 2:9 3:15 1:8 2:1
2:0 3:26 2:7 3:15 2:8 3:28 2:9 3:15 1:8 2:1 3:19
3:0 2:7 3:15 2:8 3:28 2:9 3:15 1:8 2:1 3:19 2:6
2:0 3:15 2:8 3:28 2:9 3:15 1:8 2:1 3:19 2:6 3:13
3:0 2:8 3:28 2:9 3:15 1:8 2:1 3:19 2:6 3:13 2:10
2:0 3:28 2:9 3:15 1:8 2:1 3:19 2:6 3:13 2:10 3:28
3:0 2:9 3:15 1:8 2:1 3:19 2:6 3:13 2:10 3:28 2:7
2:0 3:15 1:8 2:1 3:19 2:6 3:13 2:10 3:28 2:7 3:10
3:0 1:8 2:1 3:19 2:6 3:13 2:10 3:28 2:7 3:10 2:8
1:0 2:1 3:19 2:6 3:13 2:10 3:28 2:7 3:10 2:8 3:24
2:0 3:19 2:6 3:13 2:10 3:28 2:7 3:10 2:8 3:24 2:7
3:0 2:6 3:13 2:10 3:28 2:7 3:10 2:8 3:24 2:7 3:15
2:0 3:13 2:10 3:28 2:7 3:10 2:8 3:24 2:7 3:15 2:8
3:0 2:10 3:28 2:7 3:10 2:8 3:24 2:7 3:15 2:8 3:28
2:0 3:28 2:7 3:10 2:8 3:24 2:7 3:15 2:8 3:28 2:9
3:0 2:7 3:10 2:8 3:24 2:7 3:15 2:8 3:28 2:9 3:18
2:0 3:10 2:8 3:24 2:7 3:15 2:8 3:28 2:9 3:18 2:7
3:0 2:8 3:24 2:7 3:15 2:8 3:28 2:9 3:18 2:7 3:16
2:0 3:24 2:7 3:15 2:8 3:28 2:9 3:18 2:7 3:16 2:8
3:0 2:7 3:15 2:8 3:28 2:9 3:18 2:7 3:16 2:8 3:19
2:0 3:15 2:8 3:28 2:9 3:18 2:7 3:16 2:8 3:19 2:6
3:0 2:8 3:28 2:9 3:18 2:7 3:16 2:8 3:19 2:6 3:15
2:0 3:28 2:9 3:18 2:7 3:16 2:8 3:19 2:6 3:15 2:8
3:0 2:9 3:18 2:7 3:16 2:8 3:19 2:6 3:15 2:8 3:20
2:0 3:18 2:7 3:16 2:8 3:19 2:6 3:15 2:8 3:20 2:6
3:0 2:7 3:16 2:8 3:19 2:6 3:15 2:8 3:20 2:6 3:14
2:0 3:16 2:8 3:19 2:6 3:15 2:8 3:20 2:6 3:14 2:7
3:0 2:8 3:19 2:6 3:15 2:8 3:20 2:6 3:14 2:7 3:27
2:0 3:19 2:6 3:15 2:8 3:20 2:6 3:14 2:7 3:27 2:7
3:0 2:6 3:15 2:8 3:20 2:6 3:14 2:7 3:27 2:7 3:30
2:0 3:15 2:8 3:20 2:6 3:14 2:7 3:27 2:7 3:30 2:8
3:0 2:8 3:20 2:6 3:14 2:7 3:27 2:7 3:30 2:8 3:16
2:0 3:20 2:6 3:14 2:7 3:27 2:7 3:30 2:8 3:16 2:8
3:0 2:6 3:14 2:7 3:27 2:7 3:30 2:8 3:16 2:8 3:28
2:0 3:14 2:7 3:27 2:7 3:30 2:8 3:16 2:8 3:28 2:7
3:0 2:7 3:27 2:7 3:30 2:8 3:16 2:8 3:28 2:7 3:16
2:0 3:27 2:7 3:30 2:8 3:16 2:8 3:28 2:7 3:16 2:8
3:0 2:7 3:30 2:8 3:16 2:8 3:28 2:7 3:16 2:8 3:28
2:0 3:30 2:8 3:16 2:8 3:28 2:7 3:16 2:8 3:28 1:8
3:0 2:8 3:16 2:8 3:28 2:7 3:16 2:8 3:28 1:8 2:2
2:0 3:16 2:8 3:28 2:7 3:16 2:8 3:28 1:8 2:2 3:17
3:0 2:8 3:28 2:7 3:16 2:8 3:28 1:8 2:2 3:17 2:8
2:0 3:28 2:7 3:16 2:8 3:28 1:8 2:2 3:17 2:8 3:15
3:0 2:7 3:16 2:8 3:28 1:8 2:2 3:17 2:8 3:15 1:7
2:0 3:16 2:8 3:28 1:8 2:2 3:17 2:8 3:15 1:7 2:2
3:0 2:8 3:28 1:8 2:2 3:17 2:8 3:15 1:7 2:2 3:26
2:0 3:28 1:8 2:2 3:17 2:8 3:15 1:7 2:2 3:26 2:8
3:0 1:8 2:2 3:17 2:8 3:15 1:7 2:2 3:26 2:8 3:14
1:0 2:2 3:17 2:8 3:15 1:7 2:2 3:26 2:8 3:14 2:9
2:0 3:17 2:8 3:15 1:7 2:2 3:26 2:8 3:14 2:9 3:28
3:0 2:8 3:15 1:7 2:2 3:26 2:8 3:14 2:9 3:28 1:8
2:0 3:15 1:7 2:2 3:26 2:8 3:14 2:9 3:28 1:8 2:2
3:0 1:7 2:2 3:26 2:8 3:14 2:9 3:28 1:8 2:2 3:26
1:0 2:2 3:26 2:8 3:14 2:9 3:28 1:8 2:2 3:26 2:7
2:0 3:26 2:8 3:14 2:9 3:28 1:8 2:2 3:26 2:7 3:30
3:0 2:8 3:14 2:9 3:28 1:8 2:2 3:26 2:7 3:30 2:8
2:0 3:14 2:9 3:28 1:8 2:2 3:26 2:7 3:30 2:8 3:16
3:0 2:9 3:28 1:8 2:2 3:26 2:7 3:30 2:8 3:16 1:8
2:0 3:28 1:8 2:2 3:26 2:7 3:30 2:8 3:16 1:8 2:1
3:0 1:8 2:2 3:26 2:7 3:30 2:8 3:16 1:8 2:1 3:27
1:0 2:2 3:26 2:7 3:30 2:8 3:16 1:8 2:1 3:27 2:7
2:0 3:26 2:7 3:30 2:8 3:16 1:8 2:1 3:27 2:7 3:27
3:0 2:7 3:30 2:8 3:16 1:8 2:1 3:27 2:7 3:27 2:9
2:0 3:30 2:8 3:16 1:8 2:1 3:27 2:7 3:27 2:9 3:16
3:0 2:8 3:16 1:8 2:1 3:27 2:7 3:27 2:9 3:16 2:8
2:0 3:16 1:8 2:1 3:27 2:7 3:27 2:9 3:16 2:8 3:18
3:0 1:8 2:1 3:27 2:7 3:27 2:9 3:16 2:8 3:18 2:7
1:0 2:1 3:27 2:7 3:27 2:9 3:16 2:8 3:18 2:7 3:17
2:0 3:27 2:7 3:27 2:9 3:16 2:8 3:18 2:7 3:17 1:7
3:0 2:7 3:27 2:9 3:16 2:8 3:18 2:7 3:17 1:7 2:1
2:0 3:27 2:9 3:16 2:8 3:18 2:7 3:17 1:7 2:1 3:19
3:0 2:9 3:16 2:8 3:18 2:7 3:17 1:7 2:1 3:19 2:6
2:0 3:16 2:8 3:18 2:7 3:17 1:7 2:1 3:19 2:6 3:14
3:0 2:8 3:18 2:7 3:17 1:7 2:1 3:19 2:6 3:14 2:8
2:0 3:18 2:7 3:17 1:7 2:1 3:19 2:6 3:14 2:8 3:25
3:0 2:7 3:17 1:7 2:1 3:19 2:6 3:14 2:8 3:25 2:8
2:0 3:17 1:7 2:1 3:19 2:6 3:14 2:8 3:25 2:8 3:30
3:0 1:7 2:1 3:19 2:6 3:14 2:8 3:25 2:8 3:30 2:9
1:0 2:1 3:19 2:6 3:14 2:8 3:25 2:8 3:30 2:9 3:13
2:0 3:19 2:6 3:14 2:8 3:25 2:8 3:30 2:9 3:13 1:11
3:0 2:6 3:14 2:8 3:25 2:8 3:30 2:9 3:13 1:11 2:3
2:0 3:14 2:8 3:25 2:8 3:30 2:9 3:13 1:11 2:3 3:25
3:0 2:8 3:25 2:8 3:30 2:9 3:13 1:11 2:3 3:25 2:7
2:0 3:25 2:8 3:30 2:9 3:13 1:11 2:3 3:25 2:7 3:28
3:0 2:8 3:30 2:9 3:13 1:11 2:3 3:25 2:7 3:28 2:8
2:0 3:30 2:9 3:13 1:11 2:3 3:25 2:7 3:28 2:8 3:16
3:0 2:9 3:13 1:11 2:3 3:25 2:7 3:28 2:8 3:16 2:10
2:0 3:13 1:11 2:3 3:25 2:7 3:28 2:8 3:16 2:10 3:25
3:0 1:11 2:3 3:25 2:7 3:28 2:8 3:16 2:10 3:25 2:7
1:0 2:3 3:25 2:7 3:28 2:8 3:16 2:10 3:25 2:7 3:16
2:0 3:25 2:7 3:28 2:8 3:16 2:10 3:25 2:7 3:16 1:8
3:0 2:7 3:28 2:8 3:16 2:10 3:25 2:7 3:16 1:8 2:1
2:0 3:28 2:8 3:16 2:10 3:25 2:7 3:16 1:8 2:1 3:30
3:0 2:8 3:16 2:10 3:25 2:7 3:16 1:8 2:1 3:30 2:8
2:0 3:16 2:10 3:25 2:7 3:16 1:8 2:1 3:30 2:8 3:15
3:0 2:10 3:25 2:7 3:16 1:8 2:1 3:30 2:8 3:15 2:9
2:0 3:25 2:7 3:16 1:8 2:1 3:30 2:8 3:15 2:9 3:19
3:0 2:7 3:16 1:8 2:1 3:30 2:8 3:15 2:9 3:19 2:6
2:0 3:16 1:8 2:1 3:30 2:8 3:15 2:9 3:19 2:6 3:14
3:0 1:8 2:1 3:30 2:8 3:15 2:9 3:19 2:6 3:14 2:9
1:0 2:1 3:30 2:8 3:15 2:9 3:19 2:6 3:14 2:9 3:26
2:0 3:30 2:8 3:15 2:9 3:19 2:6 3:14 2:9 3:26 2:8
3:0 2:8 3:15 2:9 3:19 2:6 3:14 2:9 3:26 2:8 3:28
2:0 3:15 2:9 3:19 2:6 3:14 2:9 3:26 2:8 3:28 2:10
3:0 2:9 3:19 2:6 3:14 2:9 3:26 2:8 3:28 2:10 3:27
2:0 3:19 2:6 3:14 2:9 3:26 2:8 3:28 2:10 3:27 2:8
3:0 2:6 3:14 2:9 3:26 2:8 3:28 2:10 3:27 2:8 3:10
2:0 3:14 2:9 3:26 2:8 3:28 2:10 3:27 2:8 3:10 2:8
3:0 2:9 3:26 2:8 3:28 2:10 3:27 2:8 3:10 2:8 3:33
2:0 3:26 2:8 3:28 2:10 3:27 2:8 3:10 2:8 3:33 2:9
3:0 2:8 3:28 2:10 3:27 2:8 3:10 2:8 3:33 2:9 3:20
2:0 3:28 2:10 3:27 2:8 3:10 2:8 3:33 2:9 3:20 2:6
3:0 2:10 3:27 2:8 3:10 2:8 3:33 2:9 3:20 2:6 3:15
2:0 3:27 2:8 3:10 2:8 3:33 2:9 3:20 2:6 3:15 2:8
3:0 2:8 3:10 2:8 3:33 2:9 3:20 2:6 3:15 2:8 3:18
2:0 3:10 2:8 3:33 2:9 3:20 2:6 3:15 2:8 3:18 2:7
3:0 2:8 3:33 2:9 3:20 2:6 3:15 2:8 3:18 2:7 3:17
2:0 3:33 2:9 3:20 2:6 3:15 2:8 3:18 2:7 3:17 1:7
3:0 2:9 3:20 2:6 3:15 2:8 3:18 2:7 3:17 1:7 2:1
2:0 3:20 2:6 3:15 2:8 3:18 2:7 3:17 1:7 2:1 3:18
3:0 2:6 3:15 2:8 3:18 2:7 3:17 1:7 2:1 3:18 2:6
2:0 3:15 2:8 3:18 2:7 3:17 1:7 2:1 3:18 2:6 3:14
3:0 2:8 3:18 2:7 3:17 1:7 2:1 3:18 2:6 3:14 1:8
2:0 3:18 2:7 3:17 1:7 2:1 3:18 2:6 3:14 1:8 2:2
3:0 2:7 3:17 1:7 2:1 3:18 2:6 3:14 1:8 2:2 3:26
2:0 3:17 1:7 2:1 3:18 2:6 3:14 1:8 2:2 3:26 2:7
3:0 1:7 2:1 3:18 2:6 3:14 1:8 2:2 3:26 2:7 3:14
1:0 2:1 3:18 2:6 3:14 1:8 2:2 3:26 2:7 3:14 1:8
2:0 3:18 2:6 3:14 1:8 2:2 3:26 2:7 3:14 1:8 2:1
3:0 2:6 3:14 1:8 2:2 3:26 2:7 3:14 1:8 2:1 3:28
2:0 3:14 1:8 2:2 3:26 2:7 3:14 1:8 2:1 3:28 1:10
3:0 1:8 2:2 3:26 2:7 3:14 1:8 2:1 3:28 1:10 2:3
1:0 2:2 3:26 2:7 3:14 1:8 2:1 3:28 1:10 2:3 3:24
2:0 3:26 2:7 3:14 1:8 2:1 3:28 1:10 2:3 3:24 2:8
3:0 2:7 3:14 1:8 2:1 3:28 1:10 2:3 3:24 2:8 3:14
2:0 3:14 1:8 2:1 3:28 1:10 2:3 3:24 2:8 3:14 1:8
3:0 1:8 2:1 3:28 1:10 2:3 3:24 2:8 3:14 1:8 2:2
1:0 2:1 3:28 1:10 2:3 3:24 2:8 3:14 1:8 2:2 3:28
2:0 3:28 1:10 2:3 3:24 2:8 3:14 1:8 2:2 3:28 2:9
3:0 1:10 2:3 3:24 2:8 3:14 1:8 2:2 3:28 2:9 3:15
1:0 2:3 3:24 2:8 3:14 1:8 2:2 3:28 2:9 3:15 1:9
2:0 3:24 2:8 3:14 1:8 2:2 3:28 2:9 3:15 1:9 2:2
3:0 2:8 3:14 1:8 2:2 3:28 2:9 3:15 1:9 2:2 3:16
2:0 3:14 1:8 2:2 3:28 2:9 3:15 1:9 2:2 3:16 2:7
3:0 1:8 2:2 3:28 2:9 3:15 1:9 2:2 3:16 2:7 3:14
1:0 2:2 3:28 2:9 3:15 1:9 2:2 3:16 2:7 3:14 1:9
2:0 3:28 2:9 3:15 1:9 2:2 3:16 2:7 3:14 1:9 2:1
3:0 2:9 3:15 1:9 2:2 3:16 2:7 3:14 1:9 2:1 3:27
2:0 3:15 1:9 2:2 3:16 2:7 3:14 1:9 2:1 3:27 2:8
3:0 1:9 2:2 3:16 2:7 3:14 1:9 2:1 3:27 2:8 3:13
1:0 2:2 3:16 2:7 3:14 1:9 2:1 3:27 2:8 3:13 1:8
2:0 3:16 2:7 3:14 1:9 2:1 3:27 2:8 3:13 1:8 2:2
3:0 2:7 3:14 1:9 2:1 3:27 2:8 3:13 1:8 2:2 3:27
2:0 3:14 1:9 2:1 3:27 2:8 3:13 1:8 2:2 3:27 2:9
3:0 1:9 2:1 3:27 2:8 3:13 1:8 2:2 3:27 2:9 3:20
1:0 2:1 3:27 2:8 3:13 1:8 2:2 3:27 2:9 3:20 2:6
2:0 3:27 2:8 3:13 1:8 2:2 3:27 2:9 3:20 2:6 3:15
3:0 2:8 3:13 1:8 2:2 3:27 2:9 3:20 2:6 3:15 2:8
2:0 3:13 1:8 2:2 3:27 2:9 3:20 2:6 3:15 2:8 3:18
3:0 1:8 2:2 3:27 2:9 3:20 2:6 3:15 2:8 3:18 2:7
1:0 2:2 3:27 2:9 3:20 2:6 3:15 2:8 3:18 2:7 3:15
2:0 3:27 2:9 3:20 2:6 3:15 2:8 3:18 2:7 3:15 1:8
3:0 2:9 3:20 2:6 3:15 2:8 3:18 2:7 3:15 1:8 2:1
2:0 3:20 2:6 3:15 2:8 3:18 2:7 3:15 1:8 2:1 3:26
3:0 2:6 3:15 2:8 3:18 2:7 3:15 1:8 2:1 3:26 2:8
2:0 3:15 2:8 3:18 2:7 3:15 1:8 2:1 3:26 2:8 3:14
3:0 2:8 3:18 2:7 3:15 1:8 2:1 3:26 2:8 3:14 2:8
2:0 3:18 2:7 3:15 1:8 2:1 3:26 2:8 3:14 2:8 3:30
3:0 2:7 3:15 1:8 2:1 3:26 2:8 3:14 2:8 3:30 2:8
2:0 3:15 1:8 2:1 3:26 2:8 3:14 2:8 3:30 2:8 3:21
3:0 1:8 2:1 3:26 2:8 3:14 2:8 3:30 2:8 3:21 2:6
1:0 2:1 3:26 2:8 3:14 2:8 3:30 2:8 3:21 2:6 3:12
2:0 3:26 2:8 3:14 2:8 3:30 2:8 3:21 2:6 3:12 1:10
3:0 2:8 3:14 2:8 3:30 2:8 3:21 2:6 3:12 1:10 2:2
2:0 3:14 2:8 3:30 2:8 3:21 2:6 3:12 1:10 2:2 3:26
3:0 2:8 3:30 2:8 3:21 2:6 3:12 1:10 2:2 3:26 2:7
2:0 3:30 2:8 3:21 2:6 3:12 1:10 2:2 3:26 2:7 3:14
3:0 2:8 3:21 2:6 3:12 1:10 2:2 3:26 2:7 3:14 1:9
2:0 3:21 2:6 3:12 1:10 2:2 3:26 2:7 3:14 1:9 2:1
3:0 2:6 3:12 1:10 2:2 3:26 2:7 3:14 1:9 2:1 3:28
2:0 3:12 1:10 2:2 3:26 2:7 3:14 1:9 2:1 3:28 2:8
3:0 1:10 2:2 3:26 2:7 3:14 1:9 2:1 3:28 2:8 3:16
1:0 2:2 3:26 2:7 3:14 1:9 2:1 3:28 2:8 3:16 1:9
2:0 3:26 2:7 3:14 1:9 2:1 3:28 2:8 3:16 1:9 2:2
3:0 2:7 3:14 1:9 2:1 3:28 2:8 3:16 1:9 2:2 3:26
2:0 3:14 1:9 2:1 3:28 2:8 3:16 1:9 2:2 3:26 2:8
3:0 1:9 2:1 3:28 2:8 3:16 1:9 2:2 3:26 2:8 3:29
1:0 2:1 3:28 2:8 3:16 1:9 2:2 3:26 2:8 3:29 2:7
2:0 3:28 2:8 3:16 1:9 2:2 3:26 2:8 3:29 2:7 3:14
3:0 2:8 3:16 1:9 2:2 3:26 2:8 3:29 2:7 3:14 1:10
2:0 3:16 1:9 2:2 3:26 2:8 3:29 2:7 3:14 1:10 2:1
3:0 1:9 2:2 3:26 2:8 3:29 2:7 3:14 1:10 2:1 3:27
1:0 2:2 3:26 2:8 3:29 2:7 3:14 1:10 2:1 3:27 2:7
2:0 3:26 2:8 3:29 2:7 3:14 1:10 2:1 3:27 2:7 3:29
3:0 2:8 3:29 2:7 3:14 1:10 2:1 3:27 2:7 3:29 2:8
2:0 3:29 2:7 3:14 1:10 2:1 3:27 2:7 3:29 2:8 3:14
3:0 2:7 3:14 1:10 2:1 3:27 2:7 3:29 2:8 3:14 2:9
2:0 3:14 1:10 2:1 3:27 2:7 3:29 2:8 3:14 2:9 3:19
3:0 1:10 2:1 3:27 2:7 3:29 2:8 3:14 2:9 3:19 2:7
1:0 2:1 3:27 2:7 3:29 2:8 3:14 2:9 3:19 2:7 3:16
2:0 3:27 2:7 3:29 2:8 3:14 2:9 3:19 2:7 3:16 2:7
3:0 2:7 3:29 2:8 3:14 2:9 3:19 2:7 3:16 2:7 3:20
2:0 3:29 2:8 3:14 2:9 3:19 2:7 3:16 2:7 3:20 2:6
3:0 2:8 3:14 2:9 3:19 2:7 3:16 2:7 3:20 2:6 3:14
2:0 3:14 2:9 3:19 2:7 3:16 2:7 3:20 2:6 3:14 2:8
3:0 2:9 3:19 2:7 3:16 2:7 3:20 2:6 3:14 2:8 3:27
2:0 3:19 2:7 3:16 2:7 3:20 2:6 3:14 2:8 3:27 2:7
3:0 2:7 3:16 2:7 3:20 2:6 3:14 2:8 3:27 2:7 3:12
2:0 3:16 2:7 3:20 2:6 3:14 2:8 3:27 2:7 3:12 1:9
3:0 2:7 3:20 2:6 3:14 2:8 3:27 2:7 3:12 1:9 2:4
2:0 3:20 2:6 3:14 2:8 3:27 2:7 3:12 1:9 2:4 3:27
3:0 2:6 3:14 2:8 3:27 2:7 3:12 1:9 2:4 3:27 1:9
2:0 3:14 2:8 3:27 2:7 3:12 1:9 2:4 3:27 1:9 2:3
3:0 2:8 3:27 2:7 3:12 1:9 2:4 3:27 1:9 2:3 3:29
2:0 3:27 2:7 3:12 1:9 2:4 3:27 1:9 2:3 3:29 4:7
3:0 2:7 3:12 1:9 2:4 3:27 1:9 2:3 3:29 4:7 2:1
2:0 3:12 1:9 2:4 3:27 1:9 2:3 3:29 4:7 2:1 3:27
3:0 1:9 2:4 3:27 1:9 2:3 3:29 4:7 2:1 3:27 2:7
1:0 2:4 3:27 1:9 2:3 3:29 4:7 2:1 3:27 2:7 3:14
2:0 3:27 1:9 2:3 3:29 4:7 2:1 3:27 2:7 3:14 2:8
3:0 1:9 2:3 3:29 4:7 2:1 3:27 2:7 3:14 2:8 3:28
1:0 2:3 3:29 4:7 2:1 3:27 2:7 3:14 2:8 3:28 2:8
2:0 3:29 4:7 2:1 3:27 2:7 3:14 2:8 3:28 2:8 3:15
3:0 4:7 2:1 3:27 2:7 3:14 2:8 3:28 2:8 3:15 2:8
4:0 2:1 3:27 2:7 3:14 2:8 3:28 2:8 3:15 2:8 3:30
2:0 3:27 2:7 3:14 2:8 3:28 2:8 3:15 2:8 3:30 2:8
3:0 2:7 3:14 2:8 3:28 2:8 3:15 2:8 3:30 2:8 3:15
2:0 3:14 2:8 3:28 2:8 3:15 2:8 3:30 2:8 3:15 1:8
3:0 2:8 3:28 2:8 3:15 2:8 3:30 2:8 3:15 1:8 2:1
2:0 3:28 2:8 3:15 2:8 3:30 2:8 3:15 1:8 2:1 3:19
3:0 2:8 3:15 2:8 3:30 2:8 3:15 1:8 2:1 3:19 2:6
2:0 3:15 2:8 3:30 2:8 3:15 1:8 2:1 3:19 2:6 3:15
3:0 2:8 3:30 2:8 3:15 1:8 2:1 3:19 2:6 3:15 2:8
2:0 3:30 2:8 3:15 1:8 2:1 3:19 2:6 3:15 2:8 3:20
3:0 2:8 3:15 1:8 2:1 3:19 2:6 3:15 2:8 3:20 2:6
2:0 3:15 1:8 2:1 3:19 2:6 3:15 2:8 3:20 2:6 3:14
3:0 1:8 2:1 3:19 2:6 3:15 2:8 3:20 2:6 3:14 2:8
1:0 2:1 3:19 2:6 3:15 2:8 3:20 2:6 3:14 2:8 3:18
2:0 3:19 2:6 3:15 2:8 3:20 2:6 3:14 2:8 3:18 2:7
3:0 2:6 3:15 2:8 3:20 2:6 3:14 2:8 3:18 2:7 3:16
2:0 3:15 2:8 3:20 2:6 3:14 2:8 3:18 2:7 3:16 2:7
3:0 2:8 3:20 2:6 3:14 2:8 3:18 2:7 3:16 2:7 3:28
2:0 3:20 2:6 3:14 2:8 3:18 2:7 3:16 2:7 3:28 2:8
3:0 2:6 3:14 2:8 3:18 2:7 3:16 2:7 3:28 2:8 3:27
2:0 3:14 2:8 3:18 2:7 3:16 2:7 3:28 2:8 3:27 1:9
3:0 2:8 3:18 2:7 3:16 2:7 3:28 2:8 3:27 1:9 2:1
2:0 3:18 2:7 3:16 2:7 3:28 2:8 3:27 1:9 2:1 3:25
3:0 2:7 3:16 2:7 3:28 2:8 3:27 1:9 2:1 3:25 2:8
2:0 3:16 2:7 3:28 2:8 3:27 1:9 2:1 3:25 2:8 3:16
3:0 2:7 3:28 2:8 3:27 1:9 2:1 3:25 2:8 3:16 1:8
2:0 3:28 2:8 3:27 1:9 2:1 3:25 2:8 3:16 1:8 2:1
3:0 2:8 3:27 1:9 2:1 3:25 2:8 3:16 1:8 2:1 3:29
2:0 3:27 1:9 2:1 3:25 2:8 3:16 1:8 2:1 3:29 2:8
3:0 1:9 2:1 3:25 2:8 3:16 1:8 2:1 3:29 2:8 3:15
1:0 2:1 3:25 2:8 3:16 1:8 2:1 3:29 2:8 3:15 1:9
2:0 3:25 2:8 3:16 1:8 2:1 3:29 2:8 3:15 1:9 2:2
3:0 2:8 3:16 1:8 2:1 3:29 2:8 3:15 1:9 2:2 3:25
2:0 3:16 1:8 2:1 3:29 2:8 3:15 1:9 2:2 3:25 2:7
3:0 1:8 2:1 3:29 2:8 3:15 1:9 2:2 3:25 2:7 3:29
1:0 2:1 3:29 2:8 3:15 1:9 2:2 3:25 2:7 3:29 2:8
2:0 3:29 2:8 3:15 1:9 2:2 3:25 2:7 3:29 2:8 3:16
3:0 2:8 3:15 1:9 2:2 3:25 2:7 3:29 2:8 3:16 2:9
2:0 3:15 1:9 2:2 3:25 2:7 3:29 2:8 3:16 2:9 3:17
3:0 1:9 2:2 3:25 2:7 3:29 2:8 3:16 2:9 3:17 2:8
1:0 2:2 3:25 2:7 3:29 2:8 3:16 2:9 3:17 2:8 3:15
2:0 3:25 2:7 3:29 2:8 3:16 2:9 3:17 2:8 3:15 2:8
3:0 2:7 3:29 2:8 3:16 2:9 3:17 2:8 3:15 2:8 3:28
2:0 3:29 2:8 3:16 2:9 3:17 2:8 3:15 2:8 3:28 2:7
3:0 2:8 3:16 2:9 3:17 2:8 3:15 2:8 3:28 2:7 3:14
2:0 3:16 2:9 3:17 2:8 3:15 2:8 3:28 2:7 3:14 1:9
3:0 2:9 3:17 2:8 3:15 2:8 3:28 2:7 3:14 1:9 2:2
2:0 3:17 2:8 3:15 2:8 3:28 2:7 3:14 1:9 2:2 3:27
3:0 2:8 3:15 2:8 3:28 2:7 3:14 1:9 2:2 3:27 2:8
2:0 3:15 2:8 3:28 2:7 3:14 1:9 2:2 3:27 2:8 3:16
3:0 2:8 3:28 2:7 3:14 1:9 2:2 3:27 2:8 3:16 1:8
2:0 3:28 2:7 3:14 1:9 2:2 3:27 2:8 3:16 1:8 2:2
3:0 2:7 3:14 1:9 2:2 3:27 2:8 3:16 1:8 2:2 3:17
2:0 3:14 1:9 2:2 3:27 2:8 3:16 1:8 2:2 3:17 2:8
3:0 1:9 2:2 3:27 2:8 3:16 1:8 2:2 3:17 2:8 3:15
1:0 2:2 3:27 2:8 3:16 1:8 2:2 3:17 2:8 3:15 2:8
2:0 3:27 2:8 3:16 1:8 2:2 3:17 2:8 3:15 2:8 3:27
3:0 2:8 3:16 1:8 2:2 3:17 2:8 3:15 2:8 3:27 2:7
2:0 3:16 1:8 2:2 3:17 2:8 3:15 2:8 3:27 2:7 3:28
3:0 1:8 2:2 3:17 2:8 3:15 2:8 3:27 2:7 3:28 2:9
1:0 2:2 3:17 2:8 3:15 2:8 3:27 2:7 3:28 2:9 3:16
2:0 3:17 2:8 3:15 2:8 3:27 2:7 3:28 2:9 3:16 1:8
3:0 2:8 3:15 2:8 3:27 2:7 3:28 2:9 3:16 1:8 2:1
2:0 3:15 2:8 3:27 2:7 3:28 2:9 3:16 1:8 2:1 3:26
3:0 2:8 3:27 2:7 3:28 2:9 3:16 1:8 2:1 3:26 2:8
2:0 3:27 2:7 3:28 2:9 3:16 1:8 2:1 3:26 2:8 3:29
3:0 2:7 3:28 2:9 3:16 1:8 2:1 3:26 2:8 3:29 2:8
2:0 3:28 2:9 3:16 1:8 2:1 3:26 2:8 3:29 2:8 3:15
3:0 2:9 3:16 1:8 2:1 3:26 2:8 3:29 2:8 3:15 2:9
2:0 3:16 1:8 2:1 3:26 2:8 3:29 2:8 3:15 2:9 3:20
3:0 1:8 2:1 3:26 2:8 3:29 2:8 3:15 2:9 3:20 2:6
1:0 2:1 3:26 2:8 3:29 2:8 3:15 2:9 3:20 2:6 3:14
2:0 3:26 2:8 3:29 2:8 3:15 2:9 3:20 2:6 3:14 1:8
3:0 2:8 3:29 2:8 3:15 2:9 3:20 2:6 3:14 1:8 2:1
2:0 3:29 2:8 3:15 2:9 3:20 2:6 3:14 1:8 2:1 3:26
3:0 2:8 3:15 2:9 3:20 2:6 3:14 1:8 2:1 3:26 2:7
2:0 3:15 2:9 3:20 2:6 3:14 1:8 2:1 3:26 2:7 3:10
3:0 2:9 3:20 2:6 3:14 1:8 2:1 3:26 2:7 3:10 2:6
2:0 3:20 2:6 3:14 1:8 2:1 3:26 2:7 3:10 2:6 3:16
3:0 2:6 3:14 1:8 2:1 3:26 2:7 3:10 2:6 3:16 2:7
2:0 3:14 1:8 2:1 3:26 2:7 3:10 2:6 3:16 2:7 3:16
3:0 1:8 2:1 3:26 2:7 3:10 2:6 3:16 2:7 3:16 1:7
1:0 2:1 3:26 2:7 3:10 2:6 3:16 2:7 3:16 1:7 2:1
2:0 3:26 2:7 3:10 2:6 3:16 2:7 3:16 1:7 2:1 3:27
3:0 2:7 3:10 2:6 3:16 2:7 3:16 1:7 2:1 3:27 2:8
2:0 3:10 2:6 3:16 2:7 3:16 1:7 2:1 3:27 2:8 3:15
3:0 2:6 3:16 2:7 3:16 1:7 2:1 3:27 2:8 3:15 2:8
2:0 3:16 2:7 3:16 1:7 2:1 3:27 2:8 3:15 2:8 3:27
3:0 2:7 3:16 1:7 2:1 3:27 2:8 3:15 2:8 3:27 2:9
2:0 3:16 1:7 2:1 3:27 2:8 3:15 2:8 3:27 2:9 3:27
3:0 1:7 2:1 3:27 2:8 3:15 2:8 3:27 2:9 3:27 2:8
1:0 2:1 3:27 2:8 3:15 2:8 3:27 2:9 3:27 2:8 3:9
2:0 3:27 2:8 3:15 2:8 3:27 2:9 3:27 2:8 3:9 1:6
3:0 2:8 3:15 2:8 3:27 2:9 3:27 2:8 3:9 1:6 2:1
2:0 3:15 2:8 3:27 2:9 3:27 2:8 3:9 1:6 2:1 3:26
3:0 2:8 3:27 2:9 3:27 2:8 3:9 1:6 2:1 3:26 2:7
2:0 3:27 2:9 3:27 2:8 3:9 1:6 2:1 3:26 2:7 3:14
3:0 2:9 3:27 2:8 3:9 1:6 2:1 3:26 2:7 3:14 2:8
2:0 3:27 2:8 3:9 1:6 2:1 3:26 2:7 3:14 2:8 3:30
3:0 2:8 3:9 1:6 2:1 3:26 2:7 3:14 2:8 3:30 2:9
2:0 3:9 1:6 2:1 3:26 2:7 3:14 2:8 3:30 2:9 3:14
3:0 1:6 2:1 3:26 2:7 3:14 2:8 3:30 2:9 3:14 2:9
1:0 2:1 3:26 2:7 3:14 2:8 3:30 2:9 3:14 2:9 3:28
2:0 3:26 2:7 3:14 2:8 3:30 2:9 3:14 2:9 3:28 2:7
3:0 2:7 3:14 2:8 3:30 2:9 3:14 2:9 3:28 2:7 3:29
2:0 3:14 2:8 3:30 2:9 3:14 2:9 3:28 2:7 3:29 2:8
3:0 2:8 3:30 2:9 3:14 2:9 3:28 2:7 3:29 2:8 3:14
2:0 3:30 2:9 3:14 2:9 3:28 2:7 3:29 2:8 3:14 2:10
3:0 2:9 3:14 2:9 3:28 2:7 3:29 2:8 3:14 2:10 3:28
2:0 3:14 2:9 3:28 2:7 3:29 2:8 3:14 2:10 3:28 2:7
3:0 2:9 3:28 2:7 3:29 2:8 3:14 2:10 3:28 2:7 3:16
2:0 3:28 2:7 3:29 2:8 3:14 2:10 3:28 2:7 3:16 1:7
3:0 2:7 3:29 2:8 3:14 2:10 3:28 2:7 3:16 1:7 2:1
2:0 3:29 2:8 3:14 2:10 3:28 2:7 3:16 1:7 2:1 3:29
3:0 2:8 3:14 2:10 3:28 2:7 3:16 1:7 2:1 3:29 2:9
2:0 3:14 2:10 3:28 2:7 3:16 1:7 2:1 3:29 2:9 3:18
3:0 2:10 3:28 2:7 3:16 1:7 2:1 3:29 2:9 3:18 2:7
2:0 3:28 2:7 3:16 1:7 2:1 3:29 2:9 3:18 2:7 3:15
3:0 2:7 3:16 1:7 2:1 3:29 2:9 3:18 2:7 3:15 2:9
2:0 3:16 1:7 2:1 3:29 2:9 3:18 2:7 3:15 2:9 3:27
3:0 1:7 2:1 3:29 2:9 3:18 2:7 3:15 2:9 3:27 2:7
1:0 2:1 3:29 2:9 3:18 2:7 3:15 2:9 3:27 2:7 3:16
2:0 3:29 2:9 3:18 2:7 3:15 2:9 3:27 2:7 3:16 2:8
3:0 2:9 3:18 2:7 3:15 2:9 3:27 2:7 3:16 2:8 3:27
2:0 3:18 2:7 3:15 2:9 3:27 2:7 3:16 2:8 3:27 2:9
3:0 2:7 3:15 2:9 3:27 2:7 3:16 2:8 3:27 2:9 3:16
2:0 3:15 2:9 3:27 2:7 3:16 2:8 3:27 2:9 3:16 1:8
3:0 2:9 3:27 2:7 3:16 2:8 3:27 2:9 3:16 1:8 2:2
2:0 3:27 2:7 3:16 2:8 3:27 2:9 3:16 1:8 2:2 3:16
3:0 2:7 3:16 2:8 3:27 2:9 3:16 1:8 2:2 3:16 2:8
2:0 3:16 2:8 3:27 2:9 3:16 1:8 2:2 3:16 2:8 3:15
3:0 2:8 3:27 2:9 3:16 1:8 2:2 3:16 2:8 3:15 1:8
2:0 3:27 2:9 3:16 1:8 2:2 3:16 2:8 3:15 1:8 2:1
3:0 2:9 3:16 1:8 2:2 3:16 2:8 3:15 1:8 2:1 3:19
2:0 3:16 1:8 2:2 3:16 2:8 3:15 1:8 2:1 3:19 2:7
3:0 1:8 2:2 3:16 2:8 3:15 1:8 2:1 3:19 2:7 3:13
1:0 2:2 3:16 2:8 3:15 1:8 2:1 3:19 2:7 3:13 2:8
2:0 3:16 2:8 3:15 1:8 2:1 3:19 2:7 3:13 2:8 3:20
3:0 2:8 3:15 1:8 2:1 3:19 2:7 3:13 2:8 3:20 2:6
2:0 3:15 1:8 2:1 3:19 2:7 3:13 2:8 3:20 2:6 3:14
3:0 1:8 2:1 3:19 2:7 3:13 2:8 3:20 2:6 3:14 2:7
1:0 2:1 3:19 2:7 3:13 2:8 3:20 2:6 3:14 2:7 3:27
2:0 3:19 2:7 3:13 2:8 3:20 2:6 3:14 2:7 3:27 2:8
3:0 2:7 3:13 2:8 3:20 2:6 3:14 2:7 3:27 2:8 3:29
2:0 3:13 2:8 3:20 2:6 3:14 2:7 3:27 2:8 3:29 2:9
3:0 2:8 3:20 2:6 3:14 2:7 3:27 2:8 3:29 2:9 3:15
2:0 3:20 2:6 3:14 2:7 3:27 2:8 3:29 2:9 3:15 1:8
3:0 2:6 3:14 2:7 3:27 2:8 3:29 2:9 3:15 1:8 2:2
2:0 3:14 2:7 3:27 2:8 3:29 2:9 3:15 1:8 2:2 3:18
3:0 2:7 3:27 2:8 3:29 2:9 3:15 1:8 2:2 3:18 2:6
2:0 3:27 2:8 3:29 2:9 3:15 1:8 2:2 3:18 2:6 3:15
3:0 2:8 3:29 2:9 3:15 1:8 2:2 3:18 2:6 3:15 2:8
2:0 3:29 2:9 3:15 1:8 2:2 3:18 2:6 3:15 2:8 3:21
3:0 2:9 3:15 1:8 2:2 3:18 2:6 3:15 2:8 3:21 2:6
2:0 3:15 1:8 2:2 3:18 2:6 3:15 2:8 3:21 2:6 3:14
3:0 1:8 2:2 3:18 2:6 3:15 2:8 3:21 2:6 3:14 2:7
1:0 2:2 3:18 2:6 3:15 2:8 3:21 2:6 3:14 2:7 3:18
2:0 3:18 2:6 3:15 2:8 3:21 2:6 3:14 2:7 3:18 2:7
3:0 2:6 3:15 2:8 3:21 2:6 3:14 2:7 3:18 2:7 3:15
2:0 3:15 2:8 3:21 2:6 3:14 2:7 3:18 2:7 3:15 2:7
3:0 2:8 3:21 2:6 3:14 2:7 3:18 2:7 3:15 2:7 1:1
2:0 3:21 2:6 3:14 2:7 3:18 2:7 3:15 2:7 1:1 2:1
3:0 2:6 3:14 2:7 3:18 2:7 3:15 2:7 1:1 2:1 3:26
2:0 3:14 2:7 3:18 2:7 3:15 2:7 1:1 2:1 3:26 2:8
3:0 2:7 3:18 2:7 3:15 2:7 1:1 2:1 3:26 2:8 3:12
2:0 3:18 2:7 3:15 2:7 1:1 2:1 3:26 2:8 3:12 1:9
3:0 2:7 3:15 2:7 1:1 2:1 3:26 2:8 3:12 1:9 2:4
2:0 3:15 2:7 1:1 2:1 3:26 2:8 3:12 1:9 2:4 3:27
3:0 2:7 1:1 2:1 3:26 2:8 3:12 1:9 2:4 3:27 2:9
2:0 1:1 2:1 3:26 2:8 3:12 1:9 2:4 3:27 2:9 3:15
1:0 2:1 3:26 2:8 3:12 1:9 2:4 3:27 2:9 3:15 1:9
2:0 3:26 2:8 3:12 1:9 2:4 3:27 2:9 3:15 1:9 2:1
3:0 2:8 3:12 1:9 2:4 3:27 2:9 3:15 1:9 2:1 3:16
2:0 3:12 1:9 2:4 3:27 2:9 3:15 1:9 2:1 3:16 2:8
3:0 1:9 2:4 3:27 2:9 3:15 1:9 2:1 3:16 2:8 3:15
1:0 2:4 3:27 2:9 3:15 1:9 2:1 3:16 2:8 3:15 1:8
2:0 3:27 2:9 3:15 1:9 2:1 3:16 2:8 3:15 1:8 2:1
3:0 2:9 3:15 1:9 2:1 3:16 2:8 3:15 1:8 2:1 3:19
2:0 3:15 1:9 2:1 3:16 2:8 3:15 1:8 2:1 3:19 2:7
3:0 1:9 2:1 3:16 2:8 3:15 1:8 2:1 3:19 2:7 3:14
1:0 2:1 3:16 2:8 3:15 1:8 2:1 3:19 2:7 3:14 1:7
2:0 3:16 2:8 3:15 1:8 2:1 3:19 2:7 3:14 1:7 2:1
3:0 2:8 3:15 1:8 2:1 3:19 2:7 3:14 1:7 2:1 3:28
2:0 3:15 1:8 2:1 3:19 2:7 3:14 1:7 2:1 3:28 2:7
3:0 1:8 2:1 3:19 2:7 3:14 1:7 2:1 3:28 2:7 3:14
1:0 2:1 3:19 2:7 3:14 1:7 2:1 3:28 2:7 3:14 1:8
2:0 3:19 2:7 3:14 1:7 2:1 3:28 2:7 3:14 1:8 2:1
3:0 2:7 3:14 1:7 2:1 3:28 2:7 3:14 1:8 2:1 3:27
2:0 3:14 1:7 2:1 3:28 2:7 3:14 1:8 2:1 3:27 1:10
3:0 1:7 2:1 3:28 2:7 3:14 1:8 2:1 3:27 1:10 2:3
1:0 2:1 3:28 2:7 3:14 1:8 2:1 3:27 1:10 2:3 3:27
2:0 3:28 2:7 3:14 1:8 2:1 3:27 1:10 2:3 3:27 2:6
3:0 2:7 3:14 1:8 2:1 3:27 1:10 2:3 3:27 2:6 3:16
2:0 3:14 1:8 2:1 3:27 1:10 2:3 3:27 2:6 3:16 2:8
3:0 1:8 2:1 3:27 1:10 2:3 3:27 2:6 3:16 2:8 3:27
1:0 2:1 3:27 1:10 2:3 3:27 2:6 3:16 2:8 3:27 2:9
2:0 3:27 1:10 2:3 3:27 2:6 3:16 2:8 3:27 2:9 3:15
3:0 1:10 2:3 3:27 2:6 3:16 2:8 3:27 2:9 3:15 1:9
1:0 2:3 3:27 2:6 3:16 2:8 3:27 2:9 3:15 1:9 2:1
2:0 3:27 2:6 3:16 2:8 3:27 2:9 3:15 1:9 2:1 3:25
3:0 2:6 3:16 2:8 3:27 2:9 3:15 1:9 2:1 3:25 2:8
2:0 3:16 2:8 3:27 2:9 3:15 1:9 2:1 3:25 2:8 3:29
3:0 2:8 3:27 2:9 3:15 1:9 2:1 3:25 2:8 3:29 2:8
2:0 3:27 2:9 3:15 1:9 2:1 3:25 2:8 3:29 2:8 3:16
3:0 2:9 3:15 1:9 2:1 3:25 2:8 3:29 2:8 3:16 1:9
2:0 3:15 1:9 2:1 3:25 2:8 3:29 2:8 3:16 1:9 2:1
3:0 1:9 2:1 3:25 2:8 3:29 2:8 3:16 1:9 2:1 3:27
1:0 2:1 3:25 2:8 3:29 2:8 3:16 1:9 2:1 3:27 2:8
2:0 3:25 2:8 3:29 2:8 3:16 1:9 2:1 3:27 2:8 3:28
3:0 2:8 3:29 2:8 3:16 1:9 2:1 3:27 2:8 3:28 2:8
2:0 3:29 2:8 3:16 1:9 2:1 3:27 2:8 3:28 2:8 3:15
3:0 2:8 3:16 1:9 2:1 3:27 2:8 3:28 2:8 3:15 2:8
2:0 3:16 1:9 2:1 3:27 2:8 3:28 2:8 3:15 2:8 3:19
3:0 1:9 2:1 3:27 2:8 3:28 2:8 3:15 2:8 3:19 2:7
1:0 2:1 3:27 2:8 3:28 2:8 3:15 2:8 3:19 2:7 3:16
2:0 3:27 2:8 3:28 2:8 3:15 2:8 3:19 2:7 3:16 2:8
3:0 2:8 3:28 2:8 3:15 2:8 3:19 2:7 3:16 2:8 3:19
2:0 3:28 2:8 3:15 2:8 3:19 2:7 3:16 2:8 3:19 2:6
3:0 2:8 3:15 2:8 3:19 2:7 3:16 2:8 3:19 2:6 3:14
2:0 3:15 2:8 3:19 2:7 3:16 2:8 3:19 2:6 3:14 2:8
3:0 2:8 3:19 2:7 3:16 2:8 3:19 2:6 3:14 2:8 3:23
2:0 3:19 2:7 3:16 2:8 3:19 2:6 3:14 2:8 3:23 2:8
3:0 2:7 3:16 2:8 3:19 2:6 3:14 2:8 3:23 2:8 3:15
2:0 3:16 2:8 3:19 2:6 3:14 2:8 3:23 2:8 3:15 1:9
3:0 2:8 3:19 2:6 3:14 2:8 3:23 2:8 3:15 1:9 2:3
2:0 3:19 2:6 3:14 2:8 3:23 2:8 3:15 1:9 2:3 3:28
3:0 2:6 3:14 2:8 3:23 2:8 3:15 1:9 2:3 3:28 1:10
2:0 3:14 2:8 3:23 2:8 3:15 1:9 2:3 3:28 1:10 2:3
3:0 2:8 3:23 2:8 3:15 1:9 2:3 3:28 1:10 2:3 3:24
2:0 3:23 2:8 3:15 1:9 2:3 3:28 1:10 2:3 3:24 2:8
3:0 2:8 3:15 1:9 2:3 3:28 1:10 2:3 3:24 2:8 3:16
2:0 3:15 1:9 2:3 3:28 1:10 2:3 3:24 2:8 3:16 2:8
3:0 1:9 2:3 3:28 1:10 2:3 3:24 2:8 3:16 2:8 3:28
1:0 2:3 3:28 1:10 2:3 3:24 2:8 3:16 2:8 3:28 2:8
2:0 3:28 1:10 2:3 3:24 2:8 3:16 2:8 3:28 2:8 3:28
3:0 1:10 2:3 3:24 2:8 3:16 2:8 3:28 2:8 3:28 2:8
1:0 2:3 3:24 2:8 3:16 2:8 3:28 2:8 3:28 2:8 3:15
2:0 3:24 2:8 3:16 2:8 3:28 2:8 3:28 2:8 3:15 2:9
3:0 2:8 3:16 2:8 3:28 2:8 3:28 2:8 3:15 2:9 3:29
2:0 3:16 2:8 3:28 2:8 3:28 2:8 3:15 2:9 3:29 2:7
3:0 2:8 3:28 2:8 3:28 2:8 3:15 2:9 3:29 2:7
2:0 3:28 2:8 3:28 2:8 3:15 2:9 3:29 2:7
3:0 2:8 3:28 2:8 3:15 2:9 3:29 2:7
2:0 3:28 2:8 3:15 2:9 3:29 2:7
3:0 2:8 3:15 2:9 3:29 2:7
2:0 3:15 2:9 3:29 2:7
3:0 2:9 3:29 2:7
2:0 3:29 2:7
3:0 2:7
2:0