2:0 1:44 2:16 1:26 2:9 1:43 2:19 1:46 2:13 1:20 2:13
1:0 2:16 1:26 2:9 1:43 2:19 1:46 2:13 1:20 2:13 1:29
2:0 1:26 2:9 1:43 2:19 1:46 2:13 1:20 2:13 1:29 2:9
1:0 2:9 1:43 2:19 1:46 2:13 1:20 2:13 1:29 2:9 1:32
2:0 1:43 2:19 1:46 2:13 1:20 2:13 1:29 2:9 1:32 2:15
1:0 2:19 1:46 2:13 1:20 2:13 1:29 2:9 1:32 2:15 1:44
2:0 1:46 2:13 1:20 2:13 1:29 2:9 1:32 2:15 1:44 2:18
1:0 2:13 1:20 2:13 1:29 2:9 1:32 2:15 1:44 2:18 1:43
2:0 1:20 2:13 1:29 2:9 1:32 2:15 1:44 2:18 1:43 2:16
1:0 2:13 1:29 2:9 1:32 2:15 1:44 2:18 1:43 2:16 1:31
2:0 1:29 2:9 1:32 2:15 1:44 2:18 1:43 2:16 1:31 2:12
1:0 2:9 1:32 2:15 1:44 2:18 1:43 2:16 1:31 2:12 1:20
2:0 1:32 2:15 1:44 2:18 1:43 2:16 1:31 2:12 1:20 2:9
1:0 2:15 1:44 2:18 1:43 2:16 1:31 2:12 1:20 2:9 1:46
2:0 1:44 2:18 1:43 2:16 1:31 2:12 1:20 2:9 1:46 2:16
1:0 2:18 1:43 2:16 1:31 2:12 1:20 2:9 1:46 2:16 1:42
2:0 1:43 2:16 1:31 2:12 1:20 2:9 1:46 2:16 1:42 2:16
1:0 2:16 1:31 2:12 1:20 2:9 1:46 2:16 1:42 2:16 1:38
2:0 1:31 2:12 1:20 2:9 1:46 2:16 1:42 2:16 1:38 2:11
1:0 2:12 1:20 2:9 1:46 2:16 1:42 2:16 1:38 2:11 1:35
2:0 1:20 2:9 1:46 2:16 1:42 2:16 1:38 2:11 1:35 2:13
1:0 2:9 1:46 2:16 1:42 2:16 1:38 2:11 1:35 2:13 1:44
2:0 1:46 2:16 1:42 2:16 1:38 2:11 1:35 2:13 1:44 2:16
1:0 2:16 1:42 2:16 1:38 2:11 1:35 2:13 1:44 2:16 1:23
2:0 1:42 2:16 1:38 2:11 1:35 2:13 1:44 2:16 1:23 2:11
1:0 2:16 1:38 2:11 1:35 2:13 1:44 2:16 1:23 2:11 1:48
2:0 1:38 2:11 1:35 2:13 1:44 2:16 1:23 2:11 1:48 2:15
1:0 2:11 1:35 2:13 1:44 2:16 1:23 2:11 1:48 2:15 1:25
2:0 1:35 2:13 1:44 2:16 1:23 2:11 1:48 2:15 1:25 2:9
1:0 2:13 1:44 2:16 1:23 2:11 1:48 2:15 1:25 2:9 1:40
2:0 1:44 2:16 1:23 2:11 1:48 2:15 1:25 2:9 1:40 2:12
1:0 2:16 1:23 2:11 1:48 2:15 1:25 2:9 1:40 2:12 1:33
2:0 1:23 2:11 1:48 2:15 1:25 2:9 1:40 2:12 1:33 2:13
1:0 2:11 1:48 2:15 1:25 2:9 1:40 2:12 1:33 2:13 1:44
2:0 1:48 2:15 1:25 2:9 1:40 2:12 1:33 2:13 1:44 2:15
1:0 2:15 1:25 2:9 1:40 2:12 1:33 2:13 1:44 2:15 1:25
2:0 1:25 2:9 1:40 2:12 1:33 2:13 1:44 2:15 1:25 2:10
1:0 2:9 1:40 2:12 1:33 2:13 1:44 2:15 1:25 2:10 1:34
2:0 1:40 2:12 1:33 2:13 1:44 2:15 1:25 2:10 1:34 2:13
1:0 2:12 1:33 2:13 1:44 2:15 1:25 2:10 1:34 2:13 1:44
2:0 1:33 2:13 1:44 2:15 1:25 2:10 1:34 2:13 1:44 2:17
1:0 2:13 1:44 2:15 1:25 2:10 1:34 2:13 1:44 2:17 1:28
2:0 1:44 2:15 1:25 2:10 1:34 2:13 1:44 2:17 1:28 2:9
1:0 2:15 1:25 2:10 1:34 2:13 1:44 2:17 1:28 2:9 1:20
2:0 1:25 2:10 1:34 2:13 1:44 2:17 1:28 2:9 1:20 2:12
1:0 2:10 1:34 2:13 1:44 2:17 1:28 2:9 1:20 2:12 1:28
2:0 1:34 2:13 1:44 2:17 1:28 2:9 1:20 2:12 1:28 2:10
1:0 2:13 1:44 2:17 1:28 2:9 1:20 2:12 1:28 2:10 1:46
2:0 1:44 2:17 1:28 2:9 1:20 2:12 1:28 2:10 1:46 2:16
1:0 2:17 1:28 2:9 1:20 2:12 1:28 2:10 1:46 2:16 1:44
2:0 1:28 2:9 1:20 2:12 1:28 2:10 1:46 2:16 1:44 2:15
1:0 2:9 1:20 2:12 1:28 2:10 1:46 2:16 1:44 2:15 1:33
2:0 1:20 2:12 1:28 2:10 1:46 2:16 1:44 2:15 1:33 2:14
1:0 2:12 1:28 2:10 1:46 2:16 1:44 2:15 1:33 2:14 1:43
2:0 1:28 2:10 1:46 2:16 1:44 2:15 1:33 2:14 1:43 2:17
1:0 2:10 1:46 2:16 1:44 2:15 1:33 2:14 1:43 2:17 1:46
2:0 1:46 2:16 1:44 2:15 1:33 2:14 1:43 2:17 1:46 2:16
1:0 2:16 1:44 2:15 1:33 2:14 1:43 2:17 1:46 2:16 1:30
2:0 1:44 2:15 1:33 2:14 1:43 2:17 1:46 2:16 1:30 2:12
1:0 2:15 1:33 2:14 1:43 2:17 1:46 2:16 1:30 2:12 1:42
2:0 1:33 2:14 1:43 2:17 1:46 2:16 1:30 2:12 1:42 2:11
1:0 2:14 1:43 2:17 1:46 2:16 1:30 2:12 1:42 2:11 1:45
2:0 1:43 2:17 1:46 2:16 1:30 2:12 1:42 2:11 1:45 2:17
1:0 2:17 1:46 2:16 1:30 2:12 1:42 2:11 1:45 2:17 1:26
2:0 1:46 2:16 1:30 2:12 1:42 2:11 1:45 2:17 1:26 2:9
1:0 2:16 1:30 2:12 1:42 2:11 1:45 2:17 1:26 2:9 1:35
2:0 1:30 2:12 1:42 2:11 1:45 2:17 1:26 2:9 1:35 2:12
1:0 2:12 1:42 2:11 1:45 2:17 1:26 2:9 1:35 2:12 1:44
2:0 1:42 2:11 1:45 2:17 1:26 2:9 1:35 2:12 1:44 2:17
1:0 2:11 1:45 2:17 1:26 2:9 1:35 2:12 1:44 2:17 1:44
2:0 1:45 2:17 1:26 2:9 1:35 2:12 1:44 2:17 1:44 2:15
1:0 2:17 1:26 2:9 1:35 2:12 1:44 2:17 1:44 2:15 1:37
2:0 1:26 2:9 1:35 2:12 1:44 2:17 1:44 2:15 1:37 2:12
1:0 2:9 1:35 2:12 1:44 2:17 1:44 2:15 1:37 2:12 1:43
2:0 1:35 2:12 1:44 2:17 1:44 2:15 1:37 2:12 1:43 2:18
1:0 2:12 1:44 2:17 1:44 2:15 1:37 2:12 1:43 2:18 1:25
2:0 1:44 2:17 1:44 2:15 1:37 2:12 1:43 2:18 1:25 2:9
1:0 2:17 1:44 2:15 1:37 2:12 1:43 2:18 1:25 2:9 1:32
2:0 1:44 2:15 1:37 2:12 1:43 2:18 1:25 2:9 1:32 2:11
1:0 2:15 1:37 2:12 1:43 2:18 1:25 2:9 1:32 2:11 1:38
2:0 1:37 2:12 1:43 2:18 1:25 2:9 1:32 2:11 1:38 2:15
1:0 2:12 1:43 2:18 1:25 2:9 1:32 2:11 1:38 2:15 1:34
2:0 1:43 2:18 1:25 2:9 1:32 2:11 1:38 2:15 1:34 2:13
1:0 2:18 1:25 2:9 1:32 2:11 1:38 2:15 1:34 2:13 1:36
2:0 1:25 2:9 1:32 2:11 1:38 2:15 1:34 2:13 1:36 2:14
1:0 2:9 1:32 2:11 1:38 2:15 1:34 2:13 1:36 2:14 1:35
2:0 1:32 2:11 1:38 2:15 1:34 2:13 1:36 2:14 1:35 2:13
1:0 2:11 1:38 2:15 1:34 2:13 1:36 2:14 1:35 2:13 1:42
2:0 1:38 2:15 1:34 2:13 1:36 2:14 1:35 2:13 1:42 2:16
1:0 2:15 1:34 2:13 1:36 2:14 1:35 2:13 1:42 2:16 1:27
2:0 1:34 2:13 1:36 2:14 1:35 2:13 1:42 2:16 1:27 2:10
1:0 2:13 1:36 2:14 1:35 2:13 1:42 2:16 1:27 2:10 1:33
2:0 1:36 2:14 1:35 2:13 1:42 2:16 1:27 2:10 1:33 2:14
1:0 2:14 1:35 2:13 1:42 2:16 1:27 2:10 1:33 2:14 1:46
2:0 1:35 2:13 1:42 2:16 1:27 2:10 1:33 2:14 1:46 2:16
1:0 2:13 1:42 2:16 1:27 2:10 1:33 2:14 1:46 2:16 1:44
2:0 1:42 2:16 1:27 2:10 1:33 2:14 1:46 2:16 1:44 2:16
1:0 2:16 1:27 2:10 1:33 2:14 1:46 2:16 1:44 2:16 1:32
2:0 1:27 2:10 1:33 2:14 1:46 2:16 1:44 2:16 1:32 2:14
1:0 2:10 1:33 2:14 1:46 2:16 1:44 2:16 1:32 2:14 1:47
2:0 1:33 2:14 1:46 2:16 1:44 2:16 1:32 2:14 1:47 2:16
1:0 2:14 1:46 2:16 1:44 2:16 1:32 2:14 1:47 2:16 1:44
2:0 1:46 2:16 1:44 2:16 1:32 2:14 1:47 2:16 1:44 2:15
1:0 2:16 1:44 2:16 1:32 2:14 1:47 2:16 1:44 2:15 1:32
2:0 1:44 2:16 1:32 2:14 1:47 2:16 1:44 2:15 1:32 2:14
1:0 2:16 1:32 2:14 1:47 2:16 1:44 2:15 1:32 2:14 1:40
2:0 1:32 2:14 1:47 2:16 1:44 2:15 1:32 2:14 1:40 2:13
1:0 2:14 1:47 2:16 1:44 2:15 1:32 2:14 1:40 2:13 1:42
2:0 1:47 2:16 1:44 2:15 1:32 2:14 1:40 2:13 1:42 2:16
1:0 2:16 1:44 2:15 1:32 2:14 1:40 2:13 1:42 2:16 1:26
2:0 1:44 2:15 1:32 2:14 1:40 2:13 1:42 2:16 1:26 2:9
1:0 2:15 1:32 2:14 1:40 2:13 1:42 2:16 1:26 2:9 1:36
2:0 1:32 2:14 1:40 2:13 1:42 2:16 1:26 2:9 1:36 2:11
1:0 2:14 1:40 2:13 1:42 2:16 1:26 2:9 1:36 2:11 1:37
2:0 1:40 2:13 1:42 2:16 1:26 2:9 1:36 2:11 1:37 2:13
1:0 2:13 1:42 2:16 1:26 2:9 1:36 2:11 1:37 2:13 1:35
2:0 1:42 2:16 1:26 2:9 1:36 2:11 1:37 2:13 1:35 2:12
1:0 2:16 1:26 2:9 1:36 2:11 1:37 2:13 1:35 2:12 1:29
2:0 1:26 2:9 1:36 2:11 1:37 2:13 1:35 2:12 1:29 2:13
1:0 2:9 1:36 2:11 1:37 2:13 1:35 2:12 1:29 2:13 1:39
2:0 1:36 2:11 1:37 2:13 1:35 2:12 1:29 2:13 1:39 2:14
1:0 2:11 1:37 2:13 1:35 2:12 1:29 2:13 1:39 2:14 1:47
2:0 1:37 2:13 1:35 2:12 1:29 2:13 1:39 2:14 1:47 2:17
1:0 2:13 1:35 2:12 1:29 2:13 1:39 2:14 1:47 2:17 1:23
2:0 1:35 2:12 1:29 2:13 1:39 2:14 1:47 2:17 1:23 2:10
1:0 2:12 1:29 2:13 1:39 2:14 1:47 2:17 1:23 2:10 1:36
2:0 1:29 2:13 1:39 2:14 1:47 2:17 1:23 2:10 1:36 2:12
1:0 2:13 1:39 2:14 1:47 2:17 1:23 2:10 1:36 2:12 1:45
2:0 1:39 2:14 1:47 2:17 1:23 2:10 1:36 2:12 1:45 2:15
1:0 2:14 1:47 2:17 1:23 2:10 1:36 2:12 1:45 2:15 1:25
2:0 1:47 2:17 1:23 2:10 1:36 2:12 1:45 2:15 1:25 2:10
1:0 2:17 1:23 2:10 1:36 2:12 1:45 2:15 1:25 2:10 1:31
2:0 1:23 2:10 1:36 2:12 1:45 2:15 1:25 2:10 1:31 2:12
1:0 2:10 1:36 2:12 1:45 2:15 1:25 2:10 1:31 2:12 1:39
2:0 1:36 2:12 1:45 2:15 1:25 2:10 1:31 2:12 1:39 2:15
1:0 2:12 1:45 2:15 1:25 2:10 1:31 2:12 1:39 2:15 1:30
2:0 1:45 2:15 1:25 2:10 1:31 2:12 1:39 2:15 1:30 2:11
1:0 2:15 1:25 2:10 1:31 2:12 1:39 2:15 1:30 2:11 1:39
2:0 1:25 2:10 1:31 2:12 1:39 2:15 1:30 2:11 1:39 4:14
1:0 2:10 1:31 2:12 1:39 2:15 1:30 2:11 1:39 4:14 2:1
2:0 1:31 2:12 1:39 2:15 1:30 2:11 1:39 4:14 2:1 1:37
1:0 2:12 1:39 2:15 1:30 2:11 1:39 4:14 2:1 1:37 2:12
2:0 1:39 2:15 1:30 2:11 1:39 4:14 2:1 1:37 2:12 1:34
1:0 2:15 1:30 2:11 1:39 4:14 2:1 1:37 2:12 1:34 2:13
2:0 1:30 2:11 1:39 4:14 2:1 1:37 2:12 1:34 2:13 1:34
1:0 2:11 1:39 4:14 2:1 1:37 2:12 1:34 2:13 1:34 2:11
2:0 1:39 4:14 2:1 1:37 2:12 1:34 2:13 1:34 2:11 1:35
1:0 4:14 2:1 1:37 2:12 1:34 2:13 1:34 2:11 1:35 2:15
4:0 2:1 1:37 2:12 1:34 2:13 1:34 2:11 1:35 2:15 1:34
2:0 1:37 2:12 1:34 2:13 1:34 2:11 1:35 2:15 1:34 2:11
1:0 2:12 1:34 2:13 1:34 2:11 1:35 2:15 1:34 2:11 1:38
2:0 1:34 2:13 1:34 2:11 1:35 2:15 1:34 2:11 1:38 2:14
1:0 2:13 1:34 2:11 1:35 2:15 1:34 2:11 1:38 2:14 1:43
2:0 1:34 2:11 1:35 2:15 1:34 2:11 1:38 2:14 1:43 2:19
1:0 2:11 1:35 2:15 1:34 2:11 1:38 2:14 1:43 2:19 1:45
2:0 1:35 2:15 1:34 2:11 1:38 2:14 1:43 2:19 1:45 2:13
1:0 2:15 1:34 2:11 1:38 2:14 1:43 2:19 1:45 2:13 1:36
2:0 1:34 2:11 1:38 2:14 1:43 2:19 1:45 2:13 1:36 2:12
1:0 2:11 1:38 2:14 1:43 2:19 1:45 2:13 1:36 2:12 1:31
2:0 1:38 2:14 1:43 2:19 1:45 2:13 1:36 2:12 1:31 2:13
1:0 2:14 1:43 2:19 1:45 2:13 1:36 2:12 1:31 2:13 1:19
2:0 1:43 2:19 1:45 2:13 1:36 2:12 1:31 2:13 1:19 2:8
1:0 2:19 1:45 2:13 1:36 2:12 1:31 2:13 1:19 2:8 1:41
2:0 1:45 2:13 1:36 2:12 1:31 2:13 1:19 2:8 1:41 2:17
1:0 2:13 1:36 2:12 1:31 2:13 1:19 2:8 1:41 2:17 1:30
2:0 1:36 2:12 1:31 2:13 1:19 2:8 1:41 2:17 1:30 2:9
1:0 2:12 1:31 2:13 1:19 2:8 1:41 2:17 1:30 2:9 1:35
2:0 1:31 2:13 1:19 2:8 1:41 2:17 1:30 2:9 1:35 2:13
1:0 2:13 1:19 2:8 1:41 2:17 1:30 2:9 1:35 2:13 1:38
2:0 1:19 2:8 1:41 2:17 1:30 2:9 1:35 2:13 1:38 2:12
1:0 2:8 1:41 2:17 1:30 2:9 1:35 2:13 1:38 2:12 1:32
2:0 1:41 2:17 1:30 2:9 1:35 2:13 1:38 2:12 1:32 2:14
1:0 2:17 1:30 2:9 1:35 2:13 1:38 2:12 1:32 2:14 1:44
2:0 1:30 2:9 1:35 2:13 1:38 2:12 1:32 2:14 1:44 2:17
1:0 2:9 1:35 2:13 1:38 2:12 1:32 2:14 1:44 2:17 1:24
2:0 1:35 2:13 1:38 2:12 1:32 2:14 1:44 2:17 1:24 2:9
1:0 2:13 1:38 2:12 1:32 2:14 1:44 2:17 1:24 2:9 1:46
2:0 1:38 2:12 1:32 2:14 1:44 2:17 1:24 2:9 1:46 2:16
1:0 2:12 1:32 2:14 1:44 2:17 1:24 2:9 1:46 2:16 1:46
2:0 1:32 2:14 1:44 2:17 1:24 2:9 1:46 2:16 1:46 2:15
1:0 2:14 1:44 2:17 1:24 2:9 1:46 2:16 1:46 2:15 1:32
2:0 1:44 2:17 1:24 2:9 1:46 2:16 1:46 2:15 1:32 2:14
1:0 2:17 1:24 2:9 1:46 2:16 1:46 2:15 1:32 2:14 1:44
2:0 1:24 2:9 1:46 2:16 1:46 2:15 1:32 2:14 1:44 2:18
1:0 2:9 1:46 2:16 1:46 2:15 1:32 2:14 1:44 2:18 1:25
2:0 1:46 2:16 1:46 2:15 1:32 2:14 1:44 2:18 1:25 2:11
1:0 2:16 1:46 2:15 1:32 2:14 1:44 2:18 1:25 2:11 1:36
2:0 1:46 2:15 1:32 2:14 1:44 2:18 1:25 2:11 1:36 2:12
1:0 2:15 1:32 2:14 1:44 2:18 1:25 2:11 1:36 2:12 1:34
2:0 1:32 2:14 1:44 2:18 1:25 2:11 1:36 2:12 1:34 2:13
1:0 2:14 1:44 2:18 1:25 2:11 1:36 2:12 1:34 2:13 1:43
2:0 1:44 2:18 1:25 2:11 1:36 2:12 1:34 2:13 1:43 2:16
1:0 2:18 1:25 2:11 1:36 2:12 1:34 2:13 1:43 2:16 1:28
2:0 1:25 2:11 1:36 2:12 1:34 2:13 1:43 2:16 1:28 2:10
1:0 2:11 1:36 2:12 1:34 2:13 1:43 2:16 1:28 2:10 1:32
2:0 1:36 2:12 1:34 2:13 1:43 2:16 1:28 2:10 1:32 2:14
1:0 2:12 1:34 2:13 1:43 2:16 1:28 2:10 1:32 2:14 1:45
2:0 1:34 2:13 1:43 2:16 1:28 2:10 1:32 2:14 1:45 2:17
1:0 2:13 1:43 2:16 1:28 2:10 1:32 2:14 1:45 2:17 1:44
2:0 1:43 2:16 1:28 2:10 1:32 2:14 1:45 2:17 1:44 2:16
1:0 2:16 1:28 2:10 1:32 2:14 1:45 2:17 1:44 2:16 1:30
2:0 1:28 2:10 1:32 2:14 1:45 2:17 1:44 2:16 1:30 2:12
1:0 2:10 1:32 2:14 1:45 2:17 1:44 2:16 1:30 2:12 1:39
2:0 1:32 2:14 1:45 2:17 1:44 2:16 1:30 2:12 1:39 2:14
1:0 2:14 1:45 2:17 1:44 2:16 1:30 2:12 1:39 2:14 1:33
2:0 1:45 2:17 1:44 2:16 1:30 2:12 1:39 2:14 1:33 2:13
1:0 2:17 1:44 2:16 1:30 2:12 1:39 2:14 1:33 2:13 1:35
2:0 1:44 2:16 1:30 2:12 1:39 2:14 1:33 2:13 1:35 2:15
1:0 2:16 1:30 2:12 1:39 2:14 1:33 2:13 1:35 2:15 1:37
2:0 1:30 2:12 1:39 2:14 1:33 2:13 1:35 2:15 1:37 2:12
1:0 2:12 1:39 2:14 1:33 2:13 1:35 2:15 1:37 2:12 1:33
2:0 1:39 2:14 1:33 2:13 1:35 2:15 1:37 2:12 1:33 2:14
1:0 2:14 1:33 2:13 1:35 2:15 1:37 2:12 1:33 2:14 1:41
2:0 1:33 2:13 1:35 2:15 1:37 2:12 1:33 2:14 1:41 2:17
1:0 2:13 1:35 2:15 1:37 2:12 1:33 2:14 1:41 2:17 1:25
2:0 1:35 2:15 1:37 2:12 1:33 2:14 1:41 2:17 1:25 2:11
1:0 2:15 1:37 2:12 1:33 2:14 1:41 2:17 1:25 2:11 1:33
2:0 1:37 2:12 1:33 2:14 1:41 2:17 1:25 2:11 1:33 2:11
1:0 2:12 1:33 2:14 1:41 2:17 1:25 2:11 1:33 2:11 1:41
2:0 1:33 2:14 1:41 2:17 1:25 2:11 1:33 2:11 1:41 2:13
1:0 2:14 1:41 2:17 1:25 2:11 1:33 2:11 1:41 2:13 1:44
2:0 1:41 2:17 1:25 2:11 1:33 2:11 1:41 2:13 1:44 2:19
1:0 2:17 1:25 2:11 1:33 2:11 1:41 2:13 1:44 2:19 1:43
2:0 1:25 2:11 1:33 2:11 1:41 2:13 1:44 2:19 1:43 2:14
1:0 2:11 1:33 2:11 1:41 2:13 1:44 2:19 1:43 2:14 1:35
2:0 1:33 2:11 1:41 2:13 1:44 2:19 1:43 2:14 1:35 2:13
1:0 2:11 1:41 2:13 1:44 2:19 1:43 2:14 1:35 2:13 1:36
2:0 1:41 2:13 1:44 2:19 1:43 2:14 1:35 2:13 1:36 2:13
1:0 2:13 1:44 2:19 1:43 2:14 1:35 2:13 1:36 2:13 1:36
2:0 1:44 2:19 1:43 2:14 1:35 2:13 1:36 2:13 1:36 2:12
1:0 2:19 1:43 2:14 1:35 2:13 1:36 2:13 1:36 2:12 1:31
2:0 1:43 2:14 1:35 2:13 1:36 2:13 1:36 2:12 1:31 2:11
1:0 2:14 1:35 2:13 1:36 2:13 1:36 2:12 1:31 2:11 1:19
2:0 1:35 2:13 1:36 2:13 1:36 2:12 1:31 2:11 1:19 2:10
1:0 2:13 1:36 2:13 1:36 2:12 1:31 2:11 1:19 2:10 1:44
2:0 1:36 2:13 1:36 2:12 1:31 2:11 1:19 2:10 1:44 2:19
1:0 2:13 1:36 2:12 1:31 2:11 1:19 2:10 1:44 2:19 1:44
2:0 1:36 2:12 1:31 2:11 1:19 2:10 1:44 2:19 1:44 2:14
1:0 2:12 1:31 2:11 1:19 2:10 1:44 2:19 1:44 2:14 1:31
2:0 1:31 2:11 1:19 2:10 1:44 2:19 1:44 2:14 1:31 2:10
1:0 2:11 1:19 2:10 1:44 2:19 1:44 2:14 1:31 2:10 1:39
2:0 1:19 2:10 1:44 2:19 1:44 2:14 1:31 2:10 1:39 2:15
1:0 2:10 1:44 2:19 1:44 2:14 1:31 2:10 1:39 2:15 1:37
2:0 1:44 2:19 1:44 2:14 1:31 2:10 1:39 2:15 1:37 2:12
1:0 2:19 1:44 2:14 1:31 2:10 1:39 2:15 1:37 2:12 1:42
2:0 1:44 2:14 1:31 2:10 1:39 2:15 1:37 2:12 1:42 2:17
1:0 2:14 1:31 2:10 1:39 2:15 1:37 2:12 1:42 2:17 1:45
2:0 1:31 2:10 1:39 2:15 1:37 2:12 1:42 2:17 1:45 2:15
1:0 2:10 1:39 2:15 1:37 2:12 1:42 2:17 1:45 2:15 1:37
2:0 1:39 2:15 1:37 2:12 1:42 2:17 1:45 2:15 1:37 2:13
1:0 2:15 1:37 2:12 1:42 2:17 1:45 2:15 1:37 2:13 1:29
2:0 1:37 2:12 1:42 2:17 1:45 2:15 1:37 2:13 1:29 2:12
1:0 2:12 1:42 2:17 1:45 2:15 1:37 2:13 1:29 2:12 1:39
2:0 1:42 2:17 1:45 2:15 1:37 2:13 1:29 2:12 1:39 2:14
1:0 2:17 1:45 2:15 1:37 2:13 1:29 2:12 1:39 2:14 1:32
2:0 1:45 2:15 1:37 2:13 1:29 2:12 1:39 2:14 1:32 2:11
1:0 2:15 1:37 2:13 1:29 2:12 1:39 2:14 1:32 2:11 1:37
2:0 1:37 2:13 1:29 2:12 1:39 2:14 1:32 2:11 1:37 2:16
1:0 2:13 1:29 2:12 1:39 2:14 1:32 2:11 1:37 2:16 1:35
2:0 1:29 2:12 1:39 2:14 1:32 2:11 1:37 2:16 1:35 2:13
1:0 2:12 1:39 2:14 1:32 2:11 1:37 2:16 1:35 2:13 1:37
2:0 1:39 2:14 1:32 2:11 1:37 2:16 1:35 2:13 1:37 2:14
1:0 2:14 1:32 2:11 1:37 2:16 1:35 2:13 1:37 2:14 1:32
2:0 1:32 2:11 1:37 2:16 1:35 2:13 1:37 2:14 1:32 2:14
1:0 2:11 1:37 2:16 1:35 2:13 1:37 2:14 1:32 2:14 1:45
2:0 1:37 2:16 1:35 2:13 1:37 2:14 1:32 2:14 1:45 2:17
1:0 2:16 1:35 2:13 1:37 2:14 1:32 2:14 1:45 2:17 1:24
2:0 1:35 2:13 1:37 2:14 1:32 2:14 1:45 2:17 1:24 2:10
1:0 2:13 1:37 2:14 1:32 2:14 1:45 2:17 1:24 2:10 1:33
2:0 1:37 2:14 1:32 2:14 1:45 2:17 1:24 2:10 1:33 2:13
1:0 2:14 1:32 2:14 1:45 2:17 1:24 2:10 1:33 2:13 1:45
2:0 1:32 2:14 1:45 2:17 1:24 2:10 1:33 2:13 1:45 2:17
1:0 2:14 1:45 2:17 1:24 2:10 1:33 2:13 1:45 2:17 1:43
2:0 1:45 2:17 1:24 2:10 1:33 2:13 1:45 2:17 1:43 2:15
1:0 2:17 1:24 2:10 1:33 2:13 1:45 2:17 1:43 2:15 1:34
2:0 1:24 2:10 1:33 2:13 1:45 2:17 1:43 2:15 1:34 2:11
1:0 2:10 1:33 2:13 1:45 2:17 1:43 2:15 1:34 2:11 1:36
2:0 1:33 2:13 1:45 2:17 1:43 2:15 1:34 2:11 1:36 2:15
1:0 2:13 1:45 2:17 1:43 2:15 1:34 2:11 1:36 2:15 1:46
2:0 1:45 2:17 1:43 2:15 1:34 2:11 1:36 2:15 1:46 2:16
1:0 2:17 1:43 2:15 1:34 2:11 1:36 2:15 1:46 2:16 1:26
2:0 1:43 2:15 1:34 2:11 1:36 2:15 1:46 2:16 1:26 2:10
1:0 2:15 1:34 2:11 1:36 2:15 1:46 2:16 1:26 2:10 1:37
2:0 1:34 2:11 1:36 2:15 1:46 2:16 1:26 2:10 1:37 2:12
1:0 2:11 1:36 2:15 1:46 2:16 1:26 2:10 1:37 2:12 1:45
2:0 1:36 2:15 1:46 2:16 1:26 2:10 1:37 2:12 1:45 2:14
1:0 2:15 1:46 2:16 1:26 2:10 1:37 2:12 1:45 2:14 1:45
2:0 1:46 2:16 1:26 2:10 1:37 2:12 1:45 2:14 1:45 2:15
1:0 2:16 1:26 2:10 1:37 2:12 1:45 2:14 1:45 2:15 1:35
2:0 1:26 2:10 1:37 2:12 1:45 2:14 1:45 2:15 1:35 2:13
1:0 2:10 1:37 2:12 1:45 2:14 1:45 2:15 1:35 2:13 1:33
2:0 1:37 2:12 1:45 2:14 1:45 2:15 1:35 2:13 1:33 2:14
1:0 2:12 1:45 2:14 1:45 2:15 1:35 2:13 1:33 2:14 1:36
2:0 1:45 2:14 1:45 2:15 1:35 2:13 1:33 2:14 1:36 2:12
1:0 2:14 1:45 2:15 1:35 2:13 1:33 2:14 1:36 2:12 1:31
2:0 1:45 2:15 1:35 2:13 1:33 2:14 1:36 2:12 1:31 2:12
1:0 2:15 1:35 2:13 1:33 2:14 1:36 2:12 1:31 2:12 1:38
2:0 1:35 2:13 1:33 2:14 1:36 2:12 1:31 2:12 1:38 2:15
1:0 2:13 1:33 2:14 1:36 2:12 1:31 2:12 1:38 2:15 1:36
2:0 1:33 2:14 1:36 2:12 1:31 2:12 1:38 2:15 1:36 2:13
1:0 2:14 1:36 2:12 1:31 2:12 1:38 2:15 1:36 2:13 1:36
2:0 1:36 2:12 1:31 2:12 1:38 2:15 1:36 2:13 1:36 2:12
1:0 2:12 1:31 2:12 1:38 2:15 1:36 2:13 1:36 2:12 1:35
2:0 1:31 2:12 1:38 2:15 1:36 2:13 1:36 2:12 1:35 2:12
1:0 2:12 1:38 2:15 1:36 2:13 1:36 2:12 1:35 2:12 1:42
2:0 1:38 2:15 1:36 2:13 1:36 2:12 1:35 2:12 1:42 2:18
1:0 2:15 1:36 2:13 1:36 2:12 1:35 2:12 1:42 2:18 1:46
2:0 1:36 2:13 1:36 2:12 1:35 2:12 1:42 2:18 1:46 2:15
1:0 2:13 1:36 2:12 1:35 2:12 1:42 2:18 1:46 2:15 1:36
2:0 1:36 2:12 1:35 2:12 1:42 2:18 1:46 2:15 1:36 2:12
1:0 2:12 1:35 2:12 1:42 2:18 1:46 2:15 1:36 2:12 1:33
2:0 1:35 2:12 1:42 2:18 1:46 2:15 1:36 2:12 1:33 2:14
1:0 2:12 1:42 2:18 1:46 2:15 1:36 2:12 1:33 2:14 1:47
2:0 1:42 2:18 1:46 2:15 1:36 2:12 1:33 2:14 1:47 2:15
1:0 2:18 1:46 2:15 1:36 2:12 1:33 2:14 1:47 2:15 1:22
2:0 1:46 2:15 1:36 2:12 1:33 2:14 1:47 2:15 1:22 2:11
1:0 2:15 1:36 2:12 1:33 2:14 1:47 2:15 1:22 2:11 1:50
2:0 1:36 2:12 1:33 2:14 1:47 2:15 1:22 2:11 1:50 2:15
1:0 2:12 1:33 2:14 1:47 2:15 1:22 2:11 1:50 2:15 1:41
2:0 1:33 2:14 1:47 2:15 1:22 2:11 1:50 2:15 1:41 2:15
1:0 2:14 1:47 2:15 1:22 2:11 1:50 2:15 1:41 2:15 1:32
2:0 1:47 2:15 1:22 2:11 1:50 2:15 1:41 2:15 1:32 2:12
1:0 2:15 1:22 2:11 1:50 2:15 1:41 2:15 1:32 2:12 1:37
2:0 1:22 2:11 1:50 2:15 1:41 2:15 1:32 2:12 1:37 2:15
1:0 2:11 1:50 2:15 1:41 2:15 1:32 2:12 1:37 2:15 1:31
2:0 1:50 2:15 1:41 2:15 1:32 2:12 1:37 2:15 1:31 2:10
1:0 2:15 1:41 2:15 1:32 2:12 1:37 2:15 1:31 2:10 1:40
2:0 1:41 2:15 1:32 2:12 1:37 2:15 1:31 2:10 1:40 2:15
1:0 2:15 1:32 2:12 1:37 2:15 1:31 2:10 1:40 2:15 1:38
2:0 1:32 2:12 1:37 2:15 1:31 2:10 1:40 2:15 1:38 2:11
1:0 2:12 1:37 2:15 1:31 2:10 1:40 2:15 1:38 2:11 1:34
2:0 1:37 2:15 1:31 2:10 1:40 2:15 1:38 2:11 1:34 2:14
1:0 2:15 1:31 2:10 1:40 2:15 1:38 2:11 1:34 2:14 1:40
2:0 1:31 2:10 1:40 2:15 1:38 2:11 1:34 2:14 1:40 2:17
1:0 2:10 1:40 2:15 1:38 2:11 1:34 2:14 1:40 2:17 1:27
2:0 1:40 2:15 1:38 2:11 1:34 2:14 1:40 2:17 1:27 2:10
1:0 2:15 1:38 2:11 1:34 2:14 1:40 2:17 1:27 2:10 1:46
2:0 1:38 2:11 1:34 2:14 1:40 2:17 1:27 2:10 1:46 2:16
1:0 2:11 1:34 2:14 1:40 2:17 1:27 2:10 1:46 2:16 1:25
2:0 1:34 2:14 1:40 2:17 1:27 2:10 1:46 2:16 1:25 2:10
1:0 2:14 1:40 2:17 1:27 2:10 1:46 2:16 1:25 2:10 1:45
2:0 1:40 2:17 1:27 2:10 1:46 2:16 1:25 2:10 1:45 2:19
1:0 2:17 1:27 2:10 1:46 2:16 1:25 2:10 1:45 2:19
2:0 1:27 2:10 1:46 2:16 1:25 2:10 1:45 2:19
1:0 2:10 1:46 2:16 1:25 2:10 1:45 2:19
2:0 1:46 2:16 1:25 2:10 1:45 2:19
1:0 2:16 1:25 2:10 1:45 2:19
2:0 1:25 2:10 1:45 2:19
1:0 2:10 1:45 2:19
2:0 1:45 2:19
1:0 2:19
2:0