1:0 3:2348 2:2 1:1 3:503 2:1 1:1 2:167 1:2 5:331 3:1
3:0 2:2 1:1 3:503 2:1 1:1 2:167 1:2 5:331 3:1 2:1
2:0 1:1 3:503 2:1 1:1 2:167 1:2 5:331 3:1 2:1 1:1
1:0 3:503 2:1 1:1 2:167 1:2 5:331 3:1 2:1 1:1 2:502
3:0 2:1 1:1 2:167 1:2 5:331 3:1 2:1 1:1 2:502 1:2
2:0 1:1 2:167 1:2 5:331 3:1 2:1 1:1 2:502 1:2 2:502
1:0 2:167 1:2 5:331 3:1 2:1 1:1 2:502 1:2 2:502 1:2
2:0 1:2 5:331 3:1 2:1 1:1 2:502 1:2 2:502 1:2 3:2855
1:0 5:331 3:1 2:1 1:1 2:502 1:2 2:502 1:2 3:2855 2:1
5:0 3:1 2:1 1:1 2:502 1:2 2:502 1:2 3:2855 2:1 1:1
3:0 2:1 1:1 2:502 1:2 2:502 1:2 3:2855 2:1 1:1
2:0 1:1 2:502 1:2 2:502 1:2 3:2855 2:1 1:1
1:0 2:502 1:2 2:502 1:2 3:2855 2:1 1:1
2:0 1:2 2:502 1:2 3:2855 2:1 1:1
1:0 2:502 1:2 3:2855 2:1 1:1
2:0 1:2 3:2855 2:1 1:1
1:0 3:2855 2:1 1:1
3:0 2:1 1:1
2:0 1:1
1:0