1:0 2:5 1:2 2:13 1:13 2:1 1:2 2:1 3:7 1:16 2:16
2:0 1:2 2:13 1:13 2:1 1:2 2:1 3:7 1:16 2:16 3:10
1:0 2:13 1:13 2:1 1:2 2:1 3:7 1:16 2:16 3:10 1:9
2:0 1:13 2:1 1:2 2:1 3:7 1:16 2:16 3:10 1:9 2:4
1:0 2:1 1:2 2:1 3:7 1:16 2:16 3:10 1:9 2:4 1:3
2:0 1:2 2:1 3:7 1:16 2:16 3:10 1:9 2:4 1:3 2:12
1:0 2:1 3:7 1:16 2:16 3:10 1:9 2:4 1:3 2:12 3:24
2:0 3:7 1:16 2:16 3:10 1:9 2:4 1:3 2:12 3:24 1:19
3:0 1:16 2:16 3:10 1:9 2:4 1:3 2:12 3:24 1:19 2:15
1:0 2:16 3:10 1:9 2:4 1:3 2:12 3:24 1:19 2:15 1:14
2:0 3:10 1:9 2:4 1:3 2:12 3:24 1:19 2:15 1:14 2:8
3:0 1:9 2:4 1:3 2:12 3:24 1:19 2:15 1:14 2:8 3:9
1:0 2:4 1:3 2:12 3:24 1:19 2:15 1:14 2:8 3:9 1:13
2:0 1:3 2:12 3:24 1:19 2:15 1:14 2:8 3:9 1:13 2:5
1:0 2:12 3:24 1:19 2:15 1:14 2:8 3:9 1:13 2:5 1:1
2:0 3:24 1:19 2:15 1:14 2:8 3:9 1:13 2:5 1:1 2:7
3:0 1:19 2:15 1:14 2:8 3:9 1:13 2:5 1:1 2:7 3:7
1:0 2:15 1:14 2:8 3:9 1:13 2:5 1:1 2:7 3:7 1:13
2:0 1:14 2:8 3:9 1:13 2:5 1:1 2:7 3:7 1:13 2:19
1:0 2:8 3:9 1:13 2:5 1:1 2:7 3:7 1:13 2:19 3:10
2:0 3:9 1:13 2:5 1:1 2:7 3:7 1:13 2:19 3:10 1:9
3:0 1:13 2:5 1:1 2:7 3:7 1:13 2:19 3:10 1:9 2:4
1:0 2:5 1:1 2:7 3:7 1:13 2:19 3:10 1:9 2:4 1:4
2:0 1:1 2:7 3:7 1:13 2:19 3:10 1:9 2:4 1:4 2:8
1:0 2:7 3:7 1:13 2:19 3:10 1:9 2:4 1:4 2:8 1:1
2:0 3:7 1:13 2:19 3:10 1:9 2:4 1:4 2:8 1:1 2:1
3:0 1:13 2:19 3:10 1:9 2:4 1:4 2:8 1:1 2:1 3:14
1:0 2:19 3:10 1:9 2:4 1:4 2:8 1:1 2:1 3:14 1:15
2:0 3:10 1:9 2:4 1:4 2:8 1:1 2:1 3:14 1:15 2:6
3:0 1:9 2:4 1:4 2:8 1:1 2:1 3:14 1:15 2:6 1:2
1:0 2:4 1:4 2:8 1:1 2:1 3:14 1:15 2:6 1:2 2:11
2:0 1:4 2:8 1:1 2:1 3:14 1:15 2:6 1:2 2:11 3:25
1:0 2:8 1:1 2:1 3:14 1:15 2:6 1:2 2:11 3:25 1:18
2:0 1:1 2:1 3:14 1:15 2:6 1:2 2:11 3:25 1:18 2:15
1:0 2:1 3:14 1:15 2:6 1:2 2:11 3:25 1:18 2:15 1:17
2:0 3:14 1:15 2:6 1:2 2:11 3:25 1:18 2:15 1:17 2:1
3:0 1:15 2:6 1:2 2:11 3:25 1:18 2:15 1:17 2:1 1:1
1:0 2:6 1:2 2:11 3:25 1:18 2:15 1:17 2:1 1:1 2:2
2:0 1:2 2:11 3:25 1:18 2:15 1:17 2:1 1:1 2:2 3:7
1:0 2:11 3:25 1:18 2:15 1:17 2:1 1:1 2:2 3:7 1:16
2:0 3:25 1:18 2:15 1:17 2:1 1:1 2:2 3:7 1:16 2:6
3:0 1:18 2:15 1:17 2:1 1:1 2:2 3:7 1:16 2:6 1:2
1:0 2:15 1:17 2:1 1:1 2:2 3:7 1:16 2:6 1:2 2:8
2:0 1:17 2:1 1:1 2:2 3:7 1:16 2:6 1:2 2:8 3:15
1:0 2:1 1:1 2:2 3:7 1:16 2:6 1:2 2:8 3:15 1:12
2:0 1:1 2:2 3:7 1:16 2:6 1:2 2:8 3:15 1:12 2:10
1:0 2:2 3:7 1:16 2:6 1:2 2:8 3:15 1:12 2:10 3:10
2:0 3:7 1:16 2:6 1:2 2:8 3:15 1:12 2:10 3:10 1:9
3:0 1:16 2:6 1:2 2:8 3:15 1:12 2:10 3:10 1:9 2:7
1:0 2:6 1:2 2:8 3:15 1:12 2:10 3:10 1:9 2:7 1:2
2:0 1:2 2:8 3:15 1:12 2:10 3:10 1:9 2:7 1:2 2:10
1:0 2:8 3:15 1:12 2:10 3:10 1:9 2:7 1:2 2:10 1:14
2:0 3:15 1:12 2:10 3:10 1:9 2:7 1:2 2:10 1:14 2:1
3:0 1:12 2:10 3:10 1:9 2:7 1:2 2:10 1:14 2:1 3:12
1:0 2:10 3:10 1:9 2:7 1:2 2:10 1:14 2:1 3:12 1:16
2:0 3:10 1:9 2:7 1:2 2:10 1:14 2:1 3:12 1:16 2:14
3:0 1:9 2:7 1:2 2:10 1:14 2:1 3:12 1:16 2:14 1:18
1:0 2:7 1:2 2:10 1:14 2:1 3:12 1:16 2:14 1:18 2:4
2:0 1:2 2:10 1:14 2:1 3:12 1:16 2:14 1:18 2:4 3:6
1:0 2:10 1:14 2:1 3:12 1:16 2:14 1:18 2:4 3:6 1:16
2:0 1:14 2:1 3:12 1:16 2:14 1:18 2:4 3:6 1:16 2:4
1:0 2:1 3:12 1:16 2:14 1:18 2:4 3:6 1:16 2:4 1:13
2:0 3:12 1:16 2:14 1:18 2:4 3:6 1:16 2:4 1:13 2:11
3:0 1:16 2:14 1:18 2:4 3:6 1:16 2:4 1:13 2:11 3:10
1:0 2:14 1:18 2:4 3:6 1:16 2:4 1:13 2:11 3:10 1:11
2:0 1:18 2:4 3:6 1:16 2:4 1:13 2:11 3:10 1:11 2:4
1:0 2:4 3:6 1:16 2:4 1:13 2:11 3:10 1:11 2:4 1:4
2:0 3:6 1:16 2:4 1:13 2:11 3:10 1:11 2:4 1:4 2:5
3:0 1:16 2:4 1:13 2:11 3:10 1:11 2:4 1:4 2:5 1:8
1:0 2:4 1:13 2:11 3:10 1:11 2:4 1:4 2:5 1:8 2:3
2:0 1:13 2:11 3:10 1:11 2:4 1:4 2:5 1:8 2:3 3:11
1:0 2:11 3:10 1:11 2:4 1:4 2:5 1:8 2:3 3:11 1:13
2:0 3:10 1:11 2:4 1:4 2:5 1:8 2:3 3:11 1:13 2:4
3:0 1:11 2:4 1:4 2:5 1:8 2:3 3:11 1:13 2:4 1:3
1:0 2:4 1:4 2:5 1:8 2:3 3:11 1:13 2:4 1:3 2:12
2:0 1:4 2:5 1:8 2:3 3:11 1:13 2:4 1:3 2:12 3:25
1:0 2:5 1:8 2:3 3:11 1:13 2:4 1:3 2:12 3:25 1:16
2:0 1:8 2:3 3:11 1:13 2:4 1:3 2:12 3:25 1:16 2:15
1:0 2:3 3:11 1:13 2:4 1:3 2:12 3:25 1:16 2:15 3:8
2:0 3:11 1:13 2:4 1:3 2:12 3:25 1:16 2:15 3:8 1:11
3:0 1:13 2:4 1:3 2:12 3:25 1:16 2:15 3:8 1:11 2:7
1:0 2:4 1:3 2:12 3:25 1:16 2:15 3:8 1:11 2:7 1:1
2:0 1:3 2:12 3:25 1:16 2:15 3:8 1:11 2:7 1:1 2:15
1:0 2:12 3:25 1:16 2:15 3:8 1:11 2:7 1:1 2:15 1:16
2:0 3:25 1:16 2:15 3:8 1:11 2:7 1:1 2:15 1:16 2:2
3:0 1:16 2:15 3:8 1:11 2:7 1:1 2:15 1:16 2:2 3:7
1:0 2:15 3:8 1:11 2:7 1:1 2:15 1:16 2:2 3:7 1:15
2:0 3:8 1:11 2:7 1:1 2:15 1:16 2:2 3:7 1:15 2:14
3:0 1:11 2:7 1:1 2:15 1:16 2:2 3:7 1:15 2:14 3:11
1:0 2:7 1:1 2:15 1:16 2:2 3:7 1:15 2:14 3:11 1:9
2:0 1:1 2:15 1:16 2:2 3:7 1:15 2:14 3:11 1:9 2:7
1:0 2:15 1:16 2:2 3:7 1:15 2:14 3:11 1:9 2:7 1:2
2:0 1:16 2:2 3:7 1:15 2:14 3:11 1:9 2:7 1:2 2:4
1:0 2:2 3:7 1:15 2:14 3:11 1:9 2:7 1:2 2:4 1:9
2:0 3:7 1:15 2:14 3:11 1:9 2:7 1:2 2:4 1:9 2:5
3:0 1:15 2:14 3:11 1:9 2:7 1:2 2:4 1:9 2:5 3:13
1:0 2:14 3:11 1:9 2:7 1:2 2:4 1:9 2:5 3:13 2:12
2:0 3:11 1:9 2:7 1:2 2:4 1:9 2:5 3:13 2:12 1:5
3:0 1:9 2:7 1:2 2:4 1:9 2:5 3:13 2:12 1:5 2:1
1:0 2:7 1:2 2:4 1:9 2:5 3:13 2:12 1:5 2:1 1:8
2:0 1:2 2:4 1:9 2:5 3:13 2:12 1:5 2:1 1:8 2:8
1:0 2:4 1:9 2:5 3:13 2:12 1:5 2:1 1:8 2:8 3:11
2:0 1:9 2:5 3:13 2:12 1:5 2:1 1:8 2:8 3:11 1:13
1:0 2:5 3:13 2:12 1:5 2:1 1:8 2:8 3:11 1:13 2:3
2:0 3:13 2:12 1:5 2:1 1:8 2:8 3:11 1:13 2:3 1:3
3:0 2:12 1:5 2:1 1:8 2:8 3:11 1:13 2:3 1:3 2:13
2:0 1:5 2:1 1:8 2:8 3:11 1:13 2:3 1:3 2:13 1:13
1:0 2:1 1:8 2:8 3:11 1:13 2:3 1:3 2:13 1:13 2:1
2:0 1:8 2:8 3:11 1:13 2:3 1:3 2:13 1:13 2:1 3:11
1:0 2:8 3:11 1:13 2:3 1:3 2:13 1:13 2:1 3:11 1:15
2:0 3:11 1:13 2:3 1:3 2:13 1:13 2:1 3:11 1:15 2:16
3:0 1:13 2:3 1:3 2:13 1:13 2:1 3:11 1:15 2:16 3:9
1:0 2:3 1:3 2:13 1:13 2:1 3:11 1:15 2:16 3:9 1:10
2:0 1:3 2:13 1:13 2:1 3:11 1:15 2:16 3:9 1:10 2:5
1:0 2:13 1:13 2:1 3:11 1:15 2:16 3:9 1:10 2:5 1:2
2:0 1:13 2:1 3:11 1:15 2:16 3:9 1:10 2:5 1:2 2:4
1:0 2:1 3:11 1:15 2:16 3:9 1:10 2:5 1:2 2:4 1:7
2:0 3:11 1:15 2:16 3:9 1:10 2:5 1:2 2:4 1:7 2:2
3:0 1:15 2:16 3:9 1:10 2:5 1:2 2:4 1:7 2:2 1:1
1:0 2:16 3:9 1:10 2:5 1:2 2:4 1:7 2:2 1:1 2:5
2:0 3:9 1:10 2:5 1:2 2:4 1:7 2:2 1:1 2:5 3:8
3:0 1:10 2:5 1:2 2:4 1:7 2:2 1:1 2:5 3:8 1:13
1:0 2:5 1:2 2:4 1:7 2:2 1:1 2:5 3:8 1:13 2:6
2:0 1:2 2:4 1:7 2:2 1:1 2:5 3:8 1:13 2:6 1:2
1:0 2:4 1:7 2:2 1:1 2:5 3:8 1:13 2:6 1:2 2:2
2:0 1:7 2:2 1:1 2:5 3:8 1:13 2:6 1:2 2:2 1:1
1:0 2:2 1:1 2:5 3:8 1:13 2:6 1:2 2:2 1:1 2:9
2:0 1:1 2:5 3:8 1:13 2:6 1:2 2:2 1:1 2:9 3:24
1:0 2:5 3:8 1:13 2:6 1:2 2:2 1:1 2:9 3:24 1:17
2:0 3:8 1:13 2:6 1:2 2:2 1:1 2:9 3:24 1:17 2:16
3:0 1:13 2:6 1:2 2:2 1:1 2:9 3:24 1:17 2:16 3:12
1:0 2:6 1:2 2:2 1:1 2:9 3:24 1:17 2:16 3:12 1:9
2:0 1:2 2:2 1:1 2:9 3:24 1:17 2:16 3:12 1:9 2:5
1:0 2:2 1:1 2:9 3:24 1:17 2:16 3:12 1:9 2:5 1:3
2:0 1:1 2:9 3:24 1:17 2:16 3:12 1:9 2:5 1:3 2:5
1:0 2:9 3:24 1:17 2:16 3:12 1:9 2:5 1:3 2:5 3:7
2:0 3:24 1:17 2:16 3:12 1:9 2:5 1:3 2:5 3:7 1:12
3:0 1:17 2:16 3:12 1:9 2:5 1:3 2:5 3:7 1:12 2:19
1:0 2:16 3:12 1:9 2:5 1:3 2:5 3:7 1:12 2:19 3:9
2:0 3:12 1:9 2:5 1:3 2:5 3:7 1:12 2:19 3:9 1:10
3:0 1:9 2:5 1:3 2:5 3:7 1:12 2:19 3:9 1:10 2:22
1:0 2:5 1:3 2:5 3:7 1:12 2:19 3:9 1:10 2:22 1:15
2:0 1:3 2:5 3:7 1:12 2:19 3:9 1:10 2:22 1:15 2:1
1:0 2:5 3:7 1:12 2:19 3:9 1:10 2:22 1:15 2:1 3:8
2:0 3:7 1:12 2:19 3:9 1:10 2:22 1:15 2:1 3:8 1:16
3:0 1:12 2:19 3:9 1:10 2:22 1:15 2:1 3:8 1:16 2:16
1:0 2:19 3:9 1:10 2:22 1:15 2:1 3:8 1:16 2:16 1:16
2:0 3:9 1:10 2:22 1:15 2:1 3:8 1:16 2:16 1:16 2:5
3:0 1:10 2:22 1:15 2:1 3:8 1:16 2:16 1:16 2:5 3:7
1:0 2:22 1:15 2:1 3:8 1:16 2:16 1:16 2:5 3:7 1:15
2:0 1:15 2:1 3:8 1:16 2:16 1:16 2:5 3:7 1:15 2:5
1:0 2:1 3:8 1:16 2:16 1:16 2:5 3:7 1:15 2:5 1:2
2:0 3:8 1:16 2:16 1:16 2:5 3:7 1:15 2:5 1:2 2:4
3:0 1:16 2:16 1:16 2:5 3:7 1:15 2:5 1:2 2:4 1:8
1:0 2:16 1:16 2:5 3:7 1:15 2:5 1:2 2:4 1:8 2:1
2:0 1:16 2:5 3:7 1:15 2:5 1:2 2:4 1:8 2:1 1:1
1:0 2:5 3:7 1:15 2:5 1:2 2:4 1:8 2:1 1:1 2:5
2:0 3:7 1:15 2:5 1:2 2:4 1:8 2:1 1:1 2:5 3:7
3:0 1:15 2:5 1:2 2:4 1:8 2:1 1:1 2:5 3:7 1:14
1:0 2:5 1:2 2:4 1:8 2:1 1:1 2:5 3:7 1:14 2:5
2:0 1:2 2:4 1:8 2:1 1:1 2:5 3:7 1:14 2:5 1:2
1:0 2:4 1:8 2:1 1:1 2:5 3:7 1:14 2:5 1:2 2:8
2:0 1:8 2:1 1:1 2:5 3:7 1:14 2:5 1:2 2:8 1:1
1:0 2:1 1:1 2:5 3:7 1:14 2:5 1:2 2:8 1:1 2:3
2:0 1:1 2:5 3:7 1:14 2:5 1:2 2:8 1:1 2:3 1:8
1:0 2:5 3:7 1:14 2:5 1:2 2:8 1:1 2:3 1:8 2:1
2:0 3:7 1:14 2:5 1:2 2:8 1:1 2:3 1:8 2:1 1:11
3:0 1:14 2:5 1:2 2:8 1:1 2:3 1:8 2:1 1:11 2:1
1:0 2:5 1:2 2:8 1:1 2:3 1:8 2:1 1:11 2:1 3:3
2:0 1:2 2:8 1:1 2:3 1:8 2:1 1:11 2:1 3:3 1:17
1:0 2:8 1:1 2:3 1:8 2:1 1:11 2:1 3:3 1:17 2:17
2:0 1:1 2:3 1:8 2:1 1:11 2:1 3:3 1:17 2:17 1:18
1:0 2:3 1:8 2:1 1:11 2:1 3:3 1:17 2:17 1:18 2:3
2:0 1:8 2:1 1:11 2:1 3:3 1:17 2:17 1:18 2:3 3:8
1:0 2:1 1:11 2:1 3:3 1:17 2:17 1:18 2:3 3:8 1:16
2:0 1:11 2:1 3:3 1:17 2:17 1:18 2:3 3:8 1:16 2:4
1:0 2:1 3:3 1:17 2:17 1:18 2:3 3:8 1:16 2:4 1:2
2:0 3:3 1:17 2:17 1:18 2:3 3:8 1:16 2:4 1:2 2:1
3:0 1:17 2:17 1:18 2:3 3:8 1:16 2:4 1:2 2:1 1:1
1:0 2:17 1:18 2:3 3:8 1:16 2:4 1:2 2:1 1:1 2:7
2:0 1:18 2:3 3:8 1:16 2:4 1:2 2:1 1:1 2:7 1:1
1:0 2:3 3:8 1:16 2:4 1:2 2:1 1:1 2:7 1:1 2:1
2:0 3:8 1:16 2:4 1:2 2:1 1:1 2:7 1:1 2:1 3:13
3:0 1:16 2:4 1:2 2:1 1:1 2:7 1:1 2:1 3:13 1:12
1:0 2:4 1:2 2:1 1:1 2:7 1:1 2:1 3:13 1:12 2:10
2:0 1:2 2:1 1:1 2:7 1:1 2:1 3:13 1:12 2:10 1:2
1:0 2:1 1:1 2:7 1:1 2:1 3:13 1:12 2:10 1:2 2:2
2:0 1:1 2:7 1:1 2:1 3:13 1:12 2:10 1:2 2:2 1:8
1:0 2:7 1:1 2:1 3:13 1:12 2:10 1:2 2:2 1:8 2:2
2:0 1:1 2:1 3:13 1:12 2:10 1:2 2:2 1:8 2:2 1:1
1:0 2:1 3:13 1:12 2:10 1:2 2:2 1:8 2:2 1:1 2:6
2:0 3:13 1:12 2:10 1:2 2:2 1:8 2:2 1:1 2:6 1:1
3:0 1:12 2:10 1:2 2:2 1:8 2:2 1:1 2:6 1:1 2:1
1:0 2:10 1:2 2:2 1:8 2:2 1:1 2:6 1:1 2:1 3:9
2:0 1:2 2:2 1:8 2:2 1:1 2:6 1:1 2:1 3:9 1:11
1:0 2:2 1:8 2:2 1:1 2:6 1:1 2:1 3:9 1:11 2:5
2:0 1:8 2:2 1:1 2:6 1:1 2:1 3:9 1:11 2:5 1:1
1:0 2:2 1:1 2:6 1:1 2:1 3:9 1:11 2:5 1:1 2:1
2:0 1:1 2:6 1:1 2:1 3:9 1:11 2:5 1:1 2:1 1:1
1:0 2:6 1:1 2:1 3:9 1:11 2:5 1:1 2:1 1:1 2:10
2:0 1:1 2:1 3:9 1:11 2:5 1:1 2:1 1:1 2:10 3:27
1:0 2:1 3:9 1:11 2:5 1:1 2:1 1:1 2:10 3:27 1:17
2:0 3:9 1:11 2:5 1:1 2:1 1:1 2:10 3:27 1:17 2:13
3:0 1:11 2:5 1:1 2:1 1:1 2:10 3:27 1:17 2:13 3:13
1:0 2:5 1:1 2:1 1:1 2:10 3:27 1:17 2:13 3:13 1:9
2:0 1:1 2:1 1:1 2:10 3:27 1:17 2:13 3:13 1:9 2:3
1:0 2:1 1:1 2:10 3:27 1:17 2:13 3:13 1:9 2:3 1:13
2:0 1:1 2:10 3:27 1:17 2:13 3:13 1:9 2:3 1:13 2:11
1:0 2:10 3:27 1:17 2:13 3:13 1:9 2:3 1:13 2:11 3:8
2:0 3:27 1:17 2:13 3:13 1:9 2:3 1:13 2:11 3:8 1:12
3:0 1:17 2:13 3:13 1:9 2:3 1:13 2:11 3:8 1:12 2:5
1:0 2:13 3:13 1:9 2:3 1:13 2:11 3:8 1:12 2:5 1:2
2:0 3:13 1:9 2:3 1:13 2:11 3:8 1:12 2:5 1:2 2:1
3:0 1:9 2:3 1:13 2:11 3:8 1:12 2:5 1:2 2:1 1:1
1:0 2:3 1:13 2:11 3:8 1:12 2:5 1:2 2:1 1:1 2:11
2:0 1:13 2:11 3:8 1:12 2:5 1:2 2:1 1:1 2:11 3:24
1:0 2:11 3:8 1:12 2:5 1:2 2:1 1:1 2:11 3:24 1:17
2:0 3:8 1:12 2:5 1:2 2:1 1:1 2:11 3:24 1:17 2:16
3:0 1:12 2:5 1:2 2:1 1:1 2:11 3:24 1:17 2:16 1:16
1:0 2:5 1:2 2:1 1:1 2:11 3:24 1:17 2:16 1:16 2:5
2:0 1:2 2:1 1:1 2:11 3:24 1:17 2:16 1:16 2:5 3:7
1:0 2:1 1:1 2:11 3:24 1:17 2:16 1:16 2:5 3:7 1:15
2:0 1:1 2:11 3:24 1:17 2:16 1:16 2:5 3:7 1:15 2:5
1:0 2:11 3:24 1:17 2:16 1:16 2:5 3:7 1:15 2:5 1:12
2:0 3:24 1:17 2:16 1:16 2:5 3:7 1:15 2:5 1:12 2:10
3:0 1:17 2:16 1:16 2:5 3:7 1:15 2:5 1:12 2:10 3:10
1:0 2:16 1:16 2:5 3:7 1:15 2:5 1:12 2:10 3:10 1:12
2:0 1:16 2:5 3:7 1:15 2:5 1:12 2:10 3:10 1:12 2:3
1:0 2:5 3:7 1:15 2:5 1:12 2:10 3:10 1:12 2:3 1:2
2:0 3:7 1:15 2:5 1:12 2:10 3:10 1:12 2:3 1:2 2:2
3:0 1:15 2:5 1:12 2:10 3:10 1:12 2:3 1:2 2:2 1:2
1:0 2:5 1:12 2:10 3:10 1:12 2:3 1:2 2:2 1:2 2:10
2:0 1:12 2:10 3:10 1:12 2:3 1:2 2:2 1:2 2:10 1:18
1:0 2:10 3:10 1:12 2:3 1:2 2:2 1:2 2:10 1:18 2:1
2:0 3:10 1:12 2:3 1:2 2:2 1:2 2:10 1:18 2:1 3:5
3:0 1:12 2:3 1:2 2:2 1:2 2:10 1:18 2:1 3:5 1:18
1:0 2:3 1:2 2:2 1:2 2:10 1:18 2:1 3:5 1:18 2:14
2:0 1:2 2:2 1:2 2:10 1:18 2:1 3:5 1:18 2:14 3:11
1:0 2:2 1:2 2:10 1:18 2:1 3:5 1:18 2:14 3:11 1:9
2:0 1:2 2:10 1:18 2:1 3:5 1:18 2:14 3:11 1:9 2:5
1:0 2:10 1:18 2:1 3:5 1:18 2:14 3:11 1:9 2:5 1:1
2:0 1:18 2:1 3:5 1:18 2:14 3:11 1:9 2:5 1:1 2:1
1:0 2:1 3:5 1:18 2:14 3:11 1:9 2:5 1:1 2:1 1:2
2:0 3:5 1:18 2:14 3:11 1:9 2:5 1:1 2:1 1:2 2:10
3:0 1:18 2:14 3:11 1:9 2:5 1:1 2:1 1:2 2:10 3:13
1:0 2:14 3:11 1:9 2:5 1:1 2:1 1:2 2:10 3:13 1:11
2:0 3:11 1:9 2:5 1:1 2:1 1:2 2:10 3:13 1:11 2:9
3:0 1:9 2:5 1:1 2:1 1:2 2:10 3:13 1:11 2:9 1:18
1:0 2:5 1:1 2:1 1:2 2:10 3:13 1:11 2:9 1:18 2:5
2:0 1:1 2:1 1:2 2:10 3:13 1:11 2:9 1:18 2:5 3:6
1:0 2:1 1:2 2:10 3:13 1:11 2:9 1:18 2:5 3:6 1:15
2:0 1:2 2:10 3:13 1:11 2:9 1:18 2:5 3:6 1:15 2:7
1:0 2:10 3:13 1:11 2:9 1:18 2:5 3:6 1:15 2:7 1:1
2:0 3:13 1:11 2:9 1:18 2:5 3:6 1:15 2:7 1:1 2:1
3:0 1:11 2:9 1:18 2:5 3:6 1:15 2:7 1:1 2:1 1:1
1:0 2:9 1:18 2:5 3:6 1:15 2:7 1:1 2:1 1:1 2:1
2:0 1:18 2:5 3:6 1:15 2:7 1:1 2:1 1:1 2:1 1:9
1:0 2:5 3:6 1:15 2:7 1:1 2:1 1:1 2:1 1:9 2:1
2:0 3:6 1:15 2:7 1:1 2:1 1:1 2:1 1:9 2:1 1:1
3:0 1:15 2:7 1:1 2:1 1:1 2:1 1:9 2:1 1:1 2:4
1:0 2:7 1:1 2:1 1:1 2:1 1:9 2:1 1:1 2:4 3:8
2:0 1:1 2:1 1:1 2:1 1:9 2:1 1:1 2:4 3:8 1:13
1:0 2:1 1:1 2:1 1:9 2:1 1:1 2:4 3:8 1:13 2:6
2:0 1:1 2:1 1:9 2:1 1:1 2:4 3:8 1:13 2:6 1:1
1:0 2:1 1:9 2:1 1:1 2:4 3:8 1:13 2:6 1:1 2:1
2:0 1:9 2:1 1:1 2:4 3:8 1:13 2:6 1:1 2:1 1:1
1:0 2:1 1:1 2:4 3:8 1:13 2:6 1:1 2:1 1:1 2:3
2:0 1:1 2:4 3:8 1:13 2:6 1:1 2:1 1:1 2:3 1:6
1:0 2:4 3:8 1:13 2:6 1:1 2:1 1:1 2:3 1:6 2:1
2:0 3:8 1:13 2:6 1:1 2:1 1:1 2:3 1:6 2:1 1:3
3:0 1:13 2:6 1:1 2:1 1:1 2:3 1:6 2:1 1:3 2:5
1:0 2:6 1:1 2:1 1:1 2:3 1:6 2:1 1:3 2:5 3:9
2:0 1:1 2:1 1:1 2:3 1:6 2:1 1:3 2:5 3:9 1:14
1:0 2:1 1:1 2:3 1:6 2:1 1:3 2:5 3:9 1:14 2:3
2:0 1:1 2:3 1:6 2:1 1:3 2:5 3:9 1:14 2:3 1:5
1:0 2:3 1:6 2:1 1:3 2:5 3:9 1:14 2:3 1:5 2:1
2:0 1:6 2:1 1:3 2:5 3:9 1:14 2:3 1:5 2:1 1:7
1:0 2:1 1:3 2:5 3:9 1:14 2:3 1:5 2:1 1:7 2:10
2:0 1:3 2:5 3:9 1:14 2:3 1:5 2:1 1:7 2:10 3:9
1:0 2:5 3:9 1:14 2:3 1:5 2:1 1:7 2:10 3:9 1:13
2:0 3:9 1:14 2:3 1:5 2:1 1:7 2:10 3:9 1:13 2:4
3:0 1:14 2:3 1:5 2:1 1:7 2:10 3:9 1:13 2:4 1:2
1:0 2:3 1:5 2:1 1:7 2:10 3:9 1:13 2:4 1:2 2:1
2:0 1:5 2:1 1:7 2:10 3:9 1:13 2:4 1:2 2:1 1:2
1:0 2:1 1:7 2:10 3:9 1:13 2:4 1:2 2:1 1:2 2:9
2:0 1:7 2:10 3:9 1:13 2:4 1:2 2:1 1:2 2:9 3:24
1:0 2:10 3:9 1:13 2:4 1:2 2:1 1:2 2:9 3:24 1:16
2:0 3:9 1:13 2:4 1:2 2:1 1:2 2:9 3:24 1:16 2:18
3:0 1:13 2:4 1:2 2:1 1:2 2:9 3:24 1:16 2:18 3:9
1:0 2:4 1:2 2:1 1:2 2:9 3:24 1:16 2:18 3:9 1:10
2:0 1:2 2:1 1:2 2:9 3:24 1:16 2:18 3:9 1:10 2:4
1:0 2:1 1:2 2:9 3:24 1:16 2:18 3:9 1:10 2:4 1:5
2:0 1:2 2:9 3:24 1:16 2:18 3:9 1:10 2:4 1:5 2:2
1:0 2:9 3:24 1:16 2:18 3:9 1:10 2:4 1:5 2:2 1:10
2:0 3:24 1:16 2:18 3:9 1:10 2:4 1:5 2:2 1:10 2:4
3:0 1:16 2:18 3:9 1:10 2:4 1:5 2:2 1:10 2:4 3:8
1:0 2:18 3:9 1:10 2:4 1:5 2:2 1:10 2:4 3:8 1:14
2:0 3:9 1:10 2:4 1:5 2:2 1:10 2:4 3:8 1:14 2:5
3:0 1:10 2:4 1:5 2:2 1:10 2:4 3:8 1:14 2:5 1:2
1:0 2:4 1:5 2:2 1:10 2:4 3:8 1:14 2:5 1:2 2:2
2:0 1:5 2:2 1:10 2:4 3:8 1:14 2:5 1:2 2:2 1:1
1:0 2:2 1:10 2:4 3:8 1:14 2:5 1:2 2:2 1:1 2:7
2:0 1:10 2:4 3:8 1:14 2:5 1:2 2:2 1:1 2:7 1:1
1:0 2:4 3:8 1:14 2:5 1:2 2:2 1:1 2:7 1:1 2:3
2:0 3:8 1:14 2:5 1:2 2:2 1:1 2:7 1:1 2:3 3:25
3:0 1:14 2:5 1:2 2:2 1:1 2:7 1:1 2:3 3:25 1:16
1:0 2:5 1:2 2:2 1:1 2:7 1:1 2:3 3:25 1:16 2:15
2:0 1:2 2:2 1:1 2:7 1:1 2:3 3:25 1:16 2:15 1:16
1:0 2:2 1:1 2:7 1:1 2:3 3:25 1:16 2:15 1:16 2:6
2:0 1:1 2:7 1:1 2:3 3:25 1:16 2:15 1:16 2:6 3:7
1:0 2:7 1:1 2:3 3:25 1:16 2:15 1:16 2:6 3:7 1:16
2:0 1:1 2:3 3:25 1:16 2:15 1:16 2:6 3:7 1:16 2:5
1:0 2:3 3:25 1:16 2:15 1:16 2:6 3:7 1:16 2:5 1:1
2:0 3:25 1:16 2:15 1:16 2:6 3:7 1:16 2:5 1:1 2:1
3:0 1:16 2:15 1:16 2:6 3:7 1:16 2:5 1:1 2:1 1:1
1:0 2:15 1:16 2:6 3:7 1:16 2:5 1:1 2:1 1:1 2:2
2:0 1:16 2:6 3:7 1:16 2:5 1:1 2:1 1:1 2:2 1:10
1:0 2:6 3:7 1:16 2:5 1:1 2:1 1:1 2:2 1:10 2:5
2:0 3:7 1:16 2:5 1:1 2:1 1:1 2:2 1:10 2:5 3:7
3:0 1:16 2:5 1:1 2:1 1:1 2:2 1:10 2:5 3:7 1:14
1:0 2:5 1:1 2:1 1:1 2:2 1:10 2:5 3:7 1:14 2:6
2:0 1:1 2:1 1:1 2:2 1:10 2:5 3:7 1:14 2:6 1:2
1:0 2:1 1:1 2:2 1:10 2:5 3:7 1:14 2:6 1:2 2:14
2:0 1:1 2:2 1:10 2:5 3:7 1:14 2:6 1:2 2:14 3:25
1:0 2:2 1:10 2:5 3:7 1:14 2:6 1:2 2:14 3:25 1:16
2:0 1:10 2:5 3:7 1:14 2:6 1:2 2:14 3:25 1:16 2:15
1:0 2:5 3:7 1:14 2:6 1:2 2:14 3:25 1:16 2:15 1:17
2:0 3:7 1:14 2:6 1:2 2:14 3:25 1:16 2:15 1:17 2:5
3:0 1:14 2:6 1:2 2:14 3:25 1:16 2:15 1:17 2:5 3:7
1:0 2:6 1:2 2:14 3:25 1:16 2:15 1:17 2:5 3:7 1:15
2:0 1:2 2:14 3:25 1:16 2:15 1:17 2:5 3:7 1:15 2:3
1:0 2:14 3:25 1:16 2:15 1:17 2:5 3:7 1:15 2:3 1:2
2:0 3:25 1:16 2:15 1:17 2:5 3:7 1:15 2:3 1:2 2:2
3:0 1:16 2:15 1:17 2:5 3:7 1:15 2:3 1:2 2:2 1:1
1:0 2:15 1:17 2:5 3:7 1:15 2:3 1:2 2:2 1:1 2:2
2:0 1:17 2:5 3:7 1:15 2:3 1:2 2:2 1:1 2:2 1:10
1:0 2:5 3:7 1:15 2:3 1:2 2:2 1:1 2:2 1:10 2:5
2:0 3:7 1:15 2:3 1:2 2:2 1:1 2:2 1:10 2:5 3:7
3:0 1:15 2:3 1:2 2:2 1:1 2:2 1:10 2:5 3:7 1:14
1:0 2:3 1:2 2:2 1:1 2:2 1:10 2:5 3:7 1:14 2:6
2:0 1:2 2:2 1:1 2:2 1:10 2:5 3:7 1:14 2:6 1:2
1:0 2:2 1:1 2:2 1:10 2:5 3:7 1:14 2:6 1:2 2:13
2:0 1:1 2:2 1:10 2:5 3:7 1:14 2:6 1:2 2:13 1:14
1:0 2:2 1:10 2:5 3:7 1:14 2:6 1:2 2:13 1:14 2:1
2:0 1:10 2:5 3:7 1:14 2:6 1:2 2:13 1:14 2:1 3:4
1:0 2:5 3:7 1:14 2:6 1:2 2:13 1:14 2:1 3:4 1:13
2:0 3:7 1:14 2:6 1:2 2:13 1:14 2:1 3:4 1:13 2:1
3:0 1:14 2:6 1:2 2:13 1:14 2:1 3:4 1:13 2:1 1:3
1:0 2:6 1:2 2:13 1:14 2:1 3:4 1:13 2:1 1:3 2:13
2:0 1:2 2:13 1:14 2:1 3:4 1:13 2:1 1:3 2:13 1:16
1:0 2:13 1:14 2:1 3:4 1:13 2:1 1:3 2:13 1:16 2:1
2:0 1:14 2:1 3:4 1:13 2:1 1:3 2:13 1:16 2:1 3:8
1:0 2:1 3:4 1:13 2:1 1:3 2:13 1:16 2:1 3:8 1:16
2:0 3:4 1:13 2:1 1:3 2:13 1:16 2:1 3:8 1:16 2:14
3:0 1:13 2:1 1:3 2:13 1:16 2:1 3:8 1:16 2:14 3:12
1:0 2:1 1:3 2:13 1:16 2:1 3:8 1:16 2:14 3:12 1:9
2:0 1:3 2:13 1:16 2:1 3:8 1:16 2:14 3:12 1:9 2:3
1:0 2:13 1:16 2:1 3:8 1:16 2:14 3:12 1:9 2:3 1:14
2:0 1:16 2:1 3:8 1:16 2:14 3:12 1:9 2:3 1:14 2:10
1:0 2:1 3:8 1:16 2:14 3:12 1:9 2:3 1:14 2:10 3:9
2:0 3:8 1:16 2:14 3:12 1:9 2:3 1:14 2:10 3:9 1:11
3:0 1:16 2:14 3:12 1:9 2:3 1:14 2:10 3:9 1:11 2:5
1:0 2:14 3:12 1:9 2:3 1:14 2:10 3:9 1:11 2:5 1:2
2:0 3:12 1:9 2:3 1:14 2:10 3:9 1:11 2:5 1:2 2:5
3:0 1:9 2:3 1:14 2:10 3:9 1:11 2:5 1:2 2:5 1:8
1:0 2:3 1:14 2:10 3:9 1:11 2:5 1:2 2:5 1:8 2:7
2:0 1:14 2:10 3:9 1:11 2:5 1:2 2:5 1:8 2:7 3:10
1:0 2:10 3:9 1:11 2:5 1:2 2:5 1:8 2:7 3:10 1:13
2:0 3:9 1:11 2:5 1:2 2:5 1:8 2:7 3:10 1:13 2:4
3:0 1:11 2:5 1:2 2:5 1:8 2:7 3:10 1:13 2:4 1:2
1:0 2:5 1:2 2:5 1:8 2:7 3:10 1:13 2:4 1:2 2:5
2:0 1:2 2:5 1:8 2:7 3:10 1:13 2:4 1:2 2:5 1:9
1:0 2:5 1:8 2:7 3:10 1:13 2:4 1:2 2:5 1:9 2:5
2:0 1:8 2:7 3:10 1:13 2:4 1:2 2:5 1:9 2:5 3:10
1:0 2:7 3:10 1:13 2:4 1:2 2:5 1:9 2:5 3:10 1:12
2:0 3:10 1:13 2:4 1:2 2:5 1:9 2:5 3:10 1:12 2:3
3:0 1:13 2:4 1:2 2:5 1:9 2:5 3:10 1:12 2:3 1:2
1:0 2:4 1:2 2:5 1:9 2:5 3:10 1:12 2:3 1:2 2:11
2:0 1:2 2:5 1:9 2:5 3:10 1:12 2:3 1:2 2:11 3:13
1:0 2:5 1:9 2:5 3:10 1:12 2:3 1:2 2:11 3:13 1:13
2:0 1:9 2:5 3:10 1:12 2:3 1:2 2:11 3:13 1:13 2:10
1:0 2:5 3:10 1:12 2:3 1:2 2:11 3:13 1:13 2:10 1:15
2:0 3:10 1:12 2:3 1:2 2:11 3:13 1:13 2:10 1:15 2:7
3:0 1:12 2:3 1:2 2:11 3:13 1:13 2:10 1:15 2:7 3:7
1:0 2:3 1:2 2:11 3:13 1:13 2:10 1:15 2:7 3:7 1:14
2:0 1:2 2:11 3:13 1:13 2:10 1:15 2:7 3:7 1:14 2:5
1:0 2:11 3:13 1:13 2:10 1:15 2:7 3:7 1:14 2:5 1:3
2:0 3:13 1:13 2:10 1:15 2:7 3:7 1:14 2:5 1:3 2:12
3:0 1:13 2:10 1:15 2:7 3:7 1:14 2:5 1:3 2:12 1:18
1:0 2:10 1:15 2:7 3:7 1:14 2:5 1:3 2:12 1:18 2:1
2:0 1:15 2:7 3:7 1:14 2:5 1:3 2:12 1:18 2:1 3:8
1:0 2:7 3:7 1:14 2:5 1:3 2:12 1:18 2:1 3:8 1:17
2:0 3:7 1:14 2:5 1:3 2:12 1:18 2:1 3:8 1:17 2:13
3:0 1:14 2:5 1:3 2:12 1:18 2:1 3:8 1:17 2:13 3:10
1:0 2:5 1:3 2:12 1:18 2:1 3:8 1:17 2:13 3:10 1:10
2:0 1:3 2:12 1:18 2:1 3:8 1:17 2:13 3:10 1:10 2:3
1:0 2:12 1:18 2:1 3:8 1:17 2:13 3:10 1:10 2:3 1:14
2:0 1:18 2:1 3:8 1:17 2:13 3:10 1:10 2:3 1:14 2:10
1:0 2:1 3:8 1:17 2:13 3:10 1:10 2:3 1:14 2:10 3:9
2:0 3:8 1:17 2:13 3:10 1:10 2:3 1:14 2:10 3:9 1:12
3:0 1:17 2:13 3:10 1:10 2:3 1:14 2:10 3:9 1:12 2:5
1:0 2:13 3:10 1:10 2:3 1:14 2:10 3:9 1:12 2:5 1:2
2:0 3:10 1:10 2:3 1:14 2:10 3:9 1:12 2:5 1:2 2:12
3:0 1:10 2:3 1:14 2:10 3:9 1:12 2:5 1:2 2:12 3:26
1:0 2:3 1:14 2:10 3:9 1:12 2:5 1:2 2:12 3:26 1:15
2:0 1:14 2:10 3:9 1:12 2:5 1:2 2:12 3:26 1:15 2:5
1:0 2:10 3:9 1:12 2:5 1:2 2:12 3:26 1:15 2:5 1:1
2:0 3:9 1:12 2:5 1:2 2:12 3:26 1:15 2:5 1:1 2:9
3:0 1:12 2:5 1:2 2:12 3:26 1:15 2:5 1:1 2:9 3:10
1:0 2:5 1:2 2:12 3:26 1:15 2:5 1:1 2:9 3:10 1:10
2:0 1:2 2:12 3:26 1:15 2:5 1:1 2:9 3:10 1:10 2:5
1:0 2:12 3:26 1:15 2:5 1:1 2:9 3:10 1:10 2:5 1:4
2:0 3:26 1:15 2:5 1:1 2:9 3:10 1:10 2:5 1:4 2:8
3:0 1:15 2:5 1:1 2:9 3:10 1:10 2:5 1:4 2:8 1:1
1:0 2:5 1:1 2:9 3:10 1:10 2:5 1:4 2:8 1:1 2:1
2:0 1:1 2:9 3:10 1:10 2:5 1:4 2:8 1:1 2:1 3:12
1:0 2:9 3:10 1:10 2:5 1:4 2:8 1:1 2:1 3:12 1:12
2:0 3:10 1:10 2:5 1:4 2:8 1:1 2:1 3:12 1:12 2:10
3:0 1:10 2:5 1:4 2:8 1:1 2:1 3:12 1:12 2:10 1:14
1:0 2:5 1:4 2:8 1:1 2:1 3:12 1:12 2:10 1:14 2:2
2:0 1:4 2:8 1:1 2:1 3:12 1:12 2:10 1:14 2:2 1:1
1:0 2:8 1:1 2:1 3:12 1:12 2:10 1:14 2:2 1:1 2:4
2:0 1:1 2:1 3:12 1:12 2:10 1:14 2:2 1:1 2:4 3:8
1:0 2:1 3:12 1:12 2:10 1:14 2:2 1:1 2:4 3:8 1:15
2:0 3:12 1:12 2:10 1:14 2:2 1:1 2:4 3:8 1:15 2:4
3:0 1:12 2:10 1:14 2:2 1:1 2:4 3:8 1:15 2:4 1:5
1:0 2:10 1:14 2:2 1:1 2:4 3:8 1:15 2:4 1:5 2:10
2:0 1:14 2:2 1:1 2:4 3:8 1:15 2:4 1:5 2:10 3:11
1:0 2:2 1:1 2:4 3:8 1:15 2:4 1:5 2:10 3:11 1:11
2:0 1:1 2:4 3:8 1:15 2:4 1:5 2:10 3:11 1:11 2:11
1:0 2:4 3:8 1:15 2:4 1:5 2:10 3:11 1:11 2:11 1:15
2:0 3:8 1:15 2:4 1:5 2:10 3:11 1:11 2:11 1:15 2:6
3:0 1:15 2:4 1:5 2:10 3:11 1:11 2:11 1:15 2:6 3:7
1:0 2:4 1:5 2:10 3:11 1:11 2:11 1:15 2:6 3:7 1:14
2:0 1:5 2:10 3:11 1:11 2:11 1:15 2:6 3:7 1:14 2:5
1:0 2:10 3:11 1:11 2:11 1:15 2:6 3:7 1:14 2:5 1:12
2:0 3:11 1:11 2:11 1:15 2:6 3:7 1:14 2:5 1:12 2:11
3:0 1:11 2:11 1:15 2:6 3:7 1:14 2:5 1:12 2:11 3:10
1:0 2:11 1:15 2:6 3:7 1:14 2:5 1:12 2:11 3:10 1:12
2:0 1:15 2:6 3:7 1:14 2:5 1:12 2:11 3:10 1:12 2:4
1:0 2:6 3:7 1:14 2:5 1:12 2:11 3:10 1:12 2:4 1:2
2:0 3:7 1:14 2:5 1:12 2:11 3:10 1:12 2:4 1:2 2:2
3:0 1:14 2:5 1:12 2:11 3:10 1:12 2:4 1:2 2:2 1:1
1:0 2:5 1:12 2:11 3:10 1:12 2:4 1:2 2:2 1:1 2:2
2:0 1:12 2:11 3:10 1:12 2:4 1:2 2:2 1:1 2:2 1:6
1:0 2:11 3:10 1:12 2:4 1:2 2:2 1:1 2:2 1:6 2:1
2:0 3:10 1:12 2:4 1:2 2:2 1:1 2:2 1:6 2:1 1:2
3:0 1:12 2:4 1:2 2:2 1:1 2:2 1:6 2:1 1:2 2:6
1:0 2:4 1:2 2:2 1:1 2:2 1:6 2:1 1:2 2:6 3:8
2:0 1:2 2:2 1:1 2:2 1:6 2:1 1:2 2:6 3:8 1:13
1:0 2:2 1:1 2:2 1:6 2:1 1:2 2:6 3:8 1:13 2:4
2:0 1:1 2:2 1:6 2:1 1:2 2:6 3:8 1:13 2:4 1:5
1:0 2:2 1:6 2:1 1:2 2:6 3:8 1:13 2:4 1:5 2:5
2:0 1:6 2:1 1:2 2:6 3:8 1:13 2:4 1:5 2:5 1:1
1:0 2:1 1:2 2:6 3:8 1:13 2:4 1:5 2:5 1:1 2:2
2:0 1:2 2:6 3:8 1:13 2:4 1:5 2:5 1:1 2:2 3:17
1:0 2:6 3:8 1:13 2:4 1:5 2:5 1:1 2:2 3:17 1:11
2:0 3:8 1:13 2:4 1:5 2:5 1:1 2:2 3:17 1:11 2:7
3:0 1:13 2:4 1:5 2:5 1:1 2:2 3:17 1:11 2:7 1:2
1:0 2:4 1:5 2:5 1:1 2:2 3:17 1:11 2:7 1:2 2:1
2:0 1:5 2:5 1:1 2:2 3:17 1:11 2:7 1:2 2:1 1:15
1:0 2:5 1:1 2:2 3:17 1:11 2:7 1:2 2:1 1:15 2:3
2:0 1:1 2:2 3:17 1:11 2:7 1:2 2:1 1:15 2:3 3:7
1:0 2:2 3:17 1:11 2:7 1:2 2:1 1:15 2:3 3:7 1:15
2:0 3:17 1:11 2:7 1:2 2:1 1:15 2:3 3:7 1:15 2:5
3:0 1:11 2:7 1:2 2:1 1:15 2:3 3:7 1:15 2:5 1:1
1:0 2:7 1:2 2:1 1:15 2:3 3:7 1:15 2:5 1:1 2:2
2:0 1:2 2:1 1:15 2:3 3:7 1:15 2:5 1:1 2:2 1:2
1:0 2:1 1:15 2:3 3:7 1:15 2:5 1:1 2:2 1:2 2:11
2:0 1:15 2:3 3:7 1:15 2:5 1:1 2:2 1:2 2:11 3:13
1:0 2:3 3:7 1:15 2:5 1:1 2:2 1:2 2:11 3:13 1:11
2:0 3:7 1:15 2:5 1:1 2:2 1:2 2:11 3:13 1:11 2:8
3:0 1:15 2:5 1:1 2:2 1:2 2:11 3:13 1:11 2:8 1:11
1:0 2:5 1:1 2:2 1:2 2:11 3:13 1:11 2:8 1:11 2:1
2:0 1:1 2:2 1:2 2:11 3:13 1:11 2:8 1:11 2:1 1:2
1:0 2:2 1:2 2:11 3:13 1:11 2:8 1:11 2:1 1:2 2:1
2:0 1:2 2:11 3:13 1:11 2:8 1:11 2:1 1:2 2:1 1:1
1:0 2:11 3:13 1:11 2:8 1:11 2:1 1:2 2:1 1:1 2:6
2:0 3:13 1:11 2:8 1:11 2:1 1:2 2:1 1:1 2:6 3:8
3:0 1:11 2:8 1:11 2:1 1:2 2:1 1:1 2:6 3:8 1:14
1:0 2:8 1:11 2:1 1:2 2:1 1:1 2:6 3:8 1:14 2:5
2:0 1:11 2:1 1:2 2:1 1:1 2:6 3:8 1:14 2:5 1:4
1:0 2:1 1:2 2:1 1:1 2:6 3:8 1:14 2:5 1:4 2:5
2:0 1:2 2:1 1:1 2:6 3:8 1:14 2:5 1:4 2:5 1:2
1:0 2:1 1:1 2:6 3:8 1:14 2:5 1:4 2:5 1:2 2:2
2:0 1:1 2:6 3:8 1:14 2:5 1:4 2:5 1:2 2:2 3:25
1:0 2:6 3:8 1:14 2:5 1:4 2:5 1:2 2:2 3:25 1:19
2:0 3:8 1:14 2:5 1:4 2:5 1:2 2:2 3:25 1:19 2:15
3:0 1:14 2:5 1:4 2:5 1:2 2:2 3:25 1:19 2:15 1:15
1:0 2:5 1:4 2:5 1:2 2:2 3:25 1:19 2:15 1:15 2:7
2:0 1:4 2:5 1:2 2:2 3:25 1:19 2:15 1:15 2:7 3:8
1:0 2:5 1:2 2:2 3:25 1:19 2:15 1:15 2:7 3:8 1:13
2:0 1:2 2:2 3:25 1:19 2:15 1:15 2:7 3:8 1:13 2:6
1:0 2:2 3:25 1:19 2:15 1:15 2:7 3:8 1:13 2:6 1:2
2:0 3:25 1:19 2:15 1:15 2:7 3:8 1:13 2:6 1:2 2:3
3:0 1:19 2:15 1:15 2:7 3:8 1:13 2:6 1:2 2:3 1:6
1:0 2:15 1:15 2:7 3:8 1:13 2:6 1:2 2:3 1:6 2:1
2:0 1:15 2:7 3:8 1:13 2:6 1:2 2:3 1:6 2:1 1:2
1:0 2:7 3:8 1:13 2:6 1:2 2:3 1:6 2:1 1:2 2:1
2:0 3:8 1:13 2:6 1:2 2:3 1:6 2:1 1:2 2:1 1:1
3:0 1:13 2:6 1:2 2:3 1:6 2:1 1:2 2:1 1:1 2:5
1:0 2:6 1:2 2:3 1:6 2:1 1:2 2:1 1:1 2:5 3:9
2:0 1:2 2:3 1:6 2:1 1:2 2:1 1:1 2:5 3:9 1:12
1:0 2:3 1:6 2:1 1:2 2:1 1:1 2:5 3:9 1:12 2:4
2:0 1:6 2:1 1:2 2:1 1:1 2:5 3:9 1:12 2:4 1:1
1:0 2:1 1:2 2:1 1:1 2:5 3:9 1:12 2:4 1:1 2:1
2:0 1:2 2:1 1:1 2:5 3:9 1:12 2:4 1:1 2:1 1:2
1:0 2:1 1:1 2:5 3:9 1:12 2:4 1:1 2:1 1:2 2:10
2:0 1:1 2:5 3:9 1:12 2:4 1:1 2:1 1:2 2:10 3:13
1:0 2:5 3:9 1:12 2:4 1:1 2:1 1:2 2:10 3:13 1:13
2:0 3:9 1:12 2:4 1:1 2:1 1:2 2:10 3:13 1:13 2:8
3:0 1:12 2:4 1:1 2:1 1:2 2:10 3:13 1:13 2:8 3:11
1:0 2:4 1:1 2:1 1:2 2:10 3:13 1:13 2:8 3:11 1:8
2:0 1:1 2:1 1:2 2:10 3:13 1:13 2:8 3:11 1:8 2:6
1:0 2:1 1:2 2:10 3:13 1:13 2:8 3:11 1:8 2:6 1:2
2:0 1:2 2:10 3:13 1:13 2:8 3:11 1:8 2:6 1:2 2:12
1:0 2:10 3:13 1:13 2:8 3:11 1:8 2:6 1:2 2:12 3:21
2:0 3:13 1:13 2:8 3:11 1:8 2:6 1:2 2:12 3:21 1:17
3:0 1:13 2:8 3:11 1:8 2:6 1:2 2:12 3:21 1:17 2:19
1:0 2:8 3:11 1:8 2:6 1:2 2:12 3:21 1:17 2:19 3:11
2:0 3:11 1:8 2:6 1:2 2:12 3:21 1:17 2:19 3:11 1:9
3:0 1:8 2:6 1:2 2:12 3:21 1:17 2:19 3:11 1:9 2:5
1:0 2:6 1:2 2:12 3:21 1:17 2:19 3:11 1:9 2:5 1:2
2:0 1:2 2:12 3:21 1:17 2:19 3:11 1:9 2:5 1:2 2:2
1:0 2:12 3:21 1:17 2:19 3:11 1:9 2:5 1:2 2:2 1:1
2:0 3:21 1:17 2:19 3:11 1:9 2:5 1:2 2:2 1:1 2:1
3:0 1:17 2:19 3:11 1:9 2:5 1:2 2:2 1:1 2:1 1:9
1:0 2:19 3:11 1:9 2:5 1:2 2:2 1:1 2:1 1:9 2:7
2:0 3:11 1:9 2:5 1:2 2:2 1:1 2:1 1:9 2:7 3:8
3:0 1:9 2:5 1:2 2:2 1:1 2:1 1:9 2:7 3:8 1:13
1:0 2:5 1:2 2:2 1:1 2:1 1:9 2:7 3:8 1:13 2:5
2:0 1:2 2:2 1:1 2:1 1:9 2:7 3:8 1:13 2:5 1:13
1:0 2:2 1:1 2:1 1:9 2:7 3:8 1:13 2:5 1:13 2:9
2:0 1:1 2:1 1:9 2:7 3:8 1:13 2:5 1:13 2:9 3:11
1:0 2:1 1:9 2:7 3:8 1:13 2:5 1:13 2:9 3:11 1:12
2:0 1:9 2:7 3:8 1:13 2:5 1:13 2:9 3:11 1:12 2:3
1:0 2:7 3:8 1:13 2:5 1:13 2:9 3:11 1:12 2:3 1:4
2:0 3:8 1:13 2:5 1:13 2:9 3:11 1:12 2:3 1:4 2:3
3:0 1:13 2:5 1:13 2:9 3:11 1:12 2:3 1:4 2:3 1:8
1:0 2:5 1:13 2:9 3:11 1:12 2:3 1:4 2:3 1:8 2:6
2:0 1:13 2:9 3:11 1:12 2:3 1:4 2:3 1:8 2:6 3:8
1:0 2:9 3:11 1:12 2:3 1:4 2:3 1:8 2:6 3:8 1:14
2:0 3:11 1:12 2:3 1:4 2:3 1:8 2:6 3:8 1:14 2:5
3:0 1:12 2:3 1:4 2:3 1:8 2:6 3:8 1:14 2:5 1:4
1:0 2:3 1:4 2:3 1:8 2:6 3:8 1:14 2:5 1:4 2:10
2:0 1:4 2:3 1:8 2:6 3:8 1:14 2:5 1:4 2:10 3:25
1:0 2:3 1:8 2:6 3:8 1:14 2:5 1:4 2:10 3:25 1:17
2:0 1:8 2:6 3:8 1:14 2:5 1:4 2:10 3:25 1:17 2:15
1:0 2:6 3:8 1:14 2:5 1:4 2:10 3:25 1:17 2:15 3:9
2:0 3:8 1:14 2:5 1:4 2:10 3:25 1:17 2:15 3:9 1:9
3:0 1:14 2:5 1:4 2:10 3:25 1:17 2:15 3:9 1:9 2:6
1:0 2:5 1:4 2:10 3:25 1:17 2:15 3:9 1:9 2:6 1:4
2:0 1:4 2:10 3:25 1:17 2:15 3:9 1:9 2:6 1:4 2:11
1:0 2:10 3:25 1:17 2:15 3:9 1:9 2:6 1:4 2:11 3:25
2:0 3:25 1:17 2:15 3:9 1:9 2:6 1:4 2:11 3:25 1:16
3:0 1:17 2:15 3:9 1:9 2:6 1:4 2:11 3:25 1:16 2:16
1:0 2:15 3:9 1:9 2:6 1:4 2:11 3:25 1:16 2:16 1:16
2:0 3:9 1:9 2:6 1:4 2:11 3:25 1:16 2:16 1:16 2:7
3:0 1:9 2:6 1:4 2:11 3:25 1:16 2:16 1:16 2:7 3:7
1:0 2:6 1:4 2:11 3:25 1:16 2:16 1:16 2:7 3:7 1:15
2:0 1:4 2:11 3:25 1:16 2:16 1:16 2:7 3:7 1:15 2:4
1:0 2:11 3:25 1:16 2:16 1:16 2:7 3:7 1:15 2:4 1:1
2:0 3:25 1:16 2:16 1:16 2:7 3:7 1:15 2:4 1:1 2:2
3:0 1:16 2:16 1:16 2:7 3:7 1:15 2:4 1:1 2:2 1:12
1:0 2:16 1:16 2:7 3:7 1:15 2:4 1:1 2:2 1:12 2:6
2:0 1:16 2:7 3:7 1:15 2:4 1:1 2:2 1:12 2:6 5:7
1:0 2:7 3:7 1:15 2:4 1:1 2:2 1:12 2:6 5:7 3:1
2:0 3:7 1:15 2:4 1:1 2:2 1:12 2:6 5:7 3:1 1:13
3:0 1:15 2:4 1:1 2:2 1:12 2:6 5:7 3:1 1:13 2:6
1:0 2:4 1:1 2:2 1:12 2:6 5:7 3:1 1:13 2:6 1:2
2:0 1:1 2:2 1:12 2:6 5:7 3:1 1:13 2:6 1:2 2:1
1:0 2:2 1:12 2:6 5:7 3:1 1:13 2:6 1:2 2:1 1:1
2:0 1:12 2:6 5:7 3:1 1:13 2:6 1:2 2:1 1:1 2:11
1:0 2:6 5:7 3:1 1:13 2:6 1:2 2:1 1:1 2:11 3:23
2:0 5:7 3:1 1:13 2:6 1:2 2:1 1:1 2:11 3:23 1:18
5:0 3:1 1:13 2:6 1:2 2:1 1:1 2:11 3:23 1:18 2:15
3:0 1:13 2:6 1:2 2:1 1:1 2:11 3:23 1:18 2:15 3:10
1:0 2:6 1:2 2:1 1:1 2:11 3:23 1:18 2:15 3:10 1:11
2:0 1:2 2:1 1:1 2:11 3:23 1:18 2:15 3:10 1:11 2:5
1:0 2:1 1:1 2:11 3:23 1:18 2:15 3:10 1:11 2:5 1:1
2:0 1:1 2:11 3:23 1:18 2:15 3:10 1:11 2:5 1:1 2:4
1:0 2:11 3:23 1:18 2:15 3:10 1:11 2:5 1:1 2:4 1:6
2:0 3:23 1:18 2:15 3:10 1:11 2:5 1:1 2:4 1:6 2:1
3:0 1:18 2:15 3:10 1:11 2:5 1:1 2:4 1:6 2:1 1:3
1:0 2:15 3:10 1:11 2:5 1:1 2:4 1:6 2:1 1:3 2:6
2:0 3:10 1:11 2:5 1:1 2:4 1:6 2:1 1:3 2:6 3:10
3:0 1:11 2:5 1:1 2:4 1:6 2:1 1:3 2:6 3:10 1:12
1:0 2:5 1:1 2:4 1:6 2:1 1:3 2:6 3:10 1:12 2:3
2:0 1:1 2:4 1:6 2:1 1:3 2:6 3:10 1:12 2:3 1:13
1:0 2:4 1:6 2:1 1:3 2:6 3:10 1:12 2:3 1:13 2:8
2:0 1:6 2:1 1:3 2:6 3:10 1:12 2:3 1:13 2:8 3:10
1:0 2:1 1:3 2:6 3:10 1:12 2:3 1:13 2:8 3:10 1:13
2:0 1:3 2:6 3:10 1:12 2:3 1:13 2:8 3:10 1:13 2:4
1:0 2:6 3:10 1:12 2:3 1:13 2:8 3:10 1:13 2:4 1:2
2:0 3:10 1:12 2:3 1:13 2:8 3:10 1:13 2:4 1:2 2:2
3:0 1:12 2:3 1:13 2:8 3:10 1:13 2:4 1:2 2:2 1:1
1:0 2:3 1:13 2:8 3:10 1:13 2:4 1:2 2:2 1:1 2:10
2:0 1:13 2:8 3:10 1:13 2:4 1:2 2:2 1:1 2:10 1:15
1:0 2:8 3:10 1:13 2:4 1:2 2:2 1:1 2:10 1:15 2:1
2:0 3:10 1:13 2:4 1:2 2:2 1:1 2:10 1:15 2:1 3:8
3:0 1:13 2:4 1:2 2:2 1:1 2:10 1:15 2:1 3:8 1:16
1:0 2:4 1:2 2:2 1:1 2:10 1:15 2:1 3:8 1:16 2:17
2:0 1:2 2:2 1:1 2:10 1:15 2:1 3:8 1:16 2:17 3:11
1:0 2:2 1:1 2:10 1:15 2:1 3:8 1:16 2:17 3:11 1:10
2:0 1:1 2:10 1:15 2:1 3:8 1:16 2:17 3:11 1:10 2:4
1:0 2:10 1:15 2:1 3:8 1:16 2:17 3:11 1:10 2:4 1:1
2:0 1:15 2:1 3:8 1:16 2:17 3:11 1:10 2:4 1:1 2:6
1:0 2:1 3:8 1:16 2:17 3:11 1:10 2:4 1:1 2:6 1:7
2:0 3:8 1:16 2:17 3:11 1:10 2:4 1:1 2:6 1:7 2:1
3:0 1:16 2:17 3:11 1:10 2:4 1:1 2:6 1:7 2:1 1:1
1:0 2:17 3:11 1:10 2:4 1:1 2:6 1:7 2:1 1:1 2:5
2:0 3:11 1:10 2:4 1:1 2:6 1:7 2:1 1:1 2:5 3:7
3:0 1:10 2:4 1:1 2:6 1:7 2:1 1:1 2:5 3:7 1:14
1:0 2:4 1:1 2:6 1:7 2:1 1:1 2:5 3:7 1:14 2:6
2:0 1:1 2:6 1:7 2:1 1:1 2:5 3:7 1:14 2:6 1:4
1:0 2:6 1:7 2:1 1:1 2:5 3:7 1:14 2:6 1:4 2:11
2:0 1:7 2:1 1:1 2:5 3:7 1:14 2:6 1:4 2:11 3:24
1:0 2:1 1:1 2:5 3:7 1:14 2:6 1:4 2:11 3:24 1:17
2:0 1:1 2:5 3:7 1:14 2:6 1:4 2:11 3:24 1:17 2:15
1:0 2:5 3:7 1:14 2:6 1:4 2:11 3:24 1:17 2:15 1:17
2:0 3:7 1:14 2:6 1:4 2:11 3:24 1:17 2:15 1:17 2:5
3:0 1:14 2:6 1:4 2:11 3:24 1:17 2:15 1:17 2:5 3:7
1:0 2:6 1:4 2:11 3:24 1:17 2:15 1:17 2:5 3:7 1:16
2:0 1:4 2:11 3:24 1:17 2:15 1:17 2:5 3:7 1:16 2:4
1:0 2:11 3:24 1:17 2:15 1:17 2:5 3:7 1:16 2:4 1:3
2:0 3:24 1:17 2:15 1:17 2:5 3:7 1:16 2:4 1:3 2:12
3:0 1:17 2:15 1:17 2:5 3:7 1:16 2:4 1:3 2:12 3:11
1:0 2:15 1:17 2:5 3:7 1:16 2:4 1:3 2:12 3:11 1:12
2:0 1:17 2:5 3:7 1:16 2:4 1:3 2:12 3:11 1:12 2:10
1:0 2:5 3:7 1:16 2:4 1:3 2:12 3:11 1:12 2:10 1:3
2:0 3:7 1:16 2:4 1:3 2:12 3:11 1:12 2:10 1:3 2:1
3:0 1:16 2:4 1:3 2:12 3:11 1:12 2:10 1:3 2:1 1:7
1:0 2:4 1:3 2:12 3:11 1:12 2:10 1:3 2:1 1:7 2:10
2:0 1:3 2:12 3:11 1:12 2:10 1:3 2:1 1:7 2:10 3:8
1:0 2:12 3:11 1:12 2:10 1:3 2:1 1:7 2:10 3:8 1:14
2:0 3:11 1:12 2:10 1:3 2:1 1:7 2:10 3:8 1:14 2:6
3:0 1:12 2:10 1:3 2:1 1:7 2:10 3:8 1:14 2:6 1:2
1:0 2:10 1:3 2:1 1:7 2:10 3:8 1:14 2:6 1:2 2:12
2:0 1:3 2:1 1:7 2:10 3:8 1:14 2:6 1:2 2:12 3:13
1:0 2:1 1:7 2:10 3:8 1:14 2:6 1:2 2:12 3:13 1:13
2:0 1:7 2:10 3:8 1:14 2:6 1:2 2:12 3:13 1:13 2:6
1:0 2:10 3:8 1:14 2:6 1:2 2:12 3:13 1:13 2:6 1:16
2:0 3:8 1:14 2:6 1:2 2:12 3:13 1:13 2:6 1:16 2:1
3:0 1:14 2:6 1:2 2:12 3:13 1:13 2:6 1:16 2:1 1:1
1:0 2:6 1:2 2:12 3:13 1:13 2:6 1:16 2:1 1:1 2:4
2:0 1:2 2:12 3:13 1:13 2:6 1:16 2:1 1:1 2:4 3:7
1:0 2:12 3:13 1:13 2:6 1:16 2:1 1:1 2:4 3:7 1:15
2:0 3:13 1:13 2:6 1:16 2:1 1:1 2:4 3:7 1:15 2:5
3:0 1:13 2:6 1:16 2:1 1:1 2:4 3:7 1:15 2:5 1:12
1:0 2:6 1:16 2:1 1:1 2:4 3:7 1:15 2:5 1:12 2:11
2:0 1:16 2:1 1:1 2:4 3:7 1:15 2:5 1:12 2:11 3:9
1:0 2:1 1:1 2:4 3:7 1:15 2:5 1:12 2:11 3:9 1:12
2:0 1:1 2:4 3:7 1:15 2:5 1:12 2:11 3:9 1:12 2:4
1:0 2:4 3:7 1:15 2:5 1:12 2:11 3:9 1:12 2:4 1:2
2:0 3:7 1:15 2:5 1:12 2:11 3:9 1:12 2:4 1:2 2:5
3:0 1:15 2:5 1:12 2:11 3:9 1:12 2:4 1:2 2:5 1:8
1:0 2:5 1:12 2:11 3:9 1:12 2:4 1:2 2:5 1:8 2:7
2:0 1:12 2:11 3:9 1:12 2:4 1:2 2:5 1:8 2:7 3:7
1:0 2:11 3:9 1:12 2:4 1:2 2:5 1:8 2:7 3:7 1:14
2:0 3:9 1:12 2:4 1:2 2:5 1:8 2:7 3:7 1:14 2:5
3:0 1:12 2:4 1:2 2:5 1:8 2:7 3:7 1:14 2:5 1:2
1:0 2:4 1:2 2:5 1:8 2:7 3:7 1:14 2:5 1:2 2:12
2:0 1:2 2:5 1:8 2:7 3:7 1:14 2:5 1:2 2:12 1:7
1:0 2:5 1:8 2:7 3:7 1:14 2:5 1:2 2:12 1:7 2:1
2:0 1:8 2:7 3:7 1:14 2:5 1:2 2:12 1:7 2:1 3:14
1:0 2:7 3:7 1:14 2:5 1:2 2:12 1:7 2:1 3:14 1:17
2:0 3:7 1:14 2:5 1:2 2:12 1:7 2:1 3:14 1:17 2:18
3:0 1:14 2:5 1:2 2:12 1:7 2:1 3:14 1:17 2:18 3:7
1:0 2:5 1:2 2:12 1:7 2:1 3:14 1:17 2:18 3:7 1:11
2:0 1:2 2:12 1:7 2:1 3:14 1:17 2:18 3:7 1:11 2:7
1:0 2:12 1:7 2:1 3:14 1:17 2:18 3:7 1:11 2:7 1:2
2:0 1:7 2:1 3:14 1:17 2:18 3:7 1:11 2:7 1:2 2:16
1:0 2:1 3:14 1:17 2:18 3:7 1:11 2:7 1:2 2:16 3:8
2:0 3:14 1:17 2:18 3:7 1:11 2:7 1:2 2:16 3:8 1:11
3:0 1:17 2:18 3:7 1:11 2:7 1:2 2:16 3:8 1:11 2:11
1:0 2:18 3:7 1:11 2:7 1:2 2:16 3:8 1:11 2:11 1:2
2:0 3:7 1:11 2:7 1:2 2:16 3:8 1:11 2:11 1:2 2:3
3:0 1:11 2:7 1:2 2:16 3:8 1:11 2:11 1:2 2:3 1:7
1:0 2:7 1:2 2:16 3:8 1:11 2:11 1:2 2:3 1:7 2:2
2:0 1:2 2:16 3:8 1:11 2:11 1:2 2:3 1:7 2:2 1:1
1:0 2:16 3:8 1:11 2:11 1:2 2:3 1:7 2:2 1:1 2:8
2:0 3:8 1:11 2:11 1:2 2:3 1:7 2:2 1:1 2:8 3:7
3:0 1:11 2:11 1:2 2:3 1:7 2:2 1:1 2:8 3:7 1:13
1:0 2:11 1:2 2:3 1:7 2:2 1:1 2:8 3:7 1:13 2:5
2:0 1:2 2:3 1:7 2:2 1:1 2:8 3:7 1:13 2:5 1:2
1:0 2:3 1:7 2:2 1:1 2:8 3:7 1:13 2:5 1:2 2:1
2:0 1:7 2:2 1:1 2:8 3:7 1:13 2:5 1:2 2:1 1:1
1:0 2:2 1:1 2:8 3:7 1:13 2:5 1:2 2:1 1:1 2:10
2:0 1:1 2:8 3:7 1:13 2:5 1:2 2:1 1:1 2:10 3:25
1:0 2:8 3:7 1:13 2:5 1:2 2:1 1:1 2:10 3:25 1:19
2:0 3:7 1:13 2:5 1:2 2:1 1:1 2:10 3:25 1:19 2:13
3:0 1:13 2:5 1:2 2:1 1:1 2:10 3:25 1:19 2:13 1:17
1:0 2:5 1:2 2:1 1:1 2:10 3:25 1:19 2:13 1:17 2:7
2:0 1:2 2:1 1:1 2:10 3:25 1:19 2:13 1:17 2:7 3:6
1:0 2:1 1:1 2:10 3:25 1:19 2:13 1:17 2:7 3:6 1:14
2:0 1:1 2:10 3:25 1:19 2:13 1:17 2:7 3:6 1:14 2:5
1:0 2:10 3:25 1:19 2:13 1:17 2:7 3:6 1:14 2:5 1:3
2:0 3:25 1:19 2:13 1:17 2:7 3:6 1:14 2:5 1:3 2:3
3:0 1:19 2:13 1:17 2:7 3:6 1:14 2:5 1:3 2:3 1:6
1:0 2:13 1:17 2:7 3:6 1:14 2:5 1:3 2:3 1:6 2:3
2:0 1:17 2:7 3:6 1:14 2:5 1:3 2:3 1:6 2:3 1:2
1:0 2:7 3:6 1:14 2:5 1:3 2:3 1:6 2:3 1:2 2:4
2:0 3:6 1:14 2:5 1:3 2:3 1:6 2:3 1:2 2:4 3:9
3:0 1:14 2:5 1:3 2:3 1:6 2:3 1:2 2:4 3:9 1:13
1:0 2:5 1:3 2:3 1:6 2:3 1:2 2:4 3:9 1:13 2:6
2:0 1:3 2:3 1:6 2:3 1:2 2:4 3:9 1:13 2:6 1:2
1:0 2:3 1:6 2:3 1:2 2:4 3:9 1:13 2:6 1:2 2:4
2:0 1:6 2:3 1:2 2:4 3:9 1:13 2:6 1:2 2:4 1:8
1:0 2:3 1:2 2:4 3:9 1:13 2:6 1:2 2:4 1:8 2:7
2:0 1:2 2:4 3:9 1:13 2:6 1:2 2:4 1:8 2:7 3:9
1:0 2:4 3:9 1:13 2:6 1:2 2:4 1:8 2:7 3:9 1:13
2:0 3:9 1:13 2:6 1:2 2:4 1:8 2:7 3:9 1:13 2:4
3:0 1:13 2:6 1:2 2:4 1:8 2:7 3:9 1:13 2:4 1:12
1:0 2:6 1:2 2:4 1:8 2:7 3:9 1:13 2:4 1:12 2:11
2:0 1:2 2:4 1:8 2:7 3:9 1:13 2:4 1:12 2:11 3:9
1:0 2:4 1:8 2:7 3:9 1:13 2:4 1:12 2:11 3:9 1:12
2:0 1:8 2:7 3:9 1:13 2:4 1:12 2:11 3:9 1:12 2:5
1:0 2:7 3:9 1:13 2:4 1:12 2:11 3:9 1:12 2:5 1:2
2:0 3:9 1:13 2:4 1:12 2:11 3:9 1:12 2:5 1:2 2:9
3:0 1:13 2:4 1:12 2:11 3:9 1:12 2:5 1:2 2:9 1:1
1:0 2:4 1:12 2:11 3:9 1:12 2:5 1:2 2:9 1:1 2:2
2:0 1:12 2:11 3:9 1:12 2:5 1:2 2:9 1:1 2:2 3:12
1:0 2:11 3:9 1:12 2:5 1:2 2:9 1:1 2:2 3:12 1:11
2:0 3:9 1:12 2:5 1:2 2:9 1:1 2:2 3:12 1:11 2:10
3:0 1:12 2:5 1:2 2:9 1:1 2:2 3:12 1:11 2:10 3:9
1:0 2:5 1:2 2:9 1:1 2:2 3:12 1:11 2:10 3:9 1:10
2:0 1:2 2:9 1:1 2:2 3:12 1:11 2:10 3:9 1:10 2:4
1:0 2:9 1:1 2:2 3:12 1:11 2:10 3:9 1:10 2:4 1:3
2:0 1:1 2:2 3:12 1:11 2:10 3:9 1:10 2:4 1:3 2:11
1:0 2:2 3:12 1:11 2:10 3:9 1:10 2:4 1:3 2:11 3:26
2:0 3:12 1:11 2:10 3:9 1:10 2:4 1:3 2:11 3:26 1:19
3:0 1:11 2:10 3:9 1:10 2:4 1:3 2:11 3:26 1:19 2:14
1:0 2:10 3:9 1:10 2:4 1:3 2:11 3:26 1:19 2:14 1:15
2:0 3:9 1:10 2:4 1:3 2:11 3:26 1:19 2:14 1:15 2:7
3:0 1:10 2:4 1:3 2:11 3:26 1:19 2:14 1:15 2:7 3:8
1:0 2:4 1:3 2:11 3:26 1:19 2:14 1:15 2:7 3:8 1:14
2:0 1:3 2:11 3:26 1:19 2:14 1:15 2:7 3:8 1:14 2:4
1:0 2:11 3:26 1:19 2:14 1:15 2:7 3:8 1:14 2:4 1:2
2:0 3:26 1:19 2:14 1:15 2:7 3:8 1:14 2:4 1:2 2:1
3:0 1:19 2:14 1:15 2:7 3:8 1:14 2:4 1:2 2:1 1:1
1:0 2:14 1:15 2:7 3:8 1:14 2:4 1:2 2:1 1:1 2:10
2:0 1:15 2:7 3:8 1:14 2:4 1:2 2:1 1:1 2:10 3:13
1:0 2:7 3:8 1:14 2:4 1:2 2:1 1:1 2:10 3:13 1:10
2:0 3:8 1:14 2:4 1:2 2:1 1:1 2:10 3:13 1:10 2:11
3:0 1:14 2:4 1:2 2:1 1:1 2:10 3:13 1:10 2:11 1:16
1:0 2:4 1:2 2:1 1:1 2:10 3:13 1:10 2:11 1:16 2:5
2:0 1:2 2:1 1:1 2:10 3:13 1:10 2:11 1:16 2:5 3:7
1:0 2:1 1:1 2:10 3:13 1:10 2:11 1:16 2:5 3:7 1:15
2:0 1:1 2:10 3:13 1:10 2:11 1:16 2:5 3:7 1:15 2:4
1:0 2:10 3:13 1:10 2:11 1:16 2:5 3:7 1:15 2:4 1:13
2:0 3:13 1:10 2:11 1:16 2:5 3:7 1:15 2:4 1:13 2:11
3:0 1:10 2:11 1:16 2:5 3:7 1:15 2:4 1:13 2:11 3:9
1:0 2:11 1:16 2:5 3:7 1:15 2:4 1:13 2:11 3:9 1:12
2:0 1:16 2:5 3:7 1:15 2:4 1:13 2:11 3:9 1:12 2:3
1:0 2:5 3:7 1:15 2:4 1:13 2:11 3:9 1:12 2:3 1:4
2:0 3:7 1:15 2:4 1:13 2:11 3:9 1:12 2:3 1:4 2:6
3:0 1:15 2:4 1:13 2:11 3:9 1:12 2:3 1:4 2:6 1:1
1:0 2:4 1:13 2:11 3:9 1:12 2:3 1:4 2:6 1:1 2:5
2:0 1:13 2:11 3:9 1:12 2:3 1:4 2:6 1:1 2:5 1:18
1:0 2:11 3:9 1:12 2:3 1:4 2:6 1:1 2:5 1:18 2:2
2:0 3:9 1:12 2:3 1:4 2:6 1:1 2:5 1:18 2:2 3:3
3:0 1:12 2:3 1:4 2:6 1:1 2:5 1:18 2:2 3:3 1:17
1:0 2:3 1:4 2:6 1:1 2:5 1:18 2:2 3:3 1:17 2:17
2:0 1:4 2:6 1:1 2:5 1:18 2:2 3:3 1:17 2:17 1:12
1:0 2:6 1:1 2:5 1:18 2:2 3:3 1:17 2:17 1:12 2:1
2:0 1:1 2:5 1:18 2:2 3:3 1:17 2:17 1:12 2:1 1:2
1:0 2:5 1:18 2:2 3:3 1:17 2:17 1:12 2:1 1:2 2:5
2:0 1:18 2:2 3:3 1:17 2:17 1:12 2:1 1:2 2:5 3:8
1:0 2:2 3:3 1:17 2:17 1:12 2:1 1:2 2:5 3:8 1:15
2:0 3:3 1:17 2:17 1:12 2:1 1:2 2:5 3:8 1:15 2:5
3:0 1:17 2:17 1:12 2:1 1:2 2:5 3:8 1:15 2:5 1:13
1:0 2:17 1:12 2:1 1:2 2:5 3:8 1:15 2:5 1:13 2:9
2:0 1:12 2:1 1:2 2:5 3:8 1:15 2:5 1:13 2:9 3:10
1:0 2:1 1:2 2:5 3:8 1:15 2:5 1:13 2:9 3:10 1:13
2:0 1:2 2:5 3:8 1:15 2:5 1:13 2:9 3:10 1:13 2:2
1:0 2:5 3:8 1:15 2:5 1:13 2:9 3:10 1:13 2:2 1:2
2:0 3:8 1:15 2:5 1:13 2:9 3:10 1:13 2:2 1:2 2:12
3:0 1:15 2:5 1:13 2:9 3:10 1:13 2:2 1:2 2:12 3:13
1:0 2:5 1:13 2:9 3:10 1:13 2:2 1:2 2:12 3:13 1:12
2:0 1:13 2:9 3:10 1:13 2:2 1:2 2:12 3:13 1:12 2:10
1:0 2:9 3:10 1:13 2:2 1:2 2:12 3:13 1:12 2:10 1:13
2:0 3:10 1:13 2:2 1:2 2:12 3:13 1:12 2:10 1:13 2:1
3:0 1:13 2:2 1:2 2:12 3:13 1:12 2:10 1:13 2:1 1:1
1:0 2:2 1:2 2:12 3:13 1:12 2:10 1:13 2:1 1:1 2:7
2:0 1:2 2:12 3:13 1:12 2:10 1:13 2:1 1:1 2:7 3:7
1:0 2:12 3:13 1:12 2:10 1:13 2:1 1:1 2:7 3:7 1:14
2:0 3:13 1:12 2:10 1:13 2:1 1:1 2:7 3:7 1:14 2:5
3:0 1:12 2:10 1:13 2:1 1:1 2:7 3:7 1:14 2:5 1:2
1:0 2:10 1:13 2:1 1:1 2:7 3:7 1:14 2:5 1:2 2:12
2:0 1:13 2:1 1:1 2:7 3:7 1:14 2:5 1:2 2:12 3:13
1:0 2:1 1:1 2:7 3:7 1:14 2:5 1:2 2:12 3:13 1:11
2:0 1:1 2:7 3:7 1:14 2:5 1:2 2:12 3:13 1:11 2:9
1:0 2:7 3:7 1:14 2:5 1:2 2:12 3:13 1:11 2:9 1:3
2:0 3:7 1:14 2:5 1:2 2:12 3:13 1:11 2:9 1:3 2:1
3:0 1:14 2:5 1:2 2:12 3:13 1:11 2:9 1:3 2:1 1:8
1:0 2:5 1:2 2:12 3:13 1:11 2:9 1:3 2:1 1:8 2:1
2:0 1:2 2:12 3:13 1:11 2:9 1:3 2:1 1:8 2:1 1:5
1:0 2:12 3:13 1:11 2:9 1:3 2:1 1:8 2:1 1:5 2:3
2:0 3:13 1:11 2:9 1:3 2:1 1:8 2:1 1:5 2:3 1:1
3:0 1:11 2:9 1:3 2:1 1:8 2:1 1:5 2:3 1:1 2:1
1:0 2:9 1:3 2:1 1:8 2:1 1:5 2:3 1:1 2:1 3:5
2:0 1:3 2:1 1:8 2:1 1:5 2:3 1:1 2:1 3:5 1:16
1:0 2:1 1:8 2:1 1:5 2:3 1:1 2:1 3:5 1:16 2:5
2:0 1:8 2:1 1:5 2:3 1:1 2:1 3:5 1:16 2:5 1:2
1:0 2:1 1:5 2:3 1:1 2:1 3:5 1:16 2:5 1:2 2:5
2:0 1:5 2:3 1:1 2:1 3:5 1:16 2:5 1:2 2:5 1:6
1:0 2:3 1:1 2:1 3:5 1:16 2:5 1:2 2:5 1:6 2:10
2:0 1:1 2:1 3:5 1:16 2:5 1:2 2:5 1:6 2:10 3:7
1:0 2:1 3:5 1:16 2:5 1:2 2:5 1:6 2:10 3:7 1:13
2:0 3:5 1:16 2:5 1:2 2:5 1:6 2:10 3:7 1:13 2:5
3:0 1:16 2:5 1:2 2:5 1:6 2:10 3:7 1:13 2:5 1:3
1:0 2:5 1:2 2:5 1:6 2:10 3:7 1:13 2:5 1:3 2:9
2:0 1:2 2:5 1:6 2:10 3:7 1:13 2:5 1:3 2:9 3:20
1:0 2:5 1:6 2:10 3:7 1:13 2:5 1:3 2:9 3:20 1:14
2:0 1:6 2:10 3:7 1:13 2:5 1:3 2:9 3:20 1:14 2:2
1:0 2:10 3:7 1:13 2:5 1:3 2:9 3:20 1:14 2:2 1:12
2:0 3:7 1:13 2:5 1:3 2:9 3:20 1:14 2:2 1:12 2:10
3:0 1:13 2:5 1:3 2:9 3:20 1:14 2:2 1:12 2:10 3:8
1:0 2:5 1:3 2:9 3:20 1:14 2:2 1:12 2:10 3:8 1:14
2:0 1:3 2:9 3:20 1:14 2:2 1:12 2:10 3:8 1:14 2:4
1:0 2:9 3:20 1:14 2:2 1:12 2:10 3:8 1:14 2:4 1:3
2:0 3:20 1:14 2:2 1:12 2:10 3:8 1:14 2:4 1:3 2:12
3:0 1:14 2:2 1:12 2:10 3:8 1:14 2:4 1:3 2:12 3:26
1:0 2:2 1:12 2:10 3:8 1:14 2:4 1:3 2:12 3:26 1:17
2:0 1:12 2:10 3:8 1:14 2:4 1:3 2:12 3:26 1:17 2:13
1:0 2:10 3:8 1:14 2:4 1:3 2:12 3:26 1:17 2:13 3:11
2:0 3:8 1:14 2:4 1:3 2:12 3:26 1:17 2:13 3:11 1:10
3:0 1:14 2:4 1:3 2:12 3:26 1:17 2:13 3:11 1:10 2:4
1:0 2:4 1:3 2:12 3:26 1:17 2:13 3:11 1:10 2:4 1:3
2:0 1:3 2:12 3:26 1:17 2:13 3:11 1:10 2:4 1:3 2:8
1:0 2:12 3:26 1:17 2:13 3:11 1:10 2:4 1:3 2:8 1:1
2:0 3:26 1:17 2:13 3:11 1:10 2:4 1:3 2:8 1:1 2:1
3:0 1:17 2:13 3:11 1:10 2:4 1:3 2:8 1:1 2:1 3:16
1:0 2:13 3:11 1:10 2:4 1:3 2:8 1:1 2:1 3:16 1:13
2:0 3:11 1:10 2:4 1:3 2:8 1:1 2:1 3:16 1:13 2:6
3:0 1:10 2:4 1:3 2:8 1:1 2:1 3:16 1:13 2:6 1:1
1:0 2:4 1:3 2:8 1:1 2:1 3:16 1:13 2:6 1:1 2:4
2:0 1:3 2:8 1:1 2:1 3:16 1:13 2:6 1:1 2:4 1:1
1:0 2:8 1:1 2:1 3:16 1:13 2:6 1:1 2:4 1:1 2:8
2:0 1:1 2:1 3:16 1:13 2:6 1:1 2:4 1:1 2:8 1:19
1:0 2:1 3:16 1:13 2:6 1:1 2:4 1:1 2:8 1:19 2:1
2:0 3:16 1:13 2:6 1:1 2:4 1:1 2:8 1:19 2:1 3:5
3:0 1:13 2:6 1:1 2:4 1:1 2:8 1:19 2:1 3:5 1:17
1:0 2:6 1:1 2:4 1:1 2:8 1:19 2:1 3:5 1:17 2:15
2:0 1:1 2:4 1:1 2:8 1:19 2:1 3:5 1:17 2:15 1:17
1:0 2:4 1:1 2:8 1:19 2:1 3:5 1:17 2:15 1:17 2:1
2:0 1:1 2:8 1:19 2:1 3:5 1:17 2:15 1:17 2:1 1:4
1:0 2:8 1:19 2:1 3:5 1:17 2:15 1:17 2:1 1:4 2:1
2:0 1:19 2:1 3:5 1:17 2:15 1:17 2:1 1:4 2:1 3:5
1:0 2:1 3:5 1:17 2:15 1:17 2:1 1:4 2:1 3:5 1:15
2:0 3:5 1:17 2:15 1:17 2:1 1:4 2:1 3:5 1:15 2:5
3:0 1:17 2:15 1:17 2:1 1:4 2:1 3:5 1:15 2:5 1:2
1:0 2:15 1:17 2:1 1:4 2:1 3:5 1:15 2:5 1:2 2:13
2:0 1:17 2:1 1:4 2:1 3:5 1:15 2:5 1:2 2:13 3:14
1:0 2:1 1:4 2:1 3:5 1:15 2:5 1:2 2:13 3:14 1:11
2:0 1:4 2:1 3:5 1:15 2:5 1:2 2:13 3:14 1:11 2:9
1:0 2:1 3:5 1:15 2:5 1:2 2:13 3:14 1:11 2:9 1:17
2:0 3:5 1:15 2:5 1:2 2:13 3:14 1:11 2:9 1:17 2:3
3:0 1:15 2:5 1:2 2:13 3:14 1:11 2:9 1:17 2:3 3:7
1:0 2:5 1:2 2:13 3:14 1:11 2:9 1:17 2:3 3:7 1:15
2:0 1:2 2:13 3:14 1:11 2:9 1:17 2:3 3:7 1:15 2:5
1:0 2:13 3:14 1:11 2:9 1:17 2:3 3:7 1:15 2:5 1:1
2:0 3:14 1:11 2:9 1:17 2:3 3:7 1:15 2:5 1:1 2:1
3:0 1:11 2:9 1:17 2:3 3:7 1:15 2:5 1:1 2:1 1:1
1:0 2:9 1:17 2:3 3:7 1:15 2:5 1:1 2:1 1:1 2:2
2:0 1:17 2:3 3:7 1:15 2:5 1:1 2:1 1:1 2:2 1:1
1:0 2:3 3:7 1:15 2:5 1:1 2:1 1:1 2:2 1:1 2:9
2:0 3:7 1:15 2:5 1:1 2:1 1:1 2:2 1:1 2:9 1:7
3:0 1:15 2:5 1:1 2:1 1:1 2:2 1:1 2:9 1:7 2:1
1:0 2:5 1:1 2:1 1:1 2:2 1:1 2:9 1:7 2:1 1:7
2:0 1:1 2:1 1:1 2:2 1:1 2:9 1:7 2:1 1:7 2:1
1:0 2:1 1:1 2:2 1:1 2:9 1:7 2:1 1:7 2:1 1:3
2:0 1:1 2:2 1:1 2:9 1:7 2:1 1:7 2:1 1:3 2:1
1:0 2:2 1:1 2:9 1:7 2:1 1:7 2:1 1:3 2:1 3:6
2:0 1:1 2:9 1:7 2:1 1:7 2:1 1:3 2:1 3:6 1:16
1:0 2:9 1:7 2:1 1:7 2:1 1:3 2:1 3:6 1:16 2:16
2:0 1:7 2:1 1:7 2:1 1:3 2:1 3:6 1:16 2:16 3:10
1:0 2:1 1:7 2:1 1:3 2:1 3:6 1:16 2:16 3:10 1:10
2:0 1:7 2:1 1:3 2:1 3:6 1:16 2:16 3:10 1:10 2:4
1:0 2:1 1:3 2:1 3:6 1:16 2:16 3:10 1:10 2:4 1:12
2:0 1:3 2:1 3:6 1:16 2:16 3:10 1:10 2:4 1:12 2:2
1:0 2:1 3:6 1:16 2:16 3:10 1:10 2:4 1:12 2:2 1:1
2:0 3:6 1:16 2:16 3:10 1:10 2:4 1:12 2:2 1:1 2:8
3:0 1:16 2:16 3:10 1:10 2:4 1:12 2:2 1:1 2:8 3:10
1:0 2:16 3:10 1:10 2:4 1:12 2:2 1:1 2:8 3:10 1:12
2:0 3:10 1:10 2:4 1:12 2:2 1:1 2:8 3:10 1:12 2:3
3:0 1:10 2:4 1:12 2:2 1:1 2:8 3:10 1:12 2:3 1:1
1:0 2:4 1:12 2:2 1:1 2:8 3:10 1:12 2:3 1:1 2:13
2:0 1:12 2:2 1:1 2:8 3:10 1:12 2:3 1:1 2:13 1:18
1:0 2:2 1:1 2:8 3:10 1:12 2:3 1:1 2:13 1:18 2:2
2:0 1:1 2:8 3:10 1:12 2:3 1:1 2:13 1:18 2:2 3:8
1:0 2:8 3:10 1:12 2:3 1:1 2:13 1:18 2:2 3:8 1:14
2:0 3:10 1:12 2:3 1:1 2:13 1:18 2:2 3:8 1:14 2:15
3:0 1:12 2:3 1:1 2:13 1:18 2:2 3:8 1:14 2:15 1:16
1:0 2:3 1:1 2:13 1:18 2:2 3:8 1:14 2:15 1:16 2:6
2:0 1:1 2:13 1:18 2:2 3:8 1:14 2:15 1:16 2:6 3:8
1:0 2:13 1:18 2:2 3:8 1:14 2:15 1:16 2:6 3:8 1:15
2:0 1:18 2:2 3:8 1:14 2:15 1:16 2:6 3:8 1:15 2:3
1:0 2:2 3:8 1:14 2:15 1:16 2:6 3:8 1:15 2:3 1:14
2:0 3:8 1:14 2:15 1:16 2:6 3:8 1:15 2:3 1:14 2:9
3:0 1:14 2:15 1:16 2:6 3:8 1:15 2:3 1:14 2:9 3:9
1:0 2:15 1:16 2:6 3:8 1:15 2:3 1:14 2:9 3:9 1:13
2:0 1:16 2:6 3:8 1:15 2:3 1:14 2:9 3:9 1:13 2:5
1:0 2:6 3:8 1:15 2:3 1:14 2:9 3:9 1:13 2:5 1:3
2:0 3:8 1:15 2:3 1:14 2:9 3:9 1:13 2:5 1:3 2:3
3:0 1:15 2:3 1:14 2:9 3:9 1:13 2:5 1:3 2:3 1:8
1:0 2:3 1:14 2:9 3:9 1:13 2:5 1:3 2:3 1:8 2:2
2:0 1:14 2:9 3:9 1:13 2:5 1:3 2:3 1:8 2:2 1:1
1:0 2:9 3:9 1:13 2:5 1:3 2:3 1:8 2:2 1:1 2:4
2:0 3:9 1:13 2:5 1:3 2:3 1:8 2:2 1:1 2:4 3:7
3:0 1:13 2:5 1:3 2:3 1:8 2:2 1:1 2:4 3:7 1:14
1:0 2:5 1:3 2:3 1:8 2:2 1:1 2:4 3:7 1:14 2:5
2:0 1:3 2:3 1:8 2:2 1:1 2:4 3:7 1:14 2:5 1:2
1:0 2:3 1:8 2:2 1:1 2:4 3:7 1:14 2:5 1:2 2:5
2:0 1:8 2:2 1:1 2:4 3:7 1:14 2:5 1:2 2:5 1:9
1:0 2:2 1:1 2:4 3:7 1:14 2:5 1:2 2:5 1:9 2:6
2:0 1:1 2:4 3:7 1:14 2:5 1:2 2:5 1:9 2:6 3:9
1:0 2:4 3:7 1:14 2:5 1:2 2:5 1:9 2:6 3:9 1:12
2:0 3:7 1:14 2:5 1:2 2:5 1:9 2:6 3:9 1:12 2:4
3:0 1:14 2:5 1:2 2:5 1:9 2:6 3:9 1:12 2:4 1:2
1:0 2:5 1:2 2:5 1:9 2:6 3:9 1:12 2:4 1:2 2:1
2:0 1:2 2:5 1:9 2:6 3:9 1:12 2:4 1:2 2:1 1:1
1:0 2:5 1:9 2:6 3:9 1:12 2:4 1:2 2:1 1:1 2:10
2:0 1:9 2:6 3:9 1:12 2:4 1:2 2:1 1:1 2:10 3:13
1:0 2:6 3:9 1:12 2:4 1:2 2:1 1:1 2:10 3:13 1:12
2:0 3:9 1:12 2:4 1:2 2:1 1:1 2:10 3:13 1:12 2:10
3:0 1:12 2:4 1:2 2:1 1:1 2:10 3:13 1:12 2:10 1:16
1:0 2:4 1:2 2:1 1:1 2:10 3:13 1:12 2:10 1:16 2:5
2:0 1:2 2:1 1:1 2:10 3:13 1:12 2:10 1:16 2:5 3:7
1:0 2:1 1:1 2:10 3:13 1:12 2:10 1:16 2:5 3:7 1:15
2:0 1:1 2:10 3:13 1:12 2:10 1:16 2:5 3:7 1:15 2:5
1:0 2:10 3:13 1:12 2:10 1:16 2:5 3:7 1:15 2:5 1:3
2:0 3:13 1:12 2:10 1:16 2:5 3:7 1:15 2:5 1:3 2:3
3:0 1:12 2:10 1:16 2:5 3:7 1:15 2:5 1:3 2:3 1:6
1:0 2:10 1:16 2:5 3:7 1:15 2:5 1:3 2:3 1:6 2:1
2:0 1:16 2:5 3:7 1:15 2:5 1:3 2:3 1:6 2:1 1:2
1:0 2:5 3:7 1:15 2:5 1:3 2:3 1:6 2:1 1:2 2:7
2:0 3:7 1:15 2:5 1:3 2:3 1:6 2:1 1:2 2:7 3:9
3:0 1:15 2:5 1:3 2:3 1:6 2:1 1:2 2:7 3:9 1:13
1:0 2:5 1:3 2:3 1:6 2:1 1:2 2:7 3:9 1:13 2:4
2:0 1:3 2:3 1:6 2:1 1:2 2:7 3:9 1:13 2:4 1:3
1:0 2:3 1:6 2:1 1:2 2:7 3:9 1:13 2:4 1:3 2:5
2:0 1:6 2:1 1:2 2:7 3:9 1:13 2:4 1:3 2:5 1:8
1:0 2:1 1:2 2:7 3:9 1:13 2:4 1:3 2:5 1:8 2:7
2:0 1:2 2:7 3:9 1:13 2:4 1:3 2:5 1:8 2:7 3:9
1:0 2:7 3:9 1:13 2:4 1:3 2:5 1:8 2:7 3:9 1:12
2:0 3:9 1:13 2:4 1:3 2:5 1:8 2:7 3:9 1:12 2:4
3:0 1:13 2:4 1:3 2:5 1:8 2:7 3:9 1:12 2:4 1:4
1:0 2:4 1:3 2:5 1:8 2:7 3:9 1:12 2:4 1:4 2:1
2:0 1:3 2:5 1:8 2:7 3:9 1:12 2:4 1:4 2:1 1:7
1:0 2:5 1:8 2:7 3:9 1:12 2:4 1:4 2:1 1:7 2:10
2:0 1:8 2:7 3:9 1:12 2:4 1:4 2:1 1:7 2:10 3:9
1:0 2:7 3:9 1:12 2:4 1:4 2:1 1:7 2:10 3:9 1:12
2:0 3:9 1:12 2:4 1:4 2:1 1:7 2:10 3:9 1:12 2:6
3:0 1:12 2:4 1:4 2:1 1:7 2:10 3:9 1:12 2:6 1:2
1:0 2:4 1:4 2:1 1:7 2:10 3:9 1:12 2:6 1:2 2:1
2:0 1:4 2:1 1:7 2:10 3:9 1:12 2:6 1:2 2:1 1:1
1:0 2:1 1:7 2:10 3:9 1:12 2:6 1:2 2:1 1:1 2:9
2:0 1:7 2:10 3:9 1:12 2:6 1:2 2:1 1:1 2:9 3:23
1:0 2:10 3:9 1:12 2:6 1:2 2:1 1:1 2:9 3:23 1:18
2:0 3:9 1:12 2:6 1:2 2:1 1:1 2:9 3:23 1:18 2:17
3:0 1:12 2:6 1:2 2:1 1:1 2:9 3:23 1:18 2:17 1:13
1:0 2:6 1:2 2:1 1:1 2:9 3:23 1:18 2:17 1:13 2:8
2:0 1:2 2:1 1:1 2:9 3:23 1:18 2:17 1:13 2:8 3:8
1:0 2:1 1:1 2:9 3:23 1:18 2:17 1:13 2:8 3:8 1:15
2:0 1:1 2:9 3:23 1:18 2:17 1:13 2:8 3:8 1:15 2:3
1:0 2:9 3:23 1:18 2:17 1:13 2:8 3:8 1:15 2:3 1:13
2:0 3:23 1:18 2:17 1:13 2:8 3:8 1:15 2:3 1:13 2:11
3:0 1:18 2:17 1:13 2:8 3:8 1:15 2:3 1:13 2:11 3:9
1:0 2:17 1:13 2:8 3:8 1:15 2:3 1:13 2:11 3:9 1:12
2:0 1:13 2:8 3:8 1:15 2:3 1:13 2:11 3:9 1:12 2:3
1:0 2:8 3:8 1:15 2:3 1:13 2:11 3:9 1:12 2:3 1:4
2:0 3:8 1:15 2:3 1:13 2:11 3:9 1:12 2:3 1:4 2:4
3:0 1:15 2:3 1:13 2:11 3:9 1:12 2:3 1:4 2:4 1:8
1:0 2:3 1:13 2:11 3:9 1:12 2:3 1:4 2:4 1:8 2:6
2:0 1:13 2:11 3:9 1:12 2:3 1:4 2:4 1:8 2:6 3:8
1:0 2:11 3:9 1:12 2:3 1:4 2:4 1:8 2:6 3:8 1:14
2:0 3:9 1:12 2:3 1:4 2:4 1:8 2:6 3:8 1:14 2:5
3:0 1:12 2:3 1:4 2:4 1:8 2:6 3:8 1:14 2:5 1:2
1:0 2:3 1:4 2:4 1:8 2:6 3:8 1:14 2:5 1:2 2:14
2:0 1:4 2:4 1:8 2:6 3:8 1:14 2:5 1:2 2:14 1:13
1:0 2:4 1:8 2:6 3:8 1:14 2:5 1:2 2:14 1:13 2:2
2:0 1:8 2:6 3:8 1:14 2:5 1:2 2:14 1:13 2:2 3:11
1:0 2:6 3:8 1:14 2:5 1:2 2:14 1:13 2:2 3:11 1:15
2:0 3:8 1:14 2:5 1:2 2:14 1:13 2:2 3:11 1:15 2:14
3:0 1:14 2:5 1:2 2:14 1:13 2:2 3:11 1:15 2:14 3:8
1:0 2:5 1:2 2:14 1:13 2:2 3:11 1:15 2:14 3:8 1:11
2:0 1:2 2:14 1:13 2:2 3:11 1:15 2:14 3:8 1:11 2:8
1:0 2:14 1:13 2:2 3:11 1:15 2:14 3:8 1:11 2:8 1:2
2:0 1:13 2:2 3:11 1:15 2:14 3:8 1:11 2:8 1:2 2:14
1:0 2:2 3:11 1:15 2:14 3:8 1:11 2:8 1:2 2:14 3:26
2:0 3:11 1:15 2:14 3:8 1:11 2:8 1:2 2:14 3:26 1:15
3:0 1:15 2:14 3:8 1:11 2:8 1:2 2:14 3:26 1:15 2:12
1:0 2:14 3:8 1:11 2:8 1:2 2:14 3:26 1:15 2:12 1:16
2:0 3:8 1:11 2:8 1:2 2:14 3:26 1:15 2:12 1:16 2:1
3:0 1:11 2:8 1:2 2:14 3:26 1:15 2:12 1:16 2:1 1:1
1:0 2:8 1:2 2:14 3:26 1:15 2:12 1:16 2:1 1:1 2:4
2:0 1:2 2:14 3:26 1:15 2:12 1:16 2:1 1:1 2:4 3:7
1:0 2:14 3:26 1:15 2:12 1:16 2:1 1:1 2:4 3:7 1:15
2:0 3:26 1:15 2:12 1:16 2:1 1:1 2:4 3:7 1:15 2:7
3:0 1:15 2:12 1:16 2:1 1:1 2:4 3:7 1:15 2:7 1:2
1:0 2:12 1:16 2:1 1:1 2:4 3:7 1:15 2:7 1:2 2:8
2:0 1:16 2:1 1:1 2:4 3:7 1:15 2:7 1:2 2:8 3:15
1:0 2:1 1:1 2:4 3:7 1:15 2:7 1:2 2:8 3:15 1:12
2:0 1:1 2:4 3:7 1:15 2:7 1:2 2:8 3:15 1:12 2:8
1:0 2:4 3:7 1:15 2:7 1:2 2:8 3:15 1:12 2:8 1:16
2:0 3:7 1:15 2:7 1:2 2:8 3:15 1:12 2:8 1:16 2:5
3:0 1:15 2:7 1:2 2:8 3:15 1:12 2:8 1:16 2:5 3:8
1:0 2:7 1:2 2:8 3:15 1:12 2:8 1:16 2:5 3:8 1:15
2:0 1:2 2:8 3:15 1:12 2:8 1:16 2:5 3:8 1:15 2:5
1:0 2:8 3:15 1:12 2:8 1:16 2:5 3:8 1:15 2:5 1:3
2:0 3:15 1:12 2:8 1:16 2:5 3:8 1:15 2:5 1:3 2:12
3:0 1:12 2:8 1:16 2:5 3:8 1:15 2:5 1:3 2:12 3:11
1:0 2:8 1:16 2:5 3:8 1:15 2:5 1:3 2:12 3:11 1:10
2:0 1:16 2:5 3:8 1:15 2:5 1:3 2:12 3:11 1:10 2:11
1:0 2:5 3:8 1:15 2:5 1:3 2:12 3:11 1:10 2:11 1:12
2:0 3:8 1:15 2:5 1:3 2:12 3:11 1:10 2:11 1:12 2:1
3:0 1:15 2:5 1:3 2:12 3:11 1:10 2:11 1:12 2:1 1:5
1:0 2:5 1:3 2:12 3:11 1:10 2:11 1:12 2:1 1:5 2:4
2:0 1:3 2:12 3:11 1:10 2:11 1:12 2:1 1:5 2:4 3:7
1:0 2:12 3:11 1:10 2:11 1:12 2:1 1:5 2:4 3:7 1:15
2:0 3:11 1:10 2:11 1:12 2:1 1:5 2:4 3:7 1:15 2:5
3:0 1:10 2:11 1:12 2:1 1:5 2:4 3:7 1:15 2:5 1:3
1:0 2:11 1:12 2:1 1:5 2:4 3:7 1:15 2:5 1:3 2:1
2:0 1:12 2:1 1:5 2:4 3:7 1:15 2:5 1:3 2:1 1:8
1:0 2:1 1:5 2:4 3:7 1:15 2:5 1:3 2:1 1:8 2:10
2:0 1:5 2:4 3:7 1:15 2:5 1:3 2:1 1:8 2:10 3:11
1:0 2:4 3:7 1:15 2:5 1:3 2:1 1:8 2:10 3:11 1:11
2:0 3:7 1:15 2:5 1:3 2:1 1:8 2:10 3:11 1:11 2:4
3:0 1:15 2:5 1:3 2:1 1:8 2:10 3:11 1:11 2:4 1:5
1:0 2:5 1:3 2:1 1:8 2:10 3:11 1:11 2:4 1:5 2:2
2:0 1:3 2:1 1:8 2:10 3:11 1:11 2:4 1:5 2:2 1:10
1:0 2:1 1:8 2:10 3:11 1:11 2:4 1:5 2:2 1:10 2:4
2:0 1:8 2:10 3:11 1:11 2:4 1:5 2:2 1:10 2:4 3:9
1:0 2:10 3:11 1:11 2:4 1:5 2:2 1:10 2:4 3:9 1:14
2:0 3:11 1:11 2:4 1:5 2:2 1:10 2:4 3:9 1:14 2:3
3:0 1:11 2:4 1:5 2:2 1:10 2:4 3:9 1:14 2:3 1:2
1:0 2:4 1:5 2:2 1:10 2:4 3:9 1:14 2:3 1:2 2:1
2:0 1:5 2:2 1:10 2:4 3:9 1:14 2:3 1:2 2:1 1:1
1:0 2:2 1:10 2:4 3:9 1:14 2:3 1:2 2:1 1:1 2:7
2:0 1:10 2:4 3:9 1:14 2:3 1:2 2:1 1:1 2:7 1:8
1:0 2:4 3:9 1:14 2:3 1:2 2:1 1:1 2:7 1:8 2:3
2:0 3:9 1:14 2:3 1:2 2:1 1:1 2:7 1:8 2:3 1:8
3:0 1:14 2:3 1:2 2:1 1:1 2:7 1:8 2:3 1:8 2:1
1:0 2:3 1:2 2:1 1:1 2:7 1:8 2:3 1:8 2:1 1:1
2:0 1:2 2:1 1:1 2:7 1:8 2:3 1:8 2:1 1:1 2:1
1:0 2:1 1:1 2:7 1:8 2:3 1:8 2:1 1:1 2:1 3:4
2:0 1:1 2:7 1:8 2:3 1:8 2:1 1:1 2:1 3:4 1:17
1:0 2:7 1:8 2:3 1:8 2:1 1:1 2:1 3:4 1:17 2:18
2:0 1:8 2:3 1:8 2:1 1:1 2:1 3:4 1:17 2:18 3:9
1:0 2:3 1:8 2:1 1:1 2:1 3:4 1:17 2:18 3:9 1:10
2:0 1:8 2:1 1:1 2:1 3:4 1:17 2:18 3:9 1:10 2:6
1:0 2:1 1:1 2:1 3:4 1:17 2:18 3:9 1:10 2:6 1:2
2:0 1:1 2:1 3:4 1:17 2:18 3:9 1:10 2:6 1:2 2:12
1:0 2:1 3:4 1:17 2:18 3:9 1:10 2:6 1:2 2:12 1:15
2:0 3:4 1:17 2:18 3:9 1:10 2:6 1:2 2:12 1:15 2:1
3:0 1:17 2:18 3:9 1:10 2:6 1:2 2:12 1:15 2:1 3:10
1:0 2:18 3:9 1:10 2:6 1:2 2:12 1:15 2:1 3:10 1:16
2:0 3:9 1:10 2:6 1:2 2:12 1:15 2:1 3:10 1:16 2:15
3:0 1:10 2:6 1:2 2:12 1:15 2:1 3:10 1:16 2:15 3:10
1:0 2:6 1:2 2:12 1:15 2:1 3:10 1:16 2:15 3:10 1:10
2:0 1:2 2:12 1:15 2:1 3:10 1:16 2:15 3:10 1:10 2:5
1:0 2:12 1:15 2:1 3:10 1:16 2:15 3:10 1:10 2:5 1:2
2:0 1:15 2:1 3:10 1:16 2:15 3:10 1:10 2:5 1:2 2:12
1:0 2:1 3:10 1:16 2:15 3:10 1:10 2:5 1:2 2:12 3:26
2:0 3:10 1:16 2:15 3:10 1:10 2:5 1:2 2:12 3:26 1:19
3:0 1:16 2:15 3:10 1:10 2:5 1:2 2:12 3:26 1:19 2:13
1:0 2:15 3:10 1:10 2:5 1:2 2:12 3:26 1:19 2:13 1:2
2:0 3:10 1:10 2:5 1:2 2:12 3:26 1:19 2:13 1:2 2:1
3:0 1:10 2:5 1:2 2:12 3:26 1:19 2:13 1:2 2:1 1:7
1:0 2:5 1:2 2:12 3:26 1:19 2:13 1:2 2:1 1:7 2:1
2:0 1:2 2:12 3:26 1:19 2:13 1:2 2:1 1:7 2:1 1:1
1:0 2:12 3:26 1:19 2:13 1:2 2:1 1:7 2:1 1:1 2:1
2:0 3:26 1:19 2:13 1:2 2:1 1:7 2:1 1:1 2:1 1:3
3:0 1:19 2:13 1:2 2:1 1:7 2:1 1:1 2:1 1:3
1:0 2:13 1:2 2:1 1:7 2:1 1:1 2:1 1:3
2:0 1:2 2:1 1:7 2:1 1:1 2:1 1:3
1:0 2:1 1:7 2:1 1:1 2:1 1:3
2:0 1:7 2:1 1:1 2:1 1:3
1:0 2:1 1:1 2:1 1:3
2:0 1:1 2:1 1:3
1:0 2:1 1:3
2:0 1:3
1:0