2:0 4:5 5:15 6:4 2:3 3:1 4:1 6:12 5:3 2:5 4:2
4:0 5:15 6:4 2:3 3:1 4:1 6:12 5:3 2:5 4:2 3:1
5:0 6:4 2:3 3:1 4:1 6:12 5:3 2:5 4:2 3:1 4:3
6:0 2:3 3:1 4:1 6:12 5:3 2:5 4:2 3:1 4:3 3:1
2:0 3:1 4:1 6:12 5:3 2:5 4:2 3:1 4:3 3:1 4:6
3:0 4:1 6:12 5:3 2:5 4:2 3:1 4:3 3:1 4:6 3:1
4:0 6:12 5:3 2:5 4:2 3:1 4:3 3:1 4:6 3:1 4:1
6:0 5:3 2:5 4:2 3:1 4:3 3:1 4:6 3:1 4:1 3:10
5:0 2:5 4:2 3:1 4:3 3:1 4:6 3:1 4:1 3:10 4:1
2:0 4:2 3:1 4:3 3:1 4:6 3:1 4:1 3:10 4:1 6:2
4:0 3:1 4:3 3:1 4:6 3:1 4:1 3:10 4:1 6:2 2:9
3:0 4:3 3:1 4:6 3:1 4:1 3:10 4:1 6:2 2:9 4:4
4:0 3:1 4:6 3:1 4:1 3:10 4:1 6:2 2:9 4:4 2:1
3:0 4:6 3:1 4:1 3:10 4:1 6:2 2:9 4:4 2:1 3:8
4:0 3:1 4:1 3:10 4:1 6:2 2:9 4:4 2:1 3:8 4:1
3:0 4:1 3:10 4:1 6:2 2:9 4:4 2:1 3:8 4:1 6:14
4:0 3:10 4:1 6:2 2:9 4:4 2:1 3:8 4:1 6:14 5:1
3:0 4:1 6:2 2:9 4:4 2:1 3:8 4:1 6:14 5:1 6:3
4:0 6:2 2:9 4:4 2:1 3:8 4:1 6:14 5:1 6:3 2:3
6:0 2:9 4:4 2:1 3:8 4:1 6:14 5:1 6:3 2:3 3:1
2:0 4:4 2:1 3:8 4:1 6:14 5:1 6:3 2:3 3:1 4:1
4:0 2:1 3:8 4:1 6:14 5:1 6:3 2:3 3:1 4:1 3:1
2:0 3:8 4:1 6:14 5:1 6:3 2:3 3:1 4:1 3:1 4:1
3:0 4:1 6:14 5:1 6:3 2:3 3:1 4:1 3:1 4:1 6:11
4:0 6:14 5:1 6:3 2:3 3:1 4:1 3:1 4:1 6:11 5:2
6:0 5:1 6:3 2:3 3:1 4:1 3:1 4:1 6:11 5:2 2:7
5:0 6:3 2:3 3:1 4:1 3:1 4:1 6:11 5:2 2:7 4:2
6:0 2:3 3:1 4:1 3:1 4:1 6:11 5:2 2:7 4:2 3:2
2:0 3:1 4:1 3:1 4:1 6:11 5:2 2:7 4:2 3:2 4:2
3:0 4:1 3:1 4:1 6:11 5:2 2:7 4:2 3:2 4:2 3:2
4:0 3:1 4:1 6:11 5:2 2:7 4:2 3:2 4:2 3:2 4:12
3:0 4:1 6:11 5:2 2:7 4:2 3:2 4:2 3:2 4:12 3:1
4:0 6:11 5:2 2:7 4:2 3:2 4:2 3:2 4:12 3:1 4:5
6:0 5:2 2:7 4:2 3:2 4:2 3:2 4:12 3:1 4:5 6:4
5:0 2:7 4:2 3:2 4:2 3:2 4:12 3:1 4:5 6:4 5:1
2:0 4:2 3:2 4:2 3:2 4:12 3:1 4:5 6:4 5:1 6:3
4:0 3:2 4:2 3:2 4:12 3:1 4:5 6:4 5:1 6:3 2:4
3:0 4:2 3:2 4:12 3:1 4:5 6:4 5:1 6:3 2:4 3:1
4:0 3:2 4:12 3:1 4:5 6:4 5:1 6:3 2:4 3:1 4:11
3:0 4:12 3:1 4:5 6:4 5:1 6:3 2:4 3:1 4:11 6:4
4:0 3:1 4:5 6:4 5:1 6:3 2:4 3:1 4:11 6:4 5:4
3:0 4:5 6:4 5:1 6:3 2:4 3:1 4:11 6:4 5:4 2:4
4:0 6:4 5:1 6:3 2:4 3:1 4:11 6:4 5:4 2:4 4:3
6:0 5:1 6:3 2:4 3:1 4:11 6:4 5:4 2:4 4:3 3:1
5:0 6:3 2:4 3:1 4:11 6:4 5:4 2:4 4:3 3:1 2:1
6:0 2:4 3:1 4:11 6:4 5:4 2:4 4:3 3:1 2:1 3:7
2:0 3:1 4:11 6:4 5:4 2:4 4:3 3:1 2:1 3:7 4:2
3:0 4:11 6:4 5:4 2:4 4:3 3:1 2:1 3:7 4:2 5:8
4:0 6:4 5:4 2:4 4:3 3:1 2:1 3:7 4:2 5:8 6:2
6:0 5:4 2:4 4:3 3:1 2:1 3:7 4:2 5:8 6:2 5:5
5:0 2:4 4:3 3:1 2:1 3:7 4:2 5:8 6:2 5:5 2:1
2:0 4:3 3:1 2:1 3:7 4:2 5:8 6:2 5:5 2:1 3:6
4:0 3:1 2:1 3:7 4:2 5:8 6:2 5:5 2:1 3:6 2:1
3:0 2:1 3:7 4:2 5:8 6:2 5:5 2:1 3:6 2:1 3:1
2:0 3:7 4:2 5:8 6:2 5:5 2:1 3:6 2:1 3:1 4:1
3:0 4:2 5:8 6:2 5:5 2:1 3:6 2:1 3:1 4:1 3:2
4:0 5:8 6:2 5:5 2:1 3:6 2:1 3:1 4:1 3:2 4:6
5:0 6:2 5:5 2:1 3:6 2:1 3:1 4:1 3:2 4:6 3:9
6:0 5:5 2:1 3:6 2:1 3:1 4:1 3:2 4:6 3:9 4:3
5:0 2:1 3:6 2:1 3:1 4:1 3:2 4:6 3:9 4:3 6:3
2:0 3:6 2:1 3:1 4:1 3:2 4:6 3:9 4:3 6:3 2:9
3:0 2:1 3:1 4:1 3:2 4:6 3:9 4:3 6:3 2:9 3:12
2:0 3:1 4:1 3:2 4:6 3:9 4:3 6:3 2:9 3:12 4:2
3:0 4:1 3:2 4:6 3:9 4:3 6:3 2:9 3:12 4:2 6:13
4:0 3:2 4:6 3:9 4:3 6:3 2:9 3:12 4:2 6:13 5:3
3:0 4:6 3:9 4:3 6:3 2:9 3:12 4:2 6:13 5:3 6:3
4:0 3:9 4:3 6:3 2:9 3:12 4:2 6:13 5:3 6:3 2:1
3:0 4:3 6:3 2:9 3:12 4:2 6:13 5:3 6:3 2:1 3:3
4:0 6:3 2:9 3:12 4:2 6:13 5:3 6:3 2:1 3:3 4:1
6:0 2:9 3:12 4:2 6:13 5:3 6:3 2:1 3:3 4:1 5:7
2:0 3:12 4:2 6:13 5:3 6:3 2:1 3:3 4:1 5:7 4:1
3:0 4:2 6:13 5:3 6:3 2:1 3:3 4:1 5:7 4:1 1:5
4:0 6:13 5:3 6:3 2:1 3:3 4:1 5:7 4:1 1:5 2:1
6:0 5:3 6:3 2:1 3:3 4:1 5:7 4:1 1:5 2:1 4:10
5:0 6:3 2:1 3:3 4:1 5:7 4:1 1:5 2:1 4:10 5:14
6:0 2:1 3:3 4:1 5:7 4:1 1:5 2:1 4:10 5:14 6:1
2:0 3:3 4:1 5:7 4:1 1:5 2:1 4:10 5:14 6:1 5:2
3:0 4:1 5:7 4:1 1:5 2:1 4:10 5:14 6:1 5:2 6:1
4:0 5:7 4:1 1:5 2:1 4:10 5:14 6:1 5:2 6:1 2:3
5:0 4:1 1:5 2:1 4:10 5:14 6:1 5:2 6:1 2:3 3:2
4:0 1:5 2:1 4:10 5:14 6:1 5:2 6:1 2:3 3:2 4:2
1:0 2:1 4:10 5:14 6:1 5:2 6:1 2:3 3:2 4:2 6:12
2:0 4:10 5:14 6:1 5:2 6:1 2:3 3:2 4:2 6:12 5:1
4:0 5:14 6:1 5:2 6:1 2:3 3:2 4:2 6:12 5:1 2:7
5:0 6:1 5:2 6:1 2:3 3:2 4:2 6:12 5:1 2:7 4:3
6:0 5:2 6:1 2:3 3:2 4:2 6:12 5:1 2:7 4:3 3:2
5:0 6:1 2:3 3:2 4:2 6:12 5:1 2:7 4:3 3:2 4:6
6:0 2:3 3:2 4:2 6:12 5:1 2:7 4:3 3:2 4:6 3:1
2:0 3:2 4:2 6:12 5:1 2:7 4:3 3:2 4:6 3:1 4:4
3:0 4:2 6:12 5:1 2:7 4:3 3:2 4:6 3:1 4:4 3:6
4:0 6:12 5:1 2:7 4:3 3:2 4:6 3:1 4:4 3:6 4:4
6:0 5:1 2:7 4:3 3:2 4:6 3:1 4:4 3:6 4:4 6:3
5:0 2:7 4:3 3:2 4:6 3:1 4:4 3:6 4:4 6:3 5:2
2:0 4:3 3:2 4:6 3:1 4:4 3:6 4:4 6:3 5:2 6:2
4:0 3:2 4:6 3:1 4:4 3:6 4:4 6:3 5:2 6:2 2:4
3:0 4:6 3:1 4:4 3:6 4:4 6:3 5:2 6:2 2:4 3:2
4:0 3:1 4:4 3:6 4:4 6:3 5:2 6:2 2:4 3:2 4:1
3:0 4:4 3:6 4:4 6:3 5:2 6:2 2:4 3:2 4:1 3:1
4:0 3:6 4:4 6:3 5:2 6:2 2:4 3:2 4:1 3:1 4:1
3:0 4:4 6:3 5:2 6:2 2:4 3:2 4:1 3:1 4:1 3:4
4:0 6:3 5:2 6:2 2:4 3:2 4:1 3:1 4:1 3:4 4:2
6:0 5:2 6:2 2:4 3:2 4:1 3:1 4:1 3:4 4:2 6:4
5:0 6:2 2:4 3:2 4:1 3:1 4:1 3:4 4:2 6:4 5:2
6:0 2:4 3:2 4:1 3:1 4:1 3:4 4:2 6:4 5:2 2:7
2:0 3:2 4:1 3:1 4:1 3:4 4:2 6:4 5:2 2:7 4:13
3:0 4:1 3:1 4:1 3:4 4:2 6:4 5:2 2:7 4:13 3:1
4:0 3:1 4:1 3:4 4:2 6:4 5:2 2:7 4:13 3:1 4:1
3:0 4:1 3:4 4:2 6:4 5:2 2:7 4:13 3:1 4:1 6:11
4:0 3:4 4:2 6:4 5:2 2:7 4:13 3:1 4:1 6:11 5:5
3:0 4:2 6:4 5:2 2:7 4:13 3:1 4:1 6:11 5:5 6:1
4:0 6:4 5:2 2:7 4:13 3:1 4:1 6:11 5:5 6:1 2:2
6:0 5:2 2:7 4:13 3:1 4:1 6:11 5:5 6:1 2:2 3:3
5:0 2:7 4:13 3:1 4:1 6:11 5:5 6:1 2:2 3:3 4:1
2:0 4:13 3:1 4:1 6:11 5:5 6:1 2:2 3:3 4:1 3:10
4:0 3:1 4:1 6:11 5:5 6:1 2:2 3:3 4:1 3:10 4:4
3:0 4:1 6:11 5:5 6:1 2:2 3:3 4:1 3:10 4:4 3:4
4:0 6:11 5:5 6:1 2:2 3:3 4:1 3:10 4:4 3:4 4:5
6:0 5:5 6:1 2:2 3:3 4:1 3:10 4:4 3:4 4:5 5:3
5:0 6:1 2:2 3:3 4:1 3:10 4:4 3:4 4:5 5:3 6:1
6:0 2:2 3:3 4:1 3:10 4:4 3:4 4:5 5:3 6:1 5:2
2:0 3:3 4:1 3:10 4:4 3:4 4:5 5:3 6:1 5:2 6:1
3:0 4:1 3:10 4:4 3:4 4:5 5:3 6:1 5:2 6:1 5:4
4:0 3:10 4:4 3:4 4:5 5:3 6:1 5:2 6:1 5:4 2:1
3:0 4:4 3:4 4:5 5:3 6:1 5:2 6:1 5:4 2:1 4:12
4:0 3:4 4:5 5:3 6:1 5:2 6:1 5:4 2:1 4:12 6:16
3:0 4:5 5:3 6:1 5:2 6:1 5:4 2:1 4:12 6:16 5:1
4:0 5:3 6:1 5:2 6:1 5:4 2:1 4:12 6:16 5:1 6:3
5:0 6:1 5:2 6:1 5:4 2:1 4:12 6:16 5:1 6:3 2:3
6:0 5:2 6:1 5:4 2:1 4:12 6:16 5:1 6:3 2:3 3:1
5:0 6:1 5:4 2:1 4:12 6:16 5:1 6:3 2:3 3:1 4:2
6:0 5:4 2:1 4:12 6:16 5:1 6:3 2:3 3:1 4:2 6:12
5:0 2:1 4:12 6:16 5:1 6:3 2:3 3:1 4:2 6:12 5:4
2:0 4:12 6:16 5:1 6:3 2:3 3:1 4:2 6:12 5:4 2:4
4:0 6:16 5:1 6:3 2:3 3:1 4:2 6:12 5:4 2:4 4:2
6:0 5:1 6:3 2:3 3:1 4:2 6:12 5:4 2:4 4:2 3:2
5:0 6:3 2:3 3:1 4:2 6:12 5:4 2:4 4:2 3:2 4:3
6:0 2:3 3:1 4:2 6:12 5:4 2:4 4:2 3:2 4:3 3:1
2:0 3:1 4:2 6:12 5:4 2:4 4:2 3:2 4:3 3:1 4:9
3:0 4:2 6:12 5:4 2:4 4:2 3:2 4:3 3:1 4:9 3:5
4:0 6:12 5:4 2:4 4:2 3:2 4:3 3:1 4:9 3:5 4:4
6:0 5:4 2:4 4:2 3:2 4:3 3:1 4:9 3:5 4:4 6:3
5:0 2:4 4:2 3:2 4:3 3:1 4:9 3:5 4:4 6:3 2:8
2:0 4:2 3:2 4:3 3:1 4:9 3:5 4:4 6:3 2:8 3:2
4:0 3:2 4:3 3:1 4:9 3:5 4:4 6:3 2:8 3:2 4:4
3:0 4:3 3:1 4:9 3:5 4:4 6:3 2:8 3:2 4:4 3:3
4:0 3:1 4:9 3:5 4:4 6:3 2:8 3:2 4:4 3:3 4:3
3:0 4:9 3:5 4:4 6:3 2:8 3:2 4:4 3:3 4:3 6:4
4:0 3:5 4:4 6:3 2:8 3:2 4:4 3:3 4:3 6:4 5:1
3:0 4:4 6:3 2:8 3:2 4:4 3:3 4:3 6:4 5:1 2:7
4:0 6:3 2:8 3:2 4:4 3:3 4:3 6:4 5:1 2:7 4:13
6:0 2:8 3:2 4:4 3:3 4:3 6:4 5:1 2:7 4:13 6:6
2:0 3:2 4:4 3:3 4:3 6:4 5:1 2:7 4:13 6:6 5:1
3:0 4:4 3:3 4:3 6:4 5:1 2:7 4:13 6:6 5:1 6:4
4:0 3:3 4:3 6:4 5:1 2:7 4:13 6:6 5:1 6:4 2:2
3:0 4:3 6:4 5:1 2:7 4:13 6:6 5:1 6:4 2:2 3:3
4:0 6:4 5:1 2:7 4:13 6:6 5:1 6:4 2:2 3:3 4:9
6:0 5:1 2:7 4:13 6:6 5:1 6:4 2:2 3:3 4:9 6:4
5:0 2:7 4:13 6:6 5:1 6:4 2:2 3:3 4:9 6:4 5:5
2:0 4:13 6:6 5:1 6:4 2:2 3:3 4:9 6:4 5:5 2:3
4:0 6:6 5:1 6:4 2:2 3:3 4:9 6:4 5:5 2:3 3:2
6:0 5:1 6:4 2:2 3:3 4:9 6:4 5:5 2:3 3:2 2:1
5:0 6:4 2:2 3:3 4:9 6:4 5:5 2:3 3:2 2:1 3:2
6:0 2:2 3:3 4:9 6:4 5:5 2:3 3:2 2:1 3:2 2:1
2:0 3:3 4:9 6:4 5:5 2:3 3:2 2:1 3:2 2:1 4:6
3:0 4:9 6:4 5:5 2:3 3:2 2:1 3:2 2:1 4:6 6:9
4:0 6:4 5:5 2:3 3:2 2:1 3:2 2:1 4:6 6:9 2:8
6:0 5:5 2:3 3:2 2:1 3:2 2:1 4:6 6:9 2:8 4:6
5:0 2:3 3:2 2:1 3:2 2:1 4:6 6:9 2:8 4:6 6:6
2:0 3:2 2:1 3:2 2:1 4:6 6:9 2:8 4:6 6:6 5:2
3:0 2:1 3:2 2:1 4:6 6:9 2:8 4:6 6:6 5:2 2:5
2:0 3:2 2:1 4:6 6:9 2:8 4:6 6:6 5:2 2:5 4:1
3:0 2:1 4:6 6:9 2:8 4:6 6:6 5:2 2:5 4:1 3:1
2:0 4:6 6:9 2:8 4:6 6:6 5:2 2:5 4:1 3:1 2:2
4:0 6:9 2:8 4:6 6:6 5:2 2:5 4:1 3:1 2:2 3:1
6:0 2:8 4:6 6:6 5:2 2:5 4:1 3:1 2:2 3:1 2:1
2:0 4:6 6:6 5:2 2:5 4:1 3:1 2:2 3:1 2:1 3:5
4:0 6:6 5:2 2:5 4:1 3:1 2:2 3:1 2:1 3:5 4:2
6:0 5:2 2:5 4:1 3:1 2:2 3:1 2:1 3:5 4:2 5:14
5:0 2:5 4:1 3:1 2:2 3:1 2:1 3:5 4:2 5:14 6:5
2:0 4:1 3:1 2:2 3:1 2:1 3:5 4:2 5:14 6:5 3:3
4:0 3:1 2:2 3:1 2:1 3:5 4:2 5:14 6:5 3:3 4:2
3:0 2:2 3:1 2:1 3:5 4:2 5:14 6:5 3:3 4:2 6:12
2:0 3:1 2:1 3:5 4:2 5:14 6:5 3:3 4:2 6:12 5:3
3:0 2:1 3:5 4:2 5:14 6:5 3:3 4:2 6:12 5:3 2:4
2:0 3:5 4:2 5:14 6:5 3:3 4:2 6:12 5:3 2:4 4:2
3:0 4:2 5:14 6:5 3:3 4:2 6:12 5:3 2:4 4:2 3:2
4:0 5:14 6:5 3:3 4:2 6:12 5:3 2:4 4:2 3:2 4:2
5:0 6:5 3:3 4:2 6:12 5:3 2:4 4:2 3:2 4:2 3:2
6:0 3:3 4:2 6:12 5:3 2:4 4:2 3:2 4:2 3:2 4:8
3:0 4:2 6:12 5:3 2:4 4:2 3:2 4:2 3:2 4:8 3:9
4:0 6:12 5:3 2:4 4:2 3:2 4:2 3:2 4:8 3:9 4:2
6:0 5:3 2:4 4:2 3:2 4:2 3:2 4:8 3:9 4:2 6:2
5:0 2:4 4:2 3:2 4:2 3:2 4:8 3:9 4:2 6:2 5:6
2:0 4:2 3:2 4:2 3:2 4:8 3:9 4:2 6:2 5:6 2:4
4:0 3:2 4:2 3:2 4:8 3:9 4:2 6:2 5:6 2:4 3:13
3:0 4:2 3:2 4:8 3:9 4:2 6:2 5:6 2:4 3:13 4:1
4:0 3:2 4:8 3:9 4:2 6:2 5:6 2:4 3:13 4:1 5:16
3:0 4:8 3:9 4:2 6:2 5:6 2:4 3:13 4:1 5:16 6:3
4:0 3:9 4:2 6:2 5:6 2:4 3:13 4:1 5:16 6:3 3:4
3:0 4:2 6:2 5:6 2:4 3:13 4:1 5:16 6:3 3:4 4:1
4:0 6:2 5:6 2:4 3:13 4:1 5:16 6:3 3:4 4:1 6:13
6:0 5:6 2:4 3:13 4:1 5:16 6:3 3:4 4:1 6:13 5:4
5:0 2:4 3:13 4:1 5:16 6:3 3:4 4:1 6:13 5:4 2:4
2:0 3:13 4:1 5:16 6:3 3:4 4:1 6:13 5:4 2:4 3:2
3:0 4:1 5:16 6:3 3:4 4:1 6:13 5:4 2:4 3:2 4:1
4:0 5:16 6:3 3:4 4:1 6:13 5:4 2:4 3:2 4:1 3:1
5:0 6:3 3:4 4:1 6:13 5:4 2:4 3:2 4:1 3:1 2:6
6:0 3:4 4:1 6:13 5:4 2:4 3:2 4:1 3:1 2:6 3:1
3:0 4:1 6:13 5:4 2:4 3:2 4:1 3:1 2:6 3:1 4:6
4:0 6:13 5:4 2:4 3:2 4:1 3:1 2:6 3:1 4:6 3:3
6:0 5:4 2:4 3:2 4:1 3:1 2:6 3:1 4:6 3:3 4:4
5:0 2:4 3:2 4:1 3:1 2:6 3:1 4:6 3:3 4:4 6:4
2:0 3:2 4:1 3:1 2:6 3:1 4:6 3:3 4:4 6:4 2:8
3:0 4:1 3:1 2:6 3:1 4:6 3:3 4:4 6:4 2:8 4:4
4:0 3:1 2:6 3:1 4:6 3:3 4:4 6:4 2:8 4:4 3:2
3:0 2:6 3:1 4:6 3:3 4:4 6:4 2:8 4:4 3:2 2:2
2:0 3:1 4:6 3:3 4:4 6:4 2:8 4:4 3:2 2:2 3:6
3:0 4:6 3:3 4:4 6:4 2:8 4:4 3:2 2:2 3:6 4:1
4:0 3:3 4:4 6:4 2:8 4:4 3:2 2:2 3:6 4:1 5:7
3:0 4:4 6:4 2:8 4:4 3:2 2:2 3:6 4:1 5:7 6:4
4:0 6:4 2:8 4:4 3:2 2:2 3:6 4:1 5:7 6:4 2:4
6:0 2:8 4:4 3:2 2:2 3:6 4:1 5:7 6:4 2:4 3:7
2:0 4:4 3:2 2:2 3:6 4:1 5:7 6:4 2:4 3:7 4:1
4:0 3:2 2:2 3:6 4:1 5:7 6:4 2:4 3:7 4:1 6:6
3:0 2:2 3:6 4:1 5:7 6:4 2:4 3:7 4:1 6:6 5:5
2:0 3:6 4:1 5:7 6:4 2:4 3:7 4:1 6:6 5:5 2:3
3:0 4:1 5:7 6:4 2:4 3:7 4:1 6:6 5:5 2:3 4:1
4:0 5:7 6:4 2:4 3:7 4:1 6:6 5:5 2:3 4:1 2:1
5:0 6:4 2:4 3:7 4:1 6:6 5:5 2:3 4:1 2:1 3:7
6:0 2:4 3:7 4:1 6:6 5:5 2:3 4:1 2:1 3:7 4:1
2:0 3:7 4:1 6:6 5:5 2:3 4:1 2:1 3:7 4:1 5:6
3:0 4:1 6:6 5:5 2:3 4:1 2:1 3:7 4:1 5:6 6:4
4:0 6:6 5:5 2:3 4:1 2:1 3:7 4:1 5:6 6:4 2:3
6:0 5:5 2:3 4:1 2:1 3:7 4:1 5:6 6:4 2:3 3:2
5:0 2:3 4:1 2:1 3:7 4:1 5:6 6:4 2:3 3:2 4:9
2:0 4:1 2:1 3:7 4:1 5:6 6:4 2:3 3:2 4:9 6:4
4:0 2:1 3:7 4:1 5:6 6:4 2:3 3:2 4:9 6:4 5:4
2:0 3:7 4:1 5:6 6:4 2:3 3:2 4:9 6:4 5:4 2:4
3:0 4:1 5:6 6:4 2:3 3:2 4:9 6:4 5:4 2:4 3:2
4:0 5:6 6:4 2:3 3:2 4:9 6:4 5:4 2:4 3:2 2:1
5:0 6:4 2:3 3:2 4:9 6:4 5:4 2:4 3:2 2:1 3:2
6:0 2:3 3:2 4:9 6:4 5:4 2:4 3:2 2:1 3:2 2:2
2:0 3:2 4:9 6:4 5:4 2:4 3:2 2:1 3:2 2:2 4:5
3:0 4:9 6:4 5:4 2:4 3:2 2:1 3:2 2:2 4:5 5:16
4:0 6:4 5:4 2:4 3:2 2:1 3:2 2:2 4:5 5:16 6:5
6:0 5:4 2:4 3:2 2:1 3:2 2:2 4:5 5:16 6:5 3:2
5:0 2:4 3:2 2:1 3:2 2:2 4:5 5:16 6:5 3:2 4:1
2:0 3:2 2:1 3:2 2:2 4:5 5:16 6:5 3:2 4:1 6:13
3:0 2:1 3:2 2:2 4:5 5:16 6:5 3:2 4:1 6:13 5:4
2:0 3:2 2:2 4:5 5:16 6:5 3:2 4:1 6:13 5:4 2:4
3:0 2:2 4:5 5:16 6:5 3:2 4:1 6:13 5:4 2:4 3:3
2:0 4:5 5:16 6:5 3:2 4:1 6:13 5:4 2:4 3:3 4:1
4:0 5:16 6:5 3:2 4:1 6:13 5:4 2:4 3:3 4:1 3:2
5:0 6:5 3:2 4:1 6:13 5:4 2:4 3:3 4:1 3:2 4:6
6:0 3:2 4:1 6:13 5:4 2:4 3:3 4:1 3:2 4:6 3:1
3:0 4:1 6:13 5:4 2:4 3:3 4:1 3:2 4:6 3:1 4:2
4:0 6:13 5:4 2:4 3:3 4:1 3:2 4:6 3:1 4:2 3:7
6:0 5:4 2:4 3:3 4:1 3:2 4:6 3:1 4:2 3:7 4:3
5:0 2:4 3:3 4:1 3:2 4:6 3:1 4:2 3:7 4:3 6:3
2:0 3:3 4:1 3:2 4:6 3:1 4:2 3:7 4:3 6:3 5:8
3:0 4:1 3:2 4:6 3:1 4:2 3:7 4:3 6:3 5:8 2:1
4:0 3:2 4:6 3:1 4:2 3:7 4:3 6:3 5:8 2:1 4:3
3:0 4:6 3:1 4:2 3:7 4:3 6:3 5:8 2:1 4:3 3:2
4:0 3:1 4:2 3:7 4:3 6:3 5:8 2:1 4:3 3:2 2:3
3:0 4:2 3:7 4:3 6:3 5:8 2:1 4:3 3:2 2:3 3:5
4:0 3:7 4:3 6:3 5:8 2:1 4:3 3:2 2:3 3:5 4:1
3:0 4:3 6:3 5:8 2:1 4:3 3:2 2:3 3:5 4:1 5:6
4:0 6:3 5:8 2:1 4:3 3:2 2:3 3:5 4:1 5:6 6:3
6:0 5:8 2:1 4:3 3:2 2:3 3:5 4:1 5:6 6:3 2:3
5:0 2:1 4:3 3:2 2:3 3:5 4:1 5:6 6:3 2:3 3:1
2:0 4:3 3:2 2:3 3:5 4:1 5:6 6:3 2:3 3:1 4:2
4:0 3:2 2:3 3:5 4:1 5:6 6:3 2:3 3:1 4:2 3:1
3:0 2:3 3:5 4:1 5:6 6:3 2:3 3:1 4:2 3:1 4:7
2:0 3:5 4:1 5:6 6:3 2:3 3:1 4:2 3:1 4:7 6:3
3:0 4:1 5:6 6:3 2:3 3:1 4:2 3:1 4:7 6:3 5:3
4:0 5:6 6:3 2:3 3:1 4:2 3:1 4:7 6:3 5:3 2:6
5:0 6:3 2:3 3:1 4:2 3:1 4:7 6:3 5:3 2:6 4:13
6:0 2:3 3:1 4:2 3:1 4:7 6:3 5:3 2:6 4:13 6:15
2:0 3:1 4:2 3:1 4:7 6:3 5:3 2:6 4:13 6:15 5:3
3:0 4:2 3:1 4:7 6:3 5:3 2:6 4:13 6:15 5:3 6:1
4:0 3:1 4:7 6:3 5:3 2:6 4:13 6:15 5:3 6:1 2:3
3:0 4:7 6:3 5:3 2:6 4:13 6:15 5:3 6:1 2:3 3:1
4:0 6:3 5:3 2:6 4:13 6:15 5:3 6:1 2:3 3:1 4:1
6:0 5:3 2:6 4:13 6:15 5:3 6:1 2:3 3:1 4:1 6:12
5:0 2:6 4:13 6:15 5:3 6:1 2:3 3:1 4:1 6:12 5:2
2:0 4:13 6:15 5:3 6:1 2:3 3:1 4:1 6:12 5:2 2:6
4:0 6:15 5:3 6:1 2:3 3:1 4:1 6:12 5:2 2:6 4:5
6:0 5:3 6:1 2:3 3:1 4:1 6:12 5:2 2:6 4:5 3:2
5:0 6:1 2:3 3:1 4:1 6:12 5:2 2:6 4:5 3:2 2:3
6:0 2:3 3:1 4:1 6:12 5:2 2:6 4:5 3:2 2:3 3:1
2:0 3:1 4:1 6:12 5:2 2:6 4:5 3:2 2:3 3:1 4:4
3:0 4:1 6:12 5:2 2:6 4:5 3:2 2:3 3:1 4:4 3:1
4:0 6:12 5:2 2:6 4:5 3:2 2:3 3:1 4:4 3:1 4:1
6:0 5:2 2:6 4:5 3:2 2:3 3:1 4:4 3:1 4:1 3:5
5:0 2:6 4:5 3:2 2:3 3:1 4:4 3:1 4:1 3:5 4:5
2:0 4:5 3:2 2:3 3:1 4:4 3:1 4:1 3:5 4:5 6:3
4:0 3:2 2:3 3:1 4:4 3:1 4:1 3:5 4:5 6:3 5:3
3:0 2:3 3:1 4:4 3:1 4:1 3:5 4:5 6:3 5:3 6:2
2:0 3:1 4:4 3:1 4:1 3:5 4:5 6:3 5:3 6:2 2:4
3:0 4:4 3:1 4:1 3:5 4:5 6:3 5:3 6:2 2:4 3:5
4:0 3:1 4:1 3:5 4:5 6:3 5:3 6:2 2:4 3:5 2:1
3:0 4:1 3:5 4:5 6:3 5:3 6:2 2:4 3:5 2:1 3:6
4:0 3:5 4:5 6:3 5:3 6:2 2:4 3:5 2:1 3:6 4:1
3:0 4:5 6:3 5:3 6:2 2:4 3:5 2:1 3:6 4:1 6:9
4:0 6:3 5:3 6:2 2:4 3:5 2:1 3:6 4:1 6:9 2:7
6:0 5:3 6:2 2:4 3:5 2:1 3:6 4:1 6:9 2:7 3:6
5:0 6:2 2:4 3:5 2:1 3:6 4:1 6:9 2:7 3:6 2:1
6:0 2:4 3:5 2:1 3:6 4:1 6:9 2:7 3:6 2:1 3:1
2:0 3:5 2:1 3:6 4:1 6:9 2:7 3:6 2:1 3:1 4:1
3:0 2:1 3:6 4:1 6:9 2:7 3:6 2:1 3:1 4:1 3:1
2:0 3:6 4:1 6:9 2:7 3:6 2:1 3:1 4:1 3:1 4:3
3:0 4:1 6:9 2:7 3:6 2:1 3:1 4:1 3:1 4:3 3:2
4:0 6:9 2:7 3:6 2:1 3:1 4:1 3:1 4:3 3:2 4:5
6:0 2:7 3:6 2:1 3:1 4:1 3:1 4:3 3:2 4:5 6:13
2:0 3:6 2:1 3:1 4:1 3:1 4:3 3:2 4:5 6:13 5:7
3:0 2:1 3:1 4:1 3:1 4:3 3:2 4:5 6:13 5:7 2:3
2:0 3:1 4:1 3:1 4:3 3:2 4:5 6:13 5:7 2:3 3:12
3:0 4:1 3:1 4:3 3:2 4:5 6:13 5:7 2:3 3:12 4:2
4:0 3:1 4:3 3:2 4:5 6:13 5:7 2:3 3:12 4:2 3:10
3:0 4:3 3:2 4:5 6:13 5:7 2:3 3:12 4:2 3:10 4:1
4:0 3:2 4:5 6:13 5:7 2:3 3:12 4:2 3:10 4:1 5:4
3:0 4:5 6:13 5:7 2:3 3:12 4:2 3:10 4:1 5:4 6:5
4:0 6:13 5:7 2:3 3:12 4:2 3:10 4:1 5:4 6:5 2:1
6:0 5:7 2:3 3:12 4:2 3:10 4:1 5:4 6:5 2:1 3:1
5:0 2:3 3:12 4:2 3:10 4:1 5:4 6:5 2:1 3:1 4:2
2:0 3:12 4:2 3:10 4:1 5:4 6:5 2:1 3:1 4:2 6:12
3:0 4:2 3:10 4:1 5:4 6:5 2:1 3:1 4:2 6:12 5:3
4:0 3:10 4:1 5:4 6:5 2:1 3:1 4:2 6:12 5:3 2:4
3:0 4:1 5:4 6:5 2:1 3:1 4:2 6:12 5:3 2:4 4:4
4:0 5:4 6:5 2:1 3:1 4:2 6:12 5:3 2:4 4:4 3:2
5:0 6:5 2:1 3:1 4:2 6:12 5:3 2:4 4:4 3:2 4:12
6:0 2:1 3:1 4:2 6:12 5:3 2:4 4:4 3:2 4:12 3:5
2:0 3:1 4:2 6:12 5:3 2:4 4:4 3:2 4:12 3:5 4:3
3:0 4:2 6:12 5:3 2:4 4:4 3:2 4:12 3:5 4:3 6:4
4:0 6:12 5:3 2:4 4:4 3:2 4:12 3:5 4:3 6:4 5:2
6:0 5:3 2:4 4:4 3:2 4:12 3:5 4:3 6:4 5:2 6:2
5:0 2:4 4:4 3:2 4:12 3:5 4:3 6:4 5:2 6:2 2:4
2:0 4:4 3:2 4:12 3:5 4:3 6:4 5:2 6:2 2:4 3:1
4:0 3:2 4:12 3:5 4:3 6:4 5:2 6:2 2:4 3:1 4:3
3:0 4:12 3:5 4:3 6:4 5:2 6:2 2:4 3:1 4:3 3:4
4:0 3:5 4:3 6:4 5:2 6:2 2:4 3:1 4:3 3:4 4:5
3:0 4:3 6:4 5:2 6:2 2:4 3:1 4:3 3:4 4:5 6:2
4:0 6:4 5:2 6:2 2:4 3:1 4:3 3:4 4:5 6:2 5:3
6:0 5:2 6:2 2:4 3:1 4:3 3:4 4:5 6:2 5:3 2:6
5:0 6:2 2:4 3:1 4:3 3:4 4:5 6:2 5:3 2:6 3:5
6:0 2:4 3:1 4:3 3:4 4:5 6:2 5:3 2:6 3:5 2:1
2:0 3:1 4:3 3:4 4:5 6:2 5:3 2:6 3:5 2:1 3:7
3:0 4:3 3:4 4:5 6:2 5:3 2:6 3:5 2:1 3:7 4:1
4:0 3:4 4:5 6:2 5:3 2:6 3:5 2:1 3:7 4:1 5:6
3:0 4:5 6:2 5:3 2:6 3:5 2:1 3:7 4:1 5:6 6:4
4:0 6:2 5:3 2:6 3:5 2:1 3:7 4:1 5:6 6:4 2:2
6:0 5:3 2:6 3:5 2:1 3:7 4:1 5:6 6:4 2:2 3:1
5:0 2:6 3:5 2:1 3:7 4:1 5:6 6:4 2:2 3:1 4:2
2:0 3:5 2:1 3:7 4:1 5:6 6:4 2:2 3:1 4:2 3:1
3:0 2:1 3:7 4:1 5:6 6:4 2:2 3:1 4:2 3:1 4:7
2:0 3:7 4:1 5:6 6:4 2:2 3:1 4:2 3:1 4:7 6:3
3:0 4:1 5:6 6:4 2:2 3:1 4:2 3:1 4:7 6:3 5:2
4:0 5:6 6:4 2:2 3:1 4:2 3:1 4:7 6:3 5:2 2:7
5:0 6:4 2:2 3:1 4:2 3:1 4:7 6:3 5:2 2:7 4:12
6:0 2:2 3:1 4:2 3:1 4:7 6:3 5:2 2:7 4:12 3:2
2:0 3:1 4:2 3:1 4:7 6:3 5:2 2:7 4:12 3:2 4:1
3:0 4:2 3:1 4:7 6:3 5:2 2:7 4:12 3:2 4:1 6:11
4:0 3:1 4:7 6:3 5:2 2:7 4:12 3:2 4:1 6:11 5:5
3:0 4:7 6:3 5:2 2:7 4:12 3:2 4:1 6:11 5:5 6:1
4:0 6:3 5:2 2:7 4:12 3:2 4:1 6:11 5:5 6:1 2:2
6:0 5:2 2:7 4:12 3:2 4:1 6:11 5:5 6:1 2:2 3:2
5:0 2:7 4:12 3:2 4:1 6:11 5:5 6:1 2:2 3:2 4:1
2:0 4:12 3:2 4:1 6:11 5:5 6:1 2:2 3:2 4:1 6:11
4:0 3:2 4:1 6:11 5:5 6:1 2:2 3:2 4:1 6:11 5:2
3:0 4:1 6:11 5:5 6:1 2:2 3:2 4:1 6:11 5:2 2:6
4:0 6:11 5:5 6:1 2:2 3:2 4:1 6:11 5:2 2:6 3:4
6:0 5:5 6:1 2:2 3:2 4:1 6:11 5:2 2:6 3:4 2:1
5:0 6:1 2:2 3:2 4:1 6:11 5:2 2:6 3:4 2:1 3:1
6:0 2:2 3:2 4:1 6:11 5:2 2:6 3:4 2:1 3:1 4:1
2:0 3:2 4:1 6:11 5:2 2:6 3:4 2:1 3:1 4:1 3:2
3:0 4:1 6:11 5:2 2:6 3:4 2:1 3:1 4:1 3:2 4:9
4:0 6:11 5:2 2:6 3:4 2:1 3:1 4:1 3:2 4:9 3:7
6:0 5:2 2:6 3:4 2:1 3:1 4:1 3:2 4:9 3:7 4:3
5:0 2:6 3:4 2:1 3:1 4:1 3:2 4:9 3:7 4:3 6:3
2:0 3:4 2:1 3:1 4:1 3:2 4:9 3:7 4:3 6:3 5:2
3:0 2:1 3:1 4:1 3:2 4:9 3:7 4:3 6:3 5:2 6:1
2:0 3:1 4:1 3:2 4:9 3:7 4:3 6:3 5:2 6:1 2:5
3:0 4:1 3:2 4:9 3:7 4:3 6:3 5:2 6:1 2:5 3:2
4:0 3:2 4:9 3:7 4:3 6:3 5:2 6:1 2:5 3:2 4:4
3:0 4:9 3:7 4:3 6:3 5:2 6:1 2:5 3:2 4:4 3:2
4:0 3:7 4:3 6:3 5:2 6:1 2:5 3:2 4:4 3:2 4:5
3:0 4:3 6:3 5:2 6:1 2:5 3:2 4:4 3:2 4:5 6:3
4:0 6:3 5:2 6:1 2:5 3:2 4:4 3:2 4:5 6:3 5:2
6:0 5:2 6:1 2:5 3:2 4:4 3:2 4:5 6:3 5:2 2:7
5:0 6:1 2:5 3:2 4:4 3:2 4:5 6:3 5:2 2:7 3:5
6:0 2:5 3:2 4:4 3:2 4:5 6:3 5:2 2:7 3:5 2:1
2:0 3:2 4:4 3:2 4:5 6:3 5:2 2:7 3:5 2:1 4:6
3:0 4:4 3:2 4:5 6:3 5:2 2:7 3:5 2:1 4:6 3:1
4:0 3:2 4:5 6:3 5:2 2:7 3:5 2:1 4:6 3:1 4:1
3:0 4:5 6:3 5:2 2:7 3:5 2:1 4:6 3:1 4:1 6:12
4:0 6:3 5:2 2:7 3:5 2:1 4:6 3:1 4:1 6:12 5:3
6:0 5:2 2:7 3:5 2:1 4:6 3:1 4:1 6:12 5:3 6:3
5:0 2:7 3:5 2:1 4:6 3:1 4:1 6:12 5:3 6:3 2:3
2:0 3:5 2:1 4:6 3:1 4:1 6:12 5:3 6:3 2:3 3:1
3:0 2:1 4:6 3:1 4:1 6:12 5:3 6:3 2:3 3:1 4:1
2:0 4:6 3:1 4:1 6:12 5:3 6:3 2:3 3:1 4:1 3:9
4:0 3:1 4:1 6:12 5:3 6:3 2:3 3:1 4:1 3:9 4:8
3:0 4:1 6:12 5:3 6:3 2:3 3:1 4:1 3:9 4:8 3:2
4:0 6:12 5:3 6:3 2:3 3:1 4:1 3:9 4:8 3:2 4:4
6:0 5:3 6:3 2:3 3:1 4:1 3:9 4:8 3:2 4:4 5:5
5:0 6:3 2:3 3:1 4:1 3:9 4:8 3:2 4:4 5:5 6:5
6:0 2:3 3:1 4:1 3:9 4:8 3:2 4:4 5:5 6:5 2:3
2:0 3:1 4:1 3:9 4:8 3:2 4:4 5:5 6:5 2:3 3:1
3:0 4:1 3:9 4:8 3:2 4:4 5:5 6:5 2:3 3:1 4:10
4:0 3:9 4:8 3:2 4:4 5:5 6:5 2:3 3:1 4:10 6:4
3:0 4:8 3:2 4:4 5:5 6:5 2:3 3:1 4:10 6:4 5:5
4:0 3:2 4:4 5:5 6:5 2:3 3:1 4:10 6:4 5:5 2:3
3:0 4:4 5:5 6:5 2:3 3:1 4:10 6:4 5:5 2:3 3:12
4:0 5:5 6:5 2:3 3:1 4:10 6:4 5:5 2:3 3:12 4:1
5:0 6:5 2:3 3:1 4:10 6:4 5:5 2:3 3:12 4:1 5:14
6:0 2:3 3:1 4:10 6:4 5:5 2:3 3:12 4:1 5:14 6:6
2:0 3:1 4:10 6:4 5:5 2:3 3:12 4:1 5:14 6:6 2:2
3:0 4:10 6:4 5:5 2:3 3:12 4:1 5:14 6:6 2:2 3:1
4:0 6:4 5:5 2:3 3:12 4:1 5:14 6:6 2:2 3:1 4:1
6:0 5:5 2:3 3:12 4:1 5:14 6:6 2:2 3:1 4:1 6:13
5:0 2:3 3:12 4:1 5:14 6:6 2:2 3:1 4:1 6:13 5:3
2:0 3:12 4:1 5:14 6:6 2:2 3:1 4:1 6:13 5:3 2:5
3:0 4:1 5:14 6:6 2:2 3:1 4:1 6:13 5:3 2:5 3:3
4:0 5:14 6:6 2:2 3:1 4:1 6:13 5:3 2:5 3:3 4:2
5:0 6:6 2:2 3:1 4:1 6:13 5:3 2:5 3:3 4:2 3:1
6:0 2:2 3:1 4:1 6:13 5:3 2:5 3:3 4:2 3:1 4:11
2:0 3:1 4:1 6:13 5:3 2:5 3:3 4:2 3:1 4:11 3:5
3:0 4:1 6:13 5:3 2:5 3:3 4:2 3:1 4:11 3:5 4:3
4:0 6:13 5:3 2:5 3:3 4:2 3:1 4:11 3:5 4:3 6:4
6:0 5:3 2:5 3:3 4:2 3:1 4:11 3:5 4:3 6:4 5:2
5:0 2:5 3:3 4:2 3:1 4:11 3:5 4:3 6:4 5:2 6:2
2:0 3:3 4:2 3:1 4:11 3:5 4:3 6:4 5:2 6:2 2:5
3:0 4:2 3:1 4:11 3:5 4:3 6:4 5:2 6:2 2:5 4:2
4:0 3:1 4:11 3:5 4:3 6:4 5:2 6:2 2:5 4:2 3:1
3:0 4:11 3:5 4:3 6:4 5:2 6:2 2:5 4:2 3:1 2:1
4:0 3:5 4:3 6:4 5:2 6:2 2:5 4:2 3:1 2:1 3:1
3:0 4:3 6:4 5:2 6:2 2:5 4:2 3:1 2:1 3:1 2:2
4:0 6:4 5:2 6:2 2:5 4:2 3:1 2:1 3:1 2:2 4:5
6:0 5:2 6:2 2:5 4:2 3:1 2:1 3:1 2:2 4:5 6:6
5:0 6:2 2:5 4:2 3:1 2:1 3:1 2:2 4:5 6:6 2:7
6:0 2:5 4:2 3:1 2:1 3:1 2:2 4:5 6:6 2:7 3:2
2:0 4:2 3:1 2:1 3:1 2:2 4:5 6:6 2:7 3:2 4:9
4:0 3:1 2:1 3:1 2:2 4:5 6:6 2:7 3:2 4:9 6:4
3:0 2:1 3:1 2:2 4:5 6:6 2:7 3:2 4:9 6:4 5:4
2:0 3:1 2:2 4:5 6:6 2:7 3:2 4:9 6:4 5:4 2:4
3:0 2:2 4:5 6:6 2:7 3:2 4:9 6:4 5:4 2:4 3:5
2:0 4:5 6:6 2:7 3:2 4:9 6:4 5:4 2:4 3:5 2:1
4:0 6:6 2:7 3:2 4:9 6:4 5:4 2:4 3:5 2:1 4:7
6:0 2:7 3:2 4:9 6:4 5:4 2:4 3:5 2:1 4:7 5:15
2:0 3:2 4:9 6:4 5:4 2:4 3:5 2:1 4:7 5:15 6:5
3:0 4:9 6:4 5:4 2:4 3:5 2:1 4:7 5:15 6:5 3:3
4:0 6:4 5:4 2:4 3:5 2:1 4:7 5:15 6:5 3:3 4:1
6:0 5:4 2:4 3:5 2:1 4:7 5:15 6:5 3:3 4:1 6:13
5:0 2:4 3:5 2:1 4:7 5:15 6:5 3:3 4:1 6:13 5:2
2:0 3:5 2:1 4:7 5:15 6:5 3:3 4:1 6:13 5:2 2:6
3:0 2:1 4:7 5:15 6:5 3:3 4:1 6:13 5:2 2:6 4:3
2:0 4:7 5:15 6:5 3:3 4:1 6:13 5:2 2:6 4:3 3:2
4:0 5:15 6:5 3:3 4:1 6:13 5:2 2:6 4:3 3:2 4:6
5:0 6:5 3:3 4:1 6:13 5:2 2:6 4:3 3:2 4:6 3:1
6:0 3:3 4:1 6:13 5:2 2:6 4:3 3:2 4:6 3:1 4:5
3:0 4:1 6:13 5:2 2:6 4:3 3:2 4:6 3:1 4:5 3:4
4:0 6:13 5:2 2:6 4:3 3:2 4:6 3:1 4:5 3:4 4:4
6:0 5:2 2:6 4:3 3:2 4:6 3:1 4:5 3:4 4:4 6:4
5:0 2:6 4:3 3:2 4:6 3:1 4:5 3:4 4:4 6:4 5:3
2:0 4:3 3:2 4:6 3:1 4:5 3:4 4:4 6:4 5:3 6:1
4:0 3:2 4:6 3:1 4:5 3:4 4:4 6:4 5:3 6:1 2:4
3:0 4:6 3:1 4:5 3:4 4:4 6:4 5:3 6:1 2:4 3:2
4:0 3:1 4:5 3:4 4:4 6:4 5:3 6:1 2:4 3:2 4:3
3:0 4:5 3:4 4:4 6:4 5:3 6:1 2:4 3:2 4:3 3:3
4:0 3:4 4:4 6:4 5:3 6:1 2:4 3:2 4:3 3:3 4:5
3:0 4:4 6:4 5:3 6:1 2:4 3:2 4:3 3:3 4:5 6:3
4:0 6:4 5:3 6:1 2:4 3:2 4:3 3:3 4:5 6:3 5:2
6:0 5:3 6:1 2:4 3:2 4:3 3:3 4:5 6:3 5:2 2:7
5:0 6:1 2:4 3:2 4:3 3:3 4:5 6:3 5:2 2:7 3:7
6:0 2:4 3:2 4:3 3:3 4:5 6:3 5:2 2:7 3:7 2:1
2:0 3:2 4:3 3:3 4:5 6:3 5:2 2:7 3:7 2:1 3:4
3:0 4:3 3:3 4:5 6:3 5:2 2:7 3:7 2:1 3:4 4:1
4:0 3:3 4:5 6:3 5:2 2:7 3:7 2:1 3:4 4:1 6:5
3:0 4:5 6:3 5:2 2:7 3:7 2:1 3:4 4:1 6:5 5:1
4:0 6:3 5:2 2:7 3:7 2:1 3:4 4:1 6:5 5:1 6:3
6:0 5:2 2:7 3:7 2:1 3:4 4:1 6:5 5:1 6:3 2:3
5:0 2:7 3:7 2:1 3:4 4:1 6:5 5:1 6:3 2:3 3:2
2:0 3:7 2:1 3:4 4:1 6:5 5:1 6:3 2:3 3:2 4:10
3:0 2:1 3:4 4:1 6:5 5:1 6:3 2:3 3:2 4:10 6:4
2:0 3:4 4:1 6:5 5:1 6:3 2:3 3:2 4:10 6:4 5:4
3:0 4:1 6:5 5:1 6:3 2:3 3:2 4:10 6:4 5:4 2:4
4:0 6:5 5:1 6:3 2:3 3:2 4:10 6:4 5:4 2:4 3:10
6:0 5:1 6:3 2:3 3:2 4:10 6:4 5:4 2:4 3:10 4:1
5:0 6:3 2:3 3:2 4:10 6:4 5:4 2:4 3:10 4:1 5:17
6:0 2:3 3:2 4:10 6:4 5:4 2:4 3:10 4:1 5:17 6:4
2:0 3:2 4:10 6:4 5:4 2:4 3:10 4:1 5:17 6:4 2:3
3:0 4:10 6:4 5:4 2:4 3:10 4:1 5:17 6:4 2:3 3:1
4:0 6:4 5:4 2:4 3:10 4:1 5:17 6:4 2:3 3:1 4:1
6:0 5:4 2:4 3:10 4:1 5:17 6:4 2:3 3:1 4:1 6:12
5:0 2:4 3:10 4:1 5:17 6:4 2:3 3:1 4:1 6:12 5:2
2:0 3:10 4:1 5:17 6:4 2:3 3:1 4:1 6:12 5:2 2:7
3:0 4:1 5:17 6:4 2:3 3:1 4:1 6:12 5:2 2:7 4:2
4:0 5:17 6:4 2:3 3:1 4:1 6:12 5:2 2:7 4:2 3:2
5:0 6:4 2:3 3:1 4:1 6:12 5:2 2:7 4:2 3:2 4:1
6:0 2:3 3:1 4:1 6:12 5:2 2:7 4:2 3:2 4:1 3:2
2:0 3:1 4:1 6:12 5:2 2:7 4:2 3:2 4:1 3:2 4:5
3:0 4:1 6:12 5:2 2:7 4:2 3:2 4:1 3:2 4:5 3:1
4:0 6:12 5:2 2:7 4:2 3:2 4:1 3:2 4:5 3:1 4:2
6:0 5:2 2:7 4:2 3:2 4:1 3:2 4:5 3:1 4:2 3:8
5:0 2:7 4:2 3:2 4:1 3:2 4:5 3:1 4:2 3:8 4:1
2:0 4:2 3:2 4:1 3:2 4:5 3:1 4:2 3:8 4:1 6:3
4:0 3:2 4:1 3:2 4:5 3:1 4:2 3:8 4:1 6:3 5:1
3:0 4:1 3:2 4:5 3:1 4:2 3:8 4:1 6:3 5:1 6:1
4:0 3:2 4:5 3:1 4:2 3:8 4:1 6:3 5:1 6:1 5:2
3:0 4:5 3:1 4:2 3:8 4:1 6:3 5:1 6:1 5:2 6:1
4:0 3:1 4:2 3:8 4:1 6:3 5:1 6:1 5:2 6:1 2:4
3:0 4:2 3:8 4:1 6:3 5:1 6:1 5:2 6:1 2:4 3:3
4:0 3:8 4:1 6:3 5:1 6:1 5:2 6:1 2:4 3:3 2:1
3:0 4:1 6:3 5:1 6:1 5:2 6:1 2:4 3:3 2:1 3:3
4:0 6:3 5:1 6:1 5:2 6:1 2:4 3:3 2:1 3:3 2:1
6:0 5:1 6:1 5:2 6:1 2:4 3:3 2:1 3:3 2:1 3:4
5:0 6:1 5:2 6:1 2:4 3:3 2:1 3:3 2:1 3:4 4:1
6:0 5:2 6:1 2:4 3:3 2:1 3:3 2:1 3:4 4:1 6:15
5:0 6:1 2:4 3:3 2:1 3:3 2:1 3:4 4:1 6:15 5:1
6:0 2:4 3:3 2:1 3:3 2:1 3:4 4:1 6:15 5:1 6:5
2:0 3:3 2:1 3:3 2:1 3:4 4:1 6:15 5:1 6:5 2:1
3:0 2:1 3:3 2:1 3:4 4:1 6:15 5:1 6:5 2:1 4:2
2:0 3:3 2:1 3:4 4:1 6:15 5:1 6:5 2:1 4:2 3:9
3:0 2:1 3:4 4:1 6:15 5:1 6:5 2:1 4:2 3:9 4:8
2:0 3:4 4:1 6:15 5:1 6:5 2:1 4:2 3:9 4:8 3:2
3:0 4:1 6:15 5:1 6:5 2:1 4:2 3:9 4:8 3:2 4:4
4:0 6:15 5:1 6:5 2:1 4:2 3:9 4:8 3:2 4:4 6:4
6:0 5:1 6:5 2:1 4:2 3:9 4:8 3:2 4:4 6:4 5:2
5:0 6:5 2:1 4:2 3:9 4:8 3:2 4:4 6:4 5:2 6:4
6:0 2:1 4:2 3:9 4:8 3:2 4:4 6:4 5:2 6:4 2:3
2:0 4:2 3:9 4:8 3:2 4:4 6:4 5:2 6:4 2:3 3:1
4:0 3:9 4:8 3:2 4:4 6:4 5:2 6:4 2:3 3:1 4:3
3:0 4:8 3:2 4:4 6:4 5:2 6:4 2:3 3:1 4:3 3:1
4:0 3:2 4:4 6:4 5:2 6:4 2:3 3:1 4:3 3:1 4:1
3:0 4:4 6:4 5:2 6:4 2:3 3:1 4:3 3:1 4:1 3:2
4:0 6:4 5:2 6:4 2:3 3:1 4:3 3:1 4:1 3:2 4:5
6:0 5:2 6:4 2:3 3:1 4:3 3:1 4:1 3:2 4:5 6:2
5:0 6:4 2:3 3:1 4:3 3:1 4:1 3:2 4:5 6:2 5:2
6:0 2:3 3:1 4:3 3:1 4:1 3:2 4:5 6:2 5:2 2:7
2:0 3:1 4:3 3:1 4:1 3:2 4:5 6:2 5:2 2:7 3:3
3:0 4:3 3:1 4:1 3:2 4:5 6:2 5:2 2:7 3:3 2:1
4:0 3:1 4:1 3:2 4:5 6:2 5:2 2:7 3:3 2:1 3:8
3:0 4:1 3:2 4:5 6:2 5:2 2:7 3:3 2:1 3:8 4:2
4:0 3:2 4:5 6:2 5:2 2:7 3:3 2:1 3:8 4:2 5:5
3:0 4:5 6:2 5:2 2:7 3:3 2:1 3:8 4:2 5:5 6:3
4:0 6:2 5:2 2:7 3:3 2:1 3:8 4:2 5:5 6:3 2:3
6:0 5:2 2:7 3:3 2:1 3:8 4:2 5:5 6:3 2:3 3:1
5:0 2:7 3:3 2:1 3:8 4:2 5:5 6:3 2:3 3:1 4:3
2:0 3:3 2:1 3:8 4:2 5:5 6:3 2:3 3:1 4:3 3:1
3:0 2:1 3:8 4:2 5:5 6:3 2:3 3:1 4:3 3:1 4:7
2:0 3:8 4:2 5:5 6:3 2:3 3:1 4:3 3:1 4:7 6:2
3:0 4:2 5:5 6:3 2:3 3:1 4:3 3:1 4:7 6:2 5:3
4:0 5:5 6:3 2:3 3:1 4:3 3:1 4:7 6:2 5:3 2:5
5:0 6:3 2:3 3:1 4:3 3:1 4:7 6:2 5:3 2:5 4:2
6:0 2:3 3:1 4:3 3:1 4:7 6:2 5:3 2:5 4:2 2:1
2:0 3:1 4:3 3:1 4:7 6:2 5:3 2:5 4:2 2:1 3:2
3:0 4:3 3:1 4:7 6:2 5:3 2:5 4:2 2:1 3:2 2:1
4:0 3:1 4:7 6:2 5:3 2:5 4:2 2:1 3:2 2:1 4:7
3:0 4:7 6:2 5:3 2:5 4:2 2:1 3:2 2:1 4:7 5:7
4:0 6:2 5:3 2:5 4:2 2:1 3:2 2:1 4:7 5:7 6:2
6:0 5:3 2:5 4:2 2:1 3:2 2:1 4:7 5:7 6:2 5:1
5:0 2:5 4:2 2:1 3:2 2:1 4:7 5:7 6:2 5:1 6:1
2:0 4:2 2:1 3:2 2:1 4:7 5:7 6:2 5:1 6:1 5:1
4:0 2:1 3:2 2:1 4:7 5:7 6:2 5:1 6:1 5:1 2:1
2:0 3:2 2:1 4:7 5:7 6:2 5:1 6:1 5:1 2:1 3:1
3:0 2:1 4:7 5:7 6:2 5:1 6:1 5:1 2:1 3:1 4:2
2:0 4:7 5:7 6:2 5:1 6:1 5:1 2:1 3:1 4:2 3:1
4:0 5:7 6:2 5:1 6:1 5:1 2:1 3:1 4:2 3:1 4:7
5:0 6:2 5:1 6:1 5:1 2:1 3:1 4:2 3:1 4:7 6:4
6:0 5:1 6:1 5:1 2:1 3:1 4:2 3:1 4:7 6:4 5:3
5:0 6:1 5:1 2:1 3:1 4:2 3:1 4:7 6:4 5:3 2:5
6:0 5:1 2:1 3:1 4:2 3:1 4:7 6:4 5:3 2:5 4:2
5:0 2:1 3:1 4:2 3:1 4:7 6:4 5:3 2:5 4:2 2:1
2:0 3:1 4:2 3:1 4:7 6:4 5:3 2:5 4:2 2:1 3:1
3:0 4:2 3:1 4:7 6:4 5:3 2:5 4:2 2:1 3:1 2:1
4:0 3:1 4:7 6:4 5:3 2:5 4:2 2:1 3:1 2:1 3:7
3:0 4:7 6:4 5:3 2:5 4:2 2:1 3:1 2:1 3:7 4:1
4:0 6:4 5:3 2:5 4:2 2:1 3:1 2:1 3:7 4:1 5:5
6:0 5:3 2:5 4:2 2:1 3:1 2:1 3:7 4:1 5:5 6:4
5:0 2:5 4:2 2:1 3:1 2:1 3:7 4:1 5:5 6:4 2:3
2:0 4:2 2:1 3:1 2:1 3:7 4:1 5:5 6:4 2:3 3:3
4:0 2:1 3:1 2:1 3:7 4:1 5:5 6:4 2:3 3:3 2:1
2:0 3:1 2:1 3:7 4:1 5:5 6:4 2:3 3:3 2:1 3:2
3:0 2:1 3:7 4:1 5:5 6:4 2:3 3:3 2:1 3:2 4:4
2:0 3:7 4:1 5:5 6:4 2:3 3:3 2:1 3:2 4:4 6:5
3:0 4:1 5:5 6:4 2:3 3:3 2:1 3:2 4:4 6:5 5:4
4:0 5:5 6:4 2:3 3:3 2:1 3:2 4:4 6:5 5:4 2:4
5:0 6:4 2:3 3:3 2:1 3:2 4:4 6:5 5:4 2:4 4:4
6:0 2:3 3:3 2:1 3:2 4:4 6:5 5:4 2:4 4:4 3:1
2:0 3:3 2:1 3:2 4:4 6:5 5:4 2:4 4:4 3:1 2:3
3:0 2:1 3:2 4:4 6:5 5:4 2:4 4:4 3:1 2:3 3:4
2:0 3:2 4:4 6:5 5:4 2:4 4:4 3:1 2:3 3:4 4:2
3:0 4:4 6:5 5:4 2:4 4:4 3:1 2:3 3:4 4:2 6:13
4:0 6:5 5:4 2:4 4:4 3:1 2:3 3:4 4:2 6:13 5:2
6:0 5:4 2:4 4:4 3:1 2:3 3:4 4:2 6:13 5:2 6:3
5:0 2:4 4:4 3:1 2:3 3:4 4:2 6:13 5:2 6:3 2:2
2:0 4:4 3:1 2:3 3:4 4:2 6:13 5:2 6:3 2:2 3:2
4:0 3:1 2:3 3:4 4:2 6:13 5:2 6:3 2:2 3:2 4:1
3:0 2:3 3:4 4:2 6:13 5:2 6:3 2:2 3:2 4:1 6:12
2:0 3:4 4:2 6:13 5:2 6:3 2:2 3:2 4:1 6:12 5:2
3:0 4:2 6:13 5:2 6:3 2:2 3:2 4:1 6:12 5:2 4:4
4:0 6:13 5:2 6:3 2:2 3:2 4:1 6:12 5:2 4:4 5:1
6:0 5:2 6:3 2:2 3:2 4:1 6:12 5:2 4:4 5:1 2:1
5:0 6:3 2:2 3:2 4:1 6:12 5:2 4:4 5:1 2:1 4:3
6:0 2:2 3:2 4:1 6:12 5:2 4:4 5:1 2:1 4:3 3:2
2:0 3:2 4:1 6:12 5:2 4:4 5:1 2:1 4:3 3:2 4:2
3:0 4:1 6:12 5:2 4:4 5:1 2:1 4:3 3:2 4:2 3:1
4:0 6:12 5:2 4:4 5:1 2:1 4:3 3:2 4:2 3:1 4:9
6:0 5:2 4:4 5:1 2:1 4:3 3:2 4:2 3:1 4:9 3:9
5:0 4:4 5:1 2:1 4:3 3:2 4:2 3:1 4:9 3:9 4:1
4:0 5:1 2:1 4:3 3:2 4:2 3:1 4:9 3:9 4:1 6:3
5:0 2:1 4:3 3:2 4:2 3:1 4:9 3:9 4:1 6:3 5:7
2:0 4:3 3:2 4:2 3:1 4:9 3:9 4:1 6:3 5:7 2:1
4:0 3:2 4:2 3:1 4:9 3:9 4:1 6:3 5:7 2:1 3:3
3:0 4:2 3:1 4:9 3:9 4:1 6:3 5:7 2:1 3:3 2:3
4:0 3:1 4:9 3:9 4:1 6:3 5:7 2:1 3:3 2:3 3:6
3:0 4:9 3:9 4:1 6:3 5:7 2:1 3:3 2:3 3:6 4:2
4:0 3:9 4:1 6:3 5:7 2:1 3:3 2:3 3:6 4:2 5:6
3:0 4:1 6:3 5:7 2:1 3:3 2:3 3:6 4:2 5:6 6:3
4:0 6:3 5:7 2:1 3:3 2:3 3:6 4:2 5:6 6:3 3:4
6:0 5:7 2:1 3:3 2:3 3:6 4:2 5:6 6:3 3:4 4:10
5:0 2:1 3:3 2:3 3:6 4:2 5:6 6:3 3:4 4:10 6:4
2:0 3:3 2:3 3:6 4:2 5:6 6:3 3:4 4:10 6:4 5:1
3:0 2:3 3:6 4:2 5:6 6:3 3:4 4:10 6:4 5:1 2:7
2:0 3:6 4:2 5:6 6:3 3:4 4:10 6:4 5:1 2:7 4:12
3:0 4:2 5:6 6:3 3:4 4:10 6:4 5:1 2:7 4:12 5:16
4:0 5:6 6:3 3:4 4:10 6:4 5:1 2:7 4:12 5:16 6:5
5:0 6:3 3:4 4:10 6:4 5:1 2:7 4:12 5:16 6:5 2:2
6:0 3:4 4:10 6:4 5:1 2:7 4:12 5:16 6:5 2:2 4:2
3:0 4:10 6:4 5:1 2:7 4:12 5:16 6:5 2:2 4:2 6:13
4:0 6:4 5:1 2:7 4:12 5:16 6:5 2:2 4:2 6:13 5:3
6:0 5:1 2:7 4:12 5:16 6:5 2:2 4:2 6:13 5:3 2:5
5:0 2:7 4:12 5:16 6:5 2:2 4:2 6:13 5:3 2:5 4:3
2:0 4:12 5:16 6:5 2:2 4:2 6:13 5:3 2:5 4:3 3:2
4:0 5:16 6:5 2:2 4:2 6:13 5:3 2:5 4:3 3:2 4:7
5:0 6:5 2:2 4:2 6:13 5:3 2:5 4:3 3:2 4:7 3:1
6:0 2:2 4:2 6:13 5:3 2:5 4:3 3:2 4:7 3:1 4:4
2:0 4:2 6:13 5:3 2:5 4:3 3:2 4:7 3:1 4:4 3:4
4:0 6:13 5:3 2:5 4:3 3:2 4:7 3:1 4:4 3:4 4:4
6:0 5:3 2:5 4:3 3:2 4:7 3:1 4:4 3:4 4:4 6:5
5:0 2:5 4:3 3:2 4:7 3:1 4:4 3:4 4:4 6:5 5:2
2:0 4:3 3:2 4:7 3:1 4:4 3:4 4:4 6:5 5:2 6:1
4:0 3:2 4:7 3:1 4:4 3:4 4:4 6:5 5:2 6:1 2:5
3:0 4:7 3:1 4:4 3:4 4:4 6:5 5:2 6:1 2:5 4:1
4:0 3:1 4:4 3:4 4:4 6:5 5:2 6:1 2:5 4:1 3:1
3:0 4:4 3:4 4:4 6:5 5:2 6:1 2:5 4:1 3:1 4:10
4:0 3:4 4:4 6:5 5:2 6:1 2:5 4:1 3:1 4:10 6:3
3:0 4:4 6:5 5:2 6:1 2:5 4:1 3:1 4:10 6:3 5:2
4:0 6:5 5:2 6:1 2:5 4:1 3:1 4:10 6:3 5:2 2:7
6:0 5:2 6:1 2:5 4:1 3:1 4:10 6:3 5:2 2:7 3:6
5:0 6:1 2:5 4:1 3:1 4:10 6:3 5:2 2:7 3:6 2:1
6:0 2:5 4:1 3:1 4:10 6:3 5:2 2:7 3:6 2:1 4:5
2:0 4:1 3:1 4:10 6:3 5:2 2:7 3:6 2:1 4:5 5:7
4:0 3:1 4:10 6:3 5:2 2:7 3:6 2:1 4:5 5:7 6:2
3:0 4:10 6:3 5:2 2:7 3:6 2:1 4:5 5:7 6:2 2:4
4:0 6:3 5:2 2:7 3:6 2:1 4:5 5:7 6:2 2:4 3:1
6:0 5:2 2:7 3:6 2:1 4:5 5:7 6:2 2:4 3:1 4:2
5:0 2:7 3:6 2:1 4:5 5:7 6:2 2:4 3:1 4:2 3:1
2:0 3:6 2:1 4:5 5:7 6:2 2:4 3:1 4:2 3:1 4:7
3:0 2:1 4:5 5:7 6:2 2:4 3:1 4:2 3:1 4:7 6:3
2:0 4:5 5:7 6:2 2:4 3:1 4:2 3:1 4:7 6:3 5:2
4:0 5:7 6:2 2:4 3:1 4:2 3:1 4:7 6:3 5:2 2:7
5:0 6:2 2:4 3:1 4:2 3:1 4:7 6:3 5:2 2:7 3:13
6:0 2:4 3:1 4:2 3:1 4:7 6:3 5:2 2:7 3:13 4:1
2:0 3:1 4:2 3:1 4:7 6:3 5:2 2:7 3:13 4:1 5:15
3:0 4:2 3:1 4:7 6:3 5:2 2:7 3:13 4:1 5:15 6:5
4:0 3:1 4:7 6:3 5:2 2:7 3:13 4:1 5:15 6:5 2:2
3:0 4:7 6:3 5:2 2:7 3:13 4:1 5:15 6:5 2:2 3:1
4:0 6:3 5:2 2:7 3:13 4:1 5:15 6:5 2:2 3:1 4:1
6:0 5:2 2:7 3:13 4:1 5:15 6:5 2:2 3:1 4:1 6:13
5:0 2:7 3:13 4:1 5:15 6:5 2:2 3:1 4:1 6:13 5:3
2:0 3:13 4:1 5:15 6:5 2:2 3:1 4:1 6:13 5:3 2:5
3:0 4:1 5:15 6:5 2:2 3:1 4:1 6:13 5:3 2:5 4:2
4:0 5:15 6:5 2:2 3:1 4:1 6:13 5:3 2:5 4:2 3:2
5:0 6:5 2:2 3:1 4:1 6:13 5:3 2:5 4:2 3:2 4:3
6:0 2:2 3:1 4:1 6:13 5:3 2:5 4:2 3:2 4:3 3:1
2:0 3:1 4:1 6:13 5:3 2:5 4:2 3:2 4:3 3:1 2:2
3:0 4:1 6:13 5:3 2:5 4:2 3:2 4:3 3:1 2:2 3:1
4:0 6:13 5:3 2:5 4:2 3:2 4:3 3:1 2:2 3:1 4:8
6:0 5:3 2:5 4:2 3:2 4:3 3:1 2:2 3:1 4:8 3:2
5:0 2:5 4:2 3:2 4:3 3:1 2:2 3:1 4:8 3:2 4:4
2:0 4:2 3:2 4:3 3:1 2:2 3:1 4:8 3:2 4:4 6:3
4:0 3:2 4:3 3:1 2:2 3:1 4:8 3:2 4:4 6:3 5:3
3:0 4:3 3:1 2:2 3:1 4:8 3:2 4:4 6:3 5:3 6:1
4:0 3:1 2:2 3:1 4:8 3:2 4:4 6:3 5:3 6:1 2:5
3:0 2:2 3:1 4:8 3:2 4:4 6:3 5:3 6:1 2:5 3:1
2:0 3:1 4:8 3:2 4:4 6:3 5:3 6:1 2:5 3:1 4:3
3:0 4:8 3:2 4:4 6:3 5:3 6:1 2:5 3:1 4:3 3:3
4:0 3:2 4:4 6:3 5:3 6:1 2:5 3:1 4:3 3:3 4:5
3:0 4:4 6:3 5:3 6:1 2:5 3:1 4:3 3:3 4:5 6:3
4:0 6:3 5:3 6:1 2:5 3:1 4:3 3:3 4:5 6:3 5:3
6:0 5:3 6:1 2:5 3:1 4:3 3:3 4:5 6:3 5:3 2:5
5:0 6:1 2:5 3:1 4:3 3:3 4:5 6:3 5:3 2:5 3:5
6:0 2:5 3:1 4:3 3:3 4:5 6:3 5:3 2:5 3:5 2:4
2:0 3:1 4:3 3:3 4:5 6:3 5:3 2:5 3:5 2:4 4:4
3:0 4:3 3:3 4:5 6:3 5:3 2:5 3:5 2:4 4:4 5:7
4:0 3:3 4:5 6:3 5:3 2:5 3:5 2:4 4:4 5:7 6:3
3:0 4:5 6:3 5:3 2:5 3:5 2:4 4:4 5:7 6:3 2:3
4:0 6:3 5:3 2:5 3:5 2:4 4:4 5:7 6:3 2:3 3:1
6:0 5:3 2:5 3:5 2:4 4:4 5:7 6:3 2:3 3:1 4:4
5:0 2:5 3:5 2:4 4:4 5:7 6:3 2:3 3:1 4:4 3:1
2:0 3:5 2:4 4:4 5:7 6:3 2:3 3:1 4:4 3:1 4:5
3:0 2:4 4:4 5:7 6:3 2:3 3:1 4:4 3:1 4:5 6:3
2:0 4:4 5:7 6:3 2:3 3:1 4:4 3:1 4:5 6:3 5:2
4:0 5:7 6:3 2:3 3:1 4:4 3:1 4:5 6:3 5:2 2:7
5:0 6:3 2:3 3:1 4:4 3:1 4:5 6:3 5:2 2:7 3:12
6:0 2:3 3:1 4:4 3:1 4:5 6:3 5:2 2:7 3:12 4:1
2:0 3:1 4:4 3:1 4:5 6:3 5:2 2:7 3:12 4:1 5:15
3:0 4:4 3:1 4:5 6:3 5:2 2:7 3:12 4:1 5:15 6:6
4:0 3:1 4:5 6:3 5:2 2:7 3:12 4:1 5:15 6:6 2:1
3:0 4:5 6:3 5:2 2:7 3:12 4:1 5:15 6:6 2:1 3:1
4:0 6:3 5:2 2:7 3:12 4:1 5:15 6:6 2:1 3:1 4:1
6:0 5:2 2:7 3:12 4:1 5:15 6:6 2:1 3:1 4:1 6:8
5:0 2:7 3:12 4:1 5:15 6:6 2:1 3:1 4:1 6:8 5:2
2:0 3:12 4:1 5:15 6:6 2:1 3:1 4:1 6:8 5:2 2:6
3:0 4:1 5:15 6:6 2:1 3:1 4:1 6:8 5:2 2:6 4:8
4:0 5:15 6:6 2:1 3:1 4:1 6:8 5:2 2:6 4:8 6:16
5:0 6:6 2:1 3:1 4:1 6:8 5:2 2:6 4:8 6:16 5:1
6:0 2:1 3:1 4:1 6:8 5:2 2:6 4:8 6:16 5:1 6:3
2:0 3:1 4:1 6:8 5:2 2:6 4:8 6:16 5:1 6:3 2:3
3:0 4:1 6:8 5:2 2:6 4:8 6:16 5:1 6:3 2:3 3:1
4:0 6:8 5:2 2:6 4:8 6:16 5:1 6:3 2:3 3:1 4:1
6:0 5:2 2:6 4:8 6:16 5:1 6:3 2:3 3:1 4:1 6:13
5:0 2:6 4:8 6:16 5:1 6:3 2:3 3:1 4:1 6:13 5:3
2:0 4:8 6:16 5:1 6:3 2:3 3:1 4:1 6:13 5:3 2:5
4:0 6:16 5:1 6:3 2:3 3:1 4:1 6:13 5:3 2:5 4:2
6:0 5:1 6:3 2:3 3:1 4:1 6:13 5:3 2:5 4:2 3:2
5:0 6:3 2:3 3:1 4:1 6:13 5:3 2:5 4:2 3:2 4:10
6:0 2:3 3:1 4:1 6:13 5:3 2:5 4:2 3:2 4:10 3:7
2:0 3:1 4:1 6:13 5:3 2:5 4:2 3:2 4:10 3:7 4:4
3:0 4:1 6:13 5:3 2:5 4:2 3:2 4:10 3:7 4:4 6:3
4:0 6:13 5:3 2:5 4:2 3:2 4:10 3:7 4:4 6:3 5:4
6:0 5:3 2:5 4:2 3:2 4:10 3:7 4:4 6:3 5:4 6:1
5:0 2:5 4:2 3:2 4:10 3:7 4:4 6:3 5:4 6:1 2:4
2:0 4:2 3:2 4:10 3:7 4:4 6:3 5:4 6:1 2:4 4:2
4:0 3:2 4:10 3:7 4:4 6:3 5:4 6:1 2:4 4:2 2:1
3:0 4:10 3:7 4:4 6:3 5:4 6:1 2:4 4:2 2:1 3:1
4:0 3:7 4:4 6:3 5:4 6:1 2:4 4:2 2:1 3:1 2:3
3:0 4:4 6:3 5:4 6:1 2:4 4:2 2:1 3:1 2:3 3:5
4:0 6:3 5:4 6:1 2:4 4:2 2:1 3:1 2:3 3:5 4:1
6:0 5:4 6:1 2:4 4:2 2:1 3:1 2:3 3:5 4:1 6:5
5:0 6:1 2:4 4:2 2:1 3:1 2:3 3:5 4:1 6:5 5:1
6:0 2:4 4:2 2:1 3:1 2:3 3:5 4:1 6:5 5:1 6:3
2:0 4:2 2:1 3:1 2:3 3:5 4:1 6:5 5:1 6:3 2:3
4:0 2:1 3:1 2:3 3:5 4:1 6:5 5:1 6:3 2:3 3:3
2:0 3:1 2:3 3:5 4:1 6:5 5:1 6:3 2:3 3:3 2:4
3:0 2:3 3:5 4:1 6:5 5:1 6:3 2:3 3:3 2:4 3:2
2:0 3:5 4:1 6:5 5:1 6:3 2:3 3:3 2:4 3:2 4:3
3:0 4:1 6:5 5:1 6:3 2:3 3:3 2:4 3:2 4:3 5:4
4:0 6:5 5:1 6:3 2:3 3:3 2:4 3:2 4:3 5:4 6:1
6:0 5:1 6:3 2:3 3:3 2:4 3:2 4:3 5:4 6:1 5:3
5:0 6:3 2:3 3:3 2:4 3:2 4:3 5:4 6:1 5:3 2:4
6:0 2:3 3:3 2:4 3:2 4:3 5:4 6:1 5:3 2:4 3:2
2:0 3:3 2:4 3:2 4:3 5:4 6:1 5:3 2:4 3:2 2:1
3:0 2:4 3:2 4:3 5:4 6:1 5:3 2:4 3:2 2:1 3:8
2:0 3:2 4:3 5:4 6:1 5:3 2:4 3:2 2:1 3:8 4:1
3:0 4:3 5:4 6:1 5:3 2:4 3:2 2:1 3:8 4:1 5:7
4:0 5:4 6:1 5:3 2:4 3:2 2:1 3:8 4:1 5:7 6:3
5:0 6:1 5:3 2:4 3:2 2:1 3:8 4:1 5:7 6:3 3:3
6:0 5:3 2:4 3:2 2:1 3:8 4:1 5:7 6:3 3:3 4:10
5:0 2:4 3:2 2:1 3:8 4:1 5:7 6:3 3:3 4:10 6:5
2:0 3:2 2:1 3:8 4:1 5:7 6:3 3:3 4:10 6:5 5:4
3:0 2:1 3:8 4:1 5:7 6:3 3:3 4:10 6:5 5:4 2:4
2:0 3:8 4:1 5:7 6:3 3:3 4:10 6:5 5:4 2:4 4:2
3:0 4:1 5:7 6:3 3:3 4:10 6:5 5:4 2:4 4:2 2:1
4:0 5:7 6:3 3:3 4:10 6:5 5:4 2:4 4:2 2:1 3:3
5:0 6:3 3:3 4:10 6:5 5:4 2:4 4:2 2:1 3:3 2:1
6:0 3:3 4:10 6:5 5:4 2:4 4:2 2:1 3:3 2:1 3:5
3:0 4:10 6:5 5:4 2:4 4:2 2:1 3:3 2:1 3:5 4:1
4:0 6:5 5:4 2:4 4:2 2:1 3:3 2:1 3:5 4:1 5:7
6:0 5:4 2:4 4:2 2:1 3:3 2:1 3:5 4:1 5:7 6:4
5:0 2:4 4:2 2:1 3:3 2:1 3:5 4:1 5:7 6:4 2:2
2:0 4:2 2:1 3:3 2:1 3:5 4:1 5:7 6:4 2:2 3:1
4:0 2:1 3:3 2:1 3:5 4:1 5:7 6:4 2:2 3:1 4:8
2:0 3:3 2:1 3:5 4:1 5:7 6:4 2:2 3:1 4:8 6:5
3:0 2:1 3:5 4:1 5:7 6:4 2:2 3:1 4:8 6:5 5:4
2:0 3:5 4:1 5:7 6:4 2:2 3:1 4:8 6:5 5:4 2:3
3:0 4:1 5:7 6:4 2:2 3:1 4:8 6:5 5:4 2:3 4:12
4:0 5:7 6:4 2:2 3:1 4:8 6:5 5:4 2:3 4:12 6:15
5:0 6:4 2:2 3:1 4:8 6:5 5:4 2:3 4:12 6:15 5:4
6:0 2:2 3:1 4:8 6:5 5:4 2:3 4:12 6:15 5:4 6:1
2:0 3:1 4:8 6:5 5:4 2:3 4:12 6:15 5:4 6:1 2:2
3:0 4:8 6:5 5:4 2:3 4:12 6:15 5:4 6:1 2:2 4:3
4:0 6:5 5:4 2:3 4:12 6:15 5:4 6:1 2:2 4:3 3:9
6:0 5:4 2:3 4:12 6:15 5:4 6:1 2:2 4:3 3:9 4:7
5:0 2:3 4:12 6:15 5:4 6:1 2:2 4:3 3:9 4:7 3:2
2:0 4:12 6:15 5:4 6:1 2:2 4:3 3:9 4:7 3:2 4:5
4:0 6:15 5:4 6:1 2:2 4:3 3:9 4:7 3:2 4:5 6:4
6:0 5:4 6:1 2:2 4:3 3:9 4:7 3:2 4:5 6:4 5:1
5:0 6:1 2:2 4:3 3:9 4:7 3:2 4:5 6:4 5:1 6:2
6:0 2:2 4:3 3:9 4:7 3:2 4:5 6:4 5:1 6:2 2:5
2:0 4:3 3:9 4:7 3:2 4:5 6:4 5:1 6:2 2:5 3:1
4:0 3:9 4:7 3:2 4:5 6:4 5:1 6:2 2:5 3:1 4:11
3:0 4:7 3:2 4:5 6:4 5:1 6:2 2:5 3:1 4:11 6:4
4:0 3:2 4:5 6:4 5:1 6:2 2:5 3:1 4:11 6:4 5:2
3:0 4:5 6:4 5:1 6:2 2:5 3:1 4:11 6:4 5:2 2:6
4:0 6:4 5:1 6:2 2:5 3:1 4:11 6:4 5:2 2:6 4:3
6:0 5:1 6:2 2:5 3:1 4:11 6:4 5:2 2:6 4:3 2:2
5:0 6:2 2:5 3:1 4:11 6:4 5:2 2:6 4:3 2:2 3:7
6:0 2:5 3:1 4:11 6:4 5:2 2:6 4:3 2:2 3:7 4:2
2:0 3:1 4:11 6:4 5:2 2:6 4:3 2:2 3:7 4:2 6:14
3:0 4:11 6:4 5:2 2:6 4:3 2:2 3:7 4:2 6:14 5:1
4:0 6:4 5:2 2:6 4:3 2:2 3:7 4:2 6:14 5:1 6:4
6:0 5:2 2:6 4:3 2:2 3:7 4:2 6:14 5:1 6:4 2:2
5:0 2:6 4:3 2:2 3:7 4:2 6:14 5:1 6:4 2:2 3:1
2:0 4:3 2:2 3:7 4:2 6:14 5:1 6:4 2:2 3:1 4:1
4:0 2:2 3:7 4:2 6:14 5:1 6:4 2:2 3:1 4:1 6:14
2:0 3:7 4:2 6:14 5:1 6:4 2:2 3:1 4:1 6:14 5:4
3:0 4:2 6:14 5:1 6:4 2:2 3:1 4:1 6:14 5:4 2:4
4:0 6:14 5:1 6:4 2:2 3:1 4:1 6:14 5:4 2:4 4:2
6:0 5:1 6:4 2:2 3:1 4:1 6:14 5:4 2:4 4:2 3:1
5:0 6:4 2:2 3:1 4:1 6:14 5:4 2:4 4:2 3:1 4:3
6:0 2:2 3:1 4:1 6:14 5:4 2:4 4:2 3:1 4:3 3:2
2:0 3:1 4:1 6:14 5:4 2:4 4:2 3:1 4:3 3:2 4:8
3:0 4:1 6:14 5:4 2:4 4:2 3:1 4:3 3:2 4:8 3:6
4:0 6:14 5:4 2:4 4:2 3:1 4:3 3:2 4:8 3:6 4:3
6:0 5:4 2:4 4:2 3:1 4:3 3:2 4:8 3:6 4:3 6:3
5:0 2:4 4:2 3:1 4:3 3:2 4:8 3:6 4:3 6:3 2:8
2:0 4:2 3:1 4:3 3:2 4:8 3:6 4:3 6:3 2:8 3:5
4:0 3:1 4:3 3:2 4:8 3:6 4:3 6:3 2:8 3:5 2:1
3:0 4:3 3:2 4:8 3:6 4:3 6:3 2:8 3:5 2:1 3:6
4:0 3:2 4:8 3:6 4:3 6:3 2:8 3:5 2:1 3:6 4:1
3:0 4:8 3:6 4:3 6:3 2:8 3:5 2:1 3:6 4:1 6:6
4:0 3:6 4:3 6:3 2:8 3:5 2:1 3:6 4:1 6:6 5:1
3:0 4:3 6:3 2:8 3:5 2:1 3:6 4:1 6:6 5:1 6:5
4:0 6:3 2:8 3:5 2:1 3:6 4:1 6:6 5:1 6:5 2:2
6:0 2:8 3:5 2:1 3:6 4:1 6:6 5:1 6:5 2:2 3:2
2:0 3:5 2:1 3:6 4:1 6:6 5:1 6:5 2:2 3:2 2:1
3:0 2:1 3:6 4:1 6:6 5:1 6:5 2:2 3:2 2:1 3:6
2:0 3:6 4:1 6:6 5:1 6:5 2:2 3:2 2:1 3:6 4:1
3:0 4:1 6:6 5:1 6:5 2:2 3:2 2:1 3:6 4:1 6:5
4:0 6:6 5:1 6:5 2:2 3:2 2:1 3:6 4:1 6:5 5:4
6:0 5:1 6:5 2:2 3:2 2:1 3:6 4:1 6:5 5:4 2:3
5:0 6:5 2:2 3:2 2:1 3:6 4:1 6:5 5:4 2:3 4:4
6:0 2:2 3:2 2:1 3:6 4:1 6:5 5:4 2:3 4:4 2:1
2:0 3:2 2:1 3:6 4:1 6:5 5:4 2:3 4:4 2:1 3:7
3:0 2:1 3:6 4:1 6:5 5:4 2:3 4:4 2:1 3:7 4:1
2:0 3:6 4:1 6:5 5:4 2:3 4:4 2:1 3:7 4:1 6:15
3:0 4:1 6:5 5:4 2:3 4:4 2:1 3:7 4:1 6:15 5:1
4:0 6:5 5:4 2:3 4:4 2:1 3:7 4:1 6:15 5:1 6:4
6:0 5:4 2:3 4:4 2:1 3:7 4:1 6:15 5:1 6:4 3:3
5:0 2:3 4:4 2:1 3:7 4:1 6:15 5:1 6:4 3:3 4:1
2:0 4:4 2:1 3:7 4:1 6:15 5:1 6:4 3:3 4:1 6:13
4:0 2:1 3:7 4:1 6:15 5:1 6:4 3:3 4:1 6:13 5:4
2:0 3:7 4:1 6:15 5:1 6:4 3:3 4:1 6:13 5:4 2:5
3:0 4:1 6:15 5:1 6:4 3:3 4:1 6:13 5:4 2:5 3:2
4:0 6:15 5:1 6:4 3:3 4:1 6:13 5:4 2:5 3:2 4:1
6:0 5:1 6:4 3:3 4:1 6:13 5:4 2:5 3:2 4:1 3:2
5:0 6:4 3:3 4:1 6:13 5:4 2:5 3:2 4:1 3:2 4:9
6:0 3:3 4:1 6:13 5:4 2:5 3:2 4:1 3:2 4:9 3:8
3:0 4:1 6:13 5:4 2:5 3:2 4:1 3:2 4:9 3:8 4:3
4:0 6:13 5:4 2:5 3:2 4:1 3:2 4:9 3:8 4:3 6:3
6:0 5:4 2:5 3:2 4:1 3:2 4:9 3:8 4:3 6:3 5:7
5:0 2:5 3:2 4:1 3:2 4:9 3:8 4:3 6:3 5:7 2:1
2:0 3:2 4:1 3:2 4:9 3:8 4:3 6:3 5:7 2:1 3:12
3:0 4:1 3:2 4:9 3:8 4:3 6:3 5:7 2:1 3:12 4:1
4:0 3:2 4:9 3:8 4:3 6:3 5:7 2:1 3:12 4:1 3:1
3:0 4:9 3:8 4:3 6:3 5:7 2:1 3:12 4:1 3:1 4:1
4:0 3:8 4:3 6:3 5:7 2:1 3:12 4:1 3:1 4:1 6:13
3:0 4:3 6:3 5:7 2:1 3:12 4:1 3:1 4:1 6:13 5:2
4:0 6:3 5:7 2:1 3:12 4:1 3:1 4:1 6:13 5:2 6:4
6:0 5:7 2:1 3:12 4:1 3:1 4:1 6:13 5:2 6:4 2:1
5:0 2:1 3:12 4:1 3:1 4:1 6:13 5:2 6:4 2:1 3:2
2:0 3:12 4:1 3:1 4:1 6:13 5:2 6:4 2:1 3:2 4:1
3:0 4:1 3:1 4:1 6:13 5:2 6:4 2:1 3:2 4:1 3:10
4:0 3:1 4:1 6:13 5:2 6:4 2:1 3:2 4:1 3:10 4:7
3:0 4:1 6:13 5:2 6:4 2:1 3:2 4:1 3:10 4:7 3:1
4:0 6:13 5:2 6:4 2:1 3:2 4:1 3:10 4:7 3:1 4:5
6:0 5:2 6:4 2:1 3:2 4:1 3:10 4:7 3:1 4:5 5:4
5:0 6:4 2:1 3:2 4:1 3:10 4:7 3:1 4:5 5:4 6:5
6:0 2:1 3:2 4:1 3:10 4:7 3:1 4:5 5:4 6:5 2:3
2:0 3:2 4:1 3:10 4:7 3:1 4:5 5:4 6:5 2:3 3:1
3:0 4:1 3:10 4:7 3:1 4:5 5:4 6:5 2:3 3:1 4:11
4:0 3:10 4:7 3:1 4:5 5:4 6:5 2:3 3:1 4:11 6:4
3:0 4:7 3:1 4:5 5:4 6:5 2:3 3:1 4:11 6:4 5:2
4:0 3:1 4:5 5:4 6:5 2:3 3:1 4:11 6:4 5:2 2:6
3:0 4:5 5:4 6:5 2:3 3:1 4:11 6:4 5:2 2:6 4:2
4:0 5:4 6:5 2:3 3:1 4:11 6:4 5:2 2:6 4:2 2:1
5:0 6:5 2:3 3:1 4:11 6:4 5:2 2:6 4:2 2:1 3:1
6:0 2:3 3:1 4:11 6:4 5:2 2:6 4:2 2:1 3:1 2:1
2:0 3:1 4:11 6:4 5:2 2:6 4:2 2:1 3:1 2:1 3:7
3:0 4:11 6:4 5:2 2:6 4:2 2:1 3:1 2:1 3:7 4:1
4:0 6:4 5:2 2:6 4:2 2:1 3:1 2:1 3:7 4:1 5:15
6:0 5:2 2:6 4:2 2:1 3:1 2:1 3:7 4:1 5:15 6:1
5:0 2:6 4:2 2:1 3:1 2:1 3:7 4:1 5:15 6:1 5:2
2:0 4:2 2:1 3:1 2:1 3:7 4:1 5:15 6:1 5:2 6:2
4:0 2:1 3:1 2:1 3:7 4:1 5:15 6:1 5:2 6:2 2:2
2:0 3:1 2:1 3:7 4:1 5:15 6:1 5:2 6:2 2:2 3:1
3:0 2:1 3:7 4:1 5:15 6:1 5:2 6:2 2:2 3:1 4:1
2:0 3:7 4:1 5:15 6:1 5:2 6:2 2:2 3:1 4:1 3:2
3:0 4:1 5:15 6:1 5:2 6:2 2:2 3:1 4:1 3:2 4:2
4:0 5:15 6:1 5:2 6:2 2:2 3:1 4:1 3:2 4:2 3:2
5:0 6:1 5:2 6:2 2:2 3:1 4:1 3:2 4:2 3:2 4:7
6:0 5:2 6:2 2:2 3:1 4:1 3:2 4:2 3:2 4:7 3:5
5:0 6:2 2:2 3:1 4:1 3:2 4:2 3:2 4:7 3:5 4:3
6:0 2:2 3:1 4:1 3:2 4:2 3:2 4:7 3:5 4:3 6:4
2:0 3:1 4:1 3:2 4:2 3:2 4:7 3:5 4:3 6:4 2:9
3:0 4:1 3:2 4:2 3:2 4:7 3:5 4:3 6:4 2:9 3:2
4:0 3:2 4:2 3:2 4:7 3:5 4:3 6:4 2:9 3:2 4:1
3:0 4:2 3:2 4:7 3:5 4:3 6:4 2:9 3:2 4:1 3:2
4:0 3:2 4:7 3:5 4:3 6:4 2:9 3:2 4:1 3:2 4:1
3:0 4:7 3:5 4:3 6:4 2:9 3:2 4:1 3:2 4:1 3:1
4:0 3:5 4:3 6:4 2:9 3:2 4:1 3:2 4:1 3:1 4:6
3:0 4:3 6:4 2:9 3:2 4:1 3:2 4:1 3:1 4:6 6:3
4:0 6:4 2:9 3:2 4:1 3:2 4:1 3:1 4:6 6:3 5:2
6:0 2:9 3:2 4:1 3:2 4:1 3:1 4:6 6:3 5:2 2:6
2:0 3:2 4:1 3:2 4:1 3:1 4:6 6:3 5:2 2:6 3:1
3:0 4:1 3:2 4:1 3:1 4:6 6:3 5:2 2:6 3:1 2:1
4:0 3:2 4:1 3:1 4:6 6:3 5:2 2:6 3:1 2:1 3:1
3:0 4:1 3:1 4:6 6:3 5:2 2:6 3:1 2:1 3:1 2:2
4:0 3:1 4:6 6:3 5:2 2:6 3:1 2:1 3:1 2:2 3:7
3:0 4:6 6:3 5:2 2:6 3:1 2:1 3:1 2:2 3:7 4:1
4:0 6:3 5:2 2:6 3:1 2:1 3:1 2:2 3:7 4:1 5:5
6:0 5:2 2:6 3:1 2:1 3:1 2:2 3:7 4:1 5:5 6:1
5:0 2:6 3:1 2:1 3:1 2:2 3:7 4:1 5:5 6:1 5:3
2:0 3:1 2:1 3:1 2:2 3:7 4:1 5:5 6:1 5:3 6:1
3:0 2:1 3:1 2:2 3:7 4:1 5:5 6:1 5:3 6:1 2:2
2:0 3:1 2:2 3:7 4:1 5:5 6:1 5:3 6:1 2:2 3:3
3:0 2:2 3:7 4:1 5:5 6:1 5:3 6:1 2:2 3:3 4:9
2:0 3:7 4:1 5:5 6:1 5:3 6:1 2:2 3:3 4:9 6:5
3:0 4:1 5:5 6:1 5:3 6:1 2:2 3:3 4:9 6:5 5:4
4:0 5:5 6:1 5:3 6:1 2:2 3:3 4:9 6:5 5:4 2:3
5:0 6:1 5:3 6:1 2:2 3:3 4:9 6:5 5:4 2:3 4:4
6:0 5:3 6:1 2:2 3:3 4:9 6:5 5:4 2:3 4:4 3:1
5:0 6:1 2:2 3:3 4:9 6:5 5:4 2:3 4:4 3:1 2:1
6:0 2:2 3:3 4:9 6:5 5:4 2:3 4:4 3:1 2:1 3:1
2:0 3:3 4:9 6:5 5:4 2:3 4:4 3:1 2:1 3:1 2:1
3:0 4:9 6:5 5:4 2:3 4:4 3:1 2:1 3:1 2:1 3:4
4:0 6:5 5:4 2:3 4:4 3:1 2:1 3:1 2:1 3:4 4:1
6:0 5:4 2:3 4:4 3:1 2:1 3:1 2:1 3:4 4:1 5:7
5:0 2:3 4:4 3:1 2:1 3:1 2:1 3:4 4:1 5:7 6:2
2:0 4:4 3:1 2:1 3:1 2:1 3:4 4:1 5:7 6:2 5:1
4:0 3:1 2:1 3:1 2:1 3:4 4:1 5:7 6:2 5:1 6:1
3:0 2:1 3:1 2:1 3:4 4:1 5:7 6:2 5:1 6:1 2:2
2:0 3:1 2:1 3:4 4:1 5:7 6:2 5:1 6:1 2:2 3:1
3:0 2:1 3:4 4:1 5:7 6:2 5:1 6:1 2:2 3:1 4:1
2:0 3:4 4:1 5:7 6:2 5:1 6:1 2:2 3:1 4:1 3:1
3:0 4:1 5:7 6:2 5:1 6:1 2:2 3:1 4:1 3:1 4:8
4:0 5:7 6:2 5:1 6:1 2:2 3:1 4:1 3:1 4:8 6:3
5:0 6:2 5:1 6:1 2:2 3:1 4:1 3:1 4:8 6:3 5:3
6:0 5:1 6:1 2:2 3:1 4:1 3:1 4:8 6:3 5:3 2:5
5:0 6:1 2:2 3:1 4:1 3:1 4:8 6:3 5:3 2:5 4:12
6:0 2:2 3:1 4:1 3:1 4:8 6:3 5:3 2:5 4:12 5:13
2:0 3:1 4:1 3:1 4:8 6:3 5:3 2:5 4:12 5:13 6:1
3:0 4:1 3:1 4:8 6:3 5:3 2:5 4:12 5:13 6:1 2:7
4:0 3:1 4:8 6:3 5:3 2:5 4:12 5:13 6:1 2:7 4:3
3:0 4:8 6:3 5:3 2:5 4:12 5:13 6:1 2:7 4:3 3:10
4:0 6:3 5:3 2:5 4:12 5:13 6:1 2:7 4:3 3:10 4:4
6:0 5:3 2:5 4:12 5:13 6:1 2:7 4:3 3:10 4:4 3:5
5:0 2:5 4:12 5:13 6:1 2:7 4:3 3:10 4:4 3:5 4:5
2:0 4:12 5:13 6:1 2:7 4:3 3:10 4:4 3:5 4:5 6:3
4:0 5:13 6:1 2:7 4:3 3:10 4:4 3:5 4:5 6:3 5:3
5:0 6:1 2:7 4:3 3:10 4:4 3:5 4:5 6:3 5:3 6:2
6:0 2:7 4:3 3:10 4:4 3:5 4:5 6:3 5:3 6:2 2:4
2:0 4:3 3:10 4:4 3:5 4:5 6:3 5:3 6:2 2:4 3:1
4:0 3:10 4:4 3:5 4:5 6:3 5:3 6:2 2:4 3:1 4:4
3:0 4:4 3:5 4:5 6:3 5:3 6:2 2:4 3:1 4:4 3:2
4:0 3:5 4:5 6:3 5:3 6:2 2:4 3:1 4:4 3:2 4:5
3:0 4:5 6:3 5:3 6:2 2:4 3:1 4:4 3:2 4:5 6:2
4:0 6:3 5:3 6:2 2:4 3:1 4:4 3:2 4:5 6:2 5:2
6:0 5:3 6:2 2:4 3:1 4:4 3:2 4:5 6:2 5:2 2:8
5:0 6:2 2:4 3:1 4:4 3:2 4:5 6:2 5:2 2:8 4:12
6:0 2:4 3:1 4:4 3:2 4:5 6:2 5:2 2:8 4:12 3:2
2:0 3:1 4:4 3:2 4:5 6:2 5:2 2:8 4:12 3:2 4:1
3:0 4:4 3:2 4:5 6:2 5:2 2:8 4:12 3:2 4:1 5:13
4:0 3:2 4:5 6:2 5:2 2:8 4:12 3:2 4:1 5:13 6:4
3:0 4:5 6:2 5:2 2:8 4:12 3:2 4:1 5:13 6:4 2:3
4:0 6:2 5:2 2:8 4:12 3:2 4:1 5:13 6:4 2:3 3:1
6:0 5:2 2:8 4:12 3:2 4:1 5:13 6:4 2:3 3:1 4:1
5:0 2:8 4:12 3:2 4:1 5:13 6:4 2:3 3:1 4:1 3:7
2:0 4:12 3:2 4:1 5:13 6:4 2:3 3:1 4:1 3:7 4:4
4:0 3:2 4:1 5:13 6:4 2:3 3:1 4:1 3:7 4:4 3:8
3:0 4:1 5:13 6:4 2:3 3:1 4:1 3:7 4:4 3:8 4:4
4:0 5:13 6:4 2:3 3:1 4:1 3:7 4:4 3:8 4:4 6:3
5:0 6:4 2:3 3:1 4:1 3:7 4:4 3:8 4:4 6:3 5:2
6:0 2:3 3:1 4:1 3:7 4:4 3:8 4:4 6:3 5:2 6:3
2:0 3:1 4:1 3:7 4:4 3:8 4:4 6:3 5:2 6:3 2:3
3:0 4:1 3:7 4:4 3:8 4:4 6:3 5:2 6:3 2:3 3:2
4:0 3:7 4:4 3:8 4:4 6:3 5:2 6:3 2:3 3:2 4:5
3:0 4:4 3:8 4:4 6:3 5:2 6:3 2:3 3:2 4:5 3:1
4:0 3:8 4:4 6:3 5:2 6:3 2:3 3:2 4:5 3:1 4:4
3:0 4:4 6:3 5:2 6:3 2:3 3:2 4:5 3:1 4:4 6:5
4:0 6:3 5:2 6:3 2:3 3:2 4:5 3:1 4:4 6:5 5:2
6:0 5:2 6:3 2:3 3:2 4:5 3:1 4:4 6:5 5:2 2:7
5:0 6:3 2:3 3:2 4:5 3:1 4:4 6:5 5:2 2:7 4:11
6:0 2:3 3:2 4:5 3:1 4:4 6:5 5:2 2:7 4:11 3:1
2:0 3:2 4:5 3:1 4:4 6:5 5:2 2:7 4:11 3:1 4:1
3:0 4:5 3:1 4:4 6:5 5:2 2:7 4:11 3:1 4:1 5:12
4:0 3:1 4:4 6:5 5:2 2:7 4:11 3:1 4:1 5:12 6:2
3:0 4:4 6:5 5:2 2:7 4:11 3:1 4:1 5:12 6:2 5:1
4:0 6:5 5:2 2:7 4:11 3:1 4:1 5:12 6:2 5:1 6:1
6:0 5:2 2:7 4:11 3:1 4:1 5:12 6:2 5:1 6:1 5:2
5:0 2:7 4:11 3:1 4:1 5:12 6:2 5:1 6:1 5:2 2:1
2:0 4:11 3:1 4:1 5:12 6:2 5:1 6:1 5:2 2:1 4:2
4:0 3:1 4:1 5:12 6:2 5:1 6:1 5:2 2:1 4:2 6:14
3:0 4:1 5:12 6:2 5:1 6:1 5:2 2:1 4:2 6:14 5:2
4:0 5:12 6:2 5:1 6:1 5:2 2:1 4:2 6:14 5:2 2:6
5:0 6:2 5:1 6:1 5:2 2:1 4:2 6:14 5:2 2:6 4:4
6:0 5:1 6:1 5:2 2:1 4:2 6:14 5:2 2:6 4:4 3:2
5:0 6:1 5:2 2:1 4:2 6:14 5:2 2:6 4:4 3:2 4:2
6:0 5:2 2:1 4:2 6:14 5:2 2:6 4:4 3:2 4:2 3:3
5:0 2:1 4:2 6:14 5:2 2:6 4:4 3:2 4:2 3:3 4:16
2:0 4:2 6:14 5:2 2:6 4:4 3:2 4:2 3:3 4:16 6:4
4:0 6:14 5:2 2:6 4:4 3:2 4:2 3:3 4:16 6:4 5:1
6:0 5:2 2:6 4:4 3:2 4:2 3:3 4:16 6:4 5:1 6:2
5:0 2:6 4:4 3:2 4:2 3:3 4:16 6:4 5:1 6:2 3:5
2:0 4:4 3:2 4:2 3:3 4:16 6:4 5:1 6:2 3:5 4:11
4:0 3:2 4:2 3:3 4:16 6:4 5:1 6:2 3:5 4:11 6:4
3:0 4:2 3:3 4:16 6:4 5:1 6:2 3:5 4:11 6:4 5:4
4:0 3:3 4:16 6:4 5:1 6:2 3:5 4:11 6:4 5:4 2:5
3:0 4:16 6:4 5:1 6:2 3:5 4:11 6:4 5:4 2:5 3:11
4:0 6:4 5:1 6:2 3:5 4:11 6:4 5:4 2:5 3:11 4:1
6:0 5:1 6:2 3:5 4:11 6:4 5:4 2:5 3:11 4:1 5:7
5:0 6:2 3:5 4:11 6:4 5:4 2:5 3:11 4:1 5:7 6:1
6:0 3:5 4:11 6:4 5:4 2:5 3:11 4:1 5:7 6:1 5:1
3:0 4:11 6:4 5:4 2:5 3:11 4:1 5:7 6:1 5:1 6:1
4:0 6:4 5:4 2:5 3:11 4:1 5:7 6:1 5:1 6:1 5:1
6:0 5:4 2:5 3:11 4:1 5:7 6:1 5:1 6:1 5:1 6:1
5:0 2:5 3:11 4:1 5:7 6:1 5:1 6:1 5:1 6:1 2:1
2:0 3:11 4:1 5:7 6:1 5:1 6:1 5:1 6:1 2:1 3:1
3:0 4:1 5:7 6:1 5:1 6:1 5:1 6:1 2:1 3:1 4:10
4:0 5:7 6:1 5:1 6:1 5:1 6:1 2:1 3:1 4:10 6:3
5:0 6:1 5:1 6:1 5:1 6:1 2:1 3:1 4:10 6:3 5:5
6:0 5:1 6:1 5:1 6:1 2:1 3:1 4:10 6:3 5:5 2:4
5:0 6:1 5:1 6:1 2:1 3:1 4:10 6:3 5:5 2:4 3:4
6:0 5:1 6:1 2:1 3:1 4:10 6:3 5:5 2:4 3:4 2:1
5:0 6:1 2:1 3:1 4:10 6:3 5:5 2:4 3:4 2:1 3:7
6:0 2:1 3:1 4:10 6:3 5:5 2:4 3:4 2:1 3:7 4:2
2:0 3:1 4:10 6:3 5:5 2:4 3:4 2:1 3:7 4:2 6:12
3:0 4:10 6:3 5:5 2:4 3:4 2:1 3:7 4:2 6:12 2:8
4:0 6:3 5:5 2:4 3:4 2:1 3:7 4:2 6:12 2:8 4:2
6:0 5:5 2:4 3:4 2:1 3:7 4:2 6:12 2:8 4:2 3:8
5:0 2:4 3:4 2:1 3:7 4:2 6:12 2:8 4:2 3:8 4:6
2:0 3:4 2:1 3:7 4:2 6:12 2:8 4:2 3:8 4:6 3:5
3:0 2:1 3:7 4:2 6:12 2:8 4:2 3:8 4:6 3:5 4:4
2:0 3:7 4:2 6:12 2:8 4:2 3:8 4:6 3:5 4:4 6:3
3:0 4:2 6:12 2:8 4:2 3:8 4:6 3:5 4:4 6:3 5:9
4:0 6:12 2:8 4:2 3:8 4:6 3:5 4:4 6:3 5:9 2:1
6:0 2:8 4:2 3:8 4:6 3:5 4:4 6:3 5:9 2:1 4:13
2:0 4:2 3:8 4:6 3:5 4:4 6:3 5:9 2:1 4:13 5:14
4:0 3:8 4:6 3:5 4:4 6:3 5:9 2:1 4:13 5:14 6:5
3:0 4:6 3:5 4:4 6:3 5:9 2:1 4:13 5:14 6:5 2:3
4:0 3:5 4:4 6:3 5:9 2:1 4:13 5:14 6:5 2:3 3:1
3:0 4:4 6:3 5:9 2:1 4:13 5:14 6:5 2:3 3:1 4:1
4:0 6:3 5:9 2:1 4:13 5:14 6:5 2:3 3:1 4:1 6:8
6:0 5:9 2:1 4:13 5:14 6:5 2:3 3:1 4:1 6:8 5:3
5:0 2:1 4:13 5:14 6:5 2:3 3:1 4:1 6:8 5:3 2:5
2:0 4:13 5:14 6:5 2:3 3:1 4:1 6:8 5:3 2:5 4:8
4:0 5:14 6:5 2:3 3:1 4:1 6:8 5:3 2:5 4:8 3:2
5:0 6:5 2:3 3:1 4:1 6:8 5:3 2:5 4:8 3:2 4:6
6:0 2:3 3:1 4:1 6:8 5:3 2:5 4:8 3:2 4:6 3:1
2:0 3:1 4:1 6:8 5:3 2:5 4:8 3:2 4:6 3:1 4:3
3:0 4:1 6:8 5:3 2:5 4:8 3:2 4:6 3:1 4:3 3:7
4:0 6:8 5:3 2:5 4:8 3:2 4:6 3:1 4:3 3:7 4:2
6:0 5:3 2:5 4:8 3:2 4:6 3:1 4:3 3:7 4:2 6:4
5:0 2:5 4:8 3:2 4:6 3:1 4:3 3:7 4:2 6:4 2:9
2:0 4:8 3:2 4:6 3:1 4:3 3:7 4:2 6:4 2:9 4:4
4:0 3:2 4:6 3:1 4:3 3:7 4:2 6:4 2:9 4:4 2:1
3:0 4:6 3:1 4:3 3:7 4:2 6:4 2:9 4:4 2:1 4:8
4:0 3:1 4:3 3:7 4:2 6:4 2:9 4:4 2:1 4:8 5:7
3:0 4:3 3:7 4:2 6:4 2:9 4:4 2:1 4:8 5:7 6:2
4:0 3:7 4:2 6:4 2:9 4:4 2:1 4:8 5:7 6:2 5:1
3:0 4:2 6:4 2:9 4:4 2:1 4:8 5:7 6:2 5:1 6:1
4:0 6:4 2:9 4:4 2:1 4:8 5:7 6:2 5:1 6:1 3:2
6:0 2:9 4:4 2:1 4:8 5:7 6:2 5:1 6:1 3:2 4:10
2:0 4:4 2:1 4:8 5:7 6:2 5:1 6:1 3:2 4:10 6:5
4:0 2:1 4:8 5:7 6:2 5:1 6:1 3:2 4:10 6:5 5:3
2:0 4:8 5:7 6:2 5:1 6:1 3:2 4:10 6:5 5:3 2:5
4:0 5:7 6:2 5:1 6:1 3:2 4:10 6:5 5:3 2:5 4:2
5:0 6:2 5:1 6:1 3:2 4:10 6:5 5:3 2:5 4:2 2:1
6:0 5:1 6:1 3:2 4:10 6:5 5:3 2:5 4:2 2:1 4:10
5:0 6:1 3:2 4:10 6:5 5:3 2:5 4:2 2:1 4:10 6:5
6:0 3:2 4:10 6:5 5:3 2:5 4:2 2:1 4:10 6:5 5:1
3:0 4:10 6:5 5:3 2:5 4:2 2:1 4:10 6:5 5:1 6:4
4:0 6:5 5:3 2:5 4:2 2:1 4:10 6:5 5:1 6:4 2:2
6:0 5:3 2:5 4:2 2:1 4:10 6:5 5:1 6:4 2:2 3:3
5:0 2:5 4:2 2:1 4:10 6:5 5:1 6:4 2:2 3:3 2:2
2:0 4:2 2:1 4:10 6:5 5:1 6:4 2:2 3:3 2:2 3:3
4:0 2:1 4:10 6:5 5:1 6:4 2:2 3:3 2:2 3:3 4:4
2:0 4:10 6:5 5:1 6:4 2:2 3:3 2:2 3:3 4:4 5:5
4:0 6:5 5:1 6:4 2:2 3:3 2:2 3:3 4:4 5:5 6:1
6:0 5:1 6:4 2:2 3:3 2:2 3:3 4:4 5:5 6:1 5:3
5:0 6:4 2:2 3:3 2:2 3:3 4:4 5:5 6:1 5:3 2:3
6:0 2:2 3:3 2:2 3:3 4:4 5:5 6:1 5:3 2:3 3:10
2:0 3:3 2:2 3:3 4:4 5:5 6:1 5:3 2:3 3:10 4:3
3:0 2:2 3:3 4:4 5:5 6:1 5:3 2:3 3:10 4:3 5:6
2:0 3:3 4:4 5:5 6:1 5:3 2:3 3:10 4:3 5:6 6:1
3:0 4:4 5:5 6:1 5:3 2:3 3:10 4:3 5:6 6:1 5:1
4:0 5:5 6:1 5:3 2:3 3:10 4:3 5:6 6:1 5:1 6:1
5:0 6:1 5:3 2:3 3:10 4:3 5:6 6:1 5:1 6:1 3:3
6:0 5:3 2:3 3:10 4:3 5:6 6:1 5:1 6:1 3:3 4:5
5:0 2:3 3:10 4:3 5:6 6:1 5:1 6:1 3:3 4:5 3:1
2:0 3:10 4:3 5:6 6:1 5:1 6:1 3:3 4:5 3:1 4:4
3:0 4:3 5:6 6:1 5:1 6:1 3:3 4:5 3:1 4:4 6:4
4:0 5:6 6:1 5:1 6:1 3:3 4:5 3:1 4:4 6:4 5:2
5:0 6:1 5:1 6:1 3:3 4:5 3:1 4:4 6:4 5:2 2:6
6:0 5:1 6:1 3:3 4:5 3:1 4:4 6:4 5:2 2:6 3:5
5:0 6:1 3:3 4:5 3:1 4:4 6:4 5:2 2:6 3:5 2:1
6:0 3:3 4:5 3:1 4:4 6:4 5:2 2:6 3:5 2:1 4:6
3:0 4:5 3:1 4:4 6:4 5:2 2:6 3:5 2:1 4:6 5:16
4:0 3:1 4:4 6:4 5:2 2:6 3:5 2:1 4:6 5:16 6:5
3:0 4:4 6:4 5:2 2:6 3:5 2:1 4:6 5:16 6:5 2:2
4:0 6:4 5:2 2:6 3:5 2:1 4:6 5:16 6:5 2:2 3:1
6:0 5:2 2:6 3:5 2:1 4:6 5:16 6:5 2:2 3:1 4:1
5:0 2:6 3:5 2:1 4:6 5:16 6:5 2:2 3:1 4:1 6:12
2:0 3:5 2:1 4:6 5:16 6:5 2:2 3:1 4:1 6:12 5:3
3:0 2:1 4:6 5:16 6:5 2:2 3:1 4:1 6:12 5:3 2:5
2:0 4:6 5:16 6:5 2:2 3:1 4:1 6:12 5:3 2:5 4:3
4:0 5:16 6:5 2:2 3:1 4:1 6:12 5:3 2:5 4:3 3:2
5:0 6:5 2:2 3:1 4:1 6:12 5:3 2:5 4:3 3:2 4:3
6:0 2:2 3:1 4:1 6:12 5:3 2:5 4:3 3:2 4:3 3:1
2:0 3:1 4:1 6:12 5:3 2:5 4:3 3:2 4:3 3:1 4:8
3:0 4:1 6:12 5:3 2:5 4:3 3:2 4:3 3:1 4:8 3:8
4:0 6:12 5:3 2:5 4:3 3:2 4:3 3:1 4:8 3:8 4:1
6:0 5:3 2:5 4:3 3:2 4:3 3:1 4:8 3:8 4:1 6:3
5:0 2:5 4:3 3:2 4:3 3:1 4:8 3:8 4:1 6:3 5:7
2:0 4:3 3:2 4:3 3:1 4:8 3:8 4:1 6:3 5:7 2:3
4:0 3:2 4:3 3:1 4:8 3:8 4:1 6:3 5:7 2:3 3:11
3:0 4:3 3:1 4:8 3:8 4:1 6:3 5:7 2:3 3:11 4:1
4:0 3:1 4:8 3:8 4:1 6:3 5:7 2:3 3:11 4:1 3:1
3:0 4:8 3:8 4:1 6:3 5:7 2:3 3:11 4:1 3:1 4:1
4:0 3:8 4:1 6:3 5:7 2:3 3:11 4:1 3:1 4:1 5:13
3:0 4:1 6:3 5:7 2:3 3:11 4:1 3:1 4:1 5:13 6:1
4:0 6:3 5:7 2:3 3:11 4:1 3:1 4:1 5:13 6:1 5:1
6:0 5:7 2:3 3:11 4:1 3:1 4:1 5:13 6:1 5:1 6:4
5:0 2:3 3:11 4:1 3:1 4:1 5:13 6:1 5:1 6:4 2:2
2:0 3:11 4:1 3:1 4:1 5:13 6:1 5:1 6:4 2:2 3:1
3:0 4:1 3:1 4:1 5:13 6:1 5:1 6:4 2:2 3:1 4:1
4:0 3:1 4:1 5:13 6:1 5:1 6:4 2:2 3:1 4:1 6:12
3:0 4:1 5:13 6:1 5:1 6:4 2:2 3:1 4:1 6:12 5:3
4:0 5:13 6:1 5:1 6:4 2:2 3:1 4:1 6:12 5:3 2:5
5:0 6:1 5:1 6:4 2:2 3:1 4:1 6:12 5:3 2:5 4:4
6:0 5:1 6:4 2:2 3:1 4:1 6:12 5:3 2:5 4:4 3:2
5:0 6:4 2:2 3:1 4:1 6:12 5:3 2:5 4:4 3:2 4:9
6:0 2:2 3:1 4:1 6:12 5:3 2:5 4:4 3:2 4:9 3:8
2:0 3:1 4:1 6:12 5:3 2:5 4:4 3:2 4:9 3:8 4:4
3:0 4:1 6:12 5:3 2:5 4:4 3:2 4:9 3:8 4:4 6:3
4:0 6:12 5:3 2:5 4:4 3:2 4:9 3:8 4:4 6:3 5:3
6:0 5:3 2:5 4:4 3:2 4:9 3:8 4:4 6:3 5:3 6:2
5:0 2:5 4:4 3:2 4:9 3:8 4:4 6:3 5:3 6:2 2:4
2:0 4:4 3:2 4:9 3:8 4:4 6:3 5:3 6:2 2:4 3:1
4:0 3:2 4:9 3:8 4:4 6:3 5:3 6:2 2:4 3:1 4:11
3:0 4:9 3:8 4:4 6:3 5:3 6:2 2:4 3:1 4:11 6:3
4:0 3:8 4:4 6:3 5:3 6:2 2:4 3:1 4:11 6:3 5:3
3:0 4:4 6:3 5:3 6:2 2:4 3:1 4:11 6:3 5:3 2:6
4:0 6:3 5:3 6:2 2:4 3:1 4:11 6:3 5:3 2:6 3:5
6:0 5:3 6:2 2:4 3:1 4:11 6:3 5:3 2:6 3:5 2:1
5:0 6:2 2:4 3:1 4:11 6:3 5:3 2:6 3:5 2:1 3:6
6:0 2:4 3:1 4:11 6:3 5:3 2:6 3:5 2:1 3:6 4:1
2:0 3:1 4:11 6:3 5:3 2:6 3:5 2:1 3:6 4:1 5:5
3:0 4:11 6:3 5:3 2:6 3:5 2:1 3:6 4:1 5:5 6:4
4:0 6:3 5:3 2:6 3:5 2:1 3:6 4:1 5:5 6:4 3:3
6:0 5:3 2:6 3:5 2:1 3:6 4:1 5:5 6:4 3:3 4:11
5:0 2:6 3:5 2:1 3:6 4:1 5:5 6:4 3:3 4:11 6:3
2:0 3:5 2:1 3:6 4:1 5:5 6:4 3:3 4:11 6:3 5:3
3:0 2:1 3:6 4:1 5:5 6:4 3:3 4:11 6:3 5:3 2:6
2:0 3:6 4:1 5:5 6:4 3:3 4:11 6:3 5:3 2:6 3:12
3:0 4:1 5:5 6:4 3:3 4:11 6:3 5:3 2:6 3:12 4:1
4:0 5:5 6:4 3:3 4:11 6:3 5:3 2:6 3:12 4:1 5:15
5:0 6:4 3:3 4:11 6:3 5:3 2:6 3:12 4:1 5:15 6:3
6:0 3:3 4:11 6:3 5:3 2:6 3:12 4:1 5:15 6:3 3:5
3:0 4:11 6:3 5:3 2:6 3:12 4:1 5:15 6:3 3:5 4:1
4:0 6:3 5:3 2:6 3:12 4:1 5:15 6:3 3:5 4:1 6:12
6:0 5:3 2:6 3:12 4:1 5:15 6:3 3:5 4:1 6:12 5:2
5:0 2:6 3:12 4:1 5:15 6:3 3:5 4:1 6:12 5:2 2:6
2:0 3:12 4:1 5:15 6:3 3:5 4:1 6:12 5:2 2:6 4:3
3:0 4:1 5:15 6:3 3:5 4:1 6:12 5:2 2:6 4:3 3:2
4:0 5:15 6:3 3:5 4:1 6:12 5:2 2:6 4:3 3:2 4:2
5:0 6:3 3:5 4:1 6:12 5:2 2:6 4:3 3:2 4:2 3:1
6:0 3:5 4:1 6:12 5:2 2:6 4:3 3:2 4:2 3:1 4:6
3:0 4:1 6:12 5:2 2:6 4:3 3:2 4:2 3:1 4:6 3:10
4:0 6:12 5:2 2:6 4:3 3:2 4:2 3:1 4:6 3:10 4:2
6:0 5:2 2:6 4:3 3:2 4:2 3:1 4:6 3:10 4:2 6:3
5:0 2:6 4:3 3:2 4:2 3:1 4:6 3:10 4:2 6:3 5:4
2:0 4:3 3:2 4:2 3:1 4:6 3:10 4:2 6:3 5:4 6:1
4:0 3:2 4:2 3:1 4:6 3:10 4:2 6:3 5:4 6:1 5:3
3:0 4:2 3:1 4:6 3:10 4:2 6:3 5:4 6:1 5:3 2:1
4:0 3:1 4:6 3:10 4:2 6:3 5:4 6:1 5:3 2:1 4:6
3:0 4:6 3:10 4:2 6:3 5:4 6:1 5:3 2:1 4:6 3:1
4:0 3:10 4:2 6:3 5:4 6:1 5:3 2:1 4:6 3:1 2:1
3:0 4:2 6:3 5:4 6:1 5:3 2:1 4:6 3:1 2:1 3:5
4:0 6:3 5:4 6:1 5:3 2:1 4:6 3:1 2:1 3:5 4:2
6:0 5:4 6:1 5:3 2:1 4:6 3:1 2:1 3:5 4:2 5:5
5:0 6:1 5:3 2:1 4:6 3:1 2:1 3:5 4:2 5:5 6:5
6:0 5:3 2:1 4:6 3:1 2:1 3:5 4:2 5:5 6:5 2:1
5:0 2:1 4:6 3:1 2:1 3:5 4:2 5:5 6:5 2:1 3:1
2:0 4:6 3:1 2:1 3:5 4:2 5:5 6:5 2:1 3:1 4:2
4:0 3:1 2:1 3:5 4:2 5:5 6:5 2:1 3:1 4:2 3:1
3:0 2:1 3:5 4:2 5:5 6:5 2:1 3:1 4:2 3:1 4:7
2:0 3:5 4:2 5:5 6:5 2:1 3:1 4:2 3:1 4:7 6:4
3:0 4:2 5:5 6:5 2:1 3:1 4:2 3:1 4:7 6:4 5:5
4:0 5:5 6:5 2:1 3:1 4:2 3:1 4:7 6:4 5:5 2:3
5:0 6:5 2:1 3:1 4:2 3:1 4:7 6:4 5:5 2:3 4:12
6:0 2:1 3:1 4:2 3:1 4:7 6:4 5:5 2:3 4:12 6:6
2:0 3:1 4:2 3:1 4:7 6:4 5:5 2:3 4:12 6:6 5:1
3:0 4:2 3:1 4:7 6:4 5:5 2:3 4:12 6:6 5:1 6:1
4:0 3:1 4:7 6:4 5:5 2:3 4:12 6:6 5:1 6:1 2:5
3:0 4:7 6:4 5:5 2:3 4:12 6:6 5:1 6:1 2:5 3:2
4:0 6:4 5:5 2:3 4:12 6:6 5:1 6:1 2:5 3:2 4:9
6:0 5:5 2:3 4:12 6:6 5:1 6:1 2:5 3:2 4:9 6:4
5:0 2:3 4:12 6:6 5:1 6:1 2:5 3:2 4:9 6:4 5:3
2:0 4:12 6:6 5:1 6:1 2:5 3:2 4:9 6:4 5:3 2:5
4:0 6:6 5:1 6:1 2:5 3:2 4:9 6:4 5:3 2:5 4:2
6:0 5:1 6:1 2:5 3:2 4:9 6:4 5:3 2:5 4:2 2:1
5:0 6:1 2:5 3:2 4:9 6:4 5:3 2:5 4:2 2:1 3:1
6:0 2:5 3:2 4:9 6:4 5:3 2:5 4:2 2:1 3:1 2:1
2:0 3:2 4:9 6:4 5:3 2:5 4:2 2:1 3:1 2:1 4:7
3:0 4:9 6:4 5:3 2:5 4:2 2:1 3:1 2:1 4:7 5:15
4:0 6:4 5:3 2:5 4:2 2:1 3:1 2:1 4:7 5:15 6:6
6:0 5:3 2:5 4:2 2:1 3:1 2:1 4:7 5:15 6:6 3:2
5:0 2:5 4:2 2:1 3:1 2:1 4:7 5:15 6:6 3:2 4:3
2:0 4:2 2:1 3:1 2:1 4:7 5:15 6:6 3:2 4:3 6:11
4:0 2:1 3:1 2:1 4:7 5:15 6:6 3:2 4:3 6:11 5:2
2:0 3:1 2:1 4:7 5:15 6:6 3:2 4:3 6:11 5:2 2:6
3:0 2:1 4:7 5:15 6:6 3:2 4:3 6:11 5:2 2:6 4:5
2:0 4:7 5:15 6:6 3:2 4:3 6:11 5:2 2:6 4:5 3:2
4:0 5:15 6:6 3:2 4:3 6:11 5:2 2:6 4:5 3:2 4:6
5:0 6:6 3:2 4:3 6:11 5:2 2:6 4:5 3:2 4:6 3:1
6:0 3:2 4:3 6:11 5:2 2:6 4:5 3:2 4:6 3:1 4:4
3:0 4:3 6:11 5:2 2:6 4:5 3:2 4:6 3:1 4:4 3:6
4:0 6:11 5:2 2:6 4:5 3:2 4:6 3:1 4:4 3:6 4:3
6:0 5:2 2:6 4:5 3:2 4:6 3:1 4:4 3:6 4:3 6:3
5:0 2:6 4:5 3:2 4:6 3:1 4:4 3:6 4:3 6:3 2:8
2:0 4:5 3:2 4:6 3:1 4:4 3:6 4:3 6:3 2:8 4:7
4:0 3:2 4:6 3:1 4:4 3:6 4:3 6:3 2:8 4:7 2:1
3:0 4:6 3:1 4:4 3:6 4:3 6:3 2:8 4:7 2:1 3:5
4:0 3:1 4:4 3:6 4:3 6:3 2:8 4:7 2:1 3:5 4:1
3:0 4:4 3:6 4:3 6:3 2:8 4:7 2:1 3:5 4:1 5:7
4:0 3:6 4:3 6:3 2:8 4:7 2:1 3:5 4:1 5:7 6:1
3:0 4:3 6:3 2:8 4:7 2:1 3:5 4:1 5:7 6:1 2:5
4:0 6:3 2:8 4:7 2:1 3:5 4:1 5:7 6:1 2:5 3:1
6:0 2:8 4:7 2:1 3:5 4:1 5:7 6:1 2:5 3:1 4:1
2:0 4:7 2:1 3:5 4:1 5:7 6:1 2:5 3:1 4:1 3:1
4:0 2:1 3:5 4:1 5:7 6:1 2:5 3:1 4:1 3:1 4:7
2:0 3:5 4:1 5:7 6:1 2:5 3:1 4:1 3:1 4:7 6:3
3:0 4:1 5:7 6:1 2:5 3:1 4:1 3:1 4:7 6:3 5:2
4:0 5:7 6:1 2:5 3:1 4:1 3:1 4:7 6:3 5:2 2:7
5:0 6:1 2:5 3:1 4:1 3:1 4:7 6:3 5:2 2:7 4:13
6:0 2:5 3:1 4:1 3:1 4:7 6:3 5:2 2:7 4:13 5:15
2:0 3:1 4:1 3:1 4:7 6:3 5:2 2:7 4:13 5:15 6:5
3:0 4:1 3:1 4:7 6:3 5:2 2:7 4:13 5:15 6:5 2:2
4:0 3:1 4:7 6:3 5:2 2:7 4:13 5:15 6:5 2:2 3:1
3:0 4:7 6:3 5:2 2:7 4:13 5:15 6:5 2:2 3:1 4:1
4:0 6:3 5:2 2:7 4:13 5:15 6:5 2:2 3:1 4:1 6:12
6:0 5:2 2:7 4:13 5:15 6:5 2:2 3:1 4:1 6:12 5:3
5:0 2:7 4:13 5:15 6:5 2:2 3:1 4:1 6:12 5:3 2:6
2:0 4:13 5:15 6:5 2:2 3:1 4:1 6:12 5:3 2:6 4:3
4:0 5:15 6:5 2:2 3:1 4:1 6:12 5:3 2:6 4:3 3:3
5:0 6:5 2:2 3:1 4:1 6:12 5:3 2:6 4:3 3:3 4:10
6:0 2:2 3:1 4:1 6:12 5:3 2:6 4:3 3:3 4:10 3:6
2:0 3:1 4:1 6:12 5:3 2:6 4:3 3:3 4:10 3:6 4:3
3:0 4:1 6:12 5:3 2:6 4:3 3:3 4:10 3:6 4:3 6:4
4:0 6:12 5:3 2:6 4:3 3:3 4:10 3:6 4:3 6:4 2:8
6:0 5:3 2:6 4:3 3:3 4:10 3:6 4:3 6:4 2:8 3:2
5:0 2:6 4:3 3:3 4:10 3:6 4:3 6:4 2:8 3:2 4:5
2:0 4:3 3:3 4:10 3:6 4:3 6:4 2:8 3:2 4:5 3:1
4:0 3:3 4:10 3:6 4:3 6:4 2:8 3:2 4:5 3:1 4:3
3:0 4:10 3:6 4:3 6:4 2:8 3:2 4:5 3:1 4:3 6:5
4:0 3:6 4:3 6:4 2:8 3:2 4:5 3:1 4:3 6:5 5:2
3:0 4:3 6:4 2:8 3:2 4:5 3:1 4:3 6:5 5:2 2:7
4:0 6:4 2:8 3:2 4:5 3:1 4:3 6:5 5:2 2:7 3:11
6:0 2:8 3:2 4:5 3:1 4:3 6:5 5:2 2:7 3:11 4:1
2:0 3:2 4:5 3:1 4:3 6:5 5:2 2:7 3:11 4:1 3:1
3:0 4:5 3:1 4:3 6:5 5:2 2:7 3:11 4:1 3:1 4:1
4:0 3:1 4:3 6:5 5:2 2:7 3:11 4:1 3:1 4:1 6:14
3:0 4:3 6:5 5:2 2:7 3:11 4:1 3:1 4:1 6:14 5:1
4:0 6:5 5:2 2:7 3:11 4:1 3:1 4:1 6:14 5:1 6:4
6:0 5:2 2:7 3:11 4:1 3:1 4:1 6:14 5:1 6:4 3:3
5:0 2:7 3:11 4:1 3:1 4:1 6:14 5:1 6:4 3:3 4:1
2:0 3:11 4:1 3:1 4:1 6:14 5:1 6:4 3:3 4:1 3:8
3:0 4:1 3:1 4:1 6:14 5:1 6:4 3:3 4:1 3:8 4:9
4:0 3:1 4:1 6:14 5:1 6:4 3:3 4:1 3:8 4:9 3:1
3:0 4:1 6:14 5:1 6:4 3:3 4:1 3:8 4:9 3:1 4:5
4:0 6:14 5:1 6:4 3:3 4:1 3:8 4:9 3:1 4:5 5:5
6:0 5:1 6:4 3:3 4:1 3:8 4:9 3:1 4:5 5:5 6:3
5:0 6:4 3:3 4:1 3:8 4:9 3:1 4:5 5:5 6:3 2:4
6:0 3:3 4:1 3:8 4:9 3:1 4:5 5:5 6:3 2:4 3:1
3:0 4:1 3:8 4:9 3:1 4:5 5:5 6:3 2:4 3:1 4:3
4:0 3:8 4:9 3:1 4:5 5:5 6:3 2:4 3:1 4:3 3:1
3:0 4:9 3:1 4:5 5:5 6:3 2:4 3:1 4:3 3:1 4:1
4:0 3:1 4:5 5:5 6:3 2:4 3:1 4:3 3:1 4:1 3:1
3:0 4:5 5:5 6:3 2:4 3:1 4:3 3:1 4:1 3:1 4:5
4:0 5:5 6:3 2:4 3:1 4:3 3:1 4:1 3:1 4:5 6:3
5:0 6:3 2:4 3:1 4:3 3:1 4:1 3:1 4:5 6:3 5:3
6:0 2:4 3:1 4:3 3:1 4:1 3:1 4:5 6:3 5:3 2:6
2:0 3:1 4:3 3:1 4:1 3:1 4:5 6:3 5:3 2:6 3:4
3:0 4:3 3:1 4:1 3:1 4:5 6:3 5:3 2:6 3:4 2:1
4:0 3:1 4:1 3:1 4:5 6:3 5:3 2:6 3:4 2:1 3:7
3:0 4:1 3:1 4:5 6:3 5:3 2:6 3:4 2:1 3:7 4:2
4:0 3:1 4:5 6:3 5:3 2:6 3:4 2:1 3:7 4:2 5:14
3:0 4:5 6:3 5:3 2:6 3:4 2:1 3:7 4:2 5:14 6:4
4:0 6:3 5:3 2:6 3:4 2:1 3:7 4:2 5:14 6:4 2:3
6:0 5:3 2:6 3:4 2:1 3:7 4:2 5:14 6:4 2:3 3:1
5:0 2:6 3:4 2:1 3:7 4:2 5:14 6:4 2:3 3:1 4:1
2:0 3:4 2:1 3:7 4:2 5:14 6:4 2:3 3:1 4:1 3:8
3:0 2:1 3:7 4:2 5:14 6:4 2:3 3:1 4:1 3:8 4:2
2:0 3:7 4:2 5:14 6:4 2:3 3:1 4:1 3:8 4:2 3:1
3:0 4:2 5:14 6:4 2:3 3:1 4:1 3:8 4:2 3:1 4:2
4:0 5:14 6:4 2:3 3:1 4:1 3:8 4:2 3:1 4:2 3:6
5:0 6:4 2:3 3:1 4:1 3:8 4:2 3:1 4:2 3:6 4:4
6:0 2:3 3:1 4:1 3:8 4:2 3:1 4:2 3:6 4:4 6:4
2:0 3:1 4:1 3:8 4:2 3:1 4:2 3:6 4:4 6:4 5:2
3:0 4:1 3:8 4:2 3:1 4:2 3:6 4:4 6:4 5:2 6:2
4:0 3:8 4:2 3:1 4:2 3:6 4:4 6:4 5:2 6:2 2:4
3:0 4:2 3:1 4:2 3:6 4:4 6:4 5:2 6:2 2:4 3:1
4:0 3:1 4:2 3:6 4:4 6:4 5:2 6:2 2:4 3:1 4:2
3:0 4:2 3:6 4:4 6:4 5:2 6:2 2:4 3:1 4:2 3:1
4:0 3:6 4:4 6:4 5:2 6:2 2:4 3:1 4:2 3:1 4:1
3:0 4:4 6:4 5:2 6:2 2:4 3:1 4:2 3:1 4:1 3:2
4:0 6:4 5:2 6:2 2:4 3:1 4:2 3:1 4:1 3:2 4:5
6:0 5:2 6:2 2:4 3:1 4:2 3:1 4:1 3:2 4:5 6:3
5:0 6:2 2:4 3:1 4:2 3:1 4:1 3:2 4:5 6:3 5:2
6:0 2:4 3:1 4:2 3:1 4:1 3:2 4:5 6:3 5:2 2:6
2:0 3:1 4:2 3:1 4:1 3:2 4:5 6:3 5:2 2:6 3:5
3:0 4:2 3:1 4:1 3:2 4:5 6:3 5:2 2:6 3:5 2:1
4:0 3:1 4:1 3:2 4:5 6:3 5:2 2:6 3:5 2:1 3:1
3:0 4:1 3:2 4:5 6:3 5:2 2:6 3:5 2:1 3:1 2:1
4:0 3:2 4:5 6:3 5:2 2:6 3:5 2:1 3:1 2:1 3:5
3:0 4:5 6:3 5:2 2:6 3:5 2:1 3:1 2:1 3:5 4:1
4:0 6:3 5:2 2:6 3:5 2:1 3:1 2:1 3:5 4:1 6:5
6:0 5:2 2:6 3:5 2:1 3:1 2:1 3:5 4:1 6:5 5:3
5:0 2:6 3:5 2:1 3:1 2:1 3:5 4:1 6:5 5:3 6:1
2:0 3:5 2:1 3:1 2:1 3:5 4:1 6:5 5:3 6:1 2:3
3:0 2:1 3:1 2:1 3:5 4:1 6:5 5:3 6:1 2:3 3:3
2:0 3:1 2:1 3:5 4:1 6:5 5:3 6:1 2:3 3:3 4:9
3:0 2:1 3:5 4:1 6:5 5:3 6:1 2:3 3:3 4:9 6:4
2:0 3:5 4:1 6:5 5:3 6:1 2:3 3:3 4:9 6:4 5:4
3:0 4:1 6:5 5:3 6:1 2:3 3:3 4:9 6:4 5:4 2:3
4:0 6:5 5:3 6:1 2:3 3:3 4:9 6:4 5:4 2:3 4:3
6:0 5:3 6:1 2:3 3:3 4:9 6:4 5:4 2:3 4:3 2:1
5:0 6:1 2:3 3:3 4:9 6:4 5:4 2:3 4:3 2:1 3:8
6:0 2:3 3:3 4:9 6:4 5:4 2:3 4:3 2:1 3:8 4:1
2:0 3:3 4:9 6:4 5:4 2:3 4:3 2:1 3:8 4:1 5:7
3:0 4:9 6:4 5:4 2:3 4:3 2:1 3:8 4:1 5:7 6:1
4:0 6:4 5:4 2:3 4:3 2:1 3:8 4:1 5:7 6:1 5:1
6:0 5:4 2:3 4:3 2:1 3:8 4:1 5:7 6:1 5:1 6:2
5:0 2:3 4:3 2:1 3:8 4:1 5:7 6:1 5:1 6:2 2:2
2:0 4:3 2:1 3:8 4:1 5:7 6:1 5:1 6:2 2:2 3:1
4:0 2:1 3:8 4:1 5:7 6:1 5:1 6:2 2:2 3:1 4:8
2:0 3:8 4:1 5:7 6:1 5:1 6:2 2:2 3:1 4:8 6:5
3:0 4:1 5:7 6:1 5:1 6:2 2:2 3:1 4:8 6:5 5:2
4:0 5:7 6:1 5:1 6:2 2:2 3:1 4:8 6:5 5:2 2:6
5:0 6:1 5:1 6:2 2:2 3:1 4:8 6:5 5:2 2:6 3:6
6:0 5:1 6:2 2:2 3:1 4:8 6:5 5:2 2:6 3:6 2:1
5:0 6:2 2:2 3:1 4:8 6:5 5:2 2:6 3:6 2:1 3:5
6:0 2:2 3:1 4:8 6:5 5:2 2:6 3:6 2:1 3:5 4:1
2:0 3:1 4:8 6:5 5:2 2:6 3:6 2:1 3:5 4:1 6:14
3:0 4:8 6:5 5:2 2:6 3:6 2:1 3:5 4:1 6:14 5:2
4:0 6:5 5:2 2:6 3:6 2:1 3:5 4:1 6:14 5:2 6:1
6:0 5:2 2:6 3:6 2:1 3:5 4:1 6:14 5:2 6:1 5:1
5:0 2:6 3:6 2:1 3:5 4:1 6:14 5:2 6:1 5:1 6:1
2:0 3:6 2:1 3:5 4:1 6:14 5:2 6:1 5:1 6:1 2:2
3:0 2:1 3:5 4:1 6:14 5:2 6:1 5:1 6:1 2:2 3:2
2:0 3:5 4:1 6:14 5:2 6:1 5:1 6:1 2:2 3:2 4:1
3:0 4:1 6:14 5:2 6:1 5:1 6:1 2:2 3:2 4:1 6:9
4:0 6:14 5:2 6:1 5:1 6:1 2:2 3:2 4:1 6:9 5:3
6:0 5:2 6:1 5:1 6:1 2:2 3:2 4:1 6:9 5:3 2:6
5:0 6:1 5:1 6:1 2:2 3:2 4:1 6:9 5:3 2:6 4:6
6:0 5:1 6:1 2:2 3:2 4:1 6:9 5:3 2:6 4:6 3:2
5:0 6:1 2:2 3:2 4:1 6:9 5:3 2:6 4:6 3:2 4:9
6:0 2:2 3:2 4:1 6:9 5:3 2:6 4:6 3:2 4:9 3:11
2:0 3:2 4:1 6:9 5:3 2:6 4:6 3:2 4:9 3:11 4:1
3:0 4:1 6:9 5:3 2:6 4:6 3:2 4:9 3:11 4:1 6:2
4:0 6:9 5:3 2:6 4:6 3:2 4:9 3:11 4:1 6:2 5:5
6:0 5:3 2:6 4:6 3:2 4:9 3:11 4:1 6:2 5:5 2:4
5:0 2:6 4:6 3:2 4:9 3:11 4:1 6:2 5:5 2:4 3:13
2:0 4:6 3:2 4:9 3:11 4:1 6:2 5:5 2:4 3:13 4:1
4:0 3:2 4:9 3:11 4:1 6:2 5:5 2:4 3:13 4:1 5:18
3:0 4:9 3:11 4:1 6:2 5:5 2:4 3:13 4:1 5:18 6:3
4:0 3:11 4:1 6:2 5:5 2:4 3:13 4:1 5:18 6:3 7:4
3:0 4:1 6:2 5:5 2:4 3:13 4:1 5:18 6:3 7:4 3:1
4:0 6:2 5:5 2:4 3:13 4:1 5:18 6:3 7:4 3:1 4:1
6:0 5:5 2:4 3:13 4:1 5:18 6:3 7:4 3:1 4:1 3:1
5:0 2:4 3:13 4:1 5:18 6:3 7:4 3:1 4:1 3:1 2:2
2:0 3:13 4:1 5:18 6:3 7:4 3:1 4:1 3:1 2:2 3:5
3:0 4:1 5:18 6:3 7:4 3:1 4:1 3:1 2:2 3:5 4:13
4:0 5:18 6:3 7:4 3:1 4:1 3:1 2:2 3:5 4:13 5:5
5:0 6:3 7:4 3:1 4:1 3:1 2:2 3:5 4:13 5:5 6:3
6:0 7:4 3:1 4:1 3:1 2:2 3:5 4:13 5:5 6:3 2:4
7:0 3:1 4:1 3:1 2:2 3:5 4:13 5:5 6:3 2:4 3:1
3:0 4:1 3:1 2:2 3:5 4:13 5:5 6:3 2:4 3:1 4:1
4:0 3:1 2:2 3:5 4:13 5:5 6:3 2:4 3:1 4:1 3:1
3:0 2:2 3:5 4:13 5:5 6:3 2:4 3:1 4:1 3:1 4:3
2:0 3:5 4:13 5:5 6:3 2:4 3:1 4:1 3:1 4:3 3:1
3:0 4:13 5:5 6:3 2:4 3:1 4:1 3:1 4:3 3:1 4:4
4:0 5:5 6:3 2:4 3:1 4:1 3:1 4:3 3:1 4:4 6:3
5:0 6:3 2:4 3:1 4:1 3:1 4:3 3:1 4:4 6:3 5:4
6:0 2:4 3:1 4:1 3:1 4:3 3:1 4:4 6:3 5:4 2:4
2:0 3:1 4:1 3:1 4:3 3:1 4:4 6:3 5:4 2:4 4:3
3:0 4:1 3:1 4:3 3:1 4:4 6:3 5:4 2:4 4:3 2:1
4:0 3:1 4:3 3:1 4:4 6:3 5:4 2:4 4:3 2:1 3:2
3:0 4:3 3:1 4:4 6:3 5:4 2:4 4:3 2:1 3:2 2:2
4:0 3:1 4:4 6:3 5:4 2:4 4:3 2:1 3:2 2:2 3:5
3:0 4:4 6:3 5:4 2:4 4:3 2:1 3:2 2:2 3:5 4:1
4:0 6:3 5:4 2:4 4:3 2:1 3:2 2:2 3:5 4:1 6:14
6:0 5:4 2:4 4:3 2:1 3:2 2:2 3:5 4:1 6:14 5:3
5:0 2:4 4:3 2:1 3:2 2:2 3:5 4:1 6:14 5:3 6:2
2:0 4:3 2:1 3:2 2:2 3:5 4:1 6:14 5:3 6:2 2:3
4:0 2:1 3:2 2:2 3:5 4:1 6:14 5:3 6:2 2:3 3:1
2:0 3:2 2:2 3:5 4:1 6:14 5:3 6:2 2:3 3:1 4:1
3:0 2:2 3:5 4:1 6:14 5:3 6:2 2:3 3:1 4:1 6:13
2:0 3:5 4:1 6:14 5:3 6:2 2:3 3:1 4:1 6:13 5:2
3:0 4:1 6:14 5:3 6:2 2:3 3:1 4:1 6:13 5:2 2:6
4:0 6:14 5:3 6:2 2:3 3:1 4:1 6:13 5:2 2:6 4:3
6:0 5:3 6:2 2:3 3:1 4:1 6:13 5:2 2:6 4:3 3:2
5:0 6:2 2:3 3:1 4:1 6:13 5:2 2:6 4:3 3:2 4:3
6:0 2:3 3:1 4:1 6:13 5:2 2:6 4:3 3:2 4:3 3:3
2:0 3:1 4:1 6:13 5:2 2:6 4:3 3:2 4:3 3:3 4:9
3:0 4:1 6:13 5:2 2:6 4:3 3:2 4:3 3:3 4:9 3:1
4:0 6:13 5:2 2:6 4:3 3:2 4:3 3:3 4:9 3:1 4:5
6:0 5:2 2:6 4:3 3:2 4:3 3:3 4:9 3:1 4:5 6:4
5:0 2:6 4:3 3:2 4:3 3:3 4:9 3:1 4:5 6:4 5:2
2:0 4:3 3:2 4:3 3:3 4:9 3:1 4:5 6:4 5:2 6:2
4:0 3:2 4:3 3:3 4:9 3:1 4:5 6:4 5:2 6:2 2:4
3:0 4:3 3:3 4:9 3:1 4:5 6:4 5:2 6:2 2:4 3:1
4:0 3:3 4:9 3:1 4:5 6:4 5:2 6:2 2:4 3:1 4:2
3:0 4:9 3:1 4:5 6:4 5:2 6:2 2:4 3:1 4:2 3:2
4:0 3:1 4:5 6:4 5:2 6:2 2:4 3:1 4:2 3:2 4:1
3:0 4:5 6:4 5:2 6:2 2:4 3:1 4:2 3:2 4:1 3:1
4:0 6:4 5:2 6:2 2:4 3:1 4:2 3:2 4:1 3:1 4:5
6:0 5:2 6:2 2:4 3:1 4:2 3:2 4:1 3:1 4:5 6:3
5:0 6:2 2:4 3:1 4:2 3:2 4:1 3:1 4:5 6:3 5:3
6:0 2:4 3:1 4:2 3:2 4:1 3:1 4:5 6:3 5:3 2:5
2:0 3:1 4:2 3:2 4:1 3:1 4:5 6:3 5:3 2:5 4:5
3:0 4:2 3:2 4:1 3:1 4:5 6:3 5:3 2:5 4:5 2:1
4:0 3:2 4:1 3:1 4:5 6:3 5:3 2:5 4:5 2:1 3:7
3:0 4:1 3:1 4:5 6:3 5:3 2:5 4:5 2:1 3:7 4:2
4:0 3:1 4:5 6:3 5:3 2:5 4:5 2:1 3:7 4:2 5:5
3:0 4:5 6:3 5:3 2:5 4:5 2:1 3:7 4:2 5:5 6:3
4:0 6:3 5:3 2:5 4:5 2:1 3:7 4:2 5:5 6:3 2:3
6:0 5:3 2:5 4:5 2:1 3:7 4:2 5:5 6:3 2:3 3:1
5:0 2:5 4:5 2:1 3:7 4:2 5:5 6:3 2:3 3:1 4:3
2:0 4:5 2:1 3:7 4:2 5:5 6:3 2:3 3:1 4:3 3:1
4:0 2:1 3:7 4:2 5:5 6:3 2:3 3:1 4:3 3:1 4:6
2:0 3:7 4:2 5:5 6:3 2:3 3:1 4:3 3:1 4:6 6:4
3:0 4:2 5:5 6:3 2:3 3:1 4:3 3:1 4:6 6:4 5:3
4:0 5:5 6:3 2:3 3:1 4:3 3:1 4:6 6:4 5:3 2:5
5:0 6:3 2:3 3:1 4:3 3:1 4:6 6:4 5:3 2:5 3:3
6:0 2:3 3:1 4:3 3:1 4:6 6:4 5:3 2:5 3:3 2:1
2:0 3:1 4:3 3:1 4:6 6:4 5:3 2:5 3:3 2:1 3:1
3:0 4:3 3:1 4:6 6:4 5:3 2:5 3:3 2:1 3:1 2:1
4:0 3:1 4:6 6:4 5:3 2:5 3:3 2:1 3:1 2:1 3:5
3:0 4:6 6:4 5:3 2:5 3:3 2:1 3:1 2:1 3:5 4:1
4:0 6:4 5:3 2:5 3:3 2:1 3:1 2:1 3:5 4:1 3:1
6:0 5:3 2:5 3:3 2:1 3:1 2:1 3:5 4:1 3:1 4:1
5:0 2:5 3:3 2:1 3:1 2:1 3:5 4:1 3:1 4:1 5:6
2:0 3:3 2:1 3:1 2:1 3:5 4:1 3:1 4:1 5:6 6:2
3:0 2:1 3:1 2:1 3:5 4:1 3:1 4:1 5:6 6:2 5:1
2:0 3:1 2:1 3:5 4:1 3:1 4:1 5:6 6:2 5:1 6:1
3:0 2:1 3:5 4:1 3:1 4:1 5:6 6:2 5:1 6:1 3:2
2:0 3:5 4:1 3:1 4:1 5:6 6:2 5:1 6:1 3:2 4:3
3:0 4:1 3:1 4:1 5:6 6:2 5:1 6:1 3:2 4:3 3:1
4:0 3:1 4:1 5:6 6:2 5:1 6:1 3:2 4:3 3:1 4:6
3:0 4:1 5:6 6:2 5:1 6:1 3:2 4:3 3:1 4:6 6:4
4:0 5:6 6:2 5:1 6:1 3:2 4:3 3:1 4:6 6:4 5:4
5:0 6:2 5:1 6:1 3:2 4:3 3:1 4:6 6:4 5:4 2:4
6:0 5:1 6:1 3:2 4:3 3:1 4:6 6:4 5:4 2:4 4:5
5:0 6:1 3:2 4:3 3:1 4:6 6:4 5:4 2:4 4:5 3:1
6:0 3:2 4:3 3:1 4:6 6:4 5:4 2:4 4:5 3:1 2:1
3:0 4:3 3:1 4:6 6:4 5:4 2:4 4:5 3:1 2:1 3:5
4:0 3:1 4:6 6:4 5:4 2:4 4:5 3:1 2:1 3:5 4:1
3:0 4:6 6:4 5:4 2:4 4:5 3:1 2:1 3:5 4:1 6:5
4:0 6:4 5:4 2:4 4:5 3:1 2:1 3:5 4:1 6:5 5:3
6:0 5:4 2:4 4:5 3:1 2:1 3:5 4:1 6:5 5:3 6:1
5:0 2:4 4:5 3:1 2:1 3:5 4:1 6:5 5:3 6:1 2:3
2:0 4:5 3:1 2:1 3:5 4:1 6:5 5:3 6:1 2:3 3:2
4:0 3:1 2:1 3:5 4:1 6:5 5:3 6:1 2:3 3:2 4:10
3:0 2:1 3:5 4:1 6:5 5:3 6:1 2:3 3:2 4:10 6:4
2:0 3:5 4:1 6:5 5:3 6:1 2:3 3:2 4:10 6:4 5:4
3:0 4:1 6:5 5:3 6:1 2:3 3:2 4:10 6:4 5:4 2:3
4:0 6:5 5:3 6:1 2:3 3:2 4:10 6:4 5:4 2:3 4:3
6:0 5:3 6:1 2:3 3:2 4:10 6:4 5:4 2:3 4:3 2:1
5:0 6:1 2:3 3:2 4:10 6:4 5:4 2:3 4:3 2:1 3:9
6:0 2:3 3:2 4:10 6:4 5:4 2:3 4:3 2:1 3:9 4:1
2:0 3:2 4:10 6:4 5:4 2:3 4:3 2:1 3:9 4:1 5:14
3:0 4:10 6:4 5:4 2:3 4:3 2:1 3:9 4:1 5:14 6:5
4:0 6:4 5:4 2:3 4:3 2:1 3:9 4:1 5:14 6:5 2:3
6:0 5:4 2:3 4:3 2:1 3:9 4:1 5:14 6:5 2:3 3:1
5:0 2:3 4:3 2:1 3:9 4:1 5:14 6:5 2:3 3:1 4:1
2:0 4:3 2:1 3:9 4:1 5:14 6:5 2:3 3:1 4:1 3:2
4:0 2:1 3:9 4:1 5:14 6:5 2:3 3:1 4:1 3:2 4:4
2:0 3:9 4:1 5:14 6:5 2:3 3:1 4:1 3:2 4:4 3:1
3:0 4:1 5:14 6:5 2:3 3:1 4:1 3:2 4:4 3:1 4:5
4:0 5:14 6:5 2:3 3:1 4:1 3:2 4:4 3:1 4:5 3:1
5:0 6:5 2:3 3:1 4:1 3:2 4:4 3:1 4:5 3:1 4:1
6:0 2:3 3:1 4:1 3:2 4:4 3:1 4:5 3:1 4:1 3:5
2:0 3:1 4:1 3:2 4:4 3:1 4:5 3:1 4:1 3:5 4:3
3:0 4:1 3:2 4:4 3:1 4:5 3:1 4:1 3:5 4:3 6:3
4:0 3:2 4:4 3:1 4:5 3:1 4:1 3:5 4:3 6:3 5:7
3:0 4:4 3:1 4:5 3:1 4:1 3:5 4:3 6:3 5:7 2:2
4:0 3:1 4:5 3:1 4:1 3:5 4:3 6:3 5:7 2:2 4:12
3:0 4:5 3:1 4:1 3:5 4:3 6:3 5:7 2:2 4:12 3:1
4:0 3:1 4:1 3:5 4:3 6:3 5:7 2:2 4:12 3:1 4:1
3:0 4:1 3:5 4:3 6:3 5:7 2:2 4:12 3:1 4:1 6:12
4:0 3:5 4:3 6:3 5:7 2:2 4:12 3:1 4:1 6:12 5:1
3:0 4:3 6:3 5:7 2:2 4:12 3:1 4:1 6:12 5:1 6:5
4:0 6:3 5:7 2:2 4:12 3:1 4:1 6:12 5:1 6:5 2:2
6:0 5:7 2:2 4:12 3:1 4:1 6:12 5:1 6:5 2:2 4:2
5:0 2:2 4:12 3:1 4:1 6:12 5:1 6:5 2:2 4:2 6:14
2:0 4:12 3:1 4:1 6:12 5:1 6:5 2:2 4:2 6:14 5:2
4:0 3:1 4:1 6:12 5:1 6:5 2:2 4:2 6:14 5:2 2:6
3:0 4:1 6:12 5:1 6:5 2:2 4:2 6:14 5:2 2:6 4:3
4:0 6:12 5:1 6:5 2:2 4:2 6:14 5:2 2:6 4:3 3:2
6:0 5:1 6:5 2:2 4:2 6:14 5:2 2:6 4:3 3:2 4:2
5:0 6:5 2:2 4:2 6:14 5:2 2:6 4:3 3:2 4:2 3:4
6:0 2:2 4:2 6:14 5:2 2:6 4:3 3:2 4:2 3:4 4:9
2:0 4:2 6:14 5:2 2:6 4:3 3:2 4:2 3:4 4:9 3:1
4:0 6:14 5:2 2:6 4:3 3:2 4:2 3:4 4:9 3:1 4:4
6:0 5:2 2:6 4:3 3:2 4:2 3:4 4:9 3:1 4:4 5:5
5:0 2:6 4:3 3:2 4:2 3:4 4:9 3:1 4:4 5:5 6:4
2:0 4:3 3:2 4:2 3:4 4:9 3:1 4:4 5:5 6:4 5:1
4:0 3:2 4:2 3:4 4:9 3:1 4:4 5:5 6:4 5:1 6:1
3:0 4:2 3:4 4:9 3:1 4:4 5:5 6:4 5:1 6:1 2:2
4:0 3:4 4:9 3:1 4:4 5:5 6:4 5:1 6:1 2:2 3:2
3:0 4:9 3:1 4:4 5:5 6:4 5:1 6:1 2:2 3:2 4:1
4:0 3:1 4:4 5:5 6:4 5:1 6:1 2:2 3:2 4:1 3:2
3:0 4:4 5:5 6:4 5:1 6:1 2:2 3:2 4:1 3:2 4:7
4:0 5:5 6:4 5:1 6:1 2:2 3:2 4:1 3:2 4:7 6:3
5:0 6:4 5:1 6:1 2:2 3:2 4:1 3:2 4:7 6:3 5:4
6:0 5:1 6:1 2:2 3:2 4:1 3:2 4:7 6:3 5:4 2:5
5:0 6:1 2:2 3:2 4:1 3:2 4:7 6:3 5:4 2:5 3:12
6:0 2:2 3:2 4:1 3:2 4:7 6:3 5:4 2:5 3:12 4:1
2:0 3:2 4:1 3:2 4:7 6:3 5:4 2:5 3:12 4:1 6:14
3:0 4:1 3:2 4:7 6:3 5:4 2:5 3:12 4:1 6:14 5:1
4:0 3:2 4:7 6:3 5:4 2:5 3:12 4:1 6:14 5:1 6:1
3:0 4:7 6:3 5:4 2:5 3:12 4:1 6:14 5:1 6:1 2:5
4:0 6:3 5:4 2:5 3:12 4:1 6:14 5:1 6:1 2:5 4:3
6:0 5:4 2:5 3:12 4:1 6:14 5:1 6:1 2:5 4:3 3:7
5:0 2:5 3:12 4:1 6:14 5:1 6:1 2:5 4:3 3:7 4:6
2:0 3:12 4:1 6:14 5:1 6:1 2:5 4:3 3:7 4:6 3:5
3:0 4:1 6:14 5:1 6:1 2:5 4:3 3:7 4:6 3:5 4:5
4:0 6:14 5:1 6:1 2:5 4:3 3:7 4:6 3:5 4:5 6:3
6:0 5:1 6:1 2:5 4:3 3:7 4:6 3:5 4:5 6:3 5:2
5:0 6:1 2:5 4:3 3:7 4:6 3:5 4:5 6:3 5:2 6:2
6:0 2:5 4:3 3:7 4:6 3:5 4:5 6:3 5:2 6:2 2:4
2:0 4:3 3:7 4:6 3:5 4:5 6:3 5:2 6:2 2:4 3:2
4:0 3:7 4:6 3:5 4:5 6:3 5:2 6:2 2:4 3:2 4:5
3:0 4:6 3:5 4:5 6:3 5:2 6:2 2:4 3:2 4:5 3:1
4:0 3:5 4:5 6:3 5:2 6:2 2:4 3:2 4:5 3:1 4:4
3:0 4:5 6:3 5:2 6:2 2:4 3:2 4:5 3:1 4:4 6:4
4:0 6:3 5:2 6:2 2:4 3:2 4:5 3:1 4:4 6:4 5:2
6:0 5:2 6:2 2:4 3:2 4:5 3:1 4:4 6:4 5:2 2:7
5:0 6:2 2:4 3:2 4:5 3:1 4:4 6:4 5:2 2:7 3:4
6:0 2:4 3:2 4:5 3:1 4:4 6:4 5:2 2:7 3:4 2:1
2:0 3:2 4:5 3:1 4:4 6:4 5:2 2:7 3:4 2:1 4:7
3:0 4:5 3:1 4:4 6:4 5:2 2:7 3:4 2:1 4:7 6:5
4:0 3:1 4:4 6:4 5:2 2:7 3:4 2:1 4:7 6:5 5:1
3:0 4:4 6:4 5:2 2:7 3:4 2:1 4:7 6:5 5:1 6:3
4:0 6:4 5:2 2:7 3:4 2:1 4:7 6:5 5:1 6:3 2:4
6:0 5:2 2:7 3:4 2:1 4:7 6:5 5:1 6:3 2:4 3:2
5:0 2:7 3:4 2:1 4:7 6:5 5:1 6:3 2:4 3:2 4:9
2:0 3:4 2:1 4:7 6:5 5:1 6:3 2:4 3:2 4:9 6:4
3:0 2:1 4:7 6:5 5:1 6:3 2:4 3:2 4:9 6:4 5:5
2:0 4:7 6:5 5:1 6:3 2:4 3:2 4:9 6:4 5:5 2:3
4:0 6:5 5:1 6:3 2:4 3:2 4:9 6:4 5:5 2:3 4:12
6:0 5:1 6:3 2:4 3:2 4:9 6:4 5:5 2:3 4:12 5:16
5:0 6:3 2:4 3:2 4:9 6:4 5:5 2:3 4:12 5:16 6:1
6:0 2:4 3:2 4:9 6:4 5:5 2:3 4:12 5:16 6:1 5:1
2:0 3:2 4:9 6:4 5:5 2:3 4:12 5:16 6:1 5:1 6:1
3:0 4:9 6:4 5:5 2:3 4:12 5:16 6:1 5:1 6:1 2:4
4:0 6:4 5:5 2:3 4:12 5:16 6:1 5:1 6:1 2:4 3:1
6:0 5:5 2:3 4:12 5:16 6:1 5:1 6:1 2:4 3:1 4:1
5:0 2:3 4:12 5:16 6:1 5:1 6:1 2:4 3:1 4:1 6:12
2:0 4:12 5:16 6:1 5:1 6:1 2:4 3:1 4:1 6:12 5:2
4:0 5:16 6:1 5:1 6:1 2:4 3:1 4:1 6:12 5:2 2:7
5:0 6:1 5:1 6:1 2:4 3:1 4:1 6:12 5:2 2:7 4:4
6:0 5:1 6:1 2:4 3:1 4:1 6:12 5:2 2:7 4:4 3:2
5:0 6:1 2:4 3:1 4:1 6:12 5:2 2:7 4:4 3:2 4:12
6:0 2:4 3:1 4:1 6:12 5:2 2:7 4:4 3:2 4:12 3:4
2:0 3:1 4:1 6:12 5:2 2:7 4:4 3:2 4:12 3:4 4:3
3:0 4:1 6:12 5:2 2:7 4:4 3:2 4:12 3:4 4:3 6:4
4:0 6:12 5:2 2:7 4:4 3:2 4:12 3:4 4:3 6:4 5:3
6:0 5:2 2:7 4:4 3:2 4:12 3:4 4:3 6:4 5:3 6:1
5:0 2:7 4:4 3:2 4:12 3:4 4:3 6:4 5:3 6:1 5:2
2:0 4:4 3:2 4:12 3:4 4:3 6:4 5:3 6:1 5:2 6:1
4:0 3:2 4:12 3:4 4:3 6:4 5:3 6:1 5:2 6:1 2:1
3:0 4:12 3:4 4:3 6:4 5:3 6:1 5:2 6:1 2:1 3:2
4:0 3:4 4:3 6:4 5:3 6:1 5:2 6:1 2:1 3:2 4:1
3:0 4:3 6:4 5:3 6:1 5:2 6:1 2:1 3:2 4:1 3:1
4:0 6:4 5:3 6:1 5:2 6:1 2:1 3:2 4:1 3:1 4:2
6:0 5:3 6:1 5:2 6:1 2:1 3:2 4:1 3:1 4:2 3:2
5:0 6:1 5:2 6:1 2:1 3:2 4:1 3:1 4:2 3:2 4:5
6:0 5:2 6:1 2:1 3:2 4:1 3:1 4:2 3:2 4:5 6:3
5:0 6:1 2:1 3:2 4:1 3:1 4:2 3:2 4:5 6:3 5:2
6:0 2:1 3:2 4:1 3:1 4:2 3:2 4:5 6:3 5:2 2:6
2:0 3:2 4:1 3:1 4:2 3:2 4:5 6:3 5:2 2:6 4:4
3:0 4:1 3:1 4:2 3:2 4:5 6:3 5:2 2:6 4:4 2:2
4:0 3:1 4:2 3:2 4:5 6:3 5:2 2:6 4:4 2:2 4:8
3:0 4:2 3:2 4:5 6:3 5:2 2:6 4:4 2:2 4:8 5:5
4:0 3:2 4:5 6:3 5:2 2:6 4:4 2:2 4:8 5:5 6:2
3:0 4:5 6:3 5:2 2:6 4:4 2:2 4:8 5:5 6:2 2:6
4:0 6:3 5:2 2:6 4:4 2:2 4:8 5:5 6:2 2:6 3:2
6:0 5:2 2:6 4:4 2:2 4:8 5:5 6:2 2:6 3:2 4:9
5:0 2:6 4:4 2:2 4:8 5:5 6:2 2:6 3:2 4:9 6:4
2:0 4:4 2:2 4:8 5:5 6:2 2:6 3:2 4:9 6:4 5:4
4:0 2:2 4:8 5:5 6:2 2:6 3:2 4:9 6:4 5:4 2:4
2:0 4:8 5:5 6:2 2:6 3:2 4:9 6:4 5:4 2:4 4:11
4:0 5:5 6:2 2:6 3:2 4:9 6:4 5:4 2:4 4:11 3:2
5:0 6:2 2:6 3:2 4:9 6:4 5:4 2:4 4:11 3:2 4:1
6:0 2:6 3:2 4:9 6:4 5:4 2:4 4:11 3:2 4:1 6:13
2:0 3:2 4:9 6:4 5:4 2:4 4:11 3:2 4:1 6:13 5:2
3:0 4:9 6:4 5:4 2:4 4:11 3:2 4:1 6:13 5:2 6:2
4:0 6:4 5:4 2:4 4:11 3:2 4:1 6:13 5:2 6:2 2:3
6:0 5:4 2:4 4:11 3:2 4:1 6:13 5:2 6:2 2:3 3:1
5:0 2:4 4:11 3:2 4:1 6:13 5:2 6:2 2:3 3:1 4:2
2:0 4:11 3:2 4:1 6:13 5:2 6:2 2:3 3:1 4:2 3:6
4:0 3:2 4:1 6:13 5:2 6:2 2:3 3:1 4:2 3:6 4:7
3:0 4:1 6:13 5:2 6:2 2:3 3:1 4:2 3:6 4:7 3:5
4:0 6:13 5:2 6:2 2:3 3:1 4:2 3:6 4:7 3:5 4:4
6:0 5:2 6:2 2:3 3:1 4:2 3:6 4:7 3:5 4:4 6:3
5:0 6:2 2:3 3:1 4:2 3:6 4:7 3:5 4:4 6:3 5:1
6:0 2:3 3:1 4:2 3:6 4:7 3:5 4:4 6:3 5:1 6:4
2:0 3:1 4:2 3:6 4:7 3:5 4:4 6:3 5:1 6:4 2:4
3:0 4:2 3:6 4:7 3:5 4:4 6:3 5:1 6:4 2:4 3:1
4:0 3:6 4:7 3:5 4:4 6:3 5:1 6:4 2:4 3:1 4:11
3:0 4:7 3:5 4:4 6:3 5:1 6:4 2:4 3:1 4:11 6:4
4:0 3:5 4:4 6:3 5:1 6:4 2:4 3:1 4:11 6:4 5:2
3:0 4:4 6:3 5:1 6:4 2:4 3:1 4:11 6:4 5:2 2:6
4:0 6:3 5:1 6:4 2:4 3:1 4:11 6:4 5:2 2:6 4:2
6:0 5:1 6:4 2:4 3:1 4:11 6:4 5:2 2:6 4:2 2:1
5:0 6:4 2:4 3:1 4:11 6:4 5:2 2:6 4:2 2:1 4:9
6:0 2:4 3:1 4:11 6:4 5:2 2:6 4:2 2:1 4:9 5:15
2:0 3:1 4:11 6:4 5:2 2:6 4:2 2:1 4:9 5:15 6:6
3:0 4:11 6:4 5:2 2:6 4:2 2:1 4:9 5:15 6:6 2:2
4:0 6:4 5:2 2:6 4:2 2:1 4:9 5:15 6:6 2:2 3:1
6:0 5:2 2:6 4:2 2:1 4:9 5:15 6:6 2:2 3:1 4:1
5:0 2:6 4:2 2:1 4:9 5:15 6:6 2:2 3:1 4:1 3:8
2:0 4:2 2:1 4:9 5:15 6:6 2:2 3:1 4:1 3:8 4:8
4:0 2:1 4:9 5:15 6:6 2:2 3:1 4:1 3:8 4:8 3:2
2:0 4:9 5:15 6:6 2:2 3:1 4:1 3:8 4:8 3:2 4:5
4:0 5:15 6:6 2:2 3:1 4:1 3:8 4:8 3:2 4:5 6:4
5:0 6:6 2:2 3:1 4:1 3:8 4:8 3:2 4:5 6:4 5:2
6:0 2:2 3:1 4:1 3:8 4:8 3:2 4:5 6:4 5:2 6:1
2:0 3:1 4:1 3:8 4:8 3:2 4:5 6:4 5:2 6:1 2:5
3:0 4:1 3:8 4:8 3:2 4:5 6:4 5:2 6:1 2:5 4:1
4:0 3:8 4:8 3:2 4:5 6:4 5:2 6:1 2:5 4:1 3:1
3:0 4:8 3:2 4:5 6:4 5:2 6:1 2:5 4:1 3:1 4:3
4:0 3:2 4:5 6:4 5:2 6:1 2:5 4:1 3:1 4:3 3:2
3:0 4:5 6:4 5:2 6:1 2:5 4:1 3:1 4:3 3:2 4:5
4:0 6:4 5:2 6:1 2:5 4:1 3:1 4:3 3:2 4:5 6:3
6:0 5:2 6:1 2:5 4:1 3:1 4:3 3:2 4:5 6:3 5:1
5:0 6:1 2:5 4:1 3:1 4:3 3:2 4:5 6:3 5:1 2:8
6:0 2:5 4:1 3:1 4:3 3:2 4:5 6:3 5:1 2:8 3:5
2:0 4:1 3:1 4:3 3:2 4:5 6:3 5:1 2:8 3:5 2:1
4:0 3:1 4:3 3:2 4:5 6:3 5:1 2:8 3:5 2:1 3:6
3:0 4:3 3:2 4:5 6:3 5:1 2:8 3:5 2:1 3:6 4:1
4:0 3:2 4:5 6:3 5:1 2:8 3:5 2:1 3:6 4:1 5:7
3:0 4:5 6:3 5:1 2:8 3:5 2:1 3:6 4:1 5:7 6:1
4:0 6:3 5:1 2:8 3:5 2:1 3:6 4:1 5:7 6:1 2:5
6:0 5:1 2:8 3:5 2:1 3:6 4:1 5:7 6:1 2:5 3:1
5:0 2:8 3:5 2:1 3:6 4:1 5:7 6:1 2:5 3:1 4:3
2:0 3:5 2:1 3:6 4:1 5:7 6:1 2:5 3:1 4:3 3:1
3:0 2:1 3:6 4:1 5:7 6:1 2:5 3:1 4:3 3:1 4:5
2:0 3:6 4:1 5:7 6:1 2:5 3:1 4:3 3:1 4:5 6:4
3:0 4:1 5:7 6:1 2:5 3:1 4:3 3:1 4:5 6:4 5:3
4:0 5:7 6:1 2:5 3:1 4:3 3:1 4:5 6:4 5:3 2:5
5:0 6:1 2:5 3:1 4:3 3:1 4:5 6:4 5:3 2:5 4:4
6:0 2:5 3:1 4:3 3:1 4:5 6:4 5:3 2:5 4:4 2:1
2:0 3:1 4:3 3:1 4:5 6:4 5:3 2:5 4:4 2:1 3:7
3:0 4:3 3:1 4:5 6:4 5:3 2:5 4:4 2:1 3:7 4:1
4:0 3:1 4:5 6:4 5:3 2:5 4:4 2:1 3:7 4:1 5:14
3:0 4:5 6:4 5:3 2:5 4:4 2:1 3:7 4:1 5:14 6:1
4:0 6:4 5:3 2:5 4:4 2:1 3:7 4:1 5:14 6:1 5:1
6:0 5:3 2:5 4:4 2:1 3:7 4:1 5:14 6:1 5:1 6:4
5:0 2:5 4:4 2:1 3:7 4:1 5:14 6:1 5:1 6:4 2:1
2:0 4:4 2:1 3:7 4:1 5:14 6:1 5:1 6:4 2:1 3:2
4:0 2:1 3:7 4:1 5:14 6:1 5:1 6:4 2:1 3:2 4:1
2:0 3:7 4:1 5:14 6:1 5:1 6:4 2:1 3:2 4:1 6:7
3:0 4:1 5:14 6:1 5:1 6:4 2:1 3:2 4:1 6:7 5:1
4:0 5:14 6:1 5:1 6:4 2:1 3:2 4:1 6:7 5:1 2:5
5:0 6:1 5:1 6:4 2:1 3:2 4:1 6:7 5:1 2:5 3:2
6:0 5:1 6:4 2:1 3:2 4:1 6:7 5:1 2:5 3:2 2:3
5:0 6:4 2:1 3:2 4:1 6:7 5:1 2:5 3:2 2:3 4:5
6:0 2:1 3:2 4:1 6:7 5:1 2:5 3:2 2:3 4:5 6:6
2:0 3:2 4:1 6:7 5:1 2:5 3:2 2:3 4:5 6:6 5:2
3:0 4:1 6:7 5:1 2:5 3:2 2:3 4:5 6:6 5:2 6:1
4:0 6:7 5:1 2:5 3:2 2:3 4:5 6:6 5:2 6:1 2:4
6:0 5:1 2:5 3:2 2:3 4:5 6:6 5:2 6:1 2:4 3:2
5:0 2:5 3:2 2:3 4:5 6:6 5:2 6:1 2:4 3:2 4:10
2:0 3:2 2:3 4:5 6:6 5:2 6:1 2:4 3:2 4:10 6:4
3:0 2:3 4:5 6:6 5:2 6:1 2:4 3:2 4:10 6:4 5:2
2:0 4:5 6:6 5:2 6:1 2:4 3:2 4:10 6:4 5:2 2:5
4:0 6:6 5:2 6:1 2:4 3:2 4:10 6:4 5:2 2:5 3:1
6:0 5:2 6:1 2:4 3:2 4:10 6:4 5:2 2:5 3:1 2:2
5:0 6:1 2:4 3:2 4:10 6:4 5:2 2:5 3:1 2:2 3:9
6:0 2:4 3:2 4:10 6:4 5:2 2:5 3:1 2:2 3:9 4:1
2:0 3:2 4:10 6:4 5:2 2:5 3:1 2:2 3:9 4:1 5:15
3:0 4:10 6:4 5:2 2:5 3:1 2:2 3:9 4:1 5:15 6:4
4:0 6:4 5:2 2:5 3:1 2:2 3:9 4:1 5:15 6:4 2:4
6:0 5:2 2:5 3:1 2:2 3:9 4:1 5:15 6:4 2:4 3:1
5:0 2:5 3:1 2:2 3:9 4:1 5:15 6:4 2:4 3:1 4:1
2:0 3:1 2:2 3:9 4:1 5:15 6:4 2:4 3:1 4:1 6:13
3:0 2:2 3:9 4:1 5:15 6:4 2:4 3:1 4:1 6:13 5:3
2:0 3:9 4:1 5:15 6:4 2:4 3:1 4:1 6:13 5:3 2:5
3:0 4:1 5:15 6:4 2:4 3:1 4:1 6:13 5:3 2:5 4:2
4:0 5:15 6:4 2:4 3:1 4:1 6:13 5:3 2:5 4:2 3:2
5:0 6:4 2:4 3:1 4:1 6:13 5:3 2:5 4:2 3:2 4:2
6:0 2:4 3:1 4:1 6:13 5:3 2:5 4:2 3:2 4:2 3:1
2:0 3:1 4:1 6:13 5:3 2:5 4:2 3:2 4:2 3:1 4:8
3:0 4:1 6:13 5:3 2:5 4:2 3:2 4:2 3:1 4:8 3:8
4:0 6:13 5:3 2:5 4:2 3:2 4:2 3:1 4:8 3:8 4:2
6:0 5:3 2:5 4:2 3:2 4:2 3:1 4:8 3:8 4:2 6:2
5:0 2:5 4:2 3:2 4:2 3:1 4:8 3:8 4:2 6:2 2:9
2:0 4:2 3:2 4:2 3:1 4:8 3:8 4:2 6:2 2:9 4:6
4:0 3:2 4:2 3:1 4:8 3:8 4:2 6:2 2:9 4:6 3:1
3:0 4:2 3:1 4:8 3:8 4:2 6:2 2:9 4:6 3:1 2:1
4:0 3:1 4:8 3:8 4:2 6:2 2:9 4:6 3:1 2:1 3:5
3:0 4:8 3:8 4:2 6:2 2:9 4:6 3:1 2:1 3:5 4:2
4:0 3:8 4:2 6:2 2:9 4:6 3:1 2:1 3:5 4:2 5:12
3:0 4:2 6:2 2:9 4:6 3:1 2:1 3:5 4:2 5:12 6:1
4:0 6:2 2:9 4:6 3:1 2:1 3:5 4:2 5:12 6:1 5:1
6:0 2:9 4:6 3:1 2:1 3:5 4:2 5:12 6:1 5:1 6:5
2:0 4:6 3:1 2:1 3:5 4:2 5:12 6:1 5:1 6:5 2:1
4:0 3:1 2:1 3:5 4:2 5:12 6:1 5:1 6:5 2:1 3:2
3:0 2:1 3:5 4:2 5:12 6:1 5:1 6:5 2:1 3:2 4:1
2:0 3:5 4:2 5:12 6:1 5:1 6:5 2:1 3:2 4:1 5:6
3:0 4:2 5:12 6:1 5:1 6:5 2:1 3:2 4:1 5:6 2:6
4:0 5:12 6:1 5:1 6:5 2:1 3:2 4:1 5:6 2:6 3:11
5:0 6:1 5:1 6:5 2:1 3:2 4:1 5:6 2:6 3:11 4:1
6:0 5:1 6:5 2:1 3:2 4:1 5:6 2:6 3:11 4:1 6:15
5:0 6:5 2:1 3:2 4:1 5:6 2:6 3:11 4:1 6:15 5:1
6:0 2:1 3:2 4:1 5:6 2:6 3:11 4:1 6:15 5:1 6:4
2:0 3:2 4:1 5:6 2:6 3:11 4:1 6:15 5:1 6:4 2:2
3:0 4:1 5:6 2:6 3:11 4:1 6:15 5:1 6:4 2:2 3:1
4:0 5:6 2:6 3:11 4:1 6:15 5:1 6:4 2:2 3:1 4:2
5:0 2:6 3:11 4:1 6:15 5:1 6:4 2:2 3:1 4:2 6:11
2:0 3:11 4:1 6:15 5:1 6:4 2:2 3:1 4:2 6:11 5:3
3:0 4:1 6:15 5:1 6:4 2:2 3:1 4:2 6:11 5:3 2:5
4:0 6:15 5:1 6:4 2:2 3:1 4:2 6:11 5:3 2:5 4:3
6:0 5:1 6:4 2:2 3:1 4:2 6:11 5:3 2:5 4:3 3:2
5:0 6:4 2:2 3:1 4:2 6:11 5:3 2:5 4:3 3:2 4:1
6:0 2:2 3:1 4:2 6:11 5:3 2:5 4:3 3:2 4:1 3:2
2:0 3:1 4:2 6:11 5:3 2:5 4:3 3:2 4:1 3:2 4:10
3:0 4:2 6:11 5:3 2:5 4:3 3:2 4:1 3:2 4:10 3:3
4:0 6:11 5:3 2:5 4:3 3:2 4:1 3:2 4:10 3:3 4:6
6:0 5:3 2:5 4:3 3:2 4:1 3:2 4:10 3:3 4:6 6:3
5:0 2:5 4:3 3:2 4:1 3:2 4:10 3:3 4:6 6:3 5:3
2:0 4:3 3:2 4:1 3:2 4:10 3:3 4:6 6:3 5:3 6:2
4:0 3:2 4:1 3:2 4:10 3:3 4:6 6:3 5:3 6:2 2:4
3:0 4:1 3:2 4:10 3:3 4:6 6:3 5:3 6:2 2:4 3:1
4:0 3:2 4:10 3:3 4:6 6:3 5:3 6:2 2:4 3:1 4:5
3:0 4:10 3:3 4:6 6:3 5:3 6:2 2:4 3:1 4:5 3:1
4:0 3:3 4:6 6:3 5:3 6:2 2:4 3:1 4:5 3:1 4:5
3:0 4:6 6:3 5:3 6:2 2:4 3:1 4:5 3:1 4:5 6:2
4:0 6:3 5:3 6:2 2:4 3:1 4:5 3:1 4:5 6:2 5:2
6:0 5:3 6:2 2:4 3:1 4:5 3:1 4:5 6:2 5:2 2:7
5:0 6:2 2:4 3:1 4:5 3:1 4:5 6:2 5:2 2:7 3:1
6:0 2:4 3:1 4:5 3:1 4:5 6:2 5:2 2:7 3:1 2:1
2:0 3:1 4:5 3:1 4:5 6:2 5:2 2:7 3:1 2:1 4:11
3:0 4:5 3:1 4:5 6:2 5:2 2:7 3:1 2:1 4:11 6:15
4:0 3:1 4:5 6:2 5:2 2:7 3:1 2:1 4:11 6:15 5:4
3:0 4:5 6:2 5:2 2:7 3:1 2:1 4:11 6:15 5:4 6:2
4:0 6:2 5:2 2:7 3:1 2:1 4:11 6:15 5:4 6:2 2:1
6:0 5:2 2:7 3:1 2:1 4:11 6:15 5:4 6:2 2:1 3:2
5:0 2:7 3:1 2:1 4:11 6:15 5:4 6:2 2:1 3:2 4:1
2:0 3:1 2:1 4:11 6:15 5:4 6:2 2:1 3:2 4:1 3:10
3:0 2:1 4:11 6:15 5:4 6:2 2:1 3:2 4:1 3:10 4:5
2:0 4:11 6:15 5:4 6:2 2:1 3:2 4:1 3:10 4:5 3:4
4:0 6:15 5:4 6:2 2:1 3:2 4:1 3:10 4:5 3:4 4:4
6:0 5:4 6:2 2:1 3:2 4:1 3:10 4:5 3:4 4:4 6:3
5:0 6:2 2:1 3:2 4:1 3:10 4:5 3:4 4:4 6:3 5:4
6:0 2:1 3:2 4:1 3:10 4:5 3:4 4:4 6:3 5:4 6:1
2:0 3:2 4:1 3:10 4:5 3:4 4:4 6:3 5:4 6:1 2:3
3:0 4:1 3:10 4:5 3:4 4:4 6:3 5:4 6:1 2:3 3:1
4:0 3:10 4:5 3:4 4:4 6:3 5:4 6:1 2:3 3:1 4:1
3:0 4:5 3:4 4:4 6:3 5:4 6:1 2:3 3:1 4:1 3:1
4:0 3:4 4:4 6:3 5:4 6:1 2:3 3:1 4:1 3:1 4:3
3:0 4:4 6:3 5:4 6:1 2:3 3:1 4:1 3:1 4:3 3:2
4:0 6:3 5:4 6:1 2:3 3:1 4:1 3:1 4:3 3:2 4:5
6:0 5:4 6:1 2:3 3:1 4:1 3:1 4:3 3:2 4:5 6:2
5:0 6:1 2:3 3:1 4:1 3:1 4:3 3:2 4:5 6:2 5:2
6:0 2:3 3:1 4:1 3:1 4:3 3:2 4:5 6:2 5:2 2:7
2:0 3:1 4:1 3:1 4:3 3:2 4:5 6:2 5:2 2:7 3:12
3:0 4:1 3:1 4:3 3:2 4:5 6:2 5:2 2:7 3:12 4:1
4:0 3:1 4:3 3:2 4:5 6:2 5:2 2:7 3:12 4:1 3:1
3:0 4:3 3:2 4:5 6:2 5:2 2:7 3:12 4:1 3:1 4:1
4:0 3:2 4:5 6:2 5:2 2:7 3:12 4:1 3:1 4:1 5:13
3:0 4:5 6:2 5:2 2:7 3:12 4:1 3:1 4:1 5:13 6:4
4:0 6:2 5:2 2:7 3:12 4:1 3:1 4:1 5:13 6:4 2:3
6:0 5:2 2:7 3:12 4:1 3:1 4:1 5:13 6:4 2:3 3:2
5:0 2:7 3:12 4:1 3:1 4:1 5:13 6:4 2:3 3:2 4:2
2:0 3:12 4:1 3:1 4:1 5:13 6:4 2:3 3:2 4:2 6:12
3:0 4:1 3:1 4:1 5:13 6:4 2:3 3:2 4:2 6:12 5:3
4:0 3:1 4:1 5:13 6:4 2:3 3:2 4:2 6:12 5:3 2:4
3:0 4:1 5:13 6:4 2:3 3:2 4:2 6:12 5:3 2:4 4:3
4:0 5:13 6:4 2:3 3:2 4:2 6:12 5:3 2:4 4:3 3:2
5:0 6:4 2:3 3:2 4:2 6:12 5:3 2:4 4:3 3:2 4:2
6:0 2:3 3:2 4:2 6:12 5:3 2:4 4:3 3:2 4:2 3:2
2:0 3:2 4:2 6:12 5:3 2:4 4:3 3:2 4:2 3:2 4:9
3:0 4:2 6:12 5:3 2:4 4:3 3:2 4:2 3:2 4:9 6:12
4:0 6:12 5:3 2:4 4:3 3:2 4:2 3:2 4:9 6:12 5:8
6:0 5:3 2:4 4:3 3:2 4:2 3:2 4:9 6:12 5:8 2:1
5:0 2:4 4:3 3:2 4:2 3:2 4:9 6:12 5:8 2:1 4:3
2:0 4:3 3:2 4:2 3:2 4:9 6:12 5:8 2:1 4:3 3:2
4:0 3:2 4:2 3:2 4:9 6:12 5:8 2:1 4:3 3:2 2:2
3:0 4:2 3:2 4:9 6:12 5:8 2:1 4:3 3:2 2:2 3:5
4:0 3:2 4:9 6:12 5:8 2:1 4:3 3:2 2:2 3:5 4:1
3:0 4:9 6:12 5:8 2:1 4:3 3:2 2:2 3:5 4:1 5:5
4:0 6:12 5:8 2:1 4:3 3:2 2:2 3:5 4:1 5:5 6:1
6:0 5:8 2:1 4:3 3:2 2:2 3:5 4:1 5:5 6:1 5:2
5:0 2:1 4:3 3:2 2:2 3:5 4:1 5:5 6:1 5:2 6:1
2:0 4:3 3:2 2:2 3:5 4:1 5:5 6:1 5:2 6:1 2:3
4:0 3:2 2:2 3:5 4:1 5:5 6:1 5:2 6:1 2:3 3:2
3:0 2:2 3:5 4:1 5:5 6:1 5:2 6:1 2:3 3:2 2:5
2:0 3:5 4:1 5:5 6:1 5:2 6:1 2:3 3:2 2:5 3:1
3:0 4:1 5:5 6:1 5:2 6:1 2:3 3:2 2:5 3:1 4:3
4:0 5:5 6:1 5:2 6:1 2:3 3:2 2:5 3:1 4:3 6:4
5:0 6:1 5:2 6:1 2:3 3:2 2:5 3:1 4:3 6:4 5:6
6:0 5:2 6:1 2:3 3:2 2:5 3:1 4:3 6:4 5:6 2:3
5:0 6:1 2:3 3:2 2:5 3:1 4:3 6:4 5:6 2:3 3:11
6:0 2:3 3:2 2:5 3:1 4:3 6:4 5:6 2:3 3:11 4:1
2:0 3:2 2:5 3:1 4:3 6:4 5:6 2:3 3:11 4:1 6:15
3:0 2:5 3:1 4:3 6:4 5:6 2:3 3:11 4:1 6:15 5:2
2:0 3:1 4:3 6:4 5:6 2:3 3:11 4:1 6:15 5:2 2:5
3:0 4:3 6:4 5:6 2:3 3:11 4:1 6:15 5:2 2:5 3:1
4:0 6:4 5:6 2:3 3:11 4:1 6:15 5:2 2:5 3:1 4:1
6:0 5:6 2:3 3:11 4:1 6:15 5:2 2:5 3:1 4:1 6:14
5:0 2:3 3:11 4:1 6:15 5:2 2:5 3:1 4:1 6:14 5:4
2:0 3:11 4:1 6:15 5:2 2:5 3:1 4:1 6:14 5:4 2:4
3:0 4:1 6:15 5:2 2:5 3:1 4:1 6:14 5:4 2:4 3:2
4:0 6:15 5:2 2:5 3:1 4:1 6:14 5:4 2:4 3:2 4:1
6:0 5:2 2:5 3:1 4:1 6:14 5:4 2:4 3:2 4:1 3:2
5:0 2:5 3:1 4:1 6:14 5:4 2:4 3:2 4:1 3:2 4:6
2:0 3:1 4:1 6:14 5:4 2:4 3:2 4:1 3:2 4:6 3:2
3:0 4:1 6:14 5:4 2:4 3:2 4:1 3:2 4:6 3:2 4:1
4:0 6:14 5:4 2:4 3:2 4:1 3:2 4:6 3:2 4:1 3:9
6:0 5:4 2:4 3:2 4:1 3:2 4:6 3:2 4:1 3:9 4:2
5:0 2:4 3:2 4:1 3:2 4:6 3:2 4:1 3:9 4:2 6:2
2:0 3:2 4:1 3:2 4:6 3:2 4:1 3:9 4:2 6:2 5:4
3:0 4:1 3:2 4:6 3:2 4:1 3:9 4:2 6:2 5:4 6:1
4:0 3:2 4:6 3:2 4:1 3:9 4:2 6:2 5:4 6:1 2:4
3:0 4:6 3:2 4:1 3:9 4:2 6:2 5:4 6:1 2:4 3:1
4:0 3:2 4:1 3:9 4:2 6:2 5:4 6:1 2:4 3:1 4:6
3:0 4:1 3:9 4:2 6:2 5:4 6:1 2:4 3:1 4:6 3:1
4:0 3:9 4:2 6:2 5:4 6:1 2:4 3:1 4:6 3:1 4:4
3:0 4:2 6:2 5:4 6:1 2:4 3:1 4:6 3:1 4:4 6:4
4:0 6:2 5:4 6:1 2:4 3:1 4:6 3:1 4:4 6:4 5:3
6:0 5:4 6:1 2:4 3:1 4:6 3:1 4:4 6:4 5:3 2:5
5:0 6:1 2:4 3:1 4:6 3:1 4:4 6:4 5:3 2:5 4:3
6:0 2:4 3:1 4:6 3:1 4:4 6:4 5:3 2:5 4:3 3:1
2:0 3:1 4:6 3:1 4:4 6:4 5:3 2:5 4:3 3:1 2:4
3:0 4:6 3:1 4:4 6:4 5:3 2:5 4:3 3:1 2:4 4:5
4:0 3:1 4:4 6:4 5:3 2:5 4:3 3:1 2:4 4:5 6:5
3:0 4:4 6:4 5:3 2:5 4:3 3:1 2:4 4:5 6:5 2:8
4:0 6:4 5:3 2:5 4:3 3:1 2:4 4:5 6:5 2:8 3:2
6:0 5:3 2:5 4:3 3:1 2:4 4:5 6:5 2:8 3:2 4:9
5:0 2:5 4:3 3:1 2:4 4:5 6:5 2:8 3:2 4:9 6:4
2:0 4:3 3:1 2:4 4:5 6:5 2:8 3:2 4:9 6:4 5:4
4:0 3:1 2:4 4:5 6:5 2:8 3:2 4:9 6:4 5:4 2:4
3:0 2:4 4:5 6:5 2:8 3:2 4:9 6:4 5:4 2:4 3:11
2:0 4:5 6:5 2:8 3:2 4:9 6:4 5:4 2:4 3:11 4:1
4:0 6:5 2:8 3:2 4:9 6:4 5:4 2:4 3:11 4:1 3:1
6:0 2:8 3:2 4:9 6:4 5:4 2:4 3:11 4:1 3:1 4:1
2:0 3:2 4:9 6:4 5:4 2:4 3:11 4:1 3:1 4:1 5:6
3:0 4:9 6:4 5:4 2:4 3:11 4:1 3:1 4:1 5:6 6:1
4:0 6:4 5:4 2:4 3:11 4:1 3:1 4:1 5:6 6:1 3:6
6:0 5:4 2:4 3:11 4:1 3:1 4:1 5:6 6:1 3:6 4:8
5:0 2:4 3:11 4:1 3:1 4:1 5:6 6:1 3:6 4:8 6:5
2:0 3:11 4:1 3:1 4:1 5:6 6:1 3:6 4:8 6:5 5:2
3:0 4:1 3:1 4:1 5:6 6:1 3:6 4:8 6:5 5:2 2:6
4:0 3:1 4:1 5:6 6:1 3:6 4:8 6:5 5:2 2:6 3:3
3:0 4:1 5:6 6:1 3:6 4:8 6:5 5:2 2:6 3:3 2:1
4:0 5:6 6:1 3:6 4:8 6:5 5:2 2:6 3:3 2:1 4:9
5:0 6:1 3:6 4:8 6:5 5:2 2:6 3:3 2:1 4:9 5:7
6:0 3:6 4:8 6:5 5:2 2:6 3:3 2:1 4:9 5:7 6:1
3:0 4:8 6:5 5:2 2:6 3:3 2:1 4:9 5:7 6:1 5:1
4:0 6:5 5:2 2:6 3:3 2:1 4:9 5:7 6:1 5:1 6:1
6:0 5:2 2:6 3:3 2:1 4:9 5:7 6:1 5:1 6:1 3:3
5:0 2:6 3:3 2:1 4:9 5:7 6:1 5:1 6:1 3:3 4:10
2:0 3:3 2:1 4:9 5:7 6:1 5:1 6:1 3:3 4:10 6:4
3:0 2:1 4:9 5:7 6:1 5:1 6:1 3:3 4:10 6:4 5:4
2:0 4:9 5:7 6:1 5:1 6:1 3:3 4:10 6:4 5:4 3:3
4:0 5:7 6:1 5:1 6:1 3:3 4:10 6:4 5:4 3:3 2:1
5:0 6:1 5:1 6:1 3:3 4:10 6:4 5:4 3:3 2:1 4:12
6:0 5:1 6:1 3:3 4:10 6:4 5:4 3:3 2:1 4:12 6:14
5:0 6:1 3:3 4:10 6:4 5:4 3:3 2:1 4:12 6:14 5:2
6:0 3:3 4:10 6:4 5:4 3:3 2:1 4:12 6:14 5:2 6:3
3:0 4:10 6:4 5:4 3:3 2:1 4:12 6:14 5:2 6:3 2:3
4:0 6:4 5:4 3:3 2:1 4:12 6:14 5:2 6:3 2:3 4:2
6:0 5:4 3:3 2:1 4:12 6:14 5:2 6:3 2:3 4:2 3:10
5:0 3:3 2:1 4:12 6:14 5:2 6:3 2:3 4:2 3:10 4:6
3:0 2:1 4:12 6:14 5:2 6:3 2:3 4:2 3:10 4:6 3:3
2:0 4:12 6:14 5:2 6:3 2:3 4:2 3:10 4:6 3:3 4:4
4:0 6:14 5:2 6:3 2:3 4:2 3:10 4:6 3:3 4:4 6:4
6:0 5:2 6:3 2:3 4:2 3:10 4:6 3:3 4:4 6:4 5:2
5:0 6:3 2:3 4:2 3:10 4:6 3:3 4:4 6:4 5:2 6:3
6:0 2:3 4:2 3:10 4:6 3:3 4:4 6:4 5:2 6:3 2:4
2:0 4:2 3:10 4:6 3:3 4:4 6:4 5:2 6:3 2:4 3:2
4:0 3:10 4:6 3:3 4:4 6:4 5:2 6:3 2:4 3:2 4:2
3:0 4:6 3:3 4:4 6:4 5:2 6:3 2:4 3:2 4:2 3:1
4:0 3:3 4:4 6:4 5:2 6:3 2:4 3:2 4:2 3:1 4:1
3:0 4:4 6:4 5:2 6:3 2:4 3:2 4:2 3:1 4:1 3:2
4:0 6:4 5:2 6:3 2:4 3:2 4:2 3:1 4:1 3:2 4:4
6:0 5:2 6:3 2:4 3:2 4:2 3:1 4:1 3:2 4:4 6:3
5:0 6:3 2:4 3:2 4:2 3:1 4:1 3:2 4:4 6:3 5:2
6:0 2:4 3:2 4:2 3:1 4:1 3:2 4:4 6:3 5:2 2:6
2:0 3:2 4:2 3:1 4:1 3:2 4:4 6:3 5:2 2:6 3:7
3:0 4:2 3:1 4:1 3:2 4:4 6:3 5:2 2:6 3:7 2:1
4:0 3:1 4:1 3:2 4:4 6:3 5:2 2:6 3:7 2:1 3:5
3:0 4:1 3:2 4:4 6:3 5:2 2:6 3:7 2:1 3:5 4:1
4:0 3:2 4:4 6:3 5:2 2:6 3:7 2:1 3:5 4:1 5:6
3:0 4:4 6:3 5:2 2:6 3:7 2:1 3:5 4:1 5:6 6:2
4:0 6:3 5:2 2:6 3:7 2:1 3:5 4:1 5:6 6:2 2:4
6:0 5:2 2:6 3:7 2:1 3:5 4:1 5:6 6:2 2:4 3:1
5:0 2:6 3:7 2:1 3:5 4:1 5:6 6:2 2:4 3:1 4:10
2:0 3:7 2:1 3:5 4:1 5:6 6:2 2:4 3:1 4:10 6:4
3:0 2:1 3:5 4:1 5:6 6:2 2:4 3:1 4:10 6:4 5:4
2:0 3:5 4:1 5:6 6:2 2:4 3:1 4:10 6:4 5:4 2:4
3:0 4:1 5:6 6:2 2:4 3:1 4:10 6:4 5:4 2:4 3:6
4:0 5:6 6:2 2:4 3:1 4:10 6:4 5:4 2:4 3:6 2:1
5:0 6:2 2:4 3:1 4:10 6:4 5:4 2:4 3:6 2:1 3:5
6:0 2:4 3:1 4:10 6:4 5:4 2:4 3:6 2:1 3:5 4:1
2:0 3:1 4:10 6:4 5:4 2:4 3:6 2:1 3:5 4:1 5:8
3:0 4:10 6:4 5:4 2:4 3:6 2:1 3:5 4:1 5:8 6:5
4:0 6:4 5:4 2:4 3:6 2:1 3:5 4:1 5:8 6:5 3:1
6:0 5:4 2:4 3:6 2:1 3:5 4:1 5:8 6:5 3:1 4:9
5:0 2:4 3:6 2:1 3:5 4:1 5:8 6:5 3:1 4:9 6:5
2:0 3:6 2:1 3:5 4:1 5:8 6:5 3:1 4:9 6:5 5:4
3:0 2:1 3:5 4:1 5:8 6:5 3:1 4:9 6:5 5:4 2:3
2:0 3:5 4:1 5:8 6:5 3:1 4:9 6:5 5:4 2:3 4:4
3:0 4:1 5:8 6:5 3:1 4:9 6:5 5:4 2:3 4:4 2:1
4:0 5:8 6:5 3:1 4:9 6:5 5:4 2:3 4:4 2:1 3:7
5:0 6:5 3:1 4:9 6:5 5:4 2:3 4:4 2:1 3:7 4:1
6:0 3:1 4:9 6:5 5:4 2:3 4:4 2:1 3:7 4:1 5:5
3:0 4:9 6:5 5:4 2:3 4:4 2:1 3:7 4:1 5:5 6:1
4:0 6:5 5:4 2:3 4:4 2:1 3:7 4:1 5:5 6:1 2:6
6:0 5:4 2:3 4:4 2:1 3:7 4:1 5:5 6:1 2:6 3:3
5:0 2:3 4:4 2:1 3:7 4:1 5:5 6:1 2:6 3:3 4:8
2:0 4:4 2:1 3:7 4:1 5:5 6:1 2:6 3:3 4:8 6:4
4:0 2:1 3:7 4:1 5:5 6:1 2:6 3:3 4:8 6:4 5:4
2:0 3:7 4:1 5:5 6:1 2:6 3:3 4:8 6:4 5:4 2:3
3:0 4:1 5:5 6:1 2:6 3:3 4:8 6:4 5:4 2:3 4:5
4:0 5:5 6:1 2:6 3:3 4:8 6:4 5:4 2:3 4:5 2:1
5:0 6:1 2:6 3:3 4:8 6:4 5:4 2:3 4:5 2:1 3:7
6:0 2:6 3:3 4:8 6:4 5:4 2:3 4:5 2:1 3:7 4:2
2:0 3:3 4:8 6:4 5:4 2:3 4:5 2:1 3:7 4:2 6:13
3:0 4:8 6:4 5:4 2:3 4:5 2:1 3:7 4:2 6:13 5:1
4:0 6:4 5:4 2:3 4:5 2:1 3:7 4:2 6:13 5:1 6:6
6:0 5:4 2:3 4:5 2:1 3:7 4:2 6:13 5:1 6:6 2:1
5:0 2:3 4:5 2:1 3:7 4:2 6:13 5:1 6:6 2:1 3:1
2:0 4:5 2:1 3:7 4:2 6:13 5:1 6:6 2:1 3:1 4:1
4:0 2:1 3:7 4:2 6:13 5:1 6:6 2:1 3:1 4:1 6:10
2:0 3:7 4:2 6:13 5:1 6:6 2:1 3:1 4:1 6:10 5:3
3:0 4:2 6:13 5:1 6:6 2:1 3:1 4:1 6:10 5:3 2:6
4:0 6:13 5:1 6:6 2:1 3:1 4:1 6:10 5:3 2:6 4:5
6:0 5:1 6:6 2:1 3:1 4:1 6:10 5:3 2:6 4:5 3:1
5:0 6:6 2:1 3:1 4:1 6:10 5:3 2:6 4:5 3:1 4:3
6:0 2:1 3:1 4:1 6:10 5:3 2:6 4:5 3:1 4:3 3:1
2:0 3:1 4:1 6:10 5:3 2:6 4:5 3:1 4:3 3:1 4:11
3:0 4:1 6:10 5:3 2:6 4:5 3:1 4:3 3:1 4:11 3:2
4:0 6:10 5:3 2:6 4:5 3:1 4:3 3:1 4:11 3:2 4:4
6:0 5:3 2:6 4:5 3:1 4:3 3:1 4:11 3:2 4:4 6:4
5:0 2:6 4:5 3:1 4:3 3:1 4:11 3:2 4:4 6:4 5:2
2:0 4:5 3:1 4:3 3:1 4:11 3:2 4:4 6:4 5:2 6:3
4:0 3:1 4:3 3:1 4:11 3:2 4:4 6:4 5:2 6:3 5:1
3:0 4:3 3:1 4:11 3:2 4:4 6:4 5:2 6:3 5:1 6:1
4:0 3:1 4:11 3:2 4:4 6:4 5:2 6:3 5:1 6:1 3:2
3:0 4:11 3:2 4:4 6:4 5:2 6:3 5:1 6:1 3:2 4:6
4:0 3:2 4:4 6:4 5:2 6:3 5:1 6:1 3:2 4:6 3:1
3:0 4:4 6:4 5:2 6:3 5:1 6:1 3:2 4:6 3:1 4:5
4:0 6:4 5:2 6:3 5:1 6:1 3:2 4:6 3:1 4:5 6:3
6:0 5:2 6:3 5:1 6:1 3:2 4:6 3:1 4:5 6:3 5:3
5:0 6:3 5:1 6:1 3:2 4:6 3:1 4:5 6:3 5:3 2:6
6:0 5:1 6:1 3:2 4:6 3:1 4:5 6:3 5:3 2:6 4:2
5:0 6:1 3:2 4:6 3:1 4:5 6:3 5:3 2:6 4:2 3:1
6:0 3:2 4:6 3:1 4:5 6:3 5:3 2:6 4:2 3:1 2:4
3:0 4:6 3:1 4:5 6:3 5:3 2:6 4:2 3:1 2:4 4:5
4:0 3:1 4:5 6:3 5:3 2:6 4:2 3:1 2:4 4:5 6:5
3:0 4:5 6:3 5:3 2:6 4:2 3:1 2:4 4:5 6:5 5:4
4:0 6:3 5:3 2:6 4:2 3:1 2:4 4:5 6:5 5:4 6:1
6:0 5:3 2:6 4:2 3:1 2:4 4:5 6:5 5:4 6:1 2:3
5:0 2:6 4:2 3:1 2:4 4:5 6:5 5:4 6:1 2:3 3:2
2:0 4:2 3:1 2:4 4:5 6:5 5:4 6:1 2:3 3:2 4:9
4:0 3:1 2:4 4:5 6:5 5:4 6:1 2:3 3:2 4:9 6:4
3:0 2:4 4:5 6:5 5:4 6:1 2:3 3:2 4:9 6:4 5:5
2:0 4:5 6:5 5:4 6:1 2:3 3:2 4:9 6:4 5:5 2:3
4:0 6:5 5:4 6:1 2:3 3:2 4:9 6:4 5:5 2:3 4:3
6:0 5:4 6:1 2:3 3:2 4:9 6:4 5:5 2:3 4:3 2:1
5:0 6:1 2:3 3:2 4:9 6:4 5:5 2:3 4:3 2:1 4:8
6:0 2:3 3:2 4:9 6:4 5:5 2:3 4:3 2:1 4:8 5:8
2:0 3:2 4:9 6:4 5:5 2:3 4:3 2:1 4:8 5:8 6:1
3:0 4:9 6:4 5:5 2:3 4:3 2:1 4:8 5:8 6:1 5:1
4:0 6:4 5:5 2:3 4:3 2:1 4:8 5:8 6:1 5:1 6:1
6:0 5:5 2:3 4:3 2:1 4:8 5:8 6:1 5:1 6:1 3:4
5:0 2:3 4:3 2:1 4:8 5:8 6:1 5:1 6:1 3:4 4:9
2:0 4:3 2:1 4:8 5:8 6:1 5:1 6:1 3:4 4:9 6:5
4:0 2:1 4:8 5:8 6:1 5:1 6:1 3:4 4:9 6:5 5:1
2:0 4:8 5:8 6:1 5:1 6:1 3:4 4:9 6:5 5:1 2:6
4:0 5:8 6:1 5:1 6:1 3:4 4:9 6:5 5:1 2:6 4:1
5:0 6:1 5:1 6:1 3:4 4:9 6:5 5:1 2:6 4:1 2:1
6:0 5:1 6:1 3:4 4:9 6:5 5:1 2:6 4:1 2:1 4:11
5:0 6:1 3:4 4:9 6:5 5:1 2:6 4:1 2:1 4:11 5:16
6:0 3:4 4:9 6:5 5:1 2:6 4:1 2:1 4:11 5:16 6:5
3:0 4:9 6:5 5:1 2:6 4:1 2:1 4:11 5:16 6:5 3:2
4:0 6:5 5:1 2:6 4:1 2:1 4:11 5:16 6:5 3:2 4:1
6:0 5:1 2:6 4:1 2:1 4:11 5:16 6:5 3:2 4:1 6:13
5:0 2:6 4:1 2:1 4:11 5:16 6:5 3:2 4:1 6:13 5:5
2:0 4:1 2:1 4:11 5:16 6:5 3:2 4:1 6:13 5:5 2:3
4:0 2:1 4:11 5:16 6:5 3:2 4:1 6:13 5:5 2:3 4:2
2:0 4:11 5:16 6:5 3:2 4:1 6:13 5:5 2:3 4:2 3:1
4:0 5:16 6:5 3:2 4:1 6:13 5:5 2:3 4:2 3:1 4:2
5:0 6:5 3:2 4:1 6:13 5:5 2:3 4:2 3:1 4:2 3:2
6:0 3:2 4:1 6:13 5:5 2:3 4:2 3:1 4:2 3:2 4:9
3:0 4:1 6:13 5:5 2:3 4:2 3:1 4:2 3:2 4:9 3:6
4:0 6:13 5:5 2:3 4:2 3:1 4:2 3:2 4:9 3:6 4:4
6:0 5:5 2:3 4:2 3:1 4:2 3:2 4:9 3:6 4:4 6:2
5:0 2:3 4:2 3:1 4:2 3:2 4:9 3:6 4:4 6:2 5:6
2:0 4:2 3:1 4:2 3:2 4:9 3:6 4:4 6:2 5:6 2:4
4:0 3:1 4:2 3:2 4:9 3:6 4:4 6:2 5:6 2:4 3:12
3:0 4:2 3:2 4:9 3:6 4:4 6:2 5:6 2:4 3:12 4:2
4:0 3:2 4:9 3:6 4:4 6:2 5:6 2:4 3:12 4:2 5:16
3:0 4:9 3:6 4:4 6:2 5:6 2:4 3:12 4:2 5:16 6:3
4:0 3:6 4:4 6:2 5:6 2:4 3:12 4:2 5:16 6:3 3:3
3:0 4:4 6:2 5:6 2:4 3:12 4:2 5:16 6:3 3:3 4:1
4:0 6:2 5:6 2:4 3:12 4:2 5:16 6:3 3:3 4:1 3:1
6:0 5:6 2:4 3:12 4:2 5:16 6:3 3:3 4:1 3:1 4:2
5:0 2:4 3:12 4:2 5:16 6:3 3:3 4:1 3:1 4:2 6:12
2:0 3:12 4:2 5:16 6:3 3:3 4:1 3:1 4:2 6:12 5:5
3:0 4:2 5:16 6:3 3:3 4:1 3:1 4:2 6:12 5:5 2:3
4:0 5:16 6:3 3:3 4:1 3:1 4:2 6:12 5:5 2:3 4:1
5:0 6:3 3:3 4:1 3:1 4:2 6:12 5:5 2:3 4:1 3:2
6:0 3:3 4:1 3:1 4:2 6:12 5:5 2:3 4:1 3:2 4:3
3:0 4:1 3:1 4:2 6:12 5:5 2:3 4:1 3:2 4:3 3:1
4:0 3:1 4:2 6:12 5:5 2:3 4:1 3:2 4:3 3:1 2:4
3:0 4:2 6:12 5:5 2:3 4:1 3:2 4:3 3:1 2:4 3:1
4:0 6:12 5:5 2:3 4:1 3:2 4:3 3:1 2:4 3:1 4:4
6:0 5:5 2:3 4:1 3:2 4:3 3:1 2:4 3:1 4:4 3:3
5:0 2:3 4:1 3:2 4:3 3:1 2:4 3:1 4:4 3:3 4:5
2:0 4:1 3:2 4:3 3:1 2:4 3:1 4:4 3:3 4:5 6:4
4:0 3:2 4:3 3:1 2:4 3:1 4:4 3:3 4:5 6:4 5:1
3:0 4:3 3:1 2:4 3:1 4:4 3:3 4:5 6:4 5:1 6:2
4:0 3:1 2:4 3:1 4:4 3:3 4:5 6:4 5:1 6:2 2:5
3:0 2:4 3:1 4:4 3:3 4:5 6:4 5:1 6:2 2:5 3:1
2:0 3:1 4:4 3:3 4:5 6:4 5:1 6:2 2:5 3:1 4:4
3:0 4:4 3:3 4:5 6:4 5:1 6:2 2:5 3:1 4:4 3:2
4:0 3:3 4:5 6:4 5:1 6:2 2:5 3:1 4:4 3:2 4:5
3:0 4:5 6:4 5:1 6:2 2:5 3:1 4:4 3:2 4:5 6:3
4:0 6:4 5:1 6:2 2:5 3:1 4:4 3:2 4:5 6:3 5:2
6:0 5:1 6:2 2:5 3:1 4:4 3:2 4:5 6:3 5:2 2:7
5:0 6:2 2:5 3:1 4:4 3:2 4:5 6:3 5:2 2:7 4:12
6:0 2:5 3:1 4:4 3:2 4:5 6:3 5:2 2:7 4:12 3:1
2:0 3:1 4:4 3:2 4:5 6:3 5:2 2:7 4:12 3:1 4:1
3:0 4:4 3:2 4:5 6:3 5:2 2:7 4:12 3:1 4:1 6:12
4:0 3:2 4:5 6:3 5:2 2:7 4:12 3:1 4:1 6:12 5:5
3:0 4:5 6:3 5:2 2:7 4:12 3:1 4:1 6:12 5:5 6:1
4:0 6:3 5:2 2:7 4:12 3:1 4:1 6:12 5:5 6:1 2:2
6:0 5:2 2:7 4:12 3:1 4:1 6:12 5:5 6:1 2:2 4:2
5:0 2:7 4:12 3:1 4:1 6:12 5:5 6:1 2:2 4:2 3:10
2:0 4:12 3:1 4:1 6:12 5:5 6:1 2:2 4:2 3:10 4:6
4:0 3:1 4:1 6:12 5:5 6:1 2:2 4:2 3:10 4:6 3:3
3:0 4:1 6:12 5:5 6:1 2:2 4:2 3:10 4:6 3:3 4:4
4:0 6:12 5:5 6:1 2:2 4:2 3:10 4:6 3:3 4:4 6:4
6:0 5:5 6:1 2:2 4:2 3:10 4:6 3:3 4:4 6:4 5:3
5:0 6:1 2:2 4:2 3:10 4:6 3:3 4:4 6:4 5:3 6:2
6:0 2:2 4:2 3:10 4:6 3:3 4:4 6:4 5:3 6:2 3:3
2:0 4:2 3:10 4:6 3:3 4:4 6:4 5:3 6:2 3:3 2:1
4:0 3:10 4:6 3:3 4:4 6:4 5:3 6:2 3:3 2:1 3:1
3:0 4:6 3:3 4:4 6:4 5:3 6:2 3:3 2:1 3:1 4:5
4:0 3:3 4:4 6:4 5:3 6:2 3:3 2:1 3:1 4:5 3:1
3:0 4:4 6:4 5:3 6:2 3:3 2:1 3:1 4:5 3:1 4:3
4:0 6:4 5:3 6:2 3:3 2:1 3:1 4:5 3:1 4:3 6:5
6:0 5:3 6:2 3:3 2:1 3:1 4:5 3:1 4:3 6:5 5:2
5:0 6:2 3:3 2:1 3:1 4:5 3:1 4:3 6:5 5:2 2:7
6:0 3:3 2:1 3:1 4:5 3:1 4:3 6:5 5:2 2:7 4:12
3:0 2:1 3:1 4:5 3:1 4:3 6:5 5:2 2:7 4:12 5:16
2:0 3:1 4:5 3:1 4:3 6:5 5:2 2:7 4:12 5:16 6:5
3:0 4:5 3:1 4:3 6:5 5:2 2:7 4:12 5:16 6:5 3:3
4:0 3:1 4:3 6:5 5:2 2:7 4:12 5:16 6:5 3:3 4:1
3:0 4:3 6:5 5:2 2:7 4:12 5:16 6:5 3:3 4:1 3:2
4:0 6:5 5:2 2:7 4:12 5:16 6:5 3:3 4:1 3:2 4:3
6:0 5:2 2:7 4:12 5:16 6:5 3:3 4:1 3:2 4:3 3:2
5:0 2:7 4:12 5:16 6:5 3:3 4:1 3:2 4:3 3:2 4:9
2:0 4:12 5:16 6:5 3:3 4:1 3:2 4:3 3:2 4:9 3:3
4:0 5:16 6:5 3:3 4:1 3:2 4:3 3:2 4:9 3:3 4:4
5:0 6:5 3:3 4:1 3:2 4:3 3:2 4:9 3:3 4:4 6:4
6:0 3:3 4:1 3:2 4:3 3:2 4:9 3:3 4:4 6:4 5:2
3:0 4:1 3:2 4:3 3:2 4:9 3:3 4:4 6:4 5:2 6:2
4:0 3:2 4:3 3:2 4:9 3:3 4:4 6:4 5:2 6:2 2:4
3:0 4:3 3:2 4:9 3:3 4:4 6:4 5:2 6:2 2:4 3:1
4:0 3:2 4:9 3:3 4:4 6:4 5:2 6:2 2:4 3:1 4:2
3:0 4:9 3:3 4:4 6:4 5:2 6:2 2:4 3:1 4:2 3:1
4:0 3:3 4:4 6:4 5:2 6:2 2:4 3:1 4:2 3:1 4:1
3:0 4:4 6:4 5:2 6:2 2:4 3:1 4:2 3:1 4:1 3:1
4:0 6:4 5:2 6:2 2:4 3:1 4:2 3:1 4:1 3:1 4:5
6:0 5:2 6:2 2:4 3:1 4:2 3:1 4:1 3:1 4:5 6:4
5:0 6:2 2:4 3:1 4:2 3:1 4:1 3:1 4:5 6:4 5:2
6:0 2:4 3:1 4:2 3:1 4:1 3:1 4:5 6:4 5:2 2:6
2:0 3:1 4:2 3:1 4:1 3:1 4:5 6:4 5:2 2:6 3:7
3:0 4:2 3:1 4:1 3:1 4:5 6:4 5:2 2:6 3:7 2:1
4:0 3:1 4:1 3:1 4:5 6:4 5:2 2:6 3:7 2:1 3:5
3:0 4:1 3:1 4:5 6:4 5:2 2:6 3:7 2:1 3:5 4:1
4:0 3:1 4:5 6:4 5:2 2:6 3:7 2:1 3:5 4:1 5:5
3:0 4:5 6:4 5:2 2:6 3:7 2:1 3:5 4:1 5:5 6:2
4:0 6:4 5:2 2:6 3:7 2:1 3:5 4:1 5:5 6:2 2:5
6:0 5:2 2:6 3:7 2:1 3:5 4:1 5:5 6:2 2:5 3:3
5:0 2:6 3:7 2:1 3:5 4:1 5:5 6:2 2:5 3:3 4:9
2:0 3:7 2:1 3:5 4:1 5:5 6:2 2:5 3:3 4:9 6:4
3:0 2:1 3:5 4:1 5:5 6:2 2:5 3:3 4:9 6:4 5:5
2:0 3:5 4:1 5:5 6:2 2:5 3:3 4:9 6:4 5:5 2:3
3:0 4:1 5:5 6:2 2:5 3:3 4:9 6:4 5:5 2:3 3:10
4:0 5:5 6:2 2:5 3:3 4:9 6:4 5:5 2:3 3:10 4:2
5:0 6:2 2:5 3:3 4:9 6:4 5:5 2:3 3:10 4:2 5:7
6:0 2:5 3:3 4:9 6:4 5:5 2:3 3:10 4:2 5:7 6:1
2:0 3:3 4:9 6:4 5:5 2:3 3:10 4:2 5:7 6:1 5:1
3:0 4:9 6:4 5:5 2:3 3:10 4:2 5:7 6:1 5:1 6:2
4:0 6:4 5:5 2:3 3:10 4:2 5:7 6:1 5:1 6:2 4:2
6:0 5:5 2:3 3:10 4:2 5:7 6:1 5:1 6:2 4:2 3:1
5:0 2:3 3:10 4:2 5:7 6:1 5:1 6:2 4:2 3:1 4:9
2:0 3:10 4:2 5:7 6:1 5:1 6:2 4:2 3:1 4:9 6:4
3:0 4:2 5:7 6:1 5:1 6:2 4:2 3:1 4:9 6:4 5:3
4:0 5:7 6:1 5:1 6:2 4:2 3:1 4:9 6:4 5:3 2:5
5:0 6:1 5:1 6:2 4:2 3:1 4:9 6:4 5:3 2:5 3:11
6:0 5:1 6:2 4:2 3:1 4:9 6:4 5:3 2:5 3:11 4:1
5:0 6:2 4:2 3:1 4:9 6:4 5:3 2:5 3:11 4:1 3:2
6:0 4:2 3:1 4:9 6:4 5:3 2:5 3:11 4:1 3:2 4:1
4:0 3:1 4:9 6:4 5:3 2:5 3:11 4:1 3:2 4:1 5:8
3:0 4:9 6:4 5:3 2:5 3:11 4:1 3:2 4:1 5:8 6:2
4:0 6:4 5:3 2:5 3:11 4:1 3:2 4:1 5:8 6:2 2:6
6:0 5:3 2:5 3:11 4:1 3:2 4:1 5:8 6:2 2:6 3:5
5:0 2:5 3:11 4:1 3:2 4:1 5:8 6:2 2:6 3:5 4:2
2:0 3:11 4:1 3:2 4:1 5:8 6:2 2:6 3:5 4:2 6:8
3:0 4:1 3:2 4:1 5:8 6:2 2:6 3:5 4:2 6:8 5:3
4:0 3:2 4:1 5:8 6:2 2:6 3:5 4:2 6:8 5:3 2:6
3:0 4:1 5:8 6:2 2:6 3:5 4:2 6:8 5:3 2:6 4:5
4:0 5:8 6:2 2:6 3:5 4:2 6:8 5:3 2:6 4:5 2:2
5:0 6:2 2:6 3:5 4:2 6:8 5:3 2:6 4:5 2:2 3:1
6:0 2:6 3:5 4:2 6:8 5:3 2:6 4:5 2:2 3:1 4:1
2:0 3:5 4:2 6:8 5:3 2:6 4:5 2:2 3:1 4:1 3:2
3:0 4:2 6:8 5:3 2:6 4:5 2:2 3:1 4:1 3:2 4:9
4:0 6:8 5:3 2:6 4:5 2:2 3:1 4:1 3:2 4:9 3:8
6:0 5:3 2:6 4:5 2:2 3:1 4:1 3:2 4:9 3:8 4:1
5:0 2:6 4:5 2:2 3:1 4:1 3:2 4:9 3:8 4:1 6:2
2:0 4:5 2:2 3:1 4:1 3:2 4:9 3:8 4:1 6:2 5:7
4:0 2:2 3:1 4:1 3:2 4:9 3:8 4:1 6:2 5:7 2:3
2:0 3:1 4:1 3:2 4:9 3:8 4:1 6:2 5:7 2:3 4:13
3:0 4:1 3:2 4:9 3:8 4:1 6:2 5:7 2:3 4:13 5:14
4:0 3:2 4:9 3:8 4:1 6:2 5:7 2:3 4:13 5:14 6:4
3:0 4:9 3:8 4:1 6:2 5:7 2:3 4:13 5:14 6:4 2:4
4:0 3:8 4:1 6:2 5:7 2:3 4:13 5:14 6:4 2:4 3:1
3:0 4:1 6:2 5:7 2:3 4:13 5:14 6:4 2:4 3:1 4:1
4:0 6:2 5:7 2:3 4:13 5:14 6:4 2:4 3:1 4:1 6:14
6:0 5:7 2:3 4:13 5:14 6:4 2:4 3:1 4:1 6:14 5:2
5:0 2:3 4:13 5:14 6:4 2:4 3:1 4:1 6:14 5:2 2:6
2:0 4:13 5:14 6:4 2:4 3:1 4:1 6:14 5:2 2:6 4:3
4:0 5:14 6:4 2:4 3:1 4:1 6:14 5:2 2:6 4:3 3:1
5:0 6:4 2:4 3:1 4:1 6:14 5:2 2:6 4:3 3:1 4:9
6:0 2:4 3:1 4:1 6:14 5:2 2:6 4:3 3:1 4:9 3:1
2:0 3:1 4:1 6:14 5:2 2:6 4:3 3:1 4:9 3:1 4:2
3:0 4:1 6:14 5:2 2:6 4:3 3:1 4:9 3:1 4:2 3:5
4:0 6:14 5:2 2:6 4:3 3:1 4:9 3:1 4:2 3:5 4:4
6:0 5:2 2:6 4:3 3:1 4:9 3:1 4:2 3:5 4:4 6:3
5:0 2:6 4:3 3:1 4:9 3:1 4:2 3:5 4:4 6:3 5:7
2:0 4:3 3:1 4:9 3:1 4:2 3:5 4:4 6:3 5:7 2:1
4:0 3:1 4:9 3:1 4:2 3:5 4:4 6:3 5:7 2:1 4:5
3:0 4:9 3:1 4:2 3:5 4:4 6:3 5:7 2:1 4:5 3:1
4:0 3:1 4:2 3:5 4:4 6:3 5:7 2:1 4:5 3:1 2:2
3:0 4:2 3:5 4:4 6:3 5:7 2:1 4:5 3:1 2:2 3:5
4:0 3:5 4:4 6:3 5:7 2:1 4:5 3:1 2:2 3:5 4:2
3:0 4:4 6:3 5:7 2:1 4:5 3:1 2:2 3:5 4:2 6:13
4:0 6:3 5:7 2:1 4:5 3:1 2:2 3:5 4:2 6:13 5:2
6:0 5:7 2:1 4:5 3:1 2:2 3:5 4:2 6:13 5:2 6:3
5:0 2:1 4:5 3:1 2:2 3:5 4:2 6:13 5:2 6:3 2:3
2:0 4:5 3:1 2:2 3:5 4:2 6:13 5:2 6:3 2:3 3:1
4:0 3:1 2:2 3:5 4:2 6:13 5:2 6:3 2:3 3:1 4:2
3:0 2:2 3:5 4:2 6:13 5:2 6:3 2:3 3:1 4:2 6:12
2:0 3:5 4:2 6:13 5:2 6:3 2:3 3:1 4:2 6:12 5:3
3:0 4:2 6:13 5:2 6:3 2:3 3:1 4:2 6:12 5:3 2:6
4:0 6:13 5:2 6:3 2:3 3:1 4:2 6:12 5:3 2:6 4:1
6:0 5:2 6:3 2:3 3:1 4:2 6:12 5:3 2:6 4:1 3:2
5:0 6:3 2:3 3:1 4:2 6:12 5:3 2:6 4:1 3:2 4:2
6:0 2:3 3:1 4:2 6:12 5:3 2:6 4:1 3:2 4:2 3:5
2:0 3:1 4:2 6:12 5:3 2:6 4:1 3:2 4:2 3:5 4:9
3:0 4:2 6:12 5:3 2:6 4:1 3:2 4:2 3:5 4:9 3:2
4:0 6:12 5:3 2:6 4:1 3:2 4:2 3:5 4:9 3:2 4:3
6:0 5:3 2:6 4:1 3:2 4:2 3:5 4:9 3:2 4:3 6:5
5:0 2:6 4:1 3:2 4:2 3:5 4:9 3:2 4:3 6:5 5:2
2:0 4:1 3:2 4:2 3:5 4:9 3:2 4:3 6:5 5:2 6:2
4:0 3:2 4:2 3:5 4:9 3:2 4:3 6:5 5:2 6:2 2:3
3:0 4:2 3:5 4:9 3:2 4:3 6:5 5:2 6:2 2:3 3:2
4:0 3:5 4:9 3:2 4:3 6:5 5:2 6:2 2:3 3:2 4:2
3:0 4:9 3:2 4:3 6:5 5:2 6:2 2:3 3:2 4:2 3:1
4:0 3:2 4:3 6:5 5:2 6:2 2:3 3:2 4:2 3:1 4:2
3:0 4:3 6:5 5:2 6:2 2:3 3:2 4:2 3:1 4:2 3:1
4:0 6:5 5:2 6:2 2:3 3:2 4:2 3:1 4:2 3:1
6:0 5:2 6:2 2:3 3:2 4:2 3:1 4:2 3:1
5:0 6:2 2:3 3:2 4:2 3:1 4:2 3:1
6:0 2:3 3:2 4:2 3:1 4:2 3:1
2:0 3:2 4:2 3:1 4:2 3:1
3:0 4:2 3:1 4:2 3:1
4:0 3:1 4:2 3:1
3:0 4:2 3:1
4:0 3:1
3:0