S0 -> S1 [label="3 [0, 0, 0, 0, 0, 0, 0, 0, 0, 0, 0, 0, 0, 0, 0, 0, 0, 0, 0, 0, 0, 0, 0, 0, 0, 0, 0, 0, 0, 0, 0, 0, 0, 0, 0, 0, 0, 0, 0, 0, 0, 0, 0, 0, 0, 0, 0, 0, 0, 0, 0, 0, 0, 0, 0, 0, 0, 0, 0, 0, 0, 0, 0, 0, 0, 0, 0, 0, 0, 0, 0, 0, 0, 0, 0, 0] p=0.5"]
S0 -> S2 [label="1 [0, 0, 0, 0, 0, 0, 0, 0, 0, 0, 0, 0, 0, 0, 0, 0, 0, 0, 0, 0, 0, 0, 0, 0, 0, 0, 0, 0, 0, 0, 0, 0, 0, 0, 0, 0, 0, 0, 0, 0, 0, 0, 0, 0, 0, 0, 0, 0, 0, 0, 0, 0, 0, 0, 0, 0, 0, 0, 0, 0, 0, 0, 0, 0, 0, 0, 0, 0, 0, 0, 0, 0, 0, 0, 0, 0] p=0.5"]
S1 -> S2 [label="1 [669, 3018, 3011, 2999, 2980, 2981, 2953, 2956, 2970, 2929, 2950, 2915, 2943, 2976, 2983, 2945, 2847, 2870, 2875, 2929, 2951, 2989, 2954, 2958, 2975, 2956, 2934, 2944, 2986, 2969, 2943, 2941, 2938, 2944, 2942, 2990, 3027, 3069, 3121, 3110, 3103, 3090, 3069, 3071, 3036, 3025, 3027, 3032, 3022, 3025, 3008, 3029, 3006, 3032, 3033, 3074, 3106, 3161, 639, 3164, 3180, 696, 3163, 704, 3145, 655, 3150, 624, 3113, 3102, 3129, 3096, 3114, 3091, 3076, 3090, 3018, 3011, 2999, 2980, 2981, 2953, 2956, 2970, 2929, 2950, 2915, 2943, 2976, 2983, 2945, 2847, 2870, 2875, 2929, 2951, 2989, 2954, 2958, 2975, 2956, 2934, 2944, 2986, 2969, 2943, 2941, 2938, 2944, 2942, 2990, 3027, 3069, 3121, 3110, 3103, 3090, 3069, 3071, 3036, 3025, 3027, 3032, 3022, 3025, 3008, 3029, 3006, 3032, 3033, 3074, 3106, 3161, 639, 3164, 3180, 696, 3163, 704, 3145, 655, 3150, 624, 3113, 3102, 3129, 3096, 3114, 3091, 3076, 3090, 3018, 3011, 2999, 2980, 2981, 2953, 2956, 2970, 2929, 2950, 2915, 2943, 2976, 2983, 2945, 2847, 2870, 2875, 2929, 2951, 2989, 2954, 2958, 2975, 2956, 2934, 2944, 2986, 2969, 2943, 2941, 2938, 2944, 2942, 2990, 3027, 3069, 3121, 3110, 3103, 3090, 3069, 3071, 3036, 3025, 3027, 3032, 3022, 3025, 3008, 3029, 3006, 3032, 3033, 3074, 3106, 3161, 639, 3164, 3180, 696, 3163, 704, 3145, 655, 3150, 624, 3113, 3102, 3129, 3096, 3114, 3091, 3076, 3090, 3011, 2999, 2980, 2981, 2953, 2956, 2970, 2929, 2950, 2915, 2943, 2976, 2983, 2945, 2847, 2870, 2875, 2929, 2951, 2989, 2954, 2958, 2975, 2956, 2934, 2944, 2986, 2969, 2943, 2941, 2938, 2944, 2942, 2990, 3027, 3069, 3121, 3110, 3103, 3090, 3069, 3071, 3036, 3025, 3027, 3032, 3022, 3025, 3008, 3029, 3006, 3032, 3033, 3074, 3106, 3161, 639, 3164, 3180, 696, 3163, 704, 3145, 655, 3150, 624, 3113, 3102, 3129, 3096, 3114, 3091, 3076, 3090, 3011, 2999, 2980, 2981, 2953, 2956, 2970, 2929, 2950, 2915, 2943, 2976, 2983, 2945, 2847, 2870, 2875, 2929, 2951, 2989, 2954, 2958, 2975, 2956, 2934, 2944, 2986, 2969, 2943, 2941, 2938, 2944, 2942, 2990, 3027, 3069, 3121, 3110, 3103, 3090, 3069, 3071, 3036, 3025, 3027, 3032, 3022, 3025, 3008, 3029, 3006, 3032, 3033, 3074, 3106, 3161, 639, 3164, 3180, 696, 3163, 704, 3145, 655, 3150, 624, 3113, 3102, 3129, 3096, 3114, 3091, 3076, 3090, 2999, 2980, 2981, 2953, 2956, 2970, 2929, 2950, 2915, 2943, 2976, 2983, 2945, 2847, 2870, 2875, 2929, 2951, 2989, 2954, 2958, 2975, 2956, 2934, 2944, 2986, 2969, 2943, 2941, 2938, 2944, 2942, 2990, 3027, 3069, 3121, 3110, 3103, 3090, 3069, 3071, 3036, 3025, 3027, 3032, 3022, 3025, 3008, 3029, 3006, 3032, 3033, 3074, 3106, 3161, 639, 3164, 3180, 696, 3163, 704, 3145, 655, 3150, 624, 3113, 3102, 3129, 3096, 3114, 3091, 3076, 3090, 2999, 2980, 2981, 2953, 2956, 2970, 2929, 2950, 2915, 2943, 2976, 2983, 2945, 2847, 2870, 2875, 2929, 2951, 2989, 2954, 2958, 2975, 2956, 2934, 2944, 2986, 2969, 2943, 2941, 2938, 2944, 2942, 2990, 3027, 3069, 3121, 3110, 3103, 3090, 3069, 3071, 3036, 3025, 3027, 3032, 3022, 3025, 3008, 3029, 3006, 3032, 3033, 3074, 3106, 3161, 639, 3164, 3180, 696, 3163, 704, 3145, 655, 3150, 624, 3113, 3102, 3129, 3096, 3114, 3091, 3076, 3090, 2980, 2981, 2953, 2956, 2970, 2929, 2950, 2915, 2943, 2976, 2983, 2945, 2847, 2870, 2875, 2929, 2951, 2989, 2954, 2958, 2975, 2956, 2934, 2944, 2986, 2969, 2943, 2941, 2938, 2944, 2942, 2990, 3027, 3069, 3121, 3110, 3103, 3090, 3069, 3071, 3036, 3025, 3027, 3032, 3022, 3025, 3008, 3029, 3006, 3032, 3033, 3074, 3106, 3161, 639, 3164, 3180, 696, 3163, 704, 3145, 655, 3150, 624, 3113, 3102, 3129, 3096, 3114, 3091, 3076, 3090, 2980, 2981, 2953, 2956, 2970, 2929, 2950, 2915, 2943, 2976, 2983, 2945, 2847, 2870, 2875, 2929, 2951, 2989, 2954, 2958, 2975, 2956, 2934, 2944, 2986, 2969, 2943, 2941, 2938, 2944, 2942, 2990, 3027, 3069, 3121, 3110, 3103, 3090, 3069, 3071, 3036, 3025, 3027, 3032, 3022, 3025, 3008, 3029, 3006, 3032, 3033, 3074, 3106, 3161, 639, 3164, 3180, 696, 3163, 704, 3145, 655, 3150, 624, 3113, 3102, 3129, 3096, 3114, 3091, 3076, 3090, 2981, 2953, 2956, 2970, 2929, 2950, 2915, 2943, 2976, 2983, 2945, 2847, 2870, 2875, 2929, 2951, 2989, 2954, 2958, 2975, 2956, 2934, 2944, 2986, 2969, 2943, 2941, 2938, 2944, 2942, 2990, 3027, 3069, 3121, 3110, 3103, 3090, 3069, 3071, 3036, 3025, 3027, 3032, 3022, 3025, 3008, 3029, 3006, 3032, 3033, 3074, 3106, 3161, 639, 3164, 3180, 696, 3163, 704, 3145, 655, 3150, 624, 3113, 3102, 3129, 3096, 3114, 3091, 3076, 3090] p=1.0"]
S2 -> S1 [label="3 [1189, 1184, 1198, 1175, 1188, 1176, 1174, 1182, 1186, 1179, 1185, 1178, 1183, 1185, 1187, 1188, 1170, 1180, 1173, 1184, 1189, 1195, 1180, 1183, 1178, 1190, 1174, 1191, 1196, 1190, 1175, 1189, 1178, 1179, 1184, 1188, 1184, 1179, 1207, 1195, 1197, 1207, 1198, 1194, 1186, 1184, 1184, 1187, 1189, 1189, 1178, 1199, 1196, 1195, 1189, 1202, 1201, 676, 735, 1197, 681, 737, 688, 748, 675, 742, 684, 727, 1198, 1190, 1211, 1199, 1202, 1197, 1198, 1189, 1184, 1198, 1175, 1188, 1176, 1174, 1182, 1186, 1179, 1185, 1178, 1183, 1185, 1187, 1188, 1170, 1180, 1173, 1184, 1189, 1195, 1180, 1183, 1178, 1190, 1174, 1191, 1196, 1190, 1175, 1189, 1178, 1179, 1184, 1188, 1184, 1179, 1207, 1195, 1197, 1207, 1198, 1194, 1186, 1184, 1184, 1187, 1189, 1189, 1178, 1199, 1196, 1195, 1189, 1202, 1201, 676, 735, 1197, 681, 737, 688, 748, 675, 742, 684, 727, 1198, 1190, 1211, 1199, 1202, 1197, 1198, 1184, 1198, 1175, 1188, 1176, 1174, 1182, 1186, 1179, 1185, 1178, 1183, 1185, 1187, 1188, 1170, 1180, 1173, 1184, 1189, 1195, 1180, 1183, 1178, 1190, 1174, 1191, 1196, 1190, 1175, 1189, 1178, 1179, 1184, 1188, 1184, 1179, 1207, 1195, 1197, 1207, 1198, 1194, 1186, 1184, 1184, 1187, 1189, 1189, 1178, 1199, 1196, 1195, 1189, 1202, 1201, 676, 735, 1197, 681, 737, 688, 748, 675, 742, 684, 727, 1198, 1190, 1211, 1199, 1202, 1197, 1198, 1184, 1198, 1175, 1188, 1176, 1174, 1182, 1186, 1179, 1185, 1178, 1183, 1185, 1187, 1188, 1170, 1180, 1173, 1184, 1189, 1195, 1180, 1183, 1178, 1190, 1174, 1191, 1196, 1190, 1175, 1189, 1178, 1179, 1184, 1188, 1184, 1179, 1207, 1195, 1197, 1207, 1198, 1194, 1186, 1184, 1184, 1187, 1189, 1189, 1178, 1199, 1196, 1195, 1189, 1202, 1201, 676, 735, 1197, 681, 737, 688, 748, 675, 742, 684, 727, 1198, 1190, 1211, 1199, 1202, 1197, 1198, 1198, 1175, 1188, 1176, 1174, 1182, 1186, 1179, 1185, 1178, 1183, 1185, 1187, 1188, 1170, 1180, 1173, 1184, 1189, 1195, 1180, 1183, 1178, 1190, 1174, 1191, 1196, 1190, 1175, 1189, 1178, 1179, 1184, 1188, 1184, 1179, 1207, 1195, 1197, 1207, 1198, 1194, 1186, 1184, 1184, 1187, 1189, 1189, 1178, 1199, 1196, 1195, 1189, 1202, 1201, 676, 735, 1197, 681, 737, 688, 748, 675, 742, 684, 727, 1198, 1190, 1211, 1199, 1202, 1197, 1198, 1198, 1175, 1188, 1176, 1174, 1182, 1186, 1179, 1185, 1178, 1183, 1185, 1187, 1188, 1170, 1180, 1173, 1184, 1189, 1195, 1180, 1183, 1178, 1190, 1174, 1191, 1196, 1190, 1175, 1189, 1178, 1179, 1184, 1188, 1184, 1179, 1207, 1195, 1197, 1207, 1198, 1194, 1186, 1184, 1184, 1187, 1189, 1189, 1178, 1199, 1196, 1195, 1189, 1202, 1201, 676, 735, 1197, 681, 737, 688, 748, 675, 742, 684, 727, 1198, 1190, 1211, 1199, 1202, 1197, 1198, 1175, 1188, 1176, 1174, 1182, 1186, 1179, 1185, 1178, 1183, 1185, 1187, 1188, 1170, 1180, 1173, 1184, 1189, 1195, 1180, 1183, 1178, 1190, 1174, 1191, 1196, 1190, 1175, 1189, 1178, 1179, 1184, 1188, 1184, 1179, 1207, 1195, 1197, 1207, 1198, 1194, 1186, 1184, 1184, 1187, 1189, 1189, 1178, 1199, 1196, 1195, 1189, 1202, 1201, 676, 735, 1197, 681, 737, 688, 748, 675, 742, 684, 727, 1198, 1190, 1211, 1199, 1202, 1197, 1198, 1175, 1188, 1176, 1174, 1182, 1186, 1179, 1185, 1178, 1183, 1185, 1187, 1188, 1170, 1180, 1173, 1184, 1189, 1195, 1180, 1183, 1178, 1190, 1174, 1191, 1196, 1190, 1175, 1189, 1178, 1179, 1184, 1188, 1184, 1179, 1207, 1195, 1197, 1207, 1198, 1194, 1186, 1184, 1184, 1187, 1189, 1189, 1178, 1199, 1196, 1195, 1189, 1202, 1201, 676, 735, 1197, 681, 737, 688, 748, 675, 742, 684, 727, 1198, 1190, 1211, 1199, 1202, 1197, 1198, 1188, 1176, 1174, 1182, 1186, 1179, 1185, 1178, 1183, 1185, 1187, 1188, 1170, 1180, 1173, 1184, 1189, 1195, 1180, 1183, 1178, 1190, 1174, 1191, 1196, 1190, 1175, 1189, 1178, 1179, 1184, 1188, 1184, 1179, 1207, 1195, 1197, 1207, 1198, 1194, 1186, 1184, 1184, 1187, 1189, 1189, 1178, 1199, 1196, 1195, 1189, 1202, 1201, 676, 735, 1197, 681, 737, 688, 748, 675, 742, 684, 727, 1198, 1190, 1211, 1199, 1202, 1197, 1198, 1188, 1176, 1174, 1182, 1186, 1179, 1185, 1178, 1183, 1185, 1187, 1188, 1170, 1180, 1173, 1184, 1189, 1195, 1180, 1183, 1178, 1190, 1174, 1191, 1196, 1190, 1175, 1189, 1178, 1179, 1184, 1188, 1184, 1179, 1207, 1195, 1197, 1207, 1198, 1194, 1186, 1184, 1184, 1187, 1189, 1189, 1178, 1199, 1196, 1195, 1189, 1202, 1201, 676, 735, 1197, 681, 737, 688, 748, 675, 742, 684, 727, 1198, 1190, 1211, 1199, 1202, 1197, 1198] p=1.0"]