S0 -> S1 [label="3 [0, 0, 0, 0, 0, 0, 0, 0, 0, 0, 0, 0, 0, 0, 0, 0, 0, 0, 0, 0, 0, 0, 0, 0, 0, 0, 0, 0, 0, 0, 0, 0, 0, 0, 0, 0, 0, 0, 0, 0, 0, 0, 0, 0, 0, 0, 0, 0, 0, 0, 0, 0, 0, 0, 0, 0, 0, 0, 0, 0, 0, 0, 0, 0, 0, 0, 0, 0, 0, 0, 0, 0, 0, 0, 0, 0, 0] p=0.25"]
S0 -> S12 [label="2 [0, 0, 0, 0, 0, 0, 0, 0, 0, 0, 0, 0, 0, 0, 0, 0, 0, 0, 0, 0, 0, 0, 0, 0, 0, 0, 0, 0, 0, 0, 0, 0, 0, 0, 0, 0, 0, 0, 0, 0, 0, 0, 0, 0, 0, 0, 0, 0, 0, 0, 0, 0, 0, 0, 0, 0, 0, 0, 0, 0, 0, 0, 0, 0, 0, 0, 0, 0, 0, 0, 0, 0, 0, 0, 0, 0, 0, 0, 0, 0, 0, 0, 0, 0, 0, 0, 0, 0, 0, 0, 0, 0, 0, 0, 0, 0, 0, 0, 0, 0, 0, 0, 0, 0, 0, 0, 0, 0, 0, 0, 0, 0, 0, 0, 0, 0, 0, 0, 0, 0, 0, 0, 0, 0, 0, 0, 0, 0, 0, 0, 0, 0, 0, 0, 0, 0, 0, 0, 0, 0, 0, 0, 0, 0, 0, 0, 0, 0, 0, 0, 0] p=0.5"]
S0 -> S3 [label="1 [0, 0, 0, 0, 0, 0, 0, 0, 0, 0, 0, 0, 0, 0, 0, 0, 0, 0, 0, 0, 0, 0, 0, 0, 0, 0, 0, 0, 0, 0, 0, 0, 0, 0, 0, 0, 0, 0, 0, 0, 0, 0, 0, 0, 0, 0, 0, 0, 0, 0, 0, 0, 0, 0, 0, 0, 0, 0, 0, 0, 0, 0, 0, 0, 0, 0, 0, 0, 0, 0, 0, 0, 0, 0, 0, 0] p=0.25"]
S0 -> S4 [label="5 [0] p=0.0"]
S1 -> S2 [label="2 [124, 3127, 3138, 3121, 3103, 3107, 3073, 3060, 3071, 3027, 3056, 3023, 3046, 3079, 3075, 3044, 2944, 2959, 2971, 3020, 3061, 3076, 3050, 3050, 3060, 3055, 3028, 3039, 3096, 3059, 3033, 2993, 3029, 3034, 3035, 3091, 3124, 3172, 3241, 3211, 3209, 3199, 3170, 3185, 3135, 3122, 3132, 3126, 3127, 3126, 3118, 3135, 3122, 3133, 3136, 3184, 3222, 3269, 669, 3275, 3311, 724, 3274, 731, 3258, 679, 3255, 655, 3217, 3212, 3230, 3207, 3229, 3198, 3190, 3199, 3127, 3138, 3121, 3103, 3107, 3073, 3060, 3071, 3027, 3056, 3023, 3046, 3079, 3075, 3044, 2944, 2959, 2971, 3020, 3061, 3076, 3050, 3050, 3060, 3055, 3028, 3039, 3096, 3059, 3033, 3029, 3034, 3035, 3091, 3124, 3172, 3241, 3211, 3209, 3199, 3170, 3185, 3135, 3122, 3132, 3126, 3127, 3126, 3118, 3135, 3122, 3133, 3136, 3184, 3222, 3269, 669, 3275, 3311, 724, 3274, 731, 3258, 679, 3255, 655, 3217, 3212, 3230, 3207, 3229, 3198, 3190, 3199, 3127, 3138, 3121, 3103, 3107, 3073, 3060, 3071, 3027, 3056, 3023, 3046, 3079, 3075, 3044, 2944, 2959, 2971, 3020, 3061, 3076, 3050, 3050, 3060, 3055, 3028, 3039, 3096, 3059, 3033, 3029, 3034, 3035, 3091, 3124, 3172, 3241, 3211, 3209, 3199, 3170, 3185, 3135, 3122, 3132, 3126, 3127, 3126, 3118, 3135, 3122, 3133, 3136, 3184, 3222, 3269, 669, 3275, 3311, 724, 3274, 731, 3258, 679, 3255, 655, 3217, 3212, 3230, 3207, 3229, 3198, 3190, 3199, 3127, 3138, 3121, 3103, 3107, 3073, 3060, 3071, 3027, 3056, 3023, 3046, 3079, 3075, 3044, 2944, 2959, 2971, 3020, 3061, 3076, 3050, 3050, 3060, 3055, 3028, 3039, 3096, 3059, 3033, 3029, 3034, 3035, 3091, 3124, 3172, 3241, 3211, 3209, 3199, 3170, 3185, 3135, 3122, 3132, 3126, 3127, 3126, 3118, 3135, 3122, 3133, 3136, 3184, 3222, 3269, 669, 3275, 3311, 724, 3274, 731, 3258, 679, 3255, 655, 3217, 3212, 3230, 3207, 3229, 3198, 3190, 3199, 3127, 3138, 3121, 3103, 3107, 3073, 3060, 3071, 3027, 3056, 3023, 3046, 3079, 3075, 3044, 2944, 2959, 2971, 3020, 3061, 3076, 3050, 3050, 3060, 3055, 3028, 3039, 3096, 3059, 3033, 3029, 3034, 3035, 3091, 3124, 3172, 3241, 3211, 3209, 3199, 3170, 3185, 3135, 3122, 3132, 3126, 3127, 3126, 3118, 3135, 3122, 3133, 3136, 3184, 3222, 3269, 669, 3275, 3311, 724, 3274, 731, 3258, 679, 3255, 655, 3217, 3212, 3230, 3207, 3229, 3198, 3190, 3199, 3138, 3121, 3103, 3107, 3073, 3060, 3071, 3027, 3056, 3023, 3046, 3079, 3075, 3044, 2944, 2959, 2971, 3020, 3061, 3076, 3050, 3050, 3060, 3055, 3028, 3039, 3096, 3059, 3033, 3034, 3035, 3091, 3124, 3172, 3241, 3211, 3209, 3199, 3170, 3185, 3135, 3122, 3132, 3126, 3127, 3126, 3118, 3135, 3122, 3133, 3136, 3184, 3222, 3269, 669, 3275, 3311, 724, 3274, 731, 3258, 679, 3255, 655, 3217, 3212, 3230, 3207, 3229, 3198, 3190, 3199, 3138, 3121, 3103, 3107, 3073, 3060, 3071, 3027, 3056, 3023, 3046, 3079, 3075, 3044, 2944, 2959, 2971, 3020, 3061, 3076, 3050, 3050, 3060, 3055, 3028, 3039, 3096, 3059, 3033, 3034, 3035, 3091, 3124, 3172, 3241, 3211, 3209, 3199, 3170, 3185, 3135, 3122, 3132, 3126, 3127, 3126, 3118, 3135, 3122, 3133, 3136, 3184, 3222, 3269, 669, 3275, 3311, 724, 3274, 731, 3258, 679, 3255, 655, 3217, 3212, 3230, 3207, 3229, 3198, 3190, 3199, 3138, 3121, 3103, 3107, 3073, 3060, 3071, 3027, 3056, 3023, 3046, 3079, 3075, 3044, 2944, 2959, 2971, 3020, 3061, 3076, 3050, 3050, 3060, 3055, 3028, 3039, 3096, 3059, 3033, 3034, 3035, 3091, 3124, 3172, 3241, 3211, 3209, 3199, 3170, 3185, 3135, 3122, 3132, 3126, 3127, 3126, 3118, 3135, 3122, 3133, 3136, 3184, 3222, 3269, 669, 3275, 3311, 724, 3274, 731, 3258, 679, 3255, 655, 3217, 3212, 3230, 3207, 3229, 3198, 3190, 3199, 3138, 3121, 3103, 3107, 3073, 3060, 3071, 3027, 3056, 3023, 3046, 3079, 3075, 3044, 2944, 2959, 2971, 3020, 3061, 3076, 3050, 3050, 3060, 3055, 3028, 3039, 3096, 3059, 3033, 3034, 3035, 3091, 3124, 3172, 3241, 3211, 3209, 3199, 3170, 3185, 3135, 3122, 3132, 3126, 3127, 3126, 3118, 3135, 3122, 3133, 3136, 3184, 3222, 3269, 669, 3275, 3311, 724, 3274, 731, 3258, 679, 3255, 655, 3217, 3212, 3230, 3207, 3229, 3198, 3190, 3199, 3121, 3103, 3107, 3073, 3060, 3071, 3027, 3056, 3023, 3046, 3079, 3075, 3044, 2944, 2959, 2971, 3020, 3061, 3076, 3050, 3050, 3060, 3055, 3028, 3039, 3096, 3059, 3033, 3035, 3091, 3124, 3172, 3241, 3211, 3209, 3199, 3170, 3185, 3135, 3122, 3132, 3126, 3127, 3126, 3118, 3135, 3122, 3133, 3136, 3184, 3222, 3269, 669, 3275, 3311, 724, 3274, 731, 3258, 679, 3255, 655, 3217, 3212, 3230, 3207, 3229, 3198, 3190, 3199, 2993, 2993, 2993, 2993, 2993, 2993, 2993, 2993, 2993, 3029, 3029, 3029, 3029, 3029, 3034] p=0.99"]
S1 -> S4 [label="5 [33, 33, 33, 33, 33, 33, 33, 33, 33, 33] p=0.01"]
S12 -> S3 [label="1 [3, 4, 3, 3, 4, 3, 4, 3, 3, 4, 4, 5, 5, 3, 4, 3, 3, 4, 4, 3, 4, 4, 3, 4, 3, 3, 4, 4, 4, 4, 4, 4, 3, 4, 4, 5, 4, 3, 3, 3, 4, 3, 4, 4, 3, 3, 4, 3, 3, 4, 3, 4, 5, 3, 4, 3, 3, 3, 4, 4, 3, 4, 4, 4, 3, 3, 3, 4, 3, 5, 4, 4, 4, 4, 3, 3] p=0.5"]
S12 -> S1 [label="3 [4, 4, 3, 4, 4, 4, 3, 3, 3, 4, 3, 4, 3, 4, 3, 4, 3, 3, 3, 3, 3, 3, 4, 3, 3, 4, 4, 3, 3, 4, 4, 4, 4, 3, 4, 4, 4, 4, 3, 4, 4, 3, 3, 4, 3, 3, 4, 4, 3, 3, 3, 3, 3, 4, 5, 3, 3, 4, 4, 3, 5, 4, 3, 3, 3, 4, 3, 4, 4, 3, 3, 4, 3, 4, 3] p=0.5"]
S3 -> S4 [label="2 [1069, 1069, 1059, 1050, 1051, 1050, 1048, 1069, 1081, 1070, 1073, 1064, 1072, 1079, 1082, 1082, 1076, 1073, 1078, 1080, 1081, 1089, 1084, 1087, 1082, 1089, 1073, 1086, 1080, 1091, 1085, 1087, 1083, 1081, 1074, 1086, 1074, 1072, 1085, 1082, 1088, 1084, 1087, 1080, 1077, 1081, 1074, 1084, 1078, 1080, 1068, 1079, 1074, 1082, 1081, 1088, 1074, 565, 695, 1081, 544, 701, 566, 716, 558, 708, 572, 693, 1078, 1081, 1100, 1077, 1081, 1079, 1085, 1069, 1059, 1050, 1051, 1050, 1048, 1069, 1081, 1070, 1073, 1064, 1072, 1079, 1082, 1082, 1076, 1073, 1078, 1080, 1081, 1089, 1084, 1087, 1082, 1089, 1073, 1086, 1080, 1091, 1085, 1083, 1081, 1074, 1086, 1074, 1072, 1085, 1082, 1088, 1084, 1087, 1080, 1077, 1081, 1074, 1084, 1078, 1080, 1068, 1079, 1074, 1082, 1081, 1088, 1074, 565, 695, 1081, 544, 701, 566, 716, 558, 708, 572, 693, 1078, 1081, 1100, 1077, 1081, 1079, 1085, 1069, 1059, 1050, 1051, 1050, 1048, 1069, 1081, 1070, 1073, 1064, 1072, 1079, 1082, 1082, 1076, 1073, 1078, 1080, 1081, 1089, 1084, 1087, 1082, 1089, 1073, 1086, 1080, 1091, 1085, 1083, 1081, 1074, 1086, 1074, 1072, 1085, 1082, 1088, 1084, 1087, 1080, 1077, 1081, 1074, 1084, 1078, 1080, 1068, 1079, 1074, 1082, 1081, 1088, 1074, 565, 695, 1081, 544, 701, 566, 716, 558, 708, 572, 693, 1078, 1081, 1100, 1077, 1081, 1079, 1085, 1069, 1059, 1050, 1051, 1050, 1048, 1069, 1081, 1070, 1073, 1064, 1072, 1079, 1082, 1082, 1076, 1073, 1078, 1080, 1081, 1089, 1084, 1087, 1082, 1089, 1073, 1086, 1080, 1091, 1085, 1083, 1081, 1074, 1086, 1074, 1072, 1085, 1082, 1088, 1084, 1087, 1080, 1077, 1081, 1074, 1084, 1078, 1080, 1068, 1079, 1074, 1082, 1081, 1088, 1074, 565, 695, 1081, 544, 701, 566, 716, 558, 708, 572, 693, 1078, 1081, 1100, 1077, 1081, 1079, 1085, 1069, 1059, 1050, 1051, 1050, 1048, 1069, 1081, 1070, 1073, 1064, 1072, 1079, 1082, 1082, 1076, 1073, 1078, 1080, 1081, 1089, 1084, 1087, 1082, 1089, 1073, 1086, 1080, 1091, 1085, 1083, 1081, 1074, 1086, 1074, 1072, 1085, 1082, 1088, 1084, 1087, 1080, 1077, 1081, 1074, 1084, 1078, 1080, 1068, 1079, 1074, 1082, 1081, 1088, 1074, 565, 695, 1081, 544, 701, 566, 716, 558, 708, 572, 693, 1078, 1081, 1100, 1077, 1081, 1079, 1085, 1059, 1050, 1051, 1050, 1048, 1069, 1081, 1070, 1073, 1064, 1072, 1079, 1082, 1082, 1076, 1073, 1078, 1080, 1081, 1089, 1084, 1087, 1082, 1089, 1073, 1086, 1080, 1091, 1085, 1081, 1074, 1086, 1074, 1072, 1085, 1082, 1088, 1084, 1087, 1080, 1077, 1081, 1074, 1084, 1078, 1080, 1068, 1079, 1074, 1082, 1081, 1088, 1074, 565, 695, 1081, 544, 701, 566, 716, 558, 708, 572, 693, 1078, 1081, 1100, 1077, 1081, 1079, 1085, 1059, 1050, 1051, 1050, 1048, 1069, 1081, 1070, 1073, 1064, 1072, 1079, 1082, 1082, 1076, 1073, 1078, 1080, 1081, 1089, 1084, 1087, 1082, 1089, 1073, 1086, 1080, 1091, 1085, 1081, 1074, 1086, 1074, 1072, 1085, 1082, 1088, 1084, 1087, 1080, 1077, 1081, 1074, 1084, 1078, 1080, 1068, 1079, 1074, 1082, 1081, 1088, 1074, 565, 695, 1081, 544, 701, 566, 716, 558, 708, 572, 693, 1078, 1081, 1100, 1077, 1081, 1079, 1085, 1059, 1050, 1051, 1050, 1048, 1069, 1081, 1070, 1073, 1064, 1072, 1079, 1082, 1082, 1076, 1073, 1078, 1080, 1081, 1089, 1084, 1087, 1082, 1089, 1073, 1086, 1080, 1091, 1085, 1081, 1074, 1086, 1074, 1072, 1085, 1082, 1088, 1084, 1087, 1080, 1077, 1081, 1074, 1084, 1078, 1080, 1068, 1079, 1074, 1082, 1081, 1088, 1074, 565, 695, 1081, 544, 701, 566, 716, 558, 708, 572, 693, 1078, 1081, 1100, 1077, 1081, 1079, 1085, 1069, 1069, 1059, 1050, 1051, 1050, 1048, 1069, 1081, 1070, 1073, 1064, 1072, 1079, 1082, 1082, 1076, 1073, 1078, 1080, 1081, 1089, 1084, 1087, 1082, 1089, 1073, 1086, 1080, 1091, 1085, 1087, 1083, 1081, 1074, 1086, 1074, 1072, 1085, 1082, 1088, 1084, 1087, 1080, 1077, 1081, 1074, 1084, 1078, 1080, 1068, 1079, 1074, 1082, 1081, 1088, 1074, 565, 695, 1081, 544, 701, 566, 716, 558, 708, 572, 693, 1078, 1081, 1100, 1077, 1081, 1079, 1085, 1069, 1069, 1059, 1050, 1051, 1050, 1048, 1069, 1081, 1070, 1073, 1064, 1072, 1079, 1082, 1082, 1076, 1073, 1078, 1080, 1081, 1089, 1084, 1087, 1082, 1089, 1073, 1086, 1080, 1091, 1085, 1087, 1083, 1081, 1074, 1086, 1074, 1072, 1085, 1082, 1088, 1084, 1087, 1080, 1077, 1081, 1074, 1084, 1078, 1080, 1068, 1079, 1074, 1082, 1081, 1088, 1074, 565, 695, 1081, 544, 701, 566, 716, 558, 708, 572, 693, 1078, 1081, 1100, 1077, 1081, 1079, 1085, 1087, 1087, 1087, 1087, 1087, 1087, 1087, 1083, 1083, 1083] p=1.0"]
S4 -> S1 [label="3 [4, 4, 3, 4, 4, 4, 3, 3, 3, 4, 3, 4, 3, 4, 3, 4, 3, 3, 3, 3, 3, 3, 4, 3, 3, 4, 4, 3, 3, 4, 4, 4, 4, 3, 4, 4, 4, 4, 3, 4, 4, 3, 3, 4, 3, 3, 4, 4, 3, 3, 3, 3, 3, 4, 5, 3, 3, 4, 4, 3, 5, 4, 3, 3, 3, 4, 3, 4, 4, 3, 3, 4, 3, 4, 3, 4, 4, 3, 4, 4, 4, 3, 3, 3, 4, 3, 4, 3, 4, 3, 4, 3, 3, 3, 3, 3, 3, 4, 3, 3, 4, 4, 3, 3, 4, 4, 4, 4, 3, 4, 4, 4, 4, 3, 4, 4, 3, 3, 4, 3, 3, 4, 4, 3, 3, 3, 3, 3, 4, 5, 3, 3, 4, 4, 3, 5, 4, 3, 3, 3, 4, 3, 4, 4, 3, 3, 4, 3, 4, 3, 4, 4, 3, 4, 4, 4, 3, 3, 3, 4, 3, 4, 3, 4, 3, 4, 3, 3, 3, 3, 3, 3, 4, 3, 3, 4, 4, 3, 3, 4, 4, 4, 4, 3, 4, 4, 4, 4, 3, 4, 4, 3, 3, 4, 3, 3, 4, 4, 3, 3, 3, 3, 3, 4, 5, 3, 3, 4, 4, 3, 5, 4, 3, 3, 3, 4, 3, 4, 4, 3, 3, 4, 3, 4, 3, 4, 3, 4, 4, 4, 3, 3, 3, 4, 3, 4, 3, 4, 3, 4, 3, 3, 3, 3, 3, 3, 4, 3, 3, 4, 4, 3, 3, 4, 4, 4, 3, 4, 4, 4, 4, 3, 4, 4, 3, 3, 4, 3, 3, 4, 4, 3, 3, 3, 3, 3, 4, 5, 3, 3, 4, 4, 3, 5, 4, 3, 3, 3, 4, 3, 4, 4, 3, 3, 4, 3, 4, 3, 4, 3, 4, 4, 4, 3, 3, 3, 4, 3, 4, 3, 4, 3, 4, 3, 3, 3, 3, 3, 3, 4, 3, 3, 4, 4, 3, 3, 4, 4, 4, 3, 4, 4, 4, 4, 3, 4, 4, 3, 3, 4, 3, 3, 4, 4, 3, 3, 3, 3, 3, 4, 5, 3, 3, 4, 4, 3, 5, 4, 3, 3, 3, 4, 3, 4, 4, 3, 3, 4, 3, 4, 3, 4, 3, 4, 4, 4, 3, 3, 3, 4, 3, 4, 3, 4, 3, 4, 3, 3, 3, 3, 3, 3, 4, 3, 3, 4, 4, 3, 3, 4, 4, 4, 3, 4, 4, 4, 4, 3, 4, 4, 3, 3, 4, 3, 3, 4, 4, 3, 3, 3, 3, 3, 4, 5, 3, 3, 4, 4, 3, 5, 4, 3, 3, 3, 4, 3, 4, 4, 3, 3, 4, 3, 4, 3, 4, 3, 4, 4, 4, 3, 3, 3, 4, 3, 4, 3, 4, 3, 4, 3, 3, 3, 3, 3, 3, 4, 3, 3, 4, 4, 3, 3, 4, 4, 4, 3, 4, 4, 4, 4, 3, 4, 4, 3, 3, 4, 3, 3, 4, 4, 3, 3, 3, 3, 3, 4, 5, 3, 3, 4, 4, 3, 5, 4, 3, 3, 3, 4, 3, 4, 4, 3, 3, 4, 3, 4, 3, 3, 4, 4, 4, 3, 3, 3, 4, 3, 4, 3, 4, 3, 4, 3, 3, 3, 3, 3, 3, 4, 3, 3, 4, 4, 3, 3, 4, 4, 3, 4, 4, 4, 4, 3, 4, 4, 3, 3, 4, 3, 3, 4, 4, 3, 3, 3, 3, 3, 4, 5, 3, 3, 4, 4, 3, 5, 4, 3, 3, 3, 4, 3, 4, 4, 3, 3, 4, 3, 4, 3, 3, 4, 4, 4, 3, 3, 3, 4, 3, 4, 3, 4, 3, 4, 3, 3, 3, 3, 3, 3, 4, 3, 3, 4, 4, 3, 3, 4, 4, 3, 4, 4, 4, 4, 3, 4, 4, 3, 3, 4, 3, 3, 4, 4, 3, 3, 3, 3, 3, 4, 5, 3, 3, 4, 4, 3, 5, 4, 3, 3, 3, 4, 3, 4, 4, 3, 3, 4, 3, 4, 3, 1, 1, 1, 1, 1, 1, 1, 1, 1, 1, 4, 4, 4, 4, 4, 4, 4, 4] p=1.0"]
S2 -> S3 [label="1 [3, 4, 3, 3, 4, 3, 4, 3, 3, 4, 4, 5, 5, 3, 4, 3, 3, 4, 4, 3, 4, 4, 3, 4, 3, 3, 4, 4, 4, 4, 4, 4, 3, 4, 4, 5, 4, 3, 3, 3, 4, 3, 4, 4, 3, 3, 4, 3, 3, 4, 3, 4, 5, 3, 4, 3, 3, 3, 4, 4, 3, 4, 4, 4, 3, 3, 3, 4, 3, 5, 4, 4, 4, 4, 3, 3, 4, 3, 3, 4, 3, 4, 3, 3, 4, 4, 5, 5, 3, 4, 3, 3, 4, 4, 3, 4, 4, 3, 4, 3, 3, 4, 4, 4, 4, 4, 3, 4, 4, 5, 4, 3, 3, 3, 4, 3, 4, 4, 3, 3, 4, 3, 3, 4, 3, 4, 5, 3, 4, 3, 3, 3, 4, 4, 3, 4, 4, 4, 3, 3, 3, 4, 3, 5, 4, 4, 4, 4, 3, 3, 4, 3, 3, 4, 3, 4, 3, 3, 4, 4, 5, 5, 3, 4, 3, 3, 4, 4, 3, 4, 4, 3, 4, 3, 3, 4, 4, 4, 4, 4, 3, 4, 4, 5, 4, 3, 3, 3, 4, 3, 4, 4, 3, 3, 4, 3, 3, 4, 3, 4, 5, 3, 4, 3, 3, 3, 4, 4, 3, 4, 4, 4, 3, 3, 3, 4, 3, 5, 4, 4, 4, 4, 3, 3, 4, 3, 3, 4, 3, 4, 3, 3, 4, 4, 5, 5, 3, 4, 3, 3, 4, 4, 3, 4, 4, 3, 4, 3, 3, 4, 4, 4, 4, 4, 3, 4, 4, 5, 4, 3, 3, 3, 4, 3, 4, 4, 3, 3, 4, 3, 3, 4, 3, 4, 5, 3, 4, 3, 3, 3, 4, 4, 3, 4, 4, 4, 3, 3, 3, 4, 3, 5, 4, 4, 4, 4, 3, 3, 4, 3, 3, 4, 3, 4, 3, 3, 4, 4, 5, 5, 3, 4, 3, 3, 4, 4, 3, 4, 4, 3, 4, 3, 3, 4, 4, 4, 4, 4, 3, 4, 4, 5, 4, 3, 3, 3, 4, 3, 4, 4, 3, 3, 4, 3, 3, 4, 3, 4, 5, 3, 4, 3, 3, 3, 4, 4, 3, 4, 4, 4, 3, 3, 3, 4, 3, 5, 4, 4, 4, 4, 3, 3, 3, 3, 4, 3, 4, 3, 3, 4, 4, 5, 5, 3, 4, 3, 3, 4, 4, 3, 4, 4, 3, 4, 3, 3, 4, 4, 4, 4, 4, 4, 4, 5, 4, 3, 3, 3, 4, 3, 4, 4, 3, 3, 4, 3, 3, 4, 3, 4, 5, 3, 4, 3, 3, 3, 4, 4, 3, 4, 4, 4, 3, 3, 3, 4, 3, 5, 4, 4, 4, 4, 3, 3, 3, 3, 4, 3, 4, 3, 3, 4, 4, 5, 5, 3, 4, 3, 3, 4, 4, 3, 4, 4, 3, 4, 3, 3, 4, 4, 4, 4, 4, 4, 4, 5, 4, 3, 3, 3, 4, 3, 4, 4, 3, 3, 4, 3, 3, 4, 3, 4, 5, 3, 4, 3, 3, 3, 4, 4, 3, 4, 4, 4, 3, 3, 3, 4, 3, 5, 4, 4, 4, 4, 3, 3, 3, 3, 4, 3, 4, 3, 3, 4, 4, 5, 5, 3, 4, 3, 3, 4, 4, 3, 4, 4, 3, 4, 3, 3, 4, 4, 4, 4, 4, 4, 4, 5, 4, 3, 3, 3, 4, 3, 4, 4, 3, 3, 4, 3, 3, 4, 3, 4, 5, 3, 4, 3, 3, 3, 4, 4, 3, 4, 4, 4, 3, 3, 3, 4, 3, 5, 4, 4, 4, 4, 3, 3, 3, 3, 4, 3, 4, 3, 3, 4, 4, 5, 5, 3, 4, 3, 3, 4, 4, 3, 4, 4, 3, 4, 3, 3, 4, 4, 4, 4, 4, 4, 4, 5, 4, 3, 3, 3, 4, 3, 4, 4, 3, 3, 4, 3, 3, 4, 3, 4, 5, 3, 4, 3, 3, 3, 4, 4, 3, 4, 4, 4, 3, 3, 3, 4, 3, 5, 4, 4, 4, 4, 3, 3, 4, 4, 4, 4, 4, 4, 4, 4, 3, 3, 3, 3] p=1.0"]