S0 -> S1 [label="2 [0, 0, 0, 0, 0, 0, 0, 0, 0, 0, 0, 0, 0, 0, 0, 0, 0, 0, 0, 0, 0, 0, 0, 0, 0, 0, 0, 0, 0, 0, 0, 0, 0, 0, 0, 0, 0, 0, 0, 0, 0, 0, 0, 0, 0, 0, 0, 0, 0, 0, 0, 0, 0, 0, 0, 0, 0, 0, 0, 0, 0, 0, 0, 0, 0, 0, 0, 0, 0, 0, 0, 0, 0, 0, 0, 0, 0] p=0.5"]
S0 -> S2 [label="1 [0, 0, 0, 0, 0, 0, 0, 0, 0, 0, 0, 0, 0, 0, 0, 0, 0, 0, 0, 0, 0, 0, 0, 0, 0, 0, 0, 0, 0, 0, 0, 0, 0, 0, 0, 0, 0, 0, 0, 0, 0, 0, 0, 0, 0, 0, 0, 0, 0, 0, 0, 0, 0, 0, 0, 0, 0, 0, 0, 0, 0, 0, 0, 0, 0, 0, 0, 0, 0, 0, 0, 0, 0, 0, 0, 0] p=0.49"]
S0 -> S23 [label="4 [0] p=0.01"]
S1 -> S2 [label="1 [126, 3131, 3143, 3125, 3107, 3111, 3078, 3063, 3074, 3031, 3060, 3028, 3051, 3082, 3079, 3047, 2947, 2963, 2975, 3024, 3064, 3080, 3054, 3054, 3064, 3059, 3032, 3043, 3100, 3063, 3037, 2995, 3032, 3038, 3038, 3095, 3128, 3176, 3244, 3214, 3213, 3203, 3174, 3189, 3139, 3126, 3136, 3130, 3131, 3130, 3122, 3140, 3126, 3137, 3140, 3188, 3224, 3273, 673, 3279, 3315, 730, 3278, 735, 3262, 683, 3258, 659, 3221, 3218, 3234, 3212, 3233, 3202, 3194, 3202, 3131, 3143, 3125, 3107, 3111, 3078, 3063, 3074, 3031, 3060, 3028, 3051, 3082, 3079, 3047, 2947, 2963, 2975, 3024, 3064, 3080, 3054, 3054, 3064, 3059, 3032, 3043, 3100, 3063, 3037, 3032, 3038, 3038, 3095, 3128, 3176, 3244, 3214, 3213, 3203, 3174, 3189, 3139, 3126, 3136, 3130, 3131, 3130, 3122, 3140, 3126, 3137, 3140, 3188, 3224, 3273, 673, 3279, 3315, 730, 3278, 735, 3262, 683, 3258, 659, 3221, 3218, 3234, 3212, 3233, 3202, 3194, 3202, 3131, 3143, 3125, 3107, 3111, 3078, 3063, 3074, 3031, 3060, 3028, 3051, 3082, 3079, 3047, 2947, 2963, 2975, 3024, 3064, 3080, 3054, 3054, 3064, 3059, 3032, 3043, 3100, 3063, 3037, 3032, 3038, 3038, 3095, 3128, 3176, 3244, 3214, 3213, 3203, 3174, 3189, 3139, 3126, 3136, 3130, 3131, 3130, 3122, 3140, 3126, 3137, 3140, 3188, 3224, 3273, 673, 3279, 3315, 730, 3278, 735, 3262, 683, 3258, 659, 3221, 3218, 3234, 3212, 3233, 3202, 3194, 3202, 3143, 3125, 3107, 3111, 3078, 3063, 3074, 3031, 3060, 3028, 3051, 3082, 3079, 3047, 2947, 2963, 2975, 3024, 3064, 3080, 3054, 3054, 3064, 3059, 3032, 3043, 3100, 3063, 3037, 3038, 3038, 3095, 3128, 3176, 3244, 3214, 3213, 3203, 3174, 3189, 3139, 3126, 3136, 3130, 3131, 3130, 3122, 3140, 3126, 3137, 3140, 3188, 3224, 3273, 673, 3279, 3315, 730, 3278, 735, 3262, 683, 3258, 659, 3221, 3218, 3234, 3212, 3233, 3202, 3194, 3202, 3143, 3125, 3107, 3111, 3078, 3063, 3074, 3031, 3060, 3028, 3051, 3082, 3079, 3047, 2947, 2963, 2975, 3024, 3064, 3080, 3054, 3054, 3064, 3059, 3032, 3043, 3100, 3063, 3037, 3038, 3038, 3095, 3128, 3176, 3244, 3214, 3213, 3203, 3174, 3189, 3139, 3126, 3136, 3130, 3131, 3130, 3122, 3140, 3126, 3137, 3140, 3188, 3224, 3273, 673, 3279, 3315, 730, 3278, 735, 3262, 683, 3258, 659, 3221, 3218, 3234, 3212, 3233, 3202, 3194, 3202, 3125, 3107, 3111, 3078, 3063, 3074, 3031, 3060, 3028, 3051, 3082, 3079, 3047, 2947, 2963, 2975, 3024, 3064, 3080, 3054, 3054, 3064, 3059, 3032, 3043, 3100, 3063, 3037, 3038, 3095, 3128, 3176, 3244, 3214, 3213, 3203, 3174, 3189, 3139, 3126, 3136, 3130, 3131, 3130, 3122, 3140, 3126, 3137, 3140, 3188, 3224, 3273, 673, 3279, 3315, 730, 3278, 735, 3262, 683, 3258, 659, 3221, 3218, 3234, 3212, 3233, 3202, 3194, 3202, 3125, 3107, 3111, 3078, 3063, 3074, 3031, 3060, 3028, 3051, 3082, 3079, 3047, 2947, 2963, 2975, 3024, 3064, 3080, 3054, 3054, 3064, 3059, 3032, 3043, 3100, 3063, 3037, 3038, 3095, 3128, 3176, 3244, 3214, 3213, 3203, 3174, 3189, 3139, 3126, 3136, 3130, 3131, 3130, 3122, 3140, 3126, 3137, 3140, 3188, 3224, 3273, 673, 3279, 3315, 730, 3278, 735, 3262, 683, 3258, 659, 3221, 3218, 3234, 3212, 3233, 3202, 3194, 3202, 3107, 3111, 3078, 3063, 3074, 3031, 3060, 3028, 3051, 3082, 3079, 3047, 2947, 2963, 2975, 3024, 3064, 3080, 3054, 3054, 3064, 3059, 3032, 3043, 3100, 3063, 3037, 3095, 3128, 3176, 3244, 3214, 3213, 3203, 3174, 3189, 3139, 3126, 3136, 3130, 3131, 3130, 3122, 3140, 3126, 3137, 3140, 3188, 3224, 3273, 673, 3279, 3315, 730, 3278, 735, 3262, 683, 3258, 659, 3221, 3218, 3234, 3212, 3233, 3202, 3194, 3202, 3107, 3111, 3078, 3063, 3074, 3031, 3060, 3028, 3051, 3082, 3079, 3047, 2947, 2963, 2975, 3024, 3064, 3080, 3054, 3054, 3064, 3059, 3032, 3043, 3100, 3063, 3037, 3095, 3128, 3176, 3244, 3214, 3213, 3203, 3174, 3189, 3139, 3126, 3136, 3130, 3131, 3130, 3122, 3140, 3126, 3137, 3140, 3188, 3224, 3273, 673, 3279, 3315, 730, 3278, 735, 3262, 683, 3258, 659, 3221, 3218, 3234, 3212, 3233, 3202, 3194, 3202, 3111, 3078, 3063, 3074, 3031, 3060, 3028, 3051, 3082, 3079, 3047, 2947, 2963, 2975, 3024, 3064, 3080, 3054, 3054, 3064, 3059, 3032, 3043, 3100, 3063, 3037, 3128, 3176, 3244, 3214, 3213, 3203, 3174, 3189, 3139, 3126, 3136, 3130, 3131, 3130, 3122, 3140, 3126, 3137, 3140, 3188, 3224, 3273, 673, 3279, 3315, 730, 3278, 735, 3262, 683, 3258, 659, 3221, 3218, 3234, 3212, 3233, 3202, 3194, 3202] p=0.99"]
S1 -> S23 [label="4 [35, 35, 35, 35, 35, 35, 35, 35, 35, 35] p=0.01"]
S2 -> S1 [label="2 [1072, 1072, 1061, 1053, 1055, 1052, 1052, 1071, 1084, 1074, 1076, 1068, 1075, 1083, 1086, 1085, 1079, 1076, 1081, 1083, 1084, 1092, 1087, 1090, 1084, 1092, 1077, 1089, 1083, 1095, 1089, 1091, 1087, 1085, 1078, 1091, 1078, 1075, 1088, 1086, 1092, 1086, 1090, 1084, 1079, 1083, 1078, 1087, 1080, 1083, 1070, 1081, 1078, 1085, 1085, 1092, 1077, 568, 699, 1084, 547, 704, 569, 719, 560, 711, 576, 696, 1081, 1083, 1103, 1080, 1084, 1083, 1088, 1072, 1072, 1061, 1053, 1055, 1052, 1052, 1071, 1084, 1074, 1076, 1068, 1075, 1083, 1086, 1085, 1079, 1076, 1081, 1083, 1084, 1092, 1087, 1090, 1084, 1092, 1077, 1089, 1083, 1095, 1089, 1091, 1087, 1085, 1078, 1091, 1078, 1075, 1088, 1086, 1092, 1086, 1090, 1084, 1079, 1083, 1078, 1087, 1080, 1083, 1070, 1081, 1078, 1085, 1085, 1092, 1077, 568, 699, 1084, 547, 704, 569, 719, 560, 711, 576, 696, 1081, 1083, 1103, 1080, 1084, 1083, 1088, 1072, 1061, 1053, 1055, 1052, 1052, 1071, 1084, 1074, 1076, 1068, 1075, 1083, 1086, 1085, 1079, 1076, 1081, 1083, 1084, 1092, 1087, 1090, 1084, 1092, 1077, 1089, 1083, 1095, 1089, 1087, 1085, 1078, 1091, 1078, 1075, 1088, 1086, 1092, 1086, 1090, 1084, 1079, 1083, 1078, 1087, 1080, 1083, 1070, 1081, 1078, 1085, 1085, 1092, 1077, 568, 699, 1084, 547, 704, 569, 719, 560, 711, 576, 696, 1081, 1083, 1103, 1080, 1084, 1083, 1088, 1072, 1061, 1053, 1055, 1052, 1052, 1071, 1084, 1074, 1076, 1068, 1075, 1083, 1086, 1085, 1079, 1076, 1081, 1083, 1084, 1092, 1087, 1090, 1084, 1092, 1077, 1089, 1083, 1095, 1089, 1087, 1085, 1078, 1091, 1078, 1075, 1088, 1086, 1092, 1086, 1090, 1084, 1079, 1083, 1078, 1087, 1080, 1083, 1070, 1081, 1078, 1085, 1085, 1092, 1077, 568, 699, 1084, 547, 704, 569, 719, 560, 711, 576, 696, 1081, 1083, 1103, 1080, 1084, 1083, 1088, 1061, 1053, 1055, 1052, 1052, 1071, 1084, 1074, 1076, 1068, 1075, 1083, 1086, 1085, 1079, 1076, 1081, 1083, 1084, 1092, 1087, 1090, 1084, 1092, 1077, 1089, 1083, 1095, 1089, 1085, 1078, 1091, 1078, 1075, 1088, 1086, 1092, 1086, 1090, 1084, 1079, 1083, 1078, 1087, 1080, 1083, 1070, 1081, 1078, 1085, 1085, 1092, 1077, 568, 699, 1084, 547, 704, 569, 719, 560, 711, 576, 696, 1081, 1083, 1103, 1080, 1084, 1083, 1088, 1061, 1053, 1055, 1052, 1052, 1071, 1084, 1074, 1076, 1068, 1075, 1083, 1086, 1085, 1079, 1076, 1081, 1083, 1084, 1092, 1087, 1090, 1084, 1092, 1077, 1089, 1083, 1095, 1089, 1085, 1078, 1091, 1078, 1075, 1088, 1086, 1092, 1086, 1090, 1084, 1079, 1083, 1078, 1087, 1080, 1083, 1070, 1081, 1078, 1085, 1085, 1092, 1077, 568, 699, 1084, 547, 704, 569, 719, 560, 711, 576, 696, 1081, 1083, 1103, 1080, 1084, 1083, 1088, 1053, 1055, 1052, 1052, 1071, 1084, 1074, 1076, 1068, 1075, 1083, 1086, 1085, 1079, 1076, 1081, 1083, 1084, 1092, 1087, 1090, 1084, 1092, 1077, 1089, 1083, 1095, 1089, 1078, 1091, 1078, 1075, 1088, 1086, 1092, 1086, 1090, 1084, 1079, 1083, 1078, 1087, 1080, 1083, 1070, 1081, 1078, 1085, 1085, 1092, 1077, 568, 699, 1084, 547, 704, 569, 719, 560, 711, 576, 696, 1081, 1083, 1103, 1080, 1084, 1083, 1088, 1053, 1055, 1052, 1052, 1071, 1084, 1074, 1076, 1068, 1075, 1083, 1086, 1085, 1079, 1076, 1081, 1083, 1084, 1092, 1087, 1090, 1084, 1092, 1077, 1089, 1083, 1095, 1089, 1078, 1091, 1078, 1075, 1088, 1086, 1092, 1086, 1090, 1084, 1079, 1083, 1078, 1087, 1080, 1083, 1070, 1081, 1078, 1085, 1085, 1092, 1077, 568, 699, 1084, 547, 704, 569, 719, 560, 711, 576, 696, 1081, 1083, 1103, 1080, 1084, 1083, 1088, 1055, 1052, 1052, 1071, 1084, 1074, 1076, 1068, 1075, 1083, 1086, 1085, 1079, 1076, 1081, 1083, 1084, 1092, 1087, 1090, 1084, 1092, 1077, 1089, 1083, 1095, 1089, 1091, 1078, 1075, 1088, 1086, 1092, 1086, 1090, 1084, 1079, 1083, 1078, 1087, 1080, 1083, 1070, 1081, 1078, 1085, 1085, 1092, 1077, 568, 699, 1084, 547, 704, 569, 719, 560, 711, 576, 696, 1081, 1083, 1103, 1080, 1084, 1083, 1088, 1055, 1052, 1052, 1071, 1084, 1074, 1076, 1068, 1075, 1083, 1086, 1085, 1079, 1076, 1081, 1083, 1084, 1092, 1087, 1090, 1084, 1092, 1077, 1089, 1083, 1095, 1089, 1091, 1078, 1075, 1088, 1086, 1092, 1086, 1090, 1084, 1079, 1083, 1078, 1087, 1080, 1083, 1070, 1081, 1078, 1085, 1085, 1092, 1077, 568, 699, 1084, 547, 704, 569, 719, 560, 711, 576, 696, 1081, 1083, 1103, 1080, 1084, 1083, 1088] p=1.0"]
S23 -> S25 [label="2 [1, 1, 1, 1, 1, 1, 1, 1, 1, 1, 1091, 1091, 1091, 1091, 1091, 1091, 1091, 1091, 1087, 1087, 1087, 1087, 1087, 1087, 1085, 1085, 1085, 1085, 1078, 1078] p=1.0"]
S25 -> S23 [label="1 [2995, 2995, 2995, 2995, 2995, 2995, 2995, 2995, 2995, 3032, 3032, 3032, 3032, 3032, 3032, 3032, 3038, 3038, 3038, 3038, 3038, 3038, 3038, 3038, 3095] p=1.0"]