S0 -> S1 [label="1 [0, 0, 0, 0, 0, 0, 0, 0, 0, 0, 0, 0, 0, 0, 0, 0, 0, 0, 0, 0, 0, 0] p=0.48"]
S0 -> S2 [label="2 [0, 0, 0, 0, 0, 0, 0, 0, 0, 0, 0, 0, 0, 0, 0, 0, 0, 0, 0, 0, 0, 0, 0] p=0.5"]
S0 -> S23 [label="3 [0] p=0.02"]
S1 -> S2 [label="2 [66552, 134, 79, 170, 1813, 346, 24, 7, 3, 3, 4, 5, 26, 28, 14, 37, 6, 8, 22, 4, 4, 41, 134, 79, 170, 1813, 346, 24, 7, 3, 3, 4, 5, 26, 28, 14, 37, 6, 8, 22, 4, 4, 41, 134, 79, 170, 1813, 346, 24, 7, 3, 3, 4, 5, 26, 28, 14, 37, 6, 8, 22, 4, 4, 41, 79, 170, 1813, 346, 24, 7, 3, 3, 4, 5, 26, 28, 14, 37, 6, 8, 22, 4, 4, 41, 79, 170, 1813, 346, 24, 7, 3, 3, 4, 5, 26, 28, 14, 37, 6, 8, 22, 4, 4, 41, 170, 1813, 346, 24, 7, 3, 3, 4, 5, 26, 28, 14, 37, 6, 8, 22, 4, 4, 41, 170, 1813, 346, 24, 7, 3, 3, 4, 5, 26, 28, 14, 37, 6, 8, 22, 4, 4, 41, 1813, 346, 24, 7, 3, 3, 4, 5, 26, 28, 14, 37, 6, 8, 22, 4, 4, 41, 1813, 346, 24, 7, 3, 3, 4, 5, 26, 28, 14, 37, 6, 8, 22, 4, 4, 41, 346, 24, 7, 3, 3, 4, 5, 26, 28, 14, 37, 6, 8, 22, 4, 4, 41] p=1.0"]
S2 -> S23 [label="3 [105888, 105888, 105888, 105888, 105888, 105888, 105888, 105888, 105888, 105888] p=0.05"]
S2 -> S1 [label="1 [19, 4, 3, 7, 43, 166, 723, 1080, 90, 166, 22, 68, 6, 4, 8, 6, 15, 9, 1060, 65, 274, 19, 4, 3, 7, 43, 166, 723, 1080, 90, 166, 22, 68, 6, 4, 8, 6, 15, 9, 1060, 65, 274, 4, 3, 7, 43, 166, 723, 1080, 90, 166, 22, 68, 6, 4, 8, 6, 15, 9, 1060, 65, 274, 4, 3, 7, 43, 166, 723, 1080, 90, 166, 22, 68, 6, 4, 8, 6, 15, 9, 1060, 65, 274, 3, 7, 43, 166, 723, 1080, 90, 166, 22, 68, 6, 4, 8, 6, 15, 9, 1060, 65, 274, 3, 7, 43, 166, 723, 1080, 90, 166, 22, 68, 6, 4, 8, 6, 15, 9, 1060, 65, 274, 7, 43, 166, 723, 1080, 90, 166, 22, 68, 6, 4, 8, 6, 15, 9, 1060, 65, 274, 7, 43, 166, 723, 1080, 90, 166, 22, 68, 6, 4, 8, 6, 15, 9, 1060, 65, 274, 43, 166, 723, 1080, 90, 166, 22, 68, 6, 4, 8, 6, 15, 9, 1060, 65, 274, 43, 166, 723, 1080, 90, 166, 22, 68, 6, 4, 8, 6, 15, 9, 1060, 65, 274] p=0.95"]
S23 -> S25 [label="2 [4, 4, 4, 4, 4, 4, 4, 4, 4, 4] p=1.0"]