S0 -> S1 [label="2 [0, 0, 0, 0, 0, 0, 0, 0, 0, 0, 0, 0, 0, 0, 0, 0, 0, 0, 0, 0, 0, 0, 0, 0, 0, 0] p=0.05"]
S0 -> S2 [label="1 [0] p=0.0"]
S0 -> S33 [label="3 [0, 0, 0, 0, 0, 0, 0, 0, 0, 0, 0, 0, 0, 0, 0, 0, 0, 0, 0, 0, 0, 0, 0, 0, 0, 0, 0, 0, 0, 0, 0, 0, 0, 0, 0, 0, 0, 0, 0, 0, 0, 0, 0, 0, 0, 0, 0, 0, 0, 0, 0, 0, 0, 0, 0, 0, 0, 0, 0, 0] p=0.12"]
S0 -> S99 [label="4 [0, 0, 0, 0, 0, 0, 0, 0, 0, 0, 0, 0, 0, 0, 0, 0, 0, 0, 0, 0, 0, 0, 0, 0, 0, 0, 0, 0, 0, 0, 0, 0, 0, 0, 0, 0, 0, 0, 0, 0, 0, 0, 0, 0, 0, 0, 0, 0, 0, 0, 0, 0, 0, 0, 0, 0, 0, 0, 0, 0, 0, 0, 0, 0, 0, 0, 0, 0, 0, 0, 0, 0, 0, 0, 0, 0, 0, 0, 0, 0, 0, 0, 0, 0, 0, 0, 0, 0, 0, 0, 0, 0, 0, 0, 0, 0, 0, 0, 0, 0, 0, 0, 0, 0, 0, 0, 0, 0, 0, 0, 0, 0, 0, 0, 0, 0, 0, 0, 0, 0, 0, 0, 0, 0, 0, 0, 0, 0, 0, 0, 0, 0, 0, 0, 0, 0, 0] p=0.28"]
S0 -> S165 [label="5 [0, 0, 0, 0, 0, 0, 0, 0, 0, 0, 0, 0, 0, 0, 0, 0, 0, 0, 0, 0, 0, 0, 0, 0, 0, 0, 0, 0, 0, 0, 0, 0, 0, 0, 0, 0, 0, 0, 0, 0, 0, 0, 0, 0, 0, 0, 0, 0, 0, 0, 0, 0, 0, 0, 0, 0, 0, 0, 0, 0, 0, 0, 0, 0, 0, 0, 0, 0, 0, 0, 0, 0, 0, 0, 0, 0, 0, 0, 0, 0, 0, 0, 0, 0, 0, 0, 0, 0, 0, 0, 0, 0, 0, 0, 0, 0, 0, 0, 0, 0, 0, 0, 0, 0, 0, 0, 0, 0, 0, 0, 0, 0, 0, 0, 0, 0, 0, 0, 0, 0, 0, 0, 0, 0, 0, 0, 0, 0, 0, 0, 0, 0, 0, 0, 0, 0, 0, 0, 0, 0, 0, 0, 0, 0, 0, 0, 0, 0, 0, 0, 0, 0, 0, 0, 0, 0, 0, 0, 0, 0, 0, 0, 0, 0, 0, 0, 0, 0, 0, 0, 0, 0, 0, 0, 0, 0, 0, 0, 0, 0] p=0.37"]
S0 -> S221 [label="6 [0, 0, 0, 0, 0, 0, 0, 0, 0, 0, 0, 0, 0, 0, 0, 0, 0, 0, 0, 0, 0, 0, 0, 0, 0, 0, 0, 0, 0, 0, 0, 0, 0, 0, 0, 0, 0, 0, 0, 0, 0, 0, 0, 0, 0, 0, 0, 0, 0, 0, 0, 0, 0, 0, 0, 0, 0, 0, 0, 0, 0, 0, 0, 0, 0, 0, 0, 0, 0, 0, 0, 0, 0, 0, 0, 0, 0, 0, 0] p=0.16"]
S0 -> S178 [label="7 [0] p=0.0"]
S1 -> S2 [label="1 [7013] p=0.04"]
S1 -> S23 [label="3 [22353, 3, 285, 335, 350, 19, 614, 11, 111, 6, 6, 6, 48, 20, 11, 29, 42, 6, 68, 4, 3, 6, 17, 6, 3] p=0.96"]
S33 -> S24 [label="2 [30, 5, 20, 30, 3, 17, 4, 4, 34, 125, 7, 35, 123, 10, 18, 10, 18, 170, 16, 235, 130, 7853, 10, 716] p=0.4"]
S33 -> S89 [label="4 [28165, 34, 420, 115, 25, 386, 7, 161, 8, 7, 25, 8, 83, 41, 10, 90, 3, 145, 603, 218, 37, 26, 59, 344, 33, 55, 221, 95, 17, 5, 4, 6, 4, 2, 3, 45] p=0.6"]
S99 -> S90 [label="3 [6, 67, 19, 27, 12, 9, 7, 293, 7, 10, 6, 154, 10, 12, 30, 3, 6, 15, 4, 6, 5, 4, 10, 3, 6, 4, 4, 5, 870, 11, 1139, 366, 346, 4787, 543] p=0.26"]
S99 -> S155 [label="5 [30349, 15, 46, 65, 14, 49, 100, 2377, 28, 15, 8, 372, 280, 75, 5, 36, 115, 59, 18, 28, 24, 5, 31, 5, 118, 13, 16, 45, 415, 192, 574, 457, 208, 301, 24, 22, 3, 30, 6, 3, 5, 10, 424, 12, 1026, 28, 9, 6255, 15, 249, 11, 7, 31, 6, 117, 4, 3, 169, 68, 10, 146, 3623, 34, 6, 804, 18734, 3521, 315, 20, 79, 5, 6, 229, 1403, 373, 66, 341, 55, 393, 44, 2, 3, 8, 11, 89, 14, 46, 8, 187, 67, 7, 178, 57, 8, 14, 58, 42, 218, 3, 41, 8, 4] p=0.74"]
S165 -> S156 [label="4 [14, 7, 26, 22, 3, 43, 36, 27, 31, 7, 7, 2, 29, 15, 24, 32, 4, 43, 41, 175, 124, 5, 26, 43, 3, 10, 12, 59, 3, 5, 4, 10, 3, 183, 55, 7, 20, 480, 1184, 39461, 128, 19, 5, 8, 4, 3, 8, 139, 7, 11, 61, 5, 2, 12, 408, 43, 47, 47, 5, 4, 3, 5, 6, 76, 2, 3, 2, 18, 14, 15, 84, 517, 4, 3, 5, 4, 190, 5, 30, 127, 367, 983, 4, 22, 5, 9, 5, 3, 4, 5, 7, 12, 5, 7, 22, 3, 12, 232, 669, 2644, 1646, 39461, 39461, 39461, 39461, 39461, 39461, 39461, 39461, 39461] p=0.13"]
S165 -> S221 [label="6 [15931, 130, 3015, 549, 287, 5, 6, 52, 8, 59, 14, 613, 2039, 508, 7, 37, 152, 103, 34, 8, 119, 3, 56, 24, 223, 96, 45, 135, 8, 9, 6, 121, 39, 4, 11, 4, 4, 5, 3, 16, 3, 7, 6, 4, 6, 6, 11, 5, 61, 109, 5, 13, 6, 10, 20, 7, 51, 8, 102, 87, 2, 5, 30, 3, 37, 28, 27, 8, 5, 5, 61, 66, 48, 3, 16, 101, 314, 10140, 130, 3015, 549, 287, 5, 6, 52, 8, 59, 14, 613, 2039, 508, 7, 37, 152, 103, 34, 8, 119, 3, 56, 24, 223, 96, 45, 135, 8, 9, 6, 121, 39, 4, 11, 4, 4, 5, 3, 16, 3, 7, 6, 4, 6, 6, 11, 5, 61, 109, 5, 13, 6, 10, 20, 7, 51, 8, 102, 87, 2, 5, 30, 3, 37, 28, 27, 8, 5, 5, 61, 66, 48, 3, 16, 101, 314, 130, 3015, 549, 287, 5, 6, 52, 8, 59, 14, 613, 2039, 508, 7, 37, 152, 103, 34, 8, 119, 3, 56, 24, 223, 96, 45, 135, 8, 9, 6, 121, 39, 4, 11, 4, 4, 5, 3, 16, 3, 7, 6, 4, 6, 11, 5, 61, 109, 5, 13, 6, 10, 20, 7, 51, 8, 102, 87, 2, 5, 30, 3, 37, 28, 27, 8, 5, 5, 61, 66, 48, 3, 16, 101, 314, 3015, 549, 287, 5, 6, 52, 8, 59, 14, 613, 2039, 508, 7, 37, 152, 103, 34, 8, 119, 3, 56, 24, 223, 96, 45, 135, 8, 9, 6, 121, 39, 4, 11, 4, 4, 5, 3, 16, 3, 7, 6, 4, 6, 11, 5, 61, 109, 5, 13, 6, 10, 20, 7, 51, 8, 102, 87, 2, 5, 30, 3, 37, 28, 27, 8, 5, 5, 61, 66, 48, 3, 16, 101, 314, 3015, 549, 287, 5, 6, 52, 8, 59, 14, 613, 2039, 508, 7, 37, 152, 103, 34, 8, 119, 3, 56, 24, 223, 96, 45, 135, 8, 9, 6, 121, 39, 4, 11, 4, 4, 5, 3, 16, 3, 7, 6, 4, 6, 5, 61, 109, 5, 13, 6, 10, 20, 7, 51, 8, 102, 87, 2, 5, 30, 3, 37, 28, 27, 8, 5, 5, 61, 66, 48, 3, 16, 101, 314, 549, 287, 5, 6, 52, 8, 59, 14, 613, 2039, 508, 7, 37, 152, 103, 34, 8, 119, 3, 56, 24, 223, 96, 45, 135, 8, 9, 6, 121, 39, 4, 11, 4, 4, 5, 3, 16, 3, 7, 6, 4, 6, 5, 61, 109, 5, 13, 6, 10, 20, 7, 51, 8, 102, 87, 2, 5, 30, 3, 37, 28, 27, 8, 5, 5, 61, 66, 48, 3, 16, 101, 314, 549, 287, 5, 6, 52, 8, 59, 14, 613, 2039, 508, 7, 37, 152, 103, 34, 8, 119, 3, 56, 24, 223, 96, 45, 135, 8, 9, 6, 121, 39, 4, 11, 4, 4, 5, 3, 16, 3, 7, 6, 4, 6, 61, 109, 5, 13, 6, 10, 20, 7, 51, 8, 102, 87, 2, 5, 30, 3, 37, 28, 27, 8, 5, 5, 61, 66, 48, 3, 16, 101, 314, 287, 5, 6, 52, 8, 59, 14, 613, 2039, 508, 7, 37, 152, 103, 34, 8, 119, 3, 56, 24, 223, 96, 45, 135, 8, 9, 6, 121, 39, 4, 11, 4, 4, 5, 3, 16, 3, 7, 6, 4, 6, 61, 109, 5, 13, 6, 10, 20, 7, 51, 8, 102, 87, 2, 5, 30, 3, 37, 28, 27, 8, 5, 5, 61, 66, 48, 3, 16, 101, 314, 287, 5, 6, 52, 8, 59, 14, 613, 2039, 508, 7, 37, 152, 103, 34, 8, 119, 3, 56, 24, 223, 96, 45, 135, 8, 9, 6, 121, 39, 4, 11, 4, 4, 5, 3, 16, 3, 7, 6, 4, 6, 109, 5, 13, 6, 10, 20, 7, 51, 8, 102, 87, 2, 5, 30, 3, 37, 28, 27, 8, 5, 5, 61, 66, 48, 3, 16, 101, 314, 5, 6, 52, 8, 59, 14, 613, 2039, 508, 7, 37, 152, 103, 34, 8, 119, 3, 56, 24, 223, 96, 45, 135, 8, 9, 6, 121, 39, 4, 11, 4, 4, 5, 3, 16, 3, 7, 6, 4, 6, 109, 5, 13, 6, 10, 20, 7, 51, 8, 102, 87, 2, 5, 30, 3, 37, 28, 27, 8, 5, 5, 61, 66, 48, 3, 16, 101, 314] p=0.87"]
S2 -> S3 [label="2 [8, 8, 30, 30, 5, 5, 20, 20, 30, 30] p=1.0"]
S221 -> S178 [label="7 [30648, 30648, 30648, 30648, 30648, 30648, 30648, 30648, 30648, 30648] p=0.01"]
S221 -> S165 [label="5 [6, 4, 4, 4, 3, 7, 10, 4, 7, 7, 24, 3, 98, 4, 4, 30, 20, 18, 28, 987, 33, 79, 5, 14, 37, 28, 26, 9, 98, 28, 33, 18, 13, 138, 22, 52, 80, 211, 103, 3, 5, 26, 4, 865, 17929, 372, 56, 3, 218, 11, 83, 238, 2, 32, 22, 126, 47, 3, 3, 163, 75, 104, 21, 17, 16, 13, 23, 7, 8, 27, 27, 6, 83, 234, 627, 6, 5, 3, 6, 4, 4, 4, 3, 7, 10, 4, 7, 7, 24, 3, 98, 4, 4, 30, 20, 18, 28, 987, 33, 79, 5, 14, 37, 28, 26, 9, 98, 28, 33, 18, 13, 138, 22, 52, 80, 211, 103, 3, 5, 26, 4, 865, 372, 56, 3, 218, 11, 83, 238, 2, 32, 22, 126, 47, 3, 3, 163, 75, 104, 21, 17, 16, 13, 23, 7, 8, 27, 27, 6, 83, 234, 627, 6, 5, 3, 4, 4, 4, 3, 7, 10, 4, 7, 7, 24, 3, 98, 4, 4, 30, 20, 18, 28, 987, 33, 79, 5, 14, 37, 28, 26, 9, 98, 28, 33, 18, 13, 138, 22, 52, 80, 211, 103, 3, 5, 26, 4, 865, 372, 56, 3, 218, 11, 83, 238, 2, 32, 22, 126, 47, 3, 3, 163, 75, 104, 21, 17, 16, 13, 23, 7, 8, 27, 27, 6, 83, 234, 627, 6, 5, 4, 4, 4, 3, 7, 10, 4, 7, 7, 24, 3, 98, 4, 4, 30, 20, 18, 28, 987, 33, 79, 5, 14, 37, 28, 26, 9, 98, 28, 33, 18, 13, 138, 22, 52, 80, 211, 103, 3, 5, 26, 4, 865, 56, 3, 218, 11, 83, 238, 2, 32, 22, 126, 47, 3, 3, 163, 75, 104, 21, 17, 16, 13, 23, 7, 8, 27, 27, 6, 83, 234, 627, 6, 5, 4, 4, 3, 7, 10, 4, 7, 7, 24, 3, 98, 4, 4, 30, 20, 18, 28, 987, 33, 79, 5, 14, 37, 28, 26, 9, 98, 28, 33, 18, 13, 138, 22, 52, 80, 211, 103, 3, 5, 26, 4, 865, 56, 3, 218, 11, 83, 238, 2, 32, 22, 126, 47, 3, 3, 163, 75, 104, 21, 17, 16, 13, 23, 7, 8, 27, 27, 6, 83, 234, 627, 6, 5, 4, 4, 3, 7, 10, 4, 7, 7, 24, 3, 98, 4, 4, 30, 20, 18, 28, 987, 33, 79, 5, 14, 37, 28, 26, 9, 98, 28, 33, 18, 13, 138, 22, 52, 80, 211, 103, 3, 5, 26, 4, 865, 3, 218, 11, 83, 238, 2, 32, 22, 126, 47, 3, 3, 163, 75, 104, 21, 17, 16, 13, 23, 7, 8, 27, 27, 6, 83, 234, 627, 6, 5, 4, 3, 7, 10, 4, 7, 7, 24, 3, 98, 4, 4, 30, 20, 18, 28, 987, 33, 79, 5, 14, 37, 28, 26, 9, 98, 28, 33, 18, 13, 138, 22, 52, 80, 211, 103, 3, 5, 26, 4, 865, 3, 218, 11, 83, 238, 2, 32, 22, 126, 47, 3, 3, 163, 75, 104, 21, 17, 16, 13, 23, 7, 8, 27, 27, 6, 83, 234, 627, 6, 5, 4, 3, 7, 10, 4, 7, 7, 24, 3, 98, 4, 4, 30, 20, 18, 28, 987, 33, 79, 5, 14, 37, 28, 26, 9, 98, 28, 33, 18, 13, 138, 22, 52, 80, 211, 103, 3, 5, 26, 4, 865, 218, 11, 83, 238, 2, 32, 22, 126, 47, 3, 3, 163, 75, 104, 21, 17, 16, 13, 23, 7, 8, 27, 27, 6, 83, 234, 627, 6, 5, 3, 7, 10, 4, 7, 7, 24, 3, 98, 4, 4, 30, 20, 18, 28, 987, 33, 79, 5, 14, 37, 28, 26, 9, 98, 28, 33, 18, 13, 138, 22, 52, 80, 211, 103, 3, 5, 26, 4, 865, 218, 11, 83, 238, 2, 32, 22, 126, 47, 3, 3, 163, 75, 104, 21, 17, 16, 13, 23, 7, 8, 27, 27, 6, 83, 234, 627, 6, 5, 3, 7, 10, 4, 7, 7, 24, 3, 98, 4, 4, 30, 20, 18, 28, 987, 33, 79, 5, 14, 37, 28, 26, 9, 98, 28, 33, 18, 13, 138, 22, 52, 80, 211, 103, 3, 5, 26, 4, 865, 11, 83, 238, 2, 32, 22, 126, 47, 3, 3, 163, 75, 104, 21, 17, 16, 13, 23, 7, 8, 27, 27, 6, 83, 234, 627, 6, 5] p=0.99"]
S178 -> S176 [label="6 [130, 130, 130, 130, 130, 130, 130, 4, 4, 4, 4, 4, 4, 4, 4, 4, 4, 6, 6, 6, 6, 6, 6, 6, 6, 11, 11, 11, 11, 11, 11, 5, 5, 5, 5, 61, 61, 3015, 549, 287, 3015, 549, 3015, 549, 3015, 3015] p=1.0"]
S23 -> S24 [label="2 [30, 5, 20, 30, 3, 17, 4, 4, 34, 125, 7, 35, 123, 10, 18, 10, 18, 170, 16, 235, 130, 7853, 10, 716, 5, 20, 30, 3, 17, 4, 4, 34, 125, 7, 35, 123, 10, 18, 10, 18, 170, 16, 235, 130, 7853, 10, 716, 5, 20, 30, 3, 17, 4, 4, 34, 125, 7, 35, 123, 10, 18, 10, 18, 170, 16, 235, 130, 7853, 10, 716, 20, 30, 3, 17, 4, 4, 34, 125, 7, 35, 123, 10, 18, 10, 18, 170, 16, 235, 130, 7853, 10, 716, 20, 30, 3, 17, 4, 4, 34, 125, 7, 35, 123, 10, 18, 10, 18, 170, 16, 235, 130, 7853, 10, 716, 30, 3, 17, 4, 4, 34, 125, 7, 35, 123, 10, 18, 10, 18, 170, 16, 235, 130, 7853, 10, 716, 30, 3, 17, 4, 4, 34, 125, 7, 35, 123, 10, 18, 10, 18, 170, 16, 235, 130, 7853, 10, 716, 3, 17, 4, 4, 34, 125, 7, 35, 123, 10, 18, 10, 18, 170, 16, 235, 130, 7853, 10, 716, 3, 17, 4, 4, 34, 125, 7, 35, 123, 10, 18, 10, 18, 170, 16, 235, 130, 7853, 10, 716] p=0.96"]
S23 -> S44 [label="4 [28165, 28165, 28165, 28165, 28165, 28165, 28165, 28165, 28165] p=0.04"]
S89 -> S90 [label="3 [6, 67, 19, 27, 12, 9, 7, 293, 7, 10, 6, 154, 10, 12, 30, 3, 6, 15, 4, 6, 5, 4, 10, 3, 6, 4, 4, 5, 870, 11, 1139, 366, 346, 4787, 543, 67, 19, 27, 12, 9, 7, 293, 7, 10, 6, 154, 10, 12, 30, 3, 6, 15, 4, 6, 5, 4, 10, 3, 6, 4, 4, 5, 870, 11, 1139, 366, 346, 4787, 543, 67, 19, 27, 12, 9, 7, 293, 7, 10, 6, 154, 10, 12, 30, 3, 6, 15, 4, 6, 5, 4, 10, 3, 6, 4, 4, 5, 870, 11, 1139, 366, 346, 4787, 543, 19, 27, 12, 9, 7, 293, 7, 10, 6, 154, 10, 12, 30, 3, 6, 15, 4, 6, 5, 4, 10, 3, 6, 4, 4, 5, 870, 11, 1139, 366, 346, 4787, 543, 19, 27, 12, 9, 7, 293, 7, 10, 6, 154, 10, 12, 30, 3, 6, 15, 4, 6, 5, 4, 10, 3, 6, 4, 4, 5, 870, 11, 1139, 366, 346, 4787, 543, 27, 12, 9, 7, 293, 7, 10, 6, 154, 10, 12, 30, 3, 6, 15, 4, 6, 5, 4, 10, 3, 6, 4, 4, 5, 870, 11, 1139, 366, 346, 4787, 543, 27, 12, 9, 7, 293, 7, 10, 6, 154, 10, 12, 30, 3, 6, 15, 4, 6, 5, 4, 10, 3, 6, 4, 4, 5, 870, 11, 1139, 366, 346, 4787, 543, 12, 9, 7, 293, 7, 10, 6, 154, 10, 12, 30, 3, 6, 15, 4, 6, 5, 4, 10, 3, 6, 4, 4, 5, 870, 11, 1139, 366, 346, 4787, 543, 12, 9, 7, 293, 7, 10, 6, 154, 10, 12, 30, 3, 6, 15, 4, 6, 5, 4, 10, 3, 6, 4, 4, 5, 870, 11, 1139, 366, 346, 4787, 543] p=0.97"]
S89 -> S110 [label="5 [30349, 30349, 30349, 30349, 30349, 30349, 30349, 30349, 30349] p=0.03"]
S155 -> S156 [label="4 [14, 7, 26, 22, 3, 43, 36, 27, 31, 7, 7, 2, 29, 15, 24, 32, 4, 43, 41, 175, 124, 5, 26, 43, 3, 10, 12, 59, 3, 5, 4, 10, 3, 183, 55, 7, 20, 480, 1184, 128, 19, 5, 8, 4, 3, 8, 139, 7, 11, 61, 5, 2, 12, 408, 43, 47, 47, 5, 4, 3, 5, 6, 76, 2, 3, 2, 18, 14, 15, 84, 517, 4, 3, 5, 4, 190, 5, 30, 127, 367, 983, 4, 22, 5, 9, 5, 3, 4, 5, 7, 12, 5, 7, 22, 3, 12, 232, 669, 2644, 1646, 7, 26, 22, 3, 43, 36, 27, 31, 7, 7, 2, 29, 15, 24, 32, 4, 43, 41, 175, 124, 5, 26, 43, 3, 10, 12, 59, 3, 5, 4, 10, 3, 183, 55, 7, 20, 480, 1184, 128, 19, 5, 8, 4, 3, 8, 139, 7, 11, 61, 5, 2, 12, 408, 43, 47, 47, 5, 4, 3, 5, 6, 76, 2, 3, 2, 18, 14, 15, 84, 517, 4, 3, 5, 4, 190, 5, 30, 127, 367, 983, 4, 22, 5, 9, 5, 3, 4, 5, 7, 12, 5, 7, 22, 3, 12, 232, 669, 2644, 1646, 128, 128, 128, 128, 128, 128, 128, 7, 26, 22, 3, 43, 36, 27, 31, 7, 7, 2, 29, 15, 24, 32, 4, 43, 41, 175, 124, 5, 26, 43, 3, 10, 12, 59, 3, 5, 4, 10, 3, 183, 55, 7, 20, 480, 1184, 19, 5, 8, 4, 3, 8, 139, 7, 11, 61, 5, 2, 12, 408, 43, 47, 47, 5, 4, 3, 5, 6, 76, 2, 3, 2, 18, 14, 15, 84, 517, 4, 3, 5, 4, 190, 5, 30, 127, 367, 983, 4, 22, 5, 9, 5, 3, 4, 5, 7, 12, 5, 7, 22, 3, 12, 232, 669, 2644, 1646, 26, 22, 3, 43, 36, 27, 31, 7, 7, 2, 29, 15, 24, 32, 4, 43, 41, 175, 124, 5, 26, 43, 3, 10, 12, 59, 3, 5, 4, 10, 3, 183, 55, 7, 20, 480, 1184, 19, 5, 8, 4, 3, 8, 139, 7, 11, 61, 5, 2, 12, 408, 43, 47, 47, 5, 4, 3, 5, 6, 76, 2, 3, 2, 18, 14, 15, 84, 517, 4, 3, 5, 4, 190, 5, 30, 127, 367, 983, 4, 22, 5, 9, 5, 3, 4, 5, 7, 12, 5, 7, 22, 3, 12, 232, 669, 2644, 1646, 19, 19, 19, 19, 19, 26, 22, 3, 43, 36, 27, 31, 7, 7, 2, 29, 15, 24, 32, 4, 43, 41, 175, 124, 5, 26, 43, 3, 10, 12, 59, 3, 5, 4, 10, 3, 183, 55, 7, 20, 480, 1184, 5, 8, 4, 3, 8, 139, 7, 11, 61, 5, 2, 12, 408, 43, 47, 47, 5, 4, 3, 5, 6, 76, 2, 3, 2, 18, 14, 15, 84, 517, 4, 3, 5, 4, 190, 5, 30, 127, 367, 983, 4, 22, 5, 9, 5, 3, 4, 5, 7, 12, 5, 7, 22, 3, 12, 232, 669, 2644, 1646, 22, 3, 43, 36, 27, 31, 7, 7, 2, 29, 15, 24, 32, 4, 43, 41, 175, 124, 5, 26, 43, 3, 10, 12, 59, 3, 5, 4, 10, 3, 183, 55, 7, 20, 480, 1184, 5, 8, 4, 3, 8, 139, 7, 11, 61, 5, 2, 12, 408, 43, 47, 47, 5, 4, 3, 5, 6, 76, 2, 3, 2, 18, 14, 15, 84, 517, 4, 3, 5, 4, 190, 5, 30, 127, 367, 983, 4, 22, 5, 9, 5, 3, 4, 5, 7, 12, 5, 7, 22, 3, 12, 232, 669, 2644, 1646, 5, 5, 5, 22, 3, 43, 36, 27, 31, 7, 7, 2, 29, 15, 24, 32, 4, 43, 41, 175, 124, 5, 26, 43, 3, 10, 12, 59, 3, 5, 4, 10, 3, 183, 55, 7, 20, 480, 1184, 8, 4, 3, 8, 139, 7, 11, 61, 5, 2, 12, 408, 43, 47, 47, 5, 4, 3, 5, 6, 76, 2, 3, 2, 18, 14, 15, 84, 517, 4, 3, 5, 4, 190, 5, 30, 127, 367, 983, 4, 22, 5, 9, 5, 3, 4, 5, 7, 12, 5, 7, 22, 3, 12, 232, 669, 2644, 1646, 3, 43, 36, 27, 31, 7, 7, 2, 29, 15, 24, 32, 4, 43, 41, 175, 124, 5, 26, 43, 3, 10, 12, 59, 3, 5, 4, 10, 3, 183, 55, 7, 20, 480, 1184, 8, 4, 3, 8, 139, 7, 11, 61, 5, 2, 12, 408, 43, 47, 47, 5, 4, 3, 5, 6, 76, 2, 3, 2, 18, 14, 15, 84, 517, 4, 3, 5, 4, 190, 5, 30, 127, 367, 983, 4, 22, 5, 9, 5, 3, 4, 5, 7, 12, 5, 7, 22, 3, 12, 232, 669, 2644, 1646, 8, 3, 43, 36, 27, 31, 7, 7, 2, 29, 15, 24, 32, 4, 43, 41, 175, 124, 5, 26, 43, 3, 10, 12, 59, 3, 5, 4, 10, 3, 183, 55, 7, 20, 480, 1184, 4, 3, 8, 139, 7, 11, 61, 5, 2, 12, 408, 43, 47, 47, 5, 4, 3, 5, 6, 76, 2, 3, 2, 18, 14, 15, 84, 517, 4, 3, 5, 4, 190, 5, 30, 127, 367, 983, 4, 22, 5, 9, 5, 3, 4, 5, 7, 12, 5, 7, 22, 3, 12, 232, 669, 2644, 1646] p=0.98"]
S155 -> S176 [label="6 [15931, 10140, 15931, 10140, 15931, 10140, 15931, 10140, 15931, 10140, 15931, 10140, 15931, 10140, 15931, 10140, 15931, 10140] p=0.02"]
S3 -> S2 [label="3 [22353, 22353, 3, 3, 285, 285, 335, 335, 350] p=1.0"]
S24 -> S23 [label="3 [3, 285, 335, 350, 19, 614, 11, 111, 6, 6, 6, 48, 20, 11, 29, 42, 6, 68, 4, 3, 6, 17, 6, 3, 3, 285, 335, 350, 19, 614, 11, 111, 6, 6, 6, 48, 20, 11, 29, 42, 6, 68, 4, 3, 6, 17, 6, 3, 285, 335, 350, 19, 614, 11, 111, 6, 6, 6, 48, 20, 11, 29, 42, 6, 68, 4, 3, 6, 17, 6, 3, 285, 335, 350, 19, 614, 11, 111, 6, 6, 6, 48, 20, 11, 29, 42, 6, 68, 4, 3, 6, 17, 6, 3, 335, 350, 19, 614, 11, 111, 6, 6, 6, 48, 20, 11, 29, 42, 6, 68, 4, 3, 6, 17, 6, 3, 335, 350, 19, 614, 11, 111, 6, 6, 6, 48, 20, 11, 29, 42, 6, 68, 4, 3, 6, 17, 6, 3, 350, 19, 614, 11, 111, 6, 6, 6, 48, 20, 11, 29, 42, 6, 68, 4, 3, 6, 17, 6, 3, 350, 19, 614, 11, 111, 6, 6, 6, 48, 20, 11, 29, 42, 6, 68, 4, 3, 6, 17, 6, 3, 19, 614, 11, 111, 6, 6, 6, 48, 20, 11, 29, 42, 6, 68, 4, 3, 6, 17, 6, 3] p=1.0"]
S90 -> S89 [label="4 [34, 420, 115, 25, 386, 7, 161, 8, 7, 25, 8, 83, 41, 10, 90, 3, 145, 603, 218, 37, 26, 59, 344, 33, 55, 221, 95, 17, 5, 4, 6, 4, 2, 3, 45, 34, 420, 115, 25, 386, 7, 161, 8, 7, 25, 8, 83, 41, 10, 90, 3, 145, 603, 218, 37, 26, 59, 344, 33, 55, 221, 95, 17, 5, 4, 6, 4, 2, 3, 45, 420, 115, 25, 386, 7, 161, 8, 7, 25, 8, 83, 41, 10, 90, 3, 145, 603, 218, 37, 26, 59, 344, 33, 55, 221, 95, 17, 5, 4, 6, 4, 2, 3, 45, 420, 115, 25, 386, 7, 161, 8, 7, 25, 8, 83, 41, 10, 90, 3, 145, 603, 218, 37, 26, 59, 344, 33, 55, 221, 95, 17, 5, 4, 6, 4, 2, 3, 45, 115, 25, 386, 7, 161, 8, 7, 25, 8, 83, 41, 10, 90, 3, 145, 603, 218, 37, 26, 59, 344, 33, 55, 221, 95, 17, 5, 4, 6, 4, 2, 3, 45, 115, 25, 386, 7, 161, 8, 7, 25, 8, 83, 41, 10, 90, 3, 145, 603, 218, 37, 26, 59, 344, 33, 55, 221, 95, 17, 5, 4, 6, 4, 2, 3, 45, 25, 386, 7, 161, 8, 7, 25, 8, 83, 41, 10, 90, 3, 145, 603, 218, 37, 26, 59, 344, 33, 55, 221, 95, 17, 5, 4, 6, 4, 2, 3, 45, 25, 386, 7, 161, 8, 7, 25, 8, 83, 41, 10, 90, 3, 145, 603, 218, 37, 26, 59, 344, 33, 55, 221, 95, 17, 5, 4, 6, 4, 2, 3, 45, 386, 7, 161, 8, 7, 25, 8, 83, 41, 10, 90, 3, 145, 603, 218, 37, 26, 59, 344, 33, 55, 221, 95, 17, 5, 4, 6, 4, 2, 3, 45] p=1.0"]
S156 -> S155 [label="5 [15, 46, 65, 14, 49, 100, 2377, 28, 15, 8, 372, 280, 75, 5, 36, 115, 59, 18, 28, 24, 5, 31, 5, 118, 13, 16, 45, 415, 192, 574, 457, 208, 301, 24, 22, 3, 30, 6, 3, 5, 10, 424, 12, 1026, 28, 9, 6255, 15, 249, 11, 7, 31, 6, 117, 4, 3, 169, 68, 10, 146, 3623, 34, 6, 804, 18734, 3521, 315, 20, 79, 5, 6, 229, 1403, 373, 66, 341, 55, 393, 44, 2, 3, 8, 11, 89, 14, 46, 8, 187, 67, 7, 178, 57, 8, 14, 58, 42, 218, 3, 41, 8, 4, 5, 5, 5, 5, 5, 5, 5, 5, 15, 46, 65, 14, 49, 100, 2377, 28, 15, 8, 372, 280, 75, 5, 36, 115, 59, 18, 28, 24, 5, 31, 5, 118, 13, 16, 45, 415, 192, 574, 457, 208, 301, 24, 22, 3, 30, 6, 3, 10, 424, 12, 1026, 28, 9, 6255, 15, 249, 11, 7, 31, 6, 117, 4, 3, 169, 68, 10, 146, 3623, 34, 6, 804, 18734, 3521, 315, 20, 79, 5, 6, 229, 1403, 373, 66, 341, 55, 393, 44, 2, 3, 8, 11, 89, 14, 46, 8, 187, 67, 7, 178, 57, 8, 14, 58, 42, 218, 3, 41, 8, 4, 46, 65, 14, 49, 100, 2377, 28, 15, 8, 372, 280, 75, 5, 36, 115, 59, 18, 28, 24, 5, 31, 5, 118, 13, 16, 45, 415, 192, 574, 457, 208, 301, 24, 22, 3, 30, 6, 3, 10, 424, 12, 1026, 28, 9, 6255, 15, 249, 11, 7, 31, 6, 117, 4, 3, 169, 68, 10, 146, 3623, 34, 6, 804, 18734, 3521, 315, 20, 79, 5, 6, 229, 1403, 373, 66, 341, 55, 393, 44, 2, 3, 8, 11, 89, 14, 46, 8, 187, 67, 7, 178, 57, 8, 14, 58, 42, 218, 3, 41, 8, 4, 10, 10, 10, 10, 10, 10, 46, 65, 14, 49, 100, 2377, 28, 15, 8, 372, 280, 75, 5, 36, 115, 59, 18, 28, 24, 5, 31, 5, 118, 13, 16, 45, 415, 192, 574, 457, 208, 301, 24, 22, 3, 30, 6, 3, 424, 12, 1026, 28, 9, 6255, 15, 249, 11, 7, 31, 6, 117, 4, 3, 169, 68, 10, 146, 3623, 34, 6, 804, 18734, 3521, 315, 20, 79, 5, 6, 229, 1403, 373, 66, 341, 55, 393, 44, 2, 3, 8, 11, 89, 14, 46, 8, 187, 67, 7, 178, 57, 8, 14, 58, 42, 218, 3, 41, 8, 4, 65, 14, 49, 100, 2377, 28, 15, 8, 372, 280, 75, 5, 36, 115, 59, 18, 28, 24, 5, 31, 5, 118, 13, 16, 45, 415, 192, 574, 457, 208, 301, 24, 22, 3, 30, 6, 3, 424, 12, 1026, 28, 9, 6255, 15, 249, 11, 7, 31, 6, 117, 4, 3, 169, 68, 10, 146, 3623, 34, 6, 804, 18734, 3521, 315, 20, 79, 5, 6, 229, 1403, 373, 66, 341, 55, 393, 44, 2, 3, 8, 11, 89, 14, 46, 8, 187, 67, 7, 178, 57, 8, 14, 58, 42, 218, 3, 41, 8, 4, 424, 424, 424, 424, 65, 14, 49, 100, 2377, 28, 15, 8, 372, 280, 75, 5, 36, 115, 59, 18, 28, 24, 5, 31, 5, 118, 13, 16, 45, 415, 192, 574, 457, 208, 301, 24, 22, 3, 30, 6, 3, 12, 1026, 28, 9, 6255, 15, 249, 11, 7, 31, 6, 117, 4, 3, 169, 68, 10, 146, 3623, 34, 6, 804, 18734, 3521, 315, 20, 79, 5, 6, 229, 1403, 373, 66, 341, 55, 393, 44, 2, 3, 8, 11, 89, 14, 46, 8, 187, 67, 7, 178, 57, 8, 14, 58, 42, 218, 3, 41, 8, 4, 14, 49, 100, 2377, 28, 15, 8, 372, 280, 75, 5, 36, 115, 59, 18, 28, 24, 5, 31, 5, 118, 13, 16, 45, 415, 192, 574, 457, 208, 301, 24, 22, 3, 30, 6, 3, 12, 1026, 28, 9, 6255, 15, 249, 11, 7, 31, 6, 117, 4, 3, 169, 68, 10, 146, 3623, 34, 6, 804, 18734, 3521, 315, 20, 79, 5, 6, 229, 1403, 373, 66, 341, 55, 393, 44, 2, 3, 8, 11, 89, 14, 46, 8, 187, 67, 7, 178, 57, 8, 14, 58, 42, 218, 3, 41, 8, 4, 12, 12, 14, 49, 100, 2377, 28, 15, 8, 372, 280, 75, 5, 36, 115, 59, 18, 28, 24, 5, 31, 5, 118, 13, 16, 45, 415, 192, 574, 457, 208, 301, 24, 22, 3, 30, 6, 3, 1026, 28, 9, 6255, 15, 249, 11, 7, 31, 6, 117, 4, 3, 169, 68, 10, 146, 3623, 34, 6, 804, 18734, 3521, 315, 20, 79, 5, 6, 229, 1403, 373, 66, 341, 55, 393, 44, 2, 3, 8, 11, 89, 14, 46, 8, 187, 67, 7, 178, 57, 8, 14, 58, 42, 218, 3, 41, 8, 4, 49, 100, 2377, 28, 15, 8, 372, 280, 75, 5, 36, 115, 59, 18, 28, 24, 5, 31, 5, 118, 13, 16, 45, 415, 192, 574, 457, 208, 301, 24, 22, 3, 30, 6, 3, 1026, 28, 9, 6255, 15, 249, 11, 7, 31, 6, 117, 4, 3, 169, 68, 10, 146, 3623, 34, 6, 804, 18734, 3521, 315, 20, 79, 5, 6, 229, 1403, 373, 66, 341, 55, 393, 44, 2, 3, 8, 11, 89, 14, 46, 8, 187, 67, 7, 178, 57, 8, 14, 58, 42, 218, 3, 41, 8, 4] p=1.0"]
S176 -> S178 [label="5 [6, 3, 6, 3, 6, 3, 6, 3, 6, 3, 6, 3, 6, 3, 6, 3, 17929, 17929, 17929, 17929, 17929, 17929, 17929, 17929, 17929, 372, 372, 372, 372, 372, 372, 372, 56, 56, 56, 56, 56, 3, 3, 3, 218, 4, 4, 4, 4, 4, 4, 4, 4, 4, 4, 4, 4] p=1.0"]
S44 -> S46 [label="3 [6, 6, 6, 6, 6, 6, 6, 6, 67, 67, 67, 67, 67, 67, 19, 19, 19, 19, 27, 27] p=1.0"]
S110 -> S112 [label="4 [14, 14, 14, 14, 14, 14, 14, 14, 7, 7, 7, 7, 7, 7, 26, 26, 26, 26, 22, 22] p=1.0"]
S46 -> S44 [label="4 [34, 34, 34, 34, 34, 34, 34, 420, 420, 420, 420, 420, 115, 115, 115, 25] p=1.0"]
S112 -> S110 [label="5 [15, 15, 15, 15, 15, 15, 15, 46, 46, 46, 46, 46, 65, 65, 65, 14] p=1.0"]