S0 -> S1 [label="1 [0, 0, 0, 0, 0] p=0.01"]
S0 -> S2 [label="2 [0, 0, 0, 0, 0, 0, 0, 0] p=0.02"]
S0 -> S75 [label="3 [0, 0, 0, 0, 0, 0, 0, 0, 0] p=0.02"]
S0 -> S131 [label="4 [0, 0, 0, 0, 0, 0, 0, 0, 0, 0, 0, 0, 0, 0, 0, 0, 0, 0, 0] p=0.05"]
S0 -> S187 [label="5 [0, 0, 0, 0, 0, 0, 0, 0, 0, 0, 0, 0, 0, 0, 0, 0, 0, 0, 0, 0, 0, 0, 0, 0, 0, 0, 0, 0, 0, 0, 0, 0, 0, 0, 0, 0, 0, 0, 0, 0, 0, 0, 0, 0, 0, 0, 0, 0, 0, 0, 0, 0, 0, 0, 0, 0, 0, 0, 0] p=0.14"]
S0 -> S196 [label="6 [0, 0, 0, 0, 0, 0, 0, 0, 0, 0, 0, 0, 0, 0, 0, 0, 0, 0, 0, 0, 0, 0, 0, 0, 0, 0, 0, 0, 0, 0, 0, 0, 0, 0, 0, 0, 0, 0, 0, 0, 0, 0, 0, 0, 0, 0, 0, 0, 0, 0, 0, 0, 0, 0, 0, 0, 0, 0, 0, 0, 0, 0, 0, 0, 0, 0, 0, 0, 0, 0, 0, 0, 0, 0, 0, 0, 0, 0, 0, 0, 0, 0, 0, 0, 0, 0, 0, 0, 0, 0, 0, 0, 0, 0, 0, 0, 0, 0, 0, 0, 0, 0, 0, 0, 0, 0, 0, 0, 0, 0, 0, 0, 0, 0, 0, 0, 0, 0, 0, 0, 0, 0, 0, 0, 0, 0, 0] p=0.31"]
S0 -> S275 [label="7 [0, 0, 0, 0, 0, 0, 0, 0, 0, 0, 0, 0, 0, 0, 0, 0, 0, 0, 0, 0, 0, 0, 0, 0, 0, 0, 0, 0, 0, 0, 0, 0, 0, 0, 0, 0, 0, 0, 0, 0, 0, 0, 0, 0, 0, 0, 0, 0, 0, 0, 0, 0, 0, 0, 0, 0, 0, 0, 0, 0, 0, 0, 0, 0, 0, 0, 0, 0, 0, 0, 0, 0, 0, 0, 0, 0, 0, 0, 0, 0, 0, 0, 0, 0, 0, 0, 0, 0, 0, 0, 0, 0, 0, 0, 0, 0, 0, 0, 0, 0, 0, 0, 0, 0, 0] p=0.26"]
S0 -> S346 [label="8 [0, 0, 0, 0, 0, 0, 0, 0, 0, 0, 0, 0, 0, 0, 0, 0, 0, 0, 0, 0, 0, 0, 0, 0, 0, 0, 0, 0, 0, 0, 0, 0, 0, 0, 0, 0, 0, 0, 0, 0, 0, 0, 0, 0, 0, 0] p=0.11"]
S0 -> S391 [label="9 [0, 0, 0, 0, 0, 0, 0, 0, 0, 0, 0, 0, 0, 0, 0, 0, 0, 0, 0, 0, 0, 0, 0, 0, 0] p=0.06"]
S0 -> S724 [label="10 [0, 0, 0] p=0.01"]
S0 -> S678 [label="11 [0] p=0.0"]
S1 -> S2 [label="2 [17943, 871, 108, 25, 50, 871, 108, 25, 50, 871, 108, 25, 50, 108, 25, 50, 108, 25, 50, 25, 50, 25, 50, 50, 50] p=1.0"]
S75 -> S22 [label="2 [2, 7, 19] p=0.33"]
S75 -> S121 [label="4 [12769, 124, 4, 5, 107, 782] p=0.67"]
S131 -> S122 [label="3 [6, 122, 5642, 164, 5] p=0.26"]
S131 -> S187 [label="5 [1414, 20, 11, 7, 41, 3071, 5186, 4293, 4292, 4327, 802, 145, 11, 5] p=0.74"]
S346 -> S275 [label="7 [10, 24, 14, 4, 3, 1000, 69, 39, 8, 288, 646, 695, 7, 4, 3, 9, 5, 6, 5, 9, 1348, 6, 5, 14, 1000, 646, 1348, 1000, 646, 1348, 1000, 646, 1348, 1348, 1348, 1348, 1348, 1348, 14, 1000, 646, 1348] p=0.23"]
S346 -> S381 [label="9 [2, 2758, 3, 1559, 3, 2727, 4203, 3172, 357, 24, 47, 6, 3, 5, 4, 13, 29, 1421, 6, 1347, 3, 4345, 5, 3, 3, 4203, 3172, 357, 24, 47, 6, 3, 5, 4, 13, 29, 1421, 6, 1347, 3, 4345, 5, 3, 3, 4203, 3172, 357, 24, 47, 6, 3, 5, 13, 29, 1421, 6, 1347, 3, 4345, 5, 3172, 357, 24, 47, 6, 3, 5, 13, 29, 1421, 6, 1347, 3, 4345, 5, 3172, 357, 24, 47, 6, 3, 5, 29, 1421, 6, 1347, 3, 4345, 5, 357, 24, 47, 6, 3, 5, 29, 1421, 6, 1347, 3, 4345, 5, 357, 24, 47, 6, 3, 5, 1421, 6, 1347, 3, 4345, 5, 24, 47, 6, 3, 5, 1421, 6, 1347, 3, 4345, 5, 24, 47, 6, 3, 5, 6, 1347, 3, 4345, 5, 47, 6, 3, 5, 6, 1347, 3, 4345, 5] p=0.77"]
S391 -> S346 [label="8 [8, 12, 20, 13, 10, 11, 6, 5, 4, 18, 208, 382, 321, 10738, 117, 42, 47, 11, 9, 12, 3, 9, 4] p=0.92"]
S391 -> S674 [label="10 [4222] p=0.04"]
S391 -> S3 [label="10 [24922] p=0.04"]
S724 -> S725 [label="9 [5] p=0.33"]
S724 -> S678 [label="11 [1] p=0.33"]
S724 -> S4 [label="9 [4] p=0.33"]
S678 -> S281 [label="10 [4, 4, 4, 4, 4, 4, 4, 4, 4, 4] p=1.0"]
S2 -> S11 [label="3 [3091, 3091, 3091, 3091, 3091, 3091, 3091, 3091, 3091, 3091, 6528, 3, 40] p=0.39"]
S2 -> S1 [label="1 [7, 3, 3, 8, 7, 3, 3, 8, 3, 3, 8, 3, 3, 8, 3, 8, 3, 8, 8, 8] p=0.61"]
S187 -> S188 [label="4 [4, 6, 4, 4, 3, 9, 8, 10, 5, 4, 15, 157, 6, 4, 4, 3, 9, 8, 10, 5, 4, 15, 157, 3, 3, 3, 3, 3, 3, 3, 6, 4, 4, 9, 8, 10, 5, 4, 15, 157, 4, 4, 9, 8, 10, 5, 4, 15, 157, 9, 9, 9, 9, 9, 4, 4, 8, 10, 5, 4, 15, 157, 4, 8, 10, 5, 4, 15, 157, 8, 8, 8, 4, 10, 5, 4, 15, 157, 10, 10, 5, 4, 15, 157, 5, 4, 15, 157, 4, 6, 4, 4, 992, 3, 9, 8, 10, 5, 4, 15, 157, 992, 992, 992, 992, 992, 992, 992, 992, 992] p=0.08"]
S187 -> S196 [label="6 [1045, 3150, 1045, 3150, 1045, 3150, 1045, 3150, 1045, 3150, 1045, 3150, 1045, 3150, 1045, 3150, 1045, 3150, 3, 3, 3, 3, 4312, 3, 4312, 3, 4312, 3, 4312, 3, 4312, 3, 4312, 3, 4312, 12, 5, 4, 5, 4, 12, 5, 4, 12, 5, 4, 12, 5, 4, 12, 5, 2, 4, 12, 4, 5, 2, 4, 5, 12, 4, 5, 2, 4, 5, 5, 5, 5, 5, 3, 5, 3, 5, 3, 5, 3, 4, 2698, 3, 5, 3, 4, 2698, 3, 4, 3, 4, 3, 4, 3, 4, 2698, 3, 4, 2698, 3, 4, 2698, 3, 6, 6, 6, 6, 585, 99, 6, 585, 99, 585, 585, 99, 585, 99, 585, 99, 5, 5, 5, 70, 91, 5, 70, 91, 70, 91, 70, 91, 11, 12, 26, 11, 12, 26, 4143, 4143, 4143, 4143, 4143, 1177, 1177, 1177, 2698, 2698, 2698, 99, 6, 1045, 3, 4143, 1177, 5, 3, 6, 5, 11, 32, 69, 6, 39, 7, 35, 27, 23, 3, 329, 7, 1412, 3837, 8, 1096, 16, 17, 61, 9, 11, 7, 4, 585, 70, 12, 193, 17, 40, 46, 28, 3150, 4312, 2698, 99, 91, 26, 3, 3, 4143, 1177, 5, 3, 6, 5, 11, 32, 69, 6, 39, 7, 35, 27, 23, 3, 329, 7, 1412, 3837, 8, 1096, 16, 17, 61, 9, 11, 7, 4, 585, 70, 12, 193, 17, 40, 46, 28, 4312, 2698, 99, 91, 26, 3, 3, 4143, 1177, 6, 5, 11, 32, 69, 6, 39, 7, 35, 27, 23, 3, 329, 7, 1412, 3837, 8, 1096, 16, 17, 61, 9, 11, 7, 585, 70, 12, 193, 17, 40, 46, 28, 4312, 99, 91, 26, 4143, 1177, 6, 5, 11, 32, 69, 6, 39, 7, 35, 27, 23, 3, 329, 7, 1412, 3837, 8, 1096, 16, 17, 61, 9, 11, 7, 585, 70, 12, 193, 17, 40, 46, 28, 99, 91, 26, 4143, 1177, 5, 11, 32, 69, 6, 39, 7, 35, 27, 23, 3, 329, 7, 1412, 3837, 8, 1096, 16, 17, 61, 9, 11, 7, 70, 12, 193, 17, 40, 46, 28, 91, 26, 1177, 5, 11, 32, 69, 6, 39, 7, 35, 27, 23, 3, 329, 7, 1412, 3837, 8, 1096, 16, 17, 61, 9, 11, 7, 70, 12, 193, 17, 40, 46, 28, 91, 26, 1177, 11, 32, 69, 6, 39, 7, 35, 27, 23, 3, 329, 7, 1412, 3837, 8, 1096, 16, 17, 61, 9, 11, 7, 12, 193, 17, 40, 46, 28, 26, 11, 32, 69, 6, 39, 7, 35, 27, 23, 3, 329, 7, 1412, 3837, 8, 1096, 16, 17, 61, 9, 11, 7, 12, 193, 17, 40, 46, 28, 26, 32, 69, 6, 39, 7, 35, 27, 23, 3, 329, 7, 1412, 3837, 8, 1096, 16, 17, 61, 9, 11, 7, 193, 17, 40, 46, 28, 32, 69, 6, 39, 7, 35, 27, 23, 3, 329, 7, 1412, 3837, 8, 1096, 16, 17, 61, 9, 11, 7, 193, 17, 40, 46, 28, 12, 6, 4, 22, 7, 4, 3, 19, 530, 109, 5, 7, 2, 14, 6, 8, 11, 5, 10, 4, 139, 3259, 883, 2521, 9865, 4179, 4154, 3060, 23, 59, 6, 78, 851, 2350, 103, 6, 12, 16, 73, 3, 3, 4, 300, 4, 3, 6, 2, 5, 20, 12, 10, 6, 2, 10, 10, 10, 10, 19, 10, 12, 39, 3, 7, 219, 74, 11, 37, 57, 5, 2, 4, 5, 11, 4, 3, 5, 6, 87, 6, 4, 22, 7, 4, 3, 19, 530, 109, 5, 7, 2, 14, 6, 8, 11, 5, 10, 139, 3259, 883, 2521, 9865, 4179, 4154, 3060, 23, 59, 6, 78, 851, 2350, 103, 6, 12, 16, 73, 3, 3, 4, 300, 4, 3, 6, 2, 5, 20, 12, 10, 6, 2, 10, 10, 10, 10, 19, 10, 12, 39, 3, 7, 219, 74, 11, 37, 57, 11, 4, 3, 5, 6, 87, 4, 22, 7, 4, 3, 19, 530, 109, 5, 7, 2, 14, 6, 8, 11, 5, 10, 883, 2521, 9865, 4179, 4154, 3060, 23, 59, 6, 78, 851, 2350, 103, 6, 12, 16, 73, 3, 3, 4, 300, 4, 3, 6, 2, 5, 20, 12, 10, 6, 2, 10, 10, 10, 10, 19, 10, 12, 39, 3, 7, 219, 74, 11, 57, 4, 3, 5, 6, 87, 4, 22, 7, 4, 3, 19, 530, 109, 5, 7, 2, 14, 6, 8, 11, 5, 10, 139, 883, 2521, 9865, 4179, 4154, 3060, 23, 59, 6, 78, 851, 2350, 103, 6, 12, 16, 73, 3, 3, 4, 300, 4, 3, 6, 2, 5, 20, 12, 10, 6, 2, 10, 10, 10, 10, 19, 10, 12, 39, 3, 7, 219, 74, 11, 57, 11, 4, 3, 5, 6, 87, 22, 7, 4, 3, 19, 530, 109, 5, 7, 2, 14, 6, 8, 11, 5, 10, 2521, 9865, 4179, 4154, 3060, 23, 59, 6, 78, 851, 2350, 103, 6, 12, 16, 73, 3, 3, 4, 300, 4, 3, 6, 2, 5, 20, 12, 10, 6, 2, 10, 10, 10, 10, 19, 10, 12, 39, 3, 7, 219, 74, 11, 3, 5, 6, 87, 22, 7, 4, 3, 19, 530, 109, 5, 7, 2, 14, 6, 8, 11, 5, 10, 2521, 9865, 4179, 4154, 3060, 23, 59, 6, 78, 851, 2350, 103, 6, 12, 16, 73, 3, 3, 4, 300, 4, 3, 6, 2, 5, 20, 12, 10, 6, 2, 10, 10, 10, 10, 19, 10, 12, 39, 3, 7, 219, 74, 11, 4, 3, 5, 6, 87, 7, 4, 3, 19, 530, 109, 5, 7, 2, 14, 6, 8, 11, 5, 10, 9865, 4179, 4154, 3060, 23, 59, 6, 78, 851, 2350, 103, 6, 12, 16, 73, 3, 3, 4, 300, 4, 3, 6, 2, 5, 20, 12, 10, 6, 2, 10, 10, 10, 10, 19, 10, 12, 39, 3, 7, 219, 74, 11, 5, 6, 87, 7, 4, 3, 19, 530, 109, 5, 7, 2, 14, 6, 8, 11, 5, 10, 9865, 4179, 4154, 3060, 23, 59, 6, 78, 851, 2350, 103, 6, 12, 16, 73, 3, 3, 4, 300, 4, 3, 6, 2, 5, 20, 12, 10, 6, 2, 10, 10, 10, 10, 19, 10, 12, 39, 3, 7, 219, 74, 11, 3, 5, 6, 87, 4, 3, 19, 530, 109, 5, 7, 2, 14, 6, 8, 11, 5, 10, 4179, 4154, 3060, 23, 59, 6, 78, 851, 2350, 103, 6, 12, 16, 73, 3, 3, 4, 300, 4, 3, 6, 2, 5, 20, 12, 10, 6, 2, 10, 10, 10, 10, 19, 10, 12, 39, 3, 7, 219, 74, 11, 5, 6, 87, 139, 11, 139, 11, 4, 4, 3, 3, 4, 4, 4, 4, 4, 5, 4, 5, 5, 5, 5, 5, 139, 139, 139, 11, 139, 11, 11, 11, 4, 4, 2, 2, 2, 2, 2, 12, 6, 37, 6, 37, 6, 37, 6, 37, 6, 37, 6, 3259, 37, 6, 3259, 37, 3259, 3259, 3259, 3259, 3259, 4, 57, 4, 57, 4, 57, 4, 883, 57, 4, 883, 57, 883, 883, 883, 22, 22, 2521, 22, 2521, 2521, 7, 9865] p=0.89"]
S187 -> S270 [label="8 [2653, 2653, 2653, 2653, 2653, 2653, 2653, 2658, 7261, 2658, 7261, 2653, 2658, 7261, 2653, 2658, 7261, 2658, 7261, 7261, 7261, 7261, 7261, 2658, 2658, 2658, 2658] p=0.02"]
S196 -> S187 [label="7 [272, 157, 1297, 157, 1297, 272, 157, 1297, 272, 157, 1297, 272, 157, 1297, 272, 157, 2, 1297, 272, 1197, 157, 2, 1297, 3845, 272, 1197, 157, 2, 1297, 3845, 157, 272, 272, 41, 41, 41, 41, 41, 41, 128, 417, 41, 128, 417, 41, 161, 3007, 6, 116, 63, 15, 9, 7, 27, 30, 372, 1014, 118, 151, 277, 2037, 4163, 4133, 128, 4, 4, 2, 5, 1, 4, 3, 6, 6, 8, 5, 16, 8, 8, 3, 7, 4, 4, 11, 436, 45, 547, 186, 275, 3364, 464, 3, 4034, 18, 9, 12, 20, 35, 4045, 4176, 4196, 4241, 5, 4299, 4289, 2, 213, 715, 5, 19, 8, 9, 5, 5, 417, 73, 1685, 2110, 4, 20, 22, 41, 3007, 6, 116, 63, 15, 9, 7, 27, 30, 372, 1014, 118, 151, 277, 2037, 4163, 4133, 128, 4, 2, 5, 1, 4, 3, 6, 6, 8, 5, 16, 8, 8, 3, 7, 4, 4, 11, 436, 45, 547, 186, 275, 3364, 464, 3, 4034, 18, 9, 12, 20, 35, 4045, 4176, 4196, 4241, 5, 4299, 4289, 2, 213, 715, 5, 19, 8, 9, 5, 417, 73, 1685, 2110, 4, 20, 22, 3007, 6, 116, 63, 15, 9, 7, 27, 30, 372, 1014, 118, 151, 277, 2037, 4163, 4133, 4, 2, 5, 1, 4, 3, 6, 6, 8, 5, 16, 8, 8, 3, 7, 4, 4, 11, 436, 45, 547, 186, 275, 3364, 464, 3, 4034, 18, 9, 12, 20, 35, 4045, 4176, 4196, 4241, 5, 4299, 4289, 2, 213, 715, 5, 19, 8, 9, 5, 73, 1685, 2110, 4, 20, 22, 6, 116, 63, 15, 9, 7, 27, 30, 372, 1014, 118, 151, 277, 2037, 4163, 4133, 5, 1, 4, 3, 6, 6, 8, 5, 16, 8, 8, 3, 7, 4, 4, 11, 436, 45, 547, 186, 275, 3364, 464, 3, 4034, 18, 9, 12, 20, 35, 4045, 4176, 4196, 4241, 5, 4299, 4289, 2, 213, 715, 5, 19, 8, 9, 1685, 2110, 4, 20, 22, 6, 116, 63, 15, 9, 7, 27, 30, 372, 1014, 118, 151, 277, 2037, 4163, 4133, 4, 5, 1, 4, 3, 6, 6, 8, 5, 16, 8, 8, 3, 7, 4, 4, 11, 436, 45, 547, 186, 275, 3364, 464, 3, 4034, 18, 9, 12, 20, 35, 4045, 4176, 4196, 4241, 5, 4299, 4289, 2, 213, 715, 5, 19, 8, 9, 73, 1685, 2110, 4, 20, 22, 116, 63, 15, 9, 7, 27, 30, 372, 1014, 118, 151, 277, 2037, 4163, 4133, 1, 4, 3, 6, 6, 8, 5, 16, 8, 8, 3, 7, 4, 4, 11, 436, 45, 547, 186, 275, 3364, 464, 3, 4034, 18, 9, 12, 20, 35, 4045, 4176, 4196, 4241, 5, 4299, 4289, 2, 213, 715, 5, 19, 8, 9, 2110, 4, 20, 22, 116, 63, 15, 9, 7, 27, 30, 372, 1014, 118, 151, 277, 2037, 4163, 4133, 1, 4, 3, 6, 6, 8, 5, 16, 8, 8, 3, 7, 4, 4, 11, 436, 45, 547, 186, 275, 3364, 464, 3, 4034, 18, 9, 12, 20, 35, 4045, 4176, 4196, 4241, 5, 4299, 4289, 2, 213, 715, 5, 19, 8, 9, 1685, 2110, 4, 20, 22, 63, 15, 9, 7, 27, 30, 372, 1014, 118, 151, 277, 2037, 4163, 4133, 4, 3, 6, 6, 8, 5, 16, 8, 8, 3, 7, 4, 4, 11, 436, 45, 547, 186, 275, 3364, 464, 3, 4034, 18, 9, 12, 20, 35, 4045, 4176, 4196, 4241, 5, 4299, 4289, 2, 213, 715, 5, 19, 8, 9, 4, 20, 22, 63, 15, 9, 7, 27, 30, 372, 1014, 118, 151, 277, 2037, 4163, 4133, 4, 3, 6, 6, 8, 5, 16, 8, 8, 3, 7, 4, 4, 11, 436, 45, 547, 186, 275, 3364, 464, 3, 4034, 18, 9, 12, 20, 35, 4045, 4176, 4196, 4241, 5, 4299, 4289, 2, 213, 715, 5, 19, 8, 9, 2110, 4, 20, 22, 4, 73, 4, 73, 1685, 1685, 2110, 1197, 1197, 1197, 1197, 1197, 1197, 3845, 1197, 3845, 3845, 3845, 3845, 3845, 3845, 128, 128, 128, 128, 417, 128, 417, 417, 417, 417, 4, 4, 73, 4, 73, 73, 1685, 1297, 2, 2, 2, 2, 2, 2, 161, 5, 161, 5, 161, 5, 161, 5, 161, 5, 161, 5, 161, 4, 5, 161, 4, 5, 4, 4, 4, 4, 4, 4, 3007, 5, 3007, 5, 3007, 5, 3007, 5, 3007, 2, 5, 3007, 2, 5, 2, 2, 2, 2, 6, 6, 6, 5, 6, 5, 5, 5, 116, 1, 116, 1, 272, 41, 161, 3007, 6, 116, 63, 15, 9, 7, 27, 30, 372, 1014, 118, 151, 277, 2037, 4163, 4133, 1197, 128, 4, 4, 2, 5, 1, 4, 3, 6, 6, 8, 5, 16, 8, 8, 3, 7, 4, 4, 11, 436, 45, 547, 186, 275, 3364, 464, 3, 4034, 18, 9, 12, 20, 35, 4045, 4176, 4196, 4241, 5, 4299, 4289, 2, 213, 715, 5, 19, 8, 9, 5, 5, 157, 2, 1297, 3845, 417, 73, 1685, 2110, 4, 20, 22] p=0.65"]
S196 -> S187 [label="5 [9, 7, 11, 1, 717, 78, 12, 86, 10, 104, 12, 3, 3, 8, 5, 3, 6, 8, 10, 3, 10, 11, 7, 8, 7, 14, 5, 18, 5, 4, 60, 3, 13, 5, 28, 16, 5, 9, 8, 3, 6, 4, 8, 53, 6, 9, 7, 11, 78, 12, 86, 10, 104, 12, 3, 3, 8, 5, 3, 6, 8, 10, 3, 10, 11, 7, 8, 7, 14, 5, 18, 5, 60, 3, 13, 5, 28, 16, 5, 9, 8, 3, 4, 8, 53, 7, 11, 78, 12, 86, 10, 104, 12, 3, 3, 8, 5, 3, 6, 8, 10, 3, 10, 11, 7, 8, 7, 14, 5, 18, 5, 60, 3, 13, 5, 28, 16, 5, 9, 8, 4, 8, 53, 7, 11, 12, 86, 10, 104, 12, 3, 3, 8, 5, 3, 6, 8, 10, 3, 10, 11, 7, 8, 7, 14, 5, 18, 5, 3, 13, 5, 28, 16, 5, 9, 8, 8, 53, 11, 12, 86, 10, 104, 12, 3, 3, 8, 5, 3, 6, 8, 10, 3, 10, 11, 7, 8, 7, 14, 5, 18, 5, 3, 13, 5, 28, 16, 5, 9, 8, 8, 53, 11, 86, 10, 104, 12, 3, 3, 8, 5, 3, 6, 8, 10, 3, 10, 11, 7, 8, 7, 14, 5, 18, 5, 13, 5, 28, 16, 5, 9, 8, 53, 86, 10, 104, 12, 3, 3, 8, 5, 3, 6, 8, 10, 3, 10, 11, 7, 8, 7, 14, 5, 18, 5, 13, 5, 28, 16, 5, 9, 8, 53, 10, 104, 12, 3, 3, 8, 5, 3, 6, 8, 10, 3, 10, 11, 7, 8, 7, 14, 5, 18, 5, 5, 28, 16, 5, 9, 8, 10, 104, 12, 3, 3, 8, 5, 3, 6, 8, 10, 3, 10, 11, 7, 8, 7, 14, 5, 18, 5, 5, 28, 16, 5, 9, 8, 104, 12, 3, 3, 8, 5, 3, 6, 8, 10, 3, 10, 11, 7, 8, 7, 14, 5, 18, 5, 28, 16, 5, 9, 8, 9, 3, 9, 3, 9, 3, 9, 3, 9, 3, 9, 3, 9, 3, 9, 3, 78, 78, 1, 1, 1, 1, 1, 717, 1, 717, 1, 717, 1, 717, 4, 6, 6, 1, 717, 4, 6, 6, 4, 6, 4, 6, 4, 6, 4, 6, 4, 6, 6, 4, 6, 6, 4, 6, 6, 78, 78, 78, 78, 60, 4, 78, 60, 4, 60, 60, 60, 4, 60, 4, 60, 4, 12, 12, 12, 12, 3, 8, 12, 3, 8, 3, 8, 3, 8, 3, 8, 86, 86, 13, 53, 86, 13, 53, 13, 53, 10, 5, 7, 7, 7, 7, 7, 7, 11, 11, 11, 11, 6, 6, 6, 6, 4, 4, 717, 717, 717, 717] p=0.35"]
S275 -> S281 [label="8 [4, 4, 4, 4, 4, 4259, 4259, 4, 4259, 4, 4259, 4259, 4259, 4259, 2653, 4, 4093, 1171, 51, 15, 7, 945, 76, 10, 3, 4, 10, 2658, 7261, 4259, 4263, 4213, 1453, 6, 3, 12, 80, 4, 4093, 1171, 51, 15, 7, 945, 76, 10, 3, 4, 10, 4259, 4263, 4213, 1453, 6, 3, 12, 80, 4, 4093, 51, 15, 945, 76, 10, 3, 10, 4259, 4263, 4213, 1453, 6, 3, 80, 4093, 51, 15, 945, 76, 10, 3, 10, 4263, 4213, 1453, 6, 3, 80, 4093, 15, 76, 10, 3, 4263, 4213, 1453, 6, 3, 15, 76, 10, 3, 4213, 1453, 6, 3, 10, 3, 1453, 6, 3, 10, 3, 4213, 1453, 6, 3, 3, 6, 3, 3, 1453, 6, 3, 15, 76, 76, 76, 15, 76, 10, 10, 1171, 7, 4, 12, 7, 4, 12, 7, 4, 12, 12, 12, 12, 12, 1171, 7, 4, 12, 51, 945, 10, 80, 945, 10, 80, 945, 10, 80, 80, 80, 51, 945, 10, 80, 4093, 4093, 4093, 4263, 4263, 4093, 4263, 4093, 4263, 4263, 8, 12, 13, 11, 12, 13, 11, 8, 12, 13, 11, 8, 12, 13, 11, 8, 12, 13, 11, 8, 12, 13, 11, 13, 11, 13, 11, 12, 12, 20, 10, 6, 20, 10, 6, 20, 10, 6, 20, 10, 6, 20, 10, 6, 20, 10, 6, 5, 5, 5, 5, 10738, 10738, 10738, 10738, 10738, 10738, 10738, 10738, 117, 117, 117, 117, 117, 117, 117, 42, 42, 42, 42, 42, 47, 47, 47, 11, 4, 4, 8, 8, 8, 51, 51, 51, 51, 945, 10, 945, 10, 1453, 1171, 1171, 1171, 1171, 1171, 1171, 7, 4, 7, 4, 7, 4, 7, 4, 4213, 4213, 4213, 15, 15] p=0.72"]
S275 -> S196 [label="6 [12, 2767, 6, 4, 22, 7, 4, 3, 19, 530, 109, 5, 7, 2, 14, 6, 8, 11, 5, 10, 4, 139, 6, 3259, 883, 2521, 9865, 4179, 4154, 3060, 23, 59, 6, 78, 851, 2350, 103, 6, 12, 16, 73, 3, 3, 4, 300, 4, 3, 6, 2, 5, 20, 12, 10, 6, 2, 10, 10, 10, 10, 19, 10, 12, 39, 3, 7, 219, 74, 11, 640, 37, 57, 5, 2, 4, 5, 11, 4, 3, 5, 6, 87, 2767, 640, 2767, 640, 2767, 640, 2767, 640, 2767, 640, 2767, 640, 2767, 640, 2767, 6, 640, 2767, 6, 640, 6, 6, 6, 6, 6, 6, 6] p=0.28"]
S121 -> S122 [label="3 [6, 122, 5642, 164, 5, 122, 5642, 164, 5, 122, 5642, 164, 5, 5642, 164, 5, 5642, 164, 5, 164, 5, 164, 5, 5, 5] p=0.74"]
S121 -> S142 [label="5 [1414, 1414, 1414, 1414, 1414, 1414, 1414, 1414, 1414] p=0.26"]
S381 -> S346 [label="8 [8, 12, 20, 13, 10, 11, 6, 5, 4, 18, 208, 382, 321, 117, 42, 47, 11, 9, 12, 3, 9, 4, 20, 10, 6, 5, 4, 18, 208, 382, 321, 117, 42, 47, 11, 9, 12, 3, 9, 4, 20, 10, 6, 5, 4, 18, 208, 382, 321, 42, 47, 11, 9, 12, 3, 9, 4, 5, 4, 18, 208, 382, 321, 42, 47, 11, 9, 12, 3, 9, 4, 5, 4, 18, 208, 382, 321, 47, 11, 9, 12, 3, 9, 4, 4, 18, 208, 382, 321, 47, 11, 9, 12, 3, 9, 4, 4, 18, 208, 382, 321, 11, 9, 12, 3, 9, 4, 18, 208, 382, 321, 11, 9, 12, 3, 9, 4, 18, 208, 382, 321, 9, 12, 3, 9, 4] p=0.93"]
S381 -> S3 [label="10 [24922, 24922, 24922, 24922, 24922, 24922, 24922, 24922, 24922] p=0.07"]
S725 -> S281 [label="8 [10738] p=1.0"]
S122 -> S121 [label="4 [124, 4, 5, 107, 782, 124, 4, 5, 107, 782, 4, 5, 107, 782, 4, 5, 107, 782, 5, 107, 782, 5, 107, 782, 107, 782, 107, 782, 782] p=1.0"]
S188 -> S187 [label="5 [20, 11, 7, 41, 3071, 5186, 4293, 4292, 4327, 802, 145, 11, 5, 3071, 3071, 3071, 3071, 3071, 3071, 3071, 3071, 20, 11, 7, 41, 5186, 4293, 4292, 4327, 802, 145, 11, 5, 11, 7, 41, 5186, 4293, 4292, 4327, 802, 145, 11, 5, 5186, 5186, 5186, 5186, 5186, 5186, 11, 7, 41, 4293, 4292, 4327, 802, 145, 11, 5, 7, 41, 4293, 4292, 4327, 802, 145, 11, 5, 4293, 4293, 4293, 4293, 7, 41, 4292, 4327, 802, 145, 11, 5, 41, 4292, 4327, 802, 145, 11, 5, 4292, 4292, 41, 4327, 802, 145, 11, 5, 4327, 802, 145, 11, 5] p=1.0"]
S11 -> S22 [label="2 [2, 2, 2, 2, 2, 2, 2, 2, 7, 7, 7, 7, 7, 7, 19, 19, 19, 19, 2, 7, 19, 7, 19, 7, 19, 19, 19] p=0.75"]
S11 -> S55 [label="4 [12769, 12769, 12769, 12769, 12769, 12769, 12769, 12769, 12769] p=0.25"]
S22 -> S11 [label="3 [6528, 6528, 6528, 6528, 6528, 6528, 6528, 3, 3, 3, 3, 3, 40, 40, 40, 6528, 3, 40, 6528, 3, 40, 3, 40, 3, 40, 40, 40] p=1.0"]
S281 -> S275 [label="7 [10, 24, 4, 3, 69, 39, 8, 288, 695, 7, 4, 3, 9, 5, 6, 5, 9, 6, 5, 24, 4, 3, 69, 39, 8, 288, 695, 7, 9, 5, 6, 5, 9, 6, 5, 24, 3, 39, 8, 288, 7, 9, 5, 6, 5, 9, 5, 3, 39, 8, 288, 7, 5, 6, 5, 9, 5, 8, 288, 6, 5, 9, 8, 288, 5, 6, 5, 9, 288, 5, 9, 288, 6, 5, 9, 5, 9, 8, 8, 8, 288, 3, 39, 7, 5, 39, 7, 5, 39, 7, 5, 5, 3, 39, 7, 5, 4, 69, 695, 6, 69, 695, 6, 69, 695, 6, 6, 6, 6, 4, 69, 695, 6, 24, 24, 24, 24, 9, 9, 24, 9, 24, 9, 9, 9, 4, 4, 4, 4, 4, 69, 695, 69, 695, 69, 695, 6, 6, 14, 14, 14, 14, 14, 14, 14, 1000, 646, 1000, 646, 1000, 646, 1000, 646, 1000, 646, 5, 5, 5, 5, 3, 3, 3, 39, 7] p=0.63"]
S281 -> S275 [label="9 [2, 2, 2, 2, 3, 3, 3, 4203, 3, 3, 4203, 3, 3, 4203, 3, 3, 4203, 3, 3, 4203, 3, 3, 4203, 3, 4203, 3172, 3172, 3172, 3172, 3172, 357, 357, 357, 5, 5, 5, 5, 5, 5, 5, 5, 5, 4, 4, 4, 4, 4, 4, 4, 4, 13, 13, 13, 13, 13, 13, 29, 29, 29, 29, 1421, 1421, 24, 2, 2758, 1559, 2727, 2758, 1559, 2727, 2, 2758, 1559, 2727, 2, 2758, 1559, 2727, 2, 2758, 1559, 2727, 2, 2758, 1559, 2727, 1559, 2727, 1559, 2727, 1559, 2727, 2758, 2758, 2758] p=0.37"]
S3 -> S4 [label="9 [4, 4, 4, 4, 4, 4, 4, 4, 4] p=1.0"]
S4 -> S674 [label="10 [4222, 4222, 4222, 4222, 4222, 4222, 4222, 4222, 4222] p=1.0"]
S674 -> S678 [label="11 [1, 1, 1, 1, 1, 1, 1, 1, 1] p=1.0"]
S142 -> S144 [label="4 [4, 4, 4, 4, 4, 4, 4, 4, 6, 6, 6, 6, 6, 6, 4, 4, 4, 4, 4, 4] p=1.0"]
S270 -> S275 [label="7 [10, 10, 10, 10, 10, 10, 4, 3, 4, 3, 10, 4, 3, 10, 4, 3, 4, 3, 3, 3, 3, 4, 4, 4] p=1.0"]
S55 -> S64 [label="3 [6, 6, 6, 6, 6, 6, 6, 6, 122, 122, 122, 122, 122, 122, 5642, 5642, 5642, 5642, 164, 164] p=1.0"]
S144 -> S142 [label="5 [20, 20, 20, 20, 20, 20, 20, 11, 11, 11, 11, 11, 7, 7, 7, 41] p=1.0"]
S64 -> S55 [label="4 [124, 124, 124, 124, 124, 124, 124, 4, 4, 4, 4, 4, 5, 5, 5, 107] p=1.0"]