S0 -> S1 [label="1 [0, 0] p=0.03"]
S0 -> S12 [label="2 [0, 0, 0, 0, 0, 0, 0, 0, 0, 0, 0] p=0.16"]
S0 -> S42 [label="3 [0, 0, 0, 0, 0, 0, 0, 0, 0, 0, 0, 0, 0, 0, 0, 0, 0, 0, 0, 0, 0, 0, 0, 0, 0, 0, 0, 0, 0, 0, 0, 0] p=0.46"]
S0 -> S62 [label="4 [0, 0, 0, 0, 0, 0, 0, 0, 0, 0, 0, 0, 0, 0, 0, 0, 0, 0, 0, 0, 0, 0, 0] p=0.33"]
S0 -> S5 [label="6 [0] p=0.01"]
S1 -> S2 [label="2 [11] p=0.5"]
S1 -> S6 [label="2 [28766] p=0.5"]
S12 -> S3 [label="1 [5] p=0.09"]
S12 -> S5 [label="3 [21122, 41, 13, 3178, 5186, 4297, 4292, 4328, 1128, 11] p=0.91"]
S42 -> S4 [label="2 [4, 11142, 12, 2, 5, 8, 10, 4, 6, 11142, 11142, 11142] p=0.06"]
S42 -> S62 [label="4 [9372, 4, 4091, 1171, 51, 7, 706, 227, 76, 10, 3, 10, 23381, 75353, 4259, 4263, 4213, 1336, 74, 6, 3, 34, 4, 4091, 1171, 51, 7, 706, 227, 76, 10, 3, 10, 23381, 75353, 4259, 4263, 4213, 1336, 74, 6, 3, 34, 4, 4091, 1171, 51, 7, 706, 227, 76, 10, 3, 10, 23381, 75353, 4259, 4263, 4213, 1336, 74, 6, 3, 4091, 1171, 51, 7, 706, 227, 76, 10, 3, 10, 23381, 75353, 4259, 4263, 4213, 1336, 74, 6, 3, 4091, 1171, 51, 7, 706, 227, 76, 10, 3, 10, 23381, 75353, 4259, 4263, 4213, 1336, 74, 6, 3, 1171, 51, 7, 706, 227, 76, 10, 3, 10, 23381, 75353, 4259, 4263, 4213, 1336, 74, 6, 3, 1171, 51, 7, 706, 227, 76, 10, 3, 10, 23381, 75353, 4259, 4263, 4213, 1336, 74, 6, 3, 51, 7, 706, 227, 76, 10, 3, 10, 23381, 75353, 4259, 4263, 4213, 1336, 74, 6, 3, 51, 7, 706, 227, 76, 10, 3, 10, 23381, 75353, 4259, 4263, 4213, 1336, 74, 6, 3, 7, 706, 227, 76, 10, 3, 10, 23381, 75353, 4259, 4263, 4213, 1336, 74, 6, 3] p=0.94"]
S62 -> S5 [label="6 [40648, 40648, 40648, 40648, 40648, 40648, 40648, 40648, 40648, 40648] p=0.05"]
S62 -> S42 [label="3 [11, 26, 24, 4, 3811, 70, 11, 39, 8, 288, 2930, 7, 4, 4, 9, 5, 6, 42, 6, 9, 19582, 5, 11, 26, 24, 4, 3811, 70, 11, 39, 8, 288, 2930, 7, 4, 4, 9, 5, 6, 42, 6, 9, 5, 26, 24, 4, 3811, 70, 11, 39, 8, 288, 2930, 7, 4, 4, 9, 5, 6, 42, 6, 9, 5, 26, 24, 4, 3811, 70, 11, 39, 8, 288, 2930, 7, 4, 4, 9, 5, 6, 42, 6, 9, 24, 4, 3811, 70, 11, 39, 8, 288, 2930, 7, 4, 4, 9, 5, 6, 42, 6, 9, 24, 4, 3811, 70, 11, 39, 8, 288, 2930, 7, 4, 4, 9, 5, 6, 42, 6, 9, 4, 3811, 70, 11, 39, 8, 288, 2930, 7, 4, 4, 9, 5, 6, 42, 6, 9, 4, 3811, 70, 11, 39, 8, 288, 2930, 7, 4, 4, 9, 5, 6, 42, 6, 9, 3811, 70, 11, 39, 8, 288, 2930, 7, 4, 4, 9, 5, 6, 42, 6, 9, 3811, 70, 11, 39, 8, 288, 2930, 7, 4, 4, 9, 5, 6, 42, 6, 9] p=0.95"]
S5 -> S4 [label="2 [4, 4, 4, 12, 2, 5, 8, 10, 4, 6, 11142, 11142, 11142, 11142, 11142, 11142, 12, 12, 12, 12, 2, 5, 8, 10, 4, 6, 12, 12, 12, 12, 2, 5, 8, 10, 4, 6, 2, 2, 2, 2, 5, 8, 10, 4, 6, 2, 2, 5, 8, 10, 4, 6, 5, 5, 5, 5, 8, 10, 4, 6, 8, 8, 10, 4, 6, 8, 10, 4, 6, 10, 4, 6] p=0.65"]
S5 -> S4 [label="4 [9372, 9372, 9372, 4, 4, 4, 4, 4, 4, 4, 4, 4, 4, 34, 34, 34, 34, 34, 34, 34, 34, 4, 4091, 1171, 51, 4, 4091, 1171, 4, 4091, 1171, 9372, 9372, 9372, 4, 4, 4, 4091, 4091] p=0.35"]
S2 -> S3 [label="3 [21122] p=1.0"]
S3 -> S4 [label="2 [11, 11, 4] p=1.0"]
S4 -> S5 [label="3 [21122, 21122, 41, 19582, 19582, 19582, 19582, 19582, 19582, 19582, 19582, 19582, 5, 5, 5, 5, 5, 5, 5, 11, 26, 24, 4, 11, 26, 24, 4, 11, 26, 24, 41, 13, 3178, 5186, 4297, 4292, 4328, 1128, 11, 13, 13, 13, 41, 3178, 5186, 4297, 4292, 4328, 1128, 11, 13, 13, 13, 13, 13, 3178, 3178, 3178, 3178, 5186, 4297, 4292, 4328, 1128, 11, 3178, 3178, 3178, 5186, 4297, 4292, 4328, 1128, 11, 5186, 5186, 5186, 5186, 4297, 4292, 4328, 1128, 11, 5186, 4297, 4292, 4328, 1128, 11, 4297, 4297, 4297, 4292, 4328, 1128, 11, 4292, 4328, 1128, 11, 4292, 4328, 1128, 11, 41, 41, 11, 11, 11, 26, 26, 26, 24] p=1.0"]
S6 -> S3 [label="1 [5] p=1.0"]