S0 -> S1 [label="13 [0, 0, 0, 0, 0, 0, 0, 0, 0, 0, 0, 0, 0, 0, 0, 0, 0, 0, 0, 0, 0, 0, 0, 0, 0, 0, 0, 0, 0, 0, 0, 0, 0, 0, 0, 0, 0, 0, 0, 0, 0, 0, 0, 0, 0, 0, 0, 0, 0, 0, 0, 0, 0, 0, 0, 0, 0, 0, 0, 0, 0, 0, 0, 0, 0, 0, 0, 0, 0, 0, 0, 0, 0, 0, 0, 0] p=0.25"]
S0 -> S12 [label="1 [0, 0, 0, 0, 0, 0, 0, 0, 0, 0, 0, 0, 0, 0, 0, 0, 0, 0, 0, 0, 0, 0, 0, 0, 0, 0, 0, 0, 0, 0, 0, 0, 0, 0, 0, 0, 0, 0, 0, 0, 0, 0, 0, 0, 0, 0, 0, 0, 0, 0, 0, 0, 0, 0, 0, 0, 0, 0, 0, 0, 0, 0, 0, 0, 0, 0, 0, 0, 0, 0, 0, 0, 0, 0, 0, 0, 0, 0, 0, 0, 0, 0, 0, 0, 0, 0, 0, 0, 0, 0, 0, 0, 0, 0, 0, 0, 0, 0, 0, 0, 0, 0, 0, 0, 0, 0, 0, 0, 0, 0, 0, 0, 0, 0, 0, 0, 0, 0, 0, 0, 0, 0, 0, 0, 0, 0, 0, 0, 0, 0, 0, 0, 0, 0, 0, 0, 0, 0, 0, 0, 0, 0, 0, 0, 0, 0, 0, 0, 0, 0] p=0.5"]
S0 -> S3 [label="21 [0, 0, 0, 0, 0, 0, 0, 0, 0, 0, 0, 0, 0, 0, 0, 0, 0, 0, 0, 0, 0, 0, 0, 0, 0, 0, 0, 0, 0, 0, 0, 0, 0, 0, 0, 0, 0, 0, 0, 0, 0, 0, 0, 0, 0, 0, 0, 0, 0, 0, 0, 0, 0, 0, 0, 0, 0, 0, 0, 0, 0, 0, 0, 0, 0, 0, 0, 0, 0, 0, 0, 0, 0, 0, 0] p=0.25"]
S1 -> S2 [label="1 [2526, 4088, 4087, 4088, 4027, 4029, 4028, 4028, 4027, 4026, 4027, 3967, 4027, 4028, 4027, 4025, 3966, 3909, 3907, 4027, 4027, 4028, 4028, 4088, 4027, 4028, 3968, 4027, 4087, 4028, 4028, 4028, 3968, 4028, 4028, 4028, 4088, 4148, 4208, 4209, 4209, 4147, 4147, 4207, 4088, 4088, 4086, 4147, 4087, 4086, 4086, 4088, 4087, 4148, 4088, 4148, 4208, 1808, 3187, 4268, 1809, 3248, 1808, 3248, 1809, 3188, 1807, 3187, 4147, 4208, 4208, 4207, 4208, 4148, 4148, 4088, 4087, 4088, 4027, 4029, 4028, 4028, 4027, 4026, 4027, 3967, 4027, 4028, 4027, 4025, 3966, 3909, 3907, 4027, 4027, 4028, 4028, 4088, 4027, 4028, 3968, 4027, 4087, 4028, 4028, 4028, 3968, 4028, 4028, 4028, 4088, 4148, 4208, 4209, 4209, 4147, 4147, 4207, 4088, 4088, 4086, 4147, 4087, 4086, 4086, 4088, 4087, 4148, 4088, 4148, 4208, 1808, 3187, 4268, 1809, 3248, 1808, 3248, 1809, 3188, 1807, 3187, 4147, 4208, 4208, 4207, 4208, 4148, 4148, 4088, 4087, 4088, 4027, 4029, 4028, 4028, 4027, 4026, 4027, 3967, 4027, 4028, 4027, 4025, 3966, 3909, 3907, 4027, 4027, 4028, 4028, 4088, 4027, 4028, 3968, 4027, 4087, 4028, 4028, 4028, 3968, 4028, 4028, 4028, 4088, 4148, 4208, 4209, 4209, 4147, 4147, 4207, 4088, 4088, 4086, 4147, 4087, 4086, 4086, 4088, 4087, 4148, 4088, 4148, 4208, 1808, 3187, 4268, 1809, 3248, 1808, 3248, 1809, 3188, 1807, 3187, 4147, 4208, 4208, 4207, 4208, 4148, 4148, 4088, 4087, 4088, 4027, 4029, 4028, 4028, 4027, 4026, 4027, 3967, 4027, 4028, 4027, 4025, 3966, 3909, 3907, 4027, 4027, 4028, 4028, 4088, 4027, 4028, 3968, 4027, 4087, 4028, 4028, 4028, 3968, 4028, 4028, 4028, 4088, 4148, 4208, 4209, 4209, 4147, 4147, 4207, 4088, 4088, 4086, 4147, 4087, 4086, 4086, 4088, 4087, 4148, 4088, 4148, 4208, 1808, 3187, 4268, 1809, 3248, 1808, 3248, 1809, 3188, 1807, 3187, 4147, 4208, 4208, 4207, 4208, 4148, 4148, 4088, 4087, 4088, 4027, 4029, 4028, 4028, 4027, 4026, 4027, 3967, 4027, 4028, 4027, 4025, 3966, 3909, 3907, 4027, 4027, 4028, 4028, 4088, 4027, 4028, 3968, 4027, 4087, 4028, 4028, 4028, 3968, 4028, 4028, 4028, 4088, 4148, 4208, 4209, 4209, 4147, 4147, 4207, 4088, 4088, 4086, 4147, 4087, 4086, 4086, 4088, 4087, 4148, 4088, 4148, 4208, 1808, 3187, 4268, 1809, 3248, 1808, 3248, 1809, 3188, 1807, 3187, 4147, 4208, 4208, 4207, 4208, 4148, 4148, 4087, 4088, 4027, 4029, 4028, 4028, 4027, 4026, 4027, 3967, 4027, 4028, 4027, 4025, 3966, 3909, 3907, 4027, 4027, 4028, 4028, 4088, 4027, 4028, 3968, 4027, 4087, 4028, 4028, 4028, 3968, 4028, 4028, 4028, 4088, 4148, 4208, 4209, 4209, 4147, 4147, 4207, 4088, 4088, 4086, 4147, 4087, 4086, 4086, 4088, 4087, 4148, 4088, 4148, 4208, 1808, 3187, 4268, 1809, 3248, 1808, 3248, 1809, 3188, 1807, 3187, 4147, 4208, 4208, 4207, 4208, 4148, 4148, 4087, 4088, 4027, 4029, 4028, 4028, 4027, 4026, 4027, 3967, 4027, 4028, 4027, 4025, 3966, 3909, 3907, 4027, 4027, 4028, 4028, 4088, 4027, 4028, 3968, 4027, 4087, 4028, 4028, 4028, 3968, 4028, 4028, 4028, 4088, 4148, 4208, 4209, 4209, 4147, 4147, 4207, 4088, 4088, 4086, 4147, 4087, 4086, 4086, 4088, 4087, 4148, 4088, 4148, 4208, 1808, 3187, 4268, 1809, 3248, 1808, 3248, 1809, 3188, 1807, 3187, 4147, 4208, 4208, 4207, 4208, 4148, 4148, 4087, 4088, 4027, 4029, 4028, 4028, 4027, 4026, 4027, 3967, 4027, 4028, 4027, 4025, 3966, 3909, 3907, 4027, 4027, 4028, 4028, 4088, 4027, 4028, 3968, 4027, 4087, 4028, 4028, 4028, 3968, 4028, 4028, 4028, 4088, 4148, 4208, 4209, 4209, 4147, 4147, 4207, 4088, 4088, 4086, 4147, 4087, 4086, 4086, 4088, 4087, 4148, 4088, 4148, 4208, 1808, 3187, 4268, 1809, 3248, 1808, 3248, 1809, 3188, 1807, 3187, 4147, 4208, 4208, 4207, 4208, 4148, 4148, 4087, 4088, 4027, 4029, 4028, 4028, 4027, 4026, 4027, 3967, 4027, 4028, 4027, 4025, 3966, 3909, 3907, 4027, 4027, 4028, 4028, 4088, 4027, 4028, 3968, 4027, 4087, 4028, 4028, 4028, 3968, 4028, 4028, 4028, 4088, 4148, 4208, 4209, 4209, 4147, 4147, 4207, 4088, 4088, 4086, 4147, 4087, 4086, 4086, 4088, 4087, 4148, 4088, 4148, 4208, 1808, 3187, 4268, 1809, 3248, 1808, 3248, 1809, 3188, 1807, 3187, 4147, 4208, 4208, 4207, 4208, 4148, 4148, 4088, 4027, 4029, 4028, 4028, 4027, 4026, 4027, 3967, 4027, 4028, 4027, 4025, 3966, 3909, 3907, 4027, 4027, 4028, 4028, 4088, 4027, 4028, 3968, 4027, 4087, 4028, 4028, 4028, 3968, 4028, 4028, 4028, 4088, 4148, 4208, 4209, 4209, 4147, 4147, 4207, 4088, 4088, 4086, 4147, 4087, 4086, 4086, 4088, 4087, 4148, 4088, 4148, 4208, 1808, 3187, 4268, 1809, 3248, 1808, 3248, 1809, 3188, 1807, 3187, 4147, 4208, 4208, 4207, 4208, 4148, 4148] p=1.0"]
S12 -> S3 [label="21 [9, 9, 9, 9, 9, 8, 8, 9, 9, 10, 10, 9, 8, 9, 9, 10, 9, 8, 8, 9, 8, 8, 8, 9, 9, 8, 9, 9, 8, 9, 10, 8, 8, 8, 8, 8, 8, 9, 10, 8, 8, 9, 9, 9, 9, 8, 9, 10, 10, 9, 9, 9, 9, 8, 8, 9, 8, 8, 9, 8, 9, 8, 8, 8, 8, 8, 9, 9, 10, 9, 9, 10, 8, 9, 8] p=0.5"]
S12 -> S1 [label="13 [8, 9, 8, 9, 8, 10, 9, 9, 9, 9, 9, 9, 8, 10, 8, 9, 8, 8, 8, 9, 9, 9, 8, 9, 9, 9, 9, 10, 9, 9, 9, 8, 9, 8, 10, 10, 9, 8, 9, 8, 8, 8, 9, 8, 8, 9, 9, 9, 10, 9, 8, 9, 9, 9, 8, 9, 8, 8, 9, 8, 8, 9, 8, 8, 8, 9, 9, 9, 9, 8, 8, 8, 8, 9, 9] p=0.5"]
S3 -> S4 [label="1 [96, 95, 96, 95, 95, 94, 95, 95, 96, 95, 95, 95, 97, 94, 97, 96, 95, 97, 97, 96, 95, 96, 96, 95, 95, 95, 95, 95, 95, 94, 94, 96, 96, 96, 95, 94, 95, 95, 94, 95, 96, 97, 95, 96, 95, 97, 95, 94, 95, 96, 96, 95, 95, 96, 95, 95, 96, 97, 95, 95, 95, 96, 96, 95, 96, 96, 95, 95, 94, 95, 96, 96, 95, 96, 95, 95, 96, 95, 95, 94, 95, 95, 96, 95, 95, 95, 97, 94, 97, 96, 95, 97, 97, 96, 95, 96, 96, 95, 95, 95, 95, 95, 95, 94, 94, 96, 96, 96, 95, 94, 95, 95, 94, 95, 96, 97, 95, 96, 95, 97, 95, 94, 95, 96, 96, 95, 95, 96, 95, 95, 96, 97, 95, 95, 95, 96, 96, 95, 96, 96, 95, 95, 94, 95, 96, 96, 95, 96, 95, 95, 96, 95, 95, 94, 95, 95, 96, 95, 95, 95, 97, 94, 97, 96, 95, 97, 97, 96, 95, 96, 96, 95, 95, 95, 95, 95, 95, 94, 94, 96, 96, 96, 95, 94, 95, 95, 94, 95, 96, 97, 95, 96, 95, 97, 95, 94, 95, 96, 96, 95, 95, 96, 95, 95, 96, 97, 95, 95, 95, 96, 96, 95, 96, 96, 95, 95, 94, 95, 96, 96, 95, 96, 95, 95, 96, 95, 95, 94, 95, 95, 96, 95, 95, 95, 97, 94, 97, 96, 95, 97, 97, 96, 95, 96, 96, 95, 95, 95, 95, 95, 95, 94, 94, 96, 96, 96, 95, 94, 95, 95, 94, 95, 96, 97, 95, 96, 95, 97, 95, 94, 95, 96, 96, 95, 95, 96, 95, 95, 96, 97, 95, 95, 95, 96, 96, 95, 96, 96, 95, 95, 94, 95, 96, 96, 95, 96, 95, 95, 96, 95, 95, 94, 95, 95, 96, 95, 95, 95, 97, 94, 97, 96, 95, 97, 97, 96, 95, 96, 96, 95, 95, 95, 95, 95, 95, 94, 94, 96, 96, 96, 95, 94, 95, 95, 94, 95, 96, 97, 95, 96, 95, 97, 95, 94, 95, 96, 96, 95, 95, 96, 95, 95, 96, 97, 95, 95, 95, 96, 96, 95, 96, 96, 95, 95, 94, 95, 96, 96, 95, 96, 95, 96, 95, 95, 94, 95, 95, 96, 95, 95, 95, 97, 94, 97, 96, 95, 97, 97, 96, 95, 96, 96, 95, 95, 95, 95, 95, 95, 94, 94, 96, 96, 96, 95, 94, 95, 95, 94, 95, 96, 97, 95, 96, 95, 97, 95, 94, 95, 96, 96, 95, 95, 96, 95, 95, 96, 97, 95, 95, 95, 96, 96, 95, 96, 96, 95, 95, 94, 95, 96, 96, 95, 96, 95, 96, 95, 95, 94, 95, 95, 96, 95, 95, 95, 97, 94, 97, 96, 95, 97, 97, 96, 95, 96, 96, 95, 95, 95, 95, 95, 95, 94, 94, 96, 96, 96, 95, 94, 95, 95, 94, 95, 96, 97, 95, 96, 95, 97, 95, 94, 95, 96, 96, 95, 95, 96, 95, 95, 96, 97, 95, 95, 95, 96, 96, 95, 96, 96, 95, 95, 94, 95, 96, 96, 95, 96, 95, 96, 95, 95, 94, 95, 95, 96, 95, 95, 95, 97, 94, 97, 96, 95, 97, 97, 96, 95, 96, 96, 95, 95, 95, 95, 95, 95, 94, 94, 96, 96, 96, 95, 94, 95, 95, 94, 95, 96, 97, 95, 96, 95, 97, 95, 94, 95, 96, 96, 95, 95, 96, 95, 95, 96, 97, 95, 95, 95, 96, 96, 95, 96, 96, 95, 95, 94, 95, 96, 96, 95, 96, 95, 96, 95, 96, 95, 95, 94, 95, 95, 96, 95, 95, 95, 97, 94, 97, 96, 95, 97, 97, 96, 95, 96, 96, 95, 95, 95, 95, 95, 95, 94, 94, 96, 96, 96, 95, 94, 95, 95, 94, 95, 96, 97, 95, 96, 95, 97, 95, 94, 95, 96, 96, 95, 95, 96, 95, 95, 96, 97, 95, 95, 95, 96, 96, 95, 96, 96, 95, 95, 94, 95, 96, 96, 95, 96, 95, 96, 95, 96, 95, 95, 94, 95, 95, 96, 95, 95, 95, 97, 94, 97, 96, 95, 97, 97, 96, 95, 96, 96, 95, 95, 95, 95, 95, 95, 94, 94, 96, 96, 96, 95, 94, 95, 95, 94, 95, 96, 97, 95, 96, 95, 97, 95, 94, 95, 96, 96, 95, 95, 96, 95, 95, 96, 97, 95, 95, 95, 96, 96, 95, 96, 96, 95, 95, 94, 95, 96, 96, 95, 96, 95] p=1.0"]
S2 -> S3 [label="21 [9, 9, 9, 9, 9, 8, 8, 9, 9, 10, 10, 9, 8, 9, 9, 10, 9, 8, 8, 9, 8, 8, 8, 9, 9, 8, 9, 9, 8, 9, 10, 8, 8, 8, 8, 8, 8, 9, 10, 8, 8, 9, 9, 9, 9, 8, 9, 10, 10, 9, 9, 9, 9, 8, 8, 9, 8, 8, 9, 8, 9, 8, 8, 8, 8, 8, 9, 9, 10, 9, 9, 10, 8, 9, 8, 9, 9, 9, 9, 8, 8, 9, 9, 10, 10, 9, 8, 9, 9, 10, 9, 8, 8, 9, 8, 8, 8, 9, 9, 8, 9, 9, 8, 9, 10, 8, 8, 8, 8, 8, 8, 9, 10, 8, 8, 9, 9, 9, 9, 8, 9, 10, 10, 9, 9, 9, 9, 8, 8, 9, 8, 8, 9, 8, 9, 8, 8, 8, 8, 8, 9, 9, 10, 9, 9, 10, 8, 9, 8, 9, 9, 9, 9, 8, 8, 9, 9, 10, 10, 9, 8, 9, 9, 10, 9, 8, 8, 9, 8, 8, 8, 9, 9, 8, 9, 9, 8, 9, 10, 8, 8, 8, 8, 8, 8, 9, 10, 8, 8, 9, 9, 9, 9, 8, 9, 10, 10, 9, 9, 9, 9, 8, 8, 9, 8, 8, 9, 8, 9, 8, 8, 8, 8, 8, 9, 9, 10, 9, 9, 10, 8, 9, 8, 9, 9, 9, 9, 8, 8, 9, 9, 10, 10, 9, 8, 9, 9, 10, 9, 8, 8, 9, 8, 8, 8, 9, 9, 8, 9, 9, 8, 9, 10, 8, 8, 8, 8, 8, 8, 9, 10, 8, 8, 9, 9, 9, 9, 8, 9, 10, 10, 9, 9, 9, 9, 8, 8, 9, 8, 8, 9, 8, 9, 8, 8, 8, 8, 8, 9, 9, 10, 9, 9, 10, 8, 9, 8, 9, 9, 9, 9, 8, 8, 9, 9, 10, 10, 9, 8, 9, 9, 10, 9, 8, 8, 9, 8, 8, 8, 9, 9, 8, 9, 9, 8, 9, 10, 8, 8, 8, 8, 8, 8, 9, 10, 8, 8, 9, 9, 9, 9, 8, 9, 10, 10, 9, 9, 9, 9, 8, 8, 9, 8, 8, 9, 8, 9, 8, 8, 8, 8, 8, 9, 9, 10, 9, 9, 10, 8, 9, 8, 9, 9, 9, 8, 8, 9, 9, 10, 10, 9, 8, 9, 9, 10, 9, 8, 8, 9, 8, 8, 8, 9, 9, 8, 9, 9, 8, 9, 10, 8, 8, 8, 8, 8, 8, 9, 10, 8, 8, 9, 9, 9, 9, 8, 9, 10, 10, 9, 9, 9, 9, 8, 8, 9, 8, 8, 9, 8, 9, 8, 8, 8, 8, 8, 9, 9, 10, 9, 9, 10, 8, 9, 8, 9, 9, 9, 8, 8, 9, 9, 10, 10, 9, 8, 9, 9, 10, 9, 8, 8, 9, 8, 8, 8, 9, 9, 8, 9, 9, 8, 9, 10, 8, 8, 8, 8, 8, 8, 9, 10, 8, 8, 9, 9, 9, 9, 8, 9, 10, 10, 9, 9, 9, 9, 8, 8, 9, 8, 8, 9, 8, 9, 8, 8, 8, 8, 8, 9, 9, 10, 9, 9, 10, 8, 9, 8, 9, 9, 9, 8, 8, 9, 9, 10, 10, 9, 8, 9, 9, 10, 9, 8, 8, 9, 8, 8, 8, 9, 9, 8, 9, 9, 8, 9, 10, 8, 8, 8, 8, 8, 8, 9, 10, 8, 8, 9, 9, 9, 9, 8, 9, 10, 10, 9, 9, 9, 9, 8, 8, 9, 8, 8, 9, 8, 9, 8, 8, 8, 8, 8, 9, 9, 10, 9, 9, 10, 8, 9, 8, 9, 9, 9, 8, 8, 9, 9, 10, 10, 9, 8, 9, 9, 10, 9, 8, 8, 9, 8, 8, 8, 9, 9, 8, 9, 9, 8, 9, 10, 8, 8, 8, 8, 8, 8, 9, 10, 8, 8, 9, 9, 9, 9, 8, 9, 10, 10, 9, 9, 9, 9, 8, 8, 9, 8, 8, 9, 8, 9, 8, 8, 8, 8, 8, 9, 9, 10, 9, 9, 10, 8, 9, 8] p=1.0"]
S4 -> S1 [label="13 [8, 9, 8, 9, 8, 10, 9, 9, 9, 9, 9, 9, 8, 10, 8, 9, 8, 8, 8, 9, 9, 9, 8, 9, 9, 9, 9, 10, 9, 9, 9, 8, 9, 8, 10, 10, 9, 8, 9, 8, 8, 8, 9, 8, 8, 9, 9, 9, 10, 9, 8, 9, 9, 9, 8, 9, 8, 8, 9, 8, 8, 9, 8, 8, 8, 9, 9, 9, 9, 8, 8, 8, 8, 9, 9, 8, 9, 8, 9, 8, 10, 9, 9, 9, 9, 9, 9, 8, 10, 8, 9, 8, 8, 8, 9, 9, 9, 8, 9, 9, 9, 9, 10, 9, 9, 9, 8, 9, 8, 10, 10, 9, 8, 9, 8, 8, 8, 9, 8, 8, 9, 9, 9, 10, 9, 8, 9, 9, 9, 8, 9, 8, 8, 9, 8, 8, 9, 8, 8, 8, 9, 9, 9, 9, 8, 8, 8, 8, 9, 9, 8, 9, 8, 9, 8, 10, 9, 9, 9, 9, 9, 9, 8, 10, 8, 9, 8, 8, 8, 9, 9, 9, 8, 9, 9, 9, 9, 10, 9, 9, 9, 8, 9, 8, 10, 10, 9, 8, 9, 8, 8, 8, 9, 8, 8, 9, 9, 9, 10, 9, 8, 9, 9, 9, 8, 9, 8, 8, 9, 8, 8, 9, 8, 8, 8, 9, 9, 9, 9, 8, 8, 8, 8, 9, 9, 9, 8, 9, 8, 10, 9, 9, 9, 9, 9, 9, 8, 10, 8, 9, 8, 8, 8, 9, 9, 9, 8, 9, 9, 9, 9, 10, 9, 9, 9, 8, 9, 8, 10, 10, 9, 8, 9, 8, 8, 8, 9, 8, 8, 9, 9, 9, 10, 9, 8, 9, 9, 9, 8, 9, 8, 8, 9, 8, 8, 9, 8, 8, 8, 9, 9, 9, 9, 8, 8, 8, 8, 9, 9, 9, 8, 9, 8, 10, 9, 9, 9, 9, 9, 9, 8, 10, 8, 9, 8, 8, 8, 9, 9, 9, 8, 9, 9, 9, 9, 10, 9, 9, 9, 8, 9, 8, 10, 10, 9, 8, 9, 8, 8, 8, 9, 8, 8, 9, 9, 9, 10, 9, 8, 9, 9, 9, 8, 9, 8, 8, 9, 8, 8, 9, 8, 8, 8, 9, 9, 9, 9, 8, 8, 8, 8, 9, 9, 9, 8, 9, 8, 10, 9, 9, 9, 9, 9, 9, 8, 10, 8, 9, 8, 8, 8, 9, 9, 9, 8, 9, 9, 9, 9, 10, 9, 9, 9, 8, 9, 8, 10, 10, 9, 8, 9, 8, 8, 8, 9, 8, 8, 9, 9, 9, 10, 9, 8, 9, 9, 9, 8, 9, 8, 8, 9, 8, 8, 9, 8, 8, 8, 9, 9, 9, 9, 8, 8, 8, 8, 9, 9, 9, 8, 9, 8, 10, 9, 9, 9, 9, 9, 9, 8, 10, 8, 9, 8, 8, 8, 9, 9, 9, 8, 9, 9, 9, 9, 10, 9, 9, 9, 8, 9, 8, 10, 10, 9, 8, 9, 8, 8, 8, 9, 8, 8, 9, 9, 9, 10, 9, 8, 9, 9, 9, 8, 9, 8, 8, 9, 8, 8, 9, 8, 8, 8, 9, 9, 9, 9, 8, 8, 8, 8, 9, 9, 8, 9, 8, 10, 9, 9, 9, 9, 9, 9, 8, 10, 8, 9, 8, 8, 8, 9, 9, 9, 8, 9, 9, 9, 9, 10, 9, 9, 9, 8, 9, 8, 10, 10, 9, 8, 9, 8, 8, 8, 9, 8, 8, 9, 9, 9, 10, 9, 8, 9, 9, 9, 8, 9, 8, 8, 9, 8, 8, 9, 8, 8, 8, 9, 9, 9, 9, 8, 8, 8, 8, 9, 9, 8, 9, 8, 10, 9, 9, 9, 9, 9, 9, 8, 10, 8, 9, 8, 8, 8, 9, 9, 9, 8, 9, 9, 9, 9, 10, 9, 9, 9, 8, 9, 8, 10, 10, 9, 8, 9, 8, 8, 8, 9, 8, 8, 9, 9, 9, 10, 9, 8, 9, 9, 9, 8, 9, 8, 8, 9, 8, 8, 9, 8, 8, 8, 9, 9, 9, 9, 8, 8, 8, 8, 9, 9] p=1.0"]