S0 -> S1 [label="1 [0, 0, 0, 0, 0, 0, 0, 0, 0, 0, 0, 0, 0, 0, 0, 0, 0, 0, 0, 0, 0, 0, 0, 0, 0, 0, 0, 0, 0, 0, 0, 0, 0, 0, 0, 0, 0, 0, 0, 0, 0, 0, 0, 0, 0, 0, 0, 0, 0, 0, 0, 0, 0, 0, 0, 0, 0, 0, 0, 0, 0, 0, 0, 0, 0, 0, 0, 0, 0, 0, 0, 0, 0, 0, 0, 0] p=0.49"]
S0 -> S2 [label="2 [0, 0, 0, 0, 0, 0, 0, 0, 0, 0, 0, 0, 0, 0, 0, 0, 0, 0, 0, 0, 0, 0, 0, 0, 0, 0, 0, 0, 0, 0, 0, 0, 0, 0, 0, 0, 0, 0, 0, 0, 0, 0, 0, 0, 0, 0, 0, 0, 0, 0, 0, 0, 0, 0, 0, 0, 0, 0, 0, 0, 0, 0, 0, 0, 0, 0, 0, 0, 0, 0, 0, 0, 0, 0, 0, 0, 0] p=0.5"]
S0 -> S23 [label="3 [0] p=0.01"]
S1 -> S2 [label="2 [596, 3499, 3490, 3488, 3459, 3473, 3438, 3440, 3453, 3410, 3436, 3399, 3429, 3459, 3463, 3431, 3330, 3352, 3364, 3413, 3447, 3468, 3446, 3442, 3460, 3441, 3417, 3424, 3469, 3452, 3429, 3419, 3420, 3428, 3417, 3475, 3503, 3557, 3605, 3593, 3593, 3572, 3556, 3556, 3510, 3511, 3511, 3510, 3507, 3504, 3492, 3507, 3494, 3518, 3522, 3559, 3578, 3639, 1120, 3666, 3670, 1185, 3640, 1189, 3630, 1133, 3644, 1117, 3594, 3583, 3609, 3578, 3601, 3568, 3559, 3568, 3499, 3490, 3488, 3459, 3473, 3438, 3440, 3453, 3410, 3436, 3399, 3429, 3459, 3463, 3431, 3330, 3352, 3364, 3413, 3447, 3468, 3446, 3442, 3460, 3441, 3417, 3424, 3469, 3452, 3429, 3419, 3420, 3428, 3417, 3475, 3503, 3557, 3605, 3593, 3593, 3572, 3556, 3556, 3510, 3511, 3511, 3510, 3507, 3504, 3492, 3507, 3494, 3518, 3522, 3559, 3578, 3639, 1120, 3666, 3670, 1185, 3640, 1189, 3630, 1133, 3644, 1117, 3594, 3583, 3609, 3578, 3601, 3568, 3559, 3568, 3499, 3490, 3488, 3459, 3473, 3438, 3440, 3453, 3410, 3436, 3399, 3429, 3459, 3463, 3431, 3330, 3352, 3364, 3413, 3447, 3468, 3446, 3442, 3460, 3441, 3417, 3424, 3469, 3452, 3429, 3419, 3420, 3428, 3417, 3475, 3503, 3557, 3605, 3593, 3593, 3572, 3556, 3556, 3510, 3511, 3511, 3510, 3507, 3504, 3492, 3507, 3494, 3518, 3522, 3559, 3578, 3639, 1120, 3666, 3670, 1185, 3640, 1189, 3630, 1133, 3644, 1117, 3594, 3583, 3609, 3578, 3601, 3568, 3568, 3490, 3488, 3459, 3473, 3438, 3440, 3453, 3410, 3436, 3399, 3429, 3459, 3463, 3431, 3330, 3352, 3364, 3413, 3447, 3468, 3446, 3442, 3460, 3441, 3417, 3424, 3469, 3452, 3429, 3419, 3420, 3428, 3417, 3475, 3503, 3557, 3605, 3593, 3593, 3572, 3556, 3556, 3510, 3511, 3511, 3510, 3507, 3504, 3492, 3507, 3494, 3518, 3522, 3559, 3578, 3639, 1120, 3666, 3670, 1185, 3640, 1189, 3630, 1133, 3644, 1117, 3594, 3583, 3609, 3578, 3601, 3568, 3568, 3490, 3488, 3459, 3473, 3438, 3440, 3453, 3410, 3436, 3399, 3429, 3459, 3463, 3431, 3330, 3352, 3364, 3413, 3447, 3468, 3446, 3442, 3460, 3441, 3417, 3424, 3469, 3452, 3429, 3419, 3420, 3428, 3417, 3475, 3503, 3557, 3605, 3593, 3593, 3572, 3556, 3556, 3510, 3511, 3511, 3510, 3507, 3504, 3492, 3507, 3494, 3518, 3522, 3559, 3578, 3639, 1120, 3666, 3670, 1185, 3640, 1189, 3630, 1133, 3644, 1117, 3594, 3583, 3609, 3578, 3601, 3568, 3488, 3459, 3473, 3438, 3440, 3453, 3410, 3436, 3399, 3429, 3459, 3463, 3431, 3330, 3352, 3364, 3413, 3447, 3468, 3446, 3442, 3460, 3441, 3417, 3424, 3469, 3452, 3429, 3419, 3420, 3428, 3417, 3475, 3503, 3557, 3605, 3593, 3593, 3572, 3556, 3556, 3510, 3511, 3511, 3510, 3507, 3504, 3492, 3507, 3494, 3518, 3522, 3559, 3578, 3639, 1120, 3666, 3670, 1185, 3640, 1189, 3630, 1133, 3644, 1117, 3594, 3583, 3609, 3578, 3601, 3568, 3488, 3459, 3473, 3438, 3440, 3453, 3410, 3436, 3399, 3429, 3459, 3463, 3431, 3330, 3352, 3364, 3413, 3447, 3468, 3446, 3442, 3460, 3441, 3417, 3424, 3469, 3452, 3429, 3419, 3420, 3428, 3417, 3475, 3503, 3557, 3605, 3593, 3593, 3572, 3556, 3556, 3510, 3511, 3511, 3510, 3507, 3504, 3492, 3507, 3494, 3518, 3522, 3559, 3578, 3639, 1120, 3666, 3670, 1185, 3640, 1189, 3630, 1133, 3644, 1117, 3594, 3583, 3609, 3578, 3601, 3568, 3459, 3473, 3438, 3440, 3453, 3410, 3436, 3399, 3429, 3459, 3463, 3431, 3330, 3352, 3364, 3413, 3447, 3468, 3446, 3442, 3460, 3441, 3417, 3424, 3469, 3452, 3429, 3419, 3420, 3428, 3417, 3475, 3503, 3557, 3605, 3593, 3593, 3572, 3556, 3556, 3510, 3511, 3511, 3510, 3507, 3504, 3492, 3507, 3494, 3518, 3522, 3559, 3578, 3639, 1120, 3666, 3670, 1185, 3640, 1189, 3630, 1133, 3644, 1117, 3594, 3583, 3609, 3578, 3601, 3568, 3459, 3473, 3438, 3440, 3453, 3410, 3436, 3399, 3429, 3459, 3463, 3431, 3330, 3352, 3364, 3413, 3447, 3468, 3446, 3442, 3460, 3441, 3417, 3424, 3469, 3452, 3429, 3419, 3420, 3428, 3417, 3475, 3503, 3557, 3605, 3593, 3593, 3572, 3556, 3556, 3510, 3511, 3511, 3510, 3507, 3504, 3492, 3507, 3494, 3518, 3522, 3559, 3578, 3639, 1120, 3666, 3670, 1185, 3640, 1189, 3630, 1133, 3644, 1117, 3594, 3583, 3609, 3578, 3601, 3568, 3473, 3438, 3440, 3453, 3410, 3436, 3399, 3429, 3459, 3463, 3431, 3330, 3352, 3364, 3413, 3447, 3468, 3446, 3442, 3460, 3441, 3417, 3424, 3469, 3452, 3429, 3419, 3420, 3428, 3417, 3475, 3503, 3557, 3605, 3593, 3593, 3572, 3556, 3556, 3510, 3511, 3511, 3510, 3507, 3504, 3492, 3507, 3494, 3518, 3522, 3559, 3578, 3639, 1120, 3666, 3670, 1185, 3640, 1189, 3630, 1133, 3644, 1117, 3594, 3583, 3609, 3578, 3601, 3568] p=1.0"]
S2 -> S23 [label="3 [328, 328, 328, 328, 328, 328, 328, 328, 328, 328] p=0.01"]
S2 -> S1 [label="1 [707, 703, 710, 693, 706, 684, 691, 703, 701, 695, 700, 694, 697, 705, 700, 709, 687, 692, 690, 695, 697, 711, 692, 701, 691, 706, 694, 710, 713, 704, 695, 707, 698, 697, 703, 706, 699, 696, 722, 710, 711, 719, 716, 716, 704, 697, 704, 708, 704, 711, 697, 713, 710, 709, 700, 720, 723, 201, 240, 705, 195, 250, 206, 267, 189, 261, 191, 236, 717, 711, 733, 708, 723, 388, 722, 707, 703, 710, 693, 706, 684, 691, 703, 701, 695, 700, 694, 697, 705, 700, 709, 687, 692, 690, 695, 697, 711, 692, 701, 691, 706, 694, 710, 713, 704, 695, 707, 698, 697, 703, 706, 699, 696, 722, 710, 711, 719, 716, 716, 704, 697, 704, 708, 704, 711, 697, 713, 710, 709, 700, 720, 723, 201, 240, 705, 195, 250, 206, 267, 189, 261, 191, 236, 717, 711, 733, 708, 723, 722, 703, 710, 693, 706, 684, 691, 703, 701, 695, 700, 694, 697, 705, 700, 709, 687, 692, 690, 695, 697, 711, 692, 701, 691, 706, 694, 710, 713, 704, 695, 707, 698, 697, 703, 706, 699, 696, 722, 710, 711, 719, 716, 716, 704, 697, 704, 708, 704, 711, 697, 713, 710, 709, 700, 720, 723, 201, 240, 705, 195, 250, 206, 267, 189, 261, 191, 236, 717, 711, 733, 708, 723, 722, 703, 710, 693, 706, 684, 691, 703, 701, 695, 700, 694, 697, 705, 700, 709, 687, 692, 690, 695, 697, 711, 692, 701, 691, 706, 694, 710, 713, 704, 695, 707, 698, 697, 703, 706, 699, 696, 722, 710, 711, 719, 716, 716, 704, 697, 704, 708, 704, 711, 697, 713, 710, 709, 700, 720, 723, 201, 240, 705, 195, 250, 206, 267, 189, 261, 191, 236, 717, 711, 733, 708, 723, 710, 693, 706, 684, 691, 703, 701, 695, 700, 694, 697, 705, 700, 709, 687, 692, 690, 695, 697, 711, 692, 701, 691, 706, 694, 710, 713, 704, 695, 707, 698, 697, 703, 706, 699, 696, 722, 710, 711, 719, 716, 716, 704, 697, 704, 708, 704, 711, 697, 713, 710, 709, 700, 720, 723, 201, 240, 705, 195, 250, 206, 267, 189, 261, 191, 236, 717, 711, 733, 708, 723, 710, 693, 706, 684, 691, 703, 701, 695, 700, 694, 697, 705, 700, 709, 687, 692, 690, 695, 697, 711, 692, 701, 691, 706, 694, 710, 713, 704, 695, 707, 698, 697, 703, 706, 699, 696, 722, 710, 711, 719, 716, 716, 704, 697, 704, 708, 704, 711, 697, 713, 710, 709, 700, 720, 723, 201, 240, 705, 195, 250, 206, 267, 189, 261, 191, 236, 717, 711, 733, 708, 723, 693, 706, 684, 691, 703, 701, 695, 700, 694, 697, 705, 700, 709, 687, 692, 690, 695, 697, 711, 692, 701, 691, 706, 694, 710, 713, 704, 695, 707, 698, 697, 703, 706, 699, 696, 722, 710, 711, 719, 716, 716, 704, 697, 704, 708, 704, 711, 697, 713, 710, 709, 700, 720, 723, 201, 240, 705, 195, 250, 206, 267, 189, 261, 191, 236, 717, 711, 733, 708, 723, 693, 706, 684, 691, 703, 701, 695, 700, 694, 697, 705, 700, 709, 687, 692, 690, 695, 697, 711, 692, 701, 691, 706, 694, 710, 713, 704, 695, 707, 698, 697, 703, 706, 699, 696, 722, 710, 711, 719, 716, 716, 704, 697, 704, 708, 704, 711, 697, 713, 710, 709, 700, 720, 723, 201, 240, 705, 195, 250, 206, 267, 189, 261, 191, 236, 717, 711, 733, 708, 723, 706, 684, 691, 703, 701, 695, 700, 694, 697, 705, 700, 709, 687, 692, 690, 695, 697, 711, 692, 701, 691, 706, 694, 710, 713, 704, 695, 707, 698, 697, 703, 706, 699, 696, 722, 710, 711, 719, 716, 716, 704, 697, 704, 708, 704, 711, 697, 713, 710, 709, 700, 720, 723, 201, 240, 705, 195, 250, 206, 267, 189, 261, 191, 236, 717, 711, 733, 708, 723, 706, 684, 691, 703, 701, 695, 700, 694, 697, 705, 700, 709, 687, 692, 690, 695, 697, 711, 692, 701, 691, 706, 694, 710, 713, 704, 695, 707, 698, 697, 703, 706, 699, 696, 722, 710, 711, 719, 716, 716, 704, 697, 704, 708, 704, 711, 697, 713, 710, 709, 700, 720, 723, 201, 240, 705, 195, 250, 206, 267, 189, 261, 191, 236, 717, 711, 733, 708, 723] p=0.99"]
S23 -> S25 [label="2 [1, 1, 1, 1, 1, 1, 1, 1, 1, 1, 3559, 3559, 3559, 3559, 3559, 3559, 3559, 3559, 3568, 3568, 3568, 3568, 3568, 3568] p=1.0"]
S25 -> S23 [label="1 [388, 388, 388, 388, 388, 388, 388, 388, 388, 722, 722, 722, 722, 722, 722, 722] p=1.0"]