S0 -> S1 [label="2 [0, 0, 0, 0, 0, 0, 0, 0, 0, 0, 0, 0, 0, 0, 0, 0, 0, 0, 0, 0, 0, 0, 0, 0, 0, 0, 0, 0, 0, 0, 0, 0, 0, 0, 0, 0, 0, 0, 0, 0, 0, 0, 0, 0, 0, 0, 0, 0, 0, 0, 0, 0, 0, 0, 0, 0, 0, 0, 0, 0, 0, 0, 0, 0, 0, 0, 0, 0, 0, 0, 0, 0, 0, 0, 0, 0, 0, 0, 0, 0, 0, 0, 0, 0, 0, 0, 0, 0, 0, 0, 0, 0, 0, 0, 0, 0, 0, 0, 0, 0, 0, 0, 0, 0, 0, 0, 0, 0, 0, 0, 0, 0, 0, 0, 0, 0, 0, 0, 0, 0, 0, 0, 0, 0, 0, 0, 0, 0, 0, 0, 0, 0, 0, 0, 0, 0, 0, 0, 0, 0, 0, 0, 0, 0, 0, 0, 0, 0, 0, 0, 0, 0, 0, 0, 0, 0, 0, 0, 0, 0, 0, 0, 0, 0, 0, 0] p=0.5"]
S0 -> S2 [label="3 [0, 0, 0, 0, 0, 0, 0, 0, 0, 0, 0, 0, 0, 0, 0, 0, 0, 0, 0, 0, 0, 0, 0, 0, 0, 0, 0, 0, 0, 0, 0, 0, 0, 0, 0, 0, 0, 0, 0, 0, 0, 0, 0, 0, 0, 0, 0, 0, 0, 0, 0, 0, 0, 0, 0, 0, 0, 0, 0, 0, 0, 0, 0, 0, 0, 0, 0, 0, 0, 0, 0, 0, 0, 0, 0, 0, 0, 0, 0, 0, 0, 0, 0, 0, 0, 0, 0, 0, 0, 0, 0, 0, 0, 0, 0, 0, 0, 0, 0, 0, 0, 0, 0, 0, 0, 0, 0, 0, 0, 0, 0, 0, 0, 0, 0, 0, 0, 0, 0, 0, 0, 0, 0, 0, 0] p=0.38"]
S0 -> S8 [label="1 [0, 0, 0, 0, 0, 0, 0, 0, 0, 0, 0, 0, 0, 0, 0, 0, 0, 0, 0, 0, 0, 0, 0, 0, 0, 0, 0, 0, 0, 0, 0, 0, 0, 0, 0, 0, 0, 0, 0, 0] p=0.12"]
S0 -> S8 [label="4 [0] p=0.0"]
S1 -> S2 [label="3 [3, 1, 4, 3, 1, 4, 3, 1, 4, 3, 1, 1, 2, 3, 1, 4, 3, 1, 4, 3, 1, 5, 3, 1, 4, 3, 1, 4, 3, 1, 4, 3, 1, 5, 3, 1, 4, 3, 1, 4, 3, 1, 4, 3, 1, 4, 3, 1, 1, 2, 3, 1, 5, 3, 1, 4, 3, 1, 1, 2, 3, 1, 4, 3, 1, 4, 3, 1, 4, 3, 1, 4, 3, 1, 5, 3, 1, 4, 3, 1, 4, 3, 1, 4, 3, 1, 5, 3, 1, 4, 3, 1, 4, 3, 1, 1, 3, 3, 1, 5, 3, 1, 4, 3, 1, 4, 3, 1, 4, 3, 1, 4, 3, 1, 4, 3, 1, 4, 3, 1, 1, 2, 3, 1, 5, 3] p=0.76"]
S1 -> S8 [label="1 [1, 1, 1, 1, 1, 1, 1, 1, 1, 1, 1, 1, 1, 1, 1, 1, 1, 1, 1, 1, 1, 1, 1, 1, 1, 1, 1, 1, 1, 1, 1, 1, 1, 1, 1, 1, 1, 1, 1, 1] p=0.24"]
S2 -> S3 [label="2 [7, 1, 4, 7, 1, 4, 7, 1, 4, 7, 1, 1, 4, 7, 1, 4, 7, 1, 4, 7, 1, 3, 7, 1, 4, 7, 1, 4, 7, 1, 4, 1, 3, 7, 1, 4, 7, 1, 4, 7, 1, 4, 7, 1, 4, 7, 1, 1, 4, 7, 1, 3, 7, 1, 4, 7, 1, 1, 4, 7, 1, 4, 7, 1, 4, 7, 1, 4, 7, 1, 4, 7, 1, 3, 7, 1, 4, 7, 1, 4, 7, 1, 4, 7, 1, 3, 7, 1, 4, 7, 1, 4, 7, 1, 1, 3, 7, 1, 3, 7, 1, 4, 7, 1, 4, 7, 1, 4, 7, 1, 4, 7, 1, 4, 7, 1, 4, 7, 1, 1, 4, 7, 1, 3, 7, 7, 1, 4, 7, 1, 4, 7, 1, 4, 7, 1, 1, 4, 7, 1, 4, 7, 1, 4, 7, 1, 3, 7, 1, 4, 7, 1, 4, 7, 1, 4, 1, 3, 7, 1, 4, 7, 1, 4, 7, 1, 4, 7, 1, 4, 7, 1, 1, 4, 7, 1, 3, 7, 1, 4, 7, 1, 1, 4, 7, 1, 4, 7, 1, 4, 7, 1, 4, 7, 1, 4, 7, 1, 3, 7, 1, 4, 7, 1, 4, 7, 1, 4, 7, 1, 3, 7, 1, 4, 7, 1, 4, 7, 1, 1, 3, 7, 1, 3, 7, 1, 4, 7, 1, 4, 7, 1, 4, 7, 1, 4, 7, 1, 4, 7, 1, 4, 7, 1, 1, 4, 7, 1, 3] p=0.99"]
S2 -> S8 [label="4 [6, 6] p=0.01"]
S8 -> S9 [label="2 [4, 4, 4, 4, 4, 4, 4, 4, 4, 4, 4, 4, 4, 4, 4, 4, 4, 4, 4, 4, 4, 4, 4, 4, 4, 4, 4, 4, 4, 4, 4, 4, 4, 4, 4, 4, 4, 4, 4, 4, 4, 4, 4, 4, 4, 4, 4, 4, 4, 4, 4, 4, 4, 4, 4, 4, 4, 4, 4, 4, 4, 4, 4, 4, 4, 4, 4, 4, 4, 4, 4, 4, 4, 4, 4, 4, 4, 4, 4, 4, 4, 4, 4, 4, 4, 4, 4, 4, 4, 4, 4, 4, 4, 4, 4, 4, 4, 4, 4, 4, 4, 4, 4, 4, 4, 4, 4, 4, 4, 4, 4, 4, 4, 4, 4, 4, 4, 4, 4, 4, 4, 4, 4, 4, 4, 4, 4, 4, 4, 4, 4, 4, 4, 4, 4, 4, 4, 4, 4, 4, 4, 4, 4, 4, 4, 4, 4, 4, 4, 4, 4, 4, 4, 4, 4, 4, 4, 4, 4, 4, 4, 4, 4, 4, 4, 4, 4, 4, 4, 4, 4, 4, 4, 4, 4, 4, 4, 4, 4, 4, 4, 4, 4, 4, 4, 4, 4, 4, 4, 4, 4, 4, 4, 4, 4, 4, 4, 4, 4, 4, 4, 4, 4, 4, 4, 4, 4, 4, 4, 4, 4, 4, 4, 4, 4, 4, 4, 4, 4, 4, 4, 4, 4, 4, 4, 4, 4, 4, 4, 4, 4, 4, 4, 4, 4, 4, 4, 4, 4, 4, 4, 4, 4, 4, 4, 4, 4, 4, 4, 4, 4, 4, 4, 4, 4, 4, 4, 4, 4, 4, 4, 4, 4, 4, 4, 4, 4, 4, 4, 4, 4, 4, 4, 4, 4, 4, 4, 4, 4, 4, 4, 4, 4, 4, 4, 4, 4, 4, 4, 4, 4, 4, 4, 4, 4, 4, 4, 4, 4, 4, 4, 4, 4, 4, 4, 4, 4, 4, 4, 4, 4, 1, 1, 1, 1, 1, 1, 1, 1, 1, 1, 4, 4, 4, 4, 4, 4, 4, 4, 4, 4, 4, 4, 4, 4, 4, 4, 4, 4, 4, 4, 4, 4, 4, 4, 4, 4, 4, 4, 4, 4, 4, 4, 4, 4, 4, 4, 4, 4, 4, 4, 4, 4, 4, 4, 4, 4, 4, 4, 4, 4, 4, 4, 4, 4, 4, 4, 4, 4, 4, 4, 4, 4, 4, 4, 4, 4, 4, 4, 4, 4, 4, 4, 4, 4, 4, 4, 4, 4, 4, 4, 4, 4, 4, 4, 4, 4, 4, 1, 4, 4, 4, 4, 4, 4, 4, 4, 4, 4, 4, 4, 4, 4, 4, 4, 4, 4, 4, 4, 4, 4, 4, 4, 4, 4, 4, 4, 4] p=1.0"]
S3 -> S4 [label="3 [1, 4, 1, 4, 1, 4, 1, 1, 2, 1, 4, 1, 4, 1, 5, 1, 4, 1, 4, 1, 4, 5, 1, 4, 1, 4, 1, 4, 1, 4, 1, 1, 2, 1, 5, 1, 4, 1, 1, 2, 1, 4, 1, 4, 1, 4, 1, 4, 1, 5, 1, 4, 1, 4, 1, 4, 1, 5, 1, 4, 1, 4, 1, 1, 3, 1, 5, 1, 4, 1, 4, 1, 4, 1, 4, 1, 4, 1, 4, 1, 1, 2, 1, 5, 1, 1, 4, 1, 4, 1, 4, 1, 1, 2, 1, 4, 1, 4, 1, 5, 1, 4, 1, 4, 1, 4, 5, 1, 4, 1, 4, 1, 4, 1, 4, 1, 1, 2, 1, 5, 1, 4, 1, 1, 2, 1, 4, 1, 4, 1, 4, 1, 4, 1, 5, 1, 4, 1, 4, 1, 4, 1, 5, 1, 4, 1, 4, 1, 1, 3, 1, 5, 1, 4, 1, 4, 1, 4, 1, 4, 1, 4, 1, 4, 1, 1, 2, 1, 5, 4, 4, 4, 1, 2, 4, 4, 5, 4, 4, 4, 4, 4, 4, 4, 1, 2, 5, 4, 1, 2, 4, 4, 4, 4, 5, 4, 4, 4, 5, 4, 4, 1, 3, 5, 4, 4, 4, 4, 4, 4, 1, 2, 5, 4, 4, 4, 4, 1, 2, 4, 4, 5, 4, 4, 4, 4, 4, 4, 4, 1, 2, 5, 4, 1, 2, 4, 4, 4, 4, 5, 4, 4, 4, 5, 4, 4, 1, 3, 5, 4, 4, 4, 4, 4, 4, 1, 2, 5, 2, 2, 2, 3, 2, 2, 2, 2, 3, 2, 4, 4, 1, 4, 4, 5, 4, 4, 4, 4, 4, 4, 4, 1, 5, 4, 1, 4, 4, 4, 4, 5, 4, 4, 4, 5, 4, 4, 1, 5, 4, 4, 4, 4, 4, 4, 1, 5, 4, 4, 1, 4, 4, 5, 4, 4, 4, 4, 4, 4, 4, 1, 5, 4, 1, 4, 4, 4, 4, 5, 4, 4, 4, 5, 4, 4, 1, 5, 4, 4, 4, 4, 4, 4, 1, 5, 4, 4, 1, 4, 4, 5, 4, 4, 4, 4, 4, 4, 4, 1, 5, 4, 1, 4, 4, 4, 4, 5, 4, 4, 4, 5, 4, 4, 1, 5, 4, 4, 4, 4, 4, 4, 1, 5, 4, 4, 1, 4, 4, 5, 4, 4, 4, 4, 4, 4, 4, 1, 5, 4, 1, 4, 4, 4, 4, 5, 4, 4, 4, 5, 4, 4, 1, 5, 4, 4, 4, 4, 4, 4, 1, 5, 4, 4, 1, 4, 4, 5, 4, 4, 4, 4, 4, 4, 4, 1, 5, 4, 1, 4, 4, 4, 4, 5, 4, 4, 4, 5, 4, 4, 1, 5, 4, 4, 4, 4, 4, 4, 1, 5, 4, 4, 1, 4, 4, 5, 4, 4, 4, 4, 4, 4, 4, 1, 5, 4, 1, 4, 4, 4, 4, 5, 4, 4, 4, 5, 4, 4, 1, 5, 4, 4, 4, 4, 4, 4, 1, 5, 2, 2, 2, 3, 2, 2, 2, 2, 3, 2, 2, 2, 2, 3, 2, 2, 2, 2, 3, 2] p=0.57"]
S3 -> S8 [label="1 [1, 1, 1, 1, 1, 1, 1, 1, 1, 1, 1, 1, 1, 1, 1, 1, 1, 1, 1, 1, 1, 1, 1, 1, 1, 1, 1, 1, 1, 1, 1, 1, 1, 1, 1, 1, 1, 1, 1, 1, 1, 1, 1, 1, 1, 1, 1, 1, 1, 1, 1, 1, 1, 1, 1, 1, 1, 1, 1, 1, 1, 1, 1, 1, 1, 1, 1, 1, 1, 1, 1, 1, 1, 1, 1, 1, 1, 1, 1, 1, 1, 1, 1, 1, 1, 1, 1, 1, 1, 1, 1, 1, 1, 1, 1, 1, 1, 1, 1, 1, 1, 1, 1, 1, 1, 1, 1, 1, 1, 1, 1, 1, 1, 1, 1, 1, 1, 1, 1, 1, 1, 1, 1, 1, 1, 1, 1, 1, 1, 1, 1, 1, 1, 1, 1, 1, 1, 1, 1, 1, 1, 1, 1, 1, 1, 1, 1, 1, 1, 1, 1, 1, 1, 1, 1, 1, 1, 1, 1, 1, 1, 1, 1, 1, 1, 1, 1, 1, 1, 1, 1, 1, 1, 1, 1, 1, 1, 1, 1, 1, 1, 1, 1, 1, 1, 1, 1, 1, 1, 1, 1, 1, 1, 1, 1, 1, 1, 1, 1, 1, 1, 1, 1, 1, 1, 1, 1, 1, 1, 1, 1, 1, 1, 1, 1, 1, 1, 1, 1, 1, 1, 1, 1, 1, 1, 1, 1, 1, 1, 1, 1, 1, 1, 1, 1, 1, 1, 1, 1, 1, 1, 1, 1, 1, 1, 1, 1, 1, 1, 1, 1, 1, 1, 1, 1, 1, 1, 1, 1, 1, 1, 1, 1, 1, 1, 1, 1, 1, 1, 1, 1, 1, 1, 1, 1, 1, 1, 1, 1, 1, 1, 1, 1, 1, 1, 1, 1, 1, 1, 1, 1, 1, 1, 1, 1, 1, 1, 1, 1, 1, 1, 1, 1, 1, 1, 1, 1, 1, 1, 1, 1, 1, 1, 1, 1, 1, 1, 1, 1, 1, 1, 1, 1, 1, 1, 1, 1, 1, 1, 1, 1, 1, 1, 1, 1, 1, 1, 1, 1, 1, 1, 1, 1, 1, 1, 1, 1, 1, 1, 1, 1, 1, 1, 1, 1, 1, 1, 1, 1, 1, 1, 1, 1, 1, 1, 1, 1, 1, 1, 1, 1, 1, 1, 1, 1, 1, 1, 1, 1, 1, 1, 1, 1, 1, 1, 1, 1, 1, 1, 1, 1, 1, 1, 1, 1, 1, 1] p=0.43"]
S9 -> S10 [label="3 [3, 3, 3, 3, 3, 3, 3, 3, 3, 3, 3, 3, 3, 3, 3, 3, 3, 3, 3, 3, 3, 3, 3, 3, 3, 3, 3, 3, 3, 3, 3, 3, 3, 3, 3, 3, 3, 3, 3, 3, 3, 3, 3, 3, 3, 3, 3, 3, 3, 3, 3, 3, 3, 3, 3, 3, 3, 3, 3, 3, 3, 3, 3, 3, 3, 3, 3, 3, 3, 3, 3, 3, 3, 3, 3, 3, 3, 3, 3, 3, 3, 3, 3, 3, 3, 3, 3, 3, 3, 3, 3, 3, 3, 3, 3, 3, 3, 3, 3, 3, 3, 3, 3, 3, 3, 3, 3, 3, 3, 3, 3, 3, 3, 3, 3, 3, 3, 3, 3, 3, 3, 3, 3, 3, 3, 3, 3, 3, 3, 3, 3, 3, 3, 3, 3, 3, 3, 3, 3, 3, 3, 3, 3, 3, 3, 3, 3, 3, 3, 3, 3, 3, 3, 3, 3, 3, 3, 3, 3, 3, 3, 3, 3, 3, 3, 3, 3, 3, 3, 3, 3, 3, 3, 3, 3, 3, 3, 3, 3, 3, 3, 3, 3, 3, 3, 3, 3, 3, 3, 3, 3, 3, 3, 3, 3, 3, 3, 3, 3, 3, 3, 3, 3, 3, 3, 3, 3, 3, 3, 3, 3, 3, 3, 3, 3, 3, 3, 3, 3, 3, 3, 3, 3, 3, 3, 3, 3, 3, 3, 3, 3, 3, 3, 3, 3, 3, 3, 3, 3, 3, 3, 3, 3, 3, 3, 3, 3, 3, 3, 3, 3, 3, 3, 3, 3, 3, 3, 3, 3, 3, 3, 3, 3, 3, 3, 3, 3, 3, 3, 3, 3, 3, 3, 3, 3, 3, 3, 3, 3, 3, 3, 3, 3, 3, 3, 3, 3, 3, 3, 3, 3, 3, 3, 3, 3, 3, 3, 3, 3, 3, 3, 3, 3, 3, 3, 3, 3, 3, 3, 3, 3, 1, 1, 1, 1, 1, 1, 1, 1, 1, 3, 3, 3, 3, 3, 3, 3, 3, 3, 3, 3, 3, 3, 3, 3, 3, 3, 3, 3, 3, 3, 3, 3, 3, 3, 3, 3, 3, 3, 3, 3, 3, 3, 3, 3, 3, 3, 3, 3, 3, 3, 3, 3, 3, 3, 3, 3, 3, 3, 1, 3, 3, 3, 3, 3, 3, 3, 3, 3, 3, 3, 3, 3, 3, 3, 3, 3, 3, 3, 3, 3, 3, 3, 3, 3, 3, 3, 3, 3] p=1.0"]
S4 -> S3 [label="2 [1, 4, 1, 4, 1, 4, 1, 1, 4, 1, 4, 1, 4, 1, 3, 1, 4, 1, 4, 1, 4, 3, 1, 4, 1, 4, 1, 4, 1, 4, 1, 1, 4, 1, 3, 1, 4, 1, 1, 4, 1, 4, 1, 4, 1, 4, 1, 4, 1, 3, 1, 4, 1, 4, 1, 4, 1, 3, 1, 4, 1, 4, 1, 1, 3, 1, 3, 1, 4, 1, 4, 1, 4, 1, 4, 1, 4, 1, 4, 1, 1, 4, 1, 3, 1, 1, 4, 1, 4, 1, 4, 1, 1, 4, 1, 4, 1, 4, 1, 3, 1, 4, 1, 4, 1, 4, 3, 1, 4, 1, 4, 1, 4, 1, 4, 1, 1, 4, 1, 3, 1, 4, 1, 1, 4, 1, 4, 1, 4, 1, 4, 1, 4, 1, 3, 1, 4, 1, 4, 1, 4, 1, 3, 1, 4, 1, 4, 1, 1, 3, 1, 3, 1, 4, 1, 4, 1, 4, 1, 4, 1, 4, 1, 4, 1, 1, 4, 1, 3, 4, 4, 4, 1, 4, 4, 4, 3, 4, 4, 4, 4, 4, 4, 4, 1, 4, 3, 4, 1, 4, 4, 4, 4, 4, 3, 4, 4, 4, 3, 4, 4, 1, 3, 3, 4, 4, 4, 4, 4, 4, 1, 4, 3, 4, 4, 4, 4, 1, 4, 4, 4, 3, 4, 4, 4, 4, 4, 4, 4, 1, 4, 3, 4, 1, 4, 4, 4, 4, 4, 3, 4, 4, 4, 3, 4, 4, 1, 3, 3, 4, 4, 4, 4, 4, 4, 1, 4, 3, 4, 4, 4, 3, 4, 4, 4, 4, 3, 4, 4, 4, 1, 4, 4, 3, 4, 4, 4, 4, 4, 4, 4, 1, 3, 4, 1, 4, 4, 4, 4, 3, 4, 4, 4, 3, 4, 4, 1, 3, 4, 4, 4, 4, 4, 4, 1, 3, 4, 4, 1, 4, 4, 3, 4, 4, 4, 4, 4, 4, 4, 1, 3, 4, 1, 4, 4, 4, 4, 3, 4, 4, 4, 3, 4, 4, 1, 3, 4, 4, 4, 4, 4, 4, 1, 3, 4, 4, 1, 4, 4, 3, 4, 4, 4, 4, 4, 4, 4, 1, 3, 4, 1, 4, 4, 4, 4, 3, 4, 4, 4, 3, 4, 4, 1, 3, 4, 4, 4, 4, 4, 4, 1, 3, 4, 4, 1, 4, 4, 3, 4, 4, 4, 4, 4, 4, 4, 1, 3, 4, 1, 4, 4, 4, 4, 3, 4, 4, 4, 3, 4, 4, 1, 3, 4, 4, 4, 4, 4, 4, 1, 3, 4, 4, 1, 4, 4, 3, 4, 4, 4, 4, 4, 4, 4, 1, 3, 4, 1, 4, 4, 4, 4, 3, 4, 4, 4, 3, 4, 4, 1, 3, 4, 4, 4, 4, 4, 4, 1, 3, 4, 4, 4, 3, 4, 4, 4, 4, 3, 4, 4, 4, 4, 3, 4, 1, 1, 1, 1, 1, 1, 1, 1, 1, 1, 1, 1, 1, 1, 1, 1, 1, 1, 1, 1, 1, 1, 1, 1, 1, 1, 1, 1, 1, 1, 1, 1, 1, 1, 1, 1, 1, 1, 1, 1, 1, 1, 1, 1, 1, 1, 1, 1, 1, 1, 1, 1, 1, 1, 1, 1, 1, 1, 1, 1, 1, 1, 1, 1, 1, 1, 1, 1, 1, 1, 1, 1, 1, 1, 1, 1, 1, 1, 1, 1, 1, 1, 1, 1, 1, 1, 1, 1, 1, 1, 1, 1, 1, 1, 1, 1, 1, 1, 1, 1, 1, 1, 1, 1, 1, 1, 1, 1, 1, 1, 1, 1, 1, 1, 1, 1, 1, 1, 1, 1, 1, 1, 1, 1, 1, 1, 1, 1, 1, 1, 1, 1, 1, 1, 1, 1, 1, 1, 1, 1, 1, 1, 1, 1, 1, 1, 1, 1, 1, 1, 1, 1, 1, 1, 1, 1, 1, 1, 1, 1, 1, 1, 1, 1, 1, 1, 1, 1, 1, 1, 1, 1, 1, 1, 1, 1, 1, 1, 1, 1, 1, 1, 1, 1, 1, 1, 1, 1, 1, 1, 1, 1, 1, 1, 1, 1, 1, 1, 1, 1, 1, 1, 1, 1, 1, 1, 1, 1, 1, 1, 1, 1, 1, 1, 1, 1, 1, 1, 1, 1, 1, 1, 1, 1, 1, 1, 1, 1, 3, 3, 3, 3, 3, 3, 1, 1, 1, 1, 1, 1, 1, 1, 1, 3, 1, 1, 1, 1, 1, 1, 1, 1, 1, 1, 1, 1, 1, 1, 1, 1, 1, 1, 1, 1, 1, 1, 1, 1, 1, 1, 1, 1, 1] p=1.0"]
S10 -> S11 [label="2 [7, 7, 7, 7, 7, 7, 7, 7, 7, 7, 7, 7, 7, 7, 7, 7, 7, 7, 7, 7, 7, 7, 7, 7, 7, 7, 7, 7, 7, 7, 7, 7, 7, 7, 7, 7, 7, 7, 7, 7, 7, 7, 7, 7, 7, 7, 7, 7, 7, 7, 7, 7, 7, 7, 7, 7, 7, 7, 7, 7, 7, 7, 7, 7, 7, 7, 7, 7, 7, 7, 7, 7, 7, 7, 7, 7, 7, 7, 7, 7, 7, 7, 7, 7, 7, 7, 7, 7, 7, 7, 7, 7, 7, 7, 7, 7, 7, 7, 7, 7, 7, 7, 7, 7, 7, 7, 7, 7, 7, 7, 7, 7, 7, 7, 7, 7, 7, 7, 7, 7, 7, 7, 7, 7, 7, 7, 7, 7, 7, 7, 7, 7, 7, 7, 7, 7, 7, 7, 7, 7, 7, 7, 7, 7, 7, 7, 7, 7, 7, 7, 7, 7, 7, 7, 7, 7, 7, 7, 7, 7, 7, 7, 7, 7, 7, 7, 7, 7, 7, 7, 7, 7, 7, 7, 7, 7, 7, 7, 7, 7, 7, 7, 7, 7, 7, 7, 7, 7, 7, 7, 7, 7, 7, 7, 7, 7, 7, 7, 7, 7, 7, 7, 7, 7, 7, 7, 7, 7, 7, 7, 7, 7, 7, 7, 7, 7, 7, 7, 7, 7, 7, 7, 7, 7, 7, 7, 7, 7, 7, 7, 7, 7, 7, 7, 7, 7, 7, 7, 7, 7, 7, 7, 7, 7, 7, 7, 7, 7, 7, 7, 7, 7, 7, 7, 7, 7, 7, 7, 7, 7, 7, 7, 7, 7, 7, 7, 7, 7, 7, 7, 7, 7, 7, 7, 7, 7, 7, 7, 7, 7, 7, 7, 7, 7, 7, 7, 7, 7, 7, 7, 7, 7, 7, 7, 7, 7, 7, 7, 7, 7, 7, 7, 7, 1, 1, 1, 1, 1, 1, 1, 1, 7, 7, 7, 7, 7, 7, 7, 7, 7, 7, 1, 7, 7, 7, 7, 7, 7, 7, 7, 7, 7, 7, 7, 7, 7, 7, 7, 7, 7, 7, 7, 7, 7, 7, 7, 7, 7, 7, 7, 7] p=0.97"]
S10 -> S8 [label="4 [6, 6, 6, 6, 6, 6, 6, 6, 6] p=0.03"]
S11 -> S4 [label="3 [1, 1, 1, 1, 1, 1, 1, 1, 1, 1, 1, 1, 1, 1, 1, 1, 1, 1, 1, 1, 1, 1, 1, 1, 1, 1, 1, 1, 1, 1, 1, 1, 1, 1, 1, 1, 1, 1, 1, 1, 1, 1, 1, 1, 1, 1, 1, 1, 1, 1, 1, 1, 1, 1, 1, 1, 1, 1, 1, 1, 1, 1, 1, 1, 1, 1, 1, 1, 1, 1, 1, 1, 1, 1, 1, 1, 1, 1, 1, 1, 1, 1, 1, 1, 1, 1, 1, 1, 1, 1, 1, 1, 1, 1, 1, 1, 1, 1, 1, 1, 1, 1, 1, 1, 1, 1, 1, 1, 1, 1, 1, 1, 1, 1, 1, 1, 1, 1, 1, 1, 1, 1, 1, 1, 1, 1, 1, 1, 1, 1, 1, 1, 1, 1, 1, 1, 1, 1, 1, 1, 1, 1, 1, 1, 1, 1, 1, 1, 1, 1, 1, 1, 1, 1, 1, 1, 1, 1, 1, 1, 1, 1, 1, 1, 1, 1, 1, 1, 1, 1, 1, 1, 1, 1, 1, 1, 1, 1, 1, 1, 1, 1, 1, 1, 1, 1, 1, 1, 1, 1, 1, 1, 1, 1, 1, 1, 1, 1, 1, 1, 1, 1, 1, 1, 1, 1, 1, 1, 1, 1, 1, 1, 1, 1, 1, 1, 1, 1, 1, 1, 1, 1, 1, 1, 1, 1, 1, 1, 1, 1, 1, 1, 1, 1, 1, 1, 1, 1, 1, 1, 1, 1, 1, 1, 1, 1, 1, 1, 1, 1, 1, 1, 1, 1, 1, 1, 1, 1, 1, 1, 1, 1, 1, 1, 1, 1, 5, 5, 5, 5, 5, 5, 5, 1, 1, 1, 1, 1, 1, 1, 1, 1, 5, 1, 1, 1, 1, 1, 1, 1, 1, 1, 1, 1, 1, 1, 1, 1, 1, 1, 1, 1, 1, 1, 1, 1, 1, 1, 1, 1, 1, 1] p=1.0"]