S0 -> S1 [label="1 [0, 0, 0, 0, 0, 0, 0, 0, 0, 0, 0, 0, 0, 0, 0, 0, 0, 0, 0, 0, 0, 0, 0, 0, 0, 0, 0, 0, 0, 0, 0, 0, 0, 0, 0, 0, 0, 0, 0, 0, 0, 0, 0, 0, 0, 0, 0, 0, 0, 0, 0, 0, 0, 0, 0, 0, 0, 0, 0, 0, 0, 0, 0, 0, 0, 0, 0, 0, 0, 0, 0, 0, 0, 0, 0, 0, 0, 0, 0, 0, 0, 0, 0, 0] p=0.26"]
S0 -> S12 [label="3 [0, 0, 0, 0, 0, 0, 0, 0, 0, 0, 0, 0, 0, 0, 0, 0, 0, 0, 0, 0, 0, 0, 0, 0, 0, 0, 0, 0, 0, 0, 0, 0, 0, 0, 0, 0, 0, 0, 0, 0, 0, 0, 0, 0, 0, 0, 0, 0, 0, 0, 0, 0, 0, 0, 0, 0, 0, 0, 0, 0, 0, 0, 0, 0, 0, 0, 0, 0, 0, 0, 0, 0, 0, 0, 0, 0, 0, 0, 0, 0, 0, 0, 0, 0, 0, 0, 0, 0, 0, 0, 0, 0, 0, 0, 0, 0, 0, 0, 0, 0, 0, 0, 0, 0, 0, 0, 0, 0, 0, 0, 0, 0, 0, 0, 0, 0, 0, 0, 0, 0, 0, 0] p=0.37"]
S0 -> S23 [label="2 [0, 0, 0, 0, 0, 0, 0, 0, 0, 0, 0, 0, 0, 0, 0, 0, 0, 0, 0, 0, 0, 0, 0, 0, 0, 0, 0, 0, 0, 0, 0, 0, 0, 0, 0, 0, 0, 0, 0, 0, 0, 0, 0, 0, 0, 0, 0, 0, 0, 0, 0, 0, 0, 0, 0, 0, 0, 0, 0, 0, 0] p=0.19"]
S0 -> S78 [label="4 [0, 0, 0, 0, 0, 0, 0, 0, 0, 0, 0, 0, 0, 0, 0, 0, 0, 0, 0, 0, 0, 0, 0, 0, 0, 0, 0, 0, 0, 0, 0, 0, 0, 0, 0, 0, 0, 0, 0, 0, 0, 0, 0, 0, 0, 0, 0, 0, 0, 0, 0, 0, 0, 0, 0, 0, 0, 0, 0, 0, 0] p=0.19"]
S0 -> S2 [label="5 [0] p=0.0"]
S1 -> S2 [label="3 [2, 7, 2, 7, 2, 7, 2, 7, 2, 7, 2, 7, 7, 2, 7, 2, 7, 2, 7, 2, 7, 2, 7, 2, 7, 2, 7, 7, 2, 7, 7, 2, 7, 7, 2, 7, 2, 6, 2, 7, 2, 7, 2, 7, 2, 6, 2, 7, 2, 7, 2, 7, 2, 7, 2, 7, 2, 7, 2, 7, 7, 2, 7, 2, 7, 7, 2, 6, 2, 7, 2, 7, 2, 7, 2, 2, 2, 2, 2, 7, 7, 7, 7, 7, 7, 7, 7, 7, 7, 2, 2, 2, 2, 2, 2, 2, 2, 2, 6, 6, 2, 2, 2, 2, 2, 2, 2, 2, 7, 7, 7, 6, 6, 2, 2, 2, 2, 2, 2, 2, 2, 7, 7, 7, 7, 6, 6, 2, 2, 2, 2, 2, 2, 2, 2, 2, 2, 7, 7, 7, 7, 7, 7, 6, 6, 2, 2, 2, 2, 2, 2, 2, 2, 2, 2, 2, 7, 7, 7, 2, 2, 2, 2, 2, 2, 7, 7, 7, 2, 6, 6, 2, 2, 7, 2, 2, 2, 2, 2, 2, 2, 2, 2, 2, 2, 2, 2, 2, 2, 2, 7, 7, 2, 2, 2, 2, 2, 2, 7, 7, 7, 2, 2, 2, 7, 6, 7, 6, 6, 2, 2, 2, 2, 2, 2, 2, 2, 7, 7, 2, 7, 7, 7, 2, 2, 2, 7, 7, 7, 2, 2, 2, 2, 7, 2, 7, 7, 6, 7, 2, 2, 2, 2, 2, 2, 2, 2, 2, 2, 2, 2, 2, 7, 2, 2, 2, 2, 2, 2, 2, 2, 2, 2, 2, 2, 2, 2, 2, 2, 2, 2, 2, 2, 2, 2, 2, 2, 2, 2, 2, 2, 2, 2, 2, 2, 2, 2, 2, 2, 2, 2, 2, 2, 2, 2, 2, 2, 2, 2, 2, 2, 2, 2, 2, 2, 2, 2, 2, 2, 2, 2, 2, 2, 2, 2, 2, 2, 2, 2, 2, 7, 7, 7, 7, 7, 7, 7, 7, 7, 7, 7, 7, 7, 7, 7, 7, 7, 7, 7, 7, 7, 7, 7, 7, 7, 7, 7, 7, 7, 7, 7, 7, 7, 7, 7, 7, 7, 7, 7, 7, 7, 7, 2, 2, 2, 2, 2, 2, 2, 2, 2, 2, 2, 7, 2, 2, 2, 2, 2, 2, 2, 2, 2, 2, 2, 2, 2, 2, 2, 2, 2, 2, 2, 2, 2, 2, 2, 2, 2, 2, 2, 2, 2, 2, 2, 2, 2, 2, 2, 2, 2, 2, 2, 2, 2, 7, 7, 7, 7, 7, 7, 7, 7, 7, 7, 7, 7, 7, 7, 7, 7, 2, 2, 7, 7, 7, 7, 7, 7, 7, 7, 7, 7, 7, 7, 7, 7, 7, 7, 7, 7, 7, 7, 7, 7, 7, 7, 7, 7, 7, 7, 7, 7, 7, 7, 7, 7, 7, 7, 7, 7, 7, 7, 7, 7, 7, 7, 7, 7, 7, 7, 7, 7, 7, 7, 7, 7, 7, 7, 7, 7, 7, 7, 7, 7, 7, 7, 7, 7, 7, 7, 7, 7, 7, 7, 7, 7, 7, 7, 7, 7, 7, 7, 7, 7, 7, 7, 7, 7, 7, 7, 7, 7, 7, 7, 7, 6, 6, 6, 6, 6, 6, 6, 2, 2, 2, 2, 2, 2, 2, 7, 2, 7, 2, 7, 2, 7, 2, 7, 2, 7, 2, 7, 7, 2, 7, 7, 2, 7, 7, 2, 7, 2, 6, 2, 7, 2, 7, 2, 7, 2, 6, 2, 7, 2, 7, 2, 7, 2, 7, 2, 7, 2, 7, 2, 7, 7, 2, 7, 7, 2, 6, 2, 7, 2, 7, 2, 7, 2, 2, 2, 2, 2, 2, 2, 2, 2, 2, 2, 2, 2, 2, 2, 2, 2, 7, 7, 7, 7, 7, 7, 7, 7, 7, 7, 7, 7, 7, 7, 2, 2, 2, 2, 2, 2, 2, 2, 2, 2, 2, 2, 2, 2, 2, 2, 2, 2, 2, 2, 7, 7, 7, 7, 7, 7, 7, 7, 7, 7, 7, 7, 7, 7, 7, 7, 6, 6, 6, 6, 6, 6, 1, 1, 7, 7, 7, 7, 1, 1, 7, 7, 7, 7, 1, 1, 7, 7, 7, 7, 1, 7, 7, 1, 1, 1, 1, 1, 1, 1, 1, 1, 1, 1, 1, 1, 1, 1, 1, 1, 1, 1, 1, 1, 1, 1, 1, 1, 1, 1, 1, 1, 1, 1, 1, 1, 1, 1, 1, 1, 1, 1, 1, 1, 1, 1, 1, 1, 1, 1, 1, 1, 7, 7, 2, 2, 2, 2, 2, 2, 2, 2, 1, 2, 2, 2, 2, 2, 7, 1, 1, 1] p=0.88"]
S1 -> S2 [label="4 [2, 2, 2, 2, 2, 2, 2, 2, 2, 2, 2, 2, 2, 2, 2, 2, 2, 2] p=0.02"]
S1 -> S1 [label="2 [1, 1, 1, 1, 1, 1, 1, 1, 1, 1, 1, 1, 1, 1, 1, 1, 1, 1, 1, 1, 1, 1, 1, 1, 1, 1, 1, 1, 1, 1, 1, 1, 1, 1, 1, 1, 1, 1, 1, 1, 1, 1, 1, 1, 1, 1, 1, 1, 1, 1, 1, 1, 1, 1, 1, 1, 1, 1, 1, 1, 1, 1, 1, 1, 1, 1, 1, 1, 1, 1, 1, 1, 1, 1, 1, 1, 1, 1, 1, 1, 1, 1, 1] p=0.1"]
S12 -> S13 [label="2 [4, 1, 4, 1, 4, 4, 1, 1, 1, 1, 1, 1, 1, 1, 1, 4, 1, 1, 4, 1, 1, 1, 1, 4, 1, 4, 1, 1, 1, 1, 8, 1, 1, 1, 4, 1, 4, 1, 1, 1, 1, 1, 1, 1, 4, 1, 1, 1, 4, 1, 1, 1] p=0.43"]
S12 -> S34 [label="1 [3, 3, 1, 1, 3, 1, 1, 8, 1, 8, 8, 8, 1, 3, 1, 3, 1, 1, 8, 3, 3, 1, 8, 8, 1, 1, 1, 8, 1, 3, 1, 1, 1, 8, 8, 8, 3, 1, 8, 8] p=0.33"]
S12 -> S68 [label="4 [1, 1, 6, 6, 1, 6, 1, 1, 1, 6, 6, 1, 6, 6, 1, 1, 6, 6, 6, 1, 6, 6, 6, 1, 6, 2, 1, 1, 1, 1] p=0.25"]
S23 -> S24 [label="3 [1, 3, 1, 1, 1, 1, 2, 1, 3, 1, 1, 1, 3, 3, 1, 1, 1, 1, 1, 1, 3, 1, 1, 3, 1, 3, 3] p=0.44"]
S23 -> S2 [label="4 [3, 2, 3, 3, 3, 3, 3, 3, 3, 3, 3, 3, 3, 3, 2, 3, 3, 3, 2, 3, 3, 3, 3, 3, 3, 3, 3, 3, 3, 3, 3] p=0.51"]
S23 -> S1 [label="1 [1, 1, 1] p=0.05"]
S78 -> S1 [label="1 [3, 4, 4, 4, 4, 4, 2, 4, 2, 4, 2, 4, 4, 3, 4, 4, 3, 3, 4, 4, 4, 4, 4, 4, 4, 4, 4, 4, 4, 4, 4, 4, 3, 4, 4, 2, 3, 2] p=0.63"]
S78 -> S174 [label="3 [1, 1, 1, 1, 1, 1, 1, 1, 1, 1, 1, 1, 1, 1, 1, 1, 1, 1, 1, 1, 1] p=0.35"]
S78 -> S2 [label="5 [3] p=0.02"]
S2 -> S2 [label="3 [1, 1, 1, 1, 1, 1, 1, 1, 1, 1, 1, 1, 1, 1, 1, 1, 1, 1, 1, 1, 1, 1, 1, 1, 1, 1, 1, 1, 1, 1, 1, 1, 1, 1, 1, 1, 1, 1, 1, 1, 1, 1, 1, 1, 1, 1, 1, 1, 1, 1, 1, 1, 1, 1, 1, 1, 1, 1, 1, 1, 1, 1, 1, 1, 1, 1, 1, 1, 1, 1, 1, 1, 1, 1, 1, 1, 1, 1, 1, 1, 1, 1, 1, 1, 1, 1, 1, 1, 1, 1, 1, 1, 1, 1, 1, 1, 1, 1, 1, 1, 1, 1, 1, 1, 1, 1, 1, 1, 1, 1, 1, 1, 1, 1, 1, 1, 1, 1, 3, 1, 1, 1, 2, 1, 3, 3, 3, 1, 1, 1, 3, 3, 1, 3, 3, 1, 1, 1, 1, 1, 1, 3, 3, 3, 3, 3, 3, 3, 3, 2, 3, 3, 1, 1, 1, 3, 1, 3, 3, 1, 1, 1, 1, 1, 1, 1, 1, 1, 1, 1, 1, 1, 1, 1, 1, 1, 1, 1, 1, 1, 1, 1, 2, 2, 3, 2, 3, 1, 1, 1, 1, 1, 1, 1, 1, 1, 1, 1, 3, 3, 1, 1, 3, 3, 3, 3, 3, 3, 3, 3, 3, 3, 3, 3, 3, 3, 3, 3, 3, 1, 2, 1, 1, 1, 1, 1, 3, 1, 3, 3, 1, 1, 1, 1, 1, 1, 1, 1, 1, 1, 3, 1, 3, 1, 1, 3, 1, 3, 1, 1, 1, 1, 1, 3, 1, 1, 1, 1, 1, 1, 1, 1, 1, 1, 1, 1, 1, 1, 1, 1, 1, 1, 1, 1, 1, 1, 1, 1, 1, 1, 1, 1, 1, 1, 1, 1, 1, 1, 1, 1, 1, 1, 1, 1, 1, 1, 1, 3, 3, 3, 1, 1, 3, 1, 1, 1, 1, 1, 1, 1, 1, 1, 1, 1, 1, 1, 1, 1, 1, 1, 1, 1, 1, 1, 1, 1, 1, 1, 1, 1, 1, 1, 1, 1, 1, 1, 1, 1] p=0.18"]
S2 -> S2 [label="2 [1, 1, 1, 1, 1, 1, 1, 1, 1, 1, 1, 1, 4, 1, 4, 1, 4, 4, 1, 1, 1, 1, 1, 1, 1, 1, 1, 4, 1, 1, 1, 1, 1, 1, 1, 4, 1, 1, 1, 8, 1, 1, 1, 4, 1, 4, 1, 1, 1, 1, 1, 1, 1, 1, 1, 4, 1, 1, 1, 4, 4, 4, 4, 8, 4, 8, 4, 8, 4, 8, 1, 1, 1, 1, 1, 1, 1, 1, 1, 1, 1, 1, 1, 1, 1, 1, 1, 1, 1, 1, 1, 1, 1, 1, 1, 1, 1, 1, 4, 4, 4, 1, 1, 4, 8, 1, 1, 1, 1, 1, 1, 4, 4, 4, 4, 1, 4, 8, 1, 1, 1, 1, 1, 1, 1, 4, 4, 4, 4, 4, 4, 4, 4, 4, 4, 4, 4, 4, 4, 4, 4, 4, 8, 4, 4, 4, 4, 4, 4, 1, 1, 1, 1, 1, 1, 1, 1, 1, 1, 1, 1, 1, 1, 1, 1, 1, 1, 1, 1, 1, 1, 1, 1, 1, 1, 1, 1, 1, 1, 1, 1, 1, 1, 1, 4, 1, 4, 4, 4, 4, 4, 4, 4, 4, 4, 8, 4, 4, 1, 1, 1, 1, 1, 1, 1, 1, 1, 1, 1, 1, 1, 1, 1, 1, 1, 1, 1, 1, 1, 1, 1, 1, 1, 1, 1, 1, 1, 1, 1, 1, 1, 1, 1, 1, 1, 1, 1, 1, 1, 1, 1, 1, 1, 1, 1, 1, 1, 1, 1, 1, 1, 1, 1, 1, 1, 1, 1, 1, 1, 1, 1, 1, 1, 1, 1, 1, 1, 1, 1, 1, 1, 1, 1, 1, 1, 1, 1, 1, 1, 1, 1, 1, 1, 1, 1, 1, 1, 1, 1, 1, 1, 1, 1, 1, 1, 1, 1, 1, 1, 4, 1, 1, 1, 1, 1, 4, 1, 1, 1, 1, 1, 1, 1, 4, 1, 1, 1, 1, 8, 1, 1, 1, 4, 1, 4, 1, 1, 1, 1, 1, 1, 1, 1, 1, 4, 1, 1, 1, 4, 4, 4, 4, 4, 1, 1, 1, 1, 1, 4, 4, 4, 4, 1, 1, 1, 1, 1, 1, 1, 1, 1, 1, 1, 1, 1, 1, 1, 1, 1, 1, 1, 1, 1, 1, 4, 4, 1, 1, 1, 1, 4, 4, 1, 1, 1, 1, 4, 4, 1, 1, 1, 1, 4, 1, 1, 4, 4, 4, 4, 4, 4, 4, 4, 4, 4, 4, 4, 4, 4, 4, 4, 4, 4, 4, 4, 1, 4, 4, 4] p=0.22"]
S2 -> S1 [label="1 [3, 3, 3, 3, 3, 3, 3, 3, 3, 3, 3, 3, 3, 3, 3, 3, 3, 3, 3, 3, 3, 3, 3, 3, 3, 3, 3, 3, 3, 3, 3, 3, 3, 3, 1, 1, 1, 1, 1, 1, 1, 1, 1, 1, 4, 4, 4, 1, 1, 2, 2, 2, 2, 1, 1, 1, 4, 4, 4, 2, 2, 2, 2, 3, 3, 3, 1, 1, 1, 4, 4, 4, 2, 2, 2, 2, 3, 3, 3, 1, 1, 1, 4, 4, 1, 4, 4, 4, 2, 2, 2, 2, 1, 1, 3, 3, 3, 1, 1, 1, 4, 4, 1, 2, 4, 4, 4, 4, 4, 4, 4, 1, 1, 1, 4, 4, 2, 2, 2, 2, 3, 3, 1, 4, 1, 1, 4, 1, 3, 2, 4, 4, 4, 4, 4, 4, 4, 4, 4, 4, 4, 4, 4, 4, 4, 4, 4, 4, 4, 4, 4, 1, 1, 4, 4, 2, 2, 2, 2, 3, 3, 1, 4, 4, 1, 3, 1, 1, 1, 1, 1, 3, 3, 3, 2, 2, 3, 2, 4, 4, 4, 4, 1, 1, 2, 8, 8, 8, 2, 2, 2, 3, 3, 1, 4, 4, 4, 1, 8, 3, 8, 3, 1, 1, 4, 4, 4, 4, 4, 3, 4, 3, 3, 3, 3, 2, 3, 4, 4, 4, 4, 4, 1, 4, 4, 4, 4, 4, 4, 4, 4, 4, 4, 4, 4, 4, 4, 4, 4, 4, 4, 4, 4, 4, 4, 4, 3, 3, 1, 1, 4, 4, 4, 4, 4, 4, 4, 1, 4, 8, 4, 4, 4, 4, 4, 3, 4, 1, 1, 1, 1, 1, 1, 1, 1, 1, 1, 1, 1, 1, 1, 1, 1, 1, 1, 1, 1, 1, 1, 1, 1, 1, 1, 1, 1, 1, 1, 1, 1, 1, 1, 1, 1, 1, 1, 1, 1, 1, 1, 1, 1, 1, 1, 1, 4, 3, 4, 3, 4, 4, 4, 4, 4, 4, 4, 4, 4, 4, 4, 4, 4, 4, 4, 4, 4, 4, 2, 2, 1, 4, 4, 4, 4, 1, 1, 1, 1, 1, 1, 1, 1, 1, 1, 1, 1, 1, 1, 1, 1, 4, 4, 4, 4, 4, 3, 3, 3, 3, 3, 1, 1, 1, 1, 1, 8, 8, 8, 8, 8, 8, 8, 8, 8, 8, 8, 8, 8, 8, 8, 8, 1, 8, 8, 8, 8, 1, 8, 8, 1, 8, 8, 8, 8, 8, 8, 8, 8, 8, 8, 8, 1, 8, 8, 8, 8, 8, 8, 8, 8, 8, 8, 8, 8, 8, 8, 8, 8, 8, 8, 8, 8, 8, 8, 8, 8, 1, 1, 1, 8, 8, 8, 8, 8, 8, 8, 8, 8, 8, 8, 8, 1, 1, 1, 1, 1, 1, 1, 1, 1, 1, 4, 4, 4, 4, 4, 4, 2, 1, 1, 1, 1, 1, 8, 2, 2, 1, 4, 8, 2, 8, 4, 8, 2, 1, 4, 3, 4, 1, 3, 8, 3, 4, 1, 4, 1, 3, 8, 3, 3, 4, 3, 1, 4, 1, 4, 8, 4, 8, 4, 1, 1, 4, 1, 4, 1, 4, 8, 4, 1, 4, 3, 4, 1, 4, 1, 1, 1, 4, 8, 3, 8, 4, 3, 4, 1, 2, 1, 3, 8, 2, 8, 8, 8, 8, 8, 3, 3, 3, 1, 1, 1, 1, 1, 1, 1, 1, 1, 3, 4, 4, 4, 4, 4, 4, 3, 4, 4, 3, 3, 3, 8, 8, 8, 8, 8, 8, 8, 8, 8, 8, 8, 8, 8, 8, 8, 8, 3, 3, 3, 1, 1, 1, 1, 1, 1, 8, 8, 4, 4, 4, 4, 4, 4, 4, 4, 4, 4, 4, 4, 4, 4, 4, 4, 4, 4, 4, 4, 4, 4, 4, 4, 4, 4, 4, 4, 4, 4, 4, 4, 4, 4, 4, 4, 4, 4, 4, 4, 4, 4, 4, 4, 4, 4, 4, 4, 4, 4, 4, 4, 4, 4, 4, 4, 4, 4, 4, 4, 4, 4, 4, 4, 4, 4, 4, 4, 4, 4, 4, 4, 4, 4, 4, 4, 4, 4, 4, 4, 4, 4, 4, 4, 4, 4, 8, 8, 8, 8, 3, 4, 3, 3, 3, 3, 3, 3, 1, 4, 3, 3, 3, 8, 8, 8, 4, 4, 4, 4, 4, 4, 4, 4, 8, 8, 8] p=0.37"]
S2 -> S2 [label="4 [1, 1, 1, 1, 1, 1, 1, 1, 1, 1, 1, 1, 1, 1, 3, 3, 3, 3, 3, 3, 3, 3, 3, 3, 3, 3, 3, 3, 3, 3, 3, 3, 3, 3, 3, 3, 3, 3, 3, 3, 3, 3, 3, 3, 3, 3, 3, 3, 3, 3, 3, 3, 3, 3, 3, 3, 3, 3, 3, 3, 3, 3, 3, 3, 3, 3, 3, 3, 3, 3, 3, 3, 3, 3, 3, 3, 3, 3, 3, 3, 3, 3, 3, 3, 3, 3, 3, 3, 3, 3, 3, 3, 3, 3, 3, 3, 3, 1, 1, 1, 1, 2, 2, 1, 2, 1, 1, 2, 1, 1, 1, 1, 1, 1, 1, 1, 1, 1, 2, 1, 1, 1, 1, 1, 1, 1, 1, 1, 1, 1, 1, 1, 1, 1, 1, 1, 1, 1, 1, 6, 6, 6, 6, 6, 6, 6, 6, 6, 6, 6, 6, 6, 6, 6, 6, 6, 6, 6, 6, 6, 6, 6, 6, 6, 6, 6, 6, 6, 6, 6, 6, 6, 6, 6, 6, 6, 6, 6, 6, 6, 6, 6, 6, 6, 6, 6, 6, 6, 6, 6, 6, 6, 6, 6, 6, 6, 6, 6, 6, 6, 6, 6, 6, 6, 6, 6, 6, 6, 6, 6, 6, 6, 6, 6, 6, 6, 6, 6, 6, 6, 6, 6, 6, 6, 6, 6, 6, 6, 6, 6, 6, 6, 6, 6, 6, 6, 6, 6, 6, 6, 1, 1, 3, 3, 3, 3, 3, 3, 3, 3, 3, 3, 3, 3, 3, 3, 3, 3, 3, 3, 3, 3, 3, 3, 3, 3, 3, 3, 3, 3, 3, 3, 3, 3, 3, 3, 3, 3, 3, 3, 3, 3, 3, 3, 3, 3, 3, 3, 3, 3, 3, 3, 3, 3, 3, 3, 3, 3, 3, 3, 3, 3, 3, 6, 1, 1, 1, 1, 1, 1, 1, 1, 1, 1, 1, 1, 1, 6, 1, 3, 1, 3, 3, 1, 6, 3, 3, 6, 1, 3, 6, 3, 1, 1, 3, 6, 3, 3, 3, 6, 3, 6, 3, 3, 1, 3, 3, 6, 3, 6, 3, 6, 3, 1, 3, 3, 6, 2, 1, 1, 3, 1, 1, 6, 6, 6, 6, 6, 6, 6, 6, 1, 1, 3, 3, 3, 1, 1, 1, 1, 2, 2, 1, 1, 1, 1, 3, 3, 3, 3, 3, 3, 3, 3, 3, 3, 3, 3, 3, 3, 3, 3, 3, 3, 3, 3, 3, 3, 3, 6, 6, 6, 6, 6, 6, 6, 1, 6, 6, 6, 6, 6, 6, 6, 6, 1, 1, 1, 1, 1, 1, 1, 1, 1, 1, 1, 1, 1, 6, 6, 6] p=0.23"]
S2 -> S2 [label="5 [3, 3, 3, 3, 3, 3, 3, 3, 3, 3] p=0.01"]
S13 -> S14 [label="3 [1, 3, 1, 1, 1, 2, 1, 3, 1, 3, 3, 1, 1, 1, 1, 3, 1, 3, 1, 3, 3] p=0.4"]
S13 -> S2 [label="4 [3, 3, 3, 3, 3, 3, 3, 3, 3, 3, 3, 3, 3, 3, 3, 3, 3, 3, 3, 3, 3, 3, 3, 3, 3, 3, 3, 3] p=0.54"]
S13 -> S1 [label="1 [1, 1, 1] p=0.06"]
S24 -> S15 [label="1 [3, 3, 3, 8, 3, 3, 3, 3, 3, 8, 3] p=0.41"]
S24 -> S51 [label="4 [1, 1, 1, 1, 6, 1, 1, 1, 1, 2, 1, 1, 1] p=0.48"]
S24 -> S574 [label="2 [4, 4, 4] p=0.11"]
S34 -> S16 [label="3 [7, 7, 7, 7, 7, 7, 7, 7, 7, 7, 7, 7, 7, 7, 7, 7, 7, 7, 7, 7, 7, 7, 7, 7, 7, 7, 7, 7, 7, 7, 7, 7, 7, 7, 7, 7, 7] p=0.93"]
S34 -> S18 [label="2 [1, 1, 1] p=0.07"]
S68 -> S1 [label="1 [3, 2, 4, 2, 2, 3, 3, 3, 3, 2, 3, 2] p=0.41"]
S68 -> S165 [label="3 [1, 1, 1, 1, 1, 1, 1, 1, 1, 1, 1, 1, 1, 1, 1, 1, 1] p=0.59"]
S174 -> S15 [label="1 [1, 1, 1, 1, 1, 1, 1, 1, 1, 1, 1, 1, 1, 1, 1] p=0.71"]
S174 -> S2 [label="4 [1, 1, 1, 1] p=0.19"]
S174 -> S2 [label="2 [1, 1] p=0.1"]
S14 -> S15 [label="1 [3, 3, 3, 3, 3, 3, 3, 3, 3] p=0.43"]
S14 -> S51 [label="4 [1, 1, 1, 1, 1, 1, 1, 1, 2, 1, 1, 1] p=0.57"]
S165 -> S15 [label="1 [1, 1, 1, 1, 1, 1, 1, 1, 1, 1, 1, 1, 1, 1, 1] p=0.88"]
S165 -> S2 [label="2 [1, 1] p=0.12"]
S574 -> S2 [label="3 [1, 1, 1, 1, 1] p=1.0"]
S15 -> S16 [label="3 [7, 7, 7, 7, 7, 7, 7, 7, 7, 7, 7, 7, 7, 7, 7, 7, 7, 7, 7, 7, 7, 7, 7, 7, 7, 7, 7, 7, 7, 7, 7, 7, 7, 7, 7, 7, 7, 7, 7, 7, 7, 7, 7, 7, 7, 7, 7, 7, 7, 7] p=1.0"]
S16 -> S17 [label="2 [1, 1, 1, 1, 1, 1, 1, 1, 1, 1, 1, 1, 1, 1, 1, 1, 1, 1, 1, 1, 1, 1, 1, 1, 1, 1, 1, 1, 1, 1, 1, 1, 1, 1, 1, 1, 1, 1, 1, 1, 1, 1, 1, 1, 1, 1, 1, 1, 1, 1, 1, 1, 1, 1, 1, 1, 1, 1, 1, 1, 1, 1, 1, 1, 1, 1, 1, 1, 1, 1, 1, 1, 1, 1, 1, 1, 1, 1] p=0.9"]
S16 -> S168 [label="1 [1, 1, 1, 1, 1, 1, 1, 1, 1] p=0.1"]
S51 -> S52 [label="1 [3, 4, 3, 3, 3, 3, 2, 3, 3, 4, 3, 3, 3, 3, 2, 3] p=0.7"]
S51 -> S2 [label="3 [1, 1, 1, 1, 1, 1, 1] p=0.3"]
S18 -> S2 [label="4 [1, 1, 1, 1, 1, 1, 1, 1, 1, 1, 1, 1, 1, 1, 1, 1, 1, 1, 2, 2, 2, 2, 2, 2, 2, 2, 2, 2, 2, 2] p=1.0"]
S17 -> S18 [label="3 [3, 3, 2, 3, 3, 3, 3, 2, 3, 3, 3, 3, 3, 3, 2, 3, 3, 3] p=0.23"]
S17 -> S2 [label="4 [3, 3, 3, 3, 3, 3, 3, 3, 3, 3, 3, 3, 3, 3, 3, 3, 3, 3, 3, 3, 3, 3, 3, 3, 3, 3, 3, 3, 3, 3, 3, 3, 3, 3, 3, 3, 3, 3, 3, 3, 3, 3, 3, 3, 3, 3, 3, 3, 3, 3, 3, 3, 3, 3, 3, 3, 3, 3, 3, 3] p=0.77"]
S52 -> S53 [label="3 [2, 2, 2, 2, 2, 2, 2, 2, 2, 2, 2, 2] p=0.75"]
S52 -> S1 [label="2 [1, 1, 1, 1] p=0.25"]
S168 -> S18 [label="2 [1, 1, 1, 1, 1, 1, 1, 1, 1] p=1.0"]
S53 -> S54 [label="2 [4, 4, 4, 4] p=0.33"]
S53 -> S1 [label="1 [8, 8, 8, 8, 8, 8, 8, 8] p=0.67"]
S54 -> S55 [label="3 [1, 1, 1, 1] p=1.0"]
S55 -> S1 [label="1 [3, 3] p=0.5"]
S55 -> S574 [label="4 [1, 1] p=0.5"]