S0 -> S1 [label="1 [0, 0, 0, 0, 0, 0, 0, 0, 0, 0, 0, 0, 0, 0, 0, 0, 0, 0, 0, 0, 0, 0, 0, 0, 0, 0, 0, 0, 0, 0, 0, 0, 0, 0, 0, 0, 0, 0, 0, 0, 0, 0, 0, 0, 0, 0, 0, 0, 0, 0, 0, 0, 0, 0, 0, 0, 0, 0, 0, 0, 0, 0, 0, 0, 0, 0, 0, 0, 0, 0, 0, 0, 0, 0, 0, 0, 0, 0, 0, 0, 0, 0, 0, 0] p=0.26"]
S0 -> S12 [label="3 [0, 0, 0, 0, 0, 0, 0, 0, 0, 0, 0, 0, 0, 0, 0, 0, 0, 0, 0, 0, 0, 0, 0, 0, 0, 0, 0, 0, 0, 0, 0, 0, 0, 0, 0, 0, 0, 0, 0, 0, 0, 0, 0, 0, 0, 0, 0, 0, 0, 0, 0, 0, 0, 0, 0, 0, 0, 0, 0, 0, 0, 0, 0, 0, 0, 0, 0, 0, 0, 0, 0, 0, 0, 0, 0, 0, 0, 0, 0, 0, 0, 0, 0, 0, 0, 0, 0, 0, 0, 0, 0, 0, 0, 0, 0, 0, 0, 0, 0, 0, 0, 0, 0, 0, 0, 0, 0, 0, 0, 0, 0, 0, 0, 0, 0, 0, 0, 0] p=0.37"]
S0 -> S23 [label="2 [0, 0, 0, 0, 0, 0, 0, 0, 0, 0, 0, 0, 0, 0, 0, 0, 0, 0, 0, 0, 0, 0, 0, 0, 0, 0, 0, 0, 0, 0, 0, 0, 0, 0, 0, 0, 0, 0, 0, 0, 0, 0, 0, 0, 0, 0, 0, 0, 0, 0, 0, 0, 0, 0, 0, 0, 0, 0, 0] p=0.18"]
S0 -> S78 [label="4 [0, 0, 0, 0, 0, 0, 0, 0, 0, 0, 0, 0, 0, 0, 0, 0, 0, 0, 0, 0, 0, 0, 0, 0, 0, 0, 0, 0, 0, 0, 0, 0, 0, 0, 0, 0, 0, 0, 0, 0, 0, 0, 0, 0, 0, 0, 0, 0, 0, 0, 0, 0, 0, 0, 0, 0, 0] p=0.18"]
S0 -> S1 [label="5 [0] p=0.0"]
S1 -> S1 [label="3 [2, 7, 2, 7, 2, 7, 2, 7, 2, 7, 2, 7, 7, 2, 7, 2, 7, 2, 7, 2, 7, 2, 7, 2, 7, 2, 7, 7, 2, 7, 7, 2, 7, 7, 2, 7, 2, 6, 2, 7, 2, 7, 2, 7, 2, 6, 2, 7, 2, 7, 2, 7, 2, 7, 2, 7, 2, 7, 2, 7, 7, 2, 7, 2, 7, 7, 2, 6, 2, 7, 2, 7, 2, 7, 2, 2, 2, 2, 2, 2, 2, 2, 2, 2, 2, 7, 7, 7, 7, 7, 7, 7, 7, 2, 2, 2, 2, 2, 2, 2, 2, 2, 2, 2, 2, 2, 2, 2, 2, 2, 6, 2, 2, 2, 2, 7, 7, 7, 2, 6, 2, 2, 2, 2, 2, 2, 2, 2, 2, 7, 7, 7, 7, 2, 2, 6, 2, 2, 2, 2, 2, 7, 7, 7, 7, 2, 2, 2, 7, 7, 7, 7, 2, 7, 7, 7, 7, 2, 2, 2, 2, 6, 7, 7, 2, 2, 2, 2, 2, 2, 2, 2, 7, 7, 7, 7, 7, 7, 7, 7, 2, 2, 2, 2, 2, 7, 6, 7, 7, 7, 7, 7, 7, 7, 7, 2, 2, 2, 2, 2, 2, 2, 2, 7, 7, 7, 7, 7, 7, 7, 7, 2, 2, 2, 2, 7, 6, 2, 2, 7, 7, 2, 2, 2, 2, 2, 2, 2, 2, 7, 7, 7, 7, 7, 7, 7, 7, 2, 7, 2, 2, 2, 2, 7, 2, 7, 7, 6, 2, 7, 2, 7, 7, 7, 2, 7, 2, 2, 2, 2, 2, 2, 2, 2, 2, 2, 2, 2, 2, 2, 7, 7, 7, 7, 7, 7, 7, 7, 7, 2, 7, 7, 7, 7, 7, 7, 7, 7, 7, 7, 7, 7, 7, 7, 7, 7, 7, 7, 7, 7, 7, 7, 7, 7, 7, 7, 7, 2, 2, 2, 2, 2, 2, 2, 2, 2, 2, 2, 2, 2, 2, 2, 2, 2, 2, 2, 2, 2, 2, 2, 2, 2, 2, 2, 2, 2, 2, 2, 2, 7, 7, 7, 7, 7, 7, 7, 7, 7, 2, 2, 2, 2, 2, 2, 2, 2, 2, 2, 2, 2, 2, 2, 2, 2, 2, 2, 2, 2, 2, 2, 2, 2, 2, 2, 2, 2, 2, 2, 2, 2, 2, 2, 2, 2, 2, 2, 2, 2, 2, 2, 2, 2, 2, 2, 2, 2, 2, 2, 2, 2, 2, 2, 2, 2, 2, 2, 2, 2, 2, 2, 2, 2, 2, 2, 2, 2, 2, 2, 2, 2, 2, 2, 2, 2, 2, 2, 2, 2, 2, 2, 7, 7, 7, 7, 7, 7, 7, 7, 7, 7, 7, 7, 7, 7, 7, 7, 7, 7, 7, 7, 7, 7, 7, 7, 7, 7, 7, 7, 7, 7, 7, 7, 7, 7, 7, 7, 7, 7, 7, 7, 7, 7, 7, 7, 7, 7, 7, 7, 7, 7, 7, 7, 7, 7, 7, 7, 7, 7, 7, 7, 7, 7, 7, 7, 7, 7, 7, 7, 7, 7, 7, 7, 7, 7, 7, 7, 7, 7, 7, 7, 7, 7, 7, 7, 7, 7, 7, 7, 7, 6, 6, 6, 6, 6, 6, 6, 6, 6, 6, 6, 6, 6, 6, 7, 7, 7, 7, 7, 7, 7, 7, 7, 7, 2, 2, 2, 2, 2, 2, 2, 2, 2, 2, 2, 2, 2, 2, 2, 2, 2, 2, 2, 2, 2, 2, 2, 2, 2, 2, 2, 2, 2, 7, 7, 7, 7, 7, 2, 7, 2, 7, 2, 7, 7, 7, 7, 7, 7, 7, 7, 7, 2, 2, 2, 7, 7, 2, 7, 7, 2, 7, 2, 6, 2, 7, 2, 7, 2, 7, 2, 6, 2, 7, 2, 7, 2, 7, 2, 7, 2, 7, 2, 7, 2, 7, 7, 2, 7, 2, 7, 7, 2, 6, 2, 7, 2, 7, 2, 7, 7, 7, 2, 2, 2, 2, 2, 2, 2, 2, 2, 2, 2, 2, 2, 2, 2, 2, 7, 7, 7, 7, 7, 7, 7, 7, 7, 7, 7, 7, 7, 2, 2, 1, 3, 1, 1, 2, 1, 3, 3, 3, 3, 1, 3, 1, 3, 3, 1, 3, 3, 1, 1, 1, 1, 1, 1, 3, 3, 3, 3, 3, 3, 3, 2, 3, 3, 3, 1, 3, 3, 1, 3, 3, 3, 1, 3, 2, 1, 1, 2, 1, 1, 1, 2, 3, 3, 3, 3, 3, 3, 1, 1, 1, 1, 1, 1, 2, 3, 1, 1, 1, 1, 1, 1, 1, 1, 1, 1, 1, 1, 1, 1, 1, 1, 1, 1, 1, 1, 1, 1, 1, 1, 1, 1, 1, 1, 1, 1, 1, 1, 1, 1, 1, 1, 1, 1, 1, 1, 1, 1, 1, 1, 1, 1, 1, 1, 1, 1, 1, 1, 1, 1, 1, 1, 1, 1, 1, 1, 1, 1, 1, 1, 1, 1, 1, 1, 1, 1, 1, 1, 1, 1, 1, 1, 1, 1, 1, 1, 1, 1, 1, 1, 1, 1, 1, 1, 1, 1, 1, 1, 1, 3, 3, 3, 3, 3, 3, 3, 3, 3, 3, 3, 3, 3, 3, 3, 3, 3, 3, 3, 1, 1, 1, 1, 1, 1, 1, 1, 1, 1, 1, 1, 1, 1, 1, 1, 1, 1, 1, 1, 1, 1, 1, 1, 1, 3, 1, 3, 1, 1, 1, 1, 1, 1, 1, 1, 1, 1, 1, 1, 1, 1, 1, 1, 1, 1, 1, 3, 3, 1, 1, 1, 3, 1, 1, 1, 1, 3, 1, 1, 3, 1, 3, 1, 3, 1, 1, 1, 1, 1, 1, 1, 1, 3, 1, 1, 1, 1, 1, 1, 1, 1, 1, 1, 1, 1, 3, 3, 3, 3, 1, 1, 1, 1, 1, 1, 1, 1, 1, 1, 1, 1, 1, 1, 1, 1, 1, 1, 1, 1, 1, 1, 1, 1, 1, 1, 1, 1, 1, 1, 1, 1, 1, 1, 1, 1, 1, 1, 1, 1, 1, 1, 1, 1, 1, 1, 1, 1, 3, 1, 1, 3, 3, 1, 1, 1, 1, 1, 1, 1, 1, 1, 1, 6, 6, 6, 6, 6, 6, 7, 7, 7, 7, 7, 7, 7, 7, 7, 7, 7, 7, 1, 1, 2, 2, 2, 2, 1, 1, 1, 1, 1, 1, 7, 1, 1, 2, 2, 2, 2, 2, 7, 7, 1, 1, 1, 1, 2, 2, 2, 2, 2, 1, 1, 1, 1, 1, 1, 1, 1, 1, 1, 1, 1, 1, 1, 1, 1, 1] p=0.39"]
S1 -> S1 [label="1 [3, 3, 3, 3, 3, 3, 3, 3, 3, 3, 3, 3, 3, 3, 3, 3, 2, 3, 3, 2, 2, 3, 3, 2, 3, 3, 3, 3, 3, 3, 3, 3, 3, 3, 2, 2, 2, 2, 2, 2, 2, 2, 2, 2, 2, 1, 1, 4, 4, 4, 1, 1, 4, 4, 4, 2, 3, 3, 3, 1, 1, 2, 2, 2, 2, 2, 4, 4, 4, 2, 3, 3, 3, 1, 4, 1, 1, 2, 2, 2, 2, 2, 1, 1, 1, 1, 4, 4, 4, 3, 3, 3, 3, 2, 3, 3, 3, 1, 4, 3, 2, 1, 1, 3, 3, 2, 2, 2, 2, 2, 4, 4, 2, 3, 3, 3, 1, 1, 3, 3, 1, 4, 4, 3, 2, 1, 3, 1, 1, 1, 1, 1, 1, 1, 1, 1, 1, 3, 3, 2, 2, 4, 4, 2, 2, 2, 2, 3, 3, 3, 1, 1, 3, 3, 1, 4, 4, 3, 1, 3, 1, 3, 3, 2, 2, 3, 2, 3, 3, 2, 4, 4, 2, 2, 2, 2, 2, 3, 3, 3, 1, 1, 3, 3, 1, 3, 8, 4, 4, 3, 1, 8, 2, 8, 3, 1, 2, 1, 4, 4, 8, 1, 8, 2, 1, 4, 4, 4, 4, 4, 4, 1, 2, 2, 8, 8, 2, 3, 2, 3, 3, 3, 2, 2, 3, 1, 1, 1, 1, 1, 1, 1, 1, 1, 2, 1, 1, 1, 1, 1, 2, 4, 8, 8, 8, 8, 8, 8, 8, 8, 8, 8, 8, 3, 3, 1, 1, 1, 1, 1, 1, 1, 1, 1, 2, 1, 4, 4, 2, 2, 8, 2, 2, 3, 3, 3, 2, 3, 2, 1, 1, 1, 8, 8, 8, 8, 8, 8, 8, 8, 8, 8, 8, 8, 8, 1, 8, 8, 8, 8, 8, 8, 8, 8, 1, 8, 8, 8, 8, 8, 8, 8, 8, 1, 8, 8, 8, 8, 8, 8, 8, 1, 8, 8, 1, 8, 8, 8, 8, 1, 8, 8, 8, 8, 8, 8, 1, 8, 8, 1, 8, 8, 8, 8, 8, 8, 8, 8, 8, 8, 1, 1, 8, 1, 1, 8, 8, 8, 8, 8, 8, 8, 8, 8, 8, 8, 8, 8, 8, 1, 1, 8, 8, 8, 8, 8, 8, 8, 8, 8, 8, 8, 8, 8, 8, 8, 8, 8, 8, 8, 8, 8, 1, 1, 1, 1, 1, 1, 1, 1, 1, 1, 1, 1, 1, 1, 1, 1, 1, 1, 1, 1, 1, 1, 1, 1, 1, 1, 4, 4, 4, 4, 4, 4, 4, 4, 4, 4, 4, 4, 4, 4, 4, 4, 4, 4, 4, 4, 4, 4, 4, 4, 4, 4, 4, 4, 4, 4, 4, 4, 4, 4, 4, 4, 4, 4, 4, 4, 4, 4, 4, 4, 4, 4, 4, 4, 4, 4, 4, 4, 1, 1, 4, 4, 4, 4, 4, 4, 4, 4, 4, 4, 4, 4, 4, 4, 4, 4, 4, 4, 4, 4, 4, 4, 4, 4, 4, 4, 4, 4, 4, 4, 4, 4, 4, 4, 4, 4, 4, 4, 4, 4, 4, 4, 2, 8, 8, 8, 8, 8, 8, 8, 3, 1, 1, 1, 1, 2, 8, 4, 3, 3, 1, 2, 8, 8, 8, 8, 8, 8, 8, 8, 3, 4, 4, 4, 8, 4, 2, 1, 4, 1, 3, 8, 3, 3, 4, 3, 1, 4, 1, 4, 8, 4, 8, 4, 1, 1, 4, 1, 3, 1, 4, 8, 4, 1, 4, 3, 4, 8, 4, 1, 1, 8, 4, 8, 4, 8, 2, 8, 4, 3, 4, 1, 2, 3, 3, 8, 2, 8, 8, 8, 4, 8, 8, 8, 8, 8, 8, 8, 8, 3, 1, 1, 1, 1, 1, 1, 1, 4, 3, 4, 2, 3, 2, 3, 4, 4, 4, 4, 4, 4, 4, 4, 8, 8, 8, 8, 3, 4, 4, 4, 4, 4, 8, 8, 8, 8, 8, 2, 3, 2, 3, 3, 2, 3, 3, 1, 4, 4, 4, 4, 4, 4, 4, 4, 4, 4, 4, 4, 4, 4, 4, 4, 4, 4, 4, 4, 4, 4, 4, 4, 4, 4, 4, 4, 4, 4, 4, 4, 4, 4, 4, 4, 4, 4, 4, 4, 4, 4, 4, 4, 4, 4, 4, 4, 4, 4, 4, 4, 4, 4, 4, 4, 4, 4, 4, 4, 4, 4] p=0.27"]
S1 -> S1 [label="2 [1, 1, 1, 4, 4, 4, 4, 4, 4, 1, 4, 1, 4, 1, 4, 1, 1, 1, 1, 1, 1, 1, 1, 1, 4, 1, 1, 1, 1, 1, 1, 1, 4, 8, 1, 1, 1, 8, 1, 1, 1, 1, 4, 1, 1, 1, 1, 1, 1, 1, 1, 1, 4, 1, 1, 1, 4, 4, 4, 1, 1, 1, 1, 1, 1, 1, 4, 8, 8, 4, 8, 8, 1, 1, 1, 1, 1, 4, 8, 8, 1, 1, 1, 1, 1, 1, 1, 1, 4, 8, 8, 1, 1, 1, 1, 1, 1, 1, 4, 1, 1, 1, 4, 8, 1, 1, 1, 1, 1, 1, 1, 8, 4, 1, 1, 1, 1, 1, 1, 4, 8, 1, 1, 1, 1, 1, 1, 1, 8, 1, 1, 4, 4, 4, 1, 1, 1, 1, 4, 4, 4, 1, 1, 1, 1, 1, 1, 1, 1, 1, 1, 1, 1, 1, 1, 1, 1, 1, 1, 1, 1, 1, 1, 1, 1, 1, 1, 1, 1, 1, 1, 1, 4, 4, 4, 4, 8, 8, 4, 4, 1, 1, 1, 1, 1, 1, 1, 4, 4, 4, 4, 4, 8, 8, 4, 4, 4, 4, 1, 1, 1, 1, 1, 1, 1, 1, 1, 1, 1, 1, 1, 1, 1, 1, 1, 1, 1, 1, 1, 1, 1, 1, 1, 1, 1, 1, 1, 1, 1, 1, 1, 1, 1, 1, 1, 1, 1, 1, 1, 1, 1, 1, 1, 1, 1, 1, 1, 1, 1, 1, 1, 1, 1, 1, 1, 1, 1, 1, 1, 1, 1, 1, 1, 1, 1, 1, 1, 1, 1, 1, 1, 1, 1, 1, 1, 1, 1, 1, 1, 1, 1, 1, 1, 1, 1, 1, 1, 1, 1, 1, 1, 1, 1, 1, 1, 1, 1, 1, 1, 1, 1, 1, 4, 4, 4, 1, 1, 1, 1, 4, 1, 1, 4, 4, 4, 4, 4, 4, 4, 4, 4, 4, 4, 4, 4, 1, 1, 1, 1, 1, 1, 1, 1, 1, 1, 4, 1, 4, 8, 1, 1, 1, 8, 1, 1, 1, 1, 4, 1, 1, 1, 1, 1, 1, 1, 4, 1, 1, 1, 4, 1, 1, 1, 4, 4, 4, 1, 1, 4, 4, 4, 1, 1, 1, 1, 1, 1, 4, 1, 1, 1, 4, 4, 1, 1, 1, 1, 1, 1, 1, 4, 4, 1, 1, 1, 1, 1, 1, 4, 4, 1, 1, 1, 4, 1, 1, 1, 1, 1, 1, 1, 1, 1, 1, 1, 1, 1, 1, 1, 1, 1, 1, 1, 1, 1, 1, 1, 1, 1, 1, 1, 1, 1, 1, 1, 1, 1, 1, 1, 1, 1, 1, 1, 1, 1, 1, 1, 1, 1, 1, 1, 1, 1, 1, 1, 1, 1, 1, 1, 1, 1, 1, 1, 1, 1, 1, 1, 1, 1, 1, 1, 1, 1, 1, 1, 1, 1, 1, 1, 1, 1, 1, 1, 1, 1, 1, 4, 4, 4, 1, 1, 4] p=0.18"]
S1 -> S1 [label="4 [2, 1, 1, 2, 1, 2, 1, 1, 2, 2, 1, 2, 1, 1, 1, 2, 1, 2, 1, 1, 2, 1, 1, 1, 2, 2, 1, 1, 1, 2, 1, 1, 1, 1, 1, 6, 6, 6, 6, 6, 6, 6, 6, 6, 6, 2, 1, 2, 6, 6, 6, 6, 6, 6, 6, 6, 6, 6, 6, 6, 6, 6, 6, 6, 6, 6, 6, 6, 6, 6, 6, 6, 6, 6, 6, 6, 6, 6, 6, 6, 6, 6, 6, 6, 6, 6, 6, 6, 6, 6, 6, 6, 6, 6, 6, 6, 6, 6, 6, 6, 6, 6, 6, 6, 6, 6, 6, 3, 3, 3, 3, 3, 3, 3, 3, 3, 3, 3, 3, 3, 3, 3, 3, 3, 3, 3, 3, 3, 3, 3, 3, 3, 3, 3, 3, 3, 3, 3, 3, 3, 3, 3, 3, 3, 3, 3, 3, 3, 3, 3, 3, 3, 3, 3, 3, 3, 3, 3, 3, 3, 3, 3, 3, 3, 3, 3, 3, 3, 3, 3, 3, 3, 3, 3, 3, 3, 3, 3, 3, 3, 3, 3, 1, 1, 1, 1, 1, 1, 1, 1, 1, 3, 3, 3, 3, 3, 3, 3, 3, 3, 3, 3, 3, 3, 3, 3, 3, 3, 3, 3, 3, 3, 3, 3, 3, 3, 3, 3, 3, 3, 3, 3, 3, 3, 3, 3, 3, 3, 3, 3, 3, 3, 3, 3, 3, 3, 3, 3, 3, 3, 3, 3, 3, 3, 3, 3, 3, 3, 3, 3, 3, 3, 3, 3, 3, 3, 3, 3, 3, 3, 3, 3, 3, 1, 1, 1, 1, 1, 1, 1, 1, 1, 1, 1, 1, 1, 1, 2, 2, 1, 1, 1, 2, 1, 1, 2, 1, 1, 1, 1, 1, 6, 6, 6, 6, 6, 6, 6, 6, 6, 6, 6, 6, 3, 1, 3, 1, 6, 2, 6, 6, 6, 3, 3, 3, 3, 3, 3, 3, 6, 1, 1, 3, 6, 1, 1, 3, 3, 3, 3, 6, 1, 6, 3, 3, 6, 3, 3, 3, 6, 3, 3, 3, 2, 3, 3, 6, 2, 1, 3, 1, 1, 6, 3, 3, 1, 6, 6, 6, 6, 6, 6, 6, 3, 3, 3, 3, 3, 1, 2, 1, 2, 1, 1, 1, 1, 2, 2, 2, 2, 2, 2, 2, 2, 2, 2, 2, 2, 2, 2, 2, 2, 2, 2, 3, 3, 3, 3, 3, 3, 1, 1, 6, 6, 1, 6, 6, 1, 6, 1, 1, 1, 1, 1, 1, 1, 1, 1, 1, 1, 1, 1, 1, 1] p=0.16"]
S1 -> S1 [label="5 [3, 3, 3, 3, 3, 3, 3, 3, 3, 3] p=0.0"]
S12 -> S13 [label="2 [4, 1, 4, 1, 4, 1, 1, 1, 1, 1, 1, 1, 1, 1, 4, 1, 1, 4, 1, 1, 1, 1, 4, 1, 4, 8, 1, 1, 1, 8, 1, 1, 1, 1, 4, 1, 1, 1, 1, 1, 1, 1, 4, 1, 1, 1, 4, 1, 1, 1] p=0.42"]
S12 -> S34 [label="1 [3, 3, 1, 1, 3, 8, 1, 8, 1, 8, 8, 8, 8, 3, 1, 3, 1, 1, 8, 3, 3, 1, 8, 8, 1, 1, 1, 8, 1, 3, 8, 1, 8, 8, 8, 8, 3, 3, 8, 8] p=0.34"]
S12 -> S68 [label="4 [2, 1, 6, 6, 1, 6, 1, 1, 1, 1, 1, 6, 2, 6, 6, 1, 1, 6, 1, 6, 6, 6, 2, 6, 2, 1, 1, 1] p=0.24"]
S23 -> S24 [label="3 [1, 3, 1, 1, 1, 2, 1, 3, 3, 1, 1, 1, 3, 3, 1, 1, 1, 3, 1, 1, 3, 1, 1, 3, 1, 3, 3] p=0.46"]
S23 -> S1 [label="4 [3, 2, 3, 3, 3, 3, 3, 3, 3, 3, 3, 3, 3, 2, 3, 3, 3, 2, 3, 3, 3, 3, 3, 3, 3, 3, 3, 3, 3] p=0.49"]
S23 -> S1 [label="1 [1, 1, 1] p=0.05"]
S78 -> S1 [label="1 [2, 2, 4, 4, 4, 4, 2, 2, 2, 4, 2, 4, 3, 2, 4, 4, 3, 3, 4, 4, 4, 4, 4, 4, 3, 4, 4, 4, 4, 4, 4, 4, 2, 4, 4, 2, 3, 2] p=0.68"]
S78 -> S138 [label="3 [1, 1, 1, 1, 1, 1, 1, 1, 1, 1, 1, 1, 1, 1, 1, 1, 1] p=0.3"]
S78 -> S1 [label="5 [3] p=0.02"]
S13 -> S14 [label="3 [3, 2, 3, 3, 3, 3, 3, 3, 3, 3, 3] p=0.22"]
S13 -> S1 [label="4 [3, 3, 3, 3, 3, 3, 3, 3, 3, 3, 3, 3, 3, 3, 3, 3, 3, 3, 3, 3, 3, 3, 3, 3, 3, 3] p=0.52"]
S13 -> S1 [label="1 [1, 1, 1] p=0.06"]
S13 -> S2 [label="3 [1, 1, 1, 1, 1, 1, 1, 1, 1, 1] p=0.2"]
S24 -> S15 [label="1 [3, 3, 3, 8, 3, 3, 3, 3, 3, 8, 3, 3] p=0.44"]
S24 -> S59 [label="4 [2, 1, 1, 2, 6, 1, 1, 1, 2, 2, 1, 1] p=0.44"]
S24 -> S54 [label="2 [4, 4, 4] p=0.11"]
S34 -> S16 [label="3 [7, 7, 7, 7, 7, 7, 7, 7, 7, 7, 7, 7, 7, 7, 7, 7, 7, 7, 7, 7, 7, 7, 7, 7, 7, 7, 7, 7, 7, 7, 7, 7, 7, 7, 7, 7, 7] p=0.93"]
S34 -> S18 [label="2 [1, 1, 1] p=0.07"]
S68 -> S1 [label="1 [2, 2, 2, 2, 2, 2, 3, 2, 3, 3, 3, 2, 2, 3, 2] p=0.56"]
S68 -> S138 [label="3 [1, 1, 1, 1, 1, 1, 1, 1, 1, 1, 1, 1] p=0.44"]
S138 -> S1 [label="4 [1, 1, 1, 1, 1, 1, 1] p=0.24"]
S138 -> S1 [label="2 [1, 1] p=0.07"]
S138 -> S15 [label="1 [1, 1, 1, 1, 1, 1, 1, 1, 1, 1, 1, 1, 1, 1, 1, 1, 1, 1, 1, 1] p=0.69"]
S14 -> S51 [label="4 [2, 1, 1, 2, 1, 1, 1, 2, 2, 1, 1] p=1.0"]
S59 -> S52 [label="1 [2, 3, 2, 3, 3, 3, 2, 2, 3] p=0.82"]
S59 -> S423 [label="3 [1, 1] p=0.18"]
S15 -> S16 [label="3 [7, 7, 7, 7, 7, 7, 7, 7, 7, 7, 7, 7, 7, 7, 7, 7, 7, 7, 7, 7, 7, 7, 7, 7, 7, 7, 7, 7, 7, 7, 7, 7, 7, 7, 7, 7, 7, 7, 7, 7, 7, 7] p=1.0"]
S16 -> S17 [label="2 [1, 1, 1, 1, 1, 1, 1, 1, 1, 1, 1, 1, 1, 1, 1, 1, 1, 1, 1, 1, 1, 1, 1, 1, 1, 1, 1, 1, 1, 1, 1, 1, 1, 1, 1, 1, 1, 1, 1, 1, 1, 1, 1, 1, 1, 1, 1, 1, 1, 1, 1, 1, 1, 1, 1, 1, 1, 1, 1, 1, 1, 1, 1, 1, 1, 1, 1, 1, 1, 1] p=0.89"]
S16 -> S175 [label="1 [1, 1, 1, 1, 1, 1, 1, 1, 1] p=0.11"]
S18 -> S1 [label="4 [2, 1, 1, 2, 1, 1, 1, 2, 1, 1, 2, 1, 2, 1, 1, 2, 1, 1, 2, 1, 1, 2, 2, 2, 1, 2, 2, 2, 2, 2, 2, 2, 2, 2] p=1.0"]
S54 -> S1 [label="3 [1, 1, 1, 1, 1, 1, 1, 1, 1, 1, 1] p=1.0"]
S2 -> S15 [label="1 [3, 3, 3, 3, 3, 3, 3, 3, 3, 3] p=1.0"]
S51 -> S52 [label="1 [2, 3, 2, 3, 3, 3, 2, 2, 3] p=0.9"]
S51 -> S18 [label="3 [1] p=0.1"]
S423 -> S1 [label="4 [1] p=0.5"]
S423 -> S1 [label="1 [1] p=0.5"]
S175 -> S18 [label="2 [1, 1, 1, 1, 1, 1, 1, 1, 1] p=1.0"]
S17 -> S18 [label="3 [3, 3, 3, 3, 3, 3, 2, 3, 3, 2, 3, 3, 3, 2, 3, 3, 3, 3, 3, 3, 3] p=0.3"]
S17 -> S1 [label="4 [3, 3, 3, 3, 3, 3, 3, 3, 3, 3, 3, 3, 3, 3, 3, 3, 3, 3, 3, 3, 3, 3, 3, 3, 3, 3, 3, 3, 3, 3, 3, 3, 3, 3, 3, 3, 3, 3, 3, 3, 3, 3, 3, 3, 3, 3, 3, 3, 3] p=0.7"]
S52 -> S53 [label="3 [2, 2, 2, 2, 2, 2, 2, 2, 2, 2, 2, 2, 2, 2] p=0.78"]
S52 -> S1 [label="2 [1, 1, 1, 1] p=0.22"]
S53 -> S54 [label="2 [4, 4, 4, 4] p=0.29"]
S53 -> S54 [label="4 [6, 6, 6, 6] p=0.29"]
S53 -> S1 [label="1 [8, 8, 8, 8, 8, 8] p=0.43"]