,Process,Breakpoints
0,F_PU1,"[        -inf  85.49520111  97.77336502  99.64530944 114.27142335
 119.31246565 122.7056274           inf]"
1,F_PU2,"[        -inf   0.          86.45693207  97.79855347 100.1406708
          inf]"
2,F_PU3,[-inf   0.   0.   0.  inf]
3,F_PU4,[       -inf  0.         31.18346215 34.82356071 38.29616547         inf]
4,F_PU5,[-inf   0.   0.   0.  inf]
5,F_PU6,[      -inf  0.         0.        37.8085289        inf]
6,F_PU7,[       -inf  0.         49.42486191 50.58580017 51.65851974         inf]
7,F_PU8,[       -inf  0.         33.81648064 35.17241669 39.13399506         inf]
8,F_PU9,[-inf   0.   0.   0.  inf]
9,F_PU10,"[       -inf  0.         28.78316879 30.31041813 31.0736475  31.73961067
 32.63357162 33.88804626         inf]"
10,F_PU11,[       -inf  0.          0.         24.02596664         inf]
11,F_V2,"[        -inf   0.          52.90895081  96.72768402 115.4670792
          inf]"
12,P_J280,"[      -inf 2.9735055  2.97464156 2.97981715 2.99062037 2.99126768
        inf]"
13,P_J269,"[       -inf 20.17250824 22.14524746 25.03910351 33.1553421  34.16794586
 40.63428497         inf]"
14,P_J300,[       -inf 20.62990952 26.00697518 26.57466793 33.76383591         inf]
15,P_J256,[       -inf 65.05962372 74.20833206 84.7301979  94.96125793         inf]
16,P_J289,[       -inf 20.69019127 26.02299404 26.91059876 33.76383591         inf]
17,P_J415,"[        -inf  54.75719833  67.6618042   69.79277039  83.60945893
  84.83805084  87.37039185 105.9518204           inf]"
18,P_J302,"[       -inf 14.79716682 19.22462082 20.31322194 21.26062488 23.927001
 36.32594681         inf]"
19,P_J306,"[       -inf 58.32539749 63.42591858 64.82516479 80.76765823 89.0539856
         inf]"
20,P_J307,"[       -inf 14.54195499 19.1957264  20.20792866 21.14998818 23.81637001
 36.32594681         inf]"
21,P_J317,"[       -inf 51.69707108 58.61794853 65.8094101  66.61669159 68.21722412
 96.18045044         inf]"
22,P_J14,"[       -inf 27.64967728 30.25778389 37.37760353 38.67751503 45.38814545
         inf]"
23,P_J422,[       -inf 22.37006569 28.10329056 29.25867844 35.16172409         inf]
