2:0 3:2 4:6 3:1 2:1 1:1 3:6 2:1 4:3 2:4 3:2
3:0 4:6 3:1 2:1 1:1 3:6 2:1 4:3 2:4 3:2 4:6
4:0 3:1 2:1 1:1 3:6 2:1 4:3 2:4 3:2 4:6 3:1
3:0 2:1 1:1 3:6 2:1 4:3 2:4 3:2 4:6 3:1 2:1
2:0 1:1 3:6 2:1 4:3 2:4 3:2 4:6 3:1 2:1 1:1
1:0 3:6 2:1 4:3 2:4 3:2 4:6 3:1 2:1 1:1 2:1
3:0 2:1 4:3 2:4 3:2 4:6 3:1 2:1 1:1 2:1 1:1
2:0 4:3 2:4 3:2 4:6 3:1 2:1 1:1 2:1 1:1 3:4
4:0 2:4 3:2 4:6 3:1 2:1 1:1 2:1 1:1 3:4 2:1
2:0 3:2 4:6 3:1 2:1 1:1 2:1 1:1 3:4 2:1 4:3
3:0 4:6 3:1 2:1 1:1 2:1 1:1 3:4 2:1 4:3 1:4
4:0 3:1 2:1 1:1 2:1 1:1 3:4 2:1 4:3 1:4 2:1
3:0 2:1 1:1 2:1 1:1 3:4 2:1 4:3 1:4 2:1 3:1
2:0 1:1 2:1 1:1 3:4 2:1 4:3 1:4 2:1 3:1 4:6
1:0 2:1 1:1 3:4 2:1 4:3 1:4 2:1 3:1 4:6 3:1
2:0 1:1 3:4 2:1 4:3 1:4 2:1 3:1 4:6 3:1 2:1
1:0 3:4 2:1 4:3 1:4 2:1 3:1 4:6 3:1 2:1 1:1
3:0 2:1 4:3 1:4 2:1 3:1 4:6 3:1 2:1 1:1 2:3
2:0 4:3 1:4 2:1 3:1 4:6 3:1 2:1 1:1 2:3 1:1
4:0 1:4 2:1 3:1 4:6 3:1 2:1 1:1 2:3 1:1 3:2
1:0 2:1 3:1 4:6 3:1 2:1 1:1 2:3 1:1 3:2 2:1
2:0 3:1 4:6 3:1 2:1 1:1 2:3 1:1 3:2 2:1 4:3
3:0 4:6 3:1 2:1 1:1 2:3 1:1 3:2 2:1 4:3 2:4
4:0 3:1 2:1 1:1 2:3 1:1 3:2 2:1 4:3 2:4 3:2
3:0 2:1 1:1 2:3 1:1 3:2 2:1 4:3 2:4 3:2 2:4
2:0 1:1 2:3 1:1 3:2 2:1 4:3 2:4 3:2 2:4 3:1
1:0 2:3 1:1 3:2 2:1 4:3 2:4 3:2 2:4 3:1 4:1
2:0 1:1 3:2 2:1 4:3 2:4 3:2 2:4 3:1 4:1 3:1
1:0 3:2 2:1 4:3 2:4 3:2 2:4 3:1 4:1 3:1 2:1
3:0 2:1 4:3 2:4 3:2 2:4 3:1 4:1 3:1 2:1 1:1
2:0 4:3 2:4 3:2 2:4 3:1 4:1 3:1 2:1 1:1 3:6
4:0 2:4 3:2 2:4 3:1 4:1 3:1 2:1 1:1 3:6 2:1
2:0 3:2 2:4 3:1 4:1 3:1 2:1 1:1 3:6 2:1 4:3
3:0 2:4 3:1 4:1 3:1 2:1 1:1 3:6 2:1 4:3 1:4
2:0 3:1 4:1 3:1 2:1 1:1 3:6 2:1 4:3 1:4 2:1
3:0 4:1 3:1 2:1 1:1 3:6 2:1 4:3 1:4 2:1 3:1
4:0 3:1 2:1 1:1 3:6 2:1 4:3 1:4 2:1 3:1 4:6
3:0 2:1 1:1 3:6 2:1 4:3 1:4 2:1 3:1 4:6 3:1
2:0 1:1 3:6 2:1 4:3 1:4 2:1 3:1 4:6 3:1 2:1
1:0 3:6 2:1 4:3 1:4 2:1 3:1 4:6 3:1 2:1 1:1
3:0 2:1 4:3 1:4 2:1 3:1 4:6 3:1 2:1 1:1 3:6
2:0 4:3 1:4 2:1 3:1 4:6 3:1 2:1 1:1 3:6 2:1
4:0 1:4 2:1 3:1 4:6 3:1 2:1 1:1 3:6 2:1 4:3
1:0 2:1 3:1 4:6 3:1 2:1 1:1 3:6 2:1 4:3 2:4
2:0 3:1 4:6 3:1 2:1 1:1 3:6 2:1 4:3 2:4 3:2
3:0 4:6 3:1 2:1 1:1 3:6 2:1 4:3 2:4 3:2 4:6
4:0 3:1 2:1 1:1 3:6 2:1 4:3 2:4 3:2 4:6 3:1
3:0 2:1 1:1 3:6 2:1 4:3 2:4 3:2 4:6 3:1 2:1
2:0 1:1 3:6 2:1 4:3 2:4 3:2 4:6 3:1 2:1 1:1
1:0 3:6 2:1 4:3 2:4 3:2 4:6 3:1 2:1 1:1 2:1
3:0 2:1 4:3 2:4 3:2 4:6 3:1 2:1 1:1 2:1 1:1
2:0 4:3 2:4 3:2 4:6 3:1 2:1 1:1 2:1 1:1 2:1
4:0 2:4 3:2 4:6 3:1 2:1 1:1 2:1 1:1 2:1 1:1
2:0 3:2 4:6 3:1 2:1 1:1 2:1 1:1 2:1 1:1 3:2
3:0 4:6 3:1 2:1 1:1 2:1 1:1 2:1 1:1 3:2 2:1
4:0 3:1 2:1 1:1 2:1 1:1 2:1 1:1 3:2 2:1 3:2
3:0 2:1 1:1 2:1 1:1 2:1 1:1 3:2 2:1 3:2 4:1
2:0 1:1 2:1 1:1 2:1 1:1 3:2 2:1 3:2 4:1 1:4
1:0 2:1 1:1 2:1 1:1 3:2 2:1 3:2 4:1 1:4 2:1
2:0 1:1 2:1 1:1 3:2 2:1 3:2 4:1 1:4 2:1 3:1
1:0 2:1 1:1 3:2 2:1 3:2 4:1 1:4 2:1 3:1 2:8
2:0 1:1 3:2 2:1 3:2 4:1 1:4 2:1 3:1 2:8 1:1
1:0 3:2 2:1 3:2 4:1 1:4 2:1 3:1 2:8 1:1 3:6
3:0 2:1 3:2 4:1 1:4 2:1 3:1 2:8 1:1 3:6 2:1
2:0 3:2 4:1 1:4 2:1 3:1 2:8 1:1 3:6 2:1 4:3
3:0 4:1 1:4 2:1 3:1 2:8 1:1 3:6 2:1 4:3 2:4
4:0 1:4 2:1 3:1 2:8 1:1 3:6 2:1 4:3 2:4 3:2
1:0 2:1 3:1 2:8 1:1 3:6 2:1 4:3 2:4 3:2 4:6
2:0 3:1 2:8 1:1 3:6 2:1 4:3 2:4 3:2 4:6 3:1
3:0 2:8 1:1 3:6 2:1 4:3 2:4 3:2 4:6 3:1 2:1
2:0 1:1 3:6 2:1 4:3 2:4 3:2 4:6 3:1 2:1 1:1
1:0 3:6 2:1 4:3 2:4 3:2 4:6 3:1 2:1 1:1 2:3
3:0 2:1 4:3 2:4 3:2 4:6 3:1 2:1 1:1 2:3 1:1
2:0 4:3 2:4 3:2 4:6 3:1 2:1 1:1 2:3 1:1 3:2
4:0 2:4 3:2 4:6 3:1 2:1 1:1 2:3 1:1 3:2 2:1
2:0 3:2 4:6 3:1 2:1 1:1 2:3 1:1 3:2 2:1 3:2
3:0 4:6 3:1 2:1 1:1 2:3 1:1 3:2 2:1 3:2 4:1
4:0 3:1 2:1 1:1 2:3 1:1 3:2 2:1 3:2 4:1 1:4
3:0 2:1 1:1 2:3 1:1 3:2 2:1 3:2 4:1 1:4 2:1
2:0 1:1 2:3 1:1 3:2 2:1 3:2 4:1 1:4 2:1 3:1
1:0 2:3 1:1 3:2 2:1 3:2 4:1 1:4 2:1 3:1 4:6
2:0 1:1 3:2 2:1 3:2 4:1 1:4 2:1 3:1 4:6 3:1
1:0 3:2 2:1 3:2 4:1 1:4 2:1 3:1 4:6 3:1 2:1
3:0 2:1 3:2 4:1 1:4 2:1 3:1 4:6 3:1 2:1 1:1
2:0 3:2 4:1 1:4 2:1 3:1 4:6 3:1 2:1 1:1 2:3
3:0 4:1 1:4 2:1 3:1 4:6 3:1 2:1 1:1 2:3 1:1
4:0 1:4 2:1 3:1 4:6 3:1 2:1 1:1 2:3 1:1 3:2
1:0 2:1 3:1 4:6 3:1 2:1 1:1 2:3 1:1 3:2 2:1
2:0 3:1 4:6 3:1 2:1 1:1 2:3 1:1 3:2 2:1 4:3
3:0 4:6 3:1 2:1 1:1 2:3 1:1 3:2 2:1 4:3 2:4
4:0 3:1 2:1 1:1 2:3 1:1 3:2 2:1 4:3 2:4 3:2
3:0 2:1 1:1 2:3 1:1 3:2 2:1 4:3 2:4 3:2 4:6
2:0 1:1 2:3 1:1 3:2 2:1 4:3 2:4 3:2 4:6 3:1
1:0 2:3 1:1 3:2 2:1 4:3 2:4 3:2 4:6 3:1 2:1
2:0 1:1 3:2 2:1 4:3 2:4 3:2 4:6 3:1 2:1 1:1
1:0 3:2 2:1 4:3 2:4 3:2 4:6 3:1 2:1 1:1 2:3
3:0 2:1 4:3 2:4 3:2 4:6 3:1 2:1 1:1 2:3 1:1
2:0 4:3 2:4 3:2 4:6 3:1 2:1 1:1 2:3 1:1 3:2
4:0 2:4 3:2 4:6 3:1 2:1 1:1 2:3 1:1 3:2 2:1
2:0 3:2 4:6 3:1 2:1 1:1 2:3 1:1 3:2 2:1 4:3
3:0 4:6 3:1 2:1 1:1 2:3 1:1 3:2 2:1 4:3 1:4
4:0 3:1 2:1 1:1 2:3 1:1 3:2 2:1 4:3 1:4 2:1
3:0 2:1 1:1 2:3 1:1 3:2 2:1 4:3 1:4 2:1 3:1
2:0 1:1 2:3 1:1 3:2 2:1 4:3 1:4 2:1 3:1 4:6
1:0 2:3 1:1 3:2 2:1 4:3 1:4 2:1 3:1 4:6 3:1
2:0 1:1 3:2 2:1 4:3 1:4 2:1 3:1 4:6 3:1 2:1
1:0 3:2 2:1 4:3 1:4 2:1 3:1 4:6 3:1 2:1 1:1
3:0 2:1 4:3 1:4 2:1 3:1 4:6 3:1 2:1 1:1 2:3
2:0 4:3 1:4 2:1 3:1 4:6 3:1 2:1 1:1 2:3 1:1
4:0 1:4 2:1 3:1 4:6 3:1 2:1 1:1 2:3 1:1 3:2
1:0 2:1 3:1 4:6 3:1 2:1 1:1 2:3 1:1 3:2 2:1
2:0 3:1 4:6 3:1 2:1 1:1 2:3 1:1 3:2 2:1 4:3
3:0 4:6 3:1 2:1 1:1 2:3 1:1 3:2 2:1 4:3 2:4
4:0 3:1 2:1 1:1 2:3 1:1 3:2 2:1 4:3 2:4 3:2
3:0 2:1 1:1 2:3 1:1 3:2 2:1 4:3 2:4 3:2 4:6
2:0 1:1 2:3 1:1 3:2 2:1 4:3 2:4 3:2 4:6 3:1
1:0 2:3 1:1 3:2 2:1 4:3 2:4 3:2 4:6 3:1 2:1
2:0 1:1 3:2 2:1 4:3 2:4 3:2 4:6 3:1 2:1 1:1
1:0 3:2 2:1 4:3 2:4 3:2 4:6 3:1 2:1 1:1 2:3
3:0 2:1 4:3 2:4 3:2 4:6 3:1 2:1 1:1 2:3 1:1
2:0 4:3 2:4 3:2 4:6 3:1 2:1 1:1 2:3 1:1 3:2
4:0 2:4 3:2 4:6 3:1 2:1 1:1 2:3 1:1 3:2 2:1
2:0 3:2 4:6 3:1 2:1 1:1 2:3 1:1 3:2 2:1 4:3
3:0 4:6 3:1 2:1 1:1 2:3 1:1 3:2 2:1 4:3 2:4
4:0 3:1 2:1 1:1 2:3 1:1 3:2 2:1 4:3 2:4 3:2
3:0 2:1 1:1 2:3 1:1 3:2 2:1 4:3 2:4 3:2 2:4
2:0 1:1 2:3 1:1 3:2 2:1 4:3 2:4 3:2 2:4 3:1
1:0 2:3 1:1 3:2 2:1 4:3 2:4 3:2 2:4 3:1 4:1
2:0 1:1 3:2 2:1 4:3 2:4 3:2 2:4 3:1 4:1 3:1
1:0 3:2 2:1 4:3 2:4 3:2 2:4 3:1 4:1 3:1 2:1
3:0 2:1 4:3 2:4 3:2 2:4 3:1 4:1 3:1 2:1 1:1
2:0 4:3 2:4 3:2 2:4 3:1 4:1 3:1 2:1 1:1 2:3
4:0 2:4 3:2 2:4 3:1 4:1 3:1 2:1 1:1 2:3 1:1
2:0 3:2 2:4 3:1 4:1 3:1 2:1 1:1 2:3 1:1 3:2
3:0 2:4 3:1 4:1 3:1 2:1 1:1 2:3 1:1 3:2 2:1
2:0 3:1 4:1 3:1 2:1 1:1 2:3 1:1 3:2 2:1 4:3
3:0 4:1 3:1 2:1 1:1 2:3 1:1 3:2 2:1 4:3 1:4
4:0 3:1 2:1 1:1 2:3 1:1 3:2 2:1 4:3 1:4 2:1
3:0 2:1 1:1 2:3 1:1 3:2 2:1 4:3 1:4 2:1 3:1
2:0 1:1 2:3 1:1 3:2 2:1 4:3 1:4 2:1 3:1 4:6
1:0 2:3 1:1 3:2 2:1 4:3 1:4 2:1 3:1 4:6 3:1
2:0 1:1 3:2 2:1 4:3 1:4 2:1 3:1 4:6 3:1 2:1
1:0 3:2 2:1 4:3 1:4 2:1 3:1 4:6 3:1 2:1 1:1
3:0 2:1 4:3 1:4 2:1 3:1 4:6 3:1 2:1 1:1 3:6
2:0 4:3 1:4 2:1 3:1 4:6 3:1 2:1 1:1 3:6 2:1
4:0 1:4 2:1 3:1 4:6 3:1 2:1 1:1 3:6 2:1 3:2
1:0 2:1 3:1 4:6 3:1 2:1 1:1 3:6 2:1 3:2 4:1
2:0 3:1 4:6 3:1 2:1 1:1 3:6 2:1 3:2 4:1 2:4
3:0 4:6 3:1 2:1 1:1 3:6 2:1 3:2 4:1 2:4 3:2
4:0 3:1 2:1 1:1 3:6 2:1 3:2 4:1 2:4 3:2 4:6
3:0 2:1 1:1 3:6 2:1 3:2 4:1 2:4 3:2 4:6 3:1
2:0 1:1 3:6 2:1 3:2 4:1 2:4 3:2 4:6 3:1 2:1
1:0 3:6 2:1 3:2 4:1 2:4 3:2 4:6 3:1 2:1 1:1
3:0 2:1 3:2 4:1 2:4 3:2 4:6 3:1 2:1 1:1 3:6
2:0 3:2 4:1 2:4 3:2 4:6 3:1 2:1 1:1 3:6 2:1
3:0 4:1 2:4 3:2 4:6 3:1 2:1 1:1 3:6 2:1 4:3
4:0 2:4 3:2 4:6 3:1 2:1 1:1 3:6 2:1 4:3 1:4
2:0 3:2 4:6 3:1 2:1 1:1 3:6 2:1 4:3 1:4 2:1
3:0 4:6 3:1 2:1 1:1 3:6 2:1 4:3 1:4 2:1 3:1
4:0 3:1 2:1 1:1 3:6 2:1 4:3 1:4 2:1 3:1 4:6
3:0 2:1 1:1 3:6 2:1 4:3 1:4 2:1 3:1 4:6 3:1
2:0 1:1 3:6 2:1 4:3 1:4 2:1 3:1 4:6 3:1 2:1
1:0 3:6 2:1 4:3 1:4 2:1 3:1 4:6 3:1 2:1 1:1
3:0 2:1 4:3 1:4 2:1 3:1 4:6 3:1 2:1 1:1 2:1
2:0 4:3 1:4 2:1 3:1 4:6 3:1 2:1 1:1 2:1 1:1
4:0 1:4 2:1 3:1 4:6 3:1 2:1 1:1 2:1 1:1 2:1
1:0 2:1 3:1 4:6 3:1 2:1 1:1 2:1 1:1 2:1 1:1
2:0 3:1 4:6 3:1 2:1 1:1 2:1 1:1 2:1 1:1 3:2
3:0 4:6 3:1 2:1 1:1 2:1 1:1 2:1 1:1 3:2 2:1
4:0 3:1 2:1 1:1 2:1 1:1 2:1 1:1 3:2 2:1 4:3
3:0 2:1 1:1 2:1 1:1 2:1 1:1 3:2 2:1 4:3 2:4
2:0 1:1 2:1 1:1 2:1 1:1 3:2 2:1 4:3 2:4 3:2
1:0 2:1 1:1 2:1 1:1 3:2 2:1 4:3 2:4 3:2 4:6
2:0 1:1 2:1 1:1 3:2 2:1 4:3 2:4 3:2 4:6 3:1
1:0 2:1 1:1 3:2 2:1 4:3 2:4 3:2 4:6 3:1 2:1
2:0 1:1 3:2 2:1 4:3 2:4 3:2 4:6 3:1 2:1 1:1
1:0 3:2 2:1 4:3 2:4 3:2 4:6 3:1 2:1 1:1 2:1
3:0 2:1 4:3 2:4 3:2 4:6 3:1 2:1 1:1 2:1 1:1
2:0 4:3 2:4 3:2 4:6 3:1 2:1 1:1 2:1 1:1 3:4
4:0 2:4 3:2 4:6 3:1 2:1 1:1 2:1 1:1 3:4 2:1
2:0 3:2 4:6 3:1 2:1 1:1 2:1 1:1 3:4 2:1 4:3
3:0 4:6 3:1 2:1 1:1 2:1 1:1 3:4 2:1 4:3 2:4
4:0 3:1 2:1 1:1 2:1 1:1 3:4 2:1 4:3 2:4 3:2
3:0 2:1 1:1 2:1 1:1 3:4 2:1 4:3 2:4 3:2 4:6
2:0 1:1 2:1 1:1 3:4 2:1 4:3 2:4 3:2 4:6 3:1
1:0 2:1 1:1 3:4 2:1 4:3 2:4 3:2 4:6 3:1 2:1
2:0 1:1 3:4 2:1 4:3 2:4 3:2 4:6 3:1 2:1 1:1
1:0 3:4 2:1 4:3 2:4 3:2 4:6 3:1 2:1 1:1 3:6
3:0 2:1 4:3 2:4 3:2 4:6 3:1 2:1 1:1 3:6 2:1
2:0 4:3 2:4 3:2 4:6 3:1 2:1 1:1 3:6 2:1 4:3
4:0 2:4 3:2 4:6 3:1 2:1 1:1 3:6 2:1 4:3 1:4
2:0 3:2 4:6 3:1 2:1 1:1 3:6 2:1 4:3 1:4 2:1
3:0 4:6 3:1 2:1 1:1 3:6 2:1 4:3 1:4 2:1 3:1
4:0 3:1 2:1 1:1 3:6 2:1 4:3 1:4 2:1 3:1 4:6
3:0 2:1 1:1 3:6 2:1 4:3 1:4 2:1 3:1 4:6 3:1
2:0 1:1 3:6 2:1 4:3 1:4 2:1 3:1 4:6 3:1 2:1
1:0 3:6 2:1 4:3 1:4 2:1 3:1 4:6 3:1 2:1 1:1
3:0 2:1 4:3 1:4 2:1 3:1 4:6 3:1 2:1 1:1 3:6
2:0 4:3 1:4 2:1 3:1 4:6 3:1 2:1 1:1 3:6 2:1
4:0 1:4 2:1 3:1 4:6 3:1 2:1 1:1 3:6 2:1 4:3
1:0 2:1 3:1 4:6 3:1 2:1 1:1 3:6 2:1 4:3 1:4
2:0 3:1 4:6 3:1 2:1 1:1 3:6 2:1 4:3 1:4 2:1
3:0 4:6 3:1 2:1 1:1 3:6 2:1 4:3 1:4 2:1 3:1
4:0 3:1 2:1 1:1 3:6 2:1 4:3 1:4 2:1 3:1 4:6
3:0 2:1 1:1 3:6 2:1 4:3 1:4 2:1 3:1 4:6 3:1
2:0 1:1 3:6 2:1 4:3 1:4 2:1 3:1 4:6 3:1 2:1
1:0 3:6 2:1 4:3 1:4 2:1 3:1 4:6 3:1 2:1 1:1
3:0 2:1 4:3 1:4 2:1 3:1 4:6 3:1 2:1 1:1 2:3
2:0 4:3 1:4 2:1 3:1 4:6 3:1 2:1 1:1 2:3 1:1
4:0 1:4 2:1 3:1 4:6 3:1 2:1 1:1 2:3 1:1 3:2
1:0 2:1 3:1 4:6 3:1 2:1 1:1 2:3 1:1 3:2 2:1
2:0 3:1 4:6 3:1 2:1 1:1 2:3 1:1 3:2 2:1 4:3
3:0 4:6 3:1 2:1 1:1 2:3 1:1 3:2 2:1 4:3 1:4
4:0 3:1 2:1 1:1 2:3 1:1 3:2 2:1 4:3 1:4 2:1
3:0 2:1 1:1 2:3 1:1 3:2 2:1 4:3 1:4 2:1 3:1
2:0 1:1 2:3 1:1 3:2 2:1 4:3 1:4 2:1 3:1 4:6
1:0 2:3 1:1 3:2 2:1 4:3 1:4 2:1 3:1 4:6 3:1
2:0 1:1 3:2 2:1 4:3 1:4 2:1 3:1 4:6 3:1 2:1
1:0 3:2 2:1 4:3 1:4 2:1 3:1 4:6 3:1 2:1 1:1
3:0 2:1 4:3 1:4 2:1 3:1 4:6 3:1 2:1 1:1 3:6
2:0 4:3 1:4 2:1 3:1 4:6 3:1 2:1 1:1 3:6 2:1
4:0 1:4 2:1 3:1 4:6 3:1 2:1 1:1 3:6 2:1 4:3
1:0 2:1 3:1 4:6 3:1 2:1 1:1 3:6 2:1 4:3 2:4
2:0 3:1 4:6 3:1 2:1 1:1 3:6 2:1 4:3 2:4 3:2
3:0 4:6 3:1 2:1 1:1 3:6 2:1 4:3 2:4 3:2 4:6
4:0 3:1 2:1 1:1 3:6 2:1 4:3 2:4 3:2 4:6 3:1
3:0 2:1 1:1 3:6 2:1 4:3 2:4 3:2 4:6 3:1 2:1
2:0 1:1 3:6 2:1 4:3 2:4 3:2 4:6 3:1 2:1 1:1
1:0 3:6 2:1 4:3 2:4 3:2 4:6 3:1 2:1 1:1 2:1
3:0 2:1 4:3 2:4 3:2 4:6 3:1 2:1 1:1 2:1 1:1
2:0 4:3 2:4 3:2 4:6 3:1 2:1 1:1 2:1 1:1 3:4
4:0 2:4 3:2 4:6 3:1 2:1 1:1 2:1 1:1 3:4 2:1
2:0 3:2 4:6 3:1 2:1 1:1 2:1 1:1 3:4 2:1 4:3
3:0 4:6 3:1 2:1 1:1 2:1 1:1 3:4 2:1 4:3 2:4
4:0 3:1 2:1 1:1 2:1 1:1 3:4 2:1 4:3 2:4 3:2
3:0 2:1 1:1 2:1 1:1 3:4 2:1 4:3 2:4 3:2 4:6
2:0 1:1 2:1 1:1 3:4 2:1 4:3 2:4 3:2 4:6 3:1
1:0 2:1 1:1 3:4 2:1 4:3 2:4 3:2 4:6 3:1 2:1
2:0 1:1 3:4 2:1 4:3 2:4 3:2 4:6 3:1 2:1 1:1
1:0 3:4 2:1 4:3 2:4 3:2 4:6 3:1 2:1 1:1 2:3
3:0 2:1 4:3 2:4 3:2 4:6 3:1 2:1 1:1 2:3 1:1
2:0 4:3 2:4 3:2 4:6 3:1 2:1 1:1 2:3 1:1 3:2
4:0 2:4 3:2 4:6 3:1 2:1 1:1 2:3 1:1 3:2 2:1
2:0 3:2 4:6 3:1 2:1 1:1 2:3 1:1 3:2 2:1 3:2
3:0 4:6 3:1 2:1 1:1 2:3 1:1 3:2 2:1 3:2 4:1
4:0 3:1 2:1 1:1 2:3 1:1 3:2 2:1 3:2 4:1 2:4
3:0 2:1 1:1 2:3 1:1 3:2 2:1 3:2 4:1 2:4 3:2
2:0 1:1 2:3 1:1 3:2 2:1 3:2 4:1 2:4 3:2 4:6
1:0 2:3 1:1 3:2 2:1 3:2 4:1 2:4 3:2 4:6 3:1
2:0 1:1 3:2 2:1 3:2 4:1 2:4 3:2 4:6 3:1 2:1
1:0 3:2 2:1 3:2 4:1 2:4 3:2 4:6 3:1 2:1 1:1
3:0 2:1 3:2 4:1 2:4 3:2 4:6 3:1 2:1 1:1 2:1
2:0 3:2 4:1 2:4 3:2 4:6 3:1 2:1 1:1 2:1 1:1
3:0 4:1 2:4 3:2 4:6 3:1 2:1 1:1 2:1 1:1 2:1
4:0 2:4 3:2 4:6 3:1 2:1 1:1 2:1 1:1 2:1 1:1
2:0 3:2 4:6 3:1 2:1 1:1 2:1 1:1 2:1 1:1 3:2
3:0 4:6 3:1 2:1 1:1 2:1 1:1 2:1 1:1 3:2 2:1
4:0 3:1 2:1 1:1 2:1 1:1 2:1 1:1 3:2 2:1 4:3
3:0 2:1 1:1 2:1 1:1 2:1 1:1 3:2 2:1 4:3 2:4
2:0 1:1 2:1 1:1 2:1 1:1 3:2 2:1 4:3 2:4 3:2
1:0 2:1 1:1 2:1 1:1 3:2 2:1 4:3 2:4 3:2 4:6
2:0 1:1 2:1 1:1 3:2 2:1 4:3 2:4 3:2 4:6 3:1
1:0 2:1 1:1 3:2 2:1 4:3 2:4 3:2 4:6 3:1 2:1
2:0 1:1 3:2 2:1 4:3 2:4 3:2 4:6 3:1 2:1 1:1
1:0 3:2 2:1 4:3 2:4 3:2 4:6 3:1 2:1 1:1 2:1
3:0 2:1 4:3 2:4 3:2 4:6 3:1 2:1 1:1 2:1 1:1
2:0 4:3 2:4 3:2 4:6 3:1 2:1 1:1 2:1 1:1 2:1
4:0 2:4 3:2 4:6 3:1 2:1 1:1 2:1 1:1 2:1 1:1
2:0 3:2 4:6 3:1 2:1 1:1 2:1 1:1 2:1 1:1 3:2
3:0 4:6 3:1 2:1 1:1 2:1 1:1 2:1 1:1 3:2 2:1
4:0 3:1 2:1 1:1 2:1 1:1 2:1 1:1 3:2 2:1 4:3
3:0 2:1 1:1 2:1 1:1 2:1 1:1 3:2 2:1 4:3 2:4
2:0 1:1 2:1 1:1 2:1 1:1 3:2 2:1 4:3 2:4 3:2
1:0 2:1 1:1 2:1 1:1 3:2 2:1 4:3 2:4 3:2 4:6
2:0 1:1 2:1 1:1 3:2 2:1 4:3 2:4 3:2 4:6 3:1
1:0 2:1 1:1 3:2 2:1 4:3 2:4 3:2 4:6 3:1 2:1
2:0 1:1 3:2 2:1 4:3 2:4 3:2 4:6 3:1 2:1 1:1
1:0 3:2 2:1 4:3 2:4 3:2 4:6 3:1 2:1 1:1 3:6
3:0 2:1 4:3 2:4 3:2 4:6 3:1 2:1 1:1 3:6 2:1
2:0 4:3 2:4 3:2 4:6 3:1 2:1 1:1 3:6 2:1 4:3
4:0 2:4 3:2 4:6 3:1 2:1 1:1 3:6 2:1 4:3 1:4
2:0 3:2 4:6 3:1 2:1 1:1 3:6 2:1 4:3 1:4 2:1
3:0 4:6 3:1 2:1 1:1 3:6 2:1 4:3 1:4 2:1 3:1
4:0 3:1 2:1 1:1 3:6 2:1 4:3 1:4 2:1 3:1 4:6
3:0 2:1 1:1 3:6 2:1 4:3 1:4 2:1 3:1 4:6 3:1
2:0 1:1 3:6 2:1 4:3 1:4 2:1 3:1 4:6 3:1 2:1
1:0 3:6 2:1 4:3 1:4 2:1 3:1 4:6 3:1 2:1 1:1
3:0 2:1 4:3 1:4 2:1 3:1 4:6 3:1 2:1 1:1 2:3
2:0 4:3 1:4 2:1 3:1 4:6 3:1 2:1 1:1 2:3 1:1
4:0 1:4 2:1 3:1 4:6 3:1 2:1 1:1 2:3 1:1 3:2
1:0 2:1 3:1 4:6 3:1 2:1 1:1 2:3 1:1 3:2 2:1
2:0 3:1 4:6 3:1 2:1 1:1 2:3 1:1 3:2 2:1 4:3
3:0 4:6 3:1 2:1 1:1 2:3 1:1 3:2 2:1 4:3 2:4
4:0 3:1 2:1 1:1 2:3 1:1 3:2 2:1 4:3 2:4 3:2
3:0 2:1 1:1 2:3 1:1 3:2 2:1 4:3 2:4 3:2 4:6
2:0 1:1 2:3 1:1 3:2 2:1 4:3 2:4 3:2 4:6 3:1
1:0 2:3 1:1 3:2 2:1 4:3 2:4 3:2 4:6 3:1 2:1
2:0 1:1 3:2 2:1 4:3 2:4 3:2 4:6 3:1 2:1 1:1
1:0 3:2 2:1 4:3 2:4 3:2 4:6 3:1 2:1 1:1 2:1
3:0 2:1 4:3 2:4 3:2 4:6 3:1 2:1 1:1 2:1 1:1
2:0 4:3 2:4 3:2 4:6 3:1 2:1 1:1 2:1 1:1 3:4
4:0 2:4 3:2 4:6 3:1 2:1 1:1 2:1 1:1 3:4 2:1
2:0 3:2 4:6 3:1 2:1 1:1 2:1 1:1 3:4 2:1 4:3
3:0 4:6 3:1 2:1 1:1 2:1 1:1 3:4 2:1 4:3 2:4
4:0 3:1 2:1 1:1 2:1 1:1 3:4 2:1 4:3 2:4 3:2
3:0 2:1 1:1 2:1 1:1 3:4 2:1 4:3 2:4 3:2 2:4
2:0 1:1 2:1 1:1 3:4 2:1 4:3 2:4 3:2 2:4 3:1
1:0 2:1 1:1 3:4 2:1 4:3 2:4 3:2 2:4 3:1 4:1
2:0 1:1 3:4 2:1 4:3 2:4 3:2 2:4 3:1 4:1 3:1
1:0 3:4 2:1 4:3 2:4 3:2 2:4 3:1 4:1 3:1 2:1
3:0 2:1 4:3 2:4 3:2 2:4 3:1 4:1 3:1 2:1 1:1
2:0 4:3 2:4 3:2 2:4 3:1 4:1 3:1 2:1 1:1 2:1
4:0 2:4 3:2 2:4 3:1 4:1 3:1 2:1 1:1 2:1 1:1
2:0 3:2 2:4 3:1 4:1 3:1 2:1 1:1 2:1 1:1 2:1
3:0 2:4 3:1 4:1 3:1 2:1 1:1 2:1 1:1 2:1 1:1
2:0 3:1 4:1 3:1 2:1 1:1 2:1 1:1 2:1 1:1 3:2
3:0 4:1 3:1 2:1 1:1 2:1 1:1 2:1 1:1 3:2 2:1
4:0 3:1 2:1 1:1 2:1 1:1 2:1 1:1 3:2 2:1 4:3
3:0 2:1 1:1 2:1 1:1 2:1 1:1 3:2 2:1 4:3 1:4
2:0 1:1 2:1 1:1 2:1 1:1 3:2 2:1 4:3 1:4 2:1
1:0 2:1 1:1 2:1 1:1 3:2 2:1 4:3 1:4 2:1 3:1
2:0 1:1 2:1 1:1 3:2 2:1 4:3 1:4 2:1 3:1 4:6
1:0 2:1 1:1 3:2 2:1 4:3 1:4 2:1 3:1 4:6 3:1
2:0 1:1 3:2 2:1 4:3 1:4 2:1 3:1 4:6 3:1 2:1
1:0 3:2 2:1 4:3 1:4 2:1 3:1 4:6 3:1 2:1 1:1
3:0 2:1 4:3 1:4 2:1 3:1 4:6 3:1 2:1 1:1 3:6
2:0 4:3 1:4 2:1 3:1 4:6 3:1 2:1 1:1 3:6 2:1
4:0 1:4 2:1 3:1 4:6 3:1 2:1 1:1 3:6 2:1 4:3
1:0 2:1 3:1 4:6 3:1 2:1 1:1 3:6 2:1 4:3 1:4
2:0 3:1 4:6 3:1 2:1 1:1 3:6 2:1 4:3 1:4 2:1
3:0 4:6 3:1 2:1 1:1 3:6 2:1 4:3 1:4 2:1 3:1
4:0 3:1 2:1 1:1 3:6 2:1 4:3 1:4 2:1 3:1 4:6
3:0 2:1 1:1 3:6 2:1 4:3 1:4 2:1 3:1 4:6 3:1
2:0 1:1 3:6 2:1 4:3 1:4 2:1 3:1 4:6 3:1 2:1
1:0 3:6 2:1 4:3 1:4 2:1 3:1 4:6 3:1 2:1 1:1
3:0 2:1 4:3 1:4 2:1 3:1 4:6 3:1 2:1 1:1 2:1
2:0 4:3 1:4 2:1 3:1 4:6 3:1 2:1 1:1 2:1 1:1
4:0 1:4 2:1 3:1 4:6 3:1 2:1 1:1 2:1 1:1 3:4
1:0 2:1 3:1 4:6 3:1 2:1 1:1 2:1 1:1 3:4 2:1
2:0 3:1 4:6 3:1 2:1 1:1 2:1 1:1 3:4 2:1 4:3
3:0 4:6 3:1 2:1 1:1 2:1 1:1 3:4 2:1 4:3 5:3
4:0 3:1 2:1 1:1 2:1 1:1 3:4 2:1 4:3 5:3 2:1
3:0 2:1 1:1 2:1 1:1 3:4 2:1 4:3 5:3 2:1 3:2
2:0 1:1 2:1 1:1 3:4 2:1 4:3 5:3 2:1 3:2 4:6
1:0 2:1 1:1 3:4 2:1 4:3 5:3 2:1 3:2 4:6 3:1
2:0 1:1 3:4 2:1 4:3 5:3 2:1 3:2 4:6 3:1 2:1
1:0 3:4 2:1 4:3 5:3 2:1 3:2 4:6 3:1 2:1 1:1
3:0 2:1 4:3 5:3 2:1 3:2 4:6 3:1 2:1 1:1 2:3
2:0 4:3 5:3 2:1 3:2 4:6 3:1 2:1 1:1 2:3 1:1
4:0 5:3 2:1 3:2 4:6 3:1 2:1 1:1 2:3 1:1 3:2
5:0 2:1 3:2 4:6 3:1 2:1 1:1 2:3 1:1 3:2 2:1
2:0 3:2 4:6 3:1 2:1 1:1 2:3 1:1 3:2 2:1 4:3
3:0 4:6 3:1 2:1 1:1 2:3 1:1 3:2 2:1 4:3 2:4
4:0 3:1 2:1 1:1 2:3 1:1 3:2 2:1 4:3 2:4 3:2
3:0 2:1 1:1 2:3 1:1 3:2 2:1 4:3 2:4 3:2 4:6
2:0 1:1 2:3 1:1 3:2 2:1 4:3 2:4 3:2 4:6 3:1
1:0 2:3 1:1 3:2 2:1 4:3 2:4 3:2 4:6 3:1 2:1
2:0 1:1 3:2 2:1 4:3 2:4 3:2 4:6 3:1 2:1 1:1
1:0 3:2 2:1 4:3 2:4 3:2 4:6 3:1 2:1 1:1 2:3
3:0 2:1 4:3 2:4 3:2 4:6 3:1 2:1 1:1 2:3 1:1
2:0 4:3 2:4 3:2 4:6 3:1 2:1 1:1 2:3 1:1 3:2
4:0 2:4 3:2 4:6 3:1 2:1 1:1 2:3 1:1 3:2 2:1
2:0 3:2 4:6 3:1 2:1 1:1 2:3 1:1 3:2 2:1 4:3
3:0 4:6 3:1 2:1 1:1 2:3 1:1 3:2 2:1 4:3 1:4
4:0 3:1 2:1 1:1 2:3 1:1 3:2 2:1 4:3 1:4 2:1
3:0 2:1 1:1 2:3 1:1 3:2 2:1 4:3 1:4 2:1 3:1
2:0 1:1 2:3 1:1 3:2 2:1 4:3 1:4 2:1 3:1 4:6
1:0 2:3 1:1 3:2 2:1 4:3 1:4 2:1 3:1 4:6 3:1
2:0 1:1 3:2 2:1 4:3 1:4 2:1 3:1 4:6 3:1 2:1
1:0 3:2 2:1 4:3 1:4 2:1 3:1 4:6 3:1 2:1 1:1
3:0 2:1 4:3 1:4 2:1 3:1 4:6 3:1 2:1 1:1 2:1
2:0 4:3 1:4 2:1 3:1 4:6 3:1 2:1 1:1 2:1 1:1
4:0 1:4 2:1 3:1 4:6 3:1 2:1 1:1 2:1 1:1 2:1
1:0 2:1 3:1 4:6 3:1 2:1 1:1 2:1 1:1 2:1 1:1
2:0 3:1 4:6 3:1 2:1 1:1 2:1 1:1 2:1 1:1 3:2
3:0 4:6 3:1 2:1 1:1 2:1 1:1 2:1 1:1 3:2 2:1
4:0 3:1 2:1 1:1 2:1 1:1 2:1 1:1 3:2 2:1 4:3
3:0 2:1 1:1 2:1 1:1 2:1 1:1 3:2 2:1 4:3 1:4
2:0 1:1 2:1 1:1 2:1 1:1 3:2 2:1 4:3 1:4 2:1
1:0 2:1 1:1 2:1 1:1 3:2 2:1 4:3 1:4 2:1 3:1
2:0 1:1 2:1 1:1 3:2 2:1 4:3 1:4 2:1 3:1 4:6
1:0 2:1 1:1 3:2 2:1 4:3 1:4 2:1 3:1 4:6 3:1
2:0 1:1 3:2 2:1 4:3 1:4 2:1 3:1 4:6 3:1 2:1
1:0 3:2 2:1 4:3 1:4 2:1 3:1 4:6 3:1 2:1 1:1
3:0 2:1 4:3 1:4 2:1 3:1 4:6 3:1 2:1 1:1 3:6
2:0 4:3 1:4 2:1 3:1 4:6 3:1 2:1 1:1 3:6 2:1
4:0 1:4 2:1 3:1 4:6 3:1 2:1 1:1 3:6 2:1 4:3
1:0 2:1 3:1 4:6 3:1 2:1 1:1 3:6 2:1 4:3 2:4
2:0 3:1 4:6 3:1 2:1 1:1 3:6 2:1 4:3 2:4 3:2
3:0 4:6 3:1 2:1 1:1 3:6 2:1 4:3 2:4 3:2 2:8
4:0 3:1 2:1 1:1 3:6 2:1 4:3 2:4 3:2 2:8 1:1
3:0 2:1 1:1 3:6 2:1 4:3 2:4 3:2 2:8 1:1 2:1
2:0 1:1 3:6 2:1 4:3 2:4 3:2 2:8 1:1 2:1 1:1
1:0 3:6 2:1 4:3 2:4 3:2 2:8 1:1 2:1 1:1 2:1
3:0 2:1 4:3 2:4 3:2 2:8 1:1 2:1 1:1 2:1 1:1
2:0 4:3 2:4 3:2 2:8 1:1 2:1 1:1 2:1 1:1 3:2
4:0 2:4 3:2 2:8 1:1 2:1 1:1 2:1 1:1 3:2 2:1
2:0 3:2 2:8 1:1 2:1 1:1 2:1 1:1 3:2 2:1 4:3
3:0 2:8 1:1 2:1 1:1 2:1 1:1 3:2 2:1 4:3 1:4
2:0 1:1 2:1 1:1 2:1 1:1 3:2 2:1 4:3 1:4 2:1
1:0 2:1 1:1 2:1 1:1 3:2 2:1 4:3 1:4 2:1 3:1
2:0 1:1 2:1 1:1 3:2 2:1 4:3 1:4 2:1 3:1 4:6
1:0 2:1 1:1 3:2 2:1 4:3 1:4 2:1 3:1 4:6 3:1
2:0 1:1 3:2 2:1 4:3 1:4 2:1 3:1 4:6 3:1 2:1
1:0 3:2 2:1 4:3 1:4 2:1 3:1 4:6 3:1 2:1 1:1
3:0 2:1 4:3 1:4 2:1 3:1 4:6 3:1 2:1 1:1 3:6
2:0 4:3 1:4 2:1 3:1 4:6 3:1 2:1 1:1 3:6 2:1
4:0 1:4 2:1 3:1 4:6 3:1 2:1 1:1 3:6 2:1 4:3
1:0 2:1 3:1 4:6 3:1 2:1 1:1 3:6 2:1 4:3 1:4
2:0 3:1 4:6 3:1 2:1 1:1 3:6 2:1 4:3 1:4 2:1
3:0 4:6 3:1 2:1 1:1 3:6 2:1 4:3 1:4 2:1 3:1
4:0 3:1 2:1 1:1 3:6 2:1 4:3 1:4 2:1 3:1 4:6
3:0 2:1 1:1 3:6 2:1 4:3 1:4 2:1 3:1 4:6 3:1
2:0 1:1 3:6 2:1 4:3 1:4 2:1 3:1 4:6 3:1 2:1
1:0 3:6 2:1 4:3 1:4 2:1 3:1 4:6 3:1 2:1 1:1
3:0 2:1 4:3 1:4 2:1 3:1 4:6 3:1 2:1 1:1 2:3
2:0 4:3 1:4 2:1 3:1 4:6 3:1 2:1 1:1 2:3 1:1
4:0 1:4 2:1 3:1 4:6 3:1 2:1 1:1 2:3 1:1 3:2
1:0 2:1 3:1 4:6 3:1 2:1 1:1 2:3 1:1 3:2 2:1
2:0 3:1 4:6 3:1 2:1 1:1 2:3 1:1 3:2 2:1 4:3
3:0 4:6 3:1 2:1 1:1 2:3 1:1 3:2 2:1 4:3 2:4
4:0 3:1 2:1 1:1 2:3 1:1 3:2 2:1 4:3 2:4 3:2
3:0 2:1 1:1 2:3 1:1 3:2 2:1 4:3 2:4 3:2 4:6
2:0 1:1 2:3 1:1 3:2 2:1 4:3 2:4 3:2 4:6 3:1
1:0 2:3 1:1 3:2 2:1 4:3 2:4 3:2 4:6 3:1 2:1
2:0 1:1 3:2 2:1 4:3 2:4 3:2 4:6 3:1 2:1 1:1
1:0 3:2 2:1 4:3 2:4 3:2 4:6 3:1 2:1 1:1 3:6
3:0 2:1 4:3 2:4 3:2 4:6 3:1 2:1 1:1 3:6 2:1
2:0 4:3 2:4 3:2 4:6 3:1 2:1 1:1 3:6 2:1 4:3
4:0 2:4 3:2 4:6 3:1 2:1 1:1 3:6 2:1 4:3 2:4
2:0 3:2 4:6 3:1 2:1 1:1 3:6 2:1 4:3 2:4 3:2
3:0 4:6 3:1 2:1 1:1 3:6 2:1 4:3 2:4 3:2 4:6
4:0 3:1 2:1 1:1 3:6 2:1 4:3 2:4 3:2 4:6 3:1
3:0 2:1 1:1 3:6 2:1 4:3 2:4 3:2 4:6 3:1 2:1
2:0 1:1 3:6 2:1 4:3 2:4 3:2 4:6 3:1 2:1 1:1
1:0 3:6 2:1 4:3 2:4 3:2 4:6 3:1 2:1 1:1 2:1
3:0 2:1 4:3 2:4 3:2 4:6 3:1 2:1 1:1 2:1 1:1
2:0 4:3 2:4 3:2 4:6 3:1 2:1 1:1 2:1 1:1 3:4
4:0 2:4 3:2 4:6 3:1 2:1 1:1 2:1 1:1 3:4 2:1
2:0 3:2 4:6 3:1 2:1 1:1 2:1 1:1 3:4 2:1 4:3
3:0 4:6 3:1 2:1 1:1 2:1 1:1 3:4 2:1 4:3
4:0 3:1 2:1 1:1 2:1 1:1 3:4 2:1 4:3
3:0 2:1 1:1 2:1 1:1 3:4 2:1 4:3
2:0 1:1 2:1 1:1 3:4 2:1 4:3
1:0 2:1 1:1 3:4 2:1 4:3
2:0 1:1 3:4 2:1 4:3
1:0 3:4 2:1 4:3
3:0 2:1 4:3
2:0 4:3
4:0
2:0 3:2 4:6 3:1 2:1 1:1 3:6 2:1 4:3 2:4 3:2 4:6 3:1 2:1 1:1 2:1 1:1 3:4 2:1 4:3 1:4 2:1 3:1 4:6 3:1 2:1 1:1 2:3 1:1 3:2 2:1 4:3 2:4 3:2 2:4 3:1 4:1 3:1 2:1 1:1 3:6 2:1 4:3 1:4 2:1 3:1 4:6 3:1 2:1 1:1 3:6 2:1 4:3 2:4 3:2 4:6 3:1 2:1 1:1 2:1 1:1 2:1 1:1 3:2 2:1 3:2 4:1 1:4 2:1 3:1 2:8 1:1 3:6 2:1 4:3 2:4 3:2 4:6 3:1 2:1 1:1 2:3 1:1 3:2 2:1 3:2 4:1 1:4 2:1 3:1 4:6 3:1 2:1 1:1 2:3 1:1 3:2 2:1 4:3 2:4 3:2 4:6 3:1 2:1 1:1 2:3 1:1 3:2 2:1 4:3 1:4 2:1 3:1 4:6 3:1 2:1 1:1 2:3 1:1 3:2 2:1 4:3 2:4 3:2 4:6 3:1 2:1 1:1 2:3 1:1 3:2 2:1 4:3 2:4 3:2 2:4 3:1 4:1 3:1 2:1 1:1 2:3 1:1 3:2 2:1 4:3 1:4 2:1 3:1 4:6 3:1 2:1 1:1 3:6 2:1 3:2 4:1 2:4 3:2 4:6 3:1 2:1 1:1 3:6 2:1 4:3 1:4 2:1 3:1 4:6 3:1 2:1 1:1 2:1 1:1 2:1 1:1 3:2 2:1 4:3 2:4 3:2 4:6 3:1 2:1 1:1 2:1 1:1 3:4 2:1 4:3 2:4 3:2 4:6 3:1 2:1 1:1 3:6 2:1 4:3 1:4 2:1 3:1 4:6 3:1 2:1 1:1 3:6 2:1 4:3 1:4 2:1 3:1 4:6 3:1 2:1 1:1 2:3 1:1 3:2 2:1 4:3 1:4 2:1 3:1 4:6 3:1 2:1 1:1 3:6 2:1 4:3 2:4 3:2 4:6 3:1 2:1 1:1 2:1 1:1 3:4 2:1 4:3 2:4 3:2 4:6 3:1 2:1 1:1 2:3 1:1 3:2 2:1 3:2 4:1 2:4 3:2 4:6 3:1 2:1 1:1 2:1 1:1 2:1 1:1 3:2 2:1 4:3 2:4 3:2 4:6 3:1 2:1 1:1 2:1 1:1 2:1 1:1 3:2 2:1 4:3 2:4 3:2 4:6 3:1 2:1 1:1 3:6 2:1 4:3 1:4 2:1 3:1 4:6 3:1 2:1 1:1 2:3 1:1 3:2 2:1 4:3 2:4 3:2 4:6 3:1 2:1 1:1 2:1 1:1 3:4 2:1 4:3 2:4 3:2 2:4 3:1 4:1 3:1 2:1 1:1 2:1 1:1 2:1 1:1 3:2 2:1 4:3 1:4 2:1 3:1 4:6 3:1 2:1 1:1 3:6 2:1 4:3 1:4 2:1 3:1 4:6 3:1 2:1 1:1 2:1 1:1 3:4 2:1 4:3 5:3 2:1 3:2 4:6 3:1 2:1 1:1 2:3 1:1 3:2 2:1 4:3 2:4 3:2 4:6 3:1 2:1 1:1 2:3 1:1 3:2 2:1 4:3 1:4 2:1 3:1 4:6 3:1 2:1 1:1 2:1 1:1 2:1 1:1 3:2 2:1 4:3 1:4 2:1 3:1 4:6 3:1 2:1 1:1 3:6 2:1 4:3 2:4 3:2 2:8 1:1 2:1 1:1 2:1 1:1 3:2 2:1 4:3 1:4 2:1 3:1 4:6 3:1 2:1 1:1 3:6 2:1 4:3 1:4 2:1 3:1 4:6 3:1 2:1 1:1 2:3 1:1 3:2 2:1 4:3 2:4 3:2 4:6 3:1 2:1 1:1 3:6 2:1 4:3 2:4 3:2 4:6 3:1 2:1 1:1 2:1 1:1 3:4 2:1 4:3