4:0 5:3 4:1 5:1 3:4 2:2 3:1 4:1 3:2 2:2 1:2
5:0 4:1 5:1 3:4 2:2 3:1 4:1 3:2 2:2 1:2 2:1
4:0 5:1 3:4 2:2 3:1 4:1 3:2 2:2 1:2 2:1 3:2
5:0 3:4 2:2 3:1 4:1 3:2 2:2 1:2 2:1 3:2 4:3
3:0 2:2 3:1 4:1 3:2 2:2 1:2 2:1 3:2 4:3 5:3
2:0 3:1 4:1 3:2 2:2 1:2 2:1 3:2 4:3 5:3 4:1
3:0 4:1 3:2 2:2 1:2 2:1 3:2 4:3 5:3 4:1 5:1
4:0 3:2 2:2 1:2 2:1 3:2 4:3 5:3 4:1 5:1 3:4
3:0 2:2 1:2 2:1 3:2 4:3 5:3 4:1 5:1 3:4 2:2
2:0 1:2 2:1 3:2 4:3 5:3 4:1 5:1 3:4 2:2 3:1
1:0 2:1 3:2 4:3 5:3 4:1 5:1 3:4 2:2 3:1 4:1
2:0 3:2 4:3 5:3 4:1 5:1 3:4 2:2 3:1 4:1 3:2
3:0 4:3 5:3 4:1 5:1 3:4 2:2 3:1 4:1 3:2 2:2
4:0 5:3 4:1 5:1 3:4 2:2 3:1 4:1 3:2 2:2 1:2
5:0 4:1 5:1 3:4 2:2 3:1 4:1 3:2 2:2 1:2 2:1
4:0 5:1 3:4 2:2 3:1 4:1 3:2 2:2 1:2 2:1 3:2
5:0 3:4 2:2 3:1 4:1 3:2 2:2 1:2 2:1 3:2 4:3
3:0 2:2 3:1 4:1 3:2 2:2 1:2 2:1 3:2 4:3 5:3
2:0 3:1 4:1 3:2 2:2 1:2 2:1 3:2 4:3 5:3 4:1
3:0 4:1 3:2 2:2 1:2 2:1 3:2 4:3 5:3 4:1 5:1
4:0 3:2 2:2 1:2 2:1 3:2 4:3 5:3 4:1 5:1 3:4
3:0 2:2 1:2 2:1 3:2 4:3 5:3 4:1 5:1 3:4 2:2
2:0 1:2 2:1 3:2 4:3 5:3 4:1 5:1 3:4 2:2 3:1
1:0 2:1 3:2 4:3 5:3 4:1 5:1 3:4 2:2 3:1 4:1
2:0 3:2 4:3 5:3 4:1 5:1 3:4 2:2 3:1 4:1 3:2
3:0 4:3 5:3 4:1 5:1 3:4 2:2 3:1 4:1 3:2 2:2
4:0 5:3 4:1 5:1 3:4 2:2 3:1 4:1 3:2 2:2 1:2
5:0 4:1 5:1 3:4 2:2 3:1 4:1 3:2 2:2 1:2 2:1
4:0 5:1 3:4 2:2 3:1 4:1 3:2 2:2 1:2 2:1 3:2
5:0 3:4 2:2 3:1 4:1 3:2 2:2 1:2 2:1 3:2 4:3
3:0 2:2 3:1 4:1 3:2 2:2 1:2 2:1 3:2 4:3 5:3
2:0 3:1 4:1 3:2 2:2 1:2 2:1 3:2 4:3 5:3 4:1
3:0 4:1 3:2 2:2 1:2 2:1 3:2 4:3 5:3 4:1 5:1
4:0 3:2 2:2 1:2 2:1 3:2 4:3 5:3 4:1 5:1 3:4
3:0 2:2 1:2 2:1 3:2 4:3 5:3 4:1 5:1 3:4 2:2
2:0 1:2 2:1 3:2 4:3 5:3 4:1 5:1 3:4 2:2 3:1
1:0 2:1 3:2 4:3 5:3 4:1 5:1 3:4 2:2 3:1 4:1
2:0 3:2 4:3 5:3 4:1 5:1 3:4 2:2 3:1 4:1 3:2
3:0 4:3 5:3 4:1 5:1 3:4 2:2 3:1 4:1 3:2 2:2
4:0 5:3 4:1 5:1 3:4 2:2 3:1 4:1 3:2 2:2 1:2
5:0 4:1 5:1 3:4 2:2 3:1 4:1 3:2 2:2 1:2 2:1
4:0 5:1 3:4 2:2 3:1 4:1 3:2 2:2 1:2 2:1 3:2
5:0 3:4 2:2 3:1 4:1 3:2 2:2 1:2 2:1 3:2 4:3
3:0 2:2 3:1 4:1 3:2 2:2 1:2 2:1 3:2 4:3 5:3
2:0 3:1 4:1 3:2 2:2 1:2 2:1 3:2 4:3 5:3 4:1
3:0 4:1 3:2 2:2 1:2 2:1 3:2 4:3 5:3 4:1 5:1
4:0 3:2 2:2 1:2 2:1 3:2 4:3 5:3 4:1 5:1 3:4
3:0 2:2 1:2 2:1 3:2 4:3 5:3 4:1 5:1 3:4 2:2
2:0 1:2 2:1 3:2 4:3 5:3 4:1 5:1 3:4 2:2 3:1
1:0 2:1 3:2 4:3 5:3 4:1 5:1 3:4 2:2 3:1 4:1
2:0 3:2 4:3 5:3 4:1 5:1 3:4 2:2 3:1 4:1 3:2
3:0 4:3 5:3 4:1 5:1 3:4 2:2 3:1 4:1 3:2 2:2
4:0 5:3 4:1 5:1 3:4 2:2 3:1 4:1 3:2 2:2 1:2
5:0 4:1 5:1 3:4 2:2 3:1 4:1 3:2 2:2 1:2 2:1
4:0 5:1 3:4 2:2 3:1 4:1 3:2 2:2 1:2 2:1 3:2
5:0 3:4 2:2 3:1 4:1 3:2 2:2 1:2 2:1 3:2 4:3
3:0 2:2 3:1 4:1 3:2 2:2 1:2 2:1 3:2 4:3 5:3
2:0 3:1 4:1 3:2 2:2 1:2 2:1 3:2 4:3 5:3 4:1
3:0 4:1 3:2 2:2 1:2 2:1 3:2 4:3 5:3 4:1 5:1
4:0 3:2 2:2 1:2 2:1 3:2 4:3 5:3 4:1 5:1 3:4
3:0 2:2 1:2 2:1 3:2 4:3 5:3 4:1 5:1 3:4 2:2
2:0 1:2 2:1 3:2 4:3 5:3 4:1 5:1 3:4 2:2 3:1
1:0 2:1 3:2 4:3 5:3 4:1 5:1 3:4 2:2 3:1 4:1
2:0 3:2 4:3 5:3 4:1 5:1 3:4 2:2 3:1 4:1 3:2
3:0 4:3 5:3 4:1 5:1 3:4 2:2 3:1 4:1 3:2 2:2
4:0 5:3 4:1 5:1 3:4 2:2 3:1 4:1 3:2 2:2 1:2
5:0 4:1 5:1 3:4 2:2 3:1 4:1 3:2 2:2 1:2 2:1
4:0 5:1 3:4 2:2 3:1 4:1 3:2 2:2 1:2 2:1 3:2
5:0 3:4 2:2 3:1 4:1 3:2 2:2 1:2 2:1 3:2 4:3
3:0 2:2 3:1 4:1 3:2 2:2 1:2 2:1 3:2 4:3 5:3
2:0 3:1 4:1 3:2 2:2 1:2 2:1 3:2 4:3 5:3 4:1
3:0 4:1 3:2 2:2 1:2 2:1 3:2 4:3 5:3 4:1 5:1
4:0 3:2 2:2 1:2 2:1 3:2 4:3 5:3 4:1 5:1 3:4
3:0 2:2 1:2 2:1 3:2 4:3 5:3 4:1 5:1 3:4 2:2
2:0 1:2 2:1 3:2 4:3 5:3 4:1 5:1 3:4 2:2 3:1
1:0 2:1 3:2 4:3 5:3 4:1 5:1 3:4 2:2 3:1 4:1
2:0 3:2 4:3 5:3 4:1 5:1 3:4 2:2 3:1 4:1 3:2
3:0 4:3 5:3 4:1 5:1 3:4 2:2 3:1 4:1 3:2 2:2
4:0 5:3 4:1 5:1 3:4 2:2 3:1 4:1 3:2 2:2 1:2
5:0 4:1 5:1 3:4 2:2 3:1 4:1 3:2 2:2 1:2 2:1
4:0 5:1 3:4 2:2 3:1 4:1 3:2 2:2 1:2 2:1 3:2
5:0 3:4 2:2 3:1 4:1 3:2 2:2 1:2 2:1 3:2 4:3
3:0 2:2 3:1 4:1 3:2 2:2 1:2 2:1 3:2 4:3 5:3
2:0 3:1 4:1 3:2 2:2 1:2 2:1 3:2 4:3 5:3 4:1
3:0 4:1 3:2 2:2 1:2 2:1 3:2 4:3 5:3 4:1 5:1
4:0 3:2 2:2 1:2 2:1 3:2 4:3 5:3 4:1 5:1 3:4
3:0 2:2 1:2 2:1 3:2 4:3 5:3 4:1 5:1 3:4 2:2
2:0 1:2 2:1 3:2 4:3 5:3 4:1 5:1 3:4 2:2 3:1
1:0 2:1 3:2 4:3 5:3 4:1 5:1 3:4 2:2 3:1 4:1
2:0 3:2 4:3 5:3 4:1 5:1 3:4 2:2 3:1 4:1 3:2
3:0 4:3 5:3 4:1 5:1 3:4 2:2 3:1 4:1 3:2 2:2
4:0 5:3 4:1 5:1 3:4 2:2 3:1 4:1 3:2 2:2 1:2
5:0 4:1 5:1 3:4 2:2 3:1 4:1 3:2 2:2 1:2 2:1
4:0 5:1 3:4 2:2 3:1 4:1 3:2 2:2 1:2 2:1 3:2
5:0 3:4 2:2 3:1 4:1 3:2 2:2 1:2 2:1 3:2 4:3
3:0 2:2 3:1 4:1 3:2 2:2 1:2 2:1 3:2 4:3 5:5
2:0 3:1 4:1 3:2 2:2 1:2 2:1 3:2 4:3 5:5 3:4
3:0 4:1 3:2 2:2 1:2 2:1 3:2 4:3 5:5 3:4 2:2
4:0 3:2 2:2 1:2 2:1 3:2 4:3 5:5 3:4 2:2 3:1
3:0 2:2 1:2 2:1 3:2 4:3 5:5 3:4 2:2 3:1 4:1
2:0 1:2 2:1 3:2 4:3 5:5 3:4 2:2 3:1 4:1 3:2
1:0 2:1 3:2 4:3 5:5 3:4 2:2 3:1 4:1 3:2 2:2
2:0 3:2 4:3 5:5 3:4 2:2 3:1 4:1 3:2 2:2 1:2
3:0 4:3 5:5 3:4 2:2 3:1 4:1 3:2 2:2 1:2 2:1
4:0 5:5 3:4 2:2 3:1 4:1 3:2 2:2 1:2 2:1 3:2
5:0 3:4 2:2 3:1 4:1 3:2 2:2 1:2 2:1 3:2 4:3
3:0 2:2 3:1 4:1 3:2 2:2 1:2 2:1 3:2 4:3 5:3
2:0 3:1 4:1 3:2 2:2 1:2 2:1 3:2 4:3 5:3 4:1
3:0 4:1 3:2 2:2 1:2 2:1 3:2 4:3 5:3 4:1 5:1
4:0 3:2 2:2 1:2 2:1 3:2 4:3 5:3 4:1 5:1 3:4
3:0 2:2 1:2 2:1 3:2 4:3 5:3 4:1 5:1 3:4 2:2
2:0 1:2 2:1 3:2 4:3 5:3 4:1 5:1 3:4 2:2 3:1
1:0 2:1 3:2 4:3 5:3 4:1 5:1 3:4 2:2 3:1 4:1
2:0 3:2 4:3 5:3 4:1 5:1 3:4 2:2 3:1 4:1 3:2
3:0 4:3 5:3 4:1 5:1 3:4 2:2 3:1 4:1 3:2 2:2
4:0 5:3 4:1 5:1 3:4 2:2 3:1 4:1 3:2 2:2 1:2
5:0 4:1 5:1 3:4 2:2 3:1 4:1 3:2 2:2 1:2 2:1
4:0 5:1 3:4 2:2 3:1 4:1 3:2 2:2 1:2 2:1 3:2
5:0 3:4 2:2 3:1 4:1 3:2 2:2 1:2 2:1 3:2 4:3
3:0 2:2 3:1 4:1 3:2 2:2 1:2 2:1 3:2 4:3 5:3
2:0 3:1 4:1 3:2 2:2 1:2 2:1 3:2 4:3 5:3 4:1
3:0 4:1 3:2 2:2 1:2 2:1 3:2 4:3 5:3 4:1 5:1
4:0 3:2 2:2 1:2 2:1 3:2 4:3 5:3 4:1 5:1 3:4
3:0 2:2 1:2 2:1 3:2 4:3 5:3 4:1 5:1 3:4 2:2
2:0 1:2 2:1 3:2 4:3 5:3 4:1 5:1 3:4 2:2 3:1
1:0 2:1 3:2 4:3 5:3 4:1 5:1 3:4 2:2 3:1 4:1
2:0 3:2 4:3 5:3 4:1 5:1 3:4 2:2 3:1 4:1 3:2
3:0 4:3 5:3 4:1 5:1 3:4 2:2 3:1 4:1 3:2 2:2
4:0 5:3 4:1 5:1 3:4 2:2 3:1 4:1 3:2 2:2 1:2
5:0 4:1 5:1 3:4 2:2 3:1 4:1 3:2 2:2 1:2 2:1
4:0 5:1 3:4 2:2 3:1 4:1 3:2 2:2 1:2 2:1 3:2
5:0 3:4 2:2 3:1 4:1 3:2 2:2 1:2 2:1 3:2 4:3
3:0 2:2 3:1 4:1 3:2 2:2 1:2 2:1 3:2 4:3 5:3
2:0 3:1 4:1 3:2 2:2 1:2 2:1 3:2 4:3 5:3 4:1
3:0 4:1 3:2 2:2 1:2 2:1 3:2 4:3 5:3 4:1 5:1
4:0 3:2 2:2 1:2 2:1 3:2 4:3 5:3 4:1 5:1 3:4
3:0 2:2 1:2 2:1 3:2 4:3 5:3 4:1 5:1 3:4 2:2
2:0 1:2 2:1 3:2 4:3 5:3 4:1 5:1 3:4 2:2 3:1
1:0 2:1 3:2 4:3 5:3 4:1 5:1 3:4 2:2 3:1 4:1
2:0 3:2 4:3 5:3 4:1 5:1 3:4 2:2 3:1 4:1 3:2
3:0 4:3 5:3 4:1 5:1 3:4 2:2 3:1 4:1 3:2 2:2
4:0 5:3 4:1 5:1 3:4 2:2 3:1 4:1 3:2 2:2 1:2
5:0 4:1 5:1 3:4 2:2 3:1 4:1 3:2 2:2 1:2 2:1
4:0 5:1 3:4 2:2 3:1 4:1 3:2 2:2 1:2 2:1 3:2
5:0 3:4 2:2 3:1 4:1 3:2 2:2 1:2 2:1 3:2 4:3
3:0 2:2 3:1 4:1 3:2 2:2 1:2 2:1 3:2 4:3 5:3
2:0 3:1 4:1 3:2 2:2 1:2 2:1 3:2 4:3 5:3 4:1
3:0 4:1 3:2 2:2 1:2 2:1 3:2 4:3 5:3 4:1 5:1
4:0 3:2 2:2 1:2 2:1 3:2 4:3 5:3 4:1 5:1 3:4
3:0 2:2 1:2 2:1 3:2 4:3 5:3 4:1 5:1 3:4 2:2
2:0 1:2 2:1 3:2 4:3 5:3 4:1 5:1 3:4 2:2 3:1
1:0 2:1 3:2 4:3 5:3 4:1 5:1 3:4 2:2 3:1 4:1
2:0 3:2 4:3 5:3 4:1 5:1 3:4 2:2 3:1 4:1 3:2
3:0 4:3 5:3 4:1 5:1 3:4 2:2 3:1 4:1 3:2 2:2
4:0 5:3 4:1 5:1 3:4 2:2 3:1 4:1 3:2 2:2 1:2
5:0 4:1 5:1 3:4 2:2 3:1 4:1 3:2 2:2 1:2 2:1
4:0 5:1 3:4 2:2 3:1 4:1 3:2 2:2 1:2 2:1 3:2
5:0 3:4 2:2 3:1 4:1 3:2 2:2 1:2 2:1 3:2 4:3
3:0 2:2 3:1 4:1 3:2 2:2 1:2 2:1 3:2 4:3 5:3
2:0 3:1 4:1 3:2 2:2 1:2 2:1 3:2 4:3 5:3 4:1
3:0 4:1 3:2 2:2 1:2 2:1 3:2 4:3 5:3 4:1 5:1
4:0 3:2 2:2 1:2 2:1 3:2 4:3 5:3 4:1 5:1 3:4
3:0 2:2 1:2 2:1 3:2 4:3 5:3 4:1 5:1 3:4 2:2
2:0 1:2 2:1 3:2 4:3 5:3 4:1 5:1 3:4 2:2 3:1
1:0 2:1 3:2 4:3 5:3 4:1 5:1 3:4 2:2 3:1 4:1
2:0 3:2 4:3 5:3 4:1 5:1 3:4 2:2 3:1 4:1 3:2
3:0 4:3 5:3 4:1 5:1 3:4 2:2 3:1 4:1 3:2 2:2
4:0 5:3 4:1 5:1 3:4 2:2 3:1 4:1 3:2 2:2 1:2
5:0 4:1 5:1 3:4 2:2 3:1 4:1 3:2 2:2 1:2 2:1
4:0 5:1 3:4 2:2 3:1 4:1 3:2 2:2 1:2 2:1 3:2
5:0 3:4 2:2 3:1 4:1 3:2 2:2 1:2 2:1 3:2 4:3
3:0 2:2 3:1 4:1 3:2 2:2 1:2 2:1 3:2 4:3 5:3
2:0 3:1 4:1 3:2 2:2 1:2 2:1 3:2 4:3 5:3 4:1
3:0 4:1 3:2 2:2 1:2 2:1 3:2 4:3 5:3 4:1 5:1
4:0 3:2 2:2 1:2 2:1 3:2 4:3 5:3 4:1 5:1 3:4
3:0 2:2 1:2 2:1 3:2 4:3 5:3 4:1 5:1 3:4 2:2
2:0 1:2 2:1 3:2 4:3 5:3 4:1 5:1 3:4 2:2 3:1
1:0 2:1 3:2 4:3 5:3 4:1 5:1 3:4 2:2 3:1 4:1
2:0 3:2 4:3 5:3 4:1 5:1 3:4 2:2 3:1 4:1 3:2
3:0 4:3 5:3 4:1 5:1 3:4 2:2 3:1 4:1 3:2 2:2
4:0 5:3 4:1 5:1 3:4 2:2 3:1 4:1 3:2 2:2 1:2
5:0 4:1 5:1 3:4 2:2 3:1 4:1 3:2 2:2 1:2 2:1
4:0 5:1 3:4 2:2 3:1 4:1 3:2 2:2 1:2 2:1 3:2
5:0 3:4 2:2 3:1 4:1 3:2 2:2 1:2 2:1 3:2 4:3
3:0 2:2 3:1 4:1 3:2 2:2 1:2 2:1 3:2 4:3 5:3
2:0 3:1 4:1 3:2 2:2 1:2 2:1 3:2 4:3 5:3 4:1
3:0 4:1 3:2 2:2 1:2 2:1 3:2 4:3 5:3 4:1 5:1
4:0 3:2 2:2 1:2 2:1 3:2 4:3 5:3 4:1 5:1 3:4
3:0 2:2 1:2 2:1 3:2 4:3 5:3 4:1 5:1 3:4 2:2
2:0 1:2 2:1 3:2 4:3 5:3 4:1 5:1 3:4 2:2 3:1
1:0 2:1 3:2 4:3 5:3 4:1 5:1 3:4 2:2 3:1 4:1
2:0 3:2 4:3 5:3 4:1 5:1 3:4 2:2 3:1 4:1 3:2
3:0 4:3 5:3 4:1 5:1 3:4 2:2 3:1 4:1 3:2 2:2
4:0 5:3 4:1 5:1 3:4 2:2 3:1 4:1 3:2 2:2 1:2
5:0 4:1 5:1 3:4 2:2 3:1 4:1 3:2 2:2 1:2 2:1
4:0 5:1 3:4 2:2 3:1 4:1 3:2 2:2 1:2 2:1 3:2
5:0 3:4 2:2 3:1 4:1 3:2 2:2 1:2 2:1 3:2 4:3
3:0 2:2 3:1 4:1 3:2 2:2 1:2 2:1 3:2 4:3 5:3
2:0 3:1 4:1 3:2 2:2 1:2 2:1 3:2 4:3 5:3 4:1
3:0 4:1 3:2 2:2 1:2 2:1 3:2 4:3 5:3 4:1 5:1
4:0 3:2 2:2 1:2 2:1 3:2 4:3 5:3 4:1 5:1 3:4
3:0 2:2 1:2 2:1 3:2 4:3 5:3 4:1 5:1 3:4 2:2
2:0 1:2 2:1 3:2 4:3 5:3 4:1 5:1 3:4 2:2 3:1
1:0 2:1 3:2 4:3 5:3 4:1 5:1 3:4 2:2 3:1 4:1
2:0 3:2 4:3 5:3 4:1 5:1 3:4 2:2 3:1 4:1 3:2
3:0 4:3 5:3 4:1 5:1 3:4 2:2 3:1 4:1 3:2 2:2
4:0 5:3 4:1 5:1 3:4 2:2 3:1 4:1 3:2 2:2 1:2
5:0 4:1 5:1 3:4 2:2 3:1 4:1 3:2 2:2 1:2 2:1
4:0 5:1 3:4 2:2 3:1 4:1 3:2 2:2 1:2 2:1 3:2
5:0 3:4 2:2 3:1 4:1 3:2 2:2 1:2 2:1 3:2 4:3
3:0 2:2 3:1 4:1 3:2 2:2 1:2 2:1 3:2 4:3 5:3
2:0 3:1 4:1 3:2 2:2 1:2 2:1 3:2 4:3 5:3 3:6
3:0 4:1 3:2 2:2 1:2 2:1 3:2 4:3 5:3 3:6 2:2
4:0 3:2 2:2 1:2 2:1 3:2 4:3 5:3 3:6 2:2 3:1
3:0 2:2 1:2 2:1 3:2 4:3 5:3 3:6 2:2 3:1 4:1
2:0 1:2 2:1 3:2 4:3 5:3 3:6 2:2 3:1 4:1 3:2
1:0 2:1 3:2 4:3 5:3 3:6 2:2 3:1 4:1 3:2 2:2
2:0 3:2 4:3 5:3 3:6 2:2 3:1 4:1 3:2 2:2 1:2
3:0 4:3 5:3 3:6 2:2 3:1 4:1 3:2 2:2 1:2 2:1
4:0 5:3 3:6 2:2 3:1 4:1 3:2 2:2 1:2 2:1 3:2
5:0 3:6 2:2 3:1 4:1 3:2 2:2 1:2 2:1 3:2 4:3
3:0 2:2 3:1 4:1 3:2 2:2 1:2 2:1 3:2 4:3 5:3
2:0 3:1 4:1 3:2 2:2 1:2 2:1 3:2 4:3 5:3 4:1
3:0 4:1 3:2 2:2 1:2 2:1 3:2 4:3 5:3 4:1 5:1
4:0 3:2 2:2 1:2 2:1 3:2 4:3 5:3 4:1 5:1 3:4
3:0 2:2 1:2 2:1 3:2 4:3 5:3 4:1 5:1 3:4 2:2
2:0 1:2 2:1 3:2 4:3 5:3 4:1 5:1 3:4 2:2 3:1
1:0 2:1 3:2 4:3 5:3 4:1 5:1 3:4 2:2 3:1 4:1
2:0 3:2 4:3 5:3 4:1 5:1 3:4 2:2 3:1 4:1 3:2
3:0 4:3 5:3 4:1 5:1 3:4 2:2 3:1 4:1 3:2 2:2
4:0 5:3 4:1 5:1 3:4 2:2 3:1 4:1 3:2 2:2 1:2
5:0 4:1 5:1 3:4 2:2 3:1 4:1 3:2 2:2 1:2 2:1
4:0 5:1 3:4 2:2 3:1 4:1 3:2 2:2 1:2 2:1 3:2
5:0 3:4 2:2 3:1 4:1 3:2 2:2 1:2 2:1 3:2 4:3
3:0 2:2 3:1 4:1 3:2 2:2 1:2 2:1 3:2 4:3 5:3
2:0 3:1 4:1 3:2 2:2 1:2 2:1 3:2 4:3 5:3 4:1
3:0 4:1 3:2 2:2 1:2 2:1 3:2 4:3 5:3 4:1 5:1
4:0 3:2 2:2 1:2 2:1 3:2 4:3 5:3 4:1 5:1 3:4
3:0 2:2 1:2 2:1 3:2 4:3 5:3 4:1 5:1 3:4 2:2
2:0 1:2 2:1 3:2 4:3 5:3 4:1 5:1 3:4 2:2 3:1
1:0 2:1 3:2 4:3 5:3 4:1 5:1 3:4 2:2 3:1 4:1
2:0 3:2 4:3 5:3 4:1 5:1 3:4 2:2 3:1 4:1 3:2
3:0 4:3 5:3 4:1 5:1 3:4 2:2 3:1 4:1 3:2 2:2
4:0 5:3 4:1 5:1 3:4 2:2 3:1 4:1 3:2 2:2 1:2
5:0 4:1 5:1 3:4 2:2 3:1 4:1 3:2 2:2 1:2 2:1
4:0 5:1 3:4 2:2 3:1 4:1 3:2 2:2 1:2 2:1 3:2
5:0 3:4 2:2 3:1 4:1 3:2 2:2 1:2 2:1 3:2 4:3
3:0 2:2 3:1 4:1 3:2 2:2 1:2 2:1 3:2 4:3 5:3
2:0 3:1 4:1 3:2 2:2 1:2 2:1 3:2 4:3 5:3 4:1
3:0 4:1 3:2 2:2 1:2 2:1 3:2 4:3 5:3 4:1 5:1
4:0 3:2 2:2 1:2 2:1 3:2 4:3 5:3 4:1 5:1 3:4
3:0 2:2 1:2 2:1 3:2 4:3 5:3 4:1 5:1 3:4 2:2
2:0 1:2 2:1 3:2 4:3 5:3 4:1 5:1 3:4 2:2 3:1
1:0 2:1 3:2 4:3 5:3 4:1 5:1 3:4 2:2 3:1 4:1
2:0 3:2 4:3 5:3 4:1 5:1 3:4 2:2 3:1 4:1 3:2
3:0 4:3 5:3 4:1 5:1 3:4 2:2 3:1 4:1 3:2 2:2
4:0 5:3 4:1 5:1 3:4 2:2 3:1 4:1 3:2 2:2 1:2
5:0 4:1 5:1 3:4 2:2 3:1 4:1 3:2 2:2 1:2 2:1
4:0 5:1 3:4 2:2 3:1 4:1 3:2 2:2 1:2 2:1 3:2
5:0 3:4 2:2 3:1 4:1 3:2 2:2 1:2 2:1 3:2 4:3
3:0 2:2 3:1 4:1 3:2 2:2 1:2 2:1 3:2 4:3 5:3
2:0 3:1 4:1 3:2 2:2 1:2 2:1 3:2 4:3 5:3 4:1
3:0 4:1 3:2 2:2 1:2 2:1 3:2 4:3 5:3 4:1 5:1
4:0 3:2 2:2 1:2 2:1 3:2 4:3 5:3 4:1 5:1 3:4
3:0 2:2 1:2 2:1 3:2 4:3 5:3 4:1 5:1 3:4 2:2
2:0 1:2 2:1 3:2 4:3 5:3 4:1 5:1 3:4 2:2 3:1
1:0 2:1 3:2 4:3 5:3 4:1 5:1 3:4 2:2 3:1 4:1
2:0 3:2 4:3 5:3 4:1 5:1 3:4 2:2 3:1 4:1 3:2
3:0 4:3 5:3 4:1 5:1 3:4 2:2 3:1 4:1 3:2 2:2
4:0 5:3 4:1 5:1 3:4 2:2 3:1 4:1 3:2 2:2 1:2
5:0 4:1 5:1 3:4 2:2 3:1 4:1 3:2 2:2 1:2 2:1
4:0 5:1 3:4 2:2 3:1 4:1 3:2 2:2 1:2 2:1 3:2
5:0 3:4 2:2 3:1 4:1 3:2 2:2 1:2 2:1 3:2 4:3
3:0 2:2 3:1 4:1 3:2 2:2 1:2 2:1 3:2 4:3 5:3
2:0 3:1 4:1 3:2 2:2 1:2 2:1 3:2 4:3 5:3 4:1
3:0 4:1 3:2 2:2 1:2 2:1 3:2 4:3 5:3 4:1 5:1
4:0 3:2 2:2 1:2 2:1 3:2 4:3 5:3 4:1 5:1 3:4
3:0 2:2 1:2 2:1 3:2 4:3 5:3 4:1 5:1 3:4 2:2
2:0 1:2 2:1 3:2 4:3 5:3 4:1 5:1 3:4 2:2 3:1
1:0 2:1 3:2 4:3 5:3 4:1 5:1 3:4 2:2 3:1 4:1
2:0 3:2 4:3 5:3 4:1 5:1 3:4 2:2 3:1 4:1 3:2
3:0 4:3 5:3 4:1 5:1 3:4 2:2 3:1 4:1 3:2 2:2
4:0 5:3 4:1 5:1 3:4 2:2 3:1 4:1 3:2 2:2 1:2
5:0 4:1 5:1 3:4 2:2 3:1 4:1 3:2 2:2 1:2 2:1
4:0 5:1 3:4 2:2 3:1 4:1 3:2 2:2 1:2 2:1 3:2
5:0 3:4 2:2 3:1 4:1 3:2 2:2 1:2 2:1 3:2 4:3
3:0 2:2 3:1 4:1 3:2 2:2 1:2 2:1 3:2 4:3 5:3
2:0 3:1 4:1 3:2 2:2 1:2 2:1 3:2 4:3 5:3 4:1
3:0 4:1 3:2 2:2 1:2 2:1 3:2 4:3 5:3 4:1 5:1
4:0 3:2 2:2 1:2 2:1 3:2 4:3 5:3 4:1 5:1 3:4
3:0 2:2 1:2 2:1 3:2 4:3 5:3 4:1 5:1 3:4 2:2
2:0 1:2 2:1 3:2 4:3 5:3 4:1 5:1 3:4 2:2 3:1
1:0 2:1 3:2 4:3 5:3 4:1 5:1 3:4 2:2 3:1 4:1
2:0 3:2 4:3 5:3 4:1 5:1 3:4 2:2 3:1 4:1 3:2
3:0 4:3 5:3 4:1 5:1 3:4 2:2 3:1 4:1 3:2 2:2
4:0 5:3 4:1 5:1 3:4 2:2 3:1 4:1 3:2 2:2 1:2
5:0 4:1 5:1 3:4 2:2 3:1 4:1 3:2 2:2 1:2 2:1
4:0 5:1 3:4 2:2 3:1 4:1 3:2 2:2 1:2 2:1 3:2
5:0 3:4 2:2 3:1 4:1 3:2 2:2 1:2 2:1 3:2 4:3
3:0 2:2 3:1 4:1 3:2 2:2 1:2 2:1 3:2 4:3 5:3
2:0 3:1 4:1 3:2 2:2 1:2 2:1 3:2 4:3 5:3 4:1
3:0 4:1 3:2 2:2 1:2 2:1 3:2 4:3 5:3 4:1 5:1
4:0 3:2 2:2 1:2 2:1 3:2 4:3 5:3 4:1 5:1 3:4
3:0 2:2 1:2 2:1 3:2 4:3 5:3 4:1 5:1 3:4 2:2
2:0 1:2 2:1 3:2 4:3 5:3 4:1 5:1 3:4 2:2 3:1
1:0 2:1 3:2 4:3 5:3 4:1 5:1 3:4 2:2 3:1 4:1
2:0 3:2 4:3 5:3 4:1 5:1 3:4 2:2 3:1 4:1 3:2
3:0 4:3 5:3 4:1 5:1 3:4 2:2 3:1 4:1 3:2 2:2
4:0 5:3 4:1 5:1 3:4 2:2 3:1 4:1 3:2 2:2 1:2
5:0 4:1 5:1 3:4 2:2 3:1 4:1 3:2 2:2 1:2 2:1
4:0 5:1 3:4 2:2 3:1 4:1 3:2 2:2 1:2 2:1 3:2
5:0 3:4 2:2 3:1 4:1 3:2 2:2 1:2 2:1 3:2 4:3
3:0 2:2 3:1 4:1 3:2 2:2 1:2 2:1 3:2 4:3 5:3
2:0 3:1 4:1 3:2 2:2 1:2 2:1 3:2 4:3 5:3 4:1
3:0 4:1 3:2 2:2 1:2 2:1 3:2 4:3 5:3 4:1 5:1
4:0 3:2 2:2 1:2 2:1 3:2 4:3 5:3 4:1 5:1 3:4
3:0 2:2 1:2 2:1 3:2 4:3 5:3 4:1 5:1 3:4 2:2
2:0 1:2 2:1 3:2 4:3 5:3 4:1 5:1 3:4 2:2 3:1
1:0 2:1 3:2 4:3 5:3 4:1 5:1 3:4 2:2 3:1 4:1
2:0 3:2 4:3 5:3 4:1 5:1 3:4 2:2 3:1 4:1 5:1
3:0 4:3 5:3 4:1 5:1 3:4 2:2 3:1 4:1 5:1 3:1
4:0 5:3 4:1 5:1 3:4 2:2 3:1 4:1 5:1 3:1 2:2
5:0 4:1 5:1 3:4 2:2 3:1 4:1 5:1 3:1 2:2 1:2
4:0 5:1 3:4 2:2 3:1 4:1 5:1 3:1 2:2 1:2 2:1
5:0 3:4 2:2 3:1 4:1 5:1 3:1 2:2 1:2 2:1 3:2
3:0 2:2 3:1 4:1 5:1 3:1 2:2 1:2 2:1 3:2 4:3
2:0 3:1 4:1 5:1 3:1 2:2 1:2 2:1 3:2 4:3 5:3
3:0 4:1 5:1 3:1 2:2 1:2 2:1 3:2 4:3 5:3 4:1
4:0 5:1 3:1 2:2 1:2 2:1 3:2 4:3 5:3 4:1 5:1
5:0 3:1 2:2 1:2 2:1 3:2 4:3 5:3 4:1 5:1 3:4
3:0 2:2 1:2 2:1 3:2 4:3 5:3 4:1 5:1 3:4 2:2
2:0 1:2 2:1 3:2 4:3 5:3 4:1 5:1 3:4 2:2 3:1
1:0 2:1 3:2 4:3 5:3 4:1 5:1 3:4 2:2 3:1 4:1
2:0 3:2 4:3 5:3 4:1 5:1 3:4 2:2 3:1 4:1 3:2
3:0 4:3 5:3 4:1 5:1 3:4 2:2 3:1 4:1 3:2 2:2
4:0 5:3 4:1 5:1 3:4 2:2 3:1 4:1 3:2 2:2 1:2
5:0 4:1 5:1 3:4 2:2 3:1 4:1 3:2 2:2 1:2 2:1
4:0 5:1 3:4 2:2 3:1 4:1 3:2 2:2 1:2 2:1 3:2
5:0 3:4 2:2 3:1 4:1 3:2 2:2 1:2 2:1 3:2 4:3
3:0 2:2 3:1 4:1 3:2 2:2 1:2 2:1 3:2 4:3 5:3
2:0 3:1 4:1 3:2 2:2 1:2 2:1 3:2 4:3 5:3 4:1
3:0 4:1 3:2 2:2 1:2 2:1 3:2 4:3 5:3 4:1 5:1
4:0 3:2 2:2 1:2 2:1 3:2 4:3 5:3 4:1 5:1 3:4
3:0 2:2 1:2 2:1 3:2 4:3 5:3 4:1 5:1 3:4 2:2
2:0 1:2 2:1 3:2 4:3 5:3 4:1 5:1 3:4 2:2 3:1
1:0 2:1 3:2 4:3 5:3 4:1 5:1 3:4 2:2 3:1 4:1
2:0 3:2 4:3 5:3 4:1 5:1 3:4 2:2 3:1 4:1 3:2
3:0 4:3 5:3 4:1 5:1 3:4 2:2 3:1 4:1 3:2 2:2
4:0 5:3 4:1 5:1 3:4 2:2 3:1 4:1 3:2 2:2 1:2
5:0 4:1 5:1 3:4 2:2 3:1 4:1 3:2 2:2 1:2 2:1
4:0 5:1 3:4 2:2 3:1 4:1 3:2 2:2 1:2 2:1 3:2
5:0 3:4 2:2 3:1 4:1 3:2 2:2 1:2 2:1 3:2 4:3
3:0 2:2 3:1 4:1 3:2 2:2 1:2 2:1 3:2 4:3 5:3
2:0 3:1 4:1 3:2 2:2 1:2 2:1 3:2 4:3 5:3 4:1
3:0 4:1 3:2 2:2 1:2 2:1 3:2 4:3 5:3 4:1 5:1
4:0 3:2 2:2 1:2 2:1 3:2 4:3 5:3 4:1 5:1 3:4
3:0 2:2 1:2 2:1 3:2 4:3 5:3 4:1 5:1 3:4 2:2
2:0 1:2 2:1 3:2 4:3 5:3 4:1 5:1 3:4 2:2 3:1
1:0 2:1 3:2 4:3 5:3 4:1 5:1 3:4 2:2 3:1 4:1
2:0 3:2 4:3 5:3 4:1 5:1 3:4 2:2 3:1 4:1 3:2
3:0 4:3 5:3 4:1 5:1 3:4 2:2 3:1 4:1 3:2 2:2
4:0 5:3 4:1 5:1 3:4 2:2 3:1 4:1 3:2 2:2 1:2
5:0 4:1 5:1 3:4 2:2 3:1 4:1 3:2 2:2 1:2 2:1
4:0 5:1 3:4 2:2 3:1 4:1 3:2 2:2 1:2 2:1 3:2
5:0 3:4 2:2 3:1 4:1 3:2 2:2 1:2 2:1 3:2 4:3
3:0 2:2 3:1 4:1 3:2 2:2 1:2 2:1 3:2 4:3 5:3
2:0 3:1 4:1 3:2 2:2 1:2 2:1 3:2 4:3 5:3 4:1
3:0 4:1 3:2 2:2 1:2 2:1 3:2 4:3 5:3 4:1 5:1
4:0 3:2 2:2 1:2 2:1 3:2 4:3 5:3 4:1 5:1 3:4
3:0 2:2 1:2 2:1 3:2 4:3 5:3 4:1 5:1 3:4 2:2
2:0 1:2 2:1 3:2 4:3 5:3 4:1 5:1 3:4 2:2 3:1
1:0 2:1 3:2 4:3 5:3 4:1 5:1 3:4 2:2 3:1 4:1
2:0 3:2 4:3 5:3 4:1 5:1 3:4 2:2 3:1 4:1 3:2
3:0 4:3 5:3 4:1 5:1 3:4 2:2 3:1 4:1 3:2 2:2
4:0 5:3 4:1 5:1 3:4 2:2 3:1 4:1 3:2 2:2 1:2
5:0 4:1 5:1 3:4 2:2 3:1 4:1 3:2 2:2 1:2 2:1
4:0 5:1 3:4 2:2 3:1 4:1 3:2 2:2 1:2 2:1 3:2
5:0 3:4 2:2 3:1 4:1 3:2 2:2 1:2 2:1 3:2 4:3
3:0 2:2 3:1 4:1 3:2 2:2 1:2 2:1 3:2 4:3 5:3
2:0 3:1 4:1 3:2 2:2 1:2 2:1 3:2 4:3 5:3 4:1
3:0 4:1 3:2 2:2 1:2 2:1 3:2 4:3 5:3 4:1 5:1
4:0 3:2 2:2 1:2 2:1 3:2 4:3 5:3 4:1 5:1 3:4
3:0 2:2 1:2 2:1 3:2 4:3 5:3 4:1 5:1 3:4 2:2
2:0 1:2 2:1 3:2 4:3 5:3 4:1 5:1 3:4 2:2 3:1
1:0 2:1 3:2 4:3 5:3 4:1 5:1 3:4 2:2 3:1 4:1
2:0 3:2 4:3 5:3 4:1 5:1 3:4 2:2 3:1 4:1 3:2
3:0 4:3 5:3 4:1 5:1 3:4 2:2 3:1 4:1 3:2 2:2
4:0 5:3 4:1 5:1 3:4 2:2 3:1 4:1 3:2 2:2 1:2
5:0 4:1 5:1 3:4 2:2 3:1 4:1 3:2 2:2 1:2 2:1
4:0 5:1 3:4 2:2 3:1 4:1 3:2 2:2 1:2 2:1 3:2
5:0 3:4 2:2 3:1 4:1 3:2 2:2 1:2 2:1 3:2 4:3
3:0 2:2 3:1 4:1 3:2 2:2 1:2 2:1 3:2 4:3 5:3
2:0 3:1 4:1 3:2 2:2 1:2 2:1 3:2 4:3 5:3 4:1
3:0 4:1 3:2 2:2 1:2 2:1 3:2 4:3 5:3 4:1 5:1
4:0 3:2 2:2 1:2 2:1 3:2 4:3 5:3 4:1 5:1 3:4
3:0 2:2 1:2 2:1 3:2 4:3 5:3 4:1 5:1 3:4 2:2
2:0 1:2 2:1 3:2 4:3 5:3 4:1 5:1 3:4 2:2 3:1
1:0 2:1 3:2 4:3 5:3 4:1 5:1 3:4 2:2 3:1 4:1
2:0 3:2 4:3 5:3 4:1 5:1 3:4 2:2 3:1 4:1 3:2
3:0 4:3 5:3 4:1 5:1 3:4 2:2 3:1 4:1 3:2 2:2
4:0 5:3 4:1 5:1 3:4 2:2 3:1 4:1 3:2 2:2 1:2
5:0 4:1 5:1 3:4 2:2 3:1 4:1 3:2 2:2 1:2 2:1
4:0 5:1 3:4 2:2 3:1 4:1 3:2 2:2 1:2 2:1 3:2
5:0 3:4 2:2 3:1 4:1 3:2 2:2 1:2 2:1 3:2 4:3
3:0 2:2 3:1 4:1 3:2 2:2 1:2 2:1 3:2 4:3 5:3
2:0 3:1 4:1 3:2 2:2 1:2 2:1 3:2 4:3 5:3 4:1
3:0 4:1 3:2 2:2 1:2 2:1 3:2 4:3 5:3 4:1 6:1
4:0 3:2 2:2 1:2 2:1 3:2 4:3 5:3 4:1 6:1 5:1
3:0 2:2 1:2 2:1 3:2 4:3 5:3 4:1 6:1 5:1 3:3
2:0 1:2 2:1 3:2 4:3 5:3 4:1 6:1 5:1 3:3 2:2
1:0 2:1 3:2 4:3 5:3 4:1 6:1 5:1 3:3 2:2 3:1
2:0 3:2 4:3 5:3 4:1 6:1 5:1 3:3 2:2 3:1 4:1
3:0 4:3 5:3 4:1 6:1 5:1 3:3 2:2 3:1 4:1 3:2
4:0 5:3 4:1 6:1 5:1 3:3 2:2 3:1 4:1 3:2 2:2
5:0 4:1 6:1 5:1 3:3 2:2 3:1 4:1 3:2 2:2 1:2
4:0 6:1 5:1 3:3 2:2 3:1 4:1 3:2 2:2 1:2 2:1
6:0 5:1 3:3 2:2 3:1 4:1 3:2 2:2 1:2 2:1 3:2
5:0 3:3 2:2 3:1 4:1 3:2 2:2 1:2 2:1 3:2 4:3
3:0 2:2 3:1 4:1 3:2 2:2 1:2 2:1 3:2 4:3 5:3
2:0 3:1 4:1 3:2 2:2 1:2 2:1 3:2 4:3 5:3 4:1
3:0 4:1 3:2 2:2 1:2 2:1 3:2 4:3 5:3 4:1 5:1
4:0 3:2 2:2 1:2 2:1 3:2 4:3 5:3 4:1 5:1 3:4
3:0 2:2 1:2 2:1 3:2 4:3 5:3 4:1 5:1 3:4 2:2
2:0 1:2 2:1 3:2 4:3 5:3 4:1 5:1 3:4 2:2 3:1
1:0 2:1 3:2 4:3 5:3 4:1 5:1 3:4 2:2 3:1 4:1
2:0 3:2 4:3 5:3 4:1 5:1 3:4 2:2 3:1 4:1 5:1
3:0 4:3 5:3 4:1 5:1 3:4 2:2 3:1 4:1 5:1 3:1
4:0 5:3 4:1 5:1 3:4 2:2 3:1 4:1 5:1 3:1 2:2
5:0 4:1 5:1 3:4 2:2 3:1 4:1 5:1 3:1 2:2 1:2
4:0 5:1 3:4 2:2 3:1 4:1 5:1 3:1 2:2 1:2 2:1
5:0 3:4 2:2 3:1 4:1 5:1 3:1 2:2 1:2 2:1 3:2
3:0 2:2 3:1 4:1 5:1 3:1 2:2 1:2 2:1 3:2 4:3
2:0 3:1 4:1 5:1 3:1 2:2 1:2 2:1 3:2 4:3 5:3
3:0 4:1 5:1 3:1 2:2 1:2 2:1 3:2 4:3 5:3 4:1
4:0 5:1 3:1 2:2 1:2 2:1 3:2 4:3 5:3 4:1 5:1
5:0 3:1 2:2 1:2 2:1 3:2 4:3 5:3 4:1 5:1 3:4
3:0 2:2 1:2 2:1 3:2 4:3 5:3 4:1 5:1 3:4 2:2
2:0 1:2 2:1 3:2 4:3 5:3 4:1 5:1 3:4 2:2 3:1
1:0 2:1 3:2 4:3 5:3 4:1 5:1 3:4 2:2 3:1 4:1
2:0 3:2 4:3 5:3 4:1 5:1 3:4 2:2 3:1 4:1 3:2
3:0 4:3 5:3 4:1 5:1 3:4 2:2 3:1 4:1 3:2 2:2
4:0 5:3 4:1 5:1 3:4 2:2 3:1 4:1 3:2 2:2 1:2
5:0 4:1 5:1 3:4 2:2 3:1 4:1 3:2 2:2 1:2 2:1
4:0 5:1 3:4 2:2 3:1 4:1 3:2 2:2 1:2 2:1 3:2
5:0 3:4 2:2 3:1 4:1 3:2 2:2 1:2 2:1 3:2 4:3
3:0 2:2 3:1 4:1 3:2 2:2 1:2 2:1 3:2 4:3 5:3
2:0 3:1 4:1 3:2 2:2 1:2 2:1 3:2 4:3 5:3 4:1
3:0 4:1 3:2 2:2 1:2 2:1 3:2 4:3 5:3 4:1 5:1
4:0 3:2 2:2 1:2 2:1 3:2 4:3 5:3 4:1 5:1 3:4
3:0 2:2 1:2 2:1 3:2 4:3 5:3 4:1 5:1 3:4 2:2
2:0 1:2 2:1 3:2 4:3 5:3 4:1 5:1 3:4 2:2 3:1
1:0 2:1 3:2 4:3 5:3 4:1 5:1 3:4 2:2 3:1 4:1
2:0 3:2 4:3 5:3 4:1 5:1 3:4 2:2 3:1 4:1 3:2
3:0 4:3 5:3 4:1 5:1 3:4 2:2 3:1 4:1 3:2 2:2
4:0 5:3 4:1 5:1 3:4 2:2 3:1 4:1 3:2 2:2 1:2
5:0 4:1 5:1 3:4 2:2 3:1 4:1 3:2 2:2 1:2 2:1
4:0 5:1 3:4 2:2 3:1 4:1 3:2 2:2 1:2 2:1 3:2
5:0 3:4 2:2 3:1 4:1 3:2 2:2 1:2 2:1 3:2 4:3
3:0 2:2 3:1 4:1 3:2 2:2 1:2 2:1 3:2 4:3 5:3
2:0 3:1 4:1 3:2 2:2 1:2 2:1 3:2 4:3 5:3 4:1
3:0 4:1 3:2 2:2 1:2 2:1 3:2 4:3 5:3 4:1 5:1
4:0 3:2 2:2 1:2 2:1 3:2 4:3 5:3 4:1 5:1 3:4
3:0 2:2 1:2 2:1 3:2 4:3 5:3 4:1 5:1 3:4 2:2
2:0 1:2 2:1 3:2 4:3 5:3 4:1 5:1 3:4 2:2 3:1
1:0 2:1 3:2 4:3 5:3 4:1 5:1 3:4 2:2 3:1 4:1
2:0 3:2 4:3 5:3 4:1 5:1 3:4 2:2 3:1 4:1 3:2
3:0 4:3 5:3 4:1 5:1 3:4 2:2 3:1 4:1 3:2 2:2
4:0 5:3 4:1 5:1 3:4 2:2 3:1 4:1 3:2 2:2 1:2
5:0 4:1 5:1 3:4 2:2 3:1 4:1 3:2 2:2 1:2 2:1
4:0 5:1 3:4 2:2 3:1 4:1 3:2 2:2 1:2 2:1 3:2
5:0 3:4 2:2 3:1 4:1 3:2 2:2 1:2 2:1 3:2 4:3
3:0 2:2 3:1 4:1 3:2 2:2 1:2 2:1 3:2 4:3 5:3
2:0 3:1 4:1 3:2 2:2 1:2 2:1 3:2 4:3 5:3 4:1
3:0 4:1 3:2 2:2 1:2 2:1 3:2 4:3 5:3 4:1 5:1
4:0 3:2 2:2 1:2 2:1 3:2 4:3 5:3 4:1 5:1 3:4
3:0 2:2 1:2 2:1 3:2 4:3 5:3 4:1 5:1 3:4 2:2
2:0 1:2 2:1 3:2 4:3 5:3 4:1 5:1 3:4 2:2 3:1
1:0 2:1 3:2 4:3 5:3 4:1 5:1 3:4 2:2 3:1 4:1
2:0 3:2 4:3 5:3 4:1 5:1 3:4 2:2 3:1 4:1 3:2
3:0 4:3 5:3 4:1 5:1 3:4 2:2 3:1 4:1 3:2 2:2
4:0 5:3 4:1 5:1 3:4 2:2 3:1 4:1 3:2 2:2 1:2
5:0 4:1 5:1 3:4 2:2 3:1 4:1 3:2 2:2 1:2 2:1
4:0 5:1 3:4 2:2 3:1 4:1 3:2 2:2 1:2 2:1 3:2
5:0 3:4 2:2 3:1 4:1 3:2 2:2 1:2 2:1 3:2 4:3
3:0 2:2 3:1 4:1 3:2 2:2 1:2 2:1 3:2 4:3 5:3
2:0 3:1 4:1 3:2 2:2 1:2 2:1 3:2 4:3 5:3 4:1
3:0 4:1 3:2 2:2 1:2 2:1 3:2 4:3 5:3 4:1 5:1
4:0 3:2 2:2 1:2 2:1 3:2 4:3 5:3 4:1 5:1 3:4
3:0 2:2 1:2 2:1 3:2 4:3 5:3 4:1 5:1 3:4 2:2
2:0 1:2 2:1 3:2 4:3 5:3 4:1 5:1 3:4 2:2 3:1
1:0 2:1 3:2 4:3 5:3 4:1 5:1 3:4 2:2 3:1 4:1
2:0 3:2 4:3 5:3 4:1 5:1 3:4 2:2 3:1 4:1 3:2
3:0 4:3 5:3 4:1 5:1 3:4 2:2 3:1 4:1 3:2 2:2
4:0 5:3 4:1 5:1 3:4 2:2 3:1 4:1 3:2 2:2 1:2
5:0 4:1 5:1 3:4 2:2 3:1 4:1 3:2 2:2 1:2 2:1
4:0 5:1 3:4 2:2 3:1 4:1 3:2 2:2 1:2 2:1 3:2
5:0 3:4 2:2 3:1 4:1 3:2 2:2 1:2 2:1 3:2 4:3
3:0 2:2 3:1 4:1 3:2 2:2 1:2 2:1 3:2 4:3 5:3
2:0 3:1 4:1 3:2 2:2 1:2 2:1 3:2 4:3 5:3 4:1
3:0 4:1 3:2 2:2 1:2 2:1 3:2 4:3 5:3 4:1 5:1
4:0 3:2 2:2 1:2 2:1 3:2 4:3 5:3 4:1 5:1 3:4
3:0 2:2 1:2 2:1 3:2 4:3 5:3 4:1 5:1 3:4 2:2
2:0 1:2 2:1 3:2 4:3 5:3 4:1 5:1 3:4 2:2 3:1
1:0 2:1 3:2 4:3 5:3 4:1 5:1 3:4 2:2 3:1 4:1
2:0 3:2 4:3 5:3 4:1 5:1 3:4 2:2 3:1 4:1 3:2
3:0 4:3 5:3 4:1 5:1 3:4 2:2 3:1 4:1 3:2 2:2
4:0 5:3 4:1 5:1 3:4 2:2 3:1 4:1 3:2 2:2 1:2
5:0 4:1 5:1 3:4 2:2 3:1 4:1 3:2 2:2 1:2 2:1
4:0 5:1 3:4 2:2 3:1 4:1 3:2 2:2 1:2 2:1 3:2
5:0 3:4 2:2 3:1 4:1 3:2 2:2 1:2 2:1 3:2
3:0 2:2 3:1 4:1 3:2 2:2 1:2 2:1 3:2
2:0 3:1 4:1 3:2 2:2 1:2 2:1 3:2
3:0 4:1 3:2 2:2 1:2 2:1 3:2
4:0 3:2 2:2 1:2 2:1 3:2
3:0 2:2 1:2 2:1 3:2
2:0 1:2 2:1 3:2
1:0 2:1 3:2
2:0 3:2
3:0
4:0 5:3 4:1 5:1 3:4 2:2 3:1 4:1 3:2 2:2 1:2 2:1 3:2 4:3 5:3 4:1 5:1 3:4 2:2 3:1 4:1 3:2 2:2 1:2 2:1 3:2 4:3 5:3 4:1 5:1 3:4 2:2 3:1 4:1 3:2 2:2 1:2 2:1 3:2 4:3 5:3 4:1 5:1 3:4 2:2 3:1 4:1 3:2 2:2 1:2 2:1 3:2 4:3 5:3 4:1 5:1 3:4 2:2 3:1 4:1 3:2 2:2 1:2 2:1 3:2 4:3 5:3 4:1 5:1 3:4 2:2 3:1 4:1 3:2 2:2 1:2 2:1 3:2 4:3 5:3 4:1 5:1 3:4 2:2 3:1 4:1 3:2 2:2 1:2 2:1 3:2 4:3 5:3 4:1 5:1 3:4 2:2 3:1 4:1 3:2 2:2 1:2 2:1 3:2 4:3 5:5 3:4 2:2 3:1 4:1 3:2 2:2 1:2 2:1 3:2 4:3 5:3 4:1 5:1 3:4 2:2 3:1 4:1 3:2 2:2 1:2 2:1 3:2 4:3 5:3 4:1 5:1 3:4 2:2 3:1 4:1 3:2 2:2 1:2 2:1 3:2 4:3 5:3 4:1 5:1 3:4 2:2 3:1 4:1 3:2 2:2 1:2 2:1 3:2 4:3 5:3 4:1 5:1 3:4 2:2 3:1 4:1 3:2 2:2 1:2 2:1 3:2 4:3 5:3 4:1 5:1 3:4 2:2 3:1 4:1 3:2 2:2 1:2 2:1 3:2 4:3 5:3 4:1 5:1 3:4 2:2 3:1 4:1 3:2 2:2 1:2 2:1 3:2 4:3 5:3 4:1 5:1 3:4 2:2 3:1 4:1 3:2 2:2 1:2 2:1 3:2 4:3 5:3 4:1 5:1 3:4 2:2 3:1 4:1 3:2 2:2 1:2 2:1 3:2 4:3 5:3 3:6 2:2 3:1 4:1 3:2 2:2 1:2 2:1 3:2 4:3 5:3 4:1 5:1 3:4 2:2 3:1 4:1 3:2 2:2 1:2 2:1 3:2 4:3 5:3 4:1 5:1 3:4 2:2 3:1 4:1 3:2 2:2 1:2 2:1 3:2 4:3 5:3 4:1 5:1 3:4 2:2 3:1 4:1 3:2 2:2 1:2 2:1 3:2 4:3 5:3 4:1 5:1 3:4 2:2 3:1 4:1 3:2 2:2 1:2 2:1 3:2 4:3 5:3 4:1 5:1 3:4 2:2 3:1 4:1 3:2 2:2 1:2 2:1 3:2 4:3 5:3 4:1 5:1 3:4 2:2 3:1 4:1 3:2 2:2 1:2 2:1 3:2 4:3 5:3 4:1 5:1 3:4 2:2 3:1 4:1 3:2 2:2 1:2 2:1 3:2 4:3 5:3 4:1 5:1 3:4 2:2 3:1 4:1 5:1 3:1 2:2 1:2 2:1 3:2 4:3 5:3 4:1 5:1 3:4 2:2 3:1 4:1 3:2 2:2 1:2 2:1 3:2 4:3 5:3 4:1 5:1 3:4 2:2 3:1 4:1 3:2 2:2 1:2 2:1 3:2 4:3 5:3 4:1 5:1 3:4 2:2 3:1 4:1 3:2 2:2 1:2 2:1 3:2 4:3 5:3 4:1 5:1 3:4 2:2 3:1 4:1 3:2 2:2 1:2 2:1 3:2 4:3 5:3 4:1 5:1 3:4 2:2 3:1 4:1 3:2 2:2 1:2 2:1 3:2 4:3 5:3 4:1 5:1 3:4 2:2 3:1 4:1 3:2 2:2 1:2 2:1 3:2 4:3 5:3 4:1 6:1 5:1 3:3 2:2 3:1 4:1 3:2 2:2 1:2 2:1 3:2 4:3 5:3 4:1 5:1 3:4 2:2 3:1 4:1 5:1 3:1 2:2 1:2 2:1 3:2 4:3 5:3 4:1 5:1 3:4 2:2 3:1 4:1 3:2 2:2 1:2 2:1 3:2 4:3 5:3 4:1 5:1 3:4 2:2 3:1 4:1 3:2 2:2 1:2 2:1 3:2 4:3 5:3 4:1 5:1 3:4 2:2 3:1 4:1 3:2 2:2 1:2 2:1 3:2 4:3 5:3 4:1 5:1 3:4 2:2 3:1 4:1 3:2 2:2 1:2 2:1 3:2 4:3 5:3 4:1 5:1 3:4 2:2 3:1 4:1 3:2 2:2 1:2 2:1 3:2 4:3 5:3 4:1 5:1 3:4 2:2 3:1 4:1 3:2 2:2 1:2 2:1 3:2