1:0 3:2 2:4 3:1 4:1 3:1 1:1 3:7 2:1 4:3 5:2
3:0 2:4 3:1 4:1 3:1 1:1 3:7 2:1 4:3 5:2 1:2
2:0 3:1 4:1 3:1 1:1 3:7 2:1 4:3 5:2 1:2 3:2
3:0 4:1 3:1 1:1 3:7 2:1 4:3 5:2 1:2 3:2 2:4
4:0 3:1 1:1 3:7 2:1 4:3 5:2 1:2 3:2 2:4 3:1
3:0 1:1 3:7 2:1 4:3 5:2 1:2 3:2 2:4 3:1 4:1
1:0 3:7 2:1 4:3 5:2 1:2 3:2 2:4 3:1 4:1 3:1
3:0 2:1 4:3 5:2 1:2 3:2 2:4 3:1 4:1 3:1 1:1
2:0 4:3 5:2 1:2 3:2 2:4 3:1 4:1 3:1 1:1 3:7
4:0 5:2 1:2 3:2 2:4 3:1 4:1 3:1 1:1 3:7 2:1
5:0 1:2 3:2 2:4 3:1 4:1 3:1 1:1 3:7 2:1 4:3
1:0 3:2 2:4 3:1 4:1 3:1 1:1 3:7 2:1 4:3 5:2
3:0 2:4 3:1 4:1 3:1 1:1 3:7 2:1 4:3 5:2 1:2
2:0 3:1 4:1 3:1 1:1 3:7 2:1 4:3 5:2 1:2 3:2
3:0 4:1 3:1 1:1 3:7 2:1 4:3 5:2 1:2 3:2 2:4
4:0 3:1 1:1 3:7 2:1 4:3 5:2 1:2 3:2 2:4 3:1
3:0 1:1 3:7 2:1 4:3 5:2 1:2 3:2 2:4 3:1 4:1
1:0 3:7 2:1 4:3 5:2 1:2 3:2 2:4 3:1 4:1 3:1
3:0 2:1 4:3 5:2 1:2 3:2 2:4 3:1 4:1 3:1 1:1
2:0 4:3 5:2 1:2 3:2 2:4 3:1 4:1 3:1 1:1 3:7
4:0 5:2 1:2 3:2 2:4 3:1 4:1 3:1 1:1 3:7 1:1
5:0 1:2 3:2 2:4 3:1 4:1 3:1 1:1 3:7 1:1 2:1
1:0 3:2 2:4 3:1 4:1 3:1 1:1 3:7 1:1 2:1 4:2
3:0 2:4 3:1 4:1 3:1 1:1 3:7 1:1 2:1 4:2 5:2
2:0 3:1 4:1 3:1 1:1 3:7 1:1 2:1 4:2 5:2 1:2
3:0 4:1 3:1 1:1 3:7 1:1 2:1 4:2 5:2 1:2 3:2
4:0 3:1 1:1 3:7 1:1 2:1 4:2 5:2 1:2 3:2 2:4
3:0 1:1 3:7 1:1 2:1 4:2 5:2 1:2 3:2 2:4 3:1
1:0 3:7 1:1 2:1 4:2 5:2 1:2 3:2 2:4 3:1 4:1
3:0 1:1 2:1 4:2 5:2 1:2 3:2 2:4 3:1 4:1 3:1
1:0 2:1 4:2 5:2 1:2 3:2 2:4 3:1 4:1 3:1 1:1
2:0 4:2 5:2 1:2 3:2 2:4 3:1 4:1 3:1 1:1 3:7
4:0 5:2 1:2 3:2 2:4 3:1 4:1 3:1 1:1 3:7 2:1
5:0 1:2 3:2 2:4 3:1 4:1 3:1 1:1 3:7 2:1 4:3
1:0 3:2 2:4 3:1 4:1 3:1 1:1 3:7 2:1 4:3 5:2
3:0 2:4 3:1 4:1 3:1 1:1 3:7 2:1 4:3 5:2 1:2
2:0 3:1 4:1 3:1 1:1 3:7 2:1 4:3 5:2 1:2 3:2
3:0 4:1 3:1 1:1 3:7 2:1 4:3 5:2 1:2 3:2 4:6
4:0 3:1 1:1 3:7 2:1 4:3 5:2 1:2 3:2 4:6 3:1
3:0 1:1 3:7 2:1 4:3 5:2 1:2 3:2 4:6 3:1 1:1
1:0 3:7 2:1 4:3 5:2 1:2 3:2 4:6 3:1 1:1 3:7
3:0 2:1 4:3 5:2 1:2 3:2 4:6 3:1 1:1 3:7 2:1
2:0 4:3 5:2 1:2 3:2 4:6 3:1 1:1 3:7 2:1 4:3
4:0 5:2 1:2 3:2 4:6 3:1 1:1 3:7 2:1 4:3 5:2
5:0 1:2 3:2 4:6 3:1 1:1 3:7 2:1 4:3 5:2 1:2
1:0 3:2 4:6 3:1 1:1 3:7 2:1 4:3 5:2 1:2 3:2
3:0 4:6 3:1 1:1 3:7 2:1 4:3 5:2 1:2 3:2 2:4
4:0 3:1 1:1 3:7 2:1 4:3 5:2 1:2 3:2 2:4 3:1
3:0 1:1 3:7 2:1 4:3 5:2 1:2 3:2 2:4 3:1 4:1
1:0 3:7 2:1 4:3 5:2 1:2 3:2 2:4 3:1 4:1 3:1
3:0 2:1 4:3 5:2 1:2 3:2 2:4 3:1 4:1 3:1 1:1
2:0 4:3 5:2 1:2 3:2 2:4 3:1 4:1 3:1 1:1 3:7
4:0 5:2 1:2 3:2 2:4 3:1 4:1 3:1 1:1 3:7 2:1
5:0 1:2 3:2 2:4 3:1 4:1 3:1 1:1 3:7 2:1 4:3
1:0 3:2 2:4 3:1 4:1 3:1 1:1 3:7 2:1 4:3 5:2
3:0 2:4 3:1 4:1 3:1 1:1 3:7 2:1 4:3 5:2 1:2
2:0 3:1 4:1 3:1 1:1 3:7 2:1 4:3 5:2 1:2 2:1
3:0 4:1 3:1 1:1 3:7 2:1 4:3 5:2 1:2 2:1 3:1
4:0 3:1 1:1 3:7 2:1 4:3 5:2 1:2 2:1 3:1 1:8
3:0 1:1 3:7 2:1 4:3 5:2 1:2 2:1 3:1 1:8 3:7
1:0 3:7 2:1 4:3 5:2 1:2 2:1 3:1 1:8 3:7 2:1
3:0 2:1 4:3 5:2 1:2 2:1 3:1 1:8 3:7 2:1 4:3
2:0 4:3 5:2 1:2 2:1 3:1 1:8 3:7 2:1 4:3 5:2
4:0 5:2 1:2 2:1 3:1 1:8 3:7 2:1 4:3 5:2 1:2
5:0 1:2 2:1 3:1 1:8 3:7 2:1 4:3 5:2 1:2 3:2
1:0 2:1 3:1 1:8 3:7 2:1 4:3 5:2 1:2 3:2 2:4
2:0 3:1 1:8 3:7 2:1 4:3 5:2 1:2 3:2 2:4 4:2
3:0 1:8 3:7 2:1 4:3 5:2 1:2 3:2 2:4 4:2 3:1
1:0 3:7 2:1 4:3 5:2 1:2 3:2 2:4 4:2 3:1 1:1
3:0 2:1 4:3 5:2 1:2 3:2 2:4 4:2 3:1 1:1 3:7
2:0 4:3 5:2 1:2 3:2 2:4 4:2 3:1 1:1 3:7 2:1
4:0 5:2 1:2 3:2 2:4 4:2 3:1 1:1 3:7 2:1 4:3
5:0 1:2 3:2 2:4 4:2 3:1 1:1 3:7 2:1 4:3 5:2
1:0 3:2 2:4 4:2 3:1 1:1 3:7 2:1 4:3 5:2 1:2
3:0 2:4 4:2 3:1 1:1 3:7 2:1 4:3 5:2 1:2 3:2
2:0 4:2 3:1 1:1 3:7 2:1 4:3 5:2 1:2 3:2 2:4
4:0 3:1 1:1 3:7 2:1 4:3 5:2 1:2 3:2 2:4 3:1
3:0 1:1 3:7 2:1 4:3 5:2 1:2 3:2 2:4 3:1 4:1
1:0 3:7 2:1 4:3 5:2 1:2 3:2 2:4 3:1 4:1 3:1
3:0 2:1 4:3 5:2 1:2 3:2 2:4 3:1 4:1 3:1 1:1
2:0 4:3 5:2 1:2 3:2 2:4 3:1 4:1 3:1 1:1 3:7
4:0 5:2 1:2 3:2 2:4 3:1 4:1 3:1 1:1 3:7 2:1
5:0 1:2 3:2 2:4 3:1 4:1 3:1 1:1 3:7 2:1 4:3
1:0 3:2 2:4 3:1 4:1 3:1 1:1 3:7 2:1 4:3 5:2
3:0 2:4 3:1 4:1 3:1 1:1 3:7 2:1 4:3 5:2 1:2
2:0 3:1 4:1 3:1 1:1 3:7 2:1 4:3 5:2 1:2 3:2
3:0 4:1 3:1 1:1 3:7 2:1 4:3 5:2 1:2 3:2 4:6
4:0 3:1 1:1 3:7 2:1 4:3 5:2 1:2 3:2 4:6 3:1
3:0 1:1 3:7 2:1 4:3 5:2 1:2 3:2 4:6 3:1 1:1
1:0 3:7 2:1 4:3 5:2 1:2 3:2 4:6 3:1 1:1 3:7
3:0 2:1 4:3 5:2 1:2 3:2 4:6 3:1 1:1 3:7 2:1
2:0 4:3 5:2 1:2 3:2 4:6 3:1 1:1 3:7 2:1 4:3
4:0 5:2 1:2 3:2 4:6 3:1 1:1 3:7 2:1 4:3 5:2
5:0 1:2 3:2 4:6 3:1 1:1 3:7 2:1 4:3 5:2 1:2
1:0 3:2 4:6 3:1 1:1 3:7 2:1 4:3 5:2 1:2 3:2
3:0 4:6 3:1 1:1 3:7 2:1 4:3 5:2 1:2 3:2 2:4
4:0 3:1 1:1 3:7 2:1 4:3 5:2 1:2 3:2 2:4 3:1
3:0 1:1 3:7 2:1 4:3 5:2 1:2 3:2 2:4 3:1 4:1
1:0 3:7 2:1 4:3 5:2 1:2 3:2 2:4 3:1 4:1 3:1
3:0 2:1 4:3 5:2 1:2 3:2 2:4 3:1 4:1 3:1 1:1
2:0 4:3 5:2 1:2 3:2 2:4 3:1 4:1 3:1 1:1 3:7
4:0 5:2 1:2 3:2 2:4 3:1 4:1 3:1 1:1 3:7 1:1
5:0 1:2 3:2 2:4 3:1 4:1 3:1 1:1 3:7 1:1 2:1
1:0 3:2 2:4 3:1 4:1 3:1 1:1 3:7 1:1 2:1 4:2
3:0 2:4 3:1 4:1 3:1 1:1 3:7 1:1 2:1 4:2 5:2
2:0 3:1 4:1 3:1 1:1 3:7 1:1 2:1 4:2 5:2 1:2
3:0 4:1 3:1 1:1 3:7 1:1 2:1 4:2 5:2 1:2 3:2
4:0 3:1 1:1 3:7 1:1 2:1 4:2 5:2 1:2 3:2 4:6
3:0 1:1 3:7 1:1 2:1 4:2 5:2 1:2 3:2 4:6 3:1
1:0 3:7 1:1 2:1 4:2 5:2 1:2 3:2 4:6 3:1 1:1
3:0 1:1 2:1 4:2 5:2 1:2 3:2 4:6 3:1 1:1 3:7
1:0 2:1 4:2 5:2 1:2 3:2 4:6 3:1 1:1 3:7 2:1
2:0 4:2 5:2 1:2 3:2 4:6 3:1 1:1 3:7 2:1 4:3
4:0 5:2 1:2 3:2 4:6 3:1 1:1 3:7 2:1 4:3 5:2
5:0 1:2 3:2 4:6 3:1 1:1 3:7 2:1 4:3 5:2 1:2
1:0 3:2 4:6 3:1 1:1 3:7 2:1 4:3 5:2 1:2 3:2
3:0 4:6 3:1 1:1 3:7 2:1 4:3 5:2 1:2 3:2 2:4
4:0 3:1 1:1 3:7 2:1 4:3 5:2 1:2 3:2 2:4 3:1
3:0 1:1 3:7 2:1 4:3 5:2 1:2 3:2 2:4 3:1 1:3
1:0 3:7 2:1 4:3 5:2 1:2 3:2 2:4 3:1 1:3 3:7
3:0 2:1 4:3 5:2 1:2 3:2 2:4 3:1 1:3 3:7 2:1
2:0 4:3 5:2 1:2 3:2 2:4 3:1 1:3 3:7 2:1 4:3
4:0 5:2 1:2 3:2 2:4 3:1 1:3 3:7 2:1 4:3 5:2
5:0 1:2 3:2 2:4 3:1 1:3 3:7 2:1 4:3 5:2 1:2
1:0 3:2 2:4 3:1 1:3 3:7 2:1 4:3 5:2 1:2 3:2
3:0 2:4 3:1 1:3 3:7 2:1 4:3 5:2 1:2 3:2 4:6
2:0 3:1 1:3 3:7 2:1 4:3 5:2 1:2 3:2 4:6 3:1
3:0 1:3 3:7 2:1 4:3 5:2 1:2 3:2 4:6 3:1 1:1
1:0 3:7 2:1 4:3 5:2 1:2 3:2 4:6 3:1 1:1 3:7
3:0 2:1 4:3 5:2 1:2 3:2 4:6 3:1 1:1 3:7 2:1
2:0 4:3 5:2 1:2 3:2 4:6 3:1 1:1 3:7 2:1 4:3
4:0 5:2 1:2 3:2 4:6 3:1 1:1 3:7 2:1 4:3 5:2
5:0 1:2 3:2 4:6 3:1 1:1 3:7 2:1 4:3 5:2 1:2
1:0 3:2 4:6 3:1 1:1 3:7 2:1 4:3 5:2 1:2 2:1
3:0 4:6 3:1 1:1 3:7 2:1 4:3 5:2 1:2 2:1 3:1
4:0 3:1 1:1 3:7 2:1 4:3 5:2 1:2 2:1 3:1 2:4
3:0 1:1 3:7 2:1 4:3 5:2 1:2 2:1 3:1 2:4 3:1
1:0 3:7 2:1 4:3 5:2 1:2 2:1 3:1 2:4 3:1 4:1
3:0 2:1 4:3 5:2 1:2 2:1 3:1 2:4 3:1 4:1 3:1
2:0 4:3 5:2 1:2 2:1 3:1 2:4 3:1 4:1 3:1 1:1
4:0 5:2 1:2 2:1 3:1 2:4 3:1 4:1 3:1 1:1 3:7
5:0 1:2 2:1 3:1 2:4 3:1 4:1 3:1 1:1 3:7 2:1
1:0 2:1 3:1 2:4 3:1 4:1 3:1 1:1 3:7 2:1 4:3
2:0 3:1 2:4 3:1 4:1 3:1 1:1 3:7 2:1 4:3 5:2
3:0 2:4 3:1 4:1 3:1 1:1 3:7 2:1 4:3 5:2 1:2
2:0 3:1 4:1 3:1 1:1 3:7 2:1 4:3 5:2 1:2 3:2
3:0 4:1 3:1 1:1 3:7 2:1 4:3 5:2 1:2 3:2 4:6
4:0 3:1 1:1 3:7 2:1 4:3 5:2 1:2 3:2 4:6 3:1
3:0 1:1 3:7 2:1 4:3 5:2 1:2 3:2 4:6 3:1 1:1
1:0 3:7 2:1 4:3 5:2 1:2 3:2 4:6 3:1 1:1 3:7
3:0 2:1 4:3 5:2 1:2 3:2 4:6 3:1 1:1 3:7 2:1
2:0 4:3 5:2 1:2 3:2 4:6 3:1 1:1 3:7 2:1 4:3
4:0 5:2 1:2 3:2 4:6 3:1 1:1 3:7 2:1 4:3 5:2
5:0 1:2 3:2 4:6 3:1 1:1 3:7 2:1 4:3 5:2 1:2
1:0 3:2 4:6 3:1 1:1 3:7 2:1 4:3 5:2 1:2 2:1
3:0 4:6 3:1 1:1 3:7 2:1 4:3 5:2 1:2 2:1 3:1
4:0 3:1 1:1 3:7 2:1 4:3 5:2 1:2 2:1 3:1 2:4
3:0 1:1 3:7 2:1 4:3 5:2 1:2 2:1 3:1 2:4 3:1
1:0 3:7 2:1 4:3 5:2 1:2 2:1 3:1 2:4 3:1 4:1
3:0 2:1 4:3 5:2 1:2 2:1 3:1 2:4 3:1 4:1 3:1
2:0 4:3 5:2 1:2 2:1 3:1 2:4 3:1 4:1 3:1 1:1
4:0 5:2 1:2 2:1 3:1 2:4 3:1 4:1 3:1 1:1 3:7
5:0 1:2 2:1 3:1 2:4 3:1 4:1 3:1 1:1 3:7 2:1
1:0 2:1 3:1 2:4 3:1 4:1 3:1 1:1 3:7 2:1 4:3
2:0 3:1 2:4 3:1 4:1 3:1 1:1 3:7 2:1 4:3 5:2
3:0 2:4 3:1 4:1 3:1 1:1 3:7 2:1 4:3 5:2 1:2
2:0 3:1 4:1 3:1 1:1 3:7 2:1 4:3 5:2 1:2 3:2
3:0 4:1 3:1 1:1 3:7 2:1 4:3 5:2 1:2 3:2 2:4
4:0 3:1 1:1 3:7 2:1 4:3 5:2 1:2 3:2 2:4 3:1
3:0 1:1 3:7 2:1 4:3 5:2 1:2 3:2 2:4 3:1 4:1
1:0 3:7 2:1 4:3 5:2 1:2 3:2 2:4 3:1 4:1 3:1
3:0 2:1 4:3 5:2 1:2 3:2 2:4 3:1 4:1 3:1 1:1
2:0 4:3 5:2 1:2 3:2 2:4 3:1 4:1 3:1 1:1 3:7
4:0 5:2 1:2 3:2 2:4 3:1 4:1 3:1 1:1 3:7 2:1
5:0 1:2 3:2 2:4 3:1 4:1 3:1 1:1 3:7 2:1 4:3
1:0 3:2 2:4 3:1 4:1 3:1 1:1 3:7 2:1 4:3 5:2
3:0 2:4 3:1 4:1 3:1 1:1 3:7 2:1 4:3 5:2 1:2
2:0 3:1 4:1 3:1 1:1 3:7 2:1 4:3 5:2 1:2 2:1
3:0 4:1 3:1 1:1 3:7 2:1 4:3 5:2 1:2 2:1 3:1
4:0 3:1 1:1 3:7 2:1 4:3 5:2 1:2 2:1 3:1 2:4
3:0 1:1 3:7 2:1 4:3 5:2 1:2 2:1 3:1 2:4 3:1
1:0 3:7 2:1 4:3 5:2 1:2 2:1 3:1 2:4 3:1 4:1
3:0 2:1 4:3 5:2 1:2 2:1 3:1 2:4 3:1 4:1 3:1
2:0 4:3 5:2 1:2 2:1 3:1 2:4 3:1 4:1 3:1 1:1
4:0 5:2 1:2 2:1 3:1 2:4 3:1 4:1 3:1 1:1 3:7
5:0 1:2 2:1 3:1 2:4 3:1 4:1 3:1 1:1 3:7 2:1
1:0 2:1 3:1 2:4 3:1 4:1 3:1 1:1 3:7 2:1 4:3
2:0 3:1 2:4 3:1 4:1 3:1 1:1 3:7 2:1 4:3 5:2
3:0 2:4 3:1 4:1 3:1 1:1 3:7 2:1 4:3 5:2 1:2
2:0 3:1 4:1 3:1 1:1 3:7 2:1 4:3 5:2 1:2 3:2
3:0 4:1 3:1 1:1 3:7 2:1 4:3 5:2 1:2 3:2 2:4
4:0 3:1 1:1 3:7 2:1 4:3 5:2 1:2 3:2 2:4 3:1
3:0 1:1 3:7 2:1 4:3 5:2 1:2 3:2 2:4 3:1 4:1
1:0 3:7 2:1 4:3 5:2 1:2 3:2 2:4 3:1 4:1 3:1
3:0 2:1 4:3 5:2 1:2 3:2 2:4 3:1 4:1 3:1 1:1
2:0 4:3 5:2 1:2 3:2 2:4 3:1 4:1 3:1 1:1 3:7
4:0 5:2 1:2 3:2 2:4 3:1 4:1 3:1 1:1 3:7 1:1
5:0 1:2 3:2 2:4 3:1 4:1 3:1 1:1 3:7 1:1 2:1
1:0 3:2 2:4 3:1 4:1 3:1 1:1 3:7 1:1 2:1 4:2
3:0 2:4 3:1 4:1 3:1 1:1 3:7 1:1 2:1 4:2 5:2
2:0 3:1 4:1 3:1 1:1 3:7 1:1 2:1 4:2 5:2 1:2
3:0 4:1 3:1 1:1 3:7 1:1 2:1 4:2 5:2 1:2 3:2
4:0 3:1 1:1 3:7 1:1 2:1 4:2 5:2 1:2 3:2 4:6
3:0 1:1 3:7 1:1 2:1 4:2 5:2 1:2 3:2 4:6 3:1
1:0 3:7 1:1 2:1 4:2 5:2 1:2 3:2 4:6 3:1 1:1
3:0 1:1 2:1 4:2 5:2 1:2 3:2 4:6 3:1 1:1 3:7
1:0 2:1 4:2 5:2 1:2 3:2 4:6 3:1 1:1 3:7 1:1
2:0 4:2 5:2 1:2 3:2 4:6 3:1 1:1 3:7 1:1 2:1
4:0 5:2 1:2 3:2 4:6 3:1 1:1 3:7 1:1 2:1 4:2
5:0 1:2 3:2 4:6 3:1 1:1 3:7 1:1 2:1 4:2 5:2
1:0 3:2 4:6 3:1 1:1 3:7 1:1 2:1 4:2 5:2 1:2
3:0 4:6 3:1 1:1 3:7 1:1 2:1 4:2 5:2 1:2 3:2
4:0 3:1 1:1 3:7 1:1 2:1 4:2 5:2 1:2 3:2 2:4
3:0 1:1 3:7 1:1 2:1 4:2 5:2 1:2 3:2 2:4 3:1
1:0 3:7 1:1 2:1 4:2 5:2 1:2 3:2 2:4 3:1 1:3
3:0 1:1 2:1 4:2 5:2 1:2 3:2 2:4 3:1 1:3 3:7
1:0 2:1 4:2 5:2 1:2 3:2 2:4 3:1 1:3 3:7 2:1
2:0 4:2 5:2 1:2 3:2 2:4 3:1 1:3 3:7 2:1 4:3
4:0 5:2 1:2 3:2 2:4 3:1 1:3 3:7 2:1 4:3 5:2
5:0 1:2 3:2 2:4 3:1 1:3 3:7 2:1 4:3 5:2 1:2
1:0 3:2 2:4 3:1 1:3 3:7 2:1 4:3 5:2 1:2 3:2
3:0 2:4 3:1 1:3 3:7 2:1 4:3 5:2 1:2 3:2 2:4
2:0 3:1 1:3 3:7 2:1 4:3 5:2 1:2 3:2 2:4 3:1
3:0 1:3 3:7 2:1 4:3 5:2 1:2 3:2 2:4 3:1 4:1
1:0 3:7 2:1 4:3 5:2 1:2 3:2 2:4 3:1 4:1 3:1
3:0 2:1 4:3 5:2 1:2 3:2 2:4 3:1 4:1 3:1 1:1
2:0 4:3 5:2 1:2 3:2 2:4 3:1 4:1 3:1 1:1 3:7
4:0 5:2 1:2 3:2 2:4 3:1 4:1 3:1 1:1 3:7 1:1
5:0 1:2 3:2 2:4 3:1 4:1 3:1 1:1 3:7 1:1 2:1
1:0 3:2 2:4 3:1 4:1 3:1 1:1 3:7 1:1 2:1 4:2
3:0 2:4 3:1 4:1 3:1 1:1 3:7 1:1 2:1 4:2 5:2
2:0 3:1 4:1 3:1 1:1 3:7 1:1 2:1 4:2 5:2 1:2
3:0 4:1 3:1 1:1 3:7 1:1 2:1 4:2 5:2 1:2 3:2
4:0 3:1 1:1 3:7 1:1 2:1 4:2 5:2 1:2 3:2 2:4
3:0 1:1 3:7 1:1 2:1 4:2 5:2 1:2 3:2 2:4 3:1
1:0 3:7 1:1 2:1 4:2 5:2 1:2 3:2 2:4 3:1 4:1
3:0 1:1 2:1 4:2 5:2 1:2 3:2 2:4 3:1 4:1 3:1
1:0 2:1 4:2 5:2 1:2 3:2 2:4 3:1 4:1 3:1 1:1
2:0 4:2 5:2 1:2 3:2 2:4 3:1 4:1 3:1 1:1 3:7
4:0 5:2 1:2 3:2 2:4 3:1 4:1 3:1 1:1 3:7 1:1
5:0 1:2 3:2 2:4 3:1 4:1 3:1 1:1 3:7 1:1 2:1
1:0 3:2 2:4 3:1 4:1 3:1 1:1 3:7 1:1 2:1 4:2
3:0 2:4 3:1 4:1 3:1 1:1 3:7 1:1 2:1 4:2 5:2
2:0 3:1 4:1 3:1 1:1 3:7 1:1 2:1 4:2 5:2 1:2
3:0 4:1 3:1 1:1 3:7 1:1 2:1 4:2 5:2 1:2 3:2
4:0 3:1 1:1 3:7 1:1 2:1 4:2 5:2 1:2 3:2 2:4
3:0 1:1 3:7 1:1 2:1 4:2 5:2 1:2 3:2 2:4 3:1
1:0 3:7 1:1 2:1 4:2 5:2 1:2 3:2 2:4 3:1 4:1
3:0 1:1 2:1 4:2 5:2 1:2 3:2 2:4 3:1 4:1 3:1
1:0 2:1 4:2 5:2 1:2 3:2 2:4 3:1 4:1 3:1 1:1
2:0 4:2 5:2 1:2 3:2 2:4 3:1 4:1 3:1 1:1 3:7
4:0 5:2 1:2 3:2 2:4 3:1 4:1 3:1 1:1 3:7 2:1
5:0 1:2 3:2 2:4 3:1 4:1 3:1 1:1 3:7 2:1 4:3
1:0 3:2 2:4 3:1 4:1 3:1 1:1 3:7 2:1 4:3 5:2
3:0 2:4 3:1 4:1 3:1 1:1 3:7 2:1 4:3 5:2 1:2
2:0 3:1 4:1 3:1 1:1 3:7 2:1 4:3 5:2 1:2 3:2
3:0 4:1 3:1 1:1 3:7 2:1 4:3 5:2 1:2 3:2 2:4
4:0 3:1 1:1 3:7 2:1 4:3 5:2 1:2 3:2 2:4 3:1
3:0 1:1 3:7 2:1 4:3 5:2 1:2 3:2 2:4 3:1 4:1
1:0 3:7 2:1 4:3 5:2 1:2 3:2 2:4 3:1 4:1 3:1
3:0 2:1 4:3 5:2 1:2 3:2 2:4 3:1 4:1 3:1 1:1
2:0 4:3 5:2 1:2 3:2 2:4 3:1 4:1 3:1 1:1 3:7
4:0 5:2 1:2 3:2 2:4 3:1 4:1 3:1 1:1 3:7 2:1
5:0 1:2 3:2 2:4 3:1 4:1 3:1 1:1 3:7 2:1 4:3
1:0 3:2 2:4 3:1 4:1 3:1 1:1 3:7 2:1 4:3 5:2
3:0 2:4 3:1 4:1 3:1 1:1 3:7 2:1 4:3 5:2 1:2
2:0 3:1 4:1 3:1 1:1 3:7 2:1 4:3 5:2 1:2 3:2
3:0 4:1 3:1 1:1 3:7 2:1 4:3 5:2 1:2 3:2 2:4
4:0 3:1 1:1 3:7 2:1 4:3 5:2 1:2 3:2 2:4 3:1
3:0 1:1 3:7 2:1 4:3 5:2 1:2 3:2 2:4 3:1 4:1
1:0 3:7 2:1 4:3 5:2 1:2 3:2 2:4 3:1 4:1 3:1
3:0 2:1 4:3 5:2 1:2 3:2 2:4 3:1 4:1 3:1 1:1
2:0 4:3 5:2 1:2 3:2 2:4 3:1 4:1 3:1 1:1 3:7
4:0 5:2 1:2 3:2 2:4 3:1 4:1 3:1 1:1 3:7 2:1
5:0 1:2 3:2 2:4 3:1 4:1 3:1 1:1 3:7 2:1 4:3
1:0 3:2 2:4 3:1 4:1 3:1 1:1 3:7 2:1 4:3 5:2
3:0 2:4 3:1 4:1 3:1 1:1 3:7 2:1 4:3 5:2 1:2
2:0 3:1 4:1 3:1 1:1 3:7 2:1 4:3 5:2 1:2 3:2
3:0 4:1 3:1 1:1 3:7 2:1 4:3 5:2 1:2 3:2 2:4
4:0 3:1 1:1 3:7 2:1 4:3 5:2 1:2 3:2 2:4 3:1
3:0 1:1 3:7 2:1 4:3 5:2 1:2 3:2 2:4 3:1 4:1
1:0 3:7 2:1 4:3 5:2 1:2 3:2 2:4 3:1 4:1 3:1
3:0 2:1 4:3 5:2 1:2 3:2 2:4 3:1 4:1 3:1 1:1
2:0 4:3 5:2 1:2 3:2 2:4 3:1 4:1 3:1 1:1 3:7
4:0 5:2 1:2 3:2 2:4 3:1 4:1 3:1 1:1 3:7 2:1
5:0 1:2 3:2 2:4 3:1 4:1 3:1 1:1 3:7 2:1 4:3
1:0 3:2 2:4 3:1 4:1 3:1 1:1 3:7 2:1 4:3 5:2
3:0 2:4 3:1 4:1 3:1 1:1 3:7 2:1 4:3 5:2 1:2
2:0 3:1 4:1 3:1 1:1 3:7 2:1 4:3 5:2 1:2 3:2
3:0 4:1 3:1 1:1 3:7 2:1 4:3 5:2 1:2 3:2 2:4
4:0 3:1 1:1 3:7 2:1 4:3 5:2 1:2 3:2 2:4 3:1
3:0 1:1 3:7 2:1 4:3 5:2 1:2 3:2 2:4 3:1 4:1
1:0 3:7 2:1 4:3 5:2 1:2 3:2 2:4 3:1 4:1 3:1
3:0 2:1 4:3 5:2 1:2 3:2 2:4 3:1 4:1 3:1 1:1
2:0 4:3 5:2 1:2 3:2 2:4 3:1 4:1 3:1 1:1 3:7
4:0 5:2 1:2 3:2 2:4 3:1 4:1 3:1 1:1 3:7 2:1
5:0 1:2 3:2 2:4 3:1 4:1 3:1 1:1 3:7 2:1 4:3
1:0 3:2 2:4 3:1 4:1 3:1 1:1 3:7 2:1 4:3 5:2
3:0 2:4 3:1 4:1 3:1 1:1 3:7 2:1 4:3 5:2 1:2
2:0 3:1 4:1 3:1 1:1 3:7 2:1 4:3 5:2 1:2 3:2
3:0 4:1 3:1 1:1 3:7 2:1 4:3 5:2 1:2 3:2 2:4
4:0 3:1 1:1 3:7 2:1 4:3 5:2 1:2 3:2 2:4 3:1
3:0 1:1 3:7 2:1 4:3 5:2 1:2 3:2 2:4 3:1 4:1
1:0 3:7 2:1 4:3 5:2 1:2 3:2 2:4 3:1 4:1 3:1
3:0 2:1 4:3 5:2 1:2 3:2 2:4 3:1 4:1 3:1 1:1
2:0 4:3 5:2 1:2 3:2 2:4 3:1 4:1 3:1 1:1 3:7
4:0 5:2 1:2 3:2 2:4 3:1 4:1 3:1 1:1 3:7 2:1
5:0 1:2 3:2 2:4 3:1 4:1 3:1 1:1 3:7 2:1 4:3
1:0 3:2 2:4 3:1 4:1 3:1 1:1 3:7 2:1 4:3 5:2
3:0 2:4 3:1 4:1 3:1 1:1 3:7 2:1 4:3 5:2 1:2
2:0 3:1 4:1 3:1 1:1 3:7 2:1 4:3 5:2 1:2 3:2
3:0 4:1 3:1 1:1 3:7 2:1 4:3 5:2 1:2 3:2 2:4
4:0 3:1 1:1 3:7 2:1 4:3 5:2 1:2 3:2 2:4 3:1
3:0 1:1 3:7 2:1 4:3 5:2 1:2 3:2 2:4 3:1 4:1
1:0 3:7 2:1 4:3 5:2 1:2 3:2 2:4 3:1 4:1 3:1
3:0 2:1 4:3 5:2 1:2 3:2 2:4 3:1 4:1 3:1 1:1
2:0 4:3 5:2 1:2 3:2 2:4 3:1 4:1 3:1 1:1 3:7
4:0 5:2 1:2 3:2 2:4 3:1 4:1 3:1 1:1 3:7 2:1
5:0 1:2 3:2 2:4 3:1 4:1 3:1 1:1 3:7 2:1 4:3
1:0 3:2 2:4 3:1 4:1 3:1 1:1 3:7 2:1 4:3 5:2
3:0 2:4 3:1 4:1 3:1 1:1 3:7 2:1 4:3 5:2 6:1
2:0 3:1 4:1 3:1 1:1 3:7 2:1 4:3 5:2 6:1 1:1
3:0 4:1 3:1 1:1 3:7 2:1 4:3 5:2 6:1 1:1 3:2
4:0 3:1 1:1 3:7 2:1 4:3 5:2 6:1 1:1 3:2 2:4
3:0 1:1 3:7 2:1 4:3 5:2 6:1 1:1 3:2 2:4 3:1
1:0 3:7 2:1 4:3 5:2 6:1 1:1 3:2 2:4 3:1 4:1
3:0 2:1 4:3 5:2 6:1 1:1 3:2 2:4 3:1 4:1 3:1
2:0 4:3 5:2 6:1 1:1 3:2 2:4 3:1 4:1 3:1 1:1
4:0 5:2 6:1 1:1 3:2 2:4 3:1 4:1 3:1 1:1 3:7
5:0 6:1 1:1 3:2 2:4 3:1 4:1 3:1 1:1 3:7 2:1
6:0 1:1 3:2 2:4 3:1 4:1 3:1 1:1 3:7 2:1 4:3
1:0 3:2 2:4 3:1 4:1 3:1 1:1 3:7 2:1 4:3 5:2
3:0 2:4 3:1 4:1 3:1 1:1 3:7 2:1 4:3 5:2 1:2
2:0 3:1 4:1 3:1 1:1 3:7 2:1 4:3 5:2 1:2 3:2
3:0 4:1 3:1 1:1 3:7 2:1 4:3 5:2 1:2 3:2 2:4
4:0 3:1 1:1 3:7 2:1 4:3 5:2 1:2 3:2 2:4 3:1
3:0 1:1 3:7 2:1 4:3 5:2 1:2 3:2 2:4 3:1 4:1
1:0 3:7 2:1 4:3 5:2 1:2 3:2 2:4 3:1 4:1 3:1
3:0 2:1 4:3 5:2 1:2 3:2 2:4 3:1 4:1 3:1 1:1
2:0 4:3 5:2 1:2 3:2 2:4 3:1 4:1 3:1 1:1 3:7
4:0 5:2 1:2 3:2 2:4 3:1 4:1 3:1 1:1 3:7 2:1
5:0 1:2 3:2 2:4 3:1 4:1 3:1 1:1 3:7 2:1 4:3
1:0 3:2 2:4 3:1 4:1 3:1 1:1 3:7 2:1 4:3 5:2
3:0 2:4 3:1 4:1 3:1 1:1 3:7 2:1 4:3 5:2 1:2
2:0 3:1 4:1 3:1 1:1 3:7 2:1 4:3 5:2 1:2 3:2
3:0 4:1 3:1 1:1 3:7 2:1 4:3 5:2 1:2 3:2 2:4
4:0 3:1 1:1 3:7 2:1 4:3 5:2 1:2 3:2 2:4 3:1
3:0 1:1 3:7 2:1 4:3 5:2 1:2 3:2 2:4 3:1 4:1
1:0 3:7 2:1 4:3 5:2 1:2 3:2 2:4 3:1 4:1 3:1
3:0 2:1 4:3 5:2 1:2 3:2 2:4 3:1 4:1 3:1 1:1
2:0 4:3 5:2 1:2 3:2 2:4 3:1 4:1 3:1 1:1 3:7
4:0 5:2 1:2 3:2 2:4 3:1 4:1 3:1 1:1 3:7 2:1
5:0 1:2 3:2 2:4 3:1 4:1 3:1 1:1 3:7 2:1 4:3
1:0 3:2 2:4 3:1 4:1 3:1 1:1 3:7 2:1 4:3 5:2
3:0 2:4 3:1 4:1 3:1 1:1 3:7 2:1 4:3 5:2 1:2
2:0 3:1 4:1 3:1 1:1 3:7 2:1 4:3 5:2 1:2 3:2
3:0 4:1 3:1 1:1 3:7 2:1 4:3 5:2 1:2 3:2 2:4
4:0 3:1 1:1 3:7 2:1 4:3 5:2 1:2 3:2 2:4 3:1
3:0 1:1 3:7 2:1 4:3 5:2 1:2 3:2 2:4 3:1 4:1
1:0 3:7 2:1 4:3 5:2 1:2 3:2 2:4 3:1 4:1 3:1
3:0 2:1 4:3 5:2 1:2 3:2 2:4 3:1 4:1 3:1 1:1
2:0 4:3 5:2 1:2 3:2 2:4 3:1 4:1 3:1 1:1 3:7
4:0 5:2 1:2 3:2 2:4 3:1 4:1 3:1 1:1 3:7 2:1
5:0 1:2 3:2 2:4 3:1 4:1 3:1 1:1 3:7 2:1 4:3
1:0 3:2 2:4 3:1 4:1 3:1 1:1 3:7 2:1 4:3 5:2
3:0 2:4 3:1 4:1 3:1 1:1 3:7 2:1 4:3 5:2 1:2
2:0 3:1 4:1 3:1 1:1 3:7 2:1 4:3 5:2 1:2 3:2
3:0 4:1 3:1 1:1 3:7 2:1 4:3 5:2 1:2 3:2 2:4
4:0 3:1 1:1 3:7 2:1 4:3 5:2 1:2 3:2 2:4 3:1
3:0 1:1 3:7 2:1 4:3 5:2 1:2 3:2 2:4 3:1 1:3
1:0 3:7 2:1 4:3 5:2 1:2 3:2 2:4 3:1 1:3 3:7
3:0 2:1 4:3 5:2 1:2 3:2 2:4 3:1 1:3 3:7 2:1
2:0 4:3 5:2 1:2 3:2 2:4 3:1 1:3 3:7 2:1 4:3
4:0 5:2 1:2 3:2 2:4 3:1 1:3 3:7 2:1 4:3 5:2
5:0 1:2 3:2 2:4 3:1 1:3 3:7 2:1 4:3 5:2 1:2
1:0 3:2 2:4 3:1 1:3 3:7 2:1 4:3 5:2 1:2 3:2
3:0 2:4 3:1 1:3 3:7 2:1 4:3 5:2 1:2 3:2 2:4
2:0 3:1 1:3 3:7 2:1 4:3 5:2 1:2 3:2 2:4 3:1
3:0 1:3 3:7 2:1 4:3 5:2 1:2 3:2 2:4 3:1 4:1
1:0 3:7 2:1 4:3 5:2 1:2 3:2 2:4 3:1 4:1 3:1
3:0 2:1 4:3 5:2 1:2 3:2 2:4 3:1 4:1 3:1 2:1
2:0 4:3 5:2 1:2 3:2 2:4 3:1 4:1 3:1 2:1 1:1
4:0 5:2 1:2 3:2 2:4 3:1 4:1 3:1 2:1 1:1 3:6
5:0 1:2 3:2 2:4 3:1 4:1 3:1 2:1 1:1 3:6 2:1
1:0 3:2 2:4 3:1 4:1 3:1 2:1 1:1 3:6 2:1 4:3
3:0 2:4 3:1 4:1 3:1 2:1 1:1 3:6 2:1 4:3 5:2
2:0 3:1 4:1 3:1 2:1 1:1 3:6 2:1 4:3 5:2 1:2
3:0 4:1 3:1 2:1 1:1 3:6 2:1 4:3 5:2 1:2 3:2
4:0 3:1 2:1 1:1 3:6 2:1 4:3 5:2 1:2 3:2 2:4
3:0 2:1 1:1 3:6 2:1 4:3 5:2 1:2 3:2 2:4 3:1
2:0 1:1 3:6 2:1 4:3 5:2 1:2 3:2 2:4 3:1 4:1
1:0 3:6 2:1 4:3 5:2 1:2 3:2 2:4 3:1 4:1 3:1
3:0 2:1 4:3 5:2 1:2 3:2 2:4 3:1 4:1 3:1 1:1
2:0 4:3 5:2 1:2 3:2 2:4 3:1 4:1 3:1 1:1 3:7
4:0 5:2 1:2 3:2 2:4 3:1 4:1 3:1 1:1 3:7 2:1
5:0 1:2 3:2 2:4 3:1 4:1 3:1 1:1 3:7 2:1 4:3
1:0 3:2 2:4 3:1 4:1 3:1 1:1 3:7 2:1 4:3 5:2
3:0 2:4 3:1 4:1 3:1 1:1 3:7 2:1 4:3 5:2 1:2
2:0 3:1 4:1 3:1 1:1 3:7 2:1 4:3 5:2 1:2 3:2
3:0 4:1 3:1 1:1 3:7 2:1 4:3 5:2 1:2 3:2 2:4
4:0 3:1 1:1 3:7 2:1 4:3 5:2 1:2 3:2 2:4 3:1
3:0 1:1 3:7 2:1 4:3 5:2 1:2 3:2 2:4 3:1 1:3
1:0 3:7 2:1 4:3 5:2 1:2 3:2 2:4 3:1 1:3 3:7
3:0 2:1 4:3 5:2 1:2 3:2 2:4 3:1 1:3 3:7 2:1
2:0 4:3 5:2 1:2 3:2 2:4 3:1 1:3 3:7 2:1 4:3
4:0 5:2 1:2 3:2 2:4 3:1 1:3 3:7 2:1 4:3 5:2
5:0 1:2 3:2 2:4 3:1 1:3 3:7 2:1 4:3 5:2 1:2
1:0 3:2 2:4 3:1 1:3 3:7 2:1 4:3 5:2 1:2 3:2
3:0 2:4 3:1 1:3 3:7 2:1 4:3 5:2 1:2 3:2 2:4
2:0 3:1 1:3 3:7 2:1 4:3 5:2 1:2 3:2 2:4 3:1
3:0 1:3 3:7 2:1 4:3 5:2 1:2 3:2 2:4 3:1 4:1
1:0 3:7 2:1 4:3 5:2 1:2 3:2 2:4 3:1 4:1 3:1
3:0 2:1 4:3 5:2 1:2 3:2 2:4 3:1 4:1 3:1 1:1
2:0 4:3 5:2 1:2 3:2 2:4 3:1 4:1 3:1 1:1 3:7
4:0 5:2 1:2 3:2 2:4 3:1 4:1 3:1 1:1 3:7 2:1
5:0 1:2 3:2 2:4 3:1 4:1 3:1 1:1 3:7 2:1 4:3
1:0 3:2 2:4 3:1 4:1 3:1 1:1 3:7 2:1 4:3 5:2
3:0 2:4 3:1 4:1 3:1 1:1 3:7 2:1 4:3 5:2
2:0 3:1 4:1 3:1 1:1 3:7 2:1 4:3 5:2
3:0 4:1 3:1 1:1 3:7 2:1 4:3 5:2
4:0 3:1 1:1 3:7 2:1 4:3 5:2
3:0 1:1 3:7 2:1 4:3 5:2
1:0 3:7 2:1 4:3 5:2
3:0 2:1 4:3 5:2
2:0 4:3 5:2
4:0 5:2
5:0
1:0 3:2 2:4 3:1 4:1 3:1 1:1 3:7 2:1 4:3 5:2 1:2 3:2 2:4 3:1 4:1 3:1 1:1 3:7 2:1 4:3 5:2 1:2 3:2 2:4 3:1 4:1 3:1 1:1 3:7 1:1 2:1 4:2 5:2 1:2 3:2 2:4 3:1 4:1 3:1 1:1 3:7 2:1 4:3 5:2 1:2 3:2 4:6 3:1 1:1 3:7 2:1 4:3 5:2 1:2 3:2 2:4 3:1 4:1 3:1 1:1 3:7 2:1 4:3 5:2 1:2 2:1 3:1 1:8 3:7 2:1 4:3 5:2 1:2 3:2 2:4 4:2 3:1 1:1 3:7 2:1 4:3 5:2 1:2 3:2 2:4 3:1 4:1 3:1 1:1 3:7 2:1 4:3 5:2 1:2 3:2 4:6 3:1 1:1 3:7 2:1 4:3 5:2 1:2 3:2 2:4 3:1 4:1 3:1 1:1 3:7 1:1 2:1 4:2 5:2 1:2 3:2 4:6 3:1 1:1 3:7 2:1 4:3 5:2 1:2 3:2 2:4 3:1 1:3 3:7 2:1 4:3 5:2 1:2 3:2 4:6 3:1 1:1 3:7 2:1 4:3 5:2 1:2 2:1 3:1 2:4 3:1 4:1 3:1 1:1 3:7 2:1 4:3 5:2 1:2 3:2 4:6 3:1 1:1 3:7 2:1 4:3 5:2 1:2 2:1 3:1 2:4 3:1 4:1 3:1 1:1 3:7 2:1 4:3 5:2 1:2 3:2 2:4 3:1 4:1 3:1 1:1 3:7 2:1 4:3 5:2 1:2 2:1 3:1 2:4 3:1 4:1 3:1 1:1 3:7 2:1 4:3 5:2 1:2 3:2 2:4 3:1 4:1 3:1 1:1 3:7 1:1 2:1 4:2 5:2 1:2 3:2 4:6 3:1 1:1 3:7 1:1 2:1 4:2 5:2 1:2 3:2 2:4 3:1 1:3 3:7 2:1 4:3 5:2 1:2 3:2 2:4 3:1 4:1 3:1 1:1 3:7 1:1 2:1 4:2 5:2 1:2 3:2 2:4 3:1 4:1 3:1 1:1 3:7 1:1 2:1 4:2 5:2 1:2 3:2 2:4 3:1 4:1 3:1 1:1 3:7 2:1 4:3 5:2 1:2 3:2 2:4 3:1 4:1 3:1 1:1 3:7 2:1 4:3 5:2 1:2 3:2 2:4 3:1 4:1 3:1 1:1 3:7 2:1 4:3 5:2 1:2 3:2 2:4 3:1 4:1 3:1 1:1 3:7 2:1 4:3 5:2 1:2 3:2 2:4 3:1 4:1 3:1 1:1 3:7 2:1 4:3 5:2 1:2 3:2 2:4 3:1 4:1 3:1 1:1 3:7 2:1 4:3 5:2 1:2 3:2 2:4 3:1 4:1 3:1 1:1 3:7 2:1 4:3 5:2 6:1 1:1 3:2 2:4 3:1 4:1 3:1 1:1 3:7 2:1 4:3 5:2 1:2 3:2 2:4 3:1 4:1 3:1 1:1 3:7 2:1 4:3 5:2 1:2 3:2 2:4 3:1 4:1 3:1 1:1 3:7 2:1 4:3 5:2 1:2 3:2 2:4 3:1 4:1 3:1 1:1 3:7 2:1 4:3 5:2 1:2 3:2 2:4 3:1 1:3 3:7 2:1 4:3 5:2 1:2 3:2 2:4 3:1 4:1 3:1 2:1 1:1 3:6 2:1 4:3 5:2 1:2 3:2 2:4 3:1 4:1 3:1 1:1 3:7 2:1 4:3 5:2 1:2 3:2 2:4 3:1 1:3 3:7 2:1 4:3 5:2 1:2 3:2 2:4 3:1 4:1 3:1 1:1 3:7 2:1 4:3 5:2