3:0 2:2 3:4 2:5 3:1 2:1 1:1 2:2 1:1 3:2 2:8
2:0 3:4 2:5 3:1 2:1 1:1 2:2 1:1 3:2 2:8 3:4
3:0 2:5 3:1 2:1 1:1 2:2 1:1 3:2 2:8 3:4 2:5
2:0 3:1 2:1 1:1 2:2 1:1 3:2 2:8 3:4 2:5 3:1
3:0 2:1 1:1 2:2 1:1 3:2 2:8 3:4 2:5 3:1 2:1
2:0 1:1 2:2 1:1 3:2 2:8 3:4 2:5 3:1 2:1 1:1
1:0 2:2 1:1 3:2 2:8 3:4 2:5 3:1 2:1 1:1 2:2
2:0 1:1 3:2 2:8 3:4 2:5 3:1 2:1 1:1 2:2 1:1
1:0 3:2 2:8 3:4 2:5 3:1 2:1 1:1 2:2 1:1 3:2
3:0 2:8 3:4 2:5 3:1 2:1 1:1 2:2 1:1 3:2 2:8
2:0 3:4 2:5 3:1 2:1 1:1 2:2 1:1 3:2 2:8 1:1
3:0 2:5 3:1 2:1 1:1 2:2 1:1 3:2 2:8 1:1 2:1
2:0 3:1 2:1 1:1 2:2 1:1 3:2 2:8 1:1 2:1 3:2
3:0 2:1 1:1 2:2 1:1 3:2 2:8 1:1 2:1 3:2 2:5
2:0 1:1 2:2 1:1 3:2 2:8 1:1 2:1 3:2 2:5 3:1
1:0 2:2 1:1 3:2 2:8 1:1 2:1 3:2 2:5 3:1 2:1
2:0 1:1 3:2 2:8 1:1 2:1 3:2 2:5 3:1 2:1 1:1
1:0 3:2 2:8 1:1 2:1 3:2 2:5 3:1 2:1 1:1 2:2
3:0 2:8 1:1 2:1 3:2 2:5 3:1 2:1 1:1 2:2 1:1
2:0 1:1 2:1 3:2 2:5 3:1 2:1 1:1 2:2 1:1 3:2
1:0 2:1 3:2 2:5 3:1 2:1 1:1 2:2 1:1 3:2 2:8
2:0 3:2 2:5 3:1 2:1 1:1 2:2 1:1 3:2 2:8 3:4
3:0 2:5 3:1 2:1 1:1 2:2 1:1 3:2 2:8 3:4 2:5
2:0 3:1 2:1 1:1 2:2 1:1 3:2 2:8 3:4 2:5 3:1
3:0 2:1 1:1 2:2 1:1 3:2 2:8 3:4 2:5 3:1 2:1
2:0 1:1 2:2 1:1 3:2 2:8 3:4 2:5 3:1 2:1 1:1
1:0 2:2 1:1 3:2 2:8 3:4 2:5 3:1 2:1 1:1 2:2
2:0 1:1 3:2 2:8 3:4 2:5 3:1 2:1 1:1 2:2 1:1
1:0 3:2 2:8 3:4 2:5 3:1 2:1 1:1 2:2 1:1 3:2
3:0 2:8 3:4 2:5 3:1 2:1 1:1 2:2 1:1 3:2 2:8
2:0 3:4 2:5 3:1 2:1 1:1 2:2 1:1 3:2 2:8 3:4
3:0 2:5 3:1 2:1 1:1 2:2 1:1 3:2 2:8 3:4 2:5
2:0 3:1 2:1 1:1 2:2 1:1 3:2 2:8 3:4 2:5 3:1
3:0 2:1 1:1 2:2 1:1 3:2 2:8 3:4 2:5 3:1 2:1
2:0 1:1 2:2 1:1 3:2 2:8 3:4 2:5 3:1 2:1 1:1
1:0 2:2 1:1 3:2 2:8 3:4 2:5 3:1 2:1 1:1 2:2
2:0 1:1 3:2 2:8 3:4 2:5 3:1 2:1 1:1 2:2 1:1
1:0 3:2 2:8 3:4 2:5 3:1 2:1 1:1 2:2 1:1 3:2
3:0 2:8 3:4 2:5 3:1 2:1 1:1 2:2 1:1 3:2 2:8
2:0 3:4 2:5 3:1 2:1 1:1 2:2 1:1 3:2 2:8 3:4
3:0 2:5 3:1 2:1 1:1 2:2 1:1 3:2 2:8 3:4 2:5
2:0 3:1 2:1 1:1 2:2 1:1 3:2 2:8 3:4 2:5 3:1
3:0 2:1 1:1 2:2 1:1 3:2 2:8 3:4 2:5 3:1 2:1
2:0 1:1 2:2 1:1 3:2 2:8 3:4 2:5 3:1 2:1 1:1
1:0 2:2 1:1 3:2 2:8 3:4 2:5 3:1 2:1 1:1 2:2
2:0 1:1 3:2 2:8 3:4 2:5 3:1 2:1 1:1 2:2 1:1
1:0 3:2 2:8 3:4 2:5 3:1 2:1 1:1 2:2 1:1 3:2
3:0 2:8 3:4 2:5 3:1 2:1 1:1 2:2 1:1 3:2 2:6
2:0 3:4 2:5 3:1 2:1 1:1 2:2 1:1 3:2 2:6 3:1
3:0 2:5 3:1 2:1 1:1 2:2 1:1 3:2 2:6 3:1 2:1
2:0 3:1 2:1 1:1 2:2 1:1 3:2 2:6 3:1 2:1 3:4
3:0 2:1 1:1 2:2 1:1 3:2 2:6 3:1 2:1 3:4 2:3
2:0 1:1 2:2 1:1 3:2 2:6 3:1 2:1 3:4 2:3 3:1
1:0 2:2 1:1 3:2 2:6 3:1 2:1 3:4 2:3 3:1 2:1
2:0 1:1 3:2 2:6 3:1 2:1 3:4 2:3 3:1 2:1 3:1
1:0 3:2 2:6 3:1 2:1 3:4 2:3 3:1 2:1 3:1 2:1
3:0 2:6 3:1 2:1 3:4 2:3 3:1 2:1 3:1 2:1 1:1
2:0 3:1 2:1 3:4 2:3 3:1 2:1 3:1 2:1 1:1 2:2
3:0 2:1 3:4 2:3 3:1 2:1 3:1 2:1 1:1 2:2 1:1
2:0 3:4 2:3 3:1 2:1 3:1 2:1 1:1 2:2 1:1 3:2
3:0 2:3 3:1 2:1 3:1 2:1 1:1 2:2 1:1 3:2 2:8
2:0 3:1 2:1 3:1 2:1 1:1 2:2 1:1 3:2 2:8 3:4
3:0 2:1 3:1 2:1 1:1 2:2 1:1 3:2 2:8 3:4 2:5
2:0 3:1 2:1 1:1 2:2 1:1 3:2 2:8 3:4 2:5 3:1
3:0 2:1 1:1 2:2 1:1 3:2 2:8 3:4 2:5 3:1 2:1
2:0 1:1 2:2 1:1 3:2 2:8 3:4 2:5 3:1 2:1 1:1
1:0 2:2 1:1 3:2 2:8 3:4 2:5 3:1 2:1 1:1 2:2
2:0 1:1 3:2 2:8 3:4 2:5 3:1 2:1 1:1 2:2 1:1
1:0 3:2 2:8 3:4 2:5 3:1 2:1 1:1 2:2 1:1 3:2
3:0 2:8 3:4 2:5 3:1 2:1 1:1 2:2 1:1 3:2 2:6
2:0 3:4 2:5 3:1 2:1 1:1 2:2 1:1 3:2 2:6 3:1
3:0 2:5 3:1 2:1 1:1 2:2 1:1 3:2 2:6 3:1 2:1
2:0 3:1 2:1 1:1 2:2 1:1 3:2 2:6 3:1 2:1 3:4
3:0 2:1 1:1 2:2 1:1 3:2 2:6 3:1 2:1 3:4 2:5
2:0 1:1 2:2 1:1 3:2 2:6 3:1 2:1 3:4 2:5 3:1
1:0 2:2 1:1 3:2 2:6 3:1 2:1 3:4 2:5 3:1 2:1
2:0 1:1 3:2 2:6 3:1 2:1 3:4 2:5 3:1 2:1 1:1
1:0 3:2 2:6 3:1 2:1 3:4 2:5 3:1 2:1 1:1 2:2
3:0 2:6 3:1 2:1 3:4 2:5 3:1 2:1 1:1 2:2 1:1
2:0 3:1 2:1 3:4 2:5 3:1 2:1 1:1 2:2 1:1 2:1
3:0 2:1 3:4 2:5 3:1 2:1 1:1 2:2 1:1 2:1 3:1
2:0 3:4 2:5 3:1 2:1 1:1 2:2 1:1 2:1 3:1 2:8
3:0 2:5 3:1 2:1 1:1 2:2 1:1 2:1 3:1 2:8 3:4
2:0 3:1 2:1 1:1 2:2 1:1 2:1 3:1 2:8 3:4 2:5
3:0 2:1 1:1 2:2 1:1 2:1 3:1 2:8 3:4 2:5 3:1
2:0 1:1 2:2 1:1 2:1 3:1 2:8 3:4 2:5 3:1 2:1
1:0 2:2 1:1 2:1 3:1 2:8 3:4 2:5 3:1 2:1 1:1
2:0 1:1 2:1 3:1 2:8 3:4 2:5 3:1 2:1 1:1 2:1
1:0 2:1 3:1 2:8 3:4 2:5 3:1 2:1 1:1 2:1 1:2
2:0 3:1 2:8 3:4 2:5 3:1 2:1 1:1 2:1 1:2 3:2
3:0 2:8 3:4 2:5 3:1 2:1 1:1 2:1 1:2 3:2 2:8
2:0 3:4 2:5 3:1 2:1 1:1 2:1 1:2 3:2 2:8 3:4
3:0 2:5 3:1 2:1 1:1 2:1 1:2 3:2 2:8 3:4 2:3
2:0 3:1 2:1 1:1 2:1 1:2 3:2 2:8 3:4 2:3 3:1
3:0 2:1 1:1 2:1 1:2 3:2 2:8 3:4 2:3 3:1 2:1
2:0 1:1 2:1 1:2 3:2 2:8 3:4 2:3 3:1 2:1 3:1
1:0 2:1 1:2 3:2 2:8 3:4 2:3 3:1 2:1 3:1 2:1
2:0 1:2 3:2 2:8 3:4 2:3 3:1 2:1 3:1 2:1 1:1
1:0 3:2 2:8 3:4 2:3 3:1 2:1 3:1 2:1 1:1 2:1
3:0 2:8 3:4 2:3 3:1 2:1 3:1 2:1 1:1 2:1 1:2
2:0 3:4 2:3 3:1 2:1 3:1 2:1 1:1 2:1 1:2 3:2
3:0 2:3 3:1 2:1 3:1 2:1 1:1 2:1 1:2 3:2 2:8
2:0 3:1 2:1 3:1 2:1 1:1 2:1 1:2 3:2 2:8 3:4
3:0 2:1 3:1 2:1 1:1 2:1 1:2 3:2 2:8 3:4 2:5
2:0 3:1 2:1 1:1 2:1 1:2 3:2 2:8 3:4 2:5 3:1
3:0 2:1 1:1 2:1 1:2 3:2 2:8 3:4 2:5 3:1 2:1
2:0 1:1 2:1 1:2 3:2 2:8 3:4 2:5 3:1 2:1 1:1
1:0 2:1 1:2 3:2 2:8 3:4 2:5 3:1 2:1 1:1 2:2
2:0 1:2 3:2 2:8 3:4 2:5 3:1 2:1 1:1 2:2 1:1
1:0 3:2 2:8 3:4 2:5 3:1 2:1 1:1 2:2 1:1 2:1
3:0 2:8 3:4 2:5 3:1 2:1 1:1 2:2 1:1 2:1 3:1
2:0 3:4 2:5 3:1 2:1 1:1 2:2 1:1 2:1 3:1 2:8
3:0 2:5 3:1 2:1 1:1 2:2 1:1 2:1 3:1 2:8 3:4
2:0 3:1 2:1 1:1 2:2 1:1 2:1 3:1 2:8 3:4 2:5
3:0 2:1 1:1 2:2 1:1 2:1 3:1 2:8 3:4 2:5 3:1
2:0 1:1 2:2 1:1 2:1 3:1 2:8 3:4 2:5 3:1 2:1
1:0 2:2 1:1 2:1 3:1 2:8 3:4 2:5 3:1 2:1 1:1
2:0 1:1 2:1 3:1 2:8 3:4 2:5 3:1 2:1 1:1 2:2
1:0 2:1 3:1 2:8 3:4 2:5 3:1 2:1 1:1 2:2 1:1
2:0 3:1 2:8 3:4 2:5 3:1 2:1 1:1 2:2 1:1 3:2
3:0 2:8 3:4 2:5 3:1 2:1 1:1 2:2 1:1 3:2 2:8
2:0 3:4 2:5 3:1 2:1 1:1 2:2 1:1 3:2 2:8 3:4
3:0 2:5 3:1 2:1 1:1 2:2 1:1 3:2 2:8 3:4 2:5
2:0 3:1 2:1 1:1 2:2 1:1 3:2 2:8 3:4 2:5 3:1
3:0 2:1 1:1 2:2 1:1 3:2 2:8 3:4 2:5 3:1 2:1
2:0 1:1 2:2 1:1 3:2 2:8 3:4 2:5 3:1 2:1 1:1
1:0 2:2 1:1 3:2 2:8 3:4 2:5 3:1 2:1 1:1 2:2
2:0 1:1 3:2 2:8 3:4 2:5 3:1 2:1 1:1 2:2 1:1
1:0 3:2 2:8 3:4 2:5 3:1 2:1 1:1 2:2 1:1 3:2
3:0 2:8 3:4 2:5 3:1 2:1 1:1 2:2 1:1 3:2 2:8
2:0 3:4 2:5 3:1 2:1 1:1 2:2 1:1 3:2 2:8 3:4
3:0 2:5 3:1 2:1 1:1 2:2 1:1 3:2 2:8 3:4 2:5
2:0 3:1 2:1 1:1 2:2 1:1 3:2 2:8 3:4 2:5 3:1
3:0 2:1 1:1 2:2 1:1 3:2 2:8 3:4 2:5 3:1 2:1
2:0 1:1 2:2 1:1 3:2 2:8 3:4 2:5 3:1 2:1 1:1
1:0 2:2 1:1 3:2 2:8 3:4 2:5 3:1 2:1 1:1 2:2
2:0 1:1 3:2 2:8 3:4 2:5 3:1 2:1 1:1 2:2 1:1
1:0 3:2 2:8 3:4 2:5 3:1 2:1 1:1 2:2 1:1 3:2
3:0 2:8 3:4 2:5 3:1 2:1 1:1 2:2 1:1 3:2 2:8
2:0 3:4 2:5 3:1 2:1 1:1 2:2 1:1 3:2 2:8 3:4
3:0 2:5 3:1 2:1 1:1 2:2 1:1 3:2 2:8 3:4 2:5
2:0 3:1 2:1 1:1 2:2 1:1 3:2 2:8 3:4 2:5 3:1
3:0 2:1 1:1 2:2 1:1 3:2 2:8 3:4 2:5 3:1 2:1
2:0 1:1 2:2 1:1 3:2 2:8 3:4 2:5 3:1 2:1 1:1
1:0 2:2 1:1 3:2 2:8 3:4 2:5 3:1 2:1 1:1 2:2
2:0 1:1 3:2 2:8 3:4 2:5 3:1 2:1 1:1 2:2 1:1
1:0 3:2 2:8 3:4 2:5 3:1 2:1 1:1 2:2 1:1 3:2
3:0 2:8 3:4 2:5 3:1 2:1 1:1 2:2 1:1 3:2 2:8
2:0 3:4 2:5 3:1 2:1 1:1 2:2 1:1 3:2 2:8 3:4
3:0 2:5 3:1 2:1 1:1 2:2 1:1 3:2 2:8 3:4 2:5
2:0 3:1 2:1 1:1 2:2 1:1 3:2 2:8 3:4 2:5 3:1
3:0 2:1 1:1 2:2 1:1 3:2 2:8 3:4 2:5 3:1 2:1
2:0 1:1 2:2 1:1 3:2 2:8 3:4 2:5 3:1 2:1 1:1
1:0 2:2 1:1 3:2 2:8 3:4 2:5 3:1 2:1 1:1 2:1
2:0 1:1 3:2 2:8 3:4 2:5 3:1 2:1 1:1 2:1 1:2
1:0 3:2 2:8 3:4 2:5 3:1 2:1 1:1 2:1 1:2 3:2
3:0 2:8 3:4 2:5 3:1 2:1 1:1 2:1 1:2 3:2 2:8
2:0 3:4 2:5 3:1 2:1 1:1 2:1 1:2 3:2 2:8 3:4
3:0 2:5 3:1 2:1 1:1 2:1 1:2 3:2 2:8 3:4 2:5
2:0 3:1 2:1 1:1 2:1 1:2 3:2 2:8 3:4 2:5 3:1
3:0 2:1 1:1 2:1 1:2 3:2 2:8 3:4 2:5 3:1 2:1
2:0 1:1 2:1 1:2 3:2 2:8 3:4 2:5 3:1 2:1 1:1
1:0 2:1 1:2 3:2 2:8 3:4 2:5 3:1 2:1 1:1 2:2
2:0 1:2 3:2 2:8 3:4 2:5 3:1 2:1 1:1 2:2 1:1
1:0 3:2 2:8 3:4 2:5 3:1 2:1 1:1 2:2 1:1 3:2
3:0 2:8 3:4 2:5 3:1 2:1 1:1 2:2 1:1 3:2 2:6
2:0 3:4 2:5 3:1 2:1 1:1 2:2 1:1 3:2 2:6 3:1
3:0 2:5 3:1 2:1 1:1 2:2 1:1 3:2 2:6 3:1 2:1
2:0 3:1 2:1 1:1 2:2 1:1 3:2 2:6 3:1 2:1 3:4
3:0 2:1 1:1 2:2 1:1 3:2 2:6 3:1 2:1 3:4 2:5
2:0 1:1 2:2 1:1 3:2 2:6 3:1 2:1 3:4 2:5 3:1
1:0 2:2 1:1 3:2 2:6 3:1 2:1 3:4 2:5 3:1 2:1
2:0 1:1 3:2 2:6 3:1 2:1 3:4 2:5 3:1 2:1 1:1
1:0 3:2 2:6 3:1 2:1 3:4 2:5 3:1 2:1 1:1 2:2
3:0 2:6 3:1 2:1 3:4 2:5 3:1 2:1 1:1 2:2 1:1
2:0 3:1 2:1 3:4 2:5 3:1 2:1 1:1 2:2 1:1 3:2
3:0 2:1 3:4 2:5 3:1 2:1 1:1 2:2 1:1 3:2 2:7
2:0 3:4 2:5 3:1 2:1 1:1 2:2 1:1 3:2 2:7 3:5
3:0 2:5 3:1 2:1 1:1 2:2 1:1 3:2 2:7 3:5 2:5
2:0 3:1 2:1 1:1 2:2 1:1 3:2 2:7 3:5 2:5 3:1
3:0 2:1 1:1 2:2 1:1 3:2 2:7 3:5 2:5 3:1 2:1
2:0 1:1 2:2 1:1 3:2 2:7 3:5 2:5 3:1 2:1 1:1
1:0 2:2 1:1 3:2 2:7 3:5 2:5 3:1 2:1 1:1 2:2
2:0 1:1 3:2 2:7 3:5 2:5 3:1 2:1 1:1 2:2 1:1
1:0 3:2 2:7 3:5 2:5 3:1 2:1 1:1 2:2 1:1 3:2
3:0 2:7 3:5 2:5 3:1 2:1 1:1 2:2 1:1 3:2 2:8
2:0 3:5 2:5 3:1 2:1 1:1 2:2 1:1 3:2 2:8 3:4
3:0 2:5 3:1 2:1 1:1 2:2 1:1 3:2 2:8 3:4 2:5
2:0 3:1 2:1 1:1 2:2 1:1 3:2 2:8 3:4 2:5 3:1
3:0 2:1 1:1 2:2 1:1 3:2 2:8 3:4 2:5 3:1 2:1
2:0 1:1 2:2 1:1 3:2 2:8 3:4 2:5 3:1 2:1 1:1
1:0 2:2 1:1 3:2 2:8 3:4 2:5 3:1 2:1 1:1 2:2
2:0 1:1 3:2 2:8 3:4 2:5 3:1 2:1 1:1 2:2 1:1
1:0 3:2 2:8 3:4 2:5 3:1 2:1 1:1 2:2 1:1 3:2
3:0 2:8 3:4 2:5 3:1 2:1 1:1 2:2 1:1 3:2 2:8
2:0 3:4 2:5 3:1 2:1 1:1 2:2 1:1 3:2 2:8 3:4
3:0 2:5 3:1 2:1 1:1 2:2 1:1 3:2 2:8 3:4 2:5
2:0 3:1 2:1 1:1 2:2 1:1 3:2 2:8 3:4 2:5 3:1
3:0 2:1 1:1 2:2 1:1 3:2 2:8 3:4 2:5 3:1 2:1
2:0 1:1 2:2 1:1 3:2 2:8 3:4 2:5 3:1 2:1 1:1
1:0 2:2 1:1 3:2 2:8 3:4 2:5 3:1 2:1 1:1 2:2
2:0 1:1 3:2 2:8 3:4 2:5 3:1 2:1 1:1 2:2 1:1
1:0 3:2 2:8 3:4 2:5 3:1 2:1 1:1 2:2 1:1 3:2
3:0 2:8 3:4 2:5 3:1 2:1 1:1 2:2 1:1 3:2 2:8
2:0 3:4 2:5 3:1 2:1 1:1 2:2 1:1 3:2 2:8 3:4
3:0 2:5 3:1 2:1 1:1 2:2 1:1 3:2 2:8 3:4 2:5
2:0 3:1 2:1 1:1 2:2 1:1 3:2 2:8 3:4 2:5 3:1
3:0 2:1 1:1 2:2 1:1 3:2 2:8 3:4 2:5 3:1 2:1
2:0 1:1 2:2 1:1 3:2 2:8 3:4 2:5 3:1 2:1 1:1
1:0 2:2 1:1 3:2 2:8 3:4 2:5 3:1 2:1 1:1 2:2
2:0 1:1 3:2 2:8 3:4 2:5 3:1 2:1 1:1 2:2 1:1
1:0 3:2 2:8 3:4 2:5 3:1 2:1 1:1 2:2 1:1 3:2
3:0 2:8 3:4 2:5 3:1 2:1 1:1 2:2 1:1 3:2 2:7
2:0 3:4 2:5 3:1 2:1 1:1 2:2 1:1 3:2 2:7 3:5
3:0 2:5 3:1 2:1 1:1 2:2 1:1 3:2 2:7 3:5 2:5
2:0 3:1 2:1 1:1 2:2 1:1 3:2 2:7 3:5 2:5 3:1
3:0 2:1 1:1 2:2 1:1 3:2 2:7 3:5 2:5 3:1 2:1
2:0 1:1 2:2 1:1 3:2 2:7 3:5 2:5 3:1 2:1 1:1
1:0 2:2 1:1 3:2 2:7 3:5 2:5 3:1 2:1 1:1 2:2
2:0 1:1 3:2 2:7 3:5 2:5 3:1 2:1 1:1 2:2 1:1
1:0 3:2 2:7 3:5 2:5 3:1 2:1 1:1 2:2 1:1 3:2
3:0 2:7 3:5 2:5 3:1 2:1 1:1 2:2 1:1 3:2 2:8
2:0 3:5 2:5 3:1 2:1 1:1 2:2 1:1 3:2 2:8 1:1
3:0 2:5 3:1 2:1 1:1 2:2 1:1 3:2 2:8 1:1 2:1
2:0 3:1 2:1 1:1 2:2 1:1 3:2 2:8 1:1 2:1 3:2
3:0 2:1 1:1 2:2 1:1 3:2 2:8 1:1 2:1 3:2 2:5
2:0 1:1 2:2 1:1 3:2 2:8 1:1 2:1 3:2 2:5 3:1
1:0 2:2 1:1 3:2 2:8 1:1 2:1 3:2 2:5 3:1 2:1
2:0 1:1 3:2 2:8 1:1 2:1 3:2 2:5 3:1 2:1 1:1
1:0 3:2 2:8 1:1 2:1 3:2 2:5 3:1 2:1 1:1 2:2
3:0 2:8 1:1 2:1 3:2 2:5 3:1 2:1 1:1 2:2 1:1
2:0 1:1 2:1 3:2 2:5 3:1 2:1 1:1 2:2 1:1 3:2
1:0 2:1 3:2 2:5 3:1 2:1 1:1 2:2 1:1 3:2 4:5
2:0 3:2 2:5 3:1 2:1 1:1 2:2 1:1 3:2 4:5 3:1
3:0 2:5 3:1 2:1 1:1 2:2 1:1 3:2 4:5 3:1 2:2
2:0 3:1 2:1 1:1 2:2 1:1 3:2 4:5 3:1 2:2 3:4
3:0 2:1 1:1 2:2 1:1 3:2 4:5 3:1 2:2 3:4 2:5
2:0 1:1 2:2 1:1 3:2 4:5 3:1 2:2 3:4 2:5 3:1
1:0 2:2 1:1 3:2 4:5 3:1 2:2 3:4 2:5 3:1 2:1
2:0 1:1 3:2 4:5 3:1 2:2 3:4 2:5 3:1 2:1 1:1
1:0 3:2 4:5 3:1 2:2 3:4 2:5 3:1 2:1 1:1 2:2
3:0 4:5 3:1 2:2 3:4 2:5 3:1 2:1 1:1 2:2 1:1
4:0 3:1 2:2 3:4 2:5 3:1 2:1 1:1 2:2 1:1 3:2
3:0 2:2 3:4 2:5 3:1 2:1 1:1 2:2 1:1 3:2 2:8
2:0 3:4 2:5 3:1 2:1 1:1 2:2 1:1 3:2 2:8 3:4
3:0 2:5 3:1 2:1 1:1 2:2 1:1 3:2 2:8 3:4 2:5
2:0 3:1 2:1 1:1 2:2 1:1 3:2 2:8 3:4 2:5 3:1
3:0 2:1 1:1 2:2 1:1 3:2 2:8 3:4 2:5 3:1 2:1
2:0 1:1 2:2 1:1 3:2 2:8 3:4 2:5 3:1 2:1 1:1
1:0 2:2 1:1 3:2 2:8 3:4 2:5 3:1 2:1 1:1 2:2
2:0 1:1 3:2 2:8 3:4 2:5 3:1 2:1 1:1 2:2 1:1
1:0 3:2 2:8 3:4 2:5 3:1 2:1 1:1 2:2 1:1 3:2
3:0 2:8 3:4 2:5 3:1 2:1 1:1 2:2 1:1 3:2 2:7
2:0 3:4 2:5 3:1 2:1 1:1 2:2 1:1 3:2 2:7 3:5
3:0 2:5 3:1 2:1 1:1 2:2 1:1 3:2 2:7 3:5 2:5
2:0 3:1 2:1 1:1 2:2 1:1 3:2 2:7 3:5 2:5 3:1
3:0 2:1 1:1 2:2 1:1 3:2 2:7 3:5 2:5 3:1 2:1
2:0 1:1 2:2 1:1 3:2 2:7 3:5 2:5 3:1 2:1 1:1
1:0 2:2 1:1 3:2 2:7 3:5 2:5 3:1 2:1 1:1 2:1
2:0 1:1 3:2 2:7 3:5 2:5 3:1 2:1 1:1 2:1 1:2
1:0 3:2 2:7 3:5 2:5 3:1 2:1 1:1 2:1 1:2 3:2
3:0 2:7 3:5 2:5 3:1 2:1 1:1 2:1 1:2 3:2 2:8
2:0 3:5 2:5 3:1 2:1 1:1 2:1 1:2 3:2 2:8 3:4
3:0 2:5 3:1 2:1 1:1 2:1 1:2 3:2 2:8 3:4 2:3
2:0 3:1 2:1 1:1 2:1 1:2 3:2 2:8 3:4 2:3 3:1
3:0 2:1 1:1 2:1 1:2 3:2 2:8 3:4 2:3 3:1 2:1
2:0 1:1 2:1 1:2 3:2 2:8 3:4 2:3 3:1 2:1 3:1
1:0 2:1 1:2 3:2 2:8 3:4 2:3 3:1 2:1 3:1 2:1
2:0 1:2 3:2 2:8 3:4 2:3 3:1 2:1 3:1 2:1 1:1
1:0 3:2 2:8 3:4 2:3 3:1 2:1 3:1 2:1 1:1 2:2
3:0 2:8 3:4 2:3 3:1 2:1 3:1 2:1 1:1 2:2 1:1
2:0 3:4 2:3 3:1 2:1 3:1 2:1 1:1 2:2 1:1 3:2
3:0 2:3 3:1 2:1 3:1 2:1 1:1 2:2 1:1 3:2 2:8
2:0 3:1 2:1 3:1 2:1 1:1 2:2 1:1 3:2 2:8 3:4
3:0 2:1 3:1 2:1 1:1 2:2 1:1 3:2 2:8 3:4 2:5
2:0 3:1 2:1 1:1 2:2 1:1 3:2 2:8 3:4 2:5 3:1
3:0 2:1 1:1 2:2 1:1 3:2 2:8 3:4 2:5 3:1 2:1
2:0 1:1 2:2 1:1 3:2 2:8 3:4 2:5 3:1 2:1 1:1
1:0 2:2 1:1 3:2 2:8 3:4 2:5 3:1 2:1 1:1 2:1
2:0 1:1 3:2 2:8 3:4 2:5 3:1 2:1 1:1 2:1 1:2
1:0 3:2 2:8 3:4 2:5 3:1 2:1 1:1 2:1 1:2 3:2
3:0 2:8 3:4 2:5 3:1 2:1 1:1 2:1 1:2 3:2 2:8
2:0 3:4 2:5 3:1 2:1 1:1 2:1 1:2 3:2 2:8 3:4
3:0 2:5 3:1 2:1 1:1 2:1 1:2 3:2 2:8 3:4 2:5
2:0 3:1 2:1 1:1 2:1 1:2 3:2 2:8 3:4 2:5 3:1
3:0 2:1 1:1 2:1 1:2 3:2 2:8 3:4 2:5 3:1 2:1
2:0 1:1 2:1 1:2 3:2 2:8 3:4 2:5 3:1 2:1 1:1
1:0 2:1 1:2 3:2 2:8 3:4 2:5 3:1 2:1 1:1 2:1
2:0 1:2 3:2 2:8 3:4 2:5 3:1 2:1 1:1 2:1 1:2
1:0 3:2 2:8 3:4 2:5 3:1 2:1 1:1 2:1 1:2 3:2
3:0 2:8 3:4 2:5 3:1 2:1 1:1 2:1 1:2 3:2 2:8
2:0 3:4 2:5 3:1 2:1 1:1 2:1 1:2 3:2 2:8 3:4
3:0 2:5 3:1 2:1 1:1 2:1 1:2 3:2 2:8 3:4 2:5
2:0 3:1 2:1 1:1 2:1 1:2 3:2 2:8 3:4 2:5 3:1
3:0 2:1 1:1 2:1 1:2 3:2 2:8 3:4 2:5 3:1 2:1
2:0 1:1 2:1 1:2 3:2 2:8 3:4 2:5 3:1 2:1 1:1
1:0 2:1 1:2 3:2 2:8 3:4 2:5 3:1 2:1 1:1 2:2
2:0 1:2 3:2 2:8 3:4 2:5 3:1 2:1 1:1 2:2 1:1
1:0 3:2 2:8 3:4 2:5 3:1 2:1 1:1 2:2 1:1 3:2
3:0 2:8 3:4 2:5 3:1 2:1 1:1 2:2 1:1 3:2 2:8
2:0 3:4 2:5 3:1 2:1 1:1 2:2 1:1 3:2 2:8 3:4
3:0 2:5 3:1 2:1 1:1 2:2 1:1 3:2 2:8 3:4 2:5
2:0 3:1 2:1 1:1 2:2 1:1 3:2 2:8 3:4 2:5 3:1
3:0 2:1 1:1 2:2 1:1 3:2 2:8 3:4 2:5 3:1 2:1
2:0 1:1 2:2 1:1 3:2 2:8 3:4 2:5 3:1 2:1 1:1
1:0 2:2 1:1 3:2 2:8 3:4 2:5 3:1 2:1 1:1 2:1
2:0 1:1 3:2 2:8 3:4 2:5 3:1 2:1 1:1 2:1 1:2
1:0 3:2 2:8 3:4 2:5 3:1 2:1 1:1 2:1 1:2 3:2
3:0 2:8 3:4 2:5 3:1 2:1 1:1 2:1 1:2 3:2 2:8
2:0 3:4 2:5 3:1 2:1 1:1 2:1 1:2 3:2 2:8 3:4
3:0 2:5 3:1 2:1 1:1 2:1 1:2 3:2 2:8 3:4 2:5
2:0 3:1 2:1 1:1 2:1 1:2 3:2 2:8 3:4 2:5 3:1
3:0 2:1 1:1 2:1 1:2 3:2 2:8 3:4 2:5 3:1 2:1
2:0 1:1 2:1 1:2 3:2 2:8 3:4 2:5 3:1 2:1 1:1
1:0 2:1 1:2 3:2 2:8 3:4 2:5 3:1 2:1 1:1 2:1
2:0 1:2 3:2 2:8 3:4 2:5 3:1 2:1 1:1 2:1 1:2
1:0 3:2 2:8 3:4 2:5 3:1 2:1 1:1 2:1 1:2 3:2
3:0 2:8 3:4 2:5 3:1 2:1 1:1 2:1 1:2 3:2 2:8
2:0 3:4 2:5 3:1 2:1 1:1 2:1 1:2 3:2 2:8 3:4
3:0 2:5 3:1 2:1 1:1 2:1 1:2 3:2 2:8 3:4 2:5
2:0 3:1 2:1 1:1 2:1 1:2 3:2 2:8 3:4 2:5 3:1
3:0 2:1 1:1 2:1 1:2 3:2 2:8 3:4 2:5 3:1 2:1
2:0 1:1 2:1 1:2 3:2 2:8 3:4 2:5 3:1 2:1 1:1
1:0 2:1 1:2 3:2 2:8 3:4 2:5 3:1 2:1 1:1 2:2
2:0 1:2 3:2 2:8 3:4 2:5 3:1 2:1 1:1 2:2 1:1
1:0 3:2 2:8 3:4 2:5 3:1 2:1 1:1 2:2 1:1 3:2
3:0 2:8 3:4 2:5 3:1 2:1 1:1 2:2 1:1 3:2 2:8
2:0 3:4 2:5 3:1 2:1 1:1 2:2 1:1 3:2 2:8 3:4
3:0 2:5 3:1 2:1 1:1 2:2 1:1 3:2 2:8 3:4 2:5
2:0 3:1 2:1 1:1 2:2 1:1 3:2 2:8 3:4 2:5 3:1
3:0 2:1 1:1 2:2 1:1 3:2 2:8 3:4 2:5 3:1 2:1
2:0 1:1 2:2 1:1 3:2 2:8 3:4 2:5 3:1 2:1 1:1
1:0 2:2 1:1 3:2 2:8 3:4 2:5 3:1 2:1 1:1 2:2
2:0 1:1 3:2 2:8 3:4 2:5 3:1 2:1 1:1 2:2 1:1
1:0 3:2 2:8 3:4 2:5 3:1 2:1 1:1 2:2 1:1 3:2
3:0 2:8 3:4 2:5 3:1 2:1 1:1 2:2 1:1 3:2 2:7
2:0 3:4 2:5 3:1 2:1 1:1 2:2 1:1 3:2 2:7 3:5
3:0 2:5 3:1 2:1 1:1 2:2 1:1 3:2 2:7 3:5 2:5
2:0 3:1 2:1 1:1 2:2 1:1 3:2 2:7 3:5 2:5 3:1
3:0 2:1 1:1 2:2 1:1 3:2 2:7 3:5 2:5 3:1 2:1
2:0 1:1 2:2 1:1 3:2 2:7 3:5 2:5 3:1 2:1 1:1
1:0 2:2 1:1 3:2 2:7 3:5 2:5 3:1 2:1 1:1 2:2
2:0 1:1 3:2 2:7 3:5 2:5 3:1 2:1 1:1 2:2 1:1
1:0 3:2 2:7 3:5 2:5 3:1 2:1 1:1 2:2 1:1 3:2
3:0 2:7 3:5 2:5 3:1 2:1 1:1 2:2 1:1 3:2 2:8
2:0 3:5 2:5 3:1 2:1 1:1 2:2 1:1 3:2 2:8 3:4
3:0 2:5 3:1 2:1 1:1 2:2 1:1 3:2 2:8 3:4 2:5
2:0 3:1 2:1 1:1 2:2 1:1 3:2 2:8 3:4 2:5 3:1
3:0 2:1 1:1 2:2 1:1 3:2 2:8 3:4 2:5 3:1 2:1
2:0 1:1 2:2 1:1 3:2 2:8 3:4 2:5 3:1 2:1 1:1
1:0 2:2 1:1 3:2 2:8 3:4 2:5 3:1 2:1 1:1 2:2
2:0 1:1 3:2 2:8 3:4 2:5 3:1 2:1 1:1 2:2 1:1
1:0 3:2 2:8 3:4 2:5 3:1 2:1 1:1 2:2 1:1 2:1
3:0 2:8 3:4 2:5 3:1 2:1 1:1 2:2 1:1 2:1 3:1
2:0 3:4 2:5 3:1 2:1 1:1 2:2 1:1 2:1 3:1 2:8
3:0 2:5 3:1 2:1 1:1 2:2 1:1 2:1 3:1 2:8 3:4
2:0 3:1 2:1 1:1 2:2 1:1 2:1 3:1 2:8 3:4 2:5
3:0 2:1 1:1 2:2 1:1 2:1 3:1 2:8 3:4 2:5 3:1
2:0 1:1 2:2 1:1 2:1 3:1 2:8 3:4 2:5 3:1 2:1
1:0 2:2 1:1 2:1 3:1 2:8 3:4 2:5 3:1 2:1 1:1
2:0 1:1 2:1 3:1 2:8 3:4 2:5 3:1 2:1 1:1 2:2
1:0 2:1 3:1 2:8 3:4 2:5 3:1 2:1 1:1 2:2 1:1
2:0 3:1 2:8 3:4 2:5 3:1 2:1 1:1 2:2 1:1 3:2
3:0 2:8 3:4 2:5 3:1 2:1 1:1 2:2 1:1 3:2 2:8
2:0 3:4 2:5 3:1 2:1 1:1 2:2 1:1 3:2 2:8 3:4
3:0 2:5 3:1 2:1 1:1 2:2 1:1 3:2 2:8 3:4 2:5
2:0 3:1 2:1 1:1 2:2 1:1 3:2 2:8 3:4 2:5 3:1
3:0 2:1 1:1 2:2 1:1 3:2 2:8 3:4 2:5 3:1 2:1
2:0 1:1 2:2 1:1 3:2 2:8 3:4 2:5 3:1 2:1 1:1
1:0 2:2 1:1 3:2 2:8 3:4 2:5 3:1 2:1 1:1 2:2
2:0 1:1 3:2 2:8 3:4 2:5 3:1 2:1 1:1 2:2 1:1
1:0 3:2 2:8 3:4 2:5 3:1 2:1 1:1 2:2 1:1 2:1
3:0 2:8 3:4 2:5 3:1 2:1 1:1 2:2 1:1 2:1 3:1
2:0 3:4 2:5 3:1 2:1 1:1 2:2 1:1 2:1 3:1
3:0 2:5 3:1 2:1 1:1 2:2 1:1 2:1 3:1
2:0 3:1 2:1 1:1 2:2 1:1 2:1 3:1
3:0 2:1 1:1 2:2 1:1 2:1 3:1
2:0 1:1 2:2 1:1 2:1 3:1
1:0 2:2 1:1 2:1 3:1
2:0 1:1 2:1 3:1
1:0 2:1 3:1
2:0 3:1
3:0
3:0 2:2 3:4 2:5 3:1 2:1 1:1 2:2 1:1 3:2 2:8 3:4 2:5 3:1 2:1 1:1 2:2 1:1 3:2 2:8 1:1 2:1 3:2 2:5 3:1 2:1 1:1 2:2 1:1 3:2 2:8 3:4 2:5 3:1 2:1 1:1 2:2 1:1 3:2 2:8 3:4 2:5 3:1 2:1 1:1 2:2 1:1 3:2 2:8 3:4 2:5 3:1 2:1 1:1 2:2 1:1 3:2 2:6 3:1 2:1 3:4 2:3 3:1 2:1 3:1 2:1 1:1 2:2 1:1 3:2 2:8 3:4 2:5 3:1 2:1 1:1 2:2 1:1 3:2 2:6 3:1 2:1 3:4 2:5 3:1 2:1 1:1 2:2 1:1 2:1 3:1 2:8 3:4 2:5 3:1 2:1 1:1 2:1 1:2 3:2 2:8 3:4 2:3 3:1 2:1 3:1 2:1 1:1 2:1 1:2 3:2 2:8 3:4 2:5 3:1 2:1 1:1 2:2 1:1 2:1 3:1 2:8 3:4 2:5 3:1 2:1 1:1 2:2 1:1 3:2 2:8 3:4 2:5 3:1 2:1 1:1 2:2 1:1 3:2 2:8 3:4 2:5 3:1 2:1 1:1 2:2 1:1 3:2 2:8 3:4 2:5 3:1 2:1 1:1 2:2 1:1 3:2 2:8 3:4 2:5 3:1 2:1 1:1 2:1 1:2 3:2 2:8 3:4 2:5 3:1 2:1 1:1 2:2 1:1 3:2 2:6 3:1 2:1 3:4 2:5 3:1 2:1 1:1 2:2 1:1 3:2 2:7 3:5 2:5 3:1 2:1 1:1 2:2 1:1 3:2 2:8 3:4 2:5 3:1 2:1 1:1 2:2 1:1 3:2 2:8 3:4 2:5 3:1 2:1 1:1 2:2 1:1 3:2 2:8 3:4 2:5 3:1 2:1 1:1 2:2 1:1 3:2 2:7 3:5 2:5 3:1 2:1 1:1 2:2 1:1 3:2 2:8 1:1 2:1 3:2 2:5 3:1 2:1 1:1 2:2 1:1 3:2 4:5 3:1 2:2 3:4 2:5 3:1 2:1 1:1 2:2 1:1 3:2 2:8 3:4 2:5 3:1 2:1 1:1 2:2 1:1 3:2 2:7 3:5 2:5 3:1 2:1 1:1 2:1 1:2 3:2 2:8 3:4 2:3 3:1 2:1 3:1 2:1 1:1 2:2 1:1 3:2 2:8 3:4 2:5 3:1 2:1 1:1 2:1 1:2 3:2 2:8 3:4 2:5 3:1 2:1 1:1 2:1 1:2 3:2 2:8 3:4 2:5 3:1 2:1 1:1 2:2 1:1 3:2 2:8 3:4 2:5 3:1 2:1 1:1 2:1 1:2 3:2 2:8 3:4 2:5 3:1 2:1 1:1 2:1 1:2 3:2 2:8 3:4 2:5 3:1 2:1 1:1 2:2 1:1 3:2 2:8 3:4 2:5 3:1 2:1 1:1 2:2 1:1 3:2 2:7 3:5 2:5 3:1 2:1 1:1 2:2 1:1 3:2 2:8 3:4 2:5 3:1 2:1 1:1 2:2 1:1 2:1 3:1 2:8 3:4 2:5 3:1 2:1 1:1 2:2 1:1 3:2 2:8 3:4 2:5 3:1 2:1 1:1 2:2 1:1 2:1 3:1