1:0 2:2 1:9 2:6 3:6 1:2 2:2 1:9 2:6 3:4 2:1
2:0 1:9 2:6 3:6 1:2 2:2 1:9 2:6 3:4 2:1 3:1
1:0 2:6 3:6 1:2 2:2 1:9 2:6 3:4 2:1 3:1 1:2
2:0 3:6 1:2 2:2 1:9 2:6 3:4 2:1 3:1 1:2 2:2
3:0 1:2 2:2 1:9 2:6 3:4 2:1 3:1 1:2 2:2 3:6
1:0 2:2 1:9 2:6 3:4 2:1 3:1 1:2 2:2 3:6 2:1
2:0 1:9 2:6 3:4 2:1 3:1 1:2 2:2 3:6 2:1 1:1
1:0 2:6 3:4 2:1 3:1 1:2 2:2 3:6 2:1 1:1 2:7
2:0 3:4 2:1 3:1 1:2 2:2 3:6 2:1 1:1 2:7 3:4
3:0 2:1 3:1 1:2 2:2 3:6 2:1 1:1 2:7 3:4 1:4
2:0 3:1 1:2 2:2 3:6 2:1 1:1 2:7 3:4 1:4 2:2
3:0 1:2 2:2 3:6 2:1 1:1 2:7 3:4 1:4 2:2 1:9
1:0 2:2 3:6 2:1 1:1 2:7 3:4 1:4 2:2 1:9 2:6
2:0 3:6 2:1 1:1 2:7 3:4 1:4 2:2 1:9 2:6 3:4
3:0 2:1 1:1 2:7 3:4 1:4 2:2 1:9 2:6 3:4 1:4
2:0 1:1 2:7 3:4 1:4 2:2 1:9 2:6 3:4 1:4 2:1
1:0 2:7 3:4 1:4 2:2 1:9 2:6 3:4 1:4 2:1 1:9
2:0 3:4 1:4 2:2 1:9 2:6 3:4 1:4 2:1 1:9 2:7
3:0 1:4 2:2 1:9 2:6 3:4 1:4 2:1 1:9 2:7 3:4
1:0 2:2 1:9 2:6 3:4 1:4 2:1 1:9 2:7 3:4 2:4
2:0 1:9 2:6 3:4 1:4 2:1 1:9 2:7 3:4 2:4 3:8
1:0 2:6 3:4 1:4 2:1 1:9 2:7 3:4 2:4 3:8 2:1
2:0 3:4 1:4 2:1 1:9 2:7 3:4 2:4 3:8 2:1 1:1
3:0 1:4 2:1 1:9 2:7 3:4 2:4 3:8 2:1 1:1 2:7
1:0 2:1 1:9 2:7 3:4 2:4 3:8 2:1 1:1 2:7 3:4
2:0 1:9 2:7 3:4 2:4 3:8 2:1 1:1 2:7 3:4 1:4
1:0 2:7 3:4 2:4 3:8 2:1 1:1 2:7 3:4 1:4 2:1
2:0 3:4 2:4 3:8 2:1 1:1 2:7 3:4 1:4 2:1 1:9
3:0 2:4 3:8 2:1 1:1 2:7 3:4 1:4 2:1 1:9 2:7
2:0 3:8 2:1 1:1 2:7 3:4 1:4 2:1 1:9 2:7 3:4
3:0 2:1 1:1 2:7 3:4 1:4 2:1 1:9 2:7 3:4 2:1
2:0 1:1 2:7 3:4 1:4 2:1 1:9 2:7 3:4 2:1 3:1
1:0 2:7 3:4 1:4 2:1 1:9 2:7 3:4 2:1 3:1 1:2
2:0 3:4 1:4 2:1 1:9 2:7 3:4 2:1 3:1 1:2 2:2
3:0 1:4 2:1 1:9 2:7 3:4 2:1 3:1 1:2 2:2 1:8
1:0 2:1 1:9 2:7 3:4 2:1 3:1 1:2 2:2 1:8 2:7
2:0 1:9 2:7 3:4 2:1 3:1 1:2 2:2 1:8 2:7 3:4
1:0 2:7 3:4 2:1 3:1 1:2 2:2 1:8 2:7 3:4 2:1
2:0 3:4 2:1 3:1 1:2 2:2 1:8 2:7 3:4 2:1 3:1
3:0 2:1 3:1 1:2 2:2 1:8 2:7 3:4 2:1 3:1 1:2
2:0 3:1 1:2 2:2 1:8 2:7 3:4 2:1 3:1 1:2 2:1
3:0 1:2 2:2 1:8 2:7 3:4 2:1 3:1 1:2 2:1 1:9
1:0 2:2 1:8 2:7 3:4 2:1 3:1 1:2 2:1 1:9 2:7
2:0 1:8 2:7 3:4 2:1 3:1 1:2 2:1 1:9 2:7 3:4
1:0 2:7 3:4 2:1 3:1 1:2 2:1 1:9 2:7 3:4 2:1
2:0 3:4 2:1 3:1 1:2 2:1 1:9 2:7 3:4 2:1 3:1
3:0 2:1 3:1 1:2 2:1 1:9 2:7 3:4 2:1 3:1 1:2
2:0 3:1 1:2 2:1 1:9 2:7 3:4 2:1 3:1 1:2 2:2
3:0 1:2 2:1 1:9 2:7 3:4 2:1 3:1 1:2 2:2 1:8
1:0 2:1 1:9 2:7 3:4 2:1 3:1 1:2 2:2 1:8 2:7
2:0 1:9 2:7 3:4 2:1 3:1 1:2 2:2 1:8 2:7 3:4
1:0 2:7 3:4 2:1 3:1 1:2 2:2 1:8 2:7 3:4 2:1
2:0 3:4 2:1 3:1 1:2 2:2 1:8 2:7 3:4 2:1 3:1
3:0 2:1 3:1 1:2 2:2 1:8 2:7 3:4 2:1 3:1 1:2
2:0 3:1 1:2 2:2 1:8 2:7 3:4 2:1 3:1 1:2 2:2
3:0 1:2 2:2 1:8 2:7 3:4 2:1 3:1 1:2 2:2 1:8
1:0 2:2 1:8 2:7 3:4 2:1 3:1 1:2 2:2 1:8 2:7
2:0 1:8 2:7 3:4 2:1 3:1 1:2 2:2 1:8 2:7 3:4
1:0 2:7 3:4 2:1 3:1 1:2 2:2 1:8 2:7 3:4 2:1
2:0 3:4 2:1 3:1 1:2 2:2 1:8 2:7 3:4 2:1 3:1
3:0 2:1 3:1 1:2 2:2 1:8 2:7 3:4 2:1 3:1 1:2
2:0 3:1 1:2 2:2 1:8 2:7 3:4 2:1 3:1 1:2 2:2
3:0 1:2 2:2 1:8 2:7 3:4 2:1 3:1 1:2 2:2 1:8
1:0 2:2 1:8 2:7 3:4 2:1 3:1 1:2 2:2 1:8 2:7
2:0 1:8 2:7 3:4 2:1 3:1 1:2 2:2 1:8 2:7 3:4
1:0 2:7 3:4 2:1 3:1 1:2 2:2 1:8 2:7 3:4 1:4
2:0 3:4 2:1 3:1 1:2 2:2 1:8 2:7 3:4 1:4 2:2
3:0 2:1 3:1 1:2 2:2 1:8 2:7 3:4 1:4 2:2 1:8
2:0 3:1 1:2 2:2 1:8 2:7 3:4 1:4 2:2 1:8 2:7
3:0 1:2 2:2 1:8 2:7 3:4 1:4 2:2 1:8 2:7 3:5
1:0 2:2 1:8 2:7 3:4 1:4 2:2 1:8 2:7 3:5 1:3
2:0 1:8 2:7 3:4 1:4 2:2 1:8 2:7 3:5 1:3 2:2
1:0 2:7 3:4 1:4 2:2 1:8 2:7 3:5 1:3 2:2 1:9
2:0 3:4 1:4 2:2 1:8 2:7 3:5 1:3 2:2 1:9 2:6
3:0 1:4 2:2 1:8 2:7 3:5 1:3 2:2 1:9 2:6 3:6
1:0 2:2 1:8 2:7 3:5 1:3 2:2 1:9 2:6 3:6 1:2
2:0 1:8 2:7 3:5 1:3 2:2 1:9 2:6 3:6 1:2 2:1
1:0 2:7 3:5 1:3 2:2 1:9 2:6 3:6 1:2 2:1 1:9
2:0 3:5 1:3 2:2 1:9 2:6 3:6 1:2 2:1 1:9 2:7
3:0 1:3 2:2 1:9 2:6 3:6 1:2 2:1 1:9 2:7 3:5
1:0 2:2 1:9 2:6 3:6 1:2 2:1 1:9 2:7 3:5 1:3
2:0 1:9 2:6 3:6 1:2 2:1 1:9 2:7 3:5 1:3 2:2
1:0 2:6 3:6 1:2 2:1 1:9 2:7 3:5 1:3 2:2 1:8
2:0 3:6 1:2 2:1 1:9 2:7 3:5 1:3 2:2 1:8 2:7
3:0 1:2 2:1 1:9 2:7 3:5 1:3 2:2 1:8 2:7 3:4
1:0 2:1 1:9 2:7 3:5 1:3 2:2 1:8 2:7 3:4 1:4
2:0 1:9 2:7 3:5 1:3 2:2 1:8 2:7 3:4 1:4 2:1
1:0 2:7 3:5 1:3 2:2 1:8 2:7 3:4 1:4 2:1 1:9
2:0 3:5 1:3 2:2 1:8 2:7 3:4 1:4 2:1 1:9 2:7
3:0 1:3 2:2 1:8 2:7 3:4 1:4 2:1 1:9 2:7 3:5
1:0 2:2 1:8 2:7 3:4 1:4 2:1 1:9 2:7 3:5 1:3
2:0 1:8 2:7 3:4 1:4 2:1 1:9 2:7 3:5 1:3 2:1
1:0 2:7 3:4 1:4 2:1 1:9 2:7 3:5 1:3 2:1 1:9
2:0 3:4 1:4 2:1 1:9 2:7 3:5 1:3 2:1 1:9 2:7
3:0 1:4 2:1 1:9 2:7 3:5 1:3 2:1 1:9 2:7 3:5
1:0 2:1 1:9 2:7 3:5 1:3 2:1 1:9 2:7 3:5 1:3
2:0 1:9 2:7 3:5 1:3 2:1 1:9 2:7 3:5 1:3 2:1
1:0 2:7 3:5 1:3 2:1 1:9 2:7 3:5 1:3 2:1 1:9
2:0 3:5 1:3 2:1 1:9 2:7 3:5 1:3 2:1 1:9 2:7
3:0 1:3 2:1 1:9 2:7 3:5 1:3 2:1 1:9 2:7 3:4
1:0 2:1 1:9 2:7 3:5 1:3 2:1 1:9 2:7 3:4 1:4
2:0 1:9 2:7 3:5 1:3 2:1 1:9 2:7 3:4 1:4 2:2
1:0 2:7 3:5 1:3 2:1 1:9 2:7 3:4 1:4 2:2 1:9
2:0 3:5 1:3 2:1 1:9 2:7 3:4 1:4 2:2 1:9 2:6
3:0 1:3 2:1 1:9 2:7 3:4 1:4 2:2 1:9 2:6 1:1
1:0 2:1 1:9 2:7 3:4 1:4 2:2 1:9 2:6 1:1 2:1
2:0 1:9 2:7 3:4 1:4 2:2 1:9 2:6 1:1 2:1 3:3
1:0 2:7 3:4 1:4 2:2 1:9 2:6 1:1 2:1 3:3 1:3
2:0 3:4 1:4 2:2 1:9 2:6 1:1 2:1 3:3 1:3 2:2
3:0 1:4 2:2 1:9 2:6 1:1 2:1 3:3 1:3 2:2 1:9
1:0 2:2 1:9 2:6 1:1 2:1 3:3 1:3 2:2 1:9 2:6
2:0 1:9 2:6 1:1 2:1 3:3 1:3 2:2 1:9 2:6 3:4
1:0 2:6 1:1 2:1 3:3 1:3 2:2 1:9 2:6 3:4 2:1
2:0 1:1 2:1 3:3 1:3 2:2 1:9 2:6 3:4 2:1 3:1
1:0 2:1 3:3 1:3 2:2 1:9 2:6 3:4 2:1 3:1 1:2
2:0 3:3 1:3 2:2 1:9 2:6 3:4 2:1 3:1 1:2 2:2
3:0 1:3 2:2 1:9 2:6 3:4 2:1 3:1 1:2 2:2 1:8
1:0 2:2 1:9 2:6 3:4 2:1 3:1 1:2 2:2 1:8 2:7
2:0 1:9 2:6 3:4 2:1 3:1 1:2 2:2 1:8 2:7 3:4
1:0 2:6 3:4 2:1 3:1 1:2 2:2 1:8 2:7 3:4 1:4
2:0 3:4 2:1 3:1 1:2 2:2 1:8 2:7 3:4 1:4 2:2
3:0 2:1 3:1 1:2 2:2 1:8 2:7 3:4 1:4 2:2 1:8
2:0 3:1 1:2 2:2 1:8 2:7 3:4 1:4 2:2 1:8 2:7
3:0 1:2 2:2 1:8 2:7 3:4 1:4 2:2 1:8 2:7 3:4
1:0 2:2 1:8 2:7 3:4 1:4 2:2 1:8 2:7 3:4 2:1
2:0 1:8 2:7 3:4 1:4 2:2 1:8 2:7 3:4 2:1 3:1
1:0 2:7 3:4 1:4 2:2 1:8 2:7 3:4 2:1 3:1 1:2
2:0 3:4 1:4 2:2 1:8 2:7 3:4 2:1 3:1 1:2 2:1
3:0 1:4 2:2 1:8 2:7 3:4 2:1 3:1 1:2 2:1 3:7
1:0 2:2 1:8 2:7 3:4 2:1 3:1 1:2 2:1 3:7 2:1
2:0 1:8 2:7 3:4 2:1 3:1 1:2 2:1 3:7 2:1 1:1
1:0 2:7 3:4 2:1 3:1 1:2 2:1 3:7 2:1 1:1 2:7
2:0 3:4 2:1 3:1 1:2 2:1 3:7 2:1 1:1 2:7 3:4
3:0 2:1 3:1 1:2 2:1 3:7 2:1 1:1 2:7 3:4 1:4
2:0 3:1 1:2 2:1 3:7 2:1 1:1 2:7 3:4 1:4 2:2
3:0 1:2 2:1 3:7 2:1 1:1 2:7 3:4 1:4 2:2 1:9
1:0 2:1 3:7 2:1 1:1 2:7 3:4 1:4 2:2 1:9 2:6
2:0 3:7 2:1 1:1 2:7 3:4 1:4 2:2 1:9 2:6 3:5
3:0 2:1 1:1 2:7 3:4 1:4 2:2 1:9 2:6 3:5 1:3
2:0 1:1 2:7 3:4 1:4 2:2 1:9 2:6 3:5 1:3 2:2
1:0 2:7 3:4 1:4 2:2 1:9 2:6 3:5 1:3 2:2 1:8
2:0 3:4 1:4 2:2 1:9 2:6 3:5 1:3 2:2 1:8 2:7
3:0 1:4 2:2 1:9 2:6 3:5 1:3 2:2 1:8 2:7 3:5
1:0 2:2 1:9 2:6 3:5 1:3 2:2 1:8 2:7 3:5 1:3
2:0 1:9 2:6 3:5 1:3 2:2 1:8 2:7 3:5 1:3 2:2
1:0 2:6 3:5 1:3 2:2 1:8 2:7 3:5 1:3 2:2 1:8
2:0 3:5 1:3 2:2 1:8 2:7 3:5 1:3 2:2 1:8 2:7
3:0 1:3 2:2 1:8 2:7 3:5 1:3 2:2 1:8 2:7 3:4
1:0 2:2 1:8 2:7 3:5 1:3 2:2 1:8 2:7 3:4 1:4
2:0 1:8 2:7 3:5 1:3 2:2 1:8 2:7 3:4 1:4 2:2
1:0 2:7 3:5 1:3 2:2 1:8 2:7 3:4 1:4 2:2 1:8
2:0 3:5 1:3 2:2 1:8 2:7 3:4 1:4 2:2 1:8 2:7
3:0 1:3 2:2 1:8 2:7 3:4 1:4 2:2 1:8 2:7 3:4
1:0 2:2 1:8 2:7 3:4 1:4 2:2 1:8 2:7 3:4 1:4
2:0 1:8 2:7 3:4 1:4 2:2 1:8 2:7 3:4 1:4 2:2
1:0 2:7 3:4 1:4 2:2 1:8 2:7 3:4 1:4 2:2 1:8
2:0 3:4 1:4 2:2 1:8 2:7 3:4 1:4 2:2 1:8 2:7
3:0 1:4 2:2 1:8 2:7 3:4 1:4 2:2 1:8 2:7 3:5
1:0 2:2 1:8 2:7 3:4 1:4 2:2 1:8 2:7 3:5 1:3
2:0 1:8 2:7 3:4 1:4 2:2 1:8 2:7 3:5 1:3 2:2
1:0 2:7 3:4 1:4 2:2 1:8 2:7 3:5 1:3 2:2 1:8
2:0 3:4 1:4 2:2 1:8 2:7 3:5 1:3 2:2 1:8 2:7
3:0 1:4 2:2 1:8 2:7 3:5 1:3 2:2 1:8 2:7 3:4
1:0 2:2 1:8 2:7 3:5 1:3 2:2 1:8 2:7 3:4 1:4
2:0 1:8 2:7 3:5 1:3 2:2 1:8 2:7 3:4 1:4 2:2
1:0 2:7 3:5 1:3 2:2 1:8 2:7 3:4 1:4 2:2 3:6
2:0 3:5 1:3 2:2 1:8 2:7 3:4 1:4 2:2 3:6 2:1
3:0 1:3 2:2 1:8 2:7 3:4 1:4 2:2 3:6 2:1 1:2
1:0 2:2 1:8 2:7 3:4 1:4 2:2 3:6 2:1 1:2 2:6
2:0 1:8 2:7 3:4 1:4 2:2 3:6 2:1 1:2 2:6 3:4
1:0 2:7 3:4 1:4 2:2 3:6 2:1 1:2 2:6 3:4 4:3
2:0 3:4 1:4 2:2 3:6 2:1 1:2 2:6 3:4 4:3 1:1
3:0 1:4 2:2 3:6 2:1 1:2 2:6 3:4 4:3 1:1 2:2
1:0 2:2 3:6 2:1 1:2 2:6 3:4 4:3 1:1 2:2 1:8
2:0 3:6 2:1 1:2 2:6 3:4 4:3 1:1 2:2 1:8 2:7
3:0 2:1 1:2 2:6 3:4 4:3 1:1 2:2 1:8 2:7 3:4
2:0 1:2 2:6 3:4 4:3 1:1 2:2 1:8 2:7 3:4 1:4
1:0 2:6 3:4 4:3 1:1 2:2 1:8 2:7 3:4 1:4 2:1
2:0 3:4 4:3 1:1 2:2 1:8 2:7 3:4 1:4 2:1 1:9
3:0 4:3 1:1 2:2 1:8 2:7 3:4 1:4 2:1 1:9 2:7
4:0 1:1 2:2 1:8 2:7 3:4 1:4 2:1 1:9 2:7 3:4
1:0 2:2 1:8 2:7 3:4 1:4 2:1 1:9 2:7 3:4 1:4
2:0 1:8 2:7 3:4 1:4 2:1 1:9 2:7 3:4 1:4 2:2
1:0 2:7 3:4 1:4 2:1 1:9 2:7 3:4 1:4 2:2 1:8
2:0 3:4 1:4 2:1 1:9 2:7 3:4 1:4 2:2 1:8 2:7
3:0 1:4 2:1 1:9 2:7 3:4 1:4 2:2 1:8 2:7 3:6
1:0 2:1 1:9 2:7 3:4 1:4 2:2 1:8 2:7 3:6 1:2
2:0 1:9 2:7 3:4 1:4 2:2 1:8 2:7 3:6 1:2 2:1
1:0 2:7 3:4 1:4 2:2 1:8 2:7 3:6 1:2 2:1 1:9
2:0 3:4 1:4 2:2 1:8 2:7 3:6 1:2 2:1 1:9 2:7
3:0 1:4 2:2 1:8 2:7 3:6 1:2 2:1 1:9 2:7 3:4
1:0 2:2 1:8 2:7 3:6 1:2 2:1 1:9 2:7 3:4 1:4
2:0 1:8 2:7 3:6 1:2 2:1 1:9 2:7 3:4 1:4 2:1
1:0 2:7 3:6 1:2 2:1 1:9 2:7 3:4 1:4 2:1 1:9
2:0 3:6 1:2 2:1 1:9 2:7 3:4 1:4 2:1 1:9 2:7
3:0 1:2 2:1 1:9 2:7 3:4 1:4 2:1 1:9 2:7 3:4
1:0 2:1 1:9 2:7 3:4 1:4 2:1 1:9 2:7 3:4 1:4
2:0 1:9 2:7 3:4 1:4 2:1 1:9 2:7 3:4 1:4 2:2
1:0 2:7 3:4 1:4 2:1 1:9 2:7 3:4 1:4 2:2 1:9
2:0 3:4 1:4 2:1 1:9 2:7 3:4 1:4 2:2 1:9 2:6
3:0 1:4 2:1 1:9 2:7 3:4 1:4 2:2 1:9 2:6 3:6
1:0 2:1 1:9 2:7 3:4 1:4 2:2 1:9 2:6 3:6 1:2
2:0 1:9 2:7 3:4 1:4 2:2 1:9 2:6 3:6 1:2 2:2
1:0 2:7 3:4 1:4 2:2 1:9 2:6 3:6 1:2 2:2 1:8
2:0 3:4 1:4 2:2 1:9 2:6 3:6 1:2 2:2 1:8 2:7
3:0 1:4 2:2 1:9 2:6 3:6 1:2 2:2 1:8 2:7 3:5
1:0 2:2 1:9 2:6 3:6 1:2 2:2 1:8 2:7 3:5 1:3
2:0 1:9 2:6 3:6 1:2 2:2 1:8 2:7 3:5 1:3 2:2
1:0 2:6 3:6 1:2 2:2 1:8 2:7 3:5 1:3 2:2 1:8
2:0 3:6 1:2 2:2 1:8 2:7 3:5 1:3 2:2 1:8 2:7
3:0 1:2 2:2 1:8 2:7 3:5 1:3 2:2 1:8 2:7 3:6
1:0 2:2 1:8 2:7 3:5 1:3 2:2 1:8 2:7 3:6 1:2
2:0 1:8 2:7 3:5 1:3 2:2 1:8 2:7 3:6 1:2 2:1
1:0 2:7 3:5 1:3 2:2 1:8 2:7 3:6 1:2 2:1 1:9
2:0 3:5 1:3 2:2 1:8 2:7 3:6 1:2 2:1 1:9 2:7
3:0 1:3 2:2 1:8 2:7 3:6 1:2 2:1 1:9 2:7 3:6
1:0 2:2 1:8 2:7 3:6 1:2 2:1 1:9 2:7 3:6
2:0 1:8 2:7 3:6 1:2 2:1 1:9 2:7 3:6
1:0 2:7 3:6 1:2 2:1 1:9 2:7 3:6
2:0 3:6 1:2 2:1 1:9 2:7 3:6
3:0 1:2 2:1 1:9 2:7 3:6
1:0 2:1 1:9 2:7 3:6
2:0 1:9 2:7 3:6
1:0 2:7 3:6
2:0 3:6
3:0
1:0 2:2 1:9 2:6 3:6 1:2 2:2 1:9 2:6 3:4 2:1 3:1 1:2 2:2 3:6 2:1 1:1 2:7 3:4 1:4 2:2 1:9 2:6 3:4 1:4 2:1 1:9 2:7 3:4 2:4 3:8 2:1 1:1 2:7 3:4 1:4 2:1 1:9 2:7 3:4 2:1 3:1 1:2 2:2 1:8 2:7 3:4 2:1 3:1 1:2 2:1 1:9 2:7 3:4 2:1 3:1 1:2 2:2 1:8 2:7 3:4 2:1 3:1 1:2 2:2 1:8 2:7 3:4 2:1 3:1 1:2 2:2 1:8 2:7 3:4 1:4 2:2 1:8 2:7 3:5 1:3 2:2 1:9 2:6 3:6 1:2 2:1 1:9 2:7 3:5 1:3 2:2 1:8 2:7 3:4 1:4 2:1 1:9 2:7 3:5 1:3 2:1 1:9 2:7 3:5 1:3 2:1 1:9 2:7 3:4 1:4 2:2 1:9 2:6 1:1 2:1 3:3 1:3 2:2 1:9 2:6 3:4 2:1 3:1 1:2 2:2 1:8 2:7 3:4 1:4 2:2 1:8 2:7 3:4 2:1 3:1 1:2 2:1 3:7 2:1 1:1 2:7 3:4 1:4 2:2 1:9 2:6 3:5 1:3 2:2 1:8 2:7 3:5 1:3 2:2 1:8 2:7 3:4 1:4 2:2 1:8 2:7 3:4 1:4 2:2 1:8 2:7 3:5 1:3 2:2 1:8 2:7 3:4 1:4 2:2 3:6 2:1 1:2 2:6 3:4 4:3 1:1 2:2 1:8 2:7 3:4 1:4 2:1 1:9 2:7 3:4 1:4 2:2 1:8 2:7 3:6 1:2 2:1 1:9 2:7 3:4 1:4 2:1 1:9 2:7 3:4 1:4 2:2 1:9 2:6 3:6 1:2 2:2 1:8 2:7 3:5 1:3 2:2 1:8 2:7 3:6 1:2 2:1 1:9 2:7 3:6