8:0 10:3 9:1 11:1 10:3 7:1 6:1 3:1 6:1 8:1 9:1
10:0 9:1 11:1 10:3 7:1 6:1 3:1 6:1 8:1 9:1 7:1
9:0 11:1 10:3 7:1 6:1 3:1 6:1 8:1 9:1 7:1 5:1
11:0 10:3 7:1 6:1 3:1 6:1 8:1 9:1 7:1 5:1 2:1
10:0 7:1 6:1 3:1 6:1 8:1 9:1 7:1 5:1 2:1 1:2
7:0 6:1 3:1 6:1 8:1 9:1 7:1 5:1 2:1 1:2 3:1
6:0 3:1 6:1 8:1 9:1 7:1 5:1 2:1 1:2 3:1 4:1
3:0 6:1 8:1 9:1 7:1 5:1 2:1 1:2 3:1 4:1 5:1
6:0 8:1 9:1 7:1 5:1 2:1 1:2 3:1 4:1 5:1 7:1
8:0 9:1 7:1 5:1 2:1 1:2 3:1 4:1 5:1 7:1 6:1
9:0 7:1 5:1 2:1 1:2 3:1 4:1 5:1 7:1 6:1 8:1
7:0 5:1 2:1 1:2 3:1 4:1 5:1 7:1 6:1 8:1 10:3
5:0 2:1 1:2 3:1 4:1 5:1 7:1 6:1 8:1 10:3 9:1
2:0 1:2 3:1 4:1 5:1 7:1 6:1 8:1 10:3 9:1 11:1
1:0 3:1 4:1 5:1 7:1 6:1 8:1 10:3 9:1 11:1 10:3
3:0 4:1 5:1 7:1 6:1 8:1 10:3 9:1 11:1 10:3 7:1
4:0 5:1 7:1 6:1 8:1 10:3 9:1 11:1 10:3 7:1 6:1
5:0 7:1 6:1 8:1 10:3 9:1 11:1 10:3 7:1 6:1 3:1
7:0 6:1 8:1 10:3 9:1 11:1 10:3 7:1 6:1 3:1 6:1
6:0 8:1 10:3 9:1 11:1 10:3 7:1 6:1 3:1 6:1 8:1
8:0 10:3 9:1 11:1 10:3 7:1 6:1 3:1 6:1 8:1 9:1
10:0 9:1 11:1 10:3 7:1 6:1 3:1 6:1 8:1 9:1 7:1
9:0 11:1 10:3 7:1 6:1 3:1 6:1 8:1 9:1 7:1 5:1
11:0 10:3 7:1 6:1 3:1 6:1 8:1 9:1 7:1 5:1 2:1
10:0 7:1 6:1 3:1 6:1 8:1 9:1 7:1 5:1 2:1 3:1
7:0 6:1 3:1 6:1 8:1 9:1 7:1 5:1 2:1 3:1 1:1
6:0 3:1 6:1 8:1 9:1 7:1 5:1 2:1 3:1 1:1 3:1
3:0 6:1 8:1 9:1 7:1 5:1 2:1 3:1 1:1 3:1 4:1
6:0 8:1 9:1 7:1 5:1 2:1 3:1 1:1 3:1 4:1 5:1
8:0 9:1 7:1 5:1 2:1 3:1 1:1 3:1 4:1 5:1 7:1
9:0 7:1 5:1 2:1 3:1 1:1 3:1 4:1 5:1 7:1 6:1
7:0 5:1 2:1 3:1 1:1 3:1 4:1 5:1 7:1 6:1 8:1
5:0 2:1 3:1 1:1 3:1 4:1 5:1 7:1 6:1 8:1 10:3
2:0 3:1 1:1 3:1 4:1 5:1 7:1 6:1 8:1 10:3 9:1
3:0 1:1 3:1 4:1 5:1 7:1 6:1 8:1 10:3 9:1 11:1
1:0 3:1 4:1 5:1 7:1 6:1 8:1 10:3 9:1 11:1 10:3
3:0 4:1 5:1 7:1 6:1 8:1 10:3 9:1 11:1 10:3 7:1
4:0 5:1 7:1 6:1 8:1 10:3 9:1 11:1 10:3 7:1 6:1
5:0 7:1 6:1 8:1 10:3 9:1 11:1 10:3 7:1 6:1 3:1
7:0 6:1 8:1 10:3 9:1 11:1 10:3 7:1 6:1 3:1 6:1
6:0 8:1 10:3 9:1 11:1 10:3 7:1 6:1 3:1 6:1 8:1
8:0 10:3 9:1 11:1 10:3 7:1 6:1 3:1 6:1 8:1 9:1
10:0 9:1 11:1 10:3 7:1 6:1 3:1 6:1 8:1 9:1 7:1
9:0 11:1 10:3 7:1 6:1 3:1 6:1 8:1 9:1 7:1 5:1
11:0 10:3 7:1 6:1 3:1 6:1 8:1 9:1 7:1 5:1 2:1
10:0 7:1 6:1 3:1 6:1 8:1 9:1 7:1 5:1 2:1 1:2
7:0 6:1 3:1 6:1 8:1 9:1 7:1 5:1 2:1 1:2 3:1
6:0 3:1 6:1 8:1 9:1 7:1 5:1 2:1 1:2 3:1 4:1
3:0 6:1 8:1 9:1 7:1 5:1 2:1 1:2 3:1 4:1 5:1
6:0 8:1 9:1 7:1 5:1 2:1 1:2 3:1 4:1 5:1 7:1
8:0 9:1 7:1 5:1 2:1 1:2 3:1 4:1 5:1 7:1 6:1
9:0 7:1 5:1 2:1 1:2 3:1 4:1 5:1 7:1 6:1 8:1
7:0 5:1 2:1 1:2 3:1 4:1 5:1 7:1 6:1 8:1 9:1
5:0 2:1 1:2 3:1 4:1 5:1 7:1 6:1 8:1 9:1 8:1
2:0 1:2 3:1 4:1 5:1 7:1 6:1 8:1 9:1 8:1 10:1
1:0 3:1 4:1 5:1 7:1 6:1 8:1 9:1 8:1 10:1 9:1
3:0 4:1 5:1 7:1 6:1 8:1 9:1 8:1 10:1 9:1 11:1
4:0 5:1 7:1 6:1 8:1 9:1 8:1 10:1 9:1 11:1 10:3
5:0 7:1 6:1 8:1 9:1 8:1 10:1 9:1 11:1 10:3 7:1
7:0 6:1 8:1 9:1 8:1 10:1 9:1 11:1 10:3 7:1 6:1
6:0 8:1 9:1 8:1 10:1 9:1 11:1 10:3 7:1 6:1 3:1
8:0 9:1 8:1 10:1 9:1 11:1 10:3 7:1 6:1 3:1 6:1
9:0 8:1 10:1 9:1 11:1 10:3 7:1 6:1 3:1 6:1 8:1
8:0 10:1 9:1 11:1 10:3 7:1 6:1 3:1 6:1 8:1 9:1
10:0 9:1 11:1 10:3 7:1 6:1 3:1 6:1 8:1 9:1 7:1
9:0 11:1 10:3 7:1 6:1 3:1 6:1 8:1 9:1 7:1 5:1
11:0 10:3 7:1 6:1 3:1 6:1 8:1 9:1 7:1 5:1 2:1
10:0 7:1 6:1 3:1 6:1 8:1 9:1 7:1 5:1 2:1 3:1
7:0 6:1 3:1 6:1 8:1 9:1 7:1 5:1 2:1 3:1 1:1
6:0 3:1 6:1 8:1 9:1 7:1 5:1 2:1 3:1 1:1 3:1
3:0 6:1 8:1 9:1 7:1 5:1 2:1 3:1 1:1 3:1 4:1
6:0 8:1 9:1 7:1 5:1 2:1 3:1 1:1 3:1 4:1 5:1
8:0 9:1 7:1 5:1 2:1 3:1 1:1 3:1 4:1 5:1 7:1
9:0 7:1 5:1 2:1 3:1 1:1 3:1 4:1 5:1 7:1 6:1
7:0 5:1 2:1 3:1 1:1 3:1 4:1 5:1 7:1 6:1 8:1
5:0 2:1 3:1 1:1 3:1 4:1 5:1 7:1 6:1 8:1 10:3
2:0 3:1 1:1 3:1 4:1 5:1 7:1 6:1 8:1 10:3 9:1
3:0 1:1 3:1 4:1 5:1 7:1 6:1 8:1 10:3 9:1 11:1
1:0 3:1 4:1 5:1 7:1 6:1 8:1 10:3 9:1 11:1 10:1
3:0 4:1 5:1 7:1 6:1 8:1 10:3 9:1 11:1 10:1 11:1
4:0 5:1 7:1 6:1 8:1 10:3 9:1 11:1 10:1 11:1 10:1
5:0 7:1 6:1 8:1 10:3 9:1 11:1 10:1 11:1 10:1 7:1
7:0 6:1 8:1 10:3 9:1 11:1 10:1 11:1 10:1 7:1 6:1
6:0 8:1 10:3 9:1 11:1 10:1 11:1 10:1 7:1 6:1 3:1
8:0 10:3 9:1 11:1 10:1 11:1 10:1 7:1 6:1 3:1 6:1
10:0 9:1 11:1 10:1 11:1 10:1 7:1 6:1 3:1 6:1 8:1
9:0 11:1 10:1 11:1 10:1 7:1 6:1 3:1 6:1 8:1 9:1
11:0 10:1 11:1 10:1 7:1 6:1 3:1 6:1 8:1 9:1 7:1
10:0 11:1 10:1 7:1 6:1 3:1 6:1 8:1 9:1 7:1 6:1
11:0 10:1 7:1 6:1 3:1 6:1 8:1 9:1 7:1 6:1 2:1
10:0 7:1 6:1 3:1 6:1 8:1 9:1 7:1 6:1 2:1 3:1
7:0 6:1 3:1 6:1 8:1 9:1 7:1 6:1 2:1 3:1 1:1
6:0 3:1 6:1 8:1 9:1 7:1 6:1 2:1 3:1 1:1 3:1
3:0 6:1 8:1 9:1 7:1 6:1 2:1 3:1 1:1 3:1 4:1
6:0 8:1 9:1 7:1 6:1 2:1 3:1 1:1 3:1 4:1 5:1
8:0 9:1 7:1 6:1 2:1 3:1 1:1 3:1 4:1 5:1 7:1
9:0 7:1 6:1 2:1 3:1 1:1 3:1 4:1 5:1 7:1 6:1
7:0 6:1 2:1 3:1 1:1 3:1 4:1 5:1 7:1 6:1 8:1
6:0 2:1 3:1 1:1 3:1 4:1 5:1 7:1 6:1 8:1 10:3
2:0 3:1 1:1 3:1 4:1 5:1 7:1 6:1 8:1 10:3 9:1
3:0 1:1 3:1 4:1 5:1 7:1 6:1 8:1 10:3 9:1 11:1
1:0 3:1 4:1 5:1 7:1 6:1 8:1 10:3 9:1 11:1 10:3
3:0 4:1 5:1 7:1 6:1 8:1 10:3 9:1 11:1 10:3 7:1
4:0 5:1 7:1 6:1 8:1 10:3 9:1 11:1 10:3 7:1 6:1
5:0 7:1 6:1 8:1 10:3 9:1 11:1 10:3 7:1 6:1 4:1
7:0 6:1 8:1 10:3 9:1 11:1 10:3 7:1 6:1 4:1 6:1
6:0 8:1 10:3 9:1 11:1 10:3 7:1 6:1 4:1 6:1 8:1
8:0 10:3 9:1 11:1 10:3 7:1 6:1 4:1 6:1 8:1 9:1
10:0 9:1 11:1 10:3 7:1 6:1 4:1 6:1 8:1 9:1 7:1
9:0 11:1 10:3 7:1 6:1 4:1 6:1 8:1 9:1 7:1 5:1
11:0 10:3 7:1 6:1 4:1 6:1 8:1 9:1 7:1 5:1 2:1
10:0 7:1 6:1 4:1 6:1 8:1 9:1 7:1 5:1 2:1 1:2
7:0 6:1 4:1 6:1 8:1 9:1 7:1 5:1 2:1 1:2 3:1
6:0 4:1 6:1 8:1 9:1 7:1 5:1 2:1 1:2 3:1 4:1
4:0 6:1 8:1 9:1 7:1 5:1 2:1 1:2 3:1 4:1 5:1
6:0 8:1 9:1 7:1 5:1 2:1 1:2 3:1 4:1 5:1 7:1
8:0 9:1 7:1 5:1 2:1 1:2 3:1 4:1 5:1 7:1 6:1
9:0 7:1 5:1 2:1 1:2 3:1 4:1 5:1 7:1 6:1 8:1
7:0 5:1 2:1 1:2 3:1 4:1 5:1 7:1 6:1 8:1 10:3
5:0 2:1 1:2 3:1 4:1 5:1 7:1 6:1 8:1 10:3 9:1
2:0 1:2 3:1 4:1 5:1 7:1 6:1 8:1 10:3 9:1 11:1
1:0 3:1 4:1 5:1 7:1 6:1 8:1 10:3 9:1 11:1 10:3
3:0 4:1 5:1 7:1 6:1 8:1 10:3 9:1 11:1 10:3 7:1
4:0 5:1 7:1 6:1 8:1 10:3 9:1 11:1 10:3 7:1 6:1
5:0 7:1 6:1 8:1 10:3 9:1 11:1 10:3 7:1 6:1 3:1
7:0 6:1 8:1 10:3 9:1 11:1 10:3 7:1 6:1 3:1 6:1
6:0 8:1 10:3 9:1 11:1 10:3 7:1 6:1 3:1 6:1 8:1
8:0 10:3 9:1 11:1 10:3 7:1 6:1 3:1 6:1 8:1 9:1
10:0 9:1 11:1 10:3 7:1 6:1 3:1 6:1 8:1 9:1 7:1
9:0 11:1 10:3 7:1 6:1 3:1 6:1 8:1 9:1 7:1 5:1
11:0 10:3 7:1 6:1 3:1 6:1 8:1 9:1 7:1 5:1 2:1
10:0 7:1 6:1 3:1 6:1 8:1 9:1 7:1 5:1 2:1 1:2
7:0 6:1 3:1 6:1 8:1 9:1 7:1 5:1 2:1 1:2 3:1
6:0 3:1 6:1 8:1 9:1 7:1 5:1 2:1 1:2 3:1 4:1
3:0 6:1 8:1 9:1 7:1 5:1 2:1 1:2 3:1 4:1 5:1
6:0 8:1 9:1 7:1 5:1 2:1 1:2 3:1 4:1 5:1 7:1
8:0 9:1 7:1 5:1 2:1 1:2 3:1 4:1 5:1 7:1 6:1
9:0 7:1 5:1 2:1 1:2 3:1 4:1 5:1 7:1 6:1 8:1
7:0 5:1 2:1 1:2 3:1 4:1 5:1 7:1 6:1 8:1 10:3
5:0 2:1 1:2 3:1 4:1 5:1 7:1 6:1 8:1 10:3 9:1
2:0 1:2 3:1 4:1 5:1 7:1 6:1 8:1 10:3 9:1 11:1
1:0 3:1 4:1 5:1 7:1 6:1 8:1 10:3 9:1 11:1 10:3
3:0 4:1 5:1 7:1 6:1 8:1 10:3 9:1 11:1 10:3 7:1
4:0 5:1 7:1 6:1 8:1 10:3 9:1 11:1 10:3 7:1 6:1
5:0 7:1 6:1 8:1 10:3 9:1 11:1 10:3 7:1 6:1 3:1
7:0 6:1 8:1 10:3 9:1 11:1 10:3 7:1 6:1 3:1 6:1
6:0 8:1 10:3 9:1 11:1 10:3 7:1 6:1 3:1 6:1 8:1
8:0 10:3 9:1 11:1 10:3 7:1 6:1 3:1 6:1 8:1 9:1
10:0 9:1 11:1 10:3 7:1 6:1 3:1 6:1 8:1 9:1 7:1
9:0 11:1 10:3 7:1 6:1 3:1 6:1 8:1 9:1 7:1 5:1
11:0 10:3 7:1 6:1 3:1 6:1 8:1 9:1 7:1 5:1 2:1
10:0 7:1 6:1 3:1 6:1 8:1 9:1 7:1 5:1 2:1 3:1
7:0 6:1 3:1 6:1 8:1 9:1 7:1 5:1 2:1 3:1 1:1
6:0 3:1 6:1 8:1 9:1 7:1 5:1 2:1 3:1 1:1 3:1
3:0 6:1 8:1 9:1 7:1 5:1 2:1 3:1 1:1 3:1 4:1
6:0 8:1 9:1 7:1 5:1 2:1 3:1 1:1 3:1 4:1 5:1
8:0 9:1 7:1 5:1 2:1 3:1 1:1 3:1 4:1 5:1 7:1
9:0 7:1 5:1 2:1 3:1 1:1 3:1 4:1 5:1 7:1 6:1
7:0 5:1 2:1 3:1 1:1 3:1 4:1 5:1 7:1 6:1 8:1
5:0 2:1 3:1 1:1 3:1 4:1 5:1 7:1 6:1 8:1 9:3
2:0 3:1 1:1 3:1 4:1 5:1 7:1 6:1 8:1 9:3 11:2
3:0 1:1 3:1 4:1 5:1 7:1 6:1 8:1 9:3 11:2 10:3
1:0 3:1 4:1 5:1 7:1 6:1 8:1 9:3 11:2 10:3 7:1
3:0 4:1 5:1 7:1 6:1 8:1 9:3 11:2 10:3 7:1 6:1
4:0 5:1 7:1 6:1 8:1 9:3 11:2 10:3 7:1 6:1 3:1
5:0 7:1 6:1 8:1 9:3 11:2 10:3 7:1 6:1 3:1 6:1
7:0 6:1 8:1 9:3 11:2 10:3 7:1 6:1 3:1 6:1 8:1
6:0 8:1 9:3 11:2 10:3 7:1 6:1 3:1 6:1 8:1 9:1
8:0 9:3 11:2 10:3 7:1 6:1 3:1 6:1 8:1 9:1 7:1
9:0 11:2 10:3 7:1 6:1 3:1 6:1 8:1 9:1 7:1 5:1
11:0 10:3 7:1 6:1 3:1 6:1 8:1 9:1 7:1 5:1 2:1
10:0 7:1 6:1 3:1 6:1 8:1 9:1 7:1 5:1 2:1 3:1
7:0 6:1 3:1 6:1 8:1 9:1 7:1 5:1 2:1 3:1 1:1
6:0 3:1 6:1 8:1 9:1 7:1 5:1 2:1 3:1 1:1 3:1
3:0 6:1 8:1 9:1 7:1 5:1 2:1 3:1 1:1 3:1 4:1
6:0 8:1 9:1 7:1 5:1 2:1 3:1 1:1 3:1 4:1 5:1
8:0 9:1 7:1 5:1 2:1 3:1 1:1 3:1 4:1 5:1 7:1
9:0 7:1 5:1 2:1 3:1 1:1 3:1 4:1 5:1 7:1 6:1
7:0 5:1 2:1 3:1 1:1 3:1 4:1 5:1 7:1 6:1 8:1
5:0 2:1 3:1 1:1 3:1 4:1 5:1 7:1 6:1 8:1 10:3
2:0 3:1 1:1 3:1 4:1 5:1 7:1 6:1 8:1 10:3 9:1
3:0 1:1 3:1 4:1 5:1 7:1 6:1 8:1 10:3 9:1 11:1
1:0 3:1 4:1 5:1 7:1 6:1 8:1 10:3 9:1 11:1 10:3
3:0 4:1 5:1 7:1 6:1 8:1 10:3 9:1 11:1 10:3 7:1
4:0 5:1 7:1 6:1 8:1 10:3 9:1 11:1 10:3 7:1 6:1
5:0 7:1 6:1 8:1 10:3 9:1 11:1 10:3 7:1 6:1 3:1
7:0 6:1 8:1 10:3 9:1 11:1 10:3 7:1 6:1 3:1 6:1
6:0 8:1 10:3 9:1 11:1 10:3 7:1 6:1 3:1 6:1 8:1
8:0 10:3 9:1 11:1 10:3 7:1 6:1 3:1 6:1 8:1 9:1
10:0 9:1 11:1 10:3 7:1 6:1 3:1 6:1 8:1 9:1 7:1
9:0 11:1 10:3 7:1 6:1 3:1 6:1 8:1 9:1 7:1 5:1
11:0 10:3 7:1 6:1 3:1 6:1 8:1 9:1 7:1 5:1 2:1
10:0 7:1 6:1 3:1 6:1 8:1 9:1 7:1 5:1 2:1 1:2
7:0 6:1 3:1 6:1 8:1 9:1 7:1 5:1 2:1 1:2 3:1
6:0 3:1 6:1 8:1 9:1 7:1 5:1 2:1 1:2 3:1 4:1
3:0 6:1 8:1 9:1 7:1 5:1 2:1 1:2 3:1 4:1 5:1
6:0 8:1 9:1 7:1 5:1 2:1 1:2 3:1 4:1 5:1 7:1
8:0 9:1 7:1 5:1 2:1 1:2 3:1 4:1 5:1 7:1 6:1
9:0 7:1 5:1 2:1 1:2 3:1 4:1 5:1 7:1 6:1 8:1
7:0 5:1 2:1 1:2 3:1 4:1 5:1 7:1 6:1 8:1 10:3
5:0 2:1 1:2 3:1 4:1 5:1 7:1 6:1 8:1 10:3 9:1
2:0 1:2 3:1 4:1 5:1 7:1 6:1 8:1 10:3 9:1 11:1
1:0 3:1 4:1 5:1 7:1 6:1 8:1 10:3 9:1 11:1 10:3
3:0 4:1 5:1 7:1 6:1 8:1 10:3 9:1 11:1 10:3 7:1
4:0 5:1 7:1 6:1 8:1 10:3 9:1 11:1 10:3 7:1 6:1
5:0 7:1 6:1 8:1 10:3 9:1 11:1 10:3 7:1 6:1 3:1
7:0 6:1 8:1 10:3 9:1 11:1 10:3 7:1 6:1 3:1 6:1
6:0 8:1 10:3 9:1 11:1 10:3 7:1 6:1 3:1 6:1 8:1
8:0 10:3 9:1 11:1 10:3 7:1 6:1 3:1 6:1 8:1 9:1
10:0 9:1 11:1 10:3 7:1 6:1 3:1 6:1 8:1 9:1 7:1
9:0 11:1 10:3 7:1 6:1 3:1 6:1 8:1 9:1 7:1 5:1
11:0 10:3 7:1 6:1 3:1 6:1 8:1 9:1 7:1 5:1 2:1
10:0 7:1 6:1 3:1 6:1 8:1 9:1 7:1 5:1 2:1 3:1
7:0 6:1 3:1 6:1 8:1 9:1 7:1 5:1 2:1 3:1 1:1
6:0 3:1 6:1 8:1 9:1 7:1 5:1 2:1 3:1 1:1 3:1
3:0 6:1 8:1 9:1 7:1 5:1 2:1 3:1 1:1 3:1 4:1
6:0 8:1 9:1 7:1 5:1 2:1 3:1 1:1 3:1 4:1 5:1
8:0 9:1 7:1 5:1 2:1 3:1 1:1 3:1 4:1 5:1 7:1
9:0 7:1 5:1 2:1 3:1 1:1 3:1 4:1 5:1 7:1 6:1
7:0 5:1 2:1 3:1 1:1 3:1 4:1 5:1 7:1 6:1 8:1
5:0 2:1 3:1 1:1 3:1 4:1 5:1 7:1 6:1 8:1 10:3
2:0 3:1 1:1 3:1 4:1 5:1 7:1 6:1 8:1 10:3 9:1
3:0 1:1 3:1 4:1 5:1 7:1 6:1 8:1 10:3 9:1 11:1
1:0 3:1 4:1 5:1 7:1 6:1 8:1 10:3 9:1 11:1 10:3
3:0 4:1 5:1 7:1 6:1 8:1 10:3 9:1 11:1 10:3 7:1
4:0 5:1 7:1 6:1 8:1 10:3 9:1 11:1 10:3 7:1 6:1
5:0 7:1 6:1 8:1 10:3 9:1 11:1 10:3 7:1 6:1 3:1
7:0 6:1 8:1 10:3 9:1 11:1 10:3 7:1 6:1 3:1 6:1
6:0 8:1 10:3 9:1 11:1 10:3 7:1 6:1 3:1 6:1 8:1
8:0 10:3 9:1 11:1 10:3 7:1 6:1 3:1 6:1 8:1 9:1
10:0 9:1 11:1 10:3 7:1 6:1 3:1 6:1 8:1 9:1 7:1
9:0 11:1 10:3 7:1 6:1 3:1 6:1 8:1 9:1 7:1 5:1
11:0 10:3 7:1 6:1 3:1 6:1 8:1 9:1 7:1 5:1 2:1
10:0 7:1 6:1 3:1 6:1 8:1 9:1 7:1 5:1 2:1 1:2
7:0 6:1 3:1 6:1 8:1 9:1 7:1 5:1 2:1 1:2 3:1
6:0 3:1 6:1 8:1 9:1 7:1 5:1 2:1 1:2 3:1 4:1
3:0 6:1 8:1 9:1 7:1 5:1 2:1 1:2 3:1 4:1 5:1
6:0 8:1 9:1 7:1 5:1 2:1 1:2 3:1 4:1 5:1 7:1
8:0 9:1 7:1 5:1 2:1 1:2 3:1 4:1 5:1 7:1 6:1
9:0 7:1 5:1 2:1 1:2 3:1 4:1 5:1 7:1 6:1 8:1
7:0 5:1 2:1 1:2 3:1 4:1 5:1 7:1 6:1 8:1 10:3
5:0 2:1 1:2 3:1 4:1 5:1 7:1 6:1 8:1 10:3 9:1
2:0 1:2 3:1 4:1 5:1 7:1 6:1 8:1 10:3 9:1 11:1
1:0 3:1 4:1 5:1 7:1 6:1 8:1 10:3 9:1 11:1 10:3
3:0 4:1 5:1 7:1 6:1 8:1 10:3 9:1 11:1 10:3 7:1
4:0 5:1 7:1 6:1 8:1 10:3 9:1 11:1 10:3 7:1 6:1
5:0 7:1 6:1 8:1 10:3 9:1 11:1 10:3 7:1 6:1 3:1
7:0 6:1 8:1 10:3 9:1 11:1 10:3 7:1 6:1 3:1 6:1
6:0 8:1 10:3 9:1 11:1 10:3 7:1 6:1 3:1 6:1 8:1
8:0 10:3 9:1 11:1 10:3 7:1 6:1 3:1 6:1 8:1 9:1
10:0 9:1 11:1 10:3 7:1 6:1 3:1 6:1 8:1 9:1 7:1
9:0 11:1 10:3 7:1 6:1 3:1 6:1 8:1 9:1 7:1 5:1
11:0 10:3 7:1 6:1 3:1 6:1 8:1 9:1 7:1 5:1 2:1
10:0 7:1 6:1 3:1 6:1 8:1 9:1 7:1 5:1 2:1 3:1
7:0 6:1 3:1 6:1 8:1 9:1 7:1 5:1 2:1 3:1 1:1
6:0 3:1 6:1 8:1 9:1 7:1 5:1 2:1 3:1 1:1 3:1
3:0 6:1 8:1 9:1 7:1 5:1 2:1 3:1 1:1 3:1 4:1
6:0 8:1 9:1 7:1 5:1 2:1 3:1 1:1 3:1 4:1 5:1
8:0 9:1 7:1 5:1 2:1 3:1 1:1 3:1 4:1 5:1 7:1
9:0 7:1 5:1 2:1 3:1 1:1 3:1 4:1 5:1 7:1 6:1
7:0 5:1 2:1 3:1 1:1 3:1 4:1 5:1 7:1 6:1 8:1
5:0 2:1 3:1 1:1 3:1 4:1 5:1 7:1 6:1 8:1 10:3
2:0 3:1 1:1 3:1 4:1 5:1 7:1 6:1 8:1 10:3 9:1
3:0 1:1 3:1 4:1 5:1 7:1 6:1 8:1 10:3 9:1 11:1
1:0 3:1 4:1 5:1 7:1 6:1 8:1 10:3 9:1 11:1 10:3
3:0 4:1 5:1 7:1 6:1 8:1 10:3 9:1 11:1 10:3 7:1
4:0 5:1 7:1 6:1 8:1 10:3 9:1 11:1 10:3 7:1 6:1
5:0 7:1 6:1 8:1 10:3 9:1 11:1 10:3 7:1 6:1 3:1
7:0 6:1 8:1 10:3 9:1 11:1 10:3 7:1 6:1 3:1 6:1
6:0 8:1 10:3 9:1 11:1 10:3 7:1 6:1 3:1 6:1 8:1
8:0 10:3 9:1 11:1 10:3 7:1 6:1 3:1 6:1 8:1 9:1
10:0 9:1 11:1 10:3 7:1 6:1 3:1 6:1 8:1 9:1 7:1
9:0 11:1 10:3 7:1 6:1 3:1 6:1 8:1 9:1 7:1 5:1
11:0 10:3 7:1 6:1 3:1 6:1 8:1 9:1 7:1 5:1 2:1
10:0 7:1 6:1 3:1 6:1 8:1 9:1 7:1 5:1 2:1 3:1
7:0 6:1 3:1 6:1 8:1 9:1 7:1 5:1 2:1 3:1 1:1
6:0 3:1 6:1 8:1 9:1 7:1 5:1 2:1 3:1 1:1 3:1
3:0 6:1 8:1 9:1 7:1 5:1 2:1 3:1 1:1 3:1 4:1
6:0 8:1 9:1 7:1 5:1 2:1 3:1 1:1 3:1 4:1 5:1
8:0 9:1 7:1 5:1 2:1 3:1 1:1 3:1 4:1 5:1 7:1
9:0 7:1 5:1 2:1 3:1 1:1 3:1 4:1 5:1 7:1 6:1
7:0 5:1 2:1 3:1 1:1 3:1 4:1 5:1 7:1 6:1 8:1
5:0 2:1 3:1 1:1 3:1 4:1 5:1 7:1 6:1 8:1 7:2
2:0 3:1 1:1 3:1 4:1 5:1 7:1 6:1 8:1 7:2 10:1
3:0 1:1 3:1 4:1 5:1 7:1 6:1 8:1 7:2 10:1 9:1
1:0 3:1 4:1 5:1 7:1 6:1 8:1 7:2 10:1 9:1 11:1
3:0 4:1 5:1 7:1 6:1 8:1 7:2 10:1 9:1 11:1 10:3
4:0 5:1 7:1 6:1 8:1 7:2 10:1 9:1 11:1 10:3 7:1
5:0 7:1 6:1 8:1 7:2 10:1 9:1 11:1 10:3 7:1 3:2
7:0 6:1 8:1 7:2 10:1 9:1 11:1 10:3 7:1 3:2 6:1
6:0 8:1 7:2 10:1 9:1 11:1 10:3 7:1 3:2 6:1 8:1
8:0 7:2 10:1 9:1 11:1 10:3 7:1 3:2 6:1 8:1 9:1
7:0 10:1 9:1 11:1 10:3 7:1 3:2 6:1 8:1 9:1 7:1
10:0 9:1 11:1 10:3 7:1 3:2 6:1 8:1 9:1 7:1 5:1
9:0 11:1 10:3 7:1 3:2 6:1 8:1 9:1 7:1 5:1 2:1
11:0 10:3 7:1 3:2 6:1 8:1 9:1 7:1 5:1 2:1 3:1
10:0 7:1 3:2 6:1 8:1 9:1 7:1 5:1 2:1 3:1 1:1
7:0 3:2 6:1 8:1 9:1 7:1 5:1 2:1 3:1 1:1 3:1
3:0 6:1 8:1 9:1 7:1 5:1 2:1 3:1 1:1 3:1 4:1
6:0 8:1 9:1 7:1 5:1 2:1 3:1 1:1 3:1 4:1 5:1
8:0 9:1 7:1 5:1 2:1 3:1 1:1 3:1 4:1 5:1 7:1
9:0 7:1 5:1 2:1 3:1 1:1 3:1 4:1 5:1 7:1 6:1
7:0 5:1 2:1 3:1 1:1 3:1 4:1 5:1 7:1 6:1 8:1
5:0 2:1 3:1 1:1 3:1 4:1 5:1 7:1 6:1 8:1 10:3
2:0 3:1 1:1 3:1 4:1 5:1 7:1 6:1 8:1 10:3 9:1
3:0 1:1 3:1 4:1 5:1 7:1 6:1 8:1 10:3 9:1 11:1
1:0 3:1 4:1 5:1 7:1 6:1 8:1 10:3 9:1 11:1 10:3
3:0 4:1 5:1 7:1 6:1 8:1 10:3 9:1 11:1 10:3 7:1
4:0 5:1 7:1 6:1 8:1 10:3 9:1 11:1 10:3 7:1 6:1
5:0 7:1 6:1 8:1 10:3 9:1 11:1 10:3 7:1 6:1 3:1
7:0 6:1 8:1 10:3 9:1 11:1 10:3 7:1 6:1 3:1 6:1
6:0 8:1 10:3 9:1 11:1 10:3 7:1 6:1 3:1 6:1 8:1
8:0 10:3 9:1 11:1 10:3 7:1 6:1 3:1 6:1 8:1 9:1
10:0 9:1 11:1 10:3 7:1 6:1 3:1 6:1 8:1 9:1 7:1
9:0 11:1 10:3 7:1 6:1 3:1 6:1 8:1 9:1 7:1 5:1
11:0 10:3 7:1 6:1 3:1 6:1 8:1 9:1 7:1 5:1 2:1
10:0 7:1 6:1 3:1 6:1 8:1 9:1 7:1 5:1 2:1 3:1
7:0 6:1 3:1 6:1 8:1 9:1 7:1 5:1 2:1 3:1 1:1
6:0 3:1 6:1 8:1 9:1 7:1 5:1 2:1 3:1 1:1 3:1
3:0 6:1 8:1 9:1 7:1 5:1 2:1 3:1 1:1 3:1 4:1
6:0 8:1 9:1 7:1 5:1 2:1 3:1 1:1 3:1 4:1 5:1
8:0 9:1 7:1 5:1 2:1 3:1 1:1 3:1 4:1 5:1 7:1
9:0 7:1 5:1 2:1 3:1 1:1 3:1 4:1 5:1 7:1 6:1
7:0 5:1 2:1 3:1 1:1 3:1 4:1 5:1 7:1 6:1 8:1
5:0 2:1 3:1 1:1 3:1 4:1 5:1 7:1 6:1 8:1 10:3
2:0 3:1 1:1 3:1 4:1 5:1 7:1 6:1 8:1 10:3 9:1
3:0 1:1 3:1 4:1 5:1 7:1 6:1 8:1 10:3 9:1 11:1
1:0 3:1 4:1 5:1 7:1 6:1 8:1 10:3 9:1 11:1 10:3
3:0 4:1 5:1 7:1 6:1 8:1 10:3 9:1 11:1 10:3 7:1
4:0 5:1 7:1 6:1 8:1 10:3 9:1 11:1 10:3 7:1 6:1
5:0 7:1 6:1 8:1 10:3 9:1 11:1 10:3 7:1 6:1 3:1
7:0 6:1 8:1 10:3 9:1 11:1 10:3 7:1 6:1 3:1 6:1
6:0 8:1 10:3 9:1 11:1 10:3 7:1 6:1 3:1 6:1 8:1
8:0 10:3 9:1 11:1 10:3 7:1 6:1 3:1 6:1 8:1 9:1
10:0 9:1 11:1 10:3 7:1 6:1 3:1 6:1 8:1 9:1 7:1
9:0 11:1 10:3 7:1 6:1 3:1 6:1 8:1 9:1 7:1 5:1
11:0 10:3 7:1 6:1 3:1 6:1 8:1 9:1 7:1 5:1 2:1
10:0 7:1 6:1 3:1 6:1 8:1 9:1 7:1 5:1 2:1 3:1
7:0 6:1 3:1 6:1 8:1 9:1 7:1 5:1 2:1 3:1 1:1
6:0 3:1 6:1 8:1 9:1 7:1 5:1 2:1 3:1 1:1 3:1
3:0 6:1 8:1 9:1 7:1 5:1 2:1 3:1 1:1 3:1 4:1
6:0 8:1 9:1 7:1 5:1 2:1 3:1 1:1 3:1 4:1 5:1
8:0 9:1 7:1 5:1 2:1 3:1 1:1 3:1 4:1 5:1 7:1
9:0 7:1 5:1 2:1 3:1 1:1 3:1 4:1 5:1 7:1 6:1
7:0 5:1 2:1 3:1 1:1 3:1 4:1 5:1 7:1 6:1 8:1
5:0 2:1 3:1 1:1 3:1 4:1 5:1 7:1 6:1 8:1 10:3
2:0 3:1 1:1 3:1 4:1 5:1 7:1 6:1 8:1 10:3 11:2
3:0 1:1 3:1 4:1 5:1 7:1 6:1 8:1 10:3 11:2 10:3
1:0 3:1 4:1 5:1 7:1 6:1 8:1 10:3 11:2 10:3 7:1
3:0 4:1 5:1 7:1 6:1 8:1 10:3 11:2 10:3 7:1 6:1
4:0 5:1 7:1 6:1 8:1 10:3 11:2 10:3 7:1 6:1 3:1
5:0 7:1 6:1 8:1 10:3 11:2 10:3 7:1 6:1 3:1 6:1
7:0 6:1 8:1 10:3 11:2 10:3 7:1 6:1 3:1 6:1 8:1
6:0 8:1 10:3 11:2 10:3 7:1 6:1 3:1 6:1 8:1 9:1
8:0 10:3 11:2 10:3 7:1 6:1 3:1 6:1 8:1 9:1 7:1
10:0 11:2 10:3 7:1 6:1 3:1 6:1 8:1 9:1 7:1 5:1
11:0 10:3 7:1 6:1 3:1 6:1 8:1 9:1 7:1 5:1 2:1
10:0 7:1 6:1 3:1 6:1 8:1 9:1 7:1 5:1 2:1 3:1
7:0 6:1 3:1 6:1 8:1 9:1 7:1 5:1 2:1 3:1 1:1
6:0 3:1 6:1 8:1 9:1 7:1 5:1 2:1 3:1 1:1 3:1
3:0 6:1 8:1 9:1 7:1 5:1 2:1 3:1 1:1 3:1 4:1
6:0 8:1 9:1 7:1 5:1 2:1 3:1 1:1 3:1 4:1 5:1
8:0 9:1 7:1 5:1 2:1 3:1 1:1 3:1 4:1 5:1 7:1
9:0 7:1 5:1 2:1 3:1 1:1 3:1 4:1 5:1 7:1 6:1
7:0 5:1 2:1 3:1 1:1 3:1 4:1 5:1 7:1 6:1 8:1
5:0 2:1 3:1 1:1 3:1 4:1 5:1 7:1 6:1 8:1 10:3
2:0 3:1 1:1 3:1 4:1 5:1 7:1 6:1 8:1 10:3 9:1
3:0 1:1 3:1 4:1 5:1 7:1 6:1 8:1 10:3 9:1 11:1
1:0 3:1 4:1 5:1 7:1 6:1 8:1 10:3 9:1 11:1 10:3
3:0 4:1 5:1 7:1 6:1 8:1 10:3 9:1 11:1 10:3 7:1
4:0 5:1 7:1 6:1 8:1 10:3 9:1 11:1 10:3 7:1 6:1
5:0 7:1 6:1 8:1 10:3 9:1 11:1 10:3 7:1 6:1 3:1
7:0 6:1 8:1 10:3 9:1 11:1 10:3 7:1 6:1 3:1 6:1
6:0 8:1 10:3 9:1 11:1 10:3 7:1 6:1 3:1 6:1 8:1
8:0 10:3 9:1 11:1 10:3 7:1 6:1 3:1 6:1 8:1 9:1
10:0 9:1 11:1 10:3 7:1 6:1 3:1 6:1 8:1 9:1 7:1
9:0 11:1 10:3 7:1 6:1 3:1 6:1 8:1 9:1 7:1 5:1
11:0 10:3 7:1 6:1 3:1 6:1 8:1 9:1 7:1 5:1 2:1
10:0 7:1 6:1 3:1 6:1 8:1 9:1 7:1 5:1 2:1 3:1
7:0 6:1 3:1 6:1 8:1 9:1 7:1 5:1 2:1 3:1 1:1
6:0 3:1 6:1 8:1 9:1 7:1 5:1 2:1 3:1 1:1 3:1
3:0 6:1 8:1 9:1 7:1 5:1 2:1 3:1 1:1 3:1 4:1
6:0 8:1 9:1 7:1 5:1 2:1 3:1 1:1 3:1 4:1 5:1
8:0 9:1 7:1 5:1 2:1 3:1 1:1 3:1 4:1 5:1 7:1
9:0 7:1 5:1 2:1 3:1 1:1 3:1 4:1 5:1 7:1 6:1
7:0 5:1 2:1 3:1 1:1 3:1 4:1 5:1 7:1 6:1 8:1
5:0 2:1 3:1 1:1 3:1 4:1 5:1 7:1 6:1 8:1 10:3
2:0 3:1 1:1 3:1 4:1 5:1 7:1 6:1 8:1 10:3 9:1
3:0 1:1 3:1 4:1 5:1 7:1 6:1 8:1 10:3 9:1 11:1
1:0 3:1 4:1 5:1 7:1 6:1 8:1 10:3 9:1 11:1 10:3
3:0 4:1 5:1 7:1 6:1 8:1 10:3 9:1 11:1 10:3 7:1
4:0 5:1 7:1 6:1 8:1 10:3 9:1 11:1 10:3 7:1 6:1
5:0 7:1 6:1 8:1 10:3 9:1 11:1 10:3 7:1 6:1 3:1
7:0 6:1 8:1 10:3 9:1 11:1 10:3 7:1 6:1 3:1 6:1
6:0 8:1 10:3 9:1 11:1 10:3 7:1 6:1 3:1 6:1 8:1
8:0 10:3 9:1 11:1 10:3 7:1 6:1 3:1 6:1 8:1 9:1
10:0 9:1 11:1 10:3 7:1 6:1 3:1 6:1 8:1 9:1 7:1
9:0 11:1 10:3 7:1 6:1 3:1 6:1 8:1 9:1 7:1 5:1
11:0 10:3 7:1 6:1 3:1 6:1 8:1 9:1 7:1 5:1 2:1
10:0 7:1 6:1 3:1 6:1 8:1 9:1 7:1 5:1 2:1 3:1
7:0 6:1 3:1 6:1 8:1 9:1 7:1 5:1 2:1 3:1 1:1
6:0 3:1 6:1 8:1 9:1 7:1 5:1 2:1 3:1 1:1 3:1
3:0 6:1 8:1 9:1 7:1 5:1 2:1 3:1 1:1 3:1 4:1
6:0 8:1 9:1 7:1 5:1 2:1 3:1 1:1 3:1 4:1 5:1
8:0 9:1 7:1 5:1 2:1 3:1 1:1 3:1 4:1 5:1 7:1
9:0 7:1 5:1 2:1 3:1 1:1 3:1 4:1 5:1 7:1 6:1
7:0 5:1 2:1 3:1 1:1 3:1 4:1 5:1 7:1 6:1 8:1
5:0 2:1 3:1 1:1 3:1 4:1 5:1 7:1 6:1 8:1 9:1
2:0 3:1 1:1 3:1 4:1 5:1 7:1 6:1 8:1 9:1 8:1
3:0 1:1 3:1 4:1 5:1 7:1 6:1 8:1 9:1 8:1 10:1
1:0 3:1 4:1 5:1 7:1 6:1 8:1 9:1 8:1 10:1 9:1
3:0 4:1 5:1 7:1 6:1 8:1 9:1 8:1 10:1 9:1 11:1
4:0 5:1 7:1 6:1 8:1 9:1 8:1 10:1 9:1 11:1 10:3
5:0 7:1 6:1 8:1 9:1 8:1 10:1 9:1 11:1 10:3 7:1
7:0 6:1 8:1 9:1 8:1 10:1 9:1 11:1 10:3 7:1 6:1
6:0 8:1 9:1 8:1 10:1 9:1 11:1 10:3 7:1 6:1 3:1
8:0 9:1 8:1 10:1 9:1 11:1 10:3 7:1 6:1 3:1 5:1
9:0 8:1 10:1 9:1 11:1 10:3 7:1 6:1 3:1 5:1 8:1
8:0 10:1 9:1 11:1 10:3 7:1 6:1 3:1 5:1 8:1 9:1
10:0 9:1 11:1 10:3 7:1 6:1 3:1 5:1 8:1 9:1 7:1
9:0 11:1 10:3 7:1 6:1 3:1 5:1 8:1 9:1 7:1 5:1
11:0 10:3 7:1 6:1 3:1 5:1 8:1 9:1 7:1 5:1 2:1
10:0 7:1 6:1 3:1 5:1 8:1 9:1 7:1 5:1 2:1 1:2
7:0 6:1 3:1 5:1 8:1 9:1 7:1 5:1 2:1 1:2 3:1
6:0 3:1 5:1 8:1 9:1 7:1 5:1 2:1 1:2 3:1 4:1
3:0 5:1 8:1 9:1 7:1 5:1 2:1 1:2 3:1 4:1 5:1
5:0 8:1 9:1 7:1 5:1 2:1 1:2 3:1 4:1 5:1 7:1
8:0 9:1 7:1 5:1 2:1 1:2 3:1 4:1 5:1 7:1 6:1
9:0 7:1 5:1 2:1 1:2 3:1 4:1 5:1 7:1 6:1 8:1
7:0 5:1 2:1 1:2 3:1 4:1 5:1 7:1 6:1 8:1 10:3
5:0 2:1 1:2 3:1 4:1 5:1 7:1 6:1 8:1 10:3 9:1
2:0 1:2 3:1 4:1 5:1 7:1 6:1 8:1 10:3 9:1 11:1
1:0 3:1 4:1 5:1 7:1 6:1 8:1 10:3 9:1 11:1 10:3
3:0 4:1 5:1 7:1 6:1 8:1 10:3 9:1 11:1 10:3 7:1
4:0 5:1 7:1 6:1 8:1 10:3 9:1 11:1 10:3 7:1 6:1
5:0 7:1 6:1 8:1 10:3 9:1 11:1 10:3 7:1 6:1 3:1
7:0 6:1 8:1 10:3 9:1 11:1 10:3 7:1 6:1 3:1 6:1
6:0 8:1 10:3 9:1 11:1 10:3 7:1 6:1 3:1 6:1 8:1
8:0 10:3 9:1 11:1 10:3 7:1 6:1 3:1 6:1 8:1 9:1
10:0 9:1 11:1 10:3 7:1 6:1 3:1 6:1 8:1 9:1 7:1
9:0 11:1 10:3 7:1 6:1 3:1 6:1 8:1 9:1 7:1 5:1
11:0 10:3 7:1 6:1 3:1 6:1 8:1 9:1 7:1 5:1 2:1
10:0 7:1 6:1 3:1 6:1 8:1 9:1 7:1 5:1 2:1 3:1
7:0 6:1 3:1 6:1 8:1 9:1 7:1 5:1 2:1 3:1 1:1
6:0 3:1 6:1 8:1 9:1 7:1 5:1 2:1 3:1 1:1 4:1
3:0 6:1 8:1 9:1 7:1 5:1 2:1 3:1 1:1 4:1 5:2
6:0 8:1 9:1 7:1 5:1 2:1 3:1 1:1 4:1 5:2 7:1
8:0 9:1 7:1 5:1 2:1 3:1 1:1 4:1 5:2 7:1 6:1
9:0 7:1 5:1 2:1 3:1 1:1 4:1 5:2 7:1 6:1 8:1
7:0 5:1 2:1 3:1 1:1 4:1 5:2 7:1 6:1 8:1 10:3
5:0 2:1 3:1 1:1 4:1 5:2 7:1 6:1 8:1 10:3 9:1
2:0 3:1 1:1 4:1 5:2 7:1 6:1 8:1 10:3 9:1 11:1
3:0 1:1 4:1 5:2 7:1 6:1 8:1 10:3 9:1 11:1 10:3
1:0 4:1 5:2 7:1 6:1 8:1 10:3 9:1 11:1 10:3 7:1
4:0 5:2 7:1 6:1 8:1 10:3 9:1 11:1 10:3 7:1 6:1
5:0 7:1 6:1 8:1 10:3 9:1 11:1 10:3 7:1 6:1 3:1
7:0 6:1 8:1 10:3 9:1 11:1 10:3 7:1 6:1 3:1 6:1
6:0 8:1 10:3 9:1 11:1 10:3 7:1 6:1 3:1 6:1 8:1
8:0 10:3 9:1 11:1 10:3 7:1 6:1 3:1 6:1 8:1 9:1
10:0 9:1 11:1 10:3 7:1 6:1 3:1 6:1 8:1 9:1 6:1
9:0 11:1 10:3 7:1 6:1 3:1 6:1 8:1 9:1 6:1 5:1
11:0 10:3 7:1 6:1 3:1 6:1 8:1 9:1 6:1 5:1 2:1
10:0 7:1 6:1 3:1 6:1 8:1 9:1 6:1 5:1 2:1 3:1
7:0 6:1 3:1 6:1 8:1 9:1 6:1 5:1 2:1 3:1 1:1
6:0 3:1 6:1 8:1 9:1 6:1 5:1 2:1 3:1 1:1 3:1
3:0 6:1 8:1 9:1 6:1 5:1 2:1 3:1 1:1 3:1 4:1
6:0 8:1 9:1 6:1 5:1 2:1 3:1 1:1 3:1 4:1 5:1
8:0 9:1 6:1 5:1 2:1 3:1 1:1 3:1 4:1 5:1 7:1
9:0 6:1 5:1 2:1 3:1 1:1 3:1 4:1 5:1 7:1 6:1
6:0 5:1 2:1 3:1 1:1 3:1 4:1 5:1 7:1 6:1 8:1
5:0 2:1 3:1 1:1 3:1 4:1 5:1 7:1 6:1 8:1 10:3
2:0 3:1 1:1 3:1 4:1 5:1 7:1 6:1 8:1 10:3 9:1
3:0 1:1 3:1 4:1 5:1 7:1 6:1 8:1 10:3 9:1 11:1
1:0 3:1 4:1 5:1 7:1 6:1 8:1 10:3 9:1 11:1 10:3
3:0 4:1 5:1 7:1 6:1 8:1 10:3 9:1 11:1 10:3 7:1
4:0 5:1 7:1 6:1 8:1 10:3 9:1 11:1 10:3 7:1 6:1
5:0 7:1 6:1 8:1 10:3 9:1 11:1 10:3 7:1 6:1 3:1
7:0 6:1 8:1 10:3 9:1 11:1 10:3 7:1 6:1 3:1 6:1
6:0 8:1 10:3 9:1 11:1 10:3 7:1 6:1 3:1 6:1 8:1
8:0 10:3 9:1 11:1 10:3 7:1 6:1 3:1 6:1 8:1 9:1
10:0 9:1 11:1 10:3 7:1 6:1 3:1 6:1 8:1 9:1 7:1
9:0 11:1 10:3 7:1 6:1 3:1 6:1 8:1 9:1 7:1 5:1
11:0 10:3 7:1 6:1 3:1 6:1 8:1 9:1 7:1 5:1 2:1
10:0 7:1 6:1 3:1 6:1 8:1 9:1 7:1 5:1 2:1 3:1
7:0 6:1 3:1 6:1 8:1 9:1 7:1 5:1 2:1 3:1 1:1
6:0 3:1 6:1 8:1 9:1 7:1 5:1 2:1 3:1 1:1 3:1
3:0 6:1 8:1 9:1 7:1 5:1 2:1 3:1 1:1 3:1 4:1
6:0 8:1 9:1 7:1 5:1 2:1 3:1 1:1 3:1 4:1 5:1
8:0 9:1 7:1 5:1 2:1 3:1 1:1 3:1 4:1 5:1 7:1
9:0 7:1 5:1 2:1 3:1 1:1 3:1 4:1 5:1 7:1 6:1
7:0 5:1 2:1 3:1 1:1 3:1 4:1 5:1 7:1 6:1 8:1
5:0 2:1 3:1 1:1 3:1 4:1 5:1 7:1 6:1 8:1 9:3
2:0 3:1 1:1 3:1 4:1 5:1 7:1 6:1 8:1 9:3 11:2
3:0 1:1 3:1 4:1 5:1 7:1 6:1 8:1 9:3 11:2 10:3
1:0 3:1 4:1 5:1 7:1 6:1 8:1 9:3 11:2 10:3 7:1
3:0 4:1 5:1 7:1 6:1 8:1 9:3 11:2 10:3 7:1 6:1
4:0 5:1 7:1 6:1 8:1 9:3 11:2 10:3 7:1 6:1 3:1
5:0 7:1 6:1 8:1 9:3 11:2 10:3 7:1 6:1 3:1 6:1
7:0 6:1 8:1 9:3 11:2 10:3 7:1 6:1 3:1 6:1 8:1
6:0 8:1 9:3 11:2 10:3 7:1 6:1 3:1 6:1 8:1 9:1
8:0 9:3 11:2 10:3 7:1 6:1 3:1 6:1 8:1 9:1 6:1
9:0 11:2 10:3 7:1 6:1 3:1 6:1 8:1 9:1 6:1 5:1
11:0 10:3 7:1 6:1 3:1 6:1 8:1 9:1 6:1 5:1 2:1
10:0 7:1 6:1 3:1 6:1 8:1 9:1 6:1 5:1 2:1 3:1
7:0 6:1 3:1 6:1 8:1 9:1 6:1 5:1 2:1 3:1 1:1
6:0 3:1 6:1 8:1 9:1 6:1 5:1 2:1 3:1 1:1 3:1
3:0 6:1 8:1 9:1 6:1 5:1 2:1 3:1 1:1 3:1 4:1
6:0 8:1 9:1 6:1 5:1 2:1 3:1 1:1 3:1 4:1 5:1
8:0 9:1 6:1 5:1 2:1 3:1 1:1 3:1 4:1 5:1 7:1
9:0 6:1 5:1 2:1 3:1 1:1 3:1 4:1 5:1 7:1 6:1
6:0 5:1 2:1 3:1 1:1 3:1 4:1 5:1 7:1 6:1 8:1
5:0 2:1 3:1 1:1 3:1 4:1 5:1 7:1 6:1 8:1 10:3
2:0 3:1 1:1 3:1 4:1 5:1 7:1 6:1 8:1 10:3 9:1
3:0 1:1 3:1 4:1 5:1 7:1 6:1 8:1 10:3 9:1 11:1
1:0 3:1 4:1 5:1 7:1 6:1 8:1 10:3 9:1 11:1 10:3
3:0 4:1 5:1 7:1 6:1 8:1 10:3 9:1 11:1 10:3 7:1
4:0 5:1 7:1 6:1 8:1 10:3 9:1 11:1 10:3 7:1 6:1
5:0 7:1 6:1 8:1 10:3 9:1 11:1 10:3 7:1 6:1 3:1
7:0 6:1 8:1 10:3 9:1 11:1 10:3 7:1 6:1 3:1 6:1
6:0 8:1 10:3 9:1 11:1 10:3 7:1 6:1 3:1 6:1 8:1
8:0 10:3 9:1 11:1 10:3 7:1 6:1 3:1 6:1 8:1 10:1
10:0 9:1 11:1 10:3 7:1 6:1 3:1 6:1 8:1 10:1 7:1
9:0 11:1 10:3 7:1 6:1 3:1 6:1 8:1 10:1 7:1 5:1
11:0 10:3 7:1 6:1 3:1 6:1 8:1 10:1 7:1 5:1 2:1
10:0 7:1 6:1 3:1 6:1 8:1 10:1 7:1 5:1 2:1 3:1
7:0 6:1 3:1 6:1 8:1 10:1 7:1 5:1 2:1 3:1 1:1
6:0 3:1 6:1 8:1 10:1 7:1 5:1 2:1 3:1 1:1 3:1
3:0 6:1 8:1 10:1 7:1 5:1 2:1 3:1 1:1 3:1 4:1
6:0 8:1 10:1 7:1 5:1 2:1 3:1 1:1 3:1 4:1 5:1
8:0 10:1 7:1 5:1 2:1 3:1 1:1 3:1 4:1 5:1 7:1
10:0 7:1 5:1 2:1 3:1 1:1 3:1 4:1 5:1 7:1 6:1
7:0 5:1 2:1 3:1 1:1 3:1 4:1 5:1 7:1 6:1 8:1
5:0 2:1 3:1 1:1 3:1 4:1 5:1 7:1 6:1 8:1 10:3
2:0 3:1 1:1 3:1 4:1 5:1 7:1 6:1 8:1 10:3 9:1
3:0 1:1 3:1 4:1 5:1 7:1 6:1 8:1 10:3 9:1 11:1
1:0 3:1 4:1 5:1 7:1 6:1 8:1 10:3 9:1 11:1 10:3
3:0 4:1 5:1 7:1 6:1 8:1 10:3 9:1 11:1 10:3 7:1
4:0 5:1 7:1 6:1 8:1 10:3 9:1 11:1 10:3 7:1 6:1
5:0 7:1 6:1 8:1 10:3 9:1 11:1 10:3 7:1 6:1 3:1
7:0 6:1 8:1 10:3 9:1 11:1 10:3 7:1 6:1 3:1 6:1
6:0 8:1 10:3 9:1 11:1 10:3 7:1 6:1 3:1 6:1 8:1
8:0 10:3 9:1 11:1 10:3 7:1 6:1 3:1 6:1 8:1 9:1
10:0 9:1 11:1 10:3 7:1 6:1 3:1 6:1 8:1 9:1 7:1
9:0 11:1 10:3 7:1 6:1 3:1 6:1 8:1 9:1 7:1 5:1
11:0 10:3 7:1 6:1 3:1 6:1 8:1 9:1 7:1 5:1 2:1
10:0 7:1 6:1 3:1 6:1 8:1 9:1 7:1 5:1 2:1 3:1
7:0 6:1 3:1 6:1 8:1 9:1 7:1 5:1 2:1 3:1 1:1
6:0 3:1 6:1 8:1 9:1 7:1 5:1 2:1 3:1 1:1 3:1
3:0 6:1 8:1 9:1 7:1 5:1 2:1 3:1 1:1 3:1 4:1
6:0 8:1 9:1 7:1 5:1 2:1 3:1 1:1 3:1 4:1 5:1
8:0 9:1 7:1 5:1 2:1 3:1 1:1 3:1 4:1 5:1 7:1
9:0 7:1 5:1 2:1 3:1 1:1 3:1 4:1 5:1 7:1 6:1
7:0 5:1 2:1 3:1 1:1 3:1 4:1 5:1 7:1 6:1 8:1
5:0 2:1 3:1 1:1 3:1 4:1 5:1 7:1 6:1 8:1 10:3
2:0 3:1 1:1 3:1 4:1 5:1 7:1 6:1 8:1 10:3 9:1
3:0 1:1 3:1 4:1 5:1 7:1 6:1 8:1 10:3 9:1 11:1
1:0 3:1 4:1 5:1 7:1 6:1 8:1 10:3 9:1 11:1 10:3
3:0 4:1 5:1 7:1 6:1 8:1 10:3 9:1 11:1 10:3 7:1
4:0 5:1 7:1 6:1 8:1 10:3 9:1 11:1 10:3 7:1 3:2
5:0 7:1 6:1 8:1 10:3 9:1 11:1 10:3 7:1 3:2 6:1
7:0 6:1 8:1 10:3 9:1 11:1 10:3 7:1 3:2 6:1 8:1
6:0 8:1 10:3 9:1 11:1 10:3 7:1 3:2 6:1 8:1 9:1
8:0 10:3 9:1 11:1 10:3 7:1 3:2 6:1 8:1 9:1 7:1
10:0 9:1 11:1 10:3 7:1 3:2 6:1 8:1 9:1 7:1 5:1
9:0 11:1 10:3 7:1 3:2 6:1 8:1 9:1 7:1 5:1 2:1
11:0 10:3 7:1 3:2 6:1 8:1 9:1 7:1 5:1 2:1 3:1
10:0 7:1 3:2 6:1 8:1 9:1 7:1 5:1 2:1 3:1 1:1
7:0 3:2 6:1 8:1 9:1 7:1 5:1 2:1 3:1 1:1 3:1
3:0 6:1 8:1 9:1 7:1 5:1 2:1 3:1 1:1 3:1 4:1
6:0 8:1 9:1 7:1 5:1 2:1 3:1 1:1 3:1 4:1 5:1
8:0 9:1 7:1 5:1 2:1 3:1 1:1 3:1 4:1 5:1 7:1
9:0 7:1 5:1 2:1 3:1 1:1 3:1 4:1 5:1 7:1 6:1
7:0 5:1 2:1 3:1 1:1 3:1 4:1 5:1 7:1 6:1 8:1
5:0 2:1 3:1 1:1 3:1 4:1 5:1 7:1 6:1 8:1 10:3
2:0 3:1 1:1 3:1 4:1 5:1 7:1 6:1 8:1 10:3 9:1
3:0 1:1 3:1 4:1 5:1 7:1 6:1 8:1 10:3 9:1 11:1
1:0 3:1 4:1 5:1 7:1 6:1 8:1 10:3 9:1 11:1 10:3
3:0 4:1 5:1 7:1 6:1 8:1 10:3 9:1 11:1 10:3 7:1
4:0 5:1 7:1 6:1 8:1 10:3 9:1 11:1 10:3 7:1 6:1
5:0 7:1 6:1 8:1 10:3 9:1 11:1 10:3 7:1 6:1 3:1
7:0 6:1 8:1 10:3 9:1 11:1 10:3 7:1 6:1 3:1 6:1
6:0 8:1 10:3 9:1 11:1 10:3 7:1 6:1 3:1 6:1 8:1
8:0 10:3 9:1 11:1 10:3 7:1 6:1 3:1 6:1 8:1 9:1
10:0 9:1 11:1 10:3 7:1 6:1 3:1 6:1 8:1 9:1 7:1
9:0 11:1 10:3 7:1 6:1 3:1 6:1 8:1 9:1 7:1 5:1
11:0 10:3 7:1 6:1 3:1 6:1 8:1 9:1 7:1 5:1 2:1
10:0 7:1 6:1 3:1 6:1 8:1 9:1 7:1 5:1 2:1 3:1
7:0 6:1 3:1 6:1 8:1 9:1 7:1 5:1 2:1 3:1 1:1
6:0 3:1 6:1 8:1 9:1 7:1 5:1 2:1 3:1 1:1 3:1
3:0 6:1 8:1 9:1 7:1 5:1 2:1 3:1 1:1 3:1 4:1
6:0 8:1 9:1 7:1 5:1 2:1 3:1 1:1 3:1 4:1 5:1
8:0 9:1 7:1 5:1 2:1 3:1 1:1 3:1 4:1 5:1 7:1
9:0 7:1 5:1 2:1 3:1 1:1 3:1 4:1 5:1 7:1 6:1
7:0 5:1 2:1 3:1 1:1 3:1 4:1 5:1 7:1 6:1 8:1
5:0 2:1 3:1 1:1 3:1 4:1 5:1 7:1 6:1 8:1 10:3
2:0 3:1 1:1 3:1 4:1 5:1 7:1 6:1 8:1 10:3 9:1
3:0 1:1 3:1 4:1 5:1 7:1 6:1 8:1 10:3 9:1 11:1
1:0 3:1 4:1 5:1 7:1 6:1 8:1 10:3 9:1 11:1 10:3
3:0 4:1 5:1 7:1 6:1 8:1 10:3 9:1 11:1 10:3 7:1
4:0 5:1 7:1 6:1 8:1 10:3 9:1 11:1 10:3 7:1 6:1
5:0 7:1 6:1 8:1 10:3 9:1 11:1 10:3 7:1 6:1 3:1
7:0 6:1 8:1 10:3 9:1 11:1 10:3 7:1 6:1 3:1 6:1
6:0 8:1 10:3 9:1 11:1 10:3 7:1 6:1 3:1 6:1 8:1
8:0 10:3 9:1 11:1 10:3 7:1 6:1 3:1 6:1 8:1 9:1
10:0 9:1 11:1 10:3 7:1 6:1 3:1 6:1 8:1 9:1 7:1
9:0 11:1 10:3 7:1 6:1 3:1 6:1 8:1 9:1 7:1 5:1
11:0 10:3 7:1 6:1 3:1 6:1 8:1 9:1 7:1 5:1 2:1
10:0 7:1 6:1 3:1 6:1 8:1 9:1 7:1 5:1 2:1 3:1
7:0 6:1 3:1 6:1 8:1 9:1 7:1 5:1 2:1 3:1 1:1
6:0 3:1 6:1 8:1 9:1 7:1 5:1 2:1 3:1 1:1 3:1
3:0 6:1 8:1 9:1 7:1 5:1 2:1 3:1 1:1 3:1 4:1
6:0 8:1 9:1 7:1 5:1 2:1 3:1 1:1 3:1 4:1 5:1
8:0 9:1 7:1 5:1 2:1 3:1 1:1 3:1 4:1 5:1 7:1
9:0 7:1 5:1 2:1 3:1 1:1 3:1 4:1 5:1 7:1 6:1
7:0 5:1 2:1 3:1 1:1 3:1 4:1 5:1 7:1 6:1 8:1
5:0 2:1 3:1 1:1 3:1 4:1 5:1 7:1 6:1 8:1 10:3
2:0 3:1 1:1 3:1 4:1 5:1 7:1 6:1 8:1 10:3 9:1
3:0 1:1 3:1 4:1 5:1 7:1 6:1 8:1 10:3 9:1 11:1
1:0 3:1 4:1 5:1 7:1 6:1 8:1 10:3 9:1 11:1 10:3
3:0 4:1 5:1 7:1 6:1 8:1 10:3 9:1 11:1 10:3 7:1
4:0 5:1 7:1 6:1 8:1 10:3 9:1 11:1 10:3 7:1 6:1
5:0 7:1 6:1 8:1 10:3 9:1 11:1 10:3 7:1 6:1 3:1
7:0 6:1 8:1 10:3 9:1 11:1 10:3 7:1 6:1 3:1 6:1
6:0 8:1 10:3 9:1 11:1 10:3 7:1 6:1 3:1 6:1 8:1
8:0 10:3 9:1 11:1 10:3 7:1 6:1 3:1 6:1 8:1 9:1
10:0 9:1 11:1 10:3 7:1 6:1 3:1 6:1 8:1 9:1 7:1
9:0 11:1 10:3 7:1 6:1 3:1 6:1 8:1 9:1 7:1 5:1
11:0 10:3 7:1 6:1 3:1 6:1 8:1 9:1 7:1 5:1 2:1
10:0 7:1 6:1 3:1 6:1 8:1 9:1 7:1 5:1 2:1 3:1
7:0 6:1 3:1 6:1 8:1 9:1 7:1 5:1 2:1 3:1 1:1
6:0 3:1 6:1 8:1 9:1 7:1 5:1 2:1 3:1 1:1 3:1
3:0 6:1 8:1 9:1 7:1 5:1 2:1 3:1 1:1 3:1 4:1
6:0 8:1 9:1 7:1 5:1 2:1 3:1 1:1 3:1 4:1 5:1
8:0 9:1 7:1 5:1 2:1 3:1 1:1 3:1 4:1 5:1 7:1
9:0 7:1 5:1 2:1 3:1 1:1 3:1 4:1 5:1 7:1 6:1
7:0 5:1 2:1 3:1 1:1 3:1 4:1 5:1 7:1 6:1 8:1
5:0 2:1 3:1 1:1 3:1 4:1 5:1 7:1 6:1 8:1 10:3
2:0 3:1 1:1 3:1 4:1 5:1 7:1 6:1 8:1 10:3 9:1
3:0 1:1 3:1 4:1 5:1 7:1 6:1 8:1 10:3 9:1 11:1
1:0 3:1 4:1 5:1 7:1 6:1 8:1 10:3 9:1 11:1 10:3
3:0 4:1 5:1 7:1 6:1 8:1 10:3 9:1 11:1 10:3 7:1
4:0 5:1 7:1 6:1 8:1 10:3 9:1 11:1 10:3 7:1 6:1
5:0 7:1 6:1 8:1 10:3 9:1 11:1 10:3 7:1 6:1 3:1
7:0 6:1 8:1 10:3 9:1 11:1 10:3 7:1 6:1 3:1 6:1
6:0 8:1 10:3 9:1 11:1 10:3 7:1 6:1 3:1 6:1 8:1
8:0 10:3 9:1 11:1 10:3 7:1 6:1 3:1 6:1 8:1 9:1
10:0 9:1 11:1 10:3 7:1 6:1 3:1 6:1 8:1 9:1 7:1
9:0 11:1 10:3 7:1 6:1 3:1 6:1 8:1 9:1 7:1 5:1
11:0 10:3 7:1 6:1 3:1 6:1 8:1 9:1 7:1 5:1 2:1
10:0 7:1 6:1 3:1 6:1 8:1 9:1 7:1 5:1 2:1 3:1
7:0 6:1 3:1 6:1 8:1 9:1 7:1 5:1 2:1 3:1 1:1
6:0 3:1 6:1 8:1 9:1 7:1 5:1 2:1 3:1 1:1 3:1
3:0 6:1 8:1 9:1 7:1 5:1 2:1 3:1 1:1 3:1 4:1
6:0 8:1 9:1 7:1 5:1 2:1 3:1 1:1 3:1 4:1 5:1
8:0 9:1 7:1 5:1 2:1 3:1 1:1 3:1 4:1 5:1 7:1
9:0 7:1 5:1 2:1 3:1 1:1 3:1 4:1 5:1 7:1 6:1
7:0 5:1 2:1 3:1 1:1 3:1 4:1 5:1 7:1 6:1 8:1
5:0 2:1 3:1 1:1 3:1 4:1 5:1 7:1 6:1 8:1 10:3
2:0 3:1 1:1 3:1 4:1 5:1 7:1 6:1 8:1 10:3 9:1
3:0 1:1 3:1 4:1 5:1 7:1 6:1 8:1 10:3 9:1 12:1
1:0 3:1 4:1 5:1 7:1 6:1 8:1 10:3 9:1 12:1 11:1
3:0 4:1 5:1 7:1 6:1 8:1 10:3 9:1 12:1 11:1 10:2
4:0 5:1 7:1 6:1 8:1 10:3 9:1 12:1 11:1 10:2 7:1
5:0 7:1 6:1 8:1 10:3 9:1 12:1 11:1 10:2 7:1 6:1
7:0 6:1 8:1 10:3 9:1 12:1 11:1 10:2 7:1 6:1 3:1
6:0 8:1 10:3 9:1 12:1 11:1 10:2 7:1 6:1 3:1 6:1
8:0 10:3 9:1 12:1 11:1 10:2 7:1 6:1 3:1 6:1 8:1
10:0 9:1 12:1 11:1 10:2 7:1 6:1 3:1 6:1 8:1 9:1
9:0 12:1 11:1 10:2 7:1 6:1 3:1 6:1 8:1 9:1 7:1
12:0 11:1 10:2 7:1 6:1 3:1 6:1 8:1 9:1 7:1 5:1
11:0 10:2 7:1 6:1 3:1 6:1 8:1 9:1 7:1 5:1 2:1
10:0 7:1 6:1 3:1 6:1 8:1 9:1 7:1 5:1 2:1 3:1
7:0 6:1 3:1 6:1 8:1 9:1 7:1 5:1 2:1 3:1 1:1
6:0 3:1 6:1 8:1 9:1 7:1 5:1 2:1 3:1 1:1 3:1
3:0 6:1 8:1 9:1 7:1 5:1 2:1 3:1 1:1 3:1 4:1
6:0 8:1 9:1 7:1 5:1 2:1 3:1 1:1 3:1 4:1 5:1
8:0 9:1 7:1 5:1 2:1 3:1 1:1 3:1 4:1 5:1 7:1
9:0 7:1 5:1 2:1 3:1 1:1 3:1 4:1 5:1 7:1 6:1
7:0 5:1 2:1 3:1 1:1 3:1 4:1 5:1 7:1 6:1 8:1
5:0 2:1 3:1 1:1 3:1 4:1 5:1 7:1 6:1 8:1 10:3
2:0 3:1 1:1 3:1 4:1 5:1 7:1 6:1 8:1 10:3 9:1
3:0 1:1 3:1 4:1 5:1 7:1 6:1 8:1 10:3 9:1 11:1
1:0 3:1 4:1 5:1 7:1 6:1 8:1 10:3 9:1 11:1 10:3
3:0 4:1 5:1 7:1 6:1 8:1 10:3 9:1 11:1 10:3 7:1
4:0 5:1 7:1 6:1 8:1 10:3 9:1 11:1 10:3 7:1 6:1
5:0 7:1 6:1 8:1 10:3 9:1 11:1 10:3 7:1 6:1 2:1
7:0 6:1 8:1 10:3 9:1 11:1 10:3 7:1 6:1 2:1 6:1
6:0 8:1 10:3 9:1 11:1 10:3 7:1 6:1 2:1 6:1 8:1
8:0 10:3 9:1 11:1 10:3 7:1 6:1 2:1 6:1 8:1 9:1
10:0 9:1 11:1 10:3 7:1 6:1 2:1 6:1 8:1 9:1 7:1
9:0 11:1 10:3 7:1 6:1 2:1 6:1 8:1 9:1 7:1 5:1
11:0 10:3 7:1 6:1 2:1 6:1 8:1 9:1 7:1 5:1 2:1
10:0 7:1 6:1 2:1 6:1 8:1 9:1 7:1 5:1 2:1 3:1
7:0 6:1 2:1 6:1 8:1 9:1 7:1 5:1 2:1 3:1 1:1
6:0 2:1 6:1 8:1 9:1 7:1 5:1 2:1 3:1 1:1 3:1
2:0 6:1 8:1 9:1 7:1 5:1 2:1 3:1 1:1 3:1 4:1
6:0 8:1 9:1 7:1 5:1 2:1 3:1 1:1 3:1 4:1 5:1
8:0 9:1 7:1 5:1 2:1 3:1 1:1 3:1 4:1 5:1 7:1
9:0 7:1 5:1 2:1 3:1 1:1 3:1 4:1 5:1 7:1 6:1
7:0 5:1 2:1 3:1 1:1 3:1 4:1 5:1 7:1 6:1 8:1
5:0 2:1 3:1 1:1 3:1 4:1 5:1 7:1 6:1 8:1 10:3
2:0 3:1 1:1 3:1 4:1 5:1 7:1 6:1 8:1 10:3 9:1
3:0 1:1 3:1 4:1 5:1 7:1 6:1 8:1 10:3 9:1 11:1
1:0 3:1 4:1 5:1 7:1 6:1 8:1 10:3 9:1 11:1 10:3
3:0 4:1 5:1 7:1 6:1 8:1 10:3 9:1 11:1 10:3 7:1
4:0 5:1 7:1 6:1 8:1 10:3 9:1 11:1 10:3 7:1 6:1
5:0 7:1 6:1 8:1 10:3 9:1 11:1 10:3 7:1 6:1 3:1
7:0 6:1 8:1 10:3 9:1 11:1 10:3 7:1 6:1 3:1 6:1
6:0 8:1 10:3 9:1 11:1 10:3 7:1 6:1 3:1 6:1 8:1
8:0 10:3 9:1 11:1 10:3 7:1 6:1 3:1 6:1 8:1 9:1
10:0 9:1 11:1 10:3 7:1 6:1 3:1 6:1 8:1 9:1 7:1
9:0 11:1 10:3 7:1 6:1 3:1 6:1 8:1 9:1 7:1 5:1
11:0 10:3 7:1 6:1 3:1 6:1 8:1 9:1 7:1 5:1 2:1
10:0 7:1 6:1 3:1 6:1 8:1 9:1 7:1 5:1 2:1 3:1
7:0 6:1 3:1 6:1 8:1 9:1 7:1 5:1 2:1 3:1 1:1
6:0 3:1 6:1 8:1 9:1 7:1 5:1 2:1 3:1 1:1 3:1
3:0 6:1 8:1 9:1 7:1 5:1 2:1 3:1 1:1 3:1 4:1
6:0 8:1 9:1 7:1 5:1 2:1 3:1 1:1 3:1 4:1 5:1
8:0 9:1 7:1 5:1 2:1 3:1 1:1 3:1 4:1 5:1 7:1
9:0 7:1 5:1 2:1 3:1 1:1 3:1 4:1 5:1 7:1 6:1
7:0 5:1 2:1 3:1 1:1 3:1 4:1 5:1 7:1 6:1 8:1
5:0 2:1 3:1 1:1 3:1 4:1 5:1 7:1 6:1 8:1 10:3
2:0 3:1 1:1 3:1 4:1 5:1 7:1 6:1 8:1 10:3 9:1
3:0 1:1 3:1 4:1 5:1 7:1 6:1 8:1 10:3 9:1 11:1
1:0 3:1 4:1 5:1 7:1 6:1 8:1 10:3 9:1 11:1 10:3
3:0 4:1 5:1 7:1 6:1 8:1 10:3 9:1 11:1 10:3 7:1
4:0 5:1 7:1 6:1 8:1 10:3 9:1 11:1 10:3 7:1 6:1
5:0 7:1 6:1 8:1 10:3 9:1 11:1 10:3 7:1 6:1 3:1
7:0 6:1 8:1 10:3 9:1 11:1 10:3 7:1 6:1 3:1 6:1
6:0 8:1 10:3 9:1 11:1 10:3 7:1 6:1 3:1 6:1 8:1
8:0 10:3 9:1 11:1 10:3 7:1 6:1 3:1 6:1 8:1 9:1
10:0 9:1 11:1 10:3 7:1 6:1 3:1 6:1 8:1 9:1 7:1
9:0 11:1 10:3 7:1 6:1 3:1 6:1 8:1 9:1 7:1 5:1
11:0 10:3 7:1 6:1 3:1 6:1 8:1 9:1 7:1 5:1 3:1
10:0 7:1 6:1 3:1 6:1 8:1 9:1 7:1 5:1 3:1 1:2
7:0 6:1 3:1 6:1 8:1 9:1 7:1 5:1 3:1 1:2 3:1
6:0 3:1 6:1 8:1 9:1 7:1 5:1 3:1 1:2 3:1 4:1
3:0 6:1 8:1 9:1 7:1 5:1 3:1 1:2 3:1 4:1 5:1
6:0 8:1 9:1 7:1 5:1 3:1 1:2 3:1 4:1 5:1 7:1
8:0 9:1 7:1 5:1 3:1 1:2 3:1 4:1 5:1 7:1 6:1
9:0 7:1 5:1 3:1 1:2 3:1 4:1 5:1 7:1 6:1 8:1
7:0 5:1 3:1 1:2 3:1 4:1 5:1 7:1 6:1 8:1 10:3
5:0 3:1 1:2 3:1 4:1 5:1 7:1 6:1 8:1 10:3 9:1
3:0 1:2 3:1 4:1 5:1 7:1 6:1 8:1 10:3 9:1 11:1
1:0 3:1 4:1 5:1 7:1 6:1 8:1 10:3 9:1 11:1 10:3
3:0 4:1 5:1 7:1 6:1 8:1 10:3 9:1 11:1 10:3 7:1
4:0 5:1 7:1 6:1 8:1 10:3 9:1 11:1 10:3 7:1 6:1
5:0 7:1 6:1 8:1 10:3 9:1 11:1 10:3 7:1 6:1 3:1
7:0 6:1 8:1 10:3 9:1 11:1 10:3 7:1 6:1 3:1 6:1
6:0 8:1 10:3 9:1 11:1 10:3 7:1 6:1 3:1 6:1 8:1
8:0 10:3 9:1 11:1 10:3 7:1 6:1 3:1 6:1 8:1 9:1
10:0 9:1 11:1 10:3 7:1 6:1 3:1 6:1 8:1 9:1 7:1
9:0 11:1 10:3 7:1 6:1 3:1 6:1 8:1 9:1 7:1 5:1
11:0 10:3 7:1 6:1 3:1 6:1 8:1 9:1 7:1 5:1 2:1
10:0 7:1 6:1 3:1 6:1 8:1 9:1 7:1 5:1 2:1 3:1
7:0 6:1 3:1 6:1 8:1 9:1 7:1 5:1 2:1 3:1 1:1
6:0 3:1 6:1 8:1 9:1 7:1 5:1 2:1 3:1 1:1 3:1
3:0 6:1 8:1 9:1 7:1 5:1 2:1 3:1 1:1 3:1 4:1
6:0 8:1 9:1 7:1 5:1 2:1 3:1 1:1 3:1 4:1 5:1
8:0 9:1 7:1 5:1 2:1 3:1 1:1 3:1 4:1 5:1 7:1
9:0 7:1 5:1 2:1 3:1 1:1 3:1 4:1 5:1 7:1 6:1
7:0 5:1 2:1 3:1 1:1 3:1 4:1 5:1 7:1 6:1 8:1
5:0 2:1 3:1 1:1 3:1 4:1 5:1 7:1 6:1 8:1 10:3
2:0 3:1 1:1 3:1 4:1 5:1 7:1 6:1 8:1 10:3 9:1
3:0 1:1 3:1 4:1 5:1 7:1 6:1 8:1 10:3 9:1 11:1
1:0 3:1 4:1 5:1 7:1 6:1 8:1 10:3 9:1 11:1 10:3
3:0 4:1 5:1 7:1 6:1 8:1 10:3 9:1 11:1 10:3 7:1
4:0 5:1 7:1 6:1 8:1 10:3 9:1 11:1 10:3 7:1 6:1
5:0 7:1 6:1 8:1 10:3 9:1 11:1 10:3 7:1 6:1 3:1
7:0 6:1 8:1 10:3 9:1 11:1 10:3 7:1 6:1 3:1 6:1
6:0 8:1 10:3 9:1 11:1 10:3 7:1 6:1 3:1 6:1 8:1
8:0 10:3 9:1 11:1 10:3 7:1 6:1 3:1 6:1 8:1 9:1
10:0 9:1 11:1 10:3 7:1 6:1 3:1 6:1 8:1 9:1 7:1
9:0 11:1 10:3 7:1 6:1 3:1 6:1 8:1 9:1 7:1 5:1
11:0 10:3 7:1 6:1 3:1 6:1 8:1 9:1 7:1 5:1 2:1
10:0 7:1 6:1 3:1 6:1 8:1 9:1 7:1 5:1 2:1 3:1
7:0 6:1 3:1 6:1 8:1 9:1 7:1 5:1 2:1 3:1 1:1
6:0 3:1 6:1 8:1 9:1 7:1 5:1 2:1 3:1 1:1 3:1
3:0 6:1 8:1 9:1 7:1 5:1 2:1 3:1 1:1 3:1 4:1
6:0 8:1 9:1 7:1 5:1 2:1 3:1 1:1 3:1 4:1 5:1
8:0 9:1 7:1 5:1 2:1 3:1 1:1 3:1 4:1 5:1 7:1
9:0 7:1 5:1 2:1 3:1 1:1 3:1 4:1 5:1 7:1 6:1
7:0 5:1 2:1 3:1 1:1 3:1 4:1 5:1 7:1 6:1 8:1
5:0 2:1 3:1 1:1 3:1 4:1 5:1 7:1 6:1 8:1 10:3
2:0 3:1 1:1 3:1 4:1 5:1 7:1 6:1 8:1 10:3 9:1
3:0 1:1 3:1 4:1 5:1 7:1 6:1 8:1 10:3 9:1 11:1
1:0 3:1 4:1 5:1 7:1 6:1 8:1 10:3 9:1 11:1 10:3
3:0 4:1 5:1 7:1 6:1 8:1 10:3 9:1 11:1 10:3 7:1
4:0 5:1 7:1 6:1 8:1 10:3 9:1 11:1 10:3 7:1 6:1
5:0 7:1 6:1 8:1 10:3 9:1 11:1 10:3 7:1 6:1 3:1
7:0 6:1 8:1 10:3 9:1 11:1 10:3 7:1 6:1 3:1 6:1
6:0 8:1 10:3 9:1 11:1 10:3 7:1 6:1 3:1 6:1 8:1
8:0 10:3 9:1 11:1 10:3 7:1 6:1 3:1 6:1 8:1 9:1
10:0 9:1 11:1 10:3 7:1 6:1 3:1 6:1 8:1 9:1 7:1
9:0 11:1 10:3 7:1 6:1 3:1 6:1 8:1 9:1 7:1 5:1
11:0 10:3 7:1 6:1 3:1 6:1 8:1 9:1 7:1 5:1 2:1
10:0 7:1 6:1 3:1 6:1 8:1 9:1 7:1 5:1 2:1 3:1
7:0 6:1 3:1 6:1 8:1 9:1 7:1 5:1 2:1 3:1 1:1
6:0 3:1 6:1 8:1 9:1 7:1 5:1 2:1 3:1 1:1 3:1
3:0 6:1 8:1 9:1 7:1 5:1 2:1 3:1 1:1 3:1 4:1
6:0 8:1 9:1 7:1 5:1 2:1 3:1 1:1 3:1 4:1 5:1
8:0 9:1 7:1 5:1 2:1 3:1 1:1 3:1 4:1 5:1 7:1
9:0 7:1 5:1 2:1 3:1 1:1 3:1 4:1 5:1 7:1 6:1
7:0 5:1 2:1 3:1 1:1 3:1 4:1 5:1 7:1 6:1 8:1
5:0 2:1 3:1 1:1 3:1 4:1 5:1 7:1 6:1 8:1 10:3
2:0 3:1 1:1 3:1 4:1 5:1 7:1 6:1 8:1 10:3 9:1
3:0 1:1 3:1 4:1 5:1 7:1 6:1 8:1 10:3 9:1 11:1
1:0 3:1 4:1 5:1 7:1 6:1 8:1 10:3 9:1 11:1 10:3
3:0 4:1 5:1 7:1 6:1 8:1 10:3 9:1 11:1 10:3 7:1
4:0 5:1 7:1 6:1 8:1 10:3 9:1 11:1 10:3 7:1 6:1
5:0 7:1 6:1 8:1 10:3 9:1 11:1 10:3 7:1 6:1 3:1
7:0 6:1 8:1 10:3 9:1 11:1 10:3 7:1 6:1 3:1 6:1
6:0 8:1 10:3 9:1 11:1 10:3 7:1 6:1 3:1 6:1 8:1
8:0 10:3 9:1 11:1 10:3 7:1 6:1 3:1 6:1 8:1 9:1
10:0 9:1 11:1 10:3 7:1 6:1 3:1 6:1 8:1 9:1 7:1
9:0 11:1 10:3 7:1 6:1 3:1 6:1 8:1 9:1 7:1 5:1
11:0 10:3 7:1 6:1 3:1 6:1 8:1 9:1 7:1 5:1 2:1
10:0 7:1 6:1 3:1 6:1 8:1 9:1 7:1 5:1 2:1 3:1
7:0 6:1 3:1 6:1 8:1 9:1 7:1 5:1 2:1 3:1 1:1
6:0 3:1 6:1 8:1 9:1 7:1 5:1 2:1 3:1 1:1 3:1
3:0 6:1 8:1 9:1 7:1 5:1 2:1 3:1 1:1 3:1 4:1
6:0 8:1 9:1 7:1 5:1 2:1 3:1 1:1 3:1 4:1 5:1
8:0 9:1 7:1 5:1 2:1 3:1 1:1 3:1 4:1 5:1 7:1
9:0 7:1 5:1 2:1 3:1 1:1 3:1 4:1 5:1 7:1 6:1
7:0 5:1 2:1 3:1 1:1 3:1 4:1 5:1 7:1 6:1
5:0 2:1 3:1 1:1 3:1 4:1 5:1 7:1 6:1
2:0 3:1 1:1 3:1 4:1 5:1 7:1 6:1
3:0 1:1 3:1 4:1 5:1 7:1 6:1
1:0 3:1 4:1 5:1 7:1 6:1
3:0 4:1 5:1 7:1 6:1
4:0 5:1 7:1 6:1
5:0 7:1 6:1
7:0 6:1
6:0
8:0 10:3 9:1 11:1 10:3 7:1 6:1 3:1 6:1 8:1 9:1 7:1 5:1 2:1 1:2 3:1 4:1 5:1 7:1 6:1 8:1 10:3 9:1 11:1 10:3 7:1 6:1 3:1 6:1 8:1 9:1 7:1 5:1 2:1 3:1 1:1 3:1 4:1 5:1 7:1 6:1 8:1 10:3 9:1 11:1 10:3 7:1 6:1 3:1 6:1 8:1 9:1 7:1 5:1 2:1 1:2 3:1 4:1 5:1 7:1 6:1 8:1 9:1 8:1 10:1 9:1 11:1 10:3 7:1 6:1 3:1 6:1 8:1 9:1 7:1 5:1 2:1 3:1 1:1 3:1 4:1 5:1 7:1 6:1 8:1 10:3 9:1 11:1 10:1 11:1 10:1 7:1 6:1 3:1 6:1 8:1 9:1 7:1 6:1 2:1 3:1 1:1 3:1 4:1 5:1 7:1 6:1 8:1 10:3 9:1 11:1 10:3 7:1 6:1 4:1 6:1 8:1 9:1 7:1 5:1 2:1 1:2 3:1 4:1 5:1 7:1 6:1 8:1 10:3 9:1 11:1 10:3 7:1 6:1 3:1 6:1 8:1 9:1 7:1 5:1 2:1 1:2 3:1 4:1 5:1 7:1 6:1 8:1 10:3 9:1 11:1 10:3 7:1 6:1 3:1 6:1 8:1 9:1 7:1 5:1 2:1 3:1 1:1 3:1 4:1 5:1 7:1 6:1 8:1 9:3 11:2 10:3 7:1 6:1 3:1 6:1 8:1 9:1 7:1 5:1 2:1 3:1 1:1 3:1 4:1 5:1 7:1 6:1 8:1 10:3 9:1 11:1 10:3 7:1 6:1 3:1 6:1 8:1 9:1 7:1 5:1 2:1 1:2 3:1 4:1 5:1 7:1 6:1 8:1 10:3 9:1 11:1 10:3 7:1 6:1 3:1 6:1 8:1 9:1 7:1 5:1 2:1 3:1 1:1 3:1 4:1 5:1 7:1 6:1 8:1 10:3 9:1 11:1 10:3 7:1 6:1 3:1 6:1 8:1 9:1 7:1 5:1 2:1 1:2 3:1 4:1 5:1 7:1 6:1 8:1 10:3 9:1 11:1 10:3 7:1 6:1 3:1 6:1 8:1 9:1 7:1 5:1 2:1 3:1 1:1 3:1 4:1 5:1 7:1 6:1 8:1 10:3 9:1 11:1 10:3 7:1 6:1 3:1 6:1 8:1 9:1 7:1 5:1 2:1 3:1 1:1 3:1 4:1 5:1 7:1 6:1 8:1 7:2 10:1 9:1 11:1 10:3 7:1 3:2 6:1 8:1 9:1 7:1 5:1 2:1 3:1 1:1 3:1 4:1 5:1 7:1 6:1 8:1 10:3 9:1 11:1 10:3 7:1 6:1 3:1 6:1 8:1 9:1 7:1 5:1 2:1 3:1 1:1 3:1 4:1 5:1 7:1 6:1 8:1 10:3 9:1 11:1 10:3 7:1 6:1 3:1 6:1 8:1 9:1 7:1 5:1 2:1 3:1 1:1 3:1 4:1 5:1 7:1 6:1 8:1 10:3 11:2 10:3 7:1 6:1 3:1 6:1 8:1 9:1 7:1 5:1 2:1 3:1 1:1 3:1 4:1 5:1 7:1 6:1 8:1 10:3 9:1 11:1 10:3 7:1 6:1 3:1 6:1 8:1 9:1 7:1 5:1 2:1 3:1 1:1 3:1 4:1 5:1 7:1 6:1 8:1 10:3 9:1 11:1 10:3 7:1 6:1 3:1 6:1 8:1 9:1 7:1 5:1 2:1 3:1 1:1 3:1 4:1 5:1 7:1 6:1 8:1 9:1 8:1 10:1 9:1 11:1 10:3 7:1 6:1 3:1 5:1 8:1 9:1 7:1 5:1 2:1 1:2 3:1 4:1 5:1 7:1 6:1 8:1 10:3 9:1 11:1 10:3 7:1 6:1 3:1 6:1 8:1 9:1 7:1 5:1 2:1 3:1 1:1 4:1 5:2 7:1 6:1 8:1 10:3 9:1 11:1 10:3 7:1 6:1 3:1 6:1 8:1 9:1 6:1 5:1 2:1 3:1 1:1 3:1 4:1 5:1 7:1 6:1 8:1 10:3 9:1 11:1 10:3 7:1 6:1 3:1 6:1 8:1 9:1 7:1 5:1 2:1 3:1 1:1 3:1 4:1 5:1 7:1 6:1 8:1 9:3 11:2 10:3 7:1 6:1 3:1 6:1 8:1 9:1 6:1 5:1 2:1 3:1 1:1 3:1 4:1 5:1 7:1 6:1 8:1 10:3 9:1 11:1 10:3 7:1 6:1 3:1 6:1 8:1 10:1 7:1 5:1 2:1 3:1 1:1 3:1 4:1 5:1 7:1 6:1 8:1 10:3 9:1 11:1 10:3 7:1 6:1 3:1 6:1 8:1 9:1 7:1 5:1 2:1 3:1 1:1 3:1 4:1 5:1 7:1 6:1 8:1 10:3 9:1 11:1 10:3 7:1 3:2 6:1 8:1 9:1 7:1 5:1 2:1 3:1 1:1 3:1 4:1 5:1 7:1 6:1 8:1 10:3 9:1 11:1 10:3 7:1 6:1 3:1 6:1 8:1 9:1 7:1 5:1 2:1 3:1 1:1 3:1 4:1 5:1 7:1 6:1 8:1 10:3 9:1 11:1 10:3 7:1 6:1 3:1 6:1 8:1 9:1 7:1 5:1 2:1 3:1 1:1 3:1 4:1 5:1 7:1 6:1 8:1 10:3 9:1 11:1 10:3 7:1 6:1 3:1 6:1 8:1 9:1 7:1 5:1 2:1 3:1 1:1 3:1 4:1 5:1 7:1 6:1 8:1 10:3 9:1 11:1 10:3 7:1 6:1 3:1 6:1 8:1 9:1 7:1 5:1 2:1 3:1 1:1 3:1 4:1 5:1 7:1 6:1 8:1 10:3 9:1 12:1 11:1 10:2 7:1 6:1 3:1 6:1 8:1 9:1 7:1 5:1 2:1 3:1 1:1 3:1 4:1 5:1 7:1 6:1 8:1 10:3 9:1 11:1 10:3 7:1 6:1 2:1 6:1 8:1 9:1 7:1 5:1 2:1 3:1 1:1 3:1 4:1 5:1 7:1 6:1 8:1 10:3 9:1 11:1 10:3 7:1 6:1 3:1 6:1 8:1 9:1 7:1 5:1 2:1 3:1 1:1 3:1 4:1 5:1 7:1 6:1 8:1 10:3 9:1 11:1 10:3 7:1 6:1 3:1 6:1 8:1 9:1 7:1 5:1 3:1 1:2 3:1 4:1 5:1 7:1 6:1 8:1 10:3 9:1 11:1 10:3 7:1 6:1 3:1 6:1 8:1 9:1 7:1 5:1 2:1 3:1 1:1 3:1 4:1 5:1 7:1 6:1 8:1 10:3 9:1 11:1 10:3 7:1 6:1 3:1 6:1 8:1 9:1 7:1 5:1 2:1 3:1 1:1 3:1 4:1 5:1 7:1 6:1 8:1 10:3 9:1 11:1 10:3 7:1 6:1 3:1 6:1 8:1 9:1 7:1 5:1 2:1 3:1 1:1 3:1 4:1 5:1 7:1 6:1 8:1 10:3 9:1 11:1 10:3 7:1 6:1 3:1 6:1 8:1 9:1 7:1 5:1 2:1 3:1 1:1 3:1 4:1 5:1 7:1 6:1