1:0 2:2 1:3 2:1 3:3 2:1 3:2 4:2 5:2 6:2 7:4
2:0 1:3 2:1 3:3 2:1 3:2 4:2 5:2 6:2 7:4 1:3
1:0 2:1 3:3 2:1 3:2 4:2 5:2 6:2 7:4 1:3 2:2
2:0 3:3 2:1 3:2 4:2 5:2 6:2 7:4 1:3 2:2 1:3
3:0 2:1 3:2 4:2 5:2 6:2 7:4 1:3 2:2 1:3 2:1
2:0 3:2 4:2 5:2 6:2 7:4 1:3 2:2 1:3 2:1 3:3
3:0 4:2 5:2 6:2 7:4 1:3 2:2 1:3 2:1 3:3 2:1
4:0 5:2 6:2 7:4 1:3 2:2 1:3 2:1 3:3 2:1 3:2
5:0 6:2 7:4 1:3 2:2 1:3 2:1 3:3 2:1 3:2 4:2
6:0 7:4 1:3 2:2 1:3 2:1 3:3 2:1 3:2 4:2 5:2
7:0 1:3 2:2 1:3 2:1 3:3 2:1 3:2 4:2 5:2 6:2
1:0 2:2 1:3 2:1 3:3 2:1 3:2 4:2 5:2 6:2 7:4
2:0 1:3 2:1 3:3 2:1 3:2 4:2 5:2 6:2 7:4 1:3
1:0 2:1 3:3 2:1 3:2 4:2 5:2 6:2 7:4 1:3 2:2
2:0 3:3 2:1 3:2 4:2 5:2 6:2 7:4 1:3 2:2 1:3
3:0 2:1 3:2 4:2 5:2 6:2 7:4 1:3 2:2 1:3 2:1
2:0 3:2 4:2 5:2 6:2 7:4 1:3 2:2 1:3 2:1 3:3
3:0 4:2 5:2 6:2 7:4 1:3 2:2 1:3 2:1 3:3 2:1
4:0 5:2 6:2 7:4 1:3 2:2 1:3 2:1 3:3 2:1 3:2
5:0 6:2 7:4 1:3 2:2 1:3 2:1 3:3 2:1 3:2 4:2
6:0 7:4 1:3 2:2 1:3 2:1 3:3 2:1 3:2 4:2 5:2
7:0 1:3 2:2 1:3 2:1 3:3 2:1 3:2 4:2 5:2 6:2
1:0 2:2 1:3 2:1 3:3 2:1 3:2 4:2 5:2 6:2 7:4
2:0 1:3 2:1 3:3 2:1 3:2 4:2 5:2 6:2 7:4 1:3
1:0 2:1 3:3 2:1 3:2 4:2 5:2 6:2 7:4 1:3 2:2
2:0 3:3 2:1 3:2 4:2 5:2 6:2 7:4 1:3 2:2 1:3
3:0 2:1 3:2 4:2 5:2 6:2 7:4 1:3 2:2 1:3 2:1
2:0 3:2 4:2 5:2 6:2 7:4 1:3 2:2 1:3 2:1 3:3
3:0 4:2 5:2 6:2 7:4 1:3 2:2 1:3 2:1 3:3 2:1
4:0 5:2 6:2 7:4 1:3 2:2 1:3 2:1 3:3 2:1 3:2
5:0 6:2 7:4 1:3 2:2 1:3 2:1 3:3 2:1 3:2 4:2
6:0 7:4 1:3 2:2 1:3 2:1 3:3 2:1 3:2 4:2 5:2
7:0 1:3 2:2 1:3 2:1 3:3 2:1 3:2 4:2 5:2 6:2
1:0 2:2 1:3 2:1 3:3 2:1 3:2 4:2 5:2 6:2 7:4
2:0 1:3 2:1 3:3 2:1 3:2 4:2 5:2 6:2 7:4 1:3
1:0 2:1 3:3 2:1 3:2 4:2 5:2 6:2 7:4 1:3 2:2
2:0 3:3 2:1 3:2 4:2 5:2 6:2 7:4 1:3 2:2 1:3
3:0 2:1 3:2 4:2 5:2 6:2 7:4 1:3 2:2 1:3 2:1
2:0 3:2 4:2 5:2 6:2 7:4 1:3 2:2 1:3 2:1 3:3
3:0 4:2 5:2 6:2 7:4 1:3 2:2 1:3 2:1 3:3 2:1
4:0 5:2 6:2 7:4 1:3 2:2 1:3 2:1 3:3 2:1 3:2
5:0 6:2 7:4 1:3 2:2 1:3 2:1 3:3 2:1 3:2 4:2
6:0 7:4 1:3 2:2 1:3 2:1 3:3 2:1 3:2 4:2 5:2
7:0 1:3 2:2 1:3 2:1 3:3 2:1 3:2 4:2 5:2 6:2
1:0 2:2 1:3 2:1 3:3 2:1 3:2 4:2 5:2 6:2 7:4
2:0 1:3 2:1 3:3 2:1 3:2 4:2 5:2 6:2 7:4 1:3
1:0 2:1 3:3 2:1 3:2 4:2 5:2 6:2 7:4 1:3 2:2
2:0 3:3 2:1 3:2 4:2 5:2 6:2 7:4 1:3 2:2 1:3
3:0 2:1 3:2 4:2 5:2 6:2 7:4 1:3 2:2 1:3 2:1
2:0 3:2 4:2 5:2 6:2 7:4 1:3 2:2 1:3 2:1 3:3
3:0 4:2 5:2 6:2 7:4 1:3 2:2 1:3 2:1 3:3 2:1
4:0 5:2 6:2 7:4 1:3 2:2 1:3 2:1 3:3 2:1 3:2
5:0 6:2 7:4 1:3 2:2 1:3 2:1 3:3 2:1 3:2 4:2
6:0 7:4 1:3 2:2 1:3 2:1 3:3 2:1 3:2 4:2 5:2
7:0 1:3 2:2 1:3 2:1 3:3 2:1 3:2 4:2 5:2 6:2
1:0 2:2 1:3 2:1 3:3 2:1 3:2 4:2 5:2 6:2 7:4
2:0 1:3 2:1 3:3 2:1 3:2 4:2 5:2 6:2 7:4 1:3
1:0 2:1 3:3 2:1 3:2 4:2 5:2 6:2 7:4 1:3 2:2
2:0 3:3 2:1 3:2 4:2 5:2 6:2 7:4 1:3 2:2 1:3
3:0 2:1 3:2 4:2 5:2 6:2 7:4 1:3 2:2 1:3 2:1
2:0 3:2 4:2 5:2 6:2 7:4 1:3 2:2 1:3 2:1 3:3
3:0 4:2 5:2 6:2 7:4 1:3 2:2 1:3 2:1 3:3 2:1
4:0 5:2 6:2 7:4 1:3 2:2 1:3 2:1 3:3 2:1 3:2
5:0 6:2 7:4 1:3 2:2 1:3 2:1 3:3 2:1 3:2 4:2
6:0 7:4 1:3 2:2 1:3 2:1 3:3 2:1 3:2 4:2 5:2
7:0 1:3 2:2 1:3 2:1 3:3 2:1 3:2 4:2 5:2 6:2
1:0 2:2 1:3 2:1 3:3 2:1 3:2 4:2 5:2 6:2 7:4
2:0 1:3 2:1 3:3 2:1 3:2 4:2 5:2 6:2 7:4 1:3
1:0 2:1 3:3 2:1 3:2 4:2 5:2 6:2 7:4 1:3 2:2
2:0 3:3 2:1 3:2 4:2 5:2 6:2 7:4 1:3 2:2 1:3
3:0 2:1 3:2 4:2 5:2 6:2 7:4 1:3 2:2 1:3 2:1
2:0 3:2 4:2 5:2 6:2 7:4 1:3 2:2 1:3 2:1 3:3
3:0 4:2 5:2 6:2 7:4 1:3 2:2 1:3 2:1 3:3 2:1
4:0 5:2 6:2 7:4 1:3 2:2 1:3 2:1 3:3 2:1 3:2
5:0 6:2 7:4 1:3 2:2 1:3 2:1 3:3 2:1 3:2 4:2
6:0 7:4 1:3 2:2 1:3 2:1 3:3 2:1 3:2 4:2 5:2
7:0 1:3 2:2 1:3 2:1 3:3 2:1 3:2 4:2 5:2 6:2
1:0 2:2 1:3 2:1 3:3 2:1 3:2 4:2 5:2 6:2 7:4
2:0 1:3 2:1 3:3 2:1 3:2 4:2 5:2 6:2 7:4 1:3
1:0 2:1 3:3 2:1 3:2 4:2 5:2 6:2 7:4 1:3 2:2
2:0 3:3 2:1 3:2 4:2 5:2 6:2 7:4 1:3 2:2 1:3
3:0 2:1 3:2 4:2 5:2 6:2 7:4 1:3 2:2 1:3 2:1
2:0 3:2 4:2 5:2 6:2 7:4 1:3 2:2 1:3 2:1 3:3
3:0 4:2 5:2 6:2 7:4 1:3 2:2 1:3 2:1 3:3 2:1
4:0 5:2 6:2 7:4 1:3 2:2 1:3 2:1 3:3 2:1 3:2
5:0 6:2 7:4 1:3 2:2 1:3 2:1 3:3 2:1 3:2 4:2
6:0 7:4 1:3 2:2 1:3 2:1 3:3 2:1 3:2 4:2 5:2
7:0 1:3 2:2 1:3 2:1 3:3 2:1 3:2 4:2 5:2 6:2
1:0 2:2 1:3 2:1 3:3 2:1 3:2 4:2 5:2 6:2 7:4
2:0 1:3 2:1 3:3 2:1 3:2 4:2 5:2 6:2 7:4 1:3
1:0 2:1 3:3 2:1 3:2 4:2 5:2 6:2 7:4 1:3 2:2
2:0 3:3 2:1 3:2 4:2 5:2 6:2 7:4 1:3 2:2 1:3
3:0 2:1 3:2 4:2 5:2 6:2 7:4 1:3 2:2 1:3 2:1
2:0 3:2 4:2 5:2 6:2 7:4 1:3 2:2 1:3 2:1 3:3
3:0 4:2 5:2 6:2 7:4 1:3 2:2 1:3 2:1 3:3 2:1
4:0 5:2 6:2 7:4 1:3 2:2 1:3 2:1 3:3 2:1 3:2
5:0 6:2 7:4 1:3 2:2 1:3 2:1 3:3 2:1 3:2 4:2
6:0 7:4 1:3 2:2 1:3 2:1 3:3 2:1 3:2 4:2 5:2
7:0 1:3 2:2 1:3 2:1 3:3 2:1 3:2 4:2 5:2 6:2
1:0 2:2 1:3 2:1 3:3 2:1 3:2 4:2 5:2 6:2 7:4
2:0 1:3 2:1 3:3 2:1 3:2 4:2 5:2 6:2 7:4 1:3
1:0 2:1 3:3 2:1 3:2 4:2 5:2 6:2 7:4 1:3 2:2
2:0 3:3 2:1 3:2 4:2 5:2 6:2 7:4 1:3 2:2 1:3
3:0 2:1 3:2 4:2 5:2 6:2 7:4 1:3 2:2 1:3 2:1
2:0 3:2 4:2 5:2 6:2 7:4 1:3 2:2 1:3 2:1 3:3
3:0 4:2 5:2 6:2 7:4 1:3 2:2 1:3 2:1 3:3 2:1
4:0 5:2 6:2 7:4 1:3 2:2 1:3 2:1 3:3 2:1 3:2
5:0 6:2 7:4 1:3 2:2 1:3 2:1 3:3 2:1 3:2 4:1
6:0 7:4 1:3 2:2 1:3 2:1 3:3 2:1 3:2 4:1 5:3
7:0 1:3 2:2 1:3 2:1 3:3 2:1 3:2 4:1 5:3 6:2
1:0 2:2 1:3 2:1 3:3 2:1 3:2 4:1 5:3 6:2 7:4
2:0 1:3 2:1 3:3 2:1 3:2 4:1 5:3 6:2 7:4 1:3
1:0 2:1 3:3 2:1 3:2 4:1 5:3 6:2 7:4 1:3 2:2
2:0 3:3 2:1 3:2 4:1 5:3 6:2 7:4 1:3 2:2 1:3
3:0 2:1 3:2 4:1 5:3 6:2 7:4 1:3 2:2 1:3 2:1
2:0 3:2 4:1 5:3 6:2 7:4 1:3 2:2 1:3 2:1 3:3
3:0 4:1 5:3 6:2 7:4 1:3 2:2 1:3 2:1 3:3 2:1
4:0 5:3 6:2 7:4 1:3 2:2 1:3 2:1 3:3 2:1 3:2
5:0 6:2 7:4 1:3 2:2 1:3 2:1 3:3 2:1 3:2 4:2
6:0 7:4 1:3 2:2 1:3 2:1 3:3 2:1 3:2 4:2 5:2
7:0 1:3 2:2 1:3 2:1 3:3 2:1 3:2 4:2 5:2 6:2
1:0 2:2 1:3 2:1 3:3 2:1 3:2 4:2 5:2 6:2 7:4
2:0 1:3 2:1 3:3 2:1 3:2 4:2 5:2 6:2 7:4 1:3
1:0 2:1 3:3 2:1 3:2 4:2 5:2 6:2 7:4 1:3 2:2
2:0 3:3 2:1 3:2 4:2 5:2 6:2 7:4 1:3 2:2 1:3
3:0 2:1 3:2 4:2 5:2 6:2 7:4 1:3 2:2 1:3 2:1
2:0 3:2 4:2 5:2 6:2 7:4 1:3 2:2 1:3 2:1 3:3
3:0 4:2 5:2 6:2 7:4 1:3 2:2 1:3 2:1 3:3 2:1
4:0 5:2 6:2 7:4 1:3 2:2 1:3 2:1 3:3 2:1 3:2
5:0 6:2 7:4 1:3 2:2 1:3 2:1 3:3 2:1 3:2 4:2
6:0 7:4 1:3 2:2 1:3 2:1 3:3 2:1 3:2 4:2 5:2
7:0 1:3 2:2 1:3 2:1 3:3 2:1 3:2 4:2 5:2 6:2
1:0 2:2 1:3 2:1 3:3 2:1 3:2 4:2 5:2 6:2 7:4
2:0 1:3 2:1 3:3 2:1 3:2 4:2 5:2 6:2 7:4 1:3
1:0 2:1 3:3 2:1 3:2 4:2 5:2 6:2 7:4 1:3 2:2
2:0 3:3 2:1 3:2 4:2 5:2 6:2 7:4 1:3 2:2 1:3
3:0 2:1 3:2 4:2 5:2 6:2 7:4 1:3 2:2 1:3 2:1
2:0 3:2 4:2 5:2 6:2 7:4 1:3 2:2 1:3 2:1 3:3
3:0 4:2 5:2 6:2 7:4 1:3 2:2 1:3 2:1 3:3 2:1
4:0 5:2 6:2 7:4 1:3 2:2 1:3 2:1 3:3 2:1 3:2
5:0 6:2 7:4 1:3 2:2 1:3 2:1 3:3 2:1 3:2 4:2
6:0 7:4 1:3 2:2 1:3 2:1 3:3 2:1 3:2 4:2 5:2
7:0 1:3 2:2 1:3 2:1 3:3 2:1 3:2 4:2 5:2 6:2
1:0 2:2 1:3 2:1 3:3 2:1 3:2 4:2 5:2 6:2 7:4
2:0 1:3 2:1 3:3 2:1 3:2 4:2 5:2 6:2 7:4 1:3
1:0 2:1 3:3 2:1 3:2 4:2 5:2 6:2 7:4 1:3 2:2
2:0 3:3 2:1 3:2 4:2 5:2 6:2 7:4 1:3 2:2 1:3
3:0 2:1 3:2 4:2 5:2 6:2 7:4 1:3 2:2 1:3 2:1
2:0 3:2 4:2 5:2 6:2 7:4 1:3 2:2 1:3 2:1 3:3
3:0 4:2 5:2 6:2 7:4 1:3 2:2 1:3 2:1 3:3 2:1
4:0 5:2 6:2 7:4 1:3 2:2 1:3 2:1 3:3 2:1 3:2
5:0 6:2 7:4 1:3 2:2 1:3 2:1 3:3 2:1 3:2 4:2
6:0 7:4 1:3 2:2 1:3 2:1 3:3 2:1 3:2 4:2 5:2
7:0 1:3 2:2 1:3 2:1 3:3 2:1 3:2 4:2 5:2 6:2
1:0 2:2 1:3 2:1 3:3 2:1 3:2 4:2 5:2 6:2 7:4
2:0 1:3 2:1 3:3 2:1 3:2 4:2 5:2 6:2 7:4 1:3
1:0 2:1 3:3 2:1 3:2 4:2 5:2 6:2 7:4 1:3 2:2
2:0 3:3 2:1 3:2 4:2 5:2 6:2 7:4 1:3 2:2 1:3
3:0 2:1 3:2 4:2 5:2 6:2 7:4 1:3 2:2 1:3 2:1
2:0 3:2 4:2 5:2 6:2 7:4 1:3 2:2 1:3 2:1 3:3
3:0 4:2 5:2 6:2 7:4 1:3 2:2 1:3 2:1 3:3 2:1
4:0 5:2 6:2 7:4 1:3 2:2 1:3 2:1 3:3 2:1 3:2
5:0 6:2 7:4 1:3 2:2 1:3 2:1 3:3 2:1 3:2 4:1
6:0 7:4 1:3 2:2 1:3 2:1 3:3 2:1 3:2 4:1 5:3
7:0 1:3 2:2 1:3 2:1 3:3 2:1 3:2 4:1 5:3 6:2
1:0 2:2 1:3 2:1 3:3 2:1 3:2 4:1 5:3 6:2 7:4
2:0 1:3 2:1 3:3 2:1 3:2 4:1 5:3 6:2 7:4 1:3
1:0 2:1 3:3 2:1 3:2 4:1 5:3 6:2 7:4 1:3 2:2
2:0 3:3 2:1 3:2 4:1 5:3 6:2 7:4 1:3 2:2 1:2
3:0 2:1 3:2 4:1 5:3 6:2 7:4 1:3 2:2 1:2 2:2
2:0 3:2 4:1 5:3 6:2 7:4 1:3 2:2 1:2 2:2 3:3
3:0 4:1 5:3 6:2 7:4 1:3 2:2 1:2 2:2 3:3 2:1
4:0 5:3 6:2 7:4 1:3 2:2 1:2 2:2 3:3 2:1 3:2
5:0 6:2 7:4 1:3 2:2 1:2 2:2 3:3 2:1 3:2 4:1
6:0 7:4 1:3 2:2 1:2 2:2 3:3 2:1 3:2 4:1 5:3
7:0 1:3 2:2 1:2 2:2 3:3 2:1 3:2 4:1 5:3 6:2
1:0 2:2 1:2 2:2 3:3 2:1 3:2 4:1 5:3 6:2 7:4
2:0 1:2 2:2 3:3 2:1 3:2 4:1 5:3 6:2 7:4 1:3
1:0 2:2 3:3 2:1 3:2 4:1 5:3 6:2 7:4 1:3 2:2
2:0 3:3 2:1 3:2 4:1 5:3 6:2 7:4 1:3 2:2 1:3
3:0 2:1 3:2 4:1 5:3 6:2 7:4 1:3 2:2 1:3 2:1
2:0 3:2 4:1 5:3 6:2 7:4 1:3 2:2 1:3 2:1 3:3
3:0 4:1 5:3 6:2 7:4 1:3 2:2 1:3 2:1 3:3 2:1
4:0 5:3 6:2 7:4 1:3 2:2 1:3 2:1 3:3 2:1 3:2
5:0 6:2 7:4 1:3 2:2 1:3 2:1 3:3 2:1 3:2 4:2
6:0 7:4 1:3 2:2 1:3 2:1 3:3 2:1 3:2 4:2 5:2
7:0 1:3 2:2 1:3 2:1 3:3 2:1 3:2 4:2 5:2 6:2
1:0 2:2 1:3 2:1 3:3 2:1 3:2 4:2 5:2 6:2 7:4
2:0 1:3 2:1 3:3 2:1 3:2 4:2 5:2 6:2 7:4 1:3
1:0 2:1 3:3 2:1 3:2 4:2 5:2 6:2 7:4 1:3 2:2
2:0 3:3 2:1 3:2 4:2 5:2 6:2 7:4 1:3 2:2 1:3
3:0 2:1 3:2 4:2 5:2 6:2 7:4 1:3 2:2 1:3 2:1
2:0 3:2 4:2 5:2 6:2 7:4 1:3 2:2 1:3 2:1 3:3
3:0 4:2 5:2 6:2 7:4 1:3 2:2 1:3 2:1 3:3 2:1
4:0 5:2 6:2 7:4 1:3 2:2 1:3 2:1 3:3 2:1 3:2
5:0 6:2 7:4 1:3 2:2 1:3 2:1 3:3 2:1 3:2 4:2
6:0 7:4 1:3 2:2 1:3 2:1 3:3 2:1 3:2 4:2 5:2
7:0 1:3 2:2 1:3 2:1 3:3 2:1 3:2 4:2 5:2 6:2
1:0 2:2 1:3 2:1 3:3 2:1 3:2 4:2 5:2 6:2 7:4
2:0 1:3 2:1 3:3 2:1 3:2 4:2 5:2 6:2 7:4 1:3
1:0 2:1 3:3 2:1 3:2 4:2 5:2 6:2 7:4 1:3 2:2
2:0 3:3 2:1 3:2 4:2 5:2 6:2 7:4 1:3 2:2 1:3
3:0 2:1 3:2 4:2 5:2 6:2 7:4 1:3 2:2 1:3 2:1
2:0 3:2 4:2 5:2 6:2 7:4 1:3 2:2 1:3 2:1 3:3
3:0 4:2 5:2 6:2 7:4 1:3 2:2 1:3 2:1 3:3 2:1
4:0 5:2 6:2 7:4 1:3 2:2 1:3 2:1 3:3 2:1 3:2
5:0 6:2 7:4 1:3 2:2 1:3 2:1 3:3 2:1 3:2 4:2
6:0 7:4 1:3 2:2 1:3 2:1 3:3 2:1 3:2 4:2 5:2
7:0 1:3 2:2 1:3 2:1 3:3 2:1 3:2 4:2 5:2 6:2
1:0 2:2 1:3 2:1 3:3 2:1 3:2 4:2 5:2 6:2 7:4
2:0 1:3 2:1 3:3 2:1 3:2 4:2 5:2 6:2 7:4 1:3
1:0 2:1 3:3 2:1 3:2 4:2 5:2 6:2 7:4 1:3 2:2
2:0 3:3 2:1 3:2 4:2 5:2 6:2 7:4 1:3 2:2 1:3
3:0 2:1 3:2 4:2 5:2 6:2 7:4 1:3 2:2 1:3 2:1
2:0 3:2 4:2 5:2 6:2 7:4 1:3 2:2 1:3 2:1 3:3
3:0 4:2 5:2 6:2 7:4 1:3 2:2 1:3 2:1 3:3 2:1
4:0 5:2 6:2 7:4 1:3 2:2 1:3 2:1 3:3 2:1 3:2
5:0 6:2 7:4 1:3 2:2 1:3 2:1 3:3 2:1 3:2 4:2
6:0 7:4 1:3 2:2 1:3 2:1 3:3 2:1 3:2 4:2 5:2
7:0 1:3 2:2 1:3 2:1 3:3 2:1 3:2 4:2 5:2 6:2
1:0 2:2 1:3 2:1 3:3 2:1 3:2 4:2 5:2 6:2 7:4
2:0 1:3 2:1 3:3 2:1 3:2 4:2 5:2 6:2 7:4 1:3
1:0 2:1 3:3 2:1 3:2 4:2 5:2 6:2 7:4 1:3 2:2
2:0 3:3 2:1 3:2 4:2 5:2 6:2 7:4 1:3 2:2 1:3
3:0 2:1 3:2 4:2 5:2 6:2 7:4 1:3 2:2 1:3 2:1
2:0 3:2 4:2 5:2 6:2 7:4 1:3 2:2 1:3 2:1 3:3
3:0 4:2 5:2 6:2 7:4 1:3 2:2 1:3 2:1 3:3 2:1
4:0 5:2 6:2 7:4 1:3 2:2 1:3 2:1 3:3 2:1 3:2
5:0 6:2 7:4 1:3 2:2 1:3 2:1 3:3 2:1 3:2 4:2
6:0 7:4 1:3 2:2 1:3 2:1 3:3 2:1 3:2 4:2 5:2
7:0 1:3 2:2 1:3 2:1 3:3 2:1 3:2 4:2 5:2 6:2
1:0 2:2 1:3 2:1 3:3 2:1 3:2 4:2 5:2 6:2 7:4
2:0 1:3 2:1 3:3 2:1 3:2 4:2 5:2 6:2 7:4 1:3
1:0 2:1 3:3 2:1 3:2 4:2 5:2 6:2 7:4 1:3 2:2
2:0 3:3 2:1 3:2 4:2 5:2 6:2 7:4 1:3 2:2 1:3
3:0 2:1 3:2 4:2 5:2 6:2 7:4 1:3 2:2 1:3 2:1
2:0 3:2 4:2 5:2 6:2 7:4 1:3 2:2 1:3 2:1 3:3
3:0 4:2 5:2 6:2 7:4 1:3 2:2 1:3 2:1 3:3 2:1
4:0 5:2 6:2 7:4 1:3 2:2 1:3 2:1 3:3 2:1 3:2
5:0 6:2 7:4 1:3 2:2 1:3 2:1 3:3 2:1 3:2 4:2
6:0 7:4 1:3 2:2 1:3 2:1 3:3 2:1 3:2 4:2 5:2
7:0 1:3 2:2 1:3 2:1 3:3 2:1 3:2 4:2 5:2 6:2
1:0 2:2 1:3 2:1 3:3 2:1 3:2 4:2 5:2 6:2 7:4
2:0 1:3 2:1 3:3 2:1 3:2 4:2 5:2 6:2 7:4 1:3
1:0 2:1 3:3 2:1 3:2 4:2 5:2 6:2 7:4 1:3 2:2
2:0 3:3 2:1 3:2 4:2 5:2 6:2 7:4 1:3 2:2 1:3
3:0 2:1 3:2 4:2 5:2 6:2 7:4 1:3 2:2 1:3 2:1
2:0 3:2 4:2 5:2 6:2 7:4 1:3 2:2 1:3 2:1 3:3
3:0 4:2 5:2 6:2 7:4 1:3 2:2 1:3 2:1 3:3 2:1
4:0 5:2 6:2 7:4 1:3 2:2 1:3 2:1 3:3 2:1 3:2
5:0 6:2 7:4 1:3 2:2 1:3 2:1 3:3 2:1 3:2 4:2
6:0 7:4 1:3 2:2 1:3 2:1 3:3 2:1 3:2 4:2 5:2
7:0 1:3 2:2 1:3 2:1 3:3 2:1 3:2 4:2 5:2 6:2
1:0 2:2 1:3 2:1 3:3 2:1 3:2 4:2 5:2 6:2 7:4
2:0 1:3 2:1 3:3 2:1 3:2 4:2 5:2 6:2 7:4 1:3
1:0 2:1 3:3 2:1 3:2 4:2 5:2 6:2 7:4 1:3 2:2
2:0 3:3 2:1 3:2 4:2 5:2 6:2 7:4 1:3 2:2 1:3
3:0 2:1 3:2 4:2 5:2 6:2 7:4 1:3 2:2 1:3 2:1
2:0 3:2 4:2 5:2 6:2 7:4 1:3 2:2 1:3 2:1 3:3
3:0 4:2 5:2 6:2 7:4 1:3 2:2 1:3 2:1 3:3 2:1
4:0 5:2 6:2 7:4 1:3 2:2 1:3 2:1 3:3 2:1 3:2
5:0 6:2 7:4 1:3 2:2 1:3 2:1 3:3 2:1 3:2 4:2
6:0 7:4 1:3 2:2 1:3 2:1 3:3 2:1 3:2 4:2 5:2
7:0 1:3 2:2 1:3 2:1 3:3 2:1 3:2 4:2 5:2 6:2
1:0 2:2 1:3 2:1 3:3 2:1 3:2 4:2 5:2 6:2 7:4
2:0 1:3 2:1 3:3 2:1 3:2 4:2 5:2 6:2 7:4 1:3
1:0 2:1 3:3 2:1 3:2 4:2 5:2 6:2 7:4 1:3 2:2
2:0 3:3 2:1 3:2 4:2 5:2 6:2 7:4 1:3 2:2 1:3
3:0 2:1 3:2 4:2 5:2 6:2 7:4 1:3 2:2 1:3 2:1
2:0 3:2 4:2 5:2 6:2 7:4 1:3 2:2 1:3 2:1 3:3
3:0 4:2 5:2 6:2 7:4 1:3 2:2 1:3 2:1 3:3 2:1
4:0 5:2 6:2 7:4 1:3 2:2 1:3 2:1 3:3 2:1 3:2
5:0 6:2 7:4 1:3 2:2 1:3 2:1 3:3 2:1 3:2 4:2
6:0 7:4 1:3 2:2 1:3 2:1 3:3 2:1 3:2 4:2 5:2
7:0 1:3 2:2 1:3 2:1 3:3 2:1 3:2 4:2 5:2 6:2
1:0 2:2 1:3 2:1 3:3 2:1 3:2 4:2 5:2 6:2 7:4
2:0 1:3 2:1 3:3 2:1 3:2 4:2 5:2 6:2 7:4 1:3
1:0 2:1 3:3 2:1 3:2 4:2 5:2 6:2 7:4 1:3 2:2
2:0 3:3 2:1 3:2 4:2 5:2 6:2 7:4 1:3 2:2 1:3
3:0 2:1 3:2 4:2 5:2 6:2 7:4 1:3 2:2 1:3 2:1
2:0 3:2 4:2 5:2 6:2 7:4 1:3 2:2 1:3 2:1 3:3
3:0 4:2 5:2 6:2 7:4 1:3 2:2 1:3 2:1 3:3 2:1
4:0 5:2 6:2 7:4 1:3 2:2 1:3 2:1 3:3 2:1 3:2
5:0 6:2 7:4 1:3 2:2 1:3 2:1 3:3 2:1 3:2 4:2
6:0 7:4 1:3 2:2 1:3 2:1 3:3 2:1 3:2 4:2 5:2
7:0 1:3 2:2 1:3 2:1 3:3 2:1 3:2 4:2 5:2 6:2
1:0 2:2 1:3 2:1 3:3 2:1 3:2 4:2 5:2 6:2 7:4
2:0 1:3 2:1 3:3 2:1 3:2 4:2 5:2 6:2 7:4 1:3
1:0 2:1 3:3 2:1 3:2 4:2 5:2 6:2 7:4 1:3 2:2
2:0 3:3 2:1 3:2 4:2 5:2 6:2 7:4 1:3 2:2 1:2
3:0 2:1 3:2 4:2 5:2 6:2 7:4 1:3 2:2 1:2 2:2
2:0 3:2 4:2 5:2 6:2 7:4 1:3 2:2 1:2 2:2 3:3
3:0 4:2 5:2 6:2 7:4 1:3 2:2 1:2 2:2 3:3 2:1
4:0 5:2 6:2 7:4 1:3 2:2 1:2 2:2 3:3 2:1 3:2
5:0 6:2 7:4 1:3 2:2 1:2 2:2 3:3 2:1 3:2 4:2
6:0 7:4 1:3 2:2 1:2 2:2 3:3 2:1 3:2 4:2 5:2
7:0 1:3 2:2 1:2 2:2 3:3 2:1 3:2 4:2 5:2 6:2
1:0 2:2 1:2 2:2 3:3 2:1 3:2 4:2 5:2 6:2 8:4
2:0 1:2 2:2 3:3 2:1 3:2 4:2 5:2 6:2 8:4 7:1
1:0 2:2 3:3 2:1 3:2 4:2 5:2 6:2 8:4 7:1 1:2
2:0 3:3 2:1 3:2 4:2 5:2 6:2 8:4 7:1 1:2 2:2
3:0 2:1 3:2 4:2 5:2 6:2 8:4 7:1 1:2 2:2 1:3
2:0 3:2 4:2 5:2 6:2 8:4 7:1 1:2 2:2 1:3 2:1
3:0 4:2 5:2 6:2 8:4 7:1 1:2 2:2 1:3 2:1 3:3
4:0 5:2 6:2 8:4 7:1 1:2 2:2 1:3 2:1 3:3 2:1
5:0 6:2 8:4 7:1 1:2 2:2 1:3 2:1 3:3 2:1 3:2
6:0 8:4 7:1 1:2 2:2 1:3 2:1 3:3 2:1 3:2 4:2
8:0 7:1 1:2 2:2 1:3 2:1 3:3 2:1 3:2 4:2 5:2
7:0 1:2 2:2 1:3 2:1 3:3 2:1 3:2 4:2 5:2 6:2
1:0 2:2 1:3 2:1 3:3 2:1 3:2 4:2 5:2 6:2 7:4
2:0 1:3 2:1 3:3 2:1 3:2 4:2 5:2 6:2 7:4 1:3
1:0 2:1 3:3 2:1 3:2 4:2 5:2 6:2 7:4 1:3 2:2
2:0 3:3 2:1 3:2 4:2 5:2 6:2 7:4 1:3 2:2 1:3
3:0 2:1 3:2 4:2 5:2 6:2 7:4 1:3 2:2 1:3 2:1
2:0 3:2 4:2 5:2 6:2 7:4 1:3 2:2 1:3 2:1 3:3
3:0 4:2 5:2 6:2 7:4 1:3 2:2 1:3 2:1 3:3 2:1
4:0 5:2 6:2 7:4 1:3 2:2 1:3 2:1 3:3 2:1 3:2
5:0 6:2 7:4 1:3 2:2 1:3 2:1 3:3 2:1 3:2 4:2
6:0 7:4 1:3 2:2 1:3 2:1 3:3 2:1 3:2 4:2 5:2
7:0 1:3 2:2 1:3 2:1 3:3 2:1 3:2 4:2 5:2 6:2
1:0 2:2 1:3 2:1 3:3 2:1 3:2 4:2 5:2 6:2 7:4
2:0 1:3 2:1 3:3 2:1 3:2 4:2 5:2 6:2 7:4 1:3
1:0 2:1 3:3 2:1 3:2 4:2 5:2 6:2 7:4 1:3 2:2
2:0 3:3 2:1 3:2 4:2 5:2 6:2 7:4 1:3 2:2 1:3
3:0 2:1 3:2 4:2 5:2 6:2 7:4 1:3 2:2 1:3 2:1
2:0 3:2 4:2 5:2 6:2 7:4 1:3 2:2 1:3 2:1 3:3
3:0 4:2 5:2 6:2 7:4 1:3 2:2 1:3 2:1 3:3 2:1
4:0 5:2 6:2 7:4 1:3 2:2 1:3 2:1 3:3 2:1 3:2
5:0 6:2 7:4 1:3 2:2 1:3 2:1 3:3 2:1 3:2 4:2
6:0 7:4 1:3 2:2 1:3 2:1 3:3 2:1 3:2 4:2 5:2
7:0 1:3 2:2 1:3 2:1 3:3 2:1 3:2 4:2 5:2 6:2
1:0 2:2 1:3 2:1 3:3 2:1 3:2 4:2 5:2 6:2 7:4
2:0 1:3 2:1 3:3 2:1 3:2 4:2 5:2 6:2 7:4 1:3
1:0 2:1 3:3 2:1 3:2 4:2 5:2 6:2 7:4 1:3 2:2
2:0 3:3 2:1 3:2 4:2 5:2 6:2 7:4 1:3 2:2 1:3
3:0 2:1 3:2 4:2 5:2 6:2 7:4 1:3 2:2 1:3 2:1
2:0 3:2 4:2 5:2 6:2 7:4 1:3 2:2 1:3 2:1 3:3
3:0 4:2 5:2 6:2 7:4 1:3 2:2 1:3 2:1 3:3 2:1
4:0 5:2 6:2 7:4 1:3 2:2 1:3 2:1 3:3 2:1 3:2
5:0 6:2 7:4 1:3 2:2 1:3 2:1 3:3 2:1 3:2 4:2
6:0 7:4 1:3 2:2 1:3 2:1 3:3 2:1 3:2 4:2 5:2
7:0 1:3 2:2 1:3 2:1 3:3 2:1 3:2 4:2 5:2 6:2
1:0 2:2 1:3 2:1 3:3 2:1 3:2 4:2 5:2 6:2 7:4
2:0 1:3 2:1 3:3 2:1 3:2 4:2 5:2 6:2 7:4 1:3
1:0 2:1 3:3 2:1 3:2 4:2 5:2 6:2 7:4 1:3 2:2
2:0 3:3 2:1 3:2 4:2 5:2 6:2 7:4 1:3 2:2 1:3
3:0 2:1 3:2 4:2 5:2 6:2 7:4 1:3 2:2 1:3 2:1
2:0 3:2 4:2 5:2 6:2 7:4 1:3 2:2 1:3 2:1 3:3
3:0 4:2 5:2 6:2 7:4 1:3 2:2 1:3 2:1 3:3 2:1
4:0 5:2 6:2 7:4 1:3 2:2 1:3 2:1 3:3 2:1 3:2
5:0 6:2 7:4 1:3 2:2 1:3 2:1 3:3 2:1 3:2 4:2
6:0 7:4 1:3 2:2 1:3 2:1 3:3 2:1 3:2 4:2 5:2
7:0 1:3 2:2 1:3 2:1 3:3 2:1 3:2 4:2 5:2 6:2
1:0 2:2 1:3 2:1 3:3 2:1 3:2 4:2 5:2 6:2 7:4
2:0 1:3 2:1 3:3 2:1 3:2 4:2 5:2 6:2 7:4 1:3
1:0 2:1 3:3 2:1 3:2 4:2 5:2 6:2 7:4 1:3 2:2
2:0 3:3 2:1 3:2 4:2 5:2 6:2 7:4 1:3 2:2 1:3
3:0 2:1 3:2 4:2 5:2 6:2 7:4 1:3 2:2 1:3 2:1
2:0 3:2 4:2 5:2 6:2 7:4 1:3 2:2 1:3 2:1 3:3
3:0 4:2 5:2 6:2 7:4 1:3 2:2 1:3 2:1 3:3 2:1
4:0 5:2 6:2 7:4 1:3 2:2 1:3 2:1 3:3 2:1 3:2
5:0 6:2 7:4 1:3 2:2 1:3 2:1 3:3 2:1 3:2 4:2
6:0 7:4 1:3 2:2 1:3 2:1 3:3 2:1 3:2 4:2 5:2
7:0 1:3 2:2 1:3 2:1 3:3 2:1 3:2 4:2 5:2 6:2
1:0 2:2 1:3 2:1 3:3 2:1 3:2 4:2 5:2 6:2 7:4
2:0 1:3 2:1 3:3 2:1 3:2 4:2 5:2 6:2 7:4 1:3
1:0 2:1 3:3 2:1 3:2 4:2 5:2 6:2 7:4 1:3 2:2
2:0 3:3 2:1 3:2 4:2 5:2 6:2 7:4 1:3 2:2 1:3
3:0 2:1 3:2 4:2 5:2 6:2 7:4 1:3 2:2 1:3 2:1
2:0 3:2 4:2 5:2 6:2 7:4 1:3 2:2 1:3 2:1 3:3
3:0 4:2 5:2 6:2 7:4 1:3 2:2 1:3 2:1 3:3 2:1
4:0 5:2 6:2 7:4 1:3 2:2 1:3 2:1 3:3 2:1 3:2
5:0 6:2 7:4 1:3 2:2 1:3 2:1 3:3 2:1 3:2 4:2
6:0 7:4 1:3 2:2 1:3 2:1 3:3 2:1 3:2 4:2 5:2
7:0 1:3 2:2 1:3 2:1 3:3 2:1 3:2 4:2 5:2 6:2
1:0 2:2 1:3 2:1 3:3 2:1 3:2 4:2 5:2 6:2 7:4
2:0 1:3 2:1 3:3 2:1 3:2 4:2 5:2 6:2 7:4 1:3
1:0 2:1 3:3 2:1 3:2 4:2 5:2 6:2 7:4 1:3 2:2
2:0 3:3 2:1 3:2 4:2 5:2 6:2 7:4 1:3 2:2 1:3
3:0 2:1 3:2 4:2 5:2 6:2 7:4 1:3 2:2 1:3 2:1
2:0 3:2 4:2 5:2 6:2 7:4 1:3 2:2 1:3 2:1 3:3
3:0 4:2 5:2 6:2 7:4 1:3 2:2 1:3 2:1 3:3 2:1
4:0 5:2 6:2 7:4 1:3 2:2 1:3 2:1 3:3 2:1 3:2
5:0 6:2 7:4 1:3 2:2 1:3 2:1 3:3 2:1 3:2 4:2
6:0 7:4 1:3 2:2 1:3 2:1 3:3 2:1 3:2 4:2 5:2
7:0 1:3 2:2 1:3 2:1 3:3 2:1 3:2 4:2 5:2 6:2
1:0 2:2 1:3 2:1 3:3 2:1 3:2 4:2 5:2 6:2 7:4
2:0 1:3 2:1 3:3 2:1 3:2 4:2 5:2 6:2 7:4 1:3
1:0 2:1 3:3 2:1 3:2 4:2 5:2 6:2 7:4 1:3 2:2
2:0 3:3 2:1 3:2 4:2 5:2 6:2 7:4 1:3 2:2 1:3
3:0 2:1 3:2 4:2 5:2 6:2 7:4 1:3 2:2 1:3 2:1
2:0 3:2 4:2 5:2 6:2 7:4 1:3 2:2 1:3 2:1 3:3
3:0 4:2 5:2 6:2 7:4 1:3 2:2 1:3 2:1 3:3 2:1
4:0 5:2 6:2 7:4 1:3 2:2 1:3 2:1 3:3 2:1 3:2
5:0 6:2 7:4 1:3 2:2 1:3 2:1 3:3 2:1 3:2 4:2
6:0 7:4 1:3 2:2 1:3 2:1 3:3 2:1 3:2 4:2 5:2
7:0 1:3 2:2 1:3 2:1 3:3 2:1 3:2 4:2 5:2 6:2
1:0 2:2 1:3 2:1 3:3 2:1 3:2 4:2 5:2 6:2 7:4
2:0 1:3 2:1 3:3 2:1 3:2 4:2 5:2 6:2 7:4 1:3
1:0 2:1 3:3 2:1 3:2 4:2 5:2 6:2 7:4 1:3 2:2
2:0 3:3 2:1 3:2 4:2 5:2 6:2 7:4 1:3 2:2 1:3
3:0 2:1 3:2 4:2 5:2 6:2 7:4 1:3 2:2 1:3 2:1
2:0 3:2 4:2 5:2 6:2 7:4 1:3 2:2 1:3 2:1 3:3
3:0 4:2 5:2 6:2 7:4 1:3 2:2 1:3 2:1 3:3 2:1
4:0 5:2 6:2 7:4 1:3 2:2 1:3 2:1 3:3 2:1 3:2
5:0 6:2 7:4 1:3 2:2 1:3 2:1 3:3 2:1 3:2 4:2
6:0 7:4 1:3 2:2 1:3 2:1 3:3 2:1 3:2 4:2 5:2
7:0 1:3 2:2 1:3 2:1 3:3 2:1 3:2 4:2 5:2 6:2
1:0 2:2 1:3 2:1 3:3 2:1 3:2 4:2 5:2 6:2 7:4
2:0 1:3 2:1 3:3 2:1 3:2 4:2 5:2 6:2 7:4 1:3
1:0 2:1 3:3 2:1 3:2 4:2 5:2 6:2 7:4 1:3 2:2
2:0 3:3 2:1 3:2 4:2 5:2 6:2 7:4 1:3 2:2 1:3
3:0 2:1 3:2 4:2 5:2 6:2 7:4 1:3 2:2 1:3 2:1
2:0 3:2 4:2 5:2 6:2 7:4 1:3 2:2 1:3 2:1 3:3
3:0 4:2 5:2 6:2 7:4 1:3 2:2 1:3 2:1 3:3 2:1
4:0 5:2 6:2 7:4 1:3 2:2 1:3 2:1 3:3 2:1 3:2
5:0 6:2 7:4 1:3 2:2 1:3 2:1 3:3 2:1 3:2 4:2
6:0 7:4 1:3 2:2 1:3 2:1 3:3 2:1 3:2 4:2 5:2
7:0 1:3 2:2 1:3 2:1 3:3 2:1 3:2 4:2 5:2 6:2
1:0 2:2 1:3 2:1 3:3 2:1 3:2 4:2 5:2 6:2 7:4
2:0 1:3 2:1 3:3 2:1 3:2 4:2 5:2 6:2 7:4 1:3
1:0 2:1 3:3 2:1 3:2 4:2 5:2 6:2 7:4 1:3 2:2
2:0 3:3 2:1 3:2 4:2 5:2 6:2 7:4 1:3 2:2 1:3
3:0 2:1 3:2 4:2 5:2 6:2 7:4 1:3 2:2 1:3 2:1
2:0 3:2 4:2 5:2 6:2 7:4 1:3 2:2 1:3 2:1 3:3
3:0 4:2 5:2 6:2 7:4 1:3 2:2 1:3 2:1 3:3 2:1
4:0 5:2 6:2 7:4 1:3 2:2 1:3 2:1 3:3 2:1 3:2
5:0 6:2 7:4 1:3 2:2 1:3 2:1 3:3 2:1 3:2 4:2
6:0 7:4 1:3 2:2 1:3 2:1 3:3 2:1 3:2 4:2 5:2
7:0 1:3 2:2 1:3 2:1 3:3 2:1 3:2 4:2 5:2 6:2
1:0 2:2 1:3 2:1 3:3 2:1 3:2 4:2 5:2 6:2 7:4
2:0 1:3 2:1 3:3 2:1 3:2 4:2 5:2 6:2 7:4
1:0 2:1 3:3 2:1 3:2 4:2 5:2 6:2 7:4
2:0 3:3 2:1 3:2 4:2 5:2 6:2 7:4
3:0 2:1 3:2 4:2 5:2 6:2 7:4
2:0 3:2 4:2 5:2 6:2 7:4
3:0 4:2 5:2 6:2 7:4
4:0 5:2 6:2 7:4
5:0 6:2 7:4
6:0 7:4
7:0
1:0 2:2 1:3 2:1 3:3 2:1 3:2 4:2 5:2 6:2 7:4 1:3 2:2 1:3 2:1 3:3 2:1 3:2 4:2 5:2 6:2 7:4 1:3 2:2 1:3 2:1 3:3 2:1 3:2 4:2 5:2 6:2 7:4 1:3 2:2 1:3 2:1 3:3 2:1 3:2 4:2 5:2 6:2 7:4 1:3 2:2 1:3 2:1 3:3 2:1 3:2 4:2 5:2 6:2 7:4 1:3 2:2 1:3 2:1 3:3 2:1 3:2 4:2 5:2 6:2 7:4 1:3 2:2 1:3 2:1 3:3 2:1 3:2 4:2 5:2 6:2 7:4 1:3 2:2 1:3 2:1 3:3 2:1 3:2 4:2 5:2 6:2 7:4 1:3 2:2 1:3 2:1 3:3 2:1 3:2 4:2 5:2 6:2 7:4 1:3 2:2 1:3 2:1 3:3 2:1 3:2 4:2 5:2 6:2 7:4 1:3 2:2 1:3 2:1 3:3 2:1 3:2 4:1 5:3 6:2 7:4 1:3 2:2 1:3 2:1 3:3 2:1 3:2 4:2 5:2 6:2 7:4 1:3 2:2 1:3 2:1 3:3 2:1 3:2 4:2 5:2 6:2 7:4 1:3 2:2 1:3 2:1 3:3 2:1 3:2 4:2 5:2 6:2 7:4 1:3 2:2 1:3 2:1 3:3 2:1 3:2 4:2 5:2 6:2 7:4 1:3 2:2 1:3 2:1 3:3 2:1 3:2 4:1 5:3 6:2 7:4 1:3 2:2 1:2 2:2 3:3 2:1 3:2 4:1 5:3 6:2 7:4 1:3 2:2 1:3 2:1 3:3 2:1 3:2 4:2 5:2 6:2 7:4 1:3 2:2 1:3 2:1 3:3 2:1 3:2 4:2 5:2 6:2 7:4 1:3 2:2 1:3 2:1 3:3 2:1 3:2 4:2 5:2 6:2 7:4 1:3 2:2 1:3 2:1 3:3 2:1 3:2 4:2 5:2 6:2 7:4 1:3 2:2 1:3 2:1 3:3 2:1 3:2 4:2 5:2 6:2 7:4 1:3 2:2 1:3 2:1 3:3 2:1 3:2 4:2 5:2 6:2 7:4 1:3 2:2 1:3 2:1 3:3 2:1 3:2 4:2 5:2 6:2 7:4 1:3 2:2 1:3 2:1 3:3 2:1 3:2 4:2 5:2 6:2 7:4 1:3 2:2 1:3 2:1 3:3 2:1 3:2 4:2 5:2 6:2 7:4 1:3 2:2 1:3 2:1 3:3 2:1 3:2 4:2 5:2 6:2 7:4 1:3 2:2 1:2 2:2 3:3 2:1 3:2 4:2 5:2 6:2 8:4 7:1 1:2 2:2 1:3 2:1 3:3 2:1 3:2 4:2 5:2 6:2 7:4 1:3 2:2 1:3 2:1 3:3 2:1 3:2 4:2 5:2 6:2 7:4 1:3 2:2 1:3 2:1 3:3 2:1 3:2 4:2 5:2 6:2 7:4 1:3 2:2 1:3 2:1 3:3 2:1 3:2 4:2 5:2 6:2 7:4 1:3 2:2 1:3 2:1 3:3 2:1 3:2 4:2 5:2 6:2 7:4 1:3 2:2 1:3 2:1 3:3 2:1 3:2 4:2 5:2 6:2 7:4 1:3 2:2 1:3 2:1 3:3 2:1 3:2 4:2 5:2 6:2 7:4 1:3 2:2 1:3 2:1 3:3 2:1 3:2 4:2 5:2 6:2 7:4 1:3 2:2 1:3 2:1 3:3 2:1 3:2 4:2 5:2 6:2 7:4 1:3 2:2 1:3 2:1 3:3 2:1 3:2 4:2 5:2 6:2 7:4 1:3 2:2 1:3 2:1 3:3 2:1 3:2 4:2 5:2 6:2 7:4 1:3 2:2 1:3 2:1 3:3 2:1 3:2 4:2 5:2 6:2 7:4