4:0 3:2 2:1 3:1 4:1 6:1 5:1 4:2 6:1 3:1 6:1
3:0 2:1 3:1 4:1 6:1 5:1 4:2 6:1 3:1 6:1 3:1
2:0 3:1 4:1 6:1 5:1 4:2 6:1 3:1 6:1 3:1 1:1
3:0 4:1 6:1 5:1 4:2 6:1 3:1 6:1 3:1 1:1 2:1
4:0 6:1 5:1 4:2 6:1 3:1 6:1 3:1 1:1 2:1 3:1
6:0 5:1 4:2 6:1 3:1 6:1 3:1 1:1 2:1 3:1 1:1
5:0 4:2 6:1 3:1 6:1 3:1 1:1 2:1 3:1 1:1 2:1
4:0 6:1 3:1 6:1 3:1 1:1 2:1 3:1 1:1 2:1 5:1
6:0 3:1 6:1 3:1 1:1 2:1 3:1 1:1 2:1 5:1 6:1
3:0 6:1 3:1 1:1 2:1 3:1 1:1 2:1 5:1 6:1 5:1
6:0 3:1 1:1 2:1 3:1 1:1 2:1 5:1 6:1 5:1 7:1
3:0 1:1 2:1 3:1 1:1 2:1 5:1 6:1 5:1 7:1 6:1
1:0 2:1 3:1 1:1 2:1 5:1 6:1 5:1 7:1 6:1 7:1
2:0 3:1 1:1 2:1 5:1 6:1 5:1 7:1 6:1 7:1 4:1
3:0 1:1 2:1 5:1 6:1 5:1 7:1 6:1 7:1 4:1 5:1
1:0 2:1 5:1 6:1 5:1 7:1 6:1 7:1 4:1 5:1 3:1
2:0 5:1 6:1 5:1 7:1 6:1 7:1 4:1 5:1 3:1 2:1
5:0 6:1 5:1 7:1 6:1 7:1 4:1 5:1 3:1 2:1 3:1
6:0 5:1 7:1 6:1 7:1 4:1 5:1 3:1 2:1 3:1 4:1
5:0 7:1 6:1 7:1 4:1 5:1 3:1 2:1 3:1 4:1 6:1
7:0 6:1 7:1 4:1 5:1 3:1 2:1 3:1 4:1 6:1 5:1
6:0 7:1 4:1 5:1 3:1 2:1 3:1 4:1 6:1 5:1 4:2
7:0 4:1 5:1 3:1 2:1 3:1 4:1 6:1 5:1 4:2 6:1
4:0 5:1 3:1 2:1 3:1 4:1 6:1 5:1 4:2 6:1 3:1
5:0 3:1 2:1 3:1 4:1 6:1 5:1 4:2 6:1 3:1 6:1
3:0 2:1 3:1 4:1 6:1 5:1 4:2 6:1 3:1 6:1 3:1
2:0 3:1 4:1 6:1 5:1 4:2 6:1 3:1 6:1 3:1 1:1
3:0 4:1 6:1 5:1 4:2 6:1 3:1 6:1 3:1 1:1 2:1
4:0 6:1 5:1 4:2 6:1 3:1 6:1 3:1 1:1 2:1 1:2
6:0 5:1 4:2 6:1 3:1 6:1 3:1 1:1 2:1 1:2 2:1
5:0 4:2 6:1 3:1 6:1 3:1 1:1 2:1 1:2 2:1 5:1
4:0 6:1 3:1 6:1 3:1 1:1 2:1 1:2 2:1 5:1 6:1
6:0 3:1 6:1 3:1 1:1 2:1 1:2 2:1 5:1 6:1 5:1
3:0 6:1 3:1 1:1 2:1 1:2 2:1 5:1 6:1 5:1 6:1
6:0 3:1 1:1 2:1 1:2 2:1 5:1 6:1 5:1 6:1 7:2
3:0 1:1 2:1 1:2 2:1 5:1 6:1 5:1 6:1 7:2 4:1
1:0 2:1 1:2 2:1 5:1 6:1 5:1 6:1 7:2 4:1 3:2
2:0 1:2 2:1 5:1 6:1 5:1 6:1 7:2 4:1 3:2 2:1
1:0 2:1 5:1 6:1 5:1 6:1 7:2 4:1 3:2 2:1 3:1
2:0 5:1 6:1 5:1 6:1 7:2 4:1 3:2 2:1 3:1 4:1
5:0 6:1 5:1 6:1 7:2 4:1 3:2 2:1 3:1 4:1 6:1
6:0 5:1 6:1 7:2 4:1 3:2 2:1 3:1 4:1 6:1 5:1
5:0 6:1 7:2 4:1 3:2 2:1 3:1 4:1 6:1 5:1 4:2
6:0 7:2 4:1 3:2 2:1 3:1 4:1 6:1 5:1 4:2 6:1
7:0 4:1 3:2 2:1 3:1 4:1 6:1 5:1 4:2 6:1 3:1
4:0 3:2 2:1 3:1 4:1 6:1 5:1 4:2 6:1 3:1 6:1
3:0 2:1 3:1 4:1 6:1 5:1 4:2 6:1 3:1 6:1 3:1
2:0 3:1 4:1 6:1 5:1 4:2 6:1 3:1 6:1 3:1 1:1
3:0 4:1 6:1 5:1 4:2 6:1 3:1 6:1 3:1 1:1 2:1
4:0 6:1 5:1 4:2 6:1 3:1 6:1 3:1 1:1 2:1 1:2
6:0 5:1 4:2 6:1 3:1 6:1 3:1 1:1 2:1 1:2 2:1
5:0 4:2 6:1 3:1 6:1 3:1 1:1 2:1 1:2 2:1 5:1
4:0 6:1 3:1 6:1 3:1 1:1 2:1 1:2 2:1 5:1 6:1
6:0 3:1 6:1 3:1 1:1 2:1 1:2 2:1 5:1 6:1 5:1
3:0 6:1 3:1 1:1 2:1 1:2 2:1 5:1 6:1 5:1 6:1
6:0 3:1 1:1 2:1 1:2 2:1 5:1 6:1 5:1 6:1 7:2
3:0 1:1 2:1 1:2 2:1 5:1 6:1 5:1 6:1 7:2 4:1
1:0 2:1 1:2 2:1 5:1 6:1 5:1 6:1 7:2 4:1 3:2
2:0 1:2 2:1 5:1 6:1 5:1 6:1 7:2 4:1 3:2 2:1
1:0 2:1 5:1 6:1 5:1 6:1 7:2 4:1 3:2 2:1 3:1
2:0 5:1 6:1 5:1 6:1 7:2 4:1 3:2 2:1 3:1 4:1
5:0 6:1 5:1 6:1 7:2 4:1 3:2 2:1 3:1 4:1 6:1
6:0 5:1 6:1 7:2 4:1 3:2 2:1 3:1 4:1 6:1 5:1
5:0 6:1 7:2 4:1 3:2 2:1 3:1 4:1 6:1 5:1 4:2
6:0 7:2 4:1 3:2 2:1 3:1 4:1 6:1 5:1 4:2 6:1
7:0 4:1 3:2 2:1 3:1 4:1 6:1 5:1 4:2 6:1 3:1
4:0 3:2 2:1 3:1 4:1 6:1 5:1 4:2 6:1 3:1 6:1
3:0 2:1 3:1 4:1 6:1 5:1 4:2 6:1 3:1 6:1 3:1
2:0 3:1 4:1 6:1 5:1 4:2 6:1 3:1 6:1 3:1 1:1
3:0 4:1 6:1 5:1 4:2 6:1 3:1 6:1 3:1 1:1 2:1
4:0 6:1 5:1 4:2 6:1 3:1 6:1 3:1 1:1 2:1 1:2
6:0 5:1 4:2 6:1 3:1 6:1 3:1 1:1 2:1 1:2 2:1
5:0 4:2 6:1 3:1 6:1 3:1 1:1 2:1 1:2 2:1 5:1
4:0 6:1 3:1 6:1 3:1 1:1 2:1 1:2 2:1 5:1 6:1
6:0 3:1 6:1 3:1 1:1 2:1 1:2 2:1 5:1 6:1 5:1
3:0 6:1 3:1 1:1 2:1 1:2 2:1 5:1 6:1 5:1 6:1
6:0 3:1 1:1 2:1 1:2 2:1 5:1 6:1 5:1 6:1 7:2
3:0 1:1 2:1 1:2 2:1 5:1 6:1 5:1 6:1 7:2 4:1
1:0 2:1 1:2 2:1 5:1 6:1 5:1 6:1 7:2 4:1 3:2
2:0 1:2 2:1 5:1 6:1 5:1 6:1 7:2 4:1 3:2 2:1
1:0 2:1 5:1 6:1 5:1 6:1 7:2 4:1 3:2 2:1 3:1
2:0 5:1 6:1 5:1 6:1 7:2 4:1 3:2 2:1 3:1 4:1
5:0 6:1 5:1 6:1 7:2 4:1 3:2 2:1 3:1 4:1 6:1
6:0 5:1 6:1 7:2 4:1 3:2 2:1 3:1 4:1 6:1 5:1
5:0 6:1 7:2 4:1 3:2 2:1 3:1 4:1 6:1 5:1 4:2
6:0 7:2 4:1 3:2 2:1 3:1 4:1 6:1 5:1 4:2 6:1
7:0 4:1 3:2 2:1 3:1 4:1 6:1 5:1 4:2 6:1 4:1
4:0 3:2 2:1 3:1 4:1 6:1 5:1 4:2 6:1 4:1 6:1
3:0 2:1 3:1 4:1 6:1 5:1 4:2 6:1 4:1 6:1 3:1
2:0 3:1 4:1 6:1 5:1 4:2 6:1 4:1 6:1 3:1 1:1
3:0 4:1 6:1 5:1 4:2 6:1 4:1 6:1 3:1 1:1 2:1
4:0 6:1 5:1 4:2 6:1 4:1 6:1 3:1 1:1 2:1 3:1
6:0 5:1 4:2 6:1 4:1 6:1 3:1 1:1 2:1 3:1 1:1
5:0 4:2 6:1 4:1 6:1 3:1 1:1 2:1 3:1 1:1 2:1
4:0 6:1 4:1 6:1 3:1 1:1 2:1 3:1 1:1 2:1 4:1
6:0 4:1 6:1 3:1 1:1 2:1 3:1 1:1 2:1 4:1 6:1
4:0 6:1 3:1 1:1 2:1 3:1 1:1 2:1 4:1 6:1 5:1
6:0 3:1 1:1 2:1 3:1 1:1 2:1 4:1 6:1 5:1 6:1
3:0 1:1 2:1 3:1 1:1 2:1 4:1 6:1 5:1 6:1 7:2
1:0 2:1 3:1 1:1 2:1 4:1 6:1 5:1 6:1 7:2 4:1
2:0 3:1 1:1 2:1 4:1 6:1 5:1 6:1 7:2 4:1 3:2
3:0 1:1 2:1 4:1 6:1 5:1 6:1 7:2 4:1 3:2 2:1
1:0 2:1 4:1 6:1 5:1 6:1 7:2 4:1 3:2 2:1 3:1
2:0 4:1 6:1 5:1 6:1 7:2 4:1 3:2 2:1 3:1 4:1
4:0 6:1 5:1 6:1 7:2 4:1 3:2 2:1 3:1 4:1 6:1
6:0 5:1 6:1 7:2 4:1 3:2 2:1 3:1 4:1 6:1 5:1
5:0 6:1 7:2 4:1 3:2 2:1 3:1 4:1 6:1 5:1 4:2
6:0 7:2 4:1 3:2 2:1 3:1 4:1 6:1 5:1 4:2 6:1
7:0 4:1 3:2 2:1 3:1 4:1 6:1 5:1 4:2 6:1 3:1
4:0 3:2 2:1 3:1 4:1 6:1 5:1 4:2 6:1 3:1 6:1
3:0 2:1 3:1 4:1 6:1 5:1 4:2 6:1 3:1 6:1 3:1
2:0 3:1 4:1 6:1 5:1 4:2 6:1 3:1 6:1 3:1 1:1
3:0 4:1 6:1 5:1 4:2 6:1 3:1 6:1 3:1 1:1 2:1
4:0 6:1 5:1 4:2 6:1 3:1 6:1 3:1 1:1 2:1 1:2
6:0 5:1 4:2 6:1 3:1 6:1 3:1 1:1 2:1 1:2 2:1
5:0 4:2 6:1 3:1 6:1 3:1 1:1 2:1 1:2 2:1 5:1
4:0 6:1 3:1 6:1 3:1 1:1 2:1 1:2 2:1 5:1 6:1
6:0 3:1 6:1 3:1 1:1 2:1 1:2 2:1 5:1 6:1 5:1
3:0 6:1 3:1 1:1 2:1 1:2 2:1 5:1 6:1 5:1 6:1
6:0 3:1 1:1 2:1 1:2 2:1 5:1 6:1 5:1 6:1 7:2
3:0 1:1 2:1 1:2 2:1 5:1 6:1 5:1 6:1 7:2 4:1
1:0 2:1 1:2 2:1 5:1 6:1 5:1 6:1 7:2 4:1 3:2
2:0 1:2 2:1 5:1 6:1 5:1 6:1 7:2 4:1 3:2 2:1
1:0 2:1 5:1 6:1 5:1 6:1 7:2 4:1 3:2 2:1 3:1
2:0 5:1 6:1 5:1 6:1 7:2 4:1 3:2 2:1 3:1 4:1
5:0 6:1 5:1 6:1 7:2 4:1 3:2 2:1 3:1 4:1 6:1
6:0 5:1 6:1 7:2 4:1 3:2 2:1 3:1 4:1 6:1 5:1
5:0 6:1 7:2 4:1 3:2 2:1 3:1 4:1 6:1 5:1 4:2
6:0 7:2 4:1 3:2 2:1 3:1 4:1 6:1 5:1 4:2 6:1
7:0 4:1 3:2 2:1 3:1 4:1 6:1 5:1 4:2 6:1 3:1
4:0 3:2 2:1 3:1 4:1 6:1 5:1 4:2 6:1 3:1 6:1
3:0 2:1 3:1 4:1 6:1 5:1 4:2 6:1 3:1 6:1 3:1
2:0 3:1 4:1 6:1 5:1 4:2 6:1 3:1 6:1 3:1 1:1
3:0 4:1 6:1 5:1 4:2 6:1 3:1 6:1 3:1 1:1 2:1
4:0 6:1 5:1 4:2 6:1 3:1 6:1 3:1 1:1 2:1 1:2
6:0 5:1 4:2 6:1 3:1 6:1 3:1 1:1 2:1 1:2 2:1
5:0 4:2 6:1 3:1 6:1 3:1 1:1 2:1 1:2 2:1 5:1
4:0 6:1 3:1 6:1 3:1 1:1 2:1 1:2 2:1 5:1 6:1
6:0 3:1 6:1 3:1 1:1 2:1 1:2 2:1 5:1 6:1 5:1
3:0 6:1 3:1 1:1 2:1 1:2 2:1 5:1 6:1 5:1 6:1
6:0 3:1 1:1 2:1 1:2 2:1 5:1 6:1 5:1 6:1 7:2
3:0 1:1 2:1 1:2 2:1 5:1 6:1 5:1 6:1 7:2 4:1
1:0 2:1 1:2 2:1 5:1 6:1 5:1 6:1 7:2 4:1 3:2
2:0 1:2 2:1 5:1 6:1 5:1 6:1 7:2 4:1 3:2 2:1
1:0 2:1 5:1 6:1 5:1 6:1 7:2 4:1 3:2 2:1 3:1
2:0 5:1 6:1 5:1 6:1 7:2 4:1 3:2 2:1 3:1 4:1
5:0 6:1 5:1 6:1 7:2 4:1 3:2 2:1 3:1 4:1 6:1
6:0 5:1 6:1 7:2 4:1 3:2 2:1 3:1 4:1 6:1 5:1
5:0 6:1 7:2 4:1 3:2 2:1 3:1 4:1 6:1 5:1 4:2
6:0 7:2 4:1 3:2 2:1 3:1 4:1 6:1 5:1 4:2 6:1
7:0 4:1 3:2 2:1 3:1 4:1 6:1 5:1 4:2 6:1 3:1
4:0 3:2 2:1 3:1 4:1 6:1 5:1 4:2 6:1 3:1 6:1
3:0 2:1 3:1 4:1 6:1 5:1 4:2 6:1 3:1 6:1 3:1
2:0 3:1 4:1 6:1 5:1 4:2 6:1 3:1 6:1 3:1 1:1
3:0 4:1 6:1 5:1 4:2 6:1 3:1 6:1 3:1 1:1 2:1
4:0 6:1 5:1 4:2 6:1 3:1 6:1 3:1 1:1 2:1 1:2
6:0 5:1 4:2 6:1 3:1 6:1 3:1 1:1 2:1 1:2 2:1
5:0 4:2 6:1 3:1 6:1 3:1 1:1 2:1 1:2 2:1 5:1
4:0 6:1 3:1 6:1 3:1 1:1 2:1 1:2 2:1 5:1 6:1
6:0 3:1 6:1 3:1 1:1 2:1 1:2 2:1 5:1 6:1 5:1
3:0 6:1 3:1 1:1 2:1 1:2 2:1 5:1 6:1 5:1 6:1
6:0 3:1 1:1 2:1 1:2 2:1 5:1 6:1 5:1 6:1 7:2
3:0 1:1 2:1 1:2 2:1 5:1 6:1 5:1 6:1 7:2 4:1
1:0 2:1 1:2 2:1 5:1 6:1 5:1 6:1 7:2 4:1 5:1
2:0 1:2 2:1 5:1 6:1 5:1 6:1 7:2 4:1 5:1 2:1
1:0 2:1 5:1 6:1 5:1 6:1 7:2 4:1 5:1 2:1 3:2
2:0 5:1 6:1 5:1 6:1 7:2 4:1 5:1 2:1 3:2 4:1
5:0 6:1 5:1 6:1 7:2 4:1 5:1 2:1 3:2 4:1 6:1
6:0 5:1 6:1 7:2 4:1 5:1 2:1 3:2 4:1 6:1 5:1
5:0 6:1 7:2 4:1 5:1 2:1 3:2 4:1 6:1 5:1 4:2
6:0 7:2 4:1 5:1 2:1 3:2 4:1 6:1 5:1 4:2 6:1
7:0 4:1 5:1 2:1 3:2 4:1 6:1 5:1 4:2 6:1 3:1
4:0 5:1 2:1 3:2 4:1 6:1 5:1 4:2 6:1 3:1 6:1
5:0 2:1 3:2 4:1 6:1 5:1 4:2 6:1 3:1 6:1 3:1
2:0 3:2 4:1 6:1 5:1 4:2 6:1 3:1 6:1 3:1 1:1
3:0 4:1 6:1 5:1 4:2 6:1 3:1 6:1 3:1 1:1 2:1
4:0 6:1 5:1 4:2 6:1 3:1 6:1 3:1 1:1 2:1 1:2
6:0 5:1 4:2 6:1 3:1 6:1 3:1 1:1 2:1 1:2 2:1
5:0 4:2 6:1 3:1 6:1 3:1 1:1 2:1 1:2 2:1 5:1
4:0 6:1 3:1 6:1 3:1 1:1 2:1 1:2 2:1 5:1 6:1
6:0 3:1 6:1 3:1 1:1 2:1 1:2 2:1 5:1 6:1 5:1
3:0 6:1 3:1 1:1 2:1 1:2 2:1 5:1 6:1 5:1 7:1
6:0 3:1 1:1 2:1 1:2 2:1 5:1 6:1 5:1 7:1 6:1
3:0 1:1 2:1 1:2 2:1 5:1 6:1 5:1 7:1 6:1 7:1
1:0 2:1 1:2 2:1 5:1 6:1 5:1 7:1 6:1 7:1 4:1
2:0 1:2 2:1 5:1 6:1 5:1 7:1 6:1 7:1 4:1 3:2
1:0 2:1 5:1 6:1 5:1 7:1 6:1 7:1 4:1 3:2 2:1
2:0 5:1 6:1 5:1 7:1 6:1 7:1 4:1 3:2 2:1 3:1
5:0 6:1 5:1 7:1 6:1 7:1 4:1 3:2 2:1 3:1 4:1
6:0 5:1 7:1 6:1 7:1 4:1 3:2 2:1 3:1 4:1 6:1
5:0 7:1 6:1 7:1 4:1 3:2 2:1 3:1 4:1 6:1 5:1
7:0 6:1 7:1 4:1 3:2 2:1 3:1 4:1 6:1 5:1 6:3
6:0 7:1 4:1 3:2 2:1 3:1 4:1 6:1 5:1 6:3 3:1
7:0 4:1 3:2 2:1 3:1 4:1 6:1 5:1 6:3 3:1 6:1
4:0 3:2 2:1 3:1 4:1 6:1 5:1 6:3 3:1 6:1 3:1
3:0 2:1 3:1 4:1 6:1 5:1 6:3 3:1 6:1 3:1 1:1
2:0 3:1 4:1 6:1 5:1 6:3 3:1 6:1 3:1 1:1 2:1
3:0 4:1 6:1 5:1 6:3 3:1 6:1 3:1 1:1 2:1 1:2
4:0 6:1 5:1 6:3 3:1 6:1 3:1 1:1 2:1 1:2 2:1
6:0 5:1 6:3 3:1 6:1 3:1 1:1 2:1 1:2 2:1 5:1
5:0 6:3 3:1 6:1 3:1 1:1 2:1 1:2 2:1 5:1 6:1
6:0 3:1 6:1 3:1 1:1 2:1 1:2 2:1 5:1 6:1 5:1
3:0 6:1 3:1 1:1 2:1 1:2 2:1 5:1 6:1 5:1 6:1
6:0 3:1 1:1 2:1 1:2 2:1 5:1 6:1 5:1 6:1 7:2
3:0 1:1 2:1 1:2 2:1 5:1 6:1 5:1 6:1 7:2 4:1
1:0 2:1 1:2 2:1 5:1 6:1 5:1 6:1 7:2 4:1 3:2
2:0 1:2 2:1 5:1 6:1 5:1 6:1 7:2 4:1 3:2 2:1
1:0 2:1 5:1 6:1 5:1 6:1 7:2 4:1 3:2 2:1 3:1
2:0 5:1 6:1 5:1 6:1 7:2 4:1 3:2 2:1 3:1 4:1
5:0 6:1 5:1 6:1 7:2 4:1 3:2 2:1 3:1 4:1 6:1
6:0 5:1 6:1 7:2 4:1 3:2 2:1 3:1 4:1 6:1 4:1
5:0 6:1 7:2 4:1 3:2 2:1 3:1 4:1 6:1 4:1 5:1
6:0 7:2 4:1 3:2 2:1 3:1 4:1 6:1 4:1 5:1 4:1
7:0 4:1 3:2 2:1 3:1 4:1 6:1 4:1 5:1 4:1 6:1
4:0 3:2 2:1 3:1 4:1 6:1 4:1 5:1 4:1 6:1 3:1
3:0 2:1 3:1 4:1 6:1 4:1 5:1 4:1 6:1 3:1 6:1
2:0 3:1 4:1 6:1 4:1 5:1 4:1 6:1 3:1 6:1 3:1
3:0 4:1 6:1 4:1 5:1 4:1 6:1 3:1 6:1 3:1 1:1
4:0 6:1 4:1 5:1 4:1 6:1 3:1 6:1 3:1 1:1 2:1
6:0 4:1 5:1 4:1 6:1 3:1 6:1 3:1 1:1 2:1 3:1
4:0 5:1 4:1 6:1 3:1 6:1 3:1 1:1 2:1 3:1 1:1
5:0 4:1 6:1 3:1 6:1 3:1 1:1 2:1 3:1 1:1 2:1
4:0 6:1 3:1 6:1 3:1 1:1 2:1 3:1 1:1 2:1 5:1
6:0 3:1 6:1 3:1 1:1 2:1 3:1 1:1 2:1 5:1 6:1
3:0 6:1 3:1 1:1 2:1 3:1 1:1 2:1 5:1 6:1 5:1
6:0 3:1 1:1 2:1 3:1 1:1 2:1 5:1 6:1 5:1 6:1
3:0 1:1 2:1 3:1 1:1 2:1 5:1 6:1 5:1 6:1 7:2
1:0 2:1 3:1 1:1 2:1 5:1 6:1 5:1 6:1 7:2 4:1
2:0 3:1 1:1 2:1 5:1 6:1 5:1 6:1 7:2 4:1 3:2
3:0 1:1 2:1 5:1 6:1 5:1 6:1 7:2 4:1 3:2 2:1
1:0 2:1 5:1 6:1 5:1 6:1 7:2 4:1 3:2 2:1 3:1
2:0 5:1 6:1 5:1 6:1 7:2 4:1 3:2 2:1 3:1 4:1
5:0 6:1 5:1 6:1 7:2 4:1 3:2 2:1 3:1 4:1 6:1
6:0 5:1 6:1 7:2 4:1 3:2 2:1 3:1 4:1 6:1 5:1
5:0 6:1 7:2 4:1 3:2 2:1 3:1 4:1 6:1 5:1 4:2
6:0 7:2 4:1 3:2 2:1 3:1 4:1 6:1 5:1 4:2 6:1
7:0 4:1 3:2 2:1 3:1 4:1 6:1 5:1 4:2 6:1 3:1
4:0 3:2 2:1 3:1 4:1 6:1 5:1 4:2 6:1 3:1 6:1
3:0 2:1 3:1 4:1 6:1 5:1 4:2 6:1 3:1 6:1 3:1
2:0 3:1 4:1 6:1 5:1 4:2 6:1 3:1 6:1 3:1 1:1
3:0 4:1 6:1 5:1 4:2 6:1 3:1 6:1 3:1 1:1 2:1
4:0 6:1 5:1 4:2 6:1 3:1 6:1 3:1 1:1 2:1 3:1
6:0 5:1 4:2 6:1 3:1 6:1 3:1 1:1 2:1 3:1 1:1
5:0 4:2 6:1 3:1 6:1 3:1 1:1 2:1 3:1 1:1 2:1
4:0 6:1 3:1 6:1 3:1 1:1 2:1 3:1 1:1 2:1 5:1
6:0 3:1 6:1 3:1 1:1 2:1 3:1 1:1 2:1 5:1 6:1
3:0 6:1 3:1 1:1 2:1 3:1 1:1 2:1 5:1 6:1 5:1
6:0 3:1 1:1 2:1 3:1 1:1 2:1 5:1 6:1 5:1 6:1
3:0 1:1 2:1 3:1 1:1 2:1 5:1 6:1 5:1 6:1 7:2
1:0 2:1 3:1 1:1 2:1 5:1 6:1 5:1 6:1 7:2 4:1
2:0 3:1 1:1 2:1 5:1 6:1 5:1 6:1 7:2 4:1 3:2
3:0 1:1 2:1 5:1 6:1 5:1 6:1 7:2 4:1 3:2 2:1
1:0 2:1 5:1 6:1 5:1 6:1 7:2 4:1 3:2 2:1 3:1
2:0 5:1 6:1 5:1 6:1 7:2 4:1 3:2 2:1 3:1 4:1
5:0 6:1 5:1 6:1 7:2 4:1 3:2 2:1 3:1 4:1 6:1
6:0 5:1 6:1 7:2 4:1 3:2 2:1 3:1 4:1 6:1 5:1
5:0 6:1 7:2 4:1 3:2 2:1 3:1 4:1 6:1 5:1 4:2
6:0 7:2 4:1 3:2 2:1 3:1 4:1 6:1 5:1 4:2 6:1
7:0 4:1 3:2 2:1 3:1 4:1 6:1 5:1 4:2 6:1 3:1
4:0 3:2 2:1 3:1 4:1 6:1 5:1 4:2 6:1 3:1 6:1
3:0 2:1 3:1 4:1 6:1 5:1 4:2 6:1 3:1 6:1 4:1
2:0 3:1 4:1 6:1 5:1 4:2 6:1 3:1 6:1 4:1 1:1
3:0 4:1 6:1 5:1 4:2 6:1 3:1 6:1 4:1 1:1 2:1
4:0 6:1 5:1 4:2 6:1 3:1 6:1 4:1 1:1 2:1 1:2
6:0 5:1 4:2 6:1 3:1 6:1 4:1 1:1 2:1 1:2 2:1
5:0 4:2 6:1 3:1 6:1 4:1 1:1 2:1 1:2 2:1 5:1
4:0 6:1 3:1 6:1 4:1 1:1 2:1 1:2 2:1 5:1 6:1
6:0 3:1 6:1 4:1 1:1 2:1 1:2 2:1 5:1 6:1 5:1
3:0 6:1 4:1 1:1 2:1 1:2 2:1 5:1 6:1 5:1 6:1
6:0 4:1 1:1 2:1 1:2 2:1 5:1 6:1 5:1 6:1 7:2
4:0 1:1 2:1 1:2 2:1 5:1 6:1 5:1 6:1 7:2 4:1
1:0 2:1 1:2 2:1 5:1 6:1 5:1 6:1 7:2 4:1 3:2
2:0 1:2 2:1 5:1 6:1 5:1 6:1 7:2 4:1 3:2 2:1
1:0 2:1 5:1 6:1 5:1 6:1 7:2 4:1 3:2 2:1 3:1
2:0 5:1 6:1 5:1 6:1 7:2 4:1 3:2 2:1 3:1 4:1
5:0 6:1 5:1 6:1 7:2 4:1 3:2 2:1 3:1 4:1 6:1
6:0 5:1 6:1 7:2 4:1 3:2 2:1 3:1 4:1 6:1 5:1
5:0 6:1 7:2 4:1 3:2 2:1 3:1 4:1 6:1 5:1 4:2
6:0 7:2 4:1 3:2 2:1 3:1 4:1 6:1 5:1 4:2 6:1
7:0 4:1 3:2 2:1 3:1 4:1 6:1 5:1 4:2 6:1 3:1
4:0 3:2 2:1 3:1 4:1 6:1 5:1 4:2 6:1 3:1 6:1
3:0 2:1 3:1 4:1 6:1 5:1 4:2 6:1 3:1 6:1 3:1
2:0 3:1 4:1 6:1 5:1 4:2 6:1 3:1 6:1 3:1 1:1
3:0 4:1 6:1 5:1 4:2 6:1 3:1 6:1 3:1 1:1 2:1
4:0 6:1 5:1 4:2 6:1 3:1 6:1 3:1 1:1 2:1 3:1
6:0 5:1 4:2 6:1 3:1 6:1 3:1 1:1 2:1 3:1 1:1
5:0 4:2 6:1 3:1 6:1 3:1 1:1 2:1 3:1 1:1 2:1
4:0 6:1 3:1 6:1 3:1 1:1 2:1 3:1 1:1 2:1 5:1
6:0 3:1 6:1 3:1 1:1 2:1 3:1 1:1 2:1 5:1 6:1
3:0 6:1 3:1 1:1 2:1 3:1 1:1 2:1 5:1 6:1 5:1
6:0 3:1 1:1 2:1 3:1 1:1 2:1 5:1 6:1 5:1 6:1
3:0 1:1 2:1 3:1 1:1 2:1 5:1 6:1 5:1 6:1 7:2
1:0 2:1 3:1 1:1 2:1 5:1 6:1 5:1 6:1 7:2 4:1
2:0 3:1 1:1 2:1 5:1 6:1 5:1 6:1 7:2 4:1 3:2
3:0 1:1 2:1 5:1 6:1 5:1 6:1 7:2 4:1 3:2 2:1
1:0 2:1 5:1 6:1 5:1 6:1 7:2 4:1 3:2 2:1 3:1
2:0 5:1 6:1 5:1 6:1 7:2 4:1 3:2 2:1 3:1 4:1
5:0 6:1 5:1 6:1 7:2 4:1 3:2 2:1 3:1 4:1 6:1
6:0 5:1 6:1 7:2 4:1 3:2 2:1 3:1 4:1 6:1 5:1
5:0 6:1 7:2 4:1 3:2 2:1 3:1 4:1 6:1 5:1 4:2
6:0 7:2 4:1 3:2 2:1 3:1 4:1 6:1 5:1 4:2 6:1
7:0 4:1 3:2 2:1 3:1 4:1 6:1 5:1 4:2 6:1 3:1
4:0 3:2 2:1 3:1 4:1 6:1 5:1 4:2 6:1 3:1 6:1
3:0 2:1 3:1 4:1 6:1 5:1 4:2 6:1 3:1 6:1 3:1
2:0 3:1 4:1 6:1 5:1 4:2 6:1 3:1 6:1 3:1 1:1
3:0 4:1 6:1 5:1 4:2 6:1 3:1 6:1 3:1 1:1 2:1
4:0 6:1 5:1 4:2 6:1 3:1 6:1 3:1 1:1 2:1 1:2
6:0 5:1 4:2 6:1 3:1 6:1 3:1 1:1 2:1 1:2 2:1
5:0 4:2 6:1 3:1 6:1 3:1 1:1 2:1 1:2 2:1 5:1
4:0 6:1 3:1 6:1 3:1 1:1 2:1 1:2 2:1 5:1 6:1
6:0 3:1 6:1 3:1 1:1 2:1 1:2 2:1 5:1 6:1 5:1
3:0 6:1 3:1 1:1 2:1 1:2 2:1 5:1 6:1 5:1 6:1
6:0 3:1 1:1 2:1 1:2 2:1 5:1 6:1 5:1 6:1 7:2
3:0 1:1 2:1 1:2 2:1 5:1 6:1 5:1 6:1 7:2 5:1
1:0 2:1 1:2 2:1 5:1 6:1 5:1 6:1 7:2 5:1 4:1
2:0 1:2 2:1 5:1 6:1 5:1 6:1 7:2 5:1 4:1 3:1
1:0 2:1 5:1 6:1 5:1 6:1 7:2 5:1 4:1 3:1 2:1
2:0 5:1 6:1 5:1 6:1 7:2 5:1 4:1 3:1 2:1 3:1
5:0 6:1 5:1 6:1 7:2 5:1 4:1 3:1 2:1 3:1 4:1
6:0 5:1 6:1 7:2 5:1 4:1 3:1 2:1 3:1 4:1 6:1
5:0 6:1 7:2 5:1 4:1 3:1 2:1 3:1 4:1 6:1 5:1
6:0 7:2 5:1 4:1 3:1 2:1 3:1 4:1 6:1 5:1 4:2
7:0 5:1 4:1 3:1 2:1 3:1 4:1 6:1 5:1 4:2 6:1
5:0 4:1 3:1 2:1 3:1 4:1 6:1 5:1 4:2 6:1 3:1
4:0 3:1 2:1 3:1 4:1 6:1 5:1 4:2 6:1 3:1 6:1
3:0 2:1 3:1 4:1 6:1 5:1 4:2 6:1 3:1 6:1 3:1
2:0 3:1 4:1 6:1 5:1 4:2 6:1 3:1 6:1 3:1 1:1
3:0 4:1 6:1 5:1 4:2 6:1 3:1 6:1 3:1 1:1 2:1
4:0 6:1 5:1 4:2 6:1 3:1 6:1 3:1 1:1 2:1 3:1
6:0 5:1 4:2 6:1 3:1 6:1 3:1 1:1 2:1 3:1 1:1
5:0 4:2 6:1 3:1 6:1 3:1 1:1 2:1 3:1 1:1 2:1
4:0 6:1 3:1 6:1 3:1 1:1 2:1 3:1 1:1 2:1 5:1
6:0 3:1 6:1 3:1 1:1 2:1 3:1 1:1 2:1 5:1 6:1
3:0 6:1 3:1 1:1 2:1 3:1 1:1 2:1 5:1 6:1 5:1
6:0 3:1 1:1 2:1 3:1 1:1 2:1 5:1 6:1 5:1 6:1
3:0 1:1 2:1 3:1 1:1 2:1 5:1 6:1 5:1 6:1 7:2
1:0 2:1 3:1 1:1 2:1 5:1 6:1 5:1 6:1 7:2 4:1
2:0 3:1 1:1 2:1 5:1 6:1 5:1 6:1 7:2 4:1 5:1
3:0 1:1 2:1 5:1 6:1 5:1 6:1 7:2 4:1 5:1 3:1
1:0 2:1 5:1 6:1 5:1 6:1 7:2 4:1 5:1 3:1 2:1
2:0 5:1 6:1 5:1 6:1 7:2 4:1 5:1 3:1 2:1 3:1
5:0 6:1 5:1 6:1 7:2 4:1 5:1 3:1 2:1 3:1 4:1
6:0 5:1 6:1 7:2 4:1 5:1 3:1 2:1 3:1 4:1 6:1
5:0 6:1 7:2 4:1 5:1 3:1 2:1 3:1 4:1 6:1 5:1
6:0 7:2 4:1 5:1 3:1 2:1 3:1 4:1 6:1 5:1 6:3
7:0 4:1 5:1 3:1 2:1 3:1 4:1 6:1 5:1 6:3 3:1
4:0 5:1 3:1 2:1 3:1 4:1 6:1 5:1 6:3 3:1 6:1
5:0 3:1 2:1 3:1 4:1 6:1 5:1 6:3 3:1 6:1 3:1
3:0 2:1 3:1 4:1 6:1 5:1 6:3 3:1 6:1 3:1 1:1
2:0 3:1 4:1 6:1 5:1 6:3 3:1 6:1 3:1 1:1 2:1
3:0 4:1 6:1 5:1 6:3 3:1 6:1 3:1 1:1 2:1 3:1
4:0 6:1 5:1 6:3 3:1 6:1 3:1 1:1 2:1 3:1 1:1
6:0 5:1 6:3 3:1 6:1 3:1 1:1 2:1 3:1 1:1 2:1
5:0 6:3 3:1 6:1 3:1 1:1 2:1 3:1 1:1 2:1 5:1
6:0 3:1 6:1 3:1 1:1 2:1 3:1 1:1 2:1 5:1 6:1
3:0 6:1 3:1 1:1 2:1 3:1 1:1 2:1 5:1 6:1 5:1
6:0 3:1 1:1 2:1 3:1 1:1 2:1 5:1 6:1 5:1 6:1
3:0 1:1 2:1 3:1 1:1 2:1 5:1 6:1 5:1 6:1 7:2
1:0 2:1 3:1 1:1 2:1 5:1 6:1 5:1 6:1 7:2 4:1
2:0 3:1 1:1 2:1 5:1 6:1 5:1 6:1 7:2 4:1 3:2
3:0 1:1 2:1 5:1 6:1 5:1 6:1 7:2 4:1 3:2 2:1
1:0 2:1 5:1 6:1 5:1 6:1 7:2 4:1 3:2 2:1 3:1
2:0 5:1 6:1 5:1 6:1 7:2 4:1 3:2 2:1 3:1 4:1
5:0 6:1 5:1 6:1 7:2 4:1 3:2 2:1 3:1 4:1 6:1
6:0 5:1 6:1 7:2 4:1 3:2 2:1 3:1 4:1 6:1 5:1
5:0 6:1 7:2 4:1 3:2 2:1 3:1 4:1 6:1 5:1 4:2
6:0 7:2 4:1 3:2 2:1 3:1 4:1 6:1 5:1 4:2 6:1
7:0 4:1 3:2 2:1 3:1 4:1 6:1 5:1 4:2 6:1 3:1
4:0 3:2 2:1 3:1 4:1 6:1 5:1 4:2 6:1 3:1 6:1
3:0 2:1 3:1 4:1 6:1 5:1 4:2 6:1 3:1 6:1 3:1
2:0 3:1 4:1 6:1 5:1 4:2 6:1 3:1 6:1 3:1 1:1
3:0 4:1 6:1 5:1 4:2 6:1 3:1 6:1 3:1 1:1 2:1
4:0 6:1 5:1 4:2 6:1 3:1 6:1 3:1 1:1 2:1 3:1
6:0 5:1 4:2 6:1 3:1 6:1 3:1 1:1 2:1 3:1 1:1
5:0 4:2 6:1 3:1 6:1 3:1 1:1 2:1 3:1 1:1 2:1
4:0 6:1 3:1 6:1 3:1 1:1 2:1 3:1 1:1 2:1 5:1
6:0 3:1 6:1 3:1 1:1 2:1 3:1 1:1 2:1 5:1 6:1
3:0 6:1 3:1 1:1 2:1 3:1 1:1 2:1 5:1 6:1 5:1
6:0 3:1 1:1 2:1 3:1 1:1 2:1 5:1 6:1 5:1 6:1
3:0 1:1 2:1 3:1 1:1 2:1 5:1 6:1 5:1 6:1 7:2
1:0 2:1 3:1 1:1 2:1 5:1 6:1 5:1 6:1 7:2 4:1
2:0 3:1 1:1 2:1 5:1 6:1 5:1 6:1 7:2 4:1 3:2
3:0 1:1 2:1 5:1 6:1 5:1 6:1 7:2 4:1 3:2 2:1
1:0 2:1 5:1 6:1 5:1 6:1 7:2 4:1 3:2 2:1 3:1
2:0 5:1 6:1 5:1 6:1 7:2 4:1 3:2 2:1 3:1 4:1
5:0 6:1 5:1 6:1 7:2 4:1 3:2 2:1 3:1 4:1 6:1
6:0 5:1 6:1 7:2 4:1 3:2 2:1 3:1 4:1 6:1 5:1
5:0 6:1 7:2 4:1 3:2 2:1 3:1 4:1 6:1 5:1 4:2
6:0 7:2 4:1 3:2 2:1 3:1 4:1 6:1 5:1 4:2 6:1
7:0 4:1 3:2 2:1 3:1 4:1 6:1 5:1 4:2 6:1 3:1
4:0 3:2 2:1 3:1 4:1 6:1 5:1 4:2 6:1 3:1 6:1
3:0 2:1 3:1 4:1 6:1 5:1 4:2 6:1 3:1 6:1 3:1
2:0 3:1 4:1 6:1 5:1 4:2 6:1 3:1 6:1 3:1 1:1
3:0 4:1 6:1 5:1 4:2 6:1 3:1 6:1 3:1 1:1 2:1
4:0 6:1 5:1 4:2 6:1 3:1 6:1 3:1 1:1 2:1 1:2
6:0 5:1 4:2 6:1 3:1 6:1 3:1 1:1 2:1 1:2 2:1
5:0 4:2 6:1 3:1 6:1 3:1 1:1 2:1 1:2 2:1 5:1
4:0 6:1 3:1 6:1 3:1 1:1 2:1 1:2 2:1 5:1 6:1
6:0 3:1 6:1 3:1 1:1 2:1 1:2 2:1 5:1 6:1 5:1
3:0 6:1 3:1 1:1 2:1 1:2 2:1 5:1 6:1 5:1 6:1
6:0 3:1 1:1 2:1 1:2 2:1 5:1 6:1 5:1 6:1 7:2
3:0 1:1 2:1 1:2 2:1 5:1 6:1 5:1 6:1 7:2 4:1
1:0 2:1 1:2 2:1 5:1 6:1 5:1 6:1 7:2 4:1 3:2
2:0 1:2 2:1 5:1 6:1 5:1 6:1 7:2 4:1 3:2 2:1
1:0 2:1 5:1 6:1 5:1 6:1 7:2 4:1 3:2 2:1 3:1
2:0 5:1 6:1 5:1 6:1 7:2 4:1 3:2 2:1 3:1 4:1
5:0 6:1 5:1 6:1 7:2 4:1 3:2 2:1 3:1 4:1 6:1
6:0 5:1 6:1 7:2 4:1 3:2 2:1 3:1 4:1 6:1 5:1
5:0 6:1 7:2 4:1 3:2 2:1 3:1 4:1 6:1 5:1 4:2
6:0 7:2 4:1 3:2 2:1 3:1 4:1 6:1 5:1 4:2 6:1
7:0 4:1 3:2 2:1 3:1 4:1 6:1 5:1 4:2 6:1 3:1
4:0 3:2 2:1 3:1 4:1 6:1 5:1 4:2 6:1 3:1 6:1
3:0 2:1 3:1 4:1 6:1 5:1 4:2 6:1 3:1 6:1 3:1
2:0 3:1 4:1 6:1 5:1 4:2 6:1 3:1 6:1 3:1 1:1
3:0 4:1 6:1 5:1 4:2 6:1 3:1 6:1 3:1 1:1 2:1
4:0 6:1 5:1 4:2 6:1 3:1 6:1 3:1 1:1 2:1 1:2
6:0 5:1 4:2 6:1 3:1 6:1 3:1 1:1 2:1 1:2 2:1
5:0 4:2 6:1 3:1 6:1 3:1 1:1 2:1 1:2 2:1 5:1
4:0 6:1 3:1 6:1 3:1 1:1 2:1 1:2 2:1 5:1 6:1
6:0 3:1 6:1 3:1 1:1 2:1 1:2 2:1 5:1 6:1 5:1
3:0 6:1 3:1 1:1 2:1 1:2 2:1 5:1 6:1 5:1 6:1
6:0 3:1 1:1 2:1 1:2 2:1 5:1 6:1 5:1 6:1 7:2
3:0 1:1 2:1 1:2 2:1 5:1 6:1 5:1 6:1 7:2 4:1
1:0 2:1 1:2 2:1 5:1 6:1 5:1 6:1 7:2 4:1 3:2
2:0 1:2 2:1 5:1 6:1 5:1 6:1 7:2 4:1 3:2 2:1
1:0 2:1 5:1 6:1 5:1 6:1 7:2 4:1 3:2 2:1 3:1
2:0 5:1 6:1 5:1 6:1 7:2 4:1 3:2 2:1 3:1 4:1
5:0 6:1 5:1 6:1 7:2 4:1 3:2 2:1 3:1 4:1 6:1
6:0 5:1 6:1 7:2 4:1 3:2 2:1 3:1 4:1 6:1 5:1
5:0 6:1 7:2 4:1 3:2 2:1 3:1 4:1 6:1 5:1 4:2
6:0 7:2 4:1 3:2 2:1 3:1 4:1 6:1 5:1 4:2 6:1
7:0 4:1 3:2 2:1 3:1 4:1 6:1 5:1 4:2 6:1 3:1
4:0 3:2 2:1 3:1 4:1 6:1 5:1 4:2 6:1 3:1 5:1
3:0 2:1 3:1 4:1 6:1 5:1 4:2 6:1 3:1 5:1 3:1
2:0 3:1 4:1 6:1 5:1 4:2 6:1 3:1 5:1 3:1 1:1
3:0 4:1 6:1 5:1 4:2 6:1 3:1 5:1 3:1 1:1 2:1
4:0 6:1 5:1 4:2 6:1 3:1 5:1 3:1 1:1 2:1 1:2
6:0 5:1 4:2 6:1 3:1 5:1 3:1 1:1 2:1 1:2 2:1
5:0 4:2 6:1 3:1 5:1 3:1 1:1 2:1 1:2 2:1 5:1
4:0 6:1 3:1 5:1 3:1 1:1 2:1 1:2 2:1 5:1 6:1
6:0 3:1 5:1 3:1 1:1 2:1 1:2 2:1 5:1 6:1 5:1
3:0 5:1 3:1 1:1 2:1 1:2 2:1 5:1 6:1 5:1 6:1
5:0 3:1 1:1 2:1 1:2 2:1 5:1 6:1 5:1 6:1 7:2
3:0 1:1 2:1 1:2 2:1 5:1 6:1 5:1 6:1 7:2 4:1
1:0 2:1 1:2 2:1 5:1 6:1 5:1 6:1 7:2 4:1 2:2
2:0 1:2 2:1 5:1 6:1 5:1 6:1 7:2 4:1 2:2 3:2
1:0 2:1 5:1 6:1 5:1 6:1 7:2 4:1 2:2 3:2 4:1
2:0 5:1 6:1 5:1 6:1 7:2 4:1 2:2 3:2 4:1 6:1
5:0 6:1 5:1 6:1 7:2 4:1 2:2 3:2 4:1 6:1 5:1
6:0 5:1 6:1 7:2 4:1 2:2 3:2 4:1 6:1 5:1 4:2
5:0 6:1 7:2 4:1 2:2 3:2 4:1 6:1 5:1 4:2 6:1
6:0 7:2 4:1 2:2 3:2 4:1 6:1 5:1 4:2 6:1 3:1
7:0 4:1 2:2 3:2 4:1 6:1 5:1 4:2 6:1 3:1 6:1
4:0 2:2 3:2 4:1 6:1 5:1 4:2 6:1 3:1 6:1 3:1
2:0 3:2 4:1 6:1 5:1 4:2 6:1 3:1 6:1 3:1 1:1
3:0 4:1 6:1 5:1 4:2 6:1 3:1 6:1 3:1 1:1 2:1
4:0 6:1 5:1 4:2 6:1 3:1 6:1 3:1 1:1 2:1 3:1
6:0 5:1 4:2 6:1 3:1 6:1 3:1 1:1 2:1 3:1 1:1
5:0 4:2 6:1 3:1 6:1 3:1 1:1 2:1 3:1 1:1 2:1
4:0 6:1 3:1 6:1 3:1 1:1 2:1 3:1 1:1 2:1 5:1
6:0 3:1 6:1 3:1 1:1 2:1 3:1 1:1 2:1 5:1 6:1
3:0 6:1 3:1 1:1 2:1 3:1 1:1 2:1 5:1 6:1 5:1
6:0 3:1 1:1 2:1 3:1 1:1 2:1 5:1 6:1 5:1 6:1
3:0 1:1 2:1 3:1 1:1 2:1 5:1 6:1 5:1 6:1 7:2
1:0 2:1 3:1 1:1 2:1 5:1 6:1 5:1 6:1 7:2 4:1
2:0 3:1 1:1 2:1 5:1 6:1 5:1 6:1 7:2 4:1 3:2
3:0 1:1 2:1 5:1 6:1 5:1 6:1 7:2 4:1 3:2 2:1
1:0 2:1 5:1 6:1 5:1 6:1 7:2 4:1 3:2 2:1 3:1
2:0 5:1 6:1 5:1 6:1 7:2 4:1 3:2 2:1 3:1 4:1
5:0 6:1 5:1 6:1 7:2 4:1 3:2 2:1 3:1 4:1 6:1
6:0 5:1 6:1 7:2 4:1 3:2 2:1 3:1 4:1 6:1 5:1
5:0 6:1 7:2 4:1 3:2 2:1 3:1 4:1 6:1 5:1 4:2
6:0 7:2 4:1 3:2 2:1 3:1 4:1 6:1 5:1 4:2 6:1
7:0 4:1 3:2 2:1 3:1 4:1 6:1 5:1 4:2 6:1 3:1
4:0 3:2 2:1 3:1 4:1 6:1 5:1 4:2 6:1 3:1 6:1
3:0 2:1 3:1 4:1 6:1 5:1 4:2 6:1 3:1 6:1 3:1
2:0 3:1 4:1 6:1 5:1 4:2 6:1 3:1 6:1 3:1 1:1
3:0 4:1 6:1 5:1 4:2 6:1 3:1 6:1 3:1 1:1 2:1
4:0 6:1 5:1 4:2 6:1 3:1 6:1 3:1 1:1 2:1 1:2
6:0 5:1 4:2 6:1 3:1 6:1 3:1 1:1 2:1 1:2 2:1
5:0 4:2 6:1 3:1 6:1 3:1 1:1 2:1 1:2 2:1 5:1
4:0 6:1 3:1 6:1 3:1 1:1 2:1 1:2 2:1 5:1 6:1
6:0 3:1 6:1 3:1 1:1 2:1 1:2 2:1 5:1 6:1 5:1
3:0 6:1 3:1 1:1 2:1 1:2 2:1 5:1 6:1 5:1 6:1
6:0 3:1 1:1 2:1 1:2 2:1 5:1 6:1 5:1 6:1 7:2
3:0 1:1 2:1 1:2 2:1 5:1 6:1 5:1 6:1 7:2 4:1
1:0 2:1 1:2 2:1 5:1 6:1 5:1 6:1 7:2 4:1 3:2
2:0 1:2 2:1 5:1 6:1 5:1 6:1 7:2 4:1 3:2 2:1
1:0 2:1 5:1 6:1 5:1 6:1 7:2 4:1 3:2 2:1 3:1
2:0 5:1 6:1 5:1 6:1 7:2 4:1 3:2 2:1 3:1 4:1
5:0 6:1 5:1 6:1 7:2 4:1 3:2 2:1 3:1 4:1 6:1
6:0 5:1 6:1 7:2 4:1 3:2 2:1 3:1 4:1 6:1 5:1
5:0 6:1 7:2 4:1 3:2 2:1 3:1 4:1 6:1 5:1 4:2
6:0 7:2 4:1 3:2 2:1 3:1 4:1 6:1 5:1 4:2 6:1
7:0 4:1 3:2 2:1 3:1 4:1 6:1 5:1 4:2 6:1 3:1
4:0 3:2 2:1 3:1 4:1 6:1 5:1 4:2 6:1 3:1 6:1
3:0 2:1 3:1 4:1 6:1 5:1 4:2 6:1 3:1 6:1 3:1
2:0 3:1 4:1 6:1 5:1 4:2 6:1 3:1 6:1 3:1 1:1
3:0 4:1 6:1 5:1 4:2 6:1 3:1 6:1 3:1 1:1 2:1
4:0 6:1 5:1 4:2 6:1 3:1 6:1 3:1 1:1 2:1 1:2
6:0 5:1 4:2 6:1 3:1 6:1 3:1 1:1 2:1 1:2 2:1
5:0 4:2 6:1 3:1 6:1 3:1 1:1 2:1 1:2 2:1 5:1
4:0 6:1 3:1 6:1 3:1 1:1 2:1 1:2 2:1 5:1 6:1
6:0 3:1 6:1 3:1 1:1 2:1 1:2 2:1 5:1 6:1 5:1
3:0 6:1 3:1 1:1 2:1 1:2 2:1 5:1 6:1 5:1 6:1
6:0 3:1 1:1 2:1 1:2 2:1 5:1 6:1 5:1 6:1 7:2
3:0 1:1 2:1 1:2 2:1 5:1 6:1 5:1 6:1 7:2 5:1
1:0 2:1 1:2 2:1 5:1 6:1 5:1 6:1 7:2 5:1 4:1
2:0 1:2 2:1 5:1 6:1 5:1 6:1 7:2 5:1 4:1 3:1
1:0 2:1 5:1 6:1 5:1 6:1 7:2 5:1 4:1 3:1 2:1
2:0 5:1 6:1 5:1 6:1 7:2 5:1 4:1 3:1 2:1 3:1
5:0 6:1 5:1 6:1 7:2 5:1 4:1 3:1 2:1 3:1 4:1
6:0 5:1 6:1 7:2 5:1 4:1 3:1 2:1 3:1 4:1 6:1
5:0 6:1 7:2 5:1 4:1 3:1 2:1 3:1 4:1 6:1 5:1
6:0 7:2 5:1 4:1 3:1 2:1 3:1 4:1 6:1 5:1 4:2
7:0 5:1 4:1 3:1 2:1 3:1 4:1 6:1 5:1 4:2 6:1
5:0 4:1 3:1 2:1 3:1 4:1 6:1 5:1 4:2 6:1 3:1
4:0 3:1 2:1 3:1 4:1 6:1 5:1 4:2 6:1 3:1 6:1
3:0 2:1 3:1 4:1 6:1 5:1 4:2 6:1 3:1 6:1 3:1
2:0 3:1 4:1 6:1 5:1 4:2 6:1 3:1 6:1 3:1 1:1
3:0 4:1 6:1 5:1 4:2 6:1 3:1 6:1 3:1 1:1 2:1
4:0 6:1 5:1 4:2 6:1 3:1 6:1 3:1 1:1 2:1 3:1
6:0 5:1 4:2 6:1 3:1 6:1 3:1 1:1 2:1 3:1 1:1
5:0 4:2 6:1 3:1 6:1 3:1 1:1 2:1 3:1 1:1 2:1
4:0 6:1 3:1 6:1 3:1 1:1 2:1 3:1 1:1 2:1 5:1
6:0 3:1 6:1 3:1 1:1 2:1 3:1 1:1 2:1 5:1 6:1
3:0 6:1 3:1 1:1 2:1 3:1 1:1 2:1 5:1 6:1 5:1
6:0 3:1 1:1 2:1 3:1 1:1 2:1 5:1 6:1 5:1 6:1
3:0 1:1 2:1 3:1 1:1 2:1 5:1 6:1 5:1 6:1 8:2
1:0 2:1 3:1 1:1 2:1 5:1 6:1 5:1 6:1 8:2 4:1
2:0 3:1 1:1 2:1 5:1 6:1 5:1 6:1 8:2 4:1 3:2
3:0 1:1 2:1 5:1 6:1 5:1 6:1 8:2 4:1 3:2 2:1
1:0 2:1 5:1 6:1 5:1 6:1 8:2 4:1 3:2 2:1 3:1
2:0 5:1 6:1 5:1 6:1 8:2 4:1 3:2 2:1 3:1 4:1
5:0 6:1 5:1 6:1 8:2 4:1 3:2 2:1 3:1 4:1 6:1
6:0 5:1 6:1 8:2 4:1 3:2 2:1 3:1 4:1 6:1 5:1
5:0 6:1 8:2 4:1 3:2 2:1 3:1 4:1 6:1 5:1 4:2
6:0 8:2 4:1 3:2 2:1 3:1 4:1 6:1 5:1 4:2 6:1
8:0 4:1 3:2 2:1 3:1 4:1 6:1 5:1 4:2 6:1 3:1
4:0 3:2 2:1 3:1 4:1 6:1 5:1 4:2 6:1 3:1 6:1
3:0 2:1 3:1 4:1 6:1 5:1 4:2 6:1 3:1 6:1 3:1
2:0 3:1 4:1 6:1 5:1 4:2 6:1 3:1 6:1 3:1 1:1
3:0 4:1 6:1 5:1 4:2 6:1 3:1 6:1 3:1 1:1 2:1
4:0 6:1 5:1 4:2 6:1 3:1 6:1 3:1 1:1 2:1 1:2
6:0 5:1 4:2 6:1 3:1 6:1 3:1 1:1 2:1 1:2 2:1
5:0 4:2 6:1 3:1 6:1 3:1 1:1 2:1 1:2 2:1 5:1
4:0 6:1 3:1 6:1 3:1 1:1 2:1 1:2 2:1 5:1 6:1
6:0 3:1 6:1 3:1 1:1 2:1 1:2 2:1 5:1 6:1 5:1
3:0 6:1 3:1 1:1 2:1 1:2 2:1 5:1 6:1 5:1 6:1
6:0 3:1 1:1 2:1 1:2 2:1 5:1 6:1 5:1 6:1 7:2
3:0 1:1 2:1 1:2 2:1 5:1 6:1 5:1 6:1 7:2 4:1
1:0 2:1 1:2 2:1 5:1 6:1 5:1 6:1 7:2 4:1 5:1
2:0 1:2 2:1 5:1 6:1 5:1 6:1 7:2 4:1 5:1 3:1
1:0 2:1 5:1 6:1 5:1 6:1 7:2 4:1 5:1 3:1 2:1
2:0 5:1 6:1 5:1 6:1 7:2 4:1 5:1 3:1 2:1 3:1
5:0 6:1 5:1 6:1 7:2 4:1 5:1 3:1 2:1 3:1 4:1
6:0 5:1 6:1 7:2 4:1 5:1 3:1 2:1 3:1 4:1 6:1
5:0 6:1 7:2 4:1 5:1 3:1 2:1 3:1 4:1 6:1 5:1
6:0 7:2 4:1 5:1 3:1 2:1 3:1 4:1 6:1 5:1 4:2
7:0 4:1 5:1 3:1 2:1 3:1 4:1 6:1 5:1 4:2 6:1
4:0 5:1 3:1 2:1 3:1 4:1 6:1 5:1 4:2 6:1 3:1
5:0 3:1 2:1 3:1 4:1 6:1 5:1 4:2 6:1 3:1 6:1
3:0 2:1 3:1 4:1 6:1 5:1 4:2 6:1 3:1 6:1 3:1
2:0 3:1 4:1 6:1 5:1 4:2 6:1 3:1 6:1 3:1 1:1
3:0 4:1 6:1 5:1 4:2 6:1 3:1 6:1 3:1 1:1 2:1
4:0 6:1 5:1 4:2 6:1 3:1 6:1 3:1 1:1 2:1 1:2
6:0 5:1 4:2 6:1 3:1 6:1 3:1 1:1 2:1 1:2 2:1
5:0 4:2 6:1 3:1 6:1 3:1 1:1 2:1 1:2 2:1 5:1
4:0 6:1 3:1 6:1 3:1 1:1 2:1 1:2 2:1 5:1 6:1
6:0 3:1 6:1 3:1 1:1 2:1 1:2 2:1 5:1 6:1 5:1
3:0 6:1 3:1 1:1 2:1 1:2 2:1 5:1 6:1 5:1 6:1
6:0 3:1 1:1 2:1 1:2 2:1 5:1 6:1 5:1 6:1 7:2
3:0 1:1 2:1 1:2 2:1 5:1 6:1 5:1 6:1 7:2 4:1
1:0 2:1 1:2 2:1 5:1 6:1 5:1 6:1 7:2 4:1 3:2
2:0 1:2 2:1 5:1 6:1 5:1 6:1 7:2 4:1 3:2 2:1
1:0 2:1 5:1 6:1 5:1 6:1 7:2 4:1 3:2 2:1 3:1
2:0 5:1 6:1 5:1 6:1 7:2 4:1 3:2 2:1 3:1 4:1
5:0 6:1 5:1 6:1 7:2 4:1 3:2 2:1 3:1 4:1 6:1
6:0 5:1 6:1 7:2 4:1 3:2 2:1 3:1 4:1 6:1 5:1
5:0 6:1 7:2 4:1 3:2 2:1 3:1 4:1 6:1 5:1 4:2
6:0 7:2 4:1 3:2 2:1 3:1 4:1 6:1 5:1 4:2 6:1
7:0 4:1 3:2 2:1 3:1 4:1 6:1 5:1 4:2 6:1 3:1
4:0 3:2 2:1 3:1 4:1 6:1 5:1 4:2 6:1 3:1 6:1
3:0 2:1 3:1 4:1 6:1 5:1 4:2 6:1 3:1 6:1 3:1
2:0 3:1 4:1 6:1 5:1 4:2 6:1 3:1 6:1 3:1 1:1
3:0 4:1 6:1 5:1 4:2 6:1 3:1 6:1 3:1 1:1 2:1
4:0 6:1 5:1 4:2 6:1 3:1 6:1 3:1 1:1 2:1 1:2
6:0 5:1 4:2 6:1 3:1 6:1 3:1 1:1 2:1 1:2 2:1
5:0 4:2 6:1 3:1 6:1 3:1 1:1 2:1 1:2 2:1 5:1
4:0 6:1 3:1 6:1 3:1 1:1 2:1 1:2 2:1 5:1 6:1
6:0 3:1 6:1 3:1 1:1 2:1 1:2 2:1 5:1 6:1 5:1
3:0 6:1 3:1 1:1 2:1 1:2 2:1 5:1 6:1 5:1 6:1
6:0 3:1 1:1 2:1 1:2 2:1 5:1 6:1 5:1 6:1 7:2
3:0 1:1 2:1 1:2 2:1 5:1 6:1 5:1 6:1 7:2 4:1
1:0 2:1 1:2 2:1 5:1 6:1 5:1 6:1 7:2 4:1 3:2
2:0 1:2 2:1 5:1 6:1 5:1 6:1 7:2 4:1 3:2 2:1
1:0 2:1 5:1 6:1 5:1 6:1 7:2 4:1 3:2 2:1 3:1
2:0 5:1 6:1 5:1 6:1 7:2 4:1 3:2 2:1 3:1 4:1
5:0 6:1 5:1 6:1 7:2 4:1 3:2 2:1 3:1 4:1 6:1
6:0 5:1 6:1 7:2 4:1 3:2 2:1 3:1 4:1 6:1 5:1
5:0 6:1 7:2 4:1 3:2 2:1 3:1 4:1 6:1 5:1 4:2
6:0 7:2 4:1 3:2 2:1 3:1 4:1 6:1 5:1 4:2 6:1
7:0 4:1 3:2 2:1 3:1 4:1 6:1 5:1 4:2 6:1 3:1
4:0 3:2 2:1 3:1 4:1 6:1 5:1 4:2 6:1 3:1 6:1
3:0 2:1 3:1 4:1 6:1 5:1 4:2 6:1 3:1 6:1 3:1
2:0 3:1 4:1 6:1 5:1 4:2 6:1 3:1 6:1 3:1 1:1
3:0 4:1 6:1 5:1 4:2 6:1 3:1 6:1 3:1 1:1 2:1
4:0 6:1 5:1 4:2 6:1 3:1 6:1 3:1 1:1 2:1 3:1
6:0 5:1 4:2 6:1 3:1 6:1 3:1 1:1 2:1 3:1 1:1
5:0 4:2 6:1 3:1 6:1 3:1 1:1 2:1 3:1 1:1 2:1
4:0 6:1 3:1 6:1 3:1 1:1 2:1 3:1 1:1 2:1 5:1
6:0 3:1 6:1 3:1 1:1 2:1 3:1 1:1 2:1 5:1 6:1
3:0 6:1 3:1 1:1 2:1 3:1 1:1 2:1 5:1 6:1 5:1
6:0 3:1 1:1 2:1 3:1 1:1 2:1 5:1 6:1 5:1 6:1
3:0 1:1 2:1 3:1 1:1 2:1 5:1 6:1 5:1 6:1 7:2
1:0 2:1 3:1 1:1 2:1 5:1 6:1 5:1 6:1 7:2 4:1
2:0 3:1 1:1 2:1 5:1 6:1 5:1 6:1 7:2 4:1 3:2
3:0 1:1 2:1 5:1 6:1 5:1 6:1 7:2 4:1 3:2 2:1
1:0 2:1 5:1 6:1 5:1 6:1 7:2 4:1 3:2 2:1 3:1
2:0 5:1 6:1 5:1 6:1 7:2 4:1 3:2 2:1 3:1 4:1
5:0 6:1 5:1 6:1 7:2 4:1 3:2 2:1 3:1 4:1 6:1
6:0 5:1 6:1 7:2 4:1 3:2 2:1 3:1 4:1 6:1 5:1
5:0 6:1 7:2 4:1 3:2 2:1 3:1 4:1 6:1 5:1 4:2
6:0 7:2 4:1 3:2 2:1 3:1 4:1 6:1 5:1 4:2 6:1
7:0 4:1 3:2 2:1 3:1 4:1 6:1 5:1 4:2 6:1 3:1
4:0 3:2 2:1 3:1 4:1 6:1 5:1 4:2 6:1 3:1 6:1
3:0 2:1 3:1 4:1 6:1 5:1 4:2 6:1 3:1 6:1 3:1
2:0 3:1 4:1 6:1 5:1 4:2 6:1 3:1 6:1 3:1 1:1
3:0 4:1 6:1 5:1 4:2 6:1 3:1 6:1 3:1 1:1 2:1
4:0 6:1 5:1 4:2 6:1 3:1 6:1 3:1 1:1 2:1 3:1
6:0 5:1 4:2 6:1 3:1 6:1 3:1 1:1 2:1 3:1 1:1
5:0 4:2 6:1 3:1 6:1 3:1 1:1 2:1 3:1 1:1 2:1
4:0 6:1 3:1 6:1 3:1 1:1 2:1 3:1 1:1 2:1 5:1
6:0 3:1 6:1 3:1 1:1 2:1 3:1 1:1 2:1 5:1 6:1
3:0 6:1 3:1 1:1 2:1 3:1 1:1 2:1 5:1 6:1 5:1
6:0 3:1 1:1 2:1 3:1 1:1 2:1 5:1 6:1 5:1 6:1
3:0 1:1 2:1 3:1 1:1 2:1 5:1 6:1 5:1 6:1 7:2
1:0 2:1 3:1 1:1 2:1 5:1 6:1 5:1 6:1 7:2 5:1
2:0 3:1 1:1 2:1 5:1 6:1 5:1 6:1 7:2 5:1 4:1
3:0 1:1 2:1 5:1 6:1 5:1 6:1 7:2 5:1 4:1 3:1
1:0 2:1 5:1 6:1 5:1 6:1 7:2 5:1 4:1 3:1 2:1
2:0 5:1 6:1 5:1 6:1 7:2 5:1 4:1 3:1 2:1 3:1
5:0 6:1 5:1 6:1 7:2 5:1 4:1 3:1 2:1 3:1 4:1
6:0 5:1 6:1 7:2 5:1 4:1 3:1 2:1 3:1 4:1 6:1
5:0 6:1 7:2 5:1 4:1 3:1 2:1 3:1 4:1 6:1 5:1
6:0 7:2 5:1 4:1 3:1 2:1 3:1 4:1 6:1 5:1 6:3
7:0 5:1 4:1 3:1 2:1 3:1 4:1 6:1 5:1 6:3 3:1
5:0 4:1 3:1 2:1 3:1 4:1 6:1 5:1 6:3 3:1 6:1
4:0 3:1 2:1 3:1 4:1 6:1 5:1 6:3 3:1 6:1 3:1
3:0 2:1 3:1 4:1 6:1 5:1 6:3 3:1 6:1 3:1 1:1
2:0 3:1 4:1 6:1 5:1 6:3 3:1 6:1 3:1 1:1 2:1
3:0 4:1 6:1 5:1 6:3 3:1 6:1 3:1 1:1 2:1 1:2
4:0 6:1 5:1 6:3 3:1 6:1 3:1 1:1 2:1 1:2 2:1
6:0 5:1 6:3 3:1 6:1 3:1 1:1 2:1 1:2 2:1 5:1
5:0 6:3 3:1 6:1 3:1 1:1 2:1 1:2 2:1 5:1 6:1
6:0 3:1 6:1 3:1 1:1 2:1 1:2 2:1 5:1 6:1 5:1
3:0 6:1 3:1 1:1 2:1 1:2 2:1 5:1 6:1 5:1 6:1
6:0 3:1 1:1 2:1 1:2 2:1 5:1 6:1 5:1 6:1 7:2
3:0 1:1 2:1 1:2 2:1 5:1 6:1 5:1 6:1 7:2 4:1
1:0 2:1 1:2 2:1 5:1 6:1 5:1 6:1 7:2 4:1 3:2
2:0 1:2 2:1 5:1 6:1 5:1 6:1 7:2 4:1 3:2 2:1
1:0 2:1 5:1 6:1 5:1 6:1 7:2 4:1 3:2 2:1 3:1
2:0 5:1 6:1 5:1 6:1 7:2 4:1 3:2 2:1 3:1 4:1
5:0 6:1 5:1 6:1 7:2 4:1 3:2 2:1 3:1 4:1 6:1
6:0 5:1 6:1 7:2 4:1 3:2 2:1 3:1 4:1 6:1 5:1
5:0 6:1 7:2 4:1 3:2 2:1 3:1 4:1 6:1 5:1 4:2
6:0 7:2 4:1 3:2 2:1 3:1 4:1 6:1 5:1 4:2 6:1
7:0 4:1 3:2 2:1 3:1 4:1 6:1 5:1 4:2 6:1 3:1
4:0 3:2 2:1 3:1 4:1 6:1 5:1 4:2 6:1 3:1 6:1
3:0 2:1 3:1 4:1 6:1 5:1 4:2 6:1 3:1 6:1 3:1
2:0 3:1 4:1 6:1 5:1 4:2 6:1 3:1 6:1 3:1 1:1
3:0 4:1 6:1 5:1 4:2 6:1 3:1 6:1 3:1 1:1 2:1
4:0 6:1 5:1 4:2 6:1 3:1 6:1 3:1 1:1 2:1 1:2
6:0 5:1 4:2 6:1 3:1 6:1 3:1 1:1 2:1 1:2 2:1
5:0 4:2 6:1 3:1 6:1 3:1 1:1 2:1 1:2 2:1 5:1
4:0 6:1 3:1 6:1 3:1 1:1 2:1 1:2 2:1 5:1 6:1
6:0 3:1 6:1 3:1 1:1 2:1 1:2 2:1 5:1 6:1 5:1
3:0 6:1 3:1 1:1 2:1 1:2 2:1 5:1 6:1 5:1 6:1
6:0 3:1 1:1 2:1 1:2 2:1 5:1 6:1 5:1 6:1 7:2
3:0 1:1 2:1 1:2 2:1 5:1 6:1 5:1 6:1 7:2 4:1
1:0 2:1 1:2 2:1 5:1 6:1 5:1 6:1 7:2 4:1 3:2
2:0 1:2 2:1 5:1 6:1 5:1 6:1 7:2 4:1 3:2 2:1
1:0 2:1 5:1 6:1 5:1 6:1 7:2 4:1 3:2 2:1 3:1
2:0 5:1 6:1 5:1 6:1 7:2 4:1 3:2 2:1 3:1 4:1
5:0 6:1 5:1 6:1 7:2 4:1 3:2 2:1 3:1 4:1 6:1
6:0 5:1 6:1 7:2 4:1 3:2 2:1 3:1 4:1 6:1 5:1
5:0 6:1 7:2 4:1 3:2 2:1 3:1 4:1 6:1 5:1 4:2
6:0 7:2 4:1 3:2 2:1 3:1 4:1 6:1 5:1 4:2 6:1
7:0 4:1 3:2 2:1 3:1 4:1 6:1 5:1 4:2 6:1 3:1
4:0 3:2 2:1 3:1 4:1 6:1 5:1 4:2 6:1 3:1 6:1
3:0 2:1 3:1 4:1 6:1 5:1 4:2 6:1 3:1 6:1 3:1
2:0 3:1 4:1 6:1 5:1 4:2 6:1 3:1 6:1 3:1 1:1
3:0 4:1 6:1 5:1 4:2 6:1 3:1 6:1 3:1 1:1 2:1
4:0 6:1 5:1 4:2 6:1 3:1 6:1 3:1 1:1 2:1 3:1
6:0 5:1 4:2 6:1 3:1 6:1 3:1 1:1 2:1 3:1 1:1
5:0 4:2 6:1 3:1 6:1 3:1 1:1 2:1 3:1 1:1 2:1
4:0 6:1 3:1 6:1 3:1 1:1 2:1 3:1 1:1 2:1 5:1
6:0 3:1 6:1 3:1 1:1 2:1 3:1 1:1 2:1 5:1 6:1
3:0 6:1 3:1 1:1 2:1 3:1 1:1 2:1 5:1 6:1 5:1
6:0 3:1 1:1 2:1 3:1 1:1 2:1 5:1 6:1 5:1 6:1
3:0 1:1 2:1 3:1 1:1 2:1 5:1 6:1 5:1 6:1 7:2
1:0 2:1 3:1 1:1 2:1 5:1 6:1 5:1 6:1 7:2 4:1
2:0 3:1 1:1 2:1 5:1 6:1 5:1 6:1 7:2 4:1 3:2
3:0 1:1 2:1 5:1 6:1 5:1 6:1 7:2 4:1 3:2 2:1
1:0 2:1 5:1 6:1 5:1 6:1 7:2 4:1 3:2 2:1 3:1
2:0 5:1 6:1 5:1 6:1 7:2 4:1 3:2 2:1 3:1 4:1
5:0 6:1 5:1 6:1 7:2 4:1 3:2 2:1 3:1 4:1 6:1
6:0 5:1 6:1 7:2 4:1 3:2 2:1 3:1 4:1 6:1 5:1
5:0 6:1 7:2 4:1 3:2 2:1 3:1 4:1 6:1 5:1 4:2
6:0 7:2 4:1 3:2 2:1 3:1 4:1 6:1 5:1 4:2 6:1
7:0 4:1 3:2 2:1 3:1 4:1 6:1 5:1 4:2 6:1 3:1
4:0 3:2 2:1 3:1 4:1 6:1 5:1 4:2 6:1 3:1 6:1
3:0 2:1 3:1 4:1 6:1 5:1 4:2 6:1 3:1 6:1 3:1
2:0 3:1 4:1 6:1 5:1 4:2 6:1 3:1 6:1 3:1 1:1
3:0 4:1 6:1 5:1 4:2 6:1 3:1 6:1 3:1 1:1 2:1
4:0 6:1 5:1 4:2 6:1 3:1 6:1 3:1 1:1 2:1 3:1
6:0 5:1 4:2 6:1 3:1 6:1 3:1 1:1 2:1 3:1 1:1
5:0 4:2 6:1 3:1 6:1 3:1 1:1 2:1 3:1 1:1 2:1
4:0 6:1 3:1 6:1 3:1 1:1 2:1 3:1 1:1 2:1 5:1
6:0 3:1 6:1 3:1 1:1 2:1 3:1 1:1 2:1 5:1 6:1
3:0 6:1 3:1 1:1 2:1 3:1 1:1 2:1 5:1 6:1 5:1
6:0 3:1 1:1 2:1 3:1 1:1 2:1 5:1 6:1 5:1 6:1
3:0 1:1 2:1 3:1 1:1 2:1 5:1 6:1 5:1 6:1 7:2
1:0 2:1 3:1 1:1 2:1 5:1 6:1 5:1 6:1 7:2 4:1
2:0 3:1 1:1 2:1 5:1 6:1 5:1 6:1 7:2 4:1 3:2
3:0 1:1 2:1 5:1 6:1 5:1 6:1 7:2 4:1 3:2 2:1
1:0 2:1 5:1 6:1 5:1 6:1 7:2 4:1 3:2 2:1 3:1
2:0 5:1 6:1 5:1 6:1 7:2 4:1 3:2 2:1 3:1 4:1
5:0 6:1 5:1 6:1 7:2 4:1 3:2 2:1 3:1 4:1 6:1
6:0 5:1 6:1 7:2 4:1 3:2 2:1 3:1 4:1 6:1 5:1
5:0 6:1 7:2 4:1 3:2 2:1 3:1 4:1 6:1 5:1 4:1
6:0 7:2 4:1 3:2 2:1 3:1 4:1 6:1 5:1 4:1 6:2
7:0 4:1 3:2 2:1 3:1 4:1 6:1 5:1 4:1 6:2 3:1
4:0 3:2 2:1 3:1 4:1 6:1 5:1 4:1 6:2 3:1 6:1
3:0 2:1 3:1 4:1 6:1 5:1 4:1 6:2 3:1 6:1 3:1
2:0 3:1 4:1 6:1 5:1 4:1 6:2 3:1 6:1 3:1 1:1
3:0 4:1 6:1 5:1 4:1 6:2 3:1 6:1 3:1 1:1 2:1
4:0 6:1 5:1 4:1 6:2 3:1 6:1 3:1 1:1 2:1 3:1
6:0 5:1 4:1 6:2 3:1 6:1 3:1 1:1 2:1 3:1 1:1
5:0 4:1 6:2 3:1 6:1 3:1 1:1 2:1 3:1 1:1 2:1
4:0 6:2 3:1 6:1 3:1 1:1 2:1 3:1 1:1 2:1 5:1
6:0 3:1 6:1 3:1 1:1 2:1 3:1 1:1 2:1 5:1 6:1
3:0 6:1 3:1 1:1 2:1 3:1 1:1 2:1 5:1 6:1 5:1
6:0 3:1 1:1 2:1 3:1 1:1 2:1 5:1 6:1 5:1 6:1
3:0 1:1 2:1 3:1 1:1 2:1 5:1 6:1 5:1 6:1 7:2
1:0 2:1 3:1 1:1 2:1 5:1 6:1 5:1 6:1 7:2 4:1
2:0 3:1 1:1 2:1 5:1 6:1 5:1 6:1 7:2 4:1 3:2
3:0 1:1 2:1 5:1 6:1 5:1 6:1 7:2 4:1 3:2 2:1
1:0 2:1 5:1 6:1 5:1 6:1 7:2 4:1 3:2 2:1 3:1
2:0 5:1 6:1 5:1 6:1 7:2 4:1 3:2 2:1 3:1 4:1
5:0 6:1 5:1 6:1 7:2 4:1 3:2 2:1 3:1 4:1 6:1
6:0 5:1 6:1 7:2 4:1 3:2 2:1 3:1 4:1 6:1 5:1
5:0 6:1 7:2 4:1 3:2 2:1 3:1 4:1 6:1 5:1 4:2
6:0 7:2 4:1 3:2 2:1 3:1 4:1 6:1 5:1 4:2 6:1
7:0 4:1 3:2 2:1 3:1 4:1 6:1 5:1 4:2 6:1 3:1
4:0 3:2 2:1 3:1 4:1 6:1 5:1 4:2 6:1 3:1 6:1
3:0 2:1 3:1 4:1 6:1 5:1 4:2 6:1 3:1 6:1 3:1
2:0 3:1 4:1 6:1 5:1 4:2 6:1 3:1 6:1 3:1 1:1
3:0 4:1 6:1 5:1 4:2 6:1 3:1 6:1 3:1 1:1 2:1
4:0 6:1 5:1 4:2 6:1 3:1 6:1 3:1 1:1 2:1 1:2
6:0 5:1 4:2 6:1 3:1 6:1 3:1 1:1 2:1 1:2 2:1
5:0 4:2 6:1 3:1 6:1 3:1 1:1 2:1 1:2 2:1 5:1
4:0 6:1 3:1 6:1 3:1 1:1 2:1 1:2 2:1 5:1 6:1
6:0 3:1 6:1 3:1 1:1 2:1 1:2 2:1 5:1 6:1 5:1
3:0 6:1 3:1 1:1 2:1 1:2 2:1 5:1 6:1 5:1 6:1
6:0 3:1 1:1 2:1 1:2 2:1 5:1 6:1 5:1 6:1 7:2
3:0 1:1 2:1 1:2 2:1 5:1 6:1 5:1 6:1 7:2 4:1
1:0 2:1 1:2 2:1 5:1 6:1 5:1 6:1 7:2 4:1 2:2
2:0 1:2 2:1 5:1 6:1 5:1 6:1 7:2 4:1 2:2 3:2
1:0 2:1 5:1 6:1 5:1 6:1 7:2 4:1 2:2 3:2 4:1
2:0 5:1 6:1 5:1 6:1 7:2 4:1 2:2 3:2 4:1 6:1
5:0 6:1 5:1 6:1 7:2 4:1 2:2 3:2 4:1 6:1 5:1
6:0 5:1 6:1 7:2 4:1 2:2 3:2 4:1 6:1 5:1 4:2
5:0 6:1 7:2 4:1 2:2 3:2 4:1 6:1 5:1 4:2 6:1
6:0 7:2 4:1 2:2 3:2 4:1 6:1 5:1 4:2 6:1 3:1
7:0 4:1 2:2 3:2 4:1 6:1 5:1 4:2 6:1 3:1 5:1
4:0 2:2 3:2 4:1 6:1 5:1 4:2 6:1 3:1 5:1 3:1
2:0 3:2 4:1 6:1 5:1 4:2 6:1 3:1 5:1 3:1 1:1
3:0 4:1 6:1 5:1 4:2 6:1 3:1 5:1 3:1 1:1 2:1
4:0 6:1 5:1 4:2 6:1 3:1 5:1 3:1 1:1 2:1 1:2
6:0 5:1 4:2 6:1 3:1 5:1 3:1 1:1 2:1 1:2 2:1
5:0 4:2 6:1 3:1 5:1 3:1 1:1 2:1 1:2 2:1 5:1
4:0 6:1 3:1 5:1 3:1 1:1 2:1 1:2 2:1 5:1 6:1
6:0 3:1 5:1 3:1 1:1 2:1 1:2 2:1 5:1 6:1 5:1
3:0 5:1 3:1 1:1 2:1 1:2 2:1 5:1 6:1 5:1 6:1
5:0 3:1 1:1 2:1 1:2 2:1 5:1 6:1 5:1 6:1 7:2
3:0 1:1 2:1 1:2 2:1 5:1 6:1 5:1 6:1 7:2 4:1
1:0 2:1 1:2 2:1 5:1 6:1 5:1 6:1 7:2 4:1 3:2
2:0 1:2 2:1 5:1 6:1 5:1 6:1 7:2 4:1 3:2 2:1
1:0 2:1 5:1 6:1 5:1 6:1 7:2 4:1 3:2 2:1 3:1
2:0 5:1 6:1 5:1 6:1 7:2 4:1 3:2 2:1 3:1 4:1
5:0 6:1 5:1 6:1 7:2 4:1 3:2 2:1 3:1 4:1 6:1
6:0 5:1 6:1 7:2 4:1 3:2 2:1 3:1 4:1 6:1 5:1
5:0 6:1 7:2 4:1 3:2 2:1 3:1 4:1 6:1 5:1 4:2
6:0 7:2 4:1 3:2 2:1 3:1 4:1 6:1 5:1 4:2 6:1
7:0 4:1 3:2 2:1 3:1 4:1 6:1 5:1 4:2 6:1 3:1
4:0 3:2 2:1 3:1 4:1 6:1 5:1 4:2 6:1 3:1 6:1
3:0 2:1 3:1 4:1 6:1 5:1 4:2 6:1 3:1 6:1 3:1
2:0 3:1 4:1 6:1 5:1 4:2 6:1 3:1 6:1 3:1 1:1
3:0 4:1 6:1 5:1 4:2 6:1 3:1 6:1 3:1 1:1 2:1
4:0 6:1 5:1 4:2 6:1 3:1 6:1 3:1 1:1 2:1 1:2
6:0 5:1 4:2 6:1 3:1 6:1 3:1 1:1 2:1 1:2 2:1
5:0 4:2 6:1 3:1 6:1 3:1 1:1 2:1 1:2 2:1 5:1
4:0 6:1 3:1 6:1 3:1 1:1 2:1 1:2 2:1 5:1 6:1
6:0 3:1 6:1 3:1 1:1 2:1 1:2 2:1 5:1 6:1 5:1
3:0 6:1 3:1 1:1 2:1 1:2 2:1 5:1 6:1 5:1 6:1
6:0 3:1 1:1 2:1 1:2 2:1 5:1 6:1 5:1 6:1 7:2
3:0 1:1 2:1 1:2 2:1 5:1 6:1 5:1 6:1 7:2 4:1
1:0 2:1 1:2 2:1 5:1 6:1 5:1 6:1 7:2 4:1 3:2
2:0 1:2 2:1 5:1 6:1 5:1 6:1 7:2 4:1 3:2 2:1
1:0 2:1 5:1 6:1 5:1 6:1 7:2 4:1 3:2 2:1 3:1
2:0 5:1 6:1 5:1 6:1 7:2 4:1 3:2 2:1 3:1 4:1
5:0 6:1 5:1 6:1 7:2 4:1 3:2 2:1 3:1 4:1 6:1
6:0 5:1 6:1 7:2 4:1 3:2 2:1 3:1 4:1 6:1 5:1
5:0 6:1 7:2 4:1 3:2 2:1 3:1 4:1 6:1 5:1 4:2
6:0 7:2 4:1 3:2 2:1 3:1 4:1 6:1 5:1 4:2 6:1
7:0 4:1 3:2 2:1 3:1 4:1 6:1 5:1 4:2 6:1 3:1
4:0 3:2 2:1 3:1 4:1 6:1 5:1 4:2 6:1 3:1 6:1
3:0 2:1 3:1 4:1 6:1 5:1 4:2 6:1 3:1 6:1 3:1
2:0 3:1 4:1 6:1 5:1 4:2 6:1 3:1 6:1 3:1 1:1
3:0 4:1 6:1 5:1 4:2 6:1 3:1 6:1 3:1 1:1 2:1
4:0 6:1 5:1 4:2 6:1 3:1 6:1 3:1 1:1 2:1 1:2
6:0 5:1 4:2 6:1 3:1 6:1 3:1 1:1 2:1 1:2 2:1
5:0 4:2 6:1 3:1 6:1 3:1 1:1 2:1 1:2 2:1 5:1
4:0 6:1 3:1 6:1 3:1 1:1 2:1 1:2 2:1 5:1 6:1
6:0 3:1 6:1 3:1 1:1 2:1 1:2 2:1 5:1 6:1 5:1
3:0 6:1 3:1 1:1 2:1 1:2 2:1 5:1 6:1 5:1 6:1
6:0 3:1 1:1 2:1 1:2 2:1 5:1 6:1 5:1 6:1 7:2
3:0 1:1 2:1 1:2 2:1 5:1 6:1 5:1 6:1 7:2 4:1
1:0 2:1 1:2 2:1 5:1 6:1 5:1 6:1 7:2 4:1 3:2
2:0 1:2 2:1 5:1 6:1 5:1 6:1 7:2 4:1 3:2 2:1
1:0 2:1 5:1 6:1 5:1 6:1 7:2 4:1 3:2 2:1 3:1
2:0 5:1 6:1 5:1 6:1 7:2 4:1 3:2 2:1 3:1 4:1
5:0 6:1 5:1 6:1 7:2 4:1 3:2 2:1 3:1 4:1 6:1
6:0 5:1 6:1 7:2 4:1 3:2 2:1 3:1 4:1 6:1 5:1
5:0 6:1 7:2 4:1 3:2 2:1 3:1 4:1 6:1 5:1 6:3
6:0 7:2 4:1 3:2 2:1 3:1 4:1 6:1 5:1 6:3 3:1
7:0 4:1 3:2 2:1 3:1 4:1 6:1 5:1 6:3 3:1 6:1
4:0 3:2 2:1 3:1 4:1 6:1 5:1 6:3 3:1 6:1 3:1
3:0 2:1 3:1 4:1 6:1 5:1 6:3 3:1 6:1 3:1 1:1
2:0 3:1 4:1 6:1 5:1 6:3 3:1 6:1 3:1 1:1 2:1
3:0 4:1 6:1 5:1 6:3 3:1 6:1 3:1 1:1 2:1 3:1
4:0 6:1 5:1 6:3 3:1 6:1 3:1 1:1 2:1 3:1 1:1
6:0 5:1 6:3 3:1 6:1 3:1 1:1 2:1 3:1 1:1 2:1
5:0 6:3 3:1 6:1 3:1 1:1 2:1 3:1 1:1 2:1 5:1
6:0 3:1 6:1 3:1 1:1 2:1 3:1 1:1 2:1 5:1 6:1
3:0 6:1 3:1 1:1 2:1 3:1 1:1 2:1 5:1 6:1 5:1
6:0 3:1 1:1 2:1 3:1 1:1 2:1 5:1 6:1 5:1 6:1
3:0 1:1 2:1 3:1 1:1 2:1 5:1 6:1 5:1 6:1 7:2
1:0 2:1 3:1 1:1 2:1 5:1 6:1 5:1 6:1 7:2
2:0 3:1 1:1 2:1 5:1 6:1 5:1 6:1 7:2
3:0 1:1 2:1 5:1 6:1 5:1 6:1 7:2
1:0 2:1 5:1 6:1 5:1 6:1 7:2
2:0 5:1 6:1 5:1 6:1 7:2
5:0 6:1 5:1 6:1 7:2
6:0 5:1 6:1 7:2
5:0 6:1 7:2
6:0 7:2
7:0
4:0 3:2 2:1 3:1 4:1 6:1 5:1 4:2 6:1 3:1 6:1 3:1 1:1 2:1 3:1 1:1 2:1 5:1 6:1 5:1 7:1 6:1 7:1 4:1 5:1 3:1 2:1 3:1 4:1 6:1 5:1 4:2 6:1 3:1 6:1 3:1 1:1 2:1 1:2 2:1 5:1 6:1 5:1 6:1 7:2 4:1 3:2 2:1 3:1 4:1 6:1 5:1 4:2 6:1 3:1 6:1 3:1 1:1 2:1 1:2 2:1 5:1 6:1 5:1 6:1 7:2 4:1 3:2 2:1 3:1 4:1 6:1 5:1 4:2 6:1 3:1 6:1 3:1 1:1 2:1 1:2 2:1 5:1 6:1 5:1 6:1 7:2 4:1 3:2 2:1 3:1 4:1 6:1 5:1 4:2 6:1 4:1 6:1 3:1 1:1 2:1 3:1 1:1 2:1 4:1 6:1 5:1 6:1 7:2 4:1 3:2 2:1 3:1 4:1 6:1 5:1 4:2 6:1 3:1 6:1 3:1 1:1 2:1 1:2 2:1 5:1 6:1 5:1 6:1 7:2 4:1 3:2 2:1 3:1 4:1 6:1 5:1 4:2 6:1 3:1 6:1 3:1 1:1 2:1 1:2 2:1 5:1 6:1 5:1 6:1 7:2 4:1 3:2 2:1 3:1 4:1 6:1 5:1 4:2 6:1 3:1 6:1 3:1 1:1 2:1 1:2 2:1 5:1 6:1 5:1 6:1 7:2 4:1 5:1 2:1 3:2 4:1 6:1 5:1 4:2 6:1 3:1 6:1 3:1 1:1 2:1 1:2 2:1 5:1 6:1 5:1 7:1 6:1 7:1 4:1 3:2 2:1 3:1 4:1 6:1 5:1 6:3 3:1 6:1 3:1 1:1 2:1 1:2 2:1 5:1 6:1 5:1 6:1 7:2 4:1 3:2 2:1 3:1 4:1 6:1 4:1 5:1 4:1 6:1 3:1 6:1 3:1 1:1 2:1 3:1 1:1 2:1 5:1 6:1 5:1 6:1 7:2 4:1 3:2 2:1 3:1 4:1 6:1 5:1 4:2 6:1 3:1 6:1 3:1 1:1 2:1 3:1 1:1 2:1 5:1 6:1 5:1 6:1 7:2 4:1 3:2 2:1 3:1 4:1 6:1 5:1 4:2 6:1 3:1 6:1 4:1 1:1 2:1 1:2 2:1 5:1 6:1 5:1 6:1 7:2 4:1 3:2 2:1 3:1 4:1 6:1 5:1 4:2 6:1 3:1 6:1 3:1 1:1 2:1 3:1 1:1 2:1 5:1 6:1 5:1 6:1 7:2 4:1 3:2 2:1 3:1 4:1 6:1 5:1 4:2 6:1 3:1 6:1 3:1 1:1 2:1 1:2 2:1 5:1 6:1 5:1 6:1 7:2 5:1 4:1 3:1 2:1 3:1 4:1 6:1 5:1 4:2 6:1 3:1 6:1 3:1 1:1 2:1 3:1 1:1 2:1 5:1 6:1 5:1 6:1 7:2 4:1 5:1 3:1 2:1 3:1 4:1 6:1 5:1 6:3 3:1 6:1 3:1 1:1 2:1 3:1 1:1 2:1 5:1 6:1 5:1 6:1 7:2 4:1 3:2 2:1 3:1 4:1 6:1 5:1 4:2 6:1 3:1 6:1 3:1 1:1 2:1 3:1 1:1 2:1 5:1 6:1 5:1 6:1 7:2 4:1 3:2 2:1 3:1 4:1 6:1 5:1 4:2 6:1 3:1 6:1 3:1 1:1 2:1 1:2 2:1 5:1 6:1 5:1 6:1 7:2 4:1 3:2 2:1 3:1 4:1 6:1 5:1 4:2 6:1 3:1 6:1 3:1 1:1 2:1 1:2 2:1 5:1 6:1 5:1 6:1 7:2 4:1 3:2 2:1 3:1 4:1 6:1 5:1 4:2 6:1 3:1 5:1 3:1 1:1 2:1 1:2 2:1 5:1 6:1 5:1 6:1 7:2 4:1 2:2 3:2 4:1 6:1 5:1 4:2 6:1 3:1 6:1 3:1 1:1 2:1 3:1 1:1 2:1 5:1 6:1 5:1 6:1 7:2 4:1 3:2 2:1 3:1 4:1 6:1 5:1 4:2 6:1 3:1 6:1 3:1 1:1 2:1 1:2 2:1 5:1 6:1 5:1 6:1 7:2 4:1 3:2 2:1 3:1 4:1 6:1 5:1 4:2 6:1 3:1 6:1 3:1 1:1 2:1 1:2 2:1 5:1 6:1 5:1 6:1 7:2 5:1 4:1 3:1 2:1 3:1 4:1 6:1 5:1 4:2 6:1 3:1 6:1 3:1 1:1 2:1 3:1 1:1 2:1 5:1 6:1 5:1 6:1 8:2 4:1 3:2 2:1 3:1 4:1 6:1 5:1 4:2 6:1 3:1 6:1 3:1 1:1 2:1 1:2 2:1 5:1 6:1 5:1 6:1 7:2 4:1 5:1 3:1 2:1 3:1 4:1 6:1 5:1 4:2 6:1 3:1 6:1 3:1 1:1 2:1 1:2 2:1 5:1 6:1 5:1 6:1 7:2 4:1 3:2 2:1 3:1 4:1 6:1 5:1 4:2 6:1 3:1 6:1 3:1 1:1 2:1 1:2 2:1 5:1 6:1 5:1 6:1 7:2 4:1 3:2 2:1 3:1 4:1 6:1 5:1 4:2 6:1 3:1 6:1 3:1 1:1 2:1 3:1 1:1 2:1 5:1 6:1 5:1 6:1 7:2 4:1 3:2 2:1 3:1 4:1 6:1 5:1 4:2 6:1 3:1 6:1 3:1 1:1 2:1 3:1 1:1 2:1 5:1 6:1 5:1 6:1 7:2 5:1 4:1 3:1 2:1 3:1 4:1 6:1 5:1 6:3 3:1 6:1 3:1 1:1 2:1 1:2 2:1 5:1 6:1 5:1 6:1 7:2 4:1 3:2 2:1 3:1 4:1 6:1 5:1 4:2 6:1 3:1 6:1 3:1 1:1 2:1 1:2 2:1 5:1 6:1 5:1 6:1 7:2 4:1 3:2 2:1 3:1 4:1 6:1 5:1 4:2 6:1 3:1 6:1 3:1 1:1 2:1 3:1 1:1 2:1 5:1 6:1 5:1 6:1 7:2 4:1 3:2 2:1 3:1 4:1 6:1 5:1 4:2 6:1 3:1 6:1 3:1 1:1 2:1 3:1 1:1 2:1 5:1 6:1 5:1 6:1 7:2 4:1 3:2 2:1 3:1 4:1 6:1 5:1 4:1 6:2 3:1 6:1 3:1 1:1 2:1 3:1 1:1 2:1 5:1 6:1 5:1 6:1 7:2 4:1 3:2 2:1 3:1 4:1 6:1 5:1 4:2 6:1 3:1 6:1 3:1 1:1 2:1 1:2 2:1 5:1 6:1 5:1 6:1 7:2 4:1 2:2 3:2 4:1 6:1 5:1 4:2 6:1 3:1 5:1 3:1 1:1 2:1 1:2 2:1 5:1 6:1 5:1 6:1 7:2 4:1 3:2 2:1 3:1 4:1 6:1 5:1 4:2 6:1 3:1 6:1 3:1 1:1 2:1 1:2 2:1 5:1 6:1 5:1 6:1 7:2 4:1 3:2 2:1 3:1 4:1 6:1 5:1 4:2 6:1 3:1 6:1 3:1 1:1 2:1 1:2 2:1 5:1 6:1 5:1 6:1 7:2 4:1 3:2 2:1 3:1 4:1 6:1 5:1 6:3 3:1 6:1 3:1 1:1 2:1 3:1 1:1 2:1 5:1 6:1 5:1 6:1 7:2