S0 -> S1 [label="3 [0, 0, 0, 0, 0, 0, 0, 0, 0, 0, 0, 0, 0, 0, 0, 0, 0, 0, 0, 0, 0, 0, 0, 0, 0, 0, 0, 0, 0, 0, 0, 0, 0, 0, 0, 0, 0, 0, 0, 0, 0, 0, 0, 0, 0, 0, 0, 0, 0, 0, 0, 0, 0, 0, 0, 0, 0, 0, 0, 0, 0, 0, 0, 0, 0, 0, 0, 0, 0, 0, 0, 0, 0, 0, 0, 0] p=0.25"]
S0 -> S12 [label="1 [0, 0, 0, 0, 0, 0, 0, 0, 0, 0, 0, 0, 0, 0, 0, 0, 0, 0, 0, 0, 0, 0, 0, 0, 0, 0, 0, 0, 0, 0, 0, 0, 0, 0, 0, 0, 0, 0, 0, 0, 0, 0, 0, 0, 0, 0, 0, 0, 0, 0, 0, 0, 0, 0, 0, 0, 0, 0, 0, 0, 0, 0, 0, 0, 0, 0, 0, 0, 0, 0, 0, 0, 0, 0, 0, 0, 0, 0, 0, 0, 0, 0, 0, 0, 0, 0, 0, 0, 0, 0, 0, 0, 0, 0, 0, 0, 0, 0, 0, 0, 0, 0, 0, 0, 0, 0, 0, 0, 0, 0, 0, 0, 0, 0, 0, 0, 0, 0, 0, 0, 0, 0, 0, 0, 0, 0, 0, 0, 0, 0, 0, 0, 0, 0, 0, 0, 0, 0, 0, 0, 0, 0, 0, 0, 0, 0, 0, 0, 0, 0, 0] p=0.5"]
S0 -> S3 [label="2 [0, 0, 0, 0, 0, 0, 0, 0, 0, 0, 0, 0, 0, 0, 0, 0, 0, 0, 0, 0, 0, 0, 0, 0, 0, 0, 0, 0, 0, 0, 0, 0, 0, 0, 0, 0, 0, 0, 0, 0, 0, 0, 0, 0, 0, 0, 0, 0, 0, 0, 0, 0, 0, 0, 0, 0, 0, 0, 0, 0, 0, 0, 0, 0, 0, 0, 0, 0, 0, 0, 0, 0, 0, 0, 0, 0] p=0.25"]
S1 -> S2 [label="1 [120, 3134, 3143, 3126, 3108, 3112, 3080, 3066, 3076, 3033, 3062, 3030, 3051, 3084, 3080, 3048, 2949, 2965, 2977, 3025, 3066, 3082, 3055, 3056, 3065, 3060, 3034, 3045, 3102, 3064, 3038, 3033, 3034, 3039, 3040, 3097, 3130, 3177, 3246, 3216, 3215, 3205, 3176, 3191, 3140, 3126, 3138, 3131, 3132, 3133, 3123, 3141, 3128, 3137, 3141, 3190, 3227, 3274, 676, 3281, 3316, 731, 3280, 736, 3264, 683, 3260, 661, 3222, 3218, 3236, 3212, 3234, 3204, 3195, 3204, 3134, 3143, 3126, 3108, 3112, 3080, 3066, 3076, 3033, 3062, 3030, 3051, 3084, 3080, 3048, 2949, 2965, 2977, 3025, 3066, 3082, 3055, 3056, 3065, 3060, 3034, 3045, 3102, 3064, 3038, 3033, 3034, 3039, 3040, 3097, 3130, 3177, 3246, 3216, 3215, 3205, 3176, 3191, 3140, 3126, 3138, 3131, 3132, 3133, 3123, 3141, 3128, 3137, 3141, 3190, 3227, 3274, 676, 3281, 3316, 731, 3280, 736, 3264, 683, 3260, 661, 3222, 3218, 3236, 3212, 3234, 3204, 3195, 3204, 3134, 3143, 3126, 3108, 3112, 3080, 3066, 3076, 3033, 3062, 3030, 3051, 3084, 3080, 3048, 2949, 2965, 2977, 3025, 3066, 3082, 3055, 3056, 3065, 3060, 3034, 3045, 3102, 3064, 3038, 3033, 3034, 3039, 3040, 3097, 3130, 3177, 3246, 3216, 3215, 3205, 3176, 3191, 3140, 3126, 3138, 3131, 3132, 3133, 3123, 3141, 3128, 3137, 3141, 3190, 3227, 3274, 676, 3281, 3316, 731, 3280, 736, 3264, 683, 3260, 661, 3222, 3218, 3236, 3212, 3234, 3204, 3195, 3204, 3134, 3143, 3126, 3108, 3112, 3080, 3066, 3076, 3033, 3062, 3030, 3051, 3084, 3080, 3048, 2949, 2965, 2977, 3025, 3066, 3082, 3055, 3056, 3065, 3060, 3034, 3045, 3102, 3064, 3038, 3033, 3034, 3039, 3040, 3097, 3130, 3177, 3246, 3216, 3215, 3205, 3176, 3191, 3140, 3126, 3138, 3131, 3132, 3133, 3123, 3141, 3128, 3137, 3141, 3190, 3227, 3274, 676, 3281, 3316, 731, 3280, 736, 3264, 683, 3260, 661, 3222, 3218, 3236, 3212, 3234, 3204, 3195, 3204, 3134, 3143, 3126, 3108, 3112, 3080, 3066, 3076, 3033, 3062, 3030, 3051, 3084, 3080, 3048, 2949, 2965, 2977, 3025, 3066, 3082, 3055, 3056, 3065, 3060, 3034, 3045, 3102, 3064, 3038, 3033, 3034, 3039, 3040, 3097, 3130, 3177, 3246, 3216, 3215, 3205, 3176, 3191, 3140, 3126, 3138, 3131, 3132, 3133, 3123, 3141, 3128, 3137, 3141, 3190, 3227, 3274, 676, 3281, 3316, 731, 3280, 736, 3264, 683, 3260, 661, 3222, 3218, 3236, 3212, 3234, 3204, 3195, 3204, 3143, 3126, 3108, 3112, 3080, 3066, 3076, 3033, 3062, 3030, 3051, 3084, 3080, 3048, 2949, 2965, 2977, 3025, 3066, 3082, 3055, 3056, 3065, 3060, 3034, 3045, 3102, 3064, 3038, 3033, 3034, 3039, 3040, 3097, 3130, 3177, 3246, 3216, 3215, 3205, 3176, 3191, 3140, 3126, 3138, 3131, 3132, 3133, 3123, 3141, 3128, 3137, 3141, 3190, 3227, 3274, 676, 3281, 3316, 731, 3280, 736, 3264, 683, 3260, 661, 3222, 3218, 3236, 3212, 3234, 3204, 3195, 3204, 3143, 3126, 3108, 3112, 3080, 3066, 3076, 3033, 3062, 3030, 3051, 3084, 3080, 3048, 2949, 2965, 2977, 3025, 3066, 3082, 3055, 3056, 3065, 3060, 3034, 3045, 3102, 3064, 3038, 3033, 3034, 3039, 3040, 3097, 3130, 3177, 3246, 3216, 3215, 3205, 3176, 3191, 3140, 3126, 3138, 3131, 3132, 3133, 3123, 3141, 3128, 3137, 3141, 3190, 3227, 3274, 676, 3281, 3316, 731, 3280, 736, 3264, 683, 3260, 661, 3222, 3218, 3236, 3212, 3234, 3204, 3195, 3204, 3143, 3126, 3108, 3112, 3080, 3066, 3076, 3033, 3062, 3030, 3051, 3084, 3080, 3048, 2949, 2965, 2977, 3025, 3066, 3082, 3055, 3056, 3065, 3060, 3034, 3045, 3102, 3064, 3038, 3033, 3034, 3039, 3040, 3097, 3130, 3177, 3246, 3216, 3215, 3205, 3176, 3191, 3140, 3126, 3138, 3131, 3132, 3133, 3123, 3141, 3128, 3137, 3141, 3190, 3227, 3274, 676, 3281, 3316, 731, 3280, 736, 3264, 683, 3260, 661, 3222, 3218, 3236, 3212, 3234, 3204, 3195, 3204, 3143, 3126, 3108, 3112, 3080, 3066, 3076, 3033, 3062, 3030, 3051, 3084, 3080, 3048, 2949, 2965, 2977, 3025, 3066, 3082, 3055, 3056, 3065, 3060, 3034, 3045, 3102, 3064, 3038, 3033, 3034, 3039, 3040, 3097, 3130, 3177, 3246, 3216, 3215, 3205, 3176, 3191, 3140, 3126, 3138, 3131, 3132, 3133, 3123, 3141, 3128, 3137, 3141, 3190, 3227, 3274, 676, 3281, 3316, 731, 3280, 736, 3264, 683, 3260, 661, 3222, 3218, 3236, 3212, 3234, 3204, 3195, 3204, 3126, 3108, 3112, 3080, 3066, 3076, 3033, 3062, 3030, 3051, 3084, 3080, 3048, 2949, 2965, 2977, 3025, 3066, 3082, 3055, 3056, 3065, 3060, 3034, 3045, 3102, 3064, 3038, 3033, 3034, 3039, 3040, 3097, 3130, 3177, 3246, 3216, 3215, 3205, 3176, 3191, 3140, 3126, 3138, 3131, 3132, 3133, 3123, 3141, 3128, 3137, 3141, 3190, 3227, 3274, 676, 3281, 3316, 731, 3280, 736, 3264, 683, 3260, 661, 3222, 3218, 3236, 3212, 3234, 3204, 3195, 3204] p=1.0"]
S12 -> S3 [label="2 [7, 7, 8, 8, 8, 7, 7, 7, 7, 7, 7, 8, 9, 7, 8, 7, 7, 7, 7, 7, 7, 7, 7, 8, 7, 7, 7, 7, 7, 8, 8, 8, 7, 8, 7, 8, 7, 7, 7, 7, 7, 7, 7, 7, 7, 8, 8, 7, 7, 7, 7, 7, 9, 7, 8, 7, 7, 7, 7, 7, 7, 7, 8, 8, 8, 8, 7, 7, 7, 8, 7, 8, 8, 7, 7, 7] p=0.5"]
S12 -> S1 [label="3 [7, 8, 7, 8, 8, 7, 7, 7, 7, 7, 7, 7, 7, 7, 8, 7, 7, 7, 7, 8, 7, 7, 7, 8, 8, 8, 7, 6, 7, 7, 6, 7, 8, 8, 7, 7, 7, 6, 7, 7, 7, 7, 7, 7, 8, 6, 7, 7, 7, 7, 7, 7, 8, 8, 7, 8, 7, 7, 8, 7, 7, 8, 7, 7, 7, 7, 8, 7, 7, 7, 7, 7, 7, 7, 7] p=0.5"]
S3 -> S4 [label="1 [1056, 1056, 1044, 1037, 1038, 1037, 1034, 1056, 1068, 1058, 1059, 1052, 1059, 1067, 1069, 1070, 1063, 1060, 1065, 1067, 1068, 1076, 1071, 1073, 1068, 1076, 1061, 1074, 1067, 1079, 1073, 1075, 1070, 1068, 1062, 1074, 1062, 1061, 1072, 1070, 1076, 1070, 1074, 1068, 1063, 1068, 1062, 1072, 1064, 1067, 1055, 1065, 1061, 1069, 1069, 1074, 1061, 552, 682, 1068, 532, 687, 553, 702, 544, 696, 558, 681, 1066, 1068, 1087, 1065, 1068, 1067, 1072, 1056, 1044, 1037, 1038, 1037, 1034, 1056, 1068, 1058, 1059, 1052, 1059, 1067, 1069, 1070, 1063, 1060, 1065, 1067, 1068, 1076, 1071, 1073, 1068, 1076, 1061, 1074, 1067, 1079, 1073, 1075, 1070, 1068, 1062, 1074, 1062, 1061, 1072, 1070, 1076, 1070, 1074, 1068, 1063, 1068, 1062, 1072, 1064, 1067, 1055, 1065, 1061, 1069, 1069, 1074, 1061, 552, 682, 1068, 532, 687, 553, 702, 544, 696, 558, 681, 1066, 1068, 1087, 1065, 1068, 1067, 1072, 1056, 1044, 1037, 1038, 1037, 1034, 1056, 1068, 1058, 1059, 1052, 1059, 1067, 1069, 1070, 1063, 1060, 1065, 1067, 1068, 1076, 1071, 1073, 1068, 1076, 1061, 1074, 1067, 1079, 1073, 1075, 1070, 1068, 1062, 1074, 1062, 1061, 1072, 1070, 1076, 1070, 1074, 1068, 1063, 1068, 1062, 1072, 1064, 1067, 1055, 1065, 1061, 1069, 1069, 1074, 1061, 552, 682, 1068, 532, 687, 553, 702, 544, 696, 558, 681, 1066, 1068, 1087, 1065, 1068, 1067, 1072, 1056, 1044, 1037, 1038, 1037, 1034, 1056, 1068, 1058, 1059, 1052, 1059, 1067, 1069, 1070, 1063, 1060, 1065, 1067, 1068, 1076, 1071, 1073, 1068, 1076, 1061, 1074, 1067, 1079, 1073, 1075, 1070, 1068, 1062, 1074, 1062, 1061, 1072, 1070, 1076, 1070, 1074, 1068, 1063, 1068, 1062, 1072, 1064, 1067, 1055, 1065, 1061, 1069, 1069, 1074, 1061, 552, 682, 1068, 532, 687, 553, 702, 544, 696, 558, 681, 1066, 1068, 1087, 1065, 1068, 1067, 1072, 1056, 1044, 1037, 1038, 1037, 1034, 1056, 1068, 1058, 1059, 1052, 1059, 1067, 1069, 1070, 1063, 1060, 1065, 1067, 1068, 1076, 1071, 1073, 1068, 1076, 1061, 1074, 1067, 1079, 1073, 1075, 1070, 1068, 1062, 1074, 1062, 1061, 1072, 1070, 1076, 1070, 1074, 1068, 1063, 1068, 1062, 1072, 1064, 1067, 1055, 1065, 1061, 1069, 1069, 1074, 1061, 552, 682, 1068, 532, 687, 553, 702, 544, 696, 558, 681, 1066, 1068, 1087, 1065, 1068, 1067, 1072, 1044, 1037, 1038, 1037, 1034, 1056, 1068, 1058, 1059, 1052, 1059, 1067, 1069, 1070, 1063, 1060, 1065, 1067, 1068, 1076, 1071, 1073, 1068, 1076, 1061, 1074, 1067, 1079, 1073, 1075, 1070, 1068, 1062, 1074, 1062, 1061, 1072, 1070, 1076, 1070, 1074, 1068, 1063, 1068, 1062, 1072, 1064, 1067, 1055, 1065, 1061, 1069, 1069, 1074, 1061, 552, 682, 1068, 532, 687, 553, 702, 544, 696, 558, 681, 1066, 1068, 1087, 1065, 1068, 1067, 1072, 1044, 1037, 1038, 1037, 1034, 1056, 1068, 1058, 1059, 1052, 1059, 1067, 1069, 1070, 1063, 1060, 1065, 1067, 1068, 1076, 1071, 1073, 1068, 1076, 1061, 1074, 1067, 1079, 1073, 1075, 1070, 1068, 1062, 1074, 1062, 1061, 1072, 1070, 1076, 1070, 1074, 1068, 1063, 1068, 1062, 1072, 1064, 1067, 1055, 1065, 1061, 1069, 1069, 1074, 1061, 552, 682, 1068, 532, 687, 553, 702, 544, 696, 558, 681, 1066, 1068, 1087, 1065, 1068, 1067, 1072, 1044, 1037, 1038, 1037, 1034, 1056, 1068, 1058, 1059, 1052, 1059, 1067, 1069, 1070, 1063, 1060, 1065, 1067, 1068, 1076, 1071, 1073, 1068, 1076, 1061, 1074, 1067, 1079, 1073, 1075, 1070, 1068, 1062, 1074, 1062, 1061, 1072, 1070, 1076, 1070, 1074, 1068, 1063, 1068, 1062, 1072, 1064, 1067, 1055, 1065, 1061, 1069, 1069, 1074, 1061, 552, 682, 1068, 532, 687, 553, 702, 544, 696, 558, 681, 1066, 1068, 1087, 1065, 1068, 1067, 1072, 1056, 1056, 1044, 1037, 1038, 1037, 1034, 1056, 1068, 1058, 1059, 1052, 1059, 1067, 1069, 1070, 1063, 1060, 1065, 1067, 1068, 1076, 1071, 1073, 1068, 1076, 1061, 1074, 1067, 1079, 1073, 1075, 1070, 1068, 1062, 1074, 1062, 1061, 1072, 1070, 1076, 1070, 1074, 1068, 1063, 1068, 1062, 1072, 1064, 1067, 1055, 1065, 1061, 1069, 1069, 1074, 1061, 552, 682, 1068, 532, 687, 553, 702, 544, 696, 558, 681, 1066, 1068, 1087, 1065, 1068, 1067, 1072, 1056, 1056, 1044, 1037, 1038, 1037, 1034, 1056, 1068, 1058, 1059, 1052, 1059, 1067, 1069, 1070, 1063, 1060, 1065, 1067, 1068, 1076, 1071, 1073, 1068, 1076, 1061, 1074, 1067, 1079, 1073, 1075, 1070, 1068, 1062, 1074, 1062, 1061, 1072, 1070, 1076, 1070, 1074, 1068, 1063, 1068, 1062, 1072, 1064, 1067, 1055, 1065, 1061, 1069, 1069, 1074, 1061, 552, 682, 1068, 532, 687, 553, 702, 544, 696, 558, 681, 1066, 1068, 1087, 1065, 1068, 1067, 1072] p=1.0"]
S2 -> S3 [label="2 [7, 7, 8, 8, 8, 7, 7, 7, 7, 7, 7, 8, 9, 7, 8, 7, 7, 7, 7, 7, 7, 7, 7, 8, 7, 7, 7, 7, 7, 8, 8, 8, 7, 8, 7, 8, 7, 7, 7, 7, 7, 7, 7, 7, 7, 8, 8, 7, 7, 7, 7, 7, 9, 7, 8, 7, 7, 7, 7, 7, 7, 7, 8, 8, 8, 8, 7, 7, 7, 8, 7, 8, 8, 7, 7, 7, 7, 8, 8, 8, 7, 7, 7, 7, 7, 7, 8, 9, 7, 8, 7, 7, 7, 7, 7, 7, 7, 7, 8, 7, 7, 7, 7, 7, 8, 8, 8, 7, 8, 7, 8, 7, 7, 7, 7, 7, 7, 7, 7, 7, 8, 8, 7, 7, 7, 7, 7, 9, 7, 8, 7, 7, 7, 7, 7, 7, 7, 8, 8, 8, 8, 7, 7, 7, 8, 7, 8, 8, 7, 7, 7, 7, 8, 8, 8, 7, 7, 7, 7, 7, 7, 8, 9, 7, 8, 7, 7, 7, 7, 7, 7, 7, 7, 8, 7, 7, 7, 7, 7, 8, 8, 8, 7, 8, 7, 8, 7, 7, 7, 7, 7, 7, 7, 7, 7, 8, 8, 7, 7, 7, 7, 7, 9, 7, 8, 7, 7, 7, 7, 7, 7, 7, 8, 8, 8, 8, 7, 7, 7, 8, 7, 8, 8, 7, 7, 7, 7, 8, 8, 8, 7, 7, 7, 7, 7, 7, 8, 9, 7, 8, 7, 7, 7, 7, 7, 7, 7, 7, 8, 7, 7, 7, 7, 7, 8, 8, 8, 7, 8, 7, 8, 7, 7, 7, 7, 7, 7, 7, 7, 7, 8, 8, 7, 7, 7, 7, 7, 9, 7, 8, 7, 7, 7, 7, 7, 7, 7, 8, 8, 8, 8, 7, 7, 7, 8, 7, 8, 8, 7, 7, 7, 7, 8, 8, 8, 7, 7, 7, 7, 7, 7, 8, 9, 7, 8, 7, 7, 7, 7, 7, 7, 7, 7, 8, 7, 7, 7, 7, 7, 8, 8, 8, 7, 8, 7, 8, 7, 7, 7, 7, 7, 7, 7, 7, 7, 8, 8, 7, 7, 7, 7, 7, 9, 7, 8, 7, 7, 7, 7, 7, 7, 7, 8, 8, 8, 8, 7, 7, 7, 8, 7, 8, 8, 7, 7, 7, 8, 8, 8, 7, 7, 7, 7, 7, 7, 8, 9, 7, 8, 7, 7, 7, 7, 7, 7, 7, 7, 8, 7, 7, 7, 7, 7, 8, 8, 8, 7, 8, 7, 8, 7, 7, 7, 7, 7, 7, 7, 7, 7, 8, 8, 7, 7, 7, 7, 7, 9, 7, 8, 7, 7, 7, 7, 7, 7, 7, 8, 8, 8, 8, 7, 7, 7, 8, 7, 8, 8, 7, 7, 7, 8, 8, 8, 7, 7, 7, 7, 7, 7, 8, 9, 7, 8, 7, 7, 7, 7, 7, 7, 7, 7, 8, 7, 7, 7, 7, 7, 8, 8, 8, 7, 8, 7, 8, 7, 7, 7, 7, 7, 7, 7, 7, 7, 8, 8, 7, 7, 7, 7, 7, 9, 7, 8, 7, 7, 7, 7, 7, 7, 7, 8, 8, 8, 8, 7, 7, 7, 8, 7, 8, 8, 7, 7, 7, 8, 8, 8, 7, 7, 7, 7, 7, 7, 8, 9, 7, 8, 7, 7, 7, 7, 7, 7, 7, 7, 8, 7, 7, 7, 7, 7, 8, 8, 8, 7, 8, 7, 8, 7, 7, 7, 7, 7, 7, 7, 7, 7, 8, 8, 7, 7, 7, 7, 7, 9, 7, 8, 7, 7, 7, 7, 7, 7, 7, 8, 8, 8, 8, 7, 7, 7, 8, 7, 8, 8, 7, 7, 7, 8, 8, 8, 7, 7, 7, 7, 7, 7, 8, 9, 7, 8, 7, 7, 7, 7, 7, 7, 7, 7, 8, 7, 7, 7, 7, 7, 8, 8, 8, 7, 8, 7, 8, 7, 7, 7, 7, 7, 7, 7, 7, 7, 8, 8, 7, 7, 7, 7, 7, 9, 7, 8, 7, 7, 7, 7, 7, 7, 7, 8, 8, 8, 8, 7, 7, 7, 8, 7, 8, 8, 7, 7, 7] p=1.0"]
S4 -> S1 [label="3 [7, 8, 7, 8, 8, 7, 7, 7, 7, 7, 7, 7, 7, 7, 8, 7, 7, 7, 7, 8, 7, 7, 7, 8, 8, 8, 7, 6, 7, 7, 6, 7, 8, 8, 7, 7, 7, 6, 7, 7, 7, 7, 7, 7, 8, 6, 7, 7, 7, 7, 7, 7, 8, 8, 7, 8, 7, 7, 8, 7, 7, 8, 7, 7, 7, 7, 8, 7, 7, 7, 7, 7, 7, 7, 7, 7, 8, 7, 8, 8, 7, 7, 7, 7, 7, 7, 7, 7, 7, 8, 7, 7, 7, 7, 8, 7, 7, 7, 8, 8, 8, 7, 6, 7, 7, 6, 7, 8, 8, 7, 7, 7, 6, 7, 7, 7, 7, 7, 7, 8, 6, 7, 7, 7, 7, 7, 7, 8, 8, 7, 8, 7, 7, 8, 7, 7, 8, 7, 7, 7, 7, 8, 7, 7, 7, 7, 7, 7, 7, 7, 7, 8, 7, 8, 8, 7, 7, 7, 7, 7, 7, 7, 7, 7, 8, 7, 7, 7, 7, 8, 7, 7, 7, 8, 8, 8, 7, 6, 7, 7, 6, 7, 8, 8, 7, 7, 7, 6, 7, 7, 7, 7, 7, 7, 8, 6, 7, 7, 7, 7, 7, 7, 8, 8, 7, 8, 7, 7, 8, 7, 7, 8, 7, 7, 7, 7, 8, 7, 7, 7, 7, 7, 7, 7, 7, 8, 7, 8, 8, 7, 7, 7, 7, 7, 7, 7, 7, 7, 8, 7, 7, 7, 7, 8, 7, 7, 7, 8, 8, 8, 7, 6, 7, 7, 6, 7, 8, 8, 7, 7, 7, 6, 7, 7, 7, 7, 7, 7, 8, 6, 7, 7, 7, 7, 7, 7, 8, 8, 7, 8, 7, 7, 8, 7, 7, 8, 7, 7, 7, 7, 8, 7, 7, 7, 7, 7, 7, 7, 7, 8, 7, 8, 8, 7, 7, 7, 7, 7, 7, 7, 7, 7, 8, 7, 7, 7, 7, 8, 7, 7, 7, 8, 8, 8, 7, 6, 7, 7, 6, 7, 8, 8, 7, 7, 7, 6, 7, 7, 7, 7, 7, 7, 8, 6, 7, 7, 7, 7, 7, 7, 8, 8, 7, 8, 7, 7, 8, 7, 7, 8, 7, 7, 7, 7, 8, 7, 7, 7, 7, 7, 7, 7, 7, 8, 7, 8, 8, 7, 7, 7, 7, 7, 7, 7, 7, 7, 8, 7, 7, 7, 7, 8, 7, 7, 7, 8, 8, 8, 7, 6, 7, 7, 6, 7, 8, 8, 7, 7, 7, 6, 7, 7, 7, 7, 7, 7, 8, 6, 7, 7, 7, 7, 7, 7, 8, 8, 7, 8, 7, 7, 8, 7, 7, 8, 7, 7, 7, 7, 8, 7, 7, 7, 7, 7, 7, 7, 7, 8, 7, 8, 8, 7, 7, 7, 7, 7, 7, 7, 7, 7, 8, 7, 7, 7, 7, 8, 7, 7, 7, 8, 8, 8, 7, 6, 7, 7, 6, 7, 8, 8, 7, 7, 7, 6, 7, 7, 7, 7, 7, 7, 8, 6, 7, 7, 7, 7, 7, 7, 8, 8, 7, 8, 7, 7, 8, 7, 7, 8, 7, 7, 7, 7, 8, 7, 7, 7, 7, 7, 7, 7, 7, 7, 8, 8, 7, 7, 7, 7, 7, 7, 7, 7, 7, 8, 7, 7, 7, 7, 8, 7, 7, 7, 8, 8, 8, 7, 6, 7, 7, 6, 7, 8, 8, 7, 7, 7, 6, 7, 7, 7, 7, 7, 7, 8, 6, 7, 7, 7, 7, 7, 7, 8, 8, 7, 8, 7, 7, 8, 7, 7, 8, 7, 7, 7, 7, 8, 7, 7, 7, 7, 7, 7, 7, 7, 7, 8, 8, 7, 7, 7, 7, 7, 7, 7, 7, 7, 8, 7, 7, 7, 7, 8, 7, 7, 7, 8, 8, 8, 7, 6, 7, 7, 6, 7, 8, 8, 7, 7, 7, 6, 7, 7, 7, 7, 7, 7, 8, 6, 7, 7, 7, 7, 7, 7, 8, 8, 7, 8, 7, 7, 8, 7, 7, 8, 7, 7, 7, 7, 8, 7, 7, 7, 7, 7, 7, 7, 7] p=1.0"]