S0 -> S1 [label="4 [0, 0, 0, 0, 0, 0, 0, 0, 0, 0, 0, 0, 0, 0, 0, 0, 0, 0, 0, 0, 0, 0, 0, 0, 0, 0, 0, 0, 0, 0, 0, 0, 0, 0, 0, 0, 0, 0, 0, 0, 0, 0, 0, 0, 0, 0, 0, 0, 0, 0, 0, 0, 0, 0, 0, 0, 0, 0, 0, 0, 0, 0, 0, 0, 0, 0, 0, 0, 0, 0, 0, 0, 0, 0, 0, 0, 0, 0, 0, 0, 0, 0, 0, 0, 0, 0, 0, 0, 0, 0, 0, 0, 0, 0, 0, 0, 0, 0, 0, 0, 0, 0, 0, 0, 0, 0, 0, 0, 0, 0, 0, 0, 0, 0, 0, 0, 0, 0, 0, 0, 0, 0, 0, 0, 0, 0, 0, 0, 0, 0, 0, 0, 0, 0, 0, 0, 0, 0, 0, 0, 0, 0, 0, 0, 0, 0, 0, 0, 0, 0, 0, 0, 0, 0, 0, 0, 0, 0, 0, 0, 0, 0, 0, 0, 0, 0, 0, 0, 0, 0, 0, 0, 0, 0, 0, 0, 0, 0, 0, 0, 0, 0, 0, 0, 0, 0, 0, 0, 0, 0, 0, 0, 0, 0, 0, 0, 0, 0, 0, 0, 0, 0, 0, 0, 0, 0, 0, 0, 0, 0, 0, 0, 0, 0, 0, 0, 0, 0, 0, 0] p=0.38"]
S0 -> S2 [label="3 [0, 0, 0, 0, 0, 0, 0, 0, 0, 0, 0, 0, 0, 0, 0, 0, 0, 0, 0, 0, 0, 0, 0, 0, 0, 0, 0, 0, 0, 0, 0, 0, 0, 0, 0, 0, 0, 0, 0, 0, 0, 0, 0, 0, 0, 0, 0, 0, 0, 0, 0, 0, 0, 0, 0, 0, 0, 0, 0, 0, 0, 0, 0, 0, 0, 0, 0, 0, 0, 0, 0, 0, 0, 0, 0, 0, 0, 0, 0, 0, 0, 0, 0, 0, 0, 0, 0, 0, 0, 0, 0, 0, 0, 0, 0, 0, 0, 0, 0, 0, 0, 0, 0, 0, 0, 0, 0, 0, 0, 0, 0, 0, 0, 0, 0, 0, 0, 0, 0, 0, 0, 0, 0, 0, 0, 0, 0, 0, 0, 0, 0, 0, 0, 0, 0, 0, 0, 0, 0, 0, 0, 0, 0, 0, 0, 0, 0, 0, 0, 0, 0, 0, 0, 0, 0, 0, 0, 0, 0, 0, 0, 0, 0, 0, 0, 0, 0, 0, 0, 0, 0, 0, 0, 0, 0, 0, 0, 0, 0] p=0.31"]
S0 -> S4 [label="5 [0, 0, 0, 0, 0, 0, 0, 0, 0, 0, 0, 0, 0, 0, 0, 0, 0, 0, 0, 0, 0, 0, 0, 0, 0, 0, 0, 0, 0, 0, 0, 0, 0, 0, 0, 0, 0, 0, 0, 0, 0, 0, 0, 0, 0, 0, 0, 0, 0, 0, 0, 0, 0, 0, 0, 0, 0, 0, 0, 0, 0, 0, 0, 0, 0, 0, 0, 0, 0, 0, 0, 0, 0, 0, 0, 0, 0, 0, 0, 0, 0, 0, 0, 0, 0, 0, 0, 0, 0, 0, 0, 0, 0, 0, 0, 0] p=0.17"]
S0 -> S1 [label="7 [0] p=0.0"]
S0 -> S263 [label="2 [0, 0, 0, 0, 0, 0, 0, 0, 0, 0, 0, 0, 0, 0, 0, 0, 0, 0, 0, 0, 0, 0, 0, 0, 0, 0, 0, 0, 0, 0, 0, 0, 0, 0, 0, 0, 0, 0, 0, 0, 0, 0, 0, 0, 0, 0, 0, 0, 0, 0, 0, 0, 0, 0, 0, 0, 0, 0, 0, 0, 0, 0, 0, 0, 0, 0, 0] p=0.12"]
S0 -> S415 [label="1 [0, 0, 0, 0, 0, 0, 0, 0, 0, 0, 0, 0, 0] p=0.02"]
S1 -> S2 [label="3 [134, 1988, 1915, 1605, 879, 3, 1323, 1097, 937, 1471, 1320, 1370, 1276, 1187, 2032, 339, 14, 236, 255, 1281, 1055, 942, 1116, 4, 1213, 1606, 1940, 1212, 2052, 2393, 2154, 2705, 2760, 2638, 2874, 2940, 2679, 19, 43, 1741, 21, 1188, 31, 7, 901, 316, 16, 541, 44, 599, 481, 4, 30, 893, 114, 474, 34, 8, 833, 11, 2, 23, 1128, 42, 6, 1449, 123, 6, 24, 2, 2791, 24, 7, 3129, 3119, 3070, 3105, 3084, 3081, 3089, 2167, 63, 6, 15, 38, 5, 2056, 9, 11, 6, 6, 1903, 20, 9, 666, 3282, 2914, 258, 8, 39, 731, 3248, 733, 3176, 676, 3221, 650, 3157, 3170, 3185, 2803, 13, 54, 5, 3225, 2939, 20, 2736, 17, 93, 11, 7, 11, 10, 3194, 3, 4, 19, 43, 21, 1188, 31, 7, 901, 316, 16, 541, 44, 599, 481, 4, 30, 893, 114, 474, 34, 8, 833, 11, 2, 23, 1128, 42, 6, 1449, 123, 6, 24, 2, 2791, 24, 7, 3129, 3119, 2167, 63, 6, 15, 38, 5, 2056, 9, 11, 6, 6, 1903, 20, 9, 666, 3282, 258, 8, 39, 731, 733, 676, 650, 13, 54, 5, 3225, 2939, 20, 2736, 17, 93, 11, 7, 11, 10, 3194, 3, 4, 19, 43, 21, 31, 7, 16, 44, 4, 30, 114, 34, 8, 11, 2, 23, 42, 6, 123, 6, 24, 2, 24, 7, 63, 6, 15, 38, 5, 9, 11, 6, 6, 20, 9, 258, 8, 39, 13, 54, 5, 20, 17, 93, 11, 7, 11, 10, 43, 31, 7, 16, 44, 4, 30, 114, 34, 8, 11, 2, 23, 42, 6, 123, 6, 24, 2, 24, 7, 63, 6, 15, 38, 5, 9, 11, 6, 6, 20, 9, 8, 39, 54, 5, 20, 17, 93, 11, 7, 11, 10, 43, 7, 30, 8, 2, 23, 6, 6, 24, 2, 7, 6, 15, 38, 5, 11, 6, 6, 9, 8, 39, 54, 5, 93, 11, 7, 11, 10, 7, 30, 8, 2, 23, 6, 6, 24, 2, 7, 6, 15, 38, 5, 11, 6, 6, 9, 39, 5, 93, 11, 7, 11, 10, 23, 24, 2, 15, 38, 5, 6, 6, 11, 7, 11, 10, 23, 24, 2, 15, 38, 5, 6, 6, 39, 5, 11, 7, 11, 10, 2, 38, 5, 6, 7, 11, 10, 2, 38, 5, 6, 7, 11, 10, 3, 4, 19, 21, 258, 13, 43, 8, 54, 39, 5, 3, 4, 19, 21, 258, 13, 19, 21, 258, 13, 43, 8, 54, 43, 8, 54, 39, 5, 39, 5, 31, 16, 44, 4, 34, 11, 42, 123, 31, 16, 44, 4, 34, 11, 42, 123, 31, 16, 44, 4, 34, 11, 42, 123, 31, 16, 44, 4, 114, 34, 11, 42, 123, 114, 31, 16, 44, 4, 114, 34, 11, 42, 123, 31, 16, 44, 4, 114, 34, 11, 42, 123, 24, 63, 9, 20, 20, 17, 24, 63, 9, 20, 20, 17, 63, 9, 20, 20, 17, 9, 20, 20, 17, 9, 20, 17, 9, 20, 17, 114, 114, 20, 20, 63, 63, 63, 7, 30, 8, 2, 6, 6, 7, 30, 8, 2, 6, 6, 7, 30, 8, 2, 6, 6, 7, 30, 8, 2, 6, 6, 7, 6, 11, 9, 93, 7, 6, 11, 9, 93, 6, 11, 9, 93, 11, 9, 93, 6, 23, 24, 23, 24, 15, 6, 11, 15, 6, 11, 1988, 1097, 1370, 1281, 1988, 1097, 1370, 1281, 1988, 1605, 879, 1323, 1097, 1471, 1370, 1276, 339, 1281, 1606, 1212, 1097, 1370, 1281, 1988, 1605, 879, 1323, 1097, 1471, 1370, 1276, 339, 1281, 1606, 1212, 1915, 937, 14, 1940, 2154, 2154, 1915, 937, 14, 1940, 2154, 3, 4, 4, 4, 4, 3, 4, 236, 236, 236, 236, 236, 236, 1320, 1187, 2032, 255, 1055, 942, 1116, 2052, 2393, 1605, 879, 1323, 1471, 1276, 339, 1606, 1212, 879, 1323, 1471, 339, 1606, 1212, 1605, 879, 1323, 1471, 1276, 339, 1606, 1212, 1605, 1276, 3, 3, 3, 1915, 937, 14, 1940, 2638, 2638, 2638, 19, 21, 258, 13, 21, 258, 19, 21, 258, 13, 19, 21, 258, 13, 43, 8, 54, 43, 8, 54, 2638, 19, 13, 1988, 1915, 1605, 879, 1323, 1097, 937, 1471, 1320, 1370, 1276, 1187, 2032, 339, 14, 236, 255, 1281, 1055, 942, 1116, 1213, 1606, 1940, 1212, 2052, 2393, 2154, 2705, 2760, 2638, 2874, 2940, 2679, 1741, 3070, 3105, 3084, 3081, 3089, 2914, 3248, 3176, 3221, 3157, 3170, 3185, 2803, 1915, 937, 14, 1940, 2154, 2760, 2874, 2940, 2679, 1741, 3070, 3105, 3084, 3081, 3089, 2914, 3248, 3176, 3221, 3157, 3170, 3185, 2803, 1915, 937, 14, 1940, 2154, 1915, 937, 14, 1940, 2154, 1915, 937, 14, 1940, 2154, 1988, 1915, 1605, 879, 1323, 1097, 937, 1471, 1320, 1370, 1276, 1187, 2032, 339, 14, 236, 255, 1281, 1055, 942, 1116, 1213, 1606, 1940, 1212, 2052, 2393, 2154, 2705, 2760, 2638, 2874, 2940, 2679, 1741, 3070, 3105, 3084, 3081, 3089, 2914, 3248, 3176, 3221, 3157, 3170, 3185, 2803, 1188, 1188, 541, 599, 474, 833, 1128, 1449, 541, 599, 474, 833, 1128, 1449, 1188, 316, 541, 599, 481, 474, 833, 1128, 1449, 1188, 316, 541, 599, 481, 474, 833, 1128, 1449, 1188, 316, 541, 599, 481, 474, 833, 1128, 1449, 1188, 316, 541, 599, 481, 893, 474, 833, 1128, 1449, 893, 1188, 316, 541, 599, 481, 893, 474, 833, 1128, 1449, 1188, 901, 316, 541, 599, 481, 893, 474, 833, 1128, 1449, 2791, 3129, 3119, 2167, 2056, 1903, 666, 3282, 731, 733, 676, 650, 3225, 2939, 2736, 3194, 901, 2791, 3129, 3119, 2167, 2056, 1903, 666, 3282, 731, 733, 676, 650, 3225, 2939, 2736, 3194, 3119, 2056, 1903, 666, 3282, 731, 3225, 2939, 2736, 3194, 3119, 2167, 2056, 1903, 666, 3282, 731, 733, 650, 3225, 2939, 2736, 3194, 2056, 1903, 666, 731, 3225, 2736, 3194, 2056, 1903, 666, 731, 3225, 2736, 3194, 2056, 1903, 666, 731, 3225, 3194, 2056, 1903, 666, 731, 3225, 3194, 893, 893, 893, 893, 3119, 3282, 2939, 3282, 2939, 3282, 2939, 3119, 3282, 2939, 316, 316, 481, 481, 2167, 733, 650, 2167, 733, 650, 2167, 733, 650, 2736, 2736, 1988, 1605, 879, 1323, 1097, 1471, 1320, 1370, 1276, 1187, 2032, 339, 255, 1281, 1055, 942, 1116, 1213, 1606, 1212, 2052, 2393, 2705, 2638, 1320, 1187, 2032, 255, 1055, 942, 1116, 1213, 2052, 2393, 2705, 2638, 1320, 1187, 2032, 255, 1055, 942, 1116, 1213, 2052, 2393, 2705, 1213, 1213, 1320, 1187, 2032, 255, 1055, 942, 1116, 2052, 2393, 2705, 1213, 1320, 1187, 2032, 255, 1055, 942, 1116, 2052, 2393, 2705, 2705, 1988, 1605, 879, 1323, 1097, 1471, 1320, 1370, 1276, 1187, 2032, 339, 236, 255, 1281, 1055, 942, 1116, 1213, 1606, 1212, 2052, 2393, 2705, 2638, 2760, 2874, 2940, 2679, 1741, 3070, 3084, 3081, 3089, 2914, 3248, 3176, 3221, 3157, 3170, 3185, 2803, 1741, 3070, 2914, 3248, 3176, 3221, 3157, 1741, 1741, 2760, 2874, 2940, 2679, 1741, 3070, 3105, 3084, 3081, 3089, 2914, 3248, 3176, 3221, 3157, 3170, 3185, 2803, 2760, 2874, 2940, 2679, 1741, 3070, 3105, 3084, 3081, 3089, 2914, 3248, 3176, 3221, 3157, 3170, 3185, 2803, 3070, 2914, 3248, 3176, 3221, 3157, 3070, 2914, 3248, 3176, 3221, 3157, 2760, 2874, 2940, 2679, 3084, 3081, 3089, 3170, 3185, 2803, 2940, 2679, 3084, 3081, 3089, 3170, 3185, 2803, 2760, 2874, 2940, 2679, 3084, 3081, 3089, 3170, 3185, 2803, 2167, 733, 650, 2167, 733, 650, 2760, 2874, 901, 2791, 901, 2791, 901, 2791, 901, 2791, 901, 2791, 901, 2791, 3129, 676, 3129, 676, 676, 676, 676, 676, 24, 24, 24, 24, 3105, 3105, 3105, 3105, 7, 7, 3119, 3119, 3129, 3129, 3129, 3129] p=0.57"]
S1 -> S4 [label="5 [8, 19, 8, 11, 13, 7, 7, 7, 7, 7, 6, 7, 7, 7, 8, 122, 70, 44, 8, 9, 7, 72, 103, 7, 8, 7, 12, 7, 5, 13, 72, 8, 19, 8, 11, 13, 7, 7, 7, 7, 7, 6, 7, 7, 7, 8, 122, 70, 44, 8, 9, 7, 72, 103, 7, 8, 7, 12, 7, 5, 7, 7, 7, 8, 7, 16, 12, 13, 13, 10, 15, 9, 17, 9, 13, 11, 10, 15, 14, 8, 10, 7, 19, 8, 7, 3, 22, 6, 11, 3, 9, 91, 13, 5, 14, 116, 7, 15, 59, 7, 7, 8, 5, 4, 7, 86, 7, 5, 24, 6, 21, 51, 26, 16, 7, 10, 7, 6, 7, 7, 42, 24, 8, 122, 16, 70, 5, 44, 4, 63, 8, 94, 9, 6, 7, 8, 72, 3, 103, 16, 9, 67, 7, 8, 11, 12, 138, 7, 4, 12, 21, 7, 5, 19, 7, 7, 5, 7, 8, 7, 16, 12, 13, 13, 10, 15, 9, 17, 9, 13, 11, 10, 15, 14, 13, 72, 19, 8, 11, 7, 7, 7, 7, 7, 6, 7, 7, 7, 8, 122, 70, 44, 8, 9, 7, 103, 7, 8, 7, 12, 7, 5, 13, 72, 19, 8, 11, 7, 7, 7, 7, 7, 6, 7, 7, 7, 8, 122, 70, 44, 8, 9, 7, 103, 7, 8, 7, 12, 7, 5, 8, 7, 122, 8, 5, 8, 7, 122, 8, 5, 8, 7, 122, 8, 5, 13, 72, 8, 7, 122, 8, 5, 19, 7, 6, 8, 19, 11, 7, 7, 7, 6, 7, 8, 8, 7, 7, 19, 11, 7, 7, 7, 6, 7, 8, 8, 7, 7, 8, 7, 122, 8, 5, 13, 72, 72, 13, 72, 70, 70, 70, 70, 11, 7, 7, 7, 8, 7, 7, 19, 11, 7, 7, 7, 7, 6, 7, 7, 7, 8, 44, 8, 9, 7, 103, 7, 7, 12, 7, 7, 7, 7, 44, 9, 7, 103, 12, 7, 7, 7, 7, 44, 9, 7, 103, 12, 7, 103, 7, 7, 7, 44, 9, 7, 12, 7, 19, 11, 7, 7, 7, 7, 6, 7, 7, 7, 8, 70, 44, 8, 9, 7, 103, 7, 7, 12, 7, 15, 15, 15, 15, 15, 15, 15, 15, 15, 15, 16, 16, 16, 16, 16, 16, 16, 16, 3, 15, 86, 5, 21, 10, 6, 7, 4, 94, 6, 8, 16, 4, 21, 5, 6, 7, 4, 6, 8, 16, 21, 3, 15, 86, 5, 21, 10, 6, 7, 5, 4, 94, 6, 8, 16, 4, 21, 9, 59, 24, 51, 42, 63, 9, 22, 91, 4, 26, 24, 67, 138, 22, 91, 116, 4, 26, 24, 67, 138, 116, 22, 91, 116, 4, 26, 24, 67, 138, 22, 6, 91, 116, 4, 26, 16, 24, 67, 138, 22, 6, 91, 116, 4, 26, 16, 24, 67, 138, 6, 16, 6, 16, 6, 16, 13, 3, 15, 86, 21, 10, 94, 4, 5, 3, 5, 5, 10, 7, 3, 5, 15, 8, 86, 5, 21, 10, 6, 7, 5, 4, 94, 6, 8, 3, 16, 11, 4, 21, 19, 5, 3, 10, 7, 3, 5, 15, 8, 86, 5, 21, 10, 6, 7, 5, 4, 94, 6, 8, 3, 16, 11, 4, 21, 19, 5, 10, 7, 7, 3, 22, 6, 3, 9, 91, 5, 14, 116, 15, 59, 8, 5, 4, 86, 5, 24, 21, 51, 26, 16, 10, 6, 7, 42, 24, 5, 4, 63, 94, 6, 8, 3, 16, 9, 67, 11, 12, 138, 4, 21, 19, 5, 5, 3, 7, 3, 15, 8, 86, 5, 21, 10, 6, 7, 5, 4, 94, 6, 8, 16, 11, 4, 21, 19, 5, 3, 7, 8, 11, 19, 7, 8, 11, 19, 7, 8, 11, 19, 7, 3, 15, 8, 86, 5, 21, 10, 6, 7, 5, 4, 94, 6, 8, 16, 11, 4, 21, 19, 5, 3, 10, 7, 7, 3, 22, 6, 3, 9, 91, 5, 14, 116, 15, 59, 8, 5, 4, 86, 5, 24, 21, 51, 26, 16, 10, 6, 7, 42, 24, 16, 5, 4, 63, 94, 6, 8, 3, 16, 9, 67, 11, 12, 138, 4, 21, 19, 5, 7, 7, 7, 8, 7, 16, 12, 13, 10, 15, 9, 17, 9, 13, 11, 10, 15, 14, 16, 12, 9, 17, 9, 13, 11, 16, 16, 16, 16, 7, 7, 7, 8, 7, 16, 12, 13, 13, 10, 15, 9, 17, 9, 13, 11, 10, 15, 14, 7, 7, 7, 8, 7, 16, 12, 13, 13, 10, 15, 9, 17, 9, 13, 11, 10, 15, 14, 12, 9, 17, 12, 9, 17, 9, 11, 12, 9, 17, 9, 13, 11, 12, 9, 17, 9, 13, 11, 7, 7, 7, 8, 7, 13, 10, 15, 10, 15, 14, 7, 8, 7, 13, 10, 15, 10, 15, 14, 7, 7, 7, 8, 7, 13, 10, 15, 10, 15, 14, 9, 11, 7, 3, 9, 14, 59, 5, 24, 51, 42, 63, 9, 12, 14, 7, 3, 9, 14, 59, 5, 24, 51, 42, 63, 9, 12, 7, 3, 22, 6, 9, 91, 14, 116, 59, 5, 4, 24, 51, 26, 16, 42, 24, 63, 9, 67, 12, 138, 14, 3, 9, 59, 5, 24, 51, 42, 63, 9, 12, 14, 3, 5, 12, 3, 9, 59, 5, 24, 51, 42, 63, 9, 12, 7, 3, 22, 6, 9, 91, 14, 116, 59, 5, 4, 24, 51, 26, 16, 42, 24, 63, 9, 67, 12, 138, 5, 5, 5, 5, 5, 5, 7, 7, 7, 7, 7, 7, 7, 8, 7, 13, 10, 15, 10, 15, 14, 7, 8, 7, 13, 10, 15, 10, 15, 14, 13, 13, 13, 13, 13, 13, 13, 13] p=0.43"]
S2 -> S1 [label="4 [1062, 1049, 1053, 1038, 1025, 8, 1042, 1033, 1061, 1073, 1063, 1075, 1057, 1062, 1074, 1062, 955, 1013, 1028, 1070, 1067, 1072, 1005, 5, 977, 1079, 1071, 1080, 1065, 1081, 1079, 895, 971, 819, 731, 743, 4, 5, 490, 8, 325, 4, 3, 205, 9, 6, 10, 4, 44, 9, 5, 3, 11, 4, 9, 6, 13, 9, 5, 31, 5, 8, 8, 77, 33, 6, 11, 31, 130, 109, 16, 26, 267, 409, 551, 456, 495, 592, 483, 446, 9, 10, 4, 38, 19, 403, 18, 6, 6, 3, 401, 23, 4, 9, 227, 656, 3, 17, 6, 11, 285, 118, 464, 100, 368, 139, 430, 526, 488, 568, 7, 15, 10, 264, 349, 3, 256, 9, 7, 15, 78, 20, 29, 279, 1062, 1049, 1053, 1038, 1025, 8, 1042, 1033, 1061, 1073, 1063, 1075, 1057, 1062, 1074, 1062, 955, 1013, 1028, 1070, 1067, 1072, 1005, 5, 977, 1079, 1071, 1080, 1065, 1081, 1079, 4, 5, 8, 4, 3, 6, 4, 5, 3, 4, 6, 13, 5, 31, 5, 8, 77, 6, 11, 31, 130, 16, 26, 9, 10, 4, 38, 19, 18, 6, 6, 3, 23, 4, 3, 17, 6, 7, 15, 10, 3, 9, 7, 15, 78, 20, 29, 8, 5, 5, 4, 3, 6, 4, 5, 3, 4, 6, 13, 5, 31, 5, 8, 77, 6, 11, 31, 130, 16, 26, 9, 10, 4, 38, 19, 18, 6, 6, 3, 23, 4, 17, 6, 15, 10, 3, 9, 7, 15, 78, 20, 29, 8, 5, 5, 3, 3, 13, 31, 5, 77, 11, 31, 130, 26, 10, 4, 38, 19, 6, 6, 3, 4, 17, 6, 15, 10, 7, 15, 78, 20, 29, 3, 3, 13, 31, 5, 77, 11, 31, 130, 26, 10, 4, 38, 19, 6, 6, 3, 4, 6, 10, 7, 15, 78, 20, 29, 5, 31, 130, 4, 38, 19, 6, 3, 15, 78, 20, 29, 5, 31, 130, 4, 38, 19, 6, 3, 6, 10, 15, 78, 20, 29, 130, 38, 19, 3, 78, 20, 29, 130, 38, 19, 3, 78, 20, 29, 19, 20, 29, 8, 5, 5, 17, 15, 6, 10, 8, 5, 5, 17, 15, 5, 17, 15, 6, 10, 6, 10, 3, 3, 13, 31, 77, 11, 3, 3, 13, 31, 77, 11, 3, 3, 13, 31, 77, 11, 3, 3, 13, 31, 77, 11, 3, 3, 13, 31, 77, 11, 26, 10, 6, 4, 7, 26, 10, 6, 4, 7, 10, 6, 4, 7, 6, 4, 7, 6, 4, 7, 10, 10, 5, 31, 5, 31, 5, 31, 4, 6, 15, 4, 6, 15, 4, 6, 15, 130, 38, 3, 78, 1049, 1053, 1038, 1025, 1042, 1033, 1061, 1073, 1063, 1075, 1057, 1062, 1074, 1062, 955, 1013, 1028, 1070, 1067, 1072, 1005, 977, 1079, 1071, 1080, 1065, 1081, 1079, 4, 8, 3, 7, 1049, 1053, 1038, 1025, 1042, 1033, 1061, 1073, 1063, 1075, 1057, 1062, 1074, 1062, 955, 1013, 1028, 1070, 1067, 1072, 1005, 977, 1079, 1071, 1080, 1065, 1081, 1079, 4, 8, 3, 7, 1053, 1061, 955, 1071, 1079, 4, 8, 3, 7, 1053, 1061, 955, 1071, 1079, 1053, 1061, 955, 1071, 1079, 1053, 1061, 955, 1071, 1079, 4, 4, 6, 5, 8, 6, 4, 6, 4, 5, 6, 5, 8, 6, 4, 6, 4, 5, 6, 5, 8, 6, 4, 6, 4, 5, 6, 5, 8, 6, 4, 6, 4, 5, 4, 6, 5, 8, 6, 4, 4, 6, 4, 5, 4, 6, 5, 8, 6, 4, 6, 4, 5, 4, 6, 5, 8, 6, 16, 9, 18, 23, 3, 9, 16, 9, 18, 23, 3, 9, 9, 18, 23, 3, 9, 18, 23, 3, 9, 18, 23, 9, 18, 23, 9, 18, 23, 4, 4, 4, 3, 3, 3, 6, 5, 9, 9, 9, 9, 1049, 1033, 1075, 1070, 1049, 1033, 1075, 1070, 1049, 1038, 1025, 1042, 1033, 1073, 1075, 1057, 1062, 1070, 1079, 1080, 1049, 1038, 1025, 1042, 1033, 1073, 1075, 1057, 1062, 1070, 1079, 1080, 1053, 1061, 955, 1071, 1079, 1053, 1061, 955, 1071, 1079, 8, 5, 5, 5, 8, 5, 1013, 1013, 1013, 1013, 1013, 1038, 1025, 1042, 1073, 1057, 1062, 1079, 1080, 1038, 1025, 1042, 1073, 1057, 1062, 1079, 1080, 8, 8, 5, 17, 15, 5, 17, 15, 5, 17, 15, 6, 10, 1049, 1038, 1025, 1042, 1033, 1073, 1063, 1075, 1057, 1062, 1074, 1062, 1028, 1070, 1067, 1072, 1005, 977, 1079, 1080, 1065, 1081, 1063, 1062, 1074, 1028, 1067, 1072, 1005, 977, 1065, 1081, 1063, 1062, 1074, 1028, 1067, 1072, 1005, 977, 1065, 1081, 977, 977, 1063, 1062, 1074, 1028, 1067, 1072, 1005, 1065, 1081, 1063, 1062, 1074, 1028, 1067, 1072, 1005, 1065, 1081, 1049, 1038, 1025, 1042, 1033, 1073, 1063, 1075, 1057, 1062, 1074, 1062, 1013, 1028, 1070, 1067, 1072, 1005, 977, 1079, 1080, 1065, 1081, 4, 8, 3, 7, 8, 3, 8, 4, 8, 3, 7, 4, 8, 3, 7, 3, 4, 7, 4, 7, 9, 16, 16, 16, 16, 16, 26, 26, 26] p=0.63"]
S2 -> S263 [label="2 [44, 44, 44, 44, 37, 44, 37, 44, 37, 54, 29, 29, 24, 31, 27, 27, 28, 31, 29, 30, 24, 27, 24, 28, 31, 29, 30, 54, 29, 29, 24, 26, 31, 27, 27, 28, 31, 29, 30, 24, 27, 54, 29, 29, 24, 26, 31, 27, 27, 28, 31, 29, 30, 24, 27, 24, 28, 31, 29, 30, 54, 29, 29, 31, 27, 27, 24, 27, 54, 29, 29, 31, 27, 27, 24, 27, 44, 54, 37, 29, 29, 24, 26, 31, 27, 27, 28, 31, 29, 30, 24, 27, 54, 29, 29, 24, 26, 31, 27, 27, 28, 31, 29, 30, 24, 27, 44, 54, 37, 29, 29, 24, 26, 31, 27, 27, 28, 31, 29, 30, 24, 27, 2277, 23, 32, 29, 19, 22, 46, 37, 41, 25, 31, 32, 29, 19, 22, 25, 31, 32, 29, 19, 22, 46, 41, 25, 31, 29, 22, 25, 31, 29, 22, 25, 31, 29, 22, 25, 31, 2277, 2619, 23, 32, 29, 19, 22, 46, 37, 41, 25, 31, 2619, 2619, 2619, 2619, 2619, 2619, 32, 19, 19, 32, 19, 46, 41, 46, 41, 46, 41, 44, 54, 37, 29, 29, 192, 1307, 1904, 2277, 2910, 2630, 2619, 2685, 2166, 2658, 2237, 1869, 1362, 278, 23, 32, 24, 26, 31, 27, 27, 830, 1114, 1325, 29, 19, 29, 22, 28, 46, 31, 37, 29, 41, 30, 24, 27, 282, 25, 254, 165, 31, 192, 1307, 1904, 2277, 2910, 2630, 2619, 2685, 2166, 2658, 2237, 1869, 1362, 278, 23, 32, 830, 1114, 1325, 29, 19, 29, 22, 46, 37, 41, 282, 25, 254, 165, 31, 192, 1904, 2910, 2630, 2685, 2166, 2658, 2237, 1869, 1362, 278, 830, 1114, 1325, 29, 282, 254, 165, 192, 1307, 1904, 2910, 2630, 2685, 2166, 2658, 2237, 1869, 1362, 278, 830, 1114, 1325, 29, 282, 254, 165, 192, 1904, 2685, 2658, 2237, 1869, 1362, 278, 830, 1114, 1325, 29, 282, 165, 1904, 2685, 2658, 2237, 1869, 1362, 278, 830, 1114, 1325, 29, 282, 165, 2237, 1362, 830, 1114, 165, 2237, 1362, 830, 1114, 29, 282, 165, 1362, 830, 1114, 165, 1307, 192, 29, 282, 1307, 1307, 192, 192, 29, 282, 44, 54, 37, 29, 29, 192, 1307, 1904, 6, 2277, 2910, 2630, 2619, 2685, 2166, 2658, 2237, 1869, 1362, 6, 278, 20, 5, 23, 32, 24, 4, 26, 31, 27, 27, 830, 1114, 1325, 29, 19, 29, 22, 28, 46, 31, 4, 37, 29, 41, 30, 24, 27, 282, 25, 254, 165, 31, 4, 2910, 2630, 2910, 2630, 2910, 2630, 2166, 2166, 2910, 2630, 2166, 2910, 2630, 2166, 254, 254, 254, 254, 2166, 254, 1904, 2685, 2658, 1869, 1904, 2685, 2658, 1869, 1904, 2685, 2658, 1869, 278, 1325, 278, 1325, 1325, 2237, 37, 37, 37, 1307, 1307, 1307, 192, 46, 41, 2277, 2277, 2277, 2277, 2277, 23, 37, 23, 37, 37, 37, 37, 26, 26, 26, 278, 32, 23, 23, 23] p=0.37"]
S4 -> S1 [label="7 [16, 16, 16, 16, 16, 16, 16, 16, 16, 16] p=0.01"]
S4 -> S1 [label="4 [4, 14, 18, 11, 6, 4, 20, 10, 13, 4, 14, 3, 11, 4, 14, 18, 11, 6, 4, 20, 10, 13, 4, 14, 3, 4, 14, 14, 7, 18, 11, 11, 3, 6, 4, 4, 20, 10, 15, 7, 13, 3, 4, 14, 6, 3, 10, 11, 14, 18, 6, 4, 20, 10, 13, 4, 14, 3, 14, 18, 6, 4, 20, 10, 13, 4, 14, 3, 4, 14, 14, 7, 18, 11, 11, 3, 6, 4, 4, 20, 10, 15, 7, 13, 3, 4, 14, 6, 3, 10, 4, 4, 4, 4, 4, 2641, 2641, 2641, 2641, 2641, 2641, 2641, 2641, 2641, 30, 30, 30, 30, 30, 30, 30, 1232, 2053, 1853, 2130, 1609, 1575, 1533, 1853, 979, 2643, 3041, 1601, 1877, 2099, 1906, 1326, 1129, 950, 615, 945, 1575, 979, 2643, 1601, 2099, 1906, 1326, 615, 945, 1575, 979, 2643, 1601, 2099, 1906, 1326, 615, 945, 1232, 2053, 1853, 2130, 1609, 1575, 1533, 1853, 979, 2643, 3041, 2641, 1601, 1877, 2099, 1906, 1326, 1129, 950, 615, 945, 48, 59, 20, 71, 68, 7, 67, 23, 22, 5, 24, 53, 16, 35, 8, 48, 59, 20, 71, 68, 7, 67, 23, 59, 22, 5, 24, 53, 16, 35, 8, 14, 11, 3, 4, 15, 3, 6, 10, 14, 11, 3, 4, 15, 3, 6, 10, 14, 7, 11, 3, 4, 15, 7, 3, 6, 10, 14, 7, 11, 3, 4, 15, 7, 3, 6, 10, 7, 7, 7, 7, 1232, 2053, 1853, 2130, 1609, 1533, 1853, 3041, 1877, 1129, 950, 1232, 2053, 1853, 2130, 1609, 1533, 1853, 3041, 1877, 1129, 950, 1624, 1659, 1624, 1659, 2641, 2641, 2641, 59, 1066, 1232, 1445, 2053, 1624, 1853, 2130, 1516, 1609, 1575, 1533, 1853, 979, 2643, 3041, 2641, 1601, 1877, 2099, 1906, 1659, 1326, 1129, 1670, 950, 615, 945, 329, 1624, 1659, 1066, 1232, 1445, 2053, 1624, 1853, 2130, 1516, 1609, 1575, 1533, 1853, 979, 2643, 3041, 2641, 1601, 1877, 2099, 1906, 1659, 1326, 1129, 1670, 950, 615, 945, 329, 276, 380, 152, 91, 108, 7, 34, 17, 26, 40, 26, 50, 11, 73, 22, 48, 34, 30, 24, 1066, 60, 4, 1232, 1445, 3, 14, 14, 7, 2053, 48, 18, 11, 1624, 19, 11, 3, 1853, 59, 6, 2130, 1516, 66, 4, 4, 1609, 20, 1575, 71, 20, 1533, 68, 10, 15, 7, 1853, 7, 979, 67, 2643, 23, 13, 3, 3041, 30, 2641, 59, 1601, 22, 4, 1877, 5, 2099, 24, 1906, 53, 1659, 185, 1326, 16, 14, 6, 1129, 1670, 7, 3, 10, 950, 35, 615, 8, 945, 329, 8, 276, 380, 4, 152, 91, 108, 7, 34, 17, 26, 40, 26, 50, 11, 73, 22, 48, 34, 30, 24, 1624, 1659, 1232, 1445, 2053, 1853, 2130, 1516, 1609, 1575, 1533, 1853, 979, 2643, 3041, 2641, 1601, 1877, 2099, 1906, 1326, 1129, 1670, 950, 615, 945, 329, 1624, 1659, 1232, 1445, 2053, 1853, 2130, 1516, 1609, 1575, 1533, 1853, 979, 2643, 3041, 2641, 1601, 1877, 2099, 1906, 1326, 1129, 1670, 950, 615, 945, 329, 1445, 1516, 1670, 329, 1445, 1516, 1670, 329, 1445, 1516, 1670, 329, 1624, 1659, 1445, 1516, 1670, 329, 1066, 60, 4, 1232, 1445, 3, 14, 14, 7, 2053, 48, 18, 11, 1624, 19, 11, 3, 1853, 59, 6, 2130, 1516, 66, 4, 4, 1609, 20, 1575, 71, 20, 1533, 68, 10, 15, 7, 1853, 7, 979, 67, 2643, 23, 13, 3, 3041, 2641, 30, 2641, 59, 1601, 22, 4, 1877, 5, 2099, 24, 1906, 53, 1659, 185, 1326, 16, 14, 6, 1129, 1670, 7, 3, 10, 950, 35, 615, 8, 945, 329, 8, 276, 380, 4, 152, 91, 108, 7, 34, 17, 26, 40, 26, 50, 11, 73, 22, 48, 34, 30, 24, 60, 3, 48, 19, 59, 66, 20, 71, 68, 7, 67, 23, 59, 22, 5, 24, 53, 185, 16, 7, 35, 8, 8, 19, 185, 60, 3, 48, 19, 59, 66, 20, 71, 68, 7, 67, 23, 59, 22, 5, 24, 53, 185, 16, 7, 35, 8, 8, 4, 60, 4, 3, 14, 14, 7, 48, 18, 11, 19, 11, 3, 59, 6, 66, 4, 4, 20, 71, 20, 68, 10, 15, 7, 7, 67, 23, 13, 3, 59, 22, 4, 5, 24, 53, 185, 16, 14, 6, 7, 3, 10, 35, 8, 8, 4, 19, 185, 3, 48, 59, 66, 20, 71, 68, 7, 67, 23, 59, 22, 5, 24, 53, 16, 7, 35, 8, 8, 19, 185, 3, 66, 7, 8, 3, 66, 7, 8, 3, 48, 59, 66, 20, 71, 68, 7, 67, 23, 59, 22, 5, 24, 53, 16, 7, 35, 8, 8, 19, 185, 60, 4, 3, 14, 14, 7, 48, 18, 11, 19, 11, 3, 59, 6, 66, 4, 4, 20, 71, 20, 68, 10, 15, 7, 7, 67, 23, 13, 3, 30, 59, 22, 4, 5, 24, 53, 185, 16, 14, 6, 7, 3, 10, 35, 8, 8, 4, 276, 380, 152, 91, 108, 7, 34, 26, 40, 26, 50, 11, 73, 22, 48, 34, 30, 24, 7, 34, 50, 11, 73, 22, 48, 7, 7, 7, 276, 380, 152, 91, 108, 7, 34, 17, 26, 40, 26, 50, 11, 73, 22, 48, 34, 30, 24, 276, 380, 152, 91, 108, 7, 34, 17, 26, 40, 26, 50, 11, 73, 22, 48, 34, 30, 24, 34, 50, 11, 73, 48, 34, 50, 11, 73, 22, 48, 34, 50, 11, 73, 22, 48, 276, 380, 152, 91, 108, 26, 40, 26, 34, 30, 24, 380, 91, 108, 26, 40, 26, 34, 30, 24, 276, 380, 152, 91, 108, 26, 40, 26, 34, 30, 24, 276, 152, 276, 152, 380, 91, 108, 26, 40, 26, 34, 30, 24, 17, 17, 17, 17, 17, 22] p=0.99"]
S263 -> S265 [label="3 [153, 153, 153, 233, 153, 233, 153, 233, 57, 327, 311, 588, 458, 581, 623, 427, 418, 418, 528, 576, 512, 588, 427, 418, 418, 528, 57, 327, 311, 588, 565, 458, 581, 623, 427, 418, 418, 528, 576, 512, 57, 327, 311, 588, 565, 458, 581, 623, 427, 418, 418, 528, 576, 512, 57, 327, 311, 458, 581, 623, 576, 512, 153, 57, 233, 327, 311, 588, 565, 458, 581, 623, 427, 418, 418, 528, 576, 512, 57, 327, 311, 588, 565, 458, 581, 623, 427, 418, 418, 528, 576, 512, 153, 57, 233, 327, 311, 588, 565, 458, 581, 623, 427, 418, 418, 528, 576, 512, 153, 57, 233, 327, 311, 579, 762, 656, 505, 588, 565, 458, 581, 623, 677, 662, 548, 449, 409, 517, 393, 427, 209, 418, 307, 418, 227, 528, 576, 512, 802, 718, 813, 795, 663, 579, 762, 656, 505, 677, 662, 548, 449, 409, 517, 393, 209, 307, 227, 802, 718, 813, 795, 663, 579, 762, 677, 662, 548, 517, 802, 813, 795, 579, 762, 677, 662, 548, 517, 802, 813, 795, 579, 762, 677, 662, 548, 517, 802, 795, 762, 677, 662, 548, 517, 802, 795, 677, 662, 795, 677, 662, 517, 802, 795, 579, 517, 802, 579, 579, 153, 57, 233, 327, 311, 579, 14, 33, 762, 18, 2, 656, 505, 588, 4, 565, 458, 581, 623, 677, 662, 548, 449, 409, 517, 393, 427, 209, 418, 17, 307, 418, 227, 528, 576, 512, 802, 718, 813, 795, 663, 16, 153, 57, 233, 327, 311, 579, 636, 632, 14, 617, 686, 762, 663, 742, 650, 692, 803, 777, 759, 33, 762, 18, 2, 656, 505, 588, 4, 565, 458, 581, 623, 677, 662, 548, 449, 409, 517, 393, 427, 209, 418, 17, 307, 418, 227, 528, 576, 512, 802, 718, 813, 795, 663, 16, 636, 632, 617, 686, 762, 663, 742, 650, 692, 803, 777, 759, 636, 636, 636, 636, 632, 686, 762, 650, 692, 803, 777, 759, 632, 686, 762, 650, 692, 803, 777, 759, 636, 632, 617, 686, 762, 663, 650, 692, 803, 777, 759, 636, 632, 617, 686, 762, 663, 650, 692, 803, 777, 759, 632, 692, 803, 777, 759, 632, 692, 803, 777, 759, 636, 632, 617, 686, 762, 663, 650, 692, 803, 777, 759, 636, 632, 617, 686, 762, 663, 742, 650, 692, 803, 777, 759, 742, 742, 742, 742, 742, 742, 742, 656, 505, 449, 409, 393, 209, 307, 227, 718, 663, 505, 449, 409, 393, 718, 663, 505, 449, 409, 393, 209, 227, 718, 663, 449, 393, 718, 663, 449, 393, 718, 663, 656, 505, 449, 409, 393, 209, 307, 227, 718, 663, 505, 409, 505, 409, 617, 617, 663, 663, 663, 663, 762, 548, 762, 548, 209, 227, 209, 227, 209, 227, 813, 813, 813, 813, 686, 762, 650, 686, 762, 650, 233, 233, 656, 307, 307, 656, 307, 307, 565, 565, 656, 656, 617, 617] p=0.79"]
S263 -> S415 [label="1 [51, 51, 51, 51, 51, 51, 32, 18, 24, 23, 23, 21, 27, 30, 39, 32, 18, 24, 23, 23, 21, 27, 30, 39, 51, 32, 18, 18, 24, 24, 23, 23, 21, 27, 30, 39, 51, 32, 18, 18, 24, 24, 23, 23, 21, 27, 30, 39, 32, 23, 21, 27, 30, 39, 32, 23, 21, 27, 30, 39, 27, 39, 27, 39, 51, 32, 18, 18, 24, 24, 23, 23, 21, 27, 30, 39, 51, 32, 18, 18, 24, 24, 23, 9, 23, 21, 27, 30, 39, 9, 9, 9, 9, 9, 9, 9, 9, 9, 18, 18, 24, 24, 24, 24, 24, 24, 32, 23, 21, 30, 32, 23, 21, 30, 18, 24, 18, 24, 23, 23, 18, 24, 23, 18, 24, 23, 18, 18, 18, 18] p=0.21"]
S415 -> S263 [label="2 [67, 181, 430, 371, 249, 392, 291, 6, 405, 357, 236, 237, 122, 67, 67, 67, 67, 181, 371, 249, 291, 405, 357, 236, 237, 122, 181, 371, 249, 291, 405, 357, 236, 237, 122, 67, 181, 430, 371, 249, 392, 291, 405, 357, 236, 237, 122, 67, 181, 430, 371, 249, 392, 291, 405, 357, 236, 237, 122, 181, 291, 357, 236, 237, 122, 181, 291, 357, 236, 237, 122, 236, 122, 67, 181, 430, 371, 249, 392, 291, 405, 357, 236, 237, 122, 67, 181, 430, 371, 249, 392, 291, 6, 405, 357, 236, 237, 122, 6, 6, 6, 6, 6, 6, 6, 6, 430, 430, 392, 392, 392, 392, 392, 181, 291, 357, 237, 371, 249, 405, 371, 249, 405, 371, 249, 405, 67, 430, 430, 430] p=1.0"]
S265 -> S1 [label="4 [895, 971, 819, 731, 743, 490, 409, 551, 495, 592, 483, 446, 403, 401, 9, 227, 656, 11, 285, 118, 464, 368, 139, 430, 526, 488, 568, 264, 349, 256, 279, 490, 409, 551, 403, 401, 9, 227, 656, 11, 285, 464, 368, 430, 264, 349, 256, 279, 490, 403, 401, 9, 11, 264, 256, 279, 490, 403, 401, 9, 11, 264, 256, 279, 490, 403, 401, 9, 11, 264, 279, 403, 401, 9, 11, 264, 279, 403, 401, 11, 264, 279, 490, 490, 895, 971, 819, 731, 743, 490, 205, 109, 267, 409, 551, 456, 495, 592, 483, 446, 403, 401, 9, 227, 656, 11, 285, 118, 464, 100, 368, 139, 430, 526, 488, 568, 264, 349, 256, 279, 895, 971, 819, 731, 743, 490, 325, 205, 9, 10, 44, 9, 11, 9, 9, 8, 33, 109, 267, 409, 551, 456, 495, 592, 483, 446, 403, 401, 9, 227, 656, 11, 285, 118, 464, 100, 368, 139, 430, 526, 488, 568, 264, 349, 256, 279, 325, 9, 10, 44, 9, 11, 9, 9, 8, 33, 325, 325, 325, 10, 44, 9, 9, 8, 33, 10, 44, 9, 9, 8, 33, 325, 9, 10, 44, 9, 9, 9, 8, 33, 325, 9, 10, 44, 9, 9, 9, 8, 33, 9, 8, 33, 325, 9, 10, 44, 9, 9, 9, 8, 33, 325, 9, 10, 44, 9, 11, 9, 9, 8, 33, 11, 11, 11, 11, 11, 11, 409, 551, 227, 656, 285, 464, 368, 430, 349, 551, 227, 656, 285, 349, 551, 227, 656, 285, 464, 430, 349, 227, 285, 349, 409, 551, 227, 656, 285, 464, 368, 430, 349, 551, 656, 9, 9, 9, 9, 9, 9, 895, 971, 819, 731, 743, 495, 592, 483, 446, 118, 139, 526, 488, 568, 971, 731, 743, 495, 592, 483, 446, 118, 139, 526, 488, 568, 895, 971, 819, 731, 743, 495, 592, 483, 446, 118, 139, 526, 488, 568, 464, 430, 464, 430, 256, 256, 256, 10, 44, 9, 819, 895, 895, 819, 895, 819, 895, 819, 971, 731, 743, 592, 483, 446, 118, 139, 526, 488, 568, 971, 731, 743, 495, 592, 483, 446, 118, 139, 526, 488, 568, 971, 731, 743, 495, 592, 483, 446, 118, 139, 526, 488, 568, 205, 109, 205, 109, 205, 109, 205, 109, 205, 109, 205, 109, 205, 109, 267, 456, 100, 267, 456, 100, 456, 100, 456, 100, 456, 100, 456, 100, 456, 100, 409, 368, 368, 409, 368, 267, 267, 267, 267, 267, 495, 409, 9] p=0.87"]
S265 -> S502 [label="2 [6, 6, 6, 6, 6, 6, 6, 6, 6, 6, 6, 6, 6, 6, 6, 6, 6, 6, 20, 5, 4, 4, 4, 20, 20, 20, 20, 20, 4, 20, 4, 4, 4, 20, 5, 4, 4, 4, 4, 4, 4, 4, 4, 20, 4, 4, 4, 4, 4, 4, 4, 4, 4, 4, 4, 4, 5, 5, 5, 5, 5, 5, 5] p=0.13"]
S502 -> S265 [label="3 [14, 33, 14, 33, 14, 33, 14, 33, 14, 33, 14, 33, 14, 33, 14, 33, 18, 2, 4, 17, 16, 18, 18, 18, 18, 18, 16, 18, 4, 17, 16, 18, 2, 4, 17, 16, 16, 16, 16, 16, 4, 17, 4, 17, 4, 17, 4, 17, 4, 17, 2, 2, 2, 2, 2, 2] p=1.0"]